{
    "goal": {
        "global_pose": {
            "orientation": {
                "w": 0.7047431468963623,
                "x": -0.7094548344612122,
                "y": 0.0024358443915843964,
                "z": -0.0022348060738295317
            },
            "position": {
                "x": 0.6094750761985779,
                "y": 0.3671506643295288,
                "z": 0.19426114857196808
            }
        },
        "name": "move_to_magneteinheit_A"
    },
    "id": "BiTRRT_move_to_magneteinheit_A_32",
    "joint_names": [
        "shoulder_pan_joint",
        "shoulder_lift_joint",
        "elbow_joint",
        "wrist_1_joint",
        "wrist_2_joint",
        "wrist_3_joint"
    ],
    "metrics": {
        "cart_traj_len": 3.758461546278258,
        "distance_elbow_joint": 3.882373863015883,
        "distance_shoulder_lift_joint": 0.33308732401189167,
        "distance_shoulder_pan_joint": 2.927513642304099,
        "distance_wrist_1_joint": 0.968027032359086,
        "distance_wrist_2_joint": 2.046041776606031,
        "distance_wrist_3_joint": 3.667755849013161,
        "smoothness": 0.2058386884720055,
        "time": 0.132599391,
        "traj_len": 3.718171524729615,
        "weighted_distance": 4.916744857555819
    },
    "planner": "BiTRRT",
    "start": {
        "state": {
            "elbow_joint": -1.919618573717145,
            "shoulder_lift_joint": -1.2443395971678275,
            "shoulder_pan_joint": 2.6996025300909787,
            "wrist_1_joint": -1.548550951253194,
            "wrist_2_joint": -1.5709469090946802,
            "wrist_3_joint": 0.4420197732051276
        }
    },
    "waypoints": [
        {
            "positions": [
                2.6996025300909787,
                -1.2443395971678275,
                -1.919618573717145,
                -1.548550951253194,
                -1.5709469090946802,
                0.4420197732051276
            ]
        },
        {
            "positions": [
                2.610810243872341,
                -1.2372037660166617,
                -1.8116047533939497,
                -1.51985899701347,
                -1.5104805918201747,
                0.35038492468519994
            ]
        },
        {
            "positions": [
                2.5220179576537025,
                -1.2300679348654961,
                -1.7035909330707544,
                -1.4911670427737458,
                -1.450014274545669,
                0.25875007616527235
            ]
        },
        {
            "positions": [
                2.4332256714350646,
                -1.2229321037143304,
                -1.5955771127475593,
                -1.4624750885340216,
                -1.3895479572711635,
                0.1671152276453447
            ]
        },
        {
            "positions": [
                2.3444333852164267,
                -1.2157962725631648,
                -1.487563292424364,
                -1.4337831342942975,
                -1.3290816399966578,
                0.07548037912541705
            ]
        },
        {
            "positions": [
                2.255641098997789,
                -1.208660441411999,
                -1.3795494721011687,
                -1.4050911800545731,
                -1.2686153227221522,
                -0.01615446939451054
            ]
        },
        {
            "positions": [
                2.1668488127791505,
                -1.2015246102608335,
                -1.2715356517779735,
                -1.3763992258148492,
                -1.2081490054476467,
                -0.10778931791443819
            ]
        },
        {
            "positions": [
                2.0780565265605127,
                -1.1943887791096677,
                -1.1635218314547782,
                -1.3477072715751248,
                -1.1476826881731412,
                -0.19942416643436583
            ]
        },
        {
            "positions": [
                1.9892642403418748,
                -1.1872529479585021,
                -1.0555080111315829,
                -1.3190153173354007,
                -1.0872163708986355,
                -0.2910590149542935
            ]
        },
        {
            "positions": [
                1.9004719541232364,
                -1.1801171168073363,
                -0.9474941908083877,
                -1.2903233630956765,
                -1.0267500536241299,
                -0.38269386347422113
            ]
        },
        {
            "positions": [
                1.8116796679045986,
                -1.1729812856561708,
                -0.8394803704851925,
                -1.2616314088559524,
                -0.9662837363496244,
                -0.47432871199414867
            ]
        },
        {
            "positions": [
                1.7228873816859607,
                -1.165845454505005,
                -0.7314665501619972,
                -1.2329394546162282,
                -0.9058174190751188,
                -0.5659635605140765
            ]
        },
        {
            "positions": [
                1.6340950954673226,
                -1.1587096233538392,
                -0.623452729838802,
                -1.204247500376504,
                -0.8453511018006133,
                -0.6575984090340039
            ]
        },
        {
            "positions": [
                1.5453028092486845,
                -1.1515737922026736,
                -0.5154389095156067,
                -1.17555554613678,
                -0.7848847845261077,
                -0.7492332575539316
            ]
        },
        {
            "positions": [
                1.4565105230300466,
                -1.1444379610515079,
                -0.4074250891924116,
                -1.1468635918970558,
                -0.7244184672516022,
                -0.8408681060738592
            ]
        },
        {
            "positions": [
                1.3677182368114085,
                -1.1373021299003423,
                -0.2994112688692163,
                -1.1181716376573316,
                -0.6639521499770965,
                -0.9325029545937868
            ]
        },
        {
            "positions": [
                1.2789259505927706,
                -1.1301662987491765,
                -0.19139744854602103,
                -1.0894796834176073,
                -0.603485832702591,
                -1.0241378031137145
            ]
        },
        {
            "positions": [
                1.1901336643741327,
                -1.123030467598011,
                -0.08338362822282597,
                -1.0607877291778833,
                -0.5430195154280855,
                -1.115772651633642
            ]
        },
        {
            "positions": [
                1.1013413781554944,
                -1.1158946364468452,
                0.02463019210036954,
                -1.032095774938159,
                -0.4825531981535798,
                -1.2074075001535698
            ]
        },
        {
            "positions": [
                1.0125490919368565,
                -1.1087588052956796,
                0.1326440124235646,
                -1.0034038206984348,
                -0.4220868808790743,
                -1.2990423486734974
            ]
        },
        {
            "positions": [
                0.9237568057182186,
                -1.1016229741445138,
                0.2406578327467599,
                -0.9747118664587107,
                -0.3616205636045686,
                -1.3906771971934249
            ]
        },
        {
            "positions": [
                0.8349645194995805,
                -1.0944871429933483,
                0.3486716530699552,
                -0.9460199122189865,
                -0.30115424633006316,
                -1.4823120457133525
            ]
        },
        {
            "positions": [
                0.7461722332809424,
                -1.0873513118421825,
                0.45668547339315047,
                -0.9173279579792623,
                -0.24068792905555747,
                -1.5739468942332806
            ]
        },
        {
            "positions": [
                0.6573799470623043,
                -1.0802154806910167,
                0.5646992937163458,
                -0.8886360037395381,
                -0.180221611781052,
                -1.6655817427532078
            ]
        },
        {
            "positions": [
                0.5685876608436664,
                -1.0730796495398511,
                0.672713114039541,
                -0.8599440494998141,
                -0.11975529450654654,
                -1.7572165912731355
            ]
        },
        {
            "positions": [
                0.4797953746250285,
                -1.0659438183886853,
                0.7807269343627359,
                -0.8312520952600899,
                -0.05928897723204085,
                -1.848851439793063
            ]
        },
        {
            "positions": [
                0.3910030884063902,
                -1.0588079872375198,
                0.8887407546859316,
                -0.8025601410203657,
                0.0011773400424648361,
                -1.9404862883129907
            ]
        },
        {
            "positions": [
                0.3022108021877523,
                -1.051672156086354,
                0.9967545750091265,
                -0.7738681867806415,
                0.0616436573169703,
                -2.0321211368329184
            ]
        },
        {
            "positions": [
                0.21341851596911443,
                -1.0445363249351884,
                1.1047683953323217,
                -0.7451762325409174,
                0.12210997459147577,
                -2.123755985352846
            ]
        },
        {
            "positions": [
                0.12462622975047655,
                -1.0374004937840227,
                1.212782215655517,
                -0.7164842783011932,
                0.18257629186598145,
                -2.2153908338727737
            ]
        },
        {
            "positions": [
                0.03583394353183822,
                -1.0302646626328569,
                1.3207960359787123,
                -0.687792324061469,
                0.24304260914048714,
                -2.3070256823927013
            ]
        },
        {
            "positions": [
                -0.05295834268679969,
                -1.0231288314816913,
                1.4288098563019078,
                -0.6591003698217448,
                0.3035089264149927,
                -2.398660530912629
            ]
        },
        {
            "positions": [
                -0.02028256897536474,
                -1.0443257057974022,
                1.530215231259319,
                -0.6741784556347686,
                0.2706328244385453,
                -2.5594542905397875
            ]
        },
        {
            "positions": [
                0.01239320473607021,
                -1.0655225801131134,
                1.63162060621673,
                -0.6892565414477925,
                0.2377567224620979,
                -2.7202480501669464
            ]
        },
        {
            "positions": [
                0.04506897844750517,
                -1.0867194544288243,
                1.733025981174141,
                -0.7043346272608162,
                0.20488062048565048,
                -2.881041809794105
            ]
        },
        {
            "positions": [
                0.07774475215894011,
                -1.1079163287445355,
                1.8344313561315522,
                -0.71941271307384,
                0.17200451850920306,
                -3.0418355694212638
            ]
        },
        {
            "positions": [
                0.11042052587037506,
                -1.1291132030602464,
                1.9358367310889633,
                -0.7344907988868639,
                0.13912841653275565,
                -3.2026293290484222
            ]
        },
        {
            "positions": [
                0.12199442683952011,
                -1.1350053898074468,
                1.9627552892987383,
                -0.7376768207493816,
                0.13192298531863447,
                -3.2257360758080336
            ]
        }
    ]
}{
    "goal": {
        "global_pose": {
            "orientation": {
                "w": 0.7047431468963623,
                "x": -0.7094548344612122,
                "y": 0.0024358443915843964,
                "z": -0.0022348060738295317
            },
            "position": {
                "x": 0.6094750761985779,
                "y": 0.3671506643295288,
                "z": 0.19426114857196808
            }
        },
        "name": "move_to_magneteinheit_A"
    },
    "id": "BiTRRT_move_to_magneteinheit_A_32",
    "joint_names": [
        "shoulder_pan_joint",
        "shoulder_lift_joint",
        "elbow_joint",
        "wrist_1_joint",
        "wrist_2_joint",
        "wrist_3_joint"
    ],
    "metrics": {
        "cart_traj_len": 1.2239949599599445,
        "distance_elbow_joint": 0.06094850383345585,
        "distance_shoulder_lift_joint": 0.7829963546925303,
        "distance_shoulder_pan_joint": 1.2413903744792574,
        "distance_wrist_1_joint": 0.7677210946517737,
        "distance_wrist_2_joint": 1.4448752415501058,
        "distance_wrist_3_joint": 4.270001436292702,
        "smoothness": 0.08100858263781958,
        "time": 0.09551391,
        "traj_len": 2.927103176435676,
        "weighted_distance": 4.395512736221693
    },
    "planner": "BiTRRT",
    "start": {
        "state": {
            "elbow_joint": 1.919643534880228,
            "shoulder_lift_joint": -1.8972525353963687,
            "shoulder_pan_joint": -1.1188672234189438,
            "wrist_1_joint": -1.5931878212786155,
            "wrist_2_joint": 1.5706036197970081,
            "wrist_3_joint": 1.118896926603594
        }
    },
    "waypoints": [
        {
            "positions": [
                -1.1188672234189438,
                -1.8972525353963687,
                1.919643534880228,
                -1.5931878212786155,
                1.5706036197970081,
                1.118896926603594
            ]
        },
        {
            "positions": [
                -1.063692068260551,
                -1.8623211913324762,
                1.9202053049587373,
                -1.5583306724677946,
                1.5049963918125635,
                0.9286448861688353
            ]
        },
        {
            "positions": [
                -1.008516913102158,
                -1.8273898472685839,
                1.9207670750372465,
                -1.5234735236569734,
                1.4393891638281189,
                0.7383928457340767
            ]
        },
        {
            "positions": [
                -0.9533417579437653,
                -1.7924585032046916,
                1.9213288451157557,
                -1.4886163748461525,
                1.3737819358436743,
                0.5481408052993181
            ]
        },
        {
            "positions": [
                -0.8981666027853725,
                -1.757527159140799,
                1.921890615194265,
                -1.4537592260353314,
                1.3081747078592296,
                0.35788876486455934
            ]
        },
        {
            "positions": [
                -0.8429914476269796,
                -1.7225958150769065,
                1.9224523852727742,
                -1.4189020772245104,
                1.242567479874785,
                0.1676367244298007
            ]
        },
        {
            "positions": [
                -0.7878162924685868,
                -1.6876644710130142,
                1.9230141553512834,
                -1.3840449284136895,
                1.1769602518903404,
                -0.02261531600495781
            ]
        },
        {
            "positions": [
                -0.732641137310194,
                -1.6527331269491219,
                1.9235759254297926,
                -1.3491877796028684,
                1.1113530239058957,
                -0.21286735643971655
            ]
        },
        {
            "positions": [
                -0.6774659821518011,
                -1.6178017828852294,
                1.9241376955083018,
                -1.3143306307920475,
                1.0457457959214511,
                -0.4031193968744753
            ]
        },
        {
            "positions": [
                -0.6222908269934082,
                -1.5828704388213368,
                1.924699465586811,
                -1.2794734819812263,
                0.9801385679370064,
                -0.593371437309234
            ]
        },
        {
            "positions": [
                -0.5671156718350154,
                -1.5479390947574445,
                1.9252612356653203,
                -1.2446163331704054,
                0.9145313399525618,
                -0.7836234777439925
            ]
        },
        {
            "positions": [
                -0.5119405166766225,
                -1.5130077506935522,
                1.9258230057438293,
                -1.2097591843595845,
                0.8489241119681171,
                -0.9738755181787513
            ]
        },
        {
            "positions": [
                -0.4567653615182298,
                -1.4780764066296597,
                1.9263847758223385,
                -1.1749020355487634,
                0.7833168839836725,
                -1.1641275586135096
            ]
        },
        {
            "positions": [
                -0.4015902063598368,
                -1.4431450625657671,
                1.9269465459008477,
                -1.1400448867379425,
                0.7177096559992278,
                -1.3543795990482688
            ]
        },
        {
            "positions": [
                -0.346415051201444,
                -1.4082137185018748,
                1.927508315979357,
                -1.1051877379271215,
                0.6521024280147832,
                -1.544631639483027
            ]
        },
        {
            "positions": [
                -0.2912398960430512,
                -1.3732823744379825,
                1.9280700860578661,
                -1.0703305891163004,
                0.5864952000303386,
                -1.7348836799177858
            ]
        },
        {
            "positions": [
                -0.23606474088465834,
                -1.33835103037409,
                1.9286318561363753,
                -1.0354734403054793,
                0.5208879720458939,
                -1.9251357203525445
            ]
        },
        {
            "positions": [
                -0.18088958572626546,
                -1.3034196863101974,
                1.9291936262148845,
                -1.0006162914946586,
                0.45528074406144925,
                -2.1153877607873035
            ]
        },
        {
            "positions": [
                -0.12571443056787257,
                -1.2684883422463051,
                1.9297553962933938,
                -0.9657591426838374,
                0.3896735160770046,
                -2.3056398012220622
            ]
        },
        {
            "positions": [
                -0.0705392754094798,
                -1.2335569981824128,
                1.930317166371903,
                -0.9309019938730164,
                0.32406628809256,
                -2.495891841656821
            ]
        },
        {
            "positions": [
                -0.015364120251087021,
                -1.1986256541185203,
                1.9308789364504122,
                -0.8960448450621955,
                0.25845906010811537,
                -2.686143882091579
            ]
        },
        {
            "positions": [
                0.039811034907305975,
                -1.1636943100546278,
                1.9314407065289214,
                -0.8611876962513744,
                0.19285183212367074,
                -2.8763959225263385
            ]
        },
        {
            "positions": [
                0.09498619006569883,
                -1.1287629659907354,
                1.9320024766074306,
                -0.8263305474405535,
                0.12724460413922614,
                -3.0666479629610968
            ]
        },
        {
            "positions": [
                0.12252315106031356,
                -1.1432697512776324,
                1.980592038713684,
                -0.8254667266268417,
                0.12572837824690242,
                -3.1511045096891084
            ]
        }
    ]
}