{
    "goal": {
        "global_pose": {
            "orientation": {
                "w": 0.7047431468963623,
                "x": -0.7094548344612122,
                "y": 0.0024358443915843964,
                "z": -0.0022348060738295317
            },
            "position": {
                "x": 0.6094750761985779,
                "y": 0.3671506643295288,
                "z": 0.19426114857196808
            }
        },
        "name": "move_to_magneteinheit_A"
    },
    "id": "BiTRRT_move_to_magneteinheit_A_15",
    "joint_names": [
        "shoulder_pan_joint",
        "shoulder_lift_joint",
        "elbow_joint",
        "wrist_1_joint",
        "wrist_2_joint",
        "wrist_3_joint"
    ],
    "metrics": {
        "cart_traj_len": 3.8069373316960515,
        "distance_elbow_joint": 3.8781341005042727,
        "distance_shoulder_lift_joint": 1.1386426064971533,
        "distance_shoulder_pan_joint": 2.7902093877407617,
        "distance_wrist_1_joint": 1.8145504785904518,
        "distance_wrist_2_joint": 1.6961871147970988,
        "distance_wrist_3_joint": 2.6630796233966074,
        "smoothness": 0.1860954751076554,
        "time": 0.09856174100000001,
        "traj_len": 3.739091241401625,
        "weighted_distance": 4.776787639377232
    },
    "planner": "BiTRRT",
    "start": {
        "state": {
            "elbow_joint": -1.919618573717145,
            "shoulder_lift_joint": -1.2443395971678275,
            "shoulder_pan_joint": 2.6996025300909787,
            "wrist_1_joint": -1.548550951253194,
            "wrist_2_joint": -1.5709469090946802,
            "wrist_3_joint": 0.4420197732051276
        }
    },
    "waypoints": [
        {
            "positions": [
                2.6996025300909787,
                -1.2443395971678275,
                -1.919618573717145,
                -1.548550951253194,
                -1.5709469090946802,
                0.4420197732051276
            ]
        },
        {
            "positions": [
                2.5790139486015997,
                -1.2314355445921015,
                -1.8065035354767378,
                -1.4787142388175902,
                -1.5152159835915437,
                0.43888703662742923
            ]
        },
        {
            "positions": [
                2.458425367112221,
                -1.2185314920163755,
                -1.693388497236331,
                -1.4088775263819862,
                -1.4594850580884076,
                0.4357543000497309
            ]
        },
        {
            "positions": [
                2.337836785622842,
                -1.2056274394406492,
                -1.5802734589959238,
                -1.3390408139463823,
                -1.4037541325852712,
                0.43262156347203257
            ]
        },
        {
            "positions": [
                2.2172482041334636,
                -1.1927233868649232,
                -1.4671584207555166,
                -1.2692041015107784,
                -1.348023207082135,
                0.42948882689433426
            ]
        },
        {
            "positions": [
                2.0966596226440846,
                -1.1798193342891972,
                -1.3540433825151097,
                -1.1993673890751744,
                -1.2922922815789986,
                0.4263560903166359
            ]
        },
        {
            "positions": [
                1.976071041154706,
                -1.1669152817134711,
                -1.2409283442747026,
                -1.1295306766395705,
                -1.2365613560758624,
                0.4232233537389376
            ]
        },
        {
            "positions": [
                1.855482459665327,
                -1.154011229137745,
                -1.1278133060342954,
                -1.0596939642039667,
                -1.180830430572726,
                0.42009061716123924
            ]
        },
        {
            "positions": [
                1.7348938781759484,
                -1.1411071765620189,
                -1.0146982677938885,
                -0.9898572517683627,
                -1.1250995050695898,
                0.41695788058354094
            ]
        },
        {
            "positions": [
                1.6143052966865694,
                -1.1282031239862929,
                -0.9015832295534815,
                -0.9200205393327587,
                -1.0693685795664534,
                0.4138251440058426
            ]
        },
        {
            "positions": [
                1.5254969294661433,
                -1.0999410932006766,
                -0.8110075428187634,
                -0.8816069179456945,
                -1.0090213992038557,
                0.49093035550437064
            ]
        },
        {
            "positions": [
                1.4366885622457175,
                -1.0716790624150605,
                -0.7204318560840455,
                -0.8431932965586301,
                -0.9486742188412581,
                0.5680355670028987
            ]
        },
        {
            "positions": [
                1.3478801950252914,
                -1.0434170316294442,
                -0.6298561693493274,
                -0.8047796751715658,
                -0.8883270384786606,
                0.6451407785014268
            ]
        },
        {
            "positions": [
                1.2590718278048656,
                -1.0151550008438281,
                -0.5392804826146094,
                -0.7663660537845014,
                -0.827979858116063,
                0.7222459899999549
            ]
        },
        {
            "positions": [
                1.1702634605844393,
                -0.9868929700582119,
                -0.44870479587989137,
                -0.7279524323974371,
                -0.7676326777534653,
                0.7993512014984829
            ]
        },
        {
            "positions": [
                1.0814550933640135,
                -0.9586309392725956,
                -0.3581291091451734,
                -0.6895388110103728,
                -0.7072854973908678,
                0.876456412997011
            ]
        },
        {
            "positions": [
                0.9926467261435875,
                -0.9303689084869794,
                -0.2675534224104553,
                -0.6511251896233085,
                -0.6469383170282701,
                0.9535616244955392
            ]
        },
        {
            "positions": [
                0.9038383589231616,
                -0.9021068777013632,
                -0.17697773567573738,
                -0.6127115682362441,
                -0.5865911366656726,
                1.0306668359940672
            ]
        },
        {
            "positions": [
                0.8150299917027355,
                -0.8738448469157469,
                -0.08640204894101933,
                -0.5742979468491798,
                -0.526243956303075,
                1.1077720474925954
            ]
        },
        {
            "positions": [
                0.7262216244823094,
                -0.8455828161301308,
                0.004173637793698726,
                -0.5358843254621155,
                -0.4658967759404773,
                1.1848772589911234
            ]
        },
        {
            "positions": [
                0.6374132572618835,
                -0.8173207853445146,
                0.09474932452841678,
                -0.4974707040750511,
                -0.40554959557787973,
                1.2619824704896514
            ]
        },
        {
            "positions": [
                0.5486048900414575,
                -0.7890587545588984,
                0.18532501126313472,
                -0.45905708268798684,
                -0.34520241521528217,
                1.3390876819881794
            ]
        },
        {
            "positions": [
                0.45979652282103145,
                -0.7607967237732822,
                0.2759006979978528,
                -0.4206434613009225,
                -0.2848552348526846,
                1.4161928934867074
            ]
        },
        {
            "positions": [
                0.3709881556006056,
                -0.7325346929876659,
                0.3664763847325708,
                -0.38222983991385817,
                -0.22450805449008693,
                1.4932981049852359
            ]
        },
        {
            "positions": [
                0.28217978838017954,
                -0.7042726622020496,
                0.4570520714672889,
                -0.3438162185267938,
                -0.16416087412748936,
                1.5704033164837639
            ]
        },
        {
            "positions": [
                0.1933714211597537,
                -0.6760106314164336,
                0.5476277582020067,
                -0.3054025971397295,
                -0.1038136937648918,
                1.6475085279822919
            ]
        },
        {
            "positions": [
                0.10456305393932763,
                -0.6477486006308173,
                0.6382034449367248,
                -0.2669889757526652,
                -0.04346651340229424,
                1.7246137394808199
            ]
        },
        {
            "positions": [
                0.01575468671890151,
                -0.6194865698452011,
                0.7287791316714428,
                -0.22857535436560084,
                0.016880666960303436,
                1.8017189509793479
            ]
        },
        {
            "positions": [
                0.026390841155770096,
                -0.6708655277626538,
                0.8517527711830113,
                -0.2780328425358868,
                0.027716620834515066,
                1.9264180697017297
            ]
        },
        {
            "positions": [
                0.03702699559263868,
                -0.7222444856801065,
                0.9747264106945797,
                -0.32749033070617267,
                0.038552574708726695,
                2.0511171884241115
            ]
        },
        {
            "positions": [
                0.04766315002950726,
                -0.7736234435975592,
                1.097700050206148,
                -0.37694781887645856,
                0.04938852858293832,
                2.175816307146493
            ]
        },
        {
            "positions": [
                0.058299304466375844,
                -0.8250024015150119,
                1.2206736897177164,
                -0.4264053070467445,
                0.060224482457149946,
                2.3005154258688747
            ]
        },
        {
            "positions": [
                0.06893545890324443,
                -0.8763813594324645,
                1.343647329229285,
                -0.4758627952170304,
                0.07106043633136157,
                2.4252145445912565
            ]
        },
        {
            "positions": [
                0.079571613340113,
                -0.9277603173499173,
                1.4666209687408531,
                -0.5253202833873163,
                0.0818963902055732,
                2.5499136633136383
            ]
        },
        {
            "positions": [
                0.09020776777698158,
                -0.97913927526737,
                1.5895946082524217,
                -0.5747777715576021,
                0.09273234407978481,
                2.6746127820360197
            ]
        },
        {
            "positions": [
                0.10084392221385018,
                -1.0305182331848228,
                1.7125682477639903,
                -0.6242352597278882,
                0.10356829795399645,
                2.7993119007584015
            ]
        },
        {
            "positions": [
                0.11148007665071875,
                -1.0818971911022754,
                1.8355418872755584,
                -0.673692747898174,
                0.11440425182820807,
                2.9240110194807833
            ]
        },
        {
            "positions": [
                0.12211623108758733,
                -1.133276149019728,
                1.958515526787127,
                -0.72315023606846,
                0.1252402057024197,
                3.048710138203165
            ]
        }
    ]
}{
    "goal": {
        "global_pose": {
            "orientation": {
                "w": 0.7047431468963623,
                "x": -0.7094548344612122,
                "y": 0.0024358443915843964,
                "z": -0.0022348060738295317
            },
            "position": {
                "x": 0.6094750761985779,
                "y": 0.3671506643295288,
                "z": 0.19426114857196808
            }
        },
        "name": "move_to_magneteinheit_A"
    },
    "id": "BiTRRT_move_to_magneteinheit_A_15",
    "joint_names": [
        "shoulder_pan_joint",
        "shoulder_lift_joint",
        "elbow_joint",
        "wrist_1_joint",
        "wrist_2_joint",
        "wrist_3_joint"
    ],
    "metrics": {
        "cart_traj_len": 1.3784003196771426,
        "distance_elbow_joint": 0.6896639621206544,
        "distance_shoulder_lift_joint": 0.8736111459638873,
        "distance_shoulder_pan_joint": 1.240422223585967,
        "distance_wrist_1_joint": 0.9289951224162923,
        "distance_wrist_2_joint": 1.4463690146172878,
        "distance_wrist_3_joint": 4.324414378628312,
        "smoothness": 0.1769333659735131,
        "time": 0.114987718,
        "traj_len": 3.0827708068120145,
        "weighted_distance": 4.530747040127334
    },
    "planner": "BiTRRT",
    "start": {
        "state": {
            "elbow_joint": 1.919643534880228,
            "shoulder_lift_joint": -1.8972525353963687,
            "shoulder_pan_joint": -1.1188672234189438,
            "wrist_1_joint": -1.5931878212786155,
            "wrist_2_joint": 1.5706036197970081,
            "wrist_3_joint": 1.118896926603594
        }
    },
    "waypoints": [
        {
            "positions": [
                -1.1188672234189438,
                -1.8972525353963687,
                1.919643534880228,
                -1.5931878212786155,
                1.5706036197970081,
                1.118896926603594
            ]
        },
        {
            "positions": [
                -1.0751249670688174,
                -1.8601193108599745,
                1.9050364089586995,
                -1.553045411599178,
                1.5127503266087343,
                0.9233097801428396
            ]
        },
        {
            "positions": [
                -1.0313827107186908,
                -1.82298608632358,
                1.8904292830371707,
                -1.5129030019197407,
                1.4548970334204607,
                0.7277226336820851
            ]
        },
        {
            "positions": [
                -0.9876404543685644,
                -1.7858528617871858,
                1.8758221571156422,
                -1.4727605922403033,
                1.397043740232187,
                0.5321354872213307
            ]
        },
        {
            "positions": [
                -0.9438981980184379,
                -1.7487196372507916,
                1.8612150311941136,
                -1.432618182560866,
                1.3391904470439133,
                0.33654834076057627
            ]
        },
        {
            "positions": [
                -0.9001559416683114,
                -1.7115864127143974,
                1.8466079052725848,
                -1.3924757728814285,
                1.2813371538556395,
                0.1409611942998219
            ]
        },
        {
            "positions": [
                -0.856413685318185,
                -1.6744531881780031,
                1.8320007793510562,
                -1.3523333632019912,
                1.223483860667366,
                -0.05462595216093247
            ]
        },
        {
            "positions": [
                -0.8126714289680583,
                -1.6373199636416087,
                1.8173936534295274,
                -1.3121909535225538,
                1.165630567479092,
                -0.25021309862168684
            ]
        },
        {
            "positions": [
                -0.7689291726179319,
                -1.6001867391052145,
                1.8027865275079988,
                -1.2720485438431164,
                1.1077772742908185,
                -0.4458002450824414
            ]
        },
        {
            "positions": [
                -0.7251869162678053,
                -1.56305351456882,
                1.7881794015864703,
                -1.231906134163679,
                1.0499239811025447,
                -0.6413873915431958
            ]
        },
        {
            "positions": [
                -0.6814446599176789,
                -1.5259202900324258,
                1.7735722756649415,
                -1.1917637244842416,
                0.992070687914271,
                -0.8369745380039502
            ]
        },
        {
            "positions": [
                -0.6377024035675524,
                -1.4887870654960316,
                1.758965149743413,
                -1.1516213148048042,
                0.9342173947259973,
                -1.0325616844647045
            ]
        },
        {
            "positions": [
                -0.593960147217426,
                -1.4516538409596373,
                1.7443580238218843,
                -1.1114789051253668,
                0.8763641015377236,
                -1.228148830925459
            ]
        },
        {
            "positions": [
                -0.5502178908672993,
                -1.414520616423243,
                1.7297508979003555,
                -1.0713364954459295,
                0.8185108083494498,
                -1.4237359773862133
            ]
        },
        {
            "positions": [
                -0.5064756345171729,
                -1.3773873918868487,
                1.715143771978827,
                -1.031194085766492,
                0.7606575151611762,
                -1.6193231238469676
            ]
        },
        {
            "positions": [
                -0.4627333781670464,
                -1.3402541673504544,
                1.7005366460572984,
                -0.9910516760870547,
                0.7028042219729025,
                -1.814910270307722
            ]
        },
        {
            "positions": [
                -0.4189911218169199,
                -1.30312094281406,
                1.6859295201357696,
                -0.9509092664076173,
                0.6449509287846287,
                -2.0104974167684766
            ]
        },
        {
            "positions": [
                -0.37524886546679337,
                -1.2659877182776658,
                1.671322394214241,
                -0.9107668567281799,
                0.5870976355963551,
                -2.206084563229231
            ]
        },
        {
            "positions": [
                -0.33150660911666685,
                -1.2288544937412715,
                1.6567152682927122,
                -0.8706244470487425,
                0.5292443424080813,
                -2.4016717096899853
            ]
        },
        {
            "positions": [
                -0.28776435276654033,
                -1.1917212692048773,
                1.6421081423711836,
                -0.8304820373693051,
                0.4713910492198077,
                -2.5972588561507397
            ]
        },
        {
            "positions": [
                -0.24402209641641393,
                -1.154588044668483,
                1.627501016449655,
                -0.7903396276898678,
                0.41353775603153387,
                -2.792846002611494
            ]
        },
        {
            "positions": [
                -0.2002798400662873,
                -1.1174548201320886,
                1.6128938905281263,
                -0.7501972180104304,
                0.35568446284326005,
                -2.9884331490722484
            ]
        },
        {
            "positions": [
                -0.1565375837161609,
                -1.0803215955956944,
                1.5982867646065977,
                -0.710054808330993,
                0.29783116965498635,
                -3.184020295533003
            ]
        },
        {
            "positions": [
                -0.06384005575509963,
                -1.0992149976500987,
                1.7210558285556057,
                -0.7253421781538829,
                0.23996564816323096,
                -3.191186014363574
            ]
        },
        {
            "positions": [
                0.028857472205961632,
                -1.1181083997045032,
                1.8438248925046137,
                -0.7406295479767729,
                0.18210012667147554,
                -3.1983517331941456
            ]
        },
        {
            "positions": [
                0.12155500016702289,
                -1.1370018017589074,
                1.9665939564536217,
                -0.7559169177996629,
                0.12423460517972011,
                -3.2055174520247167
            ]
        }
    ]
}