{
    "goal": {
        "global_pose": {
            "orientation": {
                "w": 0.7047431468963623,
                "x": -0.7094548344612122,
                "y": 0.0024358443915843964,
                "z": -0.0022348060738295317
            },
            "position": {
                "x": 0.6094750761985779,
                "y": 0.3671506643295288,
                "z": 0.19426114857196808
            }
        },
        "name": "move_to_magneteinheit_A"
    },
    "id": "BiTRRT_move_to_magneteinheit_A_111",
    "joint_names": [
        "shoulder_pan_joint",
        "shoulder_lift_joint",
        "elbow_joint",
        "wrist_1_joint",
        "wrist_2_joint",
        "wrist_3_joint"
    ],
    "metrics": {
        "cart_traj_len": 3.602027244344743,
        "distance_elbow_joint": 3.8741093526867134,
        "distance_shoulder_lift_joint": 0.2392573503391553,
        "distance_shoulder_pan_joint": 2.7531166929396824,
        "distance_wrist_1_joint": 0.8406653795154564,
        "distance_wrist_2_joint": 1.7024106974634423,
        "distance_wrist_3_joint": 2.583634958796235,
        "smoothness": 0.08301939608045122,
        "time": 0.075630271,
        "traj_len": 3.463119176658621,
        "weighted_distance": 4.438867020570909
    },
    "planner": "BiTRRT",
    "start": {
        "state": {
            "elbow_joint": -1.919618573717145,
            "shoulder_lift_joint": -1.2443395971678275,
            "shoulder_pan_joint": 2.6996025300909787,
            "wrist_1_joint": -1.548550951253194,
            "wrist_2_joint": -1.5709469090946802,
            "wrist_3_joint": 0.4420197732051276
        }
    },
    "waypoints": [
        {
            "positions": [
                2.6996025300909787,
                -1.2443395971678275,
                -1.919618573717145,
                -1.548550951253194,
                -1.5709469090946802,
                0.4420197732051276
            ]
        },
        {
            "positions": [
                2.5930124828318077,
                -1.2369744143676886,
                -1.8033593475021155,
                -1.523844165547906,
                -1.511827490413092,
                0.5206406420228801
            ]
        },
        {
            "positions": [
                2.4864224355726368,
                -1.22960923156755,
                -1.687100121287086,
                -1.499137379842618,
                -1.4527080717315035,
                0.5992615108406325
            ]
        },
        {
            "positions": [
                2.3798323883134653,
                -1.222244048767411,
                -1.5708408950720565,
                -1.47443059413733,
                -1.3935886530499153,
                0.677882379658385
            ]
        },
        {
            "positions": [
                2.2732423410542943,
                -1.2148788659672725,
                -1.4545816688570268,
                -1.4497238084320418,
                -1.334469234368327,
                0.7565032484761374
            ]
        },
        {
            "positions": [
                2.1666522937951234,
                -1.2075136831671336,
                -1.3383224426419973,
                -1.4250170227267538,
                -1.2753498156867389,
                0.8351241172938899
            ]
        },
        {
            "positions": [
                2.0600622465359524,
                -1.200148500366995,
                -1.2220632164269678,
                -1.4003102370214657,
                -1.2162303970051505,
                0.9137449861116425
            ]
        },
        {
            "positions": [
                1.9534721992767814,
                -1.192783317566856,
                -1.105803990211938,
                -1.3756034513161777,
                -1.1571109783235622,
                0.992365854929395
            ]
        },
        {
            "positions": [
                1.8468821520176104,
                -1.1854181347667174,
                -0.9895447639969088,
                -1.3508966656108896,
                -1.097991559641974,
                1.0709867237471473
            ]
        },
        {
            "positions": [
                1.7402921047584392,
                -1.1780529519665786,
                -0.8732855377818793,
                -1.3261898799056016,
                -1.0388721409603856,
                1.1496075925648999
            ]
        },
        {
            "positions": [
                1.633702057499268,
                -1.17068776916644,
                -0.7570263115668496,
                -1.3014830942003135,
                -0.9797527222787974,
                1.2282284613826524
            ]
        },
        {
            "positions": [
                1.5271120102400972,
                -1.163322586366301,
                -0.6407670853518201,
                -1.2767763084950254,
                -0.9206333035972092,
                1.3068493302004047
            ]
        },
        {
            "positions": [
                1.420521962980926,
                -1.1559574035661622,
                -0.5245078591367907,
                -1.2520695227897374,
                -0.8615138849156209,
                1.3854701990181573
            ]
        },
        {
            "positions": [
                1.313931915721755,
                -1.1485922207660235,
                -0.40824863292176117,
                -1.2273627370844493,
                -0.8023944662340327,
                1.4640910678359096
            ]
        },
        {
            "positions": [
                1.2073418684625838,
                -1.1412270379658846,
                -0.29198940670673146,
                -1.202655951379161,
                -0.7432750475524442,
                1.5427119366536624
            ]
        },
        {
            "positions": [
                1.1007518212034129,
                -1.133861855165746,
                -0.17573018049170197,
                -1.1779491656738732,
                -0.684155628870856,
                1.6213328054714147
            ]
        },
        {
            "positions": [
                0.9941617739442419,
                -1.1264966723656071,
                -0.059470954276672705,
                -1.1532423799685851,
                -0.6250362101892678,
                1.699953674289167
            ]
        },
        {
            "positions": [
                0.8875717266850707,
                -1.1191314895654685,
                0.056788271938357004,
                -1.1285355942632969,
                -0.5659167915076795,
                1.7785745431069198
            ]
        },
        {
            "positions": [
                0.7809816794258997,
                -1.1117663067653296,
                0.17304749815338627,
                -1.1038288085580088,
                -0.5067973728260913,
                1.857195411924672
            ]
        },
        {
            "positions": [
                0.6743916321667287,
                -1.104401123965191,
                0.289306724368416,
                -1.0791220228527207,
                -0.44767795414450307,
                1.9358162807424244
            ]
        },
        {
            "positions": [
                0.5678015849075573,
                -1.097035941165052,
                0.4055659505834457,
                -1.0544152371474327,
                -0.38855853546291463,
                2.014437149560177
            ]
        },
        {
            "positions": [
                0.46121153764838674,
                -1.0896707583649134,
                0.521825176798475,
                -1.0297084514421446,
                -0.3294391167813264,
                2.0930580183779295
            ]
        },
        {
            "positions": [
                0.35462149038921575,
                -1.0823055755647746,
                0.6380844030135047,
                -1.0050016657368566,
                -0.2703196980997382,
                2.171678887195682
            ]
        },
        {
            "positions": [
                0.24803144313004433,
                -1.0749403927646357,
                0.7543436292285344,
                -0.9802948800315685,
                -0.21120027941814978,
                2.2502997560134346
            ]
        },
        {
            "positions": [
                0.1414413958708734,
                -1.067575209964497,
                0.8706028554435638,
                -0.9555880943262804,
                -0.15208086073656163,
                2.328920624831187
            ]
        },
        {
            "positions": [
                0.12022021959106478,
                -1.0720190354936112,
                1.0421794553440016,
                -0.9343478967065585,
                -0.10226320556870946,
                2.443075868882882
            ]
        },
        {
            "positions": [
                0.09899904331125617,
                -1.0764628610227254,
                1.2137560552444393,
                -0.9131076990868366,
                -0.052445550400857285,
                2.557231112934577
            ]
        },
        {
            "positions": [
                0.07777786703144755,
                -1.0809066865518395,
                1.385332655144877,
                -0.8918675014671147,
                -0.002627895233005134,
                2.6713863569862726
            ]
        },
        {
            "positions": [
                0.056556690751638924,
                -1.0853505120809537,
                1.556909255045315,
                -0.8706273038473928,
                0.04718975993484706,
                2.7855416010379677
            ]
        },
        {
            "positions": [
                0.03533551447183031,
                -1.0897943376100678,
                1.7284858549457527,
                -0.8493871062276709,
                0.09700741510269922,
                2.8996968450896627
            ]
        },
        {
            "positions": [
                0.07437189509315129,
                -1.108536884541129,
                1.8297754225177165,
                -0.7949543881301799,
                0.11142441484917057,
                2.962127811600407
            ]
        },
        {
            "positions": [
                0.11340827571447225,
                -1.1272794314721901,
                1.9310649900896806,
                -0.7405216700326889,
                0.1258414145956419,
                3.0245587781111514
            ]
        },
        {
            "positions": [
                0.12418519179236381,
                -1.130068173100322,
                1.954490778969569,
                -0.7078855717377377,
                0.13146378836876188,
                3.0234628242209403
            ]
        }
    ]
}{
    "goal": {
        "global_pose": {
            "orientation": {
                "w": 0.7047431468963623,
                "x": -0.7094548344612122,
                "y": 0.0024358443915843964,
                "z": -0.0022348060738295317
            },
            "position": {
                "x": 0.6094750761985779,
                "y": 0.3671506643295288,
                "z": 0.19426114857196808
            }
        },
        "name": "move_to_magneteinheit_A"
    },
    "id": "BiTRRT_move_to_magneteinheit_A_111",
    "joint_names": [
        "shoulder_pan_joint",
        "shoulder_lift_joint",
        "elbow_joint",
        "wrist_1_joint",
        "wrist_2_joint",
        "wrist_3_joint"
    ],
    "metrics": {
        "cart_traj_len": 1.2068782187600737,
        "distance_elbow_joint": 0.04164520762785351,
        "distance_shoulder_lift_joint": 0.7668907979465771,
        "distance_shoulder_pan_joint": 1.241414713765595,
        "distance_wrist_1_joint": 0.8774419720044524,
        "distance_wrist_2_joint": 1.431952016406516,
        "distance_wrist_3_joint": 4.359624560681823,
        "smoothness": 0.12271249494957748,
        "time": 0.091285752,
        "traj_len": 2.9527900820127417,
        "weighted_distance": 4.443828572099449
    },
    "planner": "BiTRRT",
    "start": {
        "state": {
            "elbow_joint": 1.919643534880228,
            "shoulder_lift_joint": -1.8972525353963687,
            "shoulder_pan_joint": -1.1188672234189438,
            "wrist_1_joint": -1.5931878212786155,
            "wrist_2_joint": 1.5706036197970081,
            "wrist_3_joint": 1.118896926603594
        }
    },
    "waypoints": [
        {
            "positions": [
                -1.1188672234189438,
                -1.8972525353963687,
                1.919643534880228,
                -1.5931878212786155,
                1.5706036197970081,
                1.118896926603594
            ]
        },
        {
            "positions": [
                -1.062752437137133,
                -1.8624930950838332,
                1.9211609332966368,
                -1.5535395653706883,
                1.505527697454179,
                0.9218236464873649
            ]
        },
        {
            "positions": [
                -1.0066376508553223,
                -1.8277336547712977,
                1.9226783317130456,
                -1.5138913094627608,
                1.4404517751113497,
                0.7247503663711359
            ]
        },
        {
            "positions": [
                -0.9505228645735116,
                -1.792974214458762,
                1.9241957301294543,
                -1.4742430535548336,
                1.3753758527685203,
                0.5276770862549068
            ]
        },
        {
            "positions": [
                -0.894408078291701,
                -1.7582147741462264,
                1.9257131285458629,
                -1.4345947976469062,
                1.310299930425691,
                0.3306038061386777
            ]
        },
        {
            "positions": [
                -0.8382932920098902,
                -1.7234553338336909,
                1.9272305269622716,
                -1.394946541738979,
                1.2452240080828618,
                0.13353052602244875
            ]
        },
        {
            "positions": [
                -0.7821785057280795,
                -1.6886958935211553,
                1.9287479253786803,
                -1.3552982858310518,
                1.1801480857400326,
                -0.0635427540937803
            ]
        },
        {
            "positions": [
                -0.7260637194462687,
                -1.6539364532086198,
                1.930265323795089,
                -1.3156500299231244,
                1.1150721633972034,
                -0.26061603421000945
            ]
        },
        {
            "positions": [
                -0.669948933164458,
                -1.6191770128960843,
                1.9317827222114978,
                -1.2760017740151972,
                1.049996241054374,
                -0.4576893143262386
            ]
        },
        {
            "positions": [
                -0.6138341468826473,
                -1.5844175725835485,
                1.9333001206279066,
                -1.2363535181072698,
                0.9849203187115447,
                -0.6547625944424675
            ]
        },
        {
            "positions": [
                -0.5577193606008366,
                -1.549658132271013,
                1.9348175190443153,
                -1.1967052621993426,
                0.9198443963687156,
                -0.8518358745586965
            ]
        },
        {
            "positions": [
                -0.5016045743190258,
                -1.5148986919584775,
                1.9363349174607238,
                -1.1570570062914154,
                0.8547684740258863,
                -1.0489091546749256
            ]
        },
        {
            "positions": [
                -0.4454897880372152,
                -1.480139251645942,
                1.9378523158771326,
                -1.117408750383488,
                0.7896925516830571,
                -1.2459824347911546
            ]
        },
        {
            "positions": [
                -0.3893750017554043,
                -1.4453798113334062,
                1.9393697142935413,
                -1.0777604944755608,
                0.7246166293402277,
                -1.443055714907384
            ]
        },
        {
            "positions": [
                -0.33326021547359364,
                -1.4106203710208707,
                1.94088711270995,
                -1.0381122385676336,
                0.6595407069973985,
                -1.6401289950236129
            ]
        },
        {
            "positions": [
                -0.277145429191783,
                -1.3758609307083352,
                1.9424045111263588,
                -0.9984639826597063,
                0.5944647846545693,
                -1.8372022751398418
            ]
        },
        {
            "positions": [
                -0.2210306429099722,
                -1.3411014903957996,
                1.9439219095427676,
                -0.9588157267517788,
                0.52938886231174,
                -2.0342755552560714
            ]
        },
        {
            "positions": [
                -0.16491585662816144,
                -1.306342050083264,
                1.9454393079591763,
                -0.9191674708438516,
                0.46431293996891077,
                -2.2313488353723
            ]
        },
        {
            "positions": [
                -0.10880107034635067,
                -1.2715826097707286,
                1.946956706375585,
                -0.8795192149359243,
                0.3992370176260813,
                -2.4284221154885293
            ]
        },
        {
            "positions": [
                -0.0526862840645399,
                -1.236823169458193,
                1.9484741047919936,
                -0.839870959027997,
                0.3341610952832521,
                -2.6254953956047578
            ]
        },
        {
            "positions": [
                0.003428502217270646,
                -1.2020637291456575,
                1.9499915032084023,
                -0.8002227031200698,
                0.2690851729404231,
                -2.822568675720987
            ]
        },
        {
            "positions": [
                0.059543288499081415,
                -1.1673042888331218,
                1.951508901624811,
                -0.7605744472121424,
                0.20400925059759367,
                -3.0196419558372165
            ]
        },
        {
            "positions": [
                0.11565807478089224,
                -1.1325448485205862,
                1.9530263000412198,
                -0.7209261913042152,
                0.1389333282547644,
                -3.216715235953445
            ]
        },
        {
            "positions": [
                0.12254749034665131,
                -1.1347279595913808,
                1.9612887425080816,
                -0.7261065333342673,
                0.13865160339049193,
                -3.2407276340782283
            ]
        }
    ]
}