{
    "goal": {
        "global_pose": {
            "orientation": {
                "w": 0.5084816217422485,
                "x": -0.49083608388900757,
                "y": 0.5182115435600281,
                "z": -0.4816462993621826
            },
            "position": {
                "x": 0.5540239810943604,
                "y": 0.030875300988554955,
                "z": 0.16403168439865112
            }
        },
        "name": "move_to_storage_A"
    },
    "id": "BiTRRT_move_to_storage_A_91",
    "joint_names": [
        "shoulder_pan_joint",
        "shoulder_lift_joint",
        "elbow_joint",
        "wrist_1_joint",
        "wrist_2_joint",
        "wrist_3_joint"
    ],
    "metrics": {
        "cart_traj_len": 0.3537574508494421,
        "distance_elbow_joint": 0.45182133645136435,
        "distance_shoulder_lift_joint": 0.23441872174714495,
        "distance_shoulder_pan_joint": 0.46269809709331755,
        "distance_wrist_1_joint": 0.24915690528778944,
        "distance_wrist_2_joint": 1.0999645584018385,
        "distance_wrist_3_joint": 0.10678122271578072,
        "smoothness": 1.3322676295501878e-15,
        "time": 0.033057473999999996,
        "traj_len": 1.6139519328955356,
        "weighted_distance": 2.0414516283317674
    },
    "planner": "BiTRRT",
    "start": {
        "state": {
            "elbow_joint": 1.9715477243005601,
            "shoulder_lift_joint": -1.1394853015351272,
            "shoulder_pan_joint": 0.12281154014795169,
            "wrist_1_joint": -0.7804696478968182,
            "wrist_2_joint": 0.12958648046900423,
            "wrist_3_joint": -3.192491284697111
        }
    },
    "waypoints": [
        {
            "positions": [
                0.12281154014795169,
                -1.1394853015351272,
                1.9715477243005601,
                -0.7804696478968182,
                0.12958648046900423,
                -3.192491284697111
            ]
        },
        {
            "positions": [
                0.05671181199176348,
                -1.1729736903561478,
                2.036093629507898,
                -0.8160634915093595,
                0.2867242745264097,
                -3.1772368243091424
            ]
        },
        {
            "positions": [
                -0.009387916164424734,
                -1.2064620791771685,
                2.100639534715236,
                -0.8516573351219009,
                0.4438620685838152,
                -3.1619823639211737
            ]
        },
        {
            "positions": [
                -0.07548764432061296,
                -1.2399504679981892,
                2.1651854399225736,
                -0.8872511787344421,
                0.6009998626412207,
                -3.146727903533205
            ]
        },
        {
            "positions": [
                -0.14158737247680114,
                -1.2734388568192099,
                2.229731345129911,
                -0.9228450223469835,
                0.7581376566986262,
                -3.1314734431452367
            ]
        },
        {
            "positions": [
                -0.2076871006329894,
                -1.3069272456402308,
                2.294277250337249,
                -0.9584388659595249,
                0.9152754507560318,
                -3.116218982757268
            ]
        },
        {
            "positions": [
                -0.2737868287891776,
                -1.3404156344612514,
                2.3588231555445867,
                -0.9940327095720662,
                1.0724132448134371,
                -3.100964522369299
            ]
        },
        {
            "positions": [
                -0.33988655694536585,
                -1.3739040232822721,
                2.4233690607519245,
                -1.0296265531846076,
                1.2295510388708426,
                -3.0857100619813305
            ]
        }
    ]
}