{
    "goal": {
        "global_pose": {
            "orientation": {
                "w": 0.5084816217422485,
                "x": -0.49083608388900757,
                "y": 0.5182115435600281,
                "z": -0.4816462993621826
            },
            "position": {
                "x": 0.5540239810943604,
                "y": 0.030875300988554955,
                "z": 0.16403168439865112
            }
        },
        "name": "move_to_storage_A"
    },
    "id": "BiTRRT_move_to_storage_A_108",
    "joint_names": [
        "shoulder_pan_joint",
        "shoulder_lift_joint",
        "elbow_joint",
        "wrist_1_joint",
        "wrist_2_joint",
        "wrist_3_joint"
    ],
    "metrics": {
        "cart_traj_len": 0.35207542390809676,
        "distance_elbow_joint": 0.44984255069124046,
        "distance_shoulder_lift_joint": 0.2341260838814041,
        "distance_shoulder_pan_joint": 0.4604627189197682,
        "distance_wrist_1_joint": 0.24383284173160658,
        "distance_wrist_2_joint": 1.0963546167357188,
        "distance_wrist_3_joint": 0.10431582338701695,
        "smoothness": 6.661338200497456e-16,
        "time": 0.042156045,
        "traj_len": 1.6090166672060158,
        "weighted_distance": 2.0341469319073573
    },
    "planner": "BiTRRT",
    "start": {
        "state": {
            "elbow_joint": 1.9715477243005601,
            "shoulder_lift_joint": -1.1394853015351272,
            "shoulder_pan_joint": 0.12281154014795169,
            "wrist_1_joint": -0.7804696478968182,
            "wrist_2_joint": 0.12958648046900423,
            "wrist_3_joint": -3.192491284697111
        }
    },
    "waypoints": [
        {
            "positions": [
                0.12281154014795169,
                -1.1394853015351272,
                1.9715477243005601,
                -0.7804696478968182,
                0.12958648046900423,
                -3.192491284697111
            ]
        },
        {
            "positions": [
                0.057031151730841945,
                -1.1729318849467563,
                2.03581094582788,
                -0.8153029110013333,
                0.2862085685741069,
                -3.1775890242132516
            ]
        },
        {
            "positions": [
                -0.0087492366862678,
                -1.2063784683583856,
                2.1000741673552,
                -0.8501361741058486,
                0.44283065667920957,
                -3.162686763729392
            ]
        },
        {
            "positions": [
                -0.07452962510337753,
                -1.2398250517700147,
                2.16433738888252,
                -0.8849694372103638,
                0.5994527447843123,
                -3.1477845032455325
            ]
        },
        {
            "positions": [
                -0.14031001352048728,
                -1.2732716351816438,
                2.22860061040984,
                -0.9198027003148791,
                0.7560748328894149,
                -3.132882242761673
            ]
        },
        {
            "positions": [
                -0.20609040193759703,
                -1.3067182185932729,
                2.2928638319371606,
                -0.9546359634193943,
                0.9126969209945176,
                -3.1179799822778134
            ]
        },
        {
            "positions": [
                -0.27187079035470674,
                -1.3401648020049022,
                2.3571270534644806,
                -0.9894692265239096,
                1.0693190090996203,
                -3.103077721793954
            ]
        },
        {
            "positions": [
                -0.3376511787718165,
                -1.3736113854165313,
                2.4213902749918006,
                -1.0243024896284247,
                1.2259410972047229,
                -3.0881754613100942
            ]
        }
    ]
}