{
    "goal": {
        "global_pose": {
            "orientation": {
                "w": 0.7047431468963623,
                "x": -0.7094548344612122,
                "y": 0.0024358443915843964,
                "z": -0.0022348060738295317
            },
            "position": {
                "x": 0.6094750761985779,
                "y": 0.3671506643295288,
                "z": 0.19426114857196808
            }
        },
        "name": "move_to_magneteinheit_A"
    },
    "id": "BiTRRT_move_to_magneteinheit_A_103",
    "joint_names": [
        "shoulder_pan_joint",
        "shoulder_lift_joint",
        "elbow_joint",
        "wrist_1_joint",
        "wrist_2_joint",
        "wrist_3_joint"
    ],
    "metrics": {
        "cart_traj_len": 4.6187471631042705,
        "distance_elbow_joint": 3.90969687143676,
        "distance_shoulder_lift_joint": 1.032639982958992,
        "distance_shoulder_pan_joint": 4.308191358095598,
        "distance_wrist_1_joint": 3.635326338028051,
        "distance_wrist_2_joint": 1.4511363981008323,
        "distance_wrist_3_joint": 0.44221993356052974,
        "smoothness": 0.14037373914584217,
        "time": 0.15164497,
        "traj_len": 3.8443739259053307,
        "weighted_distance": 4.555229246199439
    },
    "planner": "BiTRRT",
    "start": {
        "state": {
            "elbow_joint": -1.919618573717145,
            "shoulder_lift_joint": -1.2443395971678275,
            "shoulder_pan_joint": 2.6996025300909787,
            "wrist_1_joint": -1.548550951253194,
            "wrist_2_joint": -1.5709469090946802,
            "wrist_3_joint": 0.4420197732051276
        }
    },
    "waypoints": [
        {
            "positions": [
                2.6996025300909787,
                -1.2443395971678275,
                -1.919618573717145,
                -1.548550951253194,
                -1.5709469090946802,
                0.4420197732051276
            ]
        },
        {
            "positions": [
                2.518412906467251,
                -1.2048149533802248,
                -1.830122869937671,
                -1.5528303191025878,
                -1.5056621871030658,
                0.43395547266753043
            ]
        },
        {
            "positions": [
                2.3372232828435235,
                -1.1652903095926221,
                -1.7406271661581971,
                -1.5571096869519814,
                -1.4403774651114511,
                0.42589117212993327
            ]
        },
        {
            "positions": [
                2.156033659219796,
                -1.1257656658050195,
                -1.6511314623787232,
                -1.5613890548013751,
                -1.3750927431198368,
                0.41782687159233606
            ]
        },
        {
            "positions": [
                1.9748440355960684,
                -1.086241022017417,
                -1.561635758599249,
                -1.5656684226507689,
                -1.3098080211282221,
                0.4097625710547389
            ]
        },
        {
            "positions": [
                1.7936544119723408,
                -1.0467163782298143,
                -1.4721400548197752,
                -1.5699477905001624,
                -1.2445232991366078,
                0.40169827051714174
            ]
        },
        {
            "positions": [
                1.6124647883486132,
                -1.0071917344422117,
                -1.3826443510403013,
                -1.5742271583495562,
                -1.1792385771449931,
                0.3936339699795446
            ]
        },
        {
            "positions": [
                1.4312751647248856,
                -0.967667090654609,
                -1.2931486472608271,
                -1.5785065261989497,
                -1.1139538551533787,
                0.3855696694419474
            ]
        },
        {
            "positions": [
                1.250085541101158,
                -0.9281424468670063,
                -1.2036529434813534,
                -1.5827858940483435,
                -1.0486691331617641,
                0.37750536890435027
            ]
        },
        {
            "positions": [
                1.0688959174774304,
                -0.8886178030794037,
                -1.1141572397018793,
                -1.5870652618977372,
                -0.9833844111701497,
                0.36944106836675306
            ]
        },
        {
            "positions": [
                0.8877062938537028,
                -0.8490931592918012,
                -1.0246615359224054,
                -1.5913446297471308,
                -0.9180996891785352,
                0.3613767678291559
            ]
        },
        {
            "positions": [
                0.7065166702299752,
                -0.8095685155041985,
                -0.9351658321429314,
                -1.5956239975965245,
                -0.8528149671869206,
                0.35331246729155874
            ]
        },
        {
            "positions": [
                0.5253270466062476,
                -0.7700438717165958,
                -0.8456701283634576,
                -1.5999033654459183,
                -0.7875302451953062,
                0.3452481667539615
            ]
        },
        {
            "positions": [
                0.34413742298252004,
                -0.7305192279289932,
                -0.7561744245839834,
                -1.6041827332953118,
                -0.7222455232036916,
                0.33718386621636437
            ]
        },
        {
            "positions": [
                0.16294779935879244,
                -0.6909945841413906,
                -0.6666787208045095,
                -1.6084621011447056,
                -0.6569608012120772,
                0.3291195656787672
            ]
        },
        {
            "positions": [
                -0.018241824264935147,
                -0.6514699403537879,
                -0.5771830170250356,
                -1.6127414689940993,
                -0.5916760792204627,
                0.32105526514117005
            ]
        },
        {
            "positions": [
                -0.19943144788866274,
                -0.6119452965661852,
                -0.4876873132455617,
                -1.6170208368434928,
                -0.5263913572288483,
                0.3129909646035729
            ]
        },
        {
            "positions": [
                -0.38062107151239033,
                -0.5724206527785826,
                -0.39819160946608756,
                -1.6213002046928866,
                -0.4611066352372337,
                0.3049266640659757
            ]
        },
        {
            "positions": [
                -0.5618106951361179,
                -0.53289600899098,
                -0.30869590568661387,
                -1.6255795725422801,
                -0.39582191324561933,
                0.2968623635283786
            ]
        },
        {
            "positions": [
                -0.7430003187598457,
                -0.4933713652033773,
                -0.21920020190713974,
                -1.629858940391674,
                -0.3305371912540047,
                0.28879806299078137
            ]
        },
        {
            "positions": [
                -0.6974430287995944,
                -0.50819619420309,
                -0.10292238613731058,
                -1.4428053430816965,
                -0.3194463133455755,
                0.2735876301830875
            ]
        },
        {
            "positions": [
                -0.6518857388393431,
                -0.5230210232028027,
                0.013355429632518567,
                -1.255751745771719,
                -0.3083554354371463,
                0.2583771973753936
            ]
        },
        {
            "positions": [
                -0.6063284488790918,
                -0.5378458522025155,
                0.12963324540234772,
                -1.0686981484617415,
                -0.297264557528717,
                0.24316676456769976
            ]
        },
        {
            "positions": [
                -0.5607711589188404,
                -0.5526706812022282,
                0.24591106117217687,
                -0.8816445511517641,
                -0.2861736796202878,
                0.22795633176000588
            ]
        },
        {
            "positions": [
                -0.515213868958589,
                -0.5674955102019409,
                0.3621888769420061,
                -0.6945909538417867,
                -0.27508280171185856,
                0.212745898952312
            ]
        },
        {
            "positions": [
                -0.46965657899833774,
                -0.5823203392016536,
                0.4784666927118352,
                -0.5075373565318093,
                -0.26399192380342934,
                0.19753546614461814
            ]
        },
        {
            "positions": [
                -0.4240992890380864,
                -0.5971451682013663,
                0.5947445084816644,
                -0.3204837592218317,
                -0.25290104589500007,
                0.18232503333692426
            ]
        },
        {
            "positions": [
                -0.3785419990778351,
                -0.611969997201079,
                0.7110223242514935,
                -0.1334301619118543,
                -0.24181016798657087,
                0.16711460052923038
            ]
        },
        {
            "positions": [
                -0.33298470911758377,
                -0.6267948262007919,
                0.8273001400213227,
                0.05362343539812309,
                -0.23071929007814163,
                0.15190416772153653
            ]
        },
        {
            "positions": [
                -0.2874274191573324,
                -0.6416196552005045,
                0.9435779557911519,
                0.24067703270810048,
                -0.2196284121697124,
                0.13669373491384265
            ]
        },
        {
            "positions": [
                -0.24187012919708106,
                -0.6564444842002173,
                1.059855771560981,
                0.4277306300180781,
                -0.20853753426128316,
                0.12148330210614877
            ]
        },
        {
            "positions": [
                -0.19631283923682974,
                -0.6712693131999299,
                1.17613358733081,
                0.6147842273280553,
                -0.19744665635285394,
                0.10627286929845492
            ]
        },
        {
            "positions": [
                -0.1507555492765783,
                -0.6860941421996427,
                1.2924114031006393,
                0.8018378246380329,
                -0.1863557784444247,
                0.09106243649076101
            ]
        },
        {
            "positions": [
                -0.10519825931632709,
                -0.7009189711993554,
                1.4086892188704685,
                0.9888914219480105,
                -0.17526490053599547,
                0.07585200368306716
            ]
        },
        {
            "positions": [
                -0.05964096935607566,
                -0.7157438001990681,
                1.5249670346402977,
                1.1759450192579881,
                -0.16417402262756625,
                0.06064157087537328
            ]
        },
        {
            "positions": [
                -0.014083679395824444,
                -0.7305686291987809,
                1.6412448504101267,
                1.3629986165679653,
                -0.15308314471913703,
                0.04543113806767943
            ]
        },
        {
            "positions": [
                0.03147361056442699,
                -0.7453934581984936,
                1.757522666179956,
                1.550052213877943,
                -0.14199226681070778,
                0.030220705259985547
            ]
        },
        {
            "positions": [
                0.0770309005246782,
                -0.7602182871982063,
                1.873800481949785,
                1.73710581118792,
                -0.13090138890227856,
                0.015010272452291695
            ]
        },
        {
            "positions": [
                0.12258819048492961,
                -0.775043116197919,
                1.9900782977196143,
                1.9241594084978975,
                -0.11981051099384932,
                -0.00020016035540221626
            ]
        }
    ]
}{
    "goal": {
        "global_pose": {
            "orientation": {
                "w": 0.7047431468963623,
                "x": -0.7094548344612122,
                "y": 0.0024358443915843964,
                "z": -0.0022348060738295317
            },
            "position": {
                "x": 0.6094750761985779,
                "y": 0.3671506643295288,
                "z": 0.19426114857196808
            }
        },
        "name": "move_to_magneteinheit_A"
    },
    "id": "BiTRRT_move_to_magneteinheit_A_103",
    "joint_names": [
        "shoulder_pan_joint",
        "shoulder_lift_joint",
        "elbow_joint",
        "wrist_1_joint",
        "wrist_2_joint",
        "wrist_3_joint"
    ],
    "metrics": {
        "cart_traj_len": 1.319854650105319,
        "distance_elbow_joint": 0.3440477707191101,
        "distance_shoulder_lift_joint": 0.9392390895158036,
        "distance_shoulder_pan_joint": 1.2408983176722046,
        "distance_wrist_1_joint": 0.7681846322265466,
        "distance_wrist_2_joint": 1.4376761668495037,
        "distance_wrist_3_joint": 4.266673249147578,
        "smoothness": 0.16267518442116066,
        "time": 0.09054888,
        "traj_len": 2.9994531545151273,
        "weighted_distance": 4.442513536670648
    },
    "planner": "BiTRRT",
    "start": {
        "state": {
            "elbow_joint": 1.919643534880228,
            "shoulder_lift_joint": -1.8972525353963687,
            "shoulder_pan_joint": -1.1188672234189438,
            "wrist_1_joint": -1.5931878212786155,
            "wrist_2_joint": 1.5706036197970081,
            "wrist_3_joint": 1.118896926603594
        }
    },
    "waypoints": [
        {
            "positions": [
                -1.1188672234189438,
                -1.8972525353963687,
                1.919643534880228,
                -1.5931878212786155,
                1.5706036197970081,
                1.118896926603594
            ]
        },
        {
            "positions": [
                -1.0621710356699645,
                -1.8569987973965068,
                1.91299814935688,
                -1.5568256470112822,
                1.5026717858931327,
                0.93672349915987
            ]
        },
        {
            "positions": [
                -1.0054748479209852,
                -1.816745059396645,
                1.906352763833532,
                -1.5204634727439488,
                1.4347399519892572,
                0.754550071716146
            ]
        },
        {
            "positions": [
                -0.9487786601720058,
                -1.776491321396783,
                1.8997073783101839,
                -1.4841012984766155,
                1.3668081180853815,
                0.5723766442724219
            ]
        },
        {
            "positions": [
                -0.8920824724230265,
                -1.7362375833969212,
                1.893061992786836,
                -1.4477391242092823,
                1.298876284181506,
                0.39020321682869785
            ]
        },
        {
            "positions": [
                -0.8353862846740472,
                -1.6959838453970593,
                1.8864166072634878,
                -1.411376949941949,
                1.2309444502776306,
                0.20802978938497374
            ]
        },
        {
            "positions": [
                -0.7786900969250679,
                -1.6557301073971975,
                1.8797712217401399,
                -1.3750147756746158,
                1.1630126163737549,
                0.02585636194124974
            ]
        },
        {
            "positions": [
                -0.7219939091760886,
                -1.6154763693973355,
                1.8731258362167917,
                -1.3386526014072824,
                1.0950807824698794,
                -0.15631706550247437
            ]
        },
        {
            "positions": [
                -0.6652977214271093,
                -1.5752226313974735,
                1.8664804506934436,
                -1.3022904271399491,
                1.027148948566004,
                -0.33849049294619826
            ]
        },
        {
            "positions": [
                -0.60860153367813,
                -1.5349688933976118,
                1.8598350651700957,
                -1.265928252872616,
                0.9592171146621283,
                -0.5206639203899224
            ]
        },
        {
            "positions": [
                -0.5519053459291506,
                -1.49471515539775,
                1.8531896796467475,
                -1.2295660786052824,
                0.8912852807582529,
                -0.7028373478336465
            ]
        },
        {
            "positions": [
                -0.4952091581801713,
                -1.454461417397888,
                1.8465442941233996,
                -1.1932039043379492,
                0.8233534468543772,
                -0.8850107752773708
            ]
        },
        {
            "positions": [
                -0.438512970431192,
                -1.414207679398026,
                1.8398989086000515,
                -1.156841730070616,
                0.7554216129505018,
                -1.0671842027210945
            ]
        },
        {
            "positions": [
                -0.38181678268221264,
                -1.373953941398164,
                1.8332535230767035,
                -1.1204795558032825,
                0.6874897790466261,
                -1.2493576301648186
            ]
        },
        {
            "positions": [
                -0.3251205949332334,
                -1.3337002033983023,
                1.8266081375533554,
                -1.0841173815359495,
                0.6195579451427506,
                -1.4315310576085427
            ]
        },
        {
            "positions": [
                -0.268424407184254,
                -1.2934464653984405,
                1.8199627520300072,
                -1.047755207268616,
                0.5516261112388752,
                -1.6137044850522668
            ]
        },
        {
            "positions": [
                -0.21172821943527476,
                -1.2531927273985786,
                1.8133173665066593,
                -1.0113930330012828,
                0.4836942773349997,
                -1.7958779124959905
            ]
        },
        {
            "positions": [
                -0.15503203168629542,
                -1.2129389893987166,
                1.8066719809833112,
                -0.9750308587339495,
                0.415762443431124,
                -1.978051339939715
            ]
        },
        {
            "positions": [
                -0.09833584393731609,
                -1.1726852513988548,
                1.8000265954599632,
                -0.9386686844666162,
                0.34783060952724854,
                -2.160224767383439
            ]
        },
        {
            "positions": [
                -0.04163965618833676,
                -1.1324315133989928,
                1.793381209936615,
                -0.9023065101992829,
                0.27989877562337306,
                -2.3423981948271626
            ]
        },
        {
            "positions": [
                0.015056531560642572,
                -1.092177775399131,
                1.7867358244132672,
                -0.8659443359319496,
                0.2119669417194976,
                -2.524571622270887
            ]
        },
        {
            "positions": [
                0.0717527193096219,
                -1.051924037399269,
                1.780090438889919,
                -0.8295821616646163,
                0.1440351078156219,
                -2.706745049714611
            ]
        },
        {
            "positions": [
                0.08851217762416828,
                -1.0832275679055037,
                1.848255330466186,
                -0.8311084858687988,
                0.14033255619291612,
                -2.853755473991068
            ]
        },
        {
            "positions": [
                0.10527163593871466,
                -1.1145310984117385,
                1.916420222042453,
                -0.8326348100729812,
                0.13663000457021032,
                -3.000765898267526
            ]
        },
        {
            "positions": [
                0.12203109425326104,
                -1.145834628917973,
                1.98458511361872,
                -0.8341611342771638,
                0.13292745294750455,
                -3.1477763225439834
            ]
        }
    ]
}