{
    "goal": {
        "global_pose": {
            "orientation": {
                "w": 0.7047431468963623,
                "x": -0.7094548344612122,
                "y": 0.0024358443915843964,
                "z": -0.0022348060738295317
            },
            "position": {
                "x": 0.6094750761985779,
                "y": 0.3671506643295288,
                "z": 0.19426114857196808
            }
        },
        "name": "move_to_magneteinheit_A"
    },
    "id": "BiTRRT_move_to_magneteinheit_A_146",
    "joint_names": [
        "shoulder_pan_joint",
        "shoulder_lift_joint",
        "elbow_joint",
        "wrist_1_joint",
        "wrist_2_joint",
        "wrist_3_joint"
    ],
    "metrics": {
        "cart_traj_len": 3.148926387324271,
        "distance_elbow_joint": 3.9426196840935144,
        "distance_shoulder_lift_joint": 0.45372267264195454,
        "distance_shoulder_pan_joint": 2.6291888358495963,
        "distance_wrist_1_joint": 3.573454086153638,
        "distance_wrist_2_joint": 1.4401148774352526,
        "distance_wrist_3_joint": 0.7819268978644549,
        "smoothness": 0.01037019439493339,
        "time": 0.143099742,
        "traj_len": 3.5806461782810124,
        "weighted_distance": 4.404367129719798
    },
    "planner": "BiTRRT",
    "start": {
        "state": {
            "elbow_joint": -1.919618573717145,
            "shoulder_lift_joint": -1.2443395971678275,
            "shoulder_pan_joint": 2.6996025300909787,
            "wrist_1_joint": -1.548550951253194,
            "wrist_2_joint": -1.5709469090946802,
            "wrist_3_joint": 0.4420197732051276
        }
    },
    "waypoints": [
        {
            "positions": [
                2.6996025300909787,
                -1.2443395971678275,
                -1.919618573717145,
                -1.548550951253194,
                -1.5709469090946802,
                0.4420197732051276
            ]
        },
        {
            "positions": [
                2.592361770921834,
                -1.2336625429723462,
                -1.805545938400187,
                -1.455102766339848,
                -1.5330817937391026,
                0.4164947671370082
            ]
        },
        {
            "positions": [
                2.485121011752689,
                -1.222985488776865,
                -1.6914733030832294,
                -1.3616545814265015,
                -1.495216678383525,
                0.39096976106888887
            ]
        },
        {
            "positions": [
                2.3778802525835436,
                -1.2123084345813837,
                -1.5774006677662715,
                -1.2682063965131554,
                -1.4573515630279474,
                0.36544475500076945
            ]
        },
        {
            "positions": [
                2.2706394934143987,
                -1.2016313803859024,
                -1.4633280324493139,
                -1.174758211599809,
                -1.4194864476723699,
                0.3399197489326501
            ]
        },
        {
            "positions": [
                2.163398734245254,
                -1.1909543261904212,
                -1.349255397132356,
                -1.0813100266864628,
                -1.3816213323167923,
                0.31439474286453073
            ]
        },
        {
            "positions": [
                2.056157975076109,
                -1.18027727199494,
                -1.2351827618153983,
                -0.9878618417731165,
                -1.3437562169612147,
                0.28886973679641137
            ]
        },
        {
            "positions": [
                1.9489172159069637,
                -1.1696002177994587,
                -1.1211101264984404,
                -0.8944136568597703,
                -1.3058911016056372,
                0.263344730728292
            ]
        },
        {
            "positions": [
                1.8416764567378188,
                -1.1589231636039774,
                -1.0070374911814826,
                -0.8009654719464241,
                -1.2680259862500598,
                0.23781972466017262
            ]
        },
        {
            "positions": [
                1.7344356975686739,
                -1.1482461094084961,
                -0.8929648558645249,
                -0.7075172870330778,
                -1.2301608708944822,
                0.21229471859205326
            ]
        },
        {
            "positions": [
                1.627194938399529,
                -1.1375690552130149,
                -0.778892220547567,
                -0.6140691021197315,
                -1.1922957555389047,
                0.18676971252393387
            ]
        },
        {
            "positions": [
                1.519954179230384,
                -1.1268920010175334,
                -0.6648195852306094,
                -0.5206209172063854,
                -1.154430640183327,
                0.1612447064558145
            ]
        },
        {
            "positions": [
                1.412713420061239,
                -1.1162149468220521,
                -0.5507469499136515,
                -0.427172732293039,
                -1.1165655248277495,
                0.13571970038769515
            ]
        },
        {
            "positions": [
                1.3054726608920941,
                -1.1055378926265709,
                -0.4366743145966938,
                -0.3337245473796928,
                -1.078700409472172,
                0.11019469431957579
            ]
        },
        {
            "positions": [
                1.1982319017229488,
                -1.0948608384310896,
                -0.32260167927973593,
                -0.24027636246634643,
                -1.0408352941165944,
                0.08466968825145638
            ]
        },
        {
            "positions": [
                1.090991142553804,
                -1.0841837842356083,
                -0.20852904396277805,
                -0.14682817755300026,
                -1.002970178761017,
                0.059144682183337016
            ]
        },
        {
            "positions": [
                0.983750383384659,
                -1.073506730040127,
                -0.09445640864582039,
                -0.053379992639654095,
                -0.9651050634054393,
                0.033619676115217656
            ]
        },
        {
            "positions": [
                0.8765096242155141,
                -1.0628296758446458,
                0.01961622667113727,
                0.04006819227369207,
                -0.9272399480498618,
                0.008094670047098351
            ]
        },
        {
            "positions": [
                0.769268865046369,
                -1.0521526216491646,
                0.13368886198809515,
                0.13351637718703846,
                -0.8893748326942842,
                -0.017430336021021064
            ]
        },
        {
            "positions": [
                0.6620281058772242,
                -1.0414755674536833,
                0.24776149730505304,
                0.22696456210038463,
                -0.8515097173387066,
                -0.042955342089140425
            ]
        },
        {
            "positions": [
                0.5547873467080793,
                -1.030798513258202,
                0.3618341326220109,
                0.320412747013731,
                -0.8136446019831292,
                -0.06848034815725984
            ]
        },
        {
            "positions": [
                0.4475465875389344,
                -1.0201214590627208,
                0.47590676793896836,
                0.4138609319270772,
                -0.7757794866275516,
                -0.0940053542253792
            ]
        },
        {
            "positions": [
                0.34030582836978907,
                -1.0094444048672395,
                0.5899794032559262,
                0.5073091168404233,
                -0.737914371271974,
                -0.11953036029349856
            ]
        },
        {
            "positions": [
                0.23306506920064424,
                -0.9987673506717583,
                0.7040520385728839,
                0.6007573017537698,
                -0.7000492559163964,
                -0.14505536636161787
            ]
        },
        {
            "positions": [
                0.16657643746841222,
                -0.9966632334579468,
                0.8005442331393198,
                0.7102376857551973,
                -0.6569341856553872,
                -0.17841555276201698
            ]
        },
        {
            "positions": [
                0.1000878057361802,
                -0.9945591162441355,
                0.8970364277057558,
                0.8197180697566246,
                -0.613819115394378,
                -0.2117757391624161
            ]
        },
        {
            "positions": [
                0.09949180925114504,
                -0.9663697615391228,
                1.0439605434565544,
                0.9622910762856088,
                -0.5486798046060122,
                -0.21449896850759767
            ]
        },
        {
            "positions": [
                0.09889581276610987,
                -0.9381804068341101,
                1.1908846592073532,
                1.104864082814593,
                -0.4835404938176464,
                -0.21722219785277924
            ]
        },
        {
            "positions": [
                0.0982998162810747,
                -0.9099910521290974,
                1.337808774958152,
                1.247437089343577,
                -0.41840118302928064,
                -0.2199454271979608
            ]
        },
        {
            "positions": [
                0.09770381979603954,
                -0.8818016974240845,
                1.4847328907089508,
                1.3900100958725614,
                -0.3532618722409149,
                -0.2226686565431424
            ]
        },
        {
            "positions": [
                0.09710782331100437,
                -0.8536123427190718,
                1.6316570064597495,
                1.5325831024015457,
                -0.28812256145254905,
                -0.22539188588832398
            ]
        },
        {
            "positions": [
                0.0965118268259692,
                -0.8254229880140591,
                1.7785811222105483,
                1.6751561089305298,
                -0.22298325066418334,
                -0.22811511523350556
            ]
        },
        {
            "positions": [
                0.09591583034093404,
                -0.7972336333090464,
                1.925505237961347,
                1.817729115459514,
                -0.15784393987581752,
                -0.23083834457868713
            ]
        },
        {
            "positions": [
                0.10866689839071032,
                -0.7939252789174597,
                1.974253174168859,
                1.9213161251799797,
                -0.14433798576762258,
                -0.17630395453836695
            ]
        },
        {
            "positions": [
                0.12141796644048661,
                -0.790616924525873,
                2.0230011103763705,
                2.024903134900445,
                -0.13083203165942764,
                -0.12176956449804677
            ]
        }
    ]
}{
    "goal": {
        "global_pose": {
            "orientation": {
                "w": 0.7047431468963623,
                "x": -0.7094548344612122,
                "y": 0.0024358443915843964,
                "z": -0.0022348060738295317
            },
            "position": {
                "x": 0.6094750761985779,
                "y": 0.3671506643295288,
                "z": 0.19426114857196808
            }
        },
        "name": "move_to_magneteinheit_A"
    },
    "id": "BiTRRT_move_to_magneteinheit_A_146",
    "joint_names": [
        "shoulder_pan_joint",
        "shoulder_lift_joint",
        "elbow_joint",
        "wrist_1_joint",
        "wrist_2_joint",
        "wrist_3_joint"
    ],
    "metrics": {
        "cart_traj_len": 1.2428704713423606,
        "distance_elbow_joint": 0.32687409569243897,
        "distance_shoulder_lift_joint": 0.7550263587492716,
        "distance_shoulder_pan_joint": 1.241335998852566,
        "distance_wrist_1_joint": 0.774200297281923,
        "distance_wrist_2_joint": 1.5505391918822788,
        "distance_wrist_3_joint": 4.2706312924335466,
        "smoothness": 0.0749775176895328,
        "time": 0.085097122,
        "traj_len": 2.986403729386237,
        "weighted_distance": 4.447989355756522
    },
    "planner": "BiTRRT",
    "start": {
        "state": {
            "elbow_joint": 1.919643534880228,
            "shoulder_lift_joint": -1.8972525353963687,
            "shoulder_pan_joint": -1.1188672234189438,
            "wrist_1_joint": -1.5931878212786155,
            "wrist_2_joint": 1.5706036197970081,
            "wrist_3_joint": 1.118896926603594
        }
    },
    "waypoints": [
        {
            "positions": [
                -1.1188672234189438,
                -1.8972525353963687,
                1.919643534880228,
                -1.5931878212786155,
                1.5706036197970081,
                1.118896926603594
            ]
        },
        {
            "positions": [
                -1.064107137147144,
                -1.8643414749509652,
                1.9129628673025707,
                -1.5549258152173313,
                1.4956393241449184,
                0.9400646412673582
            ]
        },
        {
            "positions": [
                -1.009347050875344,
                -1.8314304145055615,
                1.9062821997249135,
                -1.5166638091560474,
                1.420675028492829,
                0.7612323559311225
            ]
        },
        {
            "positions": [
                -0.9545869646035441,
                -1.798519354060158,
                1.8996015321472561,
                -1.4784018030947632,
                1.3457107328407392,
                0.5824000705948867
            ]
        },
        {
            "positions": [
                -0.8998268783317441,
                -1.7656082936147546,
                1.8929208645695987,
                -1.440139797033479,
                1.2707464371886494,
                0.4035677852586509
            ]
        },
        {
            "positions": [
                -0.8450667920599442,
                -1.7326972331693509,
                1.8862401969919416,
                -1.4018777909721951,
                1.19578214153656,
                0.22473549992241515
            ]
        },
        {
            "positions": [
                -0.7903067057881443,
                -1.6997861727239474,
                1.8795595294142842,
                -1.363615784910911,
                1.1208178458844702,
                0.04590321458617952
            ]
        },
        {
            "positions": [
                -0.7355466195163445,
                -1.666875112278544,
                1.8728788618366268,
                -1.3253537788496268,
                1.0458535502323807,
                -0.13292907075005633
            ]
        },
        {
            "positions": [
                -0.6807865332445444,
                -1.6339640518331402,
                1.8661981942589696,
                -1.2870917727883426,
                0.9708892545802909,
                -0.3117613560862922
            ]
        },
        {
            "positions": [
                -0.6260264469727446,
                -1.6010529913877367,
                1.8595175266813122,
                -1.2488297667270587,
                0.8959249589282012,
                -0.49059364142252804
            ]
        },
        {
            "positions": [
                -0.5712663607009446,
                -1.5681419309423332,
                1.8528368591036548,
                -1.2105677606657745,
                0.8209606632761116,
                -0.6694259267587637
            ]
        },
        {
            "positions": [
                -0.5165062744291447,
                -1.5352308704969295,
                1.8461561915259976,
                -1.1723057546044904,
                0.7459963676240219,
                -0.8482582120949995
            ]
        },
        {
            "positions": [
                -0.4617461881573448,
                -1.5023198100515263,
                1.8394755239483402,
                -1.1340437485432064,
                0.6710320719719324,
                -1.027090497431235
            ]
        },
        {
            "positions": [
                -0.40698610188554485,
                -1.4694087496061226,
                1.832794856370683,
                -1.0957817424819223,
                0.5960677763198426,
                -1.2059227827674712
            ]
        },
        {
            "positions": [
                -0.352226015613745,
                -1.436497689160719,
                1.8261141887930257,
                -1.0575197364206383,
                0.521103480667753,
                -1.3847550681037066
            ]
        },
        {
            "positions": [
                -0.29746592934194505,
                -1.4035866287153156,
                1.8194335212153683,
                -1.019257730359354,
                0.4461391850156633,
                -1.5635873534399425
            ]
        },
        {
            "positions": [
                -0.24270584307014498,
                -1.3706755682699119,
                1.812752853637711,
                -0.9809957242980699,
                0.37117488936357357,
                -1.7424196387761783
            ]
        },
        {
            "positions": [
                -0.18794575679834513,
                -1.3377645078245084,
                1.8060721860600537,
                -0.9427337182367859,
                0.29621059371148406,
                -1.9212519241124137
            ]
        },
        {
            "positions": [
                -0.13318567052654517,
                -1.304853447379105,
                1.7993915184823963,
                -0.9044717121755018,
                0.22124629805939433,
                -2.1000842094486503
            ]
        },
        {
            "positions": [
                -0.07842558425474544,
                -1.2719423869337012,
                1.7927108509047391,
                -0.8662097061142178,
                0.14628200240730482,
                -2.2789164947848857
            ]
        },
        {
            "positions": [
                -0.023665497982945295,
                -1.2390313264882977,
                1.7860301833270817,
                -0.8279477000529336,
                0.07131770675521512,
                -2.4577487801211215
            ]
        },
        {
            "positions": [
                0.012868070371196513,
                -1.2148300390279976,
                1.834345369361905,
                -0.8257076560388733,
                0.08413102646533649,
                -2.631245176548329
            ]
        },
        {
            "positions": [
                0.04940163872533832,
                -1.1906287515676974,
                1.8826605553967282,
                -0.823467612024813,
                0.09694434617545784,
                -2.804741572975537
            ]
        },
        {
            "positions": [
                0.08593520707948013,
                -1.1664274641073973,
                1.9309757414315512,
                -0.8212275680107528,
                0.1097576658855792,
                -2.9782379694027448
            ]
        },
        {
            "positions": [
                0.12246877543362195,
                -1.1422261766470971,
                1.9792909274663744,
                -0.8189875239966925,
                0.12257098559570057,
                -3.1517343658299524
            ]
        }
    ]
}