{
    "goal": {
        "global_pose": {
            "orientation": {
                "w": 0.7047431468963623,
                "x": -0.7094548344612122,
                "y": 0.0024358443915843964,
                "z": -0.0022348060738295317
            },
            "position": {
                "x": 0.6094750761985779,
                "y": 0.3671506643295288,
                "z": 0.19426114857196808
            }
        },
        "name": "move_to_magneteinheit_A"
    },
    "id": "BiTRRT_move_to_magneteinheit_A_84",
    "joint_names": [
        "shoulder_pan_joint",
        "shoulder_lift_joint",
        "elbow_joint",
        "wrist_1_joint",
        "wrist_2_joint",
        "wrist_3_joint"
    ],
    "metrics": {
        "cart_traj_len": 3.998035945248987,
        "distance_elbow_joint": 3.910124624166216,
        "distance_shoulder_lift_joint": 1.9697364652779883,
        "distance_shoulder_pan_joint": 6.7916209052049625,
        "distance_wrist_1_joint": 3.451669029156565,
        "distance_wrist_2_joint": 3.209466132182049,
        "distance_wrist_3_joint": 3.0305961785046094,
        "smoothness": 0.26971461350332626,
        "time": 0.124396391,
        "traj_len": 4.728975928728376,
        "weighted_distance": 5.923304892780738
    },
    "planner": "BiTRRT",
    "start": {
        "state": {
            "elbow_joint": -1.919618573717145,
            "shoulder_lift_joint": -1.2443395971678275,
            "shoulder_pan_joint": 2.6996025300909787,
            "wrist_1_joint": -1.548550951253194,
            "wrist_2_joint": -1.5709469090946802,
            "wrist_3_joint": 0.4420197732051276
        }
    },
    "waypoints": [
        {
            "positions": [
                2.6996025300909787,
                -1.2443395971678275,
                -1.919618573717145,
                -1.548550951253194,
                -1.5709469090946802,
                0.4420197732051276
            ]
        },
        {
            "positions": [
                2.538075076483633,
                -1.2702235972381541,
                -1.8007025621537662,
                -1.5373304721441825,
                -1.6015268004598633,
                0.48695812867218213
            ]
        },
        {
            "positions": [
                2.3765476228762865,
                -1.2961075973084808,
                -1.6817865505903873,
                -1.5261099930351711,
                -1.6321066918250466,
                0.5318964841392367
            ]
        },
        {
            "positions": [
                2.2150201692689406,
                -1.3219915973788074,
                -1.5628705390270086,
                -1.5148895139261596,
                -1.6626865831902298,
                0.5768348396062913
            ]
        },
        {
            "positions": [
                2.0534927156615947,
                -1.347875597449134,
                -1.4439545274636298,
                -1.5036690348171482,
                -1.6932664745554131,
                0.6217731950733458
            ]
        },
        {
            "positions": [
                1.8919652620542484,
                -1.3737595975194608,
                -1.325038515900251,
                -1.4924485557081366,
                -1.7238463659205963,
                0.6667115505404004
            ]
        },
        {
            "positions": [
                1.7304378084469025,
                -1.3996435975897876,
                -1.2061225043368722,
                -1.4812280765991253,
                -1.7544262572857796,
                0.711649906007455
            ]
        },
        {
            "positions": [
                1.5689103548395564,
                -1.4255275976601143,
                -1.0872064927734932,
                -1.4700075974901137,
                -1.7850061486509627,
                0.7565882614745096
            ]
        },
        {
            "positions": [
                1.4073829012322105,
                -1.451411597730441,
                -0.9682904812101146,
                -1.4587871183811023,
                -1.815586040016146,
                0.8015266169415641
            ]
        },
        {
            "positions": [
                1.2458554476248644,
                -1.4772955978007676,
                -0.8493744696467358,
                -1.4475666392720907,
                -1.8461659313813292,
                0.8464649724086187
            ]
        },
        {
            "positions": [
                1.0843279940175183,
                -1.5031795978710942,
                -0.7304584580833569,
                -1.4363461601630791,
                -1.8767458227465124,
                0.8914033278756733
            ]
        },
        {
            "positions": [
                0.9228005404101725,
                -1.5290635979414209,
                -0.6115424465199784,
                -1.4251256810540678,
                -1.9073257141116957,
                0.9363416833427278
            ]
        },
        {
            "positions": [
                0.7612730868028263,
                -1.5549475980117475,
                -0.4926264349565994,
                -1.4139052019450562,
                -1.9379056054768788,
                0.9812800388097824
            ]
        },
        {
            "positions": [
                0.59974563319548,
                -1.5808315980820742,
                -0.37371042339322047,
                -1.4026847228360448,
                -1.9684854968420622,
                1.026218394276837
            ]
        },
        {
            "positions": [
                0.43821817958813414,
                -1.6067155981524008,
                -0.25479441182984175,
                -1.3914642437270333,
                -1.9990653882072453,
                1.0711567497438916
            ]
        },
        {
            "positions": [
                0.2766907259807878,
                -1.6325995982227277,
                -0.1358784002664628,
                -1.380243764618022,
                -2.0296452795724287,
                1.1160951052109462
            ]
        },
        {
            "positions": [
                0.11516327237344237,
                -1.6584835982930544,
                -0.016962388703084308,
                -1.3690232855090103,
                -2.060225170937612,
                1.1610334606780006
            ]
        },
        {
            "positions": [
                -0.04636418123390351,
                -1.684367598363381,
                0.10195362286029463,
                -1.357802806399999,
                -2.090805062302795,
                1.2059718161450552
            ]
        },
        {
            "positions": [
                -0.20789163484124984,
                -1.7102515984337077,
                0.22086963442367336,
                -1.3465823272909874,
                -2.1213849536679783,
                1.2509101716121098
            ]
        },
        {
            "positions": [
                -0.3694190884485957,
                -1.7361355985040343,
                0.3397856459870521,
                -1.335361848181976,
                -2.1519648450331617,
                1.2958485270791644
            ]
        },
        {
            "positions": [
                -0.530946542055942,
                -1.762019598574361,
                0.45870165755043124,
                -1.3241413690729644,
                -2.182544736398345,
                1.340786882546219
            ]
        },
        {
            "positions": [
                -0.6924739956632879,
                -1.7879035986446876,
                0.57761766911381,
                -1.3129208899639528,
                -2.213124627763528,
                1.3857252380132736
            ]
        },
        {
            "positions": [
                -0.8540014492706338,
                -1.8137875987150143,
                0.6965336806771882,
                -1.3017004108549415,
                -2.2437045191287113,
                1.430663593480328
            ]
        },
        {
            "positions": [
                -1.0155289028779801,
                -1.839671598785341,
                0.8154496922405674,
                -1.29047993174593,
                -2.2742844104938946,
                1.4756019489473828
            ]
        },
        {
            "positions": [
                -1.177056356485326,
                -1.8655555988556678,
                0.9343657038039461,
                -1.2792594526369185,
                -2.3048643018590775,
                1.5205403044144374
            ]
        },
        {
            "positions": [
                -1.338583810092672,
                -1.8914395989259942,
                1.0532817153673248,
                -1.268038973527907,
                -2.335444193224261,
                1.5654786598814918
            ]
        },
        {
            "positions": [
                -1.5001112637000187,
                -1.917323598996321,
                1.172197726930704,
                -1.2568184944188956,
                -2.3660240845894442,
                1.6104170153485466
            ]
        },
        {
            "positions": [
                -1.6616387173073646,
                -1.9432075990666475,
                1.2911137384940823,
                -1.245598015309884,
                -2.396603975954627,
                1.655355370815601
            ]
        },
        {
            "positions": [
                -1.8231661709147104,
                -1.9690915991369744,
                1.4100297500574615,
                -1.2343775362008724,
                -2.4271838673198105,
                1.7002937262826556
            ]
        },
        {
            "positions": [
                -1.9846936245220563,
                -1.994975599207301,
                1.5289457616208404,
                -1.223157057091861,
                -2.457763758684994,
                1.7452320817497102
            ]
        },
        {
            "positions": [
                -1.9094320262866302,
                -1.9514362969487826,
                1.54543005765042,
                -1.111504373699174,
                -2.3748119985924316,
                1.6835398006797093
            ]
        },
        {
            "positions": [
                -1.8341704280512041,
                -1.9078969946902642,
                1.56191435368,
                -0.9998516903064874,
                -2.29186023849987,
                1.6218475196097082
            ]
        },
        {
            "positions": [
                -1.758908829815778,
                -1.864357692431746,
                1.5783986497095797,
                -0.8881990069138004,
                -2.2089084784073076,
                1.5601552385397073
            ]
        },
        {
            "positions": [
                -1.683647231580352,
                -1.8208183901732276,
                1.5948829457391593,
                -0.7765463235211136,
                -2.125956718314746,
                1.4984629574697064
            ]
        },
        {
            "positions": [
                -1.6083856333449256,
                -1.7772790879147091,
                1.6113672417687392,
                -0.6648936401284267,
                -2.0430049582221836,
                1.4367706763997052
            ]
        },
        {
            "positions": [
                -1.5331240351094997,
                -1.7337397856561907,
                1.627851537798319,
                -0.5532409567357398,
                -1.9600531981296219,
                1.3750783953297043
            ]
        },
        {
            "positions": [
                -1.4578624368740734,
                -1.6902004833976725,
                1.6443358338278986,
                -0.44158827334305295,
                -1.8771014380370596,
                1.3133861142597034
            ]
        },
        {
            "positions": [
                -1.3826008386386475,
                -1.646661181139154,
                1.6608201298574785,
                -0.3299355899503661,
                -1.7941496779444979,
                1.2516938331897023
            ]
        },
        {
            "positions": [
                -1.3073392404032211,
                -1.6031218788806356,
                1.6773044258870582,
                -0.21828290655767923,
                -1.7111979178519356,
                1.1900015521197012
            ]
        },
        {
            "positions": [
                -1.232077642167795,
                -1.5595825766221172,
                1.693788721916638,
                -0.10663022316499227,
                -1.6282461577593736,
                1.1283092710497002
            ]
        },
        {
            "positions": [
                -1.156816043932369,
                -1.5160432743635988,
                1.7102730179462178,
                0.005022460227694481,
                -1.5452943976668116,
                1.0666169899796993
            ]
        },
        {
            "positions": [
                -1.081554445696943,
                -1.4725039721050805,
                1.7267573139757975,
                0.11667514362038145,
                -1.4623426375742499,
                1.0049247089096984
            ]
        },
        {
            "positions": [
                -1.0062928474615167,
                -1.428964669846562,
                1.7432416100053774,
                0.22832782701306842,
                -1.3793908774816876,
                0.9432324278396973
            ]
        },
        {
            "positions": [
                -0.9310312492260906,
                -1.3854253675880437,
                1.759725906034957,
                0.33998051040575517,
                -1.2964391173891257,
                0.8815401467696964
            ]
        },
        {
            "positions": [
                -0.8557696509906645,
                -1.3418860653295255,
                1.7762102020645367,
                0.4516331937984419,
                -1.2134873572965637,
                0.8198478656996955
            ]
        },
        {
            "positions": [
                -0.7805080527552384,
                -1.2983467630710068,
                1.7926944980941166,
                0.5632858771911289,
                -1.1305355972040017,
                0.7581555846296945
            ]
        },
        {
            "positions": [
                -0.7052464545198123,
                -1.2548074608124886,
                1.8091787941236963,
                0.6749385605838156,
                -1.0475838371114397,
                0.6964633035596934
            ]
        },
        {
            "positions": [
                -0.6299848562843859,
                -1.21126815855397,
                1.825663090153276,
                0.7865912439765026,
                -0.9646320770188774,
                0.6347710224896923
            ]
        },
        {
            "positions": [
                -0.5547232580489598,
                -1.1677288562954518,
                1.842147386182856,
                0.8982439273691898,
                -0.8816803169263154,
                0.5730787414196914
            ]
        },
        {
            "positions": [
                -0.4794616598135337,
                -1.1241895540369333,
                1.8586316822124356,
                1.0098966107618765,
                -0.7987285568337534,
                0.5113864603496905
            ]
        },
        {
            "positions": [
                -0.40420006157810784,
                -1.080650251778415,
                1.8751159782420155,
                1.1215492941545633,
                -0.7157767967411917,
                0.44969417927968935
            ]
        },
        {
            "positions": [
                -0.32893846334268173,
                -1.0371109495198967,
                1.8916002742715952,
                1.23320197754725,
                -0.6328250366486297,
                0.38800189820968845
            ]
        },
        {
            "positions": [
                -0.2536768651072556,
                -0.9935716472613783,
                1.9080845703011748,
                1.3448546609399368,
                -0.5498732765560677,
                0.32630961713968754
            ]
        },
        {
            "positions": [
                -0.17841526687182951,
                -0.9500323450028598,
                1.9245688663307545,
                1.456507344332624,
                -0.46692151646350566,
                0.2646173360696866
            ]
        },
        {
            "positions": [
                -0.10315366863640318,
                -0.9064930427443414,
                1.9410531623603344,
                1.5681600277253107,
                -0.3839697563709432,
                0.2029250549996855
            ]
        },
        {
            "positions": [
                -0.027892070400977076,
                -0.862953740485823,
                1.957537458389914,
                1.679812711117998,
                -0.30101799627838144,
                0.14123277392968436
            ]
        },
        {
            "positions": [
                0.047369527834449254,
                -0.8194144382273048,
                1.974021754419494,
                1.7914653945106846,
                -0.21806623618581922,
                0.07954049285968345
            ]
        },
        {
            "positions": [
                0.12263112606987493,
                -0.7758751359687863,
                1.9905060504490737,
                1.9031180779033716,
                -0.13511447609325727,
                0.017848211789682555
            ]
        }
    ]
}{
    "goal": {
        "global_pose": {
            "orientation": {
                "w": 0.7047431468963623,
                "x": -0.7094548344612122,
                "y": 0.0024358443915843964,
                "z": -0.0022348060738295317
            },
            "position": {
                "x": 0.6094750761985779,
                "y": 0.3671506643295288,
                "z": 0.19426114857196808
            }
        },
        "name": "move_to_magneteinheit_A"
    },
    "id": "BiTRRT_move_to_magneteinheit_A_84",
    "joint_names": [
        "shoulder_pan_joint",
        "shoulder_lift_joint",
        "elbow_joint",
        "wrist_1_joint",
        "wrist_2_joint",
        "wrist_3_joint"
    ],
    "metrics": {
        "cart_traj_len": 1.1910979338440981,
        "distance_elbow_joint": 0.05153883161545281,
        "distance_shoulder_lift_joint": 0.7582660071934313,
        "distance_shoulder_pan_joint": 1.241750827534973,
        "distance_wrist_1_joint": 1.084702584693861,
        "distance_wrist_2_joint": 1.5080848827932836,
        "distance_wrist_3_joint": 4.308003788072691,
        "smoothness": 0.30843849234605114,
        "time": 0.076915781,
        "traj_len": 2.9920472793563424,
        "weighted_distance": 4.490116030297682
    },
    "planner": "BiTRRT",
    "start": {
        "state": {
            "elbow_joint": 1.919643534880228,
            "shoulder_lift_joint": -1.8972525353963687,
            "shoulder_pan_joint": -1.1188672234189438,
            "wrist_1_joint": -1.5931878212786155,
            "wrist_2_joint": 1.5706036197970081,
            "wrist_3_joint": 1.118896926603594
        }
    },
    "waypoints": [
        {
            "positions": [
                -1.1188672234189438,
                -1.8972525353963687,
                1.919643534880228,
                -1.5931878212786155,
                1.5706036197970081,
                1.118896926603594
            ]
        },
        {
            "positions": [
                -1.0658410319279459,
                -1.8666275642570753,
                1.9210330977730412,
                -1.5501407238618472,
                1.5036371387978749,
                0.9253162997299518
            ]
        },
        {
            "positions": [
                -1.0128148404369477,
                -1.836002593117782,
                1.9224226606658545,
                -1.507093626445079,
                1.4366706577987416,
                0.7317356728563095
            ]
        },
        {
            "positions": [
                -0.9597886489459497,
                -1.8053776219784883,
                1.9238122235586677,
                -1.4640465290283107,
                1.3697041767996083,
                0.5381550459826673
            ]
        },
        {
            "positions": [
                -0.9067624574549518,
                -1.7747526508391949,
                1.925201786451481,
                -1.4209994316115422,
                1.302737695800475,
                0.344574419109025
            ]
        },
        {
            "positions": [
                -0.8537362659639537,
                -1.7441276796999015,
                1.926591349344294,
                -1.377952334194774,
                1.2357712148013418,
                0.15099379223538278
            ]
        },
        {
            "positions": [
                -0.8007100744729556,
                -1.713502708560608,
                1.9279809122371072,
                -1.3349052367780057,
                1.1688047338022085,
                -0.04258683463825941
            ]
        },
        {
            "positions": [
                -0.7476838829819576,
                -1.6828777374213146,
                1.9293704751299205,
                -1.2918581393612374,
                1.1018382528030752,
                -0.2361674615119016
            ]
        },
        {
            "positions": [
                -0.6946576914909596,
                -1.6522527662820212,
                1.9307600380227337,
                -1.2488110419444691,
                1.0348717718039417,
                -0.429748088385544
            ]
        },
        {
            "positions": [
                -0.6416314999999615,
                -1.6216277951427276,
                1.932149600915547,
                -1.2057639445277006,
                0.9679052908048085,
                -0.6233287152591862
            ]
        },
        {
            "positions": [
                -0.5886053085089635,
                -1.5910028240034342,
                1.93353916380836,
                -1.1627168471109324,
                0.9009388098056752,
                -0.8169093421328284
            ]
        },
        {
            "positions": [
                -0.5355791170179655,
                -1.5603778528641408,
                1.9349287267011732,
                -1.119669749694164,
                0.8339723288065419,
                -1.0104899690064706
            ]
        },
        {
            "positions": [
                -0.4825529255269675,
                -1.5297528817248474,
                1.9363182895939866,
                -1.0766226522773958,
                0.7670058478074087,
                -1.2040705958801128
            ]
        },
        {
            "positions": [
                -0.4295267340359693,
                -1.4991279105855537,
                1.9377078524867997,
                -1.0335755548606276,
                0.7000393668082753,
                -1.397651222753755
            ]
        },
        {
            "positions": [
                -0.37650054254497134,
                -1.4685029394462603,
                1.939097415379613,
                -0.9905284574438592,
                0.6330728858091421,
                -1.5912318496273972
            ]
        },
        {
            "positions": [
                -0.3234743510539734,
                -1.437877968306967,
                1.940486978272426,
                -0.9474813600270909,
                0.5661064048100088,
                -1.7848124765010394
            ]
        },
        {
            "positions": [
                -0.2704481595629753,
                -1.4072529971676735,
                1.9418765411652394,
                -0.9044342626103226,
                0.49913992381087535,
                -1.978393103374682
            ]
        },
        {
            "positions": [
                -0.21742196807197722,
                -1.37662802602838,
                1.9432661040580526,
                -0.8613871651935543,
                0.4321734428117423,
                -2.1719737302483235
            ]
        },
        {
            "positions": [
                -0.16439577658097915,
                -1.3460030548890867,
                1.9446556669508657,
                -0.8183400677767859,
                0.3652069618126088,
                -2.365554357121966
            ]
        },
        {
            "positions": [
                -0.11136958508998118,
                -1.3153780837497933,
                1.946045229843679,
                -0.7752929703600177,
                0.29824048081347554,
                -2.559134983995609
            ]
        },
        {
            "positions": [
                -0.05834339359898322,
                -1.2847531126104998,
                1.9474347927364921,
                -0.7322458729432494,
                0.23127399981434227,
                -2.7527156108692505
            ]
        },
        {
            "positions": [
                -0.005317202107985031,
                -1.2541281414712062,
                1.9488243556293054,
                -0.689198775526481,
                0.164307518815209,
                -2.946296237742893
            ]
        },
        {
            "positions": [
                0.04770898938301296,
                -1.2235031703319128,
                1.9502139185221186,
                -0.6461516781097127,
                0.09734103781607567,
                -3.139876864616535
            ]
        },
        {
            "positions": [
                0.08529629674952097,
                -1.1812448492674252,
                1.9606981425088996,
                -0.7149848988721917,
                0.11475218822225125,
                -3.164491863042816
            ]
        },
        {
            "positions": [
                0.12288360411602897,
                -1.1389865282029374,
                1.971182366495681,
                -0.7838181196346707,
                0.13216333862842683,
                -3.1891068614690967
            ]
        }
    ]
}