{
    "goal": {
        "global_pose": {
            "orientation": {
                "w": 0.7047431468963623,
                "x": -0.7094548344612122,
                "y": 0.0024358443915843964,
                "z": -0.0022348060738295317
            },
            "position": {
                "x": 0.6094750761985779,
                "y": 0.3671506643295288,
                "z": 0.19426114857196808
            }
        },
        "name": "move_to_magneteinheit_A"
    },
    "id": "BiTRRT_move_to_magneteinheit_A_57",
    "joint_names": [
        "shoulder_pan_joint",
        "shoulder_lift_joint",
        "elbow_joint",
        "wrist_1_joint",
        "wrist_2_joint",
        "wrist_3_joint"
    ],
    "metrics": {
        "cart_traj_len": 4.048935879905771,
        "distance_elbow_joint": 3.870134041823083,
        "distance_shoulder_lift_joint": 0.5595280688244832,
        "distance_shoulder_pan_joint": 2.9191848127441724,
        "distance_wrist_1_joint": 0.99539859740868,
        "distance_wrist_2_joint": 3.850214723156145,
        "distance_wrist_3_joint": 2.5698899002364874,
        "smoothness": 0.23435317360590452,
        "time": 0.108540002,
        "traj_len": 3.842440649404106,
        "weighted_distance": 4.974911382651038
    },
    "planner": "BiTRRT",
    "start": {
        "state": {
            "elbow_joint": -1.919618573717145,
            "shoulder_lift_joint": -1.2443395971678275,
            "shoulder_pan_joint": 2.6996025300909787,
            "wrist_1_joint": -1.548550951253194,
            "wrist_2_joint": -1.5709469090946802,
            "wrist_3_joint": 0.4420197732051276
        }
    },
    "waypoints": [
        {
            "positions": [
                2.6996025300909787,
                -1.2443395971678275,
                -1.919618573717145,
                -1.548550951253194,
                -1.5709469090946802,
                0.4420197732051276
            ]
        },
        {
            "positions": [
                2.5850904240915566,
                -1.2302240937359399,
                -1.7979925432918225,
                -1.5513700330078626,
                -1.4554628491786308,
                0.45764607751350833
            ]
        },
        {
            "positions": [
                2.470578318092135,
                -1.2161085903040523,
                -1.6763665128665,
                -1.5541891147625313,
                -1.3399787892625816,
                0.47327238182188913
            ]
        },
        {
            "positions": [
                2.356066212092713,
                -1.2019930868721647,
                -1.5547404824411775,
                -1.5570081965171998,
                -1.2244947293465325,
                0.4888986861302699
            ]
        },
        {
            "positions": [
                2.2415541060932913,
                -1.1878775834402768,
                -1.433114452015855,
                -1.5598272782718683,
                -1.109010669430483,
                0.5045249904386506
            ]
        },
        {
            "positions": [
                2.1270420000938692,
                -1.1737620800083892,
                -1.3114884215905325,
                -1.562646360026537,
                -0.9935266095144338,
                0.5201512947470315
            ]
        },
        {
            "positions": [
                2.012529894094447,
                -1.1596465765765016,
                -1.18986239116521,
                -1.5654654417812055,
                -0.8780425495983846,
                0.5357775990554122
            ]
        },
        {
            "positions": [
                1.8980177880950253,
                -1.145531073144614,
                -1.0682363607398875,
                -1.568284523535874,
                -0.7625584896823353,
                0.551403903363793
            ]
        },
        {
            "positions": [
                1.7835056820956035,
                -1.1314155697127264,
                -0.946610330314565,
                -1.5711036052905427,
                -0.647074429766286,
                0.5670302076721737
            ]
        },
        {
            "positions": [
                1.6689935760961816,
                -1.1173000662808388,
                -0.8249842998892425,
                -1.5739226870452112,
                -0.5315903698502367,
                0.5826565119805545
            ]
        },
        {
            "positions": [
                1.5544814700967595,
                -1.1031845628489512,
                -0.70335826946392,
                -1.5767417687998797,
                -0.4161063099341875,
                0.5982828162889353
            ]
        },
        {
            "positions": [
                1.4399693640973377,
                -1.0890690594170636,
                -0.5817322390385975,
                -1.5795608505545484,
                -0.30062225001813836,
                0.613909120597316
            ]
        },
        {
            "positions": [
                1.3254572580979158,
                -1.074953555985176,
                -0.460106208613275,
                -1.582379932309217,
                -0.18513819010208898,
                0.6295354249056968
            ]
        },
        {
            "positions": [
                1.210945152098494,
                -1.0608380525532881,
                -0.3384801781879525,
                -1.5851990140638854,
                -0.06965413018603983,
                0.6451617292140776
            ]
        },
        {
            "positions": [
                1.0964330460990719,
                -1.0467225491214005,
                -0.21685414776263,
                -1.5880180958185541,
                0.045829929730009544,
                0.6607880335224583
            ]
        },
        {
            "positions": [
                0.98192094009965,
                -1.032607045689513,
                -0.09522811733730752,
                -1.5908371775732226,
                0.1613139896460587,
                0.676414337830839
            ]
        },
        {
            "positions": [
                0.8674088341002282,
                -1.0184915422576253,
                0.02639791308801498,
                -1.5936562593278911,
                0.2767980495621081,
                0.6920406421392198
            ]
        },
        {
            "positions": [
                0.7528967281008061,
                -1.0043760388257377,
                0.1480239435133377,
                -1.5964753410825598,
                0.39228210947815745,
                0.7076669464476006
            ]
        },
        {
            "positions": [
                0.6383846221013845,
                -0.9902605353938501,
                0.26964997393865997,
                -1.5992944228372283,
                0.5077661693942068,
                0.7232932507559814
            ]
        },
        {
            "positions": [
                0.5238725161019624,
                -0.9761450319619625,
                0.39127600436398224,
                -1.6021135045918968,
                0.6232502293102558,
                0.7389195550643621
            ]
        },
        {
            "positions": [
                0.4093604101025403,
                -0.9620295285300747,
                0.512902034789305,
                -1.6049325863465655,
                0.7387342892263051,
                0.754545859372743
            ]
        },
        {
            "positions": [
                0.2948483041031187,
                -0.9479140250981871,
                0.6345280652146277,
                -1.607751668101234,
                0.8542183491423545,
                0.7701721636811236
            ]
        },
        {
            "positions": [
                0.1803361981036966,
                -0.9337985216662994,
                0.75615409563995,
                -1.6105707498559025,
                0.9697024090584034,
                0.7857984679895045
            ]
        },
        {
            "positions": [
                0.06582409210427453,
                -0.9196830182344118,
                0.8777801260652727,
                -1.6133898316105713,
                1.0851864689744528,
                0.8014247722978852
            ]
        },
        {
            "positions": [
                -0.0486880138951471,
                -0.9055675148025242,
                0.9994061564905952,
                -1.6162089133652398,
                1.2006705288905022,
                0.817051076606266
            ]
        },
        {
            "positions": [
                -0.036481280412429616,
                -0.9213357995496084,
                1.0673425358916913,
                -1.5499417251297658,
                1.1236278656640049,
                0.9738266906659337
            ]
        },
        {
            "positions": [
                -0.024274546929712135,
                -0.9371040842966928,
                1.1352789152927873,
                -1.483674536894292,
                1.0465852024375075,
                1.1306023047256015
            ]
        },
        {
            "positions": [
                -0.012067813446994653,
                -0.952872369043777,
                1.2032152946938834,
                -1.4174073486588181,
                0.96954253921101,
                1.2873779187852694
            ]
        },
        {
            "positions": [
                0.00013892003572282818,
                -0.9686406537908613,
                1.2711516740949795,
                -1.3511401604233442,
                0.8924998759845126,
                1.444153532844937
            ]
        },
        {
            "positions": [
                0.012345653518440317,
                -0.9844089385379455,
                1.3390880534960756,
                -1.2848729721878702,
                0.8154572127580152,
                1.600929146904605
            ]
        },
        {
            "positions": [
                0.02455238700115779,
                -1.00017722328503,
                1.4070244328971717,
                -1.2186057839523965,
                0.7384145495315179,
                1.7577047609642726
            ]
        },
        {
            "positions": [
                0.03675912048387528,
                -1.015945508032114,
                1.4749608122982676,
                -1.1523385957169225,
                0.6613718863050204,
                1.9144803750239405
            ]
        },
        {
            "positions": [
                0.048965853966592754,
                -1.0317137927791984,
                1.542897191699364,
                -1.0860714074814486,
                0.5843292230785231,
                2.071255989083608
            ]
        },
        {
            "positions": [
                0.061172587449310256,
                -1.0474820775262828,
                1.6108335711004598,
                -1.0198042192459749,
                0.5072865598520255,
                2.2280316031432763
            ]
        },
        {
            "positions": [
                0.07337932093202773,
                -1.0632503622733669,
                1.678769950501556,
                -0.9535370310105009,
                0.4302438966255282,
                2.384807217202944
            ]
        },
        {
            "positions": [
                0.0855860544147452,
                -1.0790186470204512,
                1.746706329902652,
                -0.8872698427750271,
                0.35320123339903087,
                2.5415828312626116
            ]
        },
        {
            "positions": [
                0.09779278789746268,
                -1.0947869317675356,
                1.814642709303748,
                -0.8210026545395532,
                0.27615857017253354,
                2.6983584453222793
            ]
        },
        {
            "positions": [
                0.10999952138018018,
                -1.1105552165146197,
                1.8825790887048441,
                -0.7547354663040793,
                0.19911590694603598,
                2.8551340593819474
            ]
        },
        {
            "positions": [
                0.12220625486289766,
                -1.126323501261704,
                1.9505154681059402,
                -0.6884682780686054,
                0.12207324371953876,
                3.011909673441615
            ]
        }
    ]
}{
    "goal": {
        "global_pose": {
            "orientation": {
                "w": 0.7047431468963623,
                "x": -0.7094548344612122,
                "y": 0.0024358443915843964,
                "z": -0.0022348060738295317
            },
            "position": {
                "x": 0.6094750761985779,
                "y": 0.3671506643295288,
                "z": 0.19426114857196808
            }
        },
        "name": "move_to_magneteinheit_A"
    },
    "id": "BiTRRT_move_to_magneteinheit_A_57",
    "joint_names": [
        "shoulder_pan_joint",
        "shoulder_lift_joint",
        "elbow_joint",
        "wrist_1_joint",
        "wrist_2_joint",
        "wrist_3_joint"
    ],
    "metrics": {
        "cart_traj_len": 1.337466486835178,
        "distance_elbow_joint": 0.7237386973042459,
        "distance_shoulder_lift_joint": 0.757284832729725,
        "distance_shoulder_pan_joint": 1.2416891223837445,
        "distance_wrist_1_joint": 0.79642519639141,
        "distance_wrist_2_joint": 1.4437856276587873,
        "distance_wrist_3_joint": 4.296231999669265,
        "smoothness": 0.0938206035100093,
        "time": 0.080222536,
        "traj_len": 3.042886043896021,
        "weighted_distance": 4.482391136383114
    },
    "planner": "BiTRRT",
    "start": {
        "state": {
            "elbow_joint": 1.919643534880228,
            "shoulder_lift_joint": -1.8972525353963687,
            "shoulder_pan_joint": -1.1188672234189438,
            "wrist_1_joint": -1.5931878212786155,
            "wrist_2_joint": 1.5706036197970081,
            "wrist_3_joint": 1.118896926603594
        }
    },
    "waypoints": [
        {
            "positions": [
                -1.1188672234189438,
                -1.8972525353963687,
                1.919643534880228,
                -1.5931878212786155,
                1.5706036197970081,
                1.118896926603594
            ]
        },
        {
            "positions": [
                -1.082849253571196,
                -1.8564922862895397,
                1.8917137168471623,
                -1.5527158515255695,
                1.4631879512557084,
                0.9809466252031759
            ]
        },
        {
            "positions": [
                -1.046831283723448,
                -1.8157320371827106,
                1.8637838988140965,
                -1.5122438817725232,
                1.3557722827144087,
                0.8429963238027578
            ]
        },
        {
            "positions": [
                -1.0108133138756998,
                -1.7749717880758813,
                1.8358540807810306,
                -1.4717719120194772,
                1.248356614173109,
                0.7050460224023396
            ]
        },
        {
            "positions": [
                -0.974795344027952,
                -1.7342115389690522,
                1.8079242627479648,
                -1.4312999422664312,
                1.1409409456318096,
                0.5670957210019215
            ]
        },
        {
            "positions": [
                -0.938777374180204,
                -1.6934512898622232,
                1.779994444714899,
                -1.390827972513385,
                1.0335252770905097,
                0.4291454196015033
            ]
        },
        {
            "positions": [
                -0.902759404332456,
                -1.652691040755394,
                1.7520646266818334,
                -1.350356002760339,
                0.9261096085492102,
                0.29119511820108523
            ]
        },
        {
            "positions": [
                -0.8667414344847081,
                -1.611930791648565,
                1.7241348086487673,
                -1.3098840330072927,
                0.8186939400079105,
                0.15324481680066704
            ]
        },
        {
            "positions": [
                -0.8307234646369601,
                -1.571170542541736,
                1.6962049906157017,
                -1.2694120632542467,
                0.7112782714666109,
                0.015294515400249065
            ]
        },
        {
            "positions": [
                -0.7947054947892122,
                -1.5304102934349069,
                1.668275172582636,
                -1.2289400935012007,
                0.6038626029253112,
                -0.12265578600016913
            ]
        },
        {
            "positions": [
                -0.7586875249414642,
                -1.4896500443280776,
                1.64034535454957,
                -1.1884681237481547,
                0.49644693438401144,
                -0.2606060874005873
            ]
        },
        {
            "positions": [
                -0.7226695550937162,
                -1.4488897952212485,
                1.6124155365165043,
                -1.1479961539951087,
                0.38903126584271197,
                -0.3985563888010053
            ]
        },
        {
            "positions": [
                -0.6866515852459683,
                -1.4081295461144194,
                1.5844857184834384,
                -1.1075241842420624,
                0.28161559730141217,
                -0.5365066902014235
            ]
        },
        {
            "positions": [
                -0.6191954615617375,
                -1.3857827258271047,
                1.6168674585590599,
                -1.0816273876291578,
                0.2687157968711462,
                -0.7565757221067774
            ]
        },
        {
            "positions": [
                -0.5517393378775068,
                -1.3634359055397902,
                1.6492491986346811,
                -1.0557305910162529,
                0.25581599644088027,
                -0.9766447540121312
            ]
        },
        {
            "positions": [
                -0.48428321419327613,
                -1.3410890852524755,
                1.6816309387103026,
                -1.0298337944033482,
                0.24291619601061437,
                -1.1967137859174852
            ]
        },
        {
            "positions": [
                -0.4168270905090455,
                -1.3187422649651608,
                1.7140126787859238,
                -1.0039369977904435,
                0.23001639558034842,
                -1.4167828178228392
            ]
        },
        {
            "positions": [
                -0.3493709668248148,
                -1.2963954446778463,
                1.7463944188615452,
                -0.9780402011775386,
                0.21711659515008247,
                -1.6368518497281932
            ]
        },
        {
            "positions": [
                -0.28191484314058407,
                -1.2740486243905316,
                1.7787761589371667,
                -0.952143404564634,
                0.20421679471981655,
                -1.856920881633547
            ]
        },
        {
            "positions": [
                -0.21445871945635336,
                -1.2517018041032169,
                1.811157899012788,
                -0.9262466079517292,
                0.19131699428955062,
                -2.0769899135389007
            ]
        },
        {
            "positions": [
                -0.1470025957721227,
                -1.2293549838159024,
                1.8435396390884091,
                -0.9003498113388245,
                0.17841719385928467,
                -2.2970589454442547
            ]
        },
        {
            "positions": [
                -0.079546472087892,
                -1.2070081635285876,
                1.8759213791640306,
                -0.8744530147259197,
                0.16551739342901872,
                -2.5171279773496087
            ]
        },
        {
            "positions": [
                -0.0120903484036613,
                -1.184661343241273,
                1.908303119239652,
                -0.848556218113015,
                0.1526175929987528,
                -2.737197009254963
            ]
        },
        {
            "positions": [
                0.05536577528056941,
                -1.1623145229539584,
                1.9406848593152732,
                -0.8226594215001103,
                0.13971779256848688,
                -2.9572660411603167
            ]
        },
        {
            "positions": [
                0.12282189896480011,
                -1.1399677026666437,
                1.9730665993908947,
                -0.7967626248872055,
                0.12681799213822093,
                -3.1773350730656706
            ]
        }
    ]
}