{
    "goal": {
        "global_pose": {
            "orientation": {
                "w": 0.5084816217422485,
                "x": -0.49083608388900757,
                "y": 0.5182115435600281,
                "z": -0.4816462993621826
            },
            "position": {
                "x": 0.5540239810943604,
                "y": 0.030875300988554955,
                "z": 0.16403168439865112
            }
        },
        "name": "move_to_storage_A"
    },
    "id": "BiTRRT_move_to_storage_A_75",
    "joint_names": [
        "shoulder_pan_joint",
        "shoulder_lift_joint",
        "elbow_joint",
        "wrist_1_joint",
        "wrist_2_joint",
        "wrist_3_joint"
    ],
    "metrics": {
        "cart_traj_len": 0.3533723859806519,
        "distance_elbow_joint": 0.4533966944312091,
        "distance_shoulder_lift_joint": 0.2330122766370637,
        "distance_shoulder_pan_joint": 0.46335317457779834,
        "distance_wrist_1_joint": 0.2594889285940606,
        "distance_wrist_2_joint": 1.0935368823538458,
        "distance_wrist_3_joint": 0.10758605943813615,
        "smoothness": 8.881784197001252e-16,
        "time": 0.033706098000000004,
        "traj_len": 1.6156651930496349,
        "weighted_distance": 2.0441555581355084
    },
    "planner": "BiTRRT",
    "start": {
        "state": {
            "elbow_joint": 1.9715477243005601,
            "shoulder_lift_joint": -1.1394853015351272,
            "shoulder_pan_joint": 0.12281154014795169,
            "wrist_1_joint": -0.7804696478968182,
            "wrist_2_joint": 0.12958648046900423,
            "wrist_3_joint": -3.192491284697111
        }
    },
    "waypoints": [
        {
            "positions": [
                0.12281154014795169,
                -1.1394853015351272,
                1.9715477243005601,
                -0.7804696478968182,
                0.12958648046900423,
                -3.192491284697111
            ]
        },
        {
            "positions": [
                0.0566182294939805,
                -1.1727727696261363,
                2.036318680647876,
                -0.8175394948388268,
                0.28580603509098224,
                -3.1771218476345204
            ]
        },
        {
            "positions": [
                -0.009575081159990687,
                -1.2060602377171454,
                2.1010896369951912,
                -0.8546093417808355,
                0.4420255897129602,
                -3.1617524105719292
            ]
        },
        {
            "positions": [
                -0.07576839181396187,
                -1.2393477058081546,
                2.165860593342507,
                -0.8916791887228441,
                0.5982451443349381,
                -3.1463829735093385
            ]
        },
        {
            "positions": [
                -0.14196170246793305,
                -1.2726351738991635,
                2.2306315496898224,
                -0.9287490356648528,
                0.7544646989569161,
                -3.1310135364467477
            ]
        },
        {
            "positions": [
                -0.20815501312190426,
                -1.3059226419901726,
                2.295402506037138,
                -0.9658188826068614,
                0.9106842535788942,
                -3.115644099384157
            ]
        },
        {
            "positions": [
                -0.2743483237758754,
                -1.3392101100811817,
                2.3601734623844535,
                -1.0028887295488702,
                1.066903808200872,
                -3.100274662321566
            ]
        },
        {
            "positions": [
                -0.34054163442984664,
                -1.3724975781721909,
                2.4249444187317692,
                -1.0399585764908787,
                1.22312336282285,
                -3.084905225258975
            ]
        }
    ]
}