{
    "goal": {
        "global_pose": {
            "orientation": {
                "w": 0.5084816217422485,
                "x": -0.49083608388900757,
                "y": 0.5182115435600281,
                "z": -0.4816462993621826
            },
            "position": {
                "x": 0.5540239810943604,
                "y": 0.030875300988554955,
                "z": 0.16403168439865112
            }
        },
        "name": "move_to_storage_A"
    },
    "id": "BiTRRT_move_to_storage_A_133",
    "joint_names": [
        "shoulder_pan_joint",
        "shoulder_lift_joint",
        "elbow_joint",
        "wrist_1_joint",
        "wrist_2_joint",
        "wrist_3_joint"
    ],
    "metrics": {
        "cart_traj_len": 0.35302078493205913,
        "distance_elbow_joint": 0.4499620545613534,
        "distance_shoulder_lift_joint": 0.23419417812026033,
        "distance_shoulder_pan_joint": 0.4604109856818561,
        "distance_wrist_1_joint": 0.23785199699090953,
        "distance_wrist_2_joint": 1.104367535780407,
        "distance_wrist_3_joint": 0.10244863298957751,
        "smoothness": 4.440892098500626e-16,
        "time": 0.037314967000000004,
        "traj_len": 1.6091101218140305,
        "weighted_distance": 2.0338023952377564
    },
    "planner": "BiTRRT",
    "start": {
        "state": {
            "elbow_joint": 1.9715477243005601,
            "shoulder_lift_joint": -1.1394853015351272,
            "shoulder_pan_joint": 0.12281154014795169,
            "wrist_1_joint": -0.7804696478968182,
            "wrist_2_joint": 0.12958648046900423,
            "wrist_3_joint": -3.192491284697111
        }
    },
    "waypoints": [
        {
            "positions": [
                0.12281154014795169,
                -1.1394853015351272,
                1.9715477243005601,
                -0.7804696478968182,
                0.12958648046900423,
                -3.192491284697111
            ]
        },
        {
            "positions": [
                0.05703854219340082,
                -1.1729416126951644,
                2.035828017809325,
                -0.8144485046098052,
                0.2873532712947766,
                -3.1778557656986
            ]
        },
        {
            "positions": [
                -0.008734455761150048,
                -1.2063979238552016,
                2.1001083113180896,
                -0.8484273613227923,
                0.44512006212054905,
                -3.163220246700089
            ]
        },
        {
            "positions": [
                -0.07450745371570093,
                -1.2398542350152388,
                2.1643886048268546,
                -0.8824062180357793,
                0.6028868529463215,
                -3.148584727701578
            ]
        },
        {
            "positions": [
                -0.14028045167025177,
                -1.2733105461752758,
                2.228668898335619,
                -0.9163850747487665,
                0.7606536437720939,
                -3.1339492087030667
            ]
        },
        {
            "positions": [
                -0.20605344962480265,
                -1.306766857335313,
                2.292949191844384,
                -0.9503639314617536,
                0.9184204345978664,
                -3.1193136897045557
            ]
        },
        {
            "positions": [
                -0.27182644757935354,
                -1.3402231684953503,
                2.3572294853531486,
                -0.9843427881747406,
                1.0761872254236389,
                -3.1046781707060447
            ]
        },
        {
            "positions": [
                -0.3375994455339044,
                -1.3736794796553875,
                2.4215097788619135,
                -1.0183216448877277,
                1.2339540162494114,
                -3.0900426517075337
            ]
        }
    ]
}