{
    "goal": {
        "global_pose": {
            "orientation": {
                "w": 0.5084816217422485,
                "x": -0.49083608388900757,
                "y": 0.5182115435600281,
                "z": -0.4816462993621826
            },
            "position": {
                "x": 0.5540239810943604,
                "y": 0.030875300988554955,
                "z": 0.16403168439865112
            }
        },
        "name": "move_to_storage_A"
    },
    "id": "BiTRRT_move_to_storage_A_85",
    "joint_names": [
        "shoulder_pan_joint",
        "shoulder_lift_joint",
        "elbow_joint",
        "wrist_1_joint",
        "wrist_2_joint",
        "wrist_3_joint"
    ],
    "metrics": {
        "cart_traj_len": 0.3526384411671617,
        "distance_elbow_joint": 0.45160756895659215,
        "distance_shoulder_lift_joint": 0.23233361899545946,
        "distance_shoulder_pan_joint": 0.4611588955239791,
        "distance_wrist_1_joint": 0.25761953150128136,
        "distance_wrist_2_joint": 1.0965097983118937,
        "distance_wrist_3_joint": 0.11059178541206283,
        "smoothness": 1.1102230263833737e-15,
        "time": 0.039225288999999997,
        "traj_len": 1.6154941035798516,
        "weighted_distance": 2.0457600297538736
    },
    "planner": "BiTRRT",
    "start": {
        "state": {
            "elbow_joint": 1.9715477243005601,
            "shoulder_lift_joint": -1.1394853015351272,
            "shoulder_pan_joint": 0.12281154014795169,
            "wrist_1_joint": -0.7804696478968182,
            "wrist_2_joint": 0.12958648046900423,
            "wrist_3_joint": -3.192491284697111
        }
    },
    "waypoints": [
        {
            "positions": [
                0.12281154014795169,
                -1.1394853015351272,
                1.9715477243005601,
                -0.7804696478968182,
                0.12958648046900423,
                -3.192491284697111
            ]
        },
        {
            "positions": [
                0.05693169793024039,
                -1.1726758185344786,
                2.036063091294359,
                -0.8172724381112869,
                0.2862307373707033,
                -3.176692458209674
            ]
        },
        {
            "positions": [
                -0.008948144287470913,
                -1.20586633553383,
                2.1005784582881577,
                -0.8540752283257557,
                0.4428749942724024,
                -3.160893631722236
            ]
        },
        {
            "positions": [
                -0.0748279865051822,
                -1.2390568525331813,
                2.1650938252819567,
                -0.8908780185402244,
                0.5995192511741014,
                -3.1450948052347987
            ]
        },
        {
            "positions": [
                -0.1407078287228935,
                -1.2722473695325325,
                2.2296091922757557,
                -0.9276808087546933,
                0.7561635080758006,
                -3.129295978747361
            ]
        },
        {
            "positions": [
                -0.20658767094060482,
                -1.3054378865318839,
                2.2941245592695547,
                -0.964483598969162,
                0.9128077649774997,
                -3.1134971522599235
            ]
        },
        {
            "positions": [
                -0.2724675131583161,
                -1.3386284035312352,
                2.3586399262633533,
                -1.0012863891836308,
                1.0694520218791987,
                -3.0976983257724857
            ]
        },
        {
            "positions": [
                -0.3383473553760274,
                -1.3718189205305866,
                2.4231552932571523,
                -1.0380891793980995,
                1.226096278780898,
                -3.0818994992850484
            ]
        }
    ]
}