{
    "goal": {
        "global_pose": {
            "orientation": {
                "w": 0.7047431468963623,
                "x": -0.7094548344612122,
                "y": 0.0024358443915843964,
                "z": -0.0022348060738295317
            },
            "position": {
                "x": 0.6094750761985779,
                "y": 0.3671506643295288,
                "z": 0.19426114857196808
            }
        },
        "name": "move_to_magneteinheit_A"
    },
    "id": "BiTRRT_move_to_magneteinheit_A_74",
    "joint_names": [
        "shoulder_pan_joint",
        "shoulder_lift_joint",
        "elbow_joint",
        "wrist_1_joint",
        "wrist_2_joint",
        "wrist_3_joint"
    ],
    "metrics": {
        "cart_traj_len": 3.5104065350381313,
        "distance_elbow_joint": 3.8770117088333143,
        "distance_shoulder_lift_joint": 0.7274025623791807,
        "distance_shoulder_pan_joint": 2.5768746577820627,
        "distance_wrist_1_joint": 1.6478878604392873,
        "distance_wrist_2_joint": 1.8222644489866928,
        "distance_wrist_3_joint": 2.5992628354701846,
        "smoothness": 0.07254038881490804,
        "time": 0.126489273,
        "traj_len": 3.6401516553422226,
        "weighted_distance": 4.681813970488049
    },
    "planner": "BiTRRT",
    "start": {
        "state": {
            "elbow_joint": -1.919618573717145,
            "shoulder_lift_joint": -1.2443395971678275,
            "shoulder_pan_joint": 2.6996025300909787,
            "wrist_1_joint": -1.548550951253194,
            "wrist_2_joint": -1.5709469090946802,
            "wrist_3_joint": 0.4420197732051276
        }
    },
    "waypoints": [
        {
            "positions": [
                2.6996025300909787,
                -1.2443395971678275,
                -1.919618573717145,
                -1.548550951253194,
                -1.5709469090946802,
                0.4420197732051276
            ]
        },
        {
            "positions": [
                2.599900521798633,
                -1.2252376130962122,
                -1.8211231117291304,
                -1.493097938608057,
                -1.5054109710014678,
                0.4925946140756614
            ]
        },
        {
            "positions": [
                2.5001985135062874,
                -1.2061356290245966,
                -1.7226276497411162,
                -1.4376449259629196,
                -1.4398750329082552,
                0.5431694549461952
            ]
        },
        {
            "positions": [
                2.4004965052139418,
                -1.1870336449529812,
                -1.6241321877531019,
                -1.3821919133177825,
                -1.374339094815043,
                0.5937442958167289
            ]
        },
        {
            "positions": [
                2.300794496921596,
                -1.167931660881366,
                -1.5256367257650874,
                -1.326738900672645,
                -1.3088031567218303,
                0.6443191366872628
            ]
        },
        {
            "positions": [
                2.201092488629251,
                -1.1488296768097503,
                -1.4271412637770728,
                -1.271285888027508,
                -1.243267218628618,
                0.6948939775577966
            ]
        },
        {
            "positions": [
                2.1013904803369052,
                -1.129727692738135,
                -1.3286458017890586,
                -1.2158328753823708,
                -1.1777312805354057,
                0.7454688184283303
            ]
        },
        {
            "positions": [
                2.0016884720445596,
                -1.1106257086665194,
                -1.230150339801044,
                -1.1603798627372335,
                -1.112195342442193,
                0.7960436592988642
            ]
        },
        {
            "positions": [
                1.901986463752214,
                -1.091523724594904,
                -1.1316548778130295,
                -1.1049268500920963,
                -1.0466594043489807,
                0.846618500169398
            ]
        },
        {
            "positions": [
                1.8022844554598683,
                -1.0724217405232888,
                -1.0331594158250152,
                -1.049473837446959,
                -0.9811234662557683,
                0.8971933410399318
            ]
        },
        {
            "positions": [
                1.7025824471675226,
                -1.0533197564516732,
                -0.9346639538370008,
                -0.9940208248018219,
                -0.915587528162556,
                0.9477681819104655
            ]
        },
        {
            "positions": [
                1.602880438875177,
                -1.0342177723800579,
                -0.8361684918489865,
                -0.9385678121566846,
                -0.8500515900693435,
                0.9983430227809993
            ]
        },
        {
            "positions": [
                1.5031784305828315,
                -1.0151157883084425,
                -0.7376730298609722,
                -0.8831147995115475,
                -0.7845156519761312,
                1.048917863651533
            ]
        },
        {
            "positions": [
                1.4034764222904856,
                -0.996013804236827,
                -0.6391775678729577,
                -0.8276617868664101,
                -0.7189797138829186,
                1.099492704522067
            ]
        },
        {
            "positions": [
                1.3037744139981402,
                -0.9769118201652116,
                -0.5406821058849431,
                -0.772208774221273,
                -0.6534437757897062,
                1.1500675453926008
            ]
        },
        {
            "positions": [
                1.2040724057057945,
                -0.9578098360935963,
                -0.44218664389692885,
                -0.7167557615761357,
                -0.5879078376964939,
                1.2006423862631346
            ]
        },
        {
            "positions": [
                1.104370397413449,
                -0.9387078520219807,
                -0.34369118190891434,
                -0.6613027489309985,
                -0.5223718996032813,
                1.2512172271336683
            ]
        },
        {
            "positions": [
                1.0046683891211032,
                -0.9196058679503654,
                -0.24519571992090006,
                -0.6058497362858613,
                -0.456835961510069,
                1.301792068004202
            ]
        },
        {
            "positions": [
                0.9049663808287576,
                -0.9005038838787498,
                -0.14670025793288555,
                -0.550396723640724,
                -0.39130002341685644,
                1.3523669088747359
            ]
        },
        {
            "positions": [
                0.8052643725364119,
                -0.8814018998071345,
                -0.04820479594487126,
                -0.49494371099558676,
                -0.3257640853236441,
                1.4029417497452696
            ]
        },
        {
            "positions": [
                0.7055623642440665,
                -0.8622999157355191,
                0.05029066604314325,
                -0.4394906983504496,
                -0.26022814723043175,
                1.4535165906158036
            ]
        },
        {
            "positions": [
                0.6058603559517208,
                -0.8431979316639036,
                0.14878612803115776,
                -0.38403768570531227,
                -0.19469220913721919,
                1.5040914314863374
            ]
        },
        {
            "positions": [
                0.5061583476593752,
                -0.8240959475922882,
                0.2472815900191721,
                -0.3285846730601751,
                -0.12915627104400673,
                1.5546662723568712
            ]
        },
        {
            "positions": [
                0.4467845371469598,
                -0.8266737245271726,
                0.37009400684952304,
                -0.32340809824706945,
                -0.07728360694579617,
                1.6604364600948573
            ]
        },
        {
            "positions": [
                0.38741072663454446,
                -0.8292515014620571,
                0.49290642367987403,
                -0.3182315234339639,
                -0.025410942847585605,
                1.7662066478328433
            ]
        },
        {
            "positions": [
                0.32803691612212904,
                -0.8318292783969414,
                0.615718840510225,
                -0.31305494862085825,
                0.02646172125062497,
                1.8719768355708295
            ]
        },
        {
            "positions": [
                0.3046605274309042,
                -0.8594876601325472,
                0.7544462846145304,
                -0.3569989097859646,
                0.046493439957511776,
                2.000000044503209
            ]
        },
        {
            "positions": [
                0.28128413873967933,
                -0.887146041868153,
                0.8931737287188359,
                -0.400942870951071,
                0.06652515866439858,
                2.128023253435589
            ]
        },
        {
            "positions": [
                0.25790775004845445,
                -0.9148044236037589,
                1.0319011728231413,
                -0.4448868321161774,
                0.08655687737128538,
                2.2560464623679692
            ]
        },
        {
            "positions": [
                0.23453136135722963,
                -0.9424628053393647,
                1.1706286169274467,
                -0.48883079328128376,
                0.10658859607817218,
                2.384069671300349
            ]
        },
        {
            "positions": [
                0.21115497266600478,
                -0.9701211870749704,
                1.3093560610317523,
                -0.5327747544463901,
                0.12662031478505897,
                2.5120928802327285
            ]
        },
        {
            "positions": [
                0.18777858397477992,
                -0.9977795688105763,
                1.4480835051360577,
                -0.5767187156114966,
                0.14665203349194578,
                2.6401160891651085
            ]
        },
        {
            "positions": [
                0.16440219528355507,
                -1.0254379505461821,
                1.586810949240363,
                -0.6206626767766029,
                0.16668375219883258,
                2.7681392980974886
            ]
        },
        {
            "positions": [
                0.14102580659233022,
                -1.053096332281788,
                1.7255383933446686,
                -0.6646066379417093,
                0.18671547090571938,
                2.896162507029868
            ]
        },
        {
            "positions": [
                0.13187683945062292,
                -1.0921755963388589,
                1.8414657642304189,
                -0.6950267221847596,
                0.1544144364125726,
                2.9687225578525904
            ]
        },
        {
            "positions": [
                0.12272787230891564,
                -1.1312548603959296,
                1.957393135116169,
                -0.7254468064278099,
                0.12211340191942584,
                3.041282608675312
            ]
        }
    ]
}{
    "goal": {
        "global_pose": {
            "orientation": {
                "w": 0.7047431468963623,
                "x": -0.7094548344612122,
                "y": 0.0024358443915843964,
                "z": -0.0022348060738295317
            },
            "position": {
                "x": 0.6094750761985779,
                "y": 0.3671506643295288,
                "z": 0.19426114857196808
            }
        },
        "name": "move_to_magneteinheit_A"
    },
    "id": "BiTRRT_move_to_magneteinheit_A_74",
    "joint_names": [
        "shoulder_pan_joint",
        "shoulder_lift_joint",
        "elbow_joint",
        "wrist_1_joint",
        "wrist_2_joint",
        "wrist_3_joint"
    ],
    "metrics": {
        "cart_traj_len": 1.235363200230214,
        "distance_elbow_joint": 0.14868442912681257,
        "distance_shoulder_lift_joint": 0.7604428708641184,
        "distance_shoulder_pan_joint": 1.2405755606901328,
        "distance_wrist_1_joint": 0.9060070000380335,
        "distance_wrist_2_joint": 1.4469324718695924,
        "distance_wrist_3_joint": 4.322869375578286,
        "smoothness": 0.09464925418557829,
        "time": 0.10368400600000001,
        "traj_len": 2.970776280396586,
        "weighted_distance": 4.452436403951343
    },
    "planner": "BiTRRT",
    "start": {
        "state": {
            "elbow_joint": 1.919643534880228,
            "shoulder_lift_joint": -1.8972525353963687,
            "shoulder_pan_joint": -1.1188672234189438,
            "wrist_1_joint": -1.5931878212786155,
            "wrist_2_joint": 1.5706036197970081,
            "wrist_3_joint": 1.118896926603594
        }
    },
    "waypoints": [
        {
            "positions": [
                -1.1188672234189438,
                -1.8972525353963687,
                1.919643534880228,
                -1.5931878212786155,
                1.5706036197970081,
                1.118896926603594
            ]
        },
        {
            "positions": [
                -1.0651553225404382,
                -1.8627764893895387,
                1.917337310678928,
                -1.5537106616129481,
                1.5050863647555834,
                0.9344246333645454
            ]
        },
        {
            "positions": [
                -1.0114434216619324,
                -1.8283004433827086,
                1.9150310864776277,
                -1.514233501947281,
                1.4395691097141587,
                0.7499523401254968
            ]
        },
        {
            "positions": [
                -0.9577315207834267,
                -1.7938243973758785,
                1.9127248622763275,
                -1.4747563422816137,
                1.3740518546727338,
                0.5654800468864484
            ]
        },
        {
            "positions": [
                -0.904019619904921,
                -1.7593483513690487,
                1.9104186380750272,
                -1.4352791826159466,
                1.3085345996313091,
                0.3810077536473998
            ]
        },
        {
            "positions": [
                -0.8503077190264152,
                -1.7248723053622186,
                1.908112413873727,
                -1.3958020229502792,
                1.2430173445898844,
                0.19653546040835135
            ]
        },
        {
            "positions": [
                -0.7965958181479096,
                -1.6903962593553885,
                1.9058061896724268,
                -1.356324863284612,
                1.1775000895484597,
                0.01206316716930278
            ]
        },
        {
            "positions": [
                -0.7428839172694038,
                -1.6559202133485584,
                1.9034999654711267,
                -1.3168477036189448,
                1.1119828345070348,
                -0.1724091260697458
            ]
        },
        {
            "positions": [
                -0.6891720163908981,
                -1.6214441673417284,
                1.9011937412698263,
                -1.2773705439532774,
                1.0464655794656101,
                -0.35688141930879436
            ]
        },
        {
            "positions": [
                -0.6354601155123923,
                -1.5869681213348983,
                1.8988875170685262,
                -1.2378933842876103,
                0.9809483244241854,
                -0.5413537125478429
            ]
        },
        {
            "positions": [
                -0.5817482146338867,
                -1.5524920753280682,
                1.8965812928672259,
                -1.1984162246219432,
                0.9154310693827608,
                -0.7258260057868913
            ]
        },
        {
            "positions": [
                -0.528036313755381,
                -1.5180160293212381,
                1.8942750686659258,
                -1.1589390649562759,
                0.849913814341336,
                -0.9102982990259398
            ]
        },
        {
            "positions": [
                -0.4743244128768753,
                -1.4835399833144083,
                1.8919688444646257,
                -1.1194619052906085,
                0.7843965592999113,
                -1.0947705922649884
            ]
        },
        {
            "positions": [
                -0.42061251199836946,
                -1.4490639373075782,
                1.8896626202633253,
                -1.0799847456249414,
                0.7188793042584865,
                -1.279242885504037
            ]
        },
        {
            "positions": [
                -0.36690061111986383,
                -1.4145878913007481,
                1.8873563960620252,
                -1.040507585959274,
                0.6533620492170618,
                -1.4637151787430855
            ]
        },
        {
            "positions": [
                -0.3131887102413582,
                -1.380111845293918,
                1.8850501718607249,
                -1.0010304262936067,
                0.5878447941756371,
                -1.6481874719821337
            ]
        },
        {
            "positions": [
                -0.25947680936285233,
                -1.345635799287088,
                1.8827439476594248,
                -0.9615532666279396,
                0.5223275391342121,
                -1.8326597652211827
            ]
        },
        {
            "positions": [
                -0.2057649084843467,
                -1.3111597532802581,
                1.8804377234581244,
                -0.9220761069622724,
                0.45681028409278746,
                -2.0171320584602306
            ]
        },
        {
            "positions": [
                -0.15205300760584084,
                -1.276683707273428,
                1.8781314992568243,
                -0.882598947296605,
                0.39129302905136276,
                -2.20160435169928
            ]
        },
        {
            "positions": [
                -0.0983411067273352,
                -1.242207661266598,
                1.875825275055524,
                -0.8431217876309378,
                0.32577577400993807,
                -2.3860766449383277
            ]
        },
        {
            "positions": [
                -0.04462920584882957,
                -1.207731615259768,
                1.8735190508542239,
                -0.8036446279652707,
                0.2602585189685134,
                -2.5705489381773763
            ]
        },
        {
            "positions": [
                0.009082695029676291,
                -1.1732555692529378,
                1.8712128266529235,
                -0.7641674682996034,
                0.19474126392708846,
                -2.755021231416425
            ]
        },
        {
            "positions": [
                0.06279459590818183,
                -1.1387795232461078,
                1.8689066024516234,
                -0.7246903086339361,
                0.12922400888566385,
                -2.939493524655474
            ]
        },
        {
            "positions": [
                0.09225146658968533,
                -1.1377945938891791,
                1.9178803508007274,
                -0.7434450523306132,
                0.12644757840653978,
                -3.071732986815082
            ]
        },
        {
            "positions": [
                0.12170833727118884,
                -1.1368096645322503,
                1.9668540991498313,
                -0.7621997960272903,
                0.1236711479274157,
                -3.20397244897469
            ]
        }
    ]
}