{
    "goal": {
        "global_pose": {
            "orientation": {
                "w": 0.7047431468963623,
                "x": -0.7094548344612122,
                "y": 0.0024358443915843964,
                "z": -0.0022348060738295317
            },
            "position": {
                "x": 0.6094750761985779,
                "y": 0.3671506643295288,
                "z": 0.19426114857196808
            }
        },
        "name": "move_to_magneteinheit_A"
    },
    "id": "BiTRRT_move_to_magneteinheit_A_42",
    "joint_names": [
        "shoulder_pan_joint",
        "shoulder_lift_joint",
        "elbow_joint",
        "wrist_1_joint",
        "wrist_2_joint",
        "wrist_3_joint"
    ],
    "metrics": {
        "cart_traj_len": 3.667898791837365,
        "distance_elbow_joint": 3.8868490391704995,
        "distance_shoulder_lift_joint": 1.1213411136963778,
        "distance_shoulder_pan_joint": 2.5767960574691924,
        "distance_wrist_1_joint": 2.056483824622214,
        "distance_wrist_2_joint": 2.668400854639253,
        "distance_wrist_3_joint": 3.658377640493303,
        "smoothness": 0.2696612352857268,
        "time": 0.118622262,
        "traj_len": 3.996029095250788,
        "weighted_distance": 5.292436914157685
    },
    "planner": "BiTRRT",
    "start": {
        "state": {
            "elbow_joint": -1.919618573717145,
            "shoulder_lift_joint": -1.2443395971678275,
            "shoulder_pan_joint": 2.6996025300909787,
            "wrist_1_joint": -1.548550951253194,
            "wrist_2_joint": -1.5709469090946802,
            "wrist_3_joint": 0.4420197732051276
        }
    },
    "waypoints": [
        {
            "positions": [
                2.6996025300909787,
                -1.2443395971678275,
                -1.919618573717145,
                -1.548550951253194,
                -1.5709469090946802,
                0.4420197732051276
            ]
        },
        {
            "positions": [
                2.5898672250373216,
                -1.243451074265084,
                -1.8209767781796802,
                -1.4691630585843694,
                -1.487362086049418,
                0.42605691061209194
            ]
        },
        {
            "positions": [
                2.480131919983665,
                -1.2425625513623404,
                -1.7223349826422154,
                -1.3897751659155448,
                -1.403777263004156,
                0.4100940480190563
            ]
        },
        {
            "positions": [
                2.3703966149300078,
                -1.2416740284595966,
                -1.6236931871047506,
                -1.31038727324672,
                -1.320192439958894,
                0.39413118542602066
            ]
        },
        {
            "positions": [
                2.2606613098763506,
                -1.240785505556853,
                -1.5250513915672859,
                -1.2309993805778954,
                -1.236607616913632,
                0.37816832283298496
            ]
        },
        {
            "positions": [
                2.1509260048226935,
                -1.2398969826541095,
                -1.426409596029821,
                -1.1516114879090706,
                -1.1530227938683697,
                0.3622054602399493
            ]
        },
        {
            "positions": [
                2.0411906997690368,
                -1.239008459751366,
                -1.3277678004923563,
                -1.0722235952402461,
                -1.0694379708231079,
                0.3462425976469137
            ]
        },
        {
            "positions": [
                1.9314553947153796,
                -1.2381199368486222,
                -1.2291260049548915,
                -0.9928357025714214,
                -0.9858531477778456,
                0.33027973505387803
            ]
        },
        {
            "positions": [
                1.8217200896617225,
                -1.2372314139458787,
                -1.1304842094174268,
                -0.9134478099025968,
                -0.9022683247325837,
                0.3143168724608424
            ]
        },
        {
            "positions": [
                1.7119847846080656,
                -1.236342891043135,
                -1.031842413879962,
                -0.834059917233772,
                -0.8186835016873215,
                0.2983540098678067
            ]
        },
        {
            "positions": [
                1.6022494795544084,
                -1.2354543681403916,
                -0.9332006183424972,
                -0.7546720245649473,
                -0.7350986786420594,
                0.28239114727477105
            ]
        },
        {
            "positions": [
                1.4925141745007515,
                -1.234565845237648,
                -0.8345588228050325,
                -0.6752841318961226,
                -0.6515138555967973,
                0.2664282846817354
            ]
        },
        {
            "positions": [
                1.3827788694470946,
                -1.2336773223349042,
                -0.7359170272675677,
                -0.5958962392272981,
                -0.5679290325515354,
                0.25046542208869976
            ]
        },
        {
            "positions": [
                1.2730435643934375,
                -1.2327887994321607,
                -0.6372752317301029,
                -0.5165083465584734,
                -0.4843442095062733,
                0.23450255949566412
            ]
        },
        {
            "positions": [
                1.1633082593397805,
                -1.2319002765294171,
                -0.5386334361926381,
                -0.4371204538896487,
                -0.40075938646101106,
                0.21853969690262845
            ]
        },
        {
            "positions": [
                1.0535729542861234,
                -1.2310117536266736,
                -0.4399916406551734,
                -0.357732561220824,
                -0.317174563415749,
                0.2025768343095928
            ]
        },
        {
            "positions": [
                0.9438376492324665,
                -1.2301232307239298,
                -0.3413498451177086,
                -0.27834466855199946,
                -0.2335897403704872,
                0.1866139717165572
            ]
        },
        {
            "positions": [
                0.8341023441788096,
                -1.2292347078211863,
                -0.24270804958024383,
                -0.19895677588317473,
                -0.15000491732522492,
                0.1706511091235215
            ]
        },
        {
            "positions": [
                0.7243670391251524,
                -1.2283461849184427,
                -0.14406625404277895,
                -0.11956888321434997,
                -0.06642009427996295,
                0.15468824653048585
            ]
        },
        {
            "positions": [
                0.6936574064904303,
                -1.190966931747245,
                -0.06107280941029625,
                -0.12213268377171119,
                -0.023640712374603835,
                0.3509599333784533
            ]
        },
        {
            "positions": [
                0.6629477738557081,
                -1.1535876785760473,
                0.021920635222186458,
                -0.1246964843290724,
                0.019138669530755284,
                0.5472316202264208
            ]
        },
        {
            "positions": [
                0.632238141220986,
                -1.1162084254048494,
                0.10491407985466916,
                -0.12726028488643362,
                0.061918051436114396,
                0.7435033070743883
            ]
        },
        {
            "positions": [
                0.6015285085862638,
                -1.0788291722336518,
                0.18790752448715187,
                -0.12982408544379484,
                0.10469743334147352,
                0.9397749939223558
            ]
        },
        {
            "positions": [
                0.5708188759515417,
                -1.0414499190624542,
                0.27090096911963457,
                -0.13238788600115606,
                0.14747681524683265,
                1.1360466807703231
            ]
        },
        {
            "positions": [
                0.5401092433168195,
                -1.0040706658912564,
                0.3538944137521173,
                -0.13495168655851728,
                0.19025619715219175,
                1.3323183676182908
            ]
        },
        {
            "positions": [
                0.5093996106820973,
                -0.9666914127200587,
                0.4368878583846,
                -0.13751548711587852,
                0.23303557905755087,
                1.528590054466258
            ]
        },
        {
            "positions": [
                0.4786899780473752,
                -0.9293121595488609,
                0.5198813030170827,
                -0.14007928767323974,
                0.27581496096291,
                1.7248617413142258
            ]
        },
        {
            "positions": [
                0.447980345412653,
                -0.8919329063776632,
                0.6028747476495654,
                -0.14264308823060096,
                0.31859434286826915,
                1.921133428162193
            ]
        },
        {
            "positions": [
                0.4172707127779309,
                -0.8545536532064655,
                0.6858681922820481,
                -0.14520688878796217,
                0.3613737247736283,
                2.1174051150101607
            ]
        },
        {
            "positions": [
                0.3865610801432087,
                -0.8171744000352678,
                0.7688616369145308,
                -0.1477706893453234,
                0.4041531066789874,
                2.3136768018581284
            ]
        },
        {
            "positions": [
                0.3558514475084865,
                -0.77979514686407,
                0.8518550815470135,
                -0.1503344899026846,
                0.4469324885843464,
                2.5099484887060957
            ]
        },
        {
            "positions": [
                0.32514181487376437,
                -0.7424158936928723,
                0.9348485261794962,
                -0.15289829046004583,
                0.48971187048970555,
                2.706220175554063
            ]
        },
        {
            "positions": [
                0.2944321822390422,
                -0.7050366405216746,
                1.017841970811979,
                -0.15546209101740704,
                0.5324912523950647,
                2.9024918624020306
            ]
        },
        {
            "positions": [
                0.26372254960432007,
                -0.6676573873504769,
                1.1008354154444615,
                -0.15802589157476826,
                0.5752706343004238,
                3.0987635492499983
            ]
        },
        {
            "positions": [
                0.23301291696959792,
                -0.6302781341792791,
                1.1838288600769444,
                -0.16058969213212948,
                0.6180500162057829,
                3.2950352360979656
            ]
        },
        {
            "positions": [
                0.21726913920562518,
                -0.702746655708969,
                1.2957433751307168,
                -0.24437268465578538,
                0.5495637405859557,
                3.2620782183477965
            ]
        },
        {
            "positions": [
                0.20152536144165242,
                -0.775215177238659,
                1.4076578901844894,
                -0.3281556771794413,
                0.4810774649661286,
                3.229121200597628
            ]
        },
        {
            "positions": [
                0.1857815836776797,
                -0.8476836987683489,
                1.5195724052382618,
                -0.4119386697030972,
                0.4125911893463014,
                3.196164182847459
            ]
        },
        {
            "positions": [
                0.17003780591370693,
                -0.9201522202980388,
                1.6314869202920343,
                -0.4957216622267531,
                0.3441049137264742,
                3.1632071650972904
            ]
        },
        {
            "positions": [
                0.1542940281497342,
                -0.9926207418277287,
                1.7434014353458067,
                -0.579504654750409,
                0.27561863810664705,
                3.1302501473471214
            ]
        },
        {
            "positions": [
                0.13855025038576146,
                -1.0650892633574185,
                1.855315950399579,
                -0.663287647274065,
                0.20713236248681988,
                3.097293129596953
            ]
        },
        {
            "positions": [
                0.12280647262178872,
                -1.1375577848871086,
                1.9672304654533517,
                -0.7470706397977209,
                0.1386460868669927,
                3.064336111846784
            ]
        }
    ]
}{
    "goal": {
        "global_pose": {
            "orientation": {
                "w": 0.7047431468963623,
                "x": -0.7094548344612122,
                "y": 0.0024358443915843964,
                "z": -0.0022348060738295317
            },
            "position": {
                "x": 0.6094750761985779,
                "y": 0.3671506643295288,
                "z": 0.19426114857196808
            }
        },
        "name": "move_to_magneteinheit_A"
    },
    "id": "BiTRRT_move_to_magneteinheit_A_42",
    "joint_names": [
        "shoulder_pan_joint",
        "shoulder_lift_joint",
        "elbow_joint",
        "wrist_1_joint",
        "wrist_2_joint",
        "wrist_3_joint"
    ],
    "metrics": {
        "cart_traj_len": 1.2492378843691272,
        "distance_elbow_joint": 0.07179171515721072,
        "distance_shoulder_lift_joint": 1.1198334126723952,
        "distance_shoulder_pan_joint": 1.2414749140659922,
        "distance_wrist_1_joint": 3.4972239179255604,
        "distance_wrist_2_joint": 1.7083981189424229,
        "distance_wrist_3_joint": 1.1012840939181148,
        "smoothness": 0.0,
        "time": 0.080800299,
        "traj_len": 2.956350143789077,
        "weighted_distance": 4.018481852315113
    },
    "planner": "BiTRRT",
    "start": {
        "state": {
            "elbow_joint": 1.919643534880228,
            "shoulder_lift_joint": -1.8972525353963687,
            "shoulder_pan_joint": -1.1188672234189438,
            "wrist_1_joint": -1.5931878212786155,
            "wrist_2_joint": 1.5706036197970081,
            "wrist_3_joint": 1.118896926603594
        }
    },
    "waypoints": [
        {
            "positions": [
                -1.1188672234189438,
                -1.8972525353963687,
                1.919643534880228,
                -1.5931878212786155,
                1.5706036197970081,
                1.118896926603594
            ]
        },
        {
            "positions": [
                -1.0648900532421617,
                -1.8485641261497427,
                1.9227649138001068,
                -1.441134607455765,
                1.496325440712555,
                1.0710150094767195
            ]
        },
        {
            "positions": [
                -1.0109128830653793,
                -1.799875716903117,
                1.9258862927199856,
                -1.2890813936329146,
                1.422047261628102,
                1.023133092349845
            ]
        },
        {
            "positions": [
                -0.956935712888597,
                -1.7511873076564912,
                1.9290076716398643,
                -1.137028179810064,
                1.3477690825436486,
                0.9752511752229703
            ]
        },
        {
            "positions": [
                -0.9029585427118147,
                -1.7024988984098652,
                1.932129050559743,
                -0.9849749659872137,
                1.2734909034591955,
                0.9273692580960957
            ]
        },
        {
            "positions": [
                -0.8489813725350326,
                -1.6538104891632393,
                1.9352504294796218,
                -0.8329217521643633,
                1.1992127243747424,
                0.8794873409692212
            ]
        },
        {
            "positions": [
                -0.7950042023582502,
                -1.6051220799166135,
                1.9383718083995005,
                -0.6808685383415127,
                1.124934545290289,
                0.8316054238423467
            ]
        },
        {
            "positions": [
                -0.7410270321814679,
                -1.5564336706699875,
                1.9414931873193793,
                -0.5288153245186622,
                1.050656366205836,
                0.7837235067154721
            ]
        },
        {
            "positions": [
                -0.6870498620046857,
                -1.5077452614233617,
                1.944614566239258,
                -0.3767621106958119,
                0.9763781871213828,
                0.7358415895885975
            ]
        },
        {
            "positions": [
                -0.6330726918279034,
                -1.4590568521767358,
                1.9477359451591367,
                -0.22470889687296136,
                0.9021000080369296,
                0.687959672461723
            ]
        },
        {
            "positions": [
                -0.5790955216511212,
                -1.41036844293011,
                1.9508573240790155,
                -0.07265568305011105,
                0.8278218289524765,
                0.6400777553348485
            ]
        },
        {
            "positions": [
                -0.5251183514743388,
                -1.361680033683484,
                1.9539787029988942,
                0.07939753077273948,
                0.7535436498680232,
                0.5921958382079738
            ]
        },
        {
            "positions": [
                -0.47114118129755667,
                -1.3129916244368582,
                1.9571000819187727,
                0.23145074459559,
                0.6792654707835701,
                0.5443139210810993
            ]
        },
        {
            "positions": [
                -0.4171640111207744,
                -1.2643032151902323,
                1.9602214608386515,
                0.3835039584184403,
                0.604987291699117,
                0.4964320039542248
            ]
        },
        {
            "positions": [
                -0.363186840943992,
                -1.2156148059436065,
                1.9633428397585302,
                0.5355571722412911,
                0.5307091126146637,
                0.4485500868273502
            ]
        },
        {
            "positions": [
                -0.30920967076720984,
                -1.1669263966969805,
                1.966464218678409,
                0.6876103860641412,
                0.4564309335302106,
                0.4006681697004756
            ]
        },
        {
            "positions": [
                -0.25523250059042757,
                -1.1182379874503545,
                1.9695855975982877,
                0.8396635998869917,
                0.38215275444575747,
                0.3527862525736011
            ]
        },
        {
            "positions": [
                -0.2012553304136453,
                -1.0695495782037288,
                1.9727069765181664,
                0.9917168137098422,
                0.30787457536130436,
                0.30490433544672657
            ]
        },
        {
            "positions": [
                -0.1472781602368629,
                -1.020861168957103,
                1.9758283554380451,
                1.1437700275326927,
                0.23359639627685103,
                0.25702241831985195
            ]
        },
        {
            "positions": [
                -0.09330099006008075,
                -0.972172759710477,
                1.9789497343579239,
                1.2958232413555433,
                0.15931821719239792,
                0.20914050119297745
            ]
        },
        {
            "positions": [
                -0.03932381988329858,
                -0.9234843504638511,
                1.9820711132778026,
                1.4478764551783934,
                0.0850400381079448,
                0.16125858406610294
            ]
        },
        {
            "positions": [
                0.014653350293483802,
                -0.8747959412172253,
                1.9851924921976813,
                1.599929669001244,
                0.010761859023491693,
                0.11337666693922843
            ]
        },
        {
            "positions": [
                0.06863052047026619,
                -0.8261075319705993,
                1.98831387111756,
                1.7519828828240944,
                -0.06351632006096164,
                0.0654947498123537
            ]
        },
        {
            "positions": [
                0.12260769064704828,
                -0.7774191227239735,
                1.9914352500374388,
                1.9040360966469447,
                -0.13779449914541472,
                0.017612832685479137
            ]
        }
    ]
}