{
    "goal": {
        "global_pose": {
            "orientation": {
                "w": 0.7047431468963623,
                "x": -0.7094548344612122,
                "y": 0.0024358443915843964,
                "z": -0.0022348060738295317
            },
            "position": {
                "x": 0.6094750761985779,
                "y": 0.3671506643295288,
                "z": 0.19426114857196808
            }
        },
        "name": "move_to_magneteinheit_A"
    },
    "id": "BiTRRT_move_to_magneteinheit_A_73",
    "joint_names": [
        "shoulder_pan_joint",
        "shoulder_lift_joint",
        "elbow_joint",
        "wrist_1_joint",
        "wrist_2_joint",
        "wrist_3_joint"
    ],
    "metrics": {
        "cart_traj_len": 2.993204470951841,
        "distance_elbow_joint": 3.8845651890095043,
        "distance_shoulder_lift_joint": 1.5047271219948266,
        "distance_shoulder_pan_joint": 3.748916058811654,
        "distance_wrist_1_joint": 4.31448524177737,
        "distance_wrist_2_joint": 1.9942612553199615,
        "distance_wrist_3_joint": 3.6605766697454816,
        "smoothness": 0.2598792549087651,
        "time": 0.11971991900000001,
        "traj_len": 4.371216253705459,
        "weighted_distance": 5.721663339733219
    },
    "planner": "BiTRRT",
    "start": {
        "state": {
            "elbow_joint": -1.919618573717145,
            "shoulder_lift_joint": -1.2443395971678275,
            "shoulder_pan_joint": 2.6996025300909787,
            "wrist_1_joint": -1.548550951253194,
            "wrist_2_joint": -1.5709469090946802,
            "wrist_3_joint": 0.4420197732051276
        }
    },
    "waypoints": [
        {
            "positions": [
                2.6996025300909787,
                -1.2443395971678275,
                -1.919618573717145,
                -1.548550951253194,
                -1.5709469090946802,
                0.4420197732051276
            ]
        },
        {
            "positions": [
                2.611740076057554,
                -1.2637418041514066,
                -1.8315629745642852,
                -1.4775154503650765,
                -1.5196994411665339,
                0.36702606965365797
            ]
        },
        {
            "positions": [
                2.5238776220241292,
                -1.2831440111349854,
                -1.7435073754114256,
                -1.406479949476959,
                -1.4684519732383874,
                0.2920323661021883
            ]
        },
        {
            "positions": [
                2.4360151679907047,
                -1.3025462181185645,
                -1.6554517762585659,
                -1.3354444485888415,
                -1.4172045053102411,
                0.2170386625507187
            ]
        },
        {
            "positions": [
                2.3481527139572798,
                -1.3219484251021436,
                -1.5673961771057061,
                -1.264408947700724,
                -1.3659570373820948,
                0.14204495899924907
            ]
        },
        {
            "positions": [
                2.2602902599238552,
                -1.3413506320857227,
                -1.4793405779528463,
                -1.1933734468126063,
                -1.3147095694539483,
                0.06705125544777935
            ]
        },
        {
            "positions": [
                2.1724278058904307,
                -1.3607528390693018,
                -1.3912849787999866,
                -1.1223379459244889,
                -1.263462101525802,
                -0.007942448103690214
            ]
        },
        {
            "positions": [
                2.0845653518570058,
                -1.3801550460528806,
                -1.303229379647127,
                -1.0513024450363713,
                -1.2122146335976558,
                -0.08293615165515994
            ]
        },
        {
            "positions": [
                1.996702897823581,
                -1.3995572530364597,
                -1.2151737804942673,
                -0.9802669441482539,
                -1.1609671656695095,
                -0.15792985520662944
            ]
        },
        {
            "positions": [
                1.9088404437901563,
                -1.4189594600200388,
                -1.1271181813414075,
                -0.9092314432601363,
                -1.109719697741363,
                -0.23292355875809917
            ]
        },
        {
            "positions": [
                1.8209779897567315,
                -1.4383616670036177,
                -1.0390625821885477,
                -0.8381959423720187,
                -1.0584722298132165,
                -0.3079172623095689
            ]
        },
        {
            "positions": [
                1.7331155357233068,
                -1.4577638739871968,
                -0.951006983035688,
                -0.7671604414839012,
                -1.0072247618850703,
                -0.3829109658610385
            ]
        },
        {
            "positions": [
                1.6452530816898823,
                -1.4771660809707758,
                -0.8629513838828284,
                -0.6961249405957837,
                -0.955977293956924,
                -0.457904669412508
            ]
        },
        {
            "positions": [
                1.5573906276564575,
                -1.496568287954355,
                -0.7748957847299687,
                -0.6250894397076662,
                -0.9047298260287776,
                -0.5328983729639778
            ]
        },
        {
            "positions": [
                1.4695281736230326,
                -1.515970494937934,
                -0.6868401855771089,
                -0.5540539388195486,
                -0.8534823581006313,
                -0.6078920765154474
            ]
        },
        {
            "positions": [
                1.3816657195896078,
                -1.5353727019215129,
                -0.5987845864242491,
                -0.48301843793143107,
                -0.802234890172485,
                -0.682885780066917
            ]
        },
        {
            "positions": [
                1.2938032655561833,
                -1.554774908905092,
                -0.5107289872713896,
                -0.4119829370433137,
                -0.7509874222443387,
                -0.7578794836183864
            ]
        },
        {
            "positions": [
                1.2059408115227586,
                -1.574177115888671,
                -0.42267338811852984,
                -0.34094743615519607,
                -0.6997399543161923,
                -0.8328731871698563
            ]
        },
        {
            "positions": [
                1.1180783574893338,
                -1.59357932287225,
                -0.33461778896567007,
                -0.26991193526707846,
                -0.6484924863880459,
                -0.9078668907213259
            ]
        },
        {
            "positions": [
                1.030215903455909,
                -1.612981529855829,
                -0.2465621898128103,
                -0.19887643437896085,
                -0.5972450184598995,
                -0.9828605942727955
            ]
        },
        {
            "positions": [
                0.9423534494224843,
                -1.632383736839408,
                -0.15850659065995054,
                -0.12784093349084324,
                -0.5459975505317531,
                -1.0578542978242653
            ]
        },
        {
            "positions": [
                0.8544909953890596,
                -1.6517859438229872,
                -0.07045099150709078,
                -0.05680543260272586,
                -0.49475008260360687,
                -1.132848001375735
            ]
        },
        {
            "positions": [
                0.7666285413556349,
                -1.6711881508065662,
                0.017604607645768988,
                0.01423006828539175,
                -0.44350261467546037,
                -1.2078417049272046
            ]
        },
        {
            "positions": [
                0.6787660873222103,
                -1.690590357790145,
                0.10566020679862853,
                0.08526556917350914,
                -0.3922551467473143,
                -1.282835408478674
            ]
        },
        {
            "positions": [
                0.5909036332887858,
                -1.7099925647737242,
                0.19371580595148807,
                0.15630107006162675,
                -0.3410076788191678,
                -1.3578291120301436
            ]
        },
        {
            "positions": [
                0.5030411792553608,
                -1.7293947717573033,
                0.28177140510434806,
                0.22733657094974413,
                -0.28976021089102155,
                -1.4328228155816132
            ]
        },
        {
            "positions": [
                0.41517872522193633,
                -1.7487969787408821,
                0.3698270042572076,
                0.29837207183786174,
                -0.23851274296287506,
                -1.507816519133083
            ]
        },
        {
            "positions": [
                0.32731627118851137,
                -1.7681991857244612,
                0.45788260341006715,
                0.36940757272597935,
                -0.18726527503472878,
                -1.5828102226845528
            ]
        },
        {
            "positions": [
                0.2394538171550864,
                -1.7876013927080403,
                0.5459382025629271,
                0.44044307361409696,
                -0.1360178071065825,
                -1.6578039262360225
            ]
        },
        {
            "positions": [
                0.15159136312166188,
                -1.8070035996916194,
                0.6339938017157867,
                0.5114785745022146,
                -0.08477033917843602,
                -1.732797629787492
            ]
        },
        {
            "positions": [
                0.06372890908823692,
                -1.8264058066751985,
                0.7220494008686467,
                0.582514075390332,
                -0.03352287125028974,
                -1.8077913333389617
            ]
        },
        {
            "positions": [
                -0.0241335449451876,
                -1.8458080136587776,
                0.8101050000215062,
                0.6535495762784498,
                0.017724596677856752,
                -1.8827850368904313
            ]
        },
        {
            "positions": [
                -0.11199599897861212,
                -1.8652102206423564,
                0.8981605991743657,
                0.7245850771665667,
                0.0689720646060028,
                -1.9577787404419005
            ]
        },
        {
            "positions": [
                -0.19985845301203664,
                -1.8846124276259353,
                0.9862161983272257,
                0.7956205780546846,
                0.1202195325341493,
                -2.0327724439933705
            ]
        },
        {
            "positions": [
                -0.2877209070454616,
                -1.9040146346095144,
                1.0742717974800853,
                0.8666560789428019,
                0.17146700046229557,
                -2.10776614754484
            ]
        },
        {
            "positions": [
                -0.3755833610788861,
                -1.9234168415930935,
                1.1623273966329453,
                0.9376915798309198,
                0.22271446839044207,
                -2.1827598510963098
            ]
        },
        {
            "positions": [
                -0.4634458151123113,
                -1.9428190485766725,
                1.2503829957858046,
                1.0087270807190372,
                0.27396193631858834,
                -2.2577535546477794
            ]
        },
        {
            "positions": [
                -0.41837906791166796,
                -1.8807999969931355,
                1.3053494280555393,
                0.8735572953494111,
                0.2624732894026888,
                -2.3316615040241313
            ]
        },
        {
            "positions": [
                -0.3733123207110246,
                -1.8187809454095984,
                1.3603158603252743,
                0.7383875099797851,
                0.25098464248678926,
                -2.4055694534004832
            ]
        },
        {
            "positions": [
                -0.32824557351038125,
                -1.7567618938260614,
                1.415282292595009,
                0.6032177246101591,
                0.2394959955708897,
                -2.479477402776835
            ]
        },
        {
            "positions": [
                -0.2831788263097379,
                -1.6947428422425244,
                1.470248724864744,
                0.468047939240533,
                0.22800734865499017,
                -2.553385352153187
            ]
        },
        {
            "positions": [
                -0.23811207910909454,
                -1.6327237906589873,
                1.5252151571344787,
                0.332878153870907,
                0.21651870173909063,
                -2.627293301529539
            ]
        },
        {
            "positions": [
                -0.1930453319084512,
                -1.5707047390754503,
                1.5801815894042135,
                0.19770836850128093,
                0.2050300548231911,
                -2.701201250905891
            ]
        },
        {
            "positions": [
                -0.1479785847078079,
                -1.5086856874919132,
                1.6351480216739485,
                0.06253858313165506,
                0.19354140790729157,
                -2.775109200282243
            ]
        },
        {
            "positions": [
                -0.10291183750716448,
                -1.4466666359083762,
                1.6901144539436832,
                -0.07263120223797115,
                0.182052760991392,
                -2.8490171496585948
            ]
        },
        {
            "positions": [
                -0.057845090306521185,
                -1.3846475843248391,
                1.745080886213418,
                -0.20780098760759702,
                0.1705641140754925,
                -2.9229250990349462
            ]
        },
        {
            "positions": [
                -0.012778343105877776,
                -1.322628532741302,
                1.800047318483153,
                -0.3429707729772231,
                0.15907546715959292,
                -2.996833048411298
            ]
        },
        {
            "positions": [
                0.03228840409476552,
                -1.260609481157765,
                1.8550137507528877,
                -0.4781405583468492,
                0.1475868202436934,
                -3.07074099778765
            ]
        },
        {
            "positions": [
                0.07735515129540893,
                -1.198590429574228,
                1.9099801830226226,
                -0.6133103437164753,
                0.13609817332779386,
                -3.144648947164002
            ]
        },
        {
            "positions": [
                0.12242189849605227,
                -1.136571377990691,
                1.9649466152923574,
                -0.7484801290861013,
                0.12460952641189434,
                -3.218556896540354
            ]
        }
    ]
}{
    "goal": {
        "global_pose": {
            "orientation": {
                "w": 0.7047431468963623,
                "x": -0.7094548344612122,
                "y": 0.0024358443915843964,
                "z": -0.0022348060738295317
            },
            "position": {
                "x": 0.6094750761985779,
                "y": 0.3671506643295288,
                "z": 0.19426114857196808
            }
        },
        "name": "move_to_magneteinheit_A"
    },
    "id": "BiTRRT_move_to_magneteinheit_A_73",
    "joint_names": [
        "shoulder_pan_joint",
        "shoulder_lift_joint",
        "elbow_joint",
        "wrist_1_joint",
        "wrist_2_joint",
        "wrist_3_joint"
    ],
    "metrics": {
        "cart_traj_len": 1.7274534340898107,
        "distance_elbow_joint": 0.9319074461868864,
        "distance_shoulder_lift_joint": 0.7695940583342202,
        "distance_shoulder_pan_joint": 1.4843721263434557,
        "distance_wrist_1_joint": 0.885905841341342,
        "distance_wrist_2_joint": 1.4491672392312207,
        "distance_wrist_3_joint": 4.379011076619177,
        "smoothness": 0.15332057633173596,
        "time": 0.084510631,
        "traj_len": 3.146419836585115,
        "weighted_distance": 4.5818176548033005
    },
    "planner": "BiTRRT",
    "start": {
        "state": {
            "elbow_joint": 1.919643534880228,
            "shoulder_lift_joint": -1.8972525353963687,
            "shoulder_pan_joint": -1.1188672234189438,
            "wrist_1_joint": -1.5931878212786155,
            "wrist_2_joint": 1.5706036197970081,
            "wrist_3_joint": 1.118896926603594
        }
    },
    "waypoints": [
        {
            "positions": [
                -1.1188672234189438,
                -1.8972525353963687,
                1.919643534880228,
                -1.5931878212786155,
                1.5706036197970081,
                1.118896926603594
            ]
        },
        {
            "positions": [
                -1.1430929599149795,
                -1.8246699578685592,
                1.8297896192535046,
                -1.5476071582521178,
                1.5265299394922092,
                1.03399921438377
            ]
        },
        {
            "positions": [
                -1.1673186964110152,
                -1.7520873803407497,
                1.7399357036267808,
                -1.5020264952256204,
                1.4824562591874104,
                0.9491015021639457
            ]
        },
        {
            "positions": [
                -1.191544432907051,
                -1.6795048028129402,
                1.6500817880000573,
                -1.4564458321991227,
                1.4383825788826115,
                0.8642037899441217
            ]
        },
        {
            "positions": [
                -1.2157701694030867,
                -1.6069222252851307,
                1.5602278723733336,
                -1.410865169172625,
                1.3943088985778127,
                0.7793060777242975
            ]
        },
        {
            "positions": [
                -1.2399959058991223,
                -1.5343396477573212,
                1.47037395674661,
                -1.3652845061461276,
                1.3502352182730137,
                0.6944083655044735
            ]
        },
        {
            "positions": [
                -1.1750795514294425,
                -1.5149738777242179,
                1.4933567123681943,
                -1.3339510525171345,
                1.291720987906003,
                0.5060977695273279
            ]
        },
        {
            "positions": [
                -1.1101631969597627,
                -1.4956081076911143,
                1.5163394679897786,
                -1.3026175988881414,
                1.2332067575389922,
                0.3177871735501824
            ]
        },
        {
            "positions": [
                -1.0452468424900827,
                -1.476242337658011,
                1.5393222236113626,
                -1.2712841452591483,
                1.1746925271719815,
                0.12947657757303688
            ]
        },
        {
            "positions": [
                -0.9803304880204029,
                -1.4568765676249074,
                1.5623049792329469,
                -1.2399506916301555,
                1.1161782968049705,
                -0.058834018404108734
            ]
        },
        {
            "positions": [
                -0.9154141335507231,
                -1.437510797591804,
                1.5852877348545311,
                -1.2086172380011624,
                1.0576640664379597,
                -0.24714461438125424
            ]
        },
        {
            "positions": [
                -0.8504977790810433,
                -1.4181450275587004,
                1.6082704904761154,
                -1.1772837843721693,
                0.999149836070949,
                -0.43545521035839974
            ]
        },
        {
            "positions": [
                -0.7855814246113634,
                -1.398779257525597,
                1.6312532460976996,
                -1.1459503307431762,
                0.9406356057039382,
                -0.6237658063355453
            ]
        },
        {
            "positions": [
                -0.7206650701416835,
                -1.3794134874924935,
                1.6542360017192836,
                -1.1146168771141833,
                0.8821213753369275,
                -0.812076402312691
            ]
        },
        {
            "positions": [
                -0.6557487156720037,
                -1.3600477174593901,
                1.677218757340868,
                -1.0832834234851902,
                0.8236071449699167,
                -1.0003869982898363
            ]
        },
        {
            "positions": [
                -0.5908323612023239,
                -1.3406819474262865,
                1.7002015129624521,
                -1.0519499698561972,
                0.7650929146029058,
                -1.188697594266982
            ]
        },
        {
            "positions": [
                -0.5259160067326438,
                -1.3213161773931832,
                1.7231842685840364,
                -1.020616516227204,
                0.7065786842358951,
                -1.3770081902441276
            ]
        },
        {
            "positions": [
                -0.46099965226296413,
                -1.3019504073600796,
                1.7461670242056206,
                -0.989283062598211,
                0.6480644538688843,
                -1.565318786221273
            ]
        },
        {
            "positions": [
                -0.3960832977932842,
                -1.2825846373269763,
                1.7691497798272047,
                -0.9579496089692179,
                0.5895502235018735,
                -1.7536293821984188
            ]
        },
        {
            "positions": [
                -0.3311669433236044,
                -1.263218867293873,
                1.792132535448789,
                -0.9266161553402249,
                0.5310359931348627,
                -1.9419399781755642
            ]
        },
        {
            "positions": [
                -0.2662505888539245,
                -1.2438530972607693,
                1.8151152910703732,
                -0.8952827017112318,
                0.47252176276785196,
                -2.13025057415271
            ]
        },
        {
            "positions": [
                -0.20133423438424458,
                -1.2244873272276657,
                1.8380980466919574,
                -0.8639492480822388,
                0.4140075324008412,
                -2.3185611701298554
            ]
        },
        {
            "positions": [
                -0.13641787991456478,
                -1.2051215571945624,
                1.8610808023135417,
                -0.8326157944532457,
                0.35549330203383034,
                -2.5068717661070012
            ]
        },
        {
            "positions": [
                -0.07150152544488497,
                -1.185755787161459,
                1.884063557935126,
                -0.8012823408242526,
                0.2969790716668197,
                -2.695182362084146
            ]
        },
        {
            "positions": [
                -0.006585170975204946,
                -1.1663900171283554,
                1.9070463135567102,
                -0.7699488871952596,
                0.23846484129980872,
                -2.883492958061292
            ]
        },
        {
            "positions": [
                0.05833118349447464,
                -1.1470242470952519,
                1.9300290691782942,
                -0.7386154335662666,
                0.17995061093279796,
                -3.0718035540384374
            ]
        },
        {
            "positions": [
                0.12324753796415461,
                -1.1276584770621485,
                1.9530118247998784,
                -0.7072819799372735,
                0.12143638056578732,
                -3.2601141500155832
            ]
        }
    ]
}