{
    "goal": {
        "global_pose": {
            "orientation": {
                "w": 0.7047431468963623,
                "x": -0.7094548344612122,
                "y": 0.0024358443915843964,
                "z": -0.0022348060738295317
            },
            "position": {
                "x": 0.6094750761985779,
                "y": 0.3671506643295288,
                "z": 0.19426114857196808
            }
        },
        "name": "move_to_magneteinheit_A"
    },
    "id": "BiTRRT_move_to_magneteinheit_A_10",
    "joint_names": [
        "shoulder_pan_joint",
        "shoulder_lift_joint",
        "elbow_joint",
        "wrist_1_joint",
        "wrist_2_joint",
        "wrist_3_joint"
    ],
    "metrics": {
        "cart_traj_len": 4.791178468141988,
        "distance_elbow_joint": 4.650659141541787,
        "distance_shoulder_lift_joint": 0.46945998247824916,
        "distance_shoulder_pan_joint": 5.943894984936156,
        "distance_wrist_1_joint": 5.393611709227224,
        "distance_wrist_2_joint": 1.4452900512089217,
        "distance_wrist_3_joint": 2.437915962202717,
        "smoothness": 0.40241740269671944,
        "time": 0.08647484,
        "traj_len": 4.510081133593392,
        "weighted_distance": 5.661763463483496
    },
    "planner": "BiTRRT",
    "start": {
        "state": {
            "elbow_joint": -1.919618573717145,
            "shoulder_lift_joint": -1.2443395971678275,
            "shoulder_pan_joint": 2.6996025300909787,
            "wrist_1_joint": -1.548550951253194,
            "wrist_2_joint": -1.5709469090946802,
            "wrist_3_joint": 0.4420197732051276
        }
    },
    "waypoints": [
        {
            "positions": [
                2.6996025300909787,
                -1.2443395971678275,
                -1.919618573717145,
                -1.548550951253194,
                -1.5709469090946802,
                0.4420197732051276
            ]
        },
        {
            "positions": [
                2.5903655854753986,
                -1.2407222351025697,
                -1.8098892482499835,
                -1.4351069758792623,
                -1.5461189182550985,
                0.46782552440545744
            ]
        },
        {
            "positions": [
                2.481128640859819,
                -1.237104873037312,
                -1.7001599227828221,
                -1.3216630005053305,
                -1.5212909274155169,
                0.4936312756057873
            ]
        },
        {
            "positions": [
                2.371891696244239,
                -1.2334875109720542,
                -1.5904305973156605,
                -1.2082190251313987,
                -1.496462936575935,
                0.5194370268061171
            ]
        },
        {
            "positions": [
                2.2626547516286593,
                -1.2298701489067962,
                -1.4807012718484993,
                -1.0947750497574669,
                -1.4716349457363533,
                0.545242778006447
            ]
        },
        {
            "positions": [
                2.153417807013079,
                -1.2262527868415385,
                -1.3709719463813377,
                -0.9813310743835353,
                -1.4468069548967717,
                0.5710485292067768
            ]
        },
        {
            "positions": [
                2.044180862397499,
                -1.2226354247762807,
                -1.2612426209141763,
                -0.8678870990096034,
                -1.42197896405719,
                0.5968542804071068
            ]
        },
        {
            "positions": [
                1.9349439177819194,
                -1.219018062711023,
                -1.1515132954470149,
                -0.7544431236356717,
                -1.3971509732176082,
                0.6226600316074367
            ]
        },
        {
            "positions": [
                1.8257069731663393,
                -1.2154007006457652,
                -1.0417839699798535,
                -0.6409991482617399,
                -1.3723229823780265,
                0.6484657828077665
            ]
        },
        {
            "positions": [
                1.7164700285507593,
                -1.2117833385805075,
                -0.932054644512692,
                -0.5275551728878081,
                -1.3474949915384449,
                0.6742715340080964
            ]
        },
        {
            "positions": [
                1.6072330839351796,
                -1.2081659765152495,
                -0.8223253190455306,
                -0.4141111975138765,
                -1.3226670006988632,
                0.7000772852084262
            ]
        },
        {
            "positions": [
                1.4979961393195997,
                -1.2045486144499917,
                -0.7125959935783692,
                -0.30066722213994446,
                -1.2978390098592816,
                0.7258830364087561
            ]
        },
        {
            "positions": [
                1.3887591947040197,
                -1.200931252384734,
                -0.6028666681112076,
                -0.18722324676601265,
                -1.2730110190197,
                0.7516887876090859
            ]
        },
        {
            "positions": [
                1.2795222500884398,
                -1.1973138903194762,
                -0.4931373426440464,
                -0.07377927139208107,
                -1.2481830281801183,
                0.7774945388094157
            ]
        },
        {
            "positions": [
                1.17028530547286,
                -1.1936965282542185,
                -0.383408017176885,
                0.039664703981850735,
                -1.2233550373405364,
                0.8033002900097457
            ]
        },
        {
            "positions": [
                1.0610483608572798,
                -1.1900791661889607,
                -0.27367869170972337,
                0.15310867935578276,
                -1.1985270465009548,
                0.8291060412100755
            ]
        },
        {
            "positions": [
                0.9518114162417002,
                -1.186461804123703,
                -0.16394936624256218,
                0.26655265472971434,
                -1.1736990556613731,
                0.8549117924104053
            ]
        },
        {
            "positions": [
                0.8425744716261201,
                -1.182844442058445,
                -0.054220040775400546,
                0.37999663010364615,
                -1.1488710648217912,
                0.8807175436107352
            ]
        },
        {
            "positions": [
                0.73333752701054,
                -1.1792270799931872,
                0.05550928469176086,
                0.49344060547757795,
                -1.1240430739822096,
                0.9065232948110651
            ]
        },
        {
            "positions": [
                0.6241005823949601,
                -1.1756097179279295,
                0.16523861015892227,
                0.6068845808515095,
                -1.099215083142628,
                0.9323290460113949
            ]
        },
        {
            "positions": [
                0.5148636377793805,
                -1.1719923558626717,
                0.2749679356260837,
                0.7203285562254411,
                -1.0743870923030463,
                0.9581347972117247
            ]
        },
        {
            "positions": [
                0.4056266931638004,
                -1.168374993797414,
                0.3846972610932451,
                0.8337725315993731,
                -1.0495591014634646,
                0.9839405484120547
            ]
        },
        {
            "positions": [
                0.29638974854822075,
                -1.1647576317321562,
                0.4944265865604065,
                0.9472165069733052,
                -1.024731110623883,
                1.0097462996123845
            ]
        },
        {
            "positions": [
                0.18715280393264067,
                -1.1611402696668982,
                0.6041559120275679,
                1.0606604823472368,
                -0.9999031197843011,
                1.0355520508127143
            ]
        },
        {
            "positions": [
                0.07791585931706058,
                -1.1575229076016404,
                0.7138852374947298,
                1.1741044577211688,
                -0.9750751289447195,
                1.0613578020130443
            ]
        },
        {
            "positions": [
                -0.03132108529851951,
                -1.1539055455363827,
                0.8236145629618912,
                1.2875484330951004,
                -0.9502471381051377,
                1.087163553213374
            ]
        },
        {
            "positions": [
                -0.14055802991409916,
                -1.150288183471125,
                0.9333438884290521,
                1.400992408469032,
                -0.9254191472655562,
                1.112969304413704
            ]
        },
        {
            "positions": [
                -0.2497949745296788,
                -1.1466708214058672,
                1.0430732138962135,
                1.514436383842964,
                -0.9005911564259744,
                1.1387750556140337
            ]
        },
        {
            "positions": [
                -0.3590319191452589,
                -1.1430534593406094,
                1.152802539363375,
                1.6278803592168956,
                -0.8757631655863927,
                1.1645808068143637
            ]
        },
        {
            "positions": [
                -0.468268863760839,
                -1.1394360972753517,
                1.2625318648305368,
                1.7413243345908276,
                -0.850935174746811,
                1.1903865580146935
            ]
        },
        {
            "positions": [
                -0.5775058083764191,
                -1.1358187352100937,
                1.3722611902976982,
                1.8547683099647596,
                -0.8261071839072293,
                1.2161923092150233
            ]
        },
        {
            "positions": [
                -0.6867427529919987,
                -1.132201373144836,
                1.4819905157648592,
                1.9682122853386907,
                -0.8012791930676477,
                1.241998060415353
            ]
        },
        {
            "positions": [
                -0.7959796976075784,
                -1.1285840110795782,
                1.5917198412320206,
                2.0816562607126228,
                -0.776451202228066,
                1.2678038116156831
            ]
        },
        {
            "positions": [
                -0.9052166422231585,
                -1.1249666490143204,
                1.7014491666991824,
                2.1951002360865544,
                -0.7516232113884843,
                1.293609562816013
            ]
        },
        {
            "positions": [
                -1.0144535868387385,
                -1.1213492869490627,
                1.8111784921663439,
                2.3085442114604864,
                -0.7267952205489026,
                1.3194153140163427
            ]
        },
        {
            "positions": [
                -1.1236905314543186,
                -1.117731924883805,
                1.9209078176335053,
                2.4219881868344184,
                -0.7019672297093208,
                1.3452210652166727
            ]
        },
        {
            "positions": [
                -1.2329274760698987,
                -1.114114562818547,
                2.030637143100667,
                2.53543216220835,
                -0.6771392388697391,
                1.3710268164170025
            ]
        },
        {
            "positions": [
                -1.342164420685478,
                -1.1104972007532892,
                2.1403664685678283,
                2.648876137582281,
                -0.6523112480301575,
                1.3968325676173323
            ]
        },
        {
            "positions": [
                -1.4514013653010585,
                -1.1068798386880314,
                2.2500957940349897,
                2.762320112956213,
                -0.6274832571905758,
                1.4226383188176621
            ]
        },
        {
            "positions": [
                -1.560638309916638,
                -1.1032624766227737,
                2.3598251195021507,
                2.8757640883301447,
                -0.6026552663509941,
                1.4484440700179921
            ]
        },
        {
            "positions": [
                -1.4403772995645996,
                -1.0798065579132596,
                2.3333097303362584,
                2.8065286119270105,
                -0.5685839514606201,
                1.3461946653472885
            ]
        },
        {
            "positions": [
                -1.3201162892125609,
                -1.0563506392037458,
                2.3067943411703666,
                2.7372931355238763,
                -0.5345126365702461,
                1.2439452606765846
            ]
        },
        {
            "positions": [
                -1.1998552788605223,
                -1.0328947204942318,
                2.2802789520044744,
                2.668057659120742,
                -0.5004413216798721,
                1.141695856005881
            ]
        },
        {
            "positions": [
                -1.0795942685084838,
                -1.0094388017847178,
                2.253763562838582,
                2.598822182717608,
                -0.4663700067894981,
                1.0394464513351773
            ]
        },
        {
            "positions": [
                -0.9593332581564451,
                -0.9859828830752039,
                2.2272481736726903,
                2.5295867063144737,
                -0.43229869189912407,
                0.9371970466644735
            ]
        },
        {
            "positions": [
                -0.8390722478044066,
                -0.96252696436569,
                2.200732784506798,
                2.460351229911339,
                -0.3982273770087501,
                0.8349476419937698
            ]
        },
        {
            "positions": [
                -0.718811237452368,
                -0.9390710456561759,
                2.174217395340906,
                2.391115753508205,
                -0.36415606211837603,
                0.732698237323066
            ]
        },
        {
            "positions": [
                -0.5985502271003295,
                -0.915615126946662,
                2.147702006175014,
                2.3218802771050706,
                -0.3300847472280021,
                0.6304488326523624
            ]
        },
        {
            "positions": [
                -0.4782892167482906,
                -0.8921592082371481,
                2.121186617009122,
                2.2526448007019364,
                -0.29601343233762806,
                0.5281994279816585
            ]
        },
        {
            "positions": [
                -0.3580282063962521,
                -0.8687032895276341,
                2.0946712278432296,
                2.183409324298802,
                -0.26194211744725404,
                0.4259500233109548
            ]
        },
        {
            "positions": [
                -0.2377671960442136,
                -0.8452473708181202,
                2.0681558386773373,
                2.114173847895668,
                -0.22787080255688003,
                0.3237006186402511
            ]
        },
        {
            "positions": [
                -0.11750618569217508,
                -0.8217914521086063,
                2.0416404495114455,
                2.0449383714925338,
                -0.19379948766650607,
                0.22145121396954748
            ]
        },
        {
            "positions": [
                0.0027548246598636528,
                -0.7983355333990922,
                2.0151250603455533,
                1.9757028950893993,
                -0.15972817277613205,
                0.11920180929884361
            ]
        },
        {
            "positions": [
                0.1230158350119021,
                -0.7748796146895783,
                1.9886096711796613,
                1.9064674186862651,
                -0.12565685788575803,
                0.016952404628139957
            ]
        }
    ]
}{
    "goal": {
        "global_pose": {
            "orientation": {
                "w": 0.7047431468963623,
                "x": -0.7094548344612122,
                "y": 0.0024358443915843964,
                "z": -0.0022348060738295317
            },
            "position": {
                "x": 0.6094750761985779,
                "y": 0.3671506643295288,
                "z": 0.19426114857196808
            }
        },
        "name": "move_to_magneteinheit_A"
    },
    "id": "BiTRRT_move_to_magneteinheit_A_10",
    "joint_names": [
        "shoulder_pan_joint",
        "shoulder_lift_joint",
        "elbow_joint",
        "wrist_1_joint",
        "wrist_2_joint",
        "wrist_3_joint"
    ],
    "metrics": {
        "cart_traj_len": 1.242084038594195,
        "distance_elbow_joint": 0.08628398780230717,
        "distance_shoulder_lift_joint": 0.8198366041422129,
        "distance_shoulder_pan_joint": 1.240661319928501,
        "distance_wrist_1_joint": 0.7829315544166172,
        "distance_wrist_2_joint": 1.4372081388554194,
        "distance_wrist_3_joint": 4.2699221664697085,
        "smoothness": 0.16813222689958032,
        "time": 0.091938938,
        "traj_len": 2.938850756948159,
        "weighted_distance": 4.40418298868544
    },
    "planner": "BiTRRT",
    "start": {
        "state": {
            "elbow_joint": 1.919643534880228,
            "shoulder_lift_joint": -1.8972525353963687,
            "shoulder_pan_joint": -1.1188672234189438,
            "wrist_1_joint": -1.5931878212786155,
            "wrist_2_joint": 1.5706036197970081,
            "wrist_3_joint": 1.118896926603594
        }
    },
    "waypoints": [
        {
            "positions": [
                -1.1188672234189438,
                -1.8972525353963687,
                1.919643534880228,
                -1.5931878212786155,
                1.5706036197970081,
                1.118896926603594
            ]
        },
        {
            "positions": [
                -1.063928551270288,
                -1.8615211263272,
                1.9191107420895699,
                -1.557817475609746,
                1.5058389299510841,
                0.9300045041495953
            ]
        },
        {
            "positions": [
                -1.0089898791216323,
                -1.8257897172580313,
                1.918577949298912,
                -1.5224471299408768,
                1.4410742401051602,
                0.7411120816955967
            ]
        },
        {
            "positions": [
                -0.9540512069729765,
                -1.7900583081888626,
                1.9180451565082537,
                -1.4870767842720074,
                1.3763095502592362,
                0.5522196592415982
            ]
        },
        {
            "positions": [
                -0.8991125348243207,
                -1.7543268991196939,
                1.9175123637175957,
                -1.451706438603138,
                1.3115448604133122,
                0.3633272367875996
            ]
        },
        {
            "positions": [
                -0.844173862675665,
                -1.7185954900505251,
                1.9169795709269375,
                -1.4163360929342688,
                1.2467801705673884,
                0.17443481433360108
            ]
        },
        {
            "positions": [
                -0.7892351905270092,
                -1.6828640809813564,
                1.9164467781362795,
                -1.3809657472653993,
                1.1820154807214645,
                -0.014457608120397536
            ]
        },
        {
            "positions": [
                -0.7342965183783534,
                -1.6471326719121877,
                1.9159139853456213,
                -1.3455954015965301,
                1.1172507908755405,
                -0.20335003057439605
            ]
        },
        {
            "positions": [
                -0.6793578462296976,
                -1.6114012628430188,
                1.9153811925549633,
                -1.3102250559276607,
                1.0524861010296163,
                -0.3922424530283948
            ]
        },
        {
            "positions": [
                -0.6244191740810419,
                -1.5756698537738503,
                1.914848399764305,
                -1.2748547102587913,
                0.9877214111836924,
                -0.5811348754823935
            ]
        },
        {
            "positions": [
                -0.5694805019323861,
                -1.5399384447046813,
                1.914315606973647,
                -1.239484364589922,
                0.9229567213377685,
                -0.7700272979363918
            ]
        },
        {
            "positions": [
                -0.5145418297837303,
                -1.5042070356355128,
                1.913782814182989,
                -1.2041140189210526,
                0.8581920314918445,
                -0.9589197203903905
            ]
        },
        {
            "positions": [
                -0.45960315763507453,
                -1.468475626566344,
                1.9132500213923307,
                -1.1687436732521834,
                0.7934273416459207,
                -1.147812142844389
            ]
        },
        {
            "positions": [
                -0.40466448548641876,
                -1.4327442174971752,
                1.9127172286016727,
                -1.133373327583314,
                0.7286626517999966,
                -1.336704565298388
            ]
        },
        {
            "positions": [
                -0.349725813337763,
                -1.3970128084280065,
                1.9121844358110145,
                -1.0980029819144446,
                0.6638979619540727,
                -1.525596987752386
            ]
        },
        {
            "positions": [
                -0.2947871411891073,
                -1.361281399358838,
                1.9116516430203565,
                -1.0626326362455751,
                0.5991332721081487,
                -1.7144894102063846
            ]
        },
        {
            "positions": [
                -0.23984846904045143,
                -1.325549990289669,
                1.9111188502296983,
                -1.0272622905767057,
                0.5343685822622246,
                -1.9033818326603835
            ]
        },
        {
            "positions": [
                -0.18490979689179565,
                -1.2898185812205005,
                1.9105860574390403,
                -0.9918919449078366,
                0.46960389241630085,
                -2.092274255114382
            ]
        },
        {
            "positions": [
                -0.12997112474313977,
                -1.2540871721513316,
                1.910053264648382,
                -0.9565215992389672,
                0.40483920257037664,
                -2.2811666775683808
            ]
        },
        {
            "positions": [
                -0.0750324525944841,
                -1.2183557630821629,
                1.9095204718577241,
                -0.9211512535700979,
                0.3400745127244529,
                -2.4700591000223797
            ]
        },
        {
            "positions": [
                -0.020093780445828324,
                -1.1826243540129942,
                1.908987679067066,
                -0.8857809079012285,
                0.2753098228785289,
                -2.658951522476378
            ]
        },
        {
            "positions": [
                0.03484489170282745,
                -1.1468929449438254,
                1.908454886276408,
                -0.8504105622323591,
                0.21054513303260491,
                -2.8478439449303767
            ]
        },
        {
            "positions": [
                0.08978356385148321,
                -1.1111615358746567,
                1.9079220934857497,
                -0.8150402165634898,
                0.14578044318668099,
                -3.036736367384375
            ]
        },
        {
            "positions": [
                0.12179409650955714,
                -1.1449071404951576,
                1.9824846398935785,
                -0.8198241662649813,
                0.13339548094158873,
                -3.151025239866114
            ]
        }
    ]
}