{
    "goal": {
        "global_pose": {
            "orientation": {
                "w": 0.5084816217422485,
                "x": -0.49083608388900757,
                "y": 0.5182115435600281,
                "z": -0.4816462993621826
            },
            "position": {
                "x": 0.5540239810943604,
                "y": 0.030875300988554955,
                "z": 0.16403168439865112
            }
        },
        "name": "move_to_storage_A"
    },
    "id": "BiTRRT_move_to_storage_A_16",
    "joint_names": [
        "shoulder_pan_joint",
        "shoulder_lift_joint",
        "elbow_joint",
        "wrist_1_joint",
        "wrist_2_joint",
        "wrist_3_joint"
    ],
    "metrics": {
        "cart_traj_len": 0.3530952917210839,
        "distance_elbow_joint": 0.4491512972811549,
        "distance_shoulder_lift_joint": 0.23438168142666083,
        "distance_shoulder_pan_joint": 0.4584968414389943,
        "distance_wrist_1_joint": 0.23788420653393427,
        "distance_wrist_2_joint": 1.112826897095605,
        "distance_wrist_3_joint": 0.10024490821445964,
        "smoothness": 9.992007236661072e-16,
        "time": 0.043845812,
        "traj_len": 1.610275079603112,
        "weighted_distance": 2.0357275731416684
    },
    "planner": "BiTRRT",
    "start": {
        "state": {
            "elbow_joint": 1.9715477243005601,
            "shoulder_lift_joint": -1.1394853015351272,
            "shoulder_pan_joint": 0.12281154014795169,
            "wrist_1_joint": -0.7804696478968182,
            "wrist_2_joint": 0.12958648046900423,
            "wrist_3_joint": -3.192491284697111
        }
    },
    "waypoints": [
        {
            "positions": [
                0.12281154014795169,
                -1.1394853015351272,
                1.9715477243005601,
                -0.7804696478968182,
                0.12958648046900423,
                -3.192491284697111
            ]
        },
        {
            "positions": [
                0.05731199137095251,
                -1.172968398881793,
                2.035712195340725,
                -0.8144531059730945,
                0.28856175148266205,
                -3.178170583523617
            ]
        },
        {
            "positions": [
                -0.008187557406046667,
                -1.206451496228459,
                2.09987666638089,
                -0.8484365640493708,
                0.44753702249631994,
                -3.1638498823501227
            ]
        },
        {
            "positions": [
                -0.07368710618304584,
                -1.2399345935751247,
                2.164041137421055,
                -0.8824200221256471,
                0.6065122935099778,
                -3.1495291811766286
            ]
        },
        {
            "positions": [
                -0.139186654960045,
                -1.2734176909217905,
                2.22820560846122,
                -0.9164034802019234,
                0.7654875645236356,
                -3.135208480003134
            ]
        },
        {
            "positions": [
                -0.20468620373704421,
                -1.3069007882684565,
                2.292370079501385,
                -0.9503869382781998,
                0.9244628355372936,
                -3.12088777882964
            ]
        },
        {
            "positions": [
                -0.27018575251404336,
                -1.3403838856151222,
                2.35653455054155,
                -0.9843703963544761,
                1.0834381065509513,
                -3.1065670776561456
            ]
        },
        {
            "positions": [
                -0.33568530129104257,
                -1.373866982961788,
                2.420699021581715,
                -1.0183538544307524,
                1.2424133775646091,
                -3.0922463764826515
            ]
        }
    ]
}