{
    "goal": {
        "global_pose": {
            "orientation": {
                "w": 0.5084816217422485,
                "x": -0.49083608388900757,
                "y": 0.5182115435600281,
                "z": -0.4816462993621826
            },
            "position": {
                "x": 0.5540239810943604,
                "y": 0.030875300988554955,
                "z": 0.16403168439865112
            }
        },
        "name": "move_to_storage_A"
    },
    "id": "BiTRRT_move_to_storage_A_59",
    "joint_names": [
        "shoulder_pan_joint",
        "shoulder_lift_joint",
        "elbow_joint",
        "wrist_1_joint",
        "wrist_2_joint",
        "wrist_3_joint"
    ],
    "metrics": {
        "cart_traj_len": 0.35297121145099497,
        "distance_elbow_joint": 0.44946876776274536,
        "distance_shoulder_lift_joint": 0.2352138493619178,
        "distance_shoulder_pan_joint": 0.4615862355002595,
        "distance_wrist_1_joint": 0.24463595699713048,
        "distance_wrist_2_joint": 1.0983319739425204,
        "distance_wrist_3_joint": 0.10237179024852106,
        "smoothness": 4.440892098500626e-16,
        "time": 0.034470476,
        "traj_len": 1.6098473759375747,
        "weighted_distance": 2.034531908142457
    },
    "planner": "BiTRRT",
    "start": {
        "state": {
            "elbow_joint": 1.9715477243005601,
            "shoulder_lift_joint": -1.1394853015351272,
            "shoulder_pan_joint": 0.12281154014795169,
            "wrist_1_joint": -0.7804696478968182,
            "wrist_2_joint": 0.12958648046900423,
            "wrist_3_joint": -3.192491284697111
        }
    },
    "waypoints": [
        {
            "positions": [
                0.12281154014795169,
                -1.1394853015351272,
                1.9715477243005601,
                -0.7804696478968182,
                0.12958648046900423,
                -3.192491284697111
            ]
        },
        {
            "positions": [
                0.056870649362200335,
                -1.173087280015401,
                2.0357575482666666,
                -0.8154176417535511,
                0.28649104817507853,
                -3.1778667432330368
            ]
        },
        {
            "positions": [
                -0.00907024142355102,
                -1.2066892584956752,
                2.099967372232773,
                -0.850365635610284,
                0.4433956158811529,
                -3.1632422017689623
            ]
        },
        {
            "positions": [
                -0.07501113220930238,
                -1.2402912369759491,
                2.1641771961988794,
                -0.885313629467017,
                0.6003001835872273,
                -3.148617660304888
            ]
        },
        {
            "positions": [
                -0.14095202299505372,
                -1.273893215456223,
                2.228387020164986,
                -0.9202616233237498,
                0.7572047512933016,
                -3.1339931188408134
            ]
        },
        {
            "positions": [
                -0.2068929137808051,
                -1.307495193936497,
                2.2925968441310927,
                -0.9552096171804828,
                0.914109318999376,
                -3.119368577376739
            ]
        },
        {
            "positions": [
                -0.2728338045665564,
                -1.341097172416771,
                2.356806668097199,
                -0.9901576110372157,
                1.0710138867054502,
                -3.1047440359126646
            ]
        },
        {
            "positions": [
                -0.3387746953523078,
                -1.374699150897045,
                2.4210164920633055,
                -1.0251056048939486,
                1.2279184544115247,
                -3.09011949444859
            ]
        }
    ]
}