{
    "goal": {
        "global_pose": {
            "orientation": {
                "w": 0.7047431468963623,
                "x": -0.7094548344612122,
                "y": 0.0024358443915843964,
                "z": -0.0022348060738295317
            },
            "position": {
                "x": 0.6094750761985779,
                "y": 0.3671506643295288,
                "z": 0.19426114857196808
            }
        },
        "name": "move_to_magneteinheit_A"
    },
    "id": "BiTRRT_move_to_magneteinheit_A_61",
    "joint_names": [
        "shoulder_pan_joint",
        "shoulder_lift_joint",
        "elbow_joint",
        "wrist_1_joint",
        "wrist_2_joint",
        "wrist_3_joint"
    ],
    "metrics": {
        "cart_traj_len": 3.6185525315552214,
        "distance_elbow_joint": 3.87506354382148,
        "distance_shoulder_lift_joint": 0.8065449457547742,
        "distance_shoulder_pan_joint": 3.3679029694567237,
        "distance_wrist_1_joint": 1.5309660007303394,
        "distance_wrist_2_joint": 2.3345287832781083,
        "distance_wrist_3_joint": 2.587099345513052,
        "smoothness": 0.39966546525210905,
        "time": 0.094174146,
        "traj_len": 3.8081630202178154,
        "weighted_distance": 4.8519891862605204
    },
    "planner": "BiTRRT",
    "start": {
        "state": {
            "elbow_joint": -1.919618573717145,
            "shoulder_lift_joint": -1.2443395971678275,
            "shoulder_pan_joint": 2.6996025300909787,
            "wrist_1_joint": -1.548550951253194,
            "wrist_2_joint": -1.5709469090946802,
            "wrist_3_joint": 0.4420197732051276
        }
    },
    "waypoints": [
        {
            "positions": [
                2.6996025300909787,
                -1.2443395971678275,
                -1.919618573717145,
                -1.548550951253194,
                -1.5709469090946802,
                0.4420197732051276
            ]
        },
        {
            "positions": [
                2.5896661874885956,
                -1.249087559069942,
                -1.7949661361832916,
                -1.497202152702231,
                -1.5270258168871318,
                0.49466914153619695
            ]
        },
        {
            "positions": [
                2.479729844886212,
                -1.2538355209720564,
                -1.6703136986494385,
                -1.445853354151268,
                -1.4831047246795834,
                0.5473185098672664
            ]
        },
        {
            "positions": [
                2.3697935022838283,
                -1.2585834828741707,
                -1.545661261115585,
                -1.394504555600305,
                -1.439183632472035,
                0.5999678781983357
            ]
        },
        {
            "positions": [
                2.259857159681445,
                -1.2633314447762851,
                -1.4210088235817318,
                -1.343155757049342,
                -1.3952625402644867,
                0.6526172465294051
            ]
        },
        {
            "positions": [
                2.149920817079062,
                -1.2680794066783996,
                -1.2963563860478784,
                -1.291806958498379,
                -1.3513414480569381,
                0.7052666148604745
            ]
        },
        {
            "positions": [
                2.0399844744766784,
                -1.272827368580514,
                -1.171703948514025,
                -1.2404581599474158,
                -1.3074203558493898,
                0.7579159831915439
            ]
        },
        {
            "positions": [
                1.9300481318742948,
                -1.2775753304826285,
                -1.0470515109801717,
                -1.189109361396453,
                -1.2634992636418414,
                0.8105653515226133
            ]
        },
        {
            "positions": [
                1.8201117892719116,
                -1.2823232923847427,
                -0.9223990734463186,
                -1.1377605628454899,
                -1.219578171434293,
                0.8632147198536827
            ]
        },
        {
            "positions": [
                1.710175446669528,
                -1.2870712542868572,
                -0.7977466359124652,
                -1.0864117642945268,
                -1.1756570792267447,
                0.9158640881847521
            ]
        },
        {
            "positions": [
                1.6002391040671449,
                -1.2918192161889717,
                -0.6730941983786121,
                -1.0350629657435637,
                -1.1317359870191963,
                0.9685134565158215
            ]
        },
        {
            "positions": [
                1.4903027614647613,
                -1.2965671780910861,
                -0.5484417608447587,
                -0.9837141671926007,
                -1.0878148948116477,
                1.021162824846891
            ]
        },
        {
            "positions": [
                1.380366418862378,
                -1.3013151399932004,
                -0.42378932331090535,
                -0.9323653686416377,
                -1.0438938026040994,
                1.0738121931779603
            ]
        },
        {
            "positions": [
                1.2704300762599947,
                -1.3060631018953148,
                -0.2991368857770522,
                -0.8810165700906747,
                -0.9999727103965511,
                1.1264615615090297
            ]
        },
        {
            "positions": [
                1.160493733657611,
                -1.3108110637974293,
                -0.17448444824319864,
                -0.8296677715397116,
                -0.9560516181890026,
                1.179110929840099
            ]
        },
        {
            "positions": [
                1.0505573910552277,
                -1.3155590256995437,
                -0.04983201070934551,
                -0.7783189729887485,
                -0.9121305259814543,
                1.2317602981711684
            ]
        },
        {
            "positions": [
                0.9406210484528446,
                -1.3203069876016582,
                0.07482042682450785,
                -0.7269701744377856,
                -0.8682094337739059,
                1.2844096665022378
            ]
        },
        {
            "positions": [
                0.8306847058504612,
                -1.3250549495037725,
                0.19947286435836076,
                -0.6756213758868226,
                -0.8242883415663576,
                1.3370590348333071
            ]
        },
        {
            "positions": [
                0.7207483632480776,
                -1.329802911405887,
                0.32412530189221456,
                -0.6242725773358594,
                -0.7803672493588091,
                1.3897084031643765
            ]
        },
        {
            "positions": [
                0.6108120206456942,
                -1.3345508733080014,
                0.4487777394260679,
                -0.5729237787848964,
                -0.7364461571512607,
                1.442357771495446
            ]
        },
        {
            "positions": [
                0.500875678043311,
                -1.3392988352101158,
                0.5734301769599208,
                -0.5215749802339333,
                -0.6925250649437124,
                1.4950071398265155
            ]
        },
        {
            "positions": [
                0.3909393354409274,
                -1.34404679711223,
                0.6980826144937742,
                -0.4702261816829705,
                -0.648603972736164,
                1.5476565081575848
            ]
        },
        {
            "positions": [
                0.2810029928385438,
                -1.3487947590143445,
                0.8227350520276275,
                -0.4188773831320074,
                -0.6046828805286155,
                1.6003058764886542
            ]
        },
        {
            "positions": [
                0.17106665023616058,
                -1.353542720916459,
                0.9473874895614809,
                -0.3675285845810443,
                -0.5607617883210672,
                1.6529552448197236
            ]
        },
        {
            "positions": [
                0.0823851567185158,
                -1.2614860207357028,
                1.000920541805173,
                -0.3674760887500612,
                -0.6248311035427383,
                1.7448211747981088
            ]
        },
        {
            "positions": [
                -0.006296336799128971,
                -1.1694293205549466,
                1.0544535940488649,
                -0.36742359291907806,
                -0.6889004187644093,
                1.8366871047764939
            ]
        },
        {
            "positions": [
                -0.0949778303167737,
                -1.0773726203741907,
                1.107986646292557,
                -0.36737109708809496,
                -0.7529697339860805,
                1.9285530347548792
            ]
        },
        {
            "positions": [
                -0.18365932383441852,
                -0.9853159201934345,
                1.161519698536249,
                -0.3673186012571118,
                -0.8170390492077515,
                2.020418964733264
            ]
        },
        {
            "positions": [
                -0.2723408173520633,
                -0.8932592200126783,
                1.215052750779941,
                -0.3672661054261287,
                -0.8811083644294226,
                2.1122848947116495
            ]
        },
        {
            "positions": [
                -0.23274485515069493,
                -0.9169650521229146,
                1.2890919727123804,
                -0.4022342209164561,
                -0.7807086557898086,
                2.2039683171123023
            ]
        },
        {
            "positions": [
                -0.19314889294932655,
                -0.9406708842331507,
                1.36313119464482,
                -0.4372023364067836,
                -0.6803089471501946,
                2.2956517395129556
            ]
        },
        {
            "positions": [
                -0.1535529307479582,
                -0.964376716343387,
                1.4371704165772594,
                -0.472170451897111,
                -0.5799092385105806,
                2.3873351619136085
            ]
        },
        {
            "positions": [
                -0.11395696854658982,
                -0.9880825484536231,
                1.511209638509699,
                -0.5071385673874385,
                -0.4795095298709667,
                2.479018584314262
            ]
        },
        {
            "positions": [
                -0.07436100634522147,
                -1.0117883805638592,
                1.5852488604421384,
                -0.5421066828777659,
                -0.37910982123135273,
                2.5707020067149147
            ]
        },
        {
            "positions": [
                -0.03476504414385312,
                -1.0354942126740956,
                1.659288082374578,
                -0.5770747983680933,
                -0.2787101125917387,
                2.6623854291155675
            ]
        },
        {
            "positions": [
                0.004830918057515232,
                -1.0592000447843317,
                1.7333273043070174,
                -0.6120429138584207,
                -0.17831040395212483,
                2.754068851516221
            ]
        },
        {
            "positions": [
                0.04442688025888364,
                -1.0829058768945679,
                1.807366526239457,
                -0.6470110293487481,
                -0.07791069531251071,
                2.8457522739168737
            ]
        },
        {
            "positions": [
                0.08402284246025199,
                -1.1066117090048042,
                1.8814057481718964,
                -0.6819791448390756,
                0.02248901332710318,
                2.937435696317527
            ]
        },
        {
            "positions": [
                0.12361880466162034,
                -1.1303175411150403,
                1.955444970104336,
                -0.716947260329403,
                0.12288872196671724,
                3.02911911871818
            ]
        }
    ]
}{
    "goal": {
        "global_pose": {
            "orientation": {
                "w": 0.7047431468963623,
                "x": -0.7094548344612122,
                "y": 0.0024358443915843964,
                "z": -0.0022348060738295317
            },
            "position": {
                "x": 0.6094750761985779,
                "y": 0.3671506643295288,
                "z": 0.19426114857196808
            }
        },
        "name": "move_to_magneteinheit_A"
    },
    "id": "BiTRRT_move_to_magneteinheit_A_61",
    "joint_names": [
        "shoulder_pan_joint",
        "shoulder_lift_joint",
        "elbow_joint",
        "wrist_1_joint",
        "wrist_2_joint",
        "wrist_3_joint"
    ],
    "metrics": {
        "cart_traj_len": 1.227507491642234,
        "distance_elbow_joint": 0.10892300632591101,
        "distance_shoulder_lift_joint": 0.7790339503989006,
        "distance_shoulder_pan_joint": 1.2418520418322183,
        "distance_wrist_1_joint": 0.8780736607727315,
        "distance_wrist_2_joint": 1.573435013955509,
        "distance_wrist_3_joint": 4.354196525459853,
        "smoothness": 0.20662256433859827,
        "time": 0.092677278,
        "traj_len": 2.989233045238381,
        "weighted_distance": 4.482791086409568
    },
    "planner": "BiTRRT",
    "start": {
        "state": {
            "elbow_joint": 1.919643534880228,
            "shoulder_lift_joint": -1.8972525353963687,
            "shoulder_pan_joint": -1.1188672234189438,
            "wrist_1_joint": -1.5931878212786155,
            "wrist_2_joint": 1.5706036197970081,
            "wrist_3_joint": 1.118896926603594
        }
    },
    "waypoints": [
        {
            "positions": [
                -1.1188672234189438,
                -1.8972525353963687,
                1.919643534880228,
                -1.5931878212786155,
                1.5706036197970081,
                1.118896926603594
            ]
        },
        {
            "positions": [
                -1.0643701777209726,
                -1.8622256991759871,
                1.9181094605337363,
                -1.5534406887958492,
                1.502258804439141,
                0.9310199660312984
            ]
        },
        {
            "positions": [
                -1.0098731320230014,
                -1.8271988629556055,
                1.9165753861872445,
                -1.5136935563130829,
                1.433913989081274,
                0.7431430054590029
            ]
        },
        {
            "positions": [
                -0.9553760863250302,
                -1.792172026735224,
                1.9150413118407528,
                -1.4739464238303166,
                1.3655691737234068,
                0.5552660448867075
            ]
        },
        {
            "positions": [
                -0.9008790406270589,
                -1.757145190514842,
                1.9135072374942608,
                -1.4341992913475503,
                1.2972243583655398,
                0.36738908431441186
            ]
        },
        {
            "positions": [
                -0.8463819949290877,
                -1.7221183542944605,
                1.911973163147769,
                -1.394452158864784,
                1.2288795430076727,
                0.17951212374211645
            ]
        },
        {
            "positions": [
                -0.7918849492311165,
                -1.6870915180740789,
                1.9104390888012772,
                -1.3547050263820177,
                1.1605347276498055,
                -0.008364836830178968
            ]
        },
        {
            "positions": [
                -0.7373879035331453,
                -1.6520646818536973,
                1.9089050144547854,
                -1.3149578938992514,
                1.0921899122919383,
                -0.1962417974024746
            ]
        },
        {
            "positions": [
                -0.682890857835174,
                -1.6170378456333157,
                1.9073709401082937,
                -1.2752107614164852,
                1.0238450969340713,
                -0.38411875797477024
            ]
        },
        {
            "positions": [
                -0.6283938121372028,
                -1.582011009412934,
                1.905836865761802,
                -1.2354636289337189,
                0.9555002815762041,
                -0.5719957185470659
            ]
        },
        {
            "positions": [
                -0.5738967664392316,
                -1.5469841731925524,
                1.9043027914153101,
                -1.1957164964509528,
                0.8871554662183371,
                -0.7598726791193611
            ]
        },
        {
            "positions": [
                -0.5193997207412604,
                -1.5119573369721708,
                1.9027687170688181,
                -1.1559693639681865,
                0.81881065086047,
                -0.9477496396916567
            ]
        },
        {
            "positions": [
                -0.4649026750432892,
                -1.4769305007517892,
                1.9012346427223263,
                -1.1162222314854202,
                0.7504658355026029,
                -1.135626600263952
            ]
        },
        {
            "positions": [
                -0.4104056293453179,
                -1.4419036645314074,
                1.8997005683758346,
                -1.076475099002654,
                0.6821210201447357,
                -1.323503560836248
            ]
        },
        {
            "positions": [
                -0.3559085836473468,
                -1.4068768283110258,
                1.8981664940293428,
                -1.0367279665198876,
                0.6137762047868687,
                -1.5113805214085432
            ]
        },
        {
            "positions": [
                -0.3014115379493756,
                -1.3718499920906442,
                1.896632419682851,
                -0.9969808340371213,
                0.5454313894290017,
                -1.6992574819808384
            ]
        },
        {
            "positions": [
                -0.24691449225140427,
                -1.3368231558702623,
                1.8950983453363592,
                -0.9572337015543549,
                0.47708657407113453,
                -1.8871344425531345
            ]
        },
        {
            "positions": [
                -0.19241744655343307,
                -1.301796319649881,
                1.8935642709898675,
                -0.9174865690715888,
                0.40874175871326734,
                -2.07501140312543
            ]
        },
        {
            "positions": [
                -0.13792040085546176,
                -1.2667694834294991,
                1.8920301966433757,
                -0.8777394365888224,
                0.34039694335540016,
                -2.2628883636977255
            ]
        },
        {
            "positions": [
                -0.08342335515749055,
                -1.2317426472091175,
                1.8904961222968837,
                -0.8379923041060562,
                0.2720521279975332,
                -2.450765324270021
            ]
        },
        {
            "positions": [
                -0.02892630945951935,
                -1.196715810988736,
                1.888962047950392,
                -0.7982451716232899,
                0.20370731263966602,
                -2.638642284842316
            ]
        },
        {
            "positions": [
                0.025570736238451852,
                -1.1616889747683543,
                1.8874279736039001,
                -0.7584980391405236,
                0.13536249728179883,
                -2.8265192454146124
            ]
        },
        {
            "positions": [
                0.08006778193642311,
                -1.1266621385479727,
                1.8858938992574084,
                -0.7187509066577573,
                0.06701768192393176,
                -3.014396205986907
            ]
        },
        {
            "positions": [
                0.10152630017484889,
                -1.130883915323225,
                1.923480584608954,
                -0.720569279733694,
                0.1019422199651481,
                -3.124847902421583
            ]
        },
        {
            "positions": [
                0.12298481841327466,
                -1.1351056920984772,
                1.9610672699604996,
                -0.7223876528096307,
                0.13686675800636444,
                -3.235299598856259
            ]
        }
    ]
}