{
    "goal": {
        "global_pose": {
            "orientation": {
                "w": 0.5084816217422485,
                "x": -0.49083608388900757,
                "y": 0.5182115435600281,
                "z": -0.4816462993621826
            },
            "position": {
                "x": 0.5540239810943604,
                "y": 0.030875300988554955,
                "z": 0.16403168439865112
            }
        },
        "name": "move_to_storage_A"
    },
    "id": "BiTRRT_move_to_storage_A_42",
    "joint_names": [
        "shoulder_pan_joint",
        "shoulder_lift_joint",
        "elbow_joint",
        "wrist_1_joint",
        "wrist_2_joint",
        "wrist_3_joint"
    ],
    "metrics": {
        "cart_traj_len": 0.35273934653254563,
        "distance_elbow_joint": 0.45075525748974643,
        "distance_shoulder_lift_joint": 0.23530391023202557,
        "distance_shoulder_pan_joint": 0.46216275442903554,
        "distance_wrist_1_joint": 0.24548679638540716,
        "distance_wrist_2_joint": 1.0947186179462567,
        "distance_wrist_3_joint": 0.10759907446756056,
        "smoothness": 8.881784197001252e-16,
        "time": 0.0448237,
        "traj_len": 1.6112189208639625,
        "weighted_distance": 2.0375058218853797
    },
    "planner": "BiTRRT",
    "start": {
        "state": {
            "elbow_joint": 1.9715477243005601,
            "shoulder_lift_joint": -1.1394853015351272,
            "shoulder_pan_joint": 0.12281154014795169,
            "wrist_1_joint": -0.7804696478968182,
            "wrist_2_joint": 0.12958648046900423,
            "wrist_3_joint": -3.192491284697111
        }
    },
    "waypoints": [
        {
            "positions": [
                0.12281154014795169,
                -1.1394853015351272,
                1.9715477243005601,
                -0.7804696478968182,
                0.12958648046900423,
                -3.192491284697111
            ]
        },
        {
            "positions": [
                0.056788289515232335,
                -1.173100145853988,
                2.035941332513381,
                -0.8155391902375906,
                0.28597485446132664,
                -3.1771199883446024
            ]
        },
        {
            "positions": [
                -0.00923496111748702,
                -1.2067149901728487,
                2.100334940726202,
                -0.8506087325783631,
                0.442363228453649,
                -3.161748691992094
            ]
        },
        {
            "positions": [
                -0.07525821175020637,
                -1.2403298344917095,
                2.164728548939023,
                -0.8856782749191355,
                0.5987516024459714,
                -3.1463773956395853
            ]
        },
        {
            "positions": [
                -0.14128146238292572,
                -1.2739446788105704,
                2.229122157151844,
                -0.920747817259908,
                0.7551399764382938,
                -3.1310060992870765
            ]
        },
        {
            "positions": [
                -0.20730471301564513,
                -1.3075595231294312,
                2.2935157653646647,
                -0.9558173596006805,
                0.9115283504306162,
                -3.1156348029345677
            ]
        },
        {
            "positions": [
                -0.2733279636483644,
                -1.3411743674482919,
                2.3579093735774856,
                -0.9908869019414528,
                1.0679167244229384,
                -3.1002635065820594
            ]
        },
        {
            "positions": [
                -0.33935121428108384,
                -1.3747892117671527,
                2.4223029817903066,
                -1.0259564442822253,
                1.224305098415261,
                -3.0848922102295506
            ]
        }
    ]
}