{
    "goal": {
        "global_pose": {
            "orientation": {
                "w": 0.5084816217422485,
                "x": -0.49083608388900757,
                "y": 0.5182115435600281,
                "z": -0.4816462993621826
            },
            "position": {
                "x": 0.5540239810943604,
                "y": 0.030875300988554955,
                "z": 0.16403168439865112
            }
        },
        "name": "move_to_storage_A"
    },
    "id": "BiTRRT_move_to_storage_A_127",
    "joint_names": [
        "shoulder_pan_joint",
        "shoulder_lift_joint",
        "elbow_joint",
        "wrist_1_joint",
        "wrist_2_joint",
        "wrist_3_joint"
    ],
    "metrics": {
        "cart_traj_len": 0.3535230357497703,
        "distance_elbow_joint": 0.4488462601571026,
        "distance_shoulder_lift_joint": 0.233388708136542,
        "distance_shoulder_pan_joint": 0.4634276793298388,
        "distance_wrist_1_joint": 0.24288311124324002,
        "distance_wrist_2_joint": 1.0937416144071452,
        "distance_wrist_3_joint": 0.10335883204042151,
        "smoothness": 4.440892133664971e-16,
        "time": 0.034661487,
        "traj_len": 1.6079944668170627,
        "weighted_distance": 2.031991288132289
    },
    "planner": "BiTRRT",
    "start": {
        "state": {
            "elbow_joint": 1.9715477243005601,
            "shoulder_lift_joint": -1.1394853015351272,
            "shoulder_pan_joint": 0.12281154014795169,
            "wrist_1_joint": -0.7804696478968182,
            "wrist_2_joint": 0.12958648046900423,
            "wrist_3_joint": -3.192491284697111
        }
    },
    "waypoints": [
        {
            "positions": [
                0.12281154014795169,
                -1.1394853015351272,
                1.9715477243005601,
                -0.7804696478968182,
                0.12958648046900423,
                -3.192491284697111
            ]
        },
        {
            "positions": [
                0.056607585957974715,
                -1.1728265455546332,
                2.035668618608718,
                -0.8151672352172811,
                0.28583528252716783,
                -3.177725737262765
            ]
        },
        {
            "positions": [
                -0.009596368232002259,
                -1.2061677895741392,
                2.099789512916875,
                -0.8498648225377439,
                0.44208408458533144,
                -3.162960189828419
            ]
        },
        {
            "positions": [
                -0.07580032242197922,
                -1.2395090335936452,
                2.163910407225033,
                -0.8845624098582068,
                0.598332886643495,
                -3.148194642394073
            ]
        },
        {
            "positions": [
                -0.1420042766119562,
                -1.2728502776131512,
                2.22803130153319,
                -0.9192599971786696,
                0.7545816887016586,
                -3.1334290949597277
            ]
        },
        {
            "positions": [
                -0.20820823080193318,
                -1.3061915216326572,
                2.2921521958413478,
                -0.9539575844991325,
                0.9108304907598223,
                -3.1186635475253817
            ]
        },
        {
            "positions": [
                -0.2744121849919101,
                -1.3395327656521632,
                2.356273090149505,
                -0.9886551718195953,
                1.067079292817986,
                -3.1038980000910357
            ]
        },
        {
            "positions": [
                -0.3406161391818871,
                -1.3728740096716692,
                2.4203939844576627,
                -1.0233527591400582,
                1.2233280948761496,
                -3.0891324526566897
            ]
        }
    ]
}