{
    "goal": {
        "global_pose": {
            "orientation": {
                "w": 0.5084816217422485,
                "x": -0.49083608388900757,
                "y": 0.5182115435600281,
                "z": -0.4816462993621826
            },
            "position": {
                "x": 0.5540239810943604,
                "y": 0.030875300988554955,
                "z": 0.16403168439865112
            }
        },
        "name": "move_to_storage_A"
    },
    "id": "BiTRRT_move_to_storage_A_23",
    "joint_names": [
        "shoulder_pan_joint",
        "shoulder_lift_joint",
        "elbow_joint",
        "wrist_1_joint",
        "wrist_2_joint",
        "wrist_3_joint"
    ],
    "metrics": {
        "cart_traj_len": 0.35263802561621926,
        "distance_elbow_joint": 0.4481783620826505,
        "distance_shoulder_lift_joint": 0.23493852658297687,
        "distance_shoulder_pan_joint": 0.46130330175234546,
        "distance_wrist_1_joint": 0.2354318136547774,
        "distance_wrist_2_joint": 1.0972070775223215,
        "distance_wrist_3_joint": 0.09553121576980761,
        "smoothness": 4.440892098500626e-16,
        "time": 0.045862071000000004,
        "traj_len": 1.6039296422738996,
        "weighted_distance": 2.0239297468246256
    },
    "planner": "BiTRRT",
    "start": {
        "state": {
            "elbow_joint": 1.9715477243005601,
            "shoulder_lift_joint": -1.1394853015351272,
            "shoulder_pan_joint": 0.12281154014795169,
            "wrist_1_joint": -0.7804696478968182,
            "wrist_2_joint": 0.12958648046900423,
            "wrist_3_joint": -3.192491284697111
        }
    },
    "waypoints": [
        {
            "positions": [
                0.12281154014795169,
                -1.1394853015351272,
                1.9715477243005601,
                -0.7804696478968182,
                0.12958648046900423,
                -3.192491284697111
            ]
        },
        {
            "positions": [
                0.0569110684690452,
                -1.1730479481898382,
                2.0355732045980814,
                -0.8141027641332149,
                0.2863303486864787,
                -3.178843968158567
            ]
        },
        {
            "positions": [
                -0.008989403209861288,
                -1.2066105948445491,
                2.099598684895603,
                -0.8477358803696117,
                0.4430742169039532,
                -3.165196651620023
            ]
        },
        {
            "positions": [
                -0.07488987488876779,
                -1.2401732414992601,
                2.1636241651931245,
                -0.8813689966060084,
                0.5998180851214276,
                -3.151549335081479
            ]
        },
        {
            "positions": [
                -0.14079034656767425,
                -1.273735888153971,
                2.2276496454906463,
                -0.9150021128424053,
                0.7565619533389022,
                -3.1379020185429356
            ]
        },
        {
            "positions": [
                -0.20669081824658075,
                -1.307298534808682,
                2.2916751257881676,
                -0.948635229078802,
                0.9133058215563767,
                -3.1242547020043916
            ]
        },
        {
            "positions": [
                -0.27259128992548726,
                -1.340861181463393,
                2.355700606085689,
                -0.9822683453151988,
                1.0700496897738512,
                -3.1106073854658476
            ]
        },
        {
            "positions": [
                -0.33849176160439376,
                -1.374423828118104,
                2.4197260863832106,
                -1.0159014615515956,
                1.2267935579913256,
                -3.0969600689273036
            ]
        }
    ]
}