{
    "goal": {
        "global_pose": {
            "orientation": {
                "w": 0.5084816217422485,
                "x": -0.49083608388900757,
                "y": 0.5182115435600281,
                "z": -0.4816462993621826
            },
            "position": {
                "x": 0.5540239810943604,
                "y": 0.030875300988554955,
                "z": 0.16403168439865112
            }
        },
        "name": "move_to_storage_A"
    },
    "id": "BiTRRT_move_to_storage_A_106",
    "joint_names": [
        "shoulder_pan_joint",
        "shoulder_lift_joint",
        "elbow_joint",
        "wrist_1_joint",
        "wrist_2_joint",
        "wrist_3_joint"
    ],
    "metrics": {
        "cart_traj_len": 0.3529251244118716,
        "distance_elbow_joint": 0.4479823974438695,
        "distance_shoulder_lift_joint": 0.2352869545784544,
        "distance_shoulder_pan_joint": 0.4593933000033582,
        "distance_wrist_1_joint": 0.23848316421699545,
        "distance_wrist_2_joint": 1.1073284843920659,
        "distance_wrist_3_joint": 0.10020396842530799,
        "smoothness": 8.881784197001252e-16,
        "time": 0.032621086,
        "traj_len": 1.6089369997175313,
        "weighted_distance": 2.0334448245575114
    },
    "planner": "BiTRRT",
    "start": {
        "state": {
            "elbow_joint": 1.9715477243005601,
            "shoulder_lift_joint": -1.1394853015351272,
            "shoulder_pan_joint": 0.12281154014795169,
            "wrist_1_joint": -0.7804696478968182,
            "wrist_2_joint": 0.12958648046900423,
            "wrist_3_joint": -3.192491284697111
        }
    },
    "waypoints": [
        {
            "positions": [
                0.12281154014795169,
                -1.1394853015351272,
                1.9715477243005601,
                -0.7804696478968182,
                0.12958648046900423,
                -3.192491284697111
            ]
        },
        {
            "positions": [
                0.05718392586175766,
                -1.1730977236177635,
                2.035545209649684,
                -0.8145386713563889,
                0.287776263953585,
                -3.1781764320649244
            ]
        },
        {
            "positions": [
                -0.008443688424436366,
                -1.2067101457004,
                2.0995426949988087,
                -0.8486076948159598,
                0.44596604743816587,
                -3.1638615794327376
            ]
        },
        {
            "positions": [
                -0.07407130271063038,
                -1.2403225677830363,
                2.163540180347933,
                -0.8826767182755305,
                0.6041558309227467,
                -3.149546726800551
            ]
        },
        {
            "positions": [
                -0.1396989169968244,
                -1.2739349898656724,
                2.227537665697057,
                -0.9167457417351013,
                0.7623456144073275,
                -3.1352318741683636
            ]
        },
        {
            "positions": [
                -0.20532653128301848,
                -1.3075474119483088,
                2.2915351510461814,
                -0.9508147651946721,
                0.9205353978919084,
                -3.120917021536177
            ]
        },
        {
            "positions": [
                -0.27095414556921243,
                -1.3411598340309452,
                2.3555326363953055,
                -0.9848837886542428,
                1.0787251813764893,
                -3.10660216890399
            ]
        },
        {
            "positions": [
                -0.3365817598554065,
                -1.3747722561135816,
                2.4195301217444296,
                -1.0189528121138136,
                1.2369149648610702,
                -3.092287316271803
            ]
        }
    ]
}