{
    "goal": {
        "global_pose": {
            "orientation": {
                "w": 0.7047431468963623,
                "x": -0.7094548344612122,
                "y": 0.0024358443915843964,
                "z": -0.0022348060738295317
            },
            "position": {
                "x": 0.6094750761985779,
                "y": 0.3671506643295288,
                "z": 0.19426114857196808
            }
        },
        "name": "move_to_magneteinheit_A"
    },
    "id": "BiTRRT_move_to_magneteinheit_A_45",
    "joint_names": [
        "shoulder_pan_joint",
        "shoulder_lift_joint",
        "elbow_joint",
        "wrist_1_joint",
        "wrist_2_joint",
        "wrist_3_joint"
    ],
    "metrics": {
        "cart_traj_len": 4.852307121320335,
        "distance_elbow_joint": 4.115292412358677,
        "distance_shoulder_lift_joint": 0.10308358732990786,
        "distance_shoulder_pan_joint": 5.8484741497520965,
        "distance_wrist_1_joint": 4.237449235041272,
        "distance_wrist_2_joint": 6.16729412764005,
        "distance_wrist_3_joint": 4.388040161399418,
        "smoothness": 0.24502318107414198,
        "time": 0.131347042,
        "traj_len": 4.98594360913974,
        "weighted_distance": 6.63629846819758
    },
    "planner": "BiTRRT",
    "start": {
        "state": {
            "elbow_joint": -1.919618573717145,
            "shoulder_lift_joint": -1.2443395971678275,
            "shoulder_pan_joint": 2.6996025300909787,
            "wrist_1_joint": -1.548550951253194,
            "wrist_2_joint": -1.5709469090946802,
            "wrist_3_joint": 0.4420197732051276
        }
    },
    "waypoints": [
        {
            "positions": [
                2.6996025300909787,
                -1.2443395971678275,
                -1.919618573717145,
                -1.548550951253194,
                -1.5709469090946802,
                0.4420197732051276
            ]
        },
        {
            "positions": [
                2.554346280618501,
                -1.2436011621994565,
                -1.9234325359642757,
                -1.4625882315507306,
                -1.435297508852175,
                0.45545689020534397
            ]
        },
        {
            "positions": [
                2.4090900311460235,
                -1.2428627272310853,
                -1.9272464982114064,
                -1.376625511848267,
                -1.29964810860967,
                0.4688940072055604
            ]
        },
        {
            "positions": [
                2.2638337816735463,
                -1.2421242922627143,
                -1.931060460458537,
                -1.2906627921458034,
                -1.163998708367165,
                0.4823311242057768
            ]
        },
        {
            "positions": [
                2.1185775322010687,
                -1.241385857294343,
                -1.9348744227056678,
                -1.2047000724433399,
                -1.02834930812466,
                0.4957682412059932
            ]
        },
        {
            "positions": [
                1.973321282728591,
                -1.240647422325972,
                -1.9386883849527985,
                -1.1187373527408764,
                -0.8926999078821548,
                0.5092053582062096
            ]
        },
        {
            "positions": [
                1.8280650332561137,
                -1.239908987357601,
                -1.9425023471999292,
                -1.0327746330384129,
                -0.7570505076396498,
                0.522642475206426
            ]
        },
        {
            "positions": [
                1.682808783783636,
                -1.2391705523892298,
                -1.94631630944706,
                -0.9468119133359493,
                -0.6214011073971446,
                0.5360795922066424
            ]
        },
        {
            "positions": [
                1.5375525343111587,
                -1.2384321174208588,
                -1.9501302716941906,
                -0.8608491936334858,
                -0.48575170715463956,
                0.5495167092068588
            ]
        },
        {
            "positions": [
                1.392296284838681,
                -1.2376936824524876,
                -1.9539442339413213,
                -0.7748864739310223,
                -0.3501023069121345,
                0.5629538262070752
            ]
        },
        {
            "positions": [
                1.2470400353662034,
                -1.2369552474841166,
                -1.957758196188452,
                -0.6889237542285587,
                -0.21445290666962946,
                0.5763909432072917
            ]
        },
        {
            "positions": [
                1.1017837858937263,
                -1.2362168125157453,
                -1.9615721584355827,
                -0.6029610345260953,
                -0.07880350642712441,
                0.589828060207508
            ]
        },
        {
            "positions": [
                0.9565275364212487,
                -1.2354783775473743,
                -1.9653861206827135,
                -0.5169983148236317,
                0.05684589381538063,
                0.6032651772077244
            ]
        },
        {
            "positions": [
                0.811271286948771,
                -1.2347399425790033,
                -1.9692000829298442,
                -0.4310355951211682,
                0.19249529405788568,
                0.6167022942079409
            ]
        },
        {
            "positions": [
                0.6660150374762934,
                -1.234001507610632,
                -1.9730140451769749,
                -0.34507287541870446,
                0.32814469430039095,
                0.6301394112081573
            ]
        },
        {
            "positions": [
                0.5207587880038158,
                -1.233263072642261,
                -1.9768280074241056,
                -0.25911015571624096,
                0.4637940945428962,
                0.6435765282083736
            ]
        },
        {
            "positions": [
                0.37550253853133864,
                -1.2325246376738899,
                -1.9806419696712363,
                -0.17314743601377747,
                0.599443494785401,
                0.6570136452085901
            ]
        },
        {
            "positions": [
                0.23024628905886146,
                -1.2317862027055189,
                -1.984455931918367,
                -0.08718471631131419,
                0.7350928950279059,
                0.6704507622088064
            ]
        },
        {
            "positions": [
                0.0849900395863834,
                -1.2310477677371479,
                -1.9882698941654977,
                -0.001221996608850473,
                0.8707422952704111,
                0.6838878792090228
            ]
        },
        {
            "positions": [
                -0.06026620988609377,
                -1.2303093327687766,
                -1.9920838564126284,
                0.08474072309361302,
                1.006391695512916,
                0.6973249962092393
            ]
        },
        {
            "positions": [
                -0.20552245935857183,
                -1.2295708978004056,
                -1.9958978186597591,
                0.17070344279607674,
                1.1420410957554212,
                0.7107621132094557
            ]
        },
        {
            "positions": [
                -0.350778708831049,
                -1.2288324628320344,
                -1.9997117809068898,
                0.25666616249854024,
                1.2776904959979265,
                0.724199230209672
            ]
        },
        {
            "positions": [
                -0.4960349583035262,
                -1.2280940278636634,
                -2.0035257431540208,
                0.3426288822010035,
                1.4133398962404313,
                0.7376363472098885
            ]
        },
        {
            "positions": [
                -0.6412912077760042,
                -1.2273555928952922,
                -2.0073397054011513,
                0.42859160190346723,
                1.5489892964829366,
                0.7510734642101049
            ]
        },
        {
            "positions": [
                -0.7865474572484814,
                -1.2266171579269212,
                -2.0111536676482817,
                0.5145543216059307,
                1.6846386967254414,
                0.7645105812103212
            ]
        },
        {
            "positions": [
                -0.9318037067209586,
                -1.2258787229585502,
                -2.0149676298954127,
                0.600517041308394,
                1.8202880969679462,
                0.7779476982105377
            ]
        },
        {
            "positions": [
                -1.0770599561934366,
                -1.225140287990179,
                -2.0187815921425436,
                0.6864797610108577,
                1.9559374972104515,
                0.7913848152107541
            ]
        },
        {
            "positions": [
                -1.2223162056659138,
                -1.224401853021808,
                -2.022595554389674,
                0.7724424807133214,
                2.091586897452957,
                0.8048219322109704
            ]
        },
        {
            "positions": [
                -1.3675724551383919,
                -1.2236634180534367,
                -2.0264095166368046,
                0.8584052004157852,
                2.227236297695462,
                0.818259049211187
            ]
        },
        {
            "positions": [
                -1.5128287046108695,
                -1.2229249830850657,
                -2.0302234788839355,
                0.9443679201182484,
                2.362885697937967,
                0.8316961662114033
            ]
        },
        {
            "positions": [
                -1.4660846213237197,
                -1.220591583849433,
                -1.91580383582131,
                0.8945241954419677,
                2.299072511634898,
                0.7174572014001707
            ]
        },
        {
            "positions": [
                -1.4193405380365702,
                -1.2182581846138003,
                -1.8013841927586849,
                0.844680470765687,
                2.235259325331829,
                0.603218236588938
            ]
        },
        {
            "positions": [
                -1.3725964547494205,
                -1.2159247853781674,
                -1.6869645496960595,
                0.7948367460894062,
                2.17144613902876,
                0.4889792717777053
            ]
        },
        {
            "positions": [
                -1.325852371462271,
                -1.2135913861425347,
                -1.5725449066334343,
                0.7449930214131255,
                2.1076329527256914,
                0.37474030696647265
            ]
        },
        {
            "positions": [
                -1.2791082881751212,
                -1.211257986906902,
                -1.458125263570809,
                0.6951492967368448,
                2.0438197664226223,
                0.26050134215524
            ]
        },
        {
            "positions": [
                -1.2323642048879715,
                -1.2089245876712693,
                -1.3437056205081834,
                0.645305572060564,
                1.9800065801195537,
                0.14626237734400727
            ]
        },
        {
            "positions": [
                -1.185620121600822,
                -1.2065911884356364,
                -1.2292859774455582,
                0.5954618473842833,
                1.9161933938164848,
                0.03202341253277463
            ]
        },
        {
            "positions": [
                -1.1388760383136722,
                -1.2042577892000037,
                -1.114866334382933,
                0.5456181227080026,
                1.852380207513416,
                -0.082215552278458
            ]
        },
        {
            "positions": [
                -1.0921319550265227,
                -1.201924389964371,
                -1.0004466913203076,
                0.4957743980317219,
                1.788567021210347,
                -0.19645451708969053
            ]
        },
        {
            "positions": [
                -1.045387871739373,
                -1.1995909907287383,
                -0.8860270482576824,
                0.4459306733554412,
                1.7247538349072782,
                -0.3106934819009233
            ]
        },
        {
            "positions": [
                -0.9986437884522233,
                -1.1972575914931054,
                -0.771607405195057,
                0.3960869486791604,
                1.660940648604209,
                -0.424932446712156
            ]
        },
        {
            "positions": [
                -0.9518997051650737,
                -1.1949241922574727,
                -0.6571877621324316,
                0.34624322400287966,
                1.5971274623011404,
                -0.5391714115233888
            ]
        },
        {
            "positions": [
                -0.905155621877924,
                -1.19259079302184,
                -0.5427681190698062,
                0.2963994993265989,
                1.5333142759980714,
                -0.6534103763346213
            ]
        },
        {
            "positions": [
                -0.8584115385907743,
                -1.1902573937862073,
                -0.42834847600718096,
                0.2465557746503182,
                1.4695010896950027,
                -0.767649341145854
            ]
        },
        {
            "positions": [
                -0.8116674553036247,
                -1.1879239945505746,
                -0.31392883294455576,
                0.19671204997403757,
                1.4056879033919338,
                -0.8818883059570866
            ]
        },
        {
            "positions": [
                -0.7649233720164751,
                -1.1855905953149417,
                -0.19950918988193034,
                0.14686832529775684,
                1.341874717088865,
                -0.9961272707683193
            ]
        },
        {
            "positions": [
                -0.7181792887293255,
                -1.183257196079309,
                -0.08508954681930492,
                0.09702460062147611,
                1.278061530785796,
                -1.110366235579552
            ]
        },
        {
            "positions": [
                -0.6714352054421758,
                -1.1809237968436763,
                0.02933009624332028,
                0.04718087594519538,
                1.2142483444827272,
                -1.2246052003907844
            ]
        },
        {
            "positions": [
                -0.6246911221550262,
                -1.1785903976080436,
                0.14374973930594548,
                -0.0026628487310853544,
                1.1504351581796584,
                -1.3388441652020173
            ]
        },
        {
            "positions": [
                -0.5779470388678765,
                -1.1762569983724107,
                0.2581693823685707,
                -0.052506573407366086,
                1.0866219718765895,
                -1.4530831300132498
            ]
        },
        {
            "positions": [
                -0.5312029555807268,
                -1.173923599136778,
                0.3725890254311963,
                -0.10235029808364682,
                1.0228087855735206,
                -1.5673220948244824
            ]
        },
        {
            "positions": [
                -0.4844588722935772,
                -1.1715901999011453,
                0.4870086684938215,
                -0.15219402275992766,
                0.9589955992704515,
                -1.6815610596357153
            ]
        },
        {
            "positions": [
                -0.43771478900642746,
                -1.1692568006655126,
                0.6014283115564472,
                -0.20203774743620828,
                0.8951824129673827,
                -1.7958000244469479
            ]
        },
        {
            "positions": [
                -0.39097070571927794,
                -1.1669234014298797,
                0.7158479546190724,
                -0.2518814721124891,
                0.8313692266643138,
                -1.9100389892581808
            ]
        },
        {
            "positions": [
                -0.3442266224321282,
                -1.164590002194247,
                0.8302675976816976,
                -0.30172519678876975,
                0.7675560403612449,
                -2.0242779540694134
            ]
        },
        {
            "positions": [
                -0.29748253914497846,
                -1.1622566029586143,
                0.9446872407443232,
                -0.3515689214650506,
                0.703742854058176,
                -2.138516918880646
            ]
        },
        {
            "positions": [
                -0.25073845585782895,
                -1.1599232037229816,
                1.0591068838069484,
                -0.4014126461413312,
                0.6399296677551072,
                -2.252755883691879
            ]
        },
        {
            "positions": [
                -0.2039943725706792,
                -1.157589804487349,
                1.1735265268695736,
                -0.45125637081761205,
                0.5761164814520383,
                -2.3669948485031114
            ]
        },
        {
            "positions": [
                -0.15725028928352947,
                -1.155256405251716,
                1.2879461699321992,
                -0.5011000954938929,
                0.5123032951489694,
                -2.4812338133143443
            ]
        },
        {
            "positions": [
                -0.11050620599637995,
                -1.1529230060160833,
                1.402365812994824,
                -0.5509438201701733,
                0.4484901088459008,
                -2.5954727781255764
            ]
        },
        {
            "positions": [
                -0.06376212270923043,
                -1.1505896067804506,
                1.5167854560574496,
                -0.6007875448464541,
                0.3846769225428317,
                -2.709711742936809
            ]
        },
        {
            "positions": [
                -0.01701803942208069,
                -1.148256207544818,
                1.6312050991200748,
                -0.6506312695227348,
                0.32086373623976305,
                -2.823950707748042
            ]
        },
        {
            "positions": [
                0.02972604386506905,
                -1.145922808309185,
                1.7456247421827,
                -0.7004749941990156,
                0.25705054993669396,
                -2.9381896725592744
            ]
        },
        {
            "positions": [
                0.07647012715221857,
                -1.1435894090735523,
                1.8600443852453257,
                -0.7503187188752962,
                0.19323736363362531,
                -3.0524286373705074
            ]
        },
        {
            "positions": [
                0.12321421043936823,
                -1.1412560098379196,
                1.974464028307951,
                -0.800162443551577,
                0.12942417733055642,
                -3.16666760218174
            ]
        }
    ]
}{
    "goal": {
        "global_pose": {
            "orientation": {
                "w": 0.7047431468963623,
                "x": -0.7094548344612122,
                "y": 0.0024358443915843964,
                "z": -0.0022348060738295317
            },
            "position": {
                "x": 0.6094750761985779,
                "y": 0.3671506643295288,
                "z": 0.19426114857196808
            }
        },
        "name": "move_to_magneteinheit_A"
    },
    "id": "BiTRRT_move_to_magneteinheit_A_45",
    "joint_names": [
        "shoulder_pan_joint",
        "shoulder_lift_joint",
        "elbow_joint",
        "wrist_1_joint",
        "wrist_2_joint",
        "wrist_3_joint"
    ],
    "metrics": {
        "cart_traj_len": 1.2474534783808406,
        "distance_elbow_joint": 0.13741592204883224,
        "distance_shoulder_lift_joint": 0.8024846774457726,
        "distance_shoulder_pan_joint": 1.2407353566672128,
        "distance_wrist_1_joint": 0.8393020148005373,
        "distance_wrist_2_joint": 1.4386443200832237,
        "distance_wrist_3_joint": 4.313166792303193,
        "smoothness": 0.12518131355567033,
        "time": 0.117574176,
        "traj_len": 2.961713876009762,
        "weighted_distance": 4.435767014039276
    },
    "planner": "BiTRRT",
    "start": {
        "state": {
            "elbow_joint": 1.919643534880228,
            "shoulder_lift_joint": -1.8972525353963687,
            "shoulder_pan_joint": -1.1188672234189438,
            "wrist_1_joint": -1.5931878212786155,
            "wrist_2_joint": 1.5706036197970081,
            "wrist_3_joint": 1.118896926603594
        }
    },
    "waypoints": [
        {
            "positions": [
                -1.1188672234189438,
                -1.8972525353963687,
                1.919643534880228,
                -1.5931878212786155,
                1.5706036197970081,
                1.118896926603594
            ]
        },
        {
            "positions": [
                -1.0650154100102667,
                -1.8617952234824167,
                1.9176817109680337,
                -1.5555280221317063,
                1.507085710348276,
                0.9298856425140154
            ]
        },
        {
            "positions": [
                -1.0111635966015895,
                -1.8263379115684646,
                1.9157198870558392,
                -1.5178682229847968,
                1.4435678008995438,
                0.7408743584244367
            ]
        },
        {
            "positions": [
                -0.9573117831929123,
                -1.7908805996545123,
                1.9137580631436448,
                -1.4802084238378876,
                1.380049891450812,
                0.5518630743348582
            ]
        },
        {
            "positions": [
                -0.9034599697842352,
                -1.7554232877405602,
                1.9117962392314503,
                -1.4425486246909782,
                1.3165319820020798,
                0.36285179024527947
            ]
        },
        {
            "positions": [
                -0.849608156375558,
                -1.7199659758266082,
                1.909834415319256,
                -1.404888825544069,
                1.2530140725533476,
                0.1738405061557009
            ]
        },
        {
            "positions": [
                -0.7957563429668809,
                -1.684508663912656,
                1.9078725914070616,
                -1.3672290263971596,
                1.1894961631046157,
                -0.015170777933877666
            ]
        },
        {
            "positions": [
                -0.7419045295582036,
                -1.6490513519987038,
                1.905910767494867,
                -1.3295692272502504,
                1.1259782536558833,
                -0.20418206202345646
            ]
        },
        {
            "positions": [
                -0.6880527161495265,
                -1.6135940400847517,
                1.9039489435826726,
                -1.291909428103341,
                1.0624603442071514,
                -0.393193346113035
            ]
        },
        {
            "positions": [
                -0.6342009027408493,
                -1.5781367281707996,
                1.901987119670478,
                -1.2542496289564316,
                0.9989424347584193,
                -0.5822046302026138
            ]
        },
        {
            "positions": [
                -0.5803490893321722,
                -1.5426794162568476,
                1.9000252957582837,
                -1.2165898298095223,
                0.9354245253096872,
                -0.7712159142921922
            ]
        },
        {
            "positions": [
                -0.526497275923495,
                -1.5072221043428953,
                1.8980634718460894,
                -1.1789300306626131,
                0.8719066158609551,
                -0.960227198381771
            ]
        },
        {
            "positions": [
                -0.472645462514818,
                -1.4717647924289432,
                1.8961016479338948,
                -1.141270231515704,
                0.808388706412223,
                -1.1492384824713493
            ]
        },
        {
            "positions": [
                -0.4187936491061407,
                -1.4363074805149911,
                1.8941398240217004,
                -1.1036104323687945,
                0.7448707969634909,
                -1.3382497665609285
            ]
        },
        {
            "positions": [
                -0.3649418356974635,
                -1.400850168601039,
                1.8921780001095059,
                -1.065950633221885,
                0.6813528875147588,
                -1.5272610506505069
            ]
        },
        {
            "positions": [
                -0.31109002228878646,
                -1.365392856687087,
                1.8902161761973115,
                -1.028290834074976,
                0.6178349780660267,
                -1.7162723347400852
            ]
        },
        {
            "positions": [
                -0.2572382088801092,
                -1.329935544773135,
                1.888254352285117,
                -0.9906310349280666,
                0.5543170686172947,
                -1.905283618829664
            ]
        },
        {
            "positions": [
                -0.2033863954714321,
                -1.2944782328591826,
                1.8862925283729226,
                -0.9529712357811573,
                0.49079915916856254,
                -2.094294902919243
            ]
        },
        {
            "positions": [
                -0.14953458206275483,
                -1.2590209209452303,
                1.8843307044607283,
                -0.9153114366342479,
                0.4272812497198304,
                -2.2833061870088214
            ]
        },
        {
            "positions": [
                -0.09568276865407777,
                -1.2235636090312783,
                1.8823688805485337,
                -0.8776516374873387,
                0.36376334027109825,
                -2.4723174710983997
            ]
        },
        {
            "positions": [
                -0.04183095524540059,
                -1.1881062971173262,
                1.8804070566363393,
                -0.8399918383404293,
                0.3002454308223663,
                -2.661328755187978
            ]
        },
        {
            "positions": [
                0.012020858163276582,
                -1.152648985203374,
                1.8784452327241448,
                -0.80233203919352,
                0.23672752137363418,
                -2.8503400392775573
            ]
        },
        {
            "positions": [
                0.06587267157195381,
                -1.117191673289422,
                1.8764834088119504,
                -0.7646722400466107,
                0.17320961192490203,
                -3.039351323367136
            ]
        },
        {
            "positions": [
                0.12186813324826894,
                -1.139615488628248,
                1.970739204792505,
                -0.7754586736151433,
                0.13195929971378434,
                -3.194269865699598
            ]
        }
    ]
}