{
    "goal": {
        "global_pose": {
            "orientation": {
                "w": 0.7047431468963623,
                "x": -0.7094548344612122,
                "y": 0.0024358443915843964,
                "z": -0.0022348060738295317
            },
            "position": {
                "x": 0.6094750761985779,
                "y": 0.3671506643295288,
                "z": 0.19426114857196808
            }
        },
        "name": "move_to_magneteinheit_A"
    },
    "id": "BiTRRT_move_to_magneteinheit_A_143",
    "joint_names": [
        "shoulder_pan_joint",
        "shoulder_lift_joint",
        "elbow_joint",
        "wrist_1_joint",
        "wrist_2_joint",
        "wrist_3_joint"
    ],
    "metrics": {
        "cart_traj_len": 3.630409391149888,
        "distance_elbow_joint": 3.8825253362646226,
        "distance_shoulder_lift_joint": 0.6862220998400235,
        "distance_shoulder_pan_joint": 2.6065095395010935,
        "distance_wrist_1_joint": 1.3096146603577279,
        "distance_wrist_2_joint": 1.7799601360196209,
        "distance_wrist_3_joint": 2.6032567962124156,
        "smoothness": 0.11989429222869555,
        "time": 0.08432888699999999,
        "traj_len": 3.5872118097758743,
        "weighted_distance": 4.60045399466158
    },
    "planner": "BiTRRT",
    "start": {
        "state": {
            "elbow_joint": -1.919618573717145,
            "shoulder_lift_joint": -1.2443395971678275,
            "shoulder_pan_joint": 2.6996025300909787,
            "wrist_1_joint": -1.548550951253194,
            "wrist_2_joint": -1.5709469090946802,
            "wrist_3_joint": 0.4420197732051276
        }
    },
    "waypoints": [
        {
            "positions": [
                2.6996025300909787,
                -1.2443395971678275,
                -1.919618573717145,
                -1.548550951253194,
                -1.5709469090946802,
                0.4420197732051276
            ]
        },
        {
            "positions": [
                2.604767000148707,
                -1.227751989299395,
                -1.8154295255220803,
                -1.5042409509554338,
                -1.4982834718917404,
                0.5032615180606556
            ]
        },
        {
            "positions": [
                2.509931470206435,
                -1.211164381430963,
                -1.7112404773270153,
                -1.4599309506576734,
                -1.4256200346888006,
                0.5645032629161835
            ]
        },
        {
            "positions": [
                2.4150959402641634,
                -1.1945767735625306,
                -1.6070514291319506,
                -1.415620950359913,
                -1.3529565974858608,
                0.6257450077717114
            ]
        },
        {
            "positions": [
                2.3202604103218913,
                -1.1779891656940984,
                -1.502862380936886,
                -1.3713109500621528,
                -1.280293160282921,
                0.6869867526272393
            ]
        },
        {
            "positions": [
                2.2254248803796197,
                -1.161401557825666,
                -1.398673332741821,
                -1.3270009497643924,
                -1.2076297230799813,
                0.7482284974827673
            ]
        },
        {
            "positions": [
                2.130589350437348,
                -1.1448139499572338,
                -1.2944842845467561,
                -1.282690949466632,
                -1.1349662858770415,
                0.8094702423382951
            ]
        },
        {
            "positions": [
                2.035753820495076,
                -1.1282263420888015,
                -1.1902952363516914,
                -1.2383809491688718,
                -1.0623028486741017,
                0.8707119871938231
            ]
        },
        {
            "positions": [
                1.9409182905528044,
                -1.1116387342203693,
                -1.0861061881566267,
                -1.1940709488711116,
                -0.989639411471162,
                0.931953732049351
            ]
        },
        {
            "positions": [
                1.8460827606105323,
                -1.095051126351937,
                -0.9819171399615618,
                -1.1497609485733513,
                -0.9169759742682222,
                0.993195476904879
            ]
        },
        {
            "positions": [
                1.7512472306682607,
                -1.0784635184835047,
                -0.8777280917664971,
                -1.105450948275591,
                -0.8443125370652824,
                1.054437221760407
            ]
        },
        {
            "positions": [
                1.6564117007259889,
                -1.0618759106150724,
                -0.7735390435714324,
                -1.0611409479778307,
                -0.7716490998623426,
                1.1156789666159348
            ]
        },
        {
            "positions": [
                1.561576170783717,
                -1.04528830274664,
                -0.6693499953763675,
                -1.0168309476800703,
                -0.6989856626594029,
                1.1769207114714628
            ]
        },
        {
            "positions": [
                1.4667406408414454,
                -1.0287006948782078,
                -0.5651609471813028,
                -0.9725209473823101,
                -0.6263222254564632,
                1.2381624563269906
            ]
        },
        {
            "positions": [
                1.3719051108991733,
                -1.0121130870097754,
                -0.4609718989862379,
                -0.9282109470845497,
                -0.5536587882535233,
                1.2994042011825186
            ]
        },
        {
            "positions": [
                1.2770695809569017,
                -0.9955254791413433,
                -0.3567828507911732,
                -0.8839009467867893,
                -0.48099535105058355,
                1.3606459460380467
            ]
        },
        {
            "positions": [
                1.1822340510146299,
                -0.978937871272911,
                -0.25259380259610853,
                -0.8395909464890291,
                -0.4083319138476438,
                1.4218876908935745
            ]
        },
        {
            "positions": [
                1.0873985210723578,
                -0.9623502634044787,
                -0.1484047544010434,
                -0.7952809461912687,
                -0.335668476644704,
                1.4831294357491025
            ]
        },
        {
            "positions": [
                0.9925629911300862,
                -0.9457626555360463,
                -0.0442157062059787,
                -0.7509709458935084,
                -0.26300503944176423,
                1.5443711806046303
            ]
        },
        {
            "positions": [
                0.8977274611878145,
                -0.9291750476676142,
                0.05997334198908577,
                -0.7066609455957482,
                -0.19034160223882446,
                1.6056129254601583
            ]
        },
        {
            "positions": [
                0.8028919312455425,
                -0.9125874397991818,
                0.16416239018415069,
                -0.6623509452979878,
                -0.11767816503588469,
                1.6668546703156863
            ]
        },
        {
            "positions": [
                0.7080564013032706,
                -0.8959998319307495,
                0.2683514383792154,
                -0.6180409450002275,
                -0.04501472783294491,
                1.7280964151712142
            ]
        },
        {
            "positions": [
                0.613220871360999,
                -0.8794122240623172,
                0.37254048657428007,
                -0.5737309447024672,
                0.02764870936999486,
                1.7893381600267422
            ]
        },
        {
            "positions": [
                0.5183853414187269,
                -0.862824616193885,
                0.4767295347693452,
                -0.5294209444047069,
                0.10031214657293464,
                1.8505799048822702
            ]
        },
        {
            "positions": [
                0.4235498114764555,
                -0.8462370083254527,
                0.5809185829644099,
                -0.48511094410694644,
                0.1729755837758745,
                1.911821649737798
            ]
        },
        {
            "positions": [
                0.37846947799838415,
                -0.8715186207685894,
                0.725929255465111,
                -0.5112599081007194,
                0.1729473976798002,
                2.0305651453628046
            ]
        },
        {
            "positions": [
                0.3333891445203129,
                -0.8968002332117262,
                0.8709399279658121,
                -0.5374088720944924,
                0.17291921158372586,
                2.149308640987811
            ]
        },
        {
            "positions": [
                0.28830881104224154,
                -0.922081845654863,
                1.015950600466513,
                -0.5635578360882654,
                0.17289102548765156,
                2.2680521366128175
            ]
        },
        {
            "positions": [
                0.24322847756417024,
                -0.9473634580979997,
                1.160961272967214,
                -0.5897068000820384,
                0.17286283939157723,
                2.3867956322378237
            ]
        },
        {
            "positions": [
                0.1981481440860989,
                -0.9726450705411365,
                1.3059719454679153,
                -0.6158557640758113,
                0.17283465329550293,
                2.5055391278628303
            ]
        },
        {
            "positions": [
                0.1530678106080276,
                -0.9979266829842732,
                1.4509826179686165,
                -0.6420047280695843,
                0.1728064671994286,
                2.6242826234878365
            ]
        },
        {
            "positions": [
                0.10798747712995627,
                -1.02320829542741,
                1.5959932904693175,
                -0.6681536920633573,
                0.1727782811033543,
                2.743026119112843
            ]
        },
        {
            "positions": [
                0.11295230597664652,
                -1.0602577033926404,
                1.7182977811620375,
                -0.6891976604817142,
                0.16083150094450532,
                2.84377626921441
            ]
        },
        {
            "positions": [
                0.11791713482333678,
                -1.097307111357871,
                1.8406022718547577,
                -0.7102416289000709,
                0.14888472078565637,
                2.9445264193159764
            ]
        },
        {
            "positions": [
                0.12288196367002703,
                -1.1343565193231013,
                1.9629067625474776,
                -0.7312855973184278,
                0.1369379406268074,
                3.045276569417543
            ]
        }
    ]
}{
    "goal": {
        "global_pose": {
            "orientation": {
                "w": 0.7047431468963623,
                "x": -0.7094548344612122,
                "y": 0.0024358443915843964,
                "z": -0.0022348060738295317
            },
            "position": {
                "x": 0.6094750761985779,
                "y": 0.3671506643295288,
                "z": 0.19426114857196808
            }
        },
        "name": "move_to_magneteinheit_A"
    },
    "id": "BiTRRT_move_to_magneteinheit_A_143",
    "joint_names": [
        "shoulder_pan_joint",
        "shoulder_lift_joint",
        "elbow_joint",
        "wrist_1_joint",
        "wrist_2_joint",
        "wrist_3_joint"
    ],
    "metrics": {
        "cart_traj_len": 1.2783663578827298,
        "distance_elbow_joint": 0.6054029020702769,
        "distance_shoulder_lift_joint": 0.7682058959221008,
        "distance_shoulder_pan_joint": 1.241444239361377,
        "distance_wrist_1_joint": 1.559089432202664,
        "distance_wrist_2_joint": 1.4506084303694566,
        "distance_wrist_3_joint": 4.369969623952031,
        "smoothness": 0.21789441486389213,
        "time": 0.12059046200000001,
        "traj_len": 3.161442791492186,
        "weighted_distance": 4.663084562213523
    },
    "planner": "BiTRRT",
    "start": {
        "state": {
            "elbow_joint": 1.919643534880228,
            "shoulder_lift_joint": -1.8972525353963687,
            "shoulder_pan_joint": -1.1188672234189438,
            "wrist_1_joint": -1.5931878212786155,
            "wrist_2_joint": 1.5706036197970081,
            "wrist_3_joint": 1.118896926603594
        }
    },
    "waypoints": [
        {
            "positions": [
                -1.1188672234189438,
                -1.8972525353963687,
                1.919643534880228,
                -1.5931878212786155,
                1.5706036197970081,
                1.118896926603594
            ]
        },
        {
            "positions": [
                -1.0740000717993639,
                -1.8663029306025727,
                1.9072475172023544,
                -1.5400738540908534,
                1.5075920692641396,
                0.9341097119092725
            ]
        },
        {
            "positions": [
                -1.029132920179784,
                -1.8353533258087769,
                1.8948514995244807,
                -1.4869598869030913,
                1.4445805187312712,
                0.7493224972149511
            ]
        },
        {
            "positions": [
                -0.9842657685602041,
                -1.8044037210149808,
                1.8824554818466073,
                -1.4338459197153293,
                1.381568968198403,
                0.5645352825206298
            ]
        },
        {
            "positions": [
                -0.9393986169406242,
                -1.773454116221185,
                1.8700594641687336,
                -1.3807319525275674,
                1.3185574176655344,
                0.3797480678263083
            ]
        },
        {
            "positions": [
                -0.8945314653210443,
                -1.742504511427389,
                1.85766344649086,
                -1.3276179853398054,
                1.255545867132666,
                0.19496085313198697
            ]
        },
        {
            "positions": [
                -0.8496643137014643,
                -1.711554906633593,
                1.8452674288129862,
                -1.2745040181520433,
                1.1925343165997975,
                0.01017363843766561
            ]
        },
        {
            "positions": [
                -0.8047971620818843,
                -1.680605301839797,
                1.8328714111351125,
                -1.2213900509642812,
                1.1295227660669291,
                -0.17461357625665608
            ]
        },
        {
            "positions": [
                -0.7599300104623046,
                -1.6496556970460012,
                1.820475393457239,
                -1.1682760837765191,
                1.0665112155340606,
                -0.3594007909509773
            ]
        },
        {
            "positions": [
                -0.7150628588427246,
                -1.6187060922522052,
                1.8080793757793654,
                -1.115162116588757,
                1.003499665001192,
                -0.5441880056452988
            ]
        },
        {
            "positions": [
                -0.6701957072231447,
                -1.5877564874584094,
                1.7956833581014917,
                -1.062048149400995,
                0.9404881144683238,
                -0.72897522033962
            ]
        },
        {
            "positions": [
                -0.6253285556035648,
                -1.5568068826646133,
                1.783287340423618,
                -1.008934182213233,
                0.8774765639354553,
                -0.9137624350339417
            ]
        },
        {
            "positions": [
                -0.5804614039839848,
                -1.5258572778708175,
                1.7708913227457446,
                -0.955820215025471,
                0.8144650134025869,
                -1.0985496497282627
            ]
        },
        {
            "positions": [
                -0.5355942523644049,
                -1.4949076730770214,
                1.7584953050678709,
                -0.902706247837709,
                0.7514534628697185,
                -1.2833368644225842
            ]
        },
        {
            "positions": [
                -0.49072710074482495,
                -1.4639580682832256,
                1.7460992873899972,
                -0.8495922806499469,
                0.6884419123368499,
                -1.4681240791169061
            ]
        },
        {
            "positions": [
                -0.44585994912524507,
                -1.4330084634894296,
                1.7337032697121235,
                -0.7964783134621849,
                0.6254303618039816,
                -1.6529112938112271
            ]
        },
        {
            "positions": [
                -0.4009927975056652,
                -1.4020588586956337,
                1.7213072520342498,
                -0.7433643462744228,
                0.562418811271113,
                -1.8376985085055486
            ]
        },
        {
            "positions": [
                -0.3561256458860853,
                -1.371109253901838,
                1.7089112343563764,
                -0.6902503790866609,
                0.4994072607382447,
                -2.0224857231998694
            ]
        },
        {
            "positions": [
                -0.3112584942665053,
                -1.3401596491080419,
                1.6965152166785027,
                -0.6371364118988987,
                0.43639571020537615,
                -2.2072729378941913
            ]
        },
        {
            "positions": [
                -0.26639134264692543,
                -1.3092100443142458,
                1.684119199000629,
                -0.5840224447111366,
                0.3733841596725078,
                -2.3920601525885132
            ]
        },
        {
            "positions": [
                -0.22152419102734555,
                -1.2782604395204498,
                1.6717231813227553,
                -0.5309084775233748,
                0.3103726091396395,
                -2.5768473672828343
            ]
        },
        {
            "positions": [
                -0.17665703940776567,
                -1.247310834726654,
                1.6593271636448819,
                -0.4777945103356127,
                0.24736105860677093,
                -2.7616345819771553
            ]
        },
        {
            "positions": [
                -0.13178988778818568,
                -1.2163612299328581,
                1.6469311459670082,
                -0.42468054314785064,
                0.18434950807390238,
                -2.946421796671477
            ]
        },
        {
            "positions": [
                -0.08692273616860574,
                -1.185411625139062,
                1.6345351282891345,
                -0.3715665759600886,
                0.12133795754103416,
                -3.131209011365798
            ]
        },
        {
            "positions": [
                -0.017089485464926196,
                -1.1666232965841308,
                1.741299960115529,
                -0.48405597158813424,
                0.12089036816987327,
                -3.1711635733600114
            ]
        },
        {
            "positions": [
                0.05274376523875335,
                -1.1478349680291993,
                1.8480647919419233,
                -0.5965453672161799,
                0.12044277879871239,
                -3.211118135354224
            ]
        },
        {
            "positions": [
                0.12257701594243291,
                -1.129046639474268,
                1.9548296237683178,
                -0.7090347628442256,
                0.1199951894275515,
                -3.2510726973484374
            ]
        }
    ]
}