{
    "goal": {
        "global_pose": {
            "orientation": {
                "w": 0.7047431468963623,
                "x": -0.7094548344612122,
                "y": 0.0024358443915843964,
                "z": -0.0022348060738295317
            },
            "position": {
                "x": 0.6094750761985779,
                "y": 0.3671506643295288,
                "z": 0.19426114857196808
            }
        },
        "name": "move_to_magneteinheit_A"
    },
    "id": "BiTRRT_move_to_magneteinheit_A_131",
    "joint_names": [
        "shoulder_pan_joint",
        "shoulder_lift_joint",
        "elbow_joint",
        "wrist_1_joint",
        "wrist_2_joint",
        "wrist_3_joint"
    ],
    "metrics": {
        "cart_traj_len": 3.141443697951925,
        "distance_elbow_joint": 3.90970524309796,
        "distance_shoulder_lift_joint": 0.4682290303857448,
        "distance_shoulder_pan_joint": 2.7540210233448854,
        "distance_wrist_1_joint": 3.4622327685938963,
        "distance_wrist_2_joint": 1.7270308822768254,
        "distance_wrist_3_joint": 1.0032396673589579,
        "smoothness": 0.07749425050487965,
        "time": 0.101679566,
        "traj_len": 3.6502682935721684,
        "weighted_distance": 4.529922913322799
    },
    "planner": "BiTRRT",
    "start": {
        "state": {
            "elbow_joint": -1.919618573717145,
            "shoulder_lift_joint": -1.2443395971678275,
            "shoulder_pan_joint": 2.6996025300909787,
            "wrist_1_joint": -1.548550951253194,
            "wrist_2_joint": -1.5709469090946802,
            "wrist_3_joint": 0.4420197732051276
        }
    },
    "waypoints": [
        {
            "positions": [
                2.6996025300909787,
                -1.2443395971678275,
                -1.919618573717145,
                -1.548550951253194,
                -1.5709469090946802,
                0.4420197732051276
            ]
        },
        {
            "positions": [
                2.6007805663964523,
                -1.239840168096278,
                -1.8089374700959502,
                -1.4555241243191501,
                -1.5133980689515474,
                0.4144392594570584
            ]
        },
        {
            "positions": [
                2.501958602701926,
                -1.2353407390247289,
                -1.6982563664747552,
                -1.3624972973851064,
                -1.4558492288084148,
                0.3868587457089892
            ]
        },
        {
            "positions": [
                2.4031366390073994,
                -1.2308413099531794,
                -1.5875752628535604,
                -1.2694704704510626,
                -1.398300388665282,
                0.35927823196092
            ]
        },
        {
            "positions": [
                2.3043146753128734,
                -1.22634188088163,
                -1.4768941592323654,
                -1.1764436435170187,
                -1.3407515485221495,
                0.33169771821285077
            ]
        },
        {
            "positions": [
                2.205492711618347,
                -1.2218424518100808,
                -1.3662130556111707,
                -1.0834168165829747,
                -1.2832027083790167,
                0.30411720446478163
            ]
        },
        {
            "positions": [
                2.1066707479238205,
                -1.2173430227385313,
                -1.2555319519899757,
                -0.990389989648931,
                -1.2256538682358842,
                0.2765366907167124
            ]
        },
        {
            "positions": [
                2.007848784229294,
                -1.212843593666982,
                -1.144850848368781,
                -0.8973631627148873,
                -1.1681050280927514,
                0.24895617696864322
            ]
        },
        {
            "positions": [
                1.9090268205347676,
                -1.2083441645954325,
                -1.0341697447475862,
                -0.8043363357808433,
                -1.1105561879496189,
                0.221375663220574
            ]
        },
        {
            "positions": [
                1.8102048568402413,
                -1.2038447355238833,
                -0.9234886411263913,
                -0.7113095088467996,
                -1.053007347806486,
                0.19379514947250484
            ]
        },
        {
            "positions": [
                1.711382893145715,
                -1.1993453064523338,
                -0.8128075375051964,
                -0.6182826819127556,
                -0.9954585076633534,
                0.16621463572443562
            ]
        },
        {
            "positions": [
                1.6125609294511885,
                -1.1948458773807844,
                -0.7021264338840016,
                -0.5252558549787119,
                -0.9379096675202208,
                0.13863412197636643
            ]
        },
        {
            "positions": [
                1.513738965756662,
                -1.1903464483092352,
                -0.5914453302628067,
                -0.4322290280446679,
                -0.8803608273770881,
                0.11105360822829724
            ]
        },
        {
            "positions": [
                1.4149170020621358,
                -1.1858470192376858,
                -0.4807642266416119,
                -0.33920220111062416,
                -0.8228119872339554,
                0.08347309448022805
            ]
        },
        {
            "positions": [
                1.3160950383676095,
                -1.1813475901661363,
                -0.3700831230204171,
                -0.24617537417658042,
                -0.7652631470908228,
                0.05589258073215886
            ]
        },
        {
            "positions": [
                1.217273074673083,
                -1.1768481610945871,
                -0.25940201939922236,
                -0.15314854724253668,
                -0.7077143069476902,
                0.028312066984089723
            ]
        },
        {
            "positions": [
                1.1184511109785567,
                -1.1723487320230377,
                -0.14872091577802715,
                -0.0601217203084925,
                -0.6501654668045573,
                0.0007315532360204213
            ]
        },
        {
            "positions": [
                1.0196291472840302,
                -1.1678493029514883,
                -0.03803981215683239,
                0.03290510662555124,
                -0.5926166266614248,
                -0.026848960512048714
            ]
        },
        {
            "positions": [
                0.920807183589504,
                -1.163349873879939,
                0.07264129146436238,
                0.12593193355959498,
                -0.535067786518292,
                -0.054429474260117905
            ]
        },
        {
            "positions": [
                0.8219852198949775,
                -1.1588504448083896,
                0.18332239508555692,
                0.21895876049363872,
                -0.47751894637515946,
                -0.0820099880081871
            ]
        },
        {
            "positions": [
                0.7231632562004511,
                -1.1543510157368402,
                0.29400349870675213,
                0.3119855874276829,
                -0.4199701062320267,
                -0.10959050175625634
            ]
        },
        {
            "positions": [
                0.6243412925059246,
                -1.1498515866652907,
                0.4046846023279469,
                0.40501241436172664,
                -0.36242126608889413,
                -0.13717101550432548
            ]
        },
        {
            "positions": [
                0.5255193288113982,
                -1.1453521575937415,
                0.5153657059491417,
                0.4980392412957704,
                -0.30487242594576136,
                -0.16475152925239472
            ]
        },
        {
            "positions": [
                0.4266973651168722,
                -1.140852728522192,
                0.6260468095703364,
                0.5910660682298143,
                -0.2473235858026288,
                -0.19233204300046386
            ]
        },
        {
            "positions": [
                0.3278754014223453,
                -1.1363532994506427,
                0.7367279131915316,
                0.6840928951638583,
                -0.18977474565949604,
                -0.2199125567485331
            ]
        },
        {
            "positions": [
                0.22905343772781928,
                -1.1318538703790935,
                0.8474090168127264,
                0.7771197220979018,
                -0.13222590551636326,
                -0.24749307049660235
            ]
        },
        {
            "positions": [
                0.13023147403329266,
                -1.127354441307544,
                0.9580901204339212,
                0.8701465490319458,
                -0.07467706537323068,
                -0.27507358424467154
            ]
        },
        {
            "positions": [
                0.09823335356000629,
                -1.1162609114251387,
                1.091403971973048,
                0.9790145744002096,
                -0.04448457074965626,
                -0.2441581101611304
            ]
        },
        {
            "positions": [
                0.06623523308671993,
                -1.1051673815427332,
                1.2247178235121747,
                1.0878825997684733,
                -0.01429207612608184,
                -0.21324263607758925
            ]
        },
        {
            "positions": [
                0.034237112613433554,
                -1.094073851660328,
                1.3580316750513015,
                1.1967506251367372,
                0.015900418497492585,
                -0.18232716199404808
            ]
        },
        {
            "positions": [
                0.037633339069731674,
                -1.046521614301187,
                1.4835381670118786,
                1.3230773318006872,
                0.015441522751278771,
                -0.14438951740954514
            ]
        },
        {
            "positions": [
                0.04102956552602979,
                -0.9989693769420462,
                1.6090446589724554,
                1.4494040384646372,
                0.014982627005064957,
                -0.1064518728250422
            ]
        },
        {
            "positions": [
                0.04442579198232791,
                -0.9514171395829054,
                1.7345511509330325,
                1.5757307451285874,
                0.014523731258851143,
                -0.06851422824053927
            ]
        },
        {
            "positions": [
                0.07058143414847673,
                -0.8929816153159645,
                1.8197296570822936,
                1.6883811025326256,
                -0.031745224556486165,
                -0.041985243605530416
            ]
        },
        {
            "positions": [
                0.09673707631462554,
                -0.8345460910490236,
                1.904908163231555,
                1.8010314599366637,
                -0.07801418037182348,
                -0.015456258970521566
            ]
        },
        {
            "positions": [
                0.12289271848077436,
                -0.7761105667820827,
                1.9900866693808161,
                1.913681817340702,
                -0.12428313618716082,
                0.011072725664487287
            ]
        }
    ]
}{
    "goal": {
        "global_pose": {
            "orientation": {
                "w": 0.7047431468963623,
                "x": -0.7094548344612122,
                "y": 0.0024358443915843964,
                "z": -0.0022348060738295317
            },
            "position": {
                "x": 0.6094750761985779,
                "y": 0.3671506643295288,
                "z": 0.19426114857196808
            }
        },
        "name": "move_to_magneteinheit_A"
    },
    "id": "BiTRRT_move_to_magneteinheit_A_131",
    "joint_names": [
        "shoulder_pan_joint",
        "shoulder_lift_joint",
        "elbow_joint",
        "wrist_1_joint",
        "wrist_2_joint",
        "wrist_3_joint"
    ],
    "metrics": {
        "cart_traj_len": 1.2345341870999813,
        "distance_elbow_joint": 0.06680476997304585,
        "distance_shoulder_lift_joint": 0.8149400075764155,
        "distance_shoulder_pan_joint": 1.2409023844602327,
        "distance_wrist_1_joint": 0.9088647497513607,
        "distance_wrist_2_joint": 1.4379813998347515,
        "distance_wrist_3_joint": 4.374512778308123,
        "smoothness": 0.15520400062130152,
        "time": 0.133776622,
        "traj_len": 2.973887370077073,
        "weighted_distance": 4.46540902898114
    },
    "planner": "BiTRRT",
    "start": {
        "state": {
            "elbow_joint": 1.919643534880228,
            "shoulder_lift_joint": -1.8972525353963687,
            "shoulder_pan_joint": -1.1188672234189438,
            "wrist_1_joint": -1.5931878212786155,
            "wrist_2_joint": 1.5706036197970081,
            "wrist_3_joint": 1.118896926603594
        }
    },
    "waypoints": [
        {
            "positions": [
                -1.1188672234189438,
                -1.8972525353963687,
                1.919643534880228,
                -1.5931878212786155,
                1.5706036197970081,
                1.118896926603594
            ]
        },
        {
            "positions": [
                -1.0633930834538583,
                -1.8613199604021347,
                1.9189307474159665,
                -1.5522073694978966,
                1.5058744319241875,
                0.9249291526386128
            ]
        },
        {
            "positions": [
                -1.0079189434887728,
                -1.8253873854079008,
                1.9182179599517049,
                -1.5112269177171778,
                1.4411452440513668,
                0.7309613786736315
            ]
        },
        {
            "positions": [
                -0.9524448035236873,
                -1.7894548104136667,
                1.9175051724874432,
                -1.470246465936459,
                1.3764160561785461,
                0.5369936047086504
            ]
        },
        {
            "positions": [
                -0.8969706635586018,
                -1.7535222354194329,
                1.9167923850231818,
                -1.42926601415574,
                1.3116868683057255,
                0.3430258307436692
            ]
        },
        {
            "positions": [
                -0.8414965235935162,
                -1.7175896604251988,
                1.9160795975589202,
                -1.3882855623750212,
                1.2469576804329048,
                0.1490580567786881
            ]
        },
        {
            "positions": [
                -0.7860223836284308,
                -1.681657085430965,
                1.9153668100946586,
                -1.3473051105943024,
                1.1822284925600843,
                -0.04490971718629311
            ]
        },
        {
            "positions": [
                -0.7305482436633453,
                -1.6457245104367308,
                1.914654022630397,
                -1.3063246588135835,
                1.1174993046872637,
                -0.23887749115127432
            ]
        },
        {
            "positions": [
                -0.6750741036982597,
                -1.6097919354424968,
                1.9139412351661353,
                -1.2653442070328644,
                1.0527701168144428,
                -0.43284526511625554
            ]
        },
        {
            "positions": [
                -0.6195999637331742,
                -1.573859360448263,
                1.9132284477018737,
                -1.2243637552521456,
                0.9880409289416222,
                -0.6268130390812368
            ]
        },
        {
            "positions": [
                -0.5641258237680886,
                -1.5379267854540288,
                1.912515660237612,
                -1.1833833034714267,
                0.9233117410688017,
                -0.8207808130462177
            ]
        },
        {
            "positions": [
                -0.5086516838030031,
                -1.5019942104597948,
                1.9118028727733507,
                -1.1424028516907079,
                0.858582553195981,
                -1.014748587011199
            ]
        },
        {
            "positions": [
                -0.45317754383791764,
                -1.466061635465561,
                1.911090085309089,
                -1.101422399909989,
                0.7938533653231604,
                -1.2087163609761802
            ]
        },
        {
            "positions": [
                -0.397703403872832,
                -1.4301290604713268,
                1.9103772978448275,
                -1.0604419481292702,
                0.7291241774503396,
                -1.4026841349411614
            ]
        },
        {
            "positions": [
                -0.34222926390774655,
                -1.394196485477093,
                1.9096645103805658,
                -1.0194614963485513,
                0.6643949895775191,
                -1.5966519089061426
            ]
        },
        {
            "positions": [
                -0.286755123942661,
                -1.3582639104828589,
                1.9089517229163042,
                -0.9784810445678326,
                0.5996658017046984,
                -1.7906196828711234
            ]
        },
        {
            "positions": [
                -0.23128098397757546,
                -1.322331335488625,
                1.9082389354520426,
                -0.9375005927871136,
                0.5349366138318776,
                -1.984587456836105
            ]
        },
        {
            "positions": [
                -0.17580684401248992,
                -1.286398760494391,
                1.907526147987781,
                -0.8965201410063949,
                0.4702074259590572,
                -2.178555230801086
            ]
        },
        {
            "positions": [
                -0.12033270404740437,
                -1.2504661855001569,
                1.9068133605235194,
                -0.8555396892256759,
                0.4054782380862363,
                -2.3725230047660677
            ]
        },
        {
            "positions": [
                -0.06485856408231894,
                -1.214533610505923,
                1.906100573059258,
                -0.8145592374449571,
                0.34074905021341584,
                -2.5664907787310485
            ]
        },
        {
            "positions": [
                -0.009384424117233392,
                -1.1786010355116892,
                1.9053877855949963,
                -0.7735787856642382,
                0.27601986234059517,
                -2.7604585526960292
            ]
        },
        {
            "positions": [
                0.04608971584785215,
                -1.1426684605174549,
                1.9046749981307347,
                -0.7325983338835194,
                0.2112906744677745,
                -2.954426326661011
            ]
        },
        {
            "positions": [
                0.1015638558129378,
                -1.106735885523221,
                1.903962210666473,
                -0.6916178821028005,
                0.14656148659495372,
                -3.1483941006259917
            ]
        },
        {
            "positions": [
                0.12203516104128904,
                -1.1311592432264888,
                1.955085656425764,
                -0.6989126926783462,
                0.13262221996225654,
                -3.2556158517045293
            ]
        }
    ]
}