{
    "goal": {
        "global_pose": {
            "orientation": {
                "w": 0.5084816217422485,
                "x": -0.49083608388900757,
                "y": 0.5182115435600281,
                "z": -0.4816462993621826
            },
            "position": {
                "x": 0.5540239810943604,
                "y": 0.030875300988554955,
                "z": 0.16403168439865112
            }
        },
        "name": "move_to_storage_A"
    },
    "id": "BiTRRT_move_to_storage_A_109",
    "joint_names": [
        "shoulder_pan_joint",
        "shoulder_lift_joint",
        "elbow_joint",
        "wrist_1_joint",
        "wrist_2_joint",
        "wrist_3_joint"
    ],
    "metrics": {
        "cart_traj_len": 0.3528300231977909,
        "distance_elbow_joint": 0.45234581703355836,
        "distance_shoulder_lift_joint": 0.23321348204597792,
        "distance_shoulder_pan_joint": 0.45820363249233637,
        "distance_wrist_1_joint": 0.25793194526267993,
        "distance_wrist_2_joint": 1.1113766784494823,
        "distance_wrist_3_joint": 0.09707168225830509,
        "smoothness": 0.0,
        "time": 0.045490345,
        "traj_len": 1.6155937724385854,
        "weighted_distance": 2.0429378908256393
    },
    "planner": "BiTRRT",
    "start": {
        "state": {
            "elbow_joint": 1.9715477243005601,
            "shoulder_lift_joint": -1.1394853015351272,
            "shoulder_pan_joint": 0.12281154014795169,
            "wrist_1_joint": -0.7804696478968182,
            "wrist_2_joint": 0.12958648046900423,
            "wrist_3_joint": -3.192491284697111
        }
    },
    "waypoints": [
        {
            "positions": [
                0.12281154014795169,
                -1.1394853015351272,
                1.9715477243005601,
                -0.7804696478968182,
                0.12958648046900423,
                -3.192491284697111
            ]
        },
        {
            "positions": [
                0.05735387836333221,
                -1.1728015132559813,
                2.036168555305354,
                -0.8173170686486296,
                0.28835457739035886,
                -3.178623901517353
            ]
        },
        {
            "positions": [
                -0.008103783421287272,
                -1.2061177249768351,
                2.100789386310148,
                -0.854164489400441,
                0.44712267431171343,
                -3.1647565183375956
            ]
        },
        {
            "positions": [
                -0.07356144520590675,
                -1.2394339366976892,
                2.165410217314942,
                -0.8910119101522525,
                0.6058907712330681,
                -3.1508891351578376
            ]
        },
        {
            "positions": [
                -0.13901910699052622,
                -1.272750148418543,
                2.230031048319736,
                -0.9278593309040638,
                0.7646588681544226,
                -3.1370217519780796
            ]
        },
        {
            "positions": [
                -0.2044767687751457,
                -1.3060663601393971,
                2.2946518793245305,
                -0.9647067516558753,
                0.9234269650757773,
                -3.1231543687983216
            ]
        },
        {
            "positions": [
                -0.2699344305597652,
                -1.339382571860251,
                2.3592727103293245,
                -1.0015541724076866,
                1.082195061997132,
                -3.109286985618564
            ]
        },
        {
            "positions": [
                -0.33539209234438466,
                -1.372698783581105,
                2.4238935413341185,
                -1.038401593159498,
                1.2409631589184864,
                -3.095419602438806
            ]
        }
    ]
}