{
    "goal": {
        "global_pose": {
            "orientation": {
                "w": 0.7047431468963623,
                "x": -0.7094548344612122,
                "y": 0.0024358443915843964,
                "z": -0.0022348060738295317
            },
            "position": {
                "x": 0.6094750761985779,
                "y": 0.3671506643295288,
                "z": 0.19426114857196808
            }
        },
        "name": "move_to_magneteinheit_A"
    },
    "id": "BiTRRT_move_to_magneteinheit_A_81",
    "joint_names": [
        "shoulder_pan_joint",
        "shoulder_lift_joint",
        "elbow_joint",
        "wrist_1_joint",
        "wrist_2_joint",
        "wrist_3_joint"
    ],
    "metrics": {
        "cart_traj_len": 3.399893748854173,
        "distance_elbow_joint": 3.8963183097507486,
        "distance_shoulder_lift_joint": 1.4136178873771468,
        "distance_shoulder_pan_joint": 4.686387167146395,
        "distance_wrist_1_joint": 0.9700282161125117,
        "distance_wrist_2_joint": 1.701386912567907,
        "distance_wrist_3_joint": 3.6146812732259312,
        "smoothness": 0.27830939703486574,
        "time": 0.11795816199999999,
        "traj_len": 4.035148047616176,
        "weighted_distance": 5.116951967852827
    },
    "planner": "BiTRRT",
    "start": {
        "state": {
            "elbow_joint": -1.919618573717145,
            "shoulder_lift_joint": -1.2443395971678275,
            "shoulder_pan_joint": 2.6996025300909787,
            "wrist_1_joint": -1.548550951253194,
            "wrist_2_joint": -1.5709469090946802,
            "wrist_3_joint": 0.4420197732051276
        }
    },
    "waypoints": [
        {
            "positions": [
                2.6996025300909787,
                -1.2443395971678275,
                -1.919618573717145,
                -1.548550951253194,
                -1.5709469090946802,
                0.4420197732051276
            ]
        },
        {
            "positions": [
                2.586115593166206,
                -1.2648534747496796,
                -1.8243648464841071,
                -1.5216834102936279,
                -1.548102771767265,
                0.33558427435223837
            ]
        },
        {
            "positions": [
                2.4726286562414326,
                -1.2853673523315314,
                -1.7291111192510695,
                -1.4948158693340619,
                -1.52525863443985,
                0.2291487754993492
            ]
        },
        {
            "positions": [
                2.3591417193166597,
                -1.3058812299133835,
                -1.6338573920180317,
                -1.4679483283744956,
                -1.502414497112435,
                0.12271327664645998
            ]
        },
        {
            "positions": [
                2.2456547823918864,
                -1.3263951074952356,
                -1.5386036647849939,
                -1.4410807874149296,
                -1.4795703597850198,
                0.016277777793570813
            ]
        },
        {
            "positions": [
                2.1321678454671136,
                -1.3469089850770877,
                -1.443349937551956,
                -1.4142132464553634,
                -1.4567262224576047,
                -0.09015772105931835
            ]
        },
        {
            "positions": [
                2.0186809085423407,
                -1.3674228626589398,
                -1.3480962103189182,
                -1.3873457054957974,
                -1.4338820851301897,
                -0.19659321991220763
            ]
        },
        {
            "positions": [
                1.9051939716175674,
                -1.3879367402407916,
                -1.2528424830858806,
                -1.3604781645362312,
                -1.4110379478027746,
                -0.3030287187650968
            ]
        },
        {
            "positions": [
                1.7917070346927944,
                -1.4084506178226437,
                -1.1575887558528428,
                -1.3336106235766652,
                -1.3881938104753595,
                -0.40946421761798596
            ]
        },
        {
            "positions": [
                1.6782200977680213,
                -1.4289644954044958,
                -1.062335028619805,
                -1.306743082617099,
                -1.3653496731479444,
                -0.5158997164708752
            ]
        },
        {
            "positions": [
                1.5647331608432482,
                -1.4494783729863476,
                -0.9670813013867673,
                -1.279875541657533,
                -1.3425055358205293,
                -0.6223352153237642
            ]
        },
        {
            "positions": [
                1.4512462239184751,
                -1.4699922505681997,
                -0.8718275741537296,
                -1.2530080006979667,
                -1.3196613984931143,
                -0.7287707141766535
            ]
        },
        {
            "positions": [
                1.3377592869937023,
                -1.4905061281500518,
                -0.7765738469206918,
                -1.2261404597384007,
                -1.2968172611656992,
                -0.8352062130295428
            ]
        },
        {
            "positions": [
                1.2242723500689292,
                -1.5110200057319039,
                -0.6813201196876539,
                -1.1992729187788345,
                -1.2739731238382839,
                -0.9416417118824318
            ]
        },
        {
            "positions": [
                1.1107854131441561,
                -1.531533883313756,
                -0.5860663924546163,
                -1.1724053778192682,
                -1.251128986510869,
                -1.0480772107353211
            ]
        },
        {
            "positions": [
                0.9972984762193831,
                -1.5520477608956078,
                -0.4908126652215785,
                -1.1455378368597022,
                -1.2282848491834537,
                -1.1545127095882102
            ]
        },
        {
            "positions": [
                0.88381153929461,
                -1.5725616384774599,
                -0.3955589379885407,
                -1.1186702959001362,
                -1.2054407118560388,
                -1.2609482084410994
            ]
        },
        {
            "positions": [
                0.7703246023698369,
                -1.593075516059312,
                -0.30030521075550287,
                -1.09180275494057,
                -1.1825965745286235,
                -1.3673837072939887
            ]
        },
        {
            "positions": [
                0.6568376654450638,
                -1.6135893936411638,
                -0.20505148352246505,
                -1.0649352139810038,
                -1.1597524372012087,
                -1.4738192061468778
            ]
        },
        {
            "positions": [
                0.543350728520291,
                -1.634103271223016,
                -0.10979775628942745,
                -1.0380676730214378,
                -1.1369082998737934,
                -1.580254704999767
            ]
        },
        {
            "positions": [
                0.4298637915955177,
                -1.654617148804868,
                -0.014544029056389629,
                -1.0112001320618718,
                -1.1140641625463785,
                -1.6866902038526561
            ]
        },
        {
            "positions": [
                0.31637685467074483,
                -1.67513102638672,
                0.08070969817664797,
                -0.9843325911023055,
                -1.0912200252189632,
                -1.7931257027055456
            ]
        },
        {
            "positions": [
                0.20288991774597154,
                -1.6956449039685721,
                0.1759634254096858,
                -0.9574650501427394,
                -1.0683758878915484,
                -1.8995612015584347
            ]
        },
        {
            "positions": [
                0.08940298082119869,
                -1.716158781550424,
                0.2712171526427236,
                -0.9305975091831733,
                -1.045531750564133,
                -2.0059967004113237
            ]
        },
        {
            "positions": [
                -0.024083956103574167,
                -1.736672659132276,
                0.36647087987576143,
                -0.9037299682236071,
                -1.022687613236718,
                -2.112432199264213
            ]
        },
        {
            "positions": [
                -0.13757089302834746,
                -1.7571865367141282,
                0.46172460710879926,
                -0.876862427264041,
                -0.9998434759093029,
                -2.2188676981171023
            ]
        },
        {
            "positions": [
                -0.2510578299531203,
                -1.77770041429598,
                0.5569783343418371,
                -0.8499948863044748,
                -0.9769993385818878,
                -2.3253031969699913
            ]
        },
        {
            "positions": [
                -0.3645447668778936,
                -1.798214291877832,
                0.6522320615748749,
                -0.8231273453449087,
                -0.9541552012544727,
                -2.4317386958228804
            ]
        },
        {
            "positions": [
                -0.47803170380266646,
                -1.8187281694596842,
                0.7474857888079123,
                -0.7962598043853426,
                -0.9313110639270576,
                -2.53817419467577
            ]
        },
        {
            "positions": [
                -0.5915186407274398,
                -1.8392420470415363,
                0.8427395160409501,
                -0.7693922634257765,
                -0.9084669265996426,
                -2.644609693528659
            ]
        },
        {
            "positions": [
                -0.7050055776522126,
                -1.8597559246233883,
                0.9379932432739879,
                -0.7425247224662104,
                -0.8856227892722275,
                -2.751045192381548
            ]
        },
        {
            "positions": [
                -0.8184925145769859,
                -1.8802698022052402,
                1.0332469705070257,
                -0.7156571815066443,
                -0.8627786519448124,
                -2.8574806912344375
            ]
        },
        {
            "positions": [
                -0.9319794515017589,
                -1.9007836797870923,
                1.1285006977400636,
                -0.6887896405470781,
                -0.8399345146173973,
                -2.9639161900873265
            ]
        },
        {
            "positions": [
                -0.826498932946393,
                -1.825066299311304,
                1.2133206015694173,
                -0.6998163310877177,
                -0.7428970628083349,
                -2.984790721080674
            ]
        },
        {
            "positions": [
                -0.721018414391027,
                -1.7493489188355158,
                1.2981405053987713,
                -0.7108430216283573,
                -0.6458596109992725,
                -3.005665252074022
            ]
        },
        {
            "positions": [
                -0.6155378958356612,
                -1.6736315383597278,
                1.3829604092281254,
                -0.7218697121689969,
                -0.54882215919021,
                -3.0265397830673697
            ]
        },
        {
            "positions": [
                -0.5100573772802952,
                -1.5979141578839395,
                1.4677803130574791,
                -0.7328964027096364,
                -0.4517847073811476,
                -3.0474143140607173
            ]
        },
        {
            "positions": [
                -0.4045768587249293,
                -1.5221967774081513,
                1.552600216886833,
                -0.7439230932502761,
                -0.3547472555720852,
                -3.068288845054065
            ]
        },
        {
            "positions": [
                -0.29909634016956343,
                -1.446479396932363,
                1.637420120716187,
                -0.7549497837909156,
                -0.25770980376302277,
                -3.089163376047413
            ]
        },
        {
            "positions": [
                -0.19361582161419755,
                -1.3707620164565748,
                1.722240024545541,
                -0.7659764743315551,
                -0.16067235195396035,
                -3.1100379070407604
            ]
        },
        {
            "positions": [
                -0.08813530305883155,
                -1.2950446359807866,
                1.8070599283748947,
                -0.7770031648721947,
                -0.06363490014489792,
                -3.130912438034108
            ]
        },
        {
            "positions": [
                0.01734521549653434,
                -1.2193272555049983,
                1.8918798322042485,
                -0.7880298554128343,
                0.033402551664164504,
                -3.151786969027456
            ]
        },
        {
            "positions": [
                0.12282573405190032,
                -1.1436098750292103,
                1.9766997360336025,
                -0.7990565459534739,
                0.13044000347322687,
                -3.1726615000208036
            ]
        }
    ]
}{
    "goal": {
        "global_pose": {
            "orientation": {
                "w": 0.7047431468963623,
                "x": -0.7094548344612122,
                "y": 0.0024358443915843964,
                "z": -0.0022348060738295317
            },
            "position": {
                "x": 0.6094750761985779,
                "y": 0.3671506643295288,
                "z": 0.19426114857196808
            }
        },
        "name": "move_to_magneteinheit_A"
    },
    "id": "BiTRRT_move_to_magneteinheit_A_81",
    "joint_names": [
        "shoulder_pan_joint",
        "shoulder_lift_joint",
        "elbow_joint",
        "wrist_1_joint",
        "wrist_2_joint",
        "wrist_3_joint"
    ],
    "metrics": {
        "cart_traj_len": 1.3158365780571375,
        "distance_elbow_joint": 0.3308824927839835,
        "distance_shoulder_lift_joint": 0.937842950570551,
        "distance_shoulder_pan_joint": 1.241083724371623,
        "distance_wrist_1_joint": 0.8583673400354659,
        "distance_wrist_2_joint": 1.451078869582139,
        "distance_wrist_3_joint": 4.331494784044648,
        "smoothness": 0.13750639012763202,
        "time": 0.093908037,
        "traj_len": 3.025020687762054,
        "weighted_distance": 4.485887419351417
    },
    "planner": "BiTRRT",
    "start": {
        "state": {
            "elbow_joint": 1.919643534880228,
            "shoulder_lift_joint": -1.8972525353963687,
            "shoulder_pan_joint": -1.1188672234189438,
            "wrist_1_joint": -1.5931878212786155,
            "wrist_2_joint": 1.5706036197970081,
            "wrist_3_joint": 1.118896926603594
        }
    },
    "waypoints": [
        {
            "positions": [
                -1.1188672234189438,
                -1.8972525353963687,
                1.919643534880228,
                -1.5931878212786155,
                1.5706036197970081,
                1.118896926603594
            ]
        },
        {
            "positions": [
                -1.06602192686546,
                -1.8567632206260327,
                1.912824408400082,
                -1.5526663406875074,
                1.5025358819219816,
                0.9412315640550141
            ]
        },
        {
            "positions": [
                -1.0131766303119762,
                -1.816273905855697,
                1.9060052819199358,
                -1.5121448600963996,
                1.4344681440469553,
                0.7635662015064342
            ]
        },
        {
            "positions": [
                -0.9603313337584923,
                -1.775784591085361,
                1.8991861554397897,
                -1.4716233795052915,
                1.3664004061719288,
                0.5859008389578544
            ]
        },
        {
            "positions": [
                -0.9074860372050084,
                -1.735295276315025,
                1.8923670289596437,
                -1.4311018989141837,
                1.2983326682969025,
                0.4082354764092745
            ]
        },
        {
            "positions": [
                -0.8546407406515246,
                -1.6948059615446889,
                1.8855479024794974,
                -1.3905804183230757,
                1.230264930421876,
                0.2305701138606947
            ]
        },
        {
            "positions": [
                -0.8017954440980408,
                -1.6543166467743529,
                1.8787287759993514,
                -1.3500589377319676,
                1.1621971925468495,
                0.052904751312114806
            ]
        },
        {
            "positions": [
                -0.748950147544557,
                -1.613827332004017,
                1.8719096495192054,
                -1.3095374571408598,
                1.094129454671823,
                -0.12476061123646498
            ]
        },
        {
            "positions": [
                -0.6961048509910731,
                -1.573338017233681,
                1.865090523039059,
                -1.2690159765497517,
                1.0260617167967967,
                -0.302425973785045
            ]
        },
        {
            "positions": [
                -0.6432595544375893,
                -1.532848702463345,
                1.858271396558913,
                -1.228494495958644,
                0.9579939789217702,
                -0.4800913363336248
            ]
        },
        {
            "positions": [
                -0.5904142578841054,
                -1.4923593876930092,
                1.851452270078767,
                -1.1879730153675359,
                0.8899262410467438,
                -0.6577566988822046
            ]
        },
        {
            "positions": [
                -0.5375689613306216,
                -1.4518700729226732,
                1.8446331435986207,
                -1.1474515347764278,
                0.8218585031717173,
                -0.8354220614307848
            ]
        },
        {
            "positions": [
                -0.4847236647771378,
                -1.4113807581523372,
                1.8378140171184747,
                -1.10693005418532,
                0.7537907652966909,
                -1.0130874239793644
            ]
        },
        {
            "positions": [
                -0.4318783682236539,
                -1.3708914433820012,
                1.8309948906383287,
                -1.066408573594212,
                0.6857230274216644,
                -1.1907527865279446
            ]
        },
        {
            "positions": [
                -0.3790330716701701,
                -1.3304021286116652,
                1.8241757641581824,
                -1.0258870930031039,
                0.6176552895466381,
                -1.368418149076524
            ]
        },
        {
            "positions": [
                -0.3261877751166862,
                -1.2899128138413292,
                1.8173566376780363,
                -0.9853656124119959,
                0.5495875516716116,
                -1.5460835116251042
            ]
        },
        {
            "positions": [
                -0.2733424785632024,
                -1.2494234990709934,
                1.8105375111978903,
                -0.9448441318208881,
                0.48151981379658526,
                -1.723748874173684
            ]
        },
        {
            "positions": [
                -0.22049718200971846,
                -1.2089341843006574,
                1.803718384717744,
                -0.9043226512297801,
                0.41345207592155875,
                -1.9014142367222637
            ]
        },
        {
            "positions": [
                -0.16765188545623477,
                -1.1684448695303216,
                1.796899258237598,
                -0.8638011706386721,
                0.34538433804653224,
                -2.0790795992708437
            ]
        },
        {
            "positions": [
                -0.11480658890275075,
                -1.1279555547599855,
                1.790080131757452,
                -0.8232796900475641,
                0.2773166001715057,
                -2.2567449618194235
            ]
        },
        {
            "positions": [
                -0.06196129234926695,
                -1.0874662399896495,
                1.7832610052773057,
                -0.7827582094564562,
                0.20924886229647943,
                -2.4344103243680033
            ]
        },
        {
            "positions": [
                -0.009115995795783177,
                -1.0469769252193135,
                1.7764418787971596,
                -0.7422367288653482,
                0.14118112442145286,
                -2.612075686916583
            ]
        },
        {
            "positions": [
                0.03466150312037101,
                -1.076166038683812,
                1.8390021576974647,
                -0.744708811406081,
                0.1339623330192583,
                -2.8122497437580734
            ]
        },
        {
            "positions": [
                0.0784390020365252,
                -1.1053551521483107,
                1.9015624365977697,
                -0.747180893946814,
                0.12674354161706372,
                -3.0124238005995636
            ]
        },
        {
            "positions": [
                0.12221650095267939,
                -1.1345442656128093,
                1.9641227154980747,
                -0.7496529764875468,
                0.11952475021486915,
                -3.212597857441054
            ]
        }
    ]
}