{
    "goal": {
        "global_pose": {
            "orientation": {
                "w": 0.7047431468963623,
                "x": -0.7094548344612122,
                "y": 0.0024358443915843964,
                "z": -0.0022348060738295317
            },
            "position": {
                "x": 0.6094750761985779,
                "y": 0.3671506643295288,
                "z": 0.19426114857196808
            }
        },
        "name": "move_to_magneteinheit_A"
    },
    "id": "BiTRRT_move_to_magneteinheit_A_92",
    "joint_names": [
        "shoulder_pan_joint",
        "shoulder_lift_joint",
        "elbow_joint",
        "wrist_1_joint",
        "wrist_2_joint",
        "wrist_3_joint"
    ],
    "metrics": {
        "cart_traj_len": 4.6623157679972955,
        "distance_elbow_joint": 3.914986707523747,
        "distance_shoulder_lift_joint": 0.4665298936265766,
        "distance_shoulder_pan_joint": 4.296127178627874,
        "distance_wrist_1_joint": 3.467501113908833,
        "distance_wrist_2_joint": 3.5809122909448794,
        "distance_wrist_3_joint": 1.6089438435974872,
        "smoothness": 0.3534875398518448,
        "time": 0.09850105,
        "traj_len": 4.163532277793628,
        "weighted_distance": 5.253694140343352
    },
    "planner": "BiTRRT",
    "start": {
        "state": {
            "elbow_joint": -1.919618573717145,
            "shoulder_lift_joint": -1.2443395971678275,
            "shoulder_pan_joint": 2.6996025300909787,
            "wrist_1_joint": -1.548550951253194,
            "wrist_2_joint": -1.5709469090946802,
            "wrist_3_joint": 0.4420197732051276
        }
    },
    "waypoints": [
        {
            "positions": [
                2.6996025300909787,
                -1.2443395971678275,
                -1.919618573717145,
                -1.548550951253194,
                -1.5709469090946802,
                0.4420197732051276
            ]
        },
        {
            "positions": [
                2.5887366621599037,
                -1.2305713663039077,
                -1.8303314610804244,
                -1.4819215622284219,
                -1.4900361739618637,
                0.409033469477322
            ]
        },
        {
            "positions": [
                2.4778707942288283,
                -1.2168031354399882,
                -1.7410443484437037,
                -1.4152921732036496,
                -1.4091254388290473,
                0.3760471657495164
            ]
        },
        {
            "positions": [
                2.3670049262977533,
                -1.2030349045760684,
                -1.6517572358069832,
                -1.3486627841788774,
                -1.3282147036962308,
                0.3430608620217108
            ]
        },
        {
            "positions": [
                2.256139058366678,
                -1.1892666737121487,
                -1.5624701231702625,
                -1.2820333951541052,
                -1.2473039685634144,
                0.31007455829390523
            ]
        },
        {
            "positions": [
                2.145273190435603,
                -1.1754984428482291,
                -1.473183010533542,
                -1.2154040061293332,
                -1.166393233430598,
                0.27708825456609965
            ]
        },
        {
            "positions": [
                2.034407322504528,
                -1.1617302119843094,
                -1.3838958978968212,
                -1.148774617104561,
                -1.0854824982977815,
                0.24410195083829406
            ]
        },
        {
            "positions": [
                1.9235414545734524,
                -1.1479619811203896,
                -1.2946087852601007,
                -1.0821452280797887,
                -1.004571763164965,
                0.21111564711048847
            ]
        },
        {
            "positions": [
                1.8126755866423774,
                -1.13419375025647,
                -1.2053216726233802,
                -1.0155158390550165,
                -0.9236610280321487,
                0.17812934338268288
            ]
        },
        {
            "positions": [
                1.701809718711302,
                -1.1204255193925503,
                -1.1160345599866592,
                -0.9488864500302443,
                -0.8427502928993321,
                0.14514303965487724
            ]
        },
        {
            "positions": [
                1.590943850780227,
                -1.1066572885286305,
                -1.0267474473499387,
                -0.8822570610054722,
                -0.7618395577665158,
                0.1121567359270717
            ]
        },
        {
            "positions": [
                1.4800779828491515,
                -1.0928890576647108,
                -0.9374603347132182,
                -0.8156276719807,
                -0.6809288226336992,
                0.07917043219926606
            ]
        },
        {
            "positions": [
                1.3692121149180765,
                -1.0791208268007912,
                -0.8481732220764977,
                -0.7489982829559277,
                -0.6000180875008828,
                0.04618412847146053
            ]
        },
        {
            "positions": [
                1.2583462469870013,
                -1.0653525959368715,
                -0.758886109439777,
                -0.6823688939311555,
                -0.5191073523680663,
                0.013197824743654885
            ]
        },
        {
            "positions": [
                1.147480379055926,
                -1.051584365072952,
                -0.6695989968030565,
                -0.6157395049063834,
                -0.43819661723525005,
                -0.019788478984150648
            ]
        },
        {
            "positions": [
                1.0366145111248508,
                -1.0378161342090322,
                -0.5803118841663357,
                -0.5491101158816112,
                -0.3572858821024334,
                -0.05277478271195629
            ]
        },
        {
            "positions": [
                0.9257486431937758,
                -1.0240479033451124,
                -0.4910247715296152,
                -0.48248072685683896,
                -0.2763751469696172,
                -0.08576108643976182
            ]
        },
        {
            "positions": [
                0.8148827752627006,
                -1.0102796724811929,
                -0.4017376588928947,
                -0.41585133783206696,
                -0.19546441183680074,
                -0.11874739016756736
            ]
        },
        {
            "positions": [
                0.7040169073316251,
                -0.9965114416172731,
                -0.31245054625617374,
                -0.3492219488072945,
                -0.11455367670398409,
                -0.1517336938953731
            ]
        },
        {
            "positions": [
                0.5931510394005501,
                -0.9827432107533534,
                -0.22316343361945323,
                -0.2825925597825223,
                -0.03364294157116765,
                -0.18471999762317864
            ]
        },
        {
            "positions": [
                0.48228517146947514,
                -0.9689749798894337,
                -0.13387632098273272,
                -0.2159631707577503,
                0.04726779356164856,
                -0.21770630135098418
            ]
        },
        {
            "positions": [
                0.37141930353840014,
                -0.9552067490255141,
                -0.04458920834601221,
                -0.14933378173297807,
                0.128178528694465,
                -0.2506926050787897
            ]
        },
        {
            "positions": [
                0.26055343560732425,
                -0.9414385181615943,
                0.04469790429070852,
                -0.08270439270820584,
                0.20908926382728166,
                -0.28367890880659546
            ]
        },
        {
            "positions": [
                0.14968756767624924,
                -0.9276702872976746,
                0.13398501692742903,
                -0.01607500368343362,
                0.2899999989600981,
                -0.316665212534401
            ]
        },
        {
            "positions": [
                0.03882169974517424,
                -0.913902056433755,
                0.22327212956414955,
                0.050554385341338604,
                0.37091073409291453,
                -0.34965151626220653
            ]
        },
        {
            "positions": [
                -0.07204416818590076,
                -0.9001338255698352,
                0.31255924220087006,
                0.1171837743661106,
                0.45182146922573097,
                -0.38263781999001206
            ]
        },
        {
            "positions": [
                -0.1829100361169762,
                -0.8863655947059155,
                0.401846354837591,
                0.18381316339088305,
                0.5327322043585476,
                -0.4156241237178178
            ]
        },
        {
            "positions": [
                -0.2937759040480512,
                -0.8725973638419959,
                0.4911334674743115,
                0.2504425524156553,
                0.6136429394913638,
                -0.44861042744562335
            ]
        },
        {
            "positions": [
                -0.40464177197912665,
                -0.8588291329780762,
                0.580420580111032,
                0.3170719414404273,
                0.69455367462418,
                -0.4815967311734289
            ]
        },
        {
            "positions": [
                -0.5155076399102017,
                -0.8450609021141565,
                0.6697076927477525,
                0.3837013304651995,
                0.7754644097569967,
                -0.5145830349012344
            ]
        },
        {
            "positions": [
                -0.6263735078412771,
                -0.8312926712502368,
                0.7589948053844735,
                0.4503307194899717,
                0.8563751448898134,
                -0.5475693386290401
            ]
        },
        {
            "positions": [
                -0.7372393757723521,
                -0.8175244403863171,
                0.8482819180211942,
                0.5169601085147442,
                0.9372858800226294,
                -0.5805556423568456
            ]
        },
        {
            "positions": [
                -0.671140508636618,
                -0.8144694606290043,
                0.9365193192354565,
                0.624805497294813,
                0.8547720721897393,
                -0.5354503786618061
            ]
        },
        {
            "positions": [
                -0.605041641500884,
                -0.8114144808716915,
                1.0247567204497188,
                0.7326508860748819,
                0.7722582643568492,
                -0.4903451149667665
            ]
        },
        {
            "positions": [
                -0.5389427743651499,
                -0.8083595011143787,
                1.1129941216639812,
                0.8404962748549509,
                0.6897444565239592,
                -0.445239851271727
            ]
        },
        {
            "positions": [
                -0.4728439072294159,
                -0.805304521357066,
                1.2012315228782433,
                0.9483416636350197,
                0.6072306486910691,
                -0.4001345875766874
            ]
        },
        {
            "positions": [
                -0.40674504009368184,
                -0.8022495415997531,
                1.2894689240925057,
                1.0561870524150887,
                0.524716840858179,
                -0.3550293238816479
            ]
        },
        {
            "positions": [
                -0.3406461729579478,
                -0.7991945618424404,
                1.377706325306768,
                1.1640324411951575,
                0.44220303302528896,
                -0.30992406018660834
            ]
        },
        {
            "positions": [
                -0.2745473058222138,
                -0.7961395820851276,
                1.4659437265210302,
                1.2718778299752262,
                0.359689225192399,
                -0.2648187964915688
            ]
        },
        {
            "positions": [
                -0.20844843868647966,
                -0.7930846023278149,
                1.5541811277352924,
                1.3797232187552955,
                0.2771754173595089,
                -0.21971353279652922
            ]
        },
        {
            "positions": [
                -0.14234957155074568,
                -0.790029622570502,
                1.6424185289495548,
                1.4875686075353642,
                0.19466160952661882,
                -0.1746082691014897
            ]
        },
        {
            "positions": [
                -0.07625070441501158,
                -0.7869746428131893,
                1.7306559301638171,
                1.5954139963154332,
                0.11214780169372873,
                -0.1295030054064501
            ]
        },
        {
            "positions": [
                -0.010151837279277598,
                -0.7839196630558765,
                1.8188933313780793,
                1.703259385095502,
                0.02963399386083876,
                -0.08439774171141062
            ]
        },
        {
            "positions": [
                0.0559470298564565,
                -0.7808646832985637,
                1.9071307325923417,
                1.811104773875571,
                -0.05287981397205144,
                -0.039292478016371035
            ]
        },
        {
            "positions": [
                0.12204589699219043,
                -0.7778097035412509,
                1.9953681338066038,
                1.9189501626556398,
                -0.13539362180494138,
                0.005812785678668447
            ]
        }
    ]
}{
    "goal": {
        "global_pose": {
            "orientation": {
                "w": 0.7047431468963623,
                "x": -0.7094548344612122,
                "y": 0.0024358443915843964,
                "z": -0.0022348060738295317
            },
            "position": {
                "x": 0.6094750761985779,
                "y": 0.3671506643295288,
                "z": 0.19426114857196808
            }
        },
        "name": "move_to_magneteinheit_A"
    },
    "id": "BiTRRT_move_to_magneteinheit_A_92",
    "joint_names": [
        "shoulder_pan_joint",
        "shoulder_lift_joint",
        "elbow_joint",
        "wrist_1_joint",
        "wrist_2_joint",
        "wrist_3_joint"
    ],
    "metrics": {
        "cart_traj_len": 1.211694072101141,
        "distance_elbow_joint": 0.052609972944024364,
        "distance_shoulder_lift_joint": 0.7623491780336547,
        "distance_shoulder_pan_joint": 1.241818291717363,
        "distance_wrist_1_joint": 0.8010469564842805,
        "distance_wrist_2_joint": 1.4435924949696566,
        "distance_wrist_3_joint": 4.300299640052791,
        "smoothness": 0.017237556879899144,
        "time": 0.106621015,
        "traj_len": 2.9328683117729257,
        "weighted_distance": 4.409870209627636
    },
    "planner": "BiTRRT",
    "start": {
        "state": {
            "elbow_joint": 1.919643534880228,
            "shoulder_lift_joint": -1.8972525353963687,
            "shoulder_pan_joint": -1.1188672234189438,
            "wrist_1_joint": -1.5931878212786155,
            "wrist_2_joint": 1.5706036197970081,
            "wrist_3_joint": 1.118896926603594
        }
    },
    "waypoints": [
        {
            "positions": [
                -1.1188672234189438,
                -1.8972525353963687,
                1.919643534880228,
                -1.5931878212786155,
                1.5706036197970081,
                1.118896926603594
            ]
        },
        {
            "positions": [
                -1.062924511638734,
                -1.8626899696285464,
                1.9211775422247395,
                -1.5567790781312345,
                1.5059818049020461,
                0.9253246729889085
            ]
        },
        {
            "positions": [
                -1.0069817998585242,
                -1.828127403860724,
                1.9227115495692506,
                -1.5203703349838535,
                1.4413599900070841,
                0.7317524193742231
            ]
        },
        {
            "positions": [
                -0.9510390880783143,
                -1.7935648380929017,
                1.924245556913762,
                -1.4839615918364726,
                1.3767381751121222,
                0.5381801657595378
            ]
        },
        {
            "positions": [
                -0.8950963762981043,
                -1.7590022723250793,
                1.9257795642582733,
                -1.4475528486890916,
                1.31211636021716,
                0.3446079121448523
            ]
        },
        {
            "positions": [
                -0.8391536645178945,
                -1.724439706557257,
                1.9273135716027845,
                -1.4111441055417107,
                1.247494545322198,
                0.15103565853016698
            ]
        },
        {
            "positions": [
                -0.7832109527376847,
                -1.6898771407894349,
                1.9288475789472959,
                -1.3747353623943297,
                1.182872730427236,
                -0.04253659508451846
            ]
        },
        {
            "positions": [
                -0.7272682409574748,
                -1.6553145750216125,
                1.9303815862918072,
                -1.3383266192469487,
                1.118250915532274,
                -0.2361088486992038
            ]
        },
        {
            "positions": [
                -0.6713255291772648,
                -1.6207520092537901,
                1.9319155936363184,
                -1.3019178760995678,
                1.0536291006373117,
                -0.42968110231388934
            ]
        },
        {
            "positions": [
                -0.615382817397055,
                -1.5861894434859678,
                1.9334496009808297,
                -1.2655091329521868,
                0.9890072857423498,
                -0.6232533559285749
            ]
        },
        {
            "positions": [
                -0.5594401056168452,
                -1.5516268777181454,
                1.934983608325341,
                -1.2291003898048058,
                0.9243854708473879,
                -0.81682560954326
            ]
        },
        {
            "positions": [
                -0.5034973938366353,
                -1.517064311950323,
                1.9365176156698523,
                -1.1926916466574249,
                0.8597636559524258,
                -1.0103978631579456
            ]
        },
        {
            "positions": [
                -0.44755468205642546,
                -1.4825017461825007,
                1.9380516230143636,
                -1.156282903510044,
                0.7951418410574638,
                -1.2039701167726309
            ]
        },
        {
            "positions": [
                -0.3916119702762155,
                -1.4479391804146784,
                1.939585630358875,
                -1.119874160362663,
                0.7305200261625017,
                -1.3975423703873167
            ]
        },
        {
            "positions": [
                -0.3356692584960057,
                -1.413376614646856,
                1.9411196377033864,
                -1.083465417215282,
                0.6658982112675397,
                -1.5911146240020015
            ]
        },
        {
            "positions": [
                -0.2797265467157959,
                -1.378814048879034,
                1.9426536450478975,
                -1.047056674067901,
                0.6012763963725777,
                -1.7846868776166869
            ]
        },
        {
            "positions": [
                -0.22378383493558596,
                -1.3442514831112113,
                1.9441876523924089,
                -1.01064793092052,
                0.5366545814776156,
                -1.9782591312313726
            ]
        },
        {
            "positions": [
                -0.16784112315537603,
                -1.3096889173433892,
                1.9457216597369202,
                -0.9742391877731391,
                0.4720327665826536,
                -2.171831384846058
            ]
        },
        {
            "positions": [
                -0.1118984113751662,
                -1.2751263515755666,
                1.9472556670814314,
                -0.9378304446257582,
                0.40741095168769137,
                -2.3654036384607435
            ]
        },
        {
            "positions": [
                -0.05595569959495639,
                -1.2405637858077445,
                1.9487896744259428,
                -0.9014217014783772,
                0.3427891367927294,
                -2.558975892075429
            ]
        },
        {
            "positions": [
                -1.298781474656785e-05,
                -1.2060012200399222,
                1.9503236817704541,
                -0.8650129583309962,
                0.2781673218977676,
                -2.752548145690114
            ]
        },
        {
            "positions": [
                0.055929723965463474,
                -1.1714386542720998,
                1.9518576891149653,
                -0.8286042151836153,
                0.2135455070028054,
                -2.9461203993047995
            ]
        },
        {
            "positions": [
                0.11187243574567336,
                -1.1368760885042775,
                1.9533916964594766,
                -0.7921954720362343,
                0.14892369210784345,
                -3.139692652919485
            ]
        },
        {
            "positions": [
                0.12295106829841923,
                -1.1388488196458408,
                1.9722535078242525,
                -0.792140864794335,
                0.12701112482735152,
                -3.181402713449197
            ]
        }
    ]
}