{
    "goal": {
        "global_pose": {
            "orientation": {
                "w": 0.7047431468963623,
                "x": -0.7094548344612122,
                "y": 0.0024358443915843964,
                "z": -0.0022348060738295317
            },
            "position": {
                "x": 0.6094750761985779,
                "y": 0.3671506643295288,
                "z": 0.19426114857196808
            }
        },
        "name": "move_to_magneteinheit_A"
    },
    "id": "BiTRRT_move_to_magneteinheit_A_138",
    "joint_names": [
        "shoulder_pan_joint",
        "shoulder_lift_joint",
        "elbow_joint",
        "wrist_1_joint",
        "wrist_2_joint",
        "wrist_3_joint"
    ],
    "metrics": {
        "cart_traj_len": 3.1318619565849852,
        "distance_elbow_joint": 3.911245903663149,
        "distance_shoulder_lift_joint": 0.4674349786746165,
        "distance_shoulder_pan_joint": 2.8449135990440855,
        "distance_wrist_1_joint": 3.4644901778135173,
        "distance_wrist_2_joint": 1.695909883769076,
        "distance_wrist_3_joint": 0.43483763726102975,
        "smoothness": 0.05105664278331001,
        "time": 0.089740767,
        "traj_len": 3.5803396738613325,
        "weighted_distance": 4.341532853305399
    },
    "planner": "BiTRRT",
    "start": {
        "state": {
            "elbow_joint": -1.919618573717145,
            "shoulder_lift_joint": -1.2443395971678275,
            "shoulder_pan_joint": 2.6996025300909787,
            "wrist_1_joint": -1.548550951253194,
            "wrist_2_joint": -1.5709469090946802,
            "wrist_3_joint": 0.4420197732051276
        }
    },
    "waypoints": [
        {
            "positions": [
                2.6996025300909787,
                -1.2443395971678275,
                -1.919618573717145,
                -1.548550951253194,
                -1.5709469090946802,
                0.4420197732051276
            ]
        },
        {
            "positions": [
                2.6000948526496734,
                -1.2413803703201303,
                -1.8084677531490945,
                -1.4433283976494675,
                -1.5127420405038323,
                0.4315402552711618
            ]
        },
        {
            "positions": [
                2.5005871752083686,
                -1.2384211434724328,
                -1.6973169325810442,
                -1.3381058440457407,
                -1.4545371719129845,
                0.42106073733719596
            ]
        },
        {
            "positions": [
                2.4010794977670633,
                -1.2354619166247356,
                -1.5861661120129937,
                -1.2328832904420142,
                -1.3963323033221364,
                0.41058121940323017
            ]
        },
        {
            "positions": [
                2.301571820325758,
                -1.2325026897770381,
                -1.4750152914449435,
                -1.1276607368382874,
                -1.3381274347312886,
                0.4001017014692644
            ]
        },
        {
            "positions": [
                2.2020641428844527,
                -1.229543462929341,
                -1.363864470876893,
                -1.0224381832345606,
                -1.2799225661404408,
                0.38962218353529854
            ]
        },
        {
            "positions": [
                2.102556465443148,
                -1.2265842360816435,
                -1.2527136503088427,
                -0.9172156296308341,
                -1.221717697549593,
                0.37914266560133275
            ]
        },
        {
            "positions": [
                2.0030487880018426,
                -1.2236250092339462,
                -1.1415628297407923,
                -0.8119930760271075,
                -1.163512828958745,
                0.36866314766736696
            ]
        },
        {
            "positions": [
                1.9035411105605373,
                -1.2206657823862488,
                -1.0304120091727418,
                -0.7067705224233808,
                -1.1053079603678972,
                0.3581836297334011
            ]
        },
        {
            "positions": [
                1.8040334331192323,
                -1.2177065555385516,
                -0.9192611886046915,
                -0.6015479688196541,
                -1.0471030917770494,
                0.34770411179943533
            ]
        },
        {
            "positions": [
                1.7045257556779272,
                -1.2147473286908541,
                -0.808110368036641,
                -0.4963254152159273,
                -0.9888982231862015,
                0.33722459386546955
            ]
        },
        {
            "positions": [
                1.605018078236622,
                -1.2117881018431569,
                -0.6969595474685908,
                -0.39110286161220076,
                -0.9306933545953535,
                0.3267450759315037
            ]
        },
        {
            "positions": [
                1.5055104007953168,
                -1.2088288749954594,
                -0.5858087269005403,
                -0.2858803080084742,
                -0.8724884860045057,
                0.3162655579975379
            ]
        },
        {
            "positions": [
                1.4060027233540116,
                -1.2058696481477622,
                -0.47465790633249005,
                -0.1806577544047474,
                -0.8142836174136578,
                0.30578604006357213
            ]
        },
        {
            "positions": [
                1.3064950459127065,
                -1.2029104213000648,
                -0.3635070857644396,
                -0.07543520080102084,
                -0.7560787488228099,
                0.2953065221296063
            ]
        },
        {
            "positions": [
                1.206987368471401,
                -1.1999511944523675,
                -0.2523562651963891,
                0.02978735280270617,
                -0.697873880231962,
                0.2848270041956405
            ]
        },
        {
            "positions": [
                1.1074796910300961,
                -1.19699196760467,
                -0.14120544462833884,
                0.1350099064064325,
                -0.6396690116411142,
                0.2743474862616747
            ]
        },
        {
            "positions": [
                1.0079720135887908,
                -1.1940327407569729,
                -0.03005462406028836,
                0.2402324600101593,
                -0.5814641430502662,
                0.26386796832770887
            ]
        },
        {
            "positions": [
                0.9084643361474858,
                -1.1910735139092754,
                0.0810961965077619,
                0.34545501361388586,
                -0.5232592744594184,
                0.2533884503937431
            ]
        },
        {
            "positions": [
                0.8089566587061805,
                -1.1881142870615782,
                0.1922470170758126,
                0.45067756721761265,
                -0.4650544058685704,
                0.24290893245977727
            ]
        },
        {
            "positions": [
                0.7094489812648754,
                -1.1851550602138807,
                0.30339783764386286,
                0.5559001208213394,
                -0.4068495372777228,
                0.23242941452581148
            ]
        },
        {
            "positions": [
                0.6099413038235699,
                -1.1821958333661835,
                0.4145486582119131,
                0.6611226744250662,
                -0.3486446686868747,
                0.22194989659184566
            ]
        },
        {
            "positions": [
                0.5104336263822651,
                -1.179236606518486,
                0.5256994787799634,
                0.7663452280287926,
                -0.2904398000960269,
                0.21147037865787988
            ]
        },
        {
            "positions": [
                0.4109259489409598,
                -1.1762773796707888,
                0.6368502993480141,
                0.8715677816325194,
                -0.23223493150517904,
                0.20099086072391406
            ]
        },
        {
            "positions": [
                0.31141827149965495,
                -1.1733181528230914,
                0.7480011199160643,
                0.9767903352362457,
                -0.1740300629143312,
                0.19051134278994825
            ]
        },
        {
            "positions": [
                0.21191059405834922,
                -1.1703589259753941,
                0.8591519404841146,
                1.082012888839973,
                -0.11582519432348315,
                0.18003182485598246
            ]
        },
        {
            "positions": [
                0.11240291661704438,
                -1.1673996991276967,
                0.9703027610521648,
                1.1872354424436993,
                -0.057620325732635536,
                0.16955230692201667
            ]
        },
        {
            "positions": [
                0.01289523917573926,
                -1.1644404722799995,
                1.0814535816202158,
                1.292457996047426,
                0.0005845428582125084,
                0.15907278898805083
            ]
        },
        {
            "positions": [
                0.007976782986045988,
                -1.1236258312144405,
                1.2389113390281477,
                1.38610159778307,
                -0.014183214971555525,
                0.13126547853729392
            ]
        },
        {
            "positions": [
                0.0030583267963527165,
                -1.0828111901488815,
                1.3963690964360793,
                1.4797451995187139,
                -0.028950972801323558,
                0.103458168086537
            ]
        },
        {
            "positions": [
                -0.0018601293933405531,
                -1.0419965490833225,
                1.553826853844011,
                1.5733888012543575,
                -0.043718730631091586,
                0.0756508576357801
            ]
        },
        {
            "positions": [
                -0.006778585583033826,
                -1.0011819080177635,
                1.7112846112519429,
                1.6670324029900014,
                -0.058486488460859624,
                0.04784354718502318
            ]
        },
        {
            "positions": [
                -0.011697041772727096,
                -0.9603672669522046,
                1.8687423686598745,
                1.7606760047256453,
                -0.07325424629062766,
                0.02003623673426627
            ]
        },
        {
            "positions": [
                0.05510997181746326,
                -0.8686359427227078,
                1.9301848493029388,
                1.8383076156429845,
                -0.09852406762429927,
                0.013609186339182042
            ]
        },
        {
            "positions": [
                0.12191698540765361,
                -0.776904618493211,
                1.9916273299460032,
                1.9159392265603234,
                -0.12379388895797087,
                0.007182135944097814
            ]
        }
    ]
}{
    "goal": {
        "global_pose": {
            "orientation": {
                "w": 0.7047431468963623,
                "x": -0.7094548344612122,
                "y": 0.0024358443915843964,
                "z": -0.0022348060738295317
            },
            "position": {
                "x": 0.6094750761985779,
                "y": 0.3671506643295288,
                "z": 0.19426114857196808
            }
        },
        "name": "move_to_magneteinheit_A"
    },
    "id": "BiTRRT_move_to_magneteinheit_A_138",
    "joint_names": [
        "shoulder_pan_joint",
        "shoulder_lift_joint",
        "elbow_joint",
        "wrist_1_joint",
        "wrist_2_joint",
        "wrist_3_joint"
    ],
    "metrics": {
        "cart_traj_len": 1.5778323252459054,
        "distance_elbow_joint": 1.3016108999729885,
        "distance_shoulder_lift_joint": 1.4011738143461046,
        "distance_shoulder_pan_joint": 1.2407220680817495,
        "distance_wrist_1_joint": 1.6688548885478003,
        "distance_wrist_2_joint": 1.4348354021034662,
        "distance_wrist_3_joint": 4.234672671938584,
        "smoothness": 0.3709278849657838,
        "time": 0.07853094699999999,
        "traj_len": 3.35884946745023,
        "weighted_distance": 4.780680430599721
    },
    "planner": "BiTRRT",
    "start": {
        "state": {
            "elbow_joint": 1.919643534880228,
            "shoulder_lift_joint": -1.8972525353963687,
            "shoulder_pan_joint": -1.1188672234189438,
            "wrist_1_joint": -1.5931878212786155,
            "wrist_2_joint": 1.5706036197970081,
            "wrist_3_joint": 1.118896926603594
        }
    },
    "waypoints": [
        {
            "positions": [
                -1.1188672234189438,
                -1.8972525353963687,
                1.919643534880228,
                -1.5931878212786155,
                1.5706036197970081,
                1.118896926603594
            ]
        },
        {
            "positions": [
                -1.0770494840589107,
                -1.8505671178863579,
                1.892919120451495,
                -1.5410805737166529,
                1.5123386627043565,
                0.9511830614521442
            ]
        },
        {
            "positions": [
                -1.0352317446988777,
                -1.803881700376347,
                1.8661947060227617,
                -1.4889733261546902,
                1.4540737056117048,
                0.7834691963006944
            ]
        },
        {
            "positions": [
                -0.9934140053388446,
                -1.7571962828663361,
                1.8394702915940286,
                -1.4368660785927274,
                1.3958087485190531,
                0.6157553311492446
            ]
        },
        {
            "positions": [
                -0.9515962659788115,
                -1.7105108653563252,
                1.8127458771652956,
                -1.3847588310307648,
                1.3375437914264015,
                0.44804146599779493
            ]
        },
        {
            "positions": [
                -0.9097785266187783,
                -1.6638254478463144,
                1.7860214627365623,
                -1.3326515834688022,
                1.2792788343337498,
                0.2803276008463451
            ]
        },
        {
            "positions": [
                -0.8679607872587454,
                -1.6171400303363035,
                1.7592970483078292,
                -1.2805443359068396,
                1.2210138772410981,
                0.1126137356948953
            ]
        },
        {
            "positions": [
                -0.8261430478987122,
                -1.5704546128262926,
                1.732572633879096,
                -1.2284370883448767,
                1.1627489201484464,
                -0.055100129456554514
            ]
        },
        {
            "positions": [
                -0.7843253085386791,
                -1.5237691953162817,
                1.705848219450363,
                -1.1763298407829141,
                1.104483963055795,
                -0.2228139946080041
            ]
        },
        {
            "positions": [
                -0.742507569178646,
                -1.4770837778062709,
                1.6791238050216297,
                -1.1242225932209515,
                1.046219005963143,
                -0.3905278597594539
            ]
        },
        {
            "positions": [
                -0.7006898298186129,
                -1.43039836029626,
                1.6523993905928966,
                -1.072115345658989,
                0.9879540488704917,
                -0.5582417249109037
            ]
        },
        {
            "positions": [
                -0.6588720904585799,
                -1.3837129427862491,
                1.6256749761641633,
                -1.0200080980970263,
                0.92968909177784,
                -0.7259555900623536
            ]
        },
        {
            "positions": [
                -0.6170543510985468,
                -1.3370275252762382,
                1.5989505617354305,
                -0.9679008505350636,
                0.8714241346851883,
                -0.8936694552138034
            ]
        },
        {
            "positions": [
                -0.5752366117385137,
                -1.2903421077662274,
                1.5722261473066972,
                -0.915793602973101,
                0.8131591775925368,
                -1.061383320365253
            ]
        },
        {
            "positions": [
                -0.5334188723784805,
                -1.2436566902562165,
                1.545501732877964,
                -0.8636863554111381,
                0.754894220499885,
                -1.229097185516703
            ]
        },
        {
            "positions": [
                -0.49160113301844743,
                -1.1969712727462056,
                1.518777318449231,
                -0.8115791078491755,
                0.6966292634072333,
                -1.3968110506681526
            ]
        },
        {
            "positions": [
                -0.44978339365841435,
                -1.1502858552361948,
                1.4920529040204977,
                -0.7594718602872129,
                0.6383643063145817,
                -1.5645249158196022
            ]
        },
        {
            "positions": [
                -0.4079656542983813,
                -1.1036004377261839,
                1.4653284895917646,
                -0.7073646127252503,
                0.5800993492219302,
                -1.7322387809710518
            ]
        },
        {
            "positions": [
                -0.3661479149383481,
                -1.056915020216173,
                1.4386040751630316,
                -0.6552573651632876,
                0.5218343921292783,
                -1.8999526461225018
            ]
        },
        {
            "positions": [
                -0.324330175578315,
                -1.0102296027061621,
                1.4118796607342983,
                -0.603150117601325,
                0.46356943503662684,
                -2.067666511273951
            ]
        },
        {
            "positions": [
                -0.28251243621828204,
                -0.9635441851961513,
                1.3851552463055652,
                -0.5510428700393624,
                0.40530447794397517,
                -2.235380376425401
            ]
        },
        {
            "positions": [
                -0.24069469685824896,
                -0.9168587676861405,
                1.3584308318768321,
                -0.49893562247739975,
                0.3470395208513235,
                -2.4030942415768513
            ]
        },
        {
            "positions": [
                -0.19887695749821577,
                -0.8701733501761295,
                1.3317064174480988,
                -0.4468283749154369,
                0.28877456375867183,
                -2.5708081067283013
            ]
        },
        {
            "positions": [
                -0.15705921813818263,
                -0.8234879326661186,
                1.3049820030193657,
                -0.3947211273534743,
                0.23050960666602016,
                -2.7385219718797504
            ]
        },
        {
            "positions": [
                -0.11057354100468453,
                -0.8780561346020944,
                1.4194735643713867,
                -0.4731191597905841,
                0.21471937517060716,
                -2.801397600788957
            ]
        },
        {
            "positions": [
                -0.06408786387118642,
                -0.9326243365380702,
                1.5339651257234077,
                -0.5515171922276939,
                0.19892914367519415,
                -2.864273229698164
            ]
        },
        {
            "positions": [
                -0.01760218673768832,
                -0.987192538474046,
                1.648456687075429,
                -0.6299152246648038,
                0.18313891217978112,
                -2.9271488586073704
            ]
        },
        {
            "positions": [
                0.028883490395809786,
                -1.0417607404100218,
                1.76294824842745,
                -0.7083132571019135,
                0.16734868068436812,
                -2.990024487516577
            ]
        },
        {
            "positions": [
                0.07536916752930789,
                -1.0963289423459974,
                1.877439809779471,
                -0.7867112895390234,
                0.15155844918895509,
                -3.052900116425784
            ]
        },
        {
            "positions": [
                0.12185484466280597,
                -1.1508971442819733,
                1.9919313711314919,
                -0.8651093219761332,
                0.13576821769354208,
                -3.1157757453349904
            ]
        }
    ]
}