{
    "goal": {
        "global_pose": {
            "orientation": {
                "w": 0.7047431468963623,
                "x": -0.7094548344612122,
                "y": 0.0024358443915843964,
                "z": -0.0022348060738295317
            },
            "position": {
                "x": 0.6094750761985779,
                "y": 0.3671506643295288,
                "z": 0.19426114857196808
            }
        },
        "name": "move_to_magneteinheit_A"
    },
    "id": "BiTRRT_move_to_magneteinheit_A_88",
    "joint_names": [
        "shoulder_pan_joint",
        "shoulder_lift_joint",
        "elbow_joint",
        "wrist_1_joint",
        "wrist_2_joint",
        "wrist_3_joint"
    ],
    "metrics": {
        "cart_traj_len": 3.7451234926697254,
        "distance_elbow_joint": 3.8843506064878155,
        "distance_shoulder_lift_joint": 0.5694499240333324,
        "distance_shoulder_pan_joint": 2.8161444697491067,
        "distance_wrist_1_joint": 1.0956734097368184,
        "distance_wrist_2_joint": 1.9171362891365575,
        "distance_wrist_3_joint": 3.2200311200757024,
        "smoothness": 0.1363604947333277,
        "time": 0.08059767600000001,
        "traj_len": 3.6746136965971457,
        "weighted_distance": 4.79120629468656
    },
    "planner": "BiTRRT",
    "start": {
        "state": {
            "elbow_joint": -1.919618573717145,
            "shoulder_lift_joint": -1.2443395971678275,
            "shoulder_pan_joint": 2.6996025300909787,
            "wrist_1_joint": -1.548550951253194,
            "wrist_2_joint": -1.5709469090946802,
            "wrist_3_joint": 0.4420197732051276
        }
    },
    "waypoints": [
        {
            "positions": [
                2.6996025300909787,
                -1.2443395971678275,
                -1.919618573717145,
                -1.548550951253194,
                -1.5709469090946802,
                0.4420197732051276
            ]
        },
        {
            "positions": [
                2.5770580151397855,
                -1.2289496469816894,
                -1.809405858664796,
                -1.5053240750865098,
                -1.488561042604109,
                0.42823992320405924
            ]
        },
        {
            "positions": [
                2.4545135001885923,
                -1.2135596967955513,
                -1.6991931436124474,
                -1.4620971989198253,
                -1.4061751761135377,
                0.41446007320299094
            ]
        },
        {
            "positions": [
                2.3319689852373995,
                -1.1981697466094132,
                -1.5889804285600988,
                -1.418870322753141,
                -1.3237893096229665,
                0.4006802232019226
            ]
        },
        {
            "positions": [
                2.2094244702862063,
                -1.1827797964232751,
                -1.47876771350775,
                -1.3756434465864567,
                -1.2414034431323953,
                0.3869003732008543
            ]
        },
        {
            "positions": [
                2.0868799553350135,
                -1.167389846237137,
                -1.368554998455401,
                -1.3324165704197721,
                -1.159017576641824,
                0.37312052319978595
            ]
        },
        {
            "positions": [
                1.9643354403838202,
                -1.1519998960509987,
                -1.2583422834030524,
                -1.2891896942530878,
                -1.0766317101512528,
                0.35934067319871765
            ]
        },
        {
            "positions": [
                1.841790925432627,
                -1.1366099458648606,
                -1.1481295683507036,
                -1.2459628180864035,
                -0.9942458436606815,
                0.3455608231976493
            ]
        },
        {
            "positions": [
                1.7192464104814338,
                -1.1212199956787225,
                -1.0379168532983547,
                -1.202735941919719,
                -0.9118599771701102,
                0.33178097319658095
            ]
        },
        {
            "positions": [
                1.5967018955302408,
                -1.1058300454925845,
                -0.9277041382460061,
                -1.1595090657530347,
                -0.829474110679539,
                0.31800112319551266
            ]
        },
        {
            "positions": [
                1.4741573805790478,
                -1.0904400953064464,
                -0.8174914231936574,
                -1.1162821895863504,
                -0.7470882441889678,
                0.30422127319444436
            ]
        },
        {
            "positions": [
                1.3516128656278545,
                -1.0750501451203083,
                -0.7072787081413086,
                -1.0730553134196659,
                -0.6647023776983966,
                0.290441423193376
            ]
        },
        {
            "positions": [
                1.2290683506766615,
                -1.0596601949341702,
                -0.5970659930889599,
                -1.0298284372529816,
                -0.5823165112078255,
                0.27666157319230766
            ]
        },
        {
            "positions": [
                1.1065238357254683,
                -1.044270244748032,
                -0.48685327803661105,
                -0.9866015610862972,
                -0.499930644717254,
                0.26288172319123937
            ]
        },
        {
            "positions": [
                0.9839793207742753,
                -1.028880294561894,
                -0.3766405629842622,
                -0.9433746849196128,
                -0.4175447782266828,
                0.24910187319017105
            ]
        },
        {
            "positions": [
                0.8614348058230823,
                -1.013490344375756,
                -0.26642784793191354,
                -0.9001478087529284,
                -0.3351589117361118,
                0.23532202318910272
            ]
        },
        {
            "positions": [
                0.7388902908718888,
                -0.9981003941896177,
                -0.15621513287956468,
                -0.856920932586244,
                -0.25277304524554034,
                0.22154217318803437
            ]
        },
        {
            "positions": [
                0.6163457759206961,
                -0.9827104440034796,
                -0.046002417827216036,
                -0.8136940564195597,
                -0.17038717875496912,
                0.20776232318696608
            ]
        },
        {
            "positions": [
                0.49380126096950283,
                -0.9673204938173414,
                0.06421029722513283,
                -0.7704671802528752,
                -0.08800131226439789,
                0.19398247318589773
            ]
        },
        {
            "positions": [
                0.3712567460183096,
                -0.9519305436312033,
                0.17442301227748147,
                -0.7272403040861909,
                -0.005615445773826666,
                0.18020262318482944
            ]
        },
        {
            "positions": [
                0.24871223106711682,
                -0.9365405934450652,
                0.2846357273298301,
                -0.6840134279195066,
                0.07677042071674456,
                0.16642277318376109
            ]
        },
        {
            "positions": [
                0.12616771611592315,
                -0.9211506432589271,
                0.3948484423821792,
                -0.6407865517528221,
                0.15915628720731578,
                0.15264292318269274
            ]
        },
        {
            "positions": [
                0.00362320116473034,
                -0.9057606930727891,
                0.505061157434528,
                -0.5975596755861378,
                0.2415421536978871,
                0.13886307318162447
            ]
        },
        {
            "positions": [
                0.012866673535719478,
                -0.9235200022988117,
                0.6173435324603851,
                -0.608689070514581,
                0.23349236705604162,
                0.3632380285702552
            ]
        },
        {
            "positions": [
                0.022110145906708616,
                -0.9412793115248342,
                0.7296259074862423,
                -0.6198184654430243,
                0.22544258041419615,
                0.587612983958886
            ]
        },
        {
            "positions": [
                0.03135361827769775,
                -0.9590386207508569,
                0.8419082825120995,
                -0.6309478603714676,
                0.2173927937723507,
                0.8119879393475167
            ]
        },
        {
            "positions": [
                0.04059709064868689,
                -0.9767979299768795,
                0.9541906575379566,
                -0.6420772552999108,
                0.20934300713050524,
                1.0363628947361474
            ]
        },
        {
            "positions": [
                0.04984056301967603,
                -0.9945572392029021,
                1.0664730325638136,
                -0.6532066502283541,
                0.20129322048865977,
                1.2607378501247781
            ]
        },
        {
            "positions": [
                0.05908403539066517,
                -1.0123165484289247,
                1.1787554075896711,
                -0.6643360451567973,
                0.1932434338468143,
                1.4851128055134089
            ]
        },
        {
            "positions": [
                0.0683275077616543,
                -1.0300758576549474,
                1.2910377826155282,
                -0.6754654400852406,
                0.18519364720496886,
                1.7094877609020394
            ]
        },
        {
            "positions": [
                0.07757098013264344,
                -1.04783516688097,
                1.4033201576413852,
                -0.6865948350136839,
                0.17714386056312337,
                1.9338627162906703
            ]
        },
        {
            "positions": [
                0.08681445250363257,
                -1.0655944761069926,
                1.5156025326672422,
                -0.6977242299421271,
                0.16909407392127793,
                2.158237671679301
            ]
        },
        {
            "positions": [
                0.09605792487462173,
                -1.0833537853330153,
                1.6278849076930997,
                -0.7088536248705704,
                0.16104428727943246,
                2.3826126270679318
            ]
        },
        {
            "positions": [
                0.10530139724561086,
                -1.1011130945590377,
                1.7401672827189567,
                -0.7199830197990136,
                0.15299450063758702,
                2.6069875824565623
            ]
        },
        {
            "positions": [
                0.11454486961659999,
                -1.1188724037850604,
                1.8524496577448142,
                -0.7311124147274569,
                0.14494471399574155,
                2.831362537845193
            ]
        },
        {
            "positions": [
                0.12378834198758912,
                -1.136631713011083,
                1.9647320327706712,
                -0.7422418096559001,
                0.13689492735389608,
                3.0557374932338237
            ]
        }
    ]
}{
    "goal": {
        "global_pose": {
            "orientation": {
                "w": 0.7047431468963623,
                "x": -0.7094548344612122,
                "y": 0.0024358443915843964,
                "z": -0.0022348060738295317
            },
            "position": {
                "x": 0.6094750761985779,
                "y": 0.3671506643295288,
                "z": 0.19426114857196808
            }
        },
        "name": "move_to_magneteinheit_A"
    },
    "id": "BiTRRT_move_to_magneteinheit_A_88",
    "joint_names": [
        "shoulder_pan_joint",
        "shoulder_lift_joint",
        "elbow_joint",
        "wrist_1_joint",
        "wrist_2_joint",
        "wrist_3_joint"
    ],
    "metrics": {
        "cart_traj_len": 1.2617092457522472,
        "distance_elbow_joint": 0.13533176127729507,
        "distance_shoulder_lift_joint": 0.8371685675779066,
        "distance_shoulder_pan_joint": 1.2410417106252325,
        "distance_wrist_1_joint": 0.8949872154583701,
        "distance_wrist_2_joint": 1.440698227242836,
        "distance_wrist_3_joint": 4.338876192641055,
        "smoothness": 0.11342558333321452,
        "time": 0.084353552,
        "traj_len": 2.981292282689286,
        "weighted_distance": 4.461114379031994
    },
    "planner": "BiTRRT",
    "start": {
        "state": {
            "elbow_joint": 1.919643534880228,
            "shoulder_lift_joint": -1.8972525353963687,
            "shoulder_pan_joint": -1.1188672234189438,
            "wrist_1_joint": -1.5931878212786155,
            "wrist_2_joint": 1.5706036197970081,
            "wrist_3_joint": 1.118896926603594
        }
    },
    "waypoints": [
        {
            "positions": [
                -1.1188672234189438,
                -1.8972525353963687,
                1.919643534880228,
                -1.5931878212786155,
                1.5706036197970081,
                1.118896926603594
            ]
        },
        {
            "positions": [
                -1.0623487021757496,
                -1.8591410283561403,
                1.9174569294437422,
                -1.5516406243259888,
                1.5073926669834852,
                0.9326566919684358
            ]
        },
        {
            "positions": [
                -1.0058301809325552,
                -1.8210295213159118,
                1.9152703240072566,
                -1.510093427373362,
                1.4441817141699624,
                0.7464164573332777
            ]
        },
        {
            "positions": [
                -0.9493116596893609,
                -1.7829180142756835,
                1.9130837185707708,
                -1.4685462304207353,
                1.3809707613564395,
                0.5601762226981195
            ]
        },
        {
            "positions": [
                -0.8927931384461666,
                -1.744806507235455,
                1.910897113134285,
                -1.4269990334681084,
                1.3177598085429165,
                0.37393598806296136
            ]
        },
        {
            "positions": [
                -0.8362746172029722,
                -1.7066950001952266,
                1.9087105076977993,
                -1.3854518365154818,
                1.2545488557293938,
                0.1876957534278032
            ]
        },
        {
            "positions": [
                -0.779756095959778,
                -1.668583493154998,
                1.9065239022613134,
                -1.3439046395628549,
                1.1913379029158708,
                0.0014555187926450497
            ]
        },
        {
            "positions": [
                -0.7232375747165837,
                -1.6304719861147698,
                1.9043372968248276,
                -1.3023574426102282,
                1.1281269501023479,
                -0.1847847158425131
            ]
        },
        {
            "positions": [
                -0.6667190534733893,
                -1.5923604790745411,
                1.902150691388342,
                -1.2608102456576014,
                1.064915997288825,
                -0.37102495047767126
            ]
        },
        {
            "positions": [
                -0.610200532230195,
                -1.554248972034313,
                1.899964085951856,
                -1.2192630487049747,
                1.001705044475302,
                -0.5572651851128294
            ]
        },
        {
            "positions": [
                -0.5536820109870008,
                -1.5161374649940844,
                1.8977774805153702,
                -1.1777158517523478,
                0.9384940916617792,
                -0.7435054197479876
            ]
        },
        {
            "positions": [
                -0.4971634897438063,
                -1.478025957953856,
                1.8955908750788846,
                -1.1361686547997212,
                0.8752831388482563,
                -0.9297456543831457
            ]
        },
        {
            "positions": [
                -0.4406449685006121,
                -1.4399144509136277,
                1.8934042696423987,
                -1.0946214578470945,
                0.8120721860347334,
                -1.1159858890183039
            ]
        },
        {
            "positions": [
                -0.38412644725741774,
                -1.401802943873399,
                1.8912176642059129,
                -1.0530742608944674,
                0.7488612332212105,
                -1.302226123653462
            ]
        },
        {
            "positions": [
                -0.3276079260142235,
                -1.3636914368331707,
                1.8890310587694272,
                -1.0115270639418408,
                0.6856502804076876,
                -1.4884663582886202
            ]
        },
        {
            "positions": [
                -0.27108940477102905,
                -1.3255799297929423,
                1.8868444533329414,
                -0.9699798669892141,
                0.6224393275941646,
                -1.6747065929237783
            ]
        },
        {
            "positions": [
                -0.21457088352783482,
                -1.2874684227527138,
                1.8846578478964555,
                -0.9284326700365874,
                0.5592283747806419,
                -1.8609468275589365
            ]
        },
        {
            "positions": [
                -0.15805236228464048,
                -1.2493569157124853,
                1.8824712424599699,
                -0.8868854730839606,
                0.49601742196711895,
                -2.0471870621940944
            ]
        },
        {
            "positions": [
                -0.10153384104144614,
                -1.2112454086722568,
                1.880284637023484,
                -0.8453382761313338,
                0.432806469153596,
                -2.2334272968292526
            ]
        },
        {
            "positions": [
                -0.04501531979825191,
                -1.1731339016320286,
                1.8780980315869982,
                -0.8037910791787071,
                0.36959551634007304,
                -2.4196675314644107
            ]
        },
        {
            "positions": [
                0.011503201444942324,
                -1.1350223945918,
                1.8759114261505125,
                -0.7622438822260803,
                0.3063845635265503,
                -2.605907766099569
            ]
        },
        {
            "positions": [
                0.06802172268813685,
                -1.0969108875515716,
                1.8737248207140267,
                -0.7206966852734535,
                0.24317361071302745,
                -2.7921480007347275
            ]
        },
        {
            "positions": [
                0.0950981049472128,
                -1.1153243474181265,
                1.9184313442695735,
                -0.7319447250000577,
                0.18653950163359984,
                -3.0060636333860944
            ]
        },
        {
            "positions": [
                0.12217448720628873,
                -1.133737807284681,
                1.9631378678251203,
                -0.7431927647266617,
                0.12990539255417222,
                -3.2199792660374613
            ]
        }
    ]
}