{
    "goal": {
        "global_pose": {
            "orientation": {
                "w": 0.5084816217422485,
                "x": -0.49083608388900757,
                "y": 0.5182115435600281,
                "z": -0.4816462993621826
            },
            "position": {
                "x": 0.5540239810943604,
                "y": 0.030875300988554955,
                "z": 0.16403168439865112
            }
        },
        "name": "move_to_storage_A"
    },
    "id": "BiTRRT_move_to_storage_A_65",
    "joint_names": [
        "shoulder_pan_joint",
        "shoulder_lift_joint",
        "elbow_joint",
        "wrist_1_joint",
        "wrist_2_joint",
        "wrist_3_joint"
    ],
    "metrics": {
        "cart_traj_len": 0.35339845704998396,
        "distance_elbow_joint": 0.44705742635661316,
        "distance_shoulder_lift_joint": 0.23520814723654326,
        "distance_shoulder_pan_joint": 0.46004602817334567,
        "distance_wrist_1_joint": 0.23271922691309344,
        "distance_wrist_2_joint": 1.1081339848299119,
        "distance_wrist_3_joint": 0.09268742868563029,
        "smoothness": 6.661338165333112e-16,
        "time": 0.043236362,
        "traj_len": 1.6049461804668521,
        "weighted_distance": 2.025359304249348
    },
    "planner": "BiTRRT",
    "start": {
        "state": {
            "elbow_joint": 1.9715477243005601,
            "shoulder_lift_joint": -1.1394853015351272,
            "shoulder_pan_joint": 0.12281154014795169,
            "wrist_1_joint": -0.7804696478968182,
            "wrist_2_joint": 0.12958648046900423,
            "wrist_3_joint": -3.192491284697111
        }
    },
    "waypoints": [
        {
            "positions": [
                0.12281154014795169,
                -1.1394853015351272,
                1.9715477243005601,
                -0.7804696478968182,
                0.12958648046900423,
                -3.192491284697111
            ]
        },
        {
            "positions": [
                0.05709067898033088,
                -1.173086465426062,
                2.0354130709229334,
                -0.8137152517415458,
                0.2878913354447059,
                -3.179250223456307
            ]
        },
        {
            "positions": [
                -0.008630182187289934,
                -1.2066876293169966,
                2.0992784175453068,
                -0.8469608555862734,
                0.4461961904204076,
                -3.1660091622155027
            ]
        },
        {
            "positions": [
                -0.07435104335491073,
                -1.2402887932079314,
                2.16314376416768,
                -0.8802064594310011,
                0.6045010453961093,
                -3.1527681009746984
            ]
        },
        {
            "positions": [
                -0.14007190452253154,
                -1.2738899570988662,
                2.2270091107900534,
                -0.9134520632757287,
                0.762805900371811,
                -3.1395270397338937
            ]
        },
        {
            "positions": [
                -0.20579276569015237,
                -1.307491120989801,
                2.2908744574124267,
                -0.9466976671204563,
                0.9211107553475127,
                -3.1262859784930894
            ]
        },
        {
            "positions": [
                -0.27151362685777314,
                -1.3410922848807356,
                2.3547398040348,
                -0.979943270965184,
                1.0794156103232142,
                -3.113044917252285
            ]
        },
        {
            "positions": [
                -0.33723448802539396,
                -1.3746934487716704,
                2.4186051506571733,
                -1.0131888748099116,
                1.2377204652989162,
                -3.099803856011481
            ]
        }
    ]
}