{
    "goal": {
        "global_pose": {
            "orientation": {
                "w": 0.5084816217422485,
                "x": -0.49083608388900757,
                "y": 0.5182115435600281,
                "z": -0.4816462993621826
            },
            "position": {
                "x": 0.5540239810943604,
                "y": 0.030875300988554955,
                "z": 0.16403168439865112
            }
        },
        "name": "move_to_storage_A"
    },
    "id": "BiTRRT_move_to_storage_A_112",
    "joint_names": [
        "shoulder_pan_joint",
        "shoulder_lift_joint",
        "elbow_joint",
        "wrist_1_joint",
        "wrist_2_joint",
        "wrist_3_joint"
    ],
    "metrics": {
        "cart_traj_len": 0.35332046621788243,
        "distance_elbow_joint": 0.4487344286281312,
        "distance_shoulder_lift_joint": 0.23468923456740542,
        "distance_shoulder_pan_joint": 0.46357675392090975,
        "distance_wrist_1_joint": 0.23954499159670817,
        "distance_wrist_2_joint": 1.092298394172635,
        "distance_wrist_3_joint": 0.10275829425978378,
        "smoothness": 4.440892098500626e-16,
        "time": 0.034149885,
        "traj_len": 1.606736474082036,
        "weighted_distance": 2.0295226215626383
    },
    "planner": "BiTRRT",
    "start": {
        "state": {
            "elbow_joint": 1.9715477243005601,
            "shoulder_lift_joint": -1.1394853015351272,
            "shoulder_pan_joint": 0.12281154014795169,
            "wrist_1_joint": -0.7804696478968182,
            "wrist_2_joint": 0.12958648046900423,
            "wrist_3_joint": -3.192491284697111
        }
    },
    "waypoints": [
        {
            "positions": [
                0.12281154014795169,
                -1.1394853015351272,
                1.9715477243005601,
                -0.7804696478968182,
                0.12958648046900423,
                -3.192491284697111
            ]
        },
        {
            "positions": [
                0.056586289587821734,
                -1.1730123350447565,
                2.0356526426760073,
                -0.8146903609820622,
                0.28562910820795206,
                -3.177811528374285
            ]
        },
        {
            "positions": [
                -0.009638960972308222,
                -1.206539368554386,
                2.099757561051455,
                -0.8489110740673063,
                0.4416717359468999,
                -3.1631317720514587
            ]
        },
        {
            "positions": [
                -0.07586421153243818,
                -1.2400664020640153,
                2.163862479426902,
                -0.8831317871525503,
                0.5977143636858477,
                -3.1484520157286324
            ]
        },
        {
            "positions": [
                -0.14208946209256812,
                -1.2735934355736445,
                2.2279673978023493,
                -0.9173525002377942,
                0.7537569914247956,
                -3.133772259405806
            ]
        },
        {
            "positions": [
                -0.20831471265269813,
                -1.3071204690832738,
                2.292072316177797,
                -0.9515732133230383,
                0.9097996191637435,
                -3.11909250308298
            ]
        },
        {
            "positions": [
                -0.27453996321282803,
                -1.3406475025929032,
                2.356177234553244,
                -0.9857939264082822,
                1.0658422469026911,
                -3.1044127467601537
            ]
        },
        {
            "positions": [
                -0.34076521377295804,
                -1.3741745361025326,
                2.4202821529286913,
                -1.0200146394935263,
                1.221884874641639,
                -3.0897329904373274
            ]
        }
    ]
}