{
    "goal": {
        "global_pose": {
            "orientation": {
                "w": 0.5084816217422485,
                "x": -0.49083608388900757,
                "y": 0.5182115435600281,
                "z": -0.4816462993621826
            },
            "position": {
                "x": 0.5540239810943604,
                "y": 0.030875300988554955,
                "z": 0.16403168439865112
            }
        },
        "name": "move_to_storage_A"
    },
    "id": "BiTRRT_move_to_storage_A_51",
    "joint_names": [
        "shoulder_pan_joint",
        "shoulder_lift_joint",
        "elbow_joint",
        "wrist_1_joint",
        "wrist_2_joint",
        "wrist_3_joint"
    ],
    "metrics": {
        "cart_traj_len": 0.35209293046896434,
        "distance_elbow_joint": 0.4508913748927408,
        "distance_shoulder_lift_joint": 0.23397647875510397,
        "distance_shoulder_pan_joint": 0.4600776987572997,
        "distance_wrist_1_joint": 0.24809997979929455,
        "distance_wrist_2_joint": 1.098221660884013,
        "distance_wrist_3_joint": 0.10451702620947767,
        "smoothness": 2.2204460668324854e-16,
        "time": 0.034969171,
        "traj_len": 1.6111437612137316,
        "weighted_distance": 2.0374346400314765
    },
    "planner": "BiTRRT",
    "start": {
        "state": {
            "elbow_joint": 1.9715477243005601,
            "shoulder_lift_joint": -1.1394853015351272,
            "shoulder_pan_joint": 0.12281154014795169,
            "wrist_1_joint": -0.7804696478968182,
            "wrist_2_joint": 0.12958648046900423,
            "wrist_3_joint": -3.192491284697111
        }
    },
    "waypoints": [
        {
            "positions": [
                0.12281154014795169,
                -1.1394853015351272,
                1.9715477243005601,
                -0.7804696478968182,
                0.12958648046900423,
                -3.192491284697111
            ]
        },
        {
            "positions": [
                0.057086154611194595,
                -1.1729105127858563,
                2.035960777856666,
                -0.8159125021538602,
                0.2864752891667204,
                -3.1775602809529
            ]
        },
        {
            "positions": [
                -0.0086392309255625,
                -1.2063357240365855,
                2.100373831412772,
                -0.8513553564109023,
                0.4433640978644365,
                -3.162629277208689
            ]
        },
        {
            "positions": [
                -0.07436461646231961,
                -1.2397609352873147,
                2.1647868849688776,
                -0.8867982106679444,
                0.6002529065621527,
                -3.147698273464478
            ]
        },
        {
            "positions": [
                -0.14009000199907667,
                -1.2731861465380436,
                2.2291999385249834,
                -0.9222410649249865,
                0.7571417152598687,
                -3.132767269720267
            ]
        },
        {
            "positions": [
                -0.20581538753583378,
                -1.3066113577887728,
                2.2936129920810893,
                -0.9576839191820286,
                0.9140305239575849,
                -3.117836265976056
            ]
        },
        {
            "positions": [
                -0.2715407730725909,
                -1.340036569039502,
                2.358026045637195,
                -0.9931267734390706,
                1.070919332655301,
                -3.1029052622318445
            ]
        },
        {
            "positions": [
                -0.337266158609348,
                -1.3734617802902311,
                2.422439099193301,
                -1.0285696276961127,
                1.227808141353017,
                -3.0879742584876335
            ]
        }
    ]
}