{
    "goal": {
        "global_pose": {
            "orientation": {
                "w": 0.5084816217422485,
                "x": -0.49083608388900757,
                "y": 0.5182115435600281,
                "z": -0.4816462993621826
            },
            "position": {
                "x": 0.5540239810943604,
                "y": 0.030875300988554955,
                "z": 0.16403168439865112
            }
        },
        "name": "move_to_storage_A"
    },
    "id": "BiTRRT_move_to_storage_A_139",
    "joint_names": [
        "shoulder_pan_joint",
        "shoulder_lift_joint",
        "elbow_joint",
        "wrist_1_joint",
        "wrist_2_joint",
        "wrist_3_joint"
    ],
    "metrics": {
        "cart_traj_len": 0.3531953939022457,
        "distance_elbow_joint": 0.45007711692615393,
        "distance_shoulder_lift_joint": 0.2340785202146749,
        "distance_shoulder_pan_joint": 0.46176746566259136,
        "distance_wrist_1_joint": 0.24812422879193485,
        "distance_wrist_2_joint": 1.0988203634480982,
        "distance_wrist_3_joint": 0.08937234143239348,
        "smoothness": 1.3322676295501878e-15,
        "time": 0.037630769,
        "traj_len": 1.6069349820312728,
        "weighted_distance": 2.0268027312939627
    },
    "planner": "BiTRRT",
    "start": {
        "state": {
            "elbow_joint": 1.9715477243005601,
            "shoulder_lift_joint": -1.1394853015351272,
            "shoulder_pan_joint": 0.12281154014795169,
            "wrist_1_joint": -0.7804696478968182,
            "wrist_2_joint": 0.12958648046900423,
            "wrist_3_joint": -3.192491284697111
        }
    },
    "waypoints": [
        {
            "positions": [
                0.12281154014795169,
                -1.1394853015351272,
                1.9715477243005601,
                -0.7804696478968182,
                0.12958648046900423,
                -3.192491284697111
            ]
        },
        {
            "positions": [
                0.056844759339010065,
                -1.1729250901372237,
                2.0358444552900106,
                -0.815915966295666,
                0.2865608181044468,
                -3.1797238073496263
            ]
        },
        {
            "positions": [
                -0.00912202146993156,
                -1.20636487873932,
                2.1001411862794614,
                -0.8513622846945138,
                0.4435351557398894,
                -3.1669563300021415
            ]
        },
        {
            "positions": [
                -0.07508880227887317,
                -1.2398046673414165,
                2.164437917268912,
                -0.8868086030933616,
                0.600509493375332,
                -3.1541888526546566
            ]
        },
        {
            "positions": [
                -0.1410555830878148,
                -1.2732444559435128,
                2.2287346482583623,
                -0.9222549214922096,
                0.7574838310107745,
                -3.1414213753071722
            ]
        },
        {
            "positions": [
                -0.20702236389675643,
                -1.3066842445456093,
                2.2930313792478128,
                -0.9577012398910574,
                0.9144581686462172,
                -3.1286538979596874
            ]
        },
        {
            "positions": [
                -0.272989144705698,
                -1.3401240331477056,
                2.3573281102372636,
                -0.9931475582899052,
                1.0714325062816599,
                -3.1158864206122026
            ]
        },
        {
            "positions": [
                -0.33895592551463966,
                -1.373563821749802,
                2.421624841226714,
                -1.028593876688753,
                1.2284068439171023,
                -3.1031189432647177
            ]
        }
    ]
}