{
    "goal": {
        "global_pose": {
            "orientation": {
                "w": 0.7047431468963623,
                "x": -0.7094548344612122,
                "y": 0.0024358443915843964,
                "z": -0.0022348060738295317
            },
            "position": {
                "x": 0.6094750761985779,
                "y": 0.3671506643295288,
                "z": 0.19426114857196808
            }
        },
        "name": "move_to_magneteinheit_A"
    },
    "id": "BiTRRT_move_to_magneteinheit_A_2",
    "joint_names": [
        "shoulder_pan_joint",
        "shoulder_lift_joint",
        "elbow_joint",
        "wrist_1_joint",
        "wrist_2_joint",
        "wrist_3_joint"
    ],
    "metrics": {
        "cart_traj_len": 3.289039594548168,
        "distance_elbow_joint": 3.934772714613675,
        "distance_shoulder_lift_joint": 0.45843855646456977,
        "distance_shoulder_pan_joint": 2.7180619825191035,
        "distance_wrist_1_joint": 3.546109897248379,
        "distance_wrist_2_joint": 1.8361799008080435,
        "distance_wrist_3_joint": 1.2720940235882239,
        "smoothness": 0.08523186456028191,
        "time": 0.105154311,
        "traj_len": 3.710209842480879,
        "weighted_distance": 4.657481607100007
    },
    "planner": "BiTRRT",
    "start": {
        "state": {
            "elbow_joint": -1.919618573717145,
            "shoulder_lift_joint": -1.2443395971678275,
            "shoulder_pan_joint": 2.6996025300909787,
            "wrist_1_joint": -1.548550951253194,
            "wrist_2_joint": -1.5709469090946802,
            "wrist_3_joint": 0.4420197732051276
        }
    },
    "waypoints": [
        {
            "positions": [
                2.6996025300909787,
                -1.2443395971678275,
                -1.919618573717145,
                -1.548550951253194,
                -1.5709469090946802,
                0.4420197732051276
            ]
        },
        {
            "positions": [
                2.608042426717102,
                -1.230553823262341,
                -1.828632771750908,
                -1.4578136003084394,
                -1.506878386205317,
                0.4062911315153436
            ]
        },
        {
            "positions": [
                2.5164823233432254,
                -1.2167680493568545,
                -1.737646969784671,
                -1.3670762493636848,
                -1.442809863315954,
                0.3705624898255596
            ]
        },
        {
            "positions": [
                2.424922219969349,
                -1.2029822754513677,
                -1.6466611678184342,
                -1.2763388984189303,
                -1.378741340426591,
                0.33483384813577566
            ]
        },
        {
            "positions": [
                2.333362116595472,
                -1.1891965015458812,
                -1.5556753658521971,
                -1.1856015474741757,
                -1.3146728175372278,
                0.29910520644599164
            ]
        },
        {
            "positions": [
                2.2418020132215952,
                -1.1754107276403947,
                -1.4646895638859603,
                -1.094864196529421,
                -1.2506042946478648,
                0.26337656475620763
            ]
        },
        {
            "positions": [
                2.150241909847719,
                -1.1616249537349081,
                -1.3737037619197232,
                -1.0041268455846666,
                -1.1865357717585017,
                0.2276479230664237
            ]
        },
        {
            "positions": [
                2.058681806473842,
                -1.1478391798294216,
                -1.2827179599534864,
                -0.9133894946399118,
                -1.1224672488691385,
                0.19191928137663966
            ]
        },
        {
            "positions": [
                1.9671217030999655,
                -1.1340534059239349,
                -1.1917321579872495,
                -0.8226521436951573,
                -1.0583987259797754,
                0.1561906396868557
            ]
        },
        {
            "positions": [
                1.8755615997260888,
                -1.1202676320184484,
                -1.1007463560210127,
                -0.7319147927504027,
                -0.9943302030904124,
                0.12046199799707175
            ]
        },
        {
            "positions": [
                1.7840014963522122,
                -1.1064818581129618,
                -1.0097605540547756,
                -0.6411774418056481,
                -0.9302616802010493,
                0.08473335630728773
            ]
        },
        {
            "positions": [
                1.6924413929783355,
                -1.0926960842074753,
                -0.9187747520885388,
                -0.5504400908608935,
                -0.8661931573116862,
                0.049004714617503775
            ]
        },
        {
            "positions": [
                1.6008812896044589,
                -1.0789103103019888,
                -0.8277889501223017,
                -0.4597027399161391,
                -0.8021246344223232,
                0.013276072927719818
            ]
        },
        {
            "positions": [
                1.509321186230582,
                -1.065124536396502,
                -0.7368031481560648,
                -0.3689653889713842,
                -0.73805611153296,
                -0.02245256876206425
            ]
        },
        {
            "positions": [
                1.4177610828567053,
                -1.0513387624910155,
                -0.6458173461898278,
                -0.27822803802662954,
                -0.6739875886435969,
                -0.058181210451848264
            ]
        },
        {
            "positions": [
                1.326200979482829,
                -1.037552988585529,
                -0.5548315442235909,
                -0.1874906870818751,
                -0.6099190657542339,
                -0.09390985214163211
            ]
        },
        {
            "positions": [
                1.234640876108952,
                -1.0237672146800425,
                -0.46384574225735387,
                -0.09675333613712045,
                -0.5458505428648708,
                -0.12963849383141618
            ]
        },
        {
            "positions": [
                1.1430807727350754,
                -1.0099814407745558,
                -0.372859940291117,
                -0.0060159851923657914,
                -0.4817820199755076,
                -0.16536713552120014
            ]
        },
        {
            "positions": [
                1.051520669361199,
                -0.9961956668690694,
                -0.2818741383248802,
                0.08472136575238864,
                -0.4177134970861447,
                -0.2010957772109841
            ]
        },
        {
            "positions": [
                0.959960565987322,
                -0.9824098929635827,
                -0.1908883363586431,
                0.1754587166971433,
                -0.35364497419678154,
                -0.23682441890076816
            ]
        },
        {
            "positions": [
                0.8684004626134454,
                -0.9686241190580962,
                -0.09990253439240626,
                0.26619606764189796,
                -0.2895764513074184,
                -0.2725530605905521
            ]
        },
        {
            "positions": [
                0.7768403592395687,
                -0.9548383451526097,
                -0.008916732426169416,
                0.3569334185866524,
                -0.22550792841805545,
                -0.3082817022803361
            ]
        },
        {
            "positions": [
                0.6852802558656923,
                -0.941052571247123,
                0.08206906954006743,
                0.44767076953140705,
                -0.1614394055286923,
                -0.34401034397012004
            ]
        },
        {
            "positions": [
                0.5937201524918154,
                -0.9272667973416364,
                0.17305487150630472,
                0.5384081204761615,
                -0.09737088263932914,
                -0.3797389856599041
            ]
        },
        {
            "positions": [
                0.502160049117939,
                -0.9134810234361499,
                0.26404067347254156,
                0.6291454714209159,
                -0.033302359749966204,
                -0.41546762734968795
            ]
        },
        {
            "positions": [
                0.41059994574406217,
                -0.8996952495306634,
                0.35502647543877863,
                0.719882822365671,
                0.030766163139396868,
                -0.4511962690394721
            ]
        },
        {
            "positions": [
                0.30941722599355015,
                -0.8964488968113435,
                0.48651287317366215,
                0.8288389930617117,
                0.04829450717422805,
                -0.45365948724727867
            ]
        },
        {
            "positions": [
                0.2082345062430381,
                -0.8932025440920236,
                0.6179992709085457,
                0.9377951637577524,
                0.06582285120905923,
                -0.45612270545508526
            ]
        },
        {
            "positions": [
                0.18463430180237303,
                -0.8877339273580197,
                0.7476878154568032,
                1.0485180817084945,
                0.045525529359289024,
                -0.41875467520107457
            ]
        },
        {
            "positions": [
                0.16103409736170798,
                -0.8822653106240157,
                0.8773763600050607,
                1.1592409996592368,
                0.02522820750951881,
                -0.38138664494706387
            ]
        },
        {
            "positions": [
                0.1374338929210429,
                -0.8767966938900118,
                1.0070649045533182,
                1.2699639176099788,
                0.0049308856597485955,
                -0.34401861469305317
            ]
        },
        {
            "positions": [
                0.12329399772418943,
                -0.8689664769998227,
                1.1456807830639768,
                1.3834187712933088,
                -0.018078269619484798,
                -0.30235481248738655
            ]
        },
        {
            "positions": [
                0.10915410252733596,
                -0.8611362601096335,
                1.2842966615746352,
                1.4968736249766388,
                -0.041087424898718194,
                -0.2606910102817199
            ]
        },
        {
            "positions": [
                0.09501420733048246,
                -0.8533060432194444,
                1.4229125400852938,
                1.6103284786599688,
                -0.06409658017795158,
                -0.21902720807605333
            ]
        },
        {
            "positions": [
                0.08087431213362899,
                -0.8454758263292552,
                1.5615284185959522,
                1.7237833323432987,
                -0.08710573545718497,
                -0.17736340587038674
            ]
        },
        {
            "positions": [
                0.0667344169367755,
                -0.8376456094390661,
                1.7001442971066107,
                1.8372381860266287,
                -0.11011489073641838,
                -0.1356996036647201
            ]
        },
        {
            "positions": [
                0.05259452173992202,
                -0.8298153925488769,
                1.8387601756172693,
                1.9506930397099587,
                -0.13312404601565178,
                -0.09403580145905349
            ]
        },
        {
            "positions": [
                0.12364849590796768,
                -0.7859010407032577,
                2.0151541408965308,
                1.9975589459951846,
                -0.13266080273605832,
                -0.08217116052707402
            ]
        }
    ]
}{
    "goal": {
        "global_pose": {
            "orientation": {
                "w": 0.7047431468963623,
                "x": -0.7094548344612122,
                "y": 0.0024358443915843964,
                "z": -0.0022348060738295317
            },
            "position": {
                "x": 0.6094750761985779,
                "y": 0.3671506643295288,
                "z": 0.19426114857196808
            }
        },
        "name": "move_to_magneteinheit_A"
    },
    "id": "BiTRRT_move_to_magneteinheit_A_2",
    "joint_names": [
        "shoulder_pan_joint",
        "shoulder_lift_joint",
        "elbow_joint",
        "wrist_1_joint",
        "wrist_2_joint",
        "wrist_3_joint"
    ],
    "metrics": {
        "cart_traj_len": 1.167767336483384,
        "distance_elbow_joint": 0.9680478292522692,
        "distance_shoulder_lift_joint": 0.7481499151213791,
        "distance_shoulder_pan_joint": 1.2421901365191277,
        "distance_wrist_1_joint": 1.9723011481232429,
        "distance_wrist_2_joint": 1.4394631375083033,
        "distance_wrist_3_joint": 4.2289217630332505,
        "smoothness": 0.2349715254911086,
        "time": 0.10794140299999999,
        "traj_len": 3.255621895975878,
        "weighted_distance": 4.740114106353941
    },
    "planner": "BiTRRT",
    "start": {
        "state": {
            "elbow_joint": 1.919643534880228,
            "shoulder_lift_joint": -1.8972525353963687,
            "shoulder_pan_joint": -1.1188672234189438,
            "wrist_1_joint": -1.5931878212786155,
            "wrist_2_joint": 1.5706036197970081,
            "wrist_3_joint": 1.118896926603594
        }
    },
    "waypoints": [
        {
            "positions": [
                -1.1188672234189438,
                -1.8972525353963687,
                1.919643534880228,
                -1.5931878212786155,
                1.5706036197970081,
                1.118896926603594
            ]
        },
        {
            "positions": [
                -1.1014490429723243,
                -1.8949885765556638,
                1.9596292022658108,
                -1.6410379620373845,
                1.562407200081001,
                0.8595546144496367
            ]
        },
        {
            "positions": [
                -1.0840308625257047,
                -1.892724617714959,
                1.9996148696513936,
                -1.6888881027961535,
                1.554210780364994,
                0.6002123022956793
            ]
        },
        {
            "positions": [
                -1.0666126820790849,
                -1.890460658874254,
                2.0396005370369763,
                -1.7367382435549223,
                1.546014360648987,
                0.34086999014172203
            ]
        },
        {
            "positions": [
                -1.0491945016324653,
                -1.8881967000335491,
                2.079586204422559,
                -1.7845883843136914,
                1.53781794093298,
                0.08152767798776472
            ]
        },
        {
            "positions": [
                -1.0317763211858457,
                -1.8859327411928444,
                2.1195718718081418,
                -1.8324385250724604,
                1.5296215212169728,
                -0.1778146341661926
            ]
        },
        {
            "positions": [
                -1.0143581407392261,
                -1.8836687823521394,
                2.1595575391937247,
                -1.8802886658312294,
                1.5214251015009659,
                -0.4371569463201499
            ]
        },
        {
            "positions": [
                -0.9969399602926065,
                -1.8814048235114345,
                2.1995432065793072,
                -1.9281388065899983,
                1.5132286817849587,
                -0.696499258474107
            ]
        },
        {
            "positions": [
                -0.9795217798459868,
                -1.8791408646707295,
                2.2395288739648898,
                -1.9759889473487673,
                1.5050322620689518,
                -0.9558415706280645
            ]
        },
        {
            "positions": [
                -0.9621035993993672,
                -1.8768769058300248,
                2.2795145413504727,
                -2.023839088107536,
                1.4968358423529446,
                -1.2151838827820216
            ]
        },
        {
            "positions": [
                -0.9446854189527475,
                -1.8746129469893198,
                2.3195002087360557,
                -2.071689228866305,
                1.4886394226369377,
                -1.4745261949359791
            ]
        },
        {
            "positions": [
                -0.9272672385061279,
                -1.8723489881486148,
                2.359485876121638,
                -2.119539369625074,
                1.4804430029209306,
                -1.7338685070899362
            ]
        },
        {
            "positions": [
                -0.9098490580595082,
                -1.87008502930791,
                2.3994715435072207,
                -2.167389510383843,
                1.4722465832049236,
                -1.9932108192438938
            ]
        },
        {
            "positions": [
                -0.8924308776128886,
                -1.8678210704672051,
                2.4394572108928037,
                -2.2152396511426122,
                1.4640501634889165,
                -2.252553131397851
            ]
        },
        {
            "positions": [
                -0.8247139582320172,
                -1.8199065071210574,
                2.4095749340101573,
                -2.125223029925329,
                1.375189518075569,
                -2.309717911733305
            ]
        },
        {
            "positions": [
                -0.7569970388511457,
                -1.7719919437749097,
                2.379692657127511,
                -2.035206408708046,
                1.2863288726622217,
                -2.3668826920687587
            ]
        },
        {
            "positions": [
                -0.6892801194702742,
                -1.7240773804287621,
                2.349810380244865,
                -1.9451897874907629,
                1.1974682272488741,
                -2.4240474724042125
            ]
        },
        {
            "positions": [
                -0.6215632000894027,
                -1.6761628170826144,
                2.3199281033622188,
                -1.85517316627348,
                1.1086075818355268,
                -2.4812122527396663
            ]
        },
        {
            "positions": [
                -0.5538462807085314,
                -1.6282482537364666,
                2.2900458264795724,
                -1.7651565450561968,
                1.0197469364221794,
                -2.53837703307512
            ]
        },
        {
            "positions": [
                -0.4861293613276598,
                -1.580333690390319,
                2.260163549596926,
                -1.6751399238389137,
                0.9308862910088319,
                -2.595541813410574
            ]
        },
        {
            "positions": [
                -0.41841244194678834,
                -1.5324191270441712,
                2.23028127271428,
                -1.5851233026216307,
                0.8420256455954844,
                -2.6527065937460277
            ]
        },
        {
            "positions": [
                -0.35069552256591685,
                -1.4845045636980236,
                2.200398995831634,
                -1.4951066814043477,
                0.7531650001821371,
                -2.709871374081481
            ]
        },
        {
            "positions": [
                -0.2829786031850454,
                -1.436590000351876,
                2.1705167189489876,
                -1.4050900601870646,
                0.6643043547687896,
                -2.767036154416935
            ]
        },
        {
            "positions": [
                -0.215261683804174,
                -1.3886754370057282,
                2.1406344420663412,
                -1.3150734389697816,
                0.5754437093554422,
                -2.8242009347523886
            ]
        },
        {
            "positions": [
                -0.14754476442330255,
                -1.3407608736595806,
                2.110752165183695,
                -1.2250568177524985,
                0.48658306394209483,
                -2.8813657150878424
            ]
        },
        {
            "positions": [
                -0.07982784504243101,
                -1.2928463103134327,
                2.0808698883010486,
                -1.1350401965352153,
                0.39772241852874735,
                -2.9385304954232963
            ]
        },
        {
            "positions": [
                -0.012110925661559468,
                -1.2449317469672851,
                2.0509876114184027,
                -1.0450235753179322,
                0.30886177311539975,
                -2.99569527575875
            ]
        },
        {
            "positions": [
                0.055605993719311964,
                -1.1970171836211374,
                2.0211053345357564,
                -0.9550069541006492,
                0.22000112770205238,
                -3.052860056094204
            ]
        },
        {
            "positions": [
                0.12332291310018342,
                -1.1491026202749897,
                1.99122305765311,
                -0.8649903328833661,
                0.13114048228870503,
                -3.1100248364296577
            ]
        }
    ]
}