{
    "goal": {
        "global_pose": {
            "orientation": {
                "w": 0.7047431468963623,
                "x": -0.7094548344612122,
                "y": 0.0024358443915843964,
                "z": -0.0022348060738295317
            },
            "position": {
                "x": 0.6094750761985779,
                "y": 0.3671506643295288,
                "z": 0.19426114857196808
            }
        },
        "name": "move_to_magneteinheit_A"
    },
    "id": "BiTRRT_move_to_magneteinheit_A_139",
    "joint_names": [
        "shoulder_pan_joint",
        "shoulder_lift_joint",
        "elbow_joint",
        "wrist_1_joint",
        "wrist_2_joint",
        "wrist_3_joint"
    ],
    "metrics": {
        "cart_traj_len": 3.470379872793926,
        "distance_elbow_joint": 3.9219637169719226,
        "distance_shoulder_lift_joint": 0.9716948818520216,
        "distance_shoulder_pan_joint": 2.9067714580977655,
        "distance_wrist_1_joint": 3.509358529769604,
        "distance_wrist_2_joint": 1.9876192199453713,
        "distance_wrist_3_joint": 0.4723098247369277,
        "smoothness": 0.28538897264674634,
        "time": 0.10470238700000001,
        "traj_len": 3.7107570159434595,
        "weighted_distance": 4.495699615250383
    },
    "planner": "BiTRRT",
    "start": {
        "state": {
            "elbow_joint": -1.919618573717145,
            "shoulder_lift_joint": -1.2443395971678275,
            "shoulder_pan_joint": 2.6996025300909787,
            "wrist_1_joint": -1.548550951253194,
            "wrist_2_joint": -1.5709469090946802,
            "wrist_3_joint": 0.4420197732051276
        }
    },
    "waypoints": [
        {
            "positions": [
                2.6996025300909787,
                -1.2443395971678275,
                -1.919618573717145,
                -1.548550951253194,
                -1.5709469090946802,
                0.4420197732051276
            ]
        },
        {
            "positions": [
                2.5734143419894653,
                -1.2224074759372012,
                -1.8152026440440387,
                -1.474051274385198,
                -1.5273649049458589,
                0.4350420654160426
            ]
        },
        {
            "positions": [
                2.4472261538879523,
                -1.2004753547065752,
                -1.7107867143709323,
                -1.3995515975172015,
                -1.4837829007970376,
                0.4280643576269576
            ]
        },
        {
            "positions": [
                2.321037965786439,
                -1.178543233475949,
                -1.606370784697826,
                -1.3250519206492053,
                -1.4402008966482163,
                0.42108664983787264
            ]
        },
        {
            "positions": [
                2.1948497776849254,
                -1.1566111122453229,
                -1.5019548550247197,
                -1.2505522437812089,
                -1.396618892499395,
                0.4141089420487876
            ]
        },
        {
            "positions": [
                2.068661589583412,
                -1.1346789910146966,
                -1.3975389253516135,
                -1.1760525669132127,
                -1.3530368883505735,
                0.40713123425970266
            ]
        },
        {
            "positions": [
                1.942473401481899,
                -1.1127468697840706,
                -1.293122995678507,
                -1.1015528900452163,
                -1.3094548842017522,
                0.40015352647061764
            ]
        },
        {
            "positions": [
                1.8162852133803855,
                -1.0908147485534443,
                -1.1887070660054007,
                -1.02705321317722,
                -1.2658728800529309,
                0.3931758186815327
            ]
        },
        {
            "positions": [
                1.6900970252788723,
                -1.0688826273228182,
                -1.0842911363322945,
                -0.9525535363092238,
                -1.2222908759041096,
                0.38619811089244765
            ]
        },
        {
            "positions": [
                1.5639088371773588,
                -1.046950506092192,
                -0.9798752066591881,
                -0.8780538594412275,
                -1.1787088717552883,
                0.3792204031033627
            ]
        },
        {
            "positions": [
                1.4377206490758456,
                -1.025018384861566,
                -0.8754592769860818,
                -0.8035541825732312,
                -1.135126867606467,
                0.37224269531427767
            ]
        },
        {
            "positions": [
                1.3115324609743322,
                -1.0030862636309397,
                -0.7710433473129754,
                -0.7290545057052348,
                -1.0915448634576455,
                0.3652649875251927
            ]
        },
        {
            "positions": [
                1.185344272872819,
                -0.9811541424003135,
                -0.6666274176398692,
                -0.6545548288372386,
                -1.0479628593088242,
                0.3582872797361077
            ]
        },
        {
            "positions": [
                1.0591560847713055,
                -0.9592220211696874,
                -0.5622114879667628,
                -0.5800551519692422,
                -1.0043808551600029,
                0.3513095719470227
            ]
        },
        {
            "positions": [
                0.9329678966697923,
                -0.9372898999390612,
                -0.4577955582936566,
                -0.5055554751012461,
                -0.9607988510111816,
                0.3443318641579377
            ]
        },
        {
            "positions": [
                0.8067797085682789,
                -0.915357778708435,
                -0.35337962862055017,
                -0.4310557982332497,
                -0.9172168468623603,
                0.33735415636885274
            ]
        },
        {
            "positions": [
                0.6805915204667659,
                -0.8934256574778088,
                -0.24896369894744397,
                -0.3565561213652535,
                -0.873634842713539,
                0.3303764485797678
            ]
        },
        {
            "positions": [
                0.5544033323652524,
                -0.8714935362471827,
                -0.14454776927433755,
                -0.2820564444972571,
                -0.8300528385647176,
                0.32339874079068276
            ]
        },
        {
            "positions": [
                0.42821514426373897,
                -0.8495614150165565,
                -0.040131839601231345,
                -0.2075567676292609,
                -0.7864708344158963,
                0.31642103300159774
            ]
        },
        {
            "positions": [
                0.3020269561622255,
                -0.8276292937859303,
                0.06428409007187508,
                -0.13305709076126448,
                -0.742888830267075,
                0.3094433252125128
            ]
        },
        {
            "positions": [
                0.17583876806071252,
                -0.8056971725553042,
                0.16870001974498128,
                -0.058557413893268295,
                -0.6993068261182537,
                0.3024656174234278
            ]
        },
        {
            "positions": [
                0.049650579959199116,
                -0.783765051324678,
                0.2731159494180876,
                0.01594226297472811,
                -0.6557248219694323,
                0.2954879096343428
            ]
        },
        {
            "positions": [
                0.04202433799937873,
                -0.8049837235459855,
                0.4129295953072626,
                0.13944979470806015,
                -0.5888629334409239,
                0.28136929645175845
            ]
        },
        {
            "positions": [
                0.03439809603955834,
                -0.8262023957672928,
                0.5527432411964377,
                0.2629573264413922,
                -0.5220010449124155,
                0.26725068326917406
            ]
        },
        {
            "positions": [
                0.02677185407973795,
                -0.8474210679886003,
                0.6925568870856127,
                0.38646485817472426,
                -0.4551391563839071,
                0.2531320700865897
            ]
        },
        {
            "positions": [
                0.01914561211991756,
                -0.8686397402099078,
                0.8323705329747877,
                0.5099723899080563,
                -0.38827726785539873,
                0.23901345690400538
            ]
        },
        {
            "positions": [
                0.011519370160097173,
                -0.8898584124312152,
                0.9721841788639628,
                0.6334799216413883,
                -0.32141537932689035,
                0.224894843721421
            ]
        },
        {
            "positions": [
                0.003893128200276784,
                -0.9110770846525227,
                1.111997824753138,
                0.7569874533747204,
                -0.25455349079838197,
                0.21077623053883665
            ]
        },
        {
            "positions": [
                -0.003733113759543605,
                -0.93229575687383,
                1.251811470642313,
                0.8804949851080525,
                -0.18769160226987353,
                0.19665761735625228
            ]
        },
        {
            "positions": [
                -0.011359355719363994,
                -0.9535144290951375,
                1.391625116531488,
                1.0040025168413844,
                -0.1208297137413652,
                0.18253900417366795
            ]
        },
        {
            "positions": [
                -0.01898559767918439,
                -0.974733101316445,
                1.5314387624206627,
                1.1275100485747165,
                -0.05396782521285681,
                0.16842039099108358
            ]
        },
        {
            "positions": [
                -0.02661183963900477,
                -0.9959517735377523,
                1.671252408309838,
                1.2510175803080485,
                0.012894063315651572,
                0.1543017778084992
            ]
        },
        {
            "positions": [
                -0.03423808159882515,
                -1.0171704457590598,
                1.8110660541990131,
                1.3745251120413806,
                0.07975595184415996,
                0.14018316462591487
            ]
        },
        {
            "positions": [
                -0.041864323558645555,
                -1.0383891179803673,
                1.950879700088188,
                1.4980326437747127,
                0.14661784037266834,
                0.1260645514433305
            ]
        },
        {
            "positions": [
                -0.0005381724466099053,
                -0.9742650506420716,
                1.9637460608798352,
                1.613726377460137,
                0.07910422275316271,
                0.08697590069954783
            ]
        },
        {
            "positions": [
                0.040787978665425745,
                -0.9101409833037759,
                1.9766124216714824,
                1.7294201111455614,
                0.01159060513365709,
                0.04788724995576517
            ]
        },
        {
            "positions": [
                0.0821141297774614,
                -0.8460169159654801,
                1.9894787824631297,
                1.8451138448309856,
                -0.05592301248584852,
                0.008798599211982505
            ]
        },
        {
            "positions": [
                0.12344028088949703,
                -0.7818928486271844,
                2.002345143254777,
                1.9608075785164099,
                -0.12343663010535415,
                -0.03029005153180018
            ]
        }
    ]
}{
    "goal": {
        "global_pose": {
            "orientation": {
                "w": 0.7047431468963623,
                "x": -0.7094548344612122,
                "y": 0.0024358443915843964,
                "z": -0.0022348060738295317
            },
            "position": {
                "x": 0.6094750761985779,
                "y": 0.3671506643295288,
                "z": 0.19426114857196808
            }
        },
        "name": "move_to_magneteinheit_A"
    },
    "id": "BiTRRT_move_to_magneteinheit_A_139",
    "joint_names": [
        "shoulder_pan_joint",
        "shoulder_lift_joint",
        "elbow_joint",
        "wrist_1_joint",
        "wrist_2_joint",
        "wrist_3_joint"
    ],
    "metrics": {
        "cart_traj_len": 1.2713255180985572,
        "distance_elbow_joint": 0.16555375567971353,
        "distance_shoulder_lift_joint": 0.7927750683357775,
        "distance_shoulder_pan_joint": 1.2421490428596271,
        "distance_wrist_1_joint": 0.774756393434292,
        "distance_wrist_2_joint": 1.447268635337056,
        "distance_wrist_3_joint": 4.284164247931004,
        "smoothness": 0.02950898919820748,
        "time": 0.080295587,
        "traj_len": 2.950706210990425,
        "weighted_distance": 4.415543077381403
    },
    "planner": "BiTRRT",
    "start": {
        "state": {
            "elbow_joint": 1.919643534880228,
            "shoulder_lift_joint": -1.8972525353963687,
            "shoulder_pan_joint": -1.1188672234189438,
            "wrist_1_joint": -1.5931878212786155,
            "wrist_2_joint": 1.5706036197970081,
            "wrist_3_joint": 1.118896926603594
        }
    },
    "waypoints": [
        {
            "positions": [
                -1.1188672234189438,
                -1.8972525353963687,
                1.919643534880228,
                -1.5931878212786155,
                1.5706036197970081,
                1.118896926603594
            ]
        },
        {
            "positions": [
                -1.0601047242806336,
                -1.8565146810383328,
                1.9168074987149664,
                -1.5632182682222544,
                1.4974301336106894,
                0.9293989344541849
            ]
        },
        {
            "positions": [
                -1.0013422251423234,
                -1.8157768266802967,
                1.9139714625497044,
                -1.5332487151658931,
                1.424256647424371,
                0.7399009423047758
            ]
        },
        {
            "positions": [
                -0.9425797260040131,
                -1.7750389723222608,
                1.9111354263844427,
                -1.503279162109532,
                1.3510831612380523,
                0.5504029501553667
            ]
        },
        {
            "positions": [
                -0.8838172268657027,
                -1.734301117964225,
                1.908299390219181,
                -1.473309609053171,
                1.2779096750517338,
                0.36090495800595757
            ]
        },
        {
            "positions": [
                -0.8250547277273925,
                -1.693563263606189,
                1.905463354053919,
                -1.44334005599681,
                1.2047361888654151,
                0.17140696585654847
            ]
        },
        {
            "positions": [
                -0.7662922285890823,
                -1.6528254092481531,
                1.9026273178886572,
                -1.4133705029404489,
                1.1315627026790964,
                -0.018091026292860635
            ]
        },
        {
            "positions": [
                -0.7075297294507721,
                -1.612087554890117,
                1.8997912817233953,
                -1.3834009498840876,
                1.058389216492778,
                -0.20758901844226973
            ]
        },
        {
            "positions": [
                -0.6487672303124618,
                -1.5713497005320811,
                1.8969552455581336,
                -1.3534313968277265,
                0.9852157303064593,
                -0.39708701059167884
            ]
        },
        {
            "positions": [
                -0.5900047311741514,
                -1.5306118461740452,
                1.8941192093928718,
                -1.3234618437713654,
                0.9120422441201407,
                -0.5865850027410879
            ]
        },
        {
            "positions": [
                -0.5312422320358412,
                -1.489873991816009,
                1.8912831732276099,
                -1.2934922907150042,
                0.8388687579338221,
                -0.776082994890497
            ]
        },
        {
            "positions": [
                -0.47247973289753087,
                -1.4491361374579732,
                1.8884471370623481,
                -1.263522737658643,
                0.7656952717475034,
                -0.9655809870399061
            ]
        },
        {
            "positions": [
                -0.41371723375922065,
                -1.4083982830999373,
                1.8856111008970864,
                -1.233553184602282,
                0.6925217855611848,
                -1.1550789791893152
            ]
        },
        {
            "positions": [
                -0.3549547346209103,
                -1.3676604287419014,
                1.8827750647318244,
                -1.203583631545921,
                0.6193482993748661,
                -1.3445769713387243
            ]
        },
        {
            "positions": [
                -0.2961922354826002,
                -1.3269225743838655,
                1.8799390285665627,
                -1.17361407848956,
                0.5461748131885475,
                -1.5340749634881334
            ]
        },
        {
            "positions": [
                -0.23742973634428988,
                -1.2861847200258294,
                1.8771029924013007,
                -1.1436445254331986,
                0.47300132700222886,
                -1.7235729556375425
            ]
        },
        {
            "positions": [
                -0.17866723720597966,
                -1.2454468656677935,
                1.874266956236039,
                -1.1136749723768375,
                0.3998278408159104,
                -1.9130709477869516
            ]
        },
        {
            "positions": [
                -0.11990473806766933,
                -1.2047090113097574,
                1.8714309200707773,
                -1.0837054193204763,
                0.3266543546295917,
                -2.1025689399363605
            ]
        },
        {
            "positions": [
                -0.061142238929358994,
                -1.1639711569517215,
                1.8685948839055153,
                -1.0537358662641152,
                0.2534808684432732,
                -2.2920669320857696
            ]
        },
        {
            "positions": [
                -0.0023797397910486837,
                -1.1232333025936856,
                1.8657588477402536,
                -1.0237663132077541,
                0.18030738225695464,
                -2.4815649242351787
            ]
        },
        {
            "positions": [
                0.0290356500168844,
                -1.127922261476959,
                1.8936761148751884,
                -0.9724325918668965,
                0.16606428280770397,
                -2.6524905235082366
            ]
        },
        {
            "positions": [
                0.06045103982481748,
                -1.1326112203602328,
                1.9215933820101232,
                -0.9210988705260388,
                0.15182118335845332,
                -2.8234161227812944
            ]
        },
        {
            "positions": [
                0.09186642963275057,
                -1.1373001792435065,
                1.9495106491450578,
                -0.8697651491851811,
                0.13757808390920265,
                -2.994341722054352
            ]
        },
        {
            "positions": [
                0.12328181944068364,
                -1.14198913812678,
                1.9774279162799926,
                -0.8184314278443234,
                0.12333498445995199,
                -3.1652673213274096
            ]
        }
    ]
}