{
    "goal": {
        "global_pose": {
            "orientation": {
                "w": 0.7047431468963623,
                "x": -0.7094548344612122,
                "y": 0.0024358443915843964,
                "z": -0.0022348060738295317
            },
            "position": {
                "x": 0.6094750761985779,
                "y": 0.3671506643295288,
                "z": 0.19426114857196808
            }
        },
        "name": "move_to_magneteinheit_A"
    },
    "id": "BiTRRT_move_to_magneteinheit_A_53",
    "joint_names": [
        "shoulder_pan_joint",
        "shoulder_lift_joint",
        "elbow_joint",
        "wrist_1_joint",
        "wrist_2_joint",
        "wrist_3_joint"
    ],
    "metrics": {
        "cart_traj_len": 3.545618116361385,
        "distance_elbow_joint": 3.946246300061616,
        "distance_shoulder_lift_joint": 0.188397698043135,
        "distance_shoulder_pan_joint": 2.7451953664058815,
        "distance_wrist_1_joint": 1.5397045811825243,
        "distance_wrist_2_joint": 1.7789457685506802,
        "distance_wrist_3_joint": 3.568636790750893,
        "smoothness": 0.2119114831736811,
        "time": 0.141960707,
        "traj_len": 3.7104078623508125,
        "weighted_distance": 4.921691826621179
    },
    "planner": "BiTRRT",
    "start": {
        "state": {
            "elbow_joint": -1.919618573717145,
            "shoulder_lift_joint": -1.2443395971678275,
            "shoulder_pan_joint": 2.6996025300909787,
            "wrist_1_joint": -1.548550951253194,
            "wrist_2_joint": -1.5709469090946802,
            "wrist_3_joint": 0.4420197732051276
        }
    },
    "waypoints": [
        {
            "positions": [
                2.6996025300909787,
                -1.2443395971678275,
                -1.919618573717145,
                -1.548550951253194,
                -1.5709469090946802,
                0.4420197732051276
            ]
        },
        {
            "positions": [
                2.604953455912961,
                -1.2404887661499078,
                -1.806821050396862,
                -1.5076110026205403,
                -1.5097298254000877,
                0.36424693162090893
            ]
        },
        {
            "positions": [
                2.5103043817349424,
                -1.2366379351319878,
                -1.6940235270765793,
                -1.4666710539878864,
                -1.4485127417054953,
                0.28647409003669033
            ]
        },
        {
            "positions": [
                2.4156553075569245,
                -1.232787104114068,
                -1.5812260037562964,
                -1.4257311053552326,
                -1.387295658010903,
                0.20870124845247168
            ]
        },
        {
            "positions": [
                2.3210062333789065,
                -1.2289362730961484,
                -1.4684284804360135,
                -1.3847911567225788,
                -1.3260785743163106,
                0.13092840686825302
            ]
        },
        {
            "positions": [
                2.2263571592008886,
                -1.2250854420782287,
                -1.3556309571157308,
                -1.3438512080899248,
                -1.2648614906217182,
                0.05315556528403437
            ]
        },
        {
            "positions": [
                2.1317080850228702,
                -1.2212346110603087,
                -1.2428334337954476,
                -1.302911259457271,
                -1.2036444069271257,
                -0.024617276300184232
            ]
        },
        {
            "positions": [
                2.0370590108448523,
                -1.217383780042389,
                -1.130035910475165,
                -1.261971310824617,
                -1.1424273232325333,
                -0.10239011788440294
            ]
        },
        {
            "positions": [
                1.9424099366668344,
                -1.2135329490244693,
                -1.0172383871548822,
                -1.2210313621919633,
                -1.081210239537941,
                -0.18016295946862154
            ]
        },
        {
            "positions": [
                1.8477608624888162,
                -1.2096821180065496,
                -0.9044408638345993,
                -1.1800914135593095,
                -1.0199931558433486,
                -0.25793580105284014
            ]
        },
        {
            "positions": [
                1.753111788310798,
                -1.2058312869886296,
                -0.7916433405143164,
                -1.1391514649266556,
                -0.9587760721487562,
                -0.33570864263705885
            ]
        },
        {
            "positions": [
                1.6584627141327801,
                -1.20198045597071,
                -0.6788458171940335,
                -1.0982115162940018,
                -0.8975589884541637,
                -0.41348148422127745
            ]
        },
        {
            "positions": [
                1.563813639954762,
                -1.1981296249527902,
                -0.5660482938737506,
                -1.057271567661348,
                -0.8363419047595714,
                -0.49125432580549605
            ]
        },
        {
            "positions": [
                1.469164565776744,
                -1.1942787939348705,
                -0.45325077055346785,
                -1.0163316190286942,
                -0.7751248210649789,
                -0.5690271673897147
            ]
        },
        {
            "positions": [
                1.3745154915987259,
                -1.1904279629169505,
                -0.34045324723318493,
                -0.9753916703960402,
                -0.7139077373703866,
                -0.6468000089739334
            ]
        },
        {
            "positions": [
                1.2798664174207077,
                -1.1865771318990308,
                -0.227655723912902,
                -0.9344517217633863,
                -0.652690653675794,
                -0.7245728505581521
            ]
        },
        {
            "positions": [
                1.1852173432426898,
                -1.182726300881111,
                -0.11485820059261931,
                -0.8935117731307326,
                -0.5914735699812017,
                -0.8023456921423706
            ]
        },
        {
            "positions": [
                1.0905682690646716,
                -1.1788754698631914,
                -0.0020606772723361644,
                -0.8525718244980787,
                -0.5302564862866093,
                -0.8801185337265893
            ]
        },
        {
            "positions": [
                0.9959191948866537,
                -1.1750246388452714,
                0.11073684604794631,
                -0.8116318758654248,
                -0.46903940259201704,
                -0.9578913753108078
            ]
        },
        {
            "positions": [
                0.9012701207086355,
                -1.1711738078273517,
                0.22353436936822946,
                -0.770691927232771,
                -0.4078223188974244,
                -1.0356642168950267
            ]
        },
        {
            "positions": [
                0.8066210465306176,
                -1.167322976809432,
                0.33633189268851216,
                -0.7297519786001172,
                -0.34660523520283215,
                -1.1134370584792452
            ]
        },
        {
            "positions": [
                0.7119719723525992,
                -1.1634721457915123,
                0.4491294160087953,
                -0.6888120299674633,
                -0.2853881515082397,
                -1.191209900063464
            ]
        },
        {
            "positions": [
                0.6173228981745815,
                -1.1596213147735923,
                0.561926939329078,
                -0.6478720813348096,
                -0.22417106781364726,
                -1.2689827416476824
            ]
        },
        {
            "positions": [
                0.5226738239965631,
                -1.1557704837556726,
                0.6747244626493611,
                -0.6069321327021556,
                -0.16295398411905482,
                -1.3467555832319011
            ]
        },
        {
            "positions": [
                0.4280247498185452,
                -1.1519196527377529,
                0.7875219859696438,
                -0.5659921840695018,
                -0.1017369004244626,
                -1.4245284248161196
            ]
        },
        {
            "positions": [
                0.3333756756405273,
                -1.148068821719833,
                0.9003195092899265,
                -0.5250522354368479,
                -0.04051981672987015,
                -1.5023012664003386
            ]
        },
        {
            "positions": [
                0.23872660146250935,
                -1.1442179907019132,
                1.0131170326102092,
                -0.48411228680419405,
                0.020697266964722294,
                -1.580074107984557
            ]
        },
        {
            "positions": [
                0.14407752728449102,
                -1.1403671596839935,
                1.1259145559304924,
                -0.44317233817154034,
                0.08191435065931477,
                -1.6578469495687758
            ]
        },
        {
            "positions": [
                0.12896436972620964,
                -1.1348193817864127,
                1.251791238409704,
                -0.5038823886124808,
                0.07602753623975822,
                -1.7965408170630481
            ]
        },
        {
            "positions": [
                0.11385121216792828,
                -1.1292716038888322,
                1.3776679208889158,
                -0.5645924390534213,
                0.07014072182020166,
                -1.9352346845573205
            ]
        },
        {
            "positions": [
                0.09873805460964691,
                -1.1237238259912514,
                1.5035446033681275,
                -0.6253024894943617,
                0.0642539074006451,
                -2.073928552051593
            ]
        },
        {
            "positions": [
                0.08362489705136553,
                -1.1181760480936709,
                1.6294212858473394,
                -0.6860125399353022,
                0.05836709298108855,
                -2.2126224195458652
            ]
        },
        {
            "positions": [
                0.06851173949308415,
                -1.1126282701960901,
                1.755297968326551,
                -0.7467225903762427,
                0.052480278561532,
                -2.3513162870401376
            ]
        },
        {
            "positions": [
                0.05339858193480278,
                -1.1070804922985096,
                1.8811746508057627,
                -0.8074326408171831,
                0.046593464141975446,
                -2.49001015453441
            ]
        },
        {
            "positions": [
                0.038285424376521396,
                -1.1015327144009288,
                2.0070513332849744,
                -0.8681426912581236,
                0.04070664972241889,
                -2.6287040220286824
            ]
        },
        {
            "positions": [
                0.08022455472223308,
                -1.124328122039047,
                1.9972631367552258,
                -0.8634648837509804,
                0.08314505365231364,
                -2.8776605197872236
            ]
        },
        {
            "positions": [
                0.12216368506794478,
                -1.1471235296771651,
                1.9874749402254772,
                -0.8587870762438373,
                0.12558345758220837,
                -3.1266170175457653
            ]
        }
    ]
}{
    "goal": {
        "global_pose": {
            "orientation": {
                "w": 0.7047431468963623,
                "x": -0.7094548344612122,
                "y": 0.0024358443915843964,
                "z": -0.0022348060738295317
            },
            "position": {
                "x": 0.6094750761985779,
                "y": 0.3671506643295288,
                "z": 0.19426114857196808
            }
        },
        "name": "move_to_magneteinheit_A"
    },
    "id": "BiTRRT_move_to_magneteinheit_A_53",
    "joint_names": [
        "shoulder_pan_joint",
        "shoulder_lift_joint",
        "elbow_joint",
        "wrist_1_joint",
        "wrist_2_joint",
        "wrist_3_joint"
    ],
    "metrics": {
        "cart_traj_len": 1.2500871924384962,
        "distance_elbow_joint": 0.06982094309963216,
        "distance_shoulder_lift_joint": 1.1220999903097415,
        "distance_shoulder_pan_joint": 1.2414044917461549,
        "distance_wrist_1_joint": 3.5000599665673193,
        "distance_wrist_2_joint": 1.6943611155291995,
        "distance_wrist_3_joint": 1.101121280550315,
        "smoothness": 2.960594755776647e-16,
        "time": 0.07051238600000001,
        "traj_len": 2.9544657364407465,
        "weighted_distance": 4.015660771404815
    },
    "planner": "BiTRRT",
    "start": {
        "state": {
            "elbow_joint": 1.919643534880228,
            "shoulder_lift_joint": -1.8972525353963687,
            "shoulder_pan_joint": -1.1188672234189438,
            "wrist_1_joint": -1.5931878212786155,
            "wrist_2_joint": 1.5706036197970081,
            "wrist_3_joint": 1.118896926603594
        }
    },
    "waypoints": [
        {
            "positions": [
                -1.1188672234189438,
                -1.8972525353963687,
                1.919643534880228,
                -1.5931878212786155,
                1.5706036197970081,
                1.118896926603594
            ]
        },
        {
            "positions": [
                -1.0648931150821546,
                -1.8484655792959452,
                1.922679228058473,
                -1.4410113009930798,
                1.4969357452087821,
                1.0710220883187977
            ]
        },
        {
            "positions": [
                -1.010919006745365,
                -1.7996786231955217,
                1.925714921236718,
                -1.2888347807075442,
                1.423267870620556,
                1.0231472500340013
            ]
        },
        {
            "positions": [
                -0.9569448984085758,
                -1.750891667095098,
                1.9287506144149626,
                -1.1366582604220086,
                1.34959999603233,
                0.9752724117492051
            ]
        },
        {
            "positions": [
                -0.9029707900717865,
                -1.7021047109946745,
                1.9317863075932076,
                -0.984481740136473,
                1.275932121444104,
                0.9273975734644088
            ]
        },
        {
            "positions": [
                -0.8489966817349972,
                -1.653317754894251,
                1.9348220007714525,
                -0.8323052198509374,
                1.2022642468558777,
                0.8795227351796124
            ]
        },
        {
            "positions": [
                -0.7950225733982078,
                -1.6045307987938275,
                1.9378576939496974,
                -0.6801286995654018,
                1.1285963722676517,
                0.8316478968948162
            ]
        },
        {
            "positions": [
                -0.7410484650614184,
                -1.555743842693404,
                1.9408933871279421,
                -0.527952179279866,
                1.0549284976794255,
                0.7837730586100198
            ]
        },
        {
            "positions": [
                -0.6870743567246291,
                -1.5069568865929803,
                1.943929080306187,
                -0.37577565899433063,
                0.9812606230911997,
                0.7358982203252236
            ]
        },
        {
            "positions": [
                -0.6331002483878397,
                -1.4581699304925568,
                1.946964773484432,
                -0.22359913870879478,
                0.9075927485029734,
                0.6880233820404272
            ]
        },
        {
            "positions": [
                -0.5791261400510505,
                -1.4093829743921333,
                1.950000466662677,
                -0.07142261842325937,
                0.8339248739147475,
                0.6401485437556309
            ]
        },
        {
            "positions": [
                -0.5251520317142611,
                -1.3605960182917096,
                1.9530361598409218,
                0.08075390186227649,
                0.7602569993265214,
                0.5922737054708346
            ]
        },
        {
            "positions": [
                -0.4711779233774718,
                -1.3118090621912861,
                1.9560718530191665,
                0.2329304221478119,
                0.6865891247382954,
                0.5443988671860384
            ]
        },
        {
            "positions": [
                -0.4172038150406825,
                -1.2630221060908626,
                1.9591075461974115,
                0.38510694243334753,
                0.6129212501500694,
                0.49652402890124203
            ]
        },
        {
            "positions": [
                -0.363229706703893,
                -1.2142351499904391,
                1.9621432393756564,
                0.5372834627188834,
                0.5392533755618432,
                0.4486491906164457
            ]
        },
        {
            "positions": [
                -0.3092555983671037,
                -1.1654481938900156,
                1.9651789325539013,
                0.6894599830044188,
                0.4655855009736172,
                0.4007743523316494
            ]
        },
        {
            "positions": [
                -0.2552814900303144,
                -1.1166612377895921,
                1.9682146257321462,
                0.8416365032899542,
                0.3919176263853912,
                0.35289951404685316
            ]
        },
        {
            "positions": [
                -0.20130738169352513,
                -1.0678742816891686,
                1.971250318910391,
                0.9938130235754901,
                0.31824975179716497,
                0.30502467576205683
            ]
        },
        {
            "positions": [
                -0.14733327335673563,
                -1.019087325588745,
                1.9742860120886359,
                1.145989543861026,
                0.24458187720893876,
                0.2571498374772605
            ]
        },
        {
            "positions": [
                -0.09335916501994634,
                -0.9703003694883214,
                1.9773217052668808,
                1.2981660641465613,
                0.17091400262071277,
                0.20927499919246417
            ]
        },
        {
            "positions": [
                -0.03938505668315706,
                -0.9215134133878979,
                1.9803573984451257,
                1.4503425844320967,
                0.09724612803248678,
                0.16140016090766796
            ]
        },
        {
            "positions": [
                0.014589051653632223,
                -0.8727264572874744,
                1.9833930916233704,
                1.6025191047176326,
                0.02357825344426079,
                0.11352532262287163
            ]
        },
        {
            "positions": [
                0.06856315999042173,
                -0.8239395011870507,
                1.9864287848016153,
                1.7546956250031684,
                -0.050089621143965424,
                0.06565048433807519
            ]
        },
        {
            "positions": [
                0.12253726832721094,
                -0.7751525450866272,
                1.9894644779798603,
                1.9068721452887039,
                -0.12375749573219139,
                0.017775646053278964
            ]
        }
    ]
}