{
    "goal": {
        "global_pose": {
            "orientation": {
                "w": 0.5084816217422485,
                "x": -0.49083608388900757,
                "y": 0.5182115435600281,
                "z": -0.4816462993621826
            },
            "position": {
                "x": 0.5540239810943604,
                "y": 0.030875300988554955,
                "z": 0.16403168439865112
            }
        },
        "name": "move_to_storage_A"
    },
    "id": "BiTRRT_move_to_storage_A_118",
    "joint_names": [
        "shoulder_pan_joint",
        "shoulder_lift_joint",
        "elbow_joint",
        "wrist_1_joint",
        "wrist_2_joint",
        "wrist_3_joint"
    ],
    "metrics": {
        "cart_traj_len": 0.352981562281255,
        "distance_elbow_joint": 0.44951636998987343,
        "distance_shoulder_lift_joint": 0.23474643354867464,
        "distance_shoulder_pan_joint": 0.4629637097169255,
        "distance_wrist_1_joint": 0.24280676490927522,
        "distance_wrist_2_joint": 1.092502159250916,
        "distance_wrist_3_joint": 0.1039822329834057,
        "smoothness": 8.881784197001252e-16,
        "time": 0.030233512000000004,
        "traj_len": 1.6082654228699536,
        "weighted_distance": 2.032188736443068
    },
    "planner": "BiTRRT",
    "start": {
        "state": {
            "elbow_joint": 1.9715477243005601,
            "shoulder_lift_joint": -1.1394853015351272,
            "shoulder_pan_joint": 0.12281154014795169,
            "wrist_1_joint": -0.7804696478968182,
            "wrist_2_joint": 0.12958648046900423,
            "wrist_3_joint": -3.192491284697111
        }
    },
    "waypoints": [
        {
            "positions": [
                0.12281154014795169,
                -1.1394853015351272,
                1.9715477243005601,
                -0.7804696478968182,
                0.12958648046900423,
                -3.192491284697111
            ]
        },
        {
            "positions": [
                0.056673867331248046,
                -1.173020506327795,
                2.0357643485848276,
                -0.8151563285981432,
                0.2856582175048494,
                -3.1776366799851963
            ]
        },
        {
            "positions": [
                -0.009463805485455598,
                -1.2065557111204628,
                2.0999809728690955,
                -0.8498430092994682,
                0.4417299545406945,
                -3.162782075273281
            ]
        },
        {
            "positions": [
                -0.07560147830215923,
                -1.2400909159131306,
                2.164197597153363,
                -0.8845296900007933,
                0.5978016915765396,
                -3.147927470561366
            ]
        },
        {
            "positions": [
                -0.14173915111886287,
                -1.2736261207057984,
                2.228414221437631,
                -0.9192163707021183,
                0.7538734286123848,
                -3.1330728658494507
            ]
        },
        {
            "positions": [
                -0.20787682393556656,
                -1.3071613254984662,
                2.2926308457218982,
                -0.9539030514034433,
                0.90994516564823,
                -3.1182182611375358
            ]
        },
        {
            "positions": [
                -0.27401449675227013,
                -1.340696530291134,
                2.3568474700061657,
                -0.9885897321047683,
                1.0660169026840751,
                -3.1033636564256204
            ]
        },
        {
            "positions": [
                -0.3401521695689738,
                -1.3742317350838018,
                2.4210640942904336,
                -1.0232764128060934,
                1.2220886397199204,
                -3.0885090517137055
            ]
        }
    ]
}