{
    "goal": {
        "global_pose": {
            "orientation": {
                "w": 0.7047431468963623,
                "x": -0.7094548344612122,
                "y": 0.0024358443915843964,
                "z": -0.0022348060738295317
            },
            "position": {
                "x": 0.6094750761985779,
                "y": 0.3671506643295288,
                "z": 0.19426114857196808
            }
        },
        "name": "move_to_magneteinheit_A"
    },
    "id": "BiTRRT_move_to_magneteinheit_A_144",
    "joint_names": [
        "shoulder_pan_joint",
        "shoulder_lift_joint",
        "elbow_joint",
        "wrist_1_joint",
        "wrist_2_joint",
        "wrist_3_joint"
    ],
    "metrics": {
        "cart_traj_len": 3.264693409742493,
        "distance_elbow_joint": 3.9079240601293455,
        "distance_shoulder_lift_joint": 0.4811011363330747,
        "distance_shoulder_pan_joint": 2.781182012376941,
        "distance_wrist_1_joint": 3.4640413872170086,
        "distance_wrist_2_joint": 1.637809958897857,
        "distance_wrist_3_joint": 0.6182258084621449,
        "smoothness": 0.20145986536656085,
        "time": 0.0954854,
        "traj_len": 3.5903042159984673,
        "weighted_distance": 4.3850413141104525
    },
    "planner": "BiTRRT",
    "start": {
        "state": {
            "elbow_joint": -1.919618573717145,
            "shoulder_lift_joint": -1.2443395971678275,
            "shoulder_pan_joint": 2.6996025300909787,
            "wrist_1_joint": -1.548550951253194,
            "wrist_2_joint": -1.5709469090946802,
            "wrist_3_joint": 0.4420197732051276
        }
    },
    "waypoints": [
        {
            "positions": [
                2.6996025300909787,
                -1.2443395971678275,
                -1.919618573717145,
                -1.548550951253194,
                -1.5709469090946802,
                0.4420197732051276
            ]
        },
        {
            "positions": [
                2.5927263777500977,
                -1.2279753293014524,
                -1.818195338872568,
                -1.4451066454848713,
                -1.5146025730872315,
                0.430979347014737
            ]
        },
        {
            "positions": [
                2.4858502254092167,
                -1.2116110614350772,
                -1.716772104027991,
                -1.3416623397165488,
                -1.4582582370797827,
                0.4199389208243465
            ]
        },
        {
            "positions": [
                2.3789740730683357,
                -1.1952467935687021,
                -1.6153488691834141,
                -1.238218033948226,
                -1.401913901072334,
                0.4088984946339559
            ]
        },
        {
            "positions": [
                2.2720979207274548,
                -1.178882525702327,
                -1.5139256343388374,
                -1.1347737281799035,
                -1.3455695650648851,
                0.3978580684435653
            ]
        },
        {
            "positions": [
                2.1652217683865738,
                -1.1625182578359519,
                -1.4125023994942603,
                -1.0313294224115808,
                -1.2892252290574364,
                0.3868176422531747
            ]
        },
        {
            "positions": [
                2.0583456160456928,
                -1.1461539899695765,
                -1.3110791646496835,
                -0.9278851166432581,
                -1.2328808930499877,
                0.37577721606278414
            ]
        },
        {
            "positions": [
                1.9514694637048118,
                -1.1297897221032014,
                -1.2096559298051064,
                -0.8244408108749355,
                -1.176536557042539,
                0.3647367898723936
            ]
        },
        {
            "positions": [
                1.8445933113639308,
                -1.1134254542368263,
                -1.1082326949605297,
                -0.7209965051066128,
                -1.1201922210350903,
                0.353696363682003
            ]
        },
        {
            "positions": [
                1.7377171590230498,
                -1.0970611863704511,
                -1.0068094601159527,
                -0.6175521993382901,
                -1.0638478850276414,
                0.34265593749161244
            ]
        },
        {
            "positions": [
                1.6308410066821688,
                -1.080696918504076,
                -0.9053862252713758,
                -0.5141078935699674,
                -1.0075035490201927,
                0.3316155113012219
            ]
        },
        {
            "positions": [
                1.5239648543412878,
                -1.0643326506377009,
                -0.8039629904267989,
                -0.4106635878016449,
                -0.951159213012744,
                0.3205750851108313
            ]
        },
        {
            "positions": [
                1.4170887020004068,
                -1.0479683827713258,
                -0.7025397555822221,
                -0.30721928203332216,
                -0.8948148770052953,
                0.30953465892044074
            ]
        },
        {
            "positions": [
                1.3102125496595258,
                -1.0316041149049506,
                -0.6011165207376452,
                -0.20377497626499963,
                -0.8384705409978466,
                0.29849423273005016
            ]
        },
        {
            "positions": [
                1.2033363973186448,
                -1.0152398470385755,
                -0.49969328589306805,
                -0.10033067049667688,
                -0.7821262049903978,
                0.2874538065396596
            ]
        },
        {
            "positions": [
                1.0964602449777638,
                -0.9988755791722003,
                -0.39827005104849134,
                0.003113635271645876,
                -0.725781868982949,
                0.27641338034926904
            ]
        },
        {
            "positions": [
                0.9895840926368829,
                -0.9825113113058253,
                -0.2968468162039144,
                0.1065579410399684,
                -0.6694375329755003,
                0.2653729541588785
            ]
        },
        {
            "positions": [
                0.8827079402960021,
                -0.96614704343945,
                -0.19542358135933768,
                0.21000224680829094,
                -0.6130931969680516,
                0.25433252796848793
            ]
        },
        {
            "positions": [
                0.7758317879551209,
                -0.9497827755730749,
                -0.09400034651476052,
                0.3134465525766139,
                -0.5567488609606028,
                0.24329210177809732
            ]
        },
        {
            "positions": [
                0.6689556356142399,
                -0.9334185077066997,
                0.007422888329816413,
                0.41689085834493644,
                -0.5004045249531541,
                0.23225167558770676
            ]
        },
        {
            "positions": [
                0.5620794832733589,
                -0.9170542398403245,
                0.10884612317439335,
                0.5203351641132592,
                -0.4440601889457054,
                0.2212112493973162
            ]
        },
        {
            "positions": [
                0.4552033309324779,
                -0.9006899719739494,
                0.21026935801897007,
                0.6237794698815815,
                -0.3877158529382567,
                0.21017082320692562
            ]
        },
        {
            "positions": [
                0.3483271785915969,
                -0.8843257041075743,
                0.3116925928635472,
                0.7272237756499043,
                -0.3313715169308078,
                0.19913039701653504
            ]
        },
        {
            "positions": [
                0.24145102625071602,
                -0.8679614362411991,
                0.4131158277081241,
                0.8306680814182268,
                -0.2750271809233591,
                0.18808997082614448
            ]
        },
        {
            "positions": [
                0.20989767547790422,
                -0.8543817332735477,
                0.5483877822688179,
                0.9518509233036744,
                -0.23951349665671046,
                0.14934736187518483
            ]
        },
        {
            "positions": [
                0.17834432470509243,
                -0.8408020303058964,
                0.6836597368295116,
                1.073033765189122,
                -0.20399981239006182,
                0.11060475292422518
            ]
        },
        {
            "positions": [
                0.14679097393228066,
                -0.827222327338245,
                0.8189316913902054,
                1.1942166070745694,
                -0.1684861281234132,
                0.07186214397326554
            ]
        },
        {
            "positions": [
                0.11523762315946887,
                -0.8136426243705935,
                0.9542036459508991,
                1.315399448960017,
                -0.13297244385676457,
                0.033119535022305885
            ]
        },
        {
            "positions": [
                0.08368427238665707,
                -0.8000629214029421,
                1.089475600511593,
                1.4365822908454646,
                -0.09745875959011593,
                -0.005623073928653771
            ]
        },
        {
            "positions": [
                0.052130921613845305,
                -0.7864832184352908,
                1.2247475550722866,
                1.5577651327309123,
                -0.061945075323467325,
                -0.0443656828796134
            ]
        },
        {
            "positions": [
                0.02057757084103352,
                -0.7729035154676394,
                1.3600195096329806,
                1.6789479746163598,
                -0.026431391056818687,
                -0.08310829183057306
            ]
        },
        {
            "positions": [
                0.0481557600043237,
                -0.7746830485247983,
                1.5315856241040948,
                1.750714719331254,
                -0.0531688350039896,
                -0.06882932872691047
            ]
        },
        {
            "positions": [
                0.07573394916761389,
                -0.7764625815819571,
                1.703151738575209,
                1.822481464046148,
                -0.07990627895116051,
                -0.05455036562324789
            ]
        },
        {
            "positions": [
                0.10331213833090408,
                -0.7782421146391161,
                1.8747178530463235,
                1.8942482087610422,
                -0.10664372289833142,
                -0.0402714025195853
            ]
        },
        {
            "positions": [
                0.12273462396802932,
                -0.7739156591777062,
                1.9883054864122005,
                1.9154904359638136,
                -0.1197258319168147,
                0.009989451595871173
            ]
        }
    ]
}{
    "goal": {
        "global_pose": {
            "orientation": {
                "w": 0.7047431468963623,
                "x": -0.7094548344612122,
                "y": 0.0024358443915843964,
                "z": -0.0022348060738295317
            },
            "position": {
                "x": 0.6094750761985779,
                "y": 0.3671506643295288,
                "z": 0.19426114857196808
            }
        },
        "name": "move_to_magneteinheit_A"
    },
    "id": "BiTRRT_move_to_magneteinheit_A_144",
    "joint_names": [
        "shoulder_pan_joint",
        "shoulder_lift_joint",
        "elbow_joint",
        "wrist_1_joint",
        "wrist_2_joint",
        "wrist_3_joint"
    ],
    "metrics": {
        "cart_traj_len": 1.4958175964977996,
        "distance_elbow_joint": 0.7016349160265762,
        "distance_shoulder_lift_joint": 1.2128153908306192,
        "distance_shoulder_pan_joint": 1.2413063333256134,
        "distance_wrist_1_joint": 0.8248719019424661,
        "distance_wrist_2_joint": 1.4424277073333576,
        "distance_wrist_3_joint": 4.3245049842184144,
        "smoothness": 0.21222046923851412,
        "time": 0.10322481,
        "traj_len": 3.122108459627411,
        "weighted_distance": 4.54575305217845
    },
    "planner": "BiTRRT",
    "start": {
        "state": {
            "elbow_joint": 1.919643534880228,
            "shoulder_lift_joint": -1.8972525353963687,
            "shoulder_pan_joint": -1.1188672234189438,
            "wrist_1_joint": -1.5931878212786155,
            "wrist_2_joint": 1.5706036197970081,
            "wrist_3_joint": 1.118896926603594
        }
    },
    "waypoints": [
        {
            "positions": [
                -1.1188672234189438,
                -1.8972525353963687,
                1.919643534880228,
                -1.5931878212786155,
                1.5706036197970081,
                1.118896926603594
            ]
        },
        {
            "positions": [
                -1.0730704200104992,
                -1.8502682296895947,
                1.9040820219719865,
                -1.5657164984382426,
                1.5031987299285077,
                0.9338721760854208
            ]
        },
        {
            "positions": [
                -1.0272736166020544,
                -1.8032839239828207,
                1.888520509063745,
                -1.5382451755978694,
                1.4357938400600074,
                0.7488474255672477
            ]
        },
        {
            "positions": [
                -0.9814768131936098,
                -1.7562996182760466,
                1.8729589961555033,
                -1.5107738527574965,
                1.3683889501915072,
                0.5638226750490747
            ]
        },
        {
            "positions": [
                -0.9356800097851651,
                -1.7093153125692726,
                1.8573974832472617,
                -1.4833025299171234,
                1.3009840603230067,
                0.37879792453090155
            ]
        },
        {
            "positions": [
                -0.8898832063767204,
                -1.6623310068624986,
                1.8418359703390201,
                -1.4558312070767505,
                1.2335791704545063,
                0.19377317401272842
            ]
        },
        {
            "positions": [
                -0.8440864029682758,
                -1.6153467011557248,
                1.8262744574307785,
                -1.4283598842363774,
                1.166174280586006,
                0.008748423494555402
            ]
        },
        {
            "positions": [
                -0.798289599559831,
                -1.5683623954489505,
                1.810712944522537,
                -1.4008885613960045,
                1.0987693907175058,
                -0.17627632702361784
            ]
        },
        {
            "positions": [
                -0.7524927961513863,
                -1.5213780897421767,
                1.7951514316142954,
                -1.3734172385556316,
                1.0313645008490053,
                -0.36130107754179086
            ]
        },
        {
            "positions": [
                -0.7066959927429417,
                -1.4743937840354027,
                1.7795899187060538,
                -1.3459459157152585,
                0.963959610980505,
                -0.5463258280599639
            ]
        },
        {
            "positions": [
                -0.6608991893344969,
                -1.4274094783286286,
                1.7640284057978122,
                -1.3184745928748856,
                0.8965547211120046,
                -0.7313505785781371
            ]
        },
        {
            "positions": [
                -0.6151023859260522,
                -1.3804251726218544,
                1.7484668928895704,
                -1.2910032700345124,
                0.8291498312435042,
                -0.9163753290963104
            ]
        },
        {
            "positions": [
                -0.5693055825176075,
                -1.3334408669150806,
                1.7329053799813288,
                -1.2635319471941395,
                0.7617449413750039,
                -1.1014000796144832
            ]
        },
        {
            "positions": [
                -0.5235087791091628,
                -1.2864565612083065,
                1.7173438670730872,
                -1.2360606243537664,
                0.6943400515065035,
                -1.2864248301326564
            ]
        },
        {
            "positions": [
                -0.4777119757007182,
                -1.2394722555015325,
                1.7017823541648456,
                -1.2085893015133935,
                0.6269351616380032,
                -1.4714495806508296
            ]
        },
        {
            "positions": [
                -0.4319151722922734,
                -1.1924879497947585,
                1.686220841256604,
                -1.1811179786730204,
                0.5595302717695028,
                -1.656474331169003
            ]
        },
        {
            "positions": [
                -0.3861183688838288,
                -1.1455036440879844,
                1.6706593283483624,
                -1.1536466558326475,
                0.4921253819010025,
                -1.8414990816871757
            ]
        },
        {
            "positions": [
                -0.34032156547538406,
                -1.0985193383812104,
                1.6550978154401208,
                -1.1261753329922746,
                0.42472049203250206,
                -2.026523832205349
            ]
        },
        {
            "positions": [
                -0.29452476206693945,
                -1.0515350326744364,
                1.6395363025318792,
                -1.0987040101519017,
                0.3573156021640018,
                -2.2115485827235215
            ]
        },
        {
            "positions": [
                -0.24872795865849462,
                -1.0045507269676626,
                1.6239747896236376,
                -1.0712326873115285,
                0.28991071229550136,
                -2.3965733332416956
            ]
        },
        {
            "positions": [
                -0.20293115525005,
                -0.9575664212608884,
                1.608413276715396,
                -1.0437613644711554,
                0.22250582242700112,
                -2.581598083759868
            ]
        },
        {
            "positions": [
                -0.15713435184160535,
                -0.9105821155541144,
                1.5928517638071544,
                -1.0162900416307825,
                0.15510093255850066,
                -2.7666228342780412
            ]
        },
        {
            "positions": [
                -0.10121965949195047,
                -0.9558111097517874,
                1.667820392797855,
                -0.9666952171718559,
                0.14971592853953072,
                -2.854419878945397
            ]
        },
        {
            "positions": [
                -0.04530496714229558,
                -1.0010401039494603,
                1.7427890217885555,
                -0.9171003927129293,
                0.1443309245205608,
                -2.9422169236127527
            ]
        },
        {
            "positions": [
                0.010609725207359283,
                -1.0462690981471332,
                1.8177576507792559,
                -0.8675055682540027,
                0.13894592050159085,
                -3.0300139682801084
            ]
        },
        {
            "positions": [
                0.06652441755701419,
                -1.0914980923448063,
                1.8927262797699564,
                -0.817910743795076,
                0.13356091648262092,
                -3.117811012947464
            ]
        },
        {
            "positions": [
                0.12243910990666905,
                -1.1367270865424792,
                1.967694908760657,
                -0.7683159193361494,
                0.12817591246365098,
                -3.20560805761482
            ]
        }
    ]
}