{
    "goal": {
        "global_pose": {
            "orientation": {
                "w": 0.7047431468963623,
                "x": -0.7094548344612122,
                "y": 0.0024358443915843964,
                "z": -0.0022348060738295317
            },
            "position": {
                "x": 0.6094750761985779,
                "y": 0.3671506643295288,
                "z": 0.19426114857196808
            }
        },
        "name": "move_to_magneteinheit_A"
    },
    "id": "BiTRRT_move_to_magneteinheit_A_63",
    "joint_names": [
        "shoulder_pan_joint",
        "shoulder_lift_joint",
        "elbow_joint",
        "wrist_1_joint",
        "wrist_2_joint",
        "wrist_3_joint"
    ],
    "metrics": {
        "cart_traj_len": 3.0409249714253326,
        "distance_elbow_joint": 3.9141453973073164,
        "distance_shoulder_lift_joint": 0.7141277939254215,
        "distance_shoulder_pan_joint": 2.6729046009938817,
        "distance_wrist_1_joint": 3.4720423462120062,
        "distance_wrist_2_joint": 1.4407358483828843,
        "distance_wrist_3_joint": 0.45884070132553584,
        "smoothness": 0.0944359078681105,
        "time": 0.12035079400000001,
        "traj_len": 3.5598871735136552,
        "weighted_distance": 4.3015411523537725
    },
    "planner": "BiTRRT",
    "start": {
        "state": {
            "elbow_joint": -1.919618573717145,
            "shoulder_lift_joint": -1.2443395971678275,
            "shoulder_pan_joint": 2.6996025300909787,
            "wrist_1_joint": -1.548550951253194,
            "wrist_2_joint": -1.5709469090946802,
            "wrist_3_joint": 0.4420197732051276
        }
    },
    "waypoints": [
        {
            "positions": [
                2.6996025300909787,
                -1.2443395971678275,
                -1.919618573717145,
                -1.548550951253194,
                -1.5709469090946802,
                0.4420197732051276
            ]
        },
        {
            "positions": [
                2.577482719430341,
                -1.2132676260620852,
                -1.8640274898660116,
                -1.440368683259755,
                -1.5124031526265052,
                0.42760223120829804
            ]
        },
        {
            "positions": [
                2.4553629087697026,
                -1.1821956549563428,
                -1.8084364060148783,
                -1.332186415266316,
                -1.4538593961583302,
                0.4131846892114685
            ]
        },
        {
            "positions": [
                2.333243098109065,
                -1.1511236838506005,
                -1.752845322163745,
                -1.224004147272877,
                -1.3953156396901552,
                0.39876714721463896
            ]
        },
        {
            "positions": [
                2.2111232874484266,
                -1.1200517127448582,
                -1.6972542383126115,
                -1.115821879279438,
                -1.3367718832219802,
                0.3843496052178094
            ]
        },
        {
            "positions": [
                2.0890034767877887,
                -1.0889797416391158,
                -1.6416631544614781,
                -1.0076396112859993,
                -1.2782281267538051,
                0.3699320632209799
            ]
        },
        {
            "positions": [
                1.9668836661271507,
                -1.0579077705333735,
                -1.5860720706103448,
                -0.8994573432925602,
                -1.2196843702856301,
                0.35551452122415034
            ]
        },
        {
            "positions": [
                1.8447638554665127,
                -1.0268357994276311,
                -1.5304809867592115,
                -0.7912750752991212,
                -1.1611406138174551,
                0.3410969792273208
            ]
        },
        {
            "positions": [
                1.7226440448058749,
                -0.9957638283218888,
                -1.4748899029080782,
                -0.6830928073056822,
                -1.1025968573492801,
                0.32667943723049125
            ]
        },
        {
            "positions": [
                1.6005242341452368,
                -0.9646918572161465,
                -1.4192988190569449,
                -0.5749105393122432,
                -1.0440531008811051,
                0.3122618952336617
            ]
        },
        {
            "positions": [
                1.4784044234845988,
                -0.9336198861104041,
                -1.3637077352058116,
                -0.46672827131880434,
                -0.98550934441293,
                0.29784435323683217
            ]
        },
        {
            "positions": [
                1.3562846128239605,
                -0.9025479150046618,
                -1.308116651354678,
                -0.3585460033253651,
                -0.926965587944755,
                0.28342681124000263
            ]
        },
        {
            "positions": [
                1.2341648021633227,
                -0.8714759438989196,
                -1.252525567503545,
                -0.25036373533192635,
                -0.86842183147658,
                0.2690092692431731
            ]
        },
        {
            "positions": [
                1.1120449915026847,
                -0.8404039727931771,
                -1.1969344836524114,
                -0.14218146733848736,
                -0.8098780750084049,
                0.25459172724634355
            ]
        },
        {
            "positions": [
                0.9899251808420468,
                -0.8093320016874349,
                -1.141343399801278,
                -0.03399919934504836,
                -0.75133431854023,
                0.240174185249514
            ]
        },
        {
            "positions": [
                0.8678053701814086,
                -0.7782600305816925,
                -1.0857523159501445,
                0.07418306864839064,
                -0.6927905620720549,
                0.22575664325268446
            ]
        },
        {
            "positions": [
                0.7456855595207708,
                -0.7471880594759502,
                -1.0301612320990112,
                0.18236533664182963,
                -0.63424680560388,
                0.21133910125585492
            ]
        },
        {
            "positions": [
                0.6235657488601327,
                -0.7161160883702079,
                -0.974570148247878,
                0.29054760463526863,
                -0.5757030491357049,
                0.19692155925902538
            ]
        },
        {
            "positions": [
                0.5014459381994949,
                -0.6850441172644656,
                -0.9189790643967446,
                0.3987298726287076,
                -0.5171592926675299,
                0.18250401726219584
            ]
        },
        {
            "positions": [
                0.3793261275388568,
                -0.6539721461587232,
                -0.8633879805456113,
                0.5069121406221466,
                -0.45861553619935497,
                0.1680864752653663
            ]
        },
        {
            "positions": [
                0.3538869465370325,
                -0.6613894290906978,
                -0.6553705308112181,
                0.616436381833352,
                -0.43137778148590894,
                0.15376337148162034
            ]
        },
        {
            "positions": [
                0.32844776553520827,
                -0.6688067120226724,
                -0.4473530810768249,
                0.7259606230445574,
                -0.40414002677246286,
                0.13944026769787438
            ]
        },
        {
            "positions": [
                0.303008584533384,
                -0.6762239949546469,
                -0.23933563134243174,
                0.8354848642557628,
                -0.37690227205901683,
                0.12511716391412842
            ]
        },
        {
            "positions": [
                0.27756940353155973,
                -0.6836412778866215,
                -0.031318181608038564,
                0.9450091054669683,
                -0.3496645173455708,
                0.11079406013038245
            ]
        },
        {
            "positions": [
                0.25213022252973544,
                -0.6910585608185961,
                0.17669926812635461,
                1.0545333466781737,
                -0.3224267626321247,
                0.09647095634663648
            ]
        },
        {
            "positions": [
                0.22669104152791117,
                -0.6984758437505707,
                0.3847167178607478,
                1.164057587889379,
                -0.2951890079186787,
                0.08214785256289052
            ]
        },
        {
            "positions": [
                0.20125186052608687,
                -0.7058931266825452,
                0.592734167595141,
                1.2735818291005845,
                -0.2679512532052326,
                0.06782474877914454
            ]
        },
        {
            "positions": [
                0.17581267952426263,
                -0.7133104096145197,
                0.8007516173295341,
                1.38310607031179,
                -0.2407134984917866,
                0.0535016449953986
            ]
        },
        {
            "positions": [
                0.15037349852243836,
                -0.7207276925464944,
                1.0087690670639273,
                1.4926303115229953,
                -0.21347574377834055,
                0.03917854121165262
            ]
        },
        {
            "positions": [
                0.12493431752061407,
                -0.7281449754784689,
                1.2167865167983205,
                1.6021545527342007,
                -0.18623798906489447,
                0.024855437427906663
            ]
        },
        {
            "positions": [
                0.09949513651878983,
                -0.7355622584104435,
                1.4248039665327137,
                1.7116787939454061,
                -0.1590002343514485,
                0.010532333644160702
            ]
        },
        {
            "positions": [
                0.07405595551696553,
                -0.7429795413424181,
                1.6328214162671066,
                1.8212030351566115,
                -0.13176247963800242,
                -0.0037907701395852563
            ]
        },
        {
            "positions": [
                0.09181521542441656,
                -0.7560118967421514,
                1.7684609440132562,
                1.8595611700824377,
                -0.13118069754067516,
                0.0010955391032233556
            ]
        },
        {
            "positions": [
                0.1095744753318676,
                -0.7690442521418848,
                1.9041004717594054,
                1.897919305008264,
                -0.1305989154433479,
                0.005981848346031968
            ]
        },
        {
            "positions": [
                0.12141398193683493,
                -0.7777324890750404,
                1.9945268235901716,
                1.9234913949588148,
                -0.13021106071179642,
                0.00923938784123771
            ]
        }
    ]
}{
    "goal": {
        "global_pose": {
            "orientation": {
                "w": 0.7047431468963623,
                "x": -0.7094548344612122,
                "y": 0.0024358443915843964,
                "z": -0.0022348060738295317
            },
            "position": {
                "x": 0.6094750761985779,
                "y": 0.3671506643295288,
                "z": 0.19426114857196808
            }
        },
        "name": "move_to_magneteinheit_A"
    },
    "id": "BiTRRT_move_to_magneteinheit_A_63",
    "joint_names": [
        "shoulder_pan_joint",
        "shoulder_lift_joint",
        "elbow_joint",
        "wrist_1_joint",
        "wrist_2_joint",
        "wrist_3_joint"
    ],
    "metrics": {
        "cart_traj_len": 1.2294122071116262,
        "distance_elbow_joint": 0.07582749756460605,
        "distance_shoulder_lift_joint": 0.7669117090076247,
        "distance_shoulder_pan_joint": 1.2422825985637913,
        "distance_wrist_1_joint": 0.8961323834434683,
        "distance_wrist_2_joint": 1.435210713367485,
        "distance_wrist_3_joint": 4.37261300535004,
        "smoothness": 0.021134592096143965,
        "time": 0.10265887,
        "traj_len": 2.9646210394074006,
        "weighted_distance": 4.457078304765134
    },
    "planner": "BiTRRT",
    "start": {
        "state": {
            "elbow_joint": 1.919643534880228,
            "shoulder_lift_joint": -1.8972525353963687,
            "shoulder_pan_joint": -1.1188672234189438,
            "wrist_1_joint": -1.5931878212786155,
            "wrist_2_joint": 1.5706036197970081,
            "wrist_3_joint": 1.118896926603594
        }
    },
    "waypoints": [
        {
            "positions": [
                -1.1188672234189438,
                -1.8972525353963687,
                1.919643534880228,
                -1.5931878212786155,
                1.5706036197970081,
                1.118896926603594
            ]
        },
        {
            "positions": [
                -1.0654071554938083,
                -1.8625454666444197,
                1.9187357900864395,
                -1.5526913189141955,
                1.5075023721499174,
                0.929904696944508
            ]
        },
        {
            "positions": [
                -1.0119470875686727,
                -1.8278383978924704,
                1.917828045292651,
                -1.5121948165497754,
                1.4444011245028268,
                0.7409124672854219
            ]
        },
        {
            "positions": [
                -0.9584870196435371,
                -1.7931313291405213,
                1.9169203004988624,
                -1.4716983141853555,
                1.381299876855736,
                0.551920237626336
            ]
        },
        {
            "positions": [
                -0.9050269517184015,
                -1.7584242603885722,
                1.916012555705074,
                -1.4312018118209353,
                1.3181986292086454,
                0.36292800796725
            ]
        },
        {
            "positions": [
                -0.851566883793266,
                -1.723717191636623,
                1.9151048109112854,
                -1.3907053094565154,
                1.2550973815615545,
                0.17393577830816398
            ]
        },
        {
            "positions": [
                -0.7981068158681305,
                -1.689010122884674,
                1.9141970661174967,
                -1.3502088070920952,
                1.191996133914464,
                -0.015056451350921929
            ]
        },
        {
            "positions": [
                -0.7446467479429948,
                -1.6543030541327246,
                1.9132893213237083,
                -1.3097123047276753,
                1.128894886267373,
                -0.20404868101000795
            ]
        },
        {
            "positions": [
                -0.6911866800178592,
                -1.6195959853807755,
                1.9123815765299197,
                -1.2692158023632552,
                1.0657936386202824,
                -0.39304091066909397
            ]
        },
        {
            "positions": [
                -0.6377266120927236,
                -1.5848889166288265,
                1.9114738317361313,
                -1.2287192999988352,
                1.0026923909731917,
                -0.5820331403281802
            ]
        },
        {
            "positions": [
                -0.5842665441675882,
                -1.5501818478768774,
                1.9105660869423426,
                -1.188222797634415,
                0.939591143326101,
                -0.771025369987266
            ]
        },
        {
            "positions": [
                -0.5308064762424526,
                -1.5154747791249281,
                1.9096583421485542,
                -1.1477262952699951,
                0.8764898956790104,
                -0.960017599646352
            ]
        },
        {
            "positions": [
                -0.4773464083173171,
                -1.480767710372979,
                1.9087505973547656,
                -1.1072297929055752,
                0.8133886480319197,
                -1.1490098293054378
            ]
        },
        {
            "positions": [
                -0.4238863403921814,
                -1.4460606416210298,
                1.907842852560977,
                -1.066733290541155,
                0.7502874003848289,
                -1.338002058964524
            ]
        },
        {
            "positions": [
                -0.37042627246704585,
                -1.4113535728690807,
                1.9069351077671886,
                -1.026236788176735,
                0.6871861527377383,
                -1.5269942886236099
            ]
        },
        {
            "positions": [
                -0.3169662045419104,
                -1.3766465041171316,
                1.9060273629734,
                -0.9857402858123151,
                0.6240849050906476,
                -1.7159865182826957
            ]
        },
        {
            "positions": [
                -0.2635061366167747,
                -1.3419394353651823,
                1.9051196181796115,
                -0.945243783447895,
                0.5609836574435567,
                -1.904978747941782
            ]
        },
        {
            "positions": [
                -0.21004606869163922,
                -1.3072323666132333,
                1.9042118733858229,
                -0.904747281083475,
                0.49788240979646625,
                -2.0939709776008684
            ]
        },
        {
            "positions": [
                -0.15658600076650353,
                -1.272525297861284,
                1.9033041285920342,
                -0.8642507787190549,
                0.43478116214937534,
                -2.2829632072599546
            ]
        },
        {
            "positions": [
                -0.10312593284136806,
                -1.237818229109335,
                1.9023963837982458,
                -0.8237542763546349,
                0.37167991450228466,
                -2.47195543691904
            ]
        },
        {
            "positions": [
                -0.04966586491623248,
                -1.2031111603573859,
                1.9014886390044572,
                -0.7832577739902149,
                0.308578666855194,
                -2.660947666578126
            ]
        },
        {
            "positions": [
                0.0037942030089030965,
                -1.1684040916054366,
                1.9005808942106688,
                -0.7427612716257949,
                0.2454774192081033,
                -2.8499398962372124
            ]
        },
        {
            "positions": [
                0.057254270934038676,
                -1.1336970228534875,
                1.8996731494168801,
                -0.7022647692613748,
                0.18237617156101266,
                -3.038932125896298
            ]
        },
        {
            "positions": [
                0.1234153751448475,
                -1.130340826388744,
                1.9555302615181382,
                -0.7074741006876025,
                0.1353929064295233,
                -3.2537160787464456
            ]
        }
    ]
}