{
    "goal": {
        "global_pose": {
            "orientation": {
                "w": 0.5084816217422485,
                "x": -0.49083608388900757,
                "y": 0.5182115435600281,
                "z": -0.4816462993621826
            },
            "position": {
                "x": 0.5540239810943604,
                "y": 0.030875300988554955,
                "z": 0.16403168439865112
            }
        },
        "name": "move_to_storage_A"
    },
    "id": "BiTRRT_move_to_storage_A_150",
    "joint_names": [
        "shoulder_pan_joint",
        "shoulder_lift_joint",
        "elbow_joint",
        "wrist_1_joint",
        "wrist_2_joint",
        "wrist_3_joint"
    ],
    "metrics": {
        "cart_traj_len": 0.35230681962266636,
        "distance_elbow_joint": 0.45168588929788367,
        "distance_shoulder_lift_joint": 0.23378700664963015,
        "distance_shoulder_pan_joint": 0.46042311963712945,
        "distance_wrist_1_joint": 0.25288407619930264,
        "distance_wrist_2_joint": 1.098212790301385,
        "distance_wrist_3_joint": 0.10093652488040217,
        "smoothness": 4.440892098500626e-16,
        "time": 0.021245617,
        "traj_len": 1.6118093581331923,
        "weighted_distance": 2.0373755969941394
    },
    "planner": "BiTRRT",
    "start": {
        "state": {
            "elbow_joint": 1.9715477243005601,
            "shoulder_lift_joint": -1.1394853015351272,
            "shoulder_pan_joint": 0.12281154014795169,
            "wrist_1_joint": -0.7804696478968182,
            "wrist_2_joint": 0.12958648046900423,
            "wrist_3_joint": -3.192491284697111
        }
    },
    "waypoints": [
        {
            "positions": [
                0.12281154014795169,
                -1.1394853015351272,
                1.9715477243005601,
                -0.7804696478968182,
                0.12958648046900423,
                -3.192491284697111
            ]
        },
        {
            "positions": [
                0.057036808771218916,
                -1.1728834453422172,
                2.0360742799145437,
                -0.8165959444967186,
                0.28647402194063065,
                -3.178071781142768
            ]
        },
        {
            "positions": [
                -0.008737922605513856,
                -1.2062815891493073,
                2.100600835528527,
                -0.8527222410966189,
                0.4433615634122571,
                -3.163652277588425
            ]
        },
        {
            "positions": [
                -0.07451265398224664,
                -1.2396797329563973,
                2.1651273911425104,
                -0.8888485376965193,
                0.6002491048838835,
                -3.1492327740340817
            ]
        },
        {
            "positions": [
                -0.1402873853589794,
                -1.2730778767634872,
                2.2296539467564935,
                -0.9249748342964197,
                0.7571366463555099,
                -3.1348132704797385
            ]
        },
        {
            "positions": [
                -0.20606211673571218,
                -1.3064760205705772,
                2.294180502370477,
                -0.96110113089632,
                0.9140241878271363,
                -3.120393766925395
            ]
        },
        {
            "positions": [
                -0.27183684811244496,
                -1.3398741643776673,
                2.3587070579844602,
                -0.9972274274962204,
                1.0709117292987629,
                -3.1059742633710523
            ]
        },
        {
            "positions": [
                -0.33761157948917775,
                -1.3732723081847573,
                2.423233613598444,
                -1.0333537240961208,
                1.2277992707703893,
                -3.091554759816709
            ]
        }
    ]
}