{
    "goal": {
        "global_pose": {
            "orientation": {
                "w": 0.5084816217422485,
                "x": -0.49083608388900757,
                "y": 0.5182115435600281,
                "z": -0.4816462993621826
            },
            "position": {
                "x": 0.5540239810943604,
                "y": 0.030875300988554955,
                "z": 0.16403168439865112
            }
        },
        "name": "move_to_storage_A"
    },
    "id": "BiTRRT_move_to_storage_A_135",
    "joint_names": [
        "shoulder_pan_joint",
        "shoulder_lift_joint",
        "elbow_joint",
        "wrist_1_joint",
        "wrist_2_joint",
        "wrist_3_joint"
    ],
    "metrics": {
        "cart_traj_len": 0.35244461100837454,
        "distance_elbow_joint": 0.4475012062557071,
        "distance_shoulder_lift_joint": 0.234640909274753,
        "distance_shoulder_pan_joint": 0.4587209386934134,
        "distance_wrist_1_joint": 0.2359554213085936,
        "distance_wrist_2_joint": 1.1064074276502707,
        "distance_wrist_3_joint": 0.10157134688050728,
        "smoothness": 1.998401446083499e-15,
        "time": 0.040567998999999993,
        "traj_len": 1.607730465613949,
        "weighted_distance": 2.0323146392188205
    },
    "planner": "BiTRRT",
    "start": {
        "state": {
            "elbow_joint": 1.9715477243005601,
            "shoulder_lift_joint": -1.1394853015351272,
            "shoulder_pan_joint": 0.12281154014795169,
            "wrist_1_joint": -0.7804696478968182,
            "wrist_2_joint": 0.12958648046900423,
            "wrist_3_joint": -3.192491284697111
        }
    },
    "waypoints": [
        {
            "positions": [
                0.12281154014795169,
                -1.1394853015351272,
                1.9715477243005601,
                -0.7804696478968182,
                0.12958648046900423,
                -3.192491284697111
            ]
        },
        {
            "positions": [
                0.057279977477464064,
                -1.1730054314315204,
                2.0354764680513755,
                -0.8141775652266172,
                0.2876446844190429,
                -3.17798109228561
            ]
        },
        {
            "positions": [
                -0.008251585193023561,
                -1.2065255613279138,
                2.099405211802191,
                -0.8478854825564164,
                0.44570288836908156,
                -3.1634708998741092
            ]
        },
        {
            "positions": [
                -0.07378314786351119,
                -1.240045691224307,
                2.1633339555530062,
                -0.8815933998862154,
                0.6037610923191202,
                -3.1489607074626083
            ]
        },
        {
            "positions": [
                -0.1393147105339988,
                -1.2735658211207004,
                2.227262699303821,
                -0.9153013172160145,
                0.7618192962691589,
                -3.134450515051107
            ]
        },
        {
            "positions": [
                -0.20484627320448645,
                -1.3070859510170936,
                2.2911914430546365,
                -0.9490092345458137,
                0.9198775002191976,
                -3.119940322639606
            ]
        },
        {
            "positions": [
                -0.27037783587497405,
                -1.3406060809134868,
                2.355120186805452,
                -0.9827171518756126,
                1.0779357041692363,
                -3.105430130228105
            ]
        },
        {
            "positions": [
                -0.3359093985454617,
                -1.3741262108098802,
                2.4190489305562672,
                -1.0164250692054118,
                1.235993908119275,
                -3.090919937816604
            ]
        }
    ]
}