{
    "goal": {
        "global_pose": {
            "orientation": {
                "w": 0.7047431468963623,
                "x": -0.7094548344612122,
                "y": 0.0024358443915843964,
                "z": -0.0022348060738295317
            },
            "position": {
                "x": 0.6094750761985779,
                "y": 0.3671506643295288,
                "z": 0.19426114857196808
            }
        },
        "name": "move_to_magneteinheit_A"
    },
    "id": "BiTRRT_move_to_magneteinheit_A_105",
    "joint_names": [
        "shoulder_pan_joint",
        "shoulder_lift_joint",
        "elbow_joint",
        "wrist_1_joint",
        "wrist_2_joint",
        "wrist_3_joint"
    ],
    "metrics": {
        "cart_traj_len": 3.661747508920499,
        "distance_elbow_joint": 3.8740589174292026,
        "distance_shoulder_lift_joint": 0.6407811579123712,
        "distance_shoulder_pan_joint": 2.6440946147455615,
        "distance_wrist_1_joint": 1.3278195637923422,
        "distance_wrist_2_joint": 2.2257746406897434,
        "distance_wrist_3_joint": 2.8529101911220884,
        "smoothness": 0.48583317726336817,
        "time": 0.106039949,
        "traj_len": 3.68312898032248,
        "weighted_distance": 4.777536360135585
    },
    "planner": "BiTRRT",
    "start": {
        "state": {
            "elbow_joint": -1.919618573717145,
            "shoulder_lift_joint": -1.2443395971678275,
            "shoulder_pan_joint": 2.6996025300909787,
            "wrist_1_joint": -1.548550951253194,
            "wrist_2_joint": -1.5709469090946802,
            "wrist_3_joint": 0.4420197732051276
        }
    },
    "waypoints": [
        {
            "positions": [
                2.6996025300909787,
                -1.2443395971678275,
                -1.919618573717145,
                -1.548550951253194,
                -1.5709469090946802,
                0.4420197732051276
            ]
        },
        {
            "positions": [
                2.6072028348151224,
                -1.2339157419464144,
                -1.813247249170056,
                -1.5050315598102715,
                -1.4939988882976742,
                0.49593333661585454
            ]
        },
        {
            "positions": [
                2.514803139539266,
                -1.223491886725001,
                -1.7068759246229672,
                -1.4615121683673489,
                -1.4170508675006683,
                0.5498469000265815
            ]
        },
        {
            "positions": [
                2.4224034442634093,
                -1.213068031503588,
                -1.6005046000758782,
                -1.4179927769244263,
                -1.3401028467036624,
                0.6037604634373085
            ]
        },
        {
            "positions": [
                2.330003748987553,
                -1.2026441762821747,
                -1.4941332755287893,
                -1.3744733854815037,
                -1.2631548259066565,
                0.6576740268480354
            ]
        },
        {
            "positions": [
                2.2376040537116966,
                -1.1922203210607616,
                -1.3877619509817003,
                -1.330953994038581,
                -1.1862068051096504,
                0.7115875902587624
            ]
        },
        {
            "positions": [
                2.14520435843584,
                -1.1817964658393485,
                -1.2813906264346115,
                -1.2874346025956585,
                -1.1092587843126447,
                0.7655011536694893
            ]
        },
        {
            "positions": [
                2.0528046631599834,
                -1.1713726106179352,
                -1.1750193018875226,
                -1.2439152111527356,
                -1.0323107635156386,
                0.8194147170802164
            ]
        },
        {
            "positions": [
                1.960404967884127,
                -1.160948755396522,
                -1.0686479773404338,
                -1.2003958197098132,
                -0.9553627427186328,
                0.8733282804909432
            ]
        },
        {
            "positions": [
                1.8680052726082708,
                -1.150524900175109,
                -0.9622766527933448,
                -1.1568764282668906,
                -0.8784147219216268,
                0.9272418439016703
            ]
        },
        {
            "positions": [
                1.7756055773324142,
                -1.1401010449536957,
                -0.8559053282462559,
                -1.113357036823968,
                -0.8014667011246208,
                0.9811554073123971
            ]
        },
        {
            "positions": [
                1.6832058820565579,
                -1.1296771897322826,
                -0.7495340036991669,
                -1.0698376453810452,
                -0.7245186803276149,
                1.0350689707231242
            ]
        },
        {
            "positions": [
                1.5908061867807013,
                -1.1192533345108693,
                -0.6431626791520781,
                -1.0263182539381228,
                -0.647570659530609,
                1.088982534133851
            ]
        },
        {
            "positions": [
                1.498406491504845,
                -1.1088294792894562,
                -0.5367913546049892,
                -0.9827988624952001,
                -0.5706226387336031,
                1.142896097544578
            ]
        },
        {
            "positions": [
                1.4060067962289884,
                -1.098405624068043,
                -0.4304200300579002,
                -0.9392794710522774,
                -0.49367461793659695,
                1.1968096609553052
            ]
        },
        {
            "positions": [
                1.313607100953132,
                -1.0879817688466298,
                -0.32404870551081144,
                -0.8957600796093549,
                -0.41672659713959126,
                1.250723224366032
            ]
        },
        {
            "positions": [
                1.2212074056772755,
                -1.0775579136252167,
                -0.21767738096372247,
                -0.8522406881664323,
                -0.33977857634258535,
                1.304636787776759
            ]
        },
        {
            "positions": [
                1.128807710401419,
                -1.0671340584038034,
                -0.11130605641663349,
                -0.8087212967235096,
                -0.2628305555455792,
                1.3585503511874861
            ]
        },
        {
            "positions": [
                1.0364080151255628,
                -1.0567102031823903,
                -0.0049347318695447395,
                -0.7652019052805871,
                -0.18588253474857352,
                1.412463914598213
            ]
        },
        {
            "positions": [
                0.9440083198497062,
                -1.0462863479609772,
                0.10143659267754424,
                -0.7216825138376644,
                -0.10893451395156739,
                1.46637747800894
            ]
        },
        {
            "positions": [
                0.8516086245738497,
                -1.0358624927395639,
                0.2078079172246332,
                -0.6781631223947417,
                -0.03198649315456148,
                1.5202910414196669
            ]
        },
        {
            "positions": [
                0.7592089292979933,
                -1.0254386375181508,
                0.31417924177172174,
                -0.6346437309518193,
                0.04496152764244421,
                1.574204604830394
            ]
        },
        {
            "positions": [
                0.666809234022137,
                -1.0150147822967377,
                0.42055056631881116,
                -0.5911243395088965,
                0.12190954843945034,
                1.6281181682411208
            ]
        },
        {
            "positions": [
                0.5744095387462802,
                -1.0045909270753244,
                0.5269218908659001,
                -0.5476049480659739,
                0.19885756923645626,
                1.6820317316518478
            ]
        },
        {
            "positions": [
                0.48200984347042386,
                -0.9941670718539113,
                0.6332932154129887,
                -0.5040855566230513,
                0.27580559003346217,
                1.7359452950625747
            ]
        },
        {
            "positions": [
                0.38961014819456763,
                -0.9837432166324981,
                0.7396645399600776,
                -0.46056616518012866,
                0.3527536108304681,
                1.7898588584733017
            ]
        },
        {
            "positions": [
                0.34965280322421644,
                -1.0022788131052796,
                0.8552326128437784,
                -0.4839256968587587,
                0.34156519382463535,
                1.9088890827622134
            ]
        },
        {
            "positions": [
                0.3096954582538652,
                -1.020814409578061,
                0.9708006857274791,
                -0.5072852285373888,
                0.3303767768188026,
                2.0279193070511248
            ]
        },
        {
            "positions": [
                0.26973811328351394,
                -1.0393500060508423,
                1.0863687586111799,
                -0.5306447602160188,
                0.3191883598129699,
                2.1469495313400366
            ]
        },
        {
            "positions": [
                0.22978076831316274,
                -1.0578856025236236,
                1.2019368314948806,
                -0.5540042918946488,
                0.30799994280713716,
                2.265979755628948
            ]
        },
        {
            "positions": [
                0.20167000423016443,
                -1.0344337493758067,
                1.3106448221102214,
                -0.5654064738878561,
                0.26464491450461647,
                2.4432207181469465
            ]
        },
        {
            "positions": [
                0.17355924014716612,
                -1.0109818962279895,
                1.4193528127255624,
                -0.5768086558810636,
                0.22128988620209572,
                2.620461680664945
            ]
        },
        {
            "positions": [
                0.1454484760641678,
                -0.9875300430801726,
                1.528060803340903,
                -0.5882108378742709,
                0.17793485789957503,
                2.7977026431829435
            ]
        },
        {
            "positions": [
                0.11733771198116949,
                -0.9640781899323555,
                1.6367687939562439,
                -0.5996130198674783,
                0.1345798295970543,
                2.974943605700942
            ]
        },
        {
            "positions": [
                0.08922694789817118,
                -0.9406263367845384,
                1.7454767845715846,
                -0.6110152018606856,
                0.09122480129453361,
                3.1521845682189404
            ]
        },
        {
            "positions": [
                0.1060864641745477,
                -1.035017899657954,
                1.8499585641418217,
                -0.6557080723800455,
                0.11149745690886367,
                3.0808118701648026
            ]
        },
        {
            "positions": [
                0.12294598045092421,
                -1.1294094625313695,
                1.954440343712059,
                -0.7004009428994054,
                0.13177011252319373,
                3.009439172110665
            ]
        }
    ]
}{
    "goal": {
        "global_pose": {
            "orientation": {
                "w": 0.7047431468963623,
                "x": -0.7094548344612122,
                "y": 0.0024358443915843964,
                "z": -0.0022348060738295317
            },
            "position": {
                "x": 0.6094750761985779,
                "y": 0.3671506643295288,
                "z": 0.19426114857196808
            }
        },
        "name": "move_to_magneteinheit_A"
    },
    "id": "BiTRRT_move_to_magneteinheit_A_105",
    "joint_names": [
        "shoulder_pan_joint",
        "shoulder_lift_joint",
        "elbow_joint",
        "wrist_1_joint",
        "wrist_2_joint",
        "wrist_3_joint"
    ],
    "metrics": {
        "cart_traj_len": 1.2694285438379662,
        "distance_elbow_joint": 0.4420291693080074,
        "distance_shoulder_lift_joint": 0.7526948014348078,
        "distance_shoulder_pan_joint": 1.2417316124346343,
        "distance_wrist_1_joint": 1.3523917032157566,
        "distance_wrist_2_joint": 1.4350885200316237,
        "distance_wrist_3_joint": 4.388332601419313,
        "smoothness": 0.2589217818179766,
        "time": 0.094624513,
        "traj_len": 3.1003658506447493,
        "weighted_distance": 4.60178376653338
    },
    "planner": "BiTRRT",
    "start": {
        "state": {
            "elbow_joint": 1.919643534880228,
            "shoulder_lift_joint": -1.8972525353963687,
            "shoulder_pan_joint": -1.1188672234189438,
            "wrist_1_joint": -1.5931878212786155,
            "wrist_2_joint": 1.5706036197970081,
            "wrist_3_joint": 1.118896926603594
        }
    },
    "waypoints": [
        {
            "positions": [
                -1.1188672234189438,
                -1.8972525353963687,
                1.919643534880228,
                -1.5931878212786155,
                1.5706036197970081,
                1.118896926603594
            ]
        },
        {
            "positions": [
                -1.086017408006827,
                -1.8681892898230312,
                1.9316282820561002,
                -1.5424951817801542,
                1.5226632256933654,
                0.9127372571581105
            ]
        },
        {
            "positions": [
                -1.0531675925947104,
                -1.839126044249694,
                1.9436130292319722,
                -1.4918025422816932,
                1.4747228315897227,
                0.706577587712627
            ]
        },
        {
            "positions": [
                -1.0203177771825935,
                -1.8100627986763564,
                1.9555977764078443,
                -1.441109902783232,
                1.42678243748608,
                0.5004179182671435
            ]
        },
        {
            "positions": [
                -0.9874679617704767,
                -1.7809995531030192,
                1.9675825235837163,
                -1.3904172632847707,
                1.3788420433824373,
                0.2942582488216601
            ]
        },
        {
            "positions": [
                -0.9546181463583598,
                -1.7519363075296817,
                1.9795672707595884,
                -1.3397246237863094,
                1.3309016492787946,
                0.0880985793761766
            ]
        },
        {
            "positions": [
                -0.9217683309462431,
                -1.7228730619563442,
                1.9915520179354607,
                -1.2890319842878482,
                1.282961255175152,
                -0.11806109006930687
            ]
        },
        {
            "positions": [
                -0.8889185155341264,
                -1.6938098163830069,
                2.0035367651113325,
                -1.2383393447893871,
                1.2350208610715092,
                -0.32422075951479035
            ]
        },
        {
            "positions": [
                -0.8560687001220095,
                -1.6647465708096694,
                2.0155215122872048,
                -1.1876467052909259,
                1.1870804669678665,
                -0.5303804289602738
            ]
        },
        {
            "positions": [
                -0.8232188847098927,
                -1.6356833252363319,
                2.0275062594630766,
                -1.1369540657924646,
                1.1391400728642238,
                -0.7365400984057573
            ]
        },
        {
            "positions": [
                -0.790369069297776,
                -1.6066200796629946,
                2.039491006638949,
                -1.0862614262940036,
                1.091199678760581,
                -0.9426997678512408
            ]
        },
        {
            "positions": [
                -0.7575192538856591,
                -1.577556834089657,
                2.051475753814821,
                -1.035568786795542,
                1.0432592846569384,
                -1.1488594372967242
            ]
        },
        {
            "positions": [
                -0.7246694384735424,
                -1.5484935885163198,
                2.063460500990693,
                -0.9848761472970811,
                0.9953188905532957,
                -1.3550191067422077
            ]
        },
        {
            "positions": [
                -0.6918196230614255,
                -1.5194303429429823,
                2.0754452481665653,
                -0.9341835077986198,
                0.947378496449653,
                -1.5611787761876912
            ]
        },
        {
            "positions": [
                -0.6589698076493088,
                -1.4903670973696448,
                2.087429995342437,
                -0.8834908683001587,
                0.8994381023460103,
                -1.7673384456331747
            ]
        },
        {
            "positions": [
                -0.626119992237192,
                -1.4613038517963075,
                2.0994147425183094,
                -0.8327982288016974,
                0.8514977082423676,
                -1.9734981150786581
            ]
        },
        {
            "positions": [
                -0.5932701768250752,
                -1.43224060622297,
                2.1113994896941812,
                -0.7821055893032363,
                0.8035573141387249,
                -2.1796577845241414
            ]
        },
        {
            "positions": [
                -0.5604203614129584,
                -1.4031773606496327,
                2.1233842368700535,
                -0.731412949804775,
                0.7556169200350822,
                -2.385817453969625
            ]
        },
        {
            "positions": [
                -0.5275705460008416,
                -1.3741141150762952,
                2.1353689840459253,
                -0.6807203103063139,
                0.7076765259314395,
                -2.5919771234151083
            ]
        },
        {
            "positions": [
                -0.4947207305887248,
                -1.3450508695029577,
                2.1473537312217976,
                -0.6300276708078526,
                0.6597361318277968,
                -2.798136792860592
            ]
        },
        {
            "positions": [
                -0.46187091517660805,
                -1.3159876239296204,
                2.1593384783976695,
                -0.5793350313093915,
                0.6117957377241541,
                -3.0042964623060753
            ]
        },
        {
            "positions": [
                -0.4290210997644912,
                -1.286924378356283,
                2.1713232255735417,
                -0.5286423918109301,
                0.5638553436205114,
                -3.2104561317515588
            ]
        },
        {
            "positions": [
                -0.3186440020084549,
                -1.2584510494773384,
                2.133253329850603,
                -0.5862116465605445,
                0.47818729484948597,
                -3.198660223138727
            ]
        },
        {
            "positions": [
                -0.2082669042524185,
                -1.2299777205983942,
                2.095183434127664,
                -0.6437809013101587,
                0.39251924607846056,
                -3.186864314525895
            ]
        },
        {
            "positions": [
                -0.09788980649638218,
                -1.2015043917194497,
                2.0571135384047254,
                -0.7013501560597731,
                0.3068511973074352,
                -3.1750684059130636
            ]
        },
        {
            "positions": [
                0.012487291259654199,
                -1.1730310628405054,
                2.019043642681787,
                -0.7589194108093875,
                0.2211831485364098,
                -3.1632724973002317
            ]
        },
        {
            "positions": [
                0.12286438901569054,
                -1.144557733961561,
                1.980973746958848,
                -0.8164886655590018,
                0.13551509976538448,
                -3.1514765886874
            ]
        }
    ]
}