{
    "goal": {
        "global_pose": {
            "orientation": {
                "w": 0.5084816217422485,
                "x": -0.49083608388900757,
                "y": 0.5182115435600281,
                "z": -0.4816462993621826
            },
            "position": {
                "x": 0.5540239810943604,
                "y": 0.030875300988554955,
                "z": 0.16403168439865112
            }
        },
        "name": "move_to_storage_A"
    },
    "id": "BiTRRT_move_to_storage_A_45",
    "joint_names": [
        "shoulder_pan_joint",
        "shoulder_lift_joint",
        "elbow_joint",
        "wrist_1_joint",
        "wrist_2_joint",
        "wrist_3_joint"
    ],
    "metrics": {
        "cart_traj_len": 0.35285328546439576,
        "distance_elbow_joint": 0.4506678100180306,
        "distance_shoulder_lift_joint": 0.23537916580259366,
        "distance_shoulder_pan_joint": 0.46255588571062795,
        "distance_wrist_1_joint": 0.24095566878814412,
        "distance_wrist_2_joint": 1.0943121568768306,
        "distance_wrist_3_joint": 0.10397840615031795,
        "smoothness": 1.1102230298998083e-15,
        "time": 0.042814785999999994,
        "traj_len": 1.6086793009629186,
        "weighted_distance": 2.0325043004412455
    },
    "planner": "BiTRRT",
    "start": {
        "state": {
            "elbow_joint": 1.9715477243005601,
            "shoulder_lift_joint": -1.1394853015351272,
            "shoulder_pan_joint": 0.12281154014795169,
            "wrist_1_joint": -0.7804696478968182,
            "wrist_2_joint": 0.12958648046900423,
            "wrist_3_joint": -3.192491284697111
        }
    },
    "waypoints": [
        {
            "positions": [
                0.12281154014795169,
                -1.1394853015351272,
                1.9715477243005601,
                -0.7804696478968182,
                0.12958648046900423,
                -3.192491284697111
            ]
        },
        {
            "positions": [
                0.05673212790357628,
                -1.1731108966497834,
                2.0359288400174216,
                -0.8148918862951244,
                0.2859167885942657,
                -3.177637226675637
            ]
        },
        {
            "positions": [
                -0.009347284340799136,
                -1.2067364917644396,
                2.100309955734283,
                -0.8493141246934308,
                0.4422470967195272,
                -3.162783168654163
            ]
        },
        {
            "positions": [
                -0.07542669658517455,
                -1.2403620868790959,
                2.1646910714511445,
                -0.8837363630917371,
                0.5985774048447887,
                -3.147929110632689
            ]
        },
        {
            "positions": [
                -0.14150610882954995,
                -1.2739876819937521,
                2.229072187168006,
                -0.9181586014900434,
                0.7549077129700502,
                -3.133075052611215
            ]
        },
        {
            "positions": [
                -0.20758552107392542,
                -1.3076132771084084,
                2.293453302884868,
                -0.9525808398883497,
                0.9112380210953118,
                -3.1182209945897412
            ]
        },
        {
            "positions": [
                -0.2736649333183008,
                -1.3412388722230646,
                2.3578344186017293,
                -0.9870030782866559,
                1.067568329220573,
                -3.1033669365682672
            ]
        },
        {
            "positions": [
                -0.33974434556267624,
                -1.3748644673377208,
                2.4222155343185907,
                -1.0214253166849623,
                1.223898637345835,
                -3.0885128785467932
            ]
        }
    ]
}