{
    "goal": {
        "global_pose": {
            "orientation": {
                "w": 0.5084816217422485,
                "x": -0.49083608388900757,
                "y": 0.5182115435600281,
                "z": -0.4816462993621826
            },
            "position": {
                "x": 0.5540239810943604,
                "y": 0.030875300988554955,
                "z": 0.16403168439865112
            }
        },
        "name": "move_to_storage_A"
    },
    "id": "BiTRRT_move_to_storage_A_40",
    "joint_names": [
        "shoulder_pan_joint",
        "shoulder_lift_joint",
        "elbow_joint",
        "wrist_1_joint",
        "wrist_2_joint",
        "wrist_3_joint"
    ],
    "metrics": {
        "cart_traj_len": 0.35303674979998645,
        "distance_elbow_joint": 0.4487664176520889,
        "distance_shoulder_lift_joint": 0.2349572553580377,
        "distance_shoulder_pan_joint": 0.4625001976555344,
        "distance_wrist_1_joint": 0.23944335909434822,
        "distance_wrist_2_joint": 1.0949412719294842,
        "distance_wrist_3_joint": 0.09673547047778852,
        "smoothness": 6.661338165333112e-16,
        "time": 0.043538288999999994,
        "traj_len": 1.6054108421732058,
        "weighted_distance": 2.0261292022343222
    },
    "planner": "BiTRRT",
    "start": {
        "state": {
            "elbow_joint": 1.9715477243005601,
            "shoulder_lift_joint": -1.1394853015351272,
            "shoulder_pan_joint": 0.12281154014795169,
            "wrist_1_joint": -0.7804696478968182,
            "wrist_2_joint": 0.12958648046900423,
            "wrist_3_joint": -3.192491284697111
        }
    },
    "waypoints": [
        {
            "positions": [
                0.12281154014795169,
                -1.1394853015351272,
                1.9715477243005601,
                -0.7804696478968182,
                0.12958648046900423,
                -3.192491284697111
            ]
        },
        {
            "positions": [
                0.056740083340018205,
                -1.1730506237291325,
                2.035657212536573,
                -0.8146758420531536,
                0.28600666217321624,
                -3.1786719317717127
            ]
        },
        {
            "positions": [
                -0.00933137346791528,
                -1.206615945923138,
                2.0997667007725855,
                -0.8488820362094891,
                0.44242684387742826,
                -3.1648525788463147
            ]
        },
        {
            "positions": [
                -0.07540283027584875,
                -1.2401812681171434,
                2.1638761890085982,
                -0.8830882303658245,
                0.5988470255816403,
                -3.151033225920916
            ]
        },
        {
            "positions": [
                -0.14147428708378224,
                -1.2737465903111487,
                2.227985677244611,
                -0.91729442452216,
                0.7552672072858523,
                -3.1372138729955177
            ]
        },
        {
            "positions": [
                -0.20754574389171576,
                -1.307311912505154,
                2.2920951654806236,
                -0.9515006186784954,
                0.9116873889900644,
                -3.123394520070119
            ]
        },
        {
            "positions": [
                -0.2736172006996492,
                -1.3408772346991595,
                2.3562046537166363,
                -0.985706812834831,
                1.0681075706942762,
                -3.109575167144721
            ]
        },
        {
            "positions": [
                -0.3396886575075827,
                -1.3744425568931649,
                2.420314141952649,
                -1.0199130069911664,
                1.2245277523984885,
                -3.0957558142193227
            ]
        }
    ]
}