{
    "goal": {
        "global_pose": {
            "orientation": {
                "w": 0.7047431468963623,
                "x": -0.7094548344612122,
                "y": 0.0024358443915843964,
                "z": -0.0022348060738295317
            },
            "position": {
                "x": 0.6094750761985779,
                "y": 0.3671506643295288,
                "z": 0.19426114857196808
            }
        },
        "name": "move_to_magneteinheit_A"
    },
    "id": "BiTRRT_move_to_magneteinheit_A_83",
    "joint_names": [
        "shoulder_pan_joint",
        "shoulder_lift_joint",
        "elbow_joint",
        "wrist_1_joint",
        "wrist_2_joint",
        "wrist_3_joint"
    ],
    "metrics": {
        "cart_traj_len": 3.9453133154922093,
        "distance_elbow_joint": 3.9037800549876716,
        "distance_shoulder_lift_joint": 0.6014839119804303,
        "distance_shoulder_pan_joint": 2.8730566661326566,
        "distance_wrist_1_joint": 1.019377133107084,
        "distance_wrist_2_joint": 2.1293679343433265,
        "distance_wrist_3_joint": 3.5824221356270556,
        "smoothness": 0.2537560305144198,
        "time": 0.110468329,
        "traj_len": 3.7562598201107202,
        "weighted_distance": 4.941970980781123
    },
    "planner": "BiTRRT",
    "start": {
        "state": {
            "elbow_joint": -1.919618573717145,
            "shoulder_lift_joint": -1.2443395971678275,
            "shoulder_pan_joint": 2.6996025300909787,
            "wrist_1_joint": -1.548550951253194,
            "wrist_2_joint": -1.5709469090946802,
            "wrist_3_joint": 0.4420197732051276
        }
    },
    "waypoints": [
        {
            "positions": [
                2.6996025300909787,
                -1.2443395971678275,
                -1.919618573717145,
                -1.548550951253194,
                -1.5709469090946802,
                0.4420197732051276
            ]
        },
        {
            "positions": [
                2.6005916386280363,
                -1.2297496208075902,
                -1.8144474993903421,
                -1.5257626046552022,
                -1.4974146482115354,
                0.37275802138940833
            ]
        },
        {
            "positions": [
                2.501580747165094,
                -1.215159644447353,
                -1.709276425063539,
                -1.5029742580572103,
                -1.4238823873283903,
                0.30349626957368914
            ]
        },
        {
            "positions": [
                2.4025698557021515,
                -1.2005696680871156,
                -1.6041053507367362,
                -1.4801859114592184,
                -1.3503501264452455,
                0.23423451775796986
            ]
        },
        {
            "positions": [
                2.3035589642392087,
                -1.1859796917268783,
                -1.4989342764099334,
                -1.4573975648612263,
                -1.2768178655621005,
                0.16497276594225063
            ]
        },
        {
            "positions": [
                2.2045480727762663,
                -1.171389715366641,
                -1.3937632020831303,
                -1.4346092182632344,
                -1.2032856046789557,
                0.09571101412653138
            ]
        },
        {
            "positions": [
                2.105537181313324,
                -1.1567997390064038,
                -1.2885921277563273,
                -1.4118208716652425,
                -1.1297533437958107,
                0.026449262310812127
            ]
        },
        {
            "positions": [
                2.0065262898503815,
                -1.1422097626461665,
                -1.1834210534295244,
                -1.3890325250672506,
                -1.056221082912666,
                -0.042812489504907125
            ]
        },
        {
            "positions": [
                1.907515398387439,
                -1.1276197862859292,
                -1.0782499791027216,
                -1.3662441784692587,
                -0.982688822029521,
                -0.11207424132062632
            ]
        },
        {
            "positions": [
                1.8085045069244965,
                -1.113029809925692,
                -0.9730789047759185,
                -1.3434558318712666,
                -0.9091565611463761,
                -0.18133599313634557
            ]
        },
        {
            "positions": [
                1.7094936154615539,
                -1.0984398335654546,
                -0.8679078304491157,
                -1.3206674852732747,
                -0.8356243002632312,
                -0.2505977449520648
            ]
        },
        {
            "positions": [
                1.6104827239986117,
                -1.0838498572052173,
                -0.7627367561223128,
                -1.2978791386752828,
                -0.7620920393800863,
                -0.3198594967677841
            ]
        },
        {
            "positions": [
                1.511471832535669,
                -1.06925988084498,
                -0.6575656817955098,
                -1.275090792077291,
                -0.6885597784969414,
                -0.38912124858350333
            ]
        },
        {
            "positions": [
                1.4124609410727267,
                -1.0546699044847427,
                -0.5523946074687069,
                -1.252302445479299,
                -0.6150275176137966,
                -0.4583830003992225
            ]
        },
        {
            "positions": [
                1.313450049609784,
                -1.0400799281245054,
                -0.4472235331419039,
                -1.2295140988813071,
                -0.5414952567306515,
                -0.5276447522149419
            ]
        },
        {
            "positions": [
                1.2144391581468417,
                -1.0254899517642682,
                -0.34205245881510105,
                -1.2067257522833152,
                -0.46796299584750667,
                -0.5969065040306609
            ]
        },
        {
            "positions": [
                1.1154282666838993,
                -1.0108999754040309,
                -0.2368813844882982,
                -1.1839374056853234,
                -0.3944307349643619,
                -0.6661682558463802
            ]
        },
        {
            "positions": [
                1.0164173752209567,
                -0.9963099990437936,
                -0.13171031016149493,
                -1.1611490590873312,
                -0.32089847408121686,
                -0.7354300076620996
            ]
        },
        {
            "positions": [
                0.9174064837580143,
                -0.9817200226835564,
                -0.026539235834692088,
                -1.1383607124893393,
                -0.24736621319807206,
                -0.8046917594778187
            ]
        },
        {
            "positions": [
                0.8183955922950719,
                -0.9671300463233191,
                0.07863183849211053,
                -1.1155723658913475,
                -0.17383395231492726,
                -0.8739535112935379
            ]
        },
        {
            "positions": [
                0.7193847008321292,
                -0.9525400699630817,
                0.1838029128189136,
                -1.0927840192933553,
                -0.10030169143178225,
                -0.9432152631092572
            ]
        },
        {
            "positions": [
                0.6203738093691866,
                -0.9379500936028445,
                0.2889739871457164,
                -1.0699956726953634,
                -0.02676943054863723,
                -1.0124770149249764
            ]
        },
        {
            "positions": [
                0.5213629179062447,
                -0.9233601172426072,
                0.39414506147251926,
                -1.0472073260973715,
                0.046762830334507566,
                -1.0817387667406957
            ]
        },
        {
            "positions": [
                0.42235202644330183,
                -0.90877014088237,
                0.49931613579932255,
                -1.0244189794993797,
                0.12029509121765258,
                -1.151000518556415
            ]
        },
        {
            "positions": [
                0.32334113498035943,
                -0.8941801645221327,
                0.6044872101261255,
                -1.0016306329013878,
                0.19382735210079743,
                -1.2202622703721342
            ]
        },
        {
            "positions": [
                0.2916997179476848,
                -0.8958842546899158,
                0.7212989645288957,
                -0.972742082013261,
                0.1745546662831128,
                -1.3830800449343583
            ]
        },
        {
            "positions": [
                0.26005830091501014,
                -0.8975883448576991,
                0.838110718931666,
                -0.943853531125134,
                0.15528198046542818,
                -1.5458978194965824
            ]
        },
        {
            "positions": [
                0.22841688388233553,
                -0.8992924350254823,
                0.9549224733344363,
                -0.9149649802370072,
                0.13600929464774358,
                -1.7087155940588064
            ]
        },
        {
            "positions": [
                0.19677546684966088,
                -0.9009965251932655,
                1.0717342277372066,
                -0.8860764293488803,
                0.11673660883005894,
                -1.8715333686210305
            ]
        },
        {
            "positions": [
                0.16513404981698623,
                -0.9027006153610486,
                1.1885459821399769,
                -0.8571878784607535,
                0.09746392301237432,
                -2.0343511431832546
            ]
        },
        {
            "positions": [
                0.13349263278431162,
                -0.9044047055288319,
                1.3053577365427471,
                -0.8282993275726267,
                0.0781912371946897,
                -2.1971689177454787
            ]
        },
        {
            "positions": [
                0.10185121575163694,
                -0.9061087956966151,
                1.4221694909455174,
                -0.7994107766844998,
                0.05891855137700508,
                -2.359986692307703
            ]
        },
        {
            "positions": [
                0.07020979871896232,
                -0.9078128858643982,
                1.5389812453482876,
                -0.7705222257963729,
                0.03964586555932045,
                -2.522804466869927
            ]
        },
        {
            "positions": [
                0.03856838168628768,
                -0.9095169760321814,
                1.6557929997510579,
                -0.741633674908246,
                0.0203731797416358,
                -2.685622241432151
            ]
        },
        {
            "positions": [
                0.0069269646536130325,
                -0.9112210661999647,
                1.7726047541538281,
                -0.7127451240201192,
                0.0011004939239512013,
                -2.8484400159943752
            ]
        },
        {
            "positions": [
                -0.024714452379061627,
                -0.9129251563677478,
                1.8894165085565982,
                -0.6838565731319923,
                -0.01817219189373344,
                -3.0112577905565994
            ]
        },
        {
            "positions": [
                0.02486544217514383,
                -0.9904516521974546,
                1.9209981661279074,
                -0.7354174914606197,
                0.032692517824039244,
                -3.0543059811783757
            ]
        },
        {
            "positions": [
                0.07444533672934929,
                -1.0679781480271613,
                1.9525798236992167,
                -0.786978409789247,
                0.08355722754181193,
                -3.0973541718001516
            ]
        },
        {
            "positions": [
                0.12402523128355476,
                -1.1455046438568681,
                1.984161481270526,
                -0.8385393281178745,
                0.13442193725958462,
                -3.140402362421928
            ]
        }
    ]
}{
    "goal": {
        "global_pose": {
            "orientation": {
                "w": 0.7047431468963623,
                "x": -0.7094548344612122,
                "y": 0.0024358443915843964,
                "z": -0.0022348060738295317
            },
            "position": {
                "x": 0.6094750761985779,
                "y": 0.3671506643295288,
                "z": 0.19426114857196808
            }
        },
        "name": "move_to_magneteinheit_A"
    },
    "id": "BiTRRT_move_to_magneteinheit_A_83",
    "joint_names": [
        "shoulder_pan_joint",
        "shoulder_lift_joint",
        "elbow_joint",
        "wrist_1_joint",
        "wrist_2_joint",
        "wrist_3_joint"
    ],
    "metrics": {
        "cart_traj_len": 1.31794610412769,
        "distance_elbow_joint": 0.4083986689925456,
        "distance_shoulder_lift_joint": 0.9716822914975305,
        "distance_shoulder_pan_joint": 1.2425705324497556,
        "distance_wrist_1_joint": 1.4188527248592537,
        "distance_wrist_2_joint": 1.4489416802805175,
        "distance_wrist_3_joint": 4.260911540347203,
        "smoothness": 0.2738531768618516,
        "time": 0.087373175,
        "traj_len": 3.1227163557433144,
        "weighted_distance": 4.597931591950991
    },
    "planner": "BiTRRT",
    "start": {
        "state": {
            "elbow_joint": 1.919643534880228,
            "shoulder_lift_joint": -1.8972525353963687,
            "shoulder_pan_joint": -1.1188672234189438,
            "wrist_1_joint": -1.5931878212786155,
            "wrist_2_joint": 1.5706036197970081,
            "wrist_3_joint": 1.118896926603594
        }
    },
    "waypoints": [
        {
            "positions": [
                -1.1188672234189438,
                -1.8972525353963687,
                1.919643534880228,
                -1.5931878212786155,
                1.5706036197970081,
                1.118896926603594
            ]
        },
        {
            "positions": [
                -1.0691610396478097,
                -1.8562014160135405,
                1.9114320269343659,
                -1.5415046280304552,
                1.5032150768557273,
                0.9577308924348861
            ]
        },
        {
            "positions": [
                -1.0194548558766754,
                -1.8151502966307123,
                1.9032205189885036,
                -1.4898214347822951,
                1.4358265339144465,
                0.7965648582661782
            ]
        },
        {
            "positions": [
                -0.9697486721055413,
                -1.774099177247884,
                1.8950090110426414,
                -1.4381382415341348,
                1.3684379909731657,
                0.6353988240974703
            ]
        },
        {
            "positions": [
                -0.920042488334407,
                -1.7330480578650558,
                1.886797503096779,
                -1.3864550482859748,
                1.3010494480318848,
                0.4742327899287624
            ]
        },
        {
            "positions": [
                -0.8703363045632728,
                -1.6919969384822275,
                1.8785859951509167,
                -1.3347718550378145,
                1.233660905090604,
                0.3130667557600545
            ]
        },
        {
            "positions": [
                -0.8206301207921386,
                -1.6509458190993993,
                1.8703744872050545,
                -1.2830886617896544,
                1.1662723621493232,
                0.1519007215913466
            ]
        },
        {
            "positions": [
                -0.7709239370210044,
                -1.609894699716571,
                1.8621629792591923,
                -1.2314054685414941,
                1.0988838192080423,
                -0.009265312577361184
            ]
        },
        {
            "positions": [
                -0.7212177532498703,
                -1.568843580333743,
                1.85395147131333,
                -1.1797222752933338,
                1.0314952762667615,
                -0.1704313467460692
            ]
        },
        {
            "positions": [
                -0.6715115694787359,
                -1.5277924609509146,
                1.8457399633674678,
                -1.1280390820451738,
                0.9641067333254806,
                -0.331597380914777
            ]
        },
        {
            "positions": [
                -0.6218053857076018,
                -1.4867413415680866,
                1.8375284554216056,
                -1.0763558887970137,
                0.8967181903841998,
                -0.492763415083485
            ]
        },
        {
            "positions": [
                -0.5720992019364675,
                -1.4456902221852581,
                1.8293169474757431,
                -1.0246726955488534,
                0.8293296474429189,
                -0.653929449252193
            ]
        },
        {
            "positions": [
                -0.5223930181653333,
                -1.40463910280243,
                1.821105439529881,
                -0.9729895023006933,
                0.7619411045016381,
                -0.8150954834209008
            ]
        },
        {
            "positions": [
                -0.4726868343941991,
                -1.3635879834196016,
                1.8128939315840187,
                -0.921306309052533,
                0.6945525615603572,
                -0.9762615175896088
            ]
        },
        {
            "positions": [
                -0.4229806506230649,
                -1.3225368640367736,
                1.8046824236381565,
                -0.8696231158043728,
                0.6271640186190764,
                -1.1374275517583163
            ]
        },
        {
            "positions": [
                -0.37327446685193066,
                -1.2814857446539452,
                1.7964709156922942,
                -0.8179399225562126,
                0.5597754756777955,
                -1.2985935859270248
            ]
        },
        {
            "positions": [
                -0.32356828308079655,
                -1.2404346252711171,
                1.788259407746432,
                -0.7662567293080524,
                0.4923869327365149,
                -1.4597596200957323
            ]
        },
        {
            "positions": [
                -0.2738620993096622,
                -1.199383505888289,
                1.7800478998005698,
                -0.7145735360598922,
                0.42499838979523386,
                -1.6209256542644404
            ]
        },
        {
            "positions": [
                -0.2241559155385281,
                -1.1583323865054607,
                1.7718363918547073,
                -0.6628903428117321,
                0.35760984685395303,
                -1.782091688433148
            ]
        },
        {
            "positions": [
                -0.17444973176739387,
                -1.1172812671226324,
                1.763624883908845,
                -0.6112071495635718,
                0.2902213039126722,
                -1.9432577226018564
            ]
        },
        {
            "positions": [
                -0.12474354799625964,
                -1.0762301477398042,
                1.7554133759629829,
                -0.5595239563154117,
                0.22283276097139137,
                -2.104423756770564
            ]
        },
        {
            "positions": [
                -0.07503736422512544,
                -1.035179028356976,
                1.7472018680171206,
                -0.5078407630672515,
                0.15544421803011052,
                -2.2655897909392717
            ]
        },
        {
            "positions": [
                -0.035289229573938,
                -1.0571007852486034,
                1.7943932684430082,
                -0.5745418963968294,
                0.14868776232738648,
                -2.440874755500139
            ]
        },
        {
            "positions": [
                0.004458905077249442,
                -1.079022542140231,
                1.841584668868896,
                -0.6412430297264073,
                0.14193130662466247,
                -2.6161597200610065
            ]
        },
        {
            "positions": [
                0.04420703972843687,
                -1.1009442990318585,
                1.8887760692947835,
                -0.7079441630559852,
                0.13517485092193843,
                -2.7914446846218737
            ]
        },
        {
            "positions": [
                0.08395517437962433,
                -1.1228660559234862,
                1.9359674697206712,
                -0.7746452963855632,
                0.1284183952192144,
                -2.9667296491827413
            ]
        },
        {
            "positions": [
                0.12370330903081174,
                -1.1447878128151137,
                1.9831588701465588,
                -0.8413464297151411,
                0.12166193951649036,
                -3.1420146137436085
            ]
        }
    ]
}