{
    "goal": {
        "global_pose": {
            "orientation": {
                "w": 0.7047431468963623,
                "x": -0.7094548344612122,
                "y": 0.0024358443915843964,
                "z": -0.0022348060738295317
            },
            "position": {
                "x": 0.6094750761985779,
                "y": 0.3671506643295288,
                "z": 0.19426114857196808
            }
        },
        "name": "move_to_magneteinheit_A"
    },
    "id": "BiTRRT_move_to_magneteinheit_A_19",
    "joint_names": [
        "shoulder_pan_joint",
        "shoulder_lift_joint",
        "elbow_joint",
        "wrist_1_joint",
        "wrist_2_joint",
        "wrist_3_joint"
    ],
    "metrics": {
        "cart_traj_len": 3.2263168116765804,
        "distance_elbow_joint": 3.9296189201476155,
        "distance_shoulder_lift_joint": 0.5439824066211616,
        "distance_shoulder_pan_joint": 2.8486835974440057,
        "distance_wrist_1_joint": 3.525343898698799,
        "distance_wrist_2_joint": 1.4386586298500896,
        "distance_wrist_3_joint": 1.13964361448566,
        "smoothness": 0.12173119579369095,
        "time": 0.13874614,
        "traj_len": 3.6641412455372575,
        "weighted_distance": 4.546341476920485
    },
    "planner": "BiTRRT",
    "start": {
        "state": {
            "elbow_joint": -1.919618573717145,
            "shoulder_lift_joint": -1.2443395971678275,
            "shoulder_pan_joint": 2.6996025300909787,
            "wrist_1_joint": -1.548550951253194,
            "wrist_2_joint": -1.5709469090946802,
            "wrist_3_joint": 0.4420197732051276
        }
    },
    "waypoints": [
        {
            "positions": [
                2.6996025300909787,
                -1.2443395971678275,
                -1.919618573717145,
                -1.548550951253194,
                -1.5709469090946802,
                0.4420197732051276
            ]
        },
        {
            "positions": [
                2.5968705737285926,
                -1.2342431495840736,
                -1.8098079302191914,
                -1.4576268947684756,
                -1.5344438714240178,
                0.40760200212779735
            ]
        },
        {
            "positions": [
                2.4941386173662066,
                -1.2241467020003198,
                -1.6999972867212376,
                -1.366702838283757,
                -1.4979408337533555,
                0.37318423105046705
            ]
        },
        {
            "positions": [
                2.3914066610038205,
                -1.2140502544165659,
                -1.590186643223284,
                -1.2757787817990383,
                -1.4614377960826932,
                0.3387664599731368
            ]
        },
        {
            "positions": [
                2.2886747046414344,
                -1.2039538068328122,
                -1.4803759997253305,
                -1.1848547253143198,
                -1.4249347584120309,
                0.3043486888958066
            ]
        },
        {
            "positions": [
                2.1859427482790483,
                -1.1938573592490582,
                -1.3705653562273767,
                -1.0939306688296013,
                -1.3884317207413686,
                0.2699309178184763
            ]
        },
        {
            "positions": [
                2.0832107919166623,
                -1.1837609116653045,
                -1.2607547127294232,
                -1.0030066123448826,
                -1.3519286830707062,
                0.23551314674114604
            ]
        },
        {
            "positions": [
                1.980478835554276,
                -1.1736644640815506,
                -1.1509440692314694,
                -0.9120825558601641,
                -1.315425645400044,
                0.20109537566381577
            ]
        },
        {
            "positions": [
                1.87774687919189,
                -1.1635680164977968,
                -1.0411334257335159,
                -0.8211584993754455,
                -1.2789226077293818,
                0.16667760458648556
            ]
        },
        {
            "positions": [
                1.7750149228295038,
                -1.153471568914043,
                -0.9313227822355623,
                -0.7302344428907269,
                -1.2424195700587195,
                0.13225983350915527
            ]
        },
        {
            "positions": [
                1.6722829664671177,
                -1.1433751213302892,
                -0.8215121387376085,
                -0.6393103864060083,
                -1.2059165323880572,
                0.09784206243182497
            ]
        },
        {
            "positions": [
                1.5695510101047316,
                -1.1332786737465352,
                -0.7117014952396552,
                -0.5483863299212899,
                -1.1694134947173949,
                0.06342429135449479
            ]
        },
        {
            "positions": [
                1.4668190537423456,
                -1.1231822261627813,
                -0.6018908517417014,
                -0.4574622734365712,
                -1.1329104570467325,
                0.029006520277164494
            ]
        },
        {
            "positions": [
                1.3640870973799595,
                -1.1130857785790276,
                -0.4920802082437479,
                -0.36653821695185274,
                -1.0964074193760702,
                -0.0054112508001657456
            ]
        },
        {
            "positions": [
                1.2613551410175732,
                -1.1029893309952736,
                -0.3822695647457941,
                -0.27561416046713405,
                -1.059904381705408,
                -0.03982902187749604
            ]
        },
        {
            "positions": [
                1.1586231846551873,
                -1.09289288341152,
                -0.27245892124784055,
                -0.18469010398241537,
                -1.0234013440347456,
                -0.07424679295482634
            ]
        },
        {
            "positions": [
                1.0558912282928012,
                -1.082796435827766,
                -0.162648277749887,
                -0.0937660474976969,
                -0.9868983063640834,
                -0.10866456403215646
            ]
        },
        {
            "positions": [
                0.9531592719304149,
                -1.0726999882440122,
                -0.05283763425193322,
                -0.0028419910129782178,
                -0.9503952686934211,
                -0.1430823351094868
            ]
        },
        {
            "positions": [
                0.8504273155680289,
                -1.0626035406602583,
                0.056973009246020334,
                0.08808206547174025,
                -0.9138922310227587,
                -0.17750010618681705
            ]
        },
        {
            "positions": [
                0.747695359205643,
                -1.0525070930765046,
                0.1667836527439739,
                0.1790061219564587,
                -0.8773891933520964,
                -0.2119178772641473
            ]
        },
        {
            "positions": [
                0.6449634028432567,
                -1.0424106454927506,
                0.2765942962419279,
                0.2699301784411774,
                -0.8408861556814341,
                -0.24633564834147764
            ]
        },
        {
            "positions": [
                0.5422314464808706,
                -1.032314197908997,
                0.386404939739881,
                0.36085423492589586,
                -0.8043831180107719,
                -0.28075341941880777
            ]
        },
        {
            "positions": [
                0.43949949011848455,
                -1.022217750325243,
                0.49621558323783455,
                0.4517782914106143,
                -0.7678800803401096,
                -0.315171190496138
            ]
        },
        {
            "positions": [
                0.33676753375609847,
                -1.0121213027414893,
                0.6060262267357885,
                0.5427023478953332,
                -0.7313770426694473,
                -0.34958896157346836
            ]
        },
        {
            "positions": [
                0.23403557739371245,
                -1.0020248551577353,
                0.7158368702337421,
                0.6336264043800517,
                -0.6948740049987849,
                -0.38400673265079865
            ]
        },
        {
            "positions": [
                0.21000358268167596,
                -0.9998207520435307,
                0.7738233439326947,
                0.679419666863516,
                -0.6629128539748083,
                -0.3835138483367444
            ]
        },
        {
            "positions": [
                0.18518678597919452,
                -0.9711611298083485,
                0.8919990990755445,
                0.815834026550311,
                -0.6206485617872212,
                -0.35248062200545593
            ]
        },
        {
            "positions": [
                0.16036998927671306,
                -0.9425015075731662,
                1.0101748542183944,
                0.9522483862371061,
                -0.5783842695996341,
                -0.32144739567416747
            ]
        },
        {
            "positions": [
                0.13555319257423162,
                -0.9138418853379838,
                1.1283506093612443,
                1.088662745923901,
                -0.536119977412047,
                -0.290414169342879
            ]
        },
        {
            "positions": [
                0.11073639587175017,
                -0.8851822631028016,
                1.2465263645040943,
                1.225077105610696,
                -0.4938556852244599,
                -0.25938094301159054
            ]
        },
        {
            "positions": [
                0.08591959916926871,
                -0.8565226408676193,
                1.3647021196469442,
                1.3614914652974912,
                -0.4515913930368728,
                -0.2283477166803021
            ]
        },
        {
            "positions": [
                0.06110280246678729,
                -0.827863018632437,
                1.482877874789794,
                1.497905824984286,
                -0.4093271008492857,
                -0.19731449034901366
            ]
        },
        {
            "positions": [
                0.03628600576430582,
                -0.7992033963972547,
                1.6010536299326437,
                1.6343201846710813,
                -0.3670628086616986,
                -0.16628126401772517
            ]
        },
        {
            "positions": [
                0.011469209061824387,
                -0.7705437741620724,
                1.7192293850754936,
                1.7707345443578761,
                -0.3247985164741115,
                -0.13524803768643673
            ]
        },
        {
            "positions": [
                -0.01334758764065707,
                -0.7418841519268902,
                1.8374051402183436,
                1.9071489040446712,
                -0.2825342242865244,
                -0.10421481135514826
            ]
        },
        {
            "positions": [
                0.05451915221552856,
                -0.7626476326170023,
                1.923702743324407,
                1.9419709257451379,
                -0.20741125176555747,
                -0.08730221768810659
            ]
        },
        {
            "positions": [
                0.12238589207171419,
                -0.7834111133071144,
                2.0100003464304703,
                1.9767929474456047,
                -0.13228827924459052,
                -0.0703896240210649
            ]
        }
    ]
}{
    "goal": {
        "global_pose": {
            "orientation": {
                "w": 0.7047431468963623,
                "x": -0.7094548344612122,
                "y": 0.0024358443915843964,
                "z": -0.0022348060738295317
            },
            "position": {
                "x": 0.6094750761985779,
                "y": 0.3671506643295288,
                "z": 0.19426114857196808
            }
        },
        "name": "move_to_magneteinheit_A"
    },
    "id": "BiTRRT_move_to_magneteinheit_A_19",
    "joint_names": [
        "shoulder_pan_joint",
        "shoulder_lift_joint",
        "elbow_joint",
        "wrist_1_joint",
        "wrist_2_joint",
        "wrist_3_joint"
    ],
    "metrics": {
        "cart_traj_len": 1.3050196864125154,
        "distance_elbow_joint": 0.26732911794282455,
        "distance_shoulder_lift_joint": 0.9251039970950574,
        "distance_shoulder_pan_joint": 1.2418591819412887,
        "distance_wrist_1_joint": 0.7951342038428185,
        "distance_wrist_2_joint": 1.4371570198413188,
        "distance_wrist_3_joint": 4.235454311462533,
        "smoothness": 0.16922180420173913,
        "time": 0.080930792,
        "traj_len": 2.9836282999270933,
        "weighted_distance": 4.427780220238471
    },
    "planner": "BiTRRT",
    "start": {
        "state": {
            "elbow_joint": 1.919643534880228,
            "shoulder_lift_joint": -1.8972525353963687,
            "shoulder_pan_joint": -1.1188672234189438,
            "wrist_1_joint": -1.5931878212786155,
            "wrist_2_joint": 1.5706036197970081,
            "wrist_3_joint": 1.118896926603594
        }
    },
    "waypoints": [
        {
            "positions": [
                -1.1188672234189438,
                -1.8972525353963687,
                1.919643534880228,
                -1.5931878212786155,
                1.5706036197970081,
                1.118896926603594
            ]
        },
        {
            "positions": [
                -1.0659379445520314,
                -1.8573777356280436,
                1.914931516951809,
                -1.5567828140079538,
                1.5036586961400589,
                0.9402693463142342
            ]
        },
        {
            "positions": [
                -1.0130086656851187,
                -1.8175029358597186,
                1.91021949902339,
                -1.5203778067372922,
                1.4367137724831094,
                0.7616417660248744
            ]
        },
        {
            "positions": [
                -0.9600793868182063,
                -1.7776281360913935,
                1.905507481094971,
                -1.4839727994666305,
                1.3697688488261601,
                0.5830141857355147
            ]
        },
        {
            "positions": [
                -0.9071501079512938,
                -1.7377533363230684,
                1.900795463166552,
                -1.4475677921959689,
                1.3028239251692106,
                0.4043866054461549
            ]
        },
        {
            "positions": [
                -0.8542208290843814,
                -1.6978785365547435,
                1.896083445238133,
                -1.4111627849253072,
                1.2358790015122614,
                0.22575902515679502
            ]
        },
        {
            "positions": [
                -0.8012915502174687,
                -1.6580037367864184,
                1.891371427309714,
                -1.3747577776546456,
                1.1689340778553121,
                0.04713144486743537
            ]
        },
        {
            "positions": [
                -0.7483622713505562,
                -1.6181289370180933,
                1.886659409381295,
                -1.338352770383984,
                1.1019891541983626,
                -0.1314961354219244
            ]
        },
        {
            "positions": [
                -0.6954329924836438,
                -1.5782541372497683,
                1.881947391452876,
                -1.3019477631133223,
                1.0350442305414131,
                -0.31012371571128416
            ]
        },
        {
            "positions": [
                -0.6425037136167312,
                -1.5383793374814432,
                1.877235373524457,
                -1.2655427558426606,
                0.968099306884464,
                -0.48875129600064393
            ]
        },
        {
            "positions": [
                -0.5895744347498187,
                -1.498504537713118,
                1.8725233555960379,
                -1.229137748571999,
                0.9011543832275146,
                -0.6673788762900039
            ]
        },
        {
            "positions": [
                -0.5366451558829061,
                -1.458629737944793,
                1.8678113376676186,
                -1.1927327413013373,
                0.8342094595705651,
                -0.8460064565793637
            ]
        },
        {
            "positions": [
                -0.4837158770159936,
                -1.418754938176468,
                1.8630993197391996,
                -1.156327734030676,
                0.7672645359136159,
                -1.0246340368687232
            ]
        },
        {
            "positions": [
                -0.43078659814908105,
                -1.3788801384081428,
                1.8583873018107806,
                -1.119922726760014,
                0.7003196122566665,
                -1.2032616171580834
            ]
        },
        {
            "positions": [
                -0.3778573192821686,
                -1.3390053386398177,
                1.8536752838823616,
                -1.0835177194893526,
                0.6333746885997171,
                -1.3818891974474428
            ]
        },
        {
            "positions": [
                -0.324928040415256,
                -1.2991305388714927,
                1.8489632659539426,
                -1.047112712218691,
                0.5664297649427676,
                -1.560516777736803
            ]
        },
        {
            "positions": [
                -0.27199876154834357,
                -1.2592557391031676,
                1.8442512480255235,
                -1.0107077049480293,
                0.4994848412858184,
                -1.7391443580261623
            ]
        },
        {
            "positions": [
                -0.219069482681431,
                -1.2193809393348425,
                1.8395392300971045,
                -0.9743026976773675,
                0.4325399176288691,
                -1.9177719383155225
            ]
        },
        {
            "positions": [
                -0.16614020381451855,
                -1.1795061395665176,
                1.8348272121686855,
                -0.9378976904067059,
                0.36559499397191986,
                -2.0963995186048816
            ]
        },
        {
            "positions": [
                -0.1132109249476061,
                -1.1396313397981925,
                1.8301151942402665,
                -0.9014926831360442,
                0.2986500703149704,
                -2.275027098894242
            ]
        },
        {
            "positions": [
                -0.06028164608069364,
                -1.0997565400298674,
                1.8254031763118475,
                -0.8650876758653826,
                0.2317051466580211,
                -2.453654679183602
            ]
        },
        {
            "positions": [
                -0.0073523672137809915,
                -1.0598817402615424,
                1.8206911583834284,
                -0.828682668594721,
                0.1647602230010716,
                -2.632282259472962
            ]
        },
        {
            "positions": [
                0.0360957413649276,
                -1.0891261409149526,
                1.8768167388654367,
                -0.8388923523143623,
                0.1543223486526109,
                -2.7937073012682876
            ]
        },
        {
            "positions": [
                0.0795438499436362,
                -1.1183705415683631,
                1.932942319347445,
                -0.8491020360340036,
                0.1438844743041502,
                -2.955132343063613
            ]
        },
        {
            "positions": [
                0.12299195852234479,
                -1.1476149422217734,
                1.9890678998294533,
                -0.859311719753645,
                0.1334465999556895,
                -3.1165573848589387
            ]
        }
    ]
}