{
    "goal": {
        "global_pose": {
            "orientation": {
                "w": 0.7047431468963623,
                "x": -0.7094548344612122,
                "y": 0.0024358443915843964,
                "z": -0.0022348060738295317
            },
            "position": {
                "x": 0.6094750761985779,
                "y": 0.3671506643295288,
                "z": 0.19426114857196808
            }
        },
        "name": "move_to_magneteinheit_A"
    },
    "id": "BiTRRT_move_to_magneteinheit_A_28",
    "joint_names": [
        "shoulder_pan_joint",
        "shoulder_lift_joint",
        "elbow_joint",
        "wrist_1_joint",
        "wrist_2_joint",
        "wrist_3_joint"
    ],
    "metrics": {
        "cart_traj_len": 3.3272767107623262,
        "distance_elbow_joint": 3.9054847607867247,
        "distance_shoulder_lift_joint": 0.595498912548811,
        "distance_shoulder_pan_joint": 2.809106532548939,
        "distance_wrist_1_joint": 3.4520420859523573,
        "distance_wrist_2_joint": 1.448146647448339,
        "distance_wrist_3_joint": 0.6227010712035355,
        "smoothness": 0.0791508663881637,
        "time": 0.13539165,
        "traj_len": 3.582314895495467,
        "weighted_distance": 4.3564401621388615
    },
    "planner": "BiTRRT",
    "start": {
        "state": {
            "elbow_joint": -1.919618573717145,
            "shoulder_lift_joint": -1.2443395971678275,
            "shoulder_pan_joint": 2.6996025300909787,
            "wrist_1_joint": -1.548550951253194,
            "wrist_2_joint": -1.5709469090946802,
            "wrist_3_joint": 0.4420197732051276
        }
    },
    "waypoints": [
        {
            "positions": [
                2.6996025300909787,
                -1.2443395971678275,
                -1.919618573717145,
                -1.548550951253194,
                -1.5709469090946802,
                0.4420197732051276
            ]
        },
        {
            "positions": [
                2.5926987858359634,
                -1.2233546716477595,
                -1.834144116831505,
                -1.4514079837438822,
                -1.5221601667466809,
                0.42045113413503965
            ]
        },
        {
            "positions": [
                2.4857950415809476,
                -1.2023697461276914,
                -1.748669659945865,
                -1.3542650162345704,
                -1.4733734243986816,
                0.39888249506495177
            ]
        },
        {
            "positions": [
                2.378891297325932,
                -1.1813848206076234,
                -1.663195203060225,
                -1.2571220487252583,
                -1.4245866820506823,
                0.3773138559948639
            ]
        },
        {
            "positions": [
                2.2719875530709164,
                -1.1603998950875556,
                -1.5777207461745852,
                -1.1599790812159467,
                -1.375799939702683,
                0.35574521692477595
            ]
        },
        {
            "positions": [
                2.165083808815901,
                -1.1394149695674876,
                -1.4922462892889452,
                -1.0628361137066347,
                -1.3270131973546837,
                0.334176577854688
            ]
        },
        {
            "positions": [
                2.0581800645608856,
                -1.1184300440474195,
                -1.4067718324033054,
                -0.9656931461973228,
                -1.2782264550066844,
                0.31260793878460014
            ]
        },
        {
            "positions": [
                1.9512763203058698,
                -1.0974451185273515,
                -1.3212973755176654,
                -0.8685501786880109,
                -1.229439712658685,
                0.29103929971451226
            ]
        },
        {
            "positions": [
                1.8443725760508545,
                -1.0764601930072835,
                -1.2358229186320253,
                -0.7714072111786991,
                -1.1806529703106858,
                0.2694706606444243
            ]
        },
        {
            "positions": [
                1.7374688317958387,
                -1.0554752674872154,
                -1.1503484617463855,
                -0.6742642436693872,
                -1.1318662279626863,
                0.2479020215743364
            ]
        },
        {
            "positions": [
                1.630565087540823,
                -1.0344903419671474,
                -1.0648740048607455,
                -0.5771212761600752,
                -1.083079485614687,
                0.2263333825042485
            ]
        },
        {
            "positions": [
                1.5236613432858077,
                -1.0135054164470794,
                -0.9793995479751056,
                -0.4799783086507634,
                -1.0342927432666877,
                0.2047647434341606
            ]
        },
        {
            "positions": [
                1.4167575990307921,
                -0.9925204909270114,
                -0.8939250910894656,
                -0.38283534114145157,
                -0.9855060009186885,
                0.1831961043640727
            ]
        },
        {
            "positions": [
                1.3098538547757768,
                -0.9715355654069435,
                -0.8084506342038258,
                -0.28569237363213973,
                -0.9367192585706892,
                0.1616274652939848
            ]
        },
        {
            "positions": [
                1.202950110520761,
                -0.9505506398868755,
                -0.7229761773181855,
                -0.18854940612282767,
                -0.8879325162226898,
                0.14005882622389687
            ]
        },
        {
            "positions": [
                1.0960463662657456,
                -0.9295657143668075,
                -0.6375017204325457,
                -0.09140643861351583,
                -0.8391457738746906,
                0.11849018715380893
            ]
        },
        {
            "positions": [
                0.98914262201073,
                -0.9085807888467394,
                -0.5520272635469059,
                0.005736528895795789,
                -0.7903590315266913,
                0.09692154808372105
            ]
        },
        {
            "positions": [
                0.8822388777557142,
                -0.8875958633266714,
                -0.46655280666126586,
                0.10287949640510785,
                -0.7415722891786919,
                0.07535290901363312
            ]
        },
        {
            "positions": [
                0.7753351335006988,
                -0.8666109378066034,
                -0.38107834977562605,
                0.2000224639144197,
                -0.6927855468306926,
                0.05378426994354524
            ]
        },
        {
            "positions": [
                0.6684313892456832,
                -0.8456260122865354,
                -0.295603892889986,
                0.29716543142373153,
                -0.6439988044826933,
                0.03221563087345736
            ]
        },
        {
            "positions": [
                0.5615276449906674,
                -0.8246410867664674,
                -0.21012943600434597,
                0.3943083989330436,
                -0.5952120621346939,
                0.010646991803369421
            ]
        },
        {
            "positions": [
                0.45462390073565206,
                -0.8036561612463994,
                -0.12465497911870616,
                0.4914513664423552,
                -0.5464253197866946,
                -0.01092164726671846
            ]
        },
        {
            "positions": [
                0.3477201564806367,
                -0.7826712357263315,
                -0.03918052223306634,
                0.5885943339516673,
                -0.49763857743869533,
                -0.032490286336806395
            ]
        },
        {
            "positions": [
                0.2408164122256209,
                -0.7616863102062634,
                0.04629393465257392,
                0.6857373014609793,
                -0.44885183509069604,
                -0.05405892540689433
            ]
        },
        {
            "positions": [
                0.13391266797060558,
                -0.7407013846861954,
                0.1317683915382139,
                0.7828802689702908,
                -0.40006509274269686,
                -0.07562756447698227
            ]
        },
        {
            "positions": [
                0.1179995006037657,
                -0.7370985585855211,
                0.320710077535296,
                0.9172061378513623,
                -0.3797284043807692,
                -0.0636583755464023
            ]
        },
        {
            "positions": [
                0.10208633323692581,
                -0.7334957324848468,
                0.5096517635323781,
                1.0515320067324336,
                -0.35939171601884157,
                -0.051689186615822336
            ]
        },
        {
            "positions": [
                0.08617316587008593,
                -0.7298929063841726,
                0.6985934495294603,
                1.185857875613505,
                -0.3390550276569139,
                -0.03971999768524237
            ]
        },
        {
            "positions": [
                0.07025999850324605,
                -0.7262900802834983,
                0.8875351355265424,
                1.3201837444945763,
                -0.3187183392949863,
                -0.027750808754662404
            ]
        },
        {
            "positions": [
                0.05434683113640616,
                -0.722687254182824,
                1.0764768215236244,
                1.4545096133756479,
                -0.2983816509330586,
                -0.015781619824082438
            ]
        },
        {
            "positions": [
                0.03843366376956628,
                -0.7190844280821498,
                1.2654185075207067,
                1.5888354822567192,
                -0.2780449625711309,
                -0.003812430893502472
            ]
        },
        {
            "positions": [
                0.022520496402726395,
                -0.7154816019814755,
                1.4543601935177888,
                1.7231613511377906,
                -0.2577082742092033,
                0.008156758037077494
            ]
        },
        {
            "positions": [
                0.006607329035886497,
                -0.7118787758808012,
                1.6433018795148708,
                1.857487220018862,
                -0.23737158584727563,
                0.02012594696765746
            ]
        },
        {
            "positions": [
                0.06466299478281037,
                -0.7433978215116935,
                1.8145840332922254,
                1.8804891773590118,
                -0.18008592374680824,
                0.0247760580060504
            ]
        },
        {
            "positions": [
                0.12271866052973425,
                -0.7749168671425859,
                1.9858661870695797,
                1.9034911346991614,
                -0.12280026164634084,
                0.029426169044443336
            ]
        }
    ]
}{
    "goal": {
        "global_pose": {
            "orientation": {
                "w": 0.7047431468963623,
                "x": -0.7094548344612122,
                "y": 0.0024358443915843964,
                "z": -0.0022348060738295317
            },
            "position": {
                "x": 0.6094750761985779,
                "y": 0.3671506643295288,
                "z": 0.19426114857196808
            }
        },
        "name": "move_to_magneteinheit_A"
    },
    "id": "BiTRRT_move_to_magneteinheit_A_28",
    "joint_names": [
        "shoulder_pan_joint",
        "shoulder_lift_joint",
        "elbow_joint",
        "wrist_1_joint",
        "wrist_2_joint",
        "wrist_3_joint"
    ],
    "metrics": {
        "cart_traj_len": 1.239167902417919,
        "distance_elbow_joint": 0.10679202000569998,
        "distance_shoulder_lift_joint": 0.7895245293225135,
        "distance_shoulder_pan_joint": 1.2412714416873896,
        "distance_wrist_1_joint": 0.9116832043054622,
        "distance_wrist_2_joint": 1.4471604046043203,
        "distance_wrist_3_joint": 4.385341894414289,
        "smoothness": 0.03611856970097587,
        "time": 0.14222459,
        "traj_len": 2.980230443160339,
        "weighted_distance": 4.473399254714252
    },
    "planner": "BiTRRT",
    "start": {
        "state": {
            "elbow_joint": 1.919643534880228,
            "shoulder_lift_joint": -1.8972525353963687,
            "shoulder_pan_joint": -1.1188672234189438,
            "wrist_1_joint": -1.5931878212786155,
            "wrist_2_joint": 1.5706036197970081,
            "wrist_3_joint": 1.118896926603594
        }
    },
    "waypoints": [
        {
            "positions": [
                -1.1188672234189438,
                -1.8972525353963687,
                1.919643534880228,
                -1.5931878212786155,
                1.5706036197970081,
                1.118896926603594
            ]
        },
        {
            "positions": [
                -1.0655106328735084,
                -1.8618072287347858,
                1.9179364070663898,
                -1.551925635683835,
                1.5064570436009013,
                0.9340791798090186
            ]
        },
        {
            "positions": [
                -1.012154042328073,
                -1.8263619220732028,
                1.9162292792525515,
                -1.5106634500890541,
                1.4423104674047946,
                0.7492614330144431
            ]
        },
        {
            "positions": [
                -0.9587974517826376,
                -1.79091661541162,
                1.9145221514387134,
                -1.4694012644942736,
                1.3781638912086878,
                0.5644436862198677
            ]
        },
        {
            "positions": [
                -0.9054408612372022,
                -1.755471308750037,
                1.912815023624875,
                -1.428139078899493,
                1.314017315012581,
                0.3796259394252922
            ]
        },
        {
            "positions": [
                -0.8520842706917668,
                -1.7200260020884541,
                1.9111078958110368,
                -1.3868768933047122,
                1.2498707388164743,
                0.19480819263071691
            ]
        },
        {
            "positions": [
                -0.7987276801463314,
                -1.6845806954268712,
                1.9094007679971985,
                -1.3456147077099316,
                1.1857241626203674,
                0.009990445836141504
            ]
        },
        {
            "positions": [
                -0.745371089600896,
                -1.6491353887652882,
                1.9076936401833604,
                -1.3043525221151508,
                1.1215775864242605,
                -0.17482730095843402
            ]
        },
        {
            "positions": [
                -0.6920144990554606,
                -1.6136900821037052,
                1.905986512369522,
                -1.2630903365203703,
                1.0574310102281537,
                -0.35964504775300954
            ]
        },
        {
            "positions": [
                -0.6386579085100252,
                -1.5782447754421223,
                1.9042793845556838,
                -1.2218281509255897,
                0.9932844340320469,
                -0.5444627945475848
            ]
        },
        {
            "positions": [
                -0.5853013179645898,
                -1.5427994687805395,
                1.9025722567418455,
                -1.1805659653308092,
                0.9291378578359403,
                -0.7292805413421601
            ]
        },
        {
            "positions": [
                -0.5319447274191544,
                -1.5073541621189566,
                1.9008651289280074,
                -1.1393037797360284,
                0.8649912816398334,
                -0.9140982881367357
            ]
        },
        {
            "positions": [
                -0.47858813687371904,
                -1.4719088554573736,
                1.899158001114169,
                -1.0980415941412478,
                0.8008447054437267,
                -1.098916034931311
            ]
        },
        {
            "positions": [
                -0.42523154632828364,
                -1.4364635487957906,
                1.8974508733003308,
                -1.056779408546467,
                0.7366981292476198,
                -1.2837337817258867
            ]
        },
        {
            "positions": [
                -0.37187495578284824,
                -1.401018242134208,
                1.8957437454864925,
                -1.0155172229516864,
                0.672551553051513,
                -1.468551528520462
            ]
        },
        {
            "positions": [
                -0.31851836523741295,
                -1.365572935472625,
                1.8940366176726542,
                -0.9742550373569059,
                0.6084049768554063,
                -1.6533692753150373
            ]
        },
        {
            "positions": [
                -0.26516177469197744,
                -1.330127628811042,
                1.892329489858816,
                -0.9329928517621251,
                0.5442584006592994,
                -1.838187022109613
            ]
        },
        {
            "positions": [
                -0.21180518414654204,
                -1.294682322149459,
                1.8906223620449778,
                -0.8917306661673445,
                0.4801118244631928,
                -2.0230047689041877
            ]
        },
        {
            "positions": [
                -0.15844859360110652,
                -1.259237015487876,
                1.8889152342311395,
                -0.8504684805725637,
                0.4159652482670857,
                -2.207822515698764
            ]
        },
        {
            "positions": [
                -0.10509200305567123,
                -1.223791708826293,
                1.8872081064173012,
                -0.8092062949777832,
                0.35181867207097905,
                -2.392640262493339
            ]
        },
        {
            "positions": [
                -0.051735412510235834,
                -1.18834640216471,
                1.885500978603463,
                -0.7679441093830026,
                0.2876720958748724,
                -2.5774580092879145
            ]
        },
        {
            "positions": [
                0.0016211780351995664,
                -1.1529010955031271,
                1.8837938507896248,
                -0.7266819237882218,
                0.22352551967876533,
                -2.7622757560824898
            ]
        },
        {
            "positions": [
                0.05497776858063505,
                -1.1174557888415444,
                1.8820867229757865,
                -0.6854197381934413,
                0.15937894348265863,
                -2.9470935028770655
            ]
        },
        {
            "positions": [
                0.0886909934245404,
                -1.122319680225389,
                1.9167043270264157,
                -0.6873772988035853,
                0.1414110793376732,
                -3.1067692353438794
            ]
        },
        {
            "positions": [
                0.12240421826844576,
                -1.1271835716092335,
                1.9513219310770449,
                -0.6893348594137293,
                0.12344321519268775,
                -3.2664449678106933
            ]
        }
    ]
}