{
    "goal": {
        "global_pose": {
            "orientation": {
                "w": 0.5084816217422485,
                "x": -0.49083608388900757,
                "y": 0.5182115435600281,
                "z": -0.4816462993621826
            },
            "position": {
                "x": 0.5540239810943604,
                "y": 0.030875300988554955,
                "z": 0.16403168439865112
            }
        },
        "name": "move_to_storage_A"
    },
    "id": "BiTRRT_move_to_storage_A_84",
    "joint_names": [
        "shoulder_pan_joint",
        "shoulder_lift_joint",
        "elbow_joint",
        "wrist_1_joint",
        "wrist_2_joint",
        "wrist_3_joint"
    ],
    "metrics": {
        "cart_traj_len": 0.3538212705996578,
        "distance_elbow_joint": 0.4550033693862301,
        "distance_shoulder_lift_joint": 0.2332229447449714,
        "distance_shoulder_pan_joint": 0.4647634863988223,
        "distance_wrist_1_joint": 0.26305368453088496,
        "distance_wrist_2_joint": 1.0913850248624977,
        "distance_wrist_3_joint": 0.10640786908794553,
        "smoothness": 6.661338165333112e-16,
        "time": 0.037921238,
        "traj_len": 1.616736335650112,
        "weighted_distance": 2.0447715829844237
    },
    "planner": "BiTRRT",
    "start": {
        "state": {
            "elbow_joint": 1.9715477243005601,
            "shoulder_lift_joint": -1.1394853015351272,
            "shoulder_pan_joint": 0.12281154014795169,
            "wrist_1_joint": -0.7804696478968182,
            "wrist_2_joint": 0.12958648046900423,
            "wrist_3_joint": -3.192491284697111
        }
    },
    "waypoints": [
        {
            "positions": [
                0.12281154014795169,
                -1.1394853015351272,
                1.9715477243005601,
                -0.7804696478968182,
                0.12958648046900423,
                -3.192491284697111
            ]
        },
        {
            "positions": [
                0.05641675637669136,
                -1.172802865070123,
                2.0365482056414503,
                -0.8180487456869446,
                0.2854986268779325,
                -3.1772901605416903
            ]
        },
        {
            "positions": [
                -0.009978027394568975,
                -1.206120428605119,
                2.10154868698234,
                -0.855627843477071,
                0.4414107732868607,
                -3.1620890363862695
            ]
        },
        {
            "positions": [
                -0.0763728111658293,
                -1.2394379921401149,
                2.1665491683232303,
                -0.8932069412671975,
                0.597322919695789,
                -3.1468879122308486
            ]
        },
        {
            "positions": [
                -0.14276759493708963,
                -1.272755555675111,
                2.23154964966412,
                -0.9307860390573238,
                0.7532350661047171,
                -3.131686788075428
            ]
        },
        {
            "positions": [
                -0.20916237870834997,
                -1.3060731192101067,
                2.2965501310050103,
                -0.9683651368474503,
                0.9091472125136454,
                -3.1164856639200074
            ]
        },
        {
            "positions": [
                -0.27555716247961026,
                -1.3393906827451025,
                2.3615506123459,
                -1.0059442346375767,
                1.0650593589225736,
                -3.1012845397645865
            ]
        },
        {
            "positions": [
                -0.3419519462508706,
                -1.3727082462800986,
                2.4265510936867902,
                -1.0435233324277031,
                1.220971505331502,
                -3.0860834156091657
            ]
        }
    ]
}