{
    "goal": {
        "global_pose": {
            "orientation": {
                "w": 0.5084816217422485,
                "x": -0.49083608388900757,
                "y": 0.5182115435600281,
                "z": -0.4816462993621826
            },
            "position": {
                "x": 0.5540239810943604,
                "y": 0.030875300988554955,
                "z": 0.16403168439865112
            }
        },
        "name": "move_to_storage_A"
    },
    "id": "BiTRRT_move_to_storage_A_50",
    "joint_names": [
        "shoulder_pan_joint",
        "shoulder_lift_joint",
        "elbow_joint",
        "wrist_1_joint",
        "wrist_2_joint",
        "wrist_3_joint"
    ],
    "metrics": {
        "cart_traj_len": 0.35200050476409916,
        "distance_elbow_joint": 0.4497955253443928,
        "distance_shoulder_lift_joint": 0.23420120037604764,
        "distance_shoulder_pan_joint": 0.4609617355926423,
        "distance_wrist_1_joint": 0.24524468708248592,
        "distance_wrist_2_joint": 1.0934884734685677,
        "distance_wrist_3_joint": 0.0998407256737015,
        "smoothness": 6.661338146305771e-16,
        "time": 0.032272511,
        "traj_len": 1.6073370360748356,
        "weighted_distance": 2.0302578554056367
    },
    "planner": "BiTRRT",
    "start": {
        "state": {
            "elbow_joint": 1.9715477243005601,
            "shoulder_lift_joint": -1.1394853015351272,
            "shoulder_pan_joint": 0.12281154014795169,
            "wrist_1_joint": -0.7804696478968182,
            "wrist_2_joint": 0.12958648046900423,
            "wrist_3_joint": -3.192491284697111
        }
    },
    "waypoints": [
        {
            "positions": [
                0.12281154014795169,
                -1.1394853015351272,
                1.9715477243005601,
                -0.7804696478968182,
                0.12958648046900423,
                -3.192491284697111
            ]
        },
        {
            "positions": [
                0.056959863634717084,
                -1.1729426158745626,
                2.035804227921188,
                -0.8155046031943162,
                0.2857991195359425,
                -3.1782283238865823
            ]
        },
        {
            "positions": [
                -0.008891812878517522,
                -1.2063999302139978,
                2.100060731541815,
                -0.8505395584918142,
                0.4420117586028807,
                -3.163965363076054
            ]
        },
        {
            "positions": [
                -0.07474348939175214,
                -1.2398572445534333,
                2.164317235162443,
                -0.8855745137893121,
                0.5982243976698189,
                -3.149702402265525
            ]
        },
        {
            "positions": [
                -0.14059516590498672,
                -1.2733145588928687,
                2.22857373878307,
                -0.9206094690868101,
                0.7544370367367572,
                -3.135439441454996
            ]
        },
        {
            "positions": [
                -0.20644684241822137,
                -1.3067718732323041,
                2.292830242403698,
                -0.9556444243843081,
                0.9106496758036955,
                -3.121176480644467
            ]
        },
        {
            "positions": [
                -0.27229851893145596,
                -1.3402291875717394,
                2.357086746024325,
                -0.9906793796818061,
                1.0668623148706335,
                -3.1069135198339386
            ]
        },
        {
            "positions": [
                -0.3381501954446906,
                -1.3736865019111748,
                2.421343249644953,
                -1.025714334979304,
                1.223074953937572,
                -3.0926505590234097
            ]
        }
    ]
}