{
    "goal": {
        "global_pose": {
            "orientation": {
                "w": 0.5084816217422485,
                "x": -0.49083608388900757,
                "y": 0.5182115435600281,
                "z": -0.4816462993621826
            },
            "position": {
                "x": 0.5540239810943604,
                "y": 0.030875300988554955,
                "z": 0.16403168439865112
            }
        },
        "name": "move_to_storage_A"
    },
    "id": "BiTRRT_move_to_storage_A_124",
    "joint_names": [
        "shoulder_pan_joint",
        "shoulder_lift_joint",
        "elbow_joint",
        "wrist_1_joint",
        "wrist_2_joint",
        "wrist_3_joint"
    ],
    "metrics": {
        "cart_traj_len": 0.3529353448430469,
        "distance_elbow_joint": 0.44947455524037716,
        "distance_shoulder_lift_joint": 0.23345660230331955,
        "distance_shoulder_pan_joint": 0.463191572047897,
        "distance_wrist_1_joint": 0.2380402211512661,
        "distance_wrist_2_joint": 1.0911823853829055,
        "distance_wrist_3_joint": 0.10322641889369732,
        "smoothness": 8.881784197001252e-16,
        "time": 0.041208866,
        "traj_len": 1.6057931856311578,
        "weighted_distance": 2.0283607172643205
    },
    "planner": "BiTRRT",
    "start": {
        "state": {
            "elbow_joint": 1.9715477243005601,
            "shoulder_lift_joint": -1.1394853015351272,
            "shoulder_pan_joint": 0.12281154014795169,
            "wrist_1_joint": -0.7804696478968182,
            "wrist_2_joint": 0.12958648046900423,
            "wrist_3_joint": -3.192491284697111
        }
    },
    "waypoints": [
        {
            "positions": [
                0.12281154014795169,
                -1.1394853015351272,
                1.9715477243005601,
                -0.7804696478968182,
                0.12958648046900423,
                -3.192491284697111
            ]
        },
        {
            "positions": [
                0.05664131556968069,
                -1.1728362447213156,
                2.0357583750491854,
                -0.8144753937755704,
                0.28546967838084786,
                -3.177744653426583
            ]
        },
        {
            "positions": [
                -0.009528909008590311,
                -1.2061871879075041,
                2.0999690257978108,
                -0.8484811396543228,
                0.4413528762926915,
                -3.1629980221560547
            ]
        },
        {
            "positions": [
                -0.0756991335868613,
                -1.2395381310936926,
                2.164179676546436,
                -0.8824868855330751,
                0.5972360742045351,
                -3.1482513908855267
            ]
        },
        {
            "positions": [
                -0.1418693581651323,
                -1.272889074279881,
                2.2283903272950614,
                -0.9164926314118274,
                0.7531192721163787,
                -3.1335047596149983
            ]
        },
        {
            "positions": [
                -0.20803958274340334,
                -1.3062400174660698,
                2.2926009780436867,
                -0.9504983772905797,
                0.9090024700282224,
                -3.1187581283444703
            ]
        },
        {
            "positions": [
                -0.27420980732167427,
                -1.3395909606522582,
                2.356811628792312,
                -0.9845041231693319,
                1.064885667940066,
                -3.104011497073942
            ]
        },
        {
            "positions": [
                -0.3403800318999453,
                -1.3729419038384467,
                2.4210222795409373,
                -1.0185098690480843,
                1.2207688658519098,
                -3.089264865803414
            ]
        }
    ]
}