{
    "goal": {
        "global_pose": {
            "orientation": {
                "w": 0.5084816217422485,
                "x": -0.49083608388900757,
                "y": 0.5182115435600281,
                "z": -0.4816462993621826
            },
            "position": {
                "x": 0.5540239810943604,
                "y": 0.030875300988554955,
                "z": 0.16403168439865112
            }
        },
        "name": "move_to_storage_A"
    },
    "id": "BiTRRT_move_to_storage_A_148",
    "joint_names": [
        "shoulder_pan_joint",
        "shoulder_lift_joint",
        "elbow_joint",
        "wrist_1_joint",
        "wrist_2_joint",
        "wrist_3_joint"
    ],
    "metrics": {
        "cart_traj_len": 0.35287489003943506,
        "distance_elbow_joint": 0.4487703018891067,
        "distance_shoulder_lift_joint": 0.2349857775020896,
        "distance_shoulder_pan_joint": 0.4624479749433958,
        "distance_wrist_1_joint": 0.24150828498316568,
        "distance_wrist_2_joint": 1.0937453977706824,
        "distance_wrist_3_joint": 0.10640523811859781,
        "smoothness": 0.0,
        "time": 0.042008031,
        "traj_len": 1.6086836156333033,
        "weighted_distance": 2.0336978964925154
    },
    "planner": "BiTRRT",
    "start": {
        "state": {
            "elbow_joint": 1.9715477243005601,
            "shoulder_lift_joint": -1.1394853015351272,
            "shoulder_pan_joint": 0.12281154014795169,
            "wrist_1_joint": -0.7804696478968182,
            "wrist_2_joint": 0.12958648046900423,
            "wrist_3_joint": -3.192491284697111
        }
    },
    "waypoints": [
        {
            "positions": [
                0.12281154014795169,
                -1.1394853015351272,
                1.9715477243005601,
                -0.7804696478968182,
                0.12958648046900423,
                -3.192491284697111
            ]
        },
        {
            "positions": [
                0.056747543727466584,
                -1.17305469832114,
                2.0356577674275753,
                -0.8149708314658418,
                0.28583582300767313,
                -3.1772905363944544
            ]
        },
        {
            "positions": [
                -0.00931645269301852,
                -1.2066240951071527,
                2.0997678105545905,
                -0.8494720150348655,
                0.44208516554634203,
                -3.1620897880917975
            ]
        },
        {
            "positions": [
                -0.07538044911350363,
                -1.2401934918931656,
                2.1638778536816057,
                -0.8839731986038891,
                0.5983345080850109,
                -3.1468890397891407
            ]
        },
        {
            "positions": [
                -0.14144444553398872,
                -1.2737628886791783,
                2.227987896808621,
                -0.9184743821729129,
                0.7545838506236798,
                -3.131688291486484
            ]
        },
        {
            "positions": [
                -0.20750844195447388,
                -1.3073322854651912,
                2.2920979399356365,
                -0.9529755657419365,
                0.9108331931623488,
                -3.116487543183827
            ]
        },
        {
            "positions": [
                -0.2735724383749589,
                -1.3409016822512039,
                2.3562079830626517,
                -0.9874767493109602,
                1.0670825357010176,
                -3.10128679488117
            ]
        },
        {
            "positions": [
                -0.3396364347954441,
                -1.3744710790372168,
                2.420318026189667,
                -1.0219779328799838,
                1.2233318782396865,
                -3.0860860465785134
            ]
        }
    ]
}