{
    "goal": {
        "global_pose": {
            "orientation": {
                "w": 0.5084816217422485,
                "x": -0.49083608388900757,
                "y": 0.5182115435600281,
                "z": -0.4816462993621826
            },
            "position": {
                "x": 0.5540239810943604,
                "y": 0.030875300988554955,
                "z": 0.16403168439865112
            }
        },
        "name": "move_to_storage_A"
    },
    "id": "BiTRRT_move_to_storage_A_13",
    "joint_names": [
        "shoulder_pan_joint",
        "shoulder_lift_joint",
        "elbow_joint",
        "wrist_1_joint",
        "wrist_2_joint",
        "wrist_3_joint"
    ],
    "metrics": {
        "cart_traj_len": 0.3529611093113414,
        "distance_elbow_joint": 0.451749598448699,
        "distance_shoulder_lift_joint": 0.23166767326417115,
        "distance_shoulder_pan_joint": 0.46026546807054236,
        "distance_wrist_1_joint": 0.2575497445989311,
        "distance_wrist_2_joint": 1.1026548605374642,
        "distance_wrist_3_joint": 0.10885808114357687,
        "smoothness": 4.440892098500626e-16,
        "time": 0.039437665999999996,
        "traj_len": 1.6163989068492297,
        "weighted_distance": 2.047111670985961
    },
    "planner": "BiTRRT",
    "start": {
        "state": {
            "elbow_joint": 1.9715477243005601,
            "shoulder_lift_joint": -1.1394853015351272,
            "shoulder_pan_joint": 0.12281154014795169,
            "wrist_1_joint": -0.7804696478968182,
            "wrist_2_joint": 0.12958648046900423,
            "wrist_3_joint": -3.192491284697111
        }
    },
    "waypoints": [
        {
            "positions": [
                0.12281154014795169,
                -1.1394853015351272,
                1.9715477243005601,
                -0.7804696478968182,
                0.12958648046900423,
                -3.192491284697111
            ]
        },
        {
            "positions": [
                0.0570593304235885,
                -1.1725806834300088,
                2.0360833812218027,
                -0.8172624685538084,
                0.28710860340292765,
                -3.176940130248029
            ]
        },
        {
            "positions": [
                -0.008692879300774684,
                -1.2056760653248904,
                2.1006190381430456,
                -0.8540552892107984,
                0.44463072633685113,
                -3.161388975798946
            ]
        },
        {
            "positions": [
                -0.07444508902513787,
                -1.238771447219772,
                2.165154695064288,
                -0.8908481098677886,
                0.6021528492707746,
                -3.145837821349864
            ]
        },
        {
            "positions": [
                -0.14019729874950104,
                -1.2718668291146535,
                2.229690351985531,
                -0.9276409305247788,
                0.759674972204698,
                -3.1302866669007816
            ]
        },
        {
            "positions": [
                -0.20594950847386428,
                -1.3049622110095351,
                2.2942260089067736,
                -0.9644337511817689,
                0.9171970951386216,
                -3.1147355124516993
            ]
        },
        {
            "positions": [
                -0.2717017181982274,
                -1.3380575929044167,
                2.358761665828016,
                -1.0012265718387592,
                1.074719218072545,
                -3.0991843580026166
            ]
        },
        {
            "positions": [
                -0.33745392792259066,
                -1.3711529747992983,
                2.423297322749259,
                -1.0380193924957493,
                1.2322413410064685,
                -3.0836332035535343
            ]
        }
    ]
}