{
    "goal": {
        "global_pose": {
            "orientation": {
                "w": 0.7047431468963623,
                "x": -0.7094548344612122,
                "y": 0.0024358443915843964,
                "z": -0.0022348060738295317
            },
            "position": {
                "x": 0.6094750761985779,
                "y": 0.3671506643295288,
                "z": 0.19426114857196808
            }
        },
        "name": "move_to_magneteinheit_A"
    },
    "id": "BKPIECE_move_to_magneteinheit_A_37",
    "joint_names": [
        "shoulder_pan_joint",
        "shoulder_lift_joint",
        "elbow_joint",
        "wrist_1_joint",
        "wrist_2_joint",
        "wrist_3_joint"
    ],
    "metrics": {
        "cart_traj_len": 6.265885062049363,
        "distance_elbow_joint": 4.237746646353549,
        "distance_shoulder_lift_joint": 0.4694593283988896,
        "distance_shoulder_pan_joint": 9.20678412152493,
        "distance_wrist_1_joint": 3.453236633498722,
        "distance_wrist_2_joint": 2.7578124559850474,
        "distance_wrist_3_joint": 2.7145560490766436,
        "smoothness": 0.26080743135901735,
        "time": 0.27408134500000003,
        "traj_len": 4.779078910714678,
        "weighted_distance": 5.871946561616075
    },
    "planner": "BKPIECE",
    "start": {
        "state": {
            "elbow_joint": -1.919618573717145,
            "shoulder_lift_joint": -1.2443395971678275,
            "shoulder_pan_joint": 2.6996025300909787,
            "wrist_1_joint": -1.548550951253194,
            "wrist_2_joint": -1.5709469090946802,
            "wrist_3_joint": 0.4420197732051276
        }
    },
    "waypoints": [
        {
            "positions": [
                2.6996025300909787,
                -1.2443395971678275,
                -1.919618573717145,
                -1.548550951253194,
                -1.5709469090946802,
                0.4420197732051276
            ]
        },
        {
            "positions": [
                2.472974529983686,
                -1.2384524605042047,
                -1.925952116354185,
                -1.521238764646386,
                -1.4902395406342333,
                0.4860305860964373
            ]
        },
        {
            "positions": [
                2.2463465298763934,
                -1.2325653238405818,
                -1.9322856589912254,
                -1.493926578039578,
                -1.4095321721737863,
                0.530041398987747
            ]
        },
        {
            "positions": [
                2.0197185297691007,
                -1.2266781871769588,
                -1.9386192016282657,
                -1.46661439143277,
                -1.3288248037133394,
                0.5740522118790568
            ]
        },
        {
            "positions": [
                1.7930905296618085,
                -1.220791050513336,
                -1.9449527442653058,
                -1.439302204825962,
                -1.2481174352528925,
                0.6180630247703665
            ]
        },
        {
            "positions": [
                1.5664625295545158,
                -1.214903913849713,
                -1.951286286902346,
                -1.411990018219154,
                -1.1674100667924456,
                0.6620738376616762
            ]
        },
        {
            "positions": [
                1.3398345294472231,
                -1.2090167771860902,
                -1.9576198295393863,
                -1.384677831612346,
                -1.0867026983319987,
                0.7060846505529859
            ]
        },
        {
            "positions": [
                1.113206529339931,
                -1.2031296405224674,
                -1.9639533721764266,
                -1.357365645005538,
                -1.0059953298715518,
                0.7500954634442956
            ]
        },
        {
            "positions": [
                0.886578529232638,
                -1.1972425038588443,
                -1.9702869148134667,
                -1.3300534583987298,
                -0.9252879614111049,
                0.7941062763356053
            ]
        },
        {
            "positions": [
                0.6599505291253456,
                -1.1913553671952215,
                -1.9766204574505069,
                -1.3027412717919218,
                -0.844580592950658,
                0.838117089226915
            ]
        },
        {
            "positions": [
                0.4333225290180529,
                -1.1854682305315987,
                -1.9829540000875472,
                -1.2754290851851138,
                -0.7638732244902111,
                0.8821279021182247
            ]
        },
        {
            "positions": [
                0.20669452891076068,
                -1.1795810938679758,
                -1.9892875427245875,
                -1.2481168985783058,
                -0.6831658560297642,
                0.9261387150095344
            ]
        },
        {
            "positions": [
                -0.019933471196532437,
                -1.173693957204353,
                -1.9956210853616276,
                -1.2208047119714978,
                -0.6024584875693173,
                0.9701495279008441
            ]
        },
        {
            "positions": [
                -0.24656147130382466,
                -1.1678068205407302,
                -2.0019546279986677,
                -1.1934925253646897,
                -0.5217511191088704,
                1.0141603407921538
            ]
        },
        {
            "positions": [
                -0.4731894714111169,
                -1.161919683877107,
                -2.008288170635708,
                -1.1661803387578817,
                -0.4410437506484235,
                1.0581711536834635
            ]
        },
        {
            "positions": [
                -0.6998174715184096,
                -1.1560325472134843,
                -2.0146217132727484,
                -1.1388681521510737,
                -0.3603363821879766,
                1.102181966574773
            ]
        },
        {
            "positions": [
                -0.9264454716257027,
                -1.1501454105498614,
                -2.0209552559097883,
                -1.1115559655442657,
                -0.2796290137275297,
                1.146192779466083
            ]
        },
        {
            "positions": [
                -1.153073471732995,
                -1.1442582738862386,
                -2.0272887985468286,
                -1.0842437789374577,
                -0.19892164526708278,
                1.1902035923573926
            ]
        },
        {
            "positions": [
                -1.3797014718402876,
                -1.1383711372226157,
                -2.033622341183869,
                -1.0569315923306497,
                -0.11821427680663588,
                1.2342144052487023
            ]
        },
        {
            "positions": [
                -1.6063294719475802,
                -1.1324840005589927,
                -2.0399558838209093,
                -1.0296194057238415,
                -0.03750690834618897,
                1.278225218140012
            ]
        },
        {
            "positions": [
                -1.832957472054873,
                -1.1265968638953698,
                -2.0462894264579496,
                -1.0023072191170335,
                0.04320046011425793,
                1.3222360310313217
            ]
        },
        {
            "positions": [
                -2.0595854721621656,
                -1.120709727231747,
                -2.0526229690949895,
                -0.9749950325102256,
                0.12390782857470484,
                1.3662468439226314
            ]
        },
        {
            "positions": [
                -2.2862134722694574,
                -1.1148225905681242,
                -2.05895651173203,
                -0.9476828459034176,
                0.20461519703515174,
                1.410257656813941
            ]
        },
        {
            "positions": [
                -2.51284147237675,
                -1.1089354539045013,
                -2.06529005436907,
                -0.9203706592966096,
                0.28532256549559865,
                1.4542684697052508
            ]
        },
        {
            "positions": [
                -2.7394694724840436,
                -1.1030483172408783,
                -2.07162359700611,
                -0.8930584726898014,
                0.36602993395604555,
                1.4982792825965605
            ]
        },
        {
            "positions": [
                -2.9660974725913354,
                -1.0971611805772554,
                -2.0779571396431504,
                -0.8657462860829934,
                0.44673730241649245,
                1.5422900954878702
            ]
        },
        {
            "positions": [
                -3.192725472698628,
                -1.0912740439136326,
                -2.0842906822801908,
                -0.8384340994761854,
                0.5274446708769394,
                1.58630090837918
            ]
        },
        {
            "positions": [
                -3.0891487189881492,
                -1.0813867384403608,
                -1.9570071029742375,
                -0.7527116062973819,
                0.5068377685015197,
                1.5372298173197239
            ]
        },
        {
            "positions": [
                -2.9855719652776704,
                -1.0714994329670893,
                -1.8297235236682843,
                -0.6669891131185783,
                0.4862308661261001,
                1.488158726260268
            ]
        },
        {
            "positions": [
                -2.881995211567192,
                -1.0616121274938175,
                -1.702439944362331,
                -0.5812666199397748,
                0.4656239637506805,
                1.439087635200812
            ]
        },
        {
            "positions": [
                -2.7784184578567133,
                -1.0517248220205457,
                -1.5751563650563778,
                -0.49554412676097126,
                0.44501706137526087,
                1.390016544141356
            ]
        },
        {
            "positions": [
                -2.6748417041462345,
                -1.041837516547274,
                -1.4478727857504246,
                -0.4098216335821677,
                0.42441015899984125,
                1.3409454530819
            ]
        },
        {
            "positions": [
                -2.5712649504357556,
                -1.0319502110740024,
                -1.3205892064444713,
                -0.3240991404033642,
                0.4038032566244216,
                1.291874362022444
            ]
        },
        {
            "positions": [
                -2.467688196725277,
                -1.0220629056007307,
                -1.193305627138518,
                -0.23837664722456064,
                0.383196354249002,
                1.242803270962988
            ]
        },
        {
            "positions": [
                -2.3641114430147985,
                -1.0121756001274589,
                -1.0660220478325648,
                -0.1526541540457571,
                0.3625894518735824,
                1.193732179903532
            ]
        },
        {
            "positions": [
                -2.2605346893043197,
                -1.0022882946541871,
                -0.9387384685266116,
                -0.06693166086695357,
                0.34198254949816276,
                1.144661088844076
            ]
        },
        {
            "positions": [
                -2.156957935593841,
                -0.9924009891809155,
                -0.8114548892206583,
                0.01879083231184997,
                0.32137564712274314,
                1.0955899977846202
            ]
        },
        {
            "positions": [
                -2.053381181883362,
                -0.9825136837076438,
                -0.6841713099147051,
                0.10451332549065351,
                0.3007687447473235,
                1.0465189067251641
            ]
        },
        {
            "positions": [
                -1.9498044281728832,
                -0.972626378234372,
                -0.5568877306087519,
                0.19023581866945705,
                0.2801618423719039,
                0.9974478156657081
            ]
        },
        {
            "positions": [
                -1.8462276744624047,
                -0.9627390727611004,
                -0.4296041513027986,
                0.2759583118482607,
                0.25955493999648427,
                0.9483767246062521
            ]
        },
        {
            "positions": [
                -1.7426509207519258,
                -0.9528517672878287,
                -0.30232057199684537,
                0.3616808050270641,
                0.23894803762106465,
                0.8993056335467962
            ]
        },
        {
            "positions": [
                -1.6390741670414473,
                -0.942964461814557,
                -0.17503699269089212,
                0.44740329820586755,
                0.21834113524564502,
                0.8502345424873401
            ]
        },
        {
            "positions": [
                -1.5354974133309685,
                -0.9330771563412852,
                -0.04775341338493888,
                0.5331257913846712,
                0.1977342328702254,
                0.8011634514278841
            ]
        },
        {
            "positions": [
                -1.4319206596204896,
                -0.9231898508680135,
                0.07953016592101436,
                0.6188482845634748,
                0.17712733049480578,
                0.7520923603684282
            ]
        },
        {
            "positions": [
                -1.328343905910011,
                -0.9133025453947419,
                0.2068137452269676,
                0.7045707777422783,
                0.15652042811938616,
                0.7030212693089721
            ]
        },
        {
            "positions": [
                -1.2247671521995322,
                -0.9034152399214701,
                0.33409732453292085,
                0.7902932709210817,
                0.13591352574396653,
                0.6539501782495162
            ]
        },
        {
            "positions": [
                -1.1211903984890537,
                -0.8935279344481983,
                0.4613809038388741,
                0.8760157640998854,
                0.11530662336854691,
                0.6048790871900602
            ]
        },
        {
            "positions": [
                -1.0176136447785749,
                -0.8836406289749267,
                0.5886644831448273,
                0.961738257278689,
                0.09469972099312729,
                0.5558079961306042
            ]
        },
        {
            "positions": [
                -0.914036891068096,
                -0.873753323501655,
                0.7159480624507806,
                1.0474607504574924,
                0.07409281861770767,
                0.5067369050711483
            ]
        },
        {
            "positions": [
                -0.8104601373576172,
                -0.8638660180283833,
                0.8432316417567338,
                1.1331832436362959,
                0.053485916242288045,
                0.45766581401169226
            ]
        },
        {
            "positions": [
                -0.7068833836471384,
                -0.8539787125551116,
                0.9705152210626871,
                1.2189057368150995,
                0.03287901386686842,
                0.4085947229522362
            ]
        },
        {
            "positions": [
                -0.6033066299366601,
                -0.8440914070818398,
                1.0977988003686403,
                1.3046282299939032,
                0.0122721114914488,
                0.35952363189278036
            ]
        },
        {
            "positions": [
                -0.49972987622618126,
                -0.8342041016085682,
                1.2250823796745935,
                1.3903507231727068,
                -0.008334790883970822,
                0.3104525408333243
            ]
        },
        {
            "positions": [
                -0.39615312251570245,
                -0.8243167961352964,
                1.3523659589805468,
                1.47607321635151,
                -0.028941693259390444,
                0.26138144977386824
            ]
        },
        {
            "positions": [
                -0.29257636880522364,
                -0.8144294906620247,
                1.4796495382865,
                1.5617957095303137,
                -0.049548595634810066,
                0.2123103587144124
            ]
        },
        {
            "positions": [
                -0.18899961509474483,
                -0.8045421851887531,
                1.6069331175924533,
                1.6475182027091173,
                -0.07015549801022969,
                0.16323926765495633
            ]
        },
        {
            "positions": [
                -0.08542286138426647,
                -0.7946548797154813,
                1.7342166968984065,
                1.7332406958879205,
                -0.09076240038564931,
                0.11416817659550027
            ]
        },
        {
            "positions": [
                0.01815389232621234,
                -0.7847675742422096,
                1.8615002762043598,
                1.8189631890667242,
                -0.11136930276106893,
                0.06509708553604443
            ]
        },
        {
            "positions": [
                0.12173064603669106,
                -0.7748802687689379,
                1.9887838555103128,
                1.9046856822455278,
                -0.13197620513648853,
                0.01602599447658839
            ]
        }
    ]
}{
    "goal": {
        "global_pose": {
            "orientation": {
                "w": 0.7047431468963623,
                "x": -0.7094548344612122,
                "y": 0.0024358443915843964,
                "z": -0.0022348060738295317
            },
            "position": {
                "x": 0.6094750761985779,
                "y": 0.3671506643295288,
                "z": 0.19426114857196808
            }
        },
        "name": "move_to_magneteinheit_A"
    },
    "id": "BKPIECE_move_to_magneteinheit_A_37",
    "joint_names": [
        "shoulder_pan_joint",
        "shoulder_lift_joint",
        "elbow_joint",
        "wrist_1_joint",
        "wrist_2_joint",
        "wrist_3_joint"
    ],
    "metrics": {
        "cart_traj_len": 1.373397851846693,
        "distance_elbow_joint": 0.779451875899358,
        "distance_shoulder_lift_joint": 0.8730126231068449,
        "distance_shoulder_pan_joint": 1.243121480041279,
        "distance_wrist_1_joint": 1.1441996744901104,
        "distance_wrist_2_joint": 1.4298378393580053,
        "distance_wrist_3_joint": 4.242598491054075,
        "smoothness": 0.27293081900791066,
        "time": 0.206448383,
        "traj_len": 3.116443804073751,
        "weighted_distance": 4.557571335690308
    },
    "planner": "BKPIECE",
    "start": {
        "state": {
            "elbow_joint": 1.919643534880228,
            "shoulder_lift_joint": -1.8972525353963687,
            "shoulder_pan_joint": -1.1188672234189438,
            "wrist_1_joint": -1.5931878212786155,
            "wrist_2_joint": 1.5706036197970081,
            "wrist_3_joint": 1.118896926603594
        }
    },
    "waypoints": [
        {
            "positions": [
                -1.1188672234189438,
                -1.8972525353963687,
                1.919643534880228,
                -1.5931878212786155,
                1.5706036197970081,
                1.118896926603594
            ]
        },
        {
            "positions": [
                -1.0700195735859963,
                -1.8604172094215008,
                1.90354819372684,
                -1.550527120614336,
                1.5094898326677295,
                0.9313263409236856
            ]
        },
        {
            "positions": [
                -1.0211719237530488,
                -1.8235818834466326,
                1.8874528525734517,
                -1.5078664199500564,
                1.4483760455384507,
                0.7437557552437774
            ]
        },
        {
            "positions": [
                -0.9723242739201011,
                -1.7867465574717647,
                1.8713575114200638,
                -1.465205719285777,
                1.387262258409172,
                0.5561851695638691
            ]
        },
        {
            "positions": [
                -0.9234766240871535,
                -1.7499112314968968,
                1.8552621702666756,
                -1.4225450186214974,
                1.3261484712798932,
                0.36861458388396073
            ]
        },
        {
            "positions": [
                -0.8746289742542059,
                -1.7130759055220288,
                1.8391668291132874,
                -1.379884317957218,
                1.2650346841506146,
                0.18104399820405248
            ]
        },
        {
            "positions": [
                -0.8257813244212584,
                -1.6762405795471607,
                1.8230714879598993,
                -1.3372236172929384,
                1.203920897021336,
                -0.006526587475855772
            ]
        },
        {
            "positions": [
                -0.7769336745883109,
                -1.6394052535722927,
                1.8069761468065113,
                -1.294562916628659,
                1.1428071098920571,
                -0.19409717315576414
            ]
        },
        {
            "positions": [
                -0.7280860247553632,
                -1.6025699275974248,
                1.7908808056531231,
                -1.2519022159643793,
                1.0816933227627783,
                -0.3816677588356725
            ]
        },
        {
            "positions": [
                -0.6792383749224156,
                -1.5657346016225566,
                1.774785464499735,
                -1.2092415153001,
                1.0205795356334997,
                -0.5692383445155809
            ]
        },
        {
            "positions": [
                -0.630390725089468,
                -1.5288992756476887,
                1.7586901233463468,
                -1.1665808146358203,
                0.959465748504221,
                -0.756808930195489
            ]
        },
        {
            "positions": [
                -0.5815430752565205,
                -1.4920639496728207,
                1.7425947821929588,
                -1.123920113971541,
                0.8983519613749422,
                -0.9443795158753974
            ]
        },
        {
            "positions": [
                -0.532695425423573,
                -1.4552286236979528,
                1.7264994410395706,
                -1.0812594133072615,
                0.8372381742456636,
                -1.1319501015553055
            ]
        },
        {
            "positions": [
                -0.4838477755906253,
                -1.4183932977230846,
                1.7104040998861825,
                -1.0385987126429819,
                0.7761243871163848,
                -1.319520687235214
            ]
        },
        {
            "positions": [
                -0.43500012575767777,
                -1.3815579717482167,
                1.6943087587327943,
                -0.9959380119787024,
                0.715010599987106,
                -1.5070912729151222
            ]
        },
        {
            "positions": [
                -0.38615247592473023,
                -1.3447226457733488,
                1.6782134175794061,
                -0.953277311314423,
                0.6538968128578274,
                -1.6946618585950304
            ]
        },
        {
            "positions": [
                -0.3373048260917826,
                -1.3078873197984806,
                1.662118076426018,
                -0.9106166106501433,
                0.5927830257285486,
                -1.882232444274939
            ]
        },
        {
            "positions": [
                -0.28845717625883505,
                -1.2710519938236127,
                1.64602273527263,
                -0.8679559099858639,
                0.5316692385992698,
                -2.069803029954847
            ]
        },
        {
            "positions": [
                -0.2396095264258874,
                -1.2342166678487447,
                1.6299273941192418,
                -0.8252952093215843,
                0.4705554514699912,
                -2.257373615634756
            ]
        },
        {
            "positions": [
                -0.19076187659293986,
                -1.1973813418738768,
                1.6138320529658536,
                -0.7826345086573049,
                0.4094416643407124,
                -2.444944201314664
            ]
        },
        {
            "positions": [
                -0.14191422675999232,
                -1.1605460158990089,
                1.5977367118124657,
                -0.7399738079930254,
                0.34832787721143377,
                -2.632514786994572
            ]
        },
        {
            "positions": [
                -0.09306657692704468,
                -1.1237106899241407,
                1.5816413706590775,
                -0.6973131073287459,
                0.2872140900821549,
                -2.8200853726744803
            ]
        },
        {
            "positions": [
                -0.044218927094097193,
                -1.0868753639492728,
                1.5655460295056893,
                -0.6546524066644663,
                0.22610030295287642,
                -3.007655958354389
            ]
        },
        {
            "positions": [
                0.011938800811380323,
                -1.1077538478358557,
                1.7073308196806292,
                -0.7232071599564535,
                0.19765546211491858,
                -3.046337827053086
            ]
        },
        {
            "positions": [
                0.06809652871685784,
                -1.1286323317224387,
                1.8491156098555688,
                -0.7917619132484405,
                0.16921062127696074,
                -3.0850196957517833
            ]
        },
        {
            "positions": [
                0.12425425662233537,
                -1.1495108156090217,
                1.9909004000305086,
                -0.8603166665404276,
                0.1407657804390029,
                -3.12370156445048
            ]
        }
    ]
}