{
    "goal": {
        "global_pose": {
            "orientation": {
                "w": 0.5084816217422485,
                "x": -0.49083608388900757,
                "y": 0.5182115435600281,
                "z": -0.4816462993621826
            },
            "position": {
                "x": 0.5540239810943604,
                "y": 0.030875300988554955,
                "z": 0.16403168439865112
            }
        },
        "name": "move_to_storage_A"
    },
    "id": "BKPIECE_move_to_storage_A_83",
    "joint_names": [
        "shoulder_pan_joint",
        "shoulder_lift_joint",
        "elbow_joint",
        "wrist_1_joint",
        "wrist_2_joint",
        "wrist_3_joint"
    ],
    "metrics": {
        "cart_traj_len": 0.3527095963446223,
        "distance_elbow_joint": 0.44935664640087136,
        "distance_shoulder_lift_joint": 0.23328085388602804,
        "distance_shoulder_pan_joint": 0.4617565046914135,
        "distance_wrist_1_joint": 0.24205936581934384,
        "distance_wrist_2_joint": 1.095167480977973,
        "distance_wrist_3_joint": 0.10502246737066878,
        "smoothness": 1.3322676295501878e-15,
        "time": 0.167049743,
        "traj_len": 1.6083044858316784,
        "weighted_distance": 2.0332031626684417
    },
    "planner": "BKPIECE",
    "start": {
        "state": {
            "elbow_joint": 1.9715477243005601,
            "shoulder_lift_joint": -1.1394853015351272,
            "shoulder_pan_joint": 0.12281154014795169,
            "wrist_1_joint": -0.7804696478968182,
            "wrist_2_joint": 0.12958648046900423,
            "wrist_3_joint": -3.192491284697111
        }
    },
    "waypoints": [
        {
            "positions": [
                0.12281154014795169,
                -1.1394853015351272,
                1.9715477243005601,
                -0.7804696478968182,
                0.12958648046900423,
                -3.192491284697111
            ]
        },
        {
            "positions": [
                0.056846325192035474,
                -1.1728111378045598,
                2.035741530929256,
                -0.8150495572995816,
                0.28603897775157183,
                -3.17748807507273
            ]
        },
        {
            "positions": [
                -0.009118889763880741,
                -1.2061369740739922,
                2.099935337557952,
                -0.849629466702345,
                0.4424914750341394,
                -3.1624848654483486
            ]
        },
        {
            "positions": [
                -0.07508410471979694,
                -1.2394628103434249,
                2.164129144186648,
                -0.8842093761051084,
                0.5989439723167069,
                -3.1474816558239676
            ]
        },
        {
            "positions": [
                -0.14104931967571316,
                -1.2727886466128575,
                2.2283229508153437,
                -0.9187892855078718,
                0.7553964695992745,
                -3.132478446199586
            ]
        },
        {
            "positions": [
                -0.2070145346316294,
                -1.3061144828822902,
                2.29251675744404,
                -0.9533691949106352,
                0.9118489668818421,
                -3.117475236575205
            ]
        },
        {
            "positions": [
                -0.27297974958754556,
                -1.3394403191517226,
                2.3567105640727357,
                -0.9879491043133986,
                1.0683014641644095,
                -3.1024720269508235
            ]
        },
        {
            "positions": [
                -0.3389449645434618,
                -1.3727661554211552,
                2.4209043707014315,
                -1.022529013716162,
                1.2247539614469773,
                -3.0874688173264424
            ]
        }
    ]
}