{
    "goal": {
        "global_pose": {
            "orientation": {
                "w": 0.5084816217422485,
                "x": -0.49083608388900757,
                "y": 0.5182115435600281,
                "z": -0.4816462993621826
            },
            "position": {
                "x": 0.5540239810943604,
                "y": 0.030875300988554955,
                "z": 0.16403168439865112
            }
        },
        "name": "move_to_storage_A"
    },
    "id": "BKPIECE_move_to_storage_A_73",
    "joint_names": [
        "shoulder_pan_joint",
        "shoulder_lift_joint",
        "elbow_joint",
        "wrist_1_joint",
        "wrist_2_joint",
        "wrist_3_joint"
    ],
    "metrics": {
        "cart_traj_len": 0.3531624844605794,
        "distance_elbow_joint": 0.44755959931291045,
        "distance_shoulder_lift_joint": 0.23427888851984946,
        "distance_shoulder_pan_joint": 0.4633441831376936,
        "distance_wrist_1_joint": 0.2367492085515296,
        "distance_wrist_2_joint": 1.091629382951739,
        "distance_wrist_3_joint": 0.10014798428754323,
        "smoothness": 1.9984014476971995e-15,
        "time": 0.157397255,
        "traj_len": 1.6042784193403792,
        "weighted_distance": 2.0254342267374716
    },
    "planner": "BKPIECE",
    "start": {
        "state": {
            "elbow_joint": 1.9715477243005601,
            "shoulder_lift_joint": -1.1394853015351272,
            "shoulder_pan_joint": 0.12281154014795169,
            "wrist_1_joint": -0.7804696478968182,
            "wrist_2_joint": 0.12958648046900423,
            "wrist_3_joint": -3.192491284697111
        }
    },
    "waypoints": [
        {
            "positions": [
                0.12281154014795169,
                -1.1394853015351272,
                1.9715477243005601,
                -0.7804696478968182,
                0.12958648046900423,
                -3.192491284697111
            ]
        },
        {
            "positions": [
                0.05661951398542403,
                -1.17295371418082,
                2.03548480991669,
                -0.8142909634041795,
                0.28553353517639546,
                -3.1781844297988906
            ]
        },
        {
            "positions": [
                -0.009572512177103629,
                -1.2064221268265127,
                2.0994218955328203,
                -0.848112278911541,
                0.44148058988378674,
                -3.1638775749006705
            ]
        },
        {
            "positions": [
                -0.07576453833963127,
                -1.2398905394722055,
                2.16335898114895,
                -0.8819335944189023,
                0.597427644591178,
                -3.14957072000245
            ]
        },
        {
            "positions": [
                -0.14195656450215893,
                -1.2733589521178983,
                2.2272960667650805,
                -0.9157549099262636,
                0.7533746992985693,
                -3.1352638651042293
            ]
        },
        {
            "positions": [
                -0.2081485906646866,
                -1.306827364763591,
                2.2912331523812104,
                -0.9495762254336251,
                0.9093217540059606,
                -3.1209570102060087
            ]
        },
        {
            "positions": [
                -0.2743406168272142,
                -1.3402957774092839,
                2.3551702379973403,
                -0.9833975409409863,
                1.065268808713352,
                -3.1066501553077885
            ]
        },
        {
            "positions": [
                -0.3405326429897419,
                -1.3737641900549766,
                2.4191073236134706,
                -1.0172188564483478,
                1.221215863420743,
                -3.092343300409568
            ]
        }
    ]
}