{
    "goal": {
        "global_pose": {
            "orientation": {
                "w": 0.5084816217422485,
                "x": -0.49083608388900757,
                "y": 0.5182115435600281,
                "z": -0.4816462993621826
            },
            "position": {
                "x": 0.5540239810943604,
                "y": 0.030875300988554955,
                "z": 0.16403168439865112
            }
        },
        "name": "move_to_storage_A"
    },
    "id": "BKPIECE_move_to_storage_A_137",
    "joint_names": [
        "shoulder_pan_joint",
        "shoulder_lift_joint",
        "elbow_joint",
        "wrist_1_joint",
        "wrist_2_joint",
        "wrist_3_joint"
    ],
    "metrics": {
        "cart_traj_len": 0.35402090521647744,
        "distance_elbow_joint": 0.4502088436535301,
        "distance_shoulder_lift_joint": 0.23380127706389553,
        "distance_shoulder_pan_joint": 0.4602242859799945,
        "distance_wrist_1_joint": 0.24676564139667378,
        "distance_wrist_2_joint": 1.1117981851617276,
        "distance_wrist_3_joint": 0.10562917006660077,
        "smoothness": 1.8873791433662325e-15,
        "time": 0.240150032,
        "traj_len": 1.615062662351657,
        "weighted_distance": 2.04407670355445
    },
    "planner": "BKPIECE",
    "start": {
        "state": {
            "elbow_joint": 1.9715477243005601,
            "shoulder_lift_joint": -1.1394853015351272,
            "shoulder_pan_joint": 0.12281154014795169,
            "wrist_1_joint": -0.7804696478968182,
            "wrist_2_joint": 0.12958648046900423,
            "wrist_3_joint": -3.192491284697111
        }
    },
    "waypoints": [
        {
            "positions": [
                0.12281154014795169,
                -1.1394853015351272,
                1.9715477243005601,
                -0.7804696478968182,
                0.12958648046900423,
                -3.192491284697111
            ]
        },
        {
            "positions": [
                0.05706521357938105,
                -1.1728854839728264,
                2.0358632733939217,
                -0.8157218823820572,
                0.2884147926349653,
                -3.1774014032590254
            ]
        },
        {
            "positions": [
                -0.008681112989189596,
                -1.206285666410526,
                2.100178822487283,
                -0.8509741168672964,
                0.4472431048009264,
                -3.1623115218209397
            ]
        },
        {
            "positions": [
                -0.07442743955776022,
                -1.2396858488482252,
                2.1644943715806444,
                -0.8862263513525355,
                0.6060714169668875,
                -3.147221640382854
            ]
        },
        {
            "positions": [
                -0.14017376612633087,
                -1.2730860312859247,
                2.228809920674006,
                -0.9214785858377746,
                0.7648997291328485,
                -3.1321317589447677
            ]
        },
        {
            "positions": [
                -0.20592009269490152,
                -1.306486213723624,
                2.2931254697673675,
                -0.9567308203230137,
                0.9237280412988097,
                -3.117041877506682
            ]
        },
        {
            "positions": [
                -0.2716664192634721,
                -1.3398863961613232,
                2.3574410188607287,
                -0.9919830548082529,
                1.0825563534647706,
                -3.101951996068596
            ]
        },
        {
            "positions": [
                -0.3374127458320428,
                -1.3732865785990227,
                2.4217565679540902,
                -1.027235289293492,
                1.241384665630732,
                -3.0868621146305104
            ]
        }
    ]
}