{
    "goal": {
        "global_pose": {
            "orientation": {
                "w": 0.5084816217422485,
                "x": -0.49083608388900757,
                "y": 0.5182115435600281,
                "z": -0.4816462993621826
            },
            "position": {
                "x": 0.5540239810943604,
                "y": 0.030875300988554955,
                "z": 0.16403168439865112
            }
        },
        "name": "move_to_storage_A"
    },
    "id": "BKPIECE_move_to_storage_A_106",
    "joint_names": [
        "shoulder_pan_joint",
        "shoulder_lift_joint",
        "elbow_joint",
        "wrist_1_joint",
        "wrist_2_joint",
        "wrist_3_joint"
    ],
    "metrics": {
        "cart_traj_len": 0.35275461607331504,
        "distance_elbow_joint": 0.45048552814502907,
        "distance_shoulder_lift_joint": 0.2337829878539095,
        "distance_shoulder_pan_joint": 0.46088779992383055,
        "distance_wrist_1_joint": 0.24179793970402896,
        "distance_wrist_2_joint": 1.1000473355255656,
        "distance_wrist_3_joint": 0.10479080121744522,
        "smoothness": 1.3322676295501878e-15,
        "time": 0.165882423,
        "traj_len": 1.609904466845722,
        "weighted_distance": 2.035489933660762
    },
    "planner": "BKPIECE",
    "start": {
        "state": {
            "elbow_joint": 1.9715477243005601,
            "shoulder_lift_joint": -1.1394853015351272,
            "shoulder_pan_joint": 0.12281154014795169,
            "wrist_1_joint": -0.7804696478968182,
            "wrist_2_joint": 0.12958648046900423,
            "wrist_3_joint": -3.192491284697111
        }
    },
    "waypoints": [
        {
            "positions": [
                0.12281154014795169,
                -1.1394853015351272,
                1.9715477243005601,
                -0.7804696478968182,
                0.12958648046900423,
                -3.192491284697111
            ]
        },
        {
            "positions": [
                0.05697042587311876,
                -1.1728828712285428,
                2.03590279974985,
                -0.8150122107116794,
                0.2867360998297993,
                -3.177521170237476
            ]
        },
        {
            "positions": [
                -0.008870688401714164,
                -1.2062804409219585,
                2.10025787519914,
                -0.8495547735265407,
                0.4438857191905944,
                -3.162551055777841
            ]
        },
        {
            "positions": [
                -0.0747118026765471,
                -1.2396780106153742,
                2.1646129506484297,
                -0.884097336341402,
                0.6010353385513895,
                -3.147580941318206
            ]
        },
        {
            "positions": [
                -0.14055291695138,
                -1.2730755803087896,
                2.2289680260977196,
                -0.9186398991562633,
                0.7581849579121845,
                -3.132610826858571
            ]
        },
        {
            "positions": [
                -0.20639403122621297,
                -1.3064731500022053,
                2.2933231015470095,
                -0.9531824619711246,
                0.9153345772729796,
                -3.117640712398936
            ]
        },
        {
            "positions": [
                -0.2722351455010459,
                -1.339870719695621,
                2.3576781769962993,
                -0.9877250247859859,
                1.0724841966337748,
                -3.102670597939301
            ]
        },
        {
            "positions": [
                -0.33807625977587885,
                -1.3732682893890367,
                2.422033252445589,
                -1.0222675876008471,
                1.2296338159945697,
                -3.087700483479666
            ]
        }
    ]
}