{
    "goal": {
        "global_pose": {
            "orientation": {
                "w": 0.5084816217422485,
                "x": -0.49083608388900757,
                "y": 0.5182115435600281,
                "z": -0.4816462993621826
            },
            "position": {
                "x": 0.5540239810943604,
                "y": 0.030875300988554955,
                "z": 0.16403168439865112
            }
        },
        "name": "move_to_storage_A"
    },
    "id": "BKPIECE_move_to_storage_A_24",
    "joint_names": [
        "shoulder_pan_joint",
        "shoulder_lift_joint",
        "elbow_joint",
        "wrist_1_joint",
        "wrist_2_joint",
        "wrist_3_joint"
    ],
    "metrics": {
        "cart_traj_len": 0.3525561740628862,
        "distance_elbow_joint": 0.45125577422680196,
        "distance_shoulder_lift_joint": 0.23284653549095102,
        "distance_shoulder_pan_joint": 0.45901017095998636,
        "distance_wrist_1_joint": 0.2492498143327525,
        "distance_wrist_2_joint": 1.1060014010267074,
        "distance_wrist_3_joint": 0.10476414655318456,
        "smoothness": 6.661338200497456e-16,
        "time": 0.36518604,
        "traj_len": 1.6134211609466338,
        "weighted_distance": 2.0415453340683407
    },
    "planner": "BKPIECE",
    "start": {
        "state": {
            "elbow_joint": 1.9715477243005601,
            "shoulder_lift_joint": -1.1394853015351272,
            "shoulder_pan_joint": 0.12281154014795169,
            "wrist_1_joint": -0.7804696478968182,
            "wrist_2_joint": 0.12958648046900423,
            "wrist_3_joint": -3.192491284697111
        }
    },
    "waypoints": [
        {
            "positions": [
                0.12281154014795169,
                -1.1394853015351272,
                1.9715477243005601,
                -0.7804696478968182,
                0.12958648046900423,
                -3.192491284697111
            ]
        },
        {
            "positions": [
                0.05723865858223935,
                -1.1727490923195487,
                2.036012834904389,
                -0.8160767642300685,
                0.2875866806156767,
                -3.177524978046656
            ]
        },
        {
            "positions": [
                -0.008334222983472986,
                -1.2060128831039703,
                2.1004779455082176,
                -0.8516838805633189,
                0.4455868807623492,
                -3.1625586713962015
            ]
        },
        {
            "positions": [
                -0.07390710454918532,
                -1.2392766738883918,
                2.1649430561120466,
                -0.8872909968965692,
                0.6035870809090217,
                -3.1475923647457464
            ]
        },
        {
            "positions": [
                -0.13947998611489765,
                -1.2725404646728133,
                2.2294081667158756,
                -0.9228981132298196,
                0.7615872810556942,
                -3.1326260580952914
            ]
        },
        {
            "positions": [
                -0.20505286768060998,
                -1.305804255457235,
                2.2938732773197046,
                -0.9585052295630699,
                0.9195874812023667,
                -3.1176597514448363
            ]
        },
        {
            "positions": [
                -0.2706257492463223,
                -1.3390680462416567,
                2.358338387923533,
                -0.9941123458963204,
                1.0775876813490393,
                -3.1026934447943817
            ]
        },
        {
            "positions": [
                -0.33619863081203466,
                -1.3723318370260782,
                2.422803498527362,
                -1.0297194622295707,
                1.2355878814957115,
                -3.0877271381439266
            ]
        }
    ]
}