{
    "goal": {
        "global_pose": {
            "orientation": {
                "w": 0.5084816217422485,
                "x": -0.49083608388900757,
                "y": 0.5182115435600281,
                "z": -0.4816462993621826
            },
            "position": {
                "x": 0.5540239810943604,
                "y": 0.030875300988554955,
                "z": 0.16403168439865112
            }
        },
        "name": "move_to_storage_A"
    },
    "id": "BKPIECE_move_to_storage_A_138",
    "joint_names": [
        "shoulder_pan_joint",
        "shoulder_lift_joint",
        "elbow_joint",
        "wrist_1_joint",
        "wrist_2_joint",
        "wrist_3_joint"
    ],
    "metrics": {
        "cart_traj_len": 0.3529442986389901,
        "distance_elbow_joint": 0.4542801817322104,
        "distance_shoulder_lift_joint": 0.23234080490123477,
        "distance_shoulder_pan_joint": 0.4627491377912116,
        "distance_wrist_1_joint": 0.2620988944986883,
        "distance_wrist_2_joint": 1.092890283239229,
        "distance_wrist_3_joint": 0.10750805166449284,
        "smoothness": 1.8873791433662325e-15,
        "time": 0.21860203700000003,
        "traj_len": 1.6161272703061065,
        "weighted_distance": 2.0449627465785216
    },
    "planner": "BKPIECE",
    "start": {
        "state": {
            "elbow_joint": 1.9715477243005601,
            "shoulder_lift_joint": -1.1394853015351272,
            "shoulder_pan_joint": 0.12281154014795169,
            "wrist_1_joint": -0.7804696478968182,
            "wrist_2_joint": 0.12958648046900423,
            "wrist_3_joint": -3.192491284697111
        }
    },
    "waypoints": [
        {
            "positions": [
                0.12281154014795169,
                -1.1394853015351272,
                1.9715477243005601,
                -0.7804696478968182,
                0.12958648046900423,
                -3.192491284697111
            ]
        },
        {
            "positions": [
                0.05670452046349289,
                -1.1726768450924465,
                2.036444893119447,
                -0.8179123471109165,
                0.28571366378889407,
                -3.1771329916021838
            ]
        },
        {
            "positions": [
                -0.009402499220965907,
                -1.2058683886497656,
                2.1013420619383347,
                -0.8553550463250148,
                0.44184084710878396,
                -3.161774698507256
            ]
        },
        {
            "positions": [
                -0.07550951890542469,
                -1.239059932207085,
                2.166239230757222,
                -0.8927977455391132,
                0.5979680304286739,
                -3.1464164054123285
            ]
        },
        {
            "positions": [
                -0.1416165385898835,
                -1.2722514757644041,
                2.231136399576109,
                -0.9302404447532114,
                0.7540952137485637,
                -3.131058112317401
            ]
        },
        {
            "positions": [
                -0.2077235582743423,
                -1.3054430193217235,
                2.2960335683949964,
                -0.9676831439673098,
                0.9102223970684536,
                -3.1156998192224736
            ]
        },
        {
            "positions": [
                -0.27383057795880106,
                -1.3386345628790426,
                2.3609307372138835,
                -1.005125843181408,
                1.0663495803883434,
                -3.1003415261275458
            ]
        },
        {
            "positions": [
                -0.33993759764325987,
                -1.371826106436362,
                2.4258279060327705,
                -1.0425685423955064,
                1.2224767637082332,
                -3.0849832330326183
            ]
        }
    ]
}