{
    "goal": {
        "global_pose": {
            "orientation": {
                "w": 0.7047431468963623,
                "x": -0.7094548344612122,
                "y": 0.0024358443915843964,
                "z": -0.0022348060738295317
            },
            "position": {
                "x": 0.6094750761985779,
                "y": 0.3671506643295288,
                "z": 0.19426114857196808
            }
        },
        "name": "move_to_magneteinheit_A"
    },
    "id": "BKPIECE_move_to_magneteinheit_A_140",
    "joint_names": [
        "shoulder_pan_joint",
        "shoulder_lift_joint",
        "elbow_joint",
        "wrist_1_joint",
        "wrist_2_joint",
        "wrist_3_joint"
    ],
    "metrics": {
        "cart_traj_len": 3.173118933259383,
        "distance_elbow_joint": 3.913663954352499,
        "distance_shoulder_lift_joint": 0.4683877309651274,
        "distance_shoulder_pan_joint": 2.6879714450552874,
        "distance_wrist_1_joint": 3.4615719770712308,
        "distance_wrist_2_joint": 1.4346397973846075,
        "distance_wrist_3_joint": 0.4618817708603155,
        "smoothness": 0.019936590539932186,
        "time": 0.284304944,
        "traj_len": 3.525353411459491,
        "weighted_distance": 4.271778551360725
    },
    "planner": "BKPIECE",
    "start": {
        "state": {
            "elbow_joint": -1.919618573717145,
            "shoulder_lift_joint": -1.2443395971678275,
            "shoulder_pan_joint": 2.6996025300909787,
            "wrist_1_joint": -1.548550951253194,
            "wrist_2_joint": -1.5709469090946802,
            "wrist_3_joint": 0.4420197732051276
        }
    },
    "waypoints": [
        {
            "positions": [
                2.6996025300909787,
                -1.2443395971678275,
                -1.919618573717145,
                -1.548550951253194,
                -1.5709469090946802,
                0.4420197732051276
            ]
        },
        {
            "positions": [
                2.6020963739043492,
                -1.2336312581427449,
                -1.8119277436283217,
                -1.433421640911857,
                -1.5311405908453493,
                0.425902223125377
            ]
        },
        {
            "positions": [
                2.5045902177177197,
                -1.222922919117662,
                -1.7042369135394984,
                -1.3182923305705199,
                -1.4913342725960184,
                0.4097846730456265
            ]
        },
        {
            "positions": [
                2.4070840615310902,
                -1.2122145800925794,
                -1.596546083450675,
                -1.2031630202291828,
                -1.4515279543466875,
                0.3936671229658759
            ]
        },
        {
            "positions": [
                2.3095779053444607,
                -1.2015062410674966,
                -1.4888552533618515,
                -1.0880337098878456,
                -1.4117216360973566,
                0.37754957288612534
            ]
        },
        {
            "positions": [
                2.2120717491578312,
                -1.190797902042414,
                -1.3811644232730282,
                -0.9729043995465085,
                -1.3719153178480257,
                0.3614320228063748
            ]
        },
        {
            "positions": [
                2.1145655929712017,
                -1.1800895630173311,
                -1.273473593184205,
                -0.8577750892051713,
                -1.3321089995986948,
                0.34531447272662424
            ]
        },
        {
            "positions": [
                2.0170594367845722,
                -1.1693812239922485,
                -1.1657827630953816,
                -0.7426457788638342,
                -1.2923026813493639,
                0.3291969226468737
            ]
        },
        {
            "positions": [
                1.9195532805979427,
                -1.1586728849671657,
                -1.0580919330065583,
                -0.6275164685224971,
                -1.252496363100033,
                0.31307937256712315
            ]
        },
        {
            "positions": [
                1.8220471244113132,
                -1.147964545942083,
                -0.950401102917735,
                -0.5123871581811601,
                -1.212690044850702,
                0.2969618224873726
            ]
        },
        {
            "positions": [
                1.7245409682246837,
                -1.1372562069170002,
                -0.8427102728289118,
                -0.397257847839823,
                -1.1728837266013712,
                0.28084427240762205
            ]
        },
        {
            "positions": [
                1.6270348120380542,
                -1.1265478678919176,
                -0.7350194427400885,
                -0.2821285374984859,
                -1.1330774083520403,
                0.26472672232787153
            ]
        },
        {
            "positions": [
                1.5295286558514247,
                -1.1158395288668348,
                -0.6273286126512652,
                -0.16699922715714854,
                -1.0932710901027094,
                0.24860917224812093
            ]
        },
        {
            "positions": [
                1.4320224996647952,
                -1.1051311898417522,
                -0.5196377825624416,
                -0.051869916815811434,
                -1.0534647718533785,
                0.23249162216837038
            ]
        },
        {
            "positions": [
                1.3345163434781657,
                -1.0944228508166693,
                -0.41194695247361834,
                0.06325939352552568,
                -1.0136584536040476,
                0.21637407208861983
            ]
        },
        {
            "positions": [
                1.2370101872915362,
                -1.0837145117915867,
                -0.3042561223847948,
                0.17838870386686279,
                -0.9738521353547166,
                0.20025652200886926
            ]
        },
        {
            "positions": [
                1.1395040311049067,
                -1.073006172766504,
                -0.19656529229597175,
                0.2935180142081999,
                -0.9340458171053857,
                0.1841389719291187
            ]
        },
        {
            "positions": [
                1.0419978749182772,
                -1.0622978337414213,
                -0.08887446220714823,
                0.4086473245495372,
                -0.8942394988560548,
                0.16802142184936814
            ]
        },
        {
            "positions": [
                0.9444917187316477,
                -1.0515894947163384,
                0.018816367881674845,
                0.5237766348908739,
                -0.8544331806067239,
                0.15190387176961762
            ]
        },
        {
            "positions": [
                0.8469855625450182,
                -1.0408811556912558,
                0.12650719797049859,
                0.6389059452322114,
                -0.8146268623573929,
                0.13578632168986704
            ]
        },
        {
            "positions": [
                0.7494794063583887,
                -1.030172816666173,
                0.23419802805932144,
                0.7540352555735481,
                -0.7748205441080621,
                0.11966877161011652
            ]
        },
        {
            "positions": [
                0.6519732501717592,
                -1.0194644776410904,
                0.3418888581481452,
                0.8691645659148857,
                -0.7350142258587311,
                0.10355122153036594
            ]
        },
        {
            "positions": [
                0.5544670939851297,
                -1.0087561386160075,
                0.44957968823696803,
                0.9842938762562223,
                -0.6952079076094003,
                0.08743367145061542
            ]
        },
        {
            "positions": [
                0.4569609377985002,
                -0.9980477995909249,
                0.5572705183257918,
                1.0994231865975599,
                -0.6554015893600693,
                0.0713161213708648
            ]
        },
        {
            "positions": [
                0.3594547816118707,
                -0.9873394605658422,
                0.6649613484146146,
                1.214552496938897,
                -0.6155952711107385,
                0.05519857129111427
            ]
        },
        {
            "positions": [
                0.2619486254252412,
                -0.9766311215407595,
                0.7726521785034384,
                1.329681807280234,
                -0.5757889528614075,
                0.0390810212113637
            ]
        },
        {
            "positions": [
                0.16444246923861172,
                -0.9659227825156768,
                0.8803430085922617,
                1.4448111176215712,
                -0.5359826346120766,
                0.022963471131613178
            ]
        },
        {
            "positions": [
                0.06693631305198218,
                -0.955214443490594,
                0.988033838681085,
                1.5599404279629083,
                -0.4961763163627458,
                0.006845921051862592
            ]
        },
        {
            "positions": [
                0.07163457228801606,
                -0.9264906964663541,
                1.148980607056176,
                1.6228502472421138,
                -0.43815839059922623,
                0.004153388336900921
            ]
        },
        {
            "positions": [
                0.07633283152404995,
                -0.8977669494421141,
                1.309927375431267,
                1.6857600665213193,
                -0.3801404648357066,
                0.0014608556219392497
            ]
        },
        {
            "positions": [
                0.08103109076008383,
                -0.8690432024178742,
                1.4708741438063582,
                1.7486698858005245,
                -0.3221225390721871,
                -0.00123167709302242
            ]
        },
        {
            "positions": [
                0.08572934999611771,
                -0.8403194553936343,
                1.6318209121814493,
                1.81157970507973,
                -0.26410461330866747,
                -0.0039242098079840925
            ]
        },
        {
            "positions": [
                0.0904276092321516,
                -0.8115957083693943,
                1.7927676805565402,
                1.8744895243589355,
                -0.20608668754514792,
                -0.006616742522945763
            ]
        },
        {
            "positions": [
                0.12224154106827309,
                -0.7759518662027001,
                1.9940453806353537,
                1.9130210258180367,
                -0.136307111710073,
                0.006628512609296433
            ]
        }
    ]
}{
    "goal": {
        "global_pose": {
            "orientation": {
                "w": 0.7047431468963623,
                "x": -0.7094548344612122,
                "y": 0.0024358443915843964,
                "z": -0.0022348060738295317
            },
            "position": {
                "x": 0.6094750761985779,
                "y": 0.3671506643295288,
                "z": 0.19426114857196808
            }
        },
        "name": "move_to_magneteinheit_A"
    },
    "id": "BKPIECE_move_to_magneteinheit_A_140",
    "joint_names": [
        "shoulder_pan_joint",
        "shoulder_lift_joint",
        "elbow_joint",
        "wrist_1_joint",
        "wrist_2_joint",
        "wrist_3_joint"
    ],
    "metrics": {
        "cart_traj_len": 1.225455522957273,
        "distance_elbow_joint": 0.08268850293950325,
        "distance_shoulder_lift_joint": 0.769563164886093,
        "distance_shoulder_pan_joint": 1.2412833516902901,
        "distance_wrist_1_joint": 0.9260313230335013,
        "distance_wrist_2_joint": 1.448922149766561,
        "distance_wrist_3_joint": 4.378852622965938,
        "smoothness": 0.132516841529946,
        "time": 0.303181497,
        "traj_len": 2.9744480353978093,
        "weighted_distance": 4.469899309158297
    },
    "planner": "BKPIECE",
    "start": {
        "state": {
            "elbow_joint": 1.919643534880228,
            "shoulder_lift_joint": -1.8972525353963687,
            "shoulder_pan_joint": -1.1188672234189438,
            "wrist_1_joint": -1.5931878212786155,
            "wrist_2_joint": 1.5706036197970081,
            "wrist_3_joint": 1.118896926603594
        }
    },
    "waypoints": [
        {
            "positions": [
                -1.1188672234189438,
                -1.8972525353963687,
                1.919643534880228,
                -1.5931878212786155,
                1.5706036197970081,
                1.118896926603594
            ]
        },
        {
            "positions": [
                -1.0631879446022565,
                -1.8627772389149566,
                1.918514217035096,
                -1.5519809765853094,
                1.504931978371975,
                0.9215422672459387
            ]
        },
        {
            "positions": [
                -1.0075086657855692,
                -1.8283019424335447,
                1.917384899189964,
                -1.5107741318920034,
                1.4392603369469419,
                0.7241876078882834
            ]
        },
        {
            "positions": [
                -0.9518293869688819,
                -1.7938266459521328,
                1.9162555813448319,
                -1.4695672871986973,
                1.3735886955219088,
                0.5268329485306281
            ]
        },
        {
            "positions": [
                -0.8961501081521944,
                -1.7593513494707207,
                1.9151262634997,
                -1.4283604425053913,
                1.3079170540968756,
                0.3294782891729727
            ]
        },
        {
            "positions": [
                -0.8404708293355071,
                -1.7248760529893086,
                1.9139969456545678,
                -1.3871535978120852,
                1.2422454126718427,
                0.13212362981531744
            ]
        },
        {
            "positions": [
                -0.7847915505188198,
                -1.6904007565078967,
                1.9128676278094356,
                -1.3459467531187792,
                1.1765737712468096,
                -0.06523102954233773
            ]
        },
        {
            "positions": [
                -0.7291122717021324,
                -1.6559254600264848,
                1.9117383099643037,
                -1.3047399084254732,
                1.1109021298217765,
                -0.2625856888999931
            ]
        },
        {
            "positions": [
                -0.673432992885445,
                -1.6214501635450727,
                1.9106089921191716,
                -1.263533063732167,
                1.0452304883967434,
                -0.4599403482576485
            ]
        },
        {
            "positions": [
                -0.6177537140687577,
                -1.5869748670636605,
                1.9094796742740396,
                -1.2223262190388609,
                0.9795588469717103,
                -0.6572950076153039
            ]
        },
        {
            "positions": [
                -0.5620744352520703,
                -1.5524995705822486,
                1.9083503564289075,
                -1.1811193743455548,
                0.9138872055466772,
                -0.8546496669729591
            ]
        },
        {
            "positions": [
                -0.506395156435383,
                -1.5180242741008367,
                1.9072210385837756,
                -1.1399125296522488,
                0.8482155641216441,
                -1.0520043263306145
            ]
        },
        {
            "positions": [
                -0.4507158776186957,
                -1.4835489776194246,
                1.9060917207386434,
                -1.0987056849589427,
                0.7825439226966111,
                -1.2493589856882694
            ]
        },
        {
            "positions": [
                -0.39503659880200825,
                -1.4490736811380125,
                1.9049624028935113,
                -1.0574988402656367,
                0.7168722812715779,
                -1.4467136450459253
            ]
        },
        {
            "positions": [
                -0.33935731998532104,
                -1.4145983846566006,
                1.9038330850483793,
                -1.0162919955723306,
                0.6512006398465449,
                -1.6440683044035802
            ]
        },
        {
            "positions": [
                -0.2836780411686337,
                -1.3801230881751887,
                1.9027037672032472,
                -0.9750851508790246,
                0.5855289984215118,
                -1.8414229637612356
            ]
        },
        {
            "positions": [
                -0.22799876235194627,
                -1.3456477916937766,
                1.9015744493581153,
                -0.9338783061857185,
                0.5198573569964786,
                -2.038777623118891
            ]
        },
        {
            "positions": [
                -0.17231948353525894,
                -1.3111724952123645,
                1.900445131512983,
                -0.8926714614924125,
                0.4541857155714455,
                -2.2361322824765466
            ]
        },
        {
            "positions": [
                -0.1166402047185715,
                -1.2766971987309526,
                1.899315813667851,
                -0.8514646167991063,
                0.38851407414641237,
                -2.433486941834202
            ]
        },
        {
            "positions": [
                -0.06096092590188418,
                -1.2422219022495407,
                1.898186495822719,
                -0.8102577721058003,
                0.32284243272137947,
                -2.6308416011918574
            ]
        },
        {
            "positions": [
                -0.00528164708519685,
                -1.2077466057681285,
                1.8970571779775869,
                -0.7690509274124944,
                0.25717079129634635,
                -2.828196260549512
            ]
        },
        {
            "positions": [
                0.05039763173149048,
                -1.1732713092867164,
                1.895927860132455,
                -0.7278440827191882,
                0.19149914987131322,
                -3.0255509199071673
            ]
        },
        {
            "positions": [
                0.10607691054817785,
                -1.1387960128053045,
                1.8947985422873228,
                -0.6866372380258822,
                0.12582750844628002,
                -3.222905579264823
            ]
        },
        {
            "positions": [
                0.12241612827134632,
                -1.1276893705102757,
                1.9526420526339208,
                -0.7061179778066502,
                0.12168147003044717,
                -3.259955696362344
            ]
        }
    ]
}