{
    "goal": {
        "global_pose": {
            "orientation": {
                "w": 0.5084816217422485,
                "x": -0.49083608388900757,
                "y": 0.5182115435600281,
                "z": -0.4816462993621826
            },
            "position": {
                "x": 0.5540239810943604,
                "y": 0.030875300988554955,
                "z": 0.16403168439865112
            }
        },
        "name": "move_to_storage_A"
    },
    "id": "BKPIECE_move_to_storage_A_6",
    "joint_names": [
        "shoulder_pan_joint",
        "shoulder_lift_joint",
        "elbow_joint",
        "wrist_1_joint",
        "wrist_2_joint",
        "wrist_3_joint"
    ],
    "metrics": {
        "cart_traj_len": 0.35361597333638606,
        "distance_elbow_joint": 0.45089396685873684,
        "distance_shoulder_lift_joint": 0.23625646524478028,
        "distance_shoulder_pan_joint": 0.46007079970695924,
        "distance_wrist_1_joint": 0.2459714889489003,
        "distance_wrist_2_joint": 1.1106872498773943,
        "distance_wrist_3_joint": 0.10492400219111087,
        "smoothness": 4.440892098500626e-16,
        "time": 0.212593627,
        "traj_len": 1.6151792386072457,
        "weighted_distance": 2.0433577063344535
    },
    "planner": "BKPIECE",
    "start": {
        "state": {
            "elbow_joint": 1.9715477243005601,
            "shoulder_lift_joint": -1.1394853015351272,
            "shoulder_pan_joint": 0.12281154014795169,
            "wrist_1_joint": -0.7804696478968182,
            "wrist_2_joint": 0.12958648046900423,
            "wrist_3_joint": -3.192491284697111
        }
    },
    "waypoints": [
        {
            "positions": [
                0.12281154014795169,
                -1.1394853015351272,
                1.9715477243005601,
                -0.7804696478968182,
                0.12958648046900423,
                -3.192491284697111
            ]
        },
        {
            "positions": [
                0.05708714018981466,
                -1.1732362251415243,
                2.0359611481375226,
                -0.8156084320323753,
                0.2882560875943463,
                -3.1775021415269524
            ]
        },
        {
            "positions": [
                -0.008637259768322372,
                -1.2069871487479216,
                2.100374571974485,
                -0.8507472161679326,
                0.4469256947196883,
                -3.1625129983567937
            ]
        },
        {
            "positions": [
                -0.0743616597264594,
                -1.2407380723543187,
                2.1647879958114475,
                -0.8858860003034897,
                0.6055953018450304,
                -3.147523855186635
            ]
        },
        {
            "positions": [
                -0.14008605968459642,
                -1.274488995960716,
                2.2292014196484096,
                -0.9210247844390469,
                0.7642649089703724,
                -3.1325347120164766
            ]
        },
        {
            "positions": [
                -0.20581045964273348,
                -1.308239919567113,
                2.293614843485372,
                -0.9561635685746042,
                0.9229345160957144,
                -3.117545568846318
            ]
        },
        {
            "positions": [
                -0.2715348596008705,
                -1.3419908431735101,
                2.3580282673223345,
                -0.9913023527101612,
                1.0816041232210565,
                -3.102556425676159
            ]
        },
        {
            "positions": [
                -0.33725925955900754,
                -1.3757417667799074,
                2.422441691159297,
                -1.0264411368457185,
                1.2402737303463987,
                -3.0875672825060003
            ]
        }
    ]
}