{
    "goal": {
        "global_pose": {
            "orientation": {
                "w": 0.5084816217422485,
                "x": -0.49083608388900757,
                "y": 0.5182115435600281,
                "z": -0.4816462993621826
            },
            "position": {
                "x": 0.5540239810943604,
                "y": 0.030875300988554955,
                "z": 0.16403168439865112
            }
        },
        "name": "move_to_storage_A"
    },
    "id": "BKPIECE_move_to_storage_A_141",
    "joint_names": [
        "shoulder_pan_joint",
        "shoulder_lift_joint",
        "elbow_joint",
        "wrist_1_joint",
        "wrist_2_joint",
        "wrist_3_joint"
    ],
    "metrics": {
        "cart_traj_len": 0.35320272650302065,
        "distance_elbow_joint": 0.4507682153946453,
        "distance_shoulder_lift_joint": 0.23608414688856993,
        "distance_shoulder_pan_joint": 0.46020313974754923,
        "distance_wrist_1_joint": 0.2469015076739286,
        "distance_wrist_2_joint": 1.10679827886141,
        "distance_wrist_3_joint": 0.10556272892956287,
        "smoothness": 4.440892133664971e-16,
        "time": 0.23118061699999998,
        "traj_len": 1.614409494984363,
        "weighted_distance": 2.0423376953604246
    },
    "planner": "BKPIECE",
    "start": {
        "state": {
            "elbow_joint": 1.9715477243005601,
            "shoulder_lift_joint": -1.1394853015351272,
            "shoulder_pan_joint": 0.12281154014795169,
            "wrist_1_joint": -0.7804696478968182,
            "wrist_2_joint": 0.12958648046900423,
            "wrist_3_joint": -3.192491284697111
        }
    },
    "waypoints": [
        {
            "positions": [
                0.12281154014795169,
                -1.1394853015351272,
                1.9715477243005601,
                -0.7804696478968182,
                0.12958648046900423,
                -3.192491284697111
            ]
        },
        {
            "positions": [
                0.057068234469730375,
                -1.1732116082334942,
                2.0359431836426523,
                -0.8157412918502366,
                0.2877005203063485,
                -3.1774108948500306
            ]
        },
        {
            "positions": [
                -0.00867507120849094,
                -1.2069379149318615,
                2.1003386429847444,
                -0.8510129358036549,
                0.44581456014369275,
                -3.1623305050029504
            ]
        },
        {
            "positions": [
                -0.07441837688671225,
                -1.2406642216302286,
                2.1647341023268365,
                -0.8862845797570733,
                0.6039285999810371,
                -3.14725011515587
            ]
        },
        {
            "positions": [
                -0.14016168256493355,
                -1.2743905283285957,
                2.2291295616689286,
                -0.9215562237104916,
                0.7620426398183813,
                -3.1321697253087897
            ]
        },
        {
            "positions": [
                -0.2059049882431549,
                -1.3081168350269627,
                2.293525021011021,
                -0.95682786766391,
                0.9201566796557256,
                -3.117089335461709
            ]
        },
        {
            "positions": [
                -0.2716482939213762,
                -1.34184314172533,
                2.3579204803531133,
                -0.9920995116173283,
                1.0782707194930699,
                -3.102008945614629
            ]
        },
        {
            "positions": [
                -0.3373915995995975,
                -1.375569448423697,
                2.4223159396952054,
                -1.0273711555707468,
                1.2363847593304143,
                -3.0869285557675483
            ]
        }
    ]
}