{
    "goal": {
        "global_pose": {
            "orientation": {
                "w": 0.5084816217422485,
                "x": -0.49083608388900757,
                "y": 0.5182115435600281,
                "z": -0.4816462993621826
            },
            "position": {
                "x": 0.5540239810943604,
                "y": 0.030875300988554955,
                "z": 0.16403168439865112
            }
        },
        "name": "move_to_storage_A"
    },
    "id": "BKPIECE_move_to_storage_A_50",
    "joint_names": [
        "shoulder_pan_joint",
        "shoulder_lift_joint",
        "elbow_joint",
        "wrist_1_joint",
        "wrist_2_joint",
        "wrist_3_joint"
    ],
    "metrics": {
        "cart_traj_len": 0.3536672555823839,
        "distance_elbow_joint": 0.44927749425238295,
        "distance_shoulder_lift_joint": 0.23525877404530093,
        "distance_shoulder_pan_joint": 0.46130932480642173,
        "distance_wrist_1_joint": 0.2393559806405975,
        "distance_wrist_2_joint": 1.1052160658898447,
        "distance_wrist_3_joint": 0.10601966619138858,
        "smoothness": 2.2204460668324854e-16,
        "time": 0.209848414,
        "traj_len": 1.6113464263856907,
        "weighted_distance": 2.0379030116124652
    },
    "planner": "BKPIECE",
    "start": {
        "state": {
            "elbow_joint": 1.9715477243005601,
            "shoulder_lift_joint": -1.1394853015351272,
            "shoulder_pan_joint": 0.12281154014795169,
            "wrist_1_joint": -0.7804696478968182,
            "wrist_2_joint": 0.12958648046900423,
            "wrist_3_joint": -3.192491284697111
        }
    },
    "waypoints": [
        {
            "positions": [
                0.12281154014795169,
                -1.1394853015351272,
                1.9715477243005601,
                -0.7804696478968182,
                0.12958648046900423,
                -3.192491284697111
            ]
        },
        {
            "positions": [
                0.056910208032748585,
                -1.173093697827313,
                2.035730223479472,
                -0.8146633594169035,
                0.2874744898818392,
                -3.1773456180983413
            ]
        },
        {
            "positions": [
                -0.008991124082454519,
                -1.2067020941194988,
                2.099912722658384,
                -0.8488570709369889,
                0.44536249929467414,
                -3.162199951499572
            ]
        },
        {
            "positions": [
                -0.07489245619765762,
                -1.2403104904116846,
                2.1640952218372957,
                -0.8830507824570742,
                0.6032505087075091,
                -3.147054284900802
            ]
        },
        {
            "positions": [
                -0.1407937883128607,
                -1.2739188867038704,
                2.2282777210162075,
                -0.9172444939771596,
                0.761138518120344,
                -3.131908618302032
            ]
        },
        {
            "positions": [
                -0.20669512042806382,
                -1.3075272829960565,
                2.292460220195119,
                -0.951438205497245,
                0.919026527533179,
                -3.116762951703262
            ]
        },
        {
            "positions": [
                -0.2725964525432669,
                -1.3411356792882423,
                2.3566427193740314,
                -0.9856319170173302,
                1.0769145369460138,
                -3.1016172851044925
            ]
        },
        {
            "positions": [
                -0.33849778465847,
                -1.374744075580428,
                2.420825218552943,
                -1.0198256285374157,
                1.2348025463588488,
                -3.0864716185057226
            ]
        }
    ]
}