{
    "goal": {
        "global_pose": {
            "orientation": {
                "w": 0.5084816217422485,
                "x": -0.49083608388900757,
                "y": 0.5182115435600281,
                "z": -0.4816462993621826
            },
            "position": {
                "x": 0.5540239810943604,
                "y": 0.030875300988554955,
                "z": 0.16403168439865112
            }
        },
        "name": "move_to_storage_A"
    },
    "id": "BKPIECE_move_to_storage_A_126",
    "joint_names": [
        "shoulder_pan_joint",
        "shoulder_lift_joint",
        "elbow_joint",
        "wrist_1_joint",
        "wrist_2_joint",
        "wrist_3_joint"
    ],
    "metrics": {
        "cart_traj_len": 0.3532804601677442,
        "distance_elbow_joint": 0.4488505286769384,
        "distance_shoulder_lift_joint": 0.23612097184451142,
        "distance_shoulder_pan_joint": 0.46390243571234085,
        "distance_wrist_1_joint": 0.235548556322969,
        "distance_wrist_2_joint": 1.0915458753855205,
        "distance_wrist_3_joint": 0.10062332846494382,
        "smoothness": 0.0,
        "time": 0.274444759,
        "traj_len": 1.6051765312286446,
        "weighted_distance": 2.026063371428841
    },
    "planner": "BKPIECE",
    "start": {
        "state": {
            "elbow_joint": 1.9715477243005601,
            "shoulder_lift_joint": -1.1394853015351272,
            "shoulder_pan_joint": 0.12281154014795169,
            "wrist_1_joint": -0.7804696478968182,
            "wrist_2_joint": 0.12958648046900423,
            "wrist_3_joint": -3.192491284697111
        }
    },
    "waypoints": [
        {
            "positions": [
                0.12281154014795169,
                -1.1394853015351272,
                1.9715477243005601,
                -0.7804696478968182,
                0.12958648046900423,
                -3.192491284697111
            ]
        },
        {
            "positions": [
                0.056539763617617284,
                -1.173216868941486,
                2.0356692283972655,
                -0.8141194416572423,
                0.28552160552407857,
                -3.1781165234878337
            ]
        },
        {
            "positions": [
                -0.009732012912717122,
                -1.2069484363478447,
                2.0997907324939713,
                -0.8477692354176665,
                0.4414567305791529,
                -3.1637417622785557
            ]
        },
        {
            "positions": [
                -0.07600378944305151,
                -1.2406800037542034,
                2.1639122365906767,
                -0.8814190291780906,
                0.5973918556342273,
                -3.1493670010692782
            ]
        },
        {
            "positions": [
                -0.14227556597338592,
                -1.2744115711605621,
                2.228033740687382,
                -0.9150688229385148,
                0.7533269806893016,
                -3.1349922398600003
            ]
        },
        {
            "positions": [
                -0.20854734250372037,
                -1.308143138566921,
                2.2921552447840874,
                -0.9487186166989389,
                0.909262105744376,
                -3.120617478650723
            ]
        },
        {
            "positions": [
                -0.2748191190340547,
                -1.3418747059732798,
                2.356276748880793,
                -0.9823684104593631,
                1.0651972307994502,
                -3.106242717441445
            ]
        },
        {
            "positions": [
                -0.34109089556438915,
                -1.3756062733796386,
                2.4203982529774986,
                -1.0160182042197872,
                1.2211323558545248,
                -3.0918679562321674
            ]
        }
    ]
}