{
    "goal": {
        "global_pose": {
            "orientation": {
                "w": 0.7047431468963623,
                "x": -0.7094548344612122,
                "y": 0.0024358443915843964,
                "z": -0.0022348060738295317
            },
            "position": {
                "x": 0.6094750761985779,
                "y": 0.3671506643295288,
                "z": 0.19426114857196808
            }
        },
        "name": "move_to_magneteinheit_A"
    },
    "id": "BKPIECE_move_to_magneteinheit_A_39",
    "joint_names": [
        "shoulder_pan_joint",
        "shoulder_lift_joint",
        "elbow_joint",
        "wrist_1_joint",
        "wrist_2_joint",
        "wrist_3_joint"
    ],
    "metrics": {
        "cart_traj_len": 3.6363466030658773,
        "distance_elbow_joint": 3.8776739492157084,
        "distance_shoulder_lift_joint": 0.6240964224315293,
        "distance_shoulder_pan_joint": 2.707421138431429,
        "distance_wrist_1_joint": 1.4250940775672545,
        "distance_wrist_2_joint": 1.7005248434539508,
        "distance_wrist_3_joint": 2.5873102183355123,
        "smoothness": 0.3016712841428903,
        "time": 0.31108157999999997,
        "traj_len": 3.5947351292460175,
        "weighted_distance": 4.606773274986258
    },
    "planner": "BKPIECE",
    "start": {
        "state": {
            "elbow_joint": -1.919618573717145,
            "shoulder_lift_joint": -1.2443395971678275,
            "shoulder_pan_joint": 2.6996025300909787,
            "wrist_1_joint": -1.548550951253194,
            "wrist_2_joint": -1.5709469090946802,
            "wrist_3_joint": 0.4420197732051276
        }
    },
    "waypoints": [
        {
            "positions": [
                2.6996025300909787,
                -1.2443395971678275,
                -1.919618573717145,
                -1.548550951253194,
                -1.5709469090946802,
                0.4420197732051276
            ]
        },
        {
            "positions": [
                2.5722583758623205,
                -1.2439293729957541,
                -1.8306374904218612,
                -1.4998765448613431,
                -1.4848022134781003,
                0.48130936391667856
            ]
        },
        {
            "positions": [
                2.4449142216336623,
                -1.243519148823681,
                -1.7416564071265777,
                -1.4512021384694922,
                -1.3986575178615204,
                0.5205989546282295
            ]
        },
        {
            "positions": [
                2.3175700674050046,
                -1.2431089246516076,
                -1.652675323831294,
                -1.402527732077641,
                -1.3125128222449407,
                0.5598885453397805
            ]
        },
        {
            "positions": [
                2.1902259131763464,
                -1.2426987004795342,
                -1.5636942405360101,
                -1.35385332568579,
                -1.2263681266283608,
                0.5991781360513315
            ]
        },
        {
            "positions": [
                2.062881758947688,
                -1.2422884763074609,
                -1.4747131572407266,
                -1.3051789192939391,
                -1.1402234310117811,
                0.6384677267628824
            ]
        },
        {
            "positions": [
                1.9355376047190302,
                -1.2418782521353877,
                -1.385732073945443,
                -1.2565045129020882,
                -1.0540787353952012,
                0.6777573174744334
            ]
        },
        {
            "positions": [
                1.8081934504903723,
                -1.2414680279633143,
                -1.2967509906501593,
                -1.2078301065102373,
                -0.9679340397786215,
                0.7170469081859843
            ]
        },
        {
            "positions": [
                1.680849296261714,
                -1.241057803791241,
                -1.2077699073548755,
                -1.159155700118386,
                -0.8817893441620415,
                0.7563364988975354
            ]
        },
        {
            "positions": [
                1.553505142033056,
                -1.2406475796191678,
                -1.118788824059592,
                -1.1104812937265351,
                -0.7956446485454617,
                0.7956260896090863
            ]
        },
        {
            "positions": [
                1.426160987804398,
                -1.2402373554470945,
                -1.0298077407643083,
                -1.0618068873346842,
                -0.7094999529288819,
                0.8349156803206372
            ]
        },
        {
            "positions": [
                1.3522789779255682,
                -1.220312849595664,
                -0.9130043759135397,
                -1.0337948635981276,
                -0.6673454790349389,
                0.9289649489397822
            ]
        },
        {
            "positions": [
                1.2783969680467384,
                -1.2003883437442338,
                -0.7962010110627711,
                -1.0057828398615707,
                -0.6251910051409959,
                1.0230142175589272
            ]
        },
        {
            "positions": [
                1.2045149581679087,
                -1.1804638378928032,
                -0.6793976462120025,
                -0.9777708161250139,
                -0.5830365312470529,
                1.1170634861780722
            ]
        },
        {
            "positions": [
                1.1306329482890791,
                -1.1605393320413728,
                -0.5625942813612339,
                -0.9497587923884572,
                -0.5408820573531098,
                1.2111127547972171
            ]
        },
        {
            "positions": [
                1.0567509384102494,
                -1.1406148261899425,
                -0.4457909165104652,
                -0.9217467686519004,
                -0.4987275834591668,
                1.3051620234163623
            ]
        },
        {
            "positions": [
                0.9828689285314196,
                -1.1206903203385121,
                -0.32898755165969673,
                -0.8937347449153437,
                -0.4565731095652238,
                1.399211292035507
            ]
        },
        {
            "positions": [
                0.9089869186525898,
                -1.1007658144870818,
                -0.21218418680892803,
                -0.8657227211787869,
                -0.41441863567128073,
                1.4932605606546523
            ]
        },
        {
            "positions": [
                0.8351049087737602,
                -1.0808413086356512,
                -0.09538082195815956,
                -0.8377106974422301,
                -0.37226416177733773,
                1.587309829273797
            ]
        },
        {
            "positions": [
                0.7612228988949304,
                -1.0609168027842208,
                0.021422542892609142,
                -0.8096986737056734,
                -0.3301096878833947,
                1.6813590978929422
            ]
        },
        {
            "positions": [
                0.6873408890161007,
                -1.0409922969327905,
                0.13822590774337784,
                -0.7816866499691166,
                -0.2879552139894516,
                1.7754083665120874
            ]
        },
        {
            "positions": [
                0.6134588791372709,
                -1.0210677910813601,
                0.25502927259414654,
                -0.7536746262325599,
                -0.24580074009550856,
                1.8694576351312324
            ]
        },
        {
            "positions": [
                0.5395768692584413,
                -1.0011432852299298,
                0.3718326374449148,
                -0.7256626024960031,
                -0.20364626620156567,
                1.9635069037503772
            ]
        },
        {
            "positions": [
                0.4656948593796115,
                -0.9812187793784993,
                0.4886360022956835,
                -0.6976505787594464,
                -0.16149179230762256,
                2.057556172369522
            ]
        },
        {
            "positions": [
                0.39181284950078177,
                -0.9612942735270689,
                0.6054393671464522,
                -0.6696385550228896,
                -0.11933731841367956,
                2.1516054409886674
            ]
        },
        {
            "positions": [
                0.317930839621952,
                -0.9413697676756385,
                0.7222427319972209,
                -0.6416265312863328,
                -0.07718284451973645,
                2.2456547096078125
            ]
        },
        {
            "positions": [
                0.24404882974312248,
                -0.9214452618242082,
                0.8390460968479891,
                -0.6136145075497761,
                -0.03502837062579356,
                2.3397039782269573
            ]
        },
        {
            "positions": [
                0.17016681986429272,
                -0.9015207559727778,
                0.9558494616987578,
                -0.5856024838132193,
                0.007126103268149553,
                2.433753246846102
            ]
        },
        {
            "positions": [
                0.09628480998546288,
                -0.8815962501213473,
                1.0726528265495263,
                -0.5575904600766626,
                0.04928057716209261,
                2.5278025154652473
            ]
        },
        {
            "positions": [
                0.08848943445802483,
                -0.932767742515014,
                1.2291798444348632,
                -0.6170524761983611,
                0.056760703761528856,
                2.62389867600115
            ]
        },
        {
            "positions": [
                0.08069405893058677,
                -0.9839392349086806,
                1.3857068623201998,
                -0.6765144923200597,
                0.0642408303609651,
                2.719994836537052
            ]
        },
        {
            "positions": [
                0.07289868340314873,
                -1.0351107273023472,
                1.5422338802055364,
                -0.7359765084417582,
                0.07172095696040136,
                2.8160909970729544
            ]
        },
        {
            "positions": [
                0.06510330787571067,
                -1.086282219696014,
                1.6987608980908733,
                -0.7954385245634569,
                0.0792010835598376,
                2.912187157608857
            ]
        },
        {
            "positions": [
                0.057307932348272625,
                -1.1374537120896806,
                1.85528791597621,
                -0.8549005406851554,
                0.08668121015927385,
                3.008283318144759
            ]
        },
        {
            "positions": [
                0.12243447303699553,
                -1.1319580986729647,
                1.9580553754985623,
                -0.7180770349029253,
                0.1295779343592709,
                3.02932999154064
            ]
        }
    ]
}{
    "goal": {
        "global_pose": {
            "orientation": {
                "w": 0.7047431468963623,
                "x": -0.7094548344612122,
                "y": 0.0024358443915843964,
                "z": -0.0022348060738295317
            },
            "position": {
                "x": 0.6094750761985779,
                "y": 0.3671506643295288,
                "z": 0.19426114857196808
            }
        },
        "name": "move_to_magneteinheit_A"
    },
    "id": "BKPIECE_move_to_magneteinheit_A_39",
    "joint_names": [
        "shoulder_pan_joint",
        "shoulder_lift_joint",
        "elbow_joint",
        "wrist_1_joint",
        "wrist_2_joint",
        "wrist_3_joint"
    ],
    "metrics": {
        "cart_traj_len": 1.2836840904265188,
        "distance_elbow_joint": 0.0595117059761594,
        "distance_shoulder_lift_joint": 0.9158633086513945,
        "distance_shoulder_pan_joint": 1.2409920744065104,
        "distance_wrist_1_joint": 1.0327433894192803,
        "distance_wrist_2_joint": 1.434674403233996,
        "distance_wrist_3_joint": 4.358023873724068,
        "smoothness": 0.2940460860878442,
        "time": 0.275653486,
        "traj_len": 3.0069600521808417,
        "weighted_distance": 4.497251860360149
    },
    "planner": "BKPIECE",
    "start": {
        "state": {
            "elbow_joint": 1.919643534880228,
            "shoulder_lift_joint": -1.8972525353963687,
            "shoulder_pan_joint": -1.1188672234189438,
            "wrist_1_joint": -1.5931878212786155,
            "wrist_2_joint": 1.5706036197970081,
            "wrist_3_joint": 1.118896926603594
        }
    },
    "waypoints": [
        {
            "positions": [
                -1.1188672234189438,
                -1.8972525353963687,
                1.919643534880228,
                -1.5931878212786155,
                1.5706036197970081,
                1.118896926603594
            ]
        },
        {
            "positions": [
                -1.0687709515095423,
                -1.8591219993973889,
                1.9192641704160012,
                -1.5501233855587286,
                1.5084366462370642,
                0.934158373648583
            ]
        },
        {
            "positions": [
                -1.0186746796001407,
                -1.8209914633984088,
                1.9188848059517742,
                -1.507058949838842,
                1.4462696726771205,
                0.749419820693572
            ]
        },
        {
            "positions": [
                -0.968578407690739,
                -1.782860927399429,
                1.9185054414875473,
                -1.4639945141189552,
                1.3841026991171765,
                0.5646812677385611
            ]
        },
        {
            "positions": [
                -0.9184821357813374,
                -1.7447303914004488,
                1.9181260770233206,
                -1.4209300783990686,
                1.3219357255572326,
                0.37994271478355013
            ]
        },
        {
            "positions": [
                -0.8683858638719357,
                -1.706599855401469,
                1.9177467125590937,
                -1.3778656426791818,
                1.2597687519972889,
                0.19520416182853917
            ]
        },
        {
            "positions": [
                -0.8182895919625341,
                -1.6684693194024889,
                1.9173673480948668,
                -1.3348012069592952,
                1.197601778437345,
                0.01046560887352821
            ]
        },
        {
            "positions": [
                -0.7681933200531326,
                -1.6303387834035088,
                1.9169879836306398,
                -1.2917367712394083,
                1.135434804877401,
                -0.17427294408148275
            ]
        },
        {
            "positions": [
                -0.718097048143731,
                -1.592208247404529,
                1.916608619166413,
                -1.2486723355195215,
                1.073267831317457,
                -0.3590114970364937
            ]
        },
        {
            "positions": [
                -0.6680007762343294,
                -1.554077711405549,
                1.916229254702186,
                -1.205607899799635,
                1.0111008577575133,
                -0.5437500499915047
            ]
        },
        {
            "positions": [
                -0.6179045043249277,
                -1.515947175406569,
                1.915849890237959,
                -1.1625434640797483,
                0.9489338841975695,
                -0.7284886029465156
            ]
        },
        {
            "positions": [
                -0.5678082324155261,
                -1.477816639407589,
                1.9154705257737321,
                -1.1194790283598615,
                0.8867669106376256,
                -0.9132271559015266
            ]
        },
        {
            "positions": [
                -0.5177119605061246,
                -1.439686103408609,
                1.9150911613095054,
                -1.0764145926399746,
                0.8245999370776818,
                -1.0979657088565375
            ]
        },
        {
            "positions": [
                -0.46761568859672287,
                -1.4015555674096292,
                1.9147117968452785,
                -1.033350156920088,
                0.7624329635177378,
                -1.2827042618115485
            ]
        },
        {
            "positions": [
                -0.4175194166873213,
                -1.363425031410649,
                1.9143324323810516,
                -0.9902857212002013,
                0.700265989957794,
                -1.4674428147665595
            ]
        },
        {
            "positions": [
                -0.3674231447779197,
                -1.325294495411669,
                1.9139530679168246,
                -0.9472212854803146,
                0.6380990163978502,
                -1.6521813677215704
            ]
        },
        {
            "positions": [
                -0.317326872868518,
                -1.2871639594126891,
                1.9135737034525977,
                -0.9041568497604278,
                0.5759320428379062,
                -1.8369199206765814
            ]
        },
        {
            "positions": [
                -0.26723060095911655,
                -1.2490334234137093,
                1.9131943389883708,
                -0.8610924140405412,
                0.5137650692779625,
                -2.021658473631592
            ]
        },
        {
            "positions": [
                -0.21713432904971486,
                -1.2109028874147292,
                1.9128149745241438,
                -0.8180279783206543,
                0.45159809571801834,
                -2.206397026586603
            ]
        },
        {
            "positions": [
                -0.16703805714031328,
                -1.172772351415749,
                1.9124356100599171,
                -0.7749635426007676,
                0.3894311221580746,
                -2.391135579541614
            ]
        },
        {
            "positions": [
                -0.11694178523091159,
                -1.1346418154167692,
                1.9120562455956902,
                -0.7318991068808809,
                0.3272641485981309,
                -2.575874132496625
            ]
        },
        {
            "positions": [
                -0.06684551332151001,
                -1.0965112794177894,
                1.9116768811314633,
                -0.6888346711609942,
                0.26509717503818675,
                -2.760612685451636
            ]
        },
        {
            "positions": [
                -0.016749241412108484,
                -1.0583807434188093,
                1.9112975166672364,
                -0.6457702354411075,
                0.2029302014782431,
                -2.9453512384066474
            ]
        },
        {
            "positions": [
                0.052687804787729,
                -1.0968765017557267,
                1.93688036054882,
                -0.6884331372319936,
                0.16942970902062754,
                -3.0922390927635615
            ]
        },
        {
            "positions": [
                0.12212485098756648,
                -1.1353722600926444,
                1.962463204430404,
                -0.7310960390228799,
                0.13592921656301202,
                -3.2391269471204756
            ]
        }
    ]
}