{
    "goal": {
        "global_pose": {
            "orientation": {
                "w": 0.5084816217422485,
                "x": -0.49083608388900757,
                "y": 0.5182115435600281,
                "z": -0.4816462993621826
            },
            "position": {
                "x": 0.5540239810943604,
                "y": 0.030875300988554955,
                "z": 0.16403168439865112
            }
        },
        "name": "move_to_storage_A"
    },
    "id": "BKPIECE_move_to_storage_A_143",
    "joint_names": [
        "shoulder_pan_joint",
        "shoulder_lift_joint",
        "elbow_joint",
        "wrist_1_joint",
        "wrist_2_joint",
        "wrist_3_joint"
    ],
    "metrics": {
        "cart_traj_len": 0.3523896835148987,
        "distance_elbow_joint": 0.4500407466539924,
        "distance_shoulder_lift_joint": 0.23554656983731825,
        "distance_shoulder_pan_joint": 0.4614323788088981,
        "distance_wrist_1_joint": 0.2422149621041837,
        "distance_wrist_2_joint": 1.0952780385658207,
        "distance_wrist_3_joint": 0.09629250648567655,
        "smoothness": 4.440892133664971e-16,
        "time": 0.285239956,
        "traj_len": 1.606488469443802,
        "weighted_distance": 2.0275313107563218
    },
    "planner": "BKPIECE",
    "start": {
        "state": {
            "elbow_joint": 1.9715477243005601,
            "shoulder_lift_joint": -1.1394853015351272,
            "shoulder_pan_joint": 0.12281154014795169,
            "wrist_1_joint": -0.7804696478968182,
            "wrist_2_joint": 0.12958648046900423,
            "wrist_3_joint": -3.192491284697111
        }
    },
    "waypoints": [
        {
            "positions": [
                0.12281154014795169,
                -1.1394853015351272,
                1.9715477243005601,
                -0.7804696478968182,
                0.12958648046900423,
                -3.192491284697111
            ]
        },
        {
            "positions": [
                0.05689262888953768,
                -1.173134811511887,
                2.0358392595368446,
                -0.815071785340273,
                0.2860547716926929,
                -3.1787352123420147
            ]
        },
        {
            "positions": [
                -0.009026282368876329,
                -1.2067843214886467,
                2.1001307947731296,
                -0.8496739227837278,
                0.44252306291638155,
                -3.164979139986918
            ]
        },
        {
            "positions": [
                -0.07494519362729034,
                -1.2404338314654064,
                2.164422330009414,
                -0.8842760602271826,
                0.5989913541400702,
                -3.1512230676318214
            ]
        },
        {
            "positions": [
                -0.14086410488570433,
                -1.2740833414421662,
                2.2287138652456986,
                -0.9188781976706374,
                0.7554596453637589,
                -3.1374669952767245
            ]
        },
        {
            "positions": [
                -0.20678301614411837,
                -1.307732851418926,
                2.2930054004819835,
                -0.9534803351140922,
                0.9119279365874476,
                -3.123710922921628
            ]
        },
        {
            "positions": [
                -0.27270192740253235,
                -1.3413823613956857,
                2.357296935718268,
                -0.988082472557547,
                1.068396227811136,
                -3.109954850566531
            ]
        },
        {
            "positions": [
                -0.3386208386609464,
                -1.3750318713724454,
                2.4215884709545525,
                -1.0226846100010019,
                1.224864519034825,
                -3.0961987782114346
            ]
        }
    ]
}