{
    "goal": {
        "global_pose": {
            "orientation": {
                "w": 0.5084816217422485,
                "x": -0.49083608388900757,
                "y": 0.5182115435600281,
                "z": -0.4816462993621826
            },
            "position": {
                "x": 0.5540239810943604,
                "y": 0.030875300988554955,
                "z": 0.16403168439865112
            }
        },
        "name": "move_to_storage_A"
    },
    "id": "BKPIECE_move_to_storage_A_97",
    "joint_names": [
        "shoulder_pan_joint",
        "shoulder_lift_joint",
        "elbow_joint",
        "wrist_1_joint",
        "wrist_2_joint",
        "wrist_3_joint"
    ],
    "metrics": {
        "cart_traj_len": 0.3535314926532026,
        "distance_elbow_joint": 0.4479432721517509,
        "distance_shoulder_lift_joint": 0.23655945318693083,
        "distance_shoulder_pan_joint": 0.46240818409056256,
        "distance_wrist_1_joint": 0.2324624618498402,
        "distance_wrist_2_joint": 1.0998799400321522,
        "distance_wrist_3_joint": 0.10126783258546723,
        "smoothness": 8.881784213138256e-16,
        "time": 0.265311794,
        "traj_len": 1.606400057238764,
        "weighted_distance": 2.0286446734087344
    },
    "planner": "BKPIECE",
    "start": {
        "state": {
            "elbow_joint": 1.9715477243005601,
            "shoulder_lift_joint": -1.1394853015351272,
            "shoulder_pan_joint": 0.12281154014795169,
            "wrist_1_joint": -0.7804696478968182,
            "wrist_2_joint": 0.12958648046900423,
            "wrist_3_joint": -3.192491284697111
        }
    },
    "waypoints": [
        {
            "positions": [
                0.12281154014795169,
                -1.1394853015351272,
                1.9715477243005601,
                -0.7804696478968182,
                0.12958648046900423,
                -3.192491284697111
            ]
        },
        {
            "positions": [
                0.05675322813501418,
                -1.1732795091332602,
                2.035539620322239,
                -0.8136785710182239,
                0.2867121861878831,
                -3.1780244514706157
            ]
        },
        {
            "positions": [
                -0.009305083877923323,
                -1.2070737167313932,
                2.0995315163439177,
                -0.8468874941396296,
                0.443837891906762,
                -3.1635576182441207
            ]
        },
        {
            "positions": [
                -0.07536339589086082,
                -1.2408679243295262,
                2.1635234123655964,
                -0.8800964172610354,
                0.6009635976256409,
                -3.1490907850176253
            ]
        },
        {
            "positions": [
                -0.14142170790379832,
                -1.274662131927659,
                2.2275153083872747,
                -0.9133053403824412,
                0.7580893033445197,
                -3.13462395179113
            ]
        },
        {
            "positions": [
                -0.20748001991673587,
                -1.308456339525792,
                2.2915072044089535,
                -0.9465142635038468,
                0.9152150090633987,
                -3.1201571185646344
            ]
        },
        {
            "positions": [
                -0.2735383319296733,
                -1.342250547123925,
                2.3554991004306323,
                -0.9797231866252526,
                1.0723407147822774,
                -3.1056902853381394
            ]
        },
        {
            "positions": [
                -0.33959664394261085,
                -1.376044754722058,
                2.419490996452311,
                -1.0129321097466584,
                1.2294664205011565,
                -3.091223452111644
            ]
        }
    ]
}