{
    "goal": {
        "global_pose": {
            "orientation": {
                "w": 0.5084816217422485,
                "x": -0.49083608388900757,
                "y": 0.5182115435600281,
                "z": -0.4816462993621826
            },
            "position": {
                "x": 0.5540239810943604,
                "y": 0.030875300988554955,
                "z": 0.16403168439865112
            }
        },
        "name": "move_to_storage_A"
    },
    "id": "BKPIECE_move_to_storage_A_114",
    "joint_names": [
        "shoulder_pan_joint",
        "shoulder_lift_joint",
        "elbow_joint",
        "wrist_1_joint",
        "wrist_2_joint",
        "wrist_3_joint"
    ],
    "metrics": {
        "cart_traj_len": 0.35392054849979315,
        "distance_elbow_joint": 0.45124765669553835,
        "distance_shoulder_lift_joint": 0.23510590260790343,
        "distance_shoulder_pan_joint": 0.4603108826704492,
        "distance_wrist_1_joint": 0.2428196175138443,
        "distance_wrist_2_joint": 1.112043442127634,
        "distance_wrist_3_joint": 0.09463441997519162,
        "smoothness": 0.0,
        "time": 0.095209361,
        "traj_len": 1.6112609725275917,
        "weighted_distance": 2.034771196273041
    },
    "planner": "BKPIECE",
    "start": {
        "state": {
            "elbow_joint": 1.9715477243005601,
            "shoulder_lift_joint": -1.1394853015351272,
            "shoulder_pan_joint": 0.12281154014795169,
            "wrist_1_joint": -0.7804696478968182,
            "wrist_2_joint": 0.12958648046900423,
            "wrist_3_joint": -3.192491284697111
        }
    },
    "waypoints": [
        {
            "positions": [
                0.12281154014795169,
                -1.1394853015351272,
                1.9715477243005601,
                -0.7804696478968182,
                0.12958648046900423,
                -3.192491284697111
            ]
        },
        {
            "positions": [
                0.057052842623601815,
                -1.173071859050542,
                2.0360116752570656,
                -0.8151581646845102,
                0.28844982934438046,
                -3.1789720818435123
            ]
        },
        {
            "positions": [
                -0.008705854900748058,
                -1.2066584165659566,
                2.100475626213571,
                -0.8498466814722022,
                0.44731317821975675,
                -3.1654528789899135
            ]
        },
        {
            "positions": [
                -0.07446455242509793,
                -1.2402449740813715,
                2.1649395771700766,
                -0.8845351982598942,
                0.606176527095133,
                -3.1519336761363146
            ]
        },
        {
            "positions": [
                -0.1402232499494478,
                -1.2738315315967863,
                2.229403528126582,
                -0.9192237150475864,
                0.7650398759705093,
                -3.138414473282716
            ]
        },
        {
            "positions": [
                -0.20598194747379772,
                -1.3074180891122011,
                2.2938674790830875,
                -0.9539122318352784,
                0.9239032248458856,
                -3.1248952704291173
            ]
        },
        {
            "positions": [
                -0.27174064499814754,
                -1.3410046466276158,
                2.358331430039593,
                -0.9886007486229704,
                1.082766573721262,
                -3.1113760675755184
            ]
        },
        {
            "positions": [
                -0.33749934252249747,
                -1.3745912041430306,
                2.4227953809960985,
                -1.0232892654106625,
                1.2416299225966383,
                -3.0978568647219196
            ]
        }
    ]
}