{
    "goal": {
        "global_pose": {
            "orientation": {
                "w": 0.5084816217422485,
                "x": -0.49083608388900757,
                "y": 0.5182115435600281,
                "z": -0.4816462993621826
            },
            "position": {
                "x": 0.5540239810943604,
                "y": 0.030875300988554955,
                "z": 0.16403168439865112
            }
        },
        "name": "move_to_storage_A"
    },
    "id": "BKPIECE_move_to_storage_A_110",
    "joint_names": [
        "shoulder_pan_joint",
        "shoulder_lift_joint",
        "elbow_joint",
        "wrist_1_joint",
        "wrist_2_joint",
        "wrist_3_joint"
    ],
    "metrics": {
        "cart_traj_len": 0.352546882169977,
        "distance_elbow_joint": 0.4473511401869854,
        "distance_shoulder_lift_joint": 0.2352746795394005,
        "distance_shoulder_pan_joint": 0.4567427612589209,
        "distance_wrist_1_joint": 0.2333312404464455,
        "distance_wrist_2_joint": 1.1161021957919472,
        "distance_wrist_3_joint": 0.09991963527385828,
        "smoothness": 1.1102230263833737e-15,
        "time": 0.249811592,
        "traj_len": 1.6089504816797682,
        "weighted_distance": 2.0342060759135654
    },
    "planner": "BKPIECE",
    "start": {
        "state": {
            "elbow_joint": 1.9715477243005601,
            "shoulder_lift_joint": -1.1394853015351272,
            "shoulder_pan_joint": 0.12281154014795169,
            "wrist_1_joint": -0.7804696478968182,
            "wrist_2_joint": 0.12958648046900423,
            "wrist_3_joint": -3.192491284697111
        }
    },
    "waypoints": [
        {
            "positions": [
                0.12281154014795169,
                -1.1394853015351272,
                1.9715477243005601,
                -0.7804696478968182,
                0.12958648046900423,
                -3.192491284697111
            ]
        },
        {
            "positions": [
                0.05756257425382014,
                -1.1730959700407557,
                2.035455030041558,
                -0.8138026822463104,
                0.2890296512964252,
                -3.17821705108656
            ]
        },
        {
            "positions": [
                -0.007686391640311416,
                -1.2067066385463845,
                2.099362335782556,
                -0.8471357165958026,
                0.44847282212384626,
                -3.1639428174760087
            ]
        },
        {
            "positions": [
                -0.07293535753444295,
                -1.240317307052013,
                2.163269641523554,
                -0.8804687509452948,
                0.6079159929512673,
                -3.1496685838654574
            ]
        },
        {
            "positions": [
                -0.1381843234285745,
                -1.2739279755576418,
                2.2271769472645517,
                -0.9138017852947871,
                0.7673591637786883,
                -3.1353943502549066
            ]
        },
        {
            "positions": [
                -0.2034332893227061,
                -1.3075386440632704,
                2.2910842530055495,
                -0.9471348196442793,
                0.9268023346061094,
                -3.1211201166443554
            ]
        },
        {
            "positions": [
                -0.2686822552168376,
                -1.341149312568899,
                2.3549915587465478,
                -0.9804678539937715,
                1.0862455054335305,
                -3.106845883033804
            ]
        },
        {
            "positions": [
                -0.3339312211109692,
                -1.3747599810745277,
                2.4188988644875455,
                -1.0138008883432637,
                1.2456886762609516,
                -3.092571649423253
            ]
        }
    ]
}