{
    "goal": {
        "global_pose": {
            "orientation": {
                "w": 0.5084816217422485,
                "x": -0.49083608388900757,
                "y": 0.5182115435600281,
                "z": -0.4816462993621826
            },
            "position": {
                "x": 0.5540239810943604,
                "y": 0.030875300988554955,
                "z": 0.16403168439865112
            }
        },
        "name": "move_to_storage_A"
    },
    "id": "BKPIECE_move_to_storage_A_66",
    "joint_names": [
        "shoulder_pan_joint",
        "shoulder_lift_joint",
        "elbow_joint",
        "wrist_1_joint",
        "wrist_2_joint",
        "wrist_3_joint"
    ],
    "metrics": {
        "cart_traj_len": 0.3523841963015433,
        "distance_elbow_joint": 0.44859626475781766,
        "distance_shoulder_lift_joint": 0.23445948237359304,
        "distance_shoulder_pan_joint": 0.46162556861847853,
        "distance_wrist_1_joint": 0.2423711863791863,
        "distance_wrist_2_joint": 1.0932492093169812,
        "distance_wrist_3_joint": 0.08742730554195743,
        "smoothness": 1.1102230263833737e-15,
        "time": 0.236723681,
        "traj_len": 1.602413497505564,
        "weighted_distance": 2.0194563683744438
    },
    "planner": "BKPIECE",
    "start": {
        "state": {
            "elbow_joint": 1.9715477243005601,
            "shoulder_lift_joint": -1.1394853015351272,
            "shoulder_pan_joint": 0.12281154014795169,
            "wrist_1_joint": -0.7804696478968182,
            "wrist_2_joint": 0.12958648046900423,
            "wrist_3_joint": -3.192491284697111
        }
    },
    "waypoints": [
        {
            "positions": [
                0.12281154014795169,
                -1.1394853015351272,
                1.9715477243005601,
                -0.7804696478968182,
                0.12958648046900423,
                -3.192491284697111
            ]
        },
        {
            "positions": [
                0.0568650303453119,
                -1.1729795133027834,
                2.035632904980248,
                -0.8150941030938448,
                0.2857649389428587,
                -3.180001669619689
            ]
        },
        {
            "positions": [
                -0.009081479457327887,
                -1.2064737250704394,
                2.0997180856599367,
                -0.8497185582908714,
                0.4419433974167131,
                -3.167512054542266
            ]
        },
        {
            "positions": [
                -0.07502798925996766,
                -1.2399679368380956,
                2.1638032663396247,
                -0.884343013487898,
                0.5981218558905677,
                -3.155022439464844
            ]
        },
        {
            "positions": [
                -0.14097449906260745,
                -1.2734621486057518,
                2.227888447019313,
                -0.9189674686849246,
                0.754300314364422,
                -3.142532824387421
            ]
        },
        {
            "positions": [
                -0.20692100886524728,
                -1.306956360373408,
                2.2919736276990013,
                -0.9535919238819512,
                0.9104787728382765,
                -3.130043209309999
            ]
        },
        {
            "positions": [
                -0.272867518667887,
                -1.340450572141064,
                2.3560588083786893,
                -0.9882163790789779,
                1.066657231312131,
                -3.117553594232576
            ]
        },
        {
            "positions": [
                -0.33881402847052683,
                -1.3739447839087202,
                2.420143989058378,
                -1.0228408342760045,
                1.2228356897859856,
                -3.1050639791551538
            ]
        }
    ]
}