{
    "goal": {
        "global_pose": {
            "orientation": {
                "w": 0.7047431468963623,
                "x": -0.7094548344612122,
                "y": 0.0024358443915843964,
                "z": -0.0022348060738295317
            },
            "position": {
                "x": 0.6094750761985779,
                "y": 0.3671506643295288,
                "z": 0.19426114857196808
            }
        },
        "name": "move_to_magneteinheit_A"
    },
    "id": "BKPIECE_move_to_magneteinheit_A_27",
    "joint_names": [
        "shoulder_pan_joint",
        "shoulder_lift_joint",
        "elbow_joint",
        "wrist_1_joint",
        "wrist_2_joint",
        "wrist_3_joint"
    ],
    "metrics": {
        "cart_traj_len": 3.277194338450417,
        "distance_elbow_joint": 3.919404559061592,
        "distance_shoulder_lift_joint": 0.6479747983259518,
        "distance_shoulder_pan_joint": 3.066552667427586,
        "distance_wrist_1_joint": 3.601124931488717,
        "distance_wrist_2_joint": 2.0304474930671046,
        "distance_wrist_3_joint": 1.0271840104306782,
        "smoothness": 0.2957762476713583,
        "time": 0.22222140499999998,
        "traj_len": 3.7805672140304067,
        "weighted_distance": 4.688137039935886
    },
    "planner": "BKPIECE",
    "start": {
        "state": {
            "elbow_joint": -1.919618573717145,
            "shoulder_lift_joint": -1.2443395971678275,
            "shoulder_pan_joint": 2.6996025300909787,
            "wrist_1_joint": -1.548550951253194,
            "wrist_2_joint": -1.5709469090946802,
            "wrist_3_joint": 0.4420197732051276
        }
    },
    "waypoints": [
        {
            "positions": [
                2.6996025300909787,
                -1.2443395971678275,
                -1.919618573717145,
                -1.548550951253194,
                -1.5709469090946802,
                0.4420197732051276
            ]
        },
        {
            "positions": [
                2.608906336410987,
                -1.2333792657625007,
                -1.8271487476527037,
                -1.435107967082689,
                -1.513761014358975,
                0.4163261008463097
            ]
        },
        {
            "positions": [
                2.5182101427309953,
                -1.222418934357174,
                -1.7346789215882625,
                -1.321664982912184,
                -1.4565751196232697,
                0.3906324284874918
            ]
        },
        {
            "positions": [
                2.4275139490510034,
                -1.2114586029518473,
                -1.642209095523821,
                -1.208221998741679,
                -1.3993892248875646,
                0.36493875612867394
            ]
        },
        {
            "positions": [
                2.3368177553710114,
                -1.2004982715465204,
                -1.54973926945938,
                -1.094779014571174,
                -1.3422033301518592,
                0.33924508376985607
            ]
        },
        {
            "positions": [
                2.2461215616910195,
                -1.1895379401411936,
                -1.4572694433949387,
                -0.9813360304006689,
                -1.285017435416154,
                0.31355141141103815
            ]
        },
        {
            "positions": [
                2.155425368011028,
                -1.178577608735867,
                -1.3647996173304975,
                -0.8678930462301638,
                -1.227831540680449,
                0.2878577390522203
            ]
        },
        {
            "positions": [
                2.064729174331036,
                -1.1676172773305402,
                -1.2723297912660563,
                -0.7544500620596587,
                -1.1706456459447436,
                0.26216406669340236
            ]
        },
        {
            "positions": [
                1.9740329806510444,
                -1.1566569459252134,
                -1.179859965201615,
                -0.6410070778891538,
                -1.1134597512090385,
                0.2364703943345845
            ]
        },
        {
            "positions": [
                1.8833367869710527,
                -1.1456966145198868,
                -1.0873901391371739,
                -0.5275640937186488,
                -1.0562738564733332,
                0.2107767219757666
            ]
        },
        {
            "positions": [
                1.7926405932910607,
                -1.13473628311456,
                -0.9949203130727325,
                -0.41412110954814363,
                -0.9990879617376279,
                0.1850830496169487
            ]
        },
        {
            "positions": [
                1.701944399611069,
                -1.1237759517092332,
                -0.9024504870082914,
                -0.3006781253776387,
                -0.9419020670019228,
                0.15938937725813085
            ]
        },
        {
            "positions": [
                1.6112482059310773,
                -1.1128156203039063,
                -0.80998066094385,
                -0.18723514120713358,
                -0.8847161722662176,
                0.13369570489931298
            ]
        },
        {
            "positions": [
                1.5205520122510854,
                -1.1018552888985798,
                -0.7175108348794088,
                -0.07379215703662845,
                -0.8275302775305123,
                0.10800203254049506
            ]
        },
        {
            "positions": [
                1.4298558185710935,
                -1.090894957493253,
                -0.6250410088149676,
                0.03965082713387669,
                -0.7703443827948071,
                0.08230836018167714
            ]
        },
        {
            "positions": [
                1.3391596248911017,
                -1.0799346260879261,
                -0.5325711827505264,
                0.1530938113043816,
                -0.7131584880591019,
                0.05661468782285928
            ]
        },
        {
            "positions": [
                1.24846343121111,
                -1.0689742946825995,
                -0.4401013566860852,
                0.2665367954748865,
                -0.6559725933233967,
                0.030921015464041413
            ]
        },
        {
            "positions": [
                1.1577672375311183,
                -1.0580139632772727,
                -0.347631530621644,
                0.3799797796453914,
                -0.5987866985876916,
                0.0052273431052235475
            ]
        },
        {
            "positions": [
                1.0670710438511264,
                -1.0470536318719459,
                -0.25516170455720255,
                0.49342276381589656,
                -0.5416008038519862,
                -0.020466329253594373
            ]
        },
        {
            "positions": [
                0.9763748501711347,
                -1.0360933004666193,
                -0.16269187849276157,
                0.6068657479864017,
                -0.48441490911628104,
                -0.04616000161241224
            ]
        },
        {
            "positions": [
                0.8856786564911427,
                -1.0251329690612925,
                -0.07022205242832014,
                0.7203087321569068,
                -0.4272290143805757,
                -0.07185367397123016
            ]
        },
        {
            "positions": [
                0.794982462811151,
                -1.0141726376559657,
                0.02224777363612107,
                0.833751716327412,
                -0.3700431196448706,
                -0.09754734633004808
            ]
        },
        {
            "positions": [
                0.7042862691311593,
                -1.003212306250639,
                0.11471759970056206,
                0.9471947004979167,
                -0.31285722490916545,
                -0.12324101868886589
            ]
        },
        {
            "positions": [
                0.6135900754511674,
                -0.9922519748453122,
                0.2071874257650037,
                1.0606376846684218,
                -0.2556713301734601,
                -0.1489346910476838
            ]
        },
        {
            "positions": [
                0.5228938817711759,
                -0.9812916434399854,
                0.2996572518294449,
                1.174080668838927,
                -0.198485435437755,
                -0.17462836340650162
            ]
        },
        {
            "positions": [
                0.432197688091184,
                -0.9703313120346587,
                0.3921270778938857,
                1.2875236530094316,
                -0.14129954070204986,
                -0.20032203576531954
            ]
        },
        {
            "positions": [
                0.34150149441119204,
                -0.9593709806293319,
                0.48459690395832733,
                1.4009666371799372,
                -0.08411364596634452,
                -0.22601570812413746
            ]
        },
        {
            "positions": [
                0.25080530073120055,
                -0.9484106492240052,
                0.5770667300227685,
                1.5144096213504419,
                -0.026927751230639396,
                -0.25170938048295527
            ]
        },
        {
            "positions": [
                0.16010910705120818,
                -0.9374503178186784,
                0.6695365560872097,
                1.6278526055209475,
                0.03025814350506595,
                -0.2774030528417733
            ]
        },
        {
            "positions": [
                0.06941291337121654,
                -0.9264899864133517,
                0.7620063821516512,
                1.741295589691452,
                0.08744403824077103,
                -0.3030967252005911
            ]
        },
        {
            "positions": [
                0.02140052421533012,
                -0.9493181634216906,
                0.9794055869508596,
                1.8053981325942527,
                0.10757119492830752,
                -0.29317780770622903
            ]
        },
        {
            "positions": [
                -0.0266118649405563,
                -0.9721463404300297,
                1.196804791750068,
                1.8695006754970533,
                0.127698351615844,
                -0.28325889021186695
            ]
        },
        {
            "positions": [
                -0.07462425409644273,
                -0.9949745174383686,
                1.4142039965492765,
                1.933603218399854,
                0.14782550830338048,
                -0.2733399727175049
            ]
        },
        {
            "positions": [
                -0.12263664325232915,
                -1.0178026944467076,
                1.631603201348485,
                1.9977057613026548,
                0.167952664990917,
                -0.2634210552231428
            ]
        },
        {
            "positions": [
                -0.06155826973125965,
                -0.9580995745621775,
                1.7236488973474757,
                1.983988706569438,
                0.0950656852455402,
                -0.20282309471126503
            ]
        },
        {
            "positions": [
                -0.0004798962101901505,
                -0.8983964546776475,
                1.8156945933464663,
                1.9702716518362209,
                0.022178705500163404,
                -0.1422251341993873
            ]
        },
        {
            "positions": [
                0.06059847731087936,
                -0.8386933347931175,
                1.9077402893454571,
                1.956554597103004,
                -0.0507082742452134,
                -0.08162717368750955
            ]
        },
        {
            "positions": [
                0.12167685083194885,
                -0.7789902149085874,
                1.999785985344448,
                1.9428375423697872,
                -0.12359525399059017,
                -0.021029213175631792
            ]
        }
    ]
}{
    "goal": {
        "global_pose": {
            "orientation": {
                "w": 0.7047431468963623,
                "x": -0.7094548344612122,
                "y": 0.0024358443915843964,
                "z": -0.0022348060738295317
            },
            "position": {
                "x": 0.6094750761985779,
                "y": 0.3671506643295288,
                "z": 0.19426114857196808
            }
        },
        "name": "move_to_magneteinheit_A"
    },
    "id": "BKPIECE_move_to_magneteinheit_A_27",
    "joint_names": [
        "shoulder_pan_joint",
        "shoulder_lift_joint",
        "elbow_joint",
        "wrist_1_joint",
        "wrist_2_joint",
        "wrist_3_joint"
    ],
    "metrics": {
        "cart_traj_len": 1.2102515850569922,
        "distance_elbow_joint": 0.02887096329948613,
        "distance_shoulder_lift_joint": 0.7706544549223142,
        "distance_shoulder_pan_joint": 1.2404743736021955,
        "distance_wrist_1_joint": 0.9684208903607899,
        "distance_wrist_2_joint": 1.473655937045286,
        "distance_wrist_3_joint": 4.396882014864577,
        "smoothness": 0.21385389111460953,
        "time": 0.238944896,
        "traj_len": 2.97975815026902,
        "weighted_distance": 4.48495256287398
    },
    "planner": "BKPIECE",
    "start": {
        "state": {
            "elbow_joint": 1.919643534880228,
            "shoulder_lift_joint": -1.8972525353963687,
            "shoulder_pan_joint": -1.1188672234189438,
            "wrist_1_joint": -1.5931878212786155,
            "wrist_2_joint": 1.5706036197970081,
            "wrist_3_joint": 1.118896926603594
        }
    },
    "waypoints": [
        {
            "positions": [
                -1.1188672234189438,
                -1.8972525353963687,
                1.919643534880228,
                -1.5931878212786155,
                1.5706036197970081,
                1.118896926603594
            ]
        },
        {
            "positions": [
                -1.0633059230641644,
                -1.8627969124090034,
                1.9197169523722397,
                -1.5505393098298745,
                1.5041307233741912,
                0.9237282565737954
            ]
        },
        {
            "positions": [
                -1.007744622709385,
                -1.8283412894216382,
                1.9197903698642511,
                -1.5078907983811334,
                1.4376578269513742,
                0.7285595865439969
            ]
        },
        {
            "positions": [
                -0.9521833223546053,
                -1.7938856664342728,
                1.9198637873562627,
                -1.4652422869323924,
                1.3711849305285573,
                0.5333909165141983
            ]
        },
        {
            "positions": [
                -0.8966220219998259,
                -1.7594300434469075,
                1.9199372048482743,
                -1.4225937754836513,
                1.3047120341057403,
                0.3382222464843998
            ]
        },
        {
            "positions": [
                -0.8410607216450463,
                -1.7249744204595423,
                1.9200106223402857,
                -1.3799452640349104,
                1.2382391376829234,
                0.14305357645460126
            ]
        },
        {
            "positions": [
                -0.7854994212902668,
                -1.690518797472177,
                1.9200840398322974,
                -1.3372967525861692,
                1.1717662412601066,
                -0.05211509357519728
            ]
        },
        {
            "positions": [
                -0.7299381209354874,
                -1.6560631744848118,
                1.920157457324309,
                -1.2946482411374283,
                1.1052933448372897,
                -0.24728376360499582
            ]
        },
        {
            "positions": [
                -0.6743768205807079,
                -1.6216075514974464,
                1.9202308748163204,
                -1.2519997296886871,
                1.0388204484144725,
                -0.44245243363479436
            ]
        },
        {
            "positions": [
                -0.6188155202259283,
                -1.587151928510081,
                1.920304292308332,
                -1.2093512182399462,
                0.9723475519916557,
                -0.6376211036645929
            ]
        },
        {
            "positions": [
                -0.5632542198711489,
                -1.5526963055227159,
                1.9203777098003436,
                -1.166702706791205,
                0.9058746555688388,
                -0.8327897736943914
            ]
        },
        {
            "positions": [
                -0.5076929195163694,
                -1.5182406825353505,
                1.9204511272923552,
                -1.124054195342464,
                0.8394017591460219,
                -1.02795844372419
            ]
        },
        {
            "positions": [
                -0.45213161916158995,
                -1.4837850595479853,
                1.9205245447843666,
                -1.0814056838937232,
                0.772928862723205,
                -1.2231271137539885
            ]
        },
        {
            "positions": [
                -0.3965703188068104,
                -1.4493294365606197,
                1.9205979622763782,
                -1.038757172444982,
                0.706455966300388,
                -1.418295783783787
            ]
        },
        {
            "positions": [
                -0.3410090184520309,
                -1.4148738135732546,
                1.9206713797683899,
                -0.996108660996241,
                0.6399830698775711,
                -1.6134644538135856
            ]
        },
        {
            "positions": [
                -0.28544771809725145,
                -1.3804181905858894,
                1.9207447972604013,
                -0.9534601495475,
                0.5735101734547542,
                -1.8086331238433841
            ]
        },
        {
            "positions": [
                -0.22988641774247187,
                -1.3459625675985238,
                1.9208182147524129,
                -0.9108116380987589,
                0.5070372770319371,
                -2.0038017938731825
            ]
        },
        {
            "positions": [
                -0.17432511738769252,
                -1.3115069446111587,
                1.9208916322444245,
                -0.8681631266500179,
                0.4405643806091204,
                -2.198970463902981
            ]
        },
        {
            "positions": [
                -0.11876381703291283,
                -1.2770513216237935,
                1.920965049736436,
                -0.8255146152012768,
                0.3740914841863032,
                -2.3941391339327796
            ]
        },
        {
            "positions": [
                -0.06320251667813337,
                -1.2425956986364282,
                1.9210384672284475,
                -0.7828661037525358,
                0.3076185877634865,
                -2.589307803962578
            ]
        },
        {
            "positions": [
                -0.0076412163233539054,
                -1.2081400756490628,
                1.9211118847204591,
                -0.7402175923037948,
                0.24114569134066954,
                -2.7844764739923766
            ]
        },
        {
            "positions": [
                0.04792008403142556,
                -1.1736844526616976,
                1.9211853022124705,
                -0.6975690808550538,
                0.1746727949178526,
                -2.979645144022175
            ]
        },
        {
            "positions": [
                0.10348138438620492,
                -1.1392288296743323,
                1.9212587197044821,
                -0.6549205694063127,
                0.1081998984950356,
                -3.1748138140519737
            ]
        },
        {
            "positions": [
                0.1216071501832516,
                -1.1265980804740545,
                1.9485144981797142,
                -0.6850742078947999,
                0.119452114238349,
                -3.2779850882609827
            ]
        }
    ]
}