{
    "goal": {
        "global_pose": {
            "orientation": {
                "w": 0.7047431468963623,
                "x": -0.7094548344612122,
                "y": 0.0024358443915843964,
                "z": -0.0022348060738295317
            },
            "position": {
                "x": 0.6094750761985779,
                "y": 0.3671506643295288,
                "z": 0.19426114857196808
            }
        },
        "name": "move_to_magneteinheit_A"
    },
    "id": "BKPIECE_move_to_magneteinheit_A_40",
    "joint_names": [
        "shoulder_pan_joint",
        "shoulder_lift_joint",
        "elbow_joint",
        "wrist_1_joint",
        "wrist_2_joint",
        "wrist_3_joint"
    ],
    "metrics": {
        "cart_traj_len": 4.957168161881827,
        "distance_elbow_joint": 3.8748393988657326,
        "distance_shoulder_lift_joint": 0.6165201549516064,
        "distance_shoulder_pan_joint": 4.950905575852148,
        "distance_wrist_1_joint": 1.9150171509125151,
        "distance_wrist_2_joint": 2.3574791967175273,
        "distance_wrist_3_joint": 2.5690094919929356,
        "smoothness": 0.35309574106564656,
        "time": 0.32497283,
        "traj_len": 4.035315473329498,
        "weighted_distance": 5.068953176042206
    },
    "planner": "BKPIECE",
    "start": {
        "state": {
            "elbow_joint": -1.919618573717145,
            "shoulder_lift_joint": -1.2443395971678275,
            "shoulder_pan_joint": 2.6996025300909787,
            "wrist_1_joint": -1.548550951253194,
            "wrist_2_joint": -1.5709469090946802,
            "wrist_3_joint": 0.4420197732051276
        }
    },
    "waypoints": [
        {
            "positions": [
                2.6996025300909787,
                -1.2443395971678275,
                -1.919618573717145,
                -1.548550951253194,
                -1.5709469090946802,
                0.4420197732051276
            ]
        },
        {
            "positions": [
                2.5697935973410724,
                -1.2317429047920785,
                -1.835121752424791,
                -1.5009183519685134,
                -1.5010378016631363,
                0.4835924643787934
            ]
        },
        {
            "positions": [
                2.439984664591166,
                -1.2191462124163297,
                -1.7506249311324371,
                -1.4532857526838328,
                -1.4311286942315922,
                0.5251651555524591
            ]
        },
        {
            "positions": [
                2.3101757318412597,
                -1.2065495200405807,
                -1.666128109840083,
                -1.405653153399152,
                -1.3612195868000483,
                0.5667378467261249
            ]
        },
        {
            "positions": [
                2.1803667990913533,
                -1.1939528276648317,
                -1.5816312885477293,
                -1.3580205541144714,
                -1.2913104793685042,
                0.6083105378997907
            ]
        },
        {
            "positions": [
                2.050557866341447,
                -1.181356135289083,
                -1.4971344672553752,
                -1.3103879548297908,
                -1.2214013719369603,
                0.6498832290734565
            ]
        },
        {
            "positions": [
                1.920748933591541,
                -1.168759442913334,
                -1.4126376459630214,
                -1.26275535554511,
                -1.1514922645054164,
                0.6914559202471223
            ]
        },
        {
            "positions": [
                1.7909400008416347,
                -1.156162750537585,
                -1.3281408246706674,
                -1.2151227562604294,
                -1.0815831570738723,
                0.7330286114207881
            ]
        },
        {
            "positions": [
                1.6611310680917284,
                -1.143566058161836,
                -1.2436440033783134,
                -1.1674901569757488,
                -1.0116740496423284,
                0.7746013025944539
            ]
        },
        {
            "positions": [
                1.531322135341822,
                -1.130969365786087,
                -1.1591471820859596,
                -1.119857557691068,
                -0.9417649422107844,
                0.8161739937681197
            ]
        },
        {
            "positions": [
                1.4015132025919157,
                -1.1183726734103383,
                -1.0746503607936055,
                -1.0722249584063874,
                -0.8718558347792404,
                0.8577466849417855
            ]
        },
        {
            "positions": [
                1.2717042698420096,
                -1.1057759810345893,
                -0.9901535395012517,
                -1.024592359121707,
                -0.8019467273476966,
                0.8993193761154512
            ]
        },
        {
            "positions": [
                1.1418953370921032,
                -1.0931792886588403,
                -0.9056567182088977,
                -0.9769597598370263,
                -0.7320376199161526,
                0.940892067289117
            ]
        },
        {
            "positions": [
                1.0120864043421969,
                -1.0805825962830915,
                -0.8211598969165439,
                -0.9293271605523457,
                -0.6621285124846086,
                0.9824647584627828
            ]
        },
        {
            "positions": [
                0.8822774715922908,
                -1.0679859039073425,
                -0.7366630756241899,
                -0.881694561267665,
                -0.5922194050530646,
                1.0240374496364486
            ]
        },
        {
            "positions": [
                0.7524685388423844,
                -1.0553892115315935,
                -0.6521662543318358,
                -0.8340619619829843,
                -0.5223102976215206,
                1.0656101408101144
            ]
        },
        {
            "positions": [
                0.6226596060924781,
                -1.0427925191558447,
                -0.567669433039482,
                -0.7864293626983037,
                -0.4524011901899767,
                1.1071828319837802
            ]
        },
        {
            "positions": [
                0.49285067334257215,
                -1.0301958267800957,
                -0.4831726117471282,
                -0.7387967634136231,
                -0.3824920827584328,
                1.148755523157446
            ]
        },
        {
            "positions": [
                0.36304174059266536,
                -1.017599134404347,
                -0.3986757904547742,
                -0.6911641641289423,
                -0.3125829753268887,
                1.1903282143311118
            ]
        },
        {
            "positions": [
                0.23323280784275946,
                -1.005002442028598,
                -0.3141789691624204,
                -0.6435315648442618,
                -0.24267386789534484,
                1.2319009055047776
            ]
        },
        {
            "positions": [
                0.10342387509285267,
                -0.9924057496528489,
                -0.22968214787006613,
                -0.595898965559581,
                -0.17276476046380074,
                1.2734735966784434
            ]
        },
        {
            "positions": [
                -0.026385057657053235,
                -0.9798090572771,
                -0.14518532657771233,
                -0.5482663662749003,
                -0.10285565303225686,
                1.3150462878521092
            ]
        },
        {
            "positions": [
                -0.15619399040695958,
                -0.9672123649013511,
                -0.06068850528535852,
                -0.5006337669902199,
                -0.03294654560071297,
                1.356618979025775
            ]
        },
        {
            "positions": [
                -0.28600292315686593,
                -0.9546156725256021,
                0.02380831600699551,
                -0.453001167705539,
                0.03696256183083113,
                1.3981916701994408
            ]
        },
        {
            "positions": [
                -0.4158118559067723,
                -0.9420189801498533,
                0.10830513729934954,
                -0.40536856842085855,
                0.10687166926237501,
                1.4397643613731066
            ]
        },
        {
            "positions": [
                -0.5456207886566782,
                -0.9294222877741043,
                0.19280195859170335,
                -0.3577359691361779,
                0.1767807766939189,
                1.4813370525467724
            ]
        },
        {
            "positions": [
                -0.675429721406585,
                -0.9168255953983554,
                0.27729877988405716,
                -0.3101033698514972,
                0.246689884125463,
                1.5229097437204382
            ]
        },
        {
            "positions": [
                -0.8052386541564909,
                -0.9042289030226065,
                0.36179560117641096,
                -0.26247077056681656,
                0.3165989915570069,
                1.564482434894104
            ]
        },
        {
            "positions": [
                -0.9350475869063972,
                -0.8916322106468575,
                0.4462924224687652,
                -0.2148381712821359,
                0.386508098988551,
                1.6060551260677698
            ]
        },
        {
            "positions": [
                -1.0648565196563038,
                -0.8790355182711086,
                0.5307892437611191,
                -0.16720557199745512,
                0.45641720642009487,
                1.6476278172414356
            ]
        },
        {
            "positions": [
                -0.9735914022636221,
                -0.8983598318137922,
                0.6403609038678475,
                -0.2082572467402841,
                0.4310237386352678,
                1.7525048516996378
            ]
        },
        {
            "positions": [
                -0.8823262848709402,
                -0.9176841453564759,
                0.749932563974576,
                -0.24930892148311307,
                0.4056302708504406,
                1.85738188615784
            ]
        },
        {
            "positions": [
                -0.7910611674782584,
                -0.9370084588991595,
                0.8595042240813043,
                -0.29036059622594207,
                0.38023680306561347,
                1.962258920616042
            ]
        },
        {
            "positions": [
                -0.6997960500855767,
                -0.9563327724418432,
                0.9690758841880327,
                -0.331412270968771,
                0.3548433352807864,
                2.067135955074244
            ]
        },
        {
            "positions": [
                -0.6085309326928949,
                -0.9756570859845268,
                1.078647544294761,
                -0.3724639457116,
                0.3294498674959593,
                2.1720129895324463
            ]
        },
        {
            "positions": [
                -0.5172658153002131,
                -0.9949813995272105,
                1.1882192044014896,
                -0.413515620454429,
                0.30405639971113213,
                2.2768900239906484
            ]
        },
        {
            "positions": [
                -0.42600069790753137,
                -1.0143057130698943,
                1.297790864508218,
                -0.45456729519725797,
                0.27866293192630504,
                2.38176705844885
            ]
        },
        {
            "positions": [
                -0.33473558051484953,
                -1.0336300266125777,
                1.4073625246149462,
                -0.495618969940087,
                0.2532694641414779,
                2.486644092907053
            ]
        },
        {
            "positions": [
                -0.2434704631221678,
                -1.0529543401552615,
                1.5169341847216746,
                -0.5366706446829159,
                0.2278759963566508,
                2.5915211273652545
            ]
        },
        {
            "positions": [
                -0.15220534572948596,
                -1.0722786536979452,
                1.626505844828403,
                -0.5777223194257449,
                0.20248252857182364,
                2.696398161823457
            ]
        },
        {
            "positions": [
                -0.06094022833680435,
                -1.0916029672406289,
                1.7360775049351314,
                -0.6187739941685739,
                0.17708906078699654,
                2.801275196281659
            ]
        },
        {
            "positions": [
                0.030324889055877602,
                -1.1109272807833124,
                1.84564916504186,
                -0.6598256689114028,
                0.1516955930021694,
                2.9061522307398615
            ]
        },
        {
            "positions": [
                0.12159000644855934,
                -1.130251594325996,
                1.9552208251485883,
                -0.7008773436542318,
                0.12630212521734227,
                3.0110292651980632
            ]
        }
    ]
}{
    "goal": {
        "global_pose": {
            "orientation": {
                "w": 0.7047431468963623,
                "x": -0.7094548344612122,
                "y": 0.0024358443915843964,
                "z": -0.0022348060738295317
            },
            "position": {
                "x": 0.6094750761985779,
                "y": 0.3671506643295288,
                "z": 0.19426114857196808
            }
        },
        "name": "move_to_magneteinheit_A"
    },
    "id": "BKPIECE_move_to_magneteinheit_A_40",
    "joint_names": [
        "shoulder_pan_joint",
        "shoulder_lift_joint",
        "elbow_joint",
        "wrist_1_joint",
        "wrist_2_joint",
        "wrist_3_joint"
    ],
    "metrics": {
        "cart_traj_len": 1.2239590867771009,
        "distance_elbow_joint": 0.10302954972165179,
        "distance_shoulder_lift_joint": 0.7545983081353533,
        "distance_shoulder_pan_joint": 1.2405291222495711,
        "distance_wrist_1_joint": 0.7843296082672757,
        "distance_wrist_2_joint": 1.5796025867852292,
        "distance_wrist_3_joint": 4.280669536577031,
        "smoothness": 0.26973450292608,
        "time": 0.232722184,
        "traj_len": 2.956815637089352,
        "weighted_distance": 4.434865271904286
    },
    "planner": "BKPIECE",
    "start": {
        "state": {
            "elbow_joint": 1.919643534880228,
            "shoulder_lift_joint": -1.8972525353963687,
            "shoulder_pan_joint": -1.1188672234189438,
            "wrist_1_joint": -1.5931878212786155,
            "wrist_2_joint": 1.5706036197970081,
            "wrist_3_joint": 1.118896926603594
        }
    },
    "waypoints": [
        {
            "positions": [
                -1.1188672234189438,
                -1.8972525353963687,
                1.919643534880228,
                -1.5931878212786155,
                1.5706036197970081,
                1.118896926603594
            ]
        },
        {
            "positions": [
                -1.0635649583712479,
                -1.863698728430561,
                1.9186288493332044,
                -1.557983310590959,
                1.5018187730447043,
                0.929605465479049
            ]
        },
        {
            "positions": [
                -1.008262693323552,
                -1.8301449214647536,
                1.9176141637861808,
                -1.5227787999033027,
                1.4330339262924003,
                0.740314004354504
            ]
        },
        {
            "positions": [
                -0.9529604282758558,
                -1.796591114498946,
                1.9165994782391569,
                -1.4875742892156463,
                1.3642490795400966,
                0.551022543229959
            ]
        },
        {
            "positions": [
                -0.8976581632281597,
                -1.7630373075331383,
                1.9155847926921332,
                -1.4523697785279899,
                1.2954642327877925,
                0.36173108210541394
            ]
        },
        {
            "positions": [
                -0.8423558981804637,
                -1.7294835005673308,
                1.9145701071451096,
                -1.4171652678403335,
                1.2266793860354888,
                0.17243962098086896
            ]
        },
        {
            "positions": [
                -0.7870536331327678,
                -1.6959296936015231,
                1.913555421598086,
                -1.381960757152677,
                1.157894539283185,
                -0.01685184014367591
            ]
        },
        {
            "positions": [
                -0.7317513680850718,
                -1.6623758866357154,
                1.912540736051062,
                -1.3467562464650207,
                1.089109692530881,
                -0.206143301268221
            ]
        },
        {
            "positions": [
                -0.6764491030373757,
                -1.628822079669908,
                1.9115260505040383,
                -1.3115517357773643,
                1.020324845778577,
                -0.3954347623927661
            ]
        },
        {
            "positions": [
                -0.6211468379896796,
                -1.5952682727041003,
                1.9105113649570147,
                -1.2763472250897079,
                0.9515399990262731,
                -0.5847262235173112
            ]
        },
        {
            "positions": [
                -0.5658445729419838,
                -1.5617144657382929,
                1.909496679409991,
                -1.2411427144020517,
                0.8827551522739693,
                -0.774017684641856
            ]
        },
        {
            "positions": [
                -0.5105423078942877,
                -1.5281606587724852,
                1.9084819938629671,
                -1.2059382037143953,
                0.8139703055216654,
                -0.9633091457664011
            ]
        },
        {
            "positions": [
                -0.4552400428465917,
                -1.4946068518066777,
                1.9074673083159435,
                -1.170733693026739,
                0.7451854587693616,
                -1.1526006068909458
            ]
        },
        {
            "positions": [
                -0.3999377777988956,
                -1.46105304484087,
                1.9064526227689198,
                -1.1355291823390825,
                0.6764006120170576,
                -1.3418920680154913
            ]
        },
        {
            "positions": [
                -0.34463551275119964,
                -1.4274992378750624,
                1.9054379372218961,
                -1.1003246716514261,
                0.6076157652647537,
                -1.531183529140036
            ]
        },
        {
            "positions": [
                -0.28933324770350366,
                -1.393945430909255,
                1.9044232516748725,
                -1.0651201609637697,
                0.53883091851245,
                -1.720474990264581
            ]
        },
        {
            "positions": [
                -0.23403098265580757,
                -1.3603916239434473,
                1.9034085661278486,
                -1.0299156502761133,
                0.470046071760146,
                -1.9097664513891262
            ]
        },
        {
            "positions": [
                -0.1787287176081116,
                -1.3268378169776396,
                1.902393880580825,
                -0.9947111395884569,
                0.401261225007842,
                -2.099057912513671
            ]
        },
        {
            "positions": [
                -0.12342645256041551,
                -1.2932840100118321,
                1.9013791950338013,
                -0.9595066289008004,
                0.332476378255538,
                -2.2883493736382166
            ]
        },
        {
            "positions": [
                -0.06812418751271943,
                -1.2597302030460245,
                1.9003645094867776,
                -0.9243021182131441,
                0.2636915315032342,
                -2.477640834762761
            ]
        },
        {
            "positions": [
                -0.012821922465023672,
                -1.2261763960802168,
                1.8993498239397537,
                -0.8890976075254877,
                0.19490668475093043,
                -2.666932295887306
            ]
        },
        {
            "positions": [
                0.042480342582672526,
                -1.1926225891144093,
                1.89833513839273,
                -0.8538930968378313,
                0.12612183799862642,
                -2.8562237570118514
            ]
        },
        {
            "positions": [
                0.09778260763036858,
                -1.1590687821486017,
                1.8973204528457064,
                -0.8186885861501749,
                0.0573369912463227,
                -3.045515218136396
            ]
        },
        {
            "positions": [
                0.12166189883062731,
                -1.1426542272610154,
                1.9780269205328365,
                -0.8088582130113398,
                0.12367294948086646,
                -3.1617726099734367
            ]
        }
    ]
}