{
    "goal": {
        "global_pose": {
            "orientation": {
                "w": 0.5084816217422485,
                "x": -0.49083608388900757,
                "y": 0.5182115435600281,
                "z": -0.4816462993621826
            },
            "position": {
                "x": 0.5540239810943604,
                "y": 0.030875300988554955,
                "z": 0.16403168439865112
            }
        },
        "name": "move_to_storage_A"
    },
    "id": "BKPIECE_move_to_storage_A_82",
    "joint_names": [
        "shoulder_pan_joint",
        "shoulder_lift_joint",
        "elbow_joint",
        "wrist_1_joint",
        "wrist_2_joint",
        "wrist_3_joint"
    ],
    "metrics": {
        "cart_traj_len": 0.3535070921252659,
        "distance_elbow_joint": 0.45020538931101095,
        "distance_shoulder_lift_joint": 0.2346457304684697,
        "distance_shoulder_pan_joint": 0.463983446873773,
        "distance_wrist_1_joint": 0.24288838639558274,
        "distance_wrist_2_joint": 1.0923767240257063,
        "distance_wrist_3_joint": 0.09343467702128416,
        "smoothness": 8.881784197001252e-16,
        "time": 0.18113479500000002,
        "traj_len": 1.6054701349124583,
        "weighted_distance": 2.024763892052524
    },
    "planner": "BKPIECE",
    "start": {
        "state": {
            "elbow_joint": 1.9715477243005601,
            "shoulder_lift_joint": -1.1394853015351272,
            "shoulder_pan_joint": 0.12281154014795169,
            "wrist_1_joint": -0.7804696478968182,
            "wrist_2_joint": 0.12958648046900423,
            "wrist_3_joint": -3.192491284697111
        }
    },
    "waypoints": [
        {
            "positions": [
                0.12281154014795169,
                -1.1394853015351272,
                1.9715477243005601,
                -0.7804696478968182,
                0.12958648046900423,
                -3.192491284697111
            ]
        },
        {
            "positions": [
                0.05652819059455555,
                -1.17300612017348,
                2.035862779916419,
                -0.8151679888104728,
                0.28564029818696224,
                -3.1791434736940705
            ]
        },
        {
            "positions": [
                -0.00975515895884059,
                -1.2065269388118327,
                2.1001778355322775,
                -0.8498663297241276,
                0.4416941159049203,
                -3.16579566269103
            ]
        },
        {
            "positions": [
                -0.07603850851223674,
                -1.2400477574501856,
                2.1644928911481363,
                -0.8845646706377822,
                0.5977479336228784,
                -3.1524478516879895
            ]
        },
        {
            "positions": [
                -0.14232185806563286,
                -1.2735685760885385,
                2.228807946763995,
                -0.9192630115514369,
                0.7538017513408364,
                -3.1391000406849487
            ]
        },
        {
            "positions": [
                -0.208605207619029,
                -1.3070893947268913,
                2.2931230023798537,
                -0.9539613524650916,
                0.9098555690587945,
                -3.125752229681908
            ]
        },
        {
            "positions": [
                -0.27488855717242516,
                -1.340610213365244,
                2.3574380579957124,
                -0.9886596933787462,
                1.0659093867767524,
                -3.1124044186788677
            ]
        },
        {
            "positions": [
                -0.3411719067258213,
                -1.3741310320035969,
                2.421753113611571,
                -1.023358034292401,
                1.2219632044947106,
                -3.099056607675827
            ]
        }
    ]
}