{
    "goal": {
        "global_pose": {
            "orientation": {
                "w": 0.7047431468963623,
                "x": -0.7094548344612122,
                "y": 0.0024358443915843964,
                "z": -0.0022348060738295317
            },
            "position": {
                "x": 0.6094750761985779,
                "y": 0.3671506643295288,
                "z": 0.19426114857196808
            }
        },
        "name": "move_to_magneteinheit_A"
    },
    "id": "BKPIECE_move_to_magneteinheit_A_108",
    "joint_names": [
        "shoulder_pan_joint",
        "shoulder_lift_joint",
        "elbow_joint",
        "wrist_1_joint",
        "wrist_2_joint",
        "wrist_3_joint"
    ],
    "metrics": {
        "cart_traj_len": 3.4562976023646503,
        "distance_elbow_joint": 3.8778480370731714,
        "distance_shoulder_lift_joint": 0.18913223673847335,
        "distance_shoulder_pan_joint": 2.994057752709306,
        "distance_wrist_1_joint": 1.0229539563419865,
        "distance_wrist_2_joint": 1.6939474173396032,
        "distance_wrist_3_joint": 2.86565916179123,
        "smoothness": 0.30154839911170744,
        "time": 0.307331835,
        "traj_len": 3.555783818231048,
        "weighted_distance": 4.592582961608622
    },
    "planner": "BKPIECE",
    "start": {
        "state": {
            "elbow_joint": -1.919618573717145,
            "shoulder_lift_joint": -1.2443395971678275,
            "shoulder_pan_joint": 2.6996025300909787,
            "wrist_1_joint": -1.548550951253194,
            "wrist_2_joint": -1.5709469090946802,
            "wrist_3_joint": 0.4420197732051276
        }
    },
    "waypoints": [
        {
            "positions": [
                2.6996025300909787,
                -1.2443395971678275,
                -1.919618573717145,
                -1.548550951253194,
                -1.5709469090946802,
                0.4420197732051276
            ]
        },
        {
            "positions": [
                2.6004224018312176,
                -1.2458065308455792,
                -1.8054140910988459,
                -1.5140462302919746,
                -1.5102919860211477,
                0.5241199022117363
            ]
        },
        {
            "positions": [
                2.5012422735714566,
                -1.2472734645233312,
                -1.6912096084805468,
                -1.479541509330755,
                -1.4496370629476152,
                0.606220031218345
            ]
        },
        {
            "positions": [
                2.402062145311696,
                -1.248740398201083,
                -1.5770051258622477,
                -1.4450367883695354,
                -1.3889821398740827,
                0.6883201602249537
            ]
        },
        {
            "positions": [
                2.302882017051935,
                -1.2502073318788347,
                -1.4628006432439487,
                -1.410532067408316,
                -1.3283272168005502,
                0.7704202892315624
            ]
        },
        {
            "positions": [
                2.2037018887921738,
                -1.2516742655565867,
                -1.3485961606256496,
                -1.3760273464470962,
                -1.2676722937270175,
                0.8525204182381712
            ]
        },
        {
            "positions": [
                2.104521760532413,
                -1.2531411992343384,
                -1.2343916780073505,
                -1.3415226254858768,
                -1.207017370653485,
                0.9346205472447798
            ]
        },
        {
            "positions": [
                2.005341632272652,
                -1.2546081329120902,
                -1.1201871953890514,
                -1.3070179045246573,
                -1.1463624475799525,
                1.0167206762513885
            ]
        },
        {
            "positions": [
                1.906161504012891,
                -1.256075066589842,
                -1.0059827127707524,
                -1.2725131835634378,
                -1.08570752450642,
                1.0988208052579973
            ]
        },
        {
            "positions": [
                1.8069813757531301,
                -1.2575420002675939,
                -0.8917782301524533,
                -1.238008462602218,
                -1.0250526014328876,
                1.1809209342646059
            ]
        },
        {
            "positions": [
                1.707801247493369,
                -1.2590089339453456,
                -0.7775737475341542,
                -1.2035037416409986,
                -0.964397678359355,
                1.2630210632712147
            ]
        },
        {
            "positions": [
                1.6086211192336082,
                -1.2604758676230974,
                -0.6633692649158551,
                -1.1689990206797791,
                -0.9037427552858226,
                1.3451211922778232
            ]
        },
        {
            "positions": [
                1.509440990973847,
                -1.2619428013008493,
                -0.549164782297556,
                -1.1344942997185594,
                -0.84308783221229,
                1.427221321284432
            ]
        },
        {
            "positions": [
                1.4102608627140862,
                -1.263409734978601,
                -0.434960299679257,
                -1.09998957875734,
                -0.7824329091387575,
                1.5093214502910408
            ]
        },
        {
            "positions": [
                1.3110807344543254,
                -1.2648766686563528,
                -0.3207558170609579,
                -1.0654848577961205,
                -0.721777986065225,
                1.5914215792976494
            ]
        },
        {
            "positions": [
                1.2119006061945645,
                -1.2663436023341048,
                -0.20655133444265905,
                -1.0309801368349008,
                -0.6611230629916925,
                1.6735217083042582
            ]
        },
        {
            "positions": [
                1.1127204779348032,
                -1.2678105360118566,
                -0.09234685182435975,
                -0.9964754158736813,
                -0.60046813991816,
                1.755621837310867
            ]
        },
        {
            "positions": [
                1.0135403496750424,
                -1.2692774696896083,
                0.02185763079393932,
                -0.9619706949124617,
                -0.5398132168446275,
                1.8377219663174758
            ]
        },
        {
            "positions": [
                0.9143602214152815,
                -1.2707444033673603,
                0.1360621134122384,
                -0.9274659739512422,
                -0.479158293771095,
                1.9198220953240843
            ]
        },
        {
            "positions": [
                0.8151800931555206,
                -1.272211337045112,
                0.25026659603053747,
                -0.8929612529900227,
                -0.4185033706975625,
                2.0019222243306927
            ]
        },
        {
            "positions": [
                0.7159999648957593,
                -1.2736782707228638,
                0.36447107864883654,
                -0.858456532028803,
                -0.3578484476240298,
                2.0840223533373017
            ]
        },
        {
            "positions": [
                0.6168198366359987,
                -1.2751452044006155,
                0.4786755612671356,
                -0.8239518110675835,
                -0.2971935245504973,
                2.1661224823439102
            ]
        },
        {
            "positions": [
                0.5176397083762376,
                -1.2766121380783675,
                0.5928800438854347,
                -0.789447090106364,
                -0.23653860147696504,
                2.248222611350519
            ]
        },
        {
            "positions": [
                0.41845958011647655,
                -1.2780790717561192,
                0.7070845265037338,
                -0.7549423691451445,
                -0.17588367840343255,
                2.330322740357128
            ]
        },
        {
            "positions": [
                0.31927945185671547,
                -1.279546005433871,
                0.8212890091220328,
                -0.7204376481839249,
                -0.11522875532989985,
                2.4124228693637364
            ]
        },
        {
            "positions": [
                0.22009932359695483,
                -1.281012939111623,
                0.9354934917403319,
                -0.6859329272227053,
                -0.05457383225636736,
                2.4945229983703454
            ]
        },
        {
            "positions": [
                0.12091919533719356,
                -1.2824798727893747,
                1.0496979743586312,
                -0.6514282062614858,
                0.006081090817165055,
                2.576623127376954
            ]
        },
        {
            "positions": [
                0.0794319956814738,
                -1.2777708375683337,
                1.2012075734469407,
                -0.6463330395419843,
                0.009284888793001475,
                2.6958146802160727
            ]
        },
        {
            "positions": [
                0.03794479602575404,
                -1.2730618023472924,
                1.35271717253525,
                -0.6412378728224828,
                0.012488686768837895,
                2.8150062330551915
            ]
        },
        {
            "positions": [
                -0.0035424036299656902,
                -1.2683527671262513,
                1.5042267716235596,
                -0.6361427061029814,
                0.015692484744674315,
                2.93419778589431
            ]
        },
        {
            "positions": [
                -0.04502960328568548,
                -1.26364373190521,
                1.6557363707118689,
                -0.6310475393834799,
                0.018896282720510735,
                3.0533893387334285
            ]
        },
        {
            "positions": [
                -0.08651680294140522,
                -1.258934696684169,
                1.8072459698001784,
                -0.6259523726639784,
                0.022100080696347155,
                3.1725808915725473
            ]
        },
        {
            "positions": [
                -0.017203996382430878,
                -1.2164524350135955,
                1.8575738009854612,
                -0.6594041652482353,
                0.05573355654587246,
                3.1275482104312773
            ]
        },
        {
            "positions": [
                0.052108810176543466,
                -1.1739701733430221,
                1.907901632170744,
                -0.6928559578324923,
                0.08936703239539777,
                3.082515529290007
            ]
        },
        {
            "positions": [
                0.12142161673551785,
                -1.1314879116724486,
                1.9582294633560269,
                -0.7263077504167492,
                0.12300050824492308,
                3.037482848148737
            ]
        }
    ]
}{
    "goal": {
        "global_pose": {
            "orientation": {
                "w": 0.7047431468963623,
                "x": -0.7094548344612122,
                "y": 0.0024358443915843964,
                "z": -0.0022348060738295317
            },
            "position": {
                "x": 0.6094750761985779,
                "y": 0.3671506643295288,
                "z": 0.19426114857196808
            }
        },
        "name": "move_to_magneteinheit_A"
    },
    "id": "BKPIECE_move_to_magneteinheit_A_108",
    "joint_names": [
        "shoulder_pan_joint",
        "shoulder_lift_joint",
        "elbow_joint",
        "wrist_1_joint",
        "wrist_2_joint",
        "wrist_3_joint"
    ],
    "metrics": {
        "cart_traj_len": 1.4149135661738206,
        "distance_elbow_joint": 0.7895102691311422,
        "distance_shoulder_lift_joint": 0.8257693835599316,
        "distance_shoulder_pan_joint": 1.2412709588320103,
        "distance_wrist_1_joint": 0.7962673014908684,
        "distance_wrist_2_joint": 1.433270373757312,
        "distance_wrist_3_joint": 4.250395919878008,
        "smoothness": 0.15688108247406124,
        "time": 0.39097451699999997,
        "traj_len": 3.055566102484001,
        "weighted_distance": 4.479599727838802
    },
    "planner": "BKPIECE",
    "start": {
        "state": {
            "elbow_joint": 1.919643534880228,
            "shoulder_lift_joint": -1.8972525353963687,
            "shoulder_pan_joint": -1.1188672234189438,
            "wrist_1_joint": -1.5931878212786155,
            "wrist_2_joint": 1.5706036197970081,
            "wrist_3_joint": 1.118896926603594
        }
    },
    "waypoints": [
        {
            "positions": [
                -1.1188672234189438,
                -1.8972525353963687,
                1.919643534880228,
                -1.5931878212786155,
                1.5706036197970081,
                1.118896926603594
            ]
        },
        {
            "positions": [
                -1.0631775444310156,
                -1.8614559911872337,
                1.9031966263970135,
                -1.5579668969450793,
                1.509171758609072,
                0.9337394650311499
            ]
        },
        {
            "positions": [
                -1.0074878654430874,
                -1.8256594469780987,
                1.8867497179137989,
                -1.522745972611543,
                1.447739897421136,
                0.7485820034587058
            ]
        },
        {
            "positions": [
                -0.9517981864551592,
                -1.7898629027689636,
                1.8703028094305842,
                -1.487525048278007,
                1.3863080362332,
                0.5634245418862618
            ]
        },
        {
            "positions": [
                -0.896108507467231,
                -1.7540663585598288,
                1.8538559009473696,
                -1.4523041239444705,
                1.324876175045264,
                0.3782670803138177
            ]
        },
        {
            "positions": [
                -0.8404188284793028,
                -1.7182698143506938,
                1.837408992464155,
                -1.4170831996109343,
                1.263444313857328,
                0.19310961874137367
            ]
        },
        {
            "positions": [
                -0.7847291494913746,
                -1.6824732701415588,
                1.8209620839809404,
                -1.3818622752773981,
                1.2020124526693918,
                0.007952157168929608
            ]
        },
        {
            "positions": [
                -0.7290394705034464,
                -1.6466767259324238,
                1.8045151754977258,
                -1.346641350943862,
                1.1405805914814557,
                -0.17720530440351445
            ]
        },
        {
            "positions": [
                -0.6733497915155181,
                -1.6108801817232887,
                1.7880682670145112,
                -1.3114204266103258,
                1.0791487302935199,
                -0.3623627659759585
            ]
        },
        {
            "positions": [
                -0.6176601125275899,
                -1.5750836375141537,
                1.7716213585312965,
                -1.2761995022767896,
                1.0177168691055836,
                -0.5475202275484026
            ]
        },
        {
            "positions": [
                -0.5619704335396617,
                -1.5392870933050187,
                1.755174450048082,
                -1.2409785779432534,
                0.9562850079176477,
                -0.7326776891208466
            ]
        },
        {
            "positions": [
                -0.5062807545517335,
                -1.5034905490958836,
                1.7387275415648673,
                -1.205757653609717,
                0.8948531467297116,
                -0.9178351506932907
            ]
        },
        {
            "positions": [
                -0.4505910755638053,
                -1.4676940048867488,
                1.7222806330816527,
                -1.1705367292761808,
                0.8334212855417756,
                -1.1029926122657348
            ]
        },
        {
            "positions": [
                -0.394901396575877,
                -1.4318974606776138,
                1.705833724598438,
                -1.1353158049426446,
                0.7719894243538394,
                -1.2881500738381788
            ]
        },
        {
            "positions": [
                -0.3392117175879489,
                -1.3961009164684788,
                1.6893868161152235,
                -1.1000948806091084,
                0.7105575631659035,
                -1.4733075354106229
            ]
        },
        {
            "positions": [
                -0.2835220386000207,
                -1.3603043722593438,
                1.6729399076320088,
                -1.0648739562755722,
                0.6491257019779675,
                -1.658464996983067
            ]
        },
        {
            "positions": [
                -0.22783235961209236,
                -1.3245078280502087,
                1.6564929991487942,
                -1.0296530319420358,
                0.5876938407900314,
                -1.843622458555511
            ]
        },
        {
            "positions": [
                -0.17214268062416427,
                -1.288711283841074,
                1.6400460906655796,
                -0.9944321076084998,
                0.5262619796020953,
                -2.0287799201279553
            ]
        },
        {
            "positions": [
                -0.11645300163623595,
                -1.252914739631939,
                1.623599182182365,
                -0.9592111832749635,
                0.4648301184141592,
                -2.213937381700399
            ]
        },
        {
            "positions": [
                -0.06076332264830775,
                -1.2171181954228039,
                1.6071522736991504,
                -0.9239902589414273,
                0.40339825722622313,
                -2.3990948432728434
            ]
        },
        {
            "positions": [
                -0.005073643660379545,
                -1.1813216512136688,
                1.5907053652159358,
                -0.8887693346078911,
                0.34196639603828727,
                -2.584252304845287
            ]
        },
        {
            "positions": [
                0.05061603532754866,
                -1.1455251070045338,
                1.5742584567327211,
                -0.8535484102743548,
                0.2805345348503512,
                -2.7694097664177315
            ]
        },
        {
            "positions": [
                0.10630571431547695,
                -1.1097285627953988,
                1.5578115482495065,
                -0.8183274859408186,
                0.219102673662415,
                -2.9545672279901756
            ]
        },
        {
            "positions": [
                0.11435472486427176,
                -1.1288512682748797,
                1.7716506894997168,
                -0.8290309690173544,
                0.17821795985105546,
                -3.043033110632294
            ]
        },
        {
            "positions": [
                0.12240373541306658,
                -1.1479739737543604,
                1.9854898307499271,
                -0.8397344520938902,
                0.1373332460396959,
                -3.1314989932744126
            ]
        }
    ]
}