{
    "goal": {
        "global_pose": {
            "orientation": {
                "w": 0.7047431468963623,
                "x": -0.7094548344612122,
                "y": 0.0024358443915843964,
                "z": -0.0022348060738295317
            },
            "position": {
                "x": 0.6094750761985779,
                "y": 0.3671506643295288,
                "z": 0.19426114857196808
            }
        },
        "name": "move_to_magneteinheit_A"
    },
    "id": "BKPIECE_move_to_magneteinheit_A_80",
    "joint_names": [
        "shoulder_pan_joint",
        "shoulder_lift_joint",
        "elbow_joint",
        "wrist_1_joint",
        "wrist_2_joint",
        "wrist_3_joint"
    ],
    "metrics": {
        "cart_traj_len": 3.528621593964822,
        "distance_elbow_joint": 3.879304675992425,
        "distance_shoulder_lift_joint": 0.854670126945432,
        "distance_shoulder_pan_joint": 2.577142957712192,
        "distance_wrist_1_joint": 1.1076976897932347,
        "distance_wrist_2_joint": 2.3791867649794263,
        "distance_wrist_3_joint": 2.5859865537394975,
        "smoothness": 0.4130672821343147,
        "time": 0.382786343,
        "traj_len": 3.6584134223953155,
        "weighted_distance": 4.694980972422984
    },
    "planner": "BKPIECE",
    "start": {
        "state": {
            "elbow_joint": -1.919618573717145,
            "shoulder_lift_joint": -1.2443395971678275,
            "shoulder_pan_joint": 2.6996025300909787,
            "wrist_1_joint": -1.548550951253194,
            "wrist_2_joint": -1.5709469090946802,
            "wrist_3_joint": 0.4420197732051276
        }
    },
    "waypoints": [
        {
            "positions": [
                2.6996025300909787,
                -1.2443395971678275,
                -1.919618573717145,
                -1.548550951253194,
                -1.5709469090946802,
                0.4420197732051276
            ]
        },
        {
            "positions": [
                2.599595427084735,
                -1.2518645914087234,
                -1.7941699143457825,
                -1.529970296518594,
                -1.506391993733428,
                0.5126542446193234
            ]
        },
        {
            "positions": [
                2.4995883240784917,
                -1.2593895856496196,
                -1.6687212549744201,
                -1.5113896417839936,
                -1.441837078372176,
                0.5832887160335192
            ]
        },
        {
            "positions": [
                2.399581221072248,
                -1.2669145798905155,
                -1.5432725956030577,
                -1.4928089870493935,
                -1.3772821630109238,
                0.6539231874477149
            ]
        },
        {
            "positions": [
                2.2995741180660048,
                -1.2744395741314114,
                -1.4178239362316956,
                -1.4742283323147933,
                -1.3127272476496716,
                0.7245576588619107
            ]
        },
        {
            "positions": [
                2.199567015059761,
                -1.2819645683723075,
                -1.292375276860333,
                -1.4556476775801932,
                -1.2481723322884195,
                0.7951921302761065
            ]
        },
        {
            "positions": [
                2.0995599120535178,
                -1.2894895626132035,
                -1.1669266174889708,
                -1.4370670228455928,
                -1.1836174169271674,
                0.8658266016903022
            ]
        },
        {
            "positions": [
                1.999552809047274,
                -1.2970145568540996,
                -1.0414779581176081,
                -1.4184863681109927,
                -1.1190625015659152,
                0.936461073104498
            ]
        },
        {
            "positions": [
                1.8995457060410308,
                -1.3045395510949955,
                -0.916029298746246,
                -1.3999057133763926,
                -1.0545075862046631,
                1.0070955445186938
            ]
        },
        {
            "positions": [
                1.7995386030347873,
                -1.3120645453358915,
                -0.7905806393748835,
                -1.3813250586417922,
                -0.9899526708434111,
                1.0777300159328895
            ]
        },
        {
            "positions": [
                1.6995315000285436,
                -1.3195895395767876,
                -0.6651319800035209,
                -1.362744403907192,
                -0.9253977554821589,
                1.1483644873470853
            ]
        },
        {
            "positions": [
                1.5995243970223003,
                -1.3271145338176835,
                -0.5396833206321587,
                -1.344163749172592,
                -0.8608428401209068,
                1.218998958761281
            ]
        },
        {
            "positions": [
                1.4995172940160568,
                -1.3346395280585794,
                -0.41423466126079633,
                -1.3255830944379918,
                -0.7962879247596547,
                1.2896334301754768
            ]
        },
        {
            "positions": [
                1.399510191009813,
                -1.3421645222994756,
                -0.28878600188943393,
                -1.3070024397033915,
                -0.7317330093984026,
                1.3602679015896726
            ]
        },
        {
            "positions": [
                1.2995030880035696,
                -1.3496895165403715,
                -0.1633373425180713,
                -1.2884217849687913,
                -0.6671780940371503,
                1.4309023730038684
            ]
        },
        {
            "positions": [
                1.1994959849973263,
                -1.3572145107812674,
                -0.037888683146709345,
                -1.2698411302341912,
                -0.6026231786758984,
                1.5015368444180641
            ]
        },
        {
            "positions": [
                1.0994888819910826,
                -1.3647395050221636,
                0.08755997622465306,
                -1.251260475499591,
                -0.5380682633146463,
                1.5721713158322599
            ]
        },
        {
            "positions": [
                0.9994817789848391,
                -1.3722644992630595,
                0.2130086355960159,
                -1.2326798207649907,
                -0.47351334795339395,
                1.6428057872464557
            ]
        },
        {
            "positions": [
                0.8994746759785959,
                -1.3797894935039556,
                0.33845729496737786,
                -1.2140991660303906,
                -0.40895843259214204,
                1.7134402586606514
            ]
        },
        {
            "positions": [
                0.7994675729723522,
                -1.3873144877448516,
                0.46390595433874027,
                -1.1955185112957905,
                -0.3444035172308899,
                1.7840747300748472
            ]
        },
        {
            "positions": [
                0.6994604699661084,
                -1.3948394819857475,
                0.5893546137101031,
                -1.17693785656119,
                -0.27984860186963756,
                1.854709201489043
            ]
        },
        {
            "positions": [
                0.5994533669598652,
                -1.4023644762266434,
                0.7148032730814651,
                -1.15835720182659,
                -0.21529368650838565,
                1.9253436729032387
            ]
        },
        {
            "positions": [
                0.4994462639536219,
                -1.4098894704675395,
                0.8402519324528275,
                -1.1397765470919898,
                -0.15073877114713352,
                1.9959781443174345
            ]
        },
        {
            "positions": [
                0.3994391609473782,
                -1.4174144647084355,
                0.9657005918241899,
                -1.1211958923573895,
                -0.08618385578588139,
                2.0666126157316302
            ]
        },
        {
            "positions": [
                0.2994320579411349,
                -1.4249394589493316,
                1.0911492511955523,
                -1.1026152376227893,
                -0.02162894042462926,
                2.137247087145826
            ]
        },
        {
            "positions": [
                0.19942495493489132,
                -1.4324644531902275,
                1.2165979105669147,
                -1.0840345828881892,
                0.04292597493662294,
                2.2078815585600218
            ]
        },
        {
            "positions": [
                0.19559653338054311,
                -1.3634636087823766,
                1.3010885944359196,
                -1.1034272424342613,
                0.1045165771045774,
                2.3131946188643977
            ]
        },
        {
            "positions": [
                0.19176811182619494,
                -1.2944627643745257,
                1.3855792783049246,
                -1.1228199019803333,
                0.16610717927253188,
                2.418507679168774
            ]
        },
        {
            "positions": [
                0.18793969027184673,
                -1.2254619199666748,
                1.4700699621739295,
                -1.1422125615264054,
                0.22769778144048636,
                2.52382073947315
            ]
        },
        {
            "positions": [
                0.18411126871749853,
                -1.1564610755588238,
                1.5545606460429344,
                -1.1616052210724777,
                0.2892883836084408,
                2.629133799777526
            ]
        },
        {
            "positions": [
                0.18028284716315032,
                -1.087460231150973,
                1.6390513299119394,
                -1.1809978806185497,
                0.35087898577639526,
                2.734446860081902
            ]
        },
        {
            "positions": [
                0.17645442560880215,
                -1.018459386743122,
                1.7235420137809443,
                -1.2003905401646218,
                0.41246958794434974,
                2.8397599203862782
            ]
        },
        {
            "positions": [
                0.17262600405445394,
                -0.949458542335271,
                1.8080326976499492,
                -1.2197831997106938,
                0.4740601901123042,
                2.945072980690654
            ]
        },
        {
            "positions": [
                0.1600843961355374,
                -0.9953433823522899,
                1.8459460488062822,
                -1.0929250235592625,
                0.3905152736691935,
                2.965806317254147
            ]
        },
        {
            "positions": [
                0.14754278821662087,
                -1.0412282223693088,
                1.8838593999626152,
                -0.9660668474078312,
                0.30697035722608274,
                2.9865396538176396
            ]
        },
        {
            "positions": [
                0.1350011802977043,
                -1.0871130623863277,
                1.9217727511189482,
                -0.8392086712564,
                0.223425440782972,
                3.007272990381132
            ]
        },
        {
            "positions": [
                0.12245957237878777,
                -1.1329979024033465,
                1.9596861022752812,
                -0.7123504951049686,
                0.13988052433986126,
                3.028006326944625
            ]
        }
    ]
}{
    "goal": {
        "global_pose": {
            "orientation": {
                "w": 0.7047431468963623,
                "x": -0.7094548344612122,
                "y": 0.0024358443915843964,
                "z": -0.0022348060738295317
            },
            "position": {
                "x": 0.6094750761985779,
                "y": 0.3671506643295288,
                "z": 0.19426114857196808
            }
        },
        "name": "move_to_magneteinheit_A"
    },
    "id": "BKPIECE_move_to_magneteinheit_A_80",
    "joint_names": [
        "shoulder_pan_joint",
        "shoulder_lift_joint",
        "elbow_joint",
        "wrist_1_joint",
        "wrist_2_joint",
        "wrist_3_joint"
    ],
    "metrics": {
        "cart_traj_len": 1.602807822099075,
        "distance_elbow_joint": 2.024207432472884,
        "distance_shoulder_lift_joint": 0.7527599598680057,
        "distance_shoulder_pan_joint": 1.2424450824458886,
        "distance_wrist_1_joint": 0.7688960756377263,
        "distance_wrist_2_joint": 2.7693191491539637,
        "distance_wrist_3_joint": 4.273822027707062,
        "smoothness": 0.30777276226688516,
        "time": 0.247190676,
        "traj_len": 3.439687446162156,
        "weighted_distance": 4.890532589349687
    },
    "planner": "BKPIECE",
    "start": {
        "state": {
            "elbow_joint": 1.919643534880228,
            "shoulder_lift_joint": -1.8972525353963687,
            "shoulder_pan_joint": -1.1188672234189438,
            "wrist_1_joint": -1.5931878212786155,
            "wrist_2_joint": 1.5706036197970081,
            "wrist_3_joint": 1.118896926603594
        }
    },
    "waypoints": [
        {
            "positions": [
                -1.1188672234189438,
                -1.8972525353963687,
                1.919643534880228,
                -1.5931878212786155,
                1.5706036197970081,
                1.118896926603594
            ]
        },
        {
            "positions": [
                -1.088926834362144,
                -1.8622885776422546,
                1.8679747289592965,
                -1.592661039764039,
                1.4596599674819404,
                0.9519499254996688
            ]
        },
        {
            "positions": [
                -1.0589864453053446,
                -1.8273246198881408,
                1.8163059230383651,
                -1.5921342582494626,
                1.3487163151668726,
                0.7850029243957438
            ]
        },
        {
            "positions": [
                -1.0290460562485448,
                -1.7923606621340267,
                1.7646371171174335,
                -1.5916074767348862,
                1.237772662851805,
                0.6180559232918188
            ]
        },
        {
            "positions": [
                -0.9991056671917452,
                -1.7573967043799126,
                1.7129683111965022,
                -1.5910806952203098,
                1.1268290105367373,
                0.45110892218789367
            ]
        },
        {
            "positions": [
                -0.9691652781349456,
                -1.7224327466257987,
                1.6612995052755706,
                -1.5905539137057334,
                1.0158853582216696,
                0.28416192108396865
            ]
        },
        {
            "positions": [
                -0.9392248890781459,
                -1.6874687888716846,
                1.6096306993546392,
                -1.590027132191157,
                0.9049417059066018,
                0.11721491998004363
            ]
        },
        {
            "positions": [
                -0.9092845000213463,
                -1.6525048311175707,
                1.5579618934337076,
                -1.5895003506765806,
                0.7939980535915342,
                -0.0497320811238815
            ]
        },
        {
            "positions": [
                -0.8793441109645467,
                -1.6175408733634566,
                1.506293087512776,
                -1.5889735691620042,
                0.6830544012764664,
                -0.21667908222780663
            ]
        },
        {
            "positions": [
                -0.849403721907747,
                -1.5825769156093425,
                1.4546242815918446,
                -1.5884467876474277,
                0.5721107489613987,
                -0.38362608333173154
            ]
        },
        {
            "positions": [
                -0.8194633328509473,
                -1.5476129578552287,
                1.402955475670913,
                -1.5879200061328511,
                0.46116709664633104,
                -0.5505730844356567
            ]
        },
        {
            "positions": [
                -0.7895229437941477,
                -1.5126490001011146,
                1.3512866697499815,
                -1.5873932246182747,
                0.3502234443312633,
                -0.7175200855395818
            ]
        },
        {
            "positions": [
                -0.759582554737348,
                -1.4776850423470007,
                1.29961786382905,
                -1.5868664431036983,
                0.23927979201619554,
                -0.8844670866435067
            ]
        },
        {
            "positions": [
                -0.7296421656805484,
                -1.4427210845928866,
                1.2479490579081185,
                -1.5863396615891219,
                0.12833613970112778,
                -1.051414087747432
            ]
        },
        {
            "positions": [
                -0.6997017766237488,
                -1.4077571268387725,
                1.196280251987187,
                -1.5858128800745455,
                0.01739248738606025,
                -1.218361088851357
            ]
        },
        {
            "positions": [
                -0.669761387566949,
                -1.3727931690846584,
                1.1446114460662555,
                -1.585286098559969,
                -0.09355116492900772,
                -1.3853080899552823
            ]
        },
        {
            "positions": [
                -0.6398209985101495,
                -1.3378292113305446,
                1.0929426401453242,
                -1.5847593170453926,
                -0.20449481724407526,
                -1.5522550910592072
            ]
        },
        {
            "positions": [
                -0.6098806094533498,
                -1.3028652535764305,
                1.0412738342243926,
                -1.5842325355308162,
                -0.315438469559143,
                -1.7192020921631321
            ]
        },
        {
            "positions": [
                -0.5799402203965501,
                -1.2679012958223166,
                0.9896050283034611,
                -1.5837057540162398,
                -0.42638212187421076,
                -1.886149093267057
            ]
        },
        {
            "positions": [
                -0.5499998313397505,
                -1.2329373380682025,
                0.9379362223825295,
                -1.5831789725016634,
                -0.5373257741892787,
                -2.053096094370982
            ]
        },
        {
            "positions": [
                -0.4887654958518691,
                -1.2248969051100354,
                1.0327089605620918,
                -1.5141892246052293,
                -0.4771994328103989,
                -2.153262367710299
            ]
        },
        {
            "positions": [
                -0.42753116036398775,
                -1.216856472151868,
                1.127481698741654,
                -1.4451994767087952,
                -0.417073091431519,
                -2.253428641049616
            ]
        },
        {
            "positions": [
                -0.3662968248761064,
                -1.2088160391937008,
                1.2222544369212163,
                -1.3762097288123614,
                -0.35694675005263915,
                -2.3535949143889328
            ]
        },
        {
            "positions": [
                -0.305062489388225,
                -1.2007756062355337,
                1.3170271751007785,
                -1.3072199809159273,
                -0.29682040867375925,
                -2.45376118772825
            ]
        },
        {
            "positions": [
                -0.24382815390034362,
                -1.1927351732773663,
                1.4117999132803407,
                -1.2382302330194932,
                -0.2366940672948794,
                -2.5539274610675666
            ]
        },
        {
            "positions": [
                -0.18259381841246225,
                -1.1846947403191992,
                1.5065726514599032,
                -1.1692404851230593,
                -0.17656772591599956,
                -2.654093734406884
            ]
        },
        {
            "positions": [
                -0.12135948292458087,
                -1.1766543073610318,
                1.6013453896394654,
                -1.1002507372266253,
                -0.11644138453711972,
                -2.7542600077462005
            ]
        },
        {
            "positions": [
                -0.0601251474366995,
                -1.1686138744028647,
                1.6961181278190276,
                -1.0312609893301912,
                -0.05631504315823982,
                -2.8544262810855177
            ]
        },
        {
            "positions": [
                0.0011091880511818752,
                -1.1605734414446975,
                1.7908908659985898,
                -0.9622712414337572,
                0.0038112982206400803,
                -2.9545925544248344
            ]
        },
        {
            "positions": [
                0.06234352353906325,
                -1.1525330084865302,
                1.885663604178152,
                -0.8932814935373232,
                0.06393763959951992,
                -3.054758827764151
            ]
        },
        {
            "positions": [
                0.12357785902694465,
                -1.144492575528363,
                1.9804363423577145,
                -0.8242917456408891,
                0.12406398097839981,
                -3.1549251011034682
            ]
        }
    ]
}