{
    "goal": {
        "global_pose": {
            "orientation": {
                "w": 0.7047431468963623,
                "x": -0.7094548344612122,
                "y": 0.0024358443915843964,
                "z": -0.0022348060738295317
            },
            "position": {
                "x": 0.6094750761985779,
                "y": 0.3671506643295288,
                "z": 0.19426114857196808
            }
        },
        "name": "move_to_magneteinheit_A"
    },
    "id": "BKPIECE_move_to_magneteinheit_A_29",
    "joint_names": [
        "shoulder_pan_joint",
        "shoulder_lift_joint",
        "elbow_joint",
        "wrist_1_joint",
        "wrist_2_joint",
        "wrist_3_joint"
    ],
    "metrics": {
        "cart_traj_len": 3.55591398330407,
        "distance_elbow_joint": 3.901936839200025,
        "distance_shoulder_lift_joint": 0.5034239792494364,
        "distance_shoulder_pan_joint": 3.1143257847246684,
        "distance_wrist_1_joint": 0.7247790408065945,
        "distance_wrist_2_joint": 1.7002207552979895,
        "distance_wrist_3_joint": 3.5919086292216944,
        "smoothness": 0.07501024212145535,
        "time": 0.303067304,
        "traj_len": 3.67921119650672,
        "weighted_distance": 4.810967894618336
    },
    "planner": "BKPIECE",
    "start": {
        "state": {
            "elbow_joint": -1.919618573717145,
            "shoulder_lift_joint": -1.2443395971678275,
            "shoulder_pan_joint": 2.6996025300909787,
            "wrist_1_joint": -1.548550951253194,
            "wrist_2_joint": -1.5709469090946802,
            "wrist_3_joint": 0.4420197732051276
        }
    },
    "waypoints": [
        {
            "positions": [
                2.6996025300909787,
                -1.2443395971678275,
                -1.919618573717145,
                -1.548550951253194,
                -1.5709469090946802,
                0.4420197732051276
            ]
        },
        {
            "positions": [
                2.5702358094818707,
                -1.2306253033121333,
                -1.8328258346820083,
                -1.5184250098062946,
                -1.5382124278118587,
                0.3450064451196454
            ]
        },
        {
            "positions": [
                2.4408690888727627,
                -1.2169110094564388,
                -1.746033095646872,
                -1.488299068359395,
                -1.5054779465290373,
                0.24799311703416327
            ]
        },
        {
            "positions": [
                2.3115023682636546,
                -1.2031967156007446,
                -1.6592403566117353,
                -1.4581731269124956,
                -1.4727434652462157,
                0.15097978894868114
            ]
        },
        {
            "positions": [
                2.1821356476545466,
                -1.1894824217450501,
                -1.5724476175765987,
                -1.428047185465596,
                -1.4400089839633943,
                0.05396646086319895
            ]
        },
        {
            "positions": [
                2.0527689270454386,
                -1.175768127889356,
                -1.4856548785414623,
                -1.3979212440186966,
                -1.4072745026805729,
                -0.04304686722228318
            ]
        },
        {
            "positions": [
                1.9234022064363305,
                -1.1620538340336615,
                -1.3988621395063257,
                -1.367795302571797,
                -1.3745400213977514,
                -0.1400601953077653
            ]
        },
        {
            "positions": [
                1.7940354858272225,
                -1.1483395401779672,
                -1.3120694004711893,
                -1.3376693611248975,
                -1.3418055401149298,
                -0.23707352339324744
            ]
        },
        {
            "positions": [
                1.6646687652181145,
                -1.1346252463222728,
                -1.2252766614360526,
                -1.307543419677998,
                -1.3090710588321084,
                -0.3340868514787297
            ]
        },
        {
            "positions": [
                1.5353020446090064,
                -1.1209109524665786,
                -1.138483922400916,
                -1.2774174782310985,
                -1.276336577549287,
                -0.4311001795642118
            ]
        },
        {
            "positions": [
                1.4059353239998984,
                -1.1071966586108841,
                -1.0516911833657794,
                -1.247291536784199,
                -1.2436020962664656,
                -0.5281135076496939
            ]
        },
        {
            "positions": [
                1.2765686033907904,
                -1.09348236475519,
                -0.9648984443306429,
                -1.2171655953372995,
                -1.210867614983644,
                -0.625126835735176
            ]
        },
        {
            "positions": [
                1.1472018827816826,
                -1.0797680708994954,
                -0.8781057052955064,
                -1.1870396538904,
                -1.1781331337008227,
                -0.7221401638206582
            ]
        },
        {
            "positions": [
                1.0178351621725743,
                -1.0660537770438012,
                -0.7913129662603697,
                -1.1569137124435003,
                -1.145398652418001,
                -0.8191534919061403
            ]
        },
        {
            "positions": [
                0.8884684415634663,
                -1.0523394831881068,
                -0.7045202272252333,
                -1.126787770996601,
                -1.1126641711351797,
                -0.9161668199916224
            ]
        },
        {
            "positions": [
                0.7591017209543585,
                -1.0386251893324125,
                -0.6177274881900967,
                -1.0966618295497015,
                -1.0799296898523583,
                -1.0131801480771045
            ]
        },
        {
            "positions": [
                0.6297350003452502,
                -1.024910895476718,
                -0.5309347491549601,
                -1.0665358881028018,
                -1.0471952085695366,
                -1.110193476162587
            ]
        },
        {
            "positions": [
                0.5003682797361422,
                -1.0111966016210239,
                -0.4441420101198237,
                -1.0364099466559025,
                -1.0144607272867152,
                -1.2072068042480688
            ]
        },
        {
            "positions": [
                0.37100155912703414,
                -0.9974823077653295,
                -0.35734927108468684,
                -1.0062840052090027,
                -0.9817262460038937,
                -1.3042201323335512
            ]
        },
        {
            "positions": [
                0.2416348385179261,
                -0.9837680139096352,
                -0.27055653204955044,
                -0.9761580637621032,
                -0.9489917647210723,
                -1.4012334604190333
            ]
        },
        {
            "positions": [
                0.11226811790881808,
                -0.9700537200539409,
                -0.18376379301441403,
                -0.9460321223152037,
                -0.9162572834382509,
                -1.4982467885045154
            ]
        },
        {
            "positions": [
                -0.017098602700289955,
                -0.9563394261982465,
                -0.09697105397927719,
                -0.9159061808683042,
                -0.8835228021554293,
                -1.5952601165899978
            ]
        },
        {
            "positions": [
                -0.14646532330939802,
                -0.9426251323425522,
                -0.01017831494414076,
                -0.8857802394214047,
                -0.8507883208726079,
                -1.6922734446754797
            ]
        },
        {
            "positions": [
                -0.12837377914043208,
                -0.9574326375413338,
                0.13868677332258614,
                -0.8807612079539444,
                -0.7774582632878286,
                -1.8017094389137378
            ]
        },
        {
            "positions": [
                -0.11028223497146616,
                -0.9722401427401155,
                0.287551861589313,
                -0.8757421764864841,
                -0.7041282057030492,
                -1.9111454331519957
            ]
        },
        {
            "positions": [
                -0.09219069080250022,
                -0.9870476479388971,
                0.43641694985603996,
                -0.8707231450190237,
                -0.63079814811827,
                -2.020581427390254
            ]
        },
        {
            "positions": [
                -0.0740991466335343,
                -1.0018551531376787,
                0.5852820381227668,
                -0.8657041135515634,
                -0.5574680905334906,
                -2.1300174216285117
            ]
        },
        {
            "positions": [
                -0.05600760246456836,
                -1.0166626583364604,
                0.7341471263894939,
                -0.8606850820841031,
                -0.48413803294871127,
                -2.23945341586677
            ]
        },
        {
            "positions": [
                -0.037916058295602434,
                -1.031470163535242,
                0.8830122146562207,
                -0.8556660506166427,
                -0.41080797536393193,
                -2.348889410105028
            ]
        },
        {
            "positions": [
                -0.019824514126636494,
                -1.0462776687340236,
                1.0318773029229478,
                -0.8506470191491824,
                -0.3374779177791526,
                -2.4583254043432863
            ]
        },
        {
            "positions": [
                -0.0017329699576705826,
                -1.0610851739328053,
                1.1807423911896744,
                -0.8456279876817221,
                -0.2641478601943733,
                -2.5677613985815437
            ]
        },
        {
            "positions": [
                0.016358574211295357,
                -1.0758926791315868,
                1.3296074794564015,
                -0.8406089562142618,
                -0.1908178026095939,
                -2.677197392819802
            ]
        },
        {
            "positions": [
                0.034450118380261296,
                -1.0907001843303685,
                1.4784725677231285,
                -0.8355899247468015,
                -0.11748774502481463,
                -2.7866333870580604
            ]
        },
        {
            "positions": [
                0.05254166254922721,
                -1.10550768952915,
                1.6273376559898551,
                -0.8305708932793411,
                -0.04415768744003534,
                -2.896069381296318
            ]
        },
        {
            "positions": [
                0.07063320671819316,
                -1.1203151947279317,
                1.7762027442565822,
                -0.8255518618118808,
                0.0291723701447441,
                -3.005505375534576
            ]
        },
        {
            "positions": [
                0.1043462754908692,
                -1.1371870323841884,
                1.9245667055177758,
                -0.8251871724505128,
                0.1015216965525694,
                -3.110472689636432
            ]
        },
        {
            "positions": [
                0.12179260801489314,
                -1.1443346467667133,
                1.9823182654828793,
                -0.8266024344544259,
                0.12927384620330934,
                -3.1498888560165668
            ]
        }
    ]
}{
    "goal": {
        "global_pose": {
            "orientation": {
                "w": 0.7047431468963623,
                "x": -0.7094548344612122,
                "y": 0.0024358443915843964,
                "z": -0.0022348060738295317
            },
            "position": {
                "x": 0.6094750761985779,
                "y": 0.3671506643295288,
                "z": 0.19426114857196808
            }
        },
        "name": "move_to_magneteinheit_A"
    },
    "id": "BKPIECE_move_to_magneteinheit_A_29",
    "joint_names": [
        "shoulder_pan_joint",
        "shoulder_lift_joint",
        "elbow_joint",
        "wrist_1_joint",
        "wrist_2_joint",
        "wrist_3_joint"
    ],
    "metrics": {
        "cart_traj_len": 1.1589700017343998,
        "distance_elbow_joint": 0.22638269231710462,
        "distance_shoulder_lift_joint": 0.7529825822271397,
        "distance_shoulder_pan_joint": 1.2428509999067958,
        "distance_wrist_1_joint": 0.9513768574468169,
        "distance_wrist_2_joint": 1.4472077770092049,
        "distance_wrist_3_joint": 4.642774335966328,
        "smoothness": 0.29543378366286893,
        "time": 0.300033353,
        "traj_len": 3.0436122034308823,
        "weighted_distance": 4.57686667396616
    },
    "planner": "BKPIECE",
    "start": {
        "state": {
            "elbow_joint": 1.919643534880228,
            "shoulder_lift_joint": -1.8972525353963687,
            "shoulder_pan_joint": -1.1188672234189438,
            "wrist_1_joint": -1.5931878212786155,
            "wrist_2_joint": 1.5706036197970081,
            "wrist_3_joint": 1.118896926603594
        }
    },
    "waypoints": [
        {
            "positions": [
                -1.1188672234189438,
                -1.8972525353963687,
                1.919643534880228,
                -1.5931878212786155,
                1.5706036197970081,
                1.118896926603594
            ]
        },
        {
            "positions": [
                -1.0753978990789457,
                -1.8734712059655403,
                1.9265183055970494,
                -1.5525711238839643,
                1.517713138894181,
                0.9071576896314983
            ]
        },
        {
            "positions": [
                -1.0319285747389475,
                -1.849689876534712,
                1.9333930763138707,
                -1.5119544264893134,
                1.4648226579913535,
                0.6954184526594027
            ]
        },
        {
            "positions": [
                -0.9884592503989492,
                -1.8259085471038836,
                1.9402678470306922,
                -1.4713377290946623,
                1.4119321770885263,
                0.4836792156873071
            ]
        },
        {
            "positions": [
                -0.944989926058951,
                -1.8021272176730554,
                1.9471426177475135,
                -1.4307210317000112,
                1.3590416961856988,
                0.27193997871521147
            ]
        },
        {
            "positions": [
                -0.9015206017189529,
                -1.778345888242227,
                1.9540173884643348,
                -1.3901043343053603,
                1.3061512152828716,
                0.06020074174311585
            ]
        },
        {
            "positions": [
                -0.8580512773789546,
                -1.7545645588113987,
                1.9608921591811561,
                -1.3494876369107092,
                1.2532607343800444,
                -0.15153849522897977
            ]
        },
        {
            "positions": [
                -0.8145819530389564,
                -1.7307832293805703,
                1.9677669298979776,
                -1.308870939516058,
                1.200370253477217,
                -0.3632777322010754
            ]
        },
        {
            "positions": [
                -0.7711126286989582,
                -1.7070018999497418,
                1.974641700614799,
                -1.268254242121407,
                1.1474797725743897,
                -0.575016969173171
            ]
        },
        {
            "positions": [
                -0.7276433043589601,
                -1.6832205705189136,
                1.9815164713316202,
                -1.227637544726756,
                1.0945892916715625,
                -0.7867562061452666
            ]
        },
        {
            "positions": [
                -0.6841739800189619,
                -1.6594392410880852,
                1.9883912420484415,
                -1.187020847332105,
                1.041698810768735,
                -0.9984954431173623
            ]
        },
        {
            "positions": [
                -0.6407046556789635,
                -1.635657911657257,
                1.995266012765263,
                -1.1464041499374538,
                0.9888083298659077,
                -1.2102346800894581
            ]
        },
        {
            "positions": [
                -0.5972353313389654,
                -1.6118765822264285,
                2.0021407834820844,
                -1.1057874525428026,
                0.9359178489630805,
                -1.4219739170615535
            ]
        },
        {
            "positions": [
                -0.5537660069989672,
                -1.5880952527956,
                2.0090155541989057,
                -1.0651707551481517,
                0.8830273680602532,
                -1.6337131540336494
            ]
        },
        {
            "positions": [
                -0.510296682658969,
                -1.5643139233647718,
                2.015890324915727,
                -1.0245540577535006,
                0.830136887157426,
                -1.8454523910057448
            ]
        },
        {
            "positions": [
                -0.4668273583189708,
                -1.5405325939339436,
                2.0227650956325482,
                -0.9839373603588495,
                0.7772464062545985,
                -2.057191627977841
            ]
        },
        {
            "positions": [
                -0.42335803397897265,
                -1.5167512645031151,
                2.0296398663493695,
                -0.9433206629641985,
                0.7243559253517713,
                -2.268930864949936
            ]
        },
        {
            "positions": [
                -0.37988870963897436,
                -1.4929699350722867,
                2.0365146370661913,
                -0.9027039655695475,
                0.671465444448944,
                -2.4806701019220316
            ]
        },
        {
            "positions": [
                -0.3364193852989762,
                -1.4691886056414585,
                2.0433894077830126,
                -0.8620872681748964,
                0.6185749635461167,
                -2.6924093388941275
            ]
        },
        {
            "positions": [
                -0.292950060958978,
                -1.44540727621063,
                2.050264178499834,
                -0.8214705707802453,
                0.5656844826432894,
                -2.9041485758662233
            ]
        },
        {
            "positions": [
                -0.24948073661897985,
                -1.4216259467798018,
                2.057138949216655,
                -0.7808538733855943,
                0.5127940017404622,
                -3.1158878128383183
            ]
        },
        {
            "positions": [
                -0.2060114122789815,
                -1.3978446173489734,
                2.0640137199334765,
                -0.7402371759909432,
                0.45990352083763475,
                -3.327627049810414
            ]
        },
        {
            "positions": [
                -0.12351261508727314,
                -1.3344509513040372,
                2.0435105931175124,
                -0.7648437290307293,
                0.3757766013251768,
                -3.2785644599223343
            ]
        },
        {
            "positions": [
                -0.04101381789556477,
                -1.271057285259101,
                2.0230074663015483,
                -0.7894502820705155,
                0.2916496818127189,
                -3.2295018700342544
            ]
        },
        {
            "positions": [
                0.04148497929614359,
                -1.2076636192141652,
                2.002504339485584,
                -0.8140568351103017,
                0.20752276230026095,
                -3.1804392801461745
            ]
        },
        {
            "positions": [
                0.12398377648785196,
                -1.144269953169229,
                1.9820012126696203,
                -0.8386633881500878,
                0.12339584278780301,
                -3.1313766902580946
            ]
        }
    ]
}