{
    "goal": {
        "global_pose": {
            "orientation": {
                "w": 0.5084816217422485,
                "x": -0.49083608388900757,
                "y": 0.5182115435600281,
                "z": -0.4816462993621826
            },
            "position": {
                "x": 0.5540239810943604,
                "y": 0.030875300988554955,
                "z": 0.16403168439865112
            }
        },
        "name": "move_to_storage_A"
    },
    "id": "BKPIECE_move_to_storage_A_71",
    "joint_names": [
        "shoulder_pan_joint",
        "shoulder_lift_joint",
        "elbow_joint",
        "wrist_1_joint",
        "wrist_2_joint",
        "wrist_3_joint"
    ],
    "metrics": {
        "cart_traj_len": 0.35266982183242895,
        "distance_elbow_joint": 0.44823723471998056,
        "distance_shoulder_lift_joint": 0.23597882873814635,
        "distance_shoulder_pan_joint": 0.4609320691824719,
        "distance_wrist_1_joint": 0.233616509340148,
        "distance_wrist_2_joint": 1.099617857173428,
        "distance_wrist_3_joint": 0.09604333785652308,
        "smoothness": 1.5543122397498705e-15,
        "time": 0.146058854,
        "traj_len": 1.6045017410432119,
        "weighted_distance": 2.0247831684497277
    },
    "planner": "BKPIECE",
    "start": {
        "state": {
            "elbow_joint": 1.9715477243005601,
            "shoulder_lift_joint": -1.1394853015351272,
            "shoulder_pan_joint": 0.12281154014795169,
            "wrist_1_joint": -0.7804696478968182,
            "wrist_2_joint": 0.12958648046900423,
            "wrist_3_joint": -3.192491284697111
        }
    },
    "waypoints": [
        {
            "positions": [
                0.12281154014795169,
                -1.1394853015351272,
                1.9715477243005601,
                -0.7804696478968182,
                0.12958648046900423,
                -3.192491284697111
            ]
        },
        {
            "positions": [
                0.05696410169331284,
                -1.1731965627834338,
                2.035581614974843,
                -0.8138434349454108,
                0.2866747457794939,
                -3.178770807860465
            ]
        },
        {
            "positions": [
                -0.008883336761326008,
                -1.2069078240317404,
                2.099615505649126,
                -0.8472172219940033,
                0.44376301108998367,
                -3.165050331023819
            ]
        },
        {
            "positions": [
                -0.07473077521596484,
                -1.240619085280047,
                2.163649396323409,
                -0.8805910090425959,
                0.6008512764004734,
                -3.1513298541871726
            ]
        },
        {
            "positions": [
                -0.1405782136706037,
                -1.2743303465283535,
                2.2276832869976917,
                -0.9139647960911884,
                0.7579395417109631,
                -3.1376093773505267
            ]
        },
        {
            "positions": [
                -0.20642565212524255,
                -1.3080416077766603,
                2.2917171776719747,
                -0.947338583139781,
                0.9150278070214529,
                -3.1238889005138804
            ]
        },
        {
            "positions": [
                -0.27227309057988136,
                -1.341752869024967,
                2.3557510683462577,
                -0.9807123701883735,
                1.0721160723319425,
                -3.1101684236772345
            ]
        },
        {
            "positions": [
                -0.3381205290345202,
                -1.3754641302732735,
                2.4197849590205407,
                -1.0140861572369662,
                1.2292043376424322,
                -3.096447946840588
            ]
        }
    ]
}