{
    "goal": {
        "global_pose": {
            "orientation": {
                "w": 0.5084816217422485,
                "x": -0.49083608388900757,
                "y": 0.5182115435600281,
                "z": -0.4816462993621826
            },
            "position": {
                "x": 0.5540239810943604,
                "y": 0.030875300988554955,
                "z": 0.16403168439865112
            }
        },
        "name": "move_to_storage_A"
    },
    "id": "BKPIECE_move_to_storage_A_145",
    "joint_names": [
        "shoulder_pan_joint",
        "shoulder_lift_joint",
        "elbow_joint",
        "wrist_1_joint",
        "wrist_2_joint",
        "wrist_3_joint"
    ],
    "metrics": {
        "cart_traj_len": 0.3523183024749046,
        "distance_elbow_joint": 0.44805215469593485,
        "distance_shoulder_lift_joint": 0.23548599872124987,
        "distance_shoulder_pan_joint": 0.4593279061728446,
        "distance_wrist_1_joint": 0.23503753078718959,
        "distance_wrist_2_joint": 1.1034991137870844,
        "distance_wrist_3_joint": 0.10082977076495547,
        "smoothness": 8.881784197001252e-16,
        "time": 0.311852992,
        "traj_len": 1.6069326292440698,
        "weighted_distance": 2.030376482584805
    },
    "planner": "BKPIECE",
    "start": {
        "state": {
            "elbow_joint": 1.9715477243005601,
            "shoulder_lift_joint": -1.1394853015351272,
            "shoulder_pan_joint": 0.12281154014795169,
            "wrist_1_joint": -0.7804696478968182,
            "wrist_2_joint": 0.12958648046900423,
            "wrist_3_joint": -3.192491284697111
        }
    },
    "waypoints": [
        {
            "positions": [
                0.12281154014795169,
                -1.1394853015351272,
                1.9715477243005601,
                -0.7804696478968182,
                0.12958648046900423,
                -3.192491284697111
            ]
        },
        {
            "positions": [
                0.05719326783754533,
                -1.1731261584953057,
                2.035555174971408,
                -0.8140464380092738,
                0.2872292110100163,
                -3.178087031730689
            ]
        },
        {
            "positions": [
                -0.008425004472861028,
                -1.2067670154554844,
                2.099562625642256,
                -0.8476232281217295,
                0.4448719415510283,
                -3.163682778764267
            ]
        },
        {
            "positions": [
                -0.0740432767832674,
                -1.2404078724156629,
                2.163570076313104,
                -0.8812000182341851,
                0.6025146720920405,
                -3.1492785257978446
            ]
        },
        {
            "positions": [
                -0.13966154909367373,
                -1.2740487293758413,
                2.2275775269839513,
                -0.9147768083466408,
                0.7601574026330524,
                -3.1348742728314223
            ]
        },
        {
            "positions": [
                -0.20527982140408013,
                -1.30768958633602,
                2.291584977654799,
                -0.9483535984590965,
                0.9178001331740645,
                -3.120470019865
            ]
        },
        {
            "positions": [
                -0.2708980937144865,
                -1.3413304432961985,
                2.355592428325647,
                -0.981930388571552,
                1.0754428637150766,
                -3.106065766898578
            ]
        },
        {
            "positions": [
                -0.3365163660248929,
                -1.374971300256377,
                2.419599878996495,
                -1.0155071786840077,
                1.2330855942560885,
                -3.0916615139321557
            ]
        }
    ]
}