{
    "goal": {
        "global_pose": {
            "orientation": {
                "w": 0.5084816217422485,
                "x": -0.49083608388900757,
                "y": 0.5182115435600281,
                "z": -0.4816462993621826
            },
            "position": {
                "x": 0.5540239810943604,
                "y": 0.030875300988554955,
                "z": 0.16403168439865112
            }
        },
        "name": "move_to_storage_A"
    },
    "id": "BKPIECE_move_to_storage_A_1",
    "joint_names": [
        "shoulder_pan_joint",
        "shoulder_lift_joint",
        "elbow_joint",
        "wrist_1_joint",
        "wrist_2_joint",
        "wrist_3_joint"
    ],
    "metrics": {
        "cart_traj_len": 0.3528426284513897,
        "distance_elbow_joint": 0.44997173135615887,
        "distance_shoulder_lift_joint": 0.23288505630415468,
        "distance_shoulder_pan_joint": 0.4597466974801979,
        "distance_wrist_1_joint": 0.24552553660057364,
        "distance_wrist_2_joint": 1.104696793682844,
        "distance_wrist_3_joint": 0.10548270763873324,
        "smoothness": 4.440892098500626e-16,
        "time": 0.304404503,
        "traj_len": 1.6119269595929782,
        "weighted_distance": 2.039484314385268
    },
    "planner": "BKPIECE",
    "start": {
        "state": {
            "elbow_joint": 1.9715477243005601,
            "shoulder_lift_joint": -1.1394853015351272,
            "shoulder_pan_joint": 0.12281154014795169,
            "wrist_1_joint": -0.7804696478968182,
            "wrist_2_joint": 0.12958648046900423,
            "wrist_3_joint": -3.192491284697111
        }
    },
    "waypoints": [
        {
            "positions": [
                0.12281154014795169,
                -1.1394853015351272,
                1.9715477243005601,
                -0.7804696478968182,
                0.12958648046900423,
                -3.192491284697111
            ]
        },
        {
            "positions": [
                0.05713344050792342,
                -1.1727545952928635,
                2.035829400208583,
                -0.8155447245540429,
                0.2874003081379819,
                -3.1774223264630064
            ]
        },
        {
            "positions": [
                -0.008544659132104851,
                -1.2060238890505999,
                2.1001110761166055,
                -0.8506198012112678,
                0.4452141358069596,
                -3.1623533682289016
            ]
        },
        {
            "positions": [
                -0.07422275877213312,
                -1.2392931828083362,
                2.164392752024628,
                -0.8856948778684925,
                0.6030279634759373,
                -3.1472844099947967
            ]
        },
        {
            "positions": [
                -0.13990085841216138,
                -1.2725624765660726,
                2.228674427932651,
                -0.9207699545257174,
                0.760841791144915,
                -3.1322154517606924
            ]
        },
        {
            "positions": [
                -0.20557895805218968,
                -1.3058317703238091,
                2.2929561038406736,
                -0.9558450311829422,
                0.9186556188138928,
                -3.1171464935265876
            ]
        },
        {
            "positions": [
                -0.2712570576922179,
                -1.3391010640815455,
                2.3572377797486963,
                -0.990920107840167,
                1.0764694464828706,
                -3.1020775352924828
            ]
        },
        {
            "positions": [
                -0.3369351573322462,
                -1.3723703578392819,
                2.421519455656719,
                -1.0259951844973918,
                1.2342832741518484,
                -3.087008577058378
            ]
        }
    ]
}