{
    "goal": {
        "global_pose": {
            "orientation": {
                "w": 0.7047431468963623,
                "x": -0.7094548344612122,
                "y": 0.0024358443915843964,
                "z": -0.0022348060738295317
            },
            "position": {
                "x": 0.6094750761985779,
                "y": 0.3671506643295288,
                "z": 0.19426114857196808
            }
        },
        "name": "move_to_magneteinheit_A"
    },
    "id": "BKPIECE_move_to_magneteinheit_A_109",
    "joint_names": [
        "shoulder_pan_joint",
        "shoulder_lift_joint",
        "elbow_joint",
        "wrist_1_joint",
        "wrist_2_joint",
        "wrist_3_joint"
    ],
    "metrics": {
        "cart_traj_len": 3.055820016938372,
        "distance_elbow_joint": 3.912455961773495,
        "distance_shoulder_lift_joint": 0.7048488180708511,
        "distance_shoulder_pan_joint": 2.7113670241125556,
        "distance_wrist_1_joint": 3.479812530974354,
        "distance_wrist_2_joint": 1.9200051143649348,
        "distance_wrist_3_joint": 2.3290122789224457,
        "smoothness": 0.10394092362552425,
        "time": 0.293704622,
        "traj_len": 3.880399686658404,
        "weighted_distance": 5.01152111952078
    },
    "planner": "BKPIECE",
    "start": {
        "state": {
            "elbow_joint": -1.919618573717145,
            "shoulder_lift_joint": -1.2443395971678275,
            "shoulder_pan_joint": 2.6996025300909787,
            "wrist_1_joint": -1.548550951253194,
            "wrist_2_joint": -1.5709469090946802,
            "wrist_3_joint": 0.4420197732051276
        }
    },
    "waypoints": [
        {
            "positions": [
                2.6996025300909787,
                -1.2443395971678275,
                -1.919618573717145,
                -1.548550951253194,
                -1.5709469090946802,
                0.4420197732051276
            ]
        },
        {
            "positions": [
                2.6253025862117574,
                -1.2497300050414357,
                -1.8328636602477604,
                -1.448897609535579,
                -1.5206307433564386,
                0.37870269771296994
            ]
        },
        {
            "positions": [
                2.551002642332536,
                -1.255120412915044,
                -1.7461087467783758,
                -1.349244267817964,
                -1.4703145776181972,
                0.3153856222208123
            ]
        },
        {
            "positions": [
                2.476702698453315,
                -1.2605108207886524,
                -1.6593538333089914,
                -1.249590926100349,
                -1.4199984118799556,
                0.25206854672865464
            ]
        },
        {
            "positions": [
                2.402402754574094,
                -1.2659012286622606,
                -1.5725989198396069,
                -1.149937584382734,
                -1.369682246141714,
                0.188751471236497
            ]
        },
        {
            "positions": [
                2.3281028106948725,
                -1.2712916365358689,
                -1.4858440063702223,
                -1.0502842426651189,
                -1.3193660804034726,
                0.1254343957443394
            ]
        },
        {
            "positions": [
                2.253802866815651,
                -1.276682044409477,
                -1.3990890929008377,
                -0.9506309009475039,
                -1.269049914665231,
                0.06211732025218175
            ]
        },
        {
            "positions": [
                2.1795029229364298,
                -1.2820724522830855,
                -1.3123341794314531,
                -0.8509775592298888,
                -1.2187337489269896,
                -0.001199755239975897
            ]
        },
        {
            "positions": [
                2.1052029790572084,
                -1.2874628601566938,
                -1.2255792659620686,
                -0.7513242175122737,
                -1.168417583188748,
                -0.0645168307321336
            ]
        },
        {
            "positions": [
                2.030903035177987,
                -1.292853268030302,
                -1.138824352492684,
                -0.6516708757946587,
                -1.1181014174505064,
                -0.1278339062242912
            ]
        },
        {
            "positions": [
                1.9566030912987662,
                -1.2982436759039102,
                -1.0520694390232994,
                -0.5520175340770437,
                -1.067785251712265,
                -0.1911509817164488
            ]
        },
        {
            "positions": [
                1.8823031474195449,
                -1.3036340837775184,
                -0.965314525553915,
                -0.4523641923594286,
                -1.0174690859740234,
                -0.2544680572086065
            ]
        },
        {
            "positions": [
                1.8080032035403235,
                -1.3090244916511269,
                -0.8785596120845305,
                -0.35271085064181373,
                -0.9671529202357819,
                -0.3177851327007641
            ]
        },
        {
            "positions": [
                1.7337032596611022,
                -1.3144148995247351,
                -0.7918046986151459,
                -0.2530575089241984,
                -0.9168367544975403,
                -0.3811022081929218
            ]
        },
        {
            "positions": [
                1.659403315781881,
                -1.3198053073983433,
                -0.7050497851457613,
                -0.15340416720658356,
                -0.8665205887592988,
                -0.4444192836850794
            ]
        },
        {
            "positions": [
                1.5851033719026597,
                -1.3251957152719516,
                -0.6182948716763768,
                -0.05375082548896848,
                -0.8162044230210573,
                -0.507736359177237
            ]
        },
        {
            "positions": [
                1.5108034280234384,
                -1.33058612314556,
                -0.5315399582069922,
                0.045902516228646606,
                -0.7658882572828157,
                -0.5710534346693947
            ]
        },
        {
            "positions": [
                1.4365034841442172,
                -1.3359765310191682,
                -0.4447850447376076,
                0.1455558579462617,
                -0.7155720915445744,
                -0.6343705101615522
            ]
        },
        {
            "positions": [
                1.3622035402649957,
                -1.3413669388927765,
                -0.35803013126822303,
                0.24520919966387678,
                -0.6652559258063327,
                -0.6976875856537099
            ]
        },
        {
            "positions": [
                1.2879035963857746,
                -1.3467573467663847,
                -0.2712752177988387,
                0.34486254138149186,
                -0.6149397600680913,
                -0.7610046611458676
            ]
        },
        {
            "positions": [
                1.2136036525065534,
                -1.3521477546399931,
                -0.1845203043294541,
                0.4445158830991067,
                -0.5646235943298497,
                -0.8243217366380251
            ]
        },
        {
            "positions": [
                1.1393037086273319,
                -1.3575381625136014,
                -0.09776539086006952,
                0.5441692248167218,
                -0.514307428591608,
                -0.887638812130183
            ]
        },
        {
            "positions": [
                1.0650037647481108,
                -1.3629285703872096,
                -0.011010477390684906,
                0.6438225665343369,
                -0.46399126285336656,
                -0.9509558876223405
            ]
        },
        {
            "positions": [
                0.9765996050493517,
                -1.3320367154058679,
                0.08391705106998043,
                0.7286269644549097,
                -0.4115259961338944,
                -0.9310651203049761
            ]
        },
        {
            "positions": [
                0.8881954453505928,
                -1.3011448604245262,
                0.17884457953064575,
                0.8134313623754825,
                -0.3590607294144223,
                -0.9111743529876117
            ]
        },
        {
            "positions": [
                0.7997912856518339,
                -1.2702530054431844,
                0.2737721079913111,
                0.8982357602960553,
                -0.3065954626949502,
                -0.8912835856702475
            ]
        },
        {
            "positions": [
                0.7113871259530749,
                -1.2393611504618425,
                0.36869963645197645,
                0.9830401582166282,
                -0.25413019597547803,
                -0.8713928183528831
            ]
        },
        {
            "positions": [
                0.6229829662543159,
                -1.2084692954805007,
                0.4636271649126418,
                1.067844556137201,
                -0.20166492925600588,
                -0.8515020510355187
            ]
        },
        {
            "positions": [
                0.534578806555557,
                -1.177577440499159,
                0.558554693373307,
                1.1526489540577738,
                -0.14919966253653377,
                -0.8316112837181543
            ]
        },
        {
            "positions": [
                0.446174646856798,
                -1.1466855855178173,
                0.6534822218339724,
                1.2374533519783466,
                -0.09673439581706161,
                -0.8117205164007899
            ]
        },
        {
            "positions": [
                0.35777048715803894,
                -1.1157937305364753,
                0.7484097502946377,
                1.3222577498989194,
                -0.044269129097589455,
                -0.7918297490834256
            ]
        },
        {
            "positions": [
                0.2693663274592799,
                -1.0849018755551336,
                0.8433372787553031,
                1.4070621478194922,
                0.008196137621882704,
                -0.7719389817660611
            ]
        },
        {
            "positions": [
                0.1809621677605211,
                -1.054010020573792,
                0.9382648072159684,
                1.491866545740065,
                0.06066140434135481,
                -0.7520482144486969
            ]
        },
        {
            "positions": [
                0.09255800806176209,
                -1.0231181655924502,
                1.0331923356766337,
                1.5766709436606379,
                0.113126671060827,
                -0.7321574471313325
            ]
        },
        {
            "positions": [
                0.08515090896314217,
                -1.0025577607163147,
                1.116429655929978,
                1.6039634402091072,
                0.09871636915249689,
                -0.6669548575455996
            ]
        },
        {
            "positions": [
                0.07774380986452226,
                -0.9819973558401796,
                1.1996669761833223,
                1.6312559367575767,
                0.08430606724416678,
                -0.6017522679598667
            ]
        },
        {
            "positions": [
                0.07226637487838995,
                -0.9460338609604999,
                1.342882112210399,
                1.6807103480598287,
                0.0551500444477474,
                -0.49172229227388575
            ]
        },
        {
            "positions": [
                0.06678893989225765,
                -0.9100703660808203,
                1.4860972482374757,
                1.7301647593620806,
                0.02599402165132801,
                -0.3816923165879048
            ]
        },
        {
            "positions": [
                0.06131150490612535,
                -0.8741068712011406,
                1.6293123842645523,
                1.7796191706643325,
                -0.003162001145091381,
                -0.2716623409019239
            ]
        },
        {
            "positions": [
                0.05583406991999305,
                -0.838143376321461,
                1.772527520291629,
                1.8290735819665844,
                -0.03231802394151076,
                -0.16163236521594299
            ]
        },
        {
            "positions": [
                0.08963335189077848,
                -0.8074060509286007,
                1.88268245417399,
                1.8801675808438714,
                -0.07756144354505608,
                -0.0882758173716532
            ]
        },
        {
            "positions": [
                0.12343263386156389,
                -0.7766687255357406,
                1.992837388056351,
                1.9312615797211583,
                -0.1228048631486014,
                -0.01491926952736342
            ]
        }
    ]
}{
    "goal": {
        "global_pose": {
            "orientation": {
                "w": 0.7047431468963623,
                "x": -0.7094548344612122,
                "y": 0.0024358443915843964,
                "z": -0.0022348060738295317
            },
            "position": {
                "x": 0.6094750761985779,
                "y": 0.3671506643295288,
                "z": 0.19426114857196808
            }
        },
        "name": "move_to_magneteinheit_A"
    },
    "id": "BKPIECE_move_to_magneteinheit_A_109",
    "joint_names": [
        "shoulder_pan_joint",
        "shoulder_lift_joint",
        "elbow_joint",
        "wrist_1_joint",
        "wrist_2_joint",
        "wrist_3_joint"
    ],
    "metrics": {
        "cart_traj_len": 1.344581647676299,
        "distance_elbow_joint": 0.9307954957834566,
        "distance_shoulder_lift_joint": 0.766566532207549,
        "distance_shoulder_pan_joint": 1.241886740712916,
        "distance_wrist_1_joint": 0.8835226224251657,
        "distance_wrist_2_joint": 1.437542662692468,
        "distance_wrist_3_joint": 4.608018655939404,
        "smoothness": 0.14862517128765804,
        "time": 0.20891195,
        "traj_len": 3.141390251108728,
        "weighted_distance": 4.626600837197586
    },
    "planner": "BKPIECE",
    "start": {
        "state": {
            "elbow_joint": 1.919643534880228,
            "shoulder_lift_joint": -1.8972525353963687,
            "shoulder_pan_joint": -1.1188672234189438,
            "wrist_1_joint": -1.5931878212786155,
            "wrist_2_joint": 1.5706036197970081,
            "wrist_3_joint": 1.118896926603594
        }
    },
    "waypoints": [
        {
            "positions": [
                -1.1188672234189438,
                -1.8972525353963687,
                1.919643534880228,
                -1.5931878212786155,
                1.5706036197970081,
                1.118896926603594
            ]
        },
        {
            "positions": [
                -1.0796069973312292,
                -1.8754006487517274,
                1.8983584823193513,
                -1.5541352677084206,
                1.5179400778303234,
                0.9050638112403921
            ]
        },
        {
            "positions": [
                -1.0403467712435144,
                -1.8535487621070859,
                1.8770734297584746,
                -1.5150827141382257,
                1.4652765358636384,
                0.6912306958771903
            ]
        },
        {
            "positions": [
                -1.0010865451557998,
                -1.8316968754624445,
                1.8557883771975978,
                -1.4760301605680308,
                1.4126129938969536,
                0.4773975805139884
            ]
        },
        {
            "positions": [
                -0.961826319068085,
                -1.809844988817803,
                1.8345033246367208,
                -1.436977606997836,
                1.3599494519302688,
                0.2635644651507866
            ]
        },
        {
            "positions": [
                -0.9225660929803703,
                -1.7879931021731617,
                1.813218272075844,
                -1.397925053427641,
                1.3072859099635838,
                0.049731349787584644
            ]
        },
        {
            "positions": [
                -0.8833058668926557,
                -1.76614121552852,
                1.7919332195149673,
                -1.3588724998574462,
                1.254622367996899,
                -0.16410176557561718
            ]
        },
        {
            "positions": [
                -0.8440456408049409,
                -1.7442893288838788,
                1.7706481669540906,
                -1.3198199462872513,
                1.2019588260302143,
                -0.377934880938819
            ]
        },
        {
            "positions": [
                -0.8047854147172262,
                -1.7224374422392374,
                1.7493631143932138,
                -1.2807673927170564,
                1.1492952840635295,
                -0.5917679963020208
            ]
        },
        {
            "positions": [
                -0.7655251886295116,
                -1.700585555594596,
                1.728078061832337,
                -1.2417148391468615,
                1.0966317420968446,
                -0.8056011116652226
            ]
        },
        {
            "positions": [
                -0.7262649625417968,
                -1.6787336689499546,
                1.7067930092714603,
                -1.2026622855766664,
                1.0439682001301598,
                -1.0194342270284247
            ]
        },
        {
            "positions": [
                -0.6870047364540821,
                -1.656881782305313,
                1.6855079567105833,
                -1.1636097320064716,
                0.9913046581634748,
                -1.2332673423916265
            ]
        },
        {
            "positions": [
                -0.6477445103663675,
                -1.6350298956606717,
                1.6642229041497065,
                -1.1245571784362767,
                0.93864111619679,
                -1.4471004577548283
            ]
        },
        {
            "positions": [
                -0.6084842842786528,
                -1.6131780090160301,
                1.6429378515888298,
                -1.0855046248660818,
                0.8859775742301051,
                -1.6609335731180301
            ]
        },
        {
            "positions": [
                -0.569224058190938,
                -1.5913261223713888,
                1.621652799027953,
                -1.046452071295887,
                0.8333140322634204,
                -1.874766688481232
            ]
        },
        {
            "positions": [
                -0.5299638321032233,
                -1.5694742357267475,
                1.6003677464670762,
                -1.007399517725692,
                0.7806504902967355,
                -2.088599803844434
            ]
        },
        {
            "positions": [
                -0.49070360601550866,
                -1.547622349082106,
                1.5790826939061995,
                -0.9683469641554973,
                0.7279869483300507,
                -2.302432919207636
            ]
        },
        {
            "positions": [
                -0.45144337992779393,
                -1.5257704624374646,
                1.5577976413453225,
                -0.9292944105853023,
                0.6753234063633659,
                -2.5162660345708376
            ]
        },
        {
            "positions": [
                -0.4121831538400792,
                -1.5039185757928233,
                1.5365125887844457,
                -0.8902418570151075,
                0.622659864396681,
                -2.7300991499340395
            ]
        },
        {
            "positions": [
                -0.37292292775236446,
                -1.4820666891481817,
                1.515227536223569,
                -0.8511893034449125,
                0.5699963224299962,
                -2.9439322652972413
            ]
        },
        {
            "positions": [
                -0.33366270166464984,
                -1.4602148025035402,
                1.4939424836626922,
                -0.8121367498747176,
                0.5173327804633114,
                -3.157765380660443
            ]
        },
        {
            "positions": [
                -0.2944024755769351,
                -1.4383629158588989,
                1.4726574311018155,
                -0.7730841963045227,
                0.4646692384966264,
                -3.371598496023645
            ]
        },
        {
            "positions": [
                -0.21091807700275367,
                -1.376827533324883,
                1.5694193095028242,
                -0.7604003968143082,
                0.39834758221820904,
                -3.3480938493612125
            ]
        },
        {
            "positions": [
                -0.12743367842857223,
                -1.3152921507908673,
                1.666181187903833,
                -0.7477165973240936,
                0.3320259259397917,
                -3.32458920269878
            ]
        },
        {
            "positions": [
                -0.043949279854390844,
                -1.2537567682568513,
                1.7629430663048418,
                -0.735032797833879,
                0.26570426966137434,
                -3.301084556036347
            ]
        },
        {
            "positions": [
                0.03953511871979065,
                -1.1922213857228354,
                1.8597049447058507,
                -0.7223489983436644,
                0.19938261338295699,
                -3.2775799093739146
            ]
        },
        {
            "positions": [
                0.12301951729397205,
                -1.1306860031888197,
                1.9564668231068594,
                -0.7096651988534498,
                0.13306095710453966,
                -3.254075262711482
            ]
        }
    ]
}