{
    "goal": {
        "global_pose": {
            "orientation": {
                "w": 0.7047431468963623,
                "x": -0.7094548344612122,
                "y": 0.0024358443915843964,
                "z": -0.0022348060738295317
            },
            "position": {
                "x": 0.6094750761985779,
                "y": 0.3671506643295288,
                "z": 0.19426114857196808
            }
        },
        "name": "move_to_magneteinheit_A"
    },
    "id": "BKPIECE_move_to_magneteinheit_A_74",
    "joint_names": [
        "shoulder_pan_joint",
        "shoulder_lift_joint",
        "elbow_joint",
        "wrist_1_joint",
        "wrist_2_joint",
        "wrist_3_joint"
    ],
    "metrics": {
        "cart_traj_len": 3.901904332321741,
        "distance_elbow_joint": 3.9094296801982233,
        "distance_shoulder_lift_joint": 0.5029065565698709,
        "distance_shoulder_pan_joint": 3.4264254766771955,
        "distance_wrist_1_joint": 0.6861833713721636,
        "distance_wrist_2_joint": 1.6924594492754483,
        "distance_wrist_3_joint": 3.5479550636924744,
        "smoothness": 0.1228521561971865,
        "time": 0.226140102,
        "traj_len": 3.710169753230353,
        "weighted_distance": 4.820779246741956
    },
    "planner": "BKPIECE",
    "start": {
        "state": {
            "elbow_joint": -1.919618573717145,
            "shoulder_lift_joint": -1.2443395971678275,
            "shoulder_pan_joint": 2.6996025300909787,
            "wrist_1_joint": -1.548550951253194,
            "wrist_2_joint": -1.5709469090946802,
            "wrist_3_joint": 0.4420197732051276
        }
    },
    "waypoints": [
        {
            "positions": [
                2.6996025300909787,
                -1.2443395971678275,
                -1.919618573717145,
                -1.548550951253194,
                -1.5709469090946802,
                0.4420197732051276
            ]
        },
        {
            "positions": [
                2.5841625918321474,
                -1.232827636455463,
                -1.8286159060653122,
                -1.5222616339197241,
                -1.5190587875102108,
                0.35241542994220143
            ]
        },
        {
            "positions": [
                2.468722653573316,
                -1.2213156757430983,
                -1.7376132384134795,
                -1.4959723165862542,
                -1.4671706659257415,
                0.2628110866792753
            ]
        },
        {
            "positions": [
                2.3532827153144846,
                -1.2098037150307337,
                -1.6466105707616467,
                -1.4696829992527842,
                -1.4152825443412722,
                0.17320674341634912
            ]
        },
        {
            "positions": [
                2.2378427770556533,
                -1.198291754318369,
                -1.5556079031098142,
                -1.4433936819193143,
                -1.363394422756803,
                0.08360240015342296
            ]
        },
        {
            "positions": [
                2.122402838796822,
                -1.1867797936060045,
                -1.4646052354579815,
                -1.4171043645858443,
                -1.3115063011723334,
                -0.006001943109503194
            ]
        },
        {
            "positions": [
                2.0069629005379905,
                -1.1752678328936397,
                -1.3736025678061488,
                -1.3908150472523744,
                -1.2596181795878643,
                -0.09560628637242935
            ]
        },
        {
            "positions": [
                1.8915229622791596,
                -1.1637558721812753,
                -1.2825999001543162,
                -1.3645257299189046,
                -1.2077300580033947,
                -0.18521062963535545
            ]
        },
        {
            "positions": [
                1.776083024020328,
                -1.1522439114689105,
                -1.1915972325024833,
                -1.3382364125854347,
                -1.1558419364189254,
                -0.27481497289828166
            ]
        },
        {
            "positions": [
                1.6606430857614969,
                -1.1407319507565459,
                -1.1005945648506508,
                -1.3119470952519647,
                -1.103953814834456,
                -0.36441931616120776
            ]
        },
        {
            "positions": [
                1.5452031475026653,
                -1.1292199900441813,
                -1.009591897198818,
                -1.2856577779184948,
                -1.0520656932499868,
                -0.454023659424134
            ]
        },
        {
            "positions": [
                1.4297632092438342,
                -1.1177080293318167,
                -0.9185892295469855,
                -1.2593684605850248,
                -1.0001775716655175,
                -0.5436280026870601
            ]
        },
        {
            "positions": [
                1.3143232709850026,
                -1.106196068619452,
                -0.8275865618951526,
                -1.2330791432515549,
                -0.9482894500810481,
                -0.6332323459499862
            ]
        },
        {
            "positions": [
                1.1988833327261714,
                -1.0946841079070875,
                -0.73658389424332,
                -1.206789825918085,
                -0.8964013284965788,
                -0.7228366892129123
            ]
        },
        {
            "positions": [
                1.0834433944673403,
                -1.0831721471947229,
                -0.6455812265914875,
                -1.1805005085846152,
                -0.8445132069121095,
                -0.8124410324758384
            ]
        },
        {
            "positions": [
                0.9680034562085089,
                -1.0716601864823583,
                -0.5545785589396548,
                -1.1542111912511452,
                -0.7926250853276402,
                -0.9020453757387645
            ]
        },
        {
            "positions": [
                0.8525635179496773,
                -1.0601482257699937,
                -0.46357589128782184,
                -1.1279218739176753,
                -0.7407369637431708,
                -0.9916497190016909
            ]
        },
        {
            "positions": [
                0.737123579690846,
                -1.048636265057629,
                -0.3725732236359893,
                -1.1016325565842053,
                -0.6888488421587015,
                -1.081254062264617
            ]
        },
        {
            "positions": [
                0.621683641432015,
                -1.0371243043452645,
                -0.2815705559841566,
                -1.0753432392507354,
                -0.6369607205742321,
                -1.170858405527543
            ]
        },
        {
            "positions": [
                0.5062437031731837,
                -1.0256123436328999,
                -0.19056788833232408,
                -1.0490539219172654,
                -0.5850725989897629,
                -1.2604627487904692
            ]
        },
        {
            "positions": [
                0.39080376491435187,
                -1.014100382920535,
                -0.09956522068049112,
                -1.0227646045837955,
                -0.5331844774052934,
                -1.3500670920533955
            ]
        },
        {
            "positions": [
                0.2753638266555205,
                -1.0025884222081705,
                -0.008562553028658604,
                -0.9964752872503255,
                -0.4812963558208241,
                -1.4396714353163216
            ]
        },
        {
            "positions": [
                0.15992388839668958,
                -0.9910764614958059,
                0.08244011462317391,
                -0.9701859699168556,
                -0.42940823423635477,
                -1.5292757785792477
            ]
        },
        {
            "positions": [
                0.04448395013785822,
                -0.9795645007834413,
                0.17344278227500687,
                -0.9438966525833857,
                -0.37752011265188545,
                -1.6188801218421736
            ]
        },
        {
            "positions": [
                -0.07095598812097359,
                -0.9680525400710767,
                0.2644454499268398,
                -0.9176073352499157,
                -0.32563199106741614,
                -1.7084844651051
            ]
        },
        {
            "positions": [
                -0.1863959263798045,
                -0.9565405793587121,
                0.35544811757867234,
                -0.8913180179164458,
                -0.2737438694829468,
                -1.7980888083680262
            ]
        },
        {
            "positions": [
                -0.30183586463863576,
                -0.9450286186463475,
                0.4464507852305047,
                -0.8650287005829759,
                -0.22185574789847762,
                -1.8876931516309525
            ]
        },
        {
            "positions": [
                -0.25967667628370766,
                -0.9652172685774677,
                0.5996129823366754,
                -0.8652061960461337,
                -0.18771036300702007,
                -2.008872952345546
            ]
        },
        {
            "positions": [
                -0.21751748792877956,
                -0.9854059185085879,
                0.752775179442846,
                -0.8653836915092916,
                -0.15356497811556252,
                -2.1300527530601396
            ]
        },
        {
            "positions": [
                -0.1753582995738515,
                -1.005594568439708,
                0.9059373765490166,
                -0.8655611869724494,
                -0.11941959322410498,
                -2.251232553774733
            ]
        },
        {
            "positions": [
                -0.1331991112189234,
                -1.0257832183708284,
                1.0590995736551874,
                -0.8657386824356073,
                -0.08527420833264743,
                -2.3724123544893265
            ]
        },
        {
            "positions": [
                -0.09103992286399532,
                -1.0459718683019488,
                1.2122617707613579,
                -0.8659161778987652,
                -0.05112882344118988,
                -2.4935921552039204
            ]
        },
        {
            "positions": [
                -0.048880734509067214,
                -1.066160518233069,
                1.3654239678675286,
                -0.866093673361923,
                -0.016983438549732333,
                -2.614771955918514
            ]
        },
        {
            "positions": [
                -0.0067215461541391686,
                -1.086349168164189,
                1.5185861649736991,
                -0.8662711688250808,
                0.017161946341725187,
                -2.7359517566331073
            ]
        },
        {
            "positions": [
                0.03543764220078899,
                -1.1065378180953094,
                1.6717483620798699,
                -0.8664486642882386,
                0.05130733123318276,
                -2.857131557347701
            ]
        },
        {
            "positions": [
                0.07759683055571703,
                -1.1267264680264297,
                1.8249105591860406,
                -0.8666261597513966,
                0.08545271612464034,
                -2.9783113580622946
            ]
        },
        {
            "positions": [
                0.1197560189106451,
                -1.1469151179575499,
                1.9780727562922111,
                -0.8668036552145544,
                0.11959810101609786,
                -3.099491158776888
            ]
        },
        {
            "positions": [
                0.12315121730894656,
                -1.1486241966947384,
                1.9898111064810795,
                -0.8676898212849212,
                0.12151254018076893,
                -3.1059352904873463
            ]
        }
    ]
}{
    "goal": {
        "global_pose": {
            "orientation": {
                "w": 0.7047431468963623,
                "x": -0.7094548344612122,
                "y": 0.0024358443915843964,
                "z": -0.0022348060738295317
            },
            "position": {
                "x": 0.6094750761985779,
                "y": 0.3671506643295288,
                "z": 0.19426114857196808
            }
        },
        "name": "move_to_magneteinheit_A"
    },
    "id": "BKPIECE_move_to_magneteinheit_A_74",
    "joint_names": [
        "shoulder_pan_joint",
        "shoulder_lift_joint",
        "elbow_joint",
        "wrist_1_joint",
        "wrist_2_joint",
        "wrist_3_joint"
    ],
    "metrics": {
        "cart_traj_len": 1.2037598448329623,
        "distance_elbow_joint": 0.06872059052833279,
        "distance_shoulder_lift_joint": 0.7491939232929166,
        "distance_shoulder_pan_joint": 1.2415042661148272,
        "distance_wrist_1_joint": 0.7602649886950608,
        "distance_wrist_2_joint": 1.4373175952231225,
        "distance_wrist_3_joint": 4.241204062625916,
        "smoothness": 0.06993416898975735,
        "time": 0.274650284,
        "traj_len": 2.9151681643569343,
        "weighted_distance": 4.3792917390429915
    },
    "planner": "BKPIECE",
    "start": {
        "state": {
            "elbow_joint": 1.919643534880228,
            "shoulder_lift_joint": -1.8972525353963687,
            "shoulder_pan_joint": -1.1188672234189438,
            "wrist_1_joint": -1.5931878212786155,
            "wrist_2_joint": 1.5706036197970081,
            "wrist_3_joint": 1.118896926603594
        }
    },
    "waypoints": [
        {
            "positions": [
                -1.1188672234189438,
                -1.8972525353963687,
                1.919643534880228,
                -1.5931878212786155,
                1.5706036197970081,
                1.118896926603594
            ]
        },
        {
            "positions": [
                -1.0635134893984124,
                -1.8642436923964318,
                1.9213774190878725,
                -1.5591118910087371,
                1.5053447540592302,
                0.9284243277592383
            ]
        },
        {
            "positions": [
                -1.008159755377881,
                -1.831234849396495,
                1.923111303295517,
                -1.5250359607388586,
                1.4400858883214525,
                0.7379517289148827
            ]
        },
        {
            "positions": [
                -0.9528060213573494,
                -1.7982260063965583,
                1.9248451875031614,
                -1.4909600304689803,
                1.3748270225836747,
                0.5474791300705272
            ]
        },
        {
            "positions": [
                -0.8974522873368178,
                -1.7652171633966214,
                1.9265790717108058,
                -1.4568841001991018,
                1.3095681568458968,
                0.35700653122617154
            ]
        },
        {
            "positions": [
                -0.8420985533162864,
                -1.7322083203966845,
                1.9283129559184502,
                -1.4228081699292234,
                1.2443092911081188,
                0.16653393238181602
            ]
        },
        {
            "positions": [
                -0.7867448192957549,
                -1.6991994773967476,
                1.9300468401260946,
                -1.388732239659345,
                1.179050425370341,
                -0.023938666462539615
            ]
        },
        {
            "positions": [
                -0.7313910852752233,
                -1.6661906343968107,
                1.931780724333739,
                -1.3546563093894664,
                1.1137915596325634,
                -0.21441126530689525
            ]
        },
        {
            "positions": [
                -0.6760373512546918,
                -1.6331817913968738,
                1.9335146085413835,
                -1.320580379119588,
                1.0485326938947854,
                -0.4048838641512509
            ]
        },
        {
            "positions": [
                -0.6206836172341603,
                -1.6001729483969371,
                1.9352484927490279,
                -1.2865044488497097,
                0.9832738281570076,
                -0.5953564629956065
            ]
        },
        {
            "positions": [
                -0.5653298832136289,
                -1.5671641053970002,
                1.9369823769566723,
                -1.2524285185798312,
                0.9180149624192298,
                -0.7858290618399619
            ]
        },
        {
            "positions": [
                -0.5099761491930973,
                -1.5341552623970633,
                1.9387162611643167,
                -1.2183525883099526,
                0.8527560966814519,
                -0.9763016606843176
            ]
        },
        {
            "positions": [
                -0.45462241517256585,
                -1.5011464193971265,
                1.940450145371961,
                -1.1842766580400743,
                0.7874972309436742,
                -1.1667742595286732
            ]
        },
        {
            "positions": [
                -0.3992686811520343,
                -1.4681375763971896,
                1.9421840295796053,
                -1.150200727770196,
                0.7222383652058962,
                -1.3572468583730288
            ]
        },
        {
            "positions": [
                -0.34391494713150284,
                -1.4351287333972529,
                1.9439179137872498,
                -1.1161247975003175,
                0.6569794994681184,
                -1.5477194572173845
            ]
        },
        {
            "positions": [
                -0.2885612131109714,
                -1.402119890397316,
                1.9456517979948942,
                -1.082048867230439,
                0.5917206337303407,
                -1.7381920560617397
            ]
        },
        {
            "positions": [
                -0.23320747909043982,
                -1.369111047397379,
                1.9473856822025386,
                -1.0479729369605606,
                0.5264617679925627,
                -1.9286646549060957
            ]
        },
        {
            "positions": [
                -0.17785374506990825,
                -1.3361022043974422,
                1.949119566410183,
                -1.0138970066906823,
                0.461202902254785,
                -2.119137253750451
            ]
        },
        {
            "positions": [
                -0.12250001104937669,
                -1.3030933613975053,
                1.9508534506178274,
                -0.9798210764208037,
                0.39594403651700705,
                -2.3096098525948072
            ]
        },
        {
            "positions": [
                -0.06714627702884535,
                -1.2700845183975686,
                1.9525873348254719,
                -0.9457451461509253,
                0.3306851707792291,
                -2.5000824514391624
            ]
        },
        {
            "positions": [
                -0.011792543008313894,
                -1.2370756753976315,
                1.9543212190331163,
                -0.9116692158810469,
                0.26542630504145137,
                -2.6905550502835176
            ]
        },
        {
            "positions": [
                0.04356119101221778,
                -1.2040668323976949,
                1.9560551032407607,
                -0.8775932856111684,
                0.20016743930367342,
                -2.8810276491278737
            ]
        },
        {
            "positions": [
                0.09891492503274917,
                -1.171057989397758,
                1.9577889874484051,
                -0.84351735534129,
                0.13490857356589578,
                -3.071500247972229
            ]
        },
        {
            "positions": [
                0.12263704269588332,
                -1.1480586121034522,
                1.988364125408561,
                -0.8541118780990253,
                0.1332860245738857,
                -3.1223071360223216
            ]
        }
    ]
}