{
    "goal": {
        "global_pose": {
            "orientation": {
                "w": 0.7047431468963623,
                "x": -0.7094548344612122,
                "y": 0.0024358443915843964,
                "z": -0.0022348060738295317
            },
            "position": {
                "x": 0.6094750761985779,
                "y": 0.3671506643295288,
                "z": 0.19426114857196808
            }
        },
        "name": "move_to_magneteinheit_A"
    },
    "id": "BKPIECE_move_to_magneteinheit_A_67",
    "joint_names": [
        "shoulder_pan_joint",
        "shoulder_lift_joint",
        "elbow_joint",
        "wrist_1_joint",
        "wrist_2_joint",
        "wrist_3_joint"
    ],
    "metrics": {
        "cart_traj_len": 2.994632453036501,
        "distance_elbow_joint": 3.9133683881184087,
        "distance_shoulder_lift_joint": 0.5965162448724103,
        "distance_shoulder_pan_joint": 2.7754432637544384,
        "distance_wrist_1_joint": 3.4783368469680562,
        "distance_wrist_2_joint": 1.6304587886799544,
        "distance_wrist_3_joint": 1.6080573759145513,
        "smoothness": 0.15902641554852062,
        "time": 0.250475952,
        "traj_len": 3.741948811556328,
        "weighted_distance": 4.725155161027512
    },
    "planner": "BKPIECE",
    "start": {
        "state": {
            "elbow_joint": -1.919618573717145,
            "shoulder_lift_joint": -1.2443395971678275,
            "shoulder_pan_joint": 2.6996025300909787,
            "wrist_1_joint": -1.548550951253194,
            "wrist_2_joint": -1.5709469090946802,
            "wrist_3_joint": 0.4420197732051276
        }
    },
    "waypoints": [
        {
            "positions": [
                2.6996025300909787,
                -1.2443395971678275,
                -1.919618573717145,
                -1.548550951253194,
                -1.5709469090946802,
                0.4420197732051276
            ]
        },
        {
            "positions": [
                2.6086926795720613,
                -1.2467308260388446,
                -1.8291799268556868,
                -1.4422623313603102,
                -1.5140224022130422,
                0.40394643636123395
            ]
        },
        {
            "positions": [
                2.517782829053144,
                -1.2491220549098616,
                -1.7387412799942286,
                -1.3359737114674264,
                -1.4570978953314042,
                0.36587309951734026
            ]
        },
        {
            "positions": [
                2.4268729785342265,
                -1.2515132837808787,
                -1.6483026331327704,
                -1.2296850915745425,
                -1.4001733884497662,
                0.32779976267344657
            ]
        },
        {
            "positions": [
                2.335963128015309,
                -1.2539045126518957,
                -1.5578639862713122,
                -1.1233964716816587,
                -1.3432488815681283,
                0.28972642582955294
            ]
        },
        {
            "positions": [
                2.245053277496392,
                -1.2562957415229128,
                -1.467425339409854,
                -1.0171078517887748,
                -1.2863243746864903,
                0.2516530889856593
            ]
        },
        {
            "positions": [
                2.1541434269774746,
                -1.2586869703939298,
                -1.376986692548396,
                -0.9108192318958909,
                -1.2293998678048523,
                0.2135797521417656
            ]
        },
        {
            "positions": [
                2.063233576458557,
                -1.2610781992649467,
                -1.2865480456869376,
                -0.8045306120030069,
                -1.1724753609232144,
                0.17550641529787192
            ]
        },
        {
            "positions": [
                1.9723237259396398,
                -1.2634694281359637,
                -1.1961093988254796,
                -0.698241992110123,
                -1.1155508540415764,
                0.13743307845397829
            ]
        },
        {
            "positions": [
                1.8814138754207224,
                -1.2658606570069808,
                -1.1056707519640212,
                -0.5919533722172392,
                -1.0586263471599384,
                0.0993597416100846
            ]
        },
        {
            "positions": [
                1.790504024901805,
                -1.2682518858779979,
                -1.0152321051025632,
                -0.48566475232435535,
                -1.0017018402783004,
                0.06128640476619096
            ]
        },
        {
            "positions": [
                1.6995941743828877,
                -1.270643114749015,
                -0.9247934582411049,
                -0.3793761324314715,
                -0.9447773333966626,
                0.02321306792229727
            ]
        },
        {
            "positions": [
                1.6086843238639703,
                -1.273034343620032,
                -0.8343548113796468,
                -0.27308751253858765,
                -0.8878528265150246,
                -0.014860268921596365
            ]
        },
        {
            "positions": [
                1.5177744733450529,
                -1.275425572491049,
                -0.7439161645181886,
                -0.16679889264570358,
                -0.8309283196333866,
                -0.052933605765490055
            ]
        },
        {
            "positions": [
                1.4268646228261355,
                -1.277816801362066,
                -0.6534775176567305,
                -0.06051027275281973,
                -0.7740038127517487,
                -0.09100694260938375
            ]
        },
        {
            "positions": [
                1.335954772307218,
                -1.2802080302330832,
                -0.563038870795272,
                0.045778347140064346,
                -0.7170793058701107,
                -0.12908027945327744
            ]
        },
        {
            "positions": [
                1.2450449217883008,
                -1.2825992591041002,
                -0.47260022393381407,
                0.15206696703294798,
                -0.6601547989884728,
                -0.16715361629717101
            ]
        },
        {
            "positions": [
                1.1541350712693834,
                -1.2849904879751173,
                -0.38216157707235565,
                0.25835558692583205,
                -0.6032302921068348,
                -0.2052269531410647
            ]
        },
        {
            "positions": [
                1.063225220750466,
                -1.2873817168461343,
                -0.2917229302108977,
                0.3646442068187157,
                -0.5463057852251969,
                -0.2433002899849584
            ]
        },
        {
            "positions": [
                0.9723153702315486,
                -1.2897729457171514,
                -0.20128428334943949,
                0.47093282671159997,
                -0.48938127834355893,
                -0.2813736268288521
            ]
        },
        {
            "positions": [
                0.8814055197126314,
                -1.2921641745881685,
                -0.11084563648798129,
                0.5772214466044834,
                -0.43245677146192096,
                -0.31944696367274567
            ]
        },
        {
            "positions": [
                0.790495669193714,
                -1.2945554034591853,
                -0.020406989626523098,
                0.6835100664973677,
                -0.375532264580283,
                -0.35752030051663936
            ]
        },
        {
            "positions": [
                0.6995858186747967,
                -1.2969466323302024,
                0.0700316572349351,
                0.7897986863902511,
                -0.318607757698645,
                -0.39559363736053305
            ]
        },
        {
            "positions": [
                0.6086759681558793,
                -1.2993378612012194,
                0.1604703040963933,
                0.8960873062831354,
                -0.26168325081700705,
                -0.43366697420442674
            ]
        },
        {
            "positions": [
                0.5177661176369619,
                -1.3017290900722365,
                0.25090895095785126,
                1.0023759261760188,
                -0.20475874393536908,
                -0.4717403110483203
            ]
        },
        {
            "positions": [
                0.4268562671180445,
                -1.3041203189432535,
                0.3413475978193097,
                1.108664546068903,
                -0.1478342370537311,
                -0.509813647892214
            ]
        },
        {
            "positions": [
                0.33594641659912705,
                -1.3065115478142706,
                0.43178624468076765,
                1.214953165961787,
                -0.09090973017209314,
                -0.5478869847361076
            ]
        },
        {
            "positions": [
                0.24503656608020966,
                -1.3089027766852876,
                0.5222248915422262,
                1.3212417858546708,
                -0.03398522329045524,
                -0.5859603215800014
            ]
        },
        {
            "positions": [
                0.21839922396287625,
                -1.255435013691257,
                0.6740713885211065,
                1.3778824141715404,
                -0.04079424010564099,
                -0.5260027326283624
            ]
        },
        {
            "positions": [
                0.19176188184554285,
                -1.2019672506972265,
                0.8259178854999867,
                1.43452304248841,
                -0.047603256920826745,
                -0.4660451436767234
            ]
        },
        {
            "positions": [
                0.16512453972820945,
                -1.1484994877031958,
                0.9777643824788669,
                1.4911636708052796,
                -0.0544122737360125,
                -0.40608755472508434
            ]
        },
        {
            "positions": [
                0.13848719761087602,
                -1.0950317247091652,
                1.129610879457747,
                1.547804299122149,
                -0.06122129055119826,
                -0.34612996577344535
            ]
        },
        {
            "positions": [
                0.11184985549354262,
                -1.0415639617151347,
                1.2814573764366275,
                1.6044449274390187,
                -0.06803030736638402,
                -0.28617237682180624
            ]
        },
        {
            "positions": [
                0.08521251337620922,
                -0.9880961987211041,
                1.4333038734155077,
                1.6610855557558881,
                -0.07483932418156977,
                -0.22621478787016724
            ]
        },
        {
            "positions": [
                0.05857517125887583,
                -0.9346284357270734,
                1.585150370394388,
                1.7177261840727578,
                -0.08164834099675553,
                -0.16625719891852817
            ]
        },
        {
            "positions": [
                0.04120577051595215,
                -0.887957874984082,
                1.7135273430084292,
                1.75775035903394,
                -0.0912892041454671,
                -0.10897057519967306
            ]
        },
        {
            "positions": [
                0.02383636977302847,
                -0.8412873142410904,
                1.8419043156224704,
                1.7977745339951225,
                -0.10093006729417867,
                -0.05168395148081795
            ]
        },
        {
            "positions": [
                0.07367492149127172,
                -0.8091185127857139,
                1.9178270650118674,
                1.8637802148549931,
                -0.11420619673018177,
                -0.028783495965698704
            ]
        },
        {
            "positions": [
                0.12351347320951499,
                -0.7769497113303375,
                1.9937498144012642,
                1.9297858957148637,
                -0.12748232616618488,
                -0.005883040450579464
            ]
        }
    ]
}{
    "goal": {
        "global_pose": {
            "orientation": {
                "w": 0.7047431468963623,
                "x": -0.7094548344612122,
                "y": 0.0024358443915843964,
                "z": -0.0022348060738295317
            },
            "position": {
                "x": 0.6094750761985779,
                "y": 0.3671506643295288,
                "z": 0.19426114857196808
            }
        },
        "name": "move_to_magneteinheit_A"
    },
    "id": "BKPIECE_move_to_magneteinheit_A_67",
    "joint_names": [
        "shoulder_pan_joint",
        "shoulder_lift_joint",
        "elbow_joint",
        "wrist_1_joint",
        "wrist_2_joint",
        "wrist_3_joint"
    ],
    "metrics": {
        "cart_traj_len": 1.2089813571203685,
        "distance_elbow_joint": 0.23075651787716422,
        "distance_shoulder_lift_joint": 0.7685114678617513,
        "distance_shoulder_pan_joint": 1.241992876690979,
        "distance_wrist_1_joint": 1.2790396752618043,
        "distance_wrist_2_joint": 1.7921619805026117,
        "distance_wrist_3_joint": 4.383033172736784,
        "smoothness": 0.3969641135418322,
        "time": 0.20101170699999998,
        "traj_len": 3.1137590932715224,
        "weighted_distance": 4.640340902581305
    },
    "planner": "BKPIECE",
    "start": {
        "state": {
            "elbow_joint": 1.919643534880228,
            "shoulder_lift_joint": -1.8972525353963687,
            "shoulder_pan_joint": -1.1188672234189438,
            "wrist_1_joint": -1.5931878212786155,
            "wrist_2_joint": 1.5706036197970081,
            "wrist_3_joint": 1.118896926603594
        }
    },
    "waypoints": [
        {
            "positions": [
                -1.1188672234189438,
                -1.8972525353963687,
                1.919643534880228,
                -1.5931878212786155,
                1.5706036197970081,
                1.118896926603594
            ]
        },
        {
            "positions": [
                -1.0743877288328763,
                -1.866993297675689,
                1.915141036745294,
                -1.543751750263121,
                1.496974024553829,
                0.9268049450714815
            ]
        },
        {
            "positions": [
                -1.0299082342468087,
                -1.8367340599550088,
                1.9106385386103597,
                -1.4943156792476264,
                1.42334442931065,
                0.734712963539369
            ]
        },
        {
            "positions": [
                -0.985428739660741,
                -1.8064748222343288,
                1.9061360404754255,
                -1.444879608232132,
                1.349714834067471,
                0.5426209820072566
            ]
        },
        {
            "positions": [
                -0.9409492450746734,
                -1.776215584513649,
                1.9016335423404913,
                -1.3954435372166376,
                1.276085238824292,
                0.3505290004751441
            ]
        },
        {
            "positions": [
                -0.8964697504886057,
                -1.745956346792969,
                1.8971310442055571,
                -1.3460074662011432,
                1.202455643581113,
                0.15843701894303175
            ]
        },
        {
            "positions": [
                -0.8519902559025381,
                -1.715697109072289,
                1.892628546070623,
                -1.2965713951856488,
                1.128826048337934,
                -0.03365496258908074
            ]
        },
        {
            "positions": [
                -0.8075107613164705,
                -1.685437871351609,
                1.8881260479356887,
                -1.2471353241701542,
                1.0551964530947548,
                -0.22574694412119323
            ]
        },
        {
            "positions": [
                -0.7630312667304029,
                -1.655178633630929,
                1.8836235498007545,
                -1.1976992531546597,
                0.9815668578515758,
                -0.4178389256533057
            ]
        },
        {
            "positions": [
                -0.7185517721443352,
                -1.6249193959102493,
                1.8791210516658203,
                -1.1482631821391651,
                0.9079372626083968,
                -0.6099309071854182
            ]
        },
        {
            "positions": [
                -0.6740722775582676,
                -1.5946601581895692,
                1.8746185535308861,
                -1.0988271111236707,
                0.8343076673652178,
                -0.8020228887175305
            ]
        },
        {
            "positions": [
                -0.6295927829721999,
                -1.5644009204688891,
                1.8701160553959517,
                -1.0493910401081763,
                0.7606780721220388,
                -0.994114870249643
            ]
        },
        {
            "positions": [
                -0.5851132883861324,
                -1.5341416827482093,
                1.8656135572610175,
                -0.9999549690926819,
                0.6870484768788597,
                -1.1862068517817554
            ]
        },
        {
            "positions": [
                -0.5406337938000647,
                -1.5038824450275294,
                1.8611110591260833,
                -0.9505188980771874,
                0.6134188816356806,
                -1.378298833313868
            ]
        },
        {
            "positions": [
                -0.4961542992139971,
                -1.4736232073068494,
                1.8566085609911491,
                -0.9010828270616928,
                0.5397892863925016,
                -1.5703908148459804
            ]
        },
        {
            "positions": [
                -0.4516748046279295,
                -1.4433639695861695,
                1.852106062856215,
                -0.8516467560461984,
                0.46615969114932265,
                -1.7624827963780925
            ]
        },
        {
            "positions": [
                -0.4071953100418618,
                -1.4131047318654895,
                1.8476035647212807,
                -0.8022106850307039,
                0.3925300959061435,
                -1.9545747779102054
            ]
        },
        {
            "positions": [
                -0.36271581545579423,
                -1.3828454941448096,
                1.8431010665863465,
                -0.7527746140152095,
                0.3189005006629646,
                -2.1466667594423177
            ]
        },
        {
            "positions": [
                -0.31823632086972653,
                -1.3525862564241296,
                1.8385985684514123,
                -0.703338542999715,
                0.24527090541978547,
                -2.3387587409744306
            ]
        },
        {
            "positions": [
                -0.27375682628365894,
                -1.3223270187034495,
                1.8340960703164781,
                -0.6539024719842206,
                0.17164131017660655,
                -2.5308507225065426
            ]
        },
        {
            "positions": [
                -0.22927733169759135,
                -1.2920677809827696,
                1.829593572181544,
                -0.6044664009687261,
                0.09801171493342742,
                -2.7229427040386547
            ]
        },
        {
            "positions": [
                -0.18479783711152364,
                -1.2618085432620898,
                1.8250910740466098,
                -0.5550303299532315,
                0.024382119690248283,
                -2.9150346855707676
            ]
        },
        {
            "positions": [
                -0.14031834252545605,
                -1.2315493055414097,
                1.8205885759116756,
                -0.5055942589377371,
                -0.04924747555293074,
                -3.1071266671028797
            ]
        },
        {
            "positions": [
                -0.05250367725962571,
                -1.197279892872479,
                1.8644890955478794,
                -0.5694096299113791,
                0.008189486164626836,
                -3.159463193446317
            ]
        },
        {
            "positions": [
                0.035310988006204636,
                -1.1630104802035481,
                1.9083896151840833,
                -0.633225000885021,
                0.06562644788218441,
                -3.2117997197897536
            ]
        },
        {
            "positions": [
                0.12312565327203502,
                -1.1287410675346174,
                1.9522901348202872,
                -0.697040371858663,
                0.123063409599742,
                -3.264136246133191
            ]
        }
    ]
}