{
    "goal": {
        "global_pose": {
            "orientation": {
                "w": 0.7047431468963623,
                "x": -0.7094548344612122,
                "y": 0.0024358443915843964,
                "z": -0.0022348060738295317
            },
            "position": {
                "x": 0.6094750761985779,
                "y": 0.3671506643295288,
                "z": 0.19426114857196808
            }
        },
        "name": "move_to_magneteinheit_A"
    },
    "id": "BKPIECE_move_to_magneteinheit_A_60",
    "joint_names": [
        "shoulder_pan_joint",
        "shoulder_lift_joint",
        "elbow_joint",
        "wrist_1_joint",
        "wrist_2_joint",
        "wrist_3_joint"
    ],
    "metrics": {
        "cart_traj_len": 3.872677239091611,
        "distance_elbow_joint": 3.8910667829714276,
        "distance_shoulder_lift_joint": 0.10544570401238151,
        "distance_shoulder_pan_joint": 3.441147153404311,
        "distance_wrist_1_joint": 0.7675290183895355,
        "distance_wrist_2_joint": 2.1825216566078307,
        "distance_wrist_3_joint": 3.6250712817068527,
        "smoothness": 0.37042650573674135,
        "time": 0.205651944,
        "traj_len": 3.743365009866435,
        "weighted_distance": 4.920668128974299
    },
    "planner": "BKPIECE",
    "start": {
        "state": {
            "elbow_joint": -1.919618573717145,
            "shoulder_lift_joint": -1.2443395971678275,
            "shoulder_pan_joint": 2.6996025300909787,
            "wrist_1_joint": -1.548550951253194,
            "wrist_2_joint": -1.5709469090946802,
            "wrist_3_joint": 0.4420197732051276
        }
    },
    "waypoints": [
        {
            "positions": [
                2.6996025300909787,
                -1.2443395971678275,
                -1.919618573717145,
                -1.548550951253194,
                -1.5709469090946802,
                0.4420197732051276
            ]
        },
        {
            "positions": [
                2.6055840256205487,
                -1.243525001708287,
                -1.811337776925926,
                -1.5261581071088954,
                -1.5103581642655937,
                0.3384858129494826
            ]
        },
        {
            "positions": [
                2.511565521150119,
                -1.2427104062487466,
                -1.703056980134707,
                -1.503765262964597,
                -1.4497694194365074,
                0.2349518526938376
            ]
        },
        {
            "positions": [
                2.417547016679689,
                -1.2418958107892062,
                -1.5947761833434884,
                -1.4813724188202984,
                -1.389180674607421,
                0.13141789243819257
            ]
        },
        {
            "positions": [
                2.323528512209259,
                -1.2410812153296655,
                -1.4864953865522694,
                -1.4589795746759997,
                -1.3285919297783346,
                0.02788393218254759
            ]
        },
        {
            "positions": [
                2.2295100077388295,
                -1.240266619870125,
                -1.3782145897610505,
                -1.436586730531701,
                -1.2680031849492481,
                -0.07565002807309745
            ]
        },
        {
            "positions": [
                2.1354915032683994,
                -1.2394520244105847,
                -1.2699337929698316,
                -1.4141938863874026,
                -1.2074144401201616,
                -0.17918398832874244
            ]
        },
        {
            "positions": [
                2.0414729987979694,
                -1.2386374289510442,
                -1.1616529961786126,
                -1.391801042243104,
                -1.1468256952910751,
                -0.2827179485843874
            ]
        },
        {
            "positions": [
                1.9474544943275398,
                -1.2378228334915038,
                -1.0533721993873937,
                -1.3694081980988053,
                -1.0862369504619889,
                -0.3862519088400324
            ]
        },
        {
            "positions": [
                1.8534359898571098,
                -1.2370082380319634,
                -0.9450914025961747,
                -1.3470153539545069,
                -1.0256482056329026,
                -0.4897858690956774
            ]
        },
        {
            "positions": [
                1.75941748538668,
                -1.2361936425724227,
                -0.8368106058049558,
                -1.3246225098102082,
                -0.9650594608038161,
                -0.5933198293513224
            ]
        },
        {
            "positions": [
                1.6653989809162502,
                -1.2353790471128823,
                -0.7285298090137369,
                -1.3022296656659096,
                -0.9044707159747296,
                -0.6968537896069673
            ]
        },
        {
            "positions": [
                1.5713804764458201,
                -1.2345644516533418,
                -0.6202490122225182,
                -1.2798368215216112,
                -0.8438819711456432,
                -0.8003877498626124
            ]
        },
        {
            "positions": [
                1.4773619719753903,
                -1.2337498561938014,
                -0.5119682154312992,
                -1.2574439773773125,
                -0.7832932263165568,
                -0.9039217101182573
            ]
        },
        {
            "positions": [
                1.3833434675049605,
                -1.232935260734261,
                -0.4036874186400803,
                -1.2350511332330139,
                -0.7227044814874704,
                -1.0074556703739024
            ]
        },
        {
            "positions": [
                1.2893249630345305,
                -1.2321206652747205,
                -0.29540662184886135,
                -1.2126582890887152,
                -0.662115736658384,
                -1.1109896306295473
            ]
        },
        {
            "positions": [
                1.1953064585641007,
                -1.2313060698151799,
                -0.18712582505764241,
                -1.1902654449444166,
                -0.6015269918292976,
                -1.2145235908851924
            ]
        },
        {
            "positions": [
                1.1012879540936709,
                -1.2304914743556394,
                -0.07884502826642348,
                -1.1678726008001181,
                -0.5409382470002111,
                -1.3180575511408374
            ]
        },
        {
            "positions": [
                1.0072694496232408,
                -1.229676878896099,
                0.029435768524795458,
                -1.1454797566558195,
                -0.4803495021711248,
                -1.4215915113964823
            ]
        },
        {
            "positions": [
                0.913250945152811,
                -1.2288622834365586,
                0.1377165653160144,
                -1.1230869125115208,
                -0.4197607573420383,
                -1.5251254716521274
            ]
        },
        {
            "positions": [
                0.8192324406823812,
                -1.2280476879770181,
                0.24599736210723333,
                -1.1006940683672224,
                -0.35917201251295205,
                -1.6286594319077725
            ]
        },
        {
            "positions": [
                0.7252139362119512,
                -1.2272330925174777,
                0.35427815889845227,
                -1.0783012242229237,
                -0.29858326768386556,
                -1.7321933921634174
            ]
        },
        {
            "positions": [
                0.6311954317415216,
                -1.2264184970579373,
                0.4625589556896712,
                -1.055908380078625,
                -0.23799452285477907,
                -1.8357273524190623
            ]
        },
        {
            "positions": [
                0.5371769272710916,
                -1.2256039015983966,
                0.5708397524808901,
                -1.0335155359343267,
                -0.1774057780256928,
                -1.9392613126747071
            ]
        },
        {
            "positions": [
                0.44315842280066153,
                -1.2247893061388562,
                0.6791205492721086,
                -1.011122691790028,
                -0.1168170331966063,
                -2.0427952729303525
            ]
        },
        {
            "positions": [
                0.34913991833023195,
                -1.2239747106793157,
                0.7874013460633276,
                -0.9887298476457294,
                -0.05622828836751981,
                -2.1463292331859973
            ]
        },
        {
            "positions": [
                0.2551214138598019,
                -1.2231601152197753,
                0.8956821428545465,
                -0.9663370035014308,
                0.004360456461566464,
                -2.249863193441642
            ]
        },
        {
            "positions": [
                0.16110290938937188,
                -1.2223455197602349,
                1.0039629396457654,
                -0.9439441593571322,
                0.06494920129065296,
                -2.3533971536972875
            ]
        },
        {
            "positions": [
                0.0670844049189423,
                -1.2215309243006944,
                1.1122437364369844,
                -0.9215513152128336,
                0.12553794611973945,
                -2.4569311139529324
            ]
        },
        {
            "positions": [
                -0.026934099551487733,
                -1.2207163288411538,
                1.2205245332282033,
                -0.899158471068535,
                0.18612669094882572,
                -2.5604650742085773
            ]
        },
        {
            "positions": [
                -0.12095260402191776,
                -1.2199017333816133,
                1.3288053300194222,
                -0.8767656269242364,
                0.24671543577791222,
                -2.663999034464222
            ]
        },
        {
            "positions": [
                -0.21497110849234735,
                -1.219087137922073,
                1.4370861268106412,
                -0.8543727827799378,
                0.3073041806069985,
                -2.7675329947198675
            ]
        },
        {
            "positions": [
                -0.30898961296277727,
                -1.2182725424625325,
                1.5453669236018601,
                -0.8319799386356392,
                0.36789292543608504,
                -2.8710669549755123
            ]
        },
        {
            "positions": [
                -0.20085086037513836,
                -1.1984278801357608,
                1.6518872450149655,
                -0.819240437192644,
                0.30697246991681865,
                -2.9490630933570654
            ]
        },
        {
            "positions": [
                -0.09271210778749944,
                -1.1785832178089892,
                1.7584075664280712,
                -0.8065009357496489,
                0.24605201439755228,
                -3.027059231738619
            ]
        },
        {
            "positions": [
                0.015426644800139444,
                -1.1587385554822176,
                1.8649278878411768,
                -0.7937614343066538,
                0.18513155887828592,
                -3.105055370120172
            ]
        },
        {
            "positions": [
                0.12356539738777837,
                -1.138893893155446,
                1.9714482092542822,
                -0.7810219328636586,
                0.12421110335901951,
                -3.183051508501725
            ]
        }
    ]
}{
    "goal": {
        "global_pose": {
            "orientation": {
                "w": 0.7047431468963623,
                "x": -0.7094548344612122,
                "y": 0.0024358443915843964,
                "z": -0.0022348060738295317
            },
            "position": {
                "x": 0.6094750761985779,
                "y": 0.3671506643295288,
                "z": 0.19426114857196808
            }
        },
        "name": "move_to_magneteinheit_A"
    },
    "id": "BKPIECE_move_to_magneteinheit_A_60",
    "joint_names": [
        "shoulder_pan_joint",
        "shoulder_lift_joint",
        "elbow_joint",
        "wrist_1_joint",
        "wrist_2_joint",
        "wrist_3_joint"
    ],
    "metrics": {
        "cart_traj_len": 1.9497756732444402,
        "distance_elbow_joint": 0.22882926812559212,
        "distance_shoulder_lift_joint": 0.7514022179215558,
        "distance_shoulder_pan_joint": 1.6166337978229368,
        "distance_wrist_1_joint": 7.841968182913856,
        "distance_wrist_2_joint": 2.38596531747595,
        "distance_wrist_3_joint": 4.263843367667669,
        "smoothness": 0.3915474876666612,
        "time": 0.241732171,
        "traj_len": 4.133841089341432,
        "weighted_distance": 5.987007799197585
    },
    "planner": "BKPIECE",
    "start": {
        "state": {
            "elbow_joint": 1.919643534880228,
            "shoulder_lift_joint": -1.8972525353963687,
            "shoulder_pan_joint": -1.1188672234189438,
            "wrist_1_joint": -1.5931878212786155,
            "wrist_2_joint": 1.5706036197970081,
            "wrist_3_joint": 1.118896926603594
        }
    },
    "waypoints": [
        {
            "positions": [
                -1.1188672234189438,
                -1.8972525353963687,
                1.919643534880228,
                -1.5931878212786155,
                1.5706036197970081,
                1.118896926603594
            ]
        },
        {
            "positions": [
                -1.127404958839492,
                -1.8663528726120797,
                1.915941843506944,
                -1.3977382743995592,
                1.4837825272473766,
                1.050685185953356
            ]
        },
        {
            "positions": [
                -1.1359426942600401,
                -1.8354532098277907,
                1.9122401521336598,
                -1.2022887275205032,
                1.396961434697745,
                0.982473445303118
            ]
        },
        {
            "positions": [
                -1.1444804296805882,
                -1.8045535470435015,
                1.908538460760376,
                -1.006839180641447,
                1.3101403421481135,
                0.91426170465288
            ]
        },
        {
            "positions": [
                -1.1530181651011364,
                -1.7736538842592124,
                1.9048367693870918,
                -0.8113896337623908,
                1.2233192495984817,
                0.846049964002642
            ]
        },
        {
            "positions": [
                -1.1615559005216847,
                -1.7427542214749234,
                1.9011350780138077,
                -0.6159400868833347,
                1.1364981570488502,
                0.7778382233524039
            ]
        },
        {
            "positions": [
                -1.1700936359422327,
                -1.7118545586906344,
                1.8974333866405235,
                -0.42049054000427866,
                1.0496770644992186,
                0.709626482702166
            ]
        },
        {
            "positions": [
                -1.1786313713627807,
                -1.6809548959063452,
                1.8937316952672396,
                -0.2250409931252224,
                0.962855971949587,
                0.641414742051928
            ]
        },
        {
            "positions": [
                -1.187169106783329,
                -1.6500552331220562,
                1.8900300038939555,
                -0.029591446246166164,
                0.8760348793999554,
                0.5732030014016899
            ]
        },
        {
            "positions": [
                -1.1957068422038772,
                -1.6191555703377671,
                1.8863283125206713,
                0.16585810063289008,
                0.7892137868503237,
                0.504991260751452
            ]
        },
        {
            "positions": [
                -1.2042445776244253,
                -1.5882559075534781,
                1.8826266211473872,
                0.3613076475119461,
                0.7023926943006923,
                0.436779520101214
            ]
        },
        {
            "positions": [
                -1.2127823130449733,
                -1.5573562447691889,
                1.878924929774103,
                0.5567571943910024,
                0.6155716017510606,
                0.36856777945097596
            ]
        },
        {
            "positions": [
                -1.2213200484655216,
                -1.5264565819848999,
                1.8752232384008192,
                0.7522067412700582,
                0.5287505092014291,
                0.300356038800738
            ]
        },
        {
            "positions": [
                -1.2298577838860698,
                -1.4955569192006108,
                1.871521547027535,
                0.9476562881491148,
                0.4419294166517973,
                0.23214429815049986
            ]
        },
        {
            "positions": [
                -1.2383955193066178,
                -1.4646572564163218,
                1.867819855654251,
                1.1431058350281706,
                0.355108324102166,
                0.16393255750026203
            ]
        },
        {
            "positions": [
                -1.2469332547271659,
                -1.4337575936320328,
                1.8641181642809668,
                1.338555381907227,
                0.2682872315525344,
                0.09572081685002409
            ]
        },
        {
            "positions": [
                -1.2554709901477141,
                -1.4028579308477436,
                1.8604164729076829,
                1.5340049287862831,
                0.18146613900290265,
                0.02750907619978582
            ]
        },
        {
            "positions": [
                -1.2640087255682624,
                -1.3719582680634546,
                1.8567147815343987,
                1.7294544756653394,
                0.0946450464532711,
                -0.04070266445045201
            ]
        },
        {
            "positions": [
                -1.2725464609888104,
                -1.3410586052791655,
                1.8530130901611146,
                1.9249040225443956,
                0.007823953903639325,
                -0.10891440510069006
            ]
        },
        {
            "positions": [
                -1.2810841964093584,
                -1.3101589424948763,
                1.8493113987878305,
                2.120353569423452,
                -0.07899713864599223,
                -0.1771261457509281
            ]
        },
        {
            "positions": [
                -1.2896219318299067,
                -1.2792592797105873,
                1.8456097074145466,
                2.315803116302508,
                -0.16581823119562356,
                -0.24533788640116594
            ]
        },
        {
            "positions": [
                -1.298159667250455,
                -1.2483596169262983,
                1.8419080160412624,
                2.5112526631815646,
                -0.25263932374525533,
                -0.3135496270514042
            ]
        },
        {
            "positions": [
                -1.306697402671003,
                -1.2174599541420092,
                1.8382063246679783,
                2.70670221006062,
                -0.3394604162948869,
                -0.38176136770164204
            ]
        },
        {
            "positions": [
                -1.241751783645054,
                -1.2142049706571367,
                1.8449059636640393,
                2.545698657716319,
                -0.31782853986833887,
                -0.5073606892181164
            ]
        },
        {
            "positions": [
                -1.176806164619105,
                -1.2109499871722642,
                1.8516056026601002,
                2.384695105372018,
                -0.29619666344179085,
                -0.6329600107345907
            ]
        },
        {
            "positions": [
                -1.111860545593156,
                -1.2076950036873915,
                1.8583052416561614,
                2.2236915530277166,
                -0.27456478701524284,
                -0.758559332251065
            ]
        },
        {
            "positions": [
                -1.046914926567207,
                -1.204440020202519,
                1.8650048806522224,
                2.0626880006834156,
                -0.2529329105886948,
                -0.8841586537675393
            ]
        },
        {
            "positions": [
                -0.9819693075412581,
                -1.2011850367176464,
                1.8717045196482833,
                1.9016844483391147,
                -0.2313010341621468,
                -1.0097579752840136
            ]
        },
        {
            "positions": [
                -0.9170236885153091,
                -1.197930053232774,
                1.8784041586443443,
                1.7406808959948137,
                -0.20966915773559883,
                -1.135357296800488
            ]
        },
        {
            "positions": [
                -0.8520780694893602,
                -1.1946750697479014,
                1.8851037976404055,
                1.5796773436505127,
                -0.1880372813090508,
                -1.2609566183169623
            ]
        },
        {
            "positions": [
                -0.7871324504634111,
                -1.1914200862630289,
                1.8918034366364664,
                1.4186737913062115,
                -0.1664054048825028,
                -1.3865559398334366
            ]
        },
        {
            "positions": [
                -0.7221868314374621,
                -1.1881651027781561,
                1.8985030756325274,
                1.2576702389619103,
                -0.14477352845595476,
                -1.512155261349911
            ]
        },
        {
            "positions": [
                -0.6572412124115131,
                -1.1849101192932836,
                1.9052027146285884,
                1.0966666866176096,
                -0.12314165202940677,
                -1.6377545828663853
            ]
        },
        {
            "positions": [
                -0.5922955933855641,
                -1.181655135808411,
                1.9119023536246496,
                0.9356631342733084,
                -0.10150977560285876,
                -1.7633539043828597
            ]
        },
        {
            "positions": [
                -0.5273499743596152,
                -1.1784001523235386,
                1.9186019926207105,
                0.7746595819290074,
                -0.07987789917631077,
                -1.8889532258993338
            ]
        },
        {
            "positions": [
                -0.4624043553336661,
                -1.175145168838666,
                1.9253016316167715,
                0.613656029584706,
                -0.058246022749762705,
                -2.0145525474158084
            ]
        },
        {
            "positions": [
                -0.3974587363077172,
                -1.1718901853537933,
                1.9320012706128324,
                0.45265247724040547,
                -0.03661414632321475,
                -2.140151868932283
            ]
        },
        {
            "positions": [
                -0.33251311728176824,
                -1.1686352018689208,
                1.9387009096088934,
                0.2916489248961045,
                -0.014982269896666733,
                -2.265751190448757
            ]
        },
        {
            "positions": [
                -0.26756749825581916,
                -1.1653802183840483,
                1.9454005486049546,
                0.13064537255180309,
                0.00664960652988128,
                -2.391350511965231
            ]
        },
        {
            "positions": [
                -0.20262187922987018,
                -1.1621252348991757,
                1.9521001876010156,
                -0.030358179792497886,
                0.028281482956429294,
                -2.5169498334817058
            ]
        },
        {
            "positions": [
                -0.1376762602039212,
                -1.1588702514143032,
                1.9587998265970765,
                -0.1913617321367993,
                0.04991335938297736,
                -2.64254915499818
            ]
        },
        {
            "positions": [
                -0.07273064117797223,
                -1.1556152679294307,
                1.9654994655931375,
                -0.35236528448110027,
                0.07154523580952532,
                -2.7681484765146545
            ]
        },
        {
            "positions": [
                -0.007785022152023258,
                -1.152360284444558,
                1.9721991045891984,
                -0.5133688368254008,
                0.09317711223607333,
                -2.8937477980311286
            ]
        },
        {
            "positions": [
                0.05716059687392572,
                -1.1491053009596854,
                1.9788987435852596,
                -0.6743723891697022,
                0.11480898866262135,
                -3.019347119547603
            ]
        },
        {
            "positions": [
                0.12210621589987472,
                -1.145850317474813,
                1.9855983825813206,
                -0.8353759415140032,
                0.13644086508916936,
                -3.1449464410640773
            ]
        }
    ]
}