{
    "goal": {
        "global_pose": {
            "orientation": {
                "w": 0.7047431468963623,
                "x": -0.7094548344612122,
                "y": 0.0024358443915843964,
                "z": -0.0022348060738295317
            },
            "position": {
                "x": 0.6094750761985779,
                "y": 0.3671506643295288,
                "z": 0.19426114857196808
            }
        },
        "name": "move_to_magneteinheit_A"
    },
    "id": "BKPIECE_move_to_magneteinheit_A_51",
    "joint_names": [
        "shoulder_pan_joint",
        "shoulder_lift_joint",
        "elbow_joint",
        "wrist_1_joint",
        "wrist_2_joint",
        "wrist_3_joint"
    ],
    "metrics": {
        "cart_traj_len": 3.956832397808807,
        "distance_elbow_joint": 3.887920864451275,
        "distance_shoulder_lift_joint": 0.5458457052517591,
        "distance_shoulder_pan_joint": 3.1542609285386134,
        "distance_wrist_1_joint": 1.1201161381745317,
        "distance_wrist_2_joint": 2.1459144878485343,
        "distance_wrist_3_joint": 2.9756722014755446,
        "smoothness": 0.6353101340265197,
        "time": 0.18558666000000001,
        "traj_len": 3.7188345386344173,
        "weighted_distance": 4.800740084061458
    },
    "planner": "BKPIECE",
    "start": {
        "state": {
            "elbow_joint": -1.919618573717145,
            "shoulder_lift_joint": -1.2443395971678275,
            "shoulder_pan_joint": 2.6996025300909787,
            "wrist_1_joint": -1.548550951253194,
            "wrist_2_joint": -1.5709469090946802,
            "wrist_3_joint": 0.4420197732051276
        }
    },
    "waypoints": [
        {
            "positions": [
                2.6996025300909787,
                -1.2443395971678275,
                -1.919618573717145,
                -1.548550951253194,
                -1.5709469090946802,
                0.4420197732051276
            ]
        },
        {
            "positions": [
                2.5739217767935627,
                -1.237471358022452,
                -1.8830774323112096,
                -1.5611329165464873,
                -1.455744828081349,
                0.40664392600882426
            ]
        },
        {
            "positions": [
                2.4482410234961463,
                -1.2306031188770765,
                -1.8465362909052743,
                -1.5737148818397804,
                -1.3405427470680178,
                0.37126807881252094
            ]
        },
        {
            "positions": [
                2.3225602701987302,
                -1.223734879731701,
                -1.8099951494993387,
                -1.5862968471330736,
                -1.2253406660546866,
                0.3358922316162177
            ]
        },
        {
            "positions": [
                2.1968795169013138,
                -1.2168666405863255,
                -1.7734540080934034,
                -1.5988788124263666,
                -1.1101385850413552,
                0.30051638441991435
            ]
        },
        {
            "positions": [
                2.0711987636038978,
                -1.20999840144095,
                -1.736912866687468,
                -1.61146077771966,
                -0.994936504028024,
                0.26514053722361103
            ]
        },
        {
            "positions": [
                1.9916527900215588,
                -1.2102052451088017,
                -1.606852086435763,
                -1.5847964226824962,
                -0.9429896754960252,
                0.35885108977451374
            ]
        },
        {
            "positions": [
                1.9121068164392199,
                -1.2104120887766534,
                -1.4767913061840579,
                -1.5581320676453327,
                -0.8910428469640264,
                0.4525616423254165
            ]
        },
        {
            "positions": [
                1.832560842856881,
                -1.2106189324445054,
                -1.3467305259323528,
                -1.531467712608169,
                -0.8390960184320275,
                0.5462721948763192
            ]
        },
        {
            "positions": [
                1.753014869274542,
                -1.210825776112357,
                -1.2166697456806475,
                -1.5048033575710056,
                -0.7871491899000288,
                0.6399827474272219
            ]
        },
        {
            "positions": [
                1.6734688956922033,
                -1.2110326197802088,
                -1.0866089654289426,
                -1.478139002533842,
                -0.73520236136803,
                0.7336932999781247
            ]
        },
        {
            "positions": [
                1.5939229221098643,
                -1.2112394634480605,
                -0.9565481851772374,
                -1.4514746474966782,
                -0.6832555328360311,
                0.8274038525290275
            ]
        },
        {
            "positions": [
                1.5143769485275254,
                -1.2114463071159123,
                -0.8264874049255323,
                -1.4248102924595147,
                -0.6313087043040324,
                0.92111440507993
            ]
        },
        {
            "positions": [
                1.4348309749451864,
                -1.2116531507837642,
                -0.6964266246738271,
                -1.398145937422351,
                -0.5793618757720336,
                1.0148249576308328
            ]
        },
        {
            "positions": [
                1.3552850013628475,
                -1.211859994451616,
                -0.566365844422122,
                -1.3714815823851876,
                -0.5274150472400347,
                1.1085355101817356
            ]
        },
        {
            "positions": [
                1.2757390277805087,
                -1.2120668381194677,
                -0.4363050641704169,
                -1.344817227348024,
                -0.4754682187080359,
                1.2022460627326383
            ]
        },
        {
            "positions": [
                1.1961930541981696,
                -1.2122736817873194,
                -0.30624428391871183,
                -1.3181528723108604,
                -0.4235213901760372,
                1.295956615283541
            ]
        },
        {
            "positions": [
                1.1166470806158308,
                -1.2124805254551712,
                -0.17618350366700675,
                -1.2914885172736967,
                -0.37157456164403824,
                1.3896671678344439
            ]
        },
        {
            "positions": [
                1.037101107033492,
                -1.212687369123023,
                -0.04612272341530166,
                -1.264824162236533,
                -0.3196277331120395,
                1.4833777203853464
            ]
        },
        {
            "positions": [
                0.957555133451153,
                -1.2128942127908748,
                0.08393805683640343,
                -1.2381598071993696,
                -0.2676809045800408,
                1.577088272936249
            ]
        },
        {
            "positions": [
                0.8780091598688142,
                -1.2131010564587266,
                0.2139988370881083,
                -1.211495452162206,
                -0.21573407604804196,
                1.6707988254871518
            ]
        },
        {
            "positions": [
                0.7984631862864751,
                -1.2133079001265783,
                0.34405961733981383,
                -1.1848310971250424,
                -0.163787247516043,
                1.7645093780380547
            ]
        },
        {
            "positions": [
                0.7189172127041363,
                -1.21351474379443,
                0.4741203975915187,
                -1.1581667420878787,
                -0.11184041898404429,
                1.8582199305889573
            ]
        },
        {
            "positions": [
                0.6393712391217974,
                -1.2137215874622818,
                0.604181177843224,
                -1.1315023870507153,
                -0.05989359045204545,
                1.95193048313986
            ]
        },
        {
            "positions": [
                0.5598252655394584,
                -1.2139284311301337,
                0.7342419580949289,
                -1.1048380320135516,
                -0.00794676192004673,
                2.0456410356907626
            ]
        },
        {
            "positions": [
                0.4802792919571195,
                -1.2141352747979854,
                0.8643027383466342,
                -1.0781736769763879,
                0.044000066611952215,
                2.1393515882416656
            ]
        },
        {
            "positions": [
                0.40073331837478054,
                -1.2143421184658372,
                0.994363518598339,
                -1.0515093219392244,
                0.09594689514395105,
                2.233062140792568
            ]
        },
        {
            "positions": [
                0.3211873447924416,
                -1.214548962133689,
                1.1244242988500444,
                -1.024844966902061,
                0.14789372367594966,
                2.3267726933434707
            ]
        },
        {
            "positions": [
                0.24164137121010287,
                -1.2147558058015406,
                1.2544850791017492,
                -0.9981806118648973,
                0.1998405522079485,
                2.4204832458943737
            ]
        },
        {
            "positions": [
                0.1620953976277637,
                -1.2149626494693926,
                1.3845458593534545,
                -0.9715162568277336,
                0.25178738073994755,
                2.5141937984452767
            ]
        },
        {
            "positions": [
                0.08254942404542498,
                -1.2151694931372443,
                1.5146066396051598,
                -0.94485190179057,
                0.30373420927194617,
                2.6079043509961792
            ]
        },
        {
            "positions": [
                0.0030034504630860066,
                -1.215376336805096,
                1.644667419856865,
                -0.9181875467534064,
                0.35568103780394505,
                2.701614903547082
            ]
        },
        {
            "positions": [
                -0.03929956598069734,
                -1.1424888637545587,
                1.7009576143492824,
                -0.8519211868145737,
                0.31135674272324654,
                2.7549323028108685
            ]
        },
        {
            "positions": [
                -0.08160258242448068,
                -1.0696013907040212,
                1.7572478088416996,
                -0.785654826875741,
                0.2670324476425481,
                2.8082497020746553
            ]
        },
        {
            "positions": [
                -0.12390559886826402,
                -0.9967139176534838,
                1.8135380033341169,
                -0.7193884669369082,
                0.22270815256184956,
                2.861567101338442
            ]
        },
        {
            "positions": [
                -0.16620861531204736,
                -0.9238264446029464,
                1.8698281978265343,
                -0.6531221069980755,
                0.17838385748115107,
                2.914884500602229
            ]
        },
        {
            "positions": [
                -0.07005868760018465,
                -0.9953520052558084,
                1.9026528954623991,
                -0.6860779873269026,
                0.16438740393877907,
                2.9645675013073656
            ]
        },
        {
            "positions": [
                0.02609124011167807,
                -1.0668775659086702,
                1.9354775930982642,
                -0.7190338676557299,
                0.1503909503964071,
                3.0142505020125023
            ]
        },
        {
            "positions": [
                0.12224116782354082,
                -1.1384031265615322,
                1.968302290734129,
                -0.751989747984557,
                0.1363944968540351,
                3.063933502717639
            ]
        }
    ]
}{
    "goal": {
        "global_pose": {
            "orientation": {
                "w": 0.7047431468963623,
                "x": -0.7094548344612122,
                "y": 0.0024358443915843964,
                "z": -0.0022348060738295317
            },
            "position": {
                "x": 0.6094750761985779,
                "y": 0.3671506643295288,
                "z": 0.19426114857196808
            }
        },
        "name": "move_to_magneteinheit_A"
    },
    "id": "BKPIECE_move_to_magneteinheit_A_51",
    "joint_names": [
        "shoulder_pan_joint",
        "shoulder_lift_joint",
        "elbow_joint",
        "wrist_1_joint",
        "wrist_2_joint",
        "wrist_3_joint"
    ],
    "metrics": {
        "cart_traj_len": 1.2285608031191502,
        "distance_elbow_joint": 0.28897195586237,
        "distance_shoulder_lift_joint": 0.7511662512493267,
        "distance_shoulder_pan_joint": 1.24161429050867,
        "distance_wrist_1_joint": 0.765770458882224,
        "distance_wrist_2_joint": 1.4421458931407618,
        "distance_wrist_3_joint": 4.269648290779525,
        "smoothness": 0.03536755611743007,
        "time": 0.26494769,
        "traj_len": 2.9596143567064406,
        "weighted_distance": 4.416619756556468
    },
    "planner": "BKPIECE",
    "start": {
        "state": {
            "elbow_joint": 1.919643534880228,
            "shoulder_lift_joint": -1.8972525353963687,
            "shoulder_pan_joint": -1.1188672234189438,
            "wrist_1_joint": -1.5931878212786155,
            "wrist_2_joint": 1.5706036197970081,
            "wrist_3_joint": 1.118896926603594
        }
    },
    "waypoints": [
        {
            "positions": [
                -1.1188672234189438,
                -1.8972525353963687,
                1.919643534880228,
                -1.5931878212786155,
                1.5706036197970081,
                1.118896926603594
            ]
        },
        {
            "positions": [
                -1.0972501380549828,
                -1.8810850712684366,
                1.8914566966136324,
                -1.50297056871624,
                1.4944755142599826,
                1.034541948276939
            ]
        },
        {
            "positions": [
                -1.0756330526910216,
                -1.8649176071405045,
                1.8632698583470368,
                -1.4127533161538643,
                1.418347408722957,
                0.9501869699502837
            ]
        },
        {
            "positions": [
                -1.0540159673270604,
                -1.8487501430125723,
                1.8350830200804413,
                -1.322536063591489,
                1.3422193031859313,
                0.8658319916236286
            ]
        },
        {
            "positions": [
                -1.0323988819630994,
                -1.8325826788846402,
                1.8068961818138456,
                -1.2323188110291134,
                1.2660911976489058,
                0.7814770132969735
            ]
        },
        {
            "positions": [
                -0.9716017267497927,
                -1.7964512896879246,
                1.8161711609083713,
                -1.2110082084694964,
                1.2062157518071868,
                0.5745176250089259
            ]
        },
        {
            "positions": [
                -0.9108045715364862,
                -1.760319900491209,
                1.825446140002897,
                -1.1896976059098796,
                1.146340305965468,
                0.36755823672087834
            ]
        },
        {
            "positions": [
                -0.8500074163231796,
                -1.7241885112944932,
                1.8347211190974226,
                -1.1683870033502626,
                1.086464860123749,
                0.1605988484328308
            ]
        },
        {
            "positions": [
                -0.789210261109873,
                -1.6880571220977774,
                1.8439960981919483,
                -1.1470764007906458,
                1.02658941428203,
                -0.04636053985521682
            ]
        },
        {
            "positions": [
                -0.7284131058965664,
                -1.6519257329010617,
                1.8532710772864738,
                -1.1257657982310287,
                0.9667139684403112,
                -0.2533199281432643
            ]
        },
        {
            "positions": [
                -0.6676159506832597,
                -1.615794343704346,
                1.8625460563809995,
                -1.1044551956714117,
                0.9068385225985922,
                -0.4602793164313119
            ]
        },
        {
            "positions": [
                -0.6068187954699531,
                -1.5796629545076304,
                1.8718210354755251,
                -1.083144593111795,
                0.8469630767568732,
                -0.6672387047193595
            ]
        },
        {
            "positions": [
                -0.5460216402566466,
                -1.5435315653109147,
                1.8810960145700508,
                -1.0618339905521779,
                0.7870876309151544,
                -0.8741980930074071
            ]
        },
        {
            "positions": [
                -0.4852244850433399,
                -1.507400176114199,
                1.8903709936645765,
                -1.040523387992561,
                0.7272121850734354,
                -1.0811574812954547
            ]
        },
        {
            "positions": [
                -0.4244273298300333,
                -1.4712687869174834,
                1.8996459727591022,
                -1.019212785432944,
                0.6673367392317165,
                -1.2881168695835021
            ]
        },
        {
            "positions": [
                -0.36363017461672664,
                -1.4351373977207675,
                1.9089209518536279,
                -0.997902182873327,
                0.6074612933899975,
                -1.49507625787155
            ]
        },
        {
            "positions": [
                -0.3028330194034201,
                -1.3990060085240519,
                1.9181959309481535,
                -0.9765915803137102,
                0.5475858475482787,
                -1.7020356461595973
            ]
        },
        {
            "positions": [
                -0.24203586419011347,
                -1.3628746193273362,
                1.9274709100426792,
                -0.9552809777540932,
                0.48771040170655966,
                -1.9089950344476452
            ]
        },
        {
            "positions": [
                -0.18123870897680694,
                -1.3267432301306206,
                1.936745889137205,
                -0.9339703751944762,
                0.42783495586484077,
                -2.1159544227356926
            ]
        },
        {
            "positions": [
                -0.1204415537635003,
                -1.290611840933905,
                1.9460208682317304,
                -0.9126597726348593,
                0.36795951002312177,
                -2.3229138110237404
            ]
        },
        {
            "positions": [
                -0.05964439855019377,
                -1.254480451737189,
                1.955295847326256,
                -0.8913491700752424,
                0.308084064181403,
                -2.529873199311788
            ]
        },
        {
            "positions": [
                0.001152756663112875,
                -1.2183490625404736,
                1.9645708264207817,
                -0.8700385675156255,
                0.24820861833968388,
                -2.7368325875998356
            ]
        },
        {
            "positions": [
                0.06194991187641952,
                -1.1822176733437577,
                1.9738458055153074,
                -0.8487279649560084,
                0.1883331724979651,
                -2.943791975887883
            ]
        },
        {
            "positions": [
                0.12274706708972617,
                -1.146086284147042,
                1.983120784609833,
                -0.8274173623963915,
                0.12845772665624622,
                -3.150751364175931
            ]
        }
    ]
}