{
    "goal": {
        "global_pose": {
            "orientation": {
                "w": 0.7047431468963623,
                "x": -0.7094548344612122,
                "y": 0.0024358443915843964,
                "z": -0.0022348060738295317
            },
            "position": {
                "x": 0.6094750761985779,
                "y": 0.3671506643295288,
                "z": 0.19426114857196808
            }
        },
        "name": "move_to_magneteinheit_A"
    },
    "id": "BKPIECE_move_to_magneteinheit_A_118",
    "joint_names": [
        "shoulder_pan_joint",
        "shoulder_lift_joint",
        "elbow_joint",
        "wrist_1_joint",
        "wrist_2_joint",
        "wrist_3_joint"
    ],
    "metrics": {
        "cart_traj_len": 3.940072121528497,
        "distance_elbow_joint": 4.429712834990953,
        "distance_shoulder_lift_joint": 0.5203992140856026,
        "distance_shoulder_pan_joint": 3.4172512720351613,
        "distance_wrist_1_joint": 0.8524146865751142,
        "distance_wrist_2_joint": 2.585118719758703,
        "distance_wrist_3_joint": 2.891966652430437,
        "smoothness": 0.546593131457445,
        "time": 0.39962211200000003,
        "traj_len": 3.8336488336669508,
        "weighted_distance": 4.890636982139511
    },
    "planner": "BKPIECE",
    "start": {
        "state": {
            "elbow_joint": -1.919618573717145,
            "shoulder_lift_joint": -1.2443395971678275,
            "shoulder_pan_joint": 2.6996025300909787,
            "wrist_1_joint": -1.548550951253194,
            "wrist_2_joint": -1.5709469090946802,
            "wrist_3_joint": 0.4420197732051276
        }
    },
    "waypoints": [
        {
            "positions": [
                2.6996025300909787,
                -1.2443395971678275,
                -1.919618573717145,
                -1.548550951253194,
                -1.5709469090946802,
                0.4420197732051276
            ]
        },
        {
            "positions": [
                2.5872564863536818,
                -1.2489368537167875,
                -1.781469186053505,
                -1.5318927509014768,
                -1.5161242315185965,
                0.5074168023092662
            ]
        },
        {
            "positions": [
                2.4749104426163844,
                -1.2535341102657476,
                -1.6433197983898653,
                -1.5152345505497595,
                -1.461301553942513,
                0.5728138314134048
            ]
        },
        {
            "positions": [
                2.3625643988790874,
                -1.2581313668147076,
                -1.5051704107262254,
                -1.4985763501980423,
                -1.4064788763664295,
                0.6382108605175435
            ]
        },
        {
            "positions": [
                2.2502183551417905,
                -1.2627286233636679,
                -1.3670210230625854,
                -1.481918149846325,
                -1.351656198790346,
                0.7036078896216822
            ]
        },
        {
            "positions": [
                2.137872311404493,
                -1.267325879912628,
                -1.2288716353989457,
                -1.4652599494946077,
                -1.2968335212142623,
                0.7690049187258208
            ]
        },
        {
            "positions": [
                2.025526267667196,
                -1.271923136461588,
                -1.0907222477353058,
                -1.4486017491428904,
                -1.2420108436381787,
                0.8344019478299594
            ]
        },
        {
            "positions": [
                1.9131802239298992,
                -1.276520393010548,
                -0.9525728600716659,
                -1.4319435487911731,
                -1.187188166062095,
                0.8997989769340982
            ]
        },
        {
            "positions": [
                1.8008341801926022,
                -1.281117649559508,
                -0.8144234724080262,
                -1.4152853484394559,
                -1.1323654884860117,
                0.9651960060382367
            ]
        },
        {
            "positions": [
                1.688488136455305,
                -1.285714906108468,
                -0.6762740847443862,
                -1.3986271480877386,
                -1.0775428109099279,
                1.0305930351423753
            ]
        },
        {
            "positions": [
                1.5761420927180079,
                -1.290312162657428,
                -0.5381246970807463,
                -1.3819689477360213,
                -1.0227201333338445,
                1.095990064246514
            ]
        },
        {
            "positions": [
                1.463796048980711,
                -1.2949094192063881,
                -0.3999753094171066,
                -1.365310747384304,
                -0.9678974557577609,
                1.1613870933506525
            ]
        },
        {
            "positions": [
                1.3514500052434137,
                -1.2995066757553482,
                -0.26182592175346664,
                -1.3486525470325867,
                -0.9130747781816773,
                1.2267841224547913
            ]
        },
        {
            "positions": [
                1.2391039615061168,
                -1.3041039323043084,
                -0.12367653408982693,
                -1.3319943466808695,
                -0.8582521006055938,
                1.2921811515589299
            ]
        },
        {
            "positions": [
                1.1267579177688194,
                -1.3087011888532685,
                0.014472853573813227,
                -1.3153361463291522,
                -0.80342942302951,
                1.3575781806630687
            ]
        },
        {
            "positions": [
                1.0144118740315224,
                -1.3132984454022285,
                0.15262224123745294,
                -1.298677945977435,
                -0.7486067454534265,
                1.4229752097672073
            ]
        },
        {
            "positions": [
                0.9020658302942255,
                -1.3178957019511885,
                0.29077162890109265,
                -1.2820197456257176,
                -0.693784067877343,
                1.4883722388713458
            ]
        },
        {
            "positions": [
                0.7897197865569283,
                -1.3224929585001486,
                0.4289210165647328,
                -1.2653615452740004,
                -0.6389613903012593,
                1.5537692679754846
            ]
        },
        {
            "positions": [
                0.6773737428196314,
                -1.3270902150491086,
                0.5670704042283725,
                -1.248703344922283,
                -0.5841387127251758,
                1.619166297079623
            ]
        },
        {
            "positions": [
                0.5650276990823344,
                -1.3316874715980687,
                0.7052197918920122,
                -1.2320451445705658,
                -0.5293160351490922,
                1.6845633261837616
            ]
        },
        {
            "positions": [
                0.452681655345037,
                -1.336284728147029,
                0.8433691795556524,
                -1.2153869442188485,
                -0.4744933575730086,
                1.7499603552879004
            ]
        },
        {
            "positions": [
                0.34033561160774006,
                -1.340881984695989,
                0.9815185672192921,
                -1.1987287438671312,
                -0.419670679996925,
                1.815357384392039
            ]
        },
        {
            "positions": [
                0.2279895678704431,
                -1.345479241244949,
                1.1196679548829318,
                -1.182070543515414,
                -0.3648480024208416,
                1.8807544134961776
            ]
        },
        {
            "positions": [
                0.11564352413314571,
                -1.350076497793909,
                1.257817342546572,
                -1.1654123431636967,
                -0.310025324844758,
                1.9461514426003164
            ]
        },
        {
            "positions": [
                0.0032974803958488313,
                -1.354673754342869,
                1.3959667302102114,
                -1.1487541428119794,
                -0.2552026472686743,
                2.011548471704455
            ]
        },
        {
            "positions": [
                -0.030182069750248633,
                -1.3193534572891326,
                1.4887940082179782,
                -1.1358224045320071,
                -0.3047644796054936,
                2.1403803773975065
            ]
        },
        {
            "positions": [
                -0.0636616198963461,
                -1.2840331602353963,
                1.581621286225745,
                -1.1228906662520346,
                -0.3543263119423128,
                2.2692122830905586
            ]
        },
        {
            "positions": [
                -0.09714117004244356,
                -1.2487128631816597,
                1.6744485642335118,
                -1.1099589279720623,
                -0.403888144279132,
                2.39804418878361
            ]
        },
        {
            "positions": [
                -0.13062072018854104,
                -1.2133925661279235,
                1.7672758422412789,
                -1.0970271896920898,
                -0.45344997661595127,
                2.526876094476662
            ]
        },
        {
            "positions": [
                -0.16410027033463853,
                -1.178072269074187,
                1.8601031202490457,
                -1.0840954514121175,
                -0.5030118089527705,
                2.6557080001697138
            ]
        },
        {
            "positions": [
                -0.19757982048073597,
                -1.1427519720204506,
                1.9529303982568125,
                -1.071163713132145,
                -0.5525736412895897,
                2.784539905862766
            ]
        },
        {
            "positions": [
                -0.23105937062683346,
                -1.1074316749667141,
                2.0457576762645795,
                -1.0582319748521727,
                -0.6021354736264091,
                2.9133718115558174
            ]
        },
        {
            "positions": [
                -0.2645389207729309,
                -1.0721113779129778,
                2.1385849542723463,
                -1.0453002365722002,
                -0.6516973059632283,
                3.042203717248869
            ]
        },
        {
            "positions": [
                -0.2980184709190284,
                -1.0367910808592413,
                2.231412232280113,
                -1.0323684982922279,
                -0.7012591383000475,
                3.171035622941921
            ]
        },
        {
            "positions": [
                -0.228080092414836,
                -1.052154811430397,
                2.184965227447831,
                -0.9763297926898699,
                -0.5640394771498269,
                3.143877155826314
            ]
        },
        {
            "positions": [
                -0.1581417139106436,
                -1.0675185420015525,
                2.1385182226155486,
                -0.9202910870875118,
                -0.4268198159996063,
                3.1167186887107063
            ]
        },
        {
            "positions": [
                -0.0882033354064512,
                -1.082882272572708,
                2.0920712177832663,
                -0.8642523814851539,
                -0.2896001548493856,
                3.0895602215950992
            ]
        },
        {
            "positions": [
                -0.018264956902258822,
                -1.0982460031438634,
                2.045624212950984,
                -0.8082136758827959,
                -0.15238049369916506,
                3.062401754479492
            ]
        },
        {
            "positions": [
                0.05167342160193361,
                -1.113609733715019,
                1.9991772081187016,
                -0.7521749702804379,
                -0.015160832548944292,
                3.0352432873638846
            ]
        },
        {
            "positions": [
                0.12161180010612602,
                -1.1289734642861746,
                1.9527302032864193,
                -0.6961362646780799,
                0.12205882860127629,
                3.0080848202482775
            ]
        }
    ]
}{
    "goal": {
        "global_pose": {
            "orientation": {
                "w": 0.7047431468963623,
                "x": -0.7094548344612122,
                "y": 0.0024358443915843964,
                "z": -0.0022348060738295317
            },
            "position": {
                "x": 0.6094750761985779,
                "y": 0.3671506643295288,
                "z": 0.19426114857196808
            }
        },
        "name": "move_to_magneteinheit_A"
    },
    "id": "BKPIECE_move_to_magneteinheit_A_118",
    "joint_names": [
        "shoulder_pan_joint",
        "shoulder_lift_joint",
        "elbow_joint",
        "wrist_1_joint",
        "wrist_2_joint",
        "wrist_3_joint"
    ],
    "metrics": {
        "cart_traj_len": 1.203408602871598,
        "distance_elbow_joint": 0.059799216968693614,
        "distance_shoulder_lift_joint": 0.7521940139635162,
        "distance_shoulder_pan_joint": 1.241254201457778,
        "distance_wrist_1_joint": 0.8606419850931587,
        "distance_wrist_2_joint": 1.4735586018089115,
        "distance_wrist_3_joint": 4.289234149515012,
        "smoothness": 0.3448210855572998,
        "time": 0.223015475,
        "traj_len": 2.9456208460708364,
        "weighted_distance": 4.4259858850587355
    },
    "planner": "BKPIECE",
    "start": {
        "state": {
            "elbow_joint": 1.919643534880228,
            "shoulder_lift_joint": -1.8972525353963687,
            "shoulder_pan_joint": -1.1188672234189438,
            "wrist_1_joint": -1.5931878212786155,
            "wrist_2_joint": 1.5706036197970081,
            "wrist_3_joint": 1.118896926603594
        }
    },
    "waypoints": [
        {
            "positions": [
                -1.1188672234189438,
                -1.8972525353963687,
                1.919643534880228,
                -1.5931878212786155,
                1.5706036197970081,
                1.118896926603594
            ]
        },
        {
            "positions": [
                -1.0639279598297924,
                -1.863276898904782,
                1.9212927925744272,
                -1.5558952866434836,
                1.5044737892631754,
                0.9260147149388422
            ]
        },
        {
            "positions": [
                -1.0089886962406411,
                -1.8293012624131955,
                1.9229420502686263,
                -1.5186027520083516,
                1.4383439587293427,
                0.7331325032740904
            ]
        },
        {
            "positions": [
                -0.9540494326514897,
                -1.7953256259216088,
                1.9245913079628254,
                -1.4813102173732198,
                1.37221412819551,
                0.5402502916093387
            ]
        },
        {
            "positions": [
                -0.8991101690623383,
                -1.7613499894300222,
                1.9262405656570243,
                -1.4440176827380877,
                1.3060842976616773,
                0.34736807994458685
            ]
        },
        {
            "positions": [
                -0.844170905473187,
                -1.7273743529384356,
                1.9278898233512234,
                -1.406725148102956,
                1.2399544671278446,
                0.15448586827983513
            ]
        },
        {
            "positions": [
                -0.7892316418840355,
                -1.6933987164468491,
                1.9295390810454225,
                -1.3694326134678239,
                1.173824636594012,
                -0.0383963433849166
            ]
        },
        {
            "positions": [
                -0.7342923782948841,
                -1.6594230799552625,
                1.9311883387396216,
                -1.3321400788326918,
                1.1076948060601792,
                -0.23127855504966854
            ]
        },
        {
            "positions": [
                -0.6793531147057328,
                -1.6254474434636759,
                1.9328375964338207,
                -1.29484754419756,
                1.0415649755263465,
                -0.42416076671442027
            ]
        },
        {
            "positions": [
                -0.6244138511165813,
                -1.5914718069720892,
                1.9344868541280198,
                -1.2575550095624282,
                0.9754351449925137,
                -0.6170429783791722
            ]
        },
        {
            "positions": [
                -0.56947458752743,
                -1.5574961704805026,
                1.936136111822219,
                -1.2202624749272961,
                0.909305314458681,
                -0.8099251900439237
            ]
        },
        {
            "positions": [
                -0.5145353239382786,
                -1.523520533988916,
                1.9377853695164178,
                -1.182969940292164,
                0.8431754839248483,
                -1.0028074017086757
            ]
        },
        {
            "positions": [
                -0.45959606034912726,
                -1.4895448974973293,
                1.9394346272106169,
                -1.1456774056570322,
                0.7770456533910156,
                -1.1956896133734272
            ]
        },
        {
            "positions": [
                -0.4046567967599758,
                -1.4555692610057427,
                1.941083884904816,
                -1.1083848710219004,
                0.7109158228571828,
                -1.3885718250381796
            ]
        },
        {
            "positions": [
                -0.34971753317082444,
                -1.421593624514156,
                1.942733142599015,
                -1.0710923363867684,
                0.6447859923233502,
                -1.581454036702931
            ]
        },
        {
            "positions": [
                -0.2947782695816731,
                -1.3876179880225696,
                1.9443824002932142,
                -1.0337998017516363,
                0.5786561617895175,
                -1.7743362483676826
            ]
        },
        {
            "positions": [
                -0.23983900599252161,
                -1.3536423515309828,
                1.9460316579874133,
                -0.9965072671165045,
                0.5125263312556847,
                -1.9672184600324345
            ]
        },
        {
            "positions": [
                -0.18489974240337037,
                -1.3196667150393964,
                1.9476809156816124,
                -0.9592147324813726,
                0.446396500721852,
                -2.1601006716971867
            ]
        },
        {
            "positions": [
                -0.1299604788142189,
                -1.2856910785478095,
                1.9493301733758115,
                -0.9219221978462406,
                0.3802666701880193,
                -2.352982883361938
            ]
        },
        {
            "positions": [
                -0.07502121522506755,
                -1.251715442056223,
                1.9509794310700104,
                -0.8846296632111087,
                0.3141368396541866,
                -2.5458650950266897
            ]
        },
        {
            "positions": [
                -0.020081951635916084,
                -1.2177398055646365,
                1.9526286887642095,
                -0.8473371285759768,
                0.2480070091203539,
                -2.738747306691441
            ]
        },
        {
            "positions": [
                0.03485731195323538,
                -1.1837641690730498,
                1.9542779464584086,
                -0.8100445939408448,
                0.1818771785865212,
                -2.9316295183561936
            ]
        },
        {
            "positions": [
                0.08979657554238654,
                -1.1497885325814632,
                1.9559272041526077,
                -0.7727520593057129,
                0.11574734805268858,
                -3.124511730020945
            ]
        },
        {
            "positions": [
                0.12238697803883418,
                -1.1450585214328526,
                1.9794427518489217,
                -0.812958282425969,
                0.13444967811728037,
                -3.1703372229114177
            ]
        }
    ]
}