{
    "goal": {
        "global_pose": {
            "orientation": {
                "w": 0.7047431468963623,
                "x": -0.7094548344612122,
                "y": 0.0024358443915843964,
                "z": -0.0022348060738295317
            },
            "position": {
                "x": 0.6094750761985779,
                "y": 0.3671506643295288,
                "z": 0.19426114857196808
            }
        },
        "name": "move_to_magneteinheit_A"
    },
    "id": "BKPIECE_move_to_magneteinheit_A_141",
    "joint_names": [
        "shoulder_pan_joint",
        "shoulder_lift_joint",
        "elbow_joint",
        "wrist_1_joint",
        "wrist_2_joint",
        "wrist_3_joint"
    ],
    "metrics": {
        "cart_traj_len": 3.8012739334956325,
        "distance_elbow_joint": 3.906131576005647,
        "distance_shoulder_lift_joint": 0.9238804327996828,
        "distance_shoulder_pan_joint": 3.0934579973073544,
        "distance_wrist_1_joint": 1.2117948931546714,
        "distance_wrist_2_joint": 2.091445192270719,
        "distance_wrist_3_joint": 3.5657393482232003,
        "smoothness": 0.3553628682053413,
        "time": 0.243992972,
        "traj_len": 3.8460953498010517,
        "weighted_distance": 5.0226654499013845
    },
    "planner": "BKPIECE",
    "start": {
        "state": {
            "elbow_joint": -1.919618573717145,
            "shoulder_lift_joint": -1.2443395971678275,
            "shoulder_pan_joint": 2.6996025300909787,
            "wrist_1_joint": -1.548550951253194,
            "wrist_2_joint": -1.5709469090946802,
            "wrist_3_joint": 0.4420197732051276
        }
    },
    "waypoints": [
        {
            "positions": [
                2.6996025300909787,
                -1.2443395971678275,
                -1.919618573717145,
                -1.548550951253194,
                -1.5709469090946802,
                0.4420197732051276
            ]
        },
        {
            "positions": [
                2.597271634493398,
                -1.2470367019946023,
                -1.7979627010946977,
                -1.5197948925714242,
                -1.5248107270879458,
                0.35852458767223894
            ]
        },
        {
            "positions": [
                2.4949407388958176,
                -1.2497338068213772,
                -1.6763068284722504,
                -1.4910388338896543,
                -1.4786745450812115,
                0.27502940213935034
            ]
        },
        {
            "positions": [
                2.392609843298237,
                -1.252430911648152,
                -1.5546509558498032,
                -1.4622827752078844,
                -1.4325383630744772,
                0.19153421660646164
            ]
        },
        {
            "positions": [
                2.2902789477006564,
                -1.2551280164749268,
                -1.432995083227356,
                -1.4335267165261145,
                -1.386402181067743,
                0.10803903107357304
            ]
        },
        {
            "positions": [
                2.1879480521030756,
                -1.2578251213017018,
                -1.3113392106049087,
                -1.4047706578443446,
                -1.3402659990610086,
                0.024543845540684395
            ]
        },
        {
            "positions": [
                2.085617156505495,
                -1.2605222261284765,
                -1.1896833379824614,
                -1.3760145991625747,
                -1.2941298170542743,
                -0.05895133999220431
            ]
        },
        {
            "positions": [
                1.9832862609079145,
                -1.2632193309552513,
                -1.0680274653600141,
                -1.3472585404808048,
                -1.24799363504754,
                -0.1424465255250928
            ]
        },
        {
            "positions": [
                1.8809553653103337,
                -1.265916435782026,
                -0.9463715927375669,
                -1.318502481799035,
                -1.2018574530408057,
                -0.2259417110579815
            ]
        },
        {
            "positions": [
                1.7786244697127531,
                -1.268613540608801,
                -0.8247157201151196,
                -1.289746423117265,
                -1.1557212710340714,
                -0.3094368965908701
            ]
        },
        {
            "positions": [
                1.6762935741151723,
                -1.2713106454355758,
                -0.7030598474926724,
                -1.2609903644354952,
                -1.109585089027337,
                -0.3929320821237588
            ]
        },
        {
            "positions": [
                1.573962678517592,
                -1.2740077502623506,
                -0.5814039748702251,
                -1.2322343057537253,
                -1.0634489070206028,
                -0.4764272676566474
            ]
        },
        {
            "positions": [
                1.4716317829200112,
                -1.2767048550891256,
                -0.45974810224777785,
                -1.2034782470719554,
                -1.0173127250138685,
                -0.5599224531895362
            ]
        },
        {
            "positions": [
                1.3693008873224306,
                -1.2794019599159003,
                -0.3380922296253306,
                -1.1747221883901855,
                -0.9711765430071342,
                -0.6434176387224246
            ]
        },
        {
            "positions": [
                1.26696999172485,
                -1.282099064742675,
                -0.21643635700288333,
                -1.1459661297084156,
                -0.9250403610003999,
                -0.7269128242553131
            ]
        },
        {
            "positions": [
                1.1646390961272695,
                -1.28479616956945,
                -0.09478048438043629,
                -1.1172100710266457,
                -0.8789041789936657,
                -0.8104080097882018
            ]
        },
        {
            "positions": [
                1.0623082005296887,
                -1.2874932743962249,
                0.02687538824201119,
                -1.0884540123448758,
                -0.8327679969869313,
                -0.8939031953210905
            ]
        },
        {
            "positions": [
                0.9599773049321081,
                -1.2901903792229996,
                0.14853126086445845,
                -1.059697953663106,
                -0.786631814980197,
                -0.9773983808539792
            ]
        },
        {
            "positions": [
                0.8576464093345275,
                -1.2928874840497746,
                0.2701871334869057,
                -1.030941894981336,
                -0.7404956329734627,
                -1.0608935663868677
            ]
        },
        {
            "positions": [
                0.7553155137369469,
                -1.2955845888765494,
                0.39184300610935296,
                -1.0021858362995661,
                -0.6943594509667284,
                -1.1443887519197564
            ]
        },
        {
            "positions": [
                0.6529846181393659,
                -1.2982816937033241,
                0.5134988787318002,
                -0.9734297776177963,
                -0.648223268959994,
                -1.2278839374526451
            ]
        },
        {
            "positions": [
                0.5506537225417856,
                -1.300978798530099,
                0.6351547513542475,
                -0.9446737189360264,
                -0.6020870869532597,
                -1.3113791229855338
            ]
        },
        {
            "positions": [
                0.4483228269442052,
                -1.3036759033568739,
                0.7568106239766947,
                -0.9159176602542565,
                -0.5559509049465254,
                -1.3948743085184223
            ]
        },
        {
            "positions": [
                0.3459919313466244,
                -1.3063730081836487,
                0.878466496599142,
                -0.8871616015724866,
                -0.5098147229397911,
                -1.478369494051311
            ]
        },
        {
            "positions": [
                0.24366103574904363,
                -1.3090701130104234,
                1.0001223692215893,
                -0.8584055428907167,
                -0.4636785409330568,
                -1.5618646795842
            ]
        },
        {
            "positions": [
                0.14133014015146284,
                -1.3117672178371984,
                1.1217782418440365,
                -0.8296494842089468,
                -0.4175423589263225,
                -1.6453598651170882
            ]
        },
        {
            "positions": [
                0.03899924455388265,
                -1.3144643226639732,
                1.2434341144664838,
                -0.8008934255271769,
                -0.37140617691958816,
                -1.7288550506499771
            ]
        },
        {
            "positions": [
                0.01721582555867884,
                -1.2506660620207106,
                1.263624200713102,
                -0.7748177087533473,
                -0.2842732093827448,
                -1.8610828947805733
            ]
        },
        {
            "positions": [
                -0.004567593436524971,
                -1.1868678013774479,
                1.2838142869597202,
                -0.7487419919795177,
                -0.1971402418459014,
                -1.9933107389111695
            ]
        },
        {
            "positions": [
                -0.026351012431728785,
                -1.1230695407341853,
                1.3040043732063384,
                -0.7226662752056882,
                -0.11000727430905805,
                -2.1255385830417657
            ]
        },
        {
            "positions": [
                -0.04813443142693259,
                -1.0592712800909228,
                1.3241944594529567,
                -0.6965905584318586,
                -0.022874306772214636,
                -2.2577664271723616
            ]
        },
        {
            "positions": [
                -0.0699178504221364,
                -0.99547301944766,
                1.3443845456995749,
                -0.6705148416580291,
                0.06425866076462877,
                -2.389994271302958
            ]
        },
        {
            "positions": [
                -0.09170126941734022,
                -0.9316747588043974,
                1.364574631946193,
                -0.6444391248841995,
                0.15139162830147207,
                -2.522222115433554
            ]
        },
        {
            "positions": [
                -0.11348468841254403,
                -0.8678764981611348,
                1.3847647181928113,
                -0.6183634081103699,
                0.23852459583831548,
                -2.6544499595641504
            ]
        },
        {
            "positions": [
                -0.13526810740774783,
                -0.8040782375178721,
                1.4049548044394295,
                -0.5922876913365404,
                0.32565756337515894,
                -2.7866778036947464
            ]
        },
        {
            "positions": [
                -0.08355063544602243,
                -0.8727521619493593,
                1.521266444009244,
                -0.643394017984144,
                0.2866894194149828,
                -2.854086157959412
            ]
        },
        {
            "positions": [
                -0.031833163484297,
                -0.9414260863808466,
                1.6375780835790585,
                -0.6945003446317476,
                0.2477212754548067,
                -2.9214945122240774
            ]
        },
        {
            "positions": [
                0.019884308477428392,
                -1.0101000108123337,
                1.7538897231488728,
                -0.7456066712793511,
                0.20875313149463062,
                -2.9889028664887425
            ]
        },
        {
            "positions": [
                0.07160178043915383,
                -1.078773935243821,
                1.8702013627186873,
                -0.7967129979269547,
                0.16978498753445448,
                -3.056311220753408
            ]
        },
        {
            "positions": [
                0.12331925240087922,
                -1.1474478596753082,
                1.9865130022885018,
                -0.8478193245745583,
                0.1308168435742784,
                -3.1237195750180735
            ]
        }
    ]
}{
    "goal": {
        "global_pose": {
            "orientation": {
                "w": 0.7047431468963623,
                "x": -0.7094548344612122,
                "y": 0.0024358443915843964,
                "z": -0.0022348060738295317
            },
            "position": {
                "x": 0.6094750761985779,
                "y": 0.3671506643295288,
                "z": 0.19426114857196808
            }
        },
        "name": "move_to_magneteinheit_A"
    },
    "id": "BKPIECE_move_to_magneteinheit_A_141",
    "joint_names": [
        "shoulder_pan_joint",
        "shoulder_lift_joint",
        "elbow_joint",
        "wrist_1_joint",
        "wrist_2_joint",
        "wrist_3_joint"
    ],
    "metrics": {
        "cart_traj_len": 1.2302803041120856,
        "distance_elbow_joint": 0.07909934658890339,
        "distance_shoulder_lift_joint": 0.7654941238688757,
        "distance_shoulder_pan_joint": 1.2420746170904173,
        "distance_wrist_1_joint": 0.8964743343630036,
        "distance_wrist_2_joint": 1.4435528037358318,
        "distance_wrist_3_joint": 4.349954975617752,
        "smoothness": 0.09059745397374087,
        "time": 0.292583319,
        "traj_len": 2.962541172923135,
        "weighted_distance": 4.451582560236205
    },
    "planner": "BKPIECE",
    "start": {
        "state": {
            "elbow_joint": 1.919643534880228,
            "shoulder_lift_joint": -1.8972525353963687,
            "shoulder_pan_joint": -1.1188672234189438,
            "wrist_1_joint": -1.5931878212786155,
            "wrist_2_joint": 1.5706036197970081,
            "wrist_3_joint": 1.118896926603594
        }
    },
    "waypoints": [
        {
            "positions": [
                -1.1188672234189438,
                -1.8972525353963687,
                1.919643534880228,
                -1.5931878212786155,
                1.5706036197970081,
                1.118896926603594
            ]
        },
        {
            "positions": [
                -1.0627696450455333,
                -1.8629384890200742,
                1.9187481657045287,
                -1.553246862861222,
                1.5070378662195232,
                0.9246397652772272
            ]
        },
        {
            "positions": [
                -1.006672066672123,
                -1.8286244426437799,
                1.9178527965288292,
                -1.5133059044438284,
                1.4434721126420382,
                0.7303826039508605
            ]
        },
        {
            "positions": [
                -0.9505744882987124,
                -1.7943103962674853,
                1.9169574273531298,
                -1.473364946026435,
                1.3799063590645533,
                0.5361254426244939
            ]
        },
        {
            "positions": [
                -0.8944769099253019,
                -1.759996349891191,
                1.9160620581774304,
                -1.4334239876090415,
                1.316340605487068,
                0.3418682812981271
            ]
        },
        {
            "positions": [
                -0.8383793315518915,
                -1.7256823035148965,
                1.915166689001731,
                -1.393483029191648,
                1.2527748519095832,
                0.14761111997176046
            ]
        },
        {
            "positions": [
                -0.782281753178481,
                -1.6913682571386022,
                1.9142713198260317,
                -1.3535420707742545,
                1.1892090983320982,
                -0.04664604135460615
            ]
        },
        {
            "positions": [
                -0.7261841748050706,
                -1.6570542107623076,
                1.9133759506503323,
                -1.313601112356861,
                1.1256433447546133,
                -0.24090320268097298
            ]
        },
        {
            "positions": [
                -0.67008659643166,
                -1.622740164386013,
                1.9124805814746328,
                -1.2736601539394674,
                1.062077591177128,
                -0.4351603640073398
            ]
        },
        {
            "positions": [
                -0.6139890180582496,
                -1.5884261180097186,
                1.9115852122989334,
                -1.2337191955220739,
                0.9985118375996431,
                -0.6294175253337067
            ]
        },
        {
            "positions": [
                -0.5578914396848391,
                -1.5541120716334242,
                1.910689843123234,
                -1.1937782371046806,
                0.9349460840221583,
                -0.823674686660073
            ]
        },
        {
            "positions": [
                -0.5017938613114287,
                -1.51979802525713,
                1.9097944739475345,
                -1.153837278687287,
                0.8713803304446732,
                -1.0179318479864399
            ]
        },
        {
            "positions": [
                -0.4456962829380182,
                -1.4854839788808354,
                1.908899104771835,
                -1.1138963202698935,
                0.8078145768671883,
                -1.2121890093128063
            ]
        },
        {
            "positions": [
                -0.38959870456460766,
                -1.4511699325045408,
                1.9080037355961357,
                -1.0739553618525,
                0.7442488232897032,
                -1.4064461706391735
            ]
        },
        {
            "positions": [
                -0.3335011261911973,
                -1.4168558861282465,
                1.9071083664204362,
                -1.0340144034351066,
                0.6806830697122183,
                -1.60070333196554
            ]
        },
        {
            "positions": [
                -0.27740354781778687,
                -1.3825418397519522,
                1.9062129972447368,
                -0.9940734450177131,
                0.6171173161347333,
                -1.7949604932919063
            ]
        },
        {
            "positions": [
                -0.2213059694443763,
                -1.3482277933756577,
                1.9053176280690374,
                -0.9541324866003196,
                0.5535515625572482,
                -1.9892176546182736
            ]
        },
        {
            "positions": [
                -0.16520839107096585,
                -1.3139137469993631,
                1.9044222588933382,
                -0.914191528182926,
                0.4899858089797633,
                -2.18347481594464
            ]
        },
        {
            "positions": [
                -0.10911081269755529,
                -1.2795997006230686,
                1.9035268897176387,
                -0.8742505697655325,
                0.4264200554022781,
                -2.377731977271007
            ]
        },
        {
            "positions": [
                -0.05301323432414495,
                -1.245285654246774,
                1.9026315205419393,
                -0.8343096113481391,
                0.36285430182479317,
                -2.571989138597374
            ]
        },
        {
            "positions": [
                0.0030843440492656082,
                -1.21097160787048,
                1.9017361513662399,
                -0.7943686529307457,
                0.29928854824730844,
                -2.76624629992374
            ]
        },
        {
            "positions": [
                0.05918192242267617,
                -1.1766575614941854,
                1.9008407821905404,
                -0.754427694513352,
                0.23572279466982327,
                -2.9605034612501067
            ]
        },
        {
            "positions": [
                0.1152795007960865,
                -1.142343515117891,
                1.899945413014841,
                -0.7144867360959586,
                0.1721570410923383,
                -3.1547606225764735
            ]
        },
        {
            "positions": [
                0.12320739367147357,
                -1.131758411527493,
                1.9593466377383573,
                -0.7322599852763053,
                0.1270508160611763,
                -3.231058049014158
            ]
        }
    ]
}