{
    "goal": {
        "global_pose": {
            "orientation": {
                "w": 0.7047431468963623,
                "x": -0.7094548344612122,
                "y": 0.0024358443915843964,
                "z": -0.0022348060738295317
            },
            "position": {
                "x": 0.6094750761985779,
                "y": 0.3671506643295288,
                "z": 0.19426114857196808
            }
        },
        "name": "move_to_magneteinheit_A"
    },
    "id": "BKPIECE_move_to_magneteinheit_A_34",
    "joint_names": [
        "shoulder_pan_joint",
        "shoulder_lift_joint",
        "elbow_joint",
        "wrist_1_joint",
        "wrist_2_joint",
        "wrist_3_joint"
    ],
    "metrics": {
        "cart_traj_len": 3.360802498104105,
        "distance_elbow_joint": 3.8796532035591755,
        "distance_shoulder_lift_joint": 0.7788754687579236,
        "distance_shoulder_pan_joint": 2.7799618339028243,
        "distance_wrist_1_joint": 1.4010449357820043,
        "distance_wrist_2_joint": 2.541602318002497,
        "distance_wrist_3_joint": 3.680056265261556,
        "smoothness": 0.2890692642296508,
        "time": 0.19835654400000002,
        "traj_len": 3.880875419962097,
        "weighted_distance": 5.134584093144603
    },
    "planner": "BKPIECE",
    "start": {
        "state": {
            "elbow_joint": -1.919618573717145,
            "shoulder_lift_joint": -1.2443395971678275,
            "shoulder_pan_joint": 2.6996025300909787,
            "wrist_1_joint": -1.548550951253194,
            "wrist_2_joint": -1.5709469090946802,
            "wrist_3_joint": 0.4420197732051276
        }
    },
    "waypoints": [
        {
            "positions": [
                2.6996025300909787,
                -1.2443395971678275,
                -1.919618573717145,
                -1.548550951253194,
                -1.5709469090946802,
                0.4420197732051276
            ]
        },
        {
            "positions": [
                2.599058371255352,
                -1.2549934755758057,
                -1.791433769102707,
                -1.5140576363136489,
                -1.5053264985832355,
                0.39572100521223585
            ]
        },
        {
            "positions": [
                2.498514212419725,
                -1.2656473539837838,
                -1.6632489644882689,
                -1.4795643213741037,
                -1.439706088071791,
                0.3494222372193441
            ]
        },
        {
            "positions": [
                2.397970053584098,
                -1.276301232391762,
                -1.5350641598738308,
                -1.4450710064345587,
                -1.3740856775603463,
                0.3031234692264524
            ]
        },
        {
            "positions": [
                2.2974258947484714,
                -1.2869551107997401,
                -1.4068793552593928,
                -1.4105776914950134,
                -1.3084652670489016,
                0.2568247012335606
            ]
        },
        {
            "positions": [
                2.1968817359128447,
                -1.2976089892077183,
                -1.2786945506449547,
                -1.3760843765554682,
                -1.242844856537457,
                0.21052593324066887
            ]
        },
        {
            "positions": [
                2.0963375770772177,
                -1.3082628676156967,
                -1.1505097460305167,
                -1.3415910616159232,
                -1.1772244460260124,
                0.16422716524777714
            ]
        },
        {
            "positions": [
                1.9957934182415908,
                -1.3189167460236748,
                -1.0223249414160787,
                -1.307097746676378,
                -1.1116040355145678,
                0.11792839725488535
            ]
        },
        {
            "positions": [
                1.895249259405964,
                -1.329570624431653,
                -0.8941401368016406,
                -1.2726044317368328,
                -1.0459836250031231,
                0.07162962926199368
            ]
        },
        {
            "positions": [
                1.7947051005703372,
                -1.3402245028396311,
                -0.7659553321872026,
                -1.2381111167972876,
                -0.9803632144916785,
                0.025330861269101945
            ]
        },
        {
            "positions": [
                1.6941609417347103,
                -1.3508783812476093,
                -0.6377705275727645,
                -1.2036178018577424,
                -0.9147428039802339,
                -0.020967906723789842
            ]
        },
        {
            "positions": [
                1.5936167828990835,
                -1.3615322596555874,
                -0.5095857229583265,
                -1.1691244869181974,
                -0.8491223934687893,
                -0.06726667471668152
            ]
        },
        {
            "positions": [
                1.4930726240634566,
                -1.3721861380635656,
                -0.38140091834388845,
                -1.1346311719786522,
                -0.7835019829573446,
                -0.1135654427095733
            ]
        },
        {
            "positions": [
                1.3925284652278298,
                -1.3828400164715438,
                -0.25321611372945063,
                -1.100137857039107,
                -0.7178815724459001,
                -0.15986421070246498
            ]
        },
        {
            "positions": [
                1.291984306392203,
                -1.393493894879522,
                -0.12503130911501215,
                -1.0656445420995617,
                -0.6522611619344553,
                -0.20616297869535688
            ]
        },
        {
            "positions": [
                1.1914401475565761,
                -1.4041477732875,
                0.0031534954994256736,
                -1.0311512271600167,
                -0.5866407514230108,
                -0.25246174668824856
            ]
        },
        {
            "positions": [
                1.0908959887209493,
                -1.4148016516954782,
                0.13133830011386372,
                -0.9966579122204715,
                -0.5210203409115661,
                -0.29876051468114023
            ]
        },
        {
            "positions": [
                0.9903518298853224,
                -1.4254555301034566,
                0.259523104728302,
                -0.9621645972809263,
                -0.4553999304001215,
                -0.345059282674032
            ]
        },
        {
            "positions": [
                0.8898076710496956,
                -1.4361094085114345,
                0.3877079093427398,
                -0.9276712823413812,
                -0.3897795198886769,
                -0.3913580506669237
            ]
        },
        {
            "positions": [
                0.7892635122140688,
                -1.446763286919413,
                0.5158927139571776,
                -0.8931779674018361,
                -0.32415910937723225,
                -0.4376568186598155
            ]
        },
        {
            "positions": [
                0.6887193533784419,
                -1.457417165327391,
                0.6440775185716159,
                -0.8586846524622909,
                -0.2585386988657876,
                -0.48395558665270727
            ]
        },
        {
            "positions": [
                0.5881751945428153,
                -1.4680710437353692,
                0.7722623231860541,
                -0.8241913375227456,
                -0.192918288354343,
                -0.5302543546455989
            ]
        },
        {
            "positions": [
                0.48763103570718824,
                -1.4787249221433474,
                0.900447127800492,
                -0.7896980225832005,
                -0.12729787784289837,
                -0.5765531226384906
            ]
        },
        {
            "positions": [
                0.3870868768715612,
                -1.4893788005513255,
                1.0286319324149302,
                -0.7552047076436553,
                -0.06167746733145374,
                -0.6228518906313825
            ]
        },
        {
            "positions": [
                0.28654271803593445,
                -1.5000326789593037,
                1.1568167370293683,
                -0.7207113927041102,
                0.0039429431799909015,
                -0.6691506586242741
            ]
        },
        {
            "positions": [
                0.24762691528913358,
                -1.4400769529169886,
                1.2269495103731733,
                -0.6733568294240274,
                0.09177263925635946,
                -0.6973501102593374
            ]
        },
        {
            "positions": [
                0.2087111125423327,
                -1.3801212268746734,
                1.2970822837169784,
                -0.6260022661439447,
                0.179602335332728,
                -0.7255495618944007
            ]
        },
        {
            "positions": [
                0.1697953097955318,
                -1.320165500832358,
                1.3672150570607835,
                -0.5786477028638619,
                0.2674320314090966,
                -0.753749013529464
            ]
        },
        {
            "positions": [
                0.13087950704873094,
                -1.260209774790043,
                1.4373478304045884,
                -0.5312931395837792,
                0.35526172748546514,
                -0.7819484651645272
            ]
        },
        {
            "positions": [
                0.09196370430193004,
                -1.2002540487477278,
                1.5074806037483934,
                -0.48393857630369636,
                0.4430914235618338,
                -0.8101479167995904
            ]
        },
        {
            "positions": [
                0.05304790155512917,
                -1.1402983227054126,
                1.5776133770921985,
                -0.4365840130236136,
                0.5309211196382023,
                -0.8383473684346537
            ]
        },
        {
            "positions": [
                0.04901268131436966,
                -1.1500618437526964,
                1.6071217217831635,
                -0.46908720593282016,
                0.4782978306379413,
                -1.0681839197050085
            ]
        },
        {
            "positions": [
                0.04497746107361015,
                -1.15982536479998,
                1.6366300664741287,
                -0.5015903988420267,
                0.42567454163768026,
                -1.298020470975363
            ]
        },
        {
            "positions": [
                0.040942240832850633,
                -1.1695888858472638,
                1.6661384111650936,
                -0.5340935917512334,
                0.37305125263741923,
                -1.5278570222457177
            ]
        },
        {
            "positions": [
                0.036907020592091125,
                -1.1793524068945476,
                1.6956467558560586,
                -0.56659678466044,
                0.3204279636371582,
                -1.7576935735160726
            ]
        },
        {
            "positions": [
                0.03287180035133161,
                -1.1891159279418313,
                1.7251551005470238,
                -0.5990999775696465,
                0.2678046746368972,
                -1.987530124786427
            ]
        },
        {
            "positions": [
                0.028836580110572094,
                -1.198879448989115,
                1.7546634452379888,
                -0.6316031704788532,
                0.2151813856366362,
                -2.217366676056782
            ]
        },
        {
            "positions": [
                0.02480135986981258,
                -1.2086429700363988,
                1.784171789928954,
                -0.6641063633880597,
                0.16255809663637516,
                -2.4472032273271367
            ]
        },
        {
            "positions": [
                0.02076613962905307,
                -1.2184064910836825,
                1.813680134619919,
                -0.6966095562972663,
                0.10993480763611413,
                -2.677039778597491
            ]
        },
        {
            "positions": [
                0.05447462077601951,
                -1.189959870305587,
                1.8624649663606228,
                -0.7062937077235234,
                0.11618413339195612,
                -2.864038683083803
            ]
        },
        {
            "positions": [
                0.08818310192298595,
                -1.1615132495274916,
                1.9112497981013268,
                -0.7159778591497804,
                0.12243345914779812,
                -3.0510375875701157
            ]
        },
        {
            "positions": [
                0.12189158306995239,
                -1.133066628749396,
                1.9600346298420306,
                -0.7256620105760375,
                0.1286827849036401,
                -3.2380364920564277
            ]
        }
    ]
}{
    "goal": {
        "global_pose": {
            "orientation": {
                "w": 0.7047431468963623,
                "x": -0.7094548344612122,
                "y": 0.0024358443915843964,
                "z": -0.0022348060738295317
            },
            "position": {
                "x": 0.6094750761985779,
                "y": 0.3671506643295288,
                "z": 0.19426114857196808
            }
        },
        "name": "move_to_magneteinheit_A"
    },
    "id": "BKPIECE_move_to_magneteinheit_A_34",
    "joint_names": [
        "shoulder_pan_joint",
        "shoulder_lift_joint",
        "elbow_joint",
        "wrist_1_joint",
        "wrist_2_joint",
        "wrist_3_joint"
    ],
    "metrics": {
        "cart_traj_len": 1.2042097460390853,
        "distance_elbow_joint": 0.04909084930418506,
        "distance_shoulder_lift_joint": 0.7584330205013545,
        "distance_shoulder_pan_joint": 1.241302728497189,
        "distance_wrist_1_joint": 0.8969749089521084,
        "distance_wrist_2_joint": 1.4320236051767408,
        "distance_wrist_3_joint": 4.31980511484094,
        "smoothness": 0.17040435160263914,
        "time": 0.23725052700000002,
        "traj_len": 2.9491744992917113,
        "weighted_distance": 4.434663343601546
    },
    "planner": "BKPIECE",
    "start": {
        "state": {
            "elbow_joint": 1.919643534880228,
            "shoulder_lift_joint": -1.8972525353963687,
            "shoulder_pan_joint": -1.1188672234189438,
            "wrist_1_joint": -1.5931878212786155,
            "wrist_2_joint": 1.5706036197970081,
            "wrist_3_joint": 1.118896926603594
        }
    },
    "waypoints": [
        {
            "positions": [
                -1.1188672234189438,
                -1.8972525353963687,
                1.919643534880228,
                -1.5931878212786155,
                1.5706036197970081,
                1.118896926603594
            ]
        },
        {
            "positions": [
                -1.063877082655145,
                -1.8640595903584627,
                1.9206220186749385,
                -1.5538719939556018,
                1.5060375999961322,
                0.9253945265995251
            ]
        },
        {
            "positions": [
                -1.008886941891346,
                -1.8308666453205567,
                1.921600502469649,
                -1.5145561666325884,
                1.4414715801952562,
                0.7318921265954564
            ]
        },
        {
            "positions": [
                -0.953896801127547,
                -1.7976737002826504,
                1.9225789862643594,
                -1.4752403393095748,
                1.37690556039438,
                0.5383897265913877
            ]
        },
        {
            "positions": [
                -0.8989066603637481,
                -1.7644807552447443,
                1.9235574700590699,
                -1.4359245119865611,
                1.312339540593504,
                0.3448873265873189
            ]
        },
        {
            "positions": [
                -0.8439165195999492,
                -1.7312878102068383,
                1.9245359538537803,
                -1.3966086846635477,
                1.2477735207926282,
                0.1513849265832502
            ]
        },
        {
            "positions": [
                -0.7889263788361502,
                -1.6980948651689323,
                1.9255144376484907,
                -1.357292857340534,
                1.183207500991752,
                -0.04211747342081851
            ]
        },
        {
            "positions": [
                -0.7339362380723513,
                -1.664901920131026,
                1.9264929214432012,
                -1.3179770300175204,
                1.118641481190876,
                -0.23561987342488733
            ]
        },
        {
            "positions": [
                -0.6789460973085524,
                -1.63170897509312,
                1.9274714052379116,
                -1.278661202694507,
                1.05407546139,
                -0.42912227342895615
            ]
        },
        {
            "positions": [
                -0.6239559565447534,
                -1.598516030055214,
                1.928449889032622,
                -1.2393453753714934,
                0.989509441589124,
                -0.622624673433025
            ]
        },
        {
            "positions": [
                -0.5689658157809545,
                -1.5653230850173079,
                1.9294283728273325,
                -1.20002954804848,
                0.9249434217882481,
                -0.8161270734370936
            ]
        },
        {
            "positions": [
                -0.5139756750171556,
                -1.5321301399794018,
                1.9304068566220427,
                -1.1607137207254663,
                0.860377401987372,
                -1.0096294734411624
            ]
        },
        {
            "positions": [
                -0.45898553425335664,
                -1.4989371949414956,
                1.9313853404167531,
                -1.1213978934024529,
                0.795811382186496,
                -1.203131873445231
            ]
        },
        {
            "positions": [
                -0.4039953934895577,
                -1.4657442499035895,
                1.9323638242114636,
                -1.082082066079439,
                0.73124536238562,
                -1.3966342734493
            ]
        },
        {
            "positions": [
                -0.3490052527257588,
                -1.4325513048656835,
                1.933342308006174,
                -1.0427662387564256,
                0.6666793425847439,
                -1.5901366734533686
            ]
        },
        {
            "positions": [
                -0.29401511196195995,
                -1.3993583598277775,
                1.9343207918008845,
                -1.0034504114334122,
                0.602113322783868,
                -1.7836390734574372
            ]
        },
        {
            "positions": [
                -0.2390249711981609,
                -1.3661654147898714,
                1.935299275595595,
                -0.9641345841103984,
                0.537547302982992,
                -1.9771414734615063
            ]
        },
        {
            "positions": [
                -0.18403483043436197,
                -1.3329724697519651,
                1.9362777593903053,
                -0.924818756787385,
                0.47298128318211585,
                -2.1706438734655746
            ]
        },
        {
            "positions": [
                -0.12904468967056293,
                -1.2997795247140589,
                1.9372562431850158,
                -0.8855029294643714,
                0.4084152633812399,
                -2.364146273469644
            ]
        },
        {
            "positions": [
                -0.0740545489067641,
                -1.266586579676153,
                1.9382347269797262,
                -0.8461871021413578,
                0.34384924358036395,
                -2.5576486734737127
            ]
        },
        {
            "positions": [
                -0.019064408142965172,
                -1.2333936346382468,
                1.9392132107744366,
                -0.8068712748183443,
                0.279283223779488,
                -2.7511510734777813
            ]
        },
        {
            "positions": [
                0.03592573262083376,
                -1.2002006896003408,
                1.940191694569147,
                -0.7675554474953307,
                0.21471720397861183,
                -2.94465347348185
            ]
        },
        {
            "positions": [
                0.09091587338463264,
                -1.1670077445624347,
                1.9411701783638575,
                -0.7282396201723171,
                0.15015118417773596,
                -3.1381558734859185
            ]
        },
        {
            "positions": [
                0.12243550507824495,
                -1.1388195148950142,
                1.9687343841844132,
                -0.7602663280181272,
                0.13858001462026742,
                -3.200908188237346
            ]
        }
    ]
}