{
    "goal": {
        "global_pose": {
            "orientation": {
                "w": 0.5084816217422485,
                "x": -0.49083608388900757,
                "y": 0.5182115435600281,
                "z": -0.4816462993621826
            },
            "position": {
                "x": 0.5540239810943604,
                "y": 0.030875300988554955,
                "z": 0.16403168439865112
            }
        },
        "name": "move_to_storage_A"
    },
    "id": "BKPIECE_move_to_storage_A_81",
    "joint_names": [
        "shoulder_pan_joint",
        "shoulder_lift_joint",
        "elbow_joint",
        "wrist_1_joint",
        "wrist_2_joint",
        "wrist_3_joint"
    ],
    "metrics": {
        "cart_traj_len": 0.3534919808485217,
        "distance_elbow_joint": 0.4516480116661885,
        "distance_shoulder_lift_joint": 0.23194296019600458,
        "distance_shoulder_pan_joint": 0.4616455846761005,
        "distance_wrist_1_joint": 0.2527554266175115,
        "distance_wrist_2_joint": 1.1012035906168585,
        "distance_wrist_3_joint": 0.10632469703314218,
        "smoothness": 8.881784232165597e-16,
        "time": 0.145593012,
        "traj_len": 1.614162405337767,
        "weighted_distance": 2.042578929223167
    },
    "planner": "BKPIECE",
    "start": {
        "state": {
            "elbow_joint": 1.9715477243005601,
            "shoulder_lift_joint": -1.1394853015351272,
            "shoulder_pan_joint": 0.12281154014795169,
            "wrist_1_joint": -0.7804696478968182,
            "wrist_2_joint": 0.12958648046900423,
            "wrist_3_joint": -3.192491284697111
        }
    },
    "waypoints": [
        {
            "positions": [
                0.12281154014795169,
                -1.1394853015351272,
                1.9715477243005601,
                -0.7804696478968182,
                0.12958648046900423,
                -3.192491284697111
            ]
        },
        {
            "positions": [
                0.05686217090850876,
                -1.1726200101345563,
                2.036068868824301,
                -0.8165775659850341,
                0.28690127912855545,
                -3.177302042263805
            ]
        },
        {
            "positions": [
                -0.009087198330934174,
                -1.2057547187339857,
                2.1005900133480426,
                -0.8526854840732501,
                0.4442160777881066,
                -3.162112799830499
            ]
        },
        {
            "positions": [
                -0.07503656757037709,
                -1.2388894273334148,
                2.1651111578717837,
                -0.888793402161466,
                0.6015308764476579,
                -3.146923557397193
            ]
        },
        {
            "positions": [
                -0.14098593680982002,
                -1.2720241359328441,
                2.229632302395525,
                -0.9249013202496819,
                0.758845675107209,
                -3.131734314963887
            ]
        },
        {
            "positions": [
                -0.20693530604926297,
                -1.3051588445322733,
                2.294153446919266,
                -0.9610092383378979,
                0.9161604737667602,
                -3.116545072530581
            ]
        },
        {
            "positions": [
                -0.27288467528870586,
                -1.3382935531317024,
                2.358674591443007,
                -0.9971171564261136,
                1.0734752724263115,
                -3.1013558300972752
            ]
        },
        {
            "positions": [
                -0.3388340445281488,
                -1.3714282617311317,
                2.4231957359667486,
                -1.0332250745143297,
                1.2307900710858626,
                -3.086166587663969
            ]
        }
    ]
}