{
    "goal": {
        "global_pose": {
            "orientation": {
                "w": 0.5084816217422485,
                "x": -0.49083608388900757,
                "y": 0.5182115435600281,
                "z": -0.4816462993621826
            },
            "position": {
                "x": 0.5540239810943604,
                "y": 0.030875300988554955,
                "z": 0.16403168439865112
            }
        },
        "name": "move_to_storage_A"
    },
    "id": "BKPIECE_move_to_storage_A_124",
    "joint_names": [
        "shoulder_pan_joint",
        "shoulder_lift_joint",
        "elbow_joint",
        "wrist_1_joint",
        "wrist_2_joint",
        "wrist_3_joint"
    ],
    "metrics": {
        "cart_traj_len": 0.3525954406380632,
        "distance_elbow_joint": 0.45223341709781684,
        "distance_shoulder_lift_joint": 0.23564890000455607,
        "distance_shoulder_pan_joint": 0.45871639929137115,
        "distance_wrist_1_joint": 0.251537980505656,
        "distance_wrist_2_joint": 1.1088002042412128,
        "distance_wrist_3_joint": 0.1062157441596403,
        "smoothness": 6.661338200497456e-16,
        "time": 0.19425636999999998,
        "traj_len": 1.616524866898203,
        "weighted_distance": 2.0459526676749884
    },
    "planner": "BKPIECE",
    "start": {
        "state": {
            "elbow_joint": 1.9715477243005601,
            "shoulder_lift_joint": -1.1394853015351272,
            "shoulder_pan_joint": 0.12281154014795169,
            "wrist_1_joint": -0.7804696478968182,
            "wrist_2_joint": 0.12958648046900423,
            "wrist_3_joint": -3.192491284697111
        }
    },
    "waypoints": [
        {
            "positions": [
                0.12281154014795169,
                -1.1394853015351272,
                1.9715477243005601,
                -0.7804696478968182,
                0.12958648046900423,
                -3.192491284697111
            ]
        },
        {
            "positions": [
                0.0572806259634701,
                -1.1731494301072065,
                2.0361524981716768,
                -0.8164036451119119,
                0.28798650964632033,
                -3.1773176069600195
            ]
        },
        {
            "positions": [
                -0.008250288221011495,
                -1.206813558679286,
                2.1007572720427934,
                -0.8523376423270056,
                0.44638653882363644,
                -3.1621439292229283
            ]
        },
        {
            "positions": [
                -0.07378120240549309,
                -1.2404776872513654,
                2.16536204591391,
                -0.8882716395420993,
                0.6047865680009525,
                -3.1469702514858366
            ]
        },
        {
            "positions": [
                -0.13931211658997467,
                -1.274141815823445,
                2.2299668197850266,
                -0.924205636757193,
                0.7631865971782686,
                -3.1317965737487454
            ]
        },
        {
            "positions": [
                -0.20484303077445626,
                -1.3078059443955243,
                2.2945715936561437,
                -0.9601396339722867,
                0.9215866263555849,
                -3.1166228960116538
            ]
        },
        {
            "positions": [
                -0.27037394495893785,
                -1.3414700729676037,
                2.3591763675272603,
                -0.9960736311873805,
                1.0799866555329007,
                -3.1014492182745625
            ]
        },
        {
            "positions": [
                -0.33590485914341944,
                -1.3751342015396832,
                2.423781141398377,
                -1.0320076284024742,
                1.238386684710217,
                -3.086275540537471
            ]
        }
    ]
}