{
    "goal": {
        "global_pose": {
            "orientation": {
                "w": 0.5084816217422485,
                "x": -0.49083608388900757,
                "y": 0.5182115435600281,
                "z": -0.4816462993621826
            },
            "position": {
                "x": 0.5540239810943604,
                "y": 0.030875300988554955,
                "z": 0.16403168439865112
            }
        },
        "name": "move_to_storage_A"
    },
    "id": "BKPIECE_move_to_storage_A_17",
    "joint_names": [
        "shoulder_pan_joint",
        "shoulder_lift_joint",
        "elbow_joint",
        "wrist_1_joint",
        "wrist_2_joint",
        "wrist_3_joint"
    ],
    "metrics": {
        "cart_traj_len": 0.3528962647560122,
        "distance_elbow_joint": 0.4482505423082599,
        "distance_shoulder_lift_joint": 0.23606148063368315,
        "distance_shoulder_pan_joint": 0.4632617879769111,
        "distance_wrist_1_joint": 0.23643930985703066,
        "distance_wrist_2_joint": 1.0909857319820708,
        "distance_wrist_3_joint": 0.09930551481238936,
        "smoothness": 8.881784267329941e-16,
        "time": 0.136426796,
        "traj_len": 1.604463887898492,
        "weighted_distance": 2.024929736814151
    },
    "planner": "BKPIECE",
    "start": {
        "state": {
            "elbow_joint": 1.9715477243005601,
            "shoulder_lift_joint": -1.1394853015351272,
            "shoulder_pan_joint": 0.12281154014795169,
            "wrist_1_joint": -0.7804696478968182,
            "wrist_2_joint": 0.12958648046900423,
            "wrist_3_joint": -3.192491284697111
        }
    },
    "waypoints": [
        {
            "positions": [
                0.12281154014795169,
                -1.1394853015351272,
                1.9715477243005601,
                -0.7804696478968182,
                0.12958648046900423,
                -3.192491284697111
            ]
        },
        {
            "positions": [
                0.056631284722678685,
                -1.173208370197082,
                2.035583516058883,
                -0.8142466921621082,
                0.2854415850378715,
                -3.1783047825810558
            ]
        },
        {
            "positions": [
                -0.00954897070259432,
                -1.2069314388590366,
                2.0996193078172056,
                -0.8480237364273984,
                0.44129668960673873,
                -3.164118280465
            ]
        },
        {
            "positions": [
                -0.07572922612786732,
                -1.2406545075209914,
                2.1636550995755286,
                -0.8818007806926884,
                0.5971517941756059,
                -3.1499317783489444
            ]
        },
        {
            "positions": [
                -0.14190948155314032,
                -1.2743775761829461,
                2.2276908913338516,
                -0.9155778249579786,
                0.7530068987444732,
                -3.1357452762328886
            ]
        },
        {
            "positions": [
                -0.20808973697841338,
                -1.3081006448449009,
                2.2917266830921745,
                -0.9493548692232686,
                0.9088620033133405,
                -3.121558774116833
            ]
        },
        {
            "positions": [
                -0.2742699924036863,
                -1.3418237135068556,
                2.355762474850497,
                -0.9831319134885588,
                1.0647171078822077,
                -3.1073722720007773
            ]
        },
        {
            "positions": [
                -0.3404502478289594,
                -1.3755467821688103,
                2.41979826660882,
                -1.0169089577538488,
                1.220572212451075,
                -3.093185769884722
            ]
        }
    ]
}