{
    "goal": {
        "global_pose": {
            "orientation": {
                "w": 0.5084816217422485,
                "x": -0.49083608388900757,
                "y": 0.5182115435600281,
                "z": -0.4816462993621826
            },
            "position": {
                "x": 0.5540239810943604,
                "y": 0.030875300988554955,
                "z": 0.16403168439865112
            }
        },
        "name": "move_to_storage_A"
    },
    "id": "BKPIECE_move_to_storage_A_2",
    "joint_names": [
        "shoulder_pan_joint",
        "shoulder_lift_joint",
        "elbow_joint",
        "wrist_1_joint",
        "wrist_2_joint",
        "wrist_3_joint"
    ],
    "metrics": {
        "cart_traj_len": 0.35391477480942735,
        "distance_elbow_joint": 0.4507541984197818,
        "distance_shoulder_lift_joint": 0.2353138396796126,
        "distance_shoulder_pan_joint": 0.4640722704854672,
        "distance_wrist_1_joint": 0.24346501700486523,
        "distance_wrist_2_joint": 1.095527578561169,
        "distance_wrist_3_joint": 0.09098079491662991,
        "smoothness": 8.881784197001252e-16,
        "time": 0.14768083,
        "traj_len": 1.606273233004748,
        "weighted_distance": 2.0251093512368215
    },
    "planner": "BKPIECE",
    "start": {
        "state": {
            "elbow_joint": 1.9715477243005601,
            "shoulder_lift_joint": -1.1394853015351272,
            "shoulder_pan_joint": 0.12281154014795169,
            "wrist_1_joint": -0.7804696478968182,
            "wrist_2_joint": 0.12958648046900423,
            "wrist_3_joint": -3.192491284697111
        }
    },
    "waypoints": [
        {
            "positions": [
                0.12281154014795169,
                -1.1394853015351272,
                1.9715477243005601,
                -0.7804696478968182,
                0.12958648046900423,
                -3.192491284697111
            ]
        },
        {
            "positions": [
                0.05651550150717066,
                -1.1731015643465004,
                2.0359411812176718,
                -0.8152503646117989,
                0.2860904202634569,
                -3.1794940282804496
            ]
        },
        {
            "positions": [
                -0.009780537133610365,
                -1.2067178271578736,
                2.1003346381347834,
                -0.8500310813267796,
                0.4425943600579096,
                -3.1664967718637884
            ]
        },
        {
            "positions": [
                -0.07607657577439138,
                -1.2403340899692468,
                2.164728095051895,
                -0.8848117980417604,
                0.5990982998523623,
                -3.153499515447127
            ]
        },
        {
            "positions": [
                -0.1423726144151724,
                -1.27395035278062,
                2.2291215519690066,
                -0.9195925147567412,
                0.7556022396468149,
                -3.1405022590304656
            ]
        },
        {
            "positions": [
                -0.20866865305595345,
                -1.3075666155919934,
                2.2935150088861187,
                -0.9543732314717219,
                0.9121061794412677,
                -3.127505002613804
            ]
        },
        {
            "positions": [
                -0.27496469169673443,
                -1.3411828784033666,
                2.3579084658032303,
                -0.9891539481867027,
                1.0686101192357205,
                -3.114507746197143
            ]
        },
        {
            "positions": [
                -0.34126073033751547,
                -1.3747991412147398,
                2.422301922720342,
                -1.0239346649016834,
                1.225114059030173,
                -3.1015104897804813
            ]
        }
    ]
}