{
    "goal": {
        "global_pose": {
            "orientation": {
                "w": 0.7047431468963623,
                "x": -0.7094548344612122,
                "y": 0.0024358443915843964,
                "z": -0.0022348060738295317
            },
            "position": {
                "x": 0.6094750761985779,
                "y": 0.3671506643295288,
                "z": 0.19426114857196808
            }
        },
        "name": "move_to_magneteinheit_A"
    },
    "id": "BKPIECE_move_to_magneteinheit_A_113",
    "joint_names": [
        "shoulder_pan_joint",
        "shoulder_lift_joint",
        "elbow_joint",
        "wrist_1_joint",
        "wrist_2_joint",
        "wrist_3_joint"
    ],
    "metrics": {
        "cart_traj_len": 3.0644749667898887,
        "distance_elbow_joint": 3.924445957150202,
        "distance_shoulder_lift_joint": 0.4615360185729591,
        "distance_shoulder_pan_joint": 2.750531095859216,
        "distance_wrist_1_joint": 3.5059341481354847,
        "distance_wrist_2_joint": 1.4309767832813625,
        "distance_wrist_3_joint": 0.5303335992700575,
        "smoothness": 0.08958417766473359,
        "time": 0.263385872,
        "traj_len": 3.5501771226615273,
        "weighted_distance": 4.31292658553635
    },
    "planner": "BKPIECE",
    "start": {
        "state": {
            "elbow_joint": -1.919618573717145,
            "shoulder_lift_joint": -1.2443395971678275,
            "shoulder_pan_joint": 2.6996025300909787,
            "wrist_1_joint": -1.548550951253194,
            "wrist_2_joint": -1.5709469090946802,
            "wrist_3_joint": 0.4420197732051276
        }
    },
    "waypoints": [
        {
            "positions": [
                2.6996025300909787,
                -1.2443395971678275,
                -1.919618573717145,
                -1.548550951253194,
                -1.5709469090946802,
                0.4420197732051276
            ]
        },
        {
            "positions": [
                2.596732513048821,
                -1.242150670376826,
                -1.7965575171902795,
                -1.4443245421410864,
                -1.5255743055554571,
                0.43257884706167704
            ]
        },
        {
            "positions": [
                2.4938624960066638,
                -1.2399617435858246,
                -1.6734964606634142,
                -1.3400981330289787,
                -1.4802017020162341,
                0.4231379209182265
            ]
        },
        {
            "positions": [
                2.390992478964506,
                -1.237772816794823,
                -1.550435404136549,
                -1.2358717239168713,
                -1.4348290984770113,
                0.41369699477477595
            ]
        },
        {
            "positions": [
                2.288122461922349,
                -1.2355838900038214,
                -1.4273743476096834,
                -1.1316453148047636,
                -1.3894564949377883,
                0.4042560686313254
            ]
        },
        {
            "positions": [
                2.185252444880191,
                -1.2333949632128198,
                -1.304313291082818,
                -1.027418905692656,
                -1.3440838913985653,
                0.39481514248787486
            ]
        },
        {
            "positions": [
                2.082382427838034,
                -1.2312060364218185,
                -1.1812522345559526,
                -0.9231924965805484,
                -1.2987112878593425,
                0.3853742163444243
            ]
        },
        {
            "positions": [
                1.9795124107958761,
                -1.229017109630817,
                -1.058191178029087,
                -0.8189660874684406,
                -1.2533386843201195,
                0.37593329020097377
            ]
        },
        {
            "positions": [
                1.8766423937537189,
                -1.2268281828398153,
                -0.9351301215022217,
                -0.714739678356333,
                -1.2079660807808965,
                0.3664923640575232
            ]
        },
        {
            "positions": [
                1.7737723767115614,
                -1.224639256048814,
                -0.8120690649753564,
                -0.6105132692442254,
                -1.1625934772416735,
                0.3570514379140727
            ]
        },
        {
            "positions": [
                1.6709023596694037,
                -1.2224503292578124,
                -0.6890080084484909,
                -0.5062868601321178,
                -1.1172208737024505,
                0.3476105117706221
            ]
        },
        {
            "positions": [
                1.5680323426272464,
                -1.2202614024668108,
                -0.5659469519216256,
                -0.4020604510200101,
                -1.0718482701632277,
                0.3381695856271716
            ]
        },
        {
            "positions": [
                1.465162325585089,
                -1.2180724756758092,
                -0.4428858953947603,
                -0.29783404190790264,
                -1.0264756666240047,
                0.328728659483721
            ]
        },
        {
            "positions": [
                1.3622923085429313,
                -1.2158835488848079,
                -0.3198248388678946,
                -0.19360763279579474,
                -0.9811030630847817,
                0.3192877333402705
            ]
        },
        {
            "positions": [
                1.2594222915007738,
                -1.2136946220938063,
                -0.1967637823410291,
                -0.08938122368368706,
                -0.9357304595455587,
                0.3098468071968199
            ]
        },
        {
            "positions": [
                1.1565522744586165,
                -1.2115056953028047,
                -0.07370272581416404,
                0.014845185428420393,
                -0.8903578560063358,
                0.3004058810533694
            ]
        },
        {
            "positions": [
                1.0536822574164588,
                -1.2093167685118031,
                0.04935833071270146,
                0.11907159454052807,
                -0.8449852524671129,
                0.2909649549099188
            ]
        },
        {
            "positions": [
                0.9508122403743013,
                -1.2071278417208018,
                0.17241938723956696,
                0.22329800365263575,
                -0.7996126489278899,
                0.28152402876646826
            ]
        },
        {
            "positions": [
                0.8479422233321441,
                -1.2049389149298002,
                0.29548044376643223,
                0.3275244127647432,
                -0.754240045388667,
                0.2720831026230177
            ]
        },
        {
            "positions": [
                0.7450722062899864,
                -1.2027499881387986,
                0.4185415002932975,
                0.4317508218768509,
                -0.708867441849444,
                0.26264217647956717
            ]
        },
        {
            "positions": [
                0.6422021892478287,
                -1.2005610613477973,
                0.5416025568201632,
                0.5359772309889586,
                -0.6634948383102209,
                0.2532012503361166
            ]
        },
        {
            "positions": [
                0.5393321722056714,
                -1.1983721345567957,
                0.6646636133470285,
                0.640203640101066,
                -0.618122234770998,
                0.2437603241926661
            ]
        },
        {
            "positions": [
                0.43646215516351416,
                -1.1961832077657941,
                0.7877246698738938,
                0.7444300492131739,
                -0.5727496312317751,
                0.23431939804921553
            ]
        },
        {
            "positions": [
                0.33359213812135646,
                -1.1939942809747925,
                0.9107857264007595,
                0.8486564583252814,
                -0.527377027692552,
                0.224878471905765
            ]
        },
        {
            "positions": [
                0.2307221210791992,
                -1.1918053541837912,
                1.0338467829276243,
                0.9528828674373888,
                -0.4820044241533292,
                0.21543754576231444
            ]
        },
        {
            "positions": [
                0.1278521040370415,
                -1.1896164273927896,
                1.1569078394544903,
                1.057109276549497,
                -0.43663182061410627,
                0.2059966196188639
            ]
        },
        {
            "positions": [
                0.08201693143535926,
                -1.1661744801714553,
                1.243641712766683,
                1.1493232739929722,
                -0.41170660819936034,
                0.178633656872347
            ]
        },
        {
            "positions": [
                0.03618175883367702,
                -1.1427325329501212,
                1.3303755860788757,
                1.2415372714364472,
                -0.38678139578461435,
                0.1512706941258301
            ]
        },
        {
            "positions": [
                0.038864002127004305,
                -1.090475089022993,
                1.4269003762311148,
                1.3508500889335866,
                -0.3506356764917332,
                0.11636915207140468
            ]
        },
        {
            "positions": [
                0.04154624542033159,
                -1.0382176450958647,
                1.5234251663833538,
                1.4601629064307258,
                -0.3144899571988521,
                0.08146761001697925
            ]
        },
        {
            "positions": [
                0.04422848871365888,
                -0.9859602011687365,
                1.619949956535593,
                1.5694757239278652,
                -0.278344237905971,
                0.04656606796255383
            ]
        },
        {
            "positions": [
                0.046910732006986165,
                -0.9337027572416082,
                1.716474746687832,
                1.6787885414250043,
                -0.24219851861308986,
                0.011664525908128387
            ]
        },
        {
            "positions": [
                0.04959297530031345,
                -0.88144531331448,
                1.812999536840071,
                1.7881013589221437,
                -0.20605279932020876,
                -0.023237016146297015
            ]
        },
        {
            "positions": [
                0.058402788810521605,
                -0.8273557367068952,
                1.9126159762987005,
                1.8989637640646118,
                -0.1697626908728503,
                -0.05907290415806721
            ]
        },
        {
            "positions": [
                0.12329208343559163,
                -0.7828035785948684,
                2.004827383433056,
                1.9573831968822906,
                -0.13997012581331755,
                -0.029831982251204404
            ]
        }
    ]
}{
    "goal": {
        "global_pose": {
            "orientation": {
                "w": 0.7047431468963623,
                "x": -0.7094548344612122,
                "y": 0.0024358443915843964,
                "z": -0.0022348060738295317
            },
            "position": {
                "x": 0.6094750761985779,
                "y": 0.3671506643295288,
                "z": 0.19426114857196808
            }
        },
        "name": "move_to_magneteinheit_A"
    },
    "id": "BKPIECE_move_to_magneteinheit_A_113",
    "joint_names": [
        "shoulder_pan_joint",
        "shoulder_lift_joint",
        "elbow_joint",
        "wrist_1_joint",
        "wrist_2_joint",
        "wrist_3_joint"
    ],
    "metrics": {
        "cart_traj_len": 1.2514204598388767,
        "distance_elbow_joint": 0.09267044367748922,
        "distance_shoulder_lift_joint": 1.1125280978650531,
        "distance_shoulder_pan_joint": 1.2409983452948279,
        "distance_wrist_1_joint": 3.5893817949707847,
        "distance_wrist_2_joint": 1.694016973351389,
        "distance_wrist_3_joint": 1.2063090465854862,
        "smoothness": 2.5905204008662365e-16,
        "time": 0.201431582,
        "traj_len": 2.9892983627843224,
        "weighted_distance": 4.078225295792053
    },
    "planner": "BKPIECE",
    "start": {
        "state": {
            "elbow_joint": 1.919643534880228,
            "shoulder_lift_joint": -1.8972525353963687,
            "shoulder_pan_joint": -1.1188672234189438,
            "wrist_1_joint": -1.5931878212786155,
            "wrist_2_joint": 1.5706036197970081,
            "wrist_3_joint": 1.118896926603594
        }
    },
    "waypoints": [
        {
            "positions": [
                -1.1188672234189438,
                -1.8972525353963687,
                1.919643534880228,
                -1.5931878212786155,
                1.5706036197970081,
                1.118896926603594
            ]
        },
        {
            "positions": [
                -1.0649107736235166,
                -1.8488817485326707,
                1.9236726846053362,
                -1.4371277432364074,
                1.4969507079121651,
                1.0664487071868336
            ]
        },
        {
            "positions": [
                -1.0109543238280891,
                -1.8005109616689727,
                1.9277018343304446,
                -1.2810676651941995,
                1.423297796027322,
                1.0140004877700735
            ]
        },
        {
            "positions": [
                -0.9569978740326619,
                -1.752140174805275,
                1.9317309840555528,
                -1.1250075871519913,
                1.349644884142479,
                0.9615522683533132
            ]
        },
        {
            "positions": [
                -0.9030414242372347,
                -1.703769387941577,
                1.935760133780661,
                -0.9689475091097833,
                1.275991972257636,
                0.9091040489365529
            ]
        },
        {
            "positions": [
                -0.8490849744418074,
                -1.655398601077879,
                1.9397892835057693,
                -0.8128874310675753,
                1.2023390603727933,
                0.8566558295197926
            ]
        },
        {
            "positions": [
                -0.7951285246463801,
                -1.607027814214181,
                1.9438184332308774,
                -0.6568273530253673,
                1.12868614848795,
                0.8042076101030324
            ]
        },
        {
            "positions": [
                -0.7411720748509527,
                -1.558657027350483,
                1.9478475829559856,
                -0.5007672749831591,
                1.0550332366031072,
                0.7517593906862721
            ]
        },
        {
            "positions": [
                -0.6872156250555255,
                -1.510286240486785,
                1.951876732681094,
                -0.3447071969409512,
                0.9813803247182642,
                0.6993111712695118
            ]
        },
        {
            "positions": [
                -0.6332591752600981,
                -1.461915453623087,
                1.9559058824062021,
                -0.18864711889874308,
                0.9077274128334211,
                0.6468629518527516
            ]
        },
        {
            "positions": [
                -0.5793027254646709,
                -1.4135446667593892,
                1.9599350321313103,
                -0.03258704085653519,
                0.8340745009485782,
                0.5944147324359913
            ]
        },
        {
            "positions": [
                -0.5253462756692435,
                -1.3651738798956912,
                1.9639641818564186,
                0.12347303718567293,
                0.7604215890637351,
                0.5419665130192309
            ]
        },
        {
            "positions": [
                -0.4713898258738163,
                -1.3168030930319932,
                1.9679933315815268,
                0.2795331152278808,
                0.6867686771788921,
                0.4895182936024708
            ]
        },
        {
            "positions": [
                -0.41743337607838904,
                -1.2684323061682954,
                1.972022481306635,
                0.43559319327008894,
                0.6131157652940492,
                0.43707007418571053
            ]
        },
        {
            "positions": [
                -0.3634769262829616,
                -1.2200615193045972,
                1.9760516310317433,
                0.5916532713122973,
                0.5394628534092061,
                0.38462185476895017
            ]
        },
        {
            "positions": [
                -0.30952047648753434,
                -1.1716907324408994,
                1.9800807807568515,
                0.7477133493545052,
                0.46580994152436306,
                0.3321736353521899
            ]
        },
        {
            "positions": [
                -0.2555640266921071,
                -1.1233199455772014,
                1.9841099304819598,
                0.9037734273967131,
                0.39215702963952026,
                0.27972541593542966
            ]
        },
        {
            "positions": [
                -0.20160757689667985,
                -1.0749491587135034,
                1.988139080207068,
                1.059833505438921,
                0.31850411775467724,
                0.2272771965186694
            ]
        },
        {
            "positions": [
                -0.1476511271012524,
                -1.0265783718498054,
                1.9921682299321761,
                1.2158935834811293,
                0.244851205869834,
                0.17482897710190903
            ]
        },
        {
            "positions": [
                -0.09369467730582515,
                -0.9782075849861075,
                1.9961973796572845,
                1.3719536615233372,
                0.1711982939849912,
                0.12238075768514878
            ]
        },
        {
            "positions": [
                -0.039738227510397905,
                -0.9298367981224095,
                2.0002265293823926,
                1.528013739565545,
                0.09754538210014818,
                0.06993253826838863
            ]
        },
        {
            "positions": [
                0.014218222285029336,
                -0.8814660112587116,
                2.004255679107501,
                1.684073817607753,
                0.02389247021530516,
                0.017484318851628267
            ]
        },
        {
            "positions": [
                0.0681746720804568,
                -0.8330952243950136,
                2.008284828832609,
                1.8401338956499613,
                -0.04976044166953786,
                -0.0349639005651321
            ]
        },
        {
            "positions": [
                0.12213112187588399,
                -0.7847244375313155,
                2.0123139785577173,
                1.9961939736921692,
                -0.12341335355438093,
                -0.08741211998189231
            ]
        }
    ]
}