{
    "goal": {
        "global_pose": {
            "orientation": {
                "w": 0.5084816217422485,
                "x": -0.49083608388900757,
                "y": 0.5182115435600281,
                "z": -0.4816462993621826
            },
            "position": {
                "x": 0.5540239810943604,
                "y": 0.030875300988554955,
                "z": 0.16403168439865112
            }
        },
        "name": "move_to_storage_A"
    },
    "id": "BKPIECE_move_to_storage_A_119",
    "joint_names": [
        "shoulder_pan_joint",
        "shoulder_lift_joint",
        "elbow_joint",
        "wrist_1_joint",
        "wrist_2_joint",
        "wrist_3_joint"
    ],
    "metrics": {
        "cart_traj_len": 0.35342629358908695,
        "distance_elbow_joint": 0.45418296920906975,
        "distance_shoulder_lift_joint": 0.23257473047284738,
        "distance_shoulder_pan_joint": 0.4637615397483385,
        "distance_wrist_1_joint": 0.2627993895748254,
        "distance_wrist_2_joint": 1.0921060075158566,
        "distance_wrist_3_joint": 0.09280523065800006,
        "smoothness": 8.881784197001252e-16,
        "time": 0.215866162,
        "traj_len": 1.6119025613165758,
        "weighted_distance": 2.0343907504669843
    },
    "planner": "BKPIECE",
    "start": {
        "state": {
            "elbow_joint": 1.9715477243005601,
            "shoulder_lift_joint": -1.1394853015351272,
            "shoulder_pan_joint": 0.12281154014795169,
            "wrist_1_joint": -0.7804696478968182,
            "wrist_2_joint": 0.12958648046900423,
            "wrist_3_joint": -3.192491284697111
        }
    },
    "waypoints": [
        {
            "positions": [
                0.12281154014795169,
                -1.1394853015351272,
                1.9715477243005601,
                -0.7804696478968182,
                0.12958648046900423,
                -3.192491284697111
            ]
        },
        {
            "positions": [
                0.056559891612474766,
                -1.1727102630312483,
                2.0364310056161417,
                -0.8180124178360789,
                0.2856016243998409,
                -3.179233394603111
            ]
        },
        {
            "positions": [
                -0.009691756923002157,
                -1.2059352245273693,
                2.1013142869317227,
                -0.8555551877753397,
                0.44161676833067753,
                -3.1659755045091114
            ]
        },
        {
            "positions": [
                -0.0759434054584791,
                -1.2391601860234904,
                2.1661975682473043,
                -0.8930979577146004,
                0.5976319122615141,
                -3.1527176144151112
            ]
        },
        {
            "positions": [
                -0.142195053993956,
                -1.2723851475196113,
                2.2310808495628858,
                -0.9306407276538613,
                0.7536470561923508,
                -3.139459724321111
            ]
        },
        {
            "positions": [
                -0.20844670252943293,
                -1.3056101090157324,
                2.2959641308784673,
                -0.9681834975931221,
                0.9096622001231875,
                -3.126201834227111
            ]
        },
        {
            "positions": [
                -0.27469835106490986,
                -1.3388350705118535,
                2.3608474121940484,
                -1.0057262675323828,
                1.0656773440540241,
                -3.1129439441331113
            ]
        },
        {
            "positions": [
                -0.3409499996003868,
                -1.3720600320079746,
                2.42573069350963,
                -1.0432690374716436,
                1.2216924879848607,
                -3.099686054039111
            ]
        }
    ]
}