{
    "goal": {
        "global_pose": {
            "orientation": {
                "w": 0.5084816217422485,
                "x": -0.49083608388900757,
                "y": 0.5182115435600281,
                "z": -0.4816462993621826
            },
            "position": {
                "x": 0.5540239810943604,
                "y": 0.030875300988554955,
                "z": 0.16403168439865112
            }
        },
        "name": "move_to_storage_A"
    },
    "id": "BKPIECE_move_to_storage_A_76",
    "joint_names": [
        "shoulder_pan_joint",
        "shoulder_lift_joint",
        "elbow_joint",
        "wrist_1_joint",
        "wrist_2_joint",
        "wrist_3_joint"
    ],
    "metrics": {
        "cart_traj_len": 0.3524868785581511,
        "distance_elbow_joint": 0.4519697779438321,
        "distance_shoulder_lift_joint": 0.2347768414461302,
        "distance_shoulder_pan_joint": 0.46184116731728003,
        "distance_wrist_1_joint": 0.2484637900388914,
        "distance_wrist_2_joint": 1.0943629366534022,
        "distance_wrist_3_joint": 0.10718423005256028,
        "smoothness": 2.2204460668324854e-16,
        "time": 0.20427686,
        "traj_len": 1.6120169798895099,
        "weighted_distance": 2.038576446996656
    },
    "planner": "BKPIECE",
    "start": {
        "state": {
            "elbow_joint": 1.9715477243005601,
            "shoulder_lift_joint": -1.1394853015351272,
            "shoulder_pan_joint": 0.12281154014795169,
            "wrist_1_joint": -0.7804696478968182,
            "wrist_2_joint": 0.12958648046900423,
            "wrist_3_joint": -3.192491284697111
        }
    },
    "waypoints": [
        {
            "positions": [
                0.12281154014795169,
                -1.1394853015351272,
                1.9715477243005601,
                -0.7804696478968182,
                0.12958648046900423,
                -3.192491284697111
            ]
        },
        {
            "positions": [
                0.056834230531197405,
                -1.1730248503131457,
                2.0361148354353933,
                -0.8159644750452312,
                0.2859240428480617,
                -3.1771792518324595
            ]
        },
        {
            "positions": [
                -0.00914307908555688,
                -1.2065643990911643,
                2.1006819465702264,
                -0.8514593021936443,
                0.44226160522711916,
                -3.1618672189678083
            ]
        },
        {
            "positions": [
                -0.07512038870231118,
                -1.2401039478691829,
                2.1652490577050596,
                -0.8869541293420573,
                0.5985991676061766,
                -3.1465551861031567
            ]
        },
        {
            "positions": [
                -0.14109769831906543,
                -1.2736434966472014,
                2.2298161688398928,
                -0.9224489564904704,
                0.7549367299852341,
                -3.1312431532385054
            ]
        },
        {
            "positions": [
                -0.20707500793581973,
                -1.3071830454252202,
                2.294383279974726,
                -0.9579437836388834,
                0.9112742923642916,
                -3.115931120373854
            ]
        },
        {
            "positions": [
                -0.27305231755257403,
                -1.3407225942032388,
                2.358950391109559,
                -0.9934386107872966,
                1.0676118547433489,
                -3.1006190875092026
            ]
        },
        {
            "positions": [
                -0.33902962716932833,
                -1.3742621429812574,
                2.423517502244392,
                -1.0289334379357096,
                1.2239494171224066,
                -3.085307054644551
            ]
        }
    ]
}