{
    "goal": {
        "global_pose": {
            "orientation": {
                "w": 0.5084816217422485,
                "x": -0.49083608388900757,
                "y": 0.5182115435600281,
                "z": -0.4816462993621826
            },
            "position": {
                "x": 0.5540239810943604,
                "y": 0.030875300988554955,
                "z": 0.16403168439865112
            }
        },
        "name": "move_to_storage_A"
    },
    "id": "BKPIECE_move_to_storage_A_86",
    "joint_names": [
        "shoulder_pan_joint",
        "shoulder_lift_joint",
        "elbow_joint",
        "wrist_1_joint",
        "wrist_2_joint",
        "wrist_3_joint"
    ],
    "metrics": {
        "cart_traj_len": 0.3532758804810516,
        "distance_elbow_joint": 0.45221538930934724,
        "distance_shoulder_lift_joint": 0.23593991926197555,
        "distance_shoulder_pan_joint": 0.4641568169269091,
        "distance_wrist_1_joint": 0.24600869023148053,
        "distance_wrist_2_joint": 1.091073461007293,
        "distance_wrist_3_joint": 0.10600735028102282,
        "smoothness": 2.4424906382069766e-15,
        "time": 0.11469058700000001,
        "traj_len": 1.6110250237094483,
        "weighted_distance": 2.035804135671909
    },
    "planner": "BKPIECE",
    "start": {
        "state": {
            "elbow_joint": 1.9715477243005601,
            "shoulder_lift_joint": -1.1394853015351272,
            "shoulder_pan_joint": 0.12281154014795169,
            "wrist_1_joint": -0.7804696478968182,
            "wrist_2_joint": 0.12958648046900423,
            "wrist_3_joint": -3.192491284697111
        }
    },
    "waypoints": [
        {
            "positions": [
                0.12281154014795169,
                -1.1394853015351272,
                1.9715477243005601,
                -0.7804696478968182,
                0.12958648046900423,
                -3.192491284697111
            ]
        },
        {
            "positions": [
                0.05650342344410754,
                -1.1731910042868379,
                2.036149922773324,
                -0.8156137465013154,
                0.28545411775576035,
                -3.177347377514108
            ]
        },
        {
            "positions": [
                -0.00980469325973661,
                -1.2068967070385488,
                2.100752121246088,
                -0.8507578451058126,
                0.4413217550425165,
                -3.1622034703311046
            ]
        },
        {
            "positions": [
                -0.07611280996358076,
                -1.2406024097902595,
                2.1653543197188516,
                -0.8859019437103098,
                0.5971893923292726,
                -3.1470595631481015
            ]
        },
        {
            "positions": [
                -0.1424209266674249,
                -1.2743081125419704,
                2.2299565181916154,
                -0.921046042314807,
                0.7530570296160287,
                -3.131915655965098
            ]
        },
        {
            "positions": [
                -0.20872904337126907,
                -1.308013815293681,
                2.2945587166643797,
                -0.9561901409193043,
                0.908924666902785,
                -3.116771748782095
            ]
        },
        {
            "positions": [
                -0.2750371600751132,
                -1.3417195180453918,
                2.3591609151371435,
                -0.9913342395238014,
                1.0647923041895409,
                -3.1016278415990914
            ]
        },
        {
            "positions": [
                -0.3413452767789574,
                -1.3754252207971027,
                2.4237631136099074,
                -1.0264783381282987,
                1.2206599414762973,
                -3.0864839344160884
            ]
        }
    ]
}