{
    "goal": {
        "global_pose": {
            "orientation": {
                "w": 0.7047431468963623,
                "x": -0.7094548344612122,
                "y": 0.0024358443915843964,
                "z": -0.0022348060738295317
            },
            "position": {
                "x": 0.6094750761985779,
                "y": 0.3671506643295288,
                "z": 0.19426114857196808
            }
        },
        "name": "move_to_magneteinheit_A"
    },
    "id": "BKPIECE_move_to_magneteinheit_A_47",
    "joint_names": [
        "shoulder_pan_joint",
        "shoulder_lift_joint",
        "elbow_joint",
        "wrist_1_joint",
        "wrist_2_joint",
        "wrist_3_joint"
    ],
    "metrics": {
        "cart_traj_len": 3.473182847203042,
        "distance_elbow_joint": 4.37364832657186,
        "distance_shoulder_lift_joint": 1.4250061289556641,
        "distance_shoulder_pan_joint": 3.313795297900219,
        "distance_wrist_1_joint": 3.4947418925299827,
        "distance_wrist_2_joint": 2.271852889240827,
        "distance_wrist_3_joint": 1.279437691610838,
        "smoothness": 0.6214884750948146,
        "time": 0.284335761,
        "traj_len": 4.019761463919146,
        "weighted_distance": 4.948126149544074
    },
    "planner": "BKPIECE",
    "start": {
        "state": {
            "elbow_joint": -1.919618573717145,
            "shoulder_lift_joint": -1.2443395971678275,
            "shoulder_pan_joint": 2.6996025300909787,
            "wrist_1_joint": -1.548550951253194,
            "wrist_2_joint": -1.5709469090946802,
            "wrist_3_joint": 0.4420197732051276
        }
    },
    "waypoints": [
        {
            "positions": [
                2.6996025300909787,
                -1.2443395971678275,
                -1.919618573717145,
                -1.548550951253194,
                -1.5709469090946802,
                0.4420197732051276
            ]
        },
        {
            "positions": [
                2.5818331983345324,
                -1.261907390087541,
                -1.7547312318983832,
                -1.4979215057845325,
                -1.5443524376898246,
                0.4280118559840488
            ]
        },
        {
            "positions": [
                2.464063866578086,
                -1.2794751830072544,
                -1.5898438900796217,
                -1.4472920603158712,
                -1.5177579662849692,
                0.41400393876297
            ]
        },
        {
            "positions": [
                2.3462945348216393,
                -1.297042975926968,
                -1.4249565482608602,
                -1.3966626148472097,
                -1.4911634948801136,
                0.3999960215418912
            ]
        },
        {
            "positions": [
                2.228525203065193,
                -1.3146107688466815,
                -1.2600692064420984,
                -1.3460331693785483,
                -1.4645690234752582,
                0.3859881043208124
            ]
        },
        {
            "positions": [
                2.1107558713087466,
                -1.332178561766395,
                -1.0951818646233367,
                -1.2954037239098868,
                -1.4379745520704026,
                0.3719801870997336
            ]
        },
        {
            "positions": [
                1.9929865395523003,
                -1.3497463546861084,
                -0.9302945228045751,
                -1.2447742784412252,
                -1.4113800806655472,
                0.35797226987865477
            ]
        },
        {
            "positions": [
                1.875217207795854,
                -1.367314147605822,
                -0.7654071809858136,
                -1.194144832972564,
                -1.3847856092606916,
                0.34396435265757597
            ]
        },
        {
            "positions": [
                1.7574478760394074,
                -1.3848819405255355,
                -0.6005198391670519,
                -1.1435153875039026,
                -1.3581911378558362,
                0.32995643543649716
            ]
        },
        {
            "positions": [
                1.639678544282961,
                -1.402449733445249,
                -0.43563249734829035,
                -1.092885942035241,
                -1.3315966664509806,
                0.31594851821541836
            ]
        },
        {
            "positions": [
                1.5219092125265146,
                -1.4200175263649624,
                -0.2707451555295286,
                -1.0422564965665795,
                -1.3050021950461252,
                0.3019406009943395
            ]
        },
        {
            "positions": [
                1.404139880770068,
                -1.437585319284676,
                -0.10585781371076686,
                -0.991627051097918,
                -1.2784077236412696,
                0.28793268377326076
            ]
        },
        {
            "positions": [
                1.2863705490136217,
                -1.4551531122043895,
                0.05902952810799467,
                -0.9409976056292566,
                -1.2518132522364143,
                0.2739247665521819
            ]
        },
        {
            "positions": [
                1.1686012172571751,
                -1.472720905124103,
                0.22391686992675663,
                -0.8903681601605952,
                -1.2252187808315587,
                0.2599168493311031
            ]
        },
        {
            "positions": [
                1.050831885500729,
                -1.4902886980438164,
                0.3888042117455177,
                -0.8397387146919337,
                -1.1986243094267033,
                0.24590893211002432
            ]
        },
        {
            "positions": [
                0.9330625537442825,
                -1.50785649096353,
                0.5536915535642797,
                -0.7891092692232723,
                -1.1720298380218477,
                0.2319010148889455
            ]
        },
        {
            "positions": [
                0.8152932219878362,
                -1.5254242838832435,
                0.7185788953830412,
                -0.7384798237546109,
                -1.1454353666169923,
                0.21789309766786671
            ]
        },
        {
            "positions": [
                0.6975238902313894,
                -1.5429920768029568,
                0.8834662372018032,
                -0.6878503782859493,
                -1.1188408952121367,
                0.20388518044678788
            ]
        },
        {
            "positions": [
                0.5797545584749431,
                -1.5605598697226704,
                1.0483535790205643,
                -0.637220932817288,
                -1.0922464238072813,
                0.18987726322570908
            ]
        },
        {
            "positions": [
                0.4619852267184967,
                -1.578127662642384,
                1.213240920839326,
                -0.5865914873486264,
                -1.0656519524024257,
                0.17586934600463028
            ]
        },
        {
            "positions": [
                0.4158929709288979,
                -1.5301052820495205,
                1.263291770337428,
                -0.4295444338762815,
                -1.012755441135561,
                0.14383928356042847
            ]
        },
        {
            "positions": [
                0.3698007151392991,
                -1.482082901456657,
                1.31334261983553,
                -0.2724973804039365,
                -0.9598589298686964,
                0.11180922111622663
            ]
        },
        {
            "positions": [
                0.3237084593497003,
                -1.4340605208637938,
                1.363393469333632,
                -0.11545032693159157,
                -0.9069624186018317,
                0.07977915867202479
            ]
        },
        {
            "positions": [
                0.27761620356010147,
                -1.3860381402709303,
                1.413444318831734,
                0.041596726540753415,
                -0.854065907334967,
                0.047749096227822974
            ]
        },
        {
            "positions": [
                0.23152394777050267,
                -1.3380157596780669,
                1.4634951683298358,
                0.19864378001309835,
                -0.8011693960681023,
                0.015719033783621106
            ]
        },
        {
            "positions": [
                0.18543169198090387,
                -1.2899933790852036,
                1.5135460178279379,
                0.3556908334854433,
                -0.7482728848012377,
                -0.016311028660580706
            ]
        },
        {
            "positions": [
                0.13933943619130507,
                -1.2419709984923402,
                1.5635968673260399,
                0.5127378869577883,
                -0.6953763735343729,
                -0.048341091104782546
            ]
        },
        {
            "positions": [
                0.09324718040170626,
                -1.1939486178994767,
                1.6136477168241419,
                0.6697849404301333,
                -0.6424798622675083,
                -0.08037115354898433
            ]
        },
        {
            "positions": [
                0.04715492461210748,
                -1.1459262373066132,
                1.6636985663222439,
                0.8268319939024782,
                -0.5895833510006435,
                -0.1124012159931862
            ]
        },
        {
            "positions": [
                0.01460343004579577,
                -1.0889825807099123,
                1.6386252475890855,
                0.9345680285310065,
                -0.4925998233353691,
                -0.06774563397692301
            ]
        },
        {
            "positions": [
                -0.017948064520515936,
                -1.032038924113211,
                1.613551928855927,
                1.0423040631595348,
                -0.39561629567009465,
                -0.023090051960659816
            ]
        },
        {
            "positions": [
                -0.05049955908682764,
                -0.9750952675165101,
                1.5884786101227686,
                1.1500400977880632,
                -0.2986327680048202,
                0.021565530055603382
            ]
        },
        {
            "positions": [
                -0.08305105365313935,
                -0.9181516109198089,
                1.5634052913896102,
                1.2577761324165915,
                -0.2016492403395458,
                0.06622111207186657
            ]
        },
        {
            "positions": [
                -0.11560254821945108,
                -0.8612079543231079,
                1.5383319726564517,
                1.3655121670451198,
                -0.10466571267427127,
                0.1108766940881298
            ]
        },
        {
            "positions": [
                -0.14815404278576277,
                -0.8042642977264068,
                1.5132586539232933,
                1.4732482016736483,
                -0.007682185008996867,
                0.15553227610439296
            ]
        },
        {
            "positions": [
                -0.1807055373520745,
                -0.7473206411297058,
                1.4881853351901349,
                1.5809842363021767,
                0.08930134265627754,
                0.2001878581206562
            ]
        },
        {
            "positions": [
                -0.2132570319183862,
                -0.6903769845330047,
                1.4631120164569764,
                1.688720270930705,
                0.18628487032155194,
                0.24484344013691933
            ]
        },
        {
            "positions": [
                -0.24580852648469792,
                -0.6334333279363036,
                1.438038697723818,
                1.7964563055592333,
                0.28326839798682646,
                0.2894990221531826
            ]
        },
        {
            "positions": [
                -0.17213167821978925,
                -0.6627380736913092,
                1.5509729613106273,
                1.8264032327027442,
                0.19974088155496222,
                0.22487572929995148
            ]
        },
        {
            "positions": [
                -0.09845482995488061,
                -0.6920428194463148,
                1.663907224897437,
                1.8563501598462548,
                0.11621336512309796,
                0.1602524364467204
            ]
        },
        {
            "positions": [
                -0.024777981689971945,
                -0.7213475652013204,
                1.7768414884842463,
                1.8862970869897657,
                0.032685848691233754,
                0.09562914359348937
            ]
        },
        {
            "positions": [
                0.048898866574936695,
                -0.750652310956326,
                1.8897757520710559,
                1.9162440141332764,
                -0.050841667740630536,
                0.031005850740258245
            ]
        },
        {
            "positions": [
                0.12257571483984533,
                -0.7799570567113316,
                2.002710015657865,
                1.9461909412767873,
                -0.1343691841724948,
                -0.03361744211297277
            ]
        }
    ]
}{
    "goal": {
        "global_pose": {
            "orientation": {
                "w": 0.7047431468963623,
                "x": -0.7094548344612122,
                "y": 0.0024358443915843964,
                "z": -0.0022348060738295317
            },
            "position": {
                "x": 0.6094750761985779,
                "y": 0.3671506643295288,
                "z": 0.19426114857196808
            }
        },
        "name": "move_to_magneteinheit_A"
    },
    "id": "BKPIECE_move_to_magneteinheit_A_47",
    "joint_names": [
        "shoulder_pan_joint",
        "shoulder_lift_joint",
        "elbow_joint",
        "wrist_1_joint",
        "wrist_2_joint",
        "wrist_3_joint"
    ],
    "metrics": {
        "cart_traj_len": 1.2261610880338762,
        "distance_elbow_joint": 0.16393779008114495,
        "distance_shoulder_lift_joint": 0.7650587582843464,
        "distance_shoulder_pan_joint": 1.2408508501462516,
        "distance_wrist_1_joint": 0.938775030804733,
        "distance_wrist_2_joint": 1.4917983266555541,
        "distance_wrist_3_joint": 4.35760681707985,
        "smoothness": 0.20546362254082617,
        "time": 0.23796557699999998,
        "traj_len": 2.992996420487649,
        "weighted_distance": 4.483727753183937
    },
    "planner": "BKPIECE",
    "start": {
        "state": {
            "elbow_joint": 1.919643534880228,
            "shoulder_lift_joint": -1.8972525353963687,
            "shoulder_pan_joint": -1.1188672234189438,
            "wrist_1_joint": -1.5931878212786155,
            "wrist_2_joint": 1.5706036197970081,
            "wrist_3_joint": 1.118896926603594
        }
    },
    "waypoints": [
        {
            "positions": [
                -1.1188672234189438,
                -1.8972525353963687,
                1.919643534880228,
                -1.5931878212786155,
                1.5706036197970081,
                1.118896926603594
            ]
        },
        {
            "positions": [
                -1.0655253885589235,
                -1.8643781342874712,
                1.9167711015934823,
                -1.5519767358061078,
                1.503854702142278,
                0.9263609518255328
            ]
        },
        {
            "positions": [
                -1.0121835536989032,
                -1.8315037331785735,
                1.9138986683067365,
                -1.5107656503336,
                1.4371057844875477,
                0.7338249770474716
            ]
        },
        {
            "positions": [
                -0.9588417188388828,
                -1.798629332069676,
                1.9110262350199907,
                -1.4695545648610924,
                1.3703568668328174,
                0.5412890022694105
            ]
        },
        {
            "positions": [
                -0.9054998839788625,
                -1.7657549309607785,
                1.9081538017332451,
                -1.4283434793885845,
                1.3036079491780872,
                0.3487530274913492
            ]
        },
        {
            "positions": [
                -0.8521580491188421,
                -1.7328805298518808,
                1.9052813684464993,
                -1.387132393916077,
                1.2368590315233572,
                0.156217052713288
            ]
        },
        {
            "positions": [
                -0.7988162142588218,
                -1.7000061287429833,
                1.9024089351597535,
                -1.3459213084435693,
                1.170110113868627,
                -0.03631892206477305
            ]
        },
        {
            "positions": [
                -0.7454743793988015,
                -1.6671317276340858,
                1.8995365018730077,
                -1.3047102229710614,
                1.1033611962138967,
                -0.22885489684283433
            ]
        },
        {
            "positions": [
                -0.6921325445387811,
                -1.634257326525188,
                1.896664068586262,
                -1.2634991374985538,
                1.0366122785591663,
                -0.4213908716208956
            ]
        },
        {
            "positions": [
                -0.6387907096787608,
                -1.6013829254162906,
                1.893791635299516,
                -1.222288052026046,
                0.9698633609044361,
                -0.6139268463989569
            ]
        },
        {
            "positions": [
                -0.5854488748187404,
                -1.568508524307393,
                1.8909192020127703,
                -1.1810769665535383,
                0.903114443249706,
                -0.806462821177018
            ]
        },
        {
            "positions": [
                -0.5321070399587201,
                -1.5356341231984953,
                1.8880467687260247,
                -1.1398658810810307,
                0.8363655255949758,
                -0.9989987959550792
            ]
        },
        {
            "positions": [
                -0.4787652050986998,
                -1.5027597220895978,
                1.885174335439279,
                -1.0986547956085229,
                0.7696166079402457,
                -1.19153477073314
            ]
        },
        {
            "positions": [
                -0.4254233702386794,
                -1.4698853209807003,
                1.8823019021525331,
                -1.057443710136015,
                0.7028676902855153,
                -1.3840707455112018
            ]
        },
        {
            "positions": [
                -0.37208153537865907,
                -1.4370109198718026,
                1.8794294688657873,
                -1.0162326246635076,
                0.6361187726307852,
                -1.5766067202892626
            ]
        },
        {
            "positions": [
                -0.31873970051863876,
                -1.4041365187629054,
                1.8765570355790415,
                -0.9750215391909998,
                0.5693698549760551,
                -1.769142695067324
            ]
        },
        {
            "positions": [
                -0.26539786565861834,
                -1.3712621176540076,
                1.8736846022922957,
                -0.933810453718492,
                0.5026209373213246,
                -1.9616786698453852
            ]
        },
        {
            "positions": [
                -0.21205603079859814,
                -1.33838771654511,
                1.87081216900555,
                -0.8925993682459843,
                0.4358720196665946,
                -2.1542146446234467
            ]
        },
        {
            "positions": [
                -0.15871419593857772,
                -1.3055133154362124,
                1.8679397357188041,
                -0.8513882827734766,
                0.36912310201186416,
                -2.346750619401508
            ]
        },
        {
            "positions": [
                -0.1053723610785573,
                -1.272638914327315,
                1.8650673024320585,
                -0.8101771973009688,
                0.30237418435713415,
                -2.5392865941795693
            ]
        },
        {
            "positions": [
                -0.05203052621853699,
                -1.2397645132184172,
                1.8621948691453127,
                -0.7689661118284612,
                0.2356252667024039,
                -2.7318225689576296
            ]
        },
        {
            "positions": [
                0.001311308641483322,
                -1.2068901121095197,
                1.859322435858567,
                -0.7277550263559533,
                0.16887634904767368,
                -2.924358543735691
            ]
        },
        {
            "positions": [
                0.05465314350150363,
                -1.1740157110006222,
                1.8564500025718211,
                -0.6865439408834457,
                0.1021274313929434,
                -3.116894518513752
            ]
        },
        {
            "positions": [
                0.12198362672730774,
                -1.1321937771120223,
                1.9571942603445591,
                -0.718675091293009,
                0.12544956964443293,
                -3.238709890476255
            ]
        }
    ]
}