{
    "goal": {
        "global_pose": {
            "orientation": {
                "w": 0.7047431468963623,
                "x": -0.7094548344612122,
                "y": 0.0024358443915843964,
                "z": -0.0022348060738295317
            },
            "position": {
                "x": 0.6094750761985779,
                "y": 0.3671506643295288,
                "z": 0.19426114857196808
            }
        },
        "name": "move_to_magneteinheit_A"
    },
    "id": "BKPIECE_move_to_magneteinheit_A_65",
    "joint_names": [
        "shoulder_pan_joint",
        "shoulder_lift_joint",
        "elbow_joint",
        "wrist_1_joint",
        "wrist_2_joint",
        "wrist_3_joint"
    ],
    "metrics": {
        "cart_traj_len": 3.7393664586473276,
        "distance_elbow_joint": 4.19899271192296,
        "distance_shoulder_lift_joint": 2.691380552946981,
        "distance_shoulder_pan_joint": 4.881655131581651,
        "distance_wrist_1_joint": 3.453083054568838,
        "distance_wrist_2_joint": 7.601113420486421,
        "distance_wrist_3_joint": 0.4088742060988779,
        "smoothness": 0.31896667638813087,
        "time": 0.184041082,
        "traj_len": 4.820279979171926,
        "weighted_distance": 5.925119742659953
    },
    "planner": "BKPIECE",
    "start": {
        "state": {
            "elbow_joint": -1.919618573717145,
            "shoulder_lift_joint": -1.2443395971678275,
            "shoulder_pan_joint": 2.6996025300909787,
            "wrist_1_joint": -1.548550951253194,
            "wrist_2_joint": -1.5709469090946802,
            "wrist_3_joint": 0.4420197732051276
        }
    },
    "waypoints": [
        {
            "positions": [
                2.6996025300909787,
                -1.2443395971678275,
                -1.919618573717145,
                -1.548550951253194,
                -1.5709469090946802,
                0.4420197732051276
            ]
        },
        {
            "positions": [
                2.5960196678529814,
                -1.2752085994917555,
                -1.807010918714965,
                -1.5334154643412197,
                -1.445463931237527,
                0.43468431493341875
            ]
        },
        {
            "positions": [
                2.492436805614984,
                -1.3060776018156834,
                -1.6944032637127848,
                -1.5182799774292453,
                -1.319980953380374,
                0.4273488566617099
            ]
        },
        {
            "positions": [
                2.3888539433769873,
                -1.3369466041396114,
                -1.5817956087106047,
                -1.5031444905172706,
                -1.194497975523221,
                0.42001339839000107
            ]
        },
        {
            "positions": [
                2.28527108113899,
                -1.3678156064635394,
                -1.4691879537084247,
                -1.4880090036052962,
                -1.0690149976660677,
                0.41267794011829223
            ]
        },
        {
            "positions": [
                2.1816882189009927,
                -1.3986846087874674,
                -1.3565802987062445,
                -1.4728735166933218,
                -0.9435320198089147,
                0.4053424818465834
            ]
        },
        {
            "positions": [
                2.0781053566629955,
                -1.4295536111113951,
                -1.2439726437040646,
                -1.4577380297813474,
                -0.8180490419517616,
                0.3980070235748745
            ]
        },
        {
            "positions": [
                1.9745224944249982,
                -1.460422613435323,
                -1.1313649887018844,
                -1.4426025428693727,
                -0.6925660640946084,
                0.39067156530316566
            ]
        },
        {
            "positions": [
                1.870939632187001,
                -1.491291615759251,
                -1.0187573336997044,
                -1.4274670559573983,
                -0.5670830862374554,
                0.3833361070314568
            ]
        },
        {
            "positions": [
                1.7673567699490038,
                -1.522160618083179,
                -0.9061496786975243,
                -1.412331569045424,
                -0.4416001083803023,
                0.376000648759748
            ]
        },
        {
            "positions": [
                1.6637739077110065,
                -1.553029620407107,
                -0.7935420236953441,
                -1.3971960821334495,
                -0.31611713052314916,
                0.36866519048803914
            ]
        },
        {
            "positions": [
                1.5601910454730092,
                -1.583898622731035,
                -0.6809343686931639,
                -1.3820605952214748,
                -0.19063415266599604,
                0.3613297322163303
            ]
        },
        {
            "positions": [
                1.4566081832350122,
                -1.614767625054963,
                -0.5683267136909842,
                -1.3669251083095004,
                -0.06515117480884314,
                0.35399427394462146
            ]
        },
        {
            "positions": [
                1.353025320997015,
                -1.645636627378891,
                -0.455719058688804,
                -1.351789621397526,
                0.060331803048309984,
                0.3466588156729126
            ]
        },
        {
            "positions": [
                1.2494424587590178,
                -1.676505629702819,
                -0.34311140368662385,
                -1.3366541344855516,
                0.18581478090546333,
                0.3393233574012038
            ]
        },
        {
            "positions": [
                1.1458595965210205,
                -1.7073746320267469,
                -0.23050374868444368,
                -1.3215186475735772,
                0.31129775876261645,
                0.33198789912949495
            ]
        },
        {
            "positions": [
                1.0422767342830235,
                -1.7382436343506749,
                -0.11789609368226395,
                -1.3063831606616025,
                0.43678073661976935,
                0.3246524408577861
            ]
        },
        {
            "positions": [
                0.9386938720450262,
                -1.7691126366746026,
                -0.0052884386800837735,
                -1.2912476737496281,
                0.5622637144769222,
                0.31731698258607727
            ]
        },
        {
            "positions": [
                0.8351110098070289,
                -1.7999816389985308,
                0.1073192163220964,
                -1.2761121868376537,
                0.6877466923340756,
                0.30998152431436843
            ]
        },
        {
            "positions": [
                0.7315281475690316,
                -1.8308506413224586,
                0.21992687132427657,
                -1.2609766999256793,
                0.8132296701912289,
                0.30264606604265953
            ]
        },
        {
            "positions": [
                0.6279452853310343,
                -1.8617196436463868,
                0.33253452632645675,
                -1.2458412130137049,
                0.9387126480483818,
                0.2953106077709507
            ]
        },
        {
            "positions": [
                0.524362423093037,
                -1.8925886459703145,
                0.4451421813286369,
                -1.2307057261017302,
                1.0641956259055352,
                0.28797514949924186
            ]
        },
        {
            "positions": [
                0.42077956085503976,
                -1.9234576482942427,
                0.5577498363308171,
                -1.2155702391897558,
                1.189678603762688,
                0.280639691227533
            ]
        },
        {
            "positions": [
                0.3171966986170429,
                -1.9543266506181705,
                0.6703574913329964,
                -1.2004347522777814,
                1.315161581619841,
                0.2733042329558242
            ]
        },
        {
            "positions": [
                0.21361383637904563,
                -1.9851956529420984,
                0.7829651463351766,
                -1.185299265365807,
                1.4406445594769939,
                0.26596877468411534
            ]
        },
        {
            "positions": [
                0.11003097414104834,
                -2.0160646552660264,
                0.8955728013373567,
                -1.1701637784538326,
                1.5661275373341472,
                0.2586333164124065
            ]
        },
        {
            "positions": [
                0.006448111903051057,
                -2.046933657589954,
                1.008180456339537,
                -1.155028291541858,
                1.6916105151913001,
                0.25129785814069766
            ]
        },
        {
            "positions": [
                -0.09713475033494579,
                -2.0778026599138824,
                1.120788111341717,
                -1.1398928046298835,
                1.8170934930484535,
                0.24396239986898882
            ]
        },
        {
            "positions": [
                -0.20071761257294307,
                -2.10867166223781,
                1.2333957663438972,
                -1.124757317717909,
                1.9425764709056068,
                0.23662694159727996
            ]
        },
        {
            "positions": [
                -0.30430047481094036,
                -2.1395406645617383,
                1.3460034213460774,
                -1.1096218308059345,
                2.0680594487627597,
                0.22929148332557112
            ]
        },
        {
            "positions": [
                -0.40788333704893764,
                -2.170409666885666,
                1.4586110763482576,
                -1.09448634389396,
                2.193542426619913,
                0.22195602505386228
            ]
        },
        {
            "positions": [
                -0.5114661992869349,
                -2.2012786692095943,
                1.5712187313504378,
                -1.0793508569819856,
                2.319025404477066,
                0.2146205667821534
            ]
        },
        {
            "positions": [
                -0.6150490615249318,
                -2.232147671533522,
                1.683826386352617,
                -1.0642153700700112,
                2.444508382334219,
                0.2072851085104446
            ]
        },
        {
            "positions": [
                -0.7186319237629291,
                -2.26301667385745,
                1.7964340413547972,
                -1.0490798831580368,
                2.569991360191372,
                0.19994965023873576
            ]
        },
        {
            "positions": [
                -0.8222147860009263,
                -2.293885676181378,
                1.9090416963569774,
                -1.0339443962460622,
                2.6954743380485247,
                0.19261419196702692
            ]
        },
        {
            "positions": [
                -0.9257976482389236,
                -2.3247546785053057,
                2.021649351359158,
                -1.018808909334088,
                2.820957315905678,
                0.18527873369531805
            ]
        },
        {
            "positions": [
                -1.029380510476921,
                -2.355623680829234,
                2.134257006361338,
                -1.0036734224221133,
                2.9464402937628313,
                0.17794327542360922
            ]
        },
        {
            "positions": [
                -0.9792643326067578,
                -2.2869238343385567,
                2.1279475658463607,
                -0.877229703911776,
                2.8123652408224444,
                0.17164772288807187
            ]
        },
        {
            "positions": [
                -0.9291481547365947,
                -2.2182239878478796,
                2.1216381253313834,
                -0.7507859854014388,
                2.678290187882057,
                0.16535217035253452
            ]
        },
        {
            "positions": [
                -0.8790319768664316,
                -2.1495241413572024,
                2.1153286848164057,
                -0.6243422668911016,
                2.54421513494167,
                0.15905661781699715
            ]
        },
        {
            "positions": [
                -0.8289157989962685,
                -2.080824294866525,
                2.1090192443014284,
                -0.4978985483807643,
                2.4101400820012833,
                0.1527610652814598
            ]
        },
        {
            "positions": [
                -0.7787996211261055,
                -2.012124448375848,
                2.102709803786451,
                -0.371454829870427,
                2.276065029060896,
                0.14646551274592245
            ]
        },
        {
            "positions": [
                -0.7286834432559424,
                -1.9434246018851709,
                2.096400363271474,
                -0.2450111113600898,
                2.141989976120509,
                0.14016996021038508
            ]
        },
        {
            "positions": [
                -0.6785672653857793,
                -1.8747247553944937,
                2.0900909227564965,
                -0.11856739284975248,
                2.007914923180122,
                0.13387440767484773
            ]
        },
        {
            "positions": [
                -0.6284510875156162,
                -1.8060249089038165,
                2.0837814822415193,
                0.007876325660584715,
                1.873839870239735,
                0.1275788551393104
            ]
        },
        {
            "positions": [
                -0.5783349096454531,
                -1.7373250624131393,
                2.0774720417265415,
                0.13432004417092203,
                1.7397648172993478,
                0.12128330260377303
            ]
        },
        {
            "positions": [
                -0.52821873177529,
                -1.6686252159224622,
                2.0711626012115643,
                0.26076376268125934,
                1.6056897643589607,
                0.11498775006823568
            ]
        },
        {
            "positions": [
                -0.4781025539051269,
                -1.599925369431785,
                2.064853160696587,
                0.38720748119159665,
                1.4716147114185736,
                0.10869219753269832
            ]
        },
        {
            "positions": [
                -0.4279863760349638,
                -1.5312255229411078,
                2.0585437201816097,
                0.5136511997019337,
                1.3375396584781867,
                0.10239664499716097
            ]
        },
        {
            "positions": [
                -0.3778701981648007,
                -1.4625256764504306,
                2.0522342796666324,
                0.640094918212271,
                1.2034646055377998,
                0.09610109246162363
            ]
        },
        {
            "positions": [
                -0.3277540202946376,
                -1.3938258299597532,
                2.045924839151655,
                0.7665386367226084,
                1.0693895525974124,
                0.08980553992608625
            ]
        },
        {
            "positions": [
                -0.27763784242447453,
                -1.325125983469076,
                2.0396153986366774,
                0.8929823552329457,
                0.9353144996570255,
                0.0835099873905489
            ]
        },
        {
            "positions": [
                -0.22752166455431144,
                -1.2564261369783989,
                2.0333059581217,
                1.0194260737432828,
                0.8012394467166386,
                0.07721443485501156
            ]
        },
        {
            "positions": [
                -0.17740548668414846,
                -1.187726290487722,
                2.026996517606723,
                1.1458697922536198,
                0.6671643937762513,
                0.07091888231947421
            ]
        },
        {
            "positions": [
                -0.12728930881398526,
                -1.1190264439970445,
                2.0206870770917456,
                1.2723135107639574,
                0.5330893408358643,
                0.06462332978393684
            ]
        },
        {
            "positions": [
                -0.07717313094382217,
                -1.0503265975063674,
                2.0143776365767683,
                1.3987572292742945,
                0.399014287895477,
                0.05832777724839949
            ]
        },
        {
            "positions": [
                -0.027056953073659074,
                -0.9816267510156902,
                2.0080681960617905,
                1.525200947784632,
                0.2649392349550901,
                0.052032224712862146
            ]
        },
        {
            "positions": [
                0.02305922479650402,
                -0.912926904525013,
                2.0017587555468133,
                1.651644666294969,
                0.13086418201470318,
                0.0457366721773248
            ]
        },
        {
            "positions": [
                0.07317540266666711,
                -0.8442270580343358,
                1.995449315031836,
                1.7780883848053066,
                -0.0032108709256841728,
                0.039441119641787425
            ]
        },
        {
            "positions": [
                0.12329158053683026,
                -0.7755272115436587,
                1.9891398745168587,
                1.9045321033156435,
                -0.13728592386607127,
                0.03314556710625007
            ]
        }
    ]
}{
    "goal": {
        "global_pose": {
            "orientation": {
                "w": 0.7047431468963623,
                "x": -0.7094548344612122,
                "y": 0.0024358443915843964,
                "z": -0.0022348060738295317
            },
            "position": {
                "x": 0.6094750761985779,
                "y": 0.3671506643295288,
                "z": 0.19426114857196808
            }
        },
        "name": "move_to_magneteinheit_A"
    },
    "id": "BKPIECE_move_to_magneteinheit_A_65",
    "joint_names": [
        "shoulder_pan_joint",
        "shoulder_lift_joint",
        "elbow_joint",
        "wrist_1_joint",
        "wrist_2_joint",
        "wrist_3_joint"
    ],
    "metrics": {
        "cart_traj_len": 1.2736198916817996,
        "distance_elbow_joint": 0.1811839835514515,
        "distance_shoulder_lift_joint": 0.8816453587084028,
        "distance_shoulder_pan_joint": 1.2402510247354244,
        "distance_wrist_1_joint": 0.9293714872417795,
        "distance_wrist_2_joint": 1.5002355712117736,
        "distance_wrist_3_joint": 4.377672404574433,
        "smoothness": 0.22892600111186923,
        "time": 0.225123079,
        "traj_len": 3.018337262471387,
        "weighted_distance": 4.505031819823883
    },
    "planner": "BKPIECE",
    "start": {
        "state": {
            "elbow_joint": 1.919643534880228,
            "shoulder_lift_joint": -1.8972525353963687,
            "shoulder_pan_joint": -1.1188672234189438,
            "wrist_1_joint": -1.5931878212786155,
            "wrist_2_joint": 1.5706036197970081,
            "wrist_3_joint": 1.118896926603594
        }
    },
    "waypoints": [
        {
            "positions": [
                -1.1188672234189438,
                -1.8972525353963687,
                1.919643534880228,
                -1.5931878212786155,
                1.5706036197970081,
                1.118896926603594
            ]
        },
        {
            "positions": [
                -1.0688525490850087,
                -1.8598083730455095,
                1.9163604519052484,
                -1.5519820814342407,
                1.5036861002591149,
                0.9301789340528379
            ]
        },
        {
            "positions": [
                -1.0188378747510738,
                -1.8223642106946503,
                1.9130773689302687,
                -1.510776341589866,
                1.4367685807212216,
                0.7414609415020819
            ]
        },
        {
            "positions": [
                -0.9688232004171388,
                -1.7849200483437908,
                1.909794285955289,
                -1.4695706017454913,
                1.3698510611833283,
                0.5527429489513259
            ]
        },
        {
            "positions": [
                -0.9188085260832037,
                -1.7474758859929316,
                1.906511202980309,
                -1.4283648619011164,
                1.302933541645435,
                0.36402495640056987
            ]
        },
        {
            "positions": [
                -0.8687938517492687,
                -1.7100317236420723,
                1.9032281200053294,
                -1.3871591220567416,
                1.2360160221075418,
                0.1753069638498138
            ]
        },
        {
            "positions": [
                -0.8187791774153337,
                -1.672587561291213,
                1.8999450370303497,
                -1.345953382212367,
                1.1690985025696485,
                -0.01341102870094213
            ]
        },
        {
            "positions": [
                -0.7687645030813987,
                -1.6351433989403539,
                1.89666195405537,
                -1.3047476423679922,
                1.1021809830317553,
                -0.20212902125169818
            ]
        },
        {
            "positions": [
                -0.7187498287474636,
                -1.5976992365894944,
                1.8933788710803903,
                -1.2635419025236174,
                1.035263463493862,
                -0.39084701380245424
            ]
        },
        {
            "positions": [
                -0.6687351544135285,
                -1.5602550742386352,
                1.8900957881054106,
                -1.2223361626792426,
                0.9683459439559687,
                -0.5795650063532105
            ]
        },
        {
            "positions": [
                -0.6187204800795936,
                -1.522810911887776,
                1.8868127051304309,
                -1.181130422834868,
                0.9014284244180756,
                -0.7682829989039663
            ]
        },
        {
            "positions": [
                -0.5687058057456585,
                -1.4853667495369165,
                1.883529622155451,
                -1.1399246829904932,
                0.8345109048801823,
                -0.9570009914547224
            ]
        },
        {
            "positions": [
                -0.5186911314117235,
                -1.4479225871860573,
                1.8802465391804712,
                -1.0987189431461184,
                0.7675933853422892,
                -1.1457189840054782
            ]
        },
        {
            "positions": [
                -0.4686764570777885,
                -1.410478424835198,
                1.8769634562054915,
                -1.0575132033017436,
                0.7006758658043958,
                -1.3344369765562345
            ]
        },
        {
            "positions": [
                -0.41866178274385346,
                -1.3730342624843388,
                1.8736803732305118,
                -1.016307463457369,
                0.6337583462665025,
                -1.5231549691069903
            ]
        },
        {
            "positions": [
                -0.36864710840991854,
                -1.3355901001334796,
                1.8703972902555321,
                -0.9751017236129943,
                0.5668408267286094,
                -1.7118729616577462
            ]
        },
        {
            "positions": [
                -0.3186324340759834,
                -1.2981459377826203,
                1.8671142072805524,
                -0.9338959837686195,
                0.4999233071907161,
                -1.9005909542085024
            ]
        },
        {
            "positions": [
                -0.2686177597420484,
                -1.2607017754317609,
                1.8638311243055727,
                -0.8926902439242447,
                0.4330057876528228,
                -2.0893089467592585
            ]
        },
        {
            "positions": [
                -0.21860308540811324,
                -1.2232576130809014,
                1.860548041330593,
                -0.8514845040798699,
                0.36608826811492934,
                -2.278026939310015
            ]
        },
        {
            "positions": [
                -0.16858841107417832,
                -1.1858134507300422,
                1.8572649583556131,
                -0.8102787642354952,
                0.2991707485770363,
                -2.466744931860771
            ]
        },
        {
            "positions": [
                -0.1185737367402433,
                -1.148369288379183,
                1.8539818753806334,
                -0.7690730243911205,
                0.23225322903914303,
                -2.655462924411527
            ]
        },
        {
            "positions": [
                -0.06855906240630816,
                -1.1109251260283237,
                1.8506987924056537,
                -0.7278672845467457,
                0.16533570950124976,
                -2.8441809169622827
            ]
        },
        {
            "positions": [
                -0.018544388072373248,
                -1.0734809636774645,
                1.847415709430674,
                -0.686661544702371,
                0.09841818996335656,
                -3.0328989095130385
            ]
        },
        {
            "positions": [
                0.051419706622053564,
                -1.1024178571722136,
                1.9018937884816227,
                -0.6980841500351385,
                0.11244326065241753,
                -3.1458371937419387
            ]
        },
        {
            "positions": [
                0.12138380131648038,
                -1.131354750666963,
                1.9563718675325714,
                -0.709506755367906,
                0.12646833134147847,
                -3.258775477970839
            ]
        }
    ]
}