{
    "goal": {
        "global_pose": {
            "orientation": {
                "w": 0.5084816217422485,
                "x": -0.49083608388900757,
                "y": 0.5182115435600281,
                "z": -0.4816462993621826
            },
            "position": {
                "x": 0.5540239810943604,
                "y": 0.030875300988554955,
                "z": 0.16403168439865112
            }
        },
        "name": "move_to_storage_A"
    },
    "id": "BKPIECE_move_to_storage_A_9",
    "joint_names": [
        "shoulder_pan_joint",
        "shoulder_lift_joint",
        "elbow_joint",
        "wrist_1_joint",
        "wrist_2_joint",
        "wrist_3_joint"
    ],
    "metrics": {
        "cart_traj_len": 0.35296725265144574,
        "distance_elbow_joint": 0.4500961320293655,
        "distance_shoulder_lift_joint": 0.23414847408099004,
        "distance_shoulder_pan_joint": 0.4628127559617067,
        "distance_wrist_1_joint": 0.2381035449480472,
        "distance_wrist_2_joint": 1.0936213952615423,
        "distance_wrist_3_joint": 0.09899658366827024,
        "smoothness": 2.2204460668324854e-16,
        "time": 0.22382722800000002,
        "traj_len": 1.6055462889465135,
        "weighted_distance": 2.0266960782258527
    },
    "planner": "BKPIECE",
    "start": {
        "state": {
            "elbow_joint": 1.9715477243005601,
            "shoulder_lift_joint": -1.1394853015351272,
            "shoulder_pan_joint": 0.12281154014795169,
            "wrist_1_joint": -0.7804696478968182,
            "wrist_2_joint": 0.12958648046900423,
            "wrist_3_joint": -3.192491284697111
        }
    },
    "waypoints": [
        {
            "positions": [
                0.12281154014795169,
                -1.1394853015351272,
                1.9715477243005601,
                -0.7804696478968182,
                0.12958648046900423,
                -3.192491284697111
            ]
        },
        {
            "positions": [
                0.05669543215342217,
                -1.1729350835466972,
                2.0358471717333266,
                -0.8144844400322535,
                0.2858181083635103,
                -3.178348915601644
            ]
        },
        {
            "positions": [
                -0.009420675841107354,
                -1.2063848655582672,
                2.100146619166093,
                -0.8484992321676887,
                0.4420497362580163,
                -3.164206546506177
            ]
        },
        {
            "positions": [
                -0.07553678383563688,
                -1.2398346475698372,
                2.1644460665988596,
                -0.8825140243031241,
                0.5982813641525224,
                -3.1500641774107097
            ]
        },
        {
            "positions": [
                -0.14165289183016638,
                -1.2732844295814072,
                2.228745514031626,
                -0.9165288164385594,
                0.7545129920470284,
                -3.1359218083152425
            ]
        },
        {
            "positions": [
                -0.20776899982469593,
                -1.3067342115929772,
                2.2930449614643926,
                -0.9505436085739947,
                0.9107446199415344,
                -3.1217794392197753
            ]
        },
        {
            "positions": [
                -0.2738851078192254,
                -1.3401839936045472,
                2.357344408897159,
                -0.98455840070943,
                1.0669762478360405,
                -3.107637070124308
            ]
        },
        {
            "positions": [
                -0.340001215813755,
                -1.3736337756161172,
                2.4216438563299256,
                -1.0185731928448654,
                1.2232078757305465,
                -3.093494701028841
            ]
        }
    ]
}