{
    "goal": {
        "global_pose": {
            "orientation": {
                "w": 0.5084816217422485,
                "x": -0.49083608388900757,
                "y": 0.5182115435600281,
                "z": -0.4816462993621826
            },
            "position": {
                "x": 0.5540239810943604,
                "y": 0.030875300988554955,
                "z": 0.16403168439865112
            }
        },
        "name": "move_to_storage_A"
    },
    "id": "BKPIECE_move_to_storage_A_38",
    "joint_names": [
        "shoulder_pan_joint",
        "shoulder_lift_joint",
        "elbow_joint",
        "wrist_1_joint",
        "wrist_2_joint",
        "wrist_3_joint"
    ],
    "metrics": {
        "cart_traj_len": 0.3535421208117616,
        "distance_elbow_joint": 0.4490856351805177,
        "distance_shoulder_lift_joint": 0.23623658493657484,
        "distance_shoulder_pan_joint": 0.46091231442543135,
        "distance_wrist_1_joint": 0.23697504338720787,
        "distance_wrist_2_joint": 1.1064565624107754,
        "distance_wrist_3_joint": 0.09444880620636509,
        "smoothness": 4.440892098500626e-16,
        "time": 0.37035234899999997,
        "traj_len": 1.607518256987109,
        "weighted_distance": 2.0289022067999203
    },
    "planner": "BKPIECE",
    "start": {
        "state": {
            "elbow_joint": 1.9715477243005601,
            "shoulder_lift_joint": -1.1394853015351272,
            "shoulder_pan_joint": 0.12281154014795169,
            "wrist_1_joint": -0.7804696478968182,
            "wrist_2_joint": 0.12958648046900423,
            "wrist_3_joint": -3.192491284697111
        }
    },
    "waypoints": [
        {
            "positions": [
                0.12281154014795169,
                -1.1394853015351272,
                1.9715477243005601,
                -0.7804696478968182,
                0.12958648046900423,
                -3.192491284697111
            ]
        },
        {
            "positions": [
                0.0569669238014615,
                -1.173233385097495,
                2.035702815040634,
                -0.8143232255235622,
                0.2876517036705436,
                -3.178998598096202
            ]
        },
        {
            "positions": [
                -0.008877692545028695,
                -1.2069814686598628,
                2.099857905780708,
                -0.8481768031503061,
                0.4457169268720829,
                -3.1655059114952926
            ]
        },
        {
            "positions": [
                -0.07472230889151889,
                -1.2407295522222306,
                2.164012996520782,
                -0.8820303807770501,
                0.6037821500736222,
                -3.1520132248943833
            ]
        },
        {
            "positions": [
                -0.14056692523800907,
                -1.2744776357845984,
                2.228168087260856,
                -0.9158839584037941,
                0.7618473732751616,
                -3.138520538293474
            ]
        },
        {
            "positions": [
                -0.20641154158449926,
                -1.3082257193469664,
                2.29232317800093,
                -0.949737536030538,
                0.919912596476701,
                -3.1250278516925647
            ]
        },
        {
            "positions": [
                -0.27225615793098945,
                -1.3419738029093342,
                2.3564782687410037,
                -0.983591113657282,
                1.0779778196782401,
                -3.1115351650916554
            ]
        },
        {
            "positions": [
                -0.33810077427747964,
                -1.375721886471702,
                2.420633359481078,
                -1.017444691284026,
                1.2360430428797797,
                -3.098042478490746
            ]
        }
    ]
}