{
    "goal": {
        "global_pose": {
            "orientation": {
                "w": 0.7047431468963623,
                "x": -0.7094548344612122,
                "y": 0.0024358443915843964,
                "z": -0.0022348060738295317
            },
            "position": {
                "x": 0.6094750761985779,
                "y": 0.3671506643295288,
                "z": 0.19426114857196808
            }
        },
        "name": "move_to_magneteinheit_A"
    },
    "id": "BKPIECE_move_to_magneteinheit_A_43",
    "joint_names": [
        "shoulder_pan_joint",
        "shoulder_lift_joint",
        "elbow_joint",
        "wrist_1_joint",
        "wrist_2_joint",
        "wrist_3_joint"
    ],
    "metrics": {
        "cart_traj_len": 3.337812524444063,
        "distance_elbow_joint": 3.8739802068621945,
        "distance_shoulder_lift_joint": 0.3131235389994358,
        "distance_shoulder_pan_joint": 2.789263074350782,
        "distance_wrist_1_joint": 0.8821210581512947,
        "distance_wrist_2_joint": 1.6931859257670274,
        "distance_wrist_3_joint": 3.69161549399769,
        "smoothness": 0.05433568173874053,
        "time": 0.18865208099999997,
        "traj_len": 3.6391330421033556,
        "weighted_distance": 4.816827510928965
    },
    "planner": "BKPIECE",
    "start": {
        "state": {
            "elbow_joint": -1.919618573717145,
            "shoulder_lift_joint": -1.2443395971678275,
            "shoulder_pan_joint": 2.6996025300909787,
            "wrist_1_joint": -1.548550951253194,
            "wrist_2_joint": -1.5709469090946802,
            "wrist_3_joint": 0.4420197732051276
        }
    },
    "waypoints": [
        {
            "positions": [
                2.6996025300909787,
                -1.2443395971678275,
                -1.919618573717145,
                -1.548550951253194,
                -1.5709469090946802,
                0.4420197732051276
            ]
        },
        {
            "positions": [
                2.6048487523367716,
                -1.2478818688447593,
                -1.805256665131305,
                -1.5179414323916844,
                -1.523517620914152,
                0.3392656531515241
            ]
        },
        {
            "positions": [
                2.5100949745825645,
                -1.2514241405216913,
                -1.6908947565454648,
                -1.4873319135301746,
                -1.476088332733624,
                0.23651153309792072
            ]
        },
        {
            "positions": [
                2.415341196828357,
                -1.254966412198623,
                -1.5765328479596248,
                -1.456722394668665,
                -1.428659044553096,
                0.13375741304431732
            ]
        },
        {
            "positions": [
                2.32058741907415,
                -1.258508683875555,
                -1.4621709393737847,
                -1.426112875807155,
                -1.381229756372568,
                0.03100329299071386
            ]
        },
        {
            "positions": [
                2.2258336413199427,
                -1.2620509555524868,
                -1.3478090307879447,
                -1.3955033569456454,
                -1.33380046819204,
                -0.07175082706288965
            ]
        },
        {
            "positions": [
                2.1310798635657355,
                -1.2655932272294188,
                -1.2334471222021046,
                -1.3648938380841356,
                -1.2863711800115118,
                -0.17450494711649295
            ]
        },
        {
            "positions": [
                2.0363260858115284,
                -1.2691354989063506,
                -1.1190852136162646,
                -1.334284319222626,
                -1.2389418918309836,
                -0.27725906717009646
            ]
        },
        {
            "positions": [
                1.941572308057321,
                -1.2726777705832826,
                -1.0047233050304245,
                -1.303674800361116,
                -1.1915126036504555,
                -0.38001318722369987
            ]
        },
        {
            "positions": [
                1.8468185303031137,
                -1.2762200422602143,
                -0.8903613964445845,
                -1.2730652814996064,
                -1.1440833154699275,
                -0.4827673072773034
            ]
        },
        {
            "positions": [
                1.7520647525489066,
                -1.2797623139371463,
                -0.7759994878587444,
                -1.2424557626380968,
                -1.0966540272893994,
                -0.5855214273309068
            ]
        },
        {
            "positions": [
                1.6573109747946992,
                -1.2833045856140781,
                -0.6616375792729043,
                -1.211846243776587,
                -1.0492247391088714,
                -0.6882755473845101
            ]
        },
        {
            "positions": [
                1.5625571970404921,
                -1.2868468572910101,
                -0.5472756706870643,
                -1.1812367249150773,
                -1.0017954509283433,
                -0.7910296674381134
            ]
        },
        {
            "positions": [
                1.4678034192862848,
                -1.290389128967942,
                -0.43291376210122423,
                -1.1506272060535674,
                -0.9543661627478152,
                -0.8937837874917172
            ]
        },
        {
            "positions": [
                1.3730496415320776,
                -1.2939314006448739,
                -0.3185518535153842,
                -1.1200176871920577,
                -0.9069368745672871,
                -0.9965379075453205
            ]
        },
        {
            "positions": [
                1.2782958637778705,
                -1.2974736723218057,
                -0.20418994492954412,
                -1.0894081683305479,
                -0.8595075863867591,
                -1.0992920275989237
            ]
        },
        {
            "positions": [
                1.1835420860236634,
                -1.3010159439987374,
                -0.08982803634370407,
                -1.0587986494690382,
                -0.812078298206231,
                -1.2020461476525273
            ]
        },
        {
            "positions": [
                1.088788308269456,
                -1.3045582156756694,
                0.024533872242135768,
                -1.0281891306075286,
                -0.764649010025703,
                -1.3048002677061306
            ]
        },
        {
            "positions": [
                0.9940345305152487,
                -1.3081004873526012,
                0.13889578082797605,
                -0.9975796117460187,
                -0.7172197218451748,
                -1.4075543877597343
            ]
        },
        {
            "positions": [
                0.8992807527610414,
                -1.3116427590295332,
                0.2532576894138161,
                -0.966970092884509,
                -0.6697904336646467,
                -1.5103085078133378
            ]
        },
        {
            "positions": [
                0.8045269750068342,
                -1.315185030706465,
                0.36761959799965616,
                -0.9363605740229992,
                -0.6223611454841187,
                -1.6130626278669413
            ]
        },
        {
            "positions": [
                0.7097731972526271,
                -1.318727302383397,
                0.4819815065854962,
                -0.9057510551614895,
                -0.5749318573035906,
                -1.7158167479205444
            ]
        },
        {
            "positions": [
                0.6150194194984198,
                -1.3222695740603287,
                0.5963434151713363,
                -0.8751415362999797,
                -0.5275025691230626,
                -1.818570867974148
            ]
        },
        {
            "positions": [
                0.5202656417442126,
                -1.3258118457372607,
                0.7107053237571763,
                -0.8445320174384701,
                -0.48007328094253454,
                -1.9213249880277514
            ]
        },
        {
            "positions": [
                0.4255118639900055,
                -1.3293541174141925,
                0.8250672323430164,
                -0.8139224985769603,
                -0.4326439927620065,
                -2.0240791080813545
            ]
        },
        {
            "positions": [
                0.33075808623579794,
                -1.3328963890911245,
                0.9394291409288564,
                -0.7833129797154504,
                -0.3852147045814782,
                -2.1268332281349585
            ]
        },
        {
            "positions": [
                0.23600430848159082,
                -1.3364386607680563,
                1.0537910495146965,
                -0.7527034608539408,
                -0.33778541640095017,
                -2.229587348188562
            ]
        },
        {
            "positions": [
                0.1412505307273837,
                -1.3399809324449883,
                1.1681529581005365,
                -0.722093941992431,
                -0.2903561282204221,
                -2.332341468242165
            ]
        },
        {
            "positions": [
                0.04649675297317665,
                -1.34352320412192,
                1.2825148666863768,
                -0.6914844231309213,
                -0.2429268400398941,
                -2.4350955882957686
            ]
        },
        {
            "positions": [
                0.03644853570970415,
                -1.3103929218407087,
                1.3997228547210365,
                -0.6984515062792337,
                -0.19677081024856463,
                -2.574354315576404
            ]
        },
        {
            "positions": [
                0.026400318446231634,
                -1.277262639559497,
                1.5169308427556965,
                -0.705418589427546,
                -0.15061478045723517,
                -2.71361304285704
            ]
        },
        {
            "positions": [
                0.016352101182759125,
                -1.2441323572782856,
                1.6341388307903562,
                -0.7123856725758584,
                -0.10445875066590571,
                -2.852871770137676
            ]
        },
        {
            "positions": [
                0.05168964966361338,
                -1.205949328877716,
                1.7408797649085874,
                -0.7110012457144967,
                -0.028892828219821504,
                -2.985113087022638
            ]
        },
        {
            "positions": [
                0.08702719814446763,
                -1.1677663004771464,
                1.8476206990268185,
                -0.7096168188531352,
                0.0466730942262627,
                -3.1173544039076
            ]
        },
        {
            "positions": [
                0.1223647466253219,
                -1.1295832720765768,
                1.9543616331450497,
                -0.7082323919917736,
                0.12223901667234692,
                -3.2495957207925623
            ]
        }
    ]
}{
    "goal": {
        "global_pose": {
            "orientation": {
                "w": 0.7047431468963623,
                "x": -0.7094548344612122,
                "y": 0.0024358443915843964,
                "z": -0.0022348060738295317
            },
            "position": {
                "x": 0.6094750761985779,
                "y": 0.3671506643295288,
                "z": 0.19426114857196808
            }
        },
        "name": "move_to_magneteinheit_A"
    },
    "id": "BKPIECE_move_to_magneteinheit_A_43",
    "joint_names": [
        "shoulder_pan_joint",
        "shoulder_lift_joint",
        "elbow_joint",
        "wrist_1_joint",
        "wrist_2_joint",
        "wrist_3_joint"
    ],
    "metrics": {
        "cart_traj_len": 1.316375085133589,
        "distance_elbow_joint": 0.6871811187385599,
        "distance_shoulder_lift_joint": 0.7691575154452148,
        "distance_shoulder_pan_joint": 1.2418635654658263,
        "distance_wrist_1_joint": 0.8745327233073079,
        "distance_wrist_2_joint": 1.4369946388485004,
        "distance_wrist_3_joint": 4.365695416017987,
        "smoothness": 0.07247317299382143,
        "time": 0.17491124,
        "traj_len": 3.0619315762804686,
        "weighted_distance": 4.518666083261207
    },
    "planner": "BKPIECE",
    "start": {
        "state": {
            "elbow_joint": 1.919643534880228,
            "shoulder_lift_joint": -1.8972525353963687,
            "shoulder_pan_joint": -1.1188672234189438,
            "wrist_1_joint": -1.5931878212786155,
            "wrist_2_joint": 1.5706036197970081,
            "wrist_3_joint": 1.118896926603594
        }
    },
    "waypoints": [
        {
            "positions": [
                -1.1188672234189438,
                -1.8972525353963687,
                1.919643534880228,
                -1.5931878212786155,
                1.5706036197970081,
                1.118896926603594
            ]
        },
        {
            "positions": [
                -1.078761169403768,
                -1.8974426198800383,
                1.8980979390017052,
                -1.5363343176782658,
                1.4960921116387202,
                0.9291734945458585
            ]
        },
        {
            "positions": [
                -1.0386551153885921,
                -1.8976327043637076,
                1.876552343123182,
                -1.479480814077916,
                1.4215806034804324,
                0.7394500624881232
            ]
        },
        {
            "positions": [
                -0.9985490613734163,
                -1.897822788847377,
                1.8550067472446592,
                -1.4226273104775664,
                1.3470690953221442,
                0.5497266304303877
            ]
        },
        {
            "positions": [
                -0.9584430073582404,
                -1.8980128733310466,
                1.833461151366136,
                -1.3657738068772167,
                1.2725575871638566,
                0.3600031983726524
            ]
        },
        {
            "positions": [
                -0.9183369533430646,
                -1.8982029578147162,
                1.8119155554876132,
                -1.3089203032768673,
                1.1980460790055685,
                0.17027976631491692
            ]
        },
        {
            "positions": [
                -0.8782308993278888,
                -1.8983930422983855,
                1.7903699596090903,
                -1.2520667996765174,
                1.1235345708472806,
                -0.019443665742818528
            ]
        },
        {
            "positions": [
                -0.8381248453127129,
                -1.898583126782055,
                1.7688243637305672,
                -1.1952132960761679,
                1.0490230626889927,
                -0.20916709780055398
            ]
        },
        {
            "positions": [
                -0.7980187912975371,
                -1.8987732112657245,
                1.7472787678520443,
                -1.1383597924758182,
                0.9745115545307048,
                -0.3988905298582892
            ]
        },
        {
            "positions": [
                -0.7579127372823613,
                -1.898963295749394,
                1.7257331719735212,
                -1.0815062888754685,
                0.9000000463724169,
                -0.5886139619160247
            ]
        },
        {
            "positions": [
                -0.7178066832671854,
                -1.8991533802330633,
                1.7041875760949983,
                -1.0246527852751188,
                0.825488538214129,
                -0.7783373939737601
            ]
        },
        {
            "positions": [
                -0.6777006292520096,
                -1.8993434647167329,
                1.6826419802164754,
                -0.9677992816747691,
                0.7509770300558412,
                -0.9680608260314953
            ]
        },
        {
            "positions": [
                -0.6375945752368337,
                -1.8995335492004024,
                1.6610963843379523,
                -0.9109457780744193,
                0.676465521897553,
                -1.157784258089231
            ]
        },
        {
            "positions": [
                -0.5974885212216579,
                -1.899723633684072,
                1.6395507884594294,
                -0.8540922744740698,
                0.6019540137392652,
                -1.3475076901469663
            ]
        },
        {
            "positions": [
                -0.557382467206482,
                -1.8999137181677412,
                1.6180051925809065,
                -0.7972387708737201,
                0.5274425055809773,
                -1.537231122204702
            ]
        },
        {
            "positions": [
                -0.5172764131913061,
                -1.9001038026514108,
                1.5964595967023834,
                -0.7403852672733704,
                0.4529309974226894,
                -1.7269545542624374
            ]
        },
        {
            "positions": [
                -0.45324913766748726,
                -1.8234731778323936,
                1.632859314758455,
                -0.7382122503431641,
                0.4209987957752712,
                -1.878938947777633
            ]
        },
        {
            "positions": [
                -0.3892218621436684,
                -1.7468425530133762,
                1.6692590328145265,
                -0.7360392334129578,
                0.38906659412785305,
                -2.0309233412928287
            ]
        },
        {
            "positions": [
                -0.32519458661984957,
                -1.6702119281943588,
                1.7056587508705978,
                -0.7338662164827515,
                0.35713439248043494,
                -2.182907734808024
            ]
        },
        {
            "positions": [
                -0.2611673110960307,
                -1.5935813033753417,
                1.7420584689266694,
                -0.7316931995525453,
                0.32520219083301677,
                -2.3348921283232196
            ]
        },
        {
            "positions": [
                -0.19714003557221188,
                -1.5169506785563245,
                1.778458186982741,
                -0.729520182622339,
                0.29326998918559866,
                -2.4868765218384152
            ]
        },
        {
            "positions": [
                -0.13311276004839306,
                -1.440320053737307,
                1.8148579050388125,
                -0.7273471656921326,
                0.2613377875381805,
                -2.638860915353611
            ]
        },
        {
            "positions": [
                -0.06908548452457419,
                -1.3636894289182897,
                1.851257623094884,
                -0.7251741487619264,
                0.22940558589076235,
                -2.790845308868806
            ]
        },
        {
            "positions": [
                -0.005058209000755265,
                -1.2870588040992725,
                1.8876573411509554,
                -0.7230011318317201,
                0.19747338424334415,
                -2.942829702384002
            ]
        },
        {
            "positions": [
                0.05896906652306355,
                -1.2104281792802554,
                1.924057059207027,
                -0.7208281149015139,
                0.16554118259592604,
                -3.0948140958991974
            ]
        },
        {
            "positions": [
                0.12299634204688238,
                -1.133797554461238,
                1.9604567772630985,
                -0.7186550979713076,
                0.13360898094850787,
                -3.246798489414393
            ]
        }
    ]
}