{
    "goal": {
        "global_pose": {
            "orientation": {
                "w": 0.7047431468963623,
                "x": -0.7094548344612122,
                "y": 0.0024358443915843964,
                "z": -0.0022348060738295317
            },
            "position": {
                "x": 0.6094750761985779,
                "y": 0.3671506643295288,
                "z": 0.19426114857196808
            }
        },
        "name": "move_to_magneteinheit_A"
    },
    "id": "BKPIECE_move_to_magneteinheit_A_81",
    "joint_names": [
        "shoulder_pan_joint",
        "shoulder_lift_joint",
        "elbow_joint",
        "wrist_1_joint",
        "wrist_2_joint",
        "wrist_3_joint"
    ],
    "metrics": {
        "cart_traj_len": 3.3870327905612285,
        "distance_elbow_joint": 3.871338576642649,
        "distance_shoulder_lift_joint": 0.11548991118295682,
        "distance_shoulder_pan_joint": 2.698752580926062,
        "distance_wrist_1_joint": 1.7960158173399074,
        "distance_wrist_2_joint": 1.75696752641384,
        "distance_wrist_3_joint": 2.5788433487623643,
        "smoothness": 0.17410895732612286,
        "time": 0.30765412999999997,
        "traj_len": 3.580140746013735,
        "weighted_distance": 4.639835967202533
    },
    "planner": "BKPIECE",
    "start": {
        "state": {
            "elbow_joint": -1.919618573717145,
            "shoulder_lift_joint": -1.2443395971678275,
            "shoulder_pan_joint": 2.6996025300909787,
            "wrist_1_joint": -1.548550951253194,
            "wrist_2_joint": -1.5709469090946802,
            "wrist_3_joint": 0.4420197732051276
        }
    },
    "waypoints": [
        {
            "positions": [
                2.6996025300909787,
                -1.2443395971678275,
                -1.919618573717145,
                -1.548550951253194,
                -1.5709469090946802,
                0.4420197732051276
            ]
        },
        {
            "positions": [
                2.603460024903392,
                -1.243225907660163,
                -1.8057152808836276,
                -1.4976139097563657,
                -1.5048927403267227,
                0.5074004030629342
            ]
        },
        {
            "positions": [
                2.5073175197158046,
                -1.2421122181524988,
                -1.6918119880501103,
                -1.4466768682595372,
                -1.438838571558765,
                0.5727810329207408
            ]
        },
        {
            "positions": [
                2.411175014528218,
                -1.2409985286448344,
                -1.577908695216593,
                -1.3957398267627088,
                -1.3727844027908076,
                0.6381616627785474
            ]
        },
        {
            "positions": [
                2.3150325093406305,
                -1.23988483913717,
                -1.4640054023830757,
                -1.3448027852658804,
                -1.3067302340228502,
                0.7035422926363539
            ]
        },
        {
            "positions": [
                2.2188900041530437,
                -1.2387711496295057,
                -1.3501021095495584,
                -1.293865743769052,
                -1.2406760652548927,
                0.7689229224941605
            ]
        },
        {
            "positions": [
                2.1227474989654564,
                -1.2376574601218413,
                -1.2361988167160414,
                -1.2429287022722235,
                -1.174621896486935,
                0.8343035523519671
            ]
        },
        {
            "positions": [
                2.0266049937778696,
                -1.2365437706141769,
                -1.1222955238825238,
                -1.191991660775395,
                -1.1085677277189776,
                0.8996841822097736
            ]
        },
        {
            "positions": [
                1.9304624885902824,
                -1.2354300811065124,
                -1.0083922310490068,
                -1.1410546192785667,
                -1.0425135589510202,
                0.9650648120675802
            ]
        },
        {
            "positions": [
                1.8343199834026955,
                -1.2343163915988482,
                -0.8944889382154895,
                -1.0901175777817385,
                -0.9764593901830626,
                1.0304454419253868
            ]
        },
        {
            "positions": [
                1.7381774782151083,
                -1.2332027020911838,
                -0.780585645381972,
                -1.0391805362849098,
                -0.910405221415105,
                1.0958260717831936
            ]
        },
        {
            "positions": [
                1.6420349730275214,
                -1.2320890125835193,
                -0.6666823525484549,
                -0.9882434947880816,
                -0.8443510526471475,
                1.1612067016410001
            ]
        },
        {
            "positions": [
                1.5458924678399344,
                -1.230975323075855,
                -0.5527790597149376,
                -0.9373064532912532,
                -0.7782968838791899,
                1.2265873314988067
            ]
        },
        {
            "positions": [
                1.4497499626523473,
                -1.2298616335681907,
                -0.43887576688142027,
                -0.8863694117944247,
                -0.7122427151112325,
                1.2919679613566133
            ]
        },
        {
            "positions": [
                1.3536074574647603,
                -1.2287479440605262,
                -0.32497247404790297,
                -0.8354323702975963,
                -0.646188546343275,
                1.3573485912144199
            ]
        },
        {
            "positions": [
                1.2574649522771735,
                -1.227634254552862,
                -0.2110691812143859,
                -0.784495328800768,
                -0.5801343775753176,
                1.4227292210722264
            ]
        },
        {
            "positions": [
                1.1613224470895862,
                -1.2265205650451976,
                -0.09716588838086837,
                -0.7335582873039395,
                -0.5140802088073599,
                1.488109850930033
            ]
        },
        {
            "positions": [
                1.0651799419019992,
                -1.2254068755375331,
                0.01673740445264893,
                -0.6826212458071111,
                -0.4480260400394025,
                1.5534904807878396
            ]
        },
        {
            "positions": [
                0.9690374367144123,
                -1.224293186029869,
                0.130640697286166,
                -0.6316842043102827,
                -0.38197187127144505,
                1.6188711106456461
            ]
        },
        {
            "positions": [
                0.8728949315268253,
                -1.2231794965222045,
                0.24454399011968309,
                -0.5807471628134543,
                -0.3159177025034874,
                1.6842517405034527
            ]
        },
        {
            "positions": [
                0.776752426339238,
                -1.22206580701454,
                0.35844728295320105,
                -0.5298101213166257,
                -0.24986353373552994,
                1.7496323703612595
            ]
        },
        {
            "positions": [
                0.680609921151651,
                -1.2209521175068756,
                0.47235057578671813,
                -0.47887307981979754,
                -0.18380936496757228,
                1.815013000219066
            ]
        },
        {
            "positions": [
                0.5844674159640642,
                -1.2198384279992114,
                0.5862538686202352,
                -0.4279360383229691,
                -0.11775519619961483,
                1.8803936300768727
            ]
        },
        {
            "positions": [
                0.48832491077647733,
                -1.218724738491547,
                0.7001571614537523,
                -0.3769989968261407,
                -0.05170102743165739,
                1.9457742599346792
            ]
        },
        {
            "positions": [
                0.39218240558889006,
                -1.2176110489838825,
                0.8140604542872698,
                -0.32606195532931226,
                0.014353141336300279,
                2.011154889792486
            ]
        },
        {
            "positions": [
                0.2960399004013028,
                -1.2164973594762183,
                0.9279637471207873,
                -0.27512491383248383,
                0.08040731010425772,
                2.0765355196502924
            ]
        },
        {
            "positions": [
                0.19989739521371586,
                -1.2153836699685538,
                1.0418670399543046,
                -0.22418787233565543,
                0.14646147887221506,
                2.141916149508099
            ]
        },
        {
            "positions": [
                0.15800417142087897,
                -1.1959726793478782,
                1.174962921506215,
                -0.3039356038801427,
                0.14957027872932885,
                2.253313560731769
            ]
        },
        {
            "positions": [
                0.11611094762804208,
                -1.1765616887272023,
                1.3080588030581253,
                -0.38368333542462996,
                0.15267907858644264,
                2.3647109719554393
            ]
        },
        {
            "positions": [
                0.10238343451280632,
                -1.1650504324954083,
                1.4507161627811422,
                -0.45876234753495587,
                0.1447881577235986,
                2.4988551304560342
            ]
        },
        {
            "positions": [
                0.08865592139757056,
                -1.1535391762636142,
                1.593373522504159,
                -0.5338413596452818,
                0.13689723686075458,
                2.6329992889566287
            ]
        },
        {
            "positions": [
                0.0749284082823348,
                -1.14202792003182,
                1.7360308822271757,
                -0.6089203717556078,
                0.12900631599791057,
                2.767143447457223
            ]
        },
        {
            "positions": [
                0.061200895167099034,
                -1.130516663800026,
                1.8786882419501927,
                -0.6839993838659336,
                0.12111539513506653,
                2.901287605957818
            ]
        },
        {
            "positions": [
                0.12155184116928132,
                -1.1288496859848707,
                1.951720002925504,
                -0.6958406107580241,
                0.1193375398537252,
                3.020863121967492
            ]
        }
    ]
}{
    "goal": {
        "global_pose": {
            "orientation": {
                "w": 0.7047431468963623,
                "x": -0.7094548344612122,
                "y": 0.0024358443915843964,
                "z": -0.0022348060738295317
            },
            "position": {
                "x": 0.6094750761985779,
                "y": 0.3671506643295288,
                "z": 0.19426114857196808
            }
        },
        "name": "move_to_magneteinheit_A"
    },
    "id": "BKPIECE_move_to_magneteinheit_A_81",
    "joint_names": [
        "shoulder_pan_joint",
        "shoulder_lift_joint",
        "elbow_joint",
        "wrist_1_joint",
        "wrist_2_joint",
        "wrist_3_joint"
    ],
    "metrics": {
        "cart_traj_len": 1.2323042450640056,
        "distance_elbow_joint": 0.07937367555335317,
        "distance_shoulder_lift_joint": 0.7763328538262431,
        "distance_shoulder_pan_joint": 1.242672250114931,
        "distance_wrist_1_joint": 0.8469824935724876,
        "distance_wrist_2_joint": 1.4348335715272982,
        "distance_wrist_3_joint": 4.33779957210375,
        "smoothness": 0.05903607464733377,
        "time": 0.24727960999999998,
        "traj_len": 2.9526250044152342,
        "weighted_distance": 4.435697197285377
    },
    "planner": "BKPIECE",
    "start": {
        "state": {
            "elbow_joint": 1.919643534880228,
            "shoulder_lift_joint": -1.8972525353963687,
            "shoulder_pan_joint": -1.1188672234189438,
            "wrist_1_joint": -1.5931878212786155,
            "wrist_2_joint": 1.5706036197970081,
            "wrist_3_joint": 1.118896926603594
        }
    },
    "waypoints": [
        {
            "positions": [
                -1.1188672234189438,
                -1.8972525353963687,
                1.919643534880228,
                -1.5931878212786155,
                1.5706036197970081,
                1.118896926603594
            ]
        },
        {
            "positions": [
                -1.0628567201670536,
                -1.8623228342304612,
                1.9188551205092717,
                -1.5547005300591903,
                1.5059291095376057,
                0.923803039511697
            ]
        },
        {
            "positions": [
                -1.006846216915163,
                -1.8273931330645536,
                1.918066706138315,
                -1.516213238839765,
                1.4412545992782035,
                0.7287091524197999
            ]
        },
        {
            "positions": [
                -0.9508357136632728,
                -1.792463431898646,
                1.9172782917673585,
                -1.47772594762034,
                1.3765800890188014,
                0.533615265327903
            ]
        },
        {
            "positions": [
                -0.8948252104113825,
                -1.7575337307327388,
                1.9164898773964019,
                -1.4392386564009148,
                1.311905578759399,
                0.33852137823600603
            ]
        },
        {
            "positions": [
                -0.8388147071594922,
                -1.7226040295668312,
                1.9157014630254454,
                -1.4007513651814896,
                1.2472310684999965,
                0.14342749114410902
            ]
        },
        {
            "positions": [
                -0.7828042039076019,
                -1.6876743284009237,
                1.914913048654489,
                -1.3622640739620646,
                1.1825565582405944,
                -0.05166639594778788
            ]
        },
        {
            "positions": [
                -0.7267937006557115,
                -1.6527446272350161,
                1.9141246342835323,
                -1.3237767827426394,
                1.1178820479811922,
                -0.2467602830396849
            ]
        },
        {
            "positions": [
                -0.6707831974038212,
                -1.6178149260691086,
                1.9133362199125759,
                -1.2852894915232143,
                1.0532075377217898,
                -0.4418541701315819
            ]
        },
        {
            "positions": [
                -0.6147726941519308,
                -1.582885224903201,
                1.9125478055416192,
                -1.246802200303789,
                0.9885330274623875,
                -0.6369480572234791
            ]
        },
        {
            "positions": [
                -0.5587621909000405,
                -1.5479555237372935,
                1.9117593911706627,
                -1.208314909084364,
                0.9238585172029852,
                -0.8320419443153759
            ]
        },
        {
            "positions": [
                -0.5027516876481501,
                -1.513025822571386,
                1.9109709767997063,
                -1.1698276178649387,
                0.8591840069435829,
                -1.027135831407273
            ]
        },
        {
            "positions": [
                -0.44674118439625987,
                -1.4780961214054786,
                1.9101825624287496,
                -1.1313403266455135,
                0.7945094966841807,
                -1.2222297184991697
            ]
        },
        {
            "positions": [
                -0.3907306811443695,
                -1.443166420239571,
                1.9093941480577932,
                -1.0928530354260884,
                0.7298349864247783,
                -1.417323605591067
            ]
        },
        {
            "positions": [
                -0.3347201778924791,
                -1.4082367190736635,
                1.9086057336868365,
                -1.0543657442066632,
                0.665160476165376,
                -1.6124174926829637
            ]
        },
        {
            "positions": [
                -0.2787096746405888,
                -1.373307017907756,
                1.90781731931588,
                -1.0158784529872382,
                0.6004859659059738,
                -1.8075113797748605
            ]
        },
        {
            "positions": [
                -0.22269917138869844,
                -1.3383773167418485,
                1.9070289049449234,
                -0.9773911617678129,
                0.5358114556465714,
                -2.002605266866758
            ]
        },
        {
            "positions": [
                -0.16668866813680816,
                -1.3034476155759411,
                1.906240490573967,
                -0.9389038705483878,
                0.4711369453871692,
                -2.197699153958655
            ]
        },
        {
            "positions": [
                -0.11067816488491777,
                -1.2685179144100336,
                1.9054520762030105,
                -0.9004165793289626,
                0.4064624351277668,
                -2.3927930410505525
            ]
        },
        {
            "positions": [
                -0.0546676616330275,
                -1.233588213244126,
                1.9046636618320538,
                -0.8619292881095374,
                0.3417879248683644,
                -2.5878869281424492
            ]
        },
        {
            "positions": [
                0.0013428416188627779,
                -1.1986585120782185,
                1.9038752474610974,
                -0.8234419968901123,
                0.2771134146089622,
                -2.782980815234346
            ]
        },
        {
            "positions": [
                0.057353344870753276,
                -1.163728810912311,
                1.9030868330901407,
                -0.7849547056706871,
                0.2124389043495598,
                -2.978074702326243
            ]
        },
        {
            "positions": [
                0.11336384812264344,
                -1.1287991097464034,
                1.9022984187191843,
                -0.746467414451262,
                0.14776439409015762,
                -3.17316858941814
            ]
        },
        {
            "positions": [
                0.12380502669598704,
                -1.1366785379226811,
                1.9643269781114936,
                -0.746729501196396,
                0.13577004826970995,
                -3.2189026455001546
            ]
        }
    ]
}