{
    "goal": {
        "global_pose": {
            "orientation": {
                "w": 0.7047431468963623,
                "x": -0.7094548344612122,
                "y": 0.0024358443915843964,
                "z": -0.0022348060738295317
            },
            "position": {
                "x": 0.6094750761985779,
                "y": 0.3671506643295288,
                "z": 0.19426114857196808
            }
        },
        "name": "move_to_magneteinheit_A"
    },
    "id": "BKPIECE_move_to_magneteinheit_A_73",
    "joint_names": [
        "shoulder_pan_joint",
        "shoulder_lift_joint",
        "elbow_joint",
        "wrist_1_joint",
        "wrist_2_joint",
        "wrist_3_joint"
    ],
    "metrics": {
        "cart_traj_len": 3.27074955494999,
        "distance_elbow_joint": 3.9151573450190424,
        "distance_shoulder_lift_joint": 0.46563450451795996,
        "distance_shoulder_pan_joint": 2.898071794270667,
        "distance_wrist_1_joint": 3.478957535463495,
        "distance_wrist_2_joint": 1.6813829604022072,
        "distance_wrist_3_joint": 1.2572971054039885,
        "smoothness": 0.16502888873907573,
        "time": 0.240360642,
        "traj_len": 3.7008784423535674,
        "weighted_distance": 4.622925042843659
    },
    "planner": "BKPIECE",
    "start": {
        "state": {
            "elbow_joint": -1.919618573717145,
            "shoulder_lift_joint": -1.2443395971678275,
            "shoulder_pan_joint": 2.6996025300909787,
            "wrist_1_joint": -1.548550951253194,
            "wrist_2_joint": -1.5709469090946802,
            "wrist_3_joint": 0.4420197732051276
        }
    },
    "waypoints": [
        {
            "positions": [
                2.6996025300909787,
                -1.2443395971678275,
                -1.919618573717145,
                -1.548550951253194,
                -1.5709469090946802,
                0.4420197732051276
            ]
        },
        {
            "positions": [
                2.589420541572697,
                -1.2399410175326036,
                -1.8008097512284664,
                -1.46294772875299,
                -1.5163093824517615,
                0.45748812110853604
            ]
        },
        {
            "positions": [
                2.4792385530544148,
                -1.2355424378973796,
                -1.682000928739788,
                -1.3773445062527856,
                -1.4616718558088428,
                0.4729564690119445
            ]
        },
        {
            "positions": [
                2.369056564536133,
                -1.2311438582621559,
                -1.5631921062511092,
                -1.2917412837525815,
                -1.4070343291659242,
                0.488424816915353
            ]
        },
        {
            "positions": [
                2.2588745760178512,
                -1.226745278626932,
                -1.4443832837624306,
                -1.2061380612523773,
                -1.3523968025230053,
                0.5038931648187615
            ]
        },
        {
            "positions": [
                2.148692587499569,
                -1.222346698991708,
                -1.3255744612737521,
                -1.120534838752173,
                -1.2977592758800867,
                0.5193615127221699
            ]
        },
        {
            "positions": [
                2.0385105989812873,
                -1.217948119356484,
                -1.2067656387850736,
                -1.0349316162519688,
                -1.243121749237168,
                0.5348298606255784
            ]
        },
        {
            "positions": [
                1.9283286104630053,
                -1.2135495397212601,
                -1.087956816296395,
                -0.9493283937517646,
                -1.1884842225942494,
                0.5502982085289868
            ]
        },
        {
            "positions": [
                1.8181466219447235,
                -1.2091509600860364,
                -0.9691479938077165,
                -0.8637251712515605,
                -1.1338466959513307,
                0.5657665564323953
            ]
        },
        {
            "positions": [
                1.7079646334264416,
                -1.2047523804508125,
                -0.8503391713190378,
                -0.7781219487513562,
                -1.0792091693084118,
                0.5812349043358038
            ]
        },
        {
            "positions": [
                1.5977826449081596,
                -1.2003538008155885,
                -0.7315303488303593,
                -0.692518726251152,
                -1.0245716426654932,
                0.5967032522392122
            ]
        },
        {
            "positions": [
                1.4876006563898778,
                -1.1959552211803646,
                -0.6127215263416808,
                -0.6069155037509478,
                -0.9699341160225746,
                0.6121716001426207
            ]
        },
        {
            "positions": [
                1.3774186678715958,
                -1.1915566415451408,
                -0.49391270385300223,
                -0.5213122812507436,
                -0.9152965893796559,
                0.6276399480460292
            ]
        },
        {
            "positions": [
                1.267236679353314,
                -1.187158061909917,
                -0.3751038813643237,
                -0.43570905875053945,
                -0.8606590627367372,
                0.6431082959494376
            ]
        },
        {
            "positions": [
                1.1570546908350319,
                -1.182759482274693,
                -0.25629505887564497,
                -0.3501058362503351,
                -0.8060215360938184,
                0.6585766438528461
            ]
        },
        {
            "positions": [
                1.0468727023167501,
                -1.178360902639469,
                -0.13748623638696666,
                -0.26450261375013095,
                -0.7513840094508998,
                0.6740449917562545
            ]
        },
        {
            "positions": [
                0.9366907137984684,
                -1.173962323004245,
                -0.018677413898288142,
                -0.17889939124992682,
                -0.6967464828079811,
                0.689513339659663
            ]
        },
        {
            "positions": [
                0.8265087252801862,
                -1.1695637433690211,
                0.10013140859039082,
                -0.09329616874972246,
                -0.6421089561650624,
                0.7049816875630714
            ]
        },
        {
            "positions": [
                0.7163267367619044,
                -1.1651651637337974,
                0.21894023107906935,
                -0.007692946249518329,
                -0.5874714295221437,
                0.72045003546648
            ]
        },
        {
            "positions": [
                0.6061447482436226,
                -1.1607665840985735,
                0.3377490535677474,
                0.0779102762506858,
                -0.532833902879225,
                0.7359183833698884
            ]
        },
        {
            "positions": [
                0.49596275972534043,
                -1.1563680044633495,
                0.4565578760564264,
                0.16351349875089016,
                -0.4781963762363062,
                0.7513867312732969
            ]
        },
        {
            "positions": [
                0.38578077120705867,
                -1.1519694248281256,
                0.5753666985451049,
                0.2491167212510943,
                -0.4235588495933875,
                0.7668550791767053
            ]
        },
        {
            "positions": [
                0.2755987826887769,
                -1.1475708451929019,
                0.6941755210337834,
                0.33471994375129843,
                -0.3689213229504691,
                0.7823234270801138
            ]
        },
        {
            "positions": [
                0.1654167941704947,
                -1.143172265557678,
                0.812984343522462,
                0.4203231662515028,
                -0.3142837963075502,
                0.7977917749835223
            ]
        },
        {
            "positions": [
                0.055234805652212914,
                -1.138773685922454,
                0.9317931660111405,
                0.5059263887517067,
                -0.25964626966463167,
                0.8132601228869307
            ]
        },
        {
            "positions": [
                0.04590178154800428,
                -1.1034058152155521,
                1.0162420538311796,
                0.634744344680974,
                -0.23450064990658376,
                0.7280381514010645
            ]
        },
        {
            "positions": [
                0.03656875744379566,
                -1.0680379445086505,
                1.1006909416512187,
                0.7635623006102412,
                -0.20935503014853582,
                0.6428161799151985
            ]
        },
        {
            "positions": [
                0.027235733339587034,
                -1.0326700738017487,
                1.1851398294712578,
                0.8923802565395085,
                -0.1842094103904879,
                0.5575942084293324
            ]
        },
        {
            "positions": [
                0.0179027092353784,
                -0.9973022030948469,
                1.269588717291297,
                1.0211982124687755,
                -0.15906379063243997,
                0.47237223694346614
            ]
        },
        {
            "positions": [
                0.008569685131169777,
                -0.9619343323879451,
                1.354037605111336,
                1.150016168398043,
                -0.13391817087439206,
                0.3871502654576
            ]
        },
        {
            "positions": [
                -0.0007633389730388462,
                -0.9265664616810434,
                1.4384864929313752,
                1.27883412432731,
                -0.10877255111634415,
                0.30192829397173393
            ]
        },
        {
            "positions": [
                -0.010096363077247476,
                -0.8911985909741416,
                1.5229353807514143,
                1.4076520802565773,
                -0.08362693135829624,
                0.21670632248586774
            ]
        },
        {
            "positions": [
                -0.019429387181456113,
                -0.8558307202672397,
                1.6073842685714534,
                1.5364700361858445,
                -0.058481311600248276,
                0.13148435100000155
            ]
        },
        {
            "positions": [
                -0.028762411285664737,
                -0.8204628495603381,
                1.6918331563914926,
                1.6652879921151118,
                -0.033335691842200366,
                0.046262379514135366
            ]
        },
        {
            "positions": [
                -0.03809543538987336,
                -0.7850949788534363,
                1.7762820442115317,
                1.794105948044379,
                -0.008190072084152428,
                -0.03895959197173072
            ]
        },
        {
            "positions": [
                0.04209147900503369,
                -0.7819000357516519,
                1.885910407756716,
                1.8622562661273405,
                -0.06750313377999201,
                -0.022041071539968874
            ]
        },
        {
            "positions": [
                0.12227839339994073,
                -0.7787050926498675,
                1.9955387713019002,
                1.9304065842103022,
                -0.1268161954758316,
                -0.0051225511082070305
            ]
        }
    ]
}{
    "goal": {
        "global_pose": {
            "orientation": {
                "w": 0.7047431468963623,
                "x": -0.7094548344612122,
                "y": 0.0024358443915843964,
                "z": -0.0022348060738295317
            },
            "position": {
                "x": 0.6094750761985779,
                "y": 0.3671506643295288,
                "z": 0.19426114857196808
            }
        },
        "name": "move_to_magneteinheit_A"
    },
    "id": "BKPIECE_move_to_magneteinheit_A_73",
    "joint_names": [
        "shoulder_pan_joint",
        "shoulder_lift_joint",
        "elbow_joint",
        "wrist_1_joint",
        "wrist_2_joint",
        "wrist_3_joint"
    ],
    "metrics": {
        "cart_traj_len": 2.0870667174854507,
        "distance_elbow_joint": 3.901740273051586,
        "distance_shoulder_lift_joint": 0.7629309295974602,
        "distance_shoulder_pan_joint": 1.2425769912378797,
        "distance_wrist_1_joint": 6.200322544354654,
        "distance_wrist_2_joint": 4.256471869551408,
        "distance_wrist_3_joint": 4.833336177245998,
        "smoothness": 0.40704263637428534,
        "time": 0.20903265599999998,
        "traj_len": 4.60406111873409,
        "weighted_distance": 6.4281292421230205
    },
    "planner": "BKPIECE",
    "start": {
        "state": {
            "elbow_joint": 1.919643534880228,
            "shoulder_lift_joint": -1.8972525353963687,
            "shoulder_pan_joint": -1.1188672234189438,
            "wrist_1_joint": -1.5931878212786155,
            "wrist_2_joint": 1.5706036197970081,
            "wrist_3_joint": 1.118896926603594
        }
    },
    "waypoints": [
        {
            "positions": [
                -1.1188672234189438,
                -1.8972525353963687,
                1.919643534880228,
                -1.5931878212786155,
                1.5706036197970081,
                1.118896926603594
            ]
        },
        {
            "positions": [
                -1.1037958506610108,
                -1.8761920747135035,
                1.8663168481531163,
                -1.496521193097355,
                1.4914367710770637,
                0.9926191421184223
            ]
        },
        {
            "positions": [
                -1.0887244779030778,
                -1.855131614030638,
                1.8129901614260044,
                -1.3998545649160943,
                1.4122699223571193,
                0.8663413576332506
            ]
        },
        {
            "positions": [
                -1.0736531051451448,
                -1.8340711533477727,
                1.7596634746988926,
                -1.3031879367348338,
                1.3331030736371752,
                0.7400635731480789
            ]
        },
        {
            "positions": [
                -1.0585817323872118,
                -1.8130106926649072,
                1.7063367879717808,
                -1.206521308553573,
                1.2539362249172308,
                0.6137857886629071
            ]
        },
        {
            "positions": [
                -1.0435103596292787,
                -1.791950231982042,
                1.653010101244669,
                -1.1098546803723126,
                1.1747693761972864,
                0.48750800417773543
            ]
        },
        {
            "positions": [
                -1.0284389868713457,
                -1.7708897712991765,
                1.5996834145175574,
                -1.013188052191052,
                1.0956025274773422,
                0.36123021969256375
            ]
        },
        {
            "positions": [
                -1.0133676141134127,
                -1.7498293106163112,
                1.5463567277904453,
                -0.9165214240097914,
                1.0164356787573978,
                0.23495243520739195
            ]
        },
        {
            "positions": [
                -0.9982962413554797,
                -1.728768849933446,
                1.4930300410633337,
                -0.8198547958285308,
                0.9372688300374534,
                0.10867465072222027
            ]
        },
        {
            "positions": [
                -0.9832248685975467,
                -1.7077083892505804,
                1.4397033543362219,
                -0.7231881676472702,
                0.858101981317509,
                -0.017603133762951417
            ]
        },
        {
            "positions": [
                -0.9681534958396136,
                -1.6866479285677152,
                1.38637666760911,
                -0.6265215394660096,
                0.7789351325975646,
                -0.1438809182481231
            ]
        },
        {
            "positions": [
                -0.9530821230816806,
                -1.6655874678848497,
                1.3330499808819982,
                -0.529854911284749,
                0.6997682838776202,
                -0.270158702733295
            ]
        },
        {
            "positions": [
                -0.9380107503237477,
                -1.6445270072019844,
                1.2797232941548864,
                -0.43318828310348856,
                0.6206014351576761,
                -0.39643648721846647
            ]
        },
        {
            "positions": [
                -0.9229393775658147,
                -1.623466546519119,
                1.2263966074277746,
                -0.33652165492222785,
                0.5414345864377317,
                -0.5227142717036382
            ]
        },
        {
            "positions": [
                -0.9078680048078817,
                -1.6024060858362537,
                1.1730699207006627,
                -0.23985502674096737,
                0.4622677377177873,
                -0.6489920561888101
            ]
        },
        {
            "positions": [
                -0.8927966320499486,
                -1.5813456251533884,
                1.119743233973551,
                -0.14318839855970666,
                0.3831008889978429,
                -0.7752698406739817
            ]
        },
        {
            "positions": [
                -0.8777252592920156,
                -1.560285164470523,
                1.066416547246439,
                -0.04652177037844618,
                0.3039340402778987,
                -0.9015476251591534
            ]
        },
        {
            "positions": [
                -0.8626538865340826,
                -1.5392247037876576,
                1.0130898605193273,
                0.0501448578028143,
                0.22476719155795433,
                -1.027825409644325
            ]
        },
        {
            "positions": [
                -0.8475825137761496,
                -1.5181642431047924,
                0.9597631737922154,
                0.146811485984075,
                0.14560034283800993,
                -1.1541031941294968
            ]
        },
        {
            "positions": [
                -0.8325111410182165,
                -1.4971037824219269,
                0.9064364870651036,
                0.2434781141653357,
                0.06643349411806554,
                -1.2803809786146687
            ]
        },
        {
            "positions": [
                -0.8174397682602835,
                -1.4760433217390614,
                0.8531098003379918,
                0.3401447423465962,
                -0.012733354601878855,
                -1.4066587630998402
            ]
        },
        {
            "positions": [
                -0.8023683955023505,
                -1.4549828610561961,
                0.79978311361088,
                0.4368113705278567,
                -0.09190020332182325,
                -1.532936547585012
            ]
        },
        {
            "positions": [
                -0.7872970227444175,
                -1.4339224003733309,
                0.7464564268837681,
                0.5334779987091174,
                -0.17106705204176764,
                -1.659214332070184
            ]
        },
        {
            "positions": [
                -0.7722256499864846,
                -1.4128619396904654,
                0.6931297401566565,
                0.6301446268903776,
                -0.2502339007617116,
                -1.785492116555355
            ]
        },
        {
            "positions": [
                -0.7571542772285516,
                -1.3918014790076,
                0.6398030534295447,
                0.7268112550716384,
                -0.329400749481656,
                -1.911769901040527
            ]
        },
        {
            "positions": [
                -0.7420829044706185,
                -1.3707410183247348,
                0.5864763667024329,
                0.8234778832528991,
                -0.4085675982016004,
                -2.038047685525699
            ]
        },
        {
            "positions": [
                -0.7270115317126855,
                -1.3496805576418693,
                0.533149679975321,
                0.9201445114341598,
                -0.4877344469215448,
                -2.16432547001087
            ]
        },
        {
            "positions": [
                -0.7119401589547525,
                -1.328620096959004,
                0.4798229932482092,
                1.01681113961542,
                -0.5669012956414892,
                -2.290603254496042
            ]
        },
        {
            "positions": [
                -0.6968687861968195,
                -1.3075596362761388,
                0.42649630652109716,
                1.1134777677966807,
                -0.6460681443614336,
                -2.416881038981214
            ]
        },
        {
            "positions": [
                -0.6817974134388864,
                -1.2864991755932733,
                0.37316961979398533,
                1.2101443959779414,
                -0.725234993081378,
                -2.5431588234663858
            ]
        },
        {
            "positions": [
                -0.6667260406809534,
                -1.2654387149104078,
                0.3198429330668735,
                1.3068110241592021,
                -0.8044018418013223,
                -2.6694366079515577
            ]
        },
        {
            "positions": [
                -0.6516546679230204,
                -1.2443782542275426,
                0.2665162463397617,
                1.4034776523404628,
                -0.8835686905212667,
                -2.7957143924367296
            ]
        },
        {
            "positions": [
                -0.6365832951650874,
                -1.2233177935446773,
                0.21318955961265007,
                1.500144280521723,
                -0.9627355392412107,
                -2.9219921769219006
            ]
        },
        {
            "positions": [
                -0.6215119224071544,
                -1.2022573328618118,
                0.15986287288553824,
                1.5968109087029838,
                -1.041902387961155,
                -3.0482699614070716
            ]
        },
        {
            "positions": [
                -0.6064405496492213,
                -1.1811968721789465,
                0.10653618615842642,
                1.693477536884244,
                -1.1210692366810995,
                -3.1745477458922435
            ]
        },
        {
            "positions": [
                -0.5913691768912883,
                -1.1601364114960813,
                0.05320949943131459,
                1.7901441650655048,
                -1.2002360854010439,
                -3.3008255303774154
            ]
        },
        {
            "positions": [
                -0.5762978041333553,
                -1.1390759508132158,
                -0.00011718729579723863,
                1.8868107932467653,
                -1.279402934120988,
                -3.4271033148625873
            ]
        },
        {
            "positions": [
                -0.5374084945804503,
                -1.1393400810917884,
                0.10999278775284503,
                1.735681686034028,
                -1.201265972141354,
                -3.411140207319264
            ]
        },
        {
            "positions": [
                -0.4985191850275451,
                -1.139604211370361,
                0.2201027628014873,
                1.5845525788212909,
                -1.1231290101617202,
                -3.3951770997759407
            ]
        },
        {
            "positions": [
                -0.45962987547464007,
                -1.1398683416489337,
                0.33021273785012956,
                1.4334234716085539,
                -1.0449920481820862,
                -3.379213992232617
            ]
        },
        {
            "positions": [
                -0.4207405659217349,
                -1.1401324719275063,
                0.44032271289877184,
                1.2822943643958165,
                -0.9668550862024523,
                -3.3632508846892937
            ]
        },
        {
            "positions": [
                -0.3818512563688299,
                -1.140396602206079,
                0.5504326879474142,
                1.1311652571830795,
                -0.8887181242228184,
                -3.3472877771459704
            ]
        },
        {
            "positions": [
                -0.3429619468159248,
                -1.1406607324846516,
                0.6605426629960564,
                0.9800361499703423,
                -0.8105811622431844,
                -3.331324669602647
            ]
        },
        {
            "positions": [
                -0.3040726372630197,
                -1.1409248627632242,
                0.7706526380446986,
                0.8289070427576051,
                -0.7324442002635504,
                -3.3153615620593238
            ]
        },
        {
            "positions": [
                -0.2651833277101146,
                -1.1411889930417969,
                0.8807626130933409,
                0.6777779355448679,
                -0.6543072382839165,
                -3.2993984545160004
            ]
        },
        {
            "positions": [
                -0.2262940181572095,
                -1.1414531233203693,
                0.9908725881419832,
                0.5266488283321307,
                -0.5761702763042825,
                -3.283435346972677
            ]
        },
        {
            "positions": [
                -0.18740470860430442,
                -1.141717253598942,
                1.1009825631906256,
                0.37551972111939347,
                -0.4980333143246486,
                -3.2674722394293534
            ]
        },
        {
            "positions": [
                -0.14851539905139932,
                -1.1419813838775146,
                1.2110925382392679,
                0.22439061390665627,
                -0.41989635234501455,
                -3.25150913188603
            ]
        },
        {
            "positions": [
                -0.10962608949849428,
                -1.1422455141560872,
                1.32120251328791,
                0.07326150669391929,
                -0.3417593903653807,
                -3.2355460243427068
            ]
        },
        {
            "positions": [
                -0.07073677994558913,
                -1.1425096444346599,
                1.4313124883365522,
                -0.07786760051881791,
                -0.2636224283857467,
                -3.2195829167993835
            ]
        },
        {
            "positions": [
                -0.031847470392684096,
                -1.1427737747132325,
                1.5414224633851945,
                -0.22899670773155512,
                -0.18548546640611274,
                -3.20361980925606
            ]
        },
        {
            "positions": [
                0.007041839160221053,
                -1.1430379049918051,
                1.6515324384338368,
                -0.38012581494429254,
                -0.10734850442647881,
                -3.1876567017127364
            ]
        },
        {
            "positions": [
                0.04593114871312609,
                -1.1433020352703778,
                1.761642413482479,
                -0.5312549221570295,
                -0.029211542446844874,
                -3.171693594169413
            ]
        },
        {
            "positions": [
                0.08482045826603113,
                -1.1435661655489504,
                1.8717523885311214,
                -0.6823840293697665,
                0.04892541953278906,
                -3.15573048662609
            ]
        },
        {
            "positions": [
                0.12370976781893625,
                -1.143830295827523,
                1.9818623635797636,
                -0.8335131365825038,
                0.12706238151242302,
                -3.1397673790827665
            ]
        }
    ]
}