{
    "goal": {
        "global_pose": {
            "orientation": {
                "w": 0.5084816217422485,
                "x": -0.49083608388900757,
                "y": 0.5182115435600281,
                "z": -0.4816462993621826
            },
            "position": {
                "x": 0.5540239810943604,
                "y": 0.030875300988554955,
                "z": 0.16403168439865112
            }
        },
        "name": "move_to_storage_A"
    },
    "id": "BKPIECE_move_to_storage_A_120",
    "joint_names": [
        "shoulder_pan_joint",
        "shoulder_lift_joint",
        "elbow_joint",
        "wrist_1_joint",
        "wrist_2_joint",
        "wrist_3_joint"
    ],
    "metrics": {
        "cart_traj_len": 0.35377105938782627,
        "distance_elbow_joint": 0.4495573577887373,
        "distance_shoulder_lift_joint": 0.23310984729651096,
        "distance_shoulder_pan_joint": 0.4632320597208313,
        "distance_wrist_1_joint": 0.24191266900822306,
        "distance_wrist_2_joint": 1.0968422060264973,
        "distance_wrist_3_joint": 0.1021109913681264,
        "smoothness": 6.661338165333112e-16,
        "time": 0.171081119,
        "traj_len": 1.608342355100097,
        "weighted_distance": 2.0321766628371414
    },
    "planner": "BKPIECE",
    "start": {
        "state": {
            "elbow_joint": 1.9715477243005601,
            "shoulder_lift_joint": -1.1394853015351272,
            "shoulder_pan_joint": 0.12281154014795169,
            "wrist_1_joint": -0.7804696478968182,
            "wrist_2_joint": 0.12958648046900423,
            "wrist_3_joint": -3.192491284697111
        }
    },
    "waypoints": [
        {
            "positions": [
                0.12281154014795169,
                -1.1394853015351272,
                1.9715477243005601,
                -0.7804696478968182,
                0.12958648046900423,
                -3.192491284697111
            ]
        },
        {
            "positions": [
                0.05663553161640436,
                -1.1727867082917716,
                2.0357702039846655,
                -0.8150286006122786,
                0.28627822418707527,
                -3.17790400021595
            ]
        },
        {
            "positions": [
                -0.009540476915142967,
                -1.206088115048416,
                2.099992683668771,
                -0.849587553327739,
                0.4429699679051463,
                -3.1633167157347892
            ]
        },
        {
            "positions": [
                -0.07571648544669028,
                -1.2393895218050603,
                2.164215163352876,
                -0.8841465060431994,
                0.5996617116232174,
                -3.1487294312536283
            ]
        },
        {
            "positions": [
                -0.1418924939782376,
                -1.2726909285617047,
                2.2284376430369814,
                -0.9187054587586599,
                0.7563534553412884,
                -3.1341421467724677
            ]
        },
        {
            "positions": [
                -0.20806850250978498,
                -1.3059923353183494,
                2.2926601227210868,
                -0.9532644114741203,
                0.9130451990593594,
                -3.1195548622913067
            ]
        },
        {
            "positions": [
                -0.27424451104133224,
                -1.3392937420749937,
                2.356882602405192,
                -0.9878233641895808,
                1.0697369427774306,
                -3.1049675778101458
            ]
        },
        {
            "positions": [
                -0.3404205195728796,
                -1.3725951488316381,
                2.4211050820892974,
                -1.0223823169050412,
                1.2264286864955016,
                -3.090380293328985
            ]
        }
    ]
}