{
    "goal": {
        "global_pose": {
            "orientation": {
                "w": 0.5084816217422485,
                "x": -0.49083608388900757,
                "y": 0.5182115435600281,
                "z": -0.4816462993621826
            },
            "position": {
                "x": 0.5540239810943604,
                "y": 0.030875300988554955,
                "z": 0.16403168439865112
            }
        },
        "name": "move_to_storage_A"
    },
    "id": "BKPIECE_move_to_storage_A_93",
    "joint_names": [
        "shoulder_pan_joint",
        "shoulder_lift_joint",
        "elbow_joint",
        "wrist_1_joint",
        "wrist_2_joint",
        "wrist_3_joint"
    ],
    "metrics": {
        "cart_traj_len": 0.3530444033011935,
        "distance_elbow_joint": 0.449480653569474,
        "distance_shoulder_lift_joint": 0.2344249873939528,
        "distance_shoulder_pan_joint": 0.46261778610240806,
        "distance_wrist_1_joint": 0.24286109455103044,
        "distance_wrist_2_joint": 1.0943405948912357,
        "distance_wrist_3_joint": 0.10655831331667454,
        "smoothness": 8.881784197001252e-16,
        "time": 0.195252556,
        "traj_len": 1.6094357488961077,
        "weighted_distance": 2.034846860552506
    },
    "planner": "BKPIECE",
    "start": {
        "state": {
            "elbow_joint": 1.9715477243005601,
            "shoulder_lift_joint": -1.1394853015351272,
            "shoulder_pan_joint": 0.12281154014795169,
            "wrist_1_joint": -0.7804696478968182,
            "wrist_2_joint": 0.12958648046900423,
            "wrist_3_joint": -3.192491284697111
        }
    },
    "waypoints": [
        {
            "positions": [
                0.12281154014795169,
                -1.1394853015351272,
                1.9715477243005601,
                -0.7804696478968182,
                0.12958648046900423,
                -3.192491284697111
            ]
        },
        {
            "positions": [
                0.056723284990464834,
                -1.172974585448549,
                2.0357592462390564,
                -0.8151640899755368,
                0.2859208511677522,
                -3.177268668509015
            ]
        },
        {
            "positions": [
                -0.009364970167022021,
                -1.206463869361971,
                2.0999707681775526,
                -0.8498585320542554,
                0.4422552218665001,
                -3.1620460523209184
            ]
        },
        {
            "positions": [
                -0.07545322532450889,
                -1.2399531532753927,
                2.164182290116049,
                -0.8845529741329741,
                0.598589592565248,
                -3.1468234361328222
            ]
        },
        {
            "positions": [
                -0.14154148048199572,
                -1.2734424371888144,
                2.228393812054545,
                -0.9192474162116927,
                0.754923963263996,
                -3.1316008199447256
            ]
        },
        {
            "positions": [
                -0.20762973563948262,
                -1.3069317211022362,
                2.2926053339930417,
                -0.9539418582904113,
                0.911258333962744,
                -3.1163782037566294
            ]
        },
        {
            "positions": [
                -0.27371799079696946,
                -1.3404210050156582,
                2.356816855931538,
                -0.98863630036913,
                1.067592704661492,
                -3.101155587568533
            ]
        },
        {
            "positions": [
                -0.33980624595445635,
                -1.37391028892908,
                2.421028377870034,
                -1.0233307424478486,
                1.22392707536024,
                -3.0859329713804367
            ]
        }
    ]
}