{
    "goal": {
        "global_pose": {
            "orientation": {
                "w": 0.7047431468963623,
                "x": -0.7094548344612122,
                "y": 0.0024358443915843964,
                "z": -0.0022348060738295317
            },
            "position": {
                "x": 0.6094750761985779,
                "y": 0.3671506643295288,
                "z": 0.19426114857196808
            }
        },
        "name": "move_to_magneteinheit_A"
    },
    "id": "BKPIECE_move_to_magneteinheit_A_119",
    "joint_names": [
        "shoulder_pan_joint",
        "shoulder_lift_joint",
        "elbow_joint",
        "wrist_1_joint",
        "wrist_2_joint",
        "wrist_3_joint"
    ],
    "metrics": {
        "cart_traj_len": 3.449270174879575,
        "distance_elbow_joint": 3.887980345793165,
        "distance_shoulder_lift_joint": 0.10615234425270059,
        "distance_shoulder_pan_joint": 2.7654279942235296,
        "distance_wrist_1_joint": 1.0525383144686264,
        "distance_wrist_2_joint": 1.7658374362504223,
        "distance_wrist_3_joint": 3.6344967250739457,
        "smoothness": 0.09664347466820497,
        "time": 0.21653731599999998,
        "traj_len": 3.634891079532149,
        "weighted_distance": 4.826986882199841
    },
    "planner": "BKPIECE",
    "start": {
        "state": {
            "elbow_joint": -1.919618573717145,
            "shoulder_lift_joint": -1.2443395971678275,
            "shoulder_pan_joint": 2.6996025300909787,
            "wrist_1_joint": -1.548550951253194,
            "wrist_2_joint": -1.5709469090946802,
            "wrist_3_joint": 0.4420197732051276
        }
    },
    "waypoints": [
        {
            "positions": [
                2.6996025300909787,
                -1.2443395971678275,
                -1.919618573717145,
                -1.548550951253194,
                -1.5709469090946802,
                0.4420197732051276
            ]
        },
        {
            "positions": [
                2.605633249022458,
                -1.2421976546520208,
                -1.806978758866803,
                -1.5087218948234786,
                -1.4973271489044166,
                0.3838240840503967
            ]
        },
        {
            "positions": [
                2.5116639679539365,
                -1.2400557121362141,
                -1.6943389440164607,
                -1.4688928383937632,
                -1.4237073887141534,
                0.32562839489566575
            ]
        },
        {
            "positions": [
                2.4176946868854157,
                -1.2379137696204074,
                -1.5816991291661187,
                -1.4290637819640477,
                -1.3500876285238899,
                0.2674327057409348
            ]
        },
        {
            "positions": [
                2.3237254058168944,
                -1.2357718271046008,
                -1.4690593143157766,
                -1.3892347255343322,
                -1.2764678683336264,
                0.20923701658620392
            ]
        },
        {
            "positions": [
                2.2297561247483735,
                -1.233629884588794,
                -1.3564194994654346,
                -1.3494056691046166,
                -1.202848108143363,
                0.15104132743147297
            ]
        },
        {
            "positions": [
                2.1357868436798526,
                -1.2314879420729874,
                -1.2437796846150924,
                -1.309576612674901,
                -1.1292283479530996,
                0.09284563827674208
            ]
        },
        {
            "positions": [
                2.0418175626113313,
                -1.2293459995571807,
                -1.1311398697647501,
                -1.2697475562451856,
                -1.055608587762836,
                0.03464994912201114
            ]
        },
        {
            "positions": [
                1.9478482815428102,
                -1.227204057041374,
                -1.018500054914408,
                -1.2299184998154702,
                -0.9819888275725727,
                -0.023545740032719753
            ]
        },
        {
            "positions": [
                1.853879000474289,
                -1.2250621145255673,
                -0.9058602400640661,
                -1.1900894433857547,
                -0.9083690673823092,
                -0.0817414291874507
            ]
        },
        {
            "positions": [
                1.7599097194057682,
                -1.2229201720097607,
                -0.793220425213724,
                -1.1502603869560393,
                -0.8347493071920458,
                -0.13993711834218164
            ]
        },
        {
            "positions": [
                1.665940438337247,
                -1.220778229493954,
                -0.6805806103633818,
                -1.1104313305263238,
                -0.7611295470017823,
                -0.1981328074969126
            ]
        },
        {
            "positions": [
                1.571971157268726,
                -1.2186362869781475,
                -0.5679407955130398,
                -1.0706022740966081,
                -0.687509786811519,
                -0.2563284966516434
            ]
        },
        {
            "positions": [
                1.478001876200205,
                -1.2164943444623408,
                -0.45530098066269775,
                -1.030773217666893,
                -0.6138900266212556,
                -0.31452418580637437
            ]
        },
        {
            "positions": [
                1.3840325951316836,
                -1.2143524019465342,
                -0.3426611658123555,
                -0.9909441612371772,
                -0.540270266430992,
                -0.3727198749611053
            ]
        },
        {
            "positions": [
                1.2900633140631628,
                -1.2122104594307275,
                -0.23002135096201348,
                -0.9511151048074618,
                -0.46665050624072846,
                -0.43091556411583626
            ]
        },
        {
            "positions": [
                1.1960940329946417,
                -1.2100685169149208,
                -0.11738153611167146,
                -0.9112860483777463,
                -0.3930307460504652,
                -0.4891112532705671
            ]
        },
        {
            "positions": [
                1.1021247519261208,
                -1.207926574399114,
                -0.004741721261329435,
                -0.8714569919480308,
                -0.3194109858602019,
                -0.5473069424252981
            ]
        },
        {
            "positions": [
                1.0081554708575995,
                -1.2057846318833074,
                0.10789809358901281,
                -0.8316279355183153,
                -0.24579122566993816,
                -0.6055026315800289
            ]
        },
        {
            "positions": [
                0.9141861897890784,
                -1.2036426893675007,
                0.22053790843935484,
                -0.7917988790885998,
                -0.17217146547967488,
                -0.6636983207347598
            ]
        },
        {
            "positions": [
                0.8202169087205575,
                -1.201500746851694,
                0.33317772328969686,
                -0.7519698226588843,
                -0.09855170528941137,
                -0.7218940098894908
            ]
        },
        {
            "positions": [
                0.7262476276520364,
                -1.1993588043358874,
                0.4458175381400389,
                -0.7121407662291689,
                -0.02493194509914809,
                -0.7800896990442217
            ]
        },
        {
            "positions": [
                0.6322783465835151,
                -1.1972168618200807,
                0.5584573529903814,
                -0.6723117097994533,
                0.04868781509111564,
                -0.8382853881989527
            ]
        },
        {
            "positions": [
                0.5383090655149945,
                -1.195074919304274,
                0.6710971678407233,
                -0.6324826533697379,
                0.12230757528137898,
                -0.8964810773536835
            ]
        },
        {
            "positions": [
                0.4873561559547191,
                -1.190643471615926,
                0.7860855743288668,
                -0.6399571266003593,
                0.12658418252072753,
                -1.0786862862793818
            ]
        },
        {
            "positions": [
                0.4364032463944437,
                -1.1862120239275782,
                0.9010739808170103,
                -0.6474315998309808,
                0.13086078976007612,
                -1.26089149520508
            ]
        },
        {
            "positions": [
                0.3854503368341684,
                -1.1817805762392302,
                1.0160623873051537,
                -0.6549060730616022,
                0.13513739699942467,
                -1.4430967041307783
            ]
        },
        {
            "positions": [
                0.334497427273893,
                -1.1773491285508821,
                1.1310507937932974,
                -0.6623805462922236,
                0.13941400423877326,
                -1.6253019130564768
            ]
        },
        {
            "positions": [
                0.28354451771361766,
                -1.1729176808625343,
                1.2460392002814409,
                -0.669855019522845,
                0.14369061147812182,
                -1.807507121982175
            ]
        },
        {
            "positions": [
                0.2325916081533423,
                -1.1684862331741863,
                1.3610276067695843,
                -0.6773294927534664,
                0.14796721871747037,
                -1.9897123309078733
            ]
        },
        {
            "positions": [
                0.18163869859306697,
                -1.1640547854858383,
                1.4760160132577278,
                -0.6848039659840879,
                0.15224382595681896,
                -2.1719175398335713
            ]
        },
        {
            "positions": [
                0.13068578903279154,
                -1.1596233377974903,
                1.5910044197458713,
                -0.6922784392147093,
                0.1565204331961675,
                -2.35412274875927
            ]
        },
        {
            "positions": [
                0.07973287947251623,
                -1.1551918901091425,
                1.7059928262340147,
                -0.6997529124453308,
                0.1607970404355161,
                -2.536327957684968
            ]
        },
        {
            "positions": [
                0.02877996991224082,
                -1.1507604424207944,
                1.8209812327221582,
                -0.7072273856759522,
                0.16507364767486465,
                -2.7185331666106665
            ]
        },
        {
            "positions": [
                0.0541978749280818,
                -1.1449758763288664,
                1.8809404708347675,
                -0.7127017950008419,
                0.15286787195866164,
                -2.9101784130830763
            ]
        },
        {
            "positions": [
                0.07961577994392277,
                -1.1391913102369384,
                1.940899708947377,
                -0.7181762043257316,
                0.1406620962424586,
                -3.1018236595554862
            ]
        },
        {
            "positions": [
                0.12338540395703407,
                -1.138187252915127,
                1.96836177207602,
                -0.7689526699549082,
                0.13525676819398685,
                -3.192476951868818
            ]
        }
    ]
}{
    "goal": {
        "global_pose": {
            "orientation": {
                "w": 0.7047431468963623,
                "x": -0.7094548344612122,
                "y": 0.0024358443915843964,
                "z": -0.0022348060738295317
            },
            "position": {
                "x": 0.6094750761985779,
                "y": 0.3671506643295288,
                "z": 0.19426114857196808
            }
        },
        "name": "move_to_magneteinheit_A"
    },
    "id": "BKPIECE_move_to_magneteinheit_A_119",
    "joint_names": [
        "shoulder_pan_joint",
        "shoulder_lift_joint",
        "elbow_joint",
        "wrist_1_joint",
        "wrist_2_joint",
        "wrist_3_joint"
    ],
    "metrics": {
        "cart_traj_len": 1.3442228990111575,
        "distance_elbow_joint": 0.22922766571762843,
        "distance_shoulder_lift_joint": 0.9911737613971048,
        "distance_shoulder_pan_joint": 1.2422859634696832,
        "distance_wrist_1_joint": 1.0917975136310796,
        "distance_wrist_2_joint": 1.4338122834837834,
        "distance_wrist_3_joint": 4.517341500867052,
        "smoothness": 0.4131448183185149,
        "time": 0.232732601,
        "traj_len": 3.0831215818657447,
        "weighted_distance": 4.58976377250674
    },
    "planner": "BKPIECE",
    "start": {
        "state": {
            "elbow_joint": 1.919643534880228,
            "shoulder_lift_joint": -1.8972525353963687,
            "shoulder_pan_joint": -1.1188672234189438,
            "wrist_1_joint": -1.5931878212786155,
            "wrist_2_joint": 1.5706036197970081,
            "wrist_3_joint": 1.118896926603594
        }
    },
    "waypoints": [
        {
            "positions": [
                -1.1188672234189438,
                -1.8972525353963687,
                1.919643534880228,
                -1.5931878212786155,
                1.5706036197970081,
                1.118896926603594
            ]
        },
        {
            "positions": [
                -1.072199100597479,
                -1.8573374597232974,
                1.9152823591195487,
                -1.5483706223288987,
                1.5142736473912461,
                0.9170895953633722
            ]
        },
        {
            "positions": [
                -1.025530977776014,
                -1.8174223840502262,
                1.9109211833588693,
                -1.503553423379182,
                1.4579436749854842,
                0.7152822641231504
            ]
        },
        {
            "positions": [
                -0.9788628549545492,
                -1.777507308377155,
                1.9065600075981899,
                -1.4587362244294653,
                1.4016137025797224,
                0.5134749328829287
            ]
        },
        {
            "positions": [
                -0.9321947321330843,
                -1.7375922327040838,
                1.9021988318375105,
                -1.4139190254797485,
                1.3452837301739604,
                0.3116676016427068
            ]
        },
        {
            "positions": [
                -0.8855266093116194,
                -1.6976771570310125,
                1.897837656076831,
                -1.3691018265300317,
                1.2889537577681984,
                0.10986027040248514
            ]
        },
        {
            "positions": [
                -0.8388584864901545,
                -1.6577620813579412,
                1.8934764803161517,
                -1.324284627580315,
                1.2326237853624364,
                -0.09194706083773663
            ]
        },
        {
            "positions": [
                -0.7921903636686896,
                -1.6178470056848702,
                1.8891153045554723,
                -1.2794674286305983,
                1.1762938129566745,
                -0.2937543920779586
            ]
        },
        {
            "positions": [
                -0.7455222408472247,
                -1.5779319300117989,
                1.8847541287947929,
                -1.2346502296808815,
                1.1199638405509127,
                -0.4955617233181804
            ]
        },
        {
            "positions": [
                -0.6988541180257598,
                -1.5380168543387276,
                1.8803929530341135,
                -1.1898330307311646,
                1.0636338681451507,
                -0.6973690545584021
            ]
        },
        {
            "positions": [
                -0.652185995204295,
                -1.4981017786656563,
                1.876031777273434,
                -1.145015831781448,
                1.0073038957393887,
                -0.8991763857986237
            ]
        },
        {
            "positions": [
                -0.6055178723828301,
                -1.458186702992585,
                1.8716706015127547,
                -1.1001986328317312,
                0.9509739233336267,
                -1.1009837170388457
            ]
        },
        {
            "positions": [
                -0.5588497495613652,
                -1.418271627319514,
                1.8673094257520755,
                -1.0553814338820144,
                0.8946439509278649,
                -1.3027910482790672
            ]
        },
        {
            "positions": [
                -0.5121816267399002,
                -1.3783565516464427,
                1.862948249991396,
                -1.0105642349322976,
                0.8383139785221028,
                -1.5045983795192892
            ]
        },
        {
            "positions": [
                -0.4655135039184354,
                -1.3384414759733714,
                1.8585870742307167,
                -0.965747035982581,
                0.7819840061163409,
                -1.7064057107595112
            ]
        },
        {
            "positions": [
                -0.41884538109697056,
                -1.2985264003003003,
                1.8542258984700373,
                -0.9209298370328644,
                0.725654033710579,
                -1.9082130419997327
            ]
        },
        {
            "positions": [
                -0.37217725827550563,
                -1.2586113246272288,
                1.8498647227093579,
                -0.8761126380831475,
                0.669324061304817,
                -2.110020373239955
            ]
        },
        {
            "positions": [
                -0.3255091354540407,
                -1.2186962489541577,
                1.8455035469486785,
                -0.8312954391334307,
                0.612994088899055,
                -2.3118277044801765
            ]
        },
        {
            "positions": [
                -0.27884101263257577,
                -1.1787811732810864,
                1.841142371187999,
                -0.7864782401837139,
                0.5566641164932931,
                -2.513635035720398
            ]
        },
        {
            "positions": [
                -0.23217288981111095,
                -1.1388660976080152,
                1.8367811954273197,
                -0.7416610412339972,
                0.5003341440875311,
                -2.7154423669606196
            ]
        },
        {
            "positions": [
                -0.18550476698964613,
                -1.098951021934944,
                1.8324200196666403,
                -0.6968438422842805,
                0.4440041716817693,
                -2.917249698200841
            ]
        },
        {
            "positions": [
                -0.1388366441681811,
                -1.0590359462618726,
                1.8280588439059609,
                -0.6520266433345637,
                0.3876741992760073,
                -3.1190570294410636
            ]
        },
        {
            "positions": [
                -0.0921685213467163,
                -1.0191208705888015,
                1.8236976681452814,
                -0.607209444384847,
                0.33134422687024545,
                -3.320864360681285
            ]
        },
        {
            "positions": [
                -0.02030610088089771,
                -1.0568015694519808,
                1.8681249344728421,
                -0.6424824899639509,
                0.2664932633512386,
                -3.2950042894872276
            ]
        },
        {
            "positions": [
                0.05155631958492088,
                -1.0944822683151598,
                1.9125522008004026,
                -0.6777555355430547,
                0.20164229983223173,
                -3.26914421829317
            ]
        },
        {
            "positions": [
                0.1234187400507395,
                -1.132162967178339,
                1.9569794671279632,
                -0.7130285811221585,
                0.13679133631322485,
                -3.2432841470991125
            ]
        }
    ]
}