{
    "goal": {
        "global_pose": {
            "orientation": {
                "w": 0.7047431468963623,
                "x": -0.7094548344612122,
                "y": 0.0024358443915843964,
                "z": -0.0022348060738295317
            },
            "position": {
                "x": 0.6094750761985779,
                "y": 0.3671506643295288,
                "z": 0.19426114857196808
            }
        },
        "name": "move_to_magneteinheit_A"
    },
    "id": "EST_move_to_magneteinheit_A_31",
    "joint_names": [
        "shoulder_pan_joint",
        "shoulder_lift_joint",
        "elbow_joint",
        "wrist_1_joint",
        "wrist_2_joint",
        "wrist_3_joint"
    ],
    "metrics": {
        "cart_traj_len": 3.638365801159951,
        "distance_elbow_joint": 3.8851174689476347,
        "distance_shoulder_lift_joint": 0.4925824796245257,
        "distance_shoulder_pan_joint": 3.2649595493205217,
        "distance_wrist_1_joint": 0.784104074205304,
        "distance_wrist_2_joint": 2.448343321218475,
        "distance_wrist_3_joint": 3.9951388297838184,
        "smoothness": 0.3930580419538535,
        "time": 0.220053878,
        "traj_len": 3.8561957578811112,
        "weighted_distance": 5.108127913246857
    },
    "planner": "EST",
    "start": {
        "state": {
            "elbow_joint": -1.919618573717145,
            "shoulder_lift_joint": -1.2443395971678275,
            "shoulder_pan_joint": 2.6996025300909787,
            "wrist_1_joint": -1.548550951253194,
            "wrist_2_joint": -1.5709469090946802,
            "wrist_3_joint": 0.4420197732051276
        }
    },
    "waypoints": [
        {
            "positions": [
                2.6996025300909787,
                -1.2443395971678275,
                -1.919618573717145,
                -1.548550951253194,
                -1.5709469090946802,
                0.4420197732051276
            ]
        },
        {
            "positions": [
                2.611100484183916,
                -1.2501613164454521,
                -1.809234315324957,
                -1.5401081374546486,
                -1.5081498021261464,
                0.32625458778367367
            ]
        },
        {
            "positions": [
                2.5225984382768534,
                -1.2559830357230766,
                -1.6988500569327691,
                -1.5316653236561029,
                -1.4453526951576126,
                0.21048940236221977
            ]
        },
        {
            "positions": [
                2.4340963923697907,
                -1.2618047550007012,
                -1.5884657985405815,
                -1.5232225098575574,
                -1.3825555881890788,
                0.09472421694076588
            ]
        },
        {
            "positions": [
                2.345594346462728,
                -1.2676264742783256,
                -1.4780815401483935,
                -1.5147796960590119,
                -1.3197584812205452,
                -0.021040968480688038
            ]
        },
        {
            "positions": [
                2.2570923005556653,
                -1.2734481935559503,
                -1.3676972817562056,
                -1.5063368822604664,
                -1.2569613742520114,
                -0.13680615390214196
            ]
        },
        {
            "positions": [
                2.1685902546486027,
                -1.2792699128335747,
                -1.2573130233640177,
                -1.4978940684619206,
                -1.1941642672834776,
                -0.2525713393235958
            ]
        },
        {
            "positions": [
                2.0800882087415395,
                -1.2850916321111994,
                -1.1469287649718298,
                -1.4894512546633751,
                -1.1313671603149438,
                -0.3683365247450498
            ]
        },
        {
            "positions": [
                1.991586162834477,
                -1.290913351388824,
                -1.036544506579642,
                -1.4810084408648296,
                -1.0685700533464102,
                -0.48410171016650366
            ]
        },
        {
            "positions": [
                1.9030841169274144,
                -1.2967350706664484,
                -0.9261602481874542,
                -1.4725656270662841,
                -1.0057729463778764,
                -0.5998668955879574
            ]
        },
        {
            "positions": [
                1.8145820710203515,
                -1.302556789944073,
                -0.8157759897952663,
                -1.4641228132677384,
                -0.9429758394093425,
                -0.7156320810094114
            ]
        },
        {
            "positions": [
                1.726080025113289,
                -1.3083785092216975,
                -0.7053917314030784,
                -1.455679999469193,
                -0.8801787324408088,
                -0.8313972664308653
            ]
        },
        {
            "positions": [
                1.6375779792062262,
                -1.3142002284993222,
                -0.5950074730108905,
                -1.4472371856706474,
                -0.817381625472275,
                -0.9471624518523192
            ]
        },
        {
            "positions": [
                1.5490759332991637,
                -1.3200219477769468,
                -0.48462321461870284,
                -1.4387943718721017,
                -0.7545845185037413,
                -1.062927637273773
            ]
        },
        {
            "positions": [
                1.4605738873921008,
                -1.3258436670545712,
                -0.3742389562265147,
                -1.4303515580735562,
                -0.6917874115352075,
                -1.1786928226952271
            ]
        },
        {
            "positions": [
                1.3720718414850381,
                -1.3316653863321959,
                -0.263854697834327,
                -1.4219087442750107,
                -0.6289903045666738,
                -1.2944580081166808
            ]
        },
        {
            "positions": [
                1.2835697955779755,
                -1.3374871056098203,
                -0.15347043944213912,
                -1.4134659304764652,
                -0.56619319759814,
                -1.4102231935381349
            ]
        },
        {
            "positions": [
                1.1950677496709128,
                -1.343308824887445,
                -0.04308618104995121,
                -1.4050231166779195,
                -0.5033960906296062,
                -1.5259883789595887
            ]
        },
        {
            "positions": [
                1.10656570376385,
                -1.3491305441650694,
                0.06729807734223647,
                -1.396580302879374,
                -0.44059898366107264,
                -1.6417535643810424
            ]
        },
        {
            "positions": [
                1.0180636578567872,
                -1.354952263442694,
                0.17768233573442482,
                -1.3881374890808285,
                -0.3778018766925386,
                -1.7575187498024967
            ]
        },
        {
            "positions": [
                0.9295616119497245,
                -1.3607739827203185,
                0.2880665941266123,
                -1.3796946752822827,
                -0.3150047697240048,
                -1.8732839352239505
            ]
        },
        {
            "positions": [
                0.8410595660426621,
                -1.3665957019979431,
                0.3984508525188002,
                -1.3712518614837372,
                -0.25220766275547124,
                -1.9890491206454044
            ]
        },
        {
            "positions": [
                0.7525575201355994,
                -1.3724174212755678,
                0.5088351109109881,
                -1.3628090476851917,
                -0.18941055578693744,
                -2.1048143060668583
            ]
        },
        {
            "positions": [
                0.6640554742285363,
                -1.3782391405531922,
                0.619219369303176,
                -1.3543662338866462,
                -0.12661344881840364,
                -2.220579491488312
            ]
        },
        {
            "positions": [
                0.5755534283214736,
                -1.3840608598308168,
                0.7296036276953639,
                -1.3459234200881005,
                -0.06381634184986984,
                -2.336344676909766
            ]
        },
        {
            "positions": [
                0.48705138241441137,
                -1.3898825791084413,
                0.8399878860875518,
                -1.337480606289555,
                -0.0010192348813362617,
                -2.45210986233122
            ]
        },
        {
            "positions": [
                0.3985493365073487,
                -1.395704298386066,
                0.9503721444797393,
                -1.3290377924910095,
                0.06177787208719754,
                -2.5678750477526737
            ]
        },
        {
            "positions": [
                0.3100472906002856,
                -1.4015260176636906,
                1.0607564028719276,
                -1.320594978692464,
                0.12457497905573156,
                -2.683640233174128
            ]
        },
        {
            "positions": [
                0.2215452446932229,
                -1.407347736941315,
                1.1711406612641155,
                -1.3121521648939183,
                0.18737208602426514,
                -2.799405418595582
            ]
        },
        {
            "positions": [
                0.13304319878616022,
                -1.4131694562189396,
                1.281524919656303,
                -1.3037093510953728,
                0.25016919299279894,
                -2.9151706040170358
            ]
        },
        {
            "positions": [
                0.044541152879097545,
                -1.418991175496564,
                1.391909178048491,
                -1.2952665372968273,
                0.3129662999613325,
                -3.030935789438489
            ]
        },
        {
            "positions": [
                -0.04396089302796513,
                -1.4248128947741887,
                1.5022934364406793,
                -1.2868237234982818,
                0.37576340692986654,
                -3.1467009748599435
            ]
        },
        {
            "positions": [
                -0.1324629389350278,
                -1.4306346140518134,
                1.6126776948328667,
                -1.278380909699736,
                0.4385605138984001,
                -3.2624661602813974
            ]
        },
        {
            "positions": [
                -0.22096498484209054,
                -1.4364563333294378,
                1.7230619532250546,
                -1.2699380959011906,
                0.5013576208669341,
                -3.378231345702851
            ]
        },
        {
            "positions": [
                -0.15208657796460018,
                -1.3763631846368547,
                1.7715493416261414,
                -1.1688398521305305,
                0.4261498626155621,
                -3.3432538035276833
            ]
        },
        {
            "positions": [
                -0.08320817108710982,
                -1.3162700359442716,
                1.8200367300272282,
                -1.0677416083598703,
                0.35094210436419,
                -3.3082762613525154
            ]
        },
        {
            "positions": [
                -0.014329764209619456,
                -1.2561768872516885,
                1.868524118428315,
                -0.9666433645892103,
                0.27573434611281794,
                -3.2732987191773475
            ]
        },
        {
            "positions": [
                0.054548642667870906,
                -1.1960837385591054,
                1.9170115068294018,
                -0.8655451208185501,
                0.20052658786144584,
                -3.2383211770021796
            ]
        },
        {
            "positions": [
                0.12342704954536128,
                -1.1359905898665223,
                1.9654988952304886,
                -0.76444687704789,
                0.12531882961007382,
                -3.2033436348270117
            ]
        }
    ]
}{
    "goal": {
        "global_pose": {
            "orientation": {
                "w": 0.7047431468963623,
                "x": -0.7094548344612122,
                "y": 0.0024358443915843964,
                "z": -0.0022348060738295317
            },
            "position": {
                "x": 0.6094750761985779,
                "y": 0.3671506643295288,
                "z": 0.19426114857196808
            }
        },
        "name": "move_to_magneteinheit_A"
    },
    "id": "EST_move_to_magneteinheit_A_31",
    "joint_names": [
        "shoulder_pan_joint",
        "shoulder_lift_joint",
        "elbow_joint",
        "wrist_1_joint",
        "wrist_2_joint",
        "wrist_3_joint"
    ],
    "metrics": {
        "cart_traj_len": 1.2318699881197113,
        "distance_elbow_joint": 0.12820616466050594,
        "distance_shoulder_lift_joint": 0.765832880449121,
        "distance_shoulder_pan_joint": 1.2423035290779247,
        "distance_wrist_1_joint": 2.147278399151284,
        "distance_wrist_2_joint": 1.5089889887819021,
        "distance_wrist_3_joint": 4.3556735035634855,
        "smoothness": 0.24917087924337578,
        "time": 0.148939428,
        "traj_len": 3.185637058059851,
        "weighted_distance": 4.74509197600472
    },
    "planner": "EST",
    "start": {
        "state": {
            "elbow_joint": 1.919643534880228,
            "shoulder_lift_joint": -1.8972525353963687,
            "shoulder_pan_joint": -1.1188672234189438,
            "wrist_1_joint": -1.5931878212786155,
            "wrist_2_joint": 1.5706036197970081,
            "wrist_3_joint": 1.118896926603594
        }
    },
    "waypoints": [
        {
            "positions": [
                -1.1188672234189438,
                -1.8972525353963687,
                1.919643534880228,
                -1.5931878212786155,
                1.5706036197970081,
                1.118896926603594
            ]
        },
        {
            "positions": [
                -1.0687682622879395,
                -1.8760099696790657,
                1.917704942293158,
                -1.5276507730469024,
                1.506466517952649,
                0.9403078566027042
            ]
        },
        {
            "positions": [
                -1.0186693011569352,
                -1.8547674039617628,
                1.915766349706088,
                -1.4621137248151894,
                1.4423294161082898,
                0.7617187866018145
            ]
        },
        {
            "positions": [
                -0.9685703400259308,
                -1.8335248382444598,
                1.913827757119018,
                -1.3965766765834764,
                1.3781923142639307,
                0.5831297166009248
            ]
        },
        {
            "positions": [
                -0.9184713788949265,
                -1.8122822725271568,
                1.911889164531948,
                -1.3310396283517631,
                1.3140552124195717,
                0.4045406466000351
            ]
        },
        {
            "positions": [
                -0.8683724177639222,
                -1.7910397068098538,
                1.909950571944878,
                -1.2655025801200503,
                1.2499181105752124,
                0.22595157659914533
            ]
        },
        {
            "positions": [
                -0.8182734566329177,
                -1.7697971410925506,
                1.9080119793578079,
                -1.199965531888337,
                1.1857810087308533,
                0.047362506598255694
            ]
        },
        {
            "positions": [
                -0.7681744955019134,
                -1.7485545753752476,
                1.906073386770738,
                -1.134428483656624,
                1.121643906886494,
                -0.13122656340263417
            ]
        },
        {
            "positions": [
                -0.7180755343709091,
                -1.7273120096579446,
                1.904134794183668,
                -1.068891435424911,
                1.0575068050421352,
                -0.3098156334035238
            ]
        },
        {
            "positions": [
                -0.6679765732399048,
                -1.7060694439406416,
                1.9021962015965979,
                -1.0033543871931978,
                0.993369703197776,
                -0.48840470340441366
            ]
        },
        {
            "positions": [
                -0.6178776121089005,
                -1.6848268782233387,
                1.9002576090095278,
                -0.937817338961485,
                0.9292326013534168,
                -0.6669937734053033
            ]
        },
        {
            "positions": [
                -0.567778650977896,
                -1.6635843125060357,
                1.8983190164224577,
                -0.8722802907297719,
                0.8650954995090576,
                -0.8455828434061932
            ]
        },
        {
            "positions": [
                -0.5176796898468917,
                -1.6423417467887327,
                1.8963804238353879,
                -0.8067432424980588,
                0.8009583976646986,
                -1.0241719134070826
            ]
        },
        {
            "positions": [
                -0.4675807287158874,
                -1.6210991810714297,
                1.8944418312483178,
                -0.7412061942663458,
                0.7368212958203395,
                -1.2027609834079722
            ]
        },
        {
            "positions": [
                -0.417481767584883,
                -1.5998566153541267,
                1.8925032386612477,
                -0.6756691460346327,
                0.6726841939759802,
                -1.3813500534088623
            ]
        },
        {
            "positions": [
                -0.36738280645387866,
                -1.5786140496368237,
                1.8905646460741776,
                -0.6101320978029197,
                0.6085470921316211,
                -1.559939123409752
            ]
        },
        {
            "positions": [
                -0.31728384532287435,
                -1.5573714839195207,
                1.8886260534871075,
                -0.5445950495712066,
                0.5444099902872621,
                -1.7385281934106416
            ]
        },
        {
            "positions": [
                -0.26718488419187003,
                -1.5361289182022178,
                1.8866874609000377,
                -0.4790580013394936,
                0.48027288844290283,
                -1.9171172634115312
            ]
        },
        {
            "positions": [
                -0.2170859230608656,
                -1.5148863524849145,
                1.8847488683129676,
                -0.41352095310778036,
                0.4161357865985438,
                -2.095706333412421
            ]
        },
        {
            "positions": [
                -0.1669869619298613,
                -1.4936437867676116,
                1.8828102757258975,
                -0.34798390487606734,
                0.3519986847541845,
                -2.274295403413311
            ]
        },
        {
            "positions": [
                -0.11688800079885708,
                -1.4724012210503086,
                1.8808716831388275,
                -0.28244685664435454,
                0.28786158290982544,
                -2.4528844734142004
            ]
        },
        {
            "positions": [
                -0.06678903966785277,
                -1.4511586553330056,
                1.8789330905517576,
                -0.2169098084126415,
                0.22372448106546639,
                -2.6314735434150904
            ]
        },
        {
            "positions": [
                -0.01669007853684823,
                -1.4299160896157026,
                1.8769944979646875,
                -0.15137276018092827,
                0.1595873792211071,
                -2.8100626134159805
            ]
        },
        {
            "positions": [
                0.033408882594156045,
                -1.4086735238983996,
                1.8750559053776175,
                -0.08583571194921533,
                0.09545027737674809,
                -2.98865168341687
            ]
        },
        {
            "positions": [
                0.05591573836036219,
                -1.3393600566606116,
                1.8959605391670913,
                -0.24581728440468625,
                0.10390918896715856,
                -3.0506829068026255
            ]
        },
        {
            "positions": [
                0.07842259412656835,
                -1.2700465894228237,
                1.9168651729565651,
                -0.40579885686015715,
                0.11236810055756902,
                -3.1127141301883814
            ]
        },
        {
            "positions": [
                0.1009294498927745,
                -1.2007331221850357,
                1.937769806746039,
                -0.5657804293156281,
                0.12082701214797949,
                -3.174745353574137
            ]
        },
        {
            "positions": [
                0.12343630565898064,
                -1.1314196549472477,
                1.9586744405355128,
                -0.7257620017710991,
                0.12928592373838996,
                -3.236776576959892
            ]
        }
    ]
}