{
    "goal": {
        "global_pose": {
            "orientation": {
                "w": 0.7047431468963623,
                "x": -0.7094548344612122,
                "y": 0.0024358443915843964,
                "z": -0.0022348060738295317
            },
            "position": {
                "x": 0.6094750761985779,
                "y": 0.3671506643295288,
                "z": 0.19426114857196808
            }
        },
        "name": "move_to_magneteinheit_A"
    },
    "id": "EST_move_to_magneteinheit_A_36",
    "joint_names": [
        "shoulder_pan_joint",
        "shoulder_lift_joint",
        "elbow_joint",
        "wrist_1_joint",
        "wrist_2_joint",
        "wrist_3_joint"
    ],
    "metrics": {
        "cart_traj_len": 3.5671369314569477,
        "distance_elbow_joint": 3.8797898681514065,
        "distance_shoulder_lift_joint": 0.665896247860368,
        "distance_shoulder_pan_joint": 3.1167005191340964,
        "distance_wrist_1_joint": 1.9470365880903784,
        "distance_wrist_2_joint": 2.0718713991010898,
        "distance_wrist_3_joint": 2.604168365609887,
        "smoothness": 0.36352503904664346,
        "time": 0.13727783999999998,
        "traj_len": 3.7796114863762433,
        "weighted_distance": 4.848990380105787
    },
    "planner": "EST",
    "start": {
        "state": {
            "elbow_joint": -1.919618573717145,
            "shoulder_lift_joint": -1.2443395971678275,
            "shoulder_pan_joint": 2.6996025300909787,
            "wrist_1_joint": -1.548550951253194,
            "wrist_2_joint": -1.5709469090946802,
            "wrist_3_joint": 0.4420197732051276
        }
    },
    "waypoints": [
        {
            "positions": [
                2.6996025300909787,
                -1.2443395971678275,
                -1.919618573717145,
                -1.548550951253194,
                -1.5709469090946802,
                0.4420197732051276
            ]
        },
        {
            "positions": [
                2.557264937023678,
                -1.250401879675227,
                -1.8219967002831812,
                -1.4813495479787888,
                -1.5022295110771544,
                0.4416014012522885
            ]
        },
        {
            "positions": [
                2.414927343956377,
                -1.2564641621826262,
                -1.7243748268492174,
                -1.4141481447043835,
                -1.4335121130596287,
                0.44118302929944936
            ]
        },
        {
            "positions": [
                2.272589750889076,
                -1.2625264446900257,
                -1.6267529534152536,
                -1.3469467414299783,
                -1.364794715042103,
                0.44076465734661024
            ]
        },
        {
            "positions": [
                2.1302521578217757,
                -1.268588727197425,
                -1.5291310799812896,
                -1.279745338155573,
                -1.2960773170245772,
                0.44034628539377113
            ]
        },
        {
            "positions": [
                1.987914564754475,
                -1.2746510097048245,
                -1.431509206547326,
                -1.212543934881168,
                -1.2273599190070514,
                0.439927913440932
            ]
        },
        {
            "positions": [
                1.8455769716871742,
                -1.280713292212224,
                -1.333887333113362,
                -1.1453425316067627,
                -1.1586425209895257,
                0.4395095414880929
            ]
        },
        {
            "positions": [
                1.7032393786198736,
                -1.2867755747196232,
                -1.2362654596793985,
                -1.0781411283323574,
                -1.0899251229720002,
                0.4390911695352538
            ]
        },
        {
            "positions": [
                1.5609017855525726,
                -1.2928378572270227,
                -1.1386435862454345,
                -1.0109397250579522,
                -1.0212077249544742,
                0.4386727975824147
            ]
        },
        {
            "positions": [
                1.4185641924852719,
                -1.298900139734422,
                -1.0410217128114707,
                -0.943738321783547,
                -0.9524903269369486,
                0.43825442562957556
            ]
        },
        {
            "positions": [
                1.2762265994179711,
                -1.3049624222418215,
                -0.9433998393775069,
                -0.8765369185091417,
                -0.8837729289194228,
                0.4378360536767364
            ]
        },
        {
            "positions": [
                1.1338890063506701,
                -1.311024704749221,
                -0.8457779659435432,
                -0.8093355152347365,
                -0.8150555309018971,
                0.4374176817238973
            ]
        },
        {
            "positions": [
                0.9915514132833696,
                -1.3170869872566202,
                -0.7481560925095794,
                -0.7421341119603313,
                -0.7463381328843713,
                0.43699930977105816
            ]
        },
        {
            "positions": [
                0.8492138202160688,
                -1.3231492697640197,
                -0.6505342190756156,
                -0.674932708685926,
                -0.6776207348668456,
                0.43658093781821905
            ]
        },
        {
            "positions": [
                0.7068762271487683,
                -1.329211552271419,
                -0.5529123456416518,
                -0.6077313054115209,
                -0.60890333684932,
                0.43616256586537994
            ]
        },
        {
            "positions": [
                0.5645386340814671,
                -1.3352738347788184,
                -0.45529047220768804,
                -0.5405299021371155,
                -0.5401859388317942,
                0.4357441939125408
            ]
        },
        {
            "positions": [
                0.42220104101416656,
                -1.341336117286218,
                -0.35766859877372403,
                -0.4733284988627102,
                -0.4714685408142685,
                0.4353258219597017
            ]
        },
        {
            "positions": [
                0.279863447946866,
                -1.3473983997936172,
                -0.26004672533976025,
                -0.4061270955883052,
                -0.40275114279674273,
                0.4349074500068626
            ]
        },
        {
            "positions": [
                0.13752585487956503,
                -1.3534606823010167,
                -0.16242485190579647,
                -0.3389256923138999,
                -0.334033744779217,
                0.4344890780540235
            ]
        },
        {
            "positions": [
                -0.004811738187735504,
                -1.359522964808416,
                -0.0648029784718327,
                -0.27172428903949464,
                -0.26531634676169125,
                0.43407070610118437
            ]
        },
        {
            "positions": [
                -0.1471493312550367,
                -1.3655852473158154,
                0.032818894962131154,
                -0.20452288576508934,
                -0.19659894874416547,
                0.43365233414834525
            ]
        },
        {
            "positions": [
                -0.13307741242571924,
                -1.3412764775951964,
                0.15223063480285703,
                -0.23939928497673682,
                -0.16433184078806948,
                0.5953879951260233
            ]
        },
        {
            "positions": [
                -0.11900549359640178,
                -1.3169677078745774,
                0.2716423746435829,
                -0.27427568418838433,
                -0.1320647328319735,
                0.7571236561037011
            ]
        },
        {
            "positions": [
                -0.1049335747670843,
                -1.2926589381539584,
                0.39105411448430877,
                -0.30915208340003175,
                -0.09979762487587751,
                0.918859317081379
            ]
        },
        {
            "positions": [
                -0.09086165593776684,
                -1.2683501684333391,
                0.5104658543250347,
                -0.3440284826116793,
                -0.06753051691978151,
                1.080594978059057
            ]
        },
        {
            "positions": [
                -0.07678973710844937,
                -1.2440413987127201,
                0.6298775941657605,
                -0.3789048818233267,
                -0.035263408963685516,
                1.242330639036735
            ]
        },
        {
            "positions": [
                -0.06271781827913189,
                -1.219732628992101,
                0.7492893340064865,
                -0.41378128103497425,
                -0.002996301007589547,
                1.404066300014413
            ]
        },
        {
            "positions": [
                -0.04864589944981443,
                -1.195423859271482,
                0.8687010738472123,
                -0.44865768024662167,
                0.02927080694850645,
                1.5658019609920908
            ]
        },
        {
            "positions": [
                -0.034573980620496964,
                -1.171115089550863,
                0.9881128136879381,
                -0.4835340794582692,
                0.06153791490460245,
                1.727537621969769
            ]
        },
        {
            "positions": [
                -0.0205020617911795,
                -1.146806319830244,
                1.107524553528664,
                -0.5184104786699166,
                0.09380502286069844,
                1.8892732829474466
            ]
        },
        {
            "positions": [
                -0.006430142961862034,
                -1.122497550109625,
                1.2269362933693897,
                -0.5532868778815642,
                0.12607213081679444,
                2.0510089439251247
            ]
        },
        {
            "positions": [
                0.00764177586745543,
                -1.0981887803890058,
                1.3463480332101156,
                -0.5881632770932116,
                0.15833923877289044,
                2.212744604902803
            ]
        },
        {
            "positions": [
                0.021713694696772923,
                -1.0738800106683868,
                1.4657597730508416,
                -0.6230396763048591,
                0.19060634672898638,
                2.3744802658804804
            ]
        },
        {
            "positions": [
                0.03578561352609039,
                -1.0495712409477678,
                1.5851715128915673,
                -0.6579160755165065,
                0.22287345468508238,
                2.5362159268581586
            ]
        },
        {
            "positions": [
                0.04985753235540785,
                -1.0252624712271488,
                1.7045832527322933,
                -0.6927924747281541,
                0.25514056264117835,
                2.6979515878358367
            ]
        },
        {
            "positions": [
                0.06392945118472532,
                -1.0009537015065297,
                1.823994992573019,
                -0.7276688739398016,
                0.28740767059727435,
                2.8596872488135143
            ]
        },
        {
            "positions": [
                0.07800137001404277,
                -0.9766449317859106,
                1.943406732413745,
                -0.762545273151449,
                0.3196747785533704,
                3.0214229097911924
            ]
        },
        {
            "positions": [
                0.10040034827354366,
                -1.0545000728771483,
                1.951789013424003,
                -0.7400522055434917,
                0.22904992282685074,
                3.0254380852463214
            ]
        },
        {
            "positions": [
                0.12279932653304455,
                -1.132355213968386,
                1.960171294434261,
                -0.7175591379355345,
                0.1384250671003311,
                3.02945326070145
            ]
        }
    ]
}{
    "goal": {
        "global_pose": {
            "orientation": {
                "w": 0.7047431468963623,
                "x": -0.7094548344612122,
                "y": 0.0024358443915843964,
                "z": -0.0022348060738295317
            },
            "position": {
                "x": 0.6094750761985779,
                "y": 0.3671506643295288,
                "z": 0.19426114857196808
            }
        },
        "name": "move_to_magneteinheit_A"
    },
    "id": "EST_move_to_magneteinheit_A_36",
    "joint_names": [
        "shoulder_pan_joint",
        "shoulder_lift_joint",
        "elbow_joint",
        "wrist_1_joint",
        "wrist_2_joint",
        "wrist_3_joint"
    ],
    "metrics": {
        "cart_traj_len": 1.2027116850388493,
        "distance_elbow_joint": 0.06738599669534051,
        "distance_shoulder_lift_joint": 0.7499151968788018,
        "distance_shoulder_pan_joint": 1.2417873005757372,
        "distance_wrist_1_joint": 0.7495927178616163,
        "distance_wrist_2_joint": 1.438041881959792,
        "distance_wrist_3_joint": 4.262740985498333,
        "smoothness": 7.401486889441618e-17,
        "time": 0.30373343399999997,
        "traj_len": 2.9170985721208704,
        "weighted_distance": 4.384356355303216
    },
    "planner": "EST",
    "start": {
        "state": {
            "elbow_joint": 1.919643534880228,
            "shoulder_lift_joint": -1.8972525353963687,
            "shoulder_pan_joint": -1.1188672234189438,
            "wrist_1_joint": -1.5931878212786155,
            "wrist_2_joint": 1.5706036197970081,
            "wrist_3_joint": 1.118896926603594
        }
    },
    "waypoints": [
        {
            "positions": [
                -1.1188672234189438,
                -1.8972525353963687,
                1.919643534880228,
                -1.5931878212786155,
                1.5706036197970081,
                1.118896926603594
            ]
        },
        {
            "positions": [
                -1.0637314924631942,
                -1.8635932929713692,
                1.9222697713669366,
                -1.5605546733344087,
                1.5055846450031756,
                0.9271739316602473
            ]
        },
        {
            "positions": [
                -1.0085957615074446,
                -1.8299340505463695,
                1.9248960078536448,
                -1.5279215253902019,
                1.440565670209343,
                0.7354509367169006
            ]
        },
        {
            "positions": [
                -0.953460030551695,
                -1.79627480812137,
                1.9275222443403532,
                -1.4952883774459953,
                1.3755466954155104,
                0.543727941773554
            ]
        },
        {
            "positions": [
                -0.8983242995959455,
                -1.7626155656963702,
                1.9301484808270617,
                -1.4626552295017885,
                1.3105277206216779,
                0.3520049468302072
            ]
        },
        {
            "positions": [
                -0.8431885686401959,
                -1.7289563232713707,
                1.93277471731377,
                -1.4300220815575817,
                1.2455087458278453,
                0.16028195188686056
            ]
        },
        {
            "positions": [
                -0.7880528376844462,
                -1.6952970808463712,
                1.9354009538004784,
                -1.397388933613375,
                1.1804897710340128,
                -0.031441043056485984
            ]
        },
        {
            "positions": [
                -0.7329171067286966,
                -1.6616378384213715,
                1.9380271902871868,
                -1.3647557856691683,
                1.1154707962401802,
                -0.22316403799983275
            ]
        },
        {
            "positions": [
                -0.6777813757729471,
                -1.627978595996372,
                1.940653426773895,
                -1.3321226377249615,
                1.0504518214463476,
                -0.4148870329431795
            ]
        },
        {
            "positions": [
                -0.6226456448171974,
                -1.5943193535713722,
                1.9432796632606035,
                -1.2994894897807547,
                0.985432846652515,
                -0.6066100278865263
            ]
        },
        {
            "positions": [
                -0.5675099138614479,
                -1.5606601111463727,
                1.945905899747312,
                -1.266856341836548,
                0.9204138718586824,
                -0.7983330228298728
            ]
        },
        {
            "positions": [
                -0.5123741829056982,
                -1.5270008687213732,
                1.9485321362340202,
                -1.2342231938923414,
                0.8553948970648498,
                -0.9900560177732196
            ]
        },
        {
            "positions": [
                -0.4572384519499487,
                -1.4933416262963735,
                1.9511583727207287,
                -1.2015900459481346,
                0.7903759222710173,
                -1.181779012716566
            ]
        },
        {
            "positions": [
                -0.40210272099419897,
                -1.4596823838713737,
                1.9537846092074371,
                -1.1689568980039278,
                0.7253569474771846,
                -1.3735020076599131
            ]
        },
        {
            "positions": [
                -0.34696699003844944,
                -1.4260231414463742,
                1.9564108456941456,
                -1.136323750059721,
                0.6603379726833521,
                -1.5652250026032595
            ]
        },
        {
            "positions": [
                -0.2918312590826999,
                -1.3923638990213747,
                1.9590370821808538,
                -1.1036906021155142,
                0.5953189978895196,
                -1.7569479975466062
            ]
        },
        {
            "positions": [
                -0.23669552812695027,
                -1.358704656596375,
                1.9616633186675623,
                -1.0710574541713074,
                0.5303000230956869,
                -1.948670992489953
            ]
        },
        {
            "positions": [
                -0.18155979717120063,
                -1.3250454141713754,
                1.9642895551542707,
                -1.0384243062271008,
                0.46528104830185435,
                -2.1403939874333
            ]
        },
        {
            "positions": [
                -0.126424066215451,
                -1.291386171746376,
                1.966915791640979,
                -1.005791158282894,
                0.4002620735080218,
                -2.3321169823766468
            ]
        },
        {
            "positions": [
                -0.07128833525970135,
                -1.2577269293213762,
                1.9695420281276874,
                -0.9731580103386873,
                0.3352430987141892,
                -2.5238399773199935
            ]
        },
        {
            "positions": [
                -0.016152604303951934,
                -1.2240676868963767,
                1.9721682646143959,
                -0.9405248623944805,
                0.27022412392035666,
                -2.7155629722633394
            ]
        },
        {
            "positions": [
                0.038983126651797706,
                -1.1904084444713772,
                1.974794501101104,
                -0.9078917144502737,
                0.2052051491265241,
                -2.907285967206686
            ]
        },
        {
            "positions": [
                0.0941188576075474,
                -1.1567492020463774,
                1.9774207375878126,
                -0.875258566506067,
                0.14018617433269154,
                -3.099008962150033
            ]
        },
        {
            "positions": [
                0.1229200771567933,
                -1.147337338517567,
                1.9870295315755686,
                -0.8435951034169992,
                0.13256173783721611,
                -3.143844058894739
            ]
        }
    ]
}