{
    "goal": {
        "global_pose": {
            "orientation": {
                "w": 0.7047431468963623,
                "x": -0.7094548344612122,
                "y": 0.0024358443915843964,
                "z": -0.0022348060738295317
            },
            "position": {
                "x": 0.6094750761985779,
                "y": 0.3671506643295288,
                "z": 0.19426114857196808
            }
        },
        "name": "move_to_magneteinheit_A"
    },
    "id": "EST_move_to_magneteinheit_A_138",
    "joint_names": [
        "shoulder_pan_joint",
        "shoulder_lift_joint",
        "elbow_joint",
        "wrist_1_joint",
        "wrist_2_joint",
        "wrist_3_joint"
    ],
    "metrics": {
        "cart_traj_len": 3.766337614292943,
        "distance_elbow_joint": 3.940146352975965,
        "distance_shoulder_lift_joint": 1.9466699171777126,
        "distance_shoulder_pan_joint": 3.64349445355391,
        "distance_wrist_1_joint": 5.536616696532575,
        "distance_wrist_2_joint": 3.142246830538934,
        "distance_wrist_3_joint": 1.7667064462633033,
        "smoothness": 0.2185896993131273,
        "time": 0.182272695,
        "traj_len": 4.469438521452376,
        "weighted_distance": 5.673460770697238
    },
    "planner": "EST",
    "start": {
        "state": {
            "elbow_joint": -1.919618573717145,
            "shoulder_lift_joint": -1.2443395971678275,
            "shoulder_pan_joint": 2.6996025300909787,
            "wrist_1_joint": -1.548550951253194,
            "wrist_2_joint": -1.5709469090946802,
            "wrist_3_joint": 0.4420197732051276
        }
    },
    "waypoints": [
        {
            "positions": [
                2.6996025300909787,
                -1.2443395971678275,
                -1.919618573717145,
                -1.548550951253194,
                -1.5709469090946802,
                0.4420197732051276
            ]
        },
        {
            "positions": [
                2.5923548282617466,
                -1.2700531305392329,
                -1.8229588819681628,
                -1.5824030445923711,
                -1.491770525173881,
                0.4019619984739399
            ]
        },
        {
            "positions": [
                2.485107126432514,
                -1.2957666639106382,
                -1.7262991902191807,
                -1.616255137931548,
                -1.4125941412530818,
                0.36190422374275216
            ]
        },
        {
            "positions": [
                2.377859424603282,
                -1.3214801972820438,
                -1.6296394984701985,
                -1.650107231270725,
                -1.3334177573322827,
                0.32184644901156445
            ]
        },
        {
            "positions": [
                2.2706117227740497,
                -1.3471937306534492,
                -1.5329798067212161,
                -1.683959324609902,
                -1.2542413734114837,
                0.2817886742803767
            ]
        },
        {
            "positions": [
                2.163364020944817,
                -1.3729072640248545,
                -1.436320114972234,
                -1.717811417949079,
                -1.1750649894906844,
                0.24173089954918897
            ]
        },
        {
            "positions": [
                2.056116319115585,
                -1.3986207973962599,
                -1.3396604232232519,
                -1.751663511288256,
                -1.0958886055698853,
                0.2016731248180013
            ]
        },
        {
            "positions": [
                1.9488686172863527,
                -1.4243343307676655,
                -1.2430007314742695,
                -1.785515604627433,
                -1.0167122216490863,
                0.16161535008681355
            ]
        },
        {
            "positions": [
                1.8416209154571206,
                -1.4500478641390708,
                -1.1463410397252876,
                -1.81936769796661,
                -0.9375358377282871,
                0.12155757535562584
            ]
        },
        {
            "positions": [
                1.7343732136278882,
                -1.4757613975104762,
                -1.0496813479763052,
                -1.8532197913057868,
                -0.8583594538074879,
                0.08149980062443812
            ]
        },
        {
            "positions": [
                1.6271255117986558,
                -1.5014749308818818,
                -0.953021656227323,
                -1.887071884644964,
                -0.7791830698866887,
                0.041442025893250356
            ]
        },
        {
            "positions": [
                1.5198778099694237,
                -1.5271884642532871,
                -0.8563619644783409,
                -1.920923977984141,
                -0.7000066859658897,
                0.0013842511620626996
            ]
        },
        {
            "positions": [
                1.4126301081401913,
                -1.5529019976246925,
                -0.7597022727293588,
                -1.9547760713233178,
                -0.6208303020450905,
                -0.03867352356912501
            ]
        },
        {
            "positions": [
                1.3053824063109591,
                -1.5786155309960979,
                -0.6630425809803766,
                -1.9886281646624948,
                -0.5416539181242912,
                -0.07873129830031272
            ]
        },
        {
            "positions": [
                1.1981347044817268,
                -1.6043290643675032,
                -0.5663828892313942,
                -2.022480258001672,
                -0.46247753420349214,
                -0.11878907303150049
            ]
        },
        {
            "positions": [
                1.0908870026524944,
                -1.6300425977389088,
                -0.4697231974824121,
                -2.0563323513408487,
                -0.38330115028269285,
                -0.15884684776268826
            ]
        },
        {
            "positions": [
                0.9836393008232622,
                -1.6557561311103142,
                -0.37306350573342995,
                -2.090184444680026,
                -0.304124766361894,
                -0.19890462249387592
            ]
        },
        {
            "positions": [
                0.8763915989940301,
                -1.6814696644817195,
                -0.276403813984448,
                -2.124036538019203,
                -0.22494838244109494,
                -0.23896239722506357
            ]
        },
        {
            "positions": [
                0.7691438971647977,
                -1.7071831978531251,
                -0.17974412223546565,
                -2.1578886313583796,
                -0.14577199852029565,
                -0.27902017195625134
            ]
        },
        {
            "positions": [
                0.6618961953355655,
                -1.7328967312245305,
                -0.08308443048648351,
                -2.1917407246975564,
                -0.06659561459949659,
                -0.319077946687439
            ]
        },
        {
            "positions": [
                0.5546484935063329,
                -1.7586102645959358,
                0.013575261262498861,
                -2.2255928180367337,
                0.012580769321302698,
                -0.3591357214186269
            ]
        },
        {
            "positions": [
                0.4474007916771008,
                -1.7843237979673412,
                0.11023495301148079,
                -2.2594449113759105,
                0.09175715324210176,
                -0.39919349614981453
            ]
        },
        {
            "positions": [
                0.34015308984786863,
                -1.8100373313387466,
                0.20689464476046315,
                -2.293297004715088,
                0.17093353716290083,
                -0.4392512708810022
            ]
        },
        {
            "positions": [
                0.23290538801863603,
                -1.835750864710152,
                0.3035543365094455,
                -2.3271490980542646,
                0.2501099210837001,
                -0.47930904561218995
            ]
        },
        {
            "positions": [
                0.12565768618940387,
                -1.8614643980815575,
                0.40021402825842745,
                -2.3610011913934414,
                0.3292863050044992,
                -0.5193668203433777
            ]
        },
        {
            "positions": [
                0.018409984360171716,
                -1.8871779314529629,
                0.49687372000740937,
                -2.3948532847326183,
                0.40846268892529825,
                -0.5594245950745653
            ]
        },
        {
            "positions": [
                -0.08883771746906044,
                -1.9128914648243684,
                0.5935334117563917,
                -2.4287053780717955,
                0.48763907284609775,
                -0.599482369805753
            ]
        },
        {
            "positions": [
                -0.1960854192982926,
                -1.9386049981957738,
                0.6901931035053741,
                -2.4625574714109724,
                0.5668154567668968,
                -0.6395401445369406
            ]
        },
        {
            "positions": [
                -0.3033331211275252,
                -1.9643185315671792,
                0.7868527952543565,
                -2.4964095647501496,
                0.6459918406876959,
                -0.6795979192681285
            ]
        },
        {
            "positions": [
                -0.41058082295675746,
                -1.9900320649385845,
                0.8835124870033382,
                -2.5302616580893265,
                0.7251682246084952,
                -0.7196556939993163
            ]
        },
        {
            "positions": [
                -0.38823176124444025,
                -1.934585590248846,
                0.9341020378541001,
                -2.3199502229225453,
                0.6853657654693828,
                -0.7072736508265478
            ]
        },
        {
            "positions": [
                -0.3658826995321231,
                -1.8791391155591075,
                0.9846915887048621,
                -2.109638787755764,
                0.6455633063302705,
                -0.6948916076537794
            ]
        },
        {
            "positions": [
                -0.3435336378198059,
                -1.8236926408693688,
                1.035281139555624,
                -1.8993273525889827,
                0.6057608471911582,
                -0.682509564481011
            ]
        },
        {
            "positions": [
                -0.32118457610748874,
                -1.7682461661796303,
                1.085870690406386,
                -1.6890159174222013,
                0.5659583880520458,
                -0.6701275213082426
            ]
        },
        {
            "positions": [
                -0.29883551439517153,
                -1.7127996914898915,
                1.1364602412571478,
                -1.47870448225542,
                0.5261559289129334,
                -0.6577454781354741
            ]
        },
        {
            "positions": [
                -0.2764864526828543,
                -1.657353216800153,
                1.1870497921079097,
                -1.2683930470886389,
                0.4863534697738211,
                -0.6453634349627058
            ]
        },
        {
            "positions": [
                -0.2541373909705371,
                -1.6019067421104145,
                1.2376393429586718,
                -1.0580816119218575,
                0.44655101063470876,
                -0.6329813917899373
            ]
        },
        {
            "positions": [
                -0.23178832925822,
                -1.546460267420676,
                1.2882288938094337,
                -0.8477701767550763,
                0.4067485514955964,
                -0.6205993486171689
            ]
        },
        {
            "positions": [
                -0.20943926754590278,
                -1.4910137927309375,
                1.3388184446601956,
                -0.6374587415882949,
                0.36694609235648407,
                -0.6082173054444004
            ]
        },
        {
            "positions": [
                -0.18709020583358557,
                -1.4355673180411987,
                1.3894079955109575,
                -0.42714730642151366,
                0.3271436332173717,
                -0.5958352622716321
            ]
        },
        {
            "positions": [
                -0.1647411441212684,
                -1.38012084335146,
                1.4399975463617194,
                -0.21683587125473203,
                0.2873411740782593,
                -0.5834532190988636
            ]
        },
        {
            "positions": [
                -0.14239208240895124,
                -1.3246743686617217,
                1.4905870972124813,
                -0.00652443608795128,
                0.24753871493914703,
                -0.5710711759260952
            ]
        },
        {
            "positions": [
                -0.12004302069663403,
                -1.269227893971983,
                1.5411766480632434,
                0.20378699907883036,
                0.20773625580003474,
                -0.5586891327533268
            ]
        },
        {
            "positions": [
                -0.09769395898431682,
                -1.2137814192822445,
                1.5917661989140053,
                0.41409843424561155,
                0.16793379666092234,
                -0.5463070895805584
            ]
        },
        {
            "positions": [
                -0.07534489727199967,
                -1.158334944592506,
                1.6423557497647674,
                0.6244098694123932,
                0.12813133752180994,
                -0.5339250464077899
            ]
        },
        {
            "positions": [
                -0.052995835559682514,
                -1.1028884699027675,
                1.6929453006155293,
                0.8347213045791739,
                0.08832887838269765,
                -0.5215430032350216
            ]
        },
        {
            "positions": [
                -0.030646773847365305,
                -1.047441995213029,
                1.7435348514662912,
                1.0450327397459556,
                0.04852641924358536,
                -0.5091609600622531
            ]
        },
        {
            "positions": [
                -0.00829771213504811,
                -0.9919955205232902,
                1.794124402317053,
                1.255344174912737,
                0.008723960104473003,
                -0.49677891688948467
            ]
        },
        {
            "positions": [
                0.015348503741302554,
                -0.9553170038860292,
                1.8349454969721357,
                1.393927170982814,
                -0.014878132965099287,
                -0.42755800599487354
            ]
        },
        {
            "positions": [
                0.03899471961765322,
                -0.9186384872487682,
                1.8757665916272181,
                1.5325101670528911,
                -0.03848022603467158,
                -0.35833709510026246
            ]
        },
        {
            "positions": [
                0.06264093549400387,
                -0.8819599706115072,
                1.9165876862823008,
                1.6710931631229682,
                -0.06208231910424386,
                -0.2891161842056513
            ]
        },
        {
            "positions": [
                0.08628715137035455,
                -0.8452814539742461,
                1.9574087809373832,
                1.8096761591930453,
                -0.08568441217381616,
                -0.2198952733110402
            ]
        },
        {
            "positions": [
                0.1099333672467052,
                -0.8086029373369852,
                1.998229875592466,
                1.9482591552631223,
                -0.10928650524338844,
                -0.15067436241642906
            ]
        },
        {
            "positions": [
                0.1227302775494153,
                -0.7890546155316287,
                2.02052777925882,
                2.0246443316071154,
                -0.12096347222726252,
                -0.11462471494045612
            ]
        }
    ]
}{
    "goal": {
        "global_pose": {
            "orientation": {
                "w": 0.7047431468963623,
                "x": -0.7094548344612122,
                "y": 0.0024358443915843964,
                "z": -0.0022348060738295317
            },
            "position": {
                "x": 0.6094750761985779,
                "y": 0.3671506643295288,
                "z": 0.19426114857196808
            }
        },
        "name": "move_to_magneteinheit_A"
    },
    "id": "EST_move_to_magneteinheit_A_138",
    "joint_names": [
        "shoulder_pan_joint",
        "shoulder_lift_joint",
        "elbow_joint",
        "wrist_1_joint",
        "wrist_2_joint",
        "wrist_3_joint"
    ],
    "metrics": {
        "cart_traj_len": 1.2529339669720914,
        "distance_elbow_joint": 0.4071874242043316,
        "distance_shoulder_lift_joint": 0.7623411889749641,
        "distance_shoulder_pan_joint": 1.2422511376440515,
        "distance_wrist_1_joint": 1.1657968475718112,
        "distance_wrist_2_joint": 1.6029739756377344,
        "distance_wrist_3_joint": 4.342709254266013,
        "smoothness": 0.3006984392835294,
        "time": 0.21907831,
        "traj_len": 3.085977937105012,
        "weighted_distance": 4.58011453569018
    },
    "planner": "EST",
    "start": {
        "state": {
            "elbow_joint": 1.919643534880228,
            "shoulder_lift_joint": -1.8972525353963687,
            "shoulder_pan_joint": -1.1188672234189438,
            "wrist_1_joint": -1.5931878212786155,
            "wrist_2_joint": 1.5706036197970081,
            "wrist_3_joint": 1.118896926603594
        }
    },
    "waypoints": [
        {
            "positions": [
                -1.1188672234189438,
                -1.8972525353963687,
                1.919643534880228,
                -1.5931878212786155,
                1.5706036197970081,
                1.118896926603594
            ]
        },
        {
            "positions": [
                -1.0704881212205304,
                -1.864781299470108,
                1.9113963039986657,
                -1.5473286080321647,
                1.5014972318120279,
                0.9331030123343289
            ]
        },
        {
            "positions": [
                -1.0221090190221171,
                -1.8323100635438474,
                1.9031490731171035,
                -1.5014693947857136,
                1.4323908438270478,
                0.7473090980650637
            ]
        },
        {
            "positions": [
                -0.9737299168237037,
                -1.7998388276175865,
                1.894901842235541,
                -1.4556101815392628,
                1.3632844558420676,
                0.5615151837957987
            ]
        },
        {
            "positions": [
                -0.9253508146252903,
                -1.7673675916913258,
                1.8866546113539786,
                -1.409750968292812,
                1.2941780678570876,
                0.3757212695265335
            ]
        },
        {
            "positions": [
                -0.876971712426877,
                -1.7348963557650652,
                1.8784073804724164,
                -1.363891755046361,
                1.2250716798721073,
                0.18992735525726845
            ]
        },
        {
            "positions": [
                -0.8285926102284636,
                -1.7024251198388045,
                1.870160149590854,
                -1.3180325417999101,
                1.155965291887127,
                0.0041334409880033895
            ]
        },
        {
            "positions": [
                -0.7802135080300503,
                -1.6699538839125436,
                1.8619129187092915,
                -1.272173328553459,
                1.086858903902147,
                -0.18166047328126167
            ]
        },
        {
            "positions": [
                -0.7318344058316368,
                -1.637482647986283,
                1.8536656878277293,
                -1.2263141153070083,
                1.0177525159171668,
                -0.36745438755052695
            ]
        },
        {
            "positions": [
                -0.6834553036332235,
                -1.6050114120600223,
                1.845418456946167,
                -1.1804549020605575,
                0.9486461279321866,
                -0.553248301819792
            ]
        },
        {
            "positions": [
                -0.6350762014348101,
                -1.5725401761337616,
                1.8371712260646045,
                -1.1345956888141067,
                0.8795397399472065,
                -0.7390422160890571
            ]
        },
        {
            "positions": [
                -0.5866970992363968,
                -1.540068940207501,
                1.8289239951830423,
                -1.0887364755676556,
                0.8104333519622263,
                -0.9248361303583221
            ]
        },
        {
            "positions": [
                -0.5383179970379834,
                -1.50759770428124,
                1.8206767643014798,
                -1.0428772623212048,
                0.7413269639772462,
                -1.1106300446275872
            ]
        },
        {
            "positions": [
                -0.48993889483957,
                -1.4751264683549794,
                1.8124295334199174,
                -0.9970180490747538,
                0.6722205759922659,
                -1.2964239588968522
            ]
        },
        {
            "positions": [
                -0.44155979264115675,
                -1.4426552324287187,
                1.804182302538355,
                -0.951158835828303,
                0.6031141880072859,
                -1.4822178731661173
            ]
        },
        {
            "positions": [
                -0.3931806904427434,
                -1.410183996502458,
                1.7959350716567928,
                -0.9052996225818521,
                0.5340078000223056,
                -1.6680117874353824
            ]
        },
        {
            "positions": [
                -0.34480158824432994,
                -1.3777127605761974,
                1.7876878407752304,
                -0.8594404093354011,
                0.4649014120373254,
                -1.8538057017046479
            ]
        },
        {
            "positions": [
                -0.2964224860459166,
                -1.3452415246499365,
                1.779440609893668,
                -0.8135811960889503,
                0.39579502405234535,
                -2.0395996159739127
            ]
        },
        {
            "positions": [
                -0.24804338384750313,
                -1.3127702887236756,
                1.7711933790121057,
                -0.7677219828424993,
                0.3266886360673651,
                -2.2253935302431778
            ]
        },
        {
            "positions": [
                -0.19966428164908978,
                -1.2802990527974152,
                1.7629461481305433,
                -0.7218627695960484,
                0.25758224808238506,
                -2.411187444512443
            ]
        },
        {
            "positions": [
                -0.15128517945067654,
                -1.2478278168711543,
                1.7546989172489809,
                -0.6760035563495976,
                0.1884758600974048,
                -2.596981358781708
            ]
        },
        {
            "positions": [
                -0.10290607725226297,
                -1.2153565809448936,
                1.7464516863674187,
                -0.6301443431031466,
                0.11936947211242455,
                -2.782775273050973
            ]
        },
        {
            "positions": [
                -0.05452697505384982,
                -1.182885345018633,
                1.7382044554858562,
                -0.5842851298566958,
                0.05026308412744461,
                -2.968569187320238
            ]
        },
        {
            "positions": [
                0.004776654705802602,
                -1.1668940121528901,
                1.8134539037558428,
                -0.6365831819066596,
                0.07780756411683479,
                -3.0536502341009646
            ]
        },
        {
            "positions": [
                0.06408028446545502,
                -1.1509026792871475,
                1.8887033520258294,
                -0.6888812339566236,
                0.10535204410622497,
                -3.1387312808816916
            ]
        },
        {
            "positions": [
                0.12338391422510746,
                -1.1349113464214047,
                1.963952800295816,
                -0.7411792860065874,
                0.13289652409561514,
                -3.223812327662418
            ]
        }
    ]
}