{
    "goal": {
        "global_pose": {
            "orientation": {
                "w": 0.7047431468963623,
                "x": -0.7094548344612122,
                "y": 0.0024358443915843964,
                "z": -0.0022348060738295317
            },
            "position": {
                "x": 0.6094750761985779,
                "y": 0.3671506643295288,
                "z": 0.19426114857196808
            }
        },
        "name": "move_to_magneteinheit_A"
    },
    "id": "EST_move_to_magneteinheit_A_111",
    "joint_names": [
        "shoulder_pan_joint",
        "shoulder_lift_joint",
        "elbow_joint",
        "wrist_1_joint",
        "wrist_2_joint",
        "wrist_3_joint"
    ],
    "metrics": {
        "cart_traj_len": 4.121966580102221,
        "distance_elbow_joint": 3.911736662565393,
        "distance_shoulder_lift_joint": 0.5441497916776945,
        "distance_shoulder_pan_joint": 4.1393106317610044,
        "distance_wrist_1_joint": 0.681070877561882,
        "distance_wrist_2_joint": 1.9380024512381555,
        "distance_wrist_3_joint": 3.5674825154945045,
        "smoothness": 0.16040853750724432,
        "time": 0.070118073,
        "traj_len": 3.8447045309488526,
        "weighted_distance": 4.953361615114293
    },
    "planner": "EST",
    "start": {
        "state": {
            "elbow_joint": -1.919618573717145,
            "shoulder_lift_joint": -1.2443395971678275,
            "shoulder_pan_joint": 2.6996025300909787,
            "wrist_1_joint": -1.548550951253194,
            "wrist_2_joint": -1.5709469090946802,
            "wrist_3_joint": 0.4420197732051276
        }
    },
    "waypoints": [
        {
            "positions": [
                2.6996025300909787,
                -1.2443395971678275,
                -1.919618573717145,
                -1.548550951253194,
                -1.5709469090946802,
                0.4420197732051276
            ]
        },
        {
            "positions": [
                2.5596873930928976,
                -1.2310235719159763,
                -1.841880365299339,
                -1.5403149082826495,
                -1.495116323107875,
                0.3745542900182463
            ]
        },
        {
            "positions": [
                2.4197722560948165,
                -1.2177075466641252,
                -1.7641421568815328,
                -1.532078865312105,
                -1.4192857371210699,
                0.307088806831365
            ]
        },
        {
            "positions": [
                2.279857119096735,
                -1.2043915214122742,
                -1.6864039484637268,
                -1.52384282234156,
                -1.3434551511342647,
                0.23962332364448374
            ]
        },
        {
            "positions": [
                2.1399419820986543,
                -1.191075496160423,
                -1.6086657400459208,
                -1.5156067793710155,
                -1.2676245651474596,
                0.17215784045760246
            ]
        },
        {
            "positions": [
                2.0000268451005727,
                -1.177759470908572,
                -1.5309275316281146,
                -1.507370736400471,
                -1.1917939791606544,
                0.10469235727072118
            ]
        },
        {
            "positions": [
                1.8601117081024916,
                -1.1644434456567208,
                -1.4531893232103084,
                -1.4991346934299263,
                -1.1159633931738495,
                0.0372268740838399
            ]
        },
        {
            "positions": [
                1.7201965711044105,
                -1.1511274204048696,
                -1.3754511147925024,
                -1.4908986504593817,
                -1.0401328071870442,
                -0.030238609103041436
            ]
        },
        {
            "positions": [
                1.5802814341063294,
                -1.1378113951530184,
                -1.2977129063746964,
                -1.482662607488837,
                -0.9643022212002392,
                -0.09770409228992266
            ]
        },
        {
            "positions": [
                1.440366297108248,
                -1.1244953699011675,
                -1.2199746979568902,
                -1.4744265645182923,
                -0.8884716352134341,
                -0.16516957547680394
            ]
        },
        {
            "positions": [
                1.3004511601101667,
                -1.1111793446493163,
                -1.142236489539084,
                -1.4661905215477478,
                -0.8126410492266289,
                -0.23263505866368522
            ]
        },
        {
            "positions": [
                1.1605360231120858,
                -1.0978633193974652,
                -1.0644982811212782,
                -1.4579544785772032,
                -0.7368104632398239,
                -0.3001005418505665
            ]
        },
        {
            "positions": [
                1.0206208861140045,
                -1.084547294145614,
                -0.986760072703472,
                -1.4497184356066586,
                -0.6609798772530188,
                -0.3675660250374478
            ]
        },
        {
            "positions": [
                0.8807057491159234,
                -1.0712312688937629,
                -0.909021864285666,
                -1.4414823926361138,
                -0.5851492912662137,
                -0.43503150822432896
            ]
        },
        {
            "positions": [
                0.740790612117842,
                -1.057915243641912,
                -0.8312836558678598,
                -1.4332463496655692,
                -0.5093187052794084,
                -0.5024969914112105
            ]
        },
        {
            "positions": [
                0.6008754751197607,
                -1.0445992183900608,
                -0.7535454474500538,
                -1.4250103066950246,
                -0.43348811929260345,
                -0.5699624745980916
            ]
        },
        {
            "positions": [
                0.46096033812168,
                -1.0312831931382096,
                -0.6758072390322478,
                -1.41677426372448,
                -0.3576575333057983,
                -0.6374279577849729
            ]
        },
        {
            "positions": [
                0.32104520112359847,
                -1.0179671678863584,
                -0.5980690306144416,
                -1.4085382207539352,
                -0.28182694731899316,
                -0.7048934409718541
            ]
        },
        {
            "positions": [
                0.18113006412551735,
                -1.0046511426345073,
                -0.5203308221966354,
                -1.4003021777833906,
                -0.20599636133218802,
                -0.7723589241587354
            ]
        },
        {
            "positions": [
                0.04121492712743624,
                -0.9913351173826562,
                -0.4425926137788294,
                -1.392066134812846,
                -0.1301657753453831,
                -0.8398244073456167
            ]
        },
        {
            "positions": [
                -0.09870020987064532,
                -0.9780190921308052,
                -0.3648544053610232,
                -1.3838300918423014,
                -0.05433518935857773,
                -0.907289890532498
            ]
        },
        {
            "positions": [
                -0.23861534686872599,
                -0.964703066878954,
                -0.2871161969432172,
                -1.3755940488717568,
                0.021495396628227192,
                -0.9747553737193793
            ]
        },
        {
            "positions": [
                -0.3785304838668071,
                -0.9513870416271029,
                -0.20937798852541123,
                -1.3673580059012123,
                0.09732598261503234,
                -1.0422208569062605
            ]
        },
        {
            "positions": [
                -0.5184456208648887,
                -0.9380710163752517,
                -0.13163978010760502,
                -1.3591219629306674,
                0.17315656860183748,
                -1.1096863400931418
            ]
        },
        {
            "positions": [
                -0.6583607578629698,
                -0.9247549911234006,
                -0.05390157168979892,
                -1.3508859199601229,
                0.24898715458864257,
                -1.177151823280023
            ]
        },
        {
            "positions": [
                -0.6062709349424993,
                -0.9397260034989519,
                0.08249973901273758,
                -1.318658863542202,
                0.24111592875165366,
                -1.3070392178806467
            ]
        },
        {
            "positions": [
                -0.5541811120220289,
                -0.954697015874503,
                0.21890104971527408,
                -1.2864318071242815,
                0.23324470291466473,
                -1.4369266124812703
            ]
        },
        {
            "positions": [
                -0.5020912891015584,
                -0.9696680282500542,
                0.3553023604178106,
                -1.2542047507063607,
                0.2253734770776758,
                -1.5668140070818939
            ]
        },
        {
            "positions": [
                -0.45000146618108805,
                -0.9846390406256054,
                0.4917036711203471,
                -1.22197769428844,
                0.2175022512406869,
                -1.6967014016825175
            ]
        },
        {
            "positions": [
                -0.39791164326061756,
                -0.9996100530011566,
                0.6281049818228835,
                -1.1897506378705192,
                0.209631025403698,
                -1.8265887962831409
            ]
        },
        {
            "positions": [
                -0.3458218203401471,
                -1.0145810653767078,
                0.7645062925254201,
                -1.1575235814525986,
                0.20175979956670906,
                -1.9564761908837647
            ]
        },
        {
            "positions": [
                -0.29373199741967665,
                -1.0295520777522589,
                0.9009076032279566,
                -1.1252965250346778,
                0.19388857372972013,
                -2.086363585484388
            ]
        },
        {
            "positions": [
                -0.24164217449920627,
                -1.04452309012781,
                1.037308913930493,
                -1.0930694686167572,
                0.18601734789273122,
                -2.216250980085012
            ]
        },
        {
            "positions": [
                -0.18955235157873584,
                -1.0594941025033613,
                1.1737102246330298,
                -1.0608424121988365,
                0.17814612205574232,
                -2.3461383746856352
            ]
        },
        {
            "positions": [
                -0.13746252865826536,
                -1.0744651148789124,
                1.3101115353355661,
                -1.0286153557809157,
                0.17027489621875339,
                -2.4760257692862586
            ]
        },
        {
            "positions": [
                -0.08537270573779498,
                -1.0894361272544635,
                1.4465128460381025,
                -0.996388299362995,
                0.16240367038176445,
                -2.6059131638868824
            ]
        },
        {
            "positions": [
                -0.03328288281732439,
                -1.1044071396300148,
                1.5829141567406393,
                -0.9641612429450742,
                0.15453244454477555,
                -2.7358005584875063
            ]
        },
        {
            "positions": [
                0.018806940103145986,
                -1.119378152005566,
                1.7193154674431756,
                -0.9319341865271535,
                0.14666121870778662,
                -2.8656879530881296
            ]
        },
        {
            "positions": [
                0.07089676302361647,
                -1.1343491643811172,
                1.855716778145712,
                -0.8997071301092328,
                0.13878999287079768,
                -2.995575347688753
            ]
        },
        {
            "positions": [
                0.1229865859440868,
                -1.1493201767566683,
                1.9921180888482488,
                -0.8674800736913121,
                0.13091876703380878,
                -3.125462742289377
            ]
        }
    ]
}{
    "goal": {
        "global_pose": {
            "orientation": {
                "w": 0.7047431468963623,
                "x": -0.7094548344612122,
                "y": 0.0024358443915843964,
                "z": -0.0022348060738295317
            },
            "position": {
                "x": 0.6094750761985779,
                "y": 0.3671506643295288,
                "z": 0.19426114857196808
            }
        },
        "name": "move_to_magneteinheit_A"
    },
    "id": "EST_move_to_magneteinheit_A_111",
    "joint_names": [
        "shoulder_pan_joint",
        "shoulder_lift_joint",
        "elbow_joint",
        "wrist_1_joint",
        "wrist_2_joint",
        "wrist_3_joint"
    ],
    "metrics": {
        "cart_traj_len": 1.3799553929209702,
        "distance_elbow_joint": 1.5075042441262338,
        "distance_shoulder_lift_joint": 0.7669083495235456,
        "distance_shoulder_pan_joint": 1.2410741656292101,
        "distance_wrist_1_joint": 1.8063975427327348,
        "distance_wrist_2_joint": 1.4474623547013952,
        "distance_wrist_3_joint": 4.358078116248128,
        "smoothness": 0.2514418647700933,
        "time": 0.108164647,
        "traj_len": 3.3357794850621114,
        "weighted_distance": 4.8059797027132385
    },
    "planner": "EST",
    "start": {
        "state": {
            "elbow_joint": 1.919643534880228,
            "shoulder_lift_joint": -1.8972525353963687,
            "shoulder_pan_joint": -1.1188672234189438,
            "wrist_1_joint": -1.5931878212786155,
            "wrist_2_joint": 1.5706036197970081,
            "wrist_3_joint": 1.118896926603594
        }
    },
    "waypoints": [
        {
            "positions": [
                -1.1188672234189438,
                -1.8972525353963687,
                1.919643534880228,
                -1.5931878212786155,
                1.5706036197970081,
                1.118896926603594
            ]
        },
        {
            "positions": [
                -1.0898842448359596,
                -1.8709829411535404,
                1.8809774044491883,
                -1.5228078393653552,
                1.4958485075605106,
                0.962718522728182
            ]
        },
        {
            "positions": [
                -1.060901266252975,
                -1.8447133469107118,
                1.8423112740181484,
                -1.4524278574520948,
                1.421093395324013,
                0.80654011885277
            ]
        },
        {
            "positions": [
                -1.0319182876699908,
                -1.8184437526678834,
                1.8036451435871088,
                -1.3820478755388346,
                1.3463382830875152,
                0.650361714977358
            ]
        },
        {
            "positions": [
                -1.0029353090870063,
                -1.7921741584250548,
                1.764979013156069,
                -1.3116678936255743,
                1.2715831708510177,
                0.494183311101946
            ]
        },
        {
            "positions": [
                -0.9739523305040221,
                -1.7659045641822264,
                1.7263128827250291,
                -1.2412879117123141,
                1.1968280586145201,
                0.338004907226534
            ]
        },
        {
            "positions": [
                -0.9449693519210377,
                -1.7396349699393978,
                1.6876467522939893,
                -1.170907929799054,
                1.1220729463780226,
                0.18182650335112205
            ]
        },
        {
            "positions": [
                -0.9159863733380533,
                -1.7133653756965694,
                1.6489806218629495,
                -1.1005279478857934,
                1.0473178341415248,
                0.025648099475710007
            ]
        },
        {
            "positions": [
                -0.8870033947550691,
                -1.6870957814537408,
                1.6103144914319096,
                -1.0301479659725332,
                0.9725627219050273,
                -0.13053030439970192
            ]
        },
        {
            "positions": [
                -0.8580204161720846,
                -1.6608261872109125,
                1.5716483610008698,
                -0.959767984059273,
                0.8978076096685298,
                -0.28670870827511385
            ]
        },
        {
            "positions": [
                -0.8290374375891003,
                -1.6345565929680839,
                1.5329822305698302,
                -0.8893880021460127,
                0.8230524974320321,
                -0.442887112150526
            ]
        },
        {
            "positions": [
                -0.8000544590061158,
                -1.6082869987252555,
                1.4943161001387903,
                -0.8190080202327523,
                0.7482973851955345,
                -0.5990655160259382
            ]
        },
        {
            "positions": [
                -0.7710714804231316,
                -1.5820174044824271,
                1.4556499697077505,
                -0.7486280383194921,
                0.6735422729590369,
                -0.7552439199013499
            ]
        },
        {
            "positions": [
                -0.7420885018401472,
                -1.5557478102395985,
                1.4169838392767107,
                -0.6782480564062318,
                0.5987871607225392,
                -0.911422323776762
            ]
        },
        {
            "positions": [
                -0.7131055232571628,
                -1.52947821599677,
                1.378317708845671,
                -0.6078680744929715,
                0.5240320484860417,
                -1.067600727652174
            ]
        },
        {
            "positions": [
                -0.6841225446741785,
                -1.5032086217539415,
                1.3396515784146312,
                -0.5374880925797112,
                0.4492769362495441,
                -1.2237791315275859
            ]
        },
        {
            "positions": [
                -0.6551395660911942,
                -1.4769390275111132,
                1.3009854479835914,
                -0.46710811066645097,
                0.37452182401304657,
                -1.3799575354029978
            ]
        },
        {
            "positions": [
                -0.6261565875082098,
                -1.4506694332682846,
                1.2623193175525516,
                -0.3967281287531905,
                0.2997667117765488,
                -1.5361359392784102
            ]
        },
        {
            "positions": [
                -0.5971736089252254,
                -1.424399839025456,
                1.2236531871215117,
                -0.3263481468399305,
                0.22501159954005145,
                -1.6923143431538217
            ]
        },
        {
            "positions": [
                -0.568190630342241,
                -1.3981302447826276,
                1.1849870566904719,
                -0.25596816492666996,
                0.15025648730355365,
                -1.848492747029234
            ]
        },
        {
            "positions": [
                -0.4991508730869903,
                -1.3713516388916471,
                1.2622718332841196,
                -0.30288595356474896,
                0.14754496508275952,
                -1.987561591290764
            ]
        },
        {
            "positions": [
                -0.43011111583173955,
                -1.3445730330006667,
                1.3395566098777674,
                -0.3498037422028279,
                0.1448334428619654,
                -2.1266304355522943
            ]
        },
        {
            "positions": [
                -0.36107135857648887,
                -1.3177944271096862,
                1.416841386471415,
                -0.3967215308409069,
                0.14212192064117127,
                -2.2656992798138242
            ]
        },
        {
            "positions": [
                -0.2920316013212381,
                -1.2910158212187057,
                1.4941261630650629,
                -0.4436393194789858,
                0.13941039842037714,
                -2.4047681240753542
            ]
        },
        {
            "positions": [
                -0.22299184406598738,
                -1.2642372153277255,
                1.5714109396587106,
                -0.4905571081170648,
                0.136698876199583,
                -2.543836968336884
            ]
        },
        {
            "positions": [
                -0.15395208681073663,
                -1.237458609436745,
                1.6486957162523583,
                -0.5374748967551437,
                0.1339873539787889,
                -2.682905812598414
            ]
        },
        {
            "positions": [
                -0.08491232955548594,
                -1.2106800035457645,
                1.725980492846006,
                -0.5843926853932228,
                0.13127583175799476,
                -2.821974656859944
            ]
        },
        {
            "positions": [
                -0.0158725723002352,
                -1.183901397654784,
                1.803265269439654,
                -0.6313104740313018,
                0.12856430953720063,
                -2.9610435011214746
            ]
        },
        {
            "positions": [
                0.0531671849550156,
                -1.1571227917638036,
                1.8805500460333018,
                -0.6782282626693807,
                0.1258527873164065,
                -3.1001123453830046
            ]
        },
        {
            "positions": [
                0.12220694221026625,
                -1.1303441858728231,
                1.9578348226269495,
                -0.7251460513074597,
                0.12314126509561238,
                -3.2391811896445346
            ]
        }
    ]
}