{
    "goal": {
        "global_pose": {
            "orientation": {
                "w": 0.5084816217422485,
                "x": -0.49083608388900757,
                "y": 0.5182115435600281,
                "z": -0.4816462993621826
            },
            "position": {
                "x": 0.5540239810943604,
                "y": 0.030875300988554955,
                "z": 0.16403168439865112
            }
        },
        "name": "move_to_storage_A"
    },
    "id": "EST_move_to_storage_A_88",
    "joint_names": [
        "shoulder_pan_joint",
        "shoulder_lift_joint",
        "elbow_joint",
        "wrist_1_joint",
        "wrist_2_joint",
        "wrist_3_joint"
    ],
    "metrics": {
        "cart_traj_len": 0.3533867868614993,
        "distance_elbow_joint": 0.4527020998308178,
        "distance_shoulder_lift_joint": 0.2327852541113471,
        "distance_shoulder_pan_joint": 0.46304118861647237,
        "distance_wrist_1_joint": 0.26125687806702047,
        "distance_wrist_2_joint": 1.0943652435665991,
        "distance_wrist_3_joint": 0.09809111048840569,
        "smoothness": 2.2204460668324854e-16,
        "time": 0.01585595,
        "traj_len": 1.613146544700965,
        "weighted_distance": 2.0381477172401152
    },
    "planner": "EST",
    "start": {
        "state": {
            "elbow_joint": 1.9715477243005601,
            "shoulder_lift_joint": -1.1394853015351272,
            "shoulder_pan_joint": 0.12281154014795169,
            "wrist_1_joint": -0.7804696478968182,
            "wrist_2_joint": 0.12958648046900423,
            "wrist_3_joint": -3.192491284697111
        }
    },
    "waypoints": [
        {
            "positions": [
                0.12281154014795169,
                -1.1394853015351272,
                1.9715477243005601,
                -0.7804696478968182,
                0.12958648046900423,
                -3.192491284697111
            ]
        },
        {
            "positions": [
                0.056662798917027066,
                -1.1727403378367482,
                2.0362194528478197,
                -0.8177920590492497,
                0.2859243724070898,
                -3.1784782689130533
            ]
        },
        {
            "positions": [
                -0.009485942313897558,
                -1.205995374138369,
                2.1008911813950797,
                -0.8551144702016812,
                0.4422622643451754,
                -3.1644652531289954
            ]
        },
        {
            "positions": [
                -0.07563468354482218,
                -1.2392504104399902,
                2.1655629099423392,
                -0.8924368813541126,
                0.598600156283261,
                -3.1504522373449375
            ]
        },
        {
            "positions": [
                -0.1417834247757468,
                -1.2725054467416113,
                2.230234638489599,
                -0.9297592925065441,
                0.7549380482213466,
                -3.136439221560879
            ]
        },
        {
            "positions": [
                -0.20793216600667142,
                -1.3057604830432323,
                2.294906367036859,
                -0.9670817036589756,
                0.9112759401594323,
                -3.1224262057768213
            ]
        },
        {
            "positions": [
                -0.27408090723759604,
                -1.3390155193448532,
                2.3595780955841184,
                -1.0044041148114071,
                1.0676138320975177,
                -3.1084131899927634
            ]
        },
        {
            "positions": [
                -0.34022964846852066,
                -1.3722705556464743,
                2.424249824131378,
                -1.0417265259638386,
                1.2239517240356035,
                -3.0944001742087055
            ]
        }
    ]
}