{
    "goal": {
        "global_pose": {
            "orientation": {
                "w": 0.7047431468963623,
                "x": -0.7094548344612122,
                "y": 0.0024358443915843964,
                "z": -0.0022348060738295317
            },
            "position": {
                "x": 0.6094750761985779,
                "y": 0.3671506643295288,
                "z": 0.19426114857196808
            }
        },
        "name": "move_to_magneteinheit_A"
    },
    "id": "EST_move_to_magneteinheit_A_104",
    "joint_names": [
        "shoulder_pan_joint",
        "shoulder_lift_joint",
        "elbow_joint",
        "wrist_1_joint",
        "wrist_2_joint",
        "wrist_3_joint"
    ],
    "metrics": {
        "cart_traj_len": 3.169868475345917,
        "distance_elbow_joint": 3.913242857763529,
        "distance_shoulder_lift_joint": 0.884041259806979,
        "distance_shoulder_pan_joint": 2.903139785237695,
        "distance_wrist_1_joint": 3.4714981021448024,
        "distance_wrist_2_joint": 1.4386742553827463,
        "distance_wrist_3_joint": 1.9947026072571368,
        "smoothness": 0.11957840867493905,
        "time": 0.164882882,
        "traj_len": 3.821687960521226,
        "weighted_distance": 4.848182797671177
    },
    "planner": "EST",
    "start": {
        "state": {
            "elbow_joint": -1.919618573717145,
            "shoulder_lift_joint": -1.2443395971678275,
            "shoulder_pan_joint": 2.6996025300909787,
            "wrist_1_joint": -1.548550951253194,
            "wrist_2_joint": -1.5709469090946802,
            "wrist_3_joint": 0.4420197732051276
        }
    },
    "waypoints": [
        {
            "positions": [
                2.6996025300909787,
                -1.2443395971678275,
                -1.919618573717145,
                -1.548550951253194,
                -1.5709469090946802,
                0.4420197732051276
            ]
        },
        {
            "positions": [
                2.580223154517387,
                -1.2538345826374777,
                -1.795496561554415,
                -1.5038070895717917,
                -1.5254935082938845,
                0.4775066709411155
            ]
        },
        {
            "positions": [
                2.460843778943795,
                -1.2633295681071277,
                -1.671374549391685,
                -1.459063227890389,
                -1.480040107493089,
                0.5129935686771034
            ]
        },
        {
            "positions": [
                2.3414644033702032,
                -1.2728245535767777,
                -1.547252537228955,
                -1.4143193662089866,
                -1.4345867066922935,
                0.5484804664130913
            ]
        },
        {
            "positions": [
                2.2220850277966115,
                -1.282319539046428,
                -1.4231305250662247,
                -1.3695755045275841,
                -1.3891333058914976,
                0.5839673641490792
            ]
        },
        {
            "positions": [
                2.10270565222302,
                -1.2918145245160781,
                -1.2990085129034947,
                -1.3248316428461817,
                -1.3436799050907022,
                0.6194542618850671
            ]
        },
        {
            "positions": [
                1.983326276649428,
                -1.3013095099857281,
                -1.1748865007407647,
                -1.280087781164779,
                -1.2982265042899066,
                0.654941159621055
            ]
        },
        {
            "positions": [
                1.863946901075836,
                -1.3108044954553781,
                -1.0507644885780347,
                -1.2353439194833766,
                -1.252773103489111,
                0.690428057357043
            ]
        },
        {
            "positions": [
                1.7445675255022444,
                -1.3202994809250284,
                -0.9266424764153046,
                -1.1906000578019742,
                -1.2073197026883153,
                0.725914955093031
            ]
        },
        {
            "positions": [
                1.6251881499286525,
                -1.3297944663946786,
                -0.8025204642525745,
                -1.1458561961205715,
                -1.1618663018875197,
                0.761401852829019
            ]
        },
        {
            "positions": [
                1.5058087743550608,
                -1.3392894518643286,
                -0.6783984520898445,
                -1.1011123344391691,
                -1.1164129010867243,
                0.7968887505650067
            ]
        },
        {
            "positions": [
                1.3864293987814689,
                -1.3487844373339786,
                -0.5542764399271145,
                -1.0563684727577667,
                -1.0709595002859285,
                0.8323756483009948
            ]
        },
        {
            "positions": [
                1.2670500232078772,
                -1.3582794228036288,
                -0.4301544277643845,
                -1.011624611076364,
                -1.025506099485133,
                0.8678625460369827
            ]
        },
        {
            "positions": [
                1.1476706476342853,
                -1.367774408273279,
                -0.3060324156016543,
                -0.9668807493949615,
                -0.9800526986843373,
                0.9033494437729706
            ]
        },
        {
            "positions": [
                1.0282912720606934,
                -1.377269393742929,
                -0.1819104034389245,
                -0.9221368877135591,
                -0.9345992978835418,
                0.9388363415089584
            ]
        },
        {
            "positions": [
                0.9089118964871017,
                -1.386764379212579,
                -0.057788391276194506,
                -0.8773930260321566,
                -0.8891458970827463,
                0.9743232392449463
            ]
        },
        {
            "positions": [
                0.7895325209135098,
                -1.3962593646822292,
                0.06633362088653572,
                -0.8326491643507541,
                -0.8436924962819505,
                1.0098101369809342
            ]
        },
        {
            "positions": [
                0.6701531453399179,
                -1.4057543501518794,
                0.19045563304926572,
                -0.7879053026693515,
                -0.798239095481155,
                1.0452970347169221
            ]
        },
        {
            "positions": [
                0.5507737697663262,
                -1.4152493356215294,
                0.31457764521199594,
                -0.743161440987949,
                -0.7527856946803593,
                1.0807839324529103
            ]
        },
        {
            "positions": [
                0.4313943941927345,
                -1.4247443210911794,
                0.4386996573747257,
                -0.6984175793065466,
                -0.7073322938795638,
                1.1162708301888982
            ]
        },
        {
            "positions": [
                0.3120150186191428,
                -1.4342393065608297,
                0.5628216695374559,
                -0.6536737176251441,
                -0.6618788930787682,
                1.1517577279248858
            ]
        },
        {
            "positions": [
                0.1926356430455507,
                -1.4437342920304799,
                0.6869436817001862,
                -0.6089298559437415,
                -0.6164254922779725,
                1.187244625660874
            ]
        },
        {
            "positions": [
                0.07325626747195893,
                -1.4532292775001299,
                0.811065693862916,
                -0.5641859942623391,
                -0.570972091477177,
                1.2227315233968619
            ]
        },
        {
            "positions": [
                0.06294845480991362,
                -1.4141108529374387,
                0.9043337673906429,
                -0.4165711342711179,
                -0.538341632937167,
                1.1657465934267135
            ]
        },
        {
            "positions": [
                0.05264064214786831,
                -1.3749924283747474,
                0.9976018409183698,
                -0.2689562742798967,
                -0.505711174397157,
                1.108761663456565
            ]
        },
        {
            "positions": [
                0.042332829485823,
                -1.335874003812056,
                1.0908699144460967,
                -0.12134141428867556,
                -0.47308071585714695,
                1.0517767334864165
            ]
        },
        {
            "positions": [
                0.03202501682377769,
                -1.2967555792493648,
                1.1841379879738234,
                0.02627344570254564,
                -0.44045025731713694,
                0.9947918035162682
            ]
        },
        {
            "positions": [
                0.02171720416173238,
                -1.2576371546866736,
                1.2774060615015503,
                0.1738883056937668,
                -0.40781979877712693,
                0.9378068735461198
            ]
        },
        {
            "positions": [
                0.011409391499687074,
                -1.2185187301239824,
                1.3706741350292773,
                0.32150316568498793,
                -0.3751893402371169,
                0.8808219435759713
            ]
        },
        {
            "positions": [
                0.0011015788376417673,
                -1.1794003055612912,
                1.463942208557004,
                0.4691180256762091,
                -0.3425588816971069,
                0.8238370136058228
            ]
        },
        {
            "positions": [
                -0.009206233824403554,
                -1.1402818809985997,
                1.5572102820847311,
                0.6167328856674303,
                -0.30992842315709684,
                0.7668520836356745
            ]
        },
        {
            "positions": [
                -0.01951404648644886,
                -1.1011634564359085,
                1.6504783556124578,
                0.7643477456586516,
                -0.27729796461708683,
                0.709867153665526
            ]
        },
        {
            "positions": [
                -0.029821859148494168,
                -1.0620450318732173,
                1.7437464291401845,
                0.9119626056498726,
                -0.24466750607707682,
                0.6528822236953776
            ]
        },
        {
            "positions": [
                -0.040129671810539475,
                -1.022926607310526,
                1.8370145026679117,
                1.059577465641094,
                -0.21203704753706681,
                0.5958972937252291
            ]
        },
        {
            "positions": [
                -0.012895074587843246,
                -0.9821184557630139,
                1.8631161328976569,
                1.2034724131828463,
                -0.1987429818995448,
                0.4980378558262675
            ]
        },
        {
            "positions": [
                0.014339522634852983,
                -0.9413103042155018,
                1.889217763127402,
                1.3473673607245986,
                -0.18544891626202284,
                0.4001784179273058
            ]
        },
        {
            "positions": [
                0.04157411985754922,
                -0.9005021526679897,
                1.9153193933571473,
                1.491262308266351,
                -0.17215485062450084,
                0.3023189800283441
            ]
        },
        {
            "positions": [
                0.06880871708024544,
                -0.8596940011204776,
                1.9414210235868925,
                1.6351572558081036,
                -0.15886078498697886,
                0.20445954212938244
            ]
        },
        {
            "positions": [
                0.09604331430294169,
                -0.8188858495729654,
                1.9675226538166377,
                1.779052203349856,
                -0.14556671934945686,
                0.10660010423042077
            ]
        },
        {
            "positions": [
                0.1232779115256379,
                -0.7780776980254532,
                1.993624284046383,
                1.9229471508916083,
                -0.13227265371193486,
                0.008740666331459071
            ]
        }
    ]
}{
    "goal": {
        "global_pose": {
            "orientation": {
                "w": 0.7047431468963623,
                "x": -0.7094548344612122,
                "y": 0.0024358443915843964,
                "z": -0.0022348060738295317
            },
            "position": {
                "x": 0.6094750761985779,
                "y": 0.3671506643295288,
                "z": 0.19426114857196808
            }
        },
        "name": "move_to_magneteinheit_A"
    },
    "id": "EST_move_to_magneteinheit_A_104",
    "joint_names": [
        "shoulder_pan_joint",
        "shoulder_lift_joint",
        "elbow_joint",
        "wrist_1_joint",
        "wrist_2_joint",
        "wrist_3_joint"
    ],
    "metrics": {
        "cart_traj_len": 2.359326585356577,
        "distance_elbow_joint": 2.7632421739689628,
        "distance_shoulder_lift_joint": 0.7527740849424114,
        "distance_shoulder_pan_joint": 2.2132118605102553,
        "distance_wrist_1_joint": 1.7218180504444824,
        "distance_wrist_2_joint": 1.4400751053976706,
        "distance_wrist_3_joint": 4.2843771181174395,
        "smoothness": 0.31648202381751017,
        "time": 0.070028174,
        "traj_len": 3.629806936102969,
        "weighted_distance": 4.99060575335883
    },
    "planner": "EST",
    "start": {
        "state": {
            "elbow_joint": 1.919643534880228,
            "shoulder_lift_joint": -1.8972525353963687,
            "shoulder_pan_joint": -1.1188672234189438,
            "wrist_1_joint": -1.5931878212786155,
            "wrist_2_joint": 1.5706036197970081,
            "wrist_3_joint": 1.118896926603594
        }
    },
    "waypoints": [
        {
            "positions": [
                -1.1188672234189438,
                -1.8972525353963687,
                1.919643534880228,
                -1.5931878212786155,
                1.5706036197970081,
                1.118896926603594
            ]
        },
        {
            "positions": [
                -1.159379402644307,
                -1.8694831751709453,
                1.8070376895937377,
                -1.4890576377750855,
                1.5052731056421362,
                1.0871134317124922
            ]
        },
        {
            "positions": [
                -1.1998915818696698,
                -1.841713814945522,
                1.6944318443072472,
                -1.3849274542715557,
                1.4399425914872643,
                1.0553299368213902
            ]
        },
        {
            "positions": [
                -1.240403761095033,
                -1.8139444547200987,
                1.5818259990207566,
                -1.2807972707680257,
                1.3746120773323924,
                1.0235464419302884
            ]
        },
        {
            "positions": [
                -1.280915940320396,
                -1.7861750944946753,
                1.4692201537342662,
                -1.1766670872644958,
                1.3092815631775205,
                0.9917629470391864
            ]
        },
        {
            "positions": [
                -1.321428119545759,
                -1.7584057342692518,
                1.3566143084477758,
                -1.072536903760966,
                1.2439510490226486,
                0.9599794521480846
            ]
        },
        {
            "positions": [
                -1.361940298771122,
                -1.7306363740438284,
                1.2440084631612853,
                -0.968406720257436,
                1.1786205348677767,
                0.9281959572569827
            ]
        },
        {
            "positions": [
                -1.402452477996485,
                -1.7028670138184052,
                1.131402617874795,
                -0.864276536753906,
                1.1132900207129048,
                0.8964124623658809
            ]
        },
        {
            "positions": [
                -1.442964657221848,
                -1.6750976535929818,
                1.0187967725883045,
                -0.7601463532503763,
                1.047959506558033,
                0.864628967474779
            ]
        },
        {
            "positions": [
                -1.483476836447211,
                -1.6473282933675584,
                0.9061909273018138,
                -0.6560161697468463,
                0.982628992403161,
                0.8328454725836771
            ]
        },
        {
            "positions": [
                -1.5239890156725742,
                -1.6195589331421352,
                0.7935850820153234,
                -0.5518859862433163,
                0.9172984782482891,
                0.8010619776925751
            ]
        },
        {
            "positions": [
                -1.564501194897937,
                -1.5917895729167117,
                0.680979236728833,
                -0.44775580273978655,
                0.8519679640934172,
                0.7692784828014734
            ]
        },
        {
            "positions": [
                -1.6050133741233001,
                -1.5640202126912883,
                0.5683733914423427,
                -0.34362561923625645,
                0.7866374499385453,
                0.7374949879103715
            ]
        },
        {
            "positions": [
                -1.526510387313941,
                -1.5449501325895914,
                0.6325539382846643,
                -0.36509179416362575,
                0.756814316504945,
                0.5600870252092707
            ]
        },
        {
            "positions": [
                -1.448007400504582,
                -1.5258800524878946,
                0.6967344851269861,
                -0.38655796909099505,
                0.7269911830713447,
                0.38267906250816996
            ]
        },
        {
            "positions": [
                -1.369504413695223,
                -1.5068099723861978,
                0.7609150319693078,
                -0.4080241440183644,
                0.6971680496377444,
                0.20527109980706926
            ]
        },
        {
            "positions": [
                -1.2910014268858638,
                -1.4877398922845009,
                0.8250955788116294,
                -0.4294903189457337,
                0.6673449162041439,
                0.02786313710596844
            ]
        },
        {
            "positions": [
                -1.2124984400765046,
                -1.468669812182804,
                0.8892761256539512,
                -0.450956493873103,
                0.6375217827705436,
                -0.14954482559513227
            ]
        },
        {
            "positions": [
                -1.1339954532671457,
                -1.4495997320811072,
                0.9534566724962728,
                -0.4724226688004723,
                0.6076986493369433,
                -0.326952788296233
            ]
        },
        {
            "positions": [
                -1.0554924664577867,
                -1.4305296519794104,
                1.0176372193385945,
                -0.4938888437278416,
                0.577875515903343,
                -0.5043607509973339
            ]
        },
        {
            "positions": [
                -0.9769894796484275,
                -1.4114595718777134,
                1.081817766180916,
                -0.5153550186552109,
                0.5480523824697425,
                -0.6817687136984346
            ]
        },
        {
            "positions": [
                -0.8984864928390685,
                -1.3923894917760165,
                1.145998313023238,
                -0.5368211935825802,
                0.5182292490361422,
                -0.8591766763995355
            ]
        },
        {
            "positions": [
                -0.8199835060297094,
                -1.3733194116743197,
                1.2101788598655596,
                -0.5582873685099495,
                0.48840611560254193,
                -1.036584639100636
            ]
        },
        {
            "positions": [
                -0.7414805192203503,
                -1.354249331572623,
                1.2743594067078812,
                -0.5797535434373189,
                0.45858298216894156,
                -1.213992601801737
            ]
        },
        {
            "positions": [
                -0.6629775324109913,
                -1.335179251470926,
                1.338539953550203,
                -0.6012197183646881,
                0.42875984873534123,
                -1.3914005645028373
            ]
        },
        {
            "positions": [
                -0.584474545601632,
                -1.316109171369229,
                1.4027205003925247,
                -0.6226858932920575,
                0.39893671530174085,
                -1.5688085272039385
            ]
        },
        {
            "positions": [
                -0.5059715587922731,
                -1.2970390912675323,
                1.4669010472348463,
                -0.6441520682194267,
                0.36911358186814053,
                -1.7462164899050392
            ]
        },
        {
            "positions": [
                -0.4274685719829141,
                -1.2779690111658355,
                1.5310815940771678,
                -0.6656182431467961,
                0.3392904484345402,
                -1.92362445260614
            ]
        },
        {
            "positions": [
                -0.3489655851735549,
                -1.2588989310641385,
                1.5952621409194898,
                -0.6870844180741653,
                0.3094673150009398,
                -2.1010324153072406
            ]
        },
        {
            "positions": [
                -0.27046259836419595,
                -1.2398288509624416,
                1.6594426877618114,
                -0.7085505930015347,
                0.2796441815673395,
                -2.2784403780083413
            ]
        },
        {
            "positions": [
                -0.19195961155483676,
                -1.2207587708607448,
                1.7236232346041334,
                -0.730016767928904,
                0.24982104813373907,
                -2.4558483407094425
            ]
        },
        {
            "positions": [
                -0.11345662474547757,
                -1.201688690759048,
                1.787803781446455,
                -0.7514829428562733,
                0.21999791470013874,
                -2.633256303410543
            ]
        },
        {
            "positions": [
                -0.03495363793611861,
                -1.182618610657351,
                1.8519843282887765,
                -0.7729491177836425,
                0.19017478126653853,
                -2.8106642661116434
            ]
        },
        {
            "positions": [
                0.04354934887324058,
                -1.163548530555654,
                1.9161648751310985,
                -0.794415292711012,
                0.1603516478329381,
                -2.9880722288127446
            ]
        },
        {
            "positions": [
                0.12205233568259956,
                -1.1444784504539574,
                1.98034542197342,
                -0.8158814676383812,
                0.13052851439933774,
                -3.1654801915138453
            ]
        }
    ]
}