{
    "goal": {
        "global_pose": {
            "orientation": {
                "w": 0.5084816217422485,
                "x": -0.49083608388900757,
                "y": 0.5182115435600281,
                "z": -0.4816462993621826
            },
            "position": {
                "x": 0.5540239810943604,
                "y": 0.030875300988554955,
                "z": 0.16403168439865112
            }
        },
        "name": "move_to_storage_A"
    },
    "id": "EST_move_to_storage_A_17",
    "joint_names": [
        "shoulder_pan_joint",
        "shoulder_lift_joint",
        "elbow_joint",
        "wrist_1_joint",
        "wrist_2_joint",
        "wrist_3_joint"
    ],
    "metrics": {
        "cart_traj_len": 0.3528852805509031,
        "distance_elbow_joint": 0.45079781133457253,
        "distance_shoulder_lift_joint": 0.23541700063135607,
        "distance_shoulder_pan_joint": 0.46294239220766564,
        "distance_wrist_1_joint": 0.24702207426220613,
        "distance_wrist_2_joint": 1.0923481779585122,
        "distance_wrist_3_joint": 0.10410851465700466,
        "smoothness": 0.0,
        "time": 0.071098024,
        "traj_len": 1.6101664420336546,
        "weighted_distance": 2.0347538555279963
    },
    "planner": "EST",
    "start": {
        "state": {
            "elbow_joint": 1.9715477243005601,
            "shoulder_lift_joint": -1.1394853015351272,
            "shoulder_pan_joint": 0.12281154014795169,
            "wrist_1_joint": -0.7804696478968182,
            "wrist_2_joint": 0.12958648046900423,
            "wrist_3_joint": -3.192491284697111
        }
    },
    "waypoints": [
        {
            "positions": [
                0.12281154014795169,
                -1.1394853015351272,
                1.9715477243005601,
                -0.7804696478968182,
                0.12958648046900423,
                -3.192491284697111
            ]
        },
        {
            "positions": [
                0.05667691268971374,
                -1.173116301625321,
                2.0359474116340706,
                -0.8157585156485619,
                0.2856362201773631,
                -3.1776186397461106
            ]
        },
        {
            "positions": [
                -0.009457714768524209,
                -1.2067473017155146,
                2.100347098967581,
                -0.8510473834003056,
                0.441685959885722,
                -3.16274599479511
            ]
        },
        {
            "positions": [
                -0.07559234222676216,
                -1.2403783018057084,
                2.1647467863010914,
                -0.8863362511520494,
                0.5977356995940809,
                -3.1478733498441094
            ]
        },
        {
            "positions": [
                -0.1417269696850001,
                -1.274009301895902,
                2.2291464736346014,
                -0.9216251189037931,
                0.7537854393024398,
                -3.1330007048931083
            ]
        },
        {
            "positions": [
                -0.20786159714323804,
                -1.3076403019860958,
                2.293546160968112,
                -0.9569139866555368,
                0.9098351790107987,
                -3.1181280599421077
            ]
        },
        {
            "positions": [
                -0.273996224601476,
                -1.3412713020762894,
                2.3579458483016222,
                -0.9922028544072805,
                1.0658849187191577,
                -3.103255414991107
            ]
        },
        {
            "positions": [
                -0.34013085205971394,
                -1.3749023021664832,
                2.4223455356351327,
                -1.0274917221590243,
                1.2219346584275166,
                -3.0883827700401065
            ]
        }
    ]
}