{
    "goal": {
        "global_pose": {
            "orientation": {
                "w": 0.7047431468963623,
                "x": -0.7094548344612122,
                "y": 0.0024358443915843964,
                "z": -0.0022348060738295317
            },
            "position": {
                "x": 0.6094750761985779,
                "y": 0.3671506643295288,
                "z": 0.19426114857196808
            }
        },
        "name": "move_to_magneteinheit_A"
    },
    "id": "EST_move_to_magneteinheit_A_85",
    "joint_names": [
        "shoulder_pan_joint",
        "shoulder_lift_joint",
        "elbow_joint",
        "wrist_1_joint",
        "wrist_2_joint",
        "wrist_3_joint"
    ],
    "metrics": {
        "cart_traj_len": 3.611779880946757,
        "distance_elbow_joint": 3.8771736256436435,
        "distance_shoulder_lift_joint": 0.20288105200243423,
        "distance_shoulder_pan_joint": 2.937785873084518,
        "distance_wrist_1_joint": 0.8475821698137829,
        "distance_wrist_2_joint": 2.7384237882427414,
        "distance_wrist_3_joint": 2.5830923151384173,
        "smoothness": 0.3747597920117696,
        "time": 0.170374403,
        "traj_len": 3.631382494853102,
        "weighted_distance": 4.683922438753538
    },
    "planner": "EST",
    "start": {
        "state": {
            "elbow_joint": -1.919618573717145,
            "shoulder_lift_joint": -1.2443395971678275,
            "shoulder_pan_joint": 2.6996025300909787,
            "wrist_1_joint": -1.548550951253194,
            "wrist_2_joint": -1.5709469090946802,
            "wrist_3_joint": 0.4420197732051276
        }
    },
    "waypoints": [
        {
            "positions": [
                2.6996025300909787,
                -1.2443395971678275,
                -1.919618573717145,
                -1.548550951253194,
                -1.5709469090946802,
                0.4420197732051276
            ]
        },
        {
            "positions": [
                2.611771205426917,
                -1.2459396064024384,
                -1.805834120938266,
                -1.5223632957945084,
                -1.4916957343360733,
                0.5194778347323983
            ]
        },
        {
            "positions": [
                2.523939880762855,
                -1.2475396156370495,
                -1.692049668159387,
                -1.4961756403358228,
                -1.4124445595774666,
                0.5969358962596689
            ]
        },
        {
            "positions": [
                2.436108556098793,
                -1.2491396248716604,
                -1.5782652153805081,
                -1.469987984877137,
                -1.3331933848188597,
                0.6743939577869396
            ]
        },
        {
            "positions": [
                2.3482772314347313,
                -1.2507396341062713,
                -1.4644807626016294,
                -1.4438003294184516,
                -1.253942210060253,
                0.7518520193142102
            ]
        },
        {
            "positions": [
                2.2604459067706695,
                -1.2523396433408822,
                -1.3506963098227502,
                -1.4176126739597659,
                -1.1746910353016462,
                0.829310080841481
            ]
        },
        {
            "positions": [
                2.1726145821066076,
                -1.2539396525754931,
                -1.2369118570438715,
                -1.3914250185010804,
                -1.0954398605430395,
                0.9067681423687516
            ]
        },
        {
            "positions": [
                2.084783257442546,
                -1.2555396618101042,
                -1.1231274042649926,
                -1.3652373630423946,
                -1.0161886857844327,
                0.9842262038960223
            ]
        },
        {
            "positions": [
                1.996951932778484,
                -1.2571396710447151,
                -1.0093429514861136,
                -1.3390497075837091,
                -0.9369375110258259,
                1.061684265423293
            ]
        },
        {
            "positions": [
                1.909120608114422,
                -1.258739680279326,
                -0.8955584987072347,
                -1.3128620521250234,
                -0.857686336267219,
                1.1391423269505636
            ]
        },
        {
            "positions": [
                1.8212892834503602,
                -1.2603396895139372,
                -0.7817740459283558,
                -1.2866743966663376,
                -0.7784351615086123,
                1.2166003884778342
            ]
        },
        {
            "positions": [
                1.7334579587862984,
                -1.261939698748548,
                -0.667989593149477,
                -1.2604867412076521,
                -0.6991839867500056,
                1.2940584500051049
            ]
        },
        {
            "positions": [
                1.6456266341222365,
                -1.263539707983159,
                -0.5542051403705981,
                -1.2342990857489664,
                -0.6199328119913988,
                1.3715165115323755
            ]
        },
        {
            "positions": [
                1.5577953094581747,
                -1.2651397172177699,
                -0.44042068759171915,
                -1.208111430290281,
                -0.5406816372327918,
                1.4489745730596464
            ]
        },
        {
            "positions": [
                1.4699639847941128,
                -1.2667397264523808,
                -0.3266362348128402,
                -1.1819237748315952,
                -0.4614304624741852,
                1.526432634586917
            ]
        },
        {
            "positions": [
                1.382132660130051,
                -1.2683397356869919,
                -0.21285178203396127,
                -1.1557361193729094,
                -0.3821792877155785,
                1.6038906961141877
            ]
        },
        {
            "positions": [
                1.2943013354659891,
                -1.2699397449216028,
                -0.09906732925508255,
                -1.129548463914224,
                -0.30292811295697164,
                1.6813487576414583
            ]
        },
        {
            "positions": [
                1.2064700108019275,
                -1.2715397541562137,
                0.014717123523796394,
                -1.1033608084555384,
                -0.22367693819836498,
                1.758806819168729
            ]
        },
        {
            "positions": [
                1.1186386861378652,
                -1.2731397633908248,
                0.12850157630267556,
                -1.0771731529968527,
                -0.14442576343975788,
                1.8362648806959998
            ]
        },
        {
            "positions": [
                1.0308073614738036,
                -1.2747397726254357,
                0.24228602908155428,
                -1.050985497538167,
                -0.06517458868115122,
                1.9137229422232704
            ]
        },
        {
            "positions": [
                0.9429760368097417,
                -1.2763397818600466,
                0.35607048186043344,
                -1.0247978420794812,
                0.014076586077455655,
                1.991181003750541
            ]
        },
        {
            "positions": [
                0.8551447121456799,
                -1.2779397910946575,
                0.46985493463931216,
                -0.9986101866207957,
                0.09332776083606231,
                2.0686390652778117
            ]
        },
        {
            "positions": [
                0.767313387481618,
                -1.2795398003292684,
                0.5836393874181909,
                -0.9724225311621101,
                0.17257893559466897,
                2.146097126805082
            ]
        },
        {
            "positions": [
                0.6794820628175562,
                -1.2811398095638795,
                0.69742384019707,
                -0.9462348757034245,
                0.25183011035327585,
                2.223555188332353
            ]
        },
        {
            "positions": [
                0.5916507381534943,
                -1.2827398187984904,
                0.8112082929759488,
                -0.9200472202447388,
                0.3310812851118825,
                2.3010132498596234
            ]
        },
        {
            "positions": [
                0.5038194134894325,
                -1.2843398280331013,
                0.9249927457548279,
                -0.8938595647860531,
                0.4103324598704896,
                2.3784713113868943
            ]
        },
        {
            "positions": [
                0.41598808882537064,
                -1.2859398372677124,
                1.0387771985337066,
                -0.8676719093273675,
                0.4895836346290965,
                2.455929372914165
            ]
        },
        {
            "positions": [
                0.3281567641613088,
                -1.2875398465023233,
                1.1525616513125858,
                -0.8414842538686819,
                0.5688348093877029,
                2.533387434441436
            ]
        },
        {
            "positions": [
                0.24032543949724705,
                -1.2891398557369342,
                1.2663461040914648,
                -0.8152965984099962,
                0.6480859841463096,
                2.6108454959687064
            ]
        },
        {
            "positions": [
                0.18063318467852937,
                -1.2608541206567687,
                1.365816226040347,
                -0.8164223553580107,
                0.5662718772707837,
                2.6690182529637285
            ]
        },
        {
            "positions": [
                0.1209409298598117,
                -1.2325683855766034,
                1.4652863479892293,
                -0.8175481123060251,
                0.48445777039525767,
                2.727191009958751
            ]
        },
        {
            "positions": [
                0.06124867504109405,
                -1.204282650496438,
                1.5647564699381113,
                -0.8186738692540396,
                0.40264366351973174,
                2.785363766953773
            ]
        },
        {
            "positions": [
                0.0015564202223763424,
                -1.1759969154162726,
                1.6642265918869936,
                -0.819799626202054,
                0.32082955664420576,
                2.8435365239487957
            ]
        },
        {
            "positions": [
                -0.05813583459634128,
                -1.147711180336107,
                1.763696713835876,
                -0.8209253831500685,
                0.2390154497686798,
                2.901709280943818
            ]
        },
        {
            "positions": [
                0.03188791960225759,
                -1.139385121319857,
                1.8606258828811875,
                -0.7665758670348121,
                0.18385526945661884,
                2.9634106846436814
            ]
        },
        {
            "positions": [
                0.12191167380085645,
                -1.1310590623036068,
                1.9575550519264988,
                -0.7122263509195557,
                0.12869508914455788,
                3.025112088343545
            ]
        }
    ]
}{
    "goal": {
        "global_pose": {
            "orientation": {
                "w": 0.7047431468963623,
                "x": -0.7094548344612122,
                "y": 0.0024358443915843964,
                "z": -0.0022348060738295317
            },
            "position": {
                "x": 0.6094750761985779,
                "y": 0.3671506643295288,
                "z": 0.19426114857196808
            }
        },
        "name": "move_to_magneteinheit_A"
    },
    "id": "EST_move_to_magneteinheit_A_85",
    "joint_names": [
        "shoulder_pan_joint",
        "shoulder_lift_joint",
        "elbow_joint",
        "wrist_1_joint",
        "wrist_2_joint",
        "wrist_3_joint"
    ],
    "metrics": {
        "cart_traj_len": 1.1955097052718804,
        "distance_elbow_joint": 0.06720076177167478,
        "distance_shoulder_lift_joint": 0.7492503911450288,
        "distance_shoulder_pan_joint": 1.2421409954925542,
        "distance_wrist_1_joint": 0.8071302470524209,
        "distance_wrist_2_joint": 1.4396262396112811,
        "distance_wrist_3_joint": 4.2422116658504425,
        "smoothness": 0.0771209101401265,
        "time": 0.26328944,
        "traj_len": 2.9236210939387135,
        "weighted_distance": 4.390756212691384
    },
    "planner": "EST",
    "start": {
        "state": {
            "elbow_joint": 1.919643534880228,
            "shoulder_lift_joint": -1.8972525353963687,
            "shoulder_pan_joint": -1.1188672234189438,
            "wrist_1_joint": -1.5931878212786155,
            "wrist_2_joint": 1.5706036197970081,
            "wrist_3_joint": 1.118896926603594
        }
    },
    "waypoints": [
        {
            "positions": [
                -1.1188672234189438,
                -1.8972525353963687,
                1.919643534880228,
                -1.5931878212786155,
                1.5706036197970081,
                1.118896926603594
            ]
        },
        {
            "positions": [
                -1.0616488892823979,
                -1.8642120303385812,
                1.921867346817701,
                -1.5562722121263888,
                1.5032048044029542,
                0.9294770033052353
            ]
        },
        {
            "positions": [
                -1.0044305551458519,
                -1.8311715252807934,
                1.924091158755174,
                -1.519356602974162,
                1.4358059890089,
                0.7400570800068766
            ]
        },
        {
            "positions": [
                -0.9472122210093058,
                -1.7981310202230059,
                1.926314970692647,
                -1.4824409938219354,
                1.3684071736148462,
                0.5506371567085179
            ]
        },
        {
            "positions": [
                -0.8899938868727597,
                -1.7650905151652183,
                1.92853878263012,
                -1.445525384669709,
                1.301008358220792,
                0.3612172334101592
            ]
        },
        {
            "positions": [
                -0.8327755527362137,
                -1.7320500101074305,
                1.9307625945675928,
                -1.4086097755174822,
                1.2336095428267382,
                0.17179731011180055
            ]
        },
        {
            "positions": [
                -0.7755572185996678,
                -1.699009505049643,
                1.9329864065050657,
                -1.3716941663652555,
                1.1662107274326843,
                -0.017622613186558223
            ]
        },
        {
            "positions": [
                -0.7183388844631217,
                -1.6659689999918552,
                1.9352102184425386,
                -1.3347785572130288,
                1.0988119120386302,
                -0.20704253648491688
            ]
        },
        {
            "positions": [
                -0.6611205503265756,
                -1.6329284949340677,
                1.9374340303800117,
                -1.2978629480608022,
                1.031413096644576,
                -0.39646245978327554
            ]
        },
        {
            "positions": [
                -0.6039022161900296,
                -1.5998879898762801,
                1.9396578423174846,
                -1.2609473389085755,
                0.9640142812505222,
                -0.5858823830816342
            ]
        },
        {
            "positions": [
                -0.5466838820534836,
                -1.5668474848184923,
                1.9418816542549575,
                -1.2240317297563488,
                0.8966154658564682,
                -0.7753023063799929
            ]
        },
        {
            "positions": [
                -0.4894655479169374,
                -1.5338069797607048,
                1.9441054661924304,
                -1.1871161206041223,
                0.8292166504624141,
                -0.9647222296783518
            ]
        },
        {
            "positions": [
                -0.43224721378039155,
                -1.500766474702917,
                1.9463292781299033,
                -1.1502005114518956,
                0.7618178350683602,
                -1.1541421529767104
            ]
        },
        {
            "positions": [
                -0.37502887964384546,
                -1.4677259696451295,
                1.9485530900673762,
                -1.113284902299669,
                0.6944190196743062,
                -1.343562076275069
            ]
        },
        {
            "positions": [
                -0.3178105455072995,
                -1.434685464587342,
                1.9507769020048493,
                -1.0763692931474422,
                0.6270202042802522,
                -1.5329819995734277
            ]
        },
        {
            "positions": [
                -0.2605922113707534,
                -1.4016449595295541,
                1.9530007139423222,
                -1.0394536839952155,
                0.5596213888861981,
                -1.7224019228717868
            ]
        },
        {
            "positions": [
                -0.2033738772342074,
                -1.3686044544717666,
                1.9552245258797951,
                -1.002538074842989,
                0.49222257349214416,
                -1.911821846170145
            ]
        },
        {
            "positions": [
                -0.14615554309766132,
                -1.335563949413979,
                1.957448337817268,
                -0.9656224656907623,
                0.42482375809809025,
                -2.101241769468504
            ]
        },
        {
            "positions": [
                -0.08893720896111534,
                -1.3025234443561913,
                1.959672149754741,
                -0.9287068565385356,
                0.35742494270403635,
                -2.2906616927668626
            ]
        },
        {
            "positions": [
                -0.03171887482456914,
                -1.2694829392984035,
                1.961895961692214,
                -0.8917912473863089,
                0.29002612730998223,
                -2.4800816160652213
            ]
        },
        {
            "positions": [
                0.025499459311976613,
                -1.2364424342406162,
                1.964119773629687,
                -0.8548756382340823,
                0.22262731191592833,
                -2.66950153936358
            ]
        },
        {
            "positions": [
                0.08271779344852276,
                -1.2034019291828284,
                1.9663435855671598,
                -0.8179600290818556,
                0.1552284965218742,
                -2.8589214626619386
            ]
        },
        {
            "positions": [
                0.10299578276106652,
                -1.1757020367170843,
                1.9765939411095315,
                -0.8339112565096861,
                0.1431029383538006,
                -2.9911181009543935
            ]
        },
        {
            "positions": [
                0.12327377207361027,
                -1.14800214425134,
                1.9868442966519029,
                -0.8498624839375166,
                0.130977380185727,
                -3.123314739246848
            ]
        }
    ]
}