{
    "goal": {
        "global_pose": {
            "orientation": {
                "w": 0.5084816217422485,
                "x": -0.49083608388900757,
                "y": 0.5182115435600281,
                "z": -0.4816462993621826
            },
            "position": {
                "x": 0.5540239810943604,
                "y": 0.030875300988554955,
                "z": 0.16403168439865112
            }
        },
        "name": "move_to_storage_A"
    },
    "id": "EST_move_to_storage_A_111",
    "joint_names": [
        "shoulder_pan_joint",
        "shoulder_lift_joint",
        "elbow_joint",
        "wrist_1_joint",
        "wrist_2_joint",
        "wrist_3_joint"
    ],
    "metrics": {
        "cart_traj_len": 0.35306949768339085,
        "distance_elbow_joint": 0.4533254862810523,
        "distance_shoulder_lift_joint": 0.23260516426337285,
        "distance_shoulder_pan_joint": 0.45853349531001336,
        "distance_wrist_1_joint": 0.2584198012228279,
        "distance_wrist_2_joint": 1.1119910928019583,
        "distance_wrist_3_joint": 0.0909811349678642,
        "smoothness": 2.109423750049481e-15,
        "time": 0.081478464,
        "traj_len": 1.6142664510071094,
        "weighted_distance": 2.039173690200912
    },
    "planner": "EST",
    "start": {
        "state": {
            "elbow_joint": 1.9715477243005601,
            "shoulder_lift_joint": -1.1394853015351272,
            "shoulder_pan_joint": 0.12281154014795169,
            "wrist_1_joint": -0.7804696478968182,
            "wrist_2_joint": 0.12958648046900423,
            "wrist_3_joint": -3.192491284697111
        }
    },
    "waypoints": [
        {
            "positions": [
                0.12281154014795169,
                -1.1394853015351272,
                1.9715477243005601,
                -0.7804696478968182,
                0.12958648046900423,
                -3.192491284697111
            ]
        },
        {
            "positions": [
                0.057306755103664064,
                -1.172714610715609,
                2.0363085080549963,
                -0.8173867623572222,
                0.28844235086928394,
                -3.179493979701702
            ]
        },
        {
            "positions": [
                -0.00819802994062356,
                -1.2059439198960908,
                2.101069291809432,
                -0.8543038768176261,
                0.4472982212695637,
                -3.166496674706293
            ]
        },
        {
            "positions": [
                -0.07370281498491117,
                -1.2391732290765727,
                2.165830075563868,
                -0.8912209912780301,
                0.6061540916698435,
                -3.1534993697108837
            ]
        },
        {
            "positions": [
                -0.1392076000291988,
                -1.2724025382570545,
                2.2305908593183044,
                -0.9281381057384341,
                0.7650099620701232,
                -3.1405020647154744
            ]
        },
        {
            "positions": [
                -0.20471238507348644,
                -1.3056318474375364,
                2.2953516430727405,
                -0.965055220198838,
                0.923865832470403,
                -3.127504759720065
            ]
        },
        {
            "positions": [
                -0.270217170117774,
                -1.3388611566180182,
                2.3601124268271763,
                -1.0019723346592422,
                1.0827217028706828,
                -3.1145074547246563
            ]
        },
        {
            "positions": [
                -0.33572195516206166,
                -1.3720904657985,
                2.4248732105816124,
                -1.038889449119646,
                1.2415775732709626,
                -3.101510149729247
            ]
        }
    ]
}