{
    "goal": {
        "global_pose": {
            "orientation": {
                "w": 0.5084816217422485,
                "x": -0.49083608388900757,
                "y": 0.5182115435600281,
                "z": -0.4816462993621826
            },
            "position": {
                "x": 0.5540239810943604,
                "y": 0.030875300988554955,
                "z": 0.16403168439865112
            }
        },
        "name": "move_to_storage_A"
    },
    "id": "EST_move_to_storage_A_7",
    "joint_names": [
        "shoulder_pan_joint",
        "shoulder_lift_joint",
        "elbow_joint",
        "wrist_1_joint",
        "wrist_2_joint",
        "wrist_3_joint"
    ],
    "metrics": {
        "cart_traj_len": 0.3520896560251484,
        "distance_elbow_joint": 0.4491148182893223,
        "distance_shoulder_lift_joint": 0.2355135351630293,
        "distance_shoulder_pan_joint": 0.46022447849673387,
        "distance_wrist_1_joint": 0.23644786039589916,
        "distance_wrist_2_joint": 1.0983213198716215,
        "distance_wrist_3_joint": 0.09758843963323915,
        "smoothness": 6.661338146305771e-16,
        "time": 0.06964142100000001,
        "traj_len": 1.605369257164795,
        "weighted_distance": 2.026612077182963
    },
    "planner": "EST",
    "start": {
        "state": {
            "elbow_joint": 1.9715477243005601,
            "shoulder_lift_joint": -1.1394853015351272,
            "shoulder_pan_joint": 0.12281154014795169,
            "wrist_1_joint": -0.7804696478968182,
            "wrist_2_joint": 0.12958648046900423,
            "wrist_3_joint": -3.192491284697111
        }
    },
    "waypoints": [
        {
            "positions": [
                0.12281154014795169,
                -1.1394853015351272,
                1.9715477243005601,
                -0.7804696478968182,
                0.12958648046900423,
                -3.192491284697111
            ]
        },
        {
            "positions": [
                0.05706518607698971,
                -1.1731300922727028,
                2.0357069840561777,
                -0.8142479136676609,
                0.28648952616495016,
                -3.1785500790352197
            ]
        },
        {
            "positions": [
                -0.008681167993972269,
                -1.2067748830102785,
                2.099866243811795,
                -0.8480261794385037,
                0.4433925718608961,
                -3.1646088733733286
            ]
        },
        {
            "positions": [
                -0.07442752206493423,
                -1.2404196737478541,
                2.1640255035674127,
                -0.8818044452093463,
                0.600295617556842,
                -3.150667667711437
            ]
        },
        {
            "positions": [
                -0.1401738761358962,
                -1.2740644644854295,
                2.22818476332303,
                -0.9155827109801891,
                0.757198663252788,
                -3.136726462049546
            ]
        },
        {
            "positions": [
                -0.20592023020685823,
                -1.3077092552230052,
                2.2923440230786474,
                -0.9493609767510318,
                0.9141017089487339,
                -3.1227852563876546
            ]
        },
        {
            "positions": [
                -0.27166658427782014,
                -1.3413540459605808,
                2.356503282834265,
                -0.9831392425218746,
                1.07100475464468,
                -3.1088440507257635
            ]
        },
        {
            "positions": [
                -0.33741293834878217,
                -1.3749988366981565,
                2.4206625425898824,
                -1.0169175082927173,
                1.2279078003406259,
                -3.094902845063872
            ]
        }
    ]
}