{
    "goal": {
        "global_pose": {
            "orientation": {
                "w": 0.7047431468963623,
                "x": -0.7094548344612122,
                "y": 0.0024358443915843964,
                "z": -0.0022348060738295317
            },
            "position": {
                "x": 0.6094750761985779,
                "y": 0.3671506643295288,
                "z": 0.19426114857196808
            }
        },
        "name": "move_to_magneteinheit_A"
    },
    "id": "EST_move_to_magneteinheit_A_26",
    "joint_names": [
        "shoulder_pan_joint",
        "shoulder_lift_joint",
        "elbow_joint",
        "wrist_1_joint",
        "wrist_2_joint",
        "wrist_3_joint"
    ],
    "metrics": {
        "cart_traj_len": 3.4310761639268472,
        "distance_elbow_joint": 3.8765962058803893,
        "distance_shoulder_lift_joint": 0.31400556205605135,
        "distance_shoulder_pan_joint": 2.6187668590525233,
        "distance_wrist_1_joint": 1.1543407044548486,
        "distance_wrist_2_joint": 1.7027360098643525,
        "distance_wrist_3_joint": 2.7843848836261285,
        "smoothness": 0.06330146147410712,
        "time": 0.082406088,
        "traj_len": 3.528573397980307,
        "weighted_distance": 4.569100207536026
    },
    "planner": "EST",
    "start": {
        "state": {
            "elbow_joint": -1.919618573717145,
            "shoulder_lift_joint": -1.2443395971678275,
            "shoulder_pan_joint": 2.6996025300909787,
            "wrist_1_joint": -1.548550951253194,
            "wrist_2_joint": -1.5709469090946802,
            "wrist_3_joint": 0.4420197732051276
        }
    },
    "waypoints": [
        {
            "positions": [
                2.6996025300909787,
                -1.2443395971678275,
                -1.919618573717145,
                -1.548550951253194,
                -1.5709469090946802,
                0.4420197732051276
            ]
        },
        {
            "positions": [
                2.5693591475123574,
                -1.2331055877573747,
                -1.7820565671069177,
                -1.4961734989960898,
                -1.5114560129473564,
                0.43704193269677527
            ]
        },
        {
            "positions": [
                2.439115764933736,
                -1.221871578346922,
                -1.6444945604966903,
                -1.4437960467389857,
                -1.451965116800033,
                0.432064092188423
            ]
        },
        {
            "positions": [
                2.3088723823551147,
                -1.2106375689364692,
                -1.5069325538864629,
                -1.3914185944818813,
                -1.3924742206527092,
                0.4270862516800707
            ]
        },
        {
            "positions": [
                2.1786289997764934,
                -1.1994035595260166,
                -1.3693705472762356,
                -1.3390411422247772,
                -1.3329833245053855,
                0.4221084111717184
            ]
        },
        {
            "positions": [
                2.048385617197872,
                -1.1881695501155638,
                -1.2318085406660084,
                -1.2866636899676729,
                -1.273492428358062,
                0.4171305706633661
            ]
        },
        {
            "positions": [
                1.9181422346192505,
                -1.1769355407051112,
                -1.094246534055781,
                -1.2342862377105686,
                -1.2140015322107383,
                0.4121527301550138
            ]
        },
        {
            "positions": [
                1.7878988520406291,
                -1.1657015312946584,
                -0.9566845274455535,
                -1.1819087854534644,
                -1.1545106360634145,
                0.40717488964666154
            ]
        },
        {
            "positions": [
                1.6576554694620078,
                -1.1544675218842055,
                -0.8191225208353263,
                -1.1295313331963603,
                -1.0950197399160908,
                0.4021970491383092
            ]
        },
        {
            "positions": [
                1.5274120868833863,
                -1.143233512473753,
                -0.6815605142250989,
                -1.077153880939256,
                -1.035528843768767,
                0.3972192086299569
            ]
        },
        {
            "positions": [
                1.397168704304765,
                -1.1319995030633,
                -0.5439985076148717,
                -1.0247764286821517,
                -0.9760379476214436,
                0.39224136812160465
            ]
        },
        {
            "positions": [
                1.2669253217261434,
                -1.1207654936528475,
                -0.406436501004644,
                -0.9723989764250475,
                -0.9165470514741199,
                0.38726352761325233
            ]
        },
        {
            "positions": [
                1.1366819391475222,
                -1.1095314842423947,
                -0.2688744943944168,
                -0.9200215241679432,
                -0.8570561553267962,
                0.3822856871049001
            ]
        },
        {
            "positions": [
                1.0064385565689007,
                -1.0982974748319418,
                -0.13131248778418936,
                -0.867644071910839,
                -0.7975652591794725,
                0.37730784659654776
            ]
        },
        {
            "positions": [
                0.8761951739902796,
                -1.0870634654214892,
                0.006249518826037859,
                -0.8152666196537348,
                -0.7380743630321489,
                0.37233000608819544
            ]
        },
        {
            "positions": [
                0.745951791411658,
                -1.0758294560110364,
                0.1438115254362653,
                -0.7628891673966306,
                -0.6785834668848252,
                0.3673521655798432
            ]
        },
        {
            "positions": [
                0.6157084088330369,
                -1.0645954466005838,
                0.2813735320464923,
                -0.7105117151395264,
                -0.6190925707375016,
                0.36237432507149087
            ]
        },
        {
            "positions": [
                0.4854650262544151,
                -1.053361437190131,
                0.41893553865671973,
                -0.658134262882422,
                -0.5596016745901777,
                0.35739648456313855
            ]
        },
        {
            "positions": [
                0.3552216436757938,
                -1.0421274277796784,
                0.5564975452669472,
                -0.6057568106253179,
                -0.5001107784428542,
                0.3524186440547863
            ]
        },
        {
            "positions": [
                0.2249782610971723,
                -1.0308934183692255,
                0.6940595518771746,
                -0.5533793583682136,
                -0.4406198822955305,
                0.347440803546434
            ]
        },
        {
            "positions": [
                0.20607478416868558,
                -1.0311402301514303,
                0.8017909854790222,
                -0.5702616542233945,
                -0.39734753145194723,
                0.543794660456239
            ]
        },
        {
            "positions": [
                0.18717130724019884,
                -1.031387041933635,
                0.9095224190808697,
                -0.5871439500785754,
                -0.3540751806083639,
                0.740148517366044
            ]
        },
        {
            "positions": [
                0.1682678303117121,
                -1.03163385371584,
                1.0172538526827175,
                -0.6040262459337563,
                -0.3108028297647806,
                0.9365023742758491
            ]
        },
        {
            "positions": [
                0.14936435338322537,
                -1.0318806654980448,
                1.124985286284565,
                -0.6209085417889372,
                -0.2675304789211973,
                1.132856231185654
            ]
        },
        {
            "positions": [
                0.13046087645473864,
                -1.0321274772802496,
                1.2327167198864126,
                -0.6377908376441181,
                -0.224258128077614,
                1.3292100880954592
            ]
        },
        {
            "positions": [
                0.11155739952625189,
                -1.0323742890624543,
                1.3404481534882602,
                -0.654673133499299,
                -0.1809857772340307,
                1.5255639450052643
            ]
        },
        {
            "positions": [
                0.10855070748948899,
                -1.044038059818833,
                1.4384390068669726,
                -0.665526540683317,
                -0.13400250073608663,
                1.7496814476199847
            ]
        },
        {
            "positions": [
                0.10554401545272607,
                -1.0557018305752115,
                1.5364298602456847,
                -0.676379947867335,
                -0.08701922423814255,
                1.9737989502347049
            ]
        },
        {
            "positions": [
                0.10253732341596317,
                -1.0673656013315902,
                1.6344207136243971,
                -0.687233355051353,
                -0.040035947740198474,
                2.1979164528494253
            ]
        },
        {
            "positions": [
                0.10796273651033995,
                -1.0833874014053615,
                1.7150599432591092,
                -0.6935621337730351,
                0.0029203143872692586,
                2.407749019015536
            ]
        },
        {
            "positions": [
                0.11338814960471674,
                -1.0994092014791326,
                1.7956991728938212,
                -0.6998909124947172,
                0.04587657651473699,
                2.617581585181647
            ]
        },
        {
            "positions": [
                0.11881356269909352,
                -1.1154310015529036,
                1.8763384025285332,
                -0.7062196912163995,
                0.08883283864220473,
                2.827414151347758
            ]
        },
        {
            "positions": [
                0.1242389757934703,
                -1.131452801626675,
                1.9569776321632453,
                -0.7125484699380816,
                0.13178910076967246,
                3.037246717513869
            ]
        }
    ]
}{
    "goal": {
        "global_pose": {
            "orientation": {
                "w": 0.7047431468963623,
                "x": -0.7094548344612122,
                "y": 0.0024358443915843964,
                "z": -0.0022348060738295317
            },
            "position": {
                "x": 0.6094750761985779,
                "y": 0.3671506643295288,
                "z": 0.19426114857196808
            }
        },
        "name": "move_to_magneteinheit_A"
    },
    "id": "EST_move_to_magneteinheit_A_26",
    "joint_names": [
        "shoulder_pan_joint",
        "shoulder_lift_joint",
        "elbow_joint",
        "wrist_1_joint",
        "wrist_2_joint",
        "wrist_3_joint"
    ],
    "metrics": {
        "cart_traj_len": 1.2521195957936653,
        "distance_elbow_joint": 0.1027218328054953,
        "distance_shoulder_lift_joint": 1.1077117525440965,
        "distance_shoulder_pan_joint": 1.241300500822613,
        "distance_wrist_1_joint": 3.6223161197675164,
        "distance_wrist_2_joint": 1.7017224718921624,
        "distance_wrist_3_joint": 1.2288896068633899,
        "smoothness": 4.44089213366497e-16,
        "time": 0.093324107,
        "traj_len": 3.00077694684148,
        "weighted_distance": 4.097130714302599
    },
    "planner": "EST",
    "start": {
        "state": {
            "elbow_joint": 1.919643534880228,
            "shoulder_lift_joint": -1.8972525353963687,
            "shoulder_pan_joint": -1.1188672234189438,
            "wrist_1_joint": -1.5931878212786155,
            "wrist_2_joint": 1.5706036197970081,
            "wrist_3_joint": 1.118896926603594
        }
    },
    "waypoints": [
        {
            "positions": [
                -1.1188672234189438,
                -1.8972525353963687,
                1.919643534880228,
                -1.5931878212786155,
                1.5706036197970081,
                1.118896926603594
            ]
        },
        {
            "positions": [
                -1.0648976364266562,
                -1.8490911548509732,
                1.9241097015239452,
                -1.4356958160713322,
                1.4966156862364794,
                1.06546694369649
            ]
        },
        {
            "positions": [
                -1.0109280494343689,
                -1.8009297743055777,
                1.9285758681676626,
                -1.2782038108640488,
                1.4226277526759505,
                1.0120369607893862
            ]
        },
        {
            "positions": [
                -0.9569584624420813,
                -1.7527683937601823,
                1.9330420348113797,
                -1.1207118056567655,
                1.3486398191154216,
                0.9586069778822822
            ]
        },
        {
            "positions": [
                -0.9029888754497938,
                -1.7046070132147868,
                1.9375082014550968,
                -0.9632198004494822,
                1.274651885554893,
                0.9051769949751783
            ]
        },
        {
            "positions": [
                -0.8490192884575063,
                -1.6564456326693913,
                1.941974368098814,
                -0.8057277952421988,
                1.2006639519943643,
                0.8517470120680745
            ]
        },
        {
            "positions": [
                -0.7950497014652187,
                -1.6082842521239957,
                1.9464405347425313,
                -0.6482357900349156,
                1.1266760184338354,
                0.7983170291609705
            ]
        },
        {
            "positions": [
                -0.7410801144729311,
                -1.5601228715786002,
                1.9509067013862484,
                -0.49074378482763215,
                1.0526880848733065,
                0.7448870462538666
            ]
        },
        {
            "positions": [
                -0.6871105274806437,
                -1.5119614910332047,
                1.9553728680299656,
                -0.3332517796203489,
                0.9787001513127778,
                0.6914570633467627
            ]
        },
        {
            "positions": [
                -0.6331409404883561,
                -1.4638001104878091,
                1.9598390346736827,
                -0.17575977441306545,
                0.9047122177522489,
                0.6380270804396588
            ]
        },
        {
            "positions": [
                -0.5791713534960686,
                -1.4156387299424138,
                1.9643052013174,
                -0.018267769205782214,
                0.8307242841917202,
                0.584597097532555
            ]
        },
        {
            "positions": [
                -0.525201766503781,
                -1.3674773493970183,
                1.9687713679611172,
                0.13922423600150124,
                0.7567363506311913,
                0.531167114625451
            ]
        },
        {
            "positions": [
                -0.47123217951149365,
                -1.3193159688516227,
                1.9732375346048343,
                0.29671624120878426,
                0.6827484170706626,
                0.4777371317183471
            ]
        },
        {
            "positions": [
                -0.41726259251920617,
                -1.2711545883062274,
                1.9777037012485514,
                0.4542082464160677,
                0.6087604835101338,
                0.4243071488112432
            ]
        },
        {
            "positions": [
                -0.36329300552691846,
                -1.2229932077608316,
                1.9821698678922688,
                0.6117002516233512,
                0.5347725499496048,
                0.3708771659041392
            ]
        },
        {
            "positions": [
                -0.30932341853463097,
                -1.1748318272154363,
                1.986636034535986,
                0.7691922568306346,
                0.4607846163890761,
                0.31744718299703534
            ]
        },
        {
            "positions": [
                -0.2553538315423435,
                -1.1266704466700408,
                1.991102201179703,
                0.9266842620379176,
                0.3867966828285474,
                0.26401720008993146
            ]
        },
        {
            "positions": [
                -0.201384244550056,
                -1.0785090661246453,
                1.9955683678234202,
                1.0841762672452007,
                0.3128087492680187,
                0.21058721718282758
            ]
        },
        {
            "positions": [
                -0.1474146575577684,
                -1.0303476855792497,
                2.0000345344671375,
                1.2416682724524846,
                0.2388208157074896,
                0.1571572342757236
            ]
        },
        {
            "positions": [
                -0.09344507056548101,
                -0.9821863050338543,
                2.0045007011108544,
                1.3991602776597676,
                0.1648328821469609,
                0.1037272513686196
            ]
        },
        {
            "positions": [
                -0.039475483573193415,
                -0.9340249244884588,
                2.008966867754572,
                1.556652282867051,
                0.09084494858643222,
                0.05029726846151594
            ]
        },
        {
            "positions": [
                0.014494103419093962,
                -0.8858635439430633,
                2.013433034398289,
                1.714144288074334,
                0.01685701502590331,
                -0.0031327144455879363
            ]
        },
        {
            "positions": [
                0.06846369041138178,
                -0.8377021633976678,
                2.017899201042006,
                1.871636293281618,
                -0.0571309185346256,
                -0.05656269735269204
            ]
        },
        {
            "positions": [
                0.12243327740366916,
                -0.7895407828522724,
                2.0223653676857234,
                2.0291282984889008,
                -0.13111885209515425,
                -0.10999268025979599
            ]
        }
    ]
}