{
    "goal": {
        "global_pose": {
            "orientation": {
                "w": 0.5084816217422485,
                "x": -0.49083608388900757,
                "y": 0.5182115435600281,
                "z": -0.4816462993621826
            },
            "position": {
                "x": 0.5540239810943604,
                "y": 0.030875300988554955,
                "z": 0.16403168439865112
            }
        },
        "name": "move_to_storage_A"
    },
    "id": "EST_move_to_storage_A_86",
    "joint_names": [
        "shoulder_pan_joint",
        "shoulder_lift_joint",
        "elbow_joint",
        "wrist_1_joint",
        "wrist_2_joint",
        "wrist_3_joint"
    ],
    "metrics": {
        "cart_traj_len": 0.35332401336501296,
        "distance_elbow_joint": 0.44879666029670373,
        "distance_shoulder_lift_joint": 0.23484340734398113,
        "distance_shoulder_pan_joint": 0.4625683153235286,
        "distance_wrist_1_joint": 0.23778794357573207,
        "distance_wrist_2_joint": 1.0969581883734185,
        "distance_wrist_3_joint": 0.09127247997992471,
        "smoothness": 8.881784232165597e-16,
        "time": 0.034975149999999997,
        "traj_len": 1.6038163844072952,
        "weighted_distance": 2.0222556927357846
    },
    "planner": "EST",
    "start": {
        "state": {
            "elbow_joint": 1.9715477243005601,
            "shoulder_lift_joint": -1.1394853015351272,
            "shoulder_pan_joint": 0.12281154014795169,
            "wrist_1_joint": -0.7804696478968182,
            "wrist_2_joint": 0.12958648046900423,
            "wrist_3_joint": -3.192491284697111
        }
    },
    "waypoints": [
        {
            "positions": [
                0.12281154014795169,
                -1.1394853015351272,
                1.9715477243005601,
                -0.7804696478968182,
                0.12958648046900423,
                -3.192491284697111
            ]
        },
        {
            "positions": [
                0.05673035224459047,
                -1.1730343597271244,
                2.035661532914375,
                -0.8144393541219227,
                0.28629479309377825,
                -3.1794523589856936
            ]
        },
        {
            "positions": [
                -0.009350835658770748,
                -1.2065834179191217,
                2.09977534152819,
                -0.8484090603470273,
                0.44300310571855234,
                -3.1664134332742755
            ]
        },
        {
            "positions": [
                -0.07543202356213198,
                -1.240132476111119,
                2.163889150142005,
                -0.8823787665721319,
                0.5997114183433264,
                -3.153374507562858
            ]
        },
        {
            "positions": [
                -0.14151321146549317,
                -1.2736815343031163,
                2.228002958755819,
                -0.9163484727972365,
                0.7564197309681004,
                -3.14033558185144
            ]
        },
        {
            "positions": [
                -0.20759439936885443,
                -1.3072305924951138,
                2.292116767369634,
                -0.9503181790223411,
                0.9131280435928746,
                -3.127296656140022
            ]
        },
        {
            "positions": [
                -0.27367558727221564,
                -1.340779650687111,
                2.356230575983449,
                -0.9842878852474457,
                1.0698363562176487,
                -3.114257730428604
            ]
        },
        {
            "positions": [
                -0.3397567751755769,
                -1.3743287088791083,
                2.420344384597264,
                -1.0182575914725502,
                1.2265446688424229,
                -3.1012188047171865
            ]
        }
    ]
}