{
    "goal": {
        "global_pose": {
            "orientation": {
                "w": 0.7047431468963623,
                "x": -0.7094548344612122,
                "y": 0.0024358443915843964,
                "z": -0.0022348060738295317
            },
            "position": {
                "x": 0.6094750761985779,
                "y": 0.3671506643295288,
                "z": 0.19426114857196808
            }
        },
        "name": "move_to_magneteinheit_A"
    },
    "id": "EST_move_to_magneteinheit_A_40",
    "joint_names": [
        "shoulder_pan_joint",
        "shoulder_lift_joint",
        "elbow_joint",
        "wrist_1_joint",
        "wrist_2_joint",
        "wrist_3_joint"
    ],
    "metrics": {
        "cart_traj_len": 3.7094706922497913,
        "distance_elbow_joint": 3.9217135382607937,
        "distance_shoulder_lift_joint": 0.19779485456791024,
        "distance_shoulder_pan_joint": 2.9246298409619826,
        "distance_wrist_1_joint": 0.9041623555282985,
        "distance_wrist_2_joint": 1.9968943622904578,
        "distance_wrist_3_joint": 3.672775933306893,
        "smoothness": 0.34200817000009553,
        "time": 0.10321235200000001,
        "traj_len": 3.6902534987337035,
        "weighted_distance": 4.885138633585426
    },
    "planner": "EST",
    "start": {
        "state": {
            "elbow_joint": -1.919618573717145,
            "shoulder_lift_joint": -1.2443395971678275,
            "shoulder_pan_joint": 2.6996025300909787,
            "wrist_1_joint": -1.548550951253194,
            "wrist_2_joint": -1.5709469090946802,
            "wrist_3_joint": 0.4420197732051276
        }
    },
    "waypoints": [
        {
            "positions": [
                2.6996025300909787,
                -1.2443395971678275,
                -1.919618573717145,
                -1.548550951253194,
                -1.5709469090946802,
                0.4420197732051276
            ]
        },
        {
            "positions": [
                2.558163853727524,
                -1.2237722657705612,
                -1.9248137765894353,
                -1.5064658442344903,
                -1.465693025485033,
                0.4276511518084093
            ]
        },
        {
            "positions": [
                2.4167251773640697,
                -1.2032049343732951,
                -1.930008979461726,
                -1.4643807372157864,
                -1.3604391418753858,
                0.41328253041169105
            ]
        },
        {
            "positions": [
                2.2752865010006147,
                -1.1826376029760288,
                -1.9352041823340163,
                -1.4222956301970824,
                -1.2551852582657386,
                0.39891390901497276
            ]
        },
        {
            "positions": [
                2.13384782463716,
                -1.1620702715787625,
                -1.9403993852063066,
                -1.3802105231783786,
                -1.1499313746560915,
                0.38454528761825446
            ]
        },
        {
            "positions": [
                2.0585307613058337,
                -1.159591652095457,
                -1.815845528100918,
                -1.3562961870194894,
                -1.1005530238512147,
                0.26781218257034733
            ]
        },
        {
            "positions": [
                1.9832136979745074,
                -1.1571130326121517,
                -1.6912916709955295,
                -1.3323818508606,
                -1.0511746730463376,
                0.15107907752244024
            ]
        },
        {
            "positions": [
                1.9078966346431812,
                -1.1546344131288462,
                -1.5667378138901409,
                -1.3084675147017109,
                -1.0017963222414608,
                0.03434597247453314
            ]
        },
        {
            "positions": [
                1.8325795713118547,
                -1.1521557936455407,
                -1.4421839567847523,
                -1.2845531785428217,
                -0.9524179714365839,
                -0.08238713257337399
            ]
        },
        {
            "positions": [
                1.7572625079805282,
                -1.1496771741622354,
                -1.3176300996793637,
                -1.2606388423839323,
                -0.903039620631707,
                -0.19912023762128117
            ]
        },
        {
            "positions": [
                1.681945444649202,
                -1.1471985546789298,
                -1.1930762425739754,
                -1.2367245062250432,
                -0.85366126982683,
                -0.3158533426691882
            ]
        },
        {
            "positions": [
                1.6066283813178757,
                -1.1447199351956243,
                -1.0685223854685868,
                -1.212810170066154,
                -0.8042829190219531,
                -0.4325864477170954
            ]
        },
        {
            "positions": [
                1.5313113179865492,
                -1.142241315712319,
                -0.9439685283631982,
                -1.1888958339072646,
                -0.7549045682170762,
                -0.5493195527650024
            ]
        },
        {
            "positions": [
                1.4559942546552227,
                -1.1397626962290135,
                -0.8194146712578096,
                -1.1649814977483754,
                -0.7055262174121992,
                -0.6660526578129096
            ]
        },
        {
            "positions": [
                1.3806771913238962,
                -1.137284076745708,
                -0.6948608141524211,
                -1.1410671615894863,
                -0.6561478666073224,
                -0.7827857628608168
            ]
        },
        {
            "positions": [
                1.3053601279925702,
                -1.1348054572624027,
                -0.5703069570470327,
                -1.1171528254305971,
                -0.6067695158024454,
                -0.8995188679087238
            ]
        },
        {
            "positions": [
                1.2300430646612437,
                -1.1323268377790972,
                -0.44575309994164414,
                -1.0932384892717077,
                -0.5573911649975686,
                -1.0162519729566308
            ]
        },
        {
            "positions": [
                1.1547260013299172,
                -1.1298482182957916,
                -0.32119924283625556,
                -1.0693241531128186,
                -0.5080128141926916,
                -1.132985078004538
            ]
        },
        {
            "positions": [
                1.079408937998591,
                -1.1273695988124863,
                -0.19664538573086698,
                -1.0454098169539292,
                -0.45863446338781466,
                -1.2497181830524453
            ]
        },
        {
            "positions": [
                1.0040918746672645,
                -1.1248909793291808,
                -0.07209152862547841,
                -1.02149548079504,
                -0.4092561125829377,
                -1.3664512881003523
            ]
        },
        {
            "positions": [
                0.9287748113359382,
                -1.1224123598458755,
                0.05246232847991017,
                -0.9975811446361509,
                -0.35987776177806086,
                -1.4831843931482593
            ]
        },
        {
            "positions": [
                0.8534577480046119,
                -1.11993374036257,
                0.1770161855852983,
                -0.9736668084772617,
                -0.310499410973184,
                -1.5999174981961664
            ]
        },
        {
            "positions": [
                0.7781406846732855,
                -1.1174551208792645,
                0.3015700426906873,
                -0.9497524723183723,
                -0.26112106016830705,
                -1.7166506032440736
            ]
        },
        {
            "positions": [
                0.702823621341959,
                -1.1149765013959592,
                0.4261238997960759,
                -0.9258381361594832,
                -0.2117427093634302,
                -1.8333837082919808
            ]
        },
        {
            "positions": [
                0.6275065580106325,
                -1.1124978819126536,
                0.5506777569014645,
                -0.901923800000594,
                -0.16236435855855313,
                -1.950116813339888
            ]
        },
        {
            "positions": [
                0.5521894946793062,
                -1.1100192624293481,
                0.675231614006853,
                -0.8780094638417048,
                -0.11298600775367618,
                -2.0668499183877946
            ]
        },
        {
            "positions": [
                0.47687243134797996,
                -1.1075406429460428,
                0.7997854711122412,
                -0.8540951276828156,
                -0.06360765694879933,
                -2.183583023435702
            ]
        },
        {
            "positions": [
                0.4015553680166535,
                -1.1050620234627373,
                0.9243393282176302,
                -0.8301807915239263,
                -0.014229306143922482,
                -2.300316128483609
            ]
        },
        {
            "positions": [
                0.3262383046853272,
                -1.1025834039794318,
                1.0488931853230183,
                -0.806266455365037,
                0.035149044660954365,
                -2.4170492335315164
            ]
        },
        {
            "positions": [
                0.25092124135400096,
                -1.1001047844961265,
                1.173447042428407,
                -0.7823521192061479,
                0.08452739546583121,
                -2.5337823385794236
            ]
        },
        {
            "positions": [
                0.17560417802267425,
                -1.097626165012821,
                1.2980008995337955,
                -0.7584377830472586,
                0.13390574627070828,
                -2.650515443627331
            ]
        },
        {
            "positions": [
                0.10028711469134821,
                -1.0951475455295154,
                1.422554756639184,
                -0.7345234468883693,
                0.18328409707558513,
                -2.767248548675237
            ]
        },
        {
            "positions": [
                0.024970051360021728,
                -1.0926689260462101,
                1.5471086137445726,
                -0.7106091107294801,
                0.2326624478804622,
                -2.8839816537231453
            ]
        },
        {
            "positions": [
                -0.05034701197130484,
                -1.0901903065629046,
                1.6716624708499612,
                -0.6866947745705909,
                0.28204079868533893,
                -3.0007147587710516
            ]
        },
        {
            "positions": [
                0.007879754328595064,
                -1.1047388278839003,
                1.7679527610884158,
                -0.7007968341858227,
                0.23407191384852616,
                -3.0773952258812893
            ]
        },
        {
            "positions": [
                0.06610652062849497,
                -1.1192873492048963,
                1.8642430513268706,
                -0.7148988938010544,
                0.18610302901171336,
                -3.1540756929915275
            ]
        },
        {
            "positions": [
                0.12433328692839489,
                -1.133835870525892,
                1.9605333415653252,
                -0.7290009534162862,
                0.13813414417490055,
                -3.230756160101765
            ]
        }
    ]
}{
    "goal": {
        "global_pose": {
            "orientation": {
                "w": 0.7047431468963623,
                "x": -0.7094548344612122,
                "y": 0.0024358443915843964,
                "z": -0.0022348060738295317
            },
            "position": {
                "x": 0.6094750761985779,
                "y": 0.3671506643295288,
                "z": 0.19426114857196808
            }
        },
        "name": "move_to_magneteinheit_A"
    },
    "id": "EST_move_to_magneteinheit_A_40",
    "joint_names": [
        "shoulder_pan_joint",
        "shoulder_lift_joint",
        "elbow_joint",
        "wrist_1_joint",
        "wrist_2_joint",
        "wrist_3_joint"
    ],
    "metrics": {
        "cart_traj_len": 1.3278604524731312,
        "distance_elbow_joint": 0.5006131501217861,
        "distance_shoulder_lift_joint": 1.0171763485017782,
        "distance_shoulder_pan_joint": 1.2402649373850967,
        "distance_wrist_1_joint": 0.7648523106440047,
        "distance_wrist_2_joint": 2.310279370768888,
        "distance_wrist_3_joint": 4.271376364373172,
        "smoothness": 0.2955727730325059,
        "time": 0.079275505,
        "traj_len": 3.178767446950897,
        "weighted_distance": 4.660734587160479
    },
    "planner": "EST",
    "start": {
        "state": {
            "elbow_joint": 1.919643534880228,
            "shoulder_lift_joint": -1.8972525353963687,
            "shoulder_pan_joint": -1.1188672234189438,
            "wrist_1_joint": -1.5931878212786155,
            "wrist_2_joint": 1.5706036197970081,
            "wrist_3_joint": 1.118896926603594
        }
    },
    "waypoints": [
        {
            "positions": [
                -1.1188672234189438,
                -1.8972525353963687,
                1.919643534880228,
                -1.5931878212786155,
                1.5706036197970081,
                1.118896926603594
            ]
        },
        {
            "positions": [
                -1.057627775764917,
                -1.8506914822134442,
                1.9081030968602628,
                -1.5595309223053668,
                1.4718097892549014,
                0.9792067522284337
            ]
        },
        {
            "positions": [
                -0.9963883281108903,
                -1.8041304290305196,
                1.8965626588402975,
                -1.525874023332118,
                1.3730159587127944,
                0.8395165778532734
            ]
        },
        {
            "positions": [
                -0.9351488804568636,
                -1.757569375847595,
                1.8850222208203322,
                -1.4922171243588693,
                1.2742221281706876,
                0.699826403478113
            ]
        },
        {
            "positions": [
                -0.8739094328028368,
                -1.7110083226646704,
                1.8734817828003667,
                -1.4585602253856207,
                1.1754282976285808,
                0.5601362291029528
            ]
        },
        {
            "positions": [
                -0.8126699851488101,
                -1.6644472694817458,
                1.8619413447804014,
                -1.4249033264123718,
                1.0766344670864738,
                0.4204460547277925
            ]
        },
        {
            "positions": [
                -0.7514305374947834,
                -1.617886216298821,
                1.8504009067604361,
                -1.3912464274391232,
                0.977840636544367,
                0.2807558803526321
            ]
        },
        {
            "positions": [
                -0.6901910898407566,
                -1.5713251631158964,
                1.8388604687404708,
                -1.3575895284658746,
                0.8790468060022602,
                0.1410657059774718
            ]
        },
        {
            "positions": [
                -0.6289516421867298,
                -1.5247641099329718,
                1.8273200307205055,
                -1.3239326294926257,
                0.7802529754601534,
                0.0013755316023116304
            ]
        },
        {
            "positions": [
                -0.567712194532703,
                -1.4782030567500473,
                1.8157795927005402,
                -1.290275730519377,
                0.6814591449180465,
                -0.13831464277284877
            ]
        },
        {
            "positions": [
                -0.5064727468786763,
                -1.4316420035671227,
                1.8042391546805747,
                -1.2566188315461284,
                0.5826653143759396,
                -0.27800481714800895
            ]
        },
        {
            "positions": [
                -0.4452332992246495,
                -1.3850809503841979,
                1.7926987166606094,
                -1.2229619325728796,
                0.4838714838338327,
                -0.4176949915231696
            ]
        },
        {
            "positions": [
                -0.3839938515706228,
                -1.3385198972012735,
                1.7811582786406441,
                -1.189305033599631,
                0.38507765329172594,
                -0.5573851658983298
            ]
        },
        {
            "positions": [
                -0.32275440391659604,
                -1.2919588440183487,
                1.7696178406206788,
                -1.155648134626382,
                0.28628382274961894,
                -0.6970753402734902
            ]
        },
        {
            "positions": [
                -0.26151495626256926,
                -1.2453977908354243,
                1.7580774026007135,
                -1.1219912356531334,
                0.18748999220751217,
                -0.8367655146486503
            ]
        },
        {
            "positions": [
                -0.20027550860854249,
                -1.1988367376524995,
                1.7465369645807483,
                -1.0883343366798846,
                0.08869616166540517,
                -0.9764556890238107
            ]
        },
        {
            "positions": [
                -0.13903606095451582,
                -1.1522756844695752,
                1.7349965265607827,
                -1.054677437706636,
                -0.010097668876701382,
                -1.1161458633989707
            ]
        },
        {
            "positions": [
                -0.07779661330048904,
                -1.1057146312866504,
                1.7234560885408174,
                -1.0210205387333873,
                -0.10889149941880838,
                -1.255836037774131
            ]
        },
        {
            "positions": [
                -0.016557165646462257,
                -1.059153578103726,
                1.7119156505208522,
                -0.9873636397601385,
                -0.20768532996091515,
                -1.3955262121492915
            ]
        },
        {
            "positions": [
                0.044682282007564446,
                -1.0125925249208012,
                1.7003752125008869,
                -0.9537067407868898,
                -0.30647916050302215,
                -1.5352163865244521
            ]
        },
        {
            "positions": [
                0.055641629430219844,
                -1.031523430353117,
                1.7405673307498075,
                -0.93579656505085,
                -0.24459393329318543,
                -1.7662539652737559
            ]
        },
        {
            "positions": [
                0.06660097685287525,
                -1.0504543357854328,
                1.7807594489987282,
                -0.91788638931481,
                -0.18270870608334872,
                -1.9972915440230594
            ]
        },
        {
            "positions": [
                0.07756032427553064,
                -1.0693852412177487,
                1.8209515672476488,
                -0.8999762135787702,
                -0.120823478873512,
                -2.2283291227723634
            ]
        },
        {
            "positions": [
                0.08851967169818603,
                -1.0883161466500644,
                1.8611436854965695,
                -0.8820660378427303,
                -0.05893825166367528,
                -2.4593667015216667
            ]
        },
        {
            "positions": [
                0.09947901912084145,
                -1.1072470520823803,
                1.9013358037454904,
                -0.8641558621066905,
                0.0029469755461614677,
                -2.690404280270971
            ]
        },
        {
            "positions": [
                0.11043836654349684,
                -1.126177957514696,
                1.941527921994411,
                -0.8462456863706507,
                0.06483220275599816,
                -2.921441859020274
            ]
        },
        {
            "positions": [
                0.12139771396615223,
                -1.1451088629470119,
                1.9817200402433317,
                -0.8283355106346107,
                0.12671742996583493,
                -3.152479437769578
            ]
        }
    ]
}