{
    "goal": {
        "global_pose": {
            "orientation": {
                "w": 0.5084816217422485,
                "x": -0.49083608388900757,
                "y": 0.5182115435600281,
                "z": -0.4816462993621826
            },
            "position": {
                "x": 0.5540239810943604,
                "y": 0.030875300988554955,
                "z": 0.16403168439865112
            }
        },
        "name": "move_to_storage_A"
    },
    "id": "EST_move_to_storage_A_116",
    "joint_names": [
        "shoulder_pan_joint",
        "shoulder_lift_joint",
        "elbow_joint",
        "wrist_1_joint",
        "wrist_2_joint",
        "wrist_3_joint"
    ],
    "metrics": {
        "cart_traj_len": 0.3521446642777383,
        "distance_elbow_joint": 0.4515258340458139,
        "distance_shoulder_lift_joint": 0.23325118876574868,
        "distance_shoulder_pan_joint": 0.4606051215242185,
        "distance_wrist_1_joint": 0.2556481671325931,
        "distance_wrist_2_joint": 1.095658378644527,
        "distance_wrist_3_joint": 0.0929822135438676,
        "smoothness": 1.2212453303493559e-15,
        "time": 0.075856215,
        "traj_len": 1.6092454454360805,
        "weighted_distance": 2.031487601862641
    },
    "planner": "EST",
    "start": {
        "state": {
            "elbow_joint": 1.9715477243005601,
            "shoulder_lift_joint": -1.1394853015351272,
            "shoulder_pan_joint": 0.12281154014795169,
            "wrist_1_joint": -0.7804696478968182,
            "wrist_2_joint": 0.12958648046900423,
            "wrist_3_joint": -3.192491284697111
        }
    },
    "waypoints": [
        {
            "positions": [
                0.12281154014795169,
                -1.1394853015351272,
                1.9715477243005601,
                -0.7804696478968182,
                0.12958648046900423,
                -3.192491284697111
            ]
        },
        {
            "positions": [
                0.05701080850163476,
                -1.1728068999302341,
                2.0360514148785334,
                -0.8169908146300457,
                0.28610910598965095,
                -3.1792081113337014
            ]
        },
        {
            "positions": [
                -0.008789923144682174,
                -1.206128498325341,
                2.100555105456507,
                -0.8535119813632733,
                0.44263173151029767,
                -3.165924937970292
            ]
        },
        {
            "positions": [
                -0.07459065479099909,
                -1.239450096720448,
                2.1650587960344803,
                -0.8900331480965009,
                0.5991543570309443,
                -3.1526417646068823
            ]
        },
        {
            "positions": [
                -0.14039138643731602,
                -1.272771695115555,
                2.229562486612454,
                -0.9265543148297285,
                0.7556769825515911,
                -3.1393585912434725
            ]
        },
        {
            "positions": [
                -0.20619211808363297,
                -1.306093293510662,
                2.294066177190427,
                -0.9630754815629561,
                0.9121996080722379,
                -3.1260754178800627
            ]
        },
        {
            "positions": [
                -0.27199284972994986,
                -1.339414891905769,
                2.3585698677684004,
                -0.9995966482961837,
                1.0687222335928845,
                -3.1127922445166534
            ]
        },
        {
            "positions": [
                -0.3377935813762668,
                -1.3727364903008759,
                2.423073558346374,
                -1.0361178150294112,
                1.2252448591135312,
                -3.0995090711532436
            ]
        }
    ]
}