{
    "goal": {
        "global_pose": {
            "orientation": {
                "w": 0.7047431468963623,
                "x": -0.7094548344612122,
                "y": 0.0024358443915843964,
                "z": -0.0022348060738295317
            },
            "position": {
                "x": 0.6094750761985779,
                "y": 0.3671506643295288,
                "z": 0.19426114857196808
            }
        },
        "name": "move_to_magneteinheit_A"
    },
    "id": "EST_move_to_magneteinheit_A_106",
    "joint_names": [
        "shoulder_pan_joint",
        "shoulder_lift_joint",
        "elbow_joint",
        "wrist_1_joint",
        "wrist_2_joint",
        "wrist_3_joint"
    ],
    "metrics": {
        "cart_traj_len": 3.9453448550345707,
        "distance_elbow_joint": 3.8966188365279333,
        "distance_shoulder_lift_joint": 1.3917678800364732,
        "distance_shoulder_pan_joint": 5.388966158483386,
        "distance_wrist_1_joint": 0.7447600797406917,
        "distance_wrist_2_joint": 1.6989661491073513,
        "distance_wrist_3_joint": 2.6609666789359068,
        "smoothness": 0.26198354920503963,
        "time": 0.101963939,
        "traj_len": 3.9726623041521845,
        "weighted_distance": 4.85259779598017
    },
    "planner": "EST",
    "start": {
        "state": {
            "elbow_joint": -1.919618573717145,
            "shoulder_lift_joint": -1.2443395971678275,
            "shoulder_pan_joint": 2.6996025300909787,
            "wrist_1_joint": -1.548550951253194,
            "wrist_2_joint": -1.5709469090946802,
            "wrist_3_joint": 0.4420197732051276
        }
    },
    "waypoints": [
        {
            "positions": [
                2.6996025300909787,
                -1.2443395971678275,
                -1.919618573717145,
                -1.548550951253194,
                -1.5709469090946802,
                0.4420197732051276
            ]
        },
        {
            "positions": [
                2.5520750824195866,
                -1.268230631513885,
                -1.780808275515116,
                -1.5359642577570896,
                -1.5257988135627067,
                0.4630219120602132
            ]
        },
        {
            "positions": [
                2.4045476347481944,
                -1.2921216658599421,
                -1.6419979773130868,
                -1.5233775642609848,
                -1.4806507180307331,
                0.4840240509152988
            ]
        },
        {
            "positions": [
                2.2570201870768027,
                -1.3160127002059996,
                -1.5031876791110579,
                -1.5107908707648803,
                -1.4355026224987597,
                0.5050261897703845
            ]
        },
        {
            "positions": [
                2.1094927394054106,
                -1.339903734552057,
                -1.3643773809090287,
                -1.4982041772687755,
                -1.390354526966786,
                0.5260283286254701
            ]
        },
        {
            "positions": [
                1.9619652917340185,
                -1.3637947688981145,
                -1.2255670827069998,
                -1.485617483772671,
                -1.3452064314348127,
                0.5470304674805557
            ]
        },
        {
            "positions": [
                1.8144378440626263,
                -1.3876858032441717,
                -1.0867567845049706,
                -1.4730307902765662,
                -1.3000583359028393,
                0.5680326063356413
            ]
        },
        {
            "positions": [
                1.6669103963912342,
                -1.4115768375902291,
                -0.9479464863029416,
                -1.4604440967804617,
                -1.2549102403708656,
                0.589034745190727
            ]
        },
        {
            "positions": [
                1.5193829487198423,
                -1.4354678719362866,
                -0.8091361881009125,
                -1.447857403284357,
                -1.2097621448388922,
                0.6100368840458126
            ]
        },
        {
            "positions": [
                1.37185550104845,
                -1.459358906282344,
                -0.6703258898988835,
                -1.4352707097882524,
                -1.1646140493069188,
                0.6310390229008982
            ]
        },
        {
            "positions": [
                1.224328053377058,
                -1.4832499406284012,
                -0.5315155916968546,
                -1.4226840162921477,
                -1.1194659537749452,
                0.6520411617559838
            ]
        },
        {
            "positions": [
                1.076800605705666,
                -1.5071409749744586,
                -0.3927052934948254,
                -1.4100973227960432,
                -1.0743178582429718,
                0.6730433006110694
            ]
        },
        {
            "positions": [
                0.9292731580342739,
                -1.531032009320516,
                -0.25389499529279647,
                -1.3975106292999384,
                -1.0291697627109981,
                0.694045439466155
            ]
        },
        {
            "positions": [
                0.7817457103628818,
                -1.5549230436665735,
                -0.1150846970907673,
                -1.3849239358038339,
                -0.9840216671790247,
                0.7150475783212407
            ]
        },
        {
            "positions": [
                0.6342182626914896,
                -1.5788140780126307,
                0.02372560111126165,
                -1.3723372423077291,
                -0.9388735716470512,
                0.7360497171763263
            ]
        },
        {
            "positions": [
                0.4866908150200975,
                -1.6027051123586882,
                0.16253589931329082,
                -1.3597505488116246,
                -0.8937254761150777,
                0.7570518560314119
            ]
        },
        {
            "positions": [
                0.3391633673487058,
                -1.6265961467047456,
                0.30134619751532,
                -1.3471638553155199,
                -0.8485773805831042,
                0.7780539948864975
            ]
        },
        {
            "positions": [
                0.1916359196773132,
                -1.650487181050803,
                0.44015649571734916,
                -1.3345771618194153,
                -0.8034292850511306,
                0.7990561337415832
            ]
        },
        {
            "positions": [
                0.044108472005921495,
                -1.6743782153968603,
                0.5789667939193779,
                -1.3219904683233106,
                -0.7582811895191572,
                0.8200582725966687
            ]
        },
        {
            "positions": [
                -0.10341897566547065,
                -1.6982692497429177,
                0.7177770921214071,
                -1.309403774827206,
                -0.7131330939871836,
                0.8410604114517545
            ]
        },
        {
            "positions": [
                -0.2509464233368628,
                -1.7221602840889751,
                0.8565873903234358,
                -1.2968170813311013,
                -0.6679849984552102,
                0.8620625503068401
            ]
        },
        {
            "positions": [
                -0.39847387100825493,
                -1.7460513184350326,
                0.9953976885254654,
                -1.2842303878349968,
                -0.6228369029232367,
                0.8830646891619257
            ]
        },
        {
            "positions": [
                -0.5460013186796466,
                -1.7699423527810898,
                1.1342079867274941,
                -1.2716436943388922,
                -0.5776888073912633,
                0.9040668280170113
            ]
        },
        {
            "positions": [
                -0.6935287663510392,
                -1.7938333871271472,
                1.2730182849295233,
                -1.2590570008427875,
                -0.5325407118592898,
                0.9250689668720969
            ]
        },
        {
            "positions": [
                -0.8410562140224309,
                -1.8177244214732045,
                1.411828583131552,
                -1.2464703073466827,
                -0.4873926163273161,
                0.9460711057271827
            ]
        },
        {
            "positions": [
                -0.9885836616938231,
                -1.841615455819262,
                1.5506388813335816,
                -1.2338836138505782,
                -0.4422445207953427,
                0.9670732445822683
            ]
        },
        {
            "positions": [
                -1.1361111093652152,
                -1.8655064901653193,
                1.6894491795356104,
                -1.2212969203544737,
                -0.3970964252633693,
                0.9880753834373539
            ]
        },
        {
            "positions": [
                -1.2836385570366073,
                -1.8893975245113768,
                1.8282594777376395,
                -1.208710226858369,
                -0.35194832973139567,
                1.0090775222924395
            ]
        },
        {
            "positions": [
                -1.1832296233683357,
                -1.836061099319025,
                1.8388838195285788,
                -1.1797874157622357,
                -0.31766493189253375,
                1.1586424458530535
            ]
        },
        {
            "positions": [
                -1.082820689700064,
                -1.7827246741266733,
                1.849508161319518,
                -1.1508646046661022,
                -0.28338153405367184,
                1.3082073694136673
            ]
        },
        {
            "positions": [
                -0.9824117560317924,
                -1.7293882489343217,
                1.8601325031104572,
                -1.121941793569969,
                -0.24909813621480995,
                1.4577722929742811
            ]
        },
        {
            "positions": [
                -0.8820028223635207,
                -1.67605182374197,
                1.8707568449013965,
                -1.0930189824738357,
                -0.21481473837594803,
                1.6073372165348951
            ]
        },
        {
            "positions": [
                -0.7815938886952489,
                -1.622715398549618,
                1.8813811866923356,
                -1.0640961713777024,
                -0.1805313405370861,
                1.7569021400955092
            ]
        },
        {
            "positions": [
                -0.6811849550269774,
                -1.5693789733572665,
                1.8920055284832749,
                -1.035173360281569,
                -0.14624794269822422,
                1.906467063656123
            ]
        },
        {
            "positions": [
                -0.5807760213587057,
                -1.516042548164915,
                1.9026298702742142,
                -1.0062505491854357,
                -0.1119645448593623,
                2.0560319872167367
            ]
        },
        {
            "positions": [
                -0.480367087690434,
                -1.462706122972563,
                1.9132542120651532,
                -0.9773277380893024,
                -0.07768114702050039,
                2.2055969107773508
            ]
        },
        {
            "positions": [
                -0.37995815402216226,
                -1.4093696977802113,
                1.9238785538560925,
                -0.9484049269931689,
                -0.04339774918163847,
                2.3551618343379648
            ]
        },
        {
            "positions": [
                -0.2795492203538905,
                -1.3560332725878597,
                1.9345028956470316,
                -0.9194821158970357,
                -0.00911435134277655,
                2.504726757898579
            ]
        },
        {
            "positions": [
                -0.1791402866856191,
                -1.302696847395508,
                1.945127237437971,
                -0.8905593048009024,
                0.025169046496085312,
                2.654291681459193
            ]
        },
        {
            "positions": [
                -0.07873135301734746,
                -1.2493604222031562,
                1.9557515792289102,
                -0.8616364937047691,
                0.05945244433494723,
                2.8038566050198064
            ]
        },
        {
            "positions": [
                0.0216775806509244,
                -1.1960239970108044,
                1.9663759210198493,
                -0.8327136826086357,
                0.09373584217380915,
                2.953421528580421
            ]
        },
        {
            "positions": [
                0.12208651431919611,
                -1.1426875718184528,
                1.9770002628107886,
                -0.8037908715125024,
                0.12801924001267107,
                3.1029864521410344
            ]
        }
    ]
}{
    "goal": {
        "global_pose": {
            "orientation": {
                "w": 0.7047431468963623,
                "x": -0.7094548344612122,
                "y": 0.0024358443915843964,
                "z": -0.0022348060738295317
            },
            "position": {
                "x": 0.6094750761985779,
                "y": 0.3671506643295288,
                "z": 0.19426114857196808
            }
        },
        "name": "move_to_magneteinheit_A"
    },
    "id": "EST_move_to_magneteinheit_A_106",
    "joint_names": [
        "shoulder_pan_joint",
        "shoulder_lift_joint",
        "elbow_joint",
        "wrist_1_joint",
        "wrist_2_joint",
        "wrist_3_joint"
    ],
    "metrics": {
        "cart_traj_len": 1.2504291626603816,
        "distance_elbow_joint": 0.0669843138204631,
        "distance_shoulder_lift_joint": 1.1231670474167852,
        "distance_shoulder_pan_joint": 1.2419919662106707,
        "distance_wrist_1_joint": 3.4971730355654307,
        "distance_wrist_2_joint": 1.6994362477075555,
        "distance_wrist_3_joint": 1.0930815013934565,
        "smoothness": 3.330669090608473e-16,
        "time": 0.23129848200000003,
        "traj_len": 2.95327515008581,
        "weighted_distance": 4.013054497284364
    },
    "planner": "EST",
    "start": {
        "state": {
            "elbow_joint": 1.919643534880228,
            "shoulder_lift_joint": -1.8972525353963687,
            "shoulder_pan_joint": -1.1188672234189438,
            "wrist_1_joint": -1.5931878212786155,
            "wrist_2_joint": 1.5706036197970081,
            "wrist_3_joint": 1.118896926603594
        }
    },
    "waypoints": [
        {
            "positions": [
                -1.1188672234189438,
                -1.8972525353963687,
                1.919643534880228,
                -1.5931878212786155,
                1.5706036197970081,
                1.118896926603594
            ]
        },
        {
            "positions": [
                -1.0648675727141321,
                -1.8484191855086824,
                1.922555896350683,
                -1.4411368197322925,
                1.496715087287984,
                1.0713716439343133
            ]
        },
        {
            "positions": [
                -1.0108679220093204,
                -1.7995858356209962,
                1.925468257821138,
                -1.2890858181859692,
                1.4228265547789598,
                1.0238463612650326
            ]
        },
        {
            "positions": [
                -0.9568682713045086,
                -1.7507524857333099,
                1.9283806192915929,
                -1.1370348166396462,
                1.3489380222699356,
                0.9763210785957518
            ]
        },
        {
            "positions": [
                -0.9028686205996967,
                -1.7019191358456234,
                1.9312929807620478,
                -0.9849838150933232,
                1.2750494897609115,
                0.9287957959264711
            ]
        },
        {
            "positions": [
                -0.848868969894885,
                -1.653085785957937,
                1.9342053422325027,
                -0.8329328135470001,
                1.2011609572518873,
                0.8812705132571904
            ]
        },
        {
            "positions": [
                -0.7948693191900733,
                -1.6042524360702508,
                1.9371177037029577,
                -0.6808818120006771,
                1.1272724247428632,
                0.8337452305879096
            ]
        },
        {
            "positions": [
                -0.7408696684852614,
                -1.5554190861825645,
                1.9400300651734126,
                -0.528830810454354,
                1.053383892233839,
                0.7862199479186289
            ]
        },
        {
            "positions": [
                -0.6868700177804496,
                -1.5065857362948782,
                1.9429424266438675,
                -0.376779808908031,
                0.9794953597248149,
                0.7386946652493482
            ]
        },
        {
            "positions": [
                -0.6328703670756379,
                -1.457752386407192,
                1.9458547881143224,
                -0.22472880736170775,
                0.9056068272157908,
                0.6911693825800675
            ]
        },
        {
            "positions": [
                -0.5788707163708262,
                -1.4089190365195057,
                1.9487671495847774,
                -0.07267780581538474,
                0.8317182947067666,
                0.6436440999107869
            ]
        },
        {
            "positions": [
                -0.5248710656660144,
                -1.3600856866318192,
                1.9516795110552323,
                0.07937319573093848,
                0.7578297621977425,
                0.5961188172415061
            ]
        },
        {
            "positions": [
                -0.47087141496120266,
                -1.311252336744133,
                1.954591872525687,
                0.23142419727726127,
                0.6839412296887183,
                0.5485935345722254
            ]
        },
        {
            "positions": [
                -0.41687176425639094,
                -1.2624189868564466,
                1.957504233996142,
                0.3834751988235843,
                0.6100526971796942,
                0.5010682519029447
            ]
        },
        {
            "positions": [
                -0.362872113551579,
                -1.2135856369687603,
                1.9604165954665969,
                0.5355262003699075,
                0.5361641646706699,
                0.4535429692336639
            ]
        },
        {
            "positions": [
                -0.3088724628467673,
                -1.164752287081074,
                1.9633289569370518,
                0.6875772019162307,
                0.4622756321616459,
                0.4060176865643832
            ]
        },
        {
            "positions": [
                -0.25487281214195556,
                -1.1159189371933877,
                1.9662413184075067,
                0.8396282034625535,
                0.38838709965262175,
                0.3584924038951025
            ]
        },
        {
            "positions": [
                -0.20087316143714384,
                -1.0670855873057015,
                1.9691536798779616,
                0.9916792050088767,
                0.3144985671435976,
                0.3109671212258218
            ]
        },
        {
            "positions": [
                -0.146873510732332,
                -1.018252237418015,
                1.9720660413484166,
                1.1437302065552,
                0.24061003463457342,
                0.263441838556541
            ]
        },
        {
            "positions": [
                -0.0928738600275203,
                -0.9694188875303288,
                1.9749784028188715,
                1.2957812081015228,
                0.16672150212554926,
                0.21591655588726033
            ]
        },
        {
            "positions": [
                -0.038874209322708575,
                -0.9205855376426425,
                1.9778907642893264,
                1.447832209647846,
                0.0928329696165251,
                0.16839127321797964
            ]
        },
        {
            "positions": [
                0.015125441382103144,
                -0.8717521877549563,
                1.9808031257597813,
                1.5998832111941688,
                0.018944437107500933,
                0.12086599054869895
            ]
        },
        {
            "positions": [
                0.06912509208691509,
                -0.8229188378672698,
                1.9837154872302363,
                1.7519342127404924,
                -0.05494409540152323,
                0.07334070787941815
            ]
        },
        {
            "positions": [
                0.1231247427917267,
                -0.7740854879795835,
                1.9866278487006912,
                1.903985214286815,
                -0.12883262791054734,
                0.025815425210137546
            ]
        }
    ]
}