{
    "goal": {
        "global_pose": {
            "orientation": {
                "w": 0.7047431468963623,
                "x": -0.7094548344612122,
                "y": 0.0024358443915843964,
                "z": -0.0022348060738295317
            },
            "position": {
                "x": 0.6094750761985779,
                "y": 0.3671506643295288,
                "z": 0.19426114857196808
            }
        },
        "name": "move_to_magneteinheit_A"
    },
    "id": "EST_move_to_magneteinheit_A_136",
    "joint_names": [
        "shoulder_pan_joint",
        "shoulder_lift_joint",
        "elbow_joint",
        "wrist_1_joint",
        "wrist_2_joint",
        "wrist_3_joint"
    ],
    "metrics": {
        "cart_traj_len": 3.751614816906446,
        "distance_elbow_joint": 3.9101172061697165,
        "distance_shoulder_lift_joint": 1.2250906160746542,
        "distance_shoulder_pan_joint": 3.2412978691749776,
        "distance_wrist_1_joint": 3.4633107300853245,
        "distance_wrist_2_joint": 1.7742559838081196,
        "distance_wrist_3_joint": 1.3623634754472216,
        "smoothness": 0.29166319592312867,
        "time": 0.205768489,
        "traj_len": 3.8699400358093423,
        "weighted_distance": 4.789439376957173
    },
    "planner": "EST",
    "start": {
        "state": {
            "elbow_joint": -1.919618573717145,
            "shoulder_lift_joint": -1.2443395971678275,
            "shoulder_pan_joint": 2.6996025300909787,
            "wrist_1_joint": -1.548550951253194,
            "wrist_2_joint": -1.5709469090946802,
            "wrist_3_joint": 0.4420197732051276
        }
    },
    "waypoints": [
        {
            "positions": [
                2.6996025300909787,
                -1.2443395971678275,
                -1.919618573717145,
                -1.548550951253194,
                -1.5709469090946802,
                0.4420197732051276
            ]
        },
        {
            "positions": [
                2.5654341089161363,
                -1.2713559365680802,
                -1.8280674506286192,
                -1.5340368356530723,
                -1.5090601906175636,
                0.38334063258783124
            ]
        },
        {
            "positions": [
                2.4312656877412935,
                -1.2983722759683332,
                -1.7365163275400932,
                -1.5195227200529504,
                -1.4471734721404468,
                0.32466149197053495
            ]
        },
        {
            "positions": [
                2.297097266566451,
                -1.325388615368586,
                -1.6449652044515675,
                -1.5050086044528286,
                -1.3852867536633302,
                0.26598235135323867
            ]
        },
        {
            "positions": [
                2.1629288453916087,
                -1.3524049547688388,
                -1.5534140813630417,
                -1.4904944888527067,
                -1.3234000351862136,
                0.20730321073594232
            ]
        },
        {
            "positions": [
                2.028760424216766,
                -1.3794212941690915,
                -1.4618629582745157,
                -1.475980373252585,
                -1.261513316709097,
                0.14862407011864598
            ]
        },
        {
            "positions": [
                1.8945920030419234,
                -1.4064376335693445,
                -1.37031183518599,
                -1.461466257652463,
                -1.1996265982319803,
                0.08994492950134969
            ]
        },
        {
            "positions": [
                1.7604235818670808,
                -1.4334539729695974,
                -1.2787607120974642,
                -1.4469521420523412,
                -1.1377398797548637,
                0.03126578888405335
            ]
        },
        {
            "positions": [
                1.6262551606922384,
                -1.4604703123698501,
                -1.1872095890089382,
                -1.4324380264522194,
                -1.075853161277747,
                -0.02741335173324294
            ]
        },
        {
            "positions": [
                1.4920867395173956,
                -1.487486651770103,
                -1.0956584659204123,
                -1.4179239108520976,
                -1.0139664428006303,
                -0.08609249235053934
            ]
        },
        {
            "positions": [
                1.3579183183425532,
                -1.5145029911703558,
                -1.0041073428318867,
                -1.4034097952519757,
                -0.9520797243235137,
                -0.14477163296783563
            ]
        },
        {
            "positions": [
                1.2237498971677105,
                -1.5415193305706087,
                -0.9125562197433608,
                -1.388895679651854,
                -0.8901930058463972,
                -0.20345077358513192
            ]
        },
        {
            "positions": [
                1.0895814759928681,
                -1.5685356699708615,
                -0.821005096654835,
                -1.374381564051732,
                -0.8283062873692806,
                -0.2621299142024282
            ]
        },
        {
            "positions": [
                0.9554130548180253,
                -1.5955520093711142,
                -0.729453973566309,
                -1.3598674484516102,
                -0.7664195688921638,
                -0.3208090548197246
            ]
        },
        {
            "positions": [
                0.821244633643183,
                -1.6225683487713671,
                -0.6379028504777833,
                -1.3453533328514884,
                -0.7045328504150472,
                -0.37948819543702095
            ]
        },
        {
            "positions": [
                0.7670055501025104,
                -1.5867251894434213,
                -0.5371627834993291,
                -1.2237908426233177,
                -0.6653347236367564,
                -0.35480911119355163
            ]
        },
        {
            "positions": [
                0.7127664665618376,
                -1.5508820301154758,
                -0.43642271652087483,
                -1.102228352395147,
                -0.6261365968584657,
                -0.33013002695008226
            ]
        },
        {
            "positions": [
                0.658527383021165,
                -1.51503887078753,
                -0.3356826495424206,
                -0.9806658621669764,
                -0.5869384700801749,
                -0.3054509427066129
            ]
        },
        {
            "positions": [
                0.6042882994804923,
                -1.4791957114595844,
                -0.23494258256396638,
                -0.8591033719388057,
                -0.547740343301884,
                -0.28077185846314356
            ]
        },
        {
            "positions": [
                0.5500492159398197,
                -1.4433525521316386,
                -0.13420251558551222,
                -0.7375408817106351,
                -0.5085422165235933,
                -0.25609277421967425
            ]
        },
        {
            "positions": [
                0.495810132399147,
                -1.407509392803693,
                -0.03346244860705794,
                -0.6159783914824645,
                -0.4693440897453025,
                -0.23141368997620487
            ]
        },
        {
            "positions": [
                0.44157104885847437,
                -1.3716662334757472,
                0.06727761837139623,
                -0.4944159012542938,
                -0.43014596296701174,
                -0.20673460573273553
            ]
        },
        {
            "positions": [
                0.3873319653178017,
                -1.3358230741478017,
                0.1680176853498505,
                -0.3728534110261231,
                -0.3909478361887209,
                -0.18205552148926618
            ]
        },
        {
            "positions": [
                0.33309288177712904,
                -1.2999799148198559,
                0.2687577523283047,
                -0.25129092079795257,
                -0.35174970941043016,
                -0.15737643724579684
            ]
        },
        {
            "positions": [
                0.2788537982364564,
                -1.26413675549191,
                0.36949781930675885,
                -0.1297284305697819,
                -0.3125515826321394,
                -0.1326973530023275
            ]
        },
        {
            "positions": [
                0.22461471469578365,
                -1.2282935961639643,
                0.47023788628521324,
                -0.008165940341611,
                -0.27335345585384857,
                -0.10801826875885812
            ]
        },
        {
            "positions": [
                0.170375631155111,
                -1.1924504368360187,
                0.5709779532636674,
                0.11339654988655945,
                -0.2341553290755578,
                -0.0833391845153888
            ]
        },
        {
            "positions": [
                0.11613654761443826,
                -1.1566072775080731,
                0.6717180202421218,
                0.23495904011473012,
                -0.19495720229726698,
                -0.058660100271919424
            ]
        },
        {
            "positions": [
                0.06189746407376573,
                -1.1207641181801273,
                0.7724580872205757,
                0.3565215303429008,
                -0.15575907551897628,
                -0.033981016028450106
            ]
        },
        {
            "positions": [
                0.007658380533092979,
                -1.0849209588521815,
                0.8731981541990301,
                0.47808402057107147,
                -0.11656094874068545,
                -0.009301931784980733
            ]
        },
        {
            "positions": [
                -0.04658070300757966,
                -1.049077799524236,
                0.9739382211774843,
                0.5996465107992421,
                -0.07736282196239463,
                0.015377152458488585
            ]
        },
        {
            "positions": [
                -0.10081978654825241,
                -1.0132346401962902,
                1.0746782881559387,
                0.7212090010274128,
                -0.038164695184103814,
                0.04005623670195796
            ]
        },
        {
            "positions": [
                -0.15505887008892494,
                -0.9773914808683445,
                1.1754183551343926,
                0.8427714912555833,
                0.0010334315941868955,
                0.06473532094542728
            ]
        },
        {
            "positions": [
                -0.20929795362959763,
                -0.9415483215403988,
                1.276158422112847,
                0.9643339814837539,
                0.04023155837247766,
                0.08941440518889662
            ]
        },
        {
            "positions": [
                -0.16181261285039722,
                -0.9178566305060922,
                1.3782070235899506,
                1.100109095390665,
                0.01693477032376888,
                0.0791354185918745
            ]
        },
        {
            "positions": [
                -0.11432727207119678,
                -0.8941649394717855,
                1.480255625067054,
                1.2358842092975757,
                -0.006362017724939897,
                0.06885643199485239
            ]
        },
        {
            "positions": [
                -0.06684193129199636,
                -0.870473248437479,
                1.5823042265441576,
                1.3716593232044865,
                -0.02965880577364867,
                0.058577445397830274
            ]
        },
        {
            "positions": [
                -0.019356590512795924,
                -0.8467815574031724,
                1.6843528280212612,
                1.5074344371113975,
                -0.052955593822357455,
                0.04829845880080816
            ]
        },
        {
            "positions": [
                0.028128750266404517,
                -0.8230898663688657,
                1.7864014294983646,
                1.6432095510183085,
                -0.07625238187106624,
                0.03801947220378604
            ]
        },
        {
            "positions": [
                0.0756140910456049,
                -0.7993981753345591,
                1.8884500309754682,
                1.7789846649252192,
                -0.099549169919775,
                0.027740485606763926
            ]
        },
        {
            "positions": [
                0.12309943182480539,
                -0.7757064843002526,
                1.9904986324525717,
                1.9147597788321302,
                -0.12284595796848378,
                0.017461499009741817
            ]
        }
    ]
}{
    "goal": {
        "global_pose": {
            "orientation": {
                "w": 0.7047431468963623,
                "x": -0.7094548344612122,
                "y": 0.0024358443915843964,
                "z": -0.0022348060738295317
            },
            "position": {
                "x": 0.6094750761985779,
                "y": 0.3671506643295288,
                "z": 0.19426114857196808
            }
        },
        "name": "move_to_magneteinheit_A"
    },
    "id": "EST_move_to_magneteinheit_A_136",
    "joint_names": [
        "shoulder_pan_joint",
        "shoulder_lift_joint",
        "elbow_joint",
        "wrist_1_joint",
        "wrist_2_joint",
        "wrist_3_joint"
    ],
    "metrics": {
        "cart_traj_len": 1.2687842085152916,
        "distance_elbow_joint": 0.23780109622089407,
        "distance_shoulder_lift_joint": 0.791511420470554,
        "distance_shoulder_pan_joint": 1.2415588529529673,
        "distance_wrist_1_joint": 0.9472161076330707,
        "distance_wrist_2_joint": 1.4348779300550463,
        "distance_wrist_3_joint": 4.36638597515217,
        "smoothness": 0.23565840177315825,
        "time": 0.16819968600000001,
        "traj_len": 3.0032234985902564,
        "weighted_distance": 4.487116821576764
    },
    "planner": "EST",
    "start": {
        "state": {
            "elbow_joint": 1.919643534880228,
            "shoulder_lift_joint": -1.8972525353963687,
            "shoulder_pan_joint": -1.1188672234189438,
            "wrist_1_joint": -1.5931878212786155,
            "wrist_2_joint": 1.5706036197970081,
            "wrist_3_joint": 1.118896926603594
        }
    },
    "waypoints": [
        {
            "positions": [
                -1.1188672234189438,
                -1.8972525353963687,
                1.919643534880228,
                -1.5931878212786155,
                1.5706036197970081,
                1.118896926603594
            ]
        },
        {
            "positions": [
                -1.0628303852695196,
                -1.8618914747112307,
                1.9151836859371303,
                -1.552001672911865,
                1.5064341259911598,
                0.9240507107462178
            ]
        },
        {
            "positions": [
                -1.0067935471200955,
                -1.8265304140260925,
                1.9107238369940325,
                -1.5108155245451147,
                1.4422646321853114,
                0.7292044948888416
            ]
        },
        {
            "positions": [
                -0.9507567089706712,
                -1.7911693533409545,
                1.9062639880509349,
                -1.4696293761783645,
                1.3780951383794633,
                0.5343582790314656
            ]
        },
        {
            "positions": [
                -0.8947198708212469,
                -1.7558082926558165,
                1.901804139107837,
                -1.4284432278116141,
                1.313925644573615,
                0.33951206317408944
            ]
        },
        {
            "positions": [
                -0.8386830326718229,
                -1.7204472319706785,
                1.8973442901647393,
                -1.3872570794448638,
                1.2497561507677668,
                0.1446658473167134
            ]
        },
        {
            "positions": [
                -0.7826461945223986,
                -1.6850861712855403,
                1.8928844412216415,
                -1.3460709310781134,
                1.1855866569619185,
                -0.05018036854066277
            ]
        },
        {
            "positions": [
                -0.7266093563729743,
                -1.6497251106004023,
                1.8884245922785439,
                -1.3048847827113632,
                1.12141716315607,
                -0.24502658439803882
            ]
        },
        {
            "positions": [
                -0.6705725182235501,
                -1.6143640499152643,
                1.883964743335446,
                -1.2636986343446128,
                1.0572476693502217,
                -0.4398728002554151
            ]
        },
        {
            "positions": [
                -0.6145356800741258,
                -1.5790029892301263,
                1.8795048943923482,
                -1.2225124859778624,
                0.9930781755443735,
                -0.6347190161127914
            ]
        },
        {
            "positions": [
                -0.5584988419247018,
                -1.543641928544988,
                1.8750450454492504,
                -1.181326337611112,
                0.9289086817385253,
                -0.8295652319701672
            ]
        },
        {
            "positions": [
                -0.5024620037752775,
                -1.50828086785985,
                1.8705851965061528,
                -1.1401401892443617,
                0.8647391879326769,
                -1.0244114478275435
            ]
        },
        {
            "positions": [
                -0.4464251656258533,
                -1.472919807174712,
                1.866125347563055,
                -1.0989540408776115,
                0.8005696941268287,
                -1.2192576636849195
            ]
        },
        {
            "positions": [
                -0.39038832747642904,
                -1.4375587464895738,
                1.8616654986199572,
                -1.0577678925108611,
                0.7364002003209803,
                -1.414103879542296
            ]
        },
        {
            "positions": [
                -0.33435148932700487,
                -1.4021976858044358,
                1.8572056496768594,
                -1.0165817441441107,
                0.6722307065151321,
                -1.6089500953996716
            ]
        },
        {
            "positions": [
                -0.2783146511775807,
                -1.3668366251192978,
                1.8527458007337616,
                -0.9753955957773605,
                0.6080612127092838,
                -1.8037963112570476
            ]
        },
        {
            "positions": [
                -0.2222778130281564,
                -1.3314755644341596,
                1.848285951790664,
                -0.9342094474106101,
                0.5438917189034354,
                -1.9986425271144241
            ]
        },
        {
            "positions": [
                -0.16624097487873224,
                -1.2961145037490218,
                1.8438261028475662,
                -0.8930232990438598,
                0.4797222250975872,
                -2.1934887429718
            ]
        },
        {
            "positions": [
                -0.11020413672930784,
                -1.2607534430638836,
                1.8393662539044684,
                -0.8518371506771094,
                0.41555273129173886,
                -2.3883349588291765
            ]
        },
        {
            "positions": [
                -0.05416729857988378,
                -1.2253923823787456,
                1.8349064049613706,
                -0.8106510023103591,
                0.3513832374858905,
                -2.583181174686553
            ]
        },
        {
            "positions": [
                0.0018695395695402794,
                -1.1900313216936076,
                1.830446556018273,
                -0.7694648539436088,
                0.2872137436800424,
                -2.7780273905439286
            ]
        },
        {
            "positions": [
                0.057906377718964785,
                -1.1546702610084694,
                1.8259867070751752,
                -0.7282787055768584,
                0.2230442498741938,
                -2.972873606401305
            ]
        },
        {
            "positions": [
                0.11394321586838894,
                -1.1193092003233314,
                1.8215268581320774,
                -0.6870925572101081,
                0.15887475606834567,
                -3.167719822258681
            ]
        },
        {
            "positions": [
                0.12269162953402352,
                -1.132877285720848,
                1.9612112776048207,
                -0.7282134007746714,
                0.13572568974196192,
                -3.2474890485485757
            ]
        }
    ]
}