{
    "goal": {
        "global_pose": {
            "orientation": {
                "w": 0.5084816217422485,
                "x": -0.49083608388900757,
                "y": 0.5182115435600281,
                "z": -0.4816462993621826
            },
            "position": {
                "x": 0.5540239810943604,
                "y": 0.030875300988554955,
                "z": 0.16403168439865112
            }
        },
        "name": "move_to_storage_A"
    },
    "id": "EST_move_to_storage_A_105",
    "joint_names": [
        "shoulder_pan_joint",
        "shoulder_lift_joint",
        "elbow_joint",
        "wrist_1_joint",
        "wrist_2_joint",
        "wrist_3_joint"
    ],
    "metrics": {
        "cart_traj_len": 0.35338499141603796,
        "distance_elbow_joint": 0.4482144761819966,
        "distance_shoulder_lift_joint": 0.23492538020606468,
        "distance_shoulder_pan_joint": 0.46138670932568876,
        "distance_wrist_1_joint": 0.23738795397373924,
        "distance_wrist_2_joint": 1.102285113405745,
        "distance_wrist_3_joint": 0.09164478784044006,
        "smoothness": 8.881784232165597e-16,
        "time": 0.032642335,
        "traj_len": 1.6049437438532461,
        "weighted_distance": 2.0245510771511888
    },
    "planner": "EST",
    "start": {
        "state": {
            "elbow_joint": 1.9715477243005601,
            "shoulder_lift_joint": -1.1394853015351272,
            "shoulder_pan_joint": 0.12281154014795169,
            "wrist_1_joint": -0.7804696478968182,
            "wrist_2_joint": 0.12958648046900423,
            "wrist_3_joint": -3.192491284697111
        }
    },
    "waypoints": [
        {
            "positions": [
                0.12281154014795169,
                -1.1394853015351272,
                1.9715477243005601,
                -0.7804696478968182,
                0.12958648046900423,
                -3.192491284697111
            ]
        },
        {
            "positions": [
                0.056899153101424724,
                -1.1730460701359935,
                2.035578363755131,
                -0.8143822127502095,
                0.28705578238411067,
                -3.179399172148477
            ]
        },
        {
            "positions": [
                -0.009013233945102242,
                -1.20660683873686,
                2.099609003209702,
                -0.8482947776036008,
                0.44452508429921705,
                -3.1663070595998426
            ]
        },
        {
            "positions": [
                -0.07492562099162921,
                -1.2401676073377264,
                2.1636396426642728,
                -0.8822073424569921,
                0.6019943862143236,
                -3.1532149470512083
            ]
        },
        {
            "positions": [
                -0.14083800803815616,
                -1.2737283759385927,
                2.2276702821188437,
                -0.9161199073103834,
                0.7594636881294299,
                -3.140122834502574
            ]
        },
        {
            "positions": [
                -0.20675039508468313,
                -1.307289144539459,
                2.291700921573415,
                -0.9500324721637747,
                0.9169329900445363,
                -3.1270307219539397
            ]
        },
        {
            "positions": [
                -0.2726627821312101,
                -1.3408499131403255,
                2.355731561027986,
                -0.9839450370171661,
                1.0744022919596428,
                -3.1139386094053054
            ]
        },
        {
            "positions": [
                -0.33857516917773706,
                -1.3744106817411919,
                2.4197622004825567,
                -1.0178576018705574,
                1.231871593874749,
                -3.100846496856671
            ]
        }
    ]
}