{
    "goal": {
        "global_pose": {
            "orientation": {
                "w": 0.5084816217422485,
                "x": -0.49083608388900757,
                "y": 0.5182115435600281,
                "z": -0.4816462993621826
            },
            "position": {
                "x": 0.5540239810943604,
                "y": 0.030875300988554955,
                "z": 0.16403168439865112
            }
        },
        "name": "move_to_storage_A"
    },
    "id": "EST_move_to_storage_A_31",
    "joint_names": [
        "shoulder_pan_joint",
        "shoulder_lift_joint",
        "elbow_joint",
        "wrist_1_joint",
        "wrist_2_joint",
        "wrist_3_joint"
    ],
    "metrics": {
        "cart_traj_len": 0.3536027131187731,
        "distance_elbow_joint": 0.4486505285800413,
        "distance_shoulder_lift_joint": 0.23464360812141472,
        "distance_shoulder_pan_joint": 0.46448311492669075,
        "distance_wrist_1_joint": 0.2400161282836054,
        "distance_wrist_2_joint": 1.0903877312995447,
        "distance_wrist_3_joint": 0.0928067406197739,
        "smoothness": 8.881784197001252e-16,
        "time": 0.080645653,
        "traj_len": 1.603430027107847,
        "weighted_distance": 2.0216342875638436
    },
    "planner": "EST",
    "start": {
        "state": {
            "elbow_joint": 1.9715477243005601,
            "shoulder_lift_joint": -1.1394853015351272,
            "shoulder_pan_joint": 0.12281154014795169,
            "wrist_1_joint": -0.7804696478968182,
            "wrist_2_joint": 0.12958648046900423,
            "wrist_3_joint": -3.192491284697111
        }
    },
    "waypoints": [
        {
            "positions": [
                0.12281154014795169,
                -1.1394853015351272,
                1.9715477243005601,
                -0.7804696478968182,
                0.12958648046900423,
                -3.192491284697111
            ]
        },
        {
            "positions": [
                0.05645680944413872,
                -1.1730058169810436,
                2.0356406569548517,
                -0.8147576662230475,
                0.2853561563689392,
                -3.1792331788942865
            ]
        },
        {
            "positions": [
                -0.009897921259674244,
                -1.20652633242696,
                2.0997335896091434,
                -0.8490456845492769,
                0.44112583226887414,
                -3.1659750730914613
            ]
        },
        {
            "positions": [
                -0.0762526519634872,
                -1.2400468478728763,
                2.163826522263435,
                -0.8833337028755062,
                0.5968955081688091,
                -3.1527169672886366
            ]
        },
        {
            "positions": [
                -0.14260738266730016,
                -1.2735673633187927,
                2.2279194549177266,
                -0.9176217212017356,
                0.752665184068744,
                -3.139458861485812
            ]
        },
        {
            "positions": [
                -0.20896211337111315,
                -1.307087878764709,
                2.292012387572018,
                -0.9519097395279649,
                0.908434859968679,
                -3.126200755682987
            ]
        },
        {
            "positions": [
                -0.27531684407492607,
                -1.3406083942106255,
                2.35610532022631,
                -0.9861977578541943,
                1.064204535868614,
                -3.112942649880162
            ]
        },
        {
            "positions": [
                -0.34167157477873905,
                -1.3741289096565419,
                2.4201982528806014,
                -1.0204857761804236,
                1.219974211768549,
                -3.0996845440773373
            ]
        }
    ]
}