{
    "goal": {
        "global_pose": {
            "orientation": {
                "w": 0.7047431468963623,
                "x": -0.7094548344612122,
                "y": 0.0024358443915843964,
                "z": -0.0022348060738295317
            },
            "position": {
                "x": 0.6094750761985779,
                "y": 0.3671506643295288,
                "z": 0.19426114857196808
            }
        },
        "name": "move_to_magneteinheit_A"
    },
    "id": "EST_move_to_magneteinheit_A_25",
    "joint_names": [
        "shoulder_pan_joint",
        "shoulder_lift_joint",
        "elbow_joint",
        "wrist_1_joint",
        "wrist_2_joint",
        "wrist_3_joint"
    ],
    "metrics": {
        "cart_traj_len": 3.890114337559995,
        "distance_elbow_joint": 3.8699776303354643,
        "distance_shoulder_lift_joint": 1.0293735639883814,
        "distance_shoulder_pan_joint": 5.162457415094298,
        "distance_wrist_1_joint": 0.8536678678704879,
        "distance_wrist_2_joint": 1.6926206620377862,
        "distance_wrist_3_joint": 3.5717812085819145,
        "smoothness": 0.23887943452258742,
        "time": 0.105000248,
        "traj_len": 4.022421950505485,
        "weighted_distance": 5.086229378919166
    },
    "planner": "EST",
    "start": {
        "state": {
            "elbow_joint": -1.919618573717145,
            "shoulder_lift_joint": -1.2443395971678275,
            "shoulder_pan_joint": 2.6996025300909787,
            "wrist_1_joint": -1.548550951253194,
            "wrist_2_joint": -1.5709469090946802,
            "wrist_3_joint": 0.4420197732051276
        }
    },
    "waypoints": [
        {
            "positions": [
                2.6996025300909787,
                -1.2443395971678275,
                -1.919618573717145,
                -1.548550951253194,
                -1.5709469090946802,
                0.4420197732051276
            ]
        },
        {
            "positions": [
                2.550772191417755,
                -1.2618702550823098,
                -1.796917441972344,
                -1.5171877317313534,
                -1.5287932473345298,
                0.42285992868942246
            ]
        },
        {
            "positions": [
                2.4019418527445304,
                -1.279400912996792,
                -1.6742163102275431,
                -1.4858245122095126,
                -1.4866395855743795,
                0.4037000841737173
            ]
        },
        {
            "positions": [
                2.253111514071306,
                -1.2969315709112743,
                -1.5515151784827421,
                -1.4544612926876719,
                -1.4444859238142291,
                0.3845402396580121
            ]
        },
        {
            "positions": [
                2.104281175398082,
                -1.3144622288257568,
                -1.428814046737941,
                -1.4230980731658314,
                -1.4023322620540788,
                0.36538039514230697
            ]
        },
        {
            "positions": [
                1.955450836724858,
                -1.331992886740239,
                -1.30611291499314,
                -1.3917348536439906,
                -1.3601786002939285,
                0.34622055062660184
            ]
        },
        {
            "positions": [
                1.8066204980516338,
                -1.3495235446547214,
                -1.183411783248339,
                -1.36037163412215,
                -1.3180249385337781,
                0.32706070611089666
            ]
        },
        {
            "positions": [
                1.65779015937841,
                -1.3670542025692036,
                -1.0607106515035385,
                -1.3290084146003092,
                -1.2758712767736278,
                0.3079008615951915
            ]
        },
        {
            "positions": [
                1.5089598207051855,
                -1.384584860483686,
                -0.9380095197587373,
                -1.2976451950784684,
                -1.2337176150134774,
                0.28874101707948635
            ]
        },
        {
            "positions": [
                1.3601294820319616,
                -1.4021155183981682,
                -0.8153083880139365,
                -1.2662819755566277,
                -1.191563953253327,
                0.2695811725637812
            ]
        },
        {
            "positions": [
                1.2112991433587372,
                -1.4196461763126504,
                -0.6926072562691354,
                -1.2349187560347872,
                -1.1494102914931768,
                0.25042132804807604
            ]
        },
        {
            "positions": [
                1.0624688046855133,
                -1.4371768342271327,
                -0.5699061245243344,
                -1.2035555365129464,
                -1.1072566297330262,
                0.2312614835323709
            ]
        },
        {
            "positions": [
                0.9136384660122889,
                -1.454707492141615,
                -0.4472049927795334,
                -1.1721923169911057,
                -1.065102967972876,
                0.21210163901666573
            ]
        },
        {
            "positions": [
                0.764808127339065,
                -1.4722381500560973,
                -0.3245038610347326,
                -1.140829097469265,
                -1.0229493062127255,
                0.19294179450096058
            ]
        },
        {
            "positions": [
                0.6159777886658411,
                -1.4897688079705798,
                -0.20180272928993181,
                -1.1094658779474242,
                -0.9807956444525753,
                0.17378194998525542
            ]
        },
        {
            "positions": [
                0.46714744999261715,
                -1.507299465885062,
                -0.0791015975451308,
                -1.0781026584255837,
                -0.9386419826924249,
                0.1546221054695503
            ]
        },
        {
            "positions": [
                0.31831711131939233,
                -1.5248301237995443,
                0.04359953419967044,
                -1.0467394389037428,
                -0.8964883209322745,
                0.13546226095384512
            ]
        },
        {
            "positions": [
                0.1694867726461684,
                -1.5423607817140266,
                0.16630066594447102,
                -1.0153762193819023,
                -0.8543346591721243,
                0.11630241643813993
            ]
        },
        {
            "positions": [
                0.020656433972944477,
                -1.5598914396285088,
                0.28900179768927203,
                -0.9840129998600615,
                -0.8121809974119739,
                0.0971425719224348
            ]
        },
        {
            "positions": [
                -0.12817390470027945,
                -1.5774220975429911,
                0.41170292943407305,
                -0.9526497803382208,
                -0.7700273356518236,
                0.07798272740672968
            ]
        },
        {
            "positions": [
                -0.27700424337350427,
                -1.5949527554574736,
                0.5344040611788741,
                -0.92128656081638,
                -0.7278736738916731,
                0.0588228828910245
            ]
        },
        {
            "positions": [
                -0.4258345820467282,
                -1.6124834133719559,
                0.6571051929236751,
                -0.8899233412945393,
                -0.6857200121315228,
                0.039663038375319315
            ]
        },
        {
            "positions": [
                -0.5746649207199521,
                -1.6300140712864382,
                0.7798063246684761,
                -0.8585601217726987,
                -0.6435663503713724,
                0.02050319385961419
            ]
        },
        {
            "positions": [
                -0.723495259393176,
                -1.6475447292009204,
                0.9025074564132767,
                -0.827196902250858,
                -0.6014126886112222,
                0.0013433493439090616
            ]
        },
        {
            "positions": [
                -0.8723255980664009,
                -1.6650753871154027,
                1.0252085881580781,
                -0.7958336827290172,
                -0.5592590268510718,
                -0.01781649517179612
            ]
        },
        {
            "positions": [
                -1.0211559367396248,
                -1.682606045029885,
                1.1479097199028787,
                -0.7644704632071766,
                -0.5171053650909214,
                -0.0369763396875013
            ]
        },
        {
            "positions": [
                -1.1699862754128485,
                -1.7001367029443673,
                1.27061085164768,
                -0.7331072436853359,
                -0.4749517033307711,
                -0.05613618420320643
            ]
        },
        {
            "positions": [
                -1.0891819873134438,
                -1.664288174306127,
                1.313095114458345,
                -0.7307182336664215,
                -0.4376626123136537,
                0.1359653939951423
            ]
        },
        {
            "positions": [
                -1.008377699214039,
                -1.6284396456678871,
                1.35557937726901,
                -0.7283292236475072,
                -0.40037352129653636,
                0.328066972193491
            ]
        },
        {
            "positions": [
                -0.9275734111146343,
                -1.592591117029647,
                1.398063640079675,
                -0.7259402136285928,
                -0.363084430279419,
                0.5201685503918397
            ]
        },
        {
            "positions": [
                -0.8467691230152294,
                -1.5567425883914068,
                1.44054790289034,
                -0.7235512036096785,
                -0.32579533926230164,
                0.7122701285901885
            ]
        },
        {
            "positions": [
                -0.7659648349158248,
                -1.5208940597531666,
                1.483032165701005,
                -0.7211621935907641,
                -0.2885062482451843,
                0.9043717067885372
            ]
        },
        {
            "positions": [
                -0.68516054681642,
                -1.4850455311149267,
                1.5255164285116702,
                -0.7187731835718497,
                -0.2512171572280669,
                1.096473284986886
            ]
        },
        {
            "positions": [
                -0.6043562587170153,
                -1.4491970024766865,
                1.5680006913223352,
                -0.7163841735529354,
                -0.21392806621094956,
                1.2885748631852345
            ]
        },
        {
            "positions": [
                -0.5235519706176105,
                -1.4133484738384463,
                1.6104849541330002,
                -0.713995163534021,
                -0.1766389751938322,
                1.4806764413835833
            ]
        },
        {
            "positions": [
                -0.44274768251820573,
                -1.3774999452002064,
                1.6529692169436652,
                -0.7116061535151067,
                -0.13934988417671484,
                1.6727780195819322
            ]
        },
        {
            "positions": [
                -0.36194339441880097,
                -1.3416514165619662,
                1.6954534797543301,
                -0.7092171434961924,
                -0.10206079315959748,
                1.8648795977802808
            ]
        },
        {
            "positions": [
                -0.2811391063193962,
                -1.305802887923726,
                1.7379377425649953,
                -0.706828133477278,
                -0.06477170214248013,
                2.0569811759786294
            ]
        },
        {
            "positions": [
                -0.20033481821999155,
                -1.269954359285486,
                1.7804220053756603,
                -0.7044391234583636,
                -0.027482611125362766,
                2.2490827541769782
            ]
        },
        {
            "positions": [
                -0.11953053012058668,
                -1.2341058306472459,
                1.8229062681863253,
                -0.7020501134394492,
                0.009806479891754594,
                2.441184332375327
            ]
        },
        {
            "positions": [
                -0.03872624202118202,
                -1.1982573020090057,
                1.8653905309969905,
                -0.6996611034205349,
                0.04709557090887195,
                2.6332859105736754
            ]
        },
        {
            "positions": [
                0.04207804607822285,
                -1.1624087733707658,
                1.9078747938076555,
                -0.6972720934016206,
                0.08438466192598937,
                2.8253874887720243
            ]
        },
        {
            "positions": [
                0.12288233417762758,
                -1.1265602447325256,
                1.9503590566183204,
                -0.6948830833827062,
                0.12167375294310669,
                3.017489066970373
            ]
        }
    ]
}{
    "goal": {
        "global_pose": {
            "orientation": {
                "w": 0.7047431468963623,
                "x": -0.7094548344612122,
                "y": 0.0024358443915843964,
                "z": -0.0022348060738295317
            },
            "position": {
                "x": 0.6094750761985779,
                "y": 0.3671506643295288,
                "z": 0.19426114857196808
            }
        },
        "name": "move_to_magneteinheit_A"
    },
    "id": "EST_move_to_magneteinheit_A_25",
    "joint_names": [
        "shoulder_pan_joint",
        "shoulder_lift_joint",
        "elbow_joint",
        "wrist_1_joint",
        "wrist_2_joint",
        "wrist_3_joint"
    ],
    "metrics": {
        "cart_traj_len": 1.1676572013399162,
        "distance_elbow_joint": 0.18732165780920407,
        "distance_shoulder_lift_joint": 0.7604162747528653,
        "distance_shoulder_pan_joint": 1.2424614549870407,
        "distance_wrist_1_joint": 1.1759836542023687,
        "distance_wrist_2_joint": 1.4498965730608735,
        "distance_wrist_3_joint": 4.315020498584213,
        "smoothness": 0.19334206044303592,
        "time": 0.057201362,
        "traj_len": 3.021771022661473,
        "weighted_distance": 4.5151989256098375
    },
    "planner": "EST",
    "start": {
        "state": {
            "elbow_joint": 1.919643534880228,
            "shoulder_lift_joint": -1.8972525353963687,
            "shoulder_pan_joint": -1.1188672234189438,
            "wrist_1_joint": -1.5931878212786155,
            "wrist_2_joint": 1.5706036197970081,
            "wrist_3_joint": 1.118896926603594
        }
    },
    "waypoints": [
        {
            "positions": [
                -1.1188672234189438,
                -1.8972525353963687,
                1.919643534880228,
                -1.5931878212786155,
                1.5706036197970081,
                1.118896926603594
            ]
        },
        {
            "positions": [
                -1.065933176914358,
                -1.871170942854999,
                1.9252209120274122,
                -1.545560926305343,
                1.5071836743149087,
                0.9282136372804324
            ]
        },
        {
            "positions": [
                -1.012999130409772,
                -1.8450893503136292,
                1.9307982891745963,
                -1.4979340313320701,
                1.4437637288328091,
                0.7375303479572708
            ]
        },
        {
            "positions": [
                -0.9600650839051863,
                -1.8190077577722592,
                1.9363756663217806,
                -1.4503071363587976,
                1.3803437833507097,
                0.5468470586341092
            ]
        },
        {
            "positions": [
                -0.9071310374006005,
                -1.7929261652308894,
                1.9419530434689647,
                -1.402680241385525,
                1.3169238378686101,
                0.3561637693109476
            ]
        },
        {
            "positions": [
                -0.8541969908960146,
                -1.7668445726895197,
                1.9475304206161488,
                -1.3550533464122523,
                1.2535038923865107,
                0.16548047998778603
            ]
        },
        {
            "positions": [
                -0.8012629443914288,
                -1.74076298014815,
                1.9531077977633329,
                -1.3074264514389797,
                1.1900839469044113,
                -0.025202809335375553
            ]
        },
        {
            "positions": [
                -0.748328897886843,
                -1.7146813876067801,
                1.958685174910517,
                -1.259799556465707,
                1.126664001422312,
                -0.21588609865853714
            ]
        },
        {
            "positions": [
                -0.6953948513822571,
                -1.6885997950654104,
                1.964262552057701,
                -1.2121726614924344,
                1.0632440559402123,
                -0.4065693879816987
            ]
        },
        {
            "positions": [
                -0.6424608048776712,
                -1.6625182025240404,
                1.9698399292048854,
                -1.1645457665191619,
                0.9998241104581128,
                -0.5972526773048603
            ]
        },
        {
            "positions": [
                -0.5895267583730854,
                -1.6364366099826706,
                1.9754173063520695,
                -1.116918871545889,
                0.9364041649760134,
                -0.7879359666280219
            ]
        },
        {
            "positions": [
                -0.5365927118684994,
                -1.6103550174413008,
                1.9809946834992536,
                -1.0692919765726163,
                0.8729842194939138,
                -0.9786192559511837
            ]
        },
        {
            "positions": [
                -0.48365866536391366,
                -1.584273424899931,
                1.9865720606464377,
                -1.0216650815993438,
                0.8095642740118144,
                -1.169302545274345
            ]
        },
        {
            "positions": [
                -0.4307246188593278,
                -1.558191832358561,
                1.9921494377936217,
                -0.9740381866260712,
                0.7461443285297149,
                -1.3599858345975069
            ]
        },
        {
            "positions": [
                -0.377790572354742,
                -1.5321102398171913,
                1.997726814940806,
                -0.9264112916527987,
                0.6827243830476155,
                -1.5506691239206682
            ]
        },
        {
            "positions": [
                -0.3248565258501561,
                -1.5060286472758215,
                2.00330419208799,
                -0.8787843966795259,
                0.6193044375655159,
                -1.74135241324383
            ]
        },
        {
            "positions": [
                -0.27192247934557034,
                -1.4799470547344518,
                2.0088815692351742,
                -0.8311575017062534,
                0.5558844920834165,
                -1.9320357025669914
            ]
        },
        {
            "positions": [
                -0.21898843284098446,
                -1.453865462193082,
                2.0144589463823586,
                -0.7835306067329807,
                0.4924645466013169,
                -2.122718991890153
            ]
        },
        {
            "positions": [
                -0.16605438633639857,
                -1.4277838696517122,
                2.0200363235295424,
                -0.7359037117597081,
                0.4290446011192175,
                -2.313402281213315
            ]
        },
        {
            "positions": [
                -0.1131203398318128,
                -1.4017022771103422,
                2.0256137006767267,
                -0.6882768167864354,
                0.3656246556371181,
                -2.5040855705364766
            ]
        },
        {
            "positions": [
                -0.060186293327227025,
                -1.3756206845689727,
                2.0311910778239106,
                -0.6406499218131628,
                0.3022047101550187,
                -2.6947688598596375
            ]
        },
        {
            "positions": [
                -0.007252246822641029,
                -1.3495390920276027,
                2.036768454971095,
                -0.59302302683989,
                0.238784764672919,
                -2.8854521491827994
            ]
        },
        {
            "positions": [
                0.03636324597427165,
                -1.278638148232903,
                2.013369542398316,
                -0.6516293134277712,
                0.19942552536065747,
                -2.9890092901154053
            ]
        },
        {
            "positions": [
                0.07997873877118433,
                -1.207737204438203,
                1.9899706298255369,
                -0.7102356000156524,
                0.1600662860483959,
                -3.092566431048011
            ]
        },
        {
            "positions": [
                0.12359423156809703,
                -1.1368362606435034,
                1.9665717172527577,
                -0.7688418866035336,
                0.12070704673613436,
                -3.196123571980617
            ]
        }
    ]
}