{
    "goal": {
        "global_pose": {
            "orientation": {
                "w": 0.5084816217422485,
                "x": -0.49083608388900757,
                "y": 0.5182115435600281,
                "z": -0.4816462993621826
            },
            "position": {
                "x": 0.5540239810943604,
                "y": 0.030875300988554955,
                "z": 0.16403168439865112
            }
        },
        "name": "move_to_storage_A"
    },
    "id": "EST_move_to_storage_A_20",
    "joint_names": [
        "shoulder_pan_joint",
        "shoulder_lift_joint",
        "elbow_joint",
        "wrist_1_joint",
        "wrist_2_joint",
        "wrist_3_joint"
    ],
    "metrics": {
        "cart_traj_len": 0.35339752972511795,
        "distance_elbow_joint": 0.45182863179303023,
        "distance_shoulder_lift_joint": 0.23465237753960078,
        "distance_shoulder_pan_joint": 0.4618575331232624,
        "distance_wrist_1_joint": 0.24749957914167908,
        "distance_wrist_2_joint": 1.1011342668245612,
        "distance_wrist_3_joint": 0.10485654531082478,
        "smoothness": 4.440892098500626e-16,
        "time": 0.18189771500000002,
        "traj_len": 1.613018578235526,
        "weighted_distance": 2.0396509187409615
    },
    "planner": "EST",
    "start": {
        "state": {
            "elbow_joint": 1.9715477243005601,
            "shoulder_lift_joint": -1.1394853015351272,
            "shoulder_pan_joint": 0.12281154014795169,
            "wrist_1_joint": -0.7804696478968182,
            "wrist_2_joint": 0.12958648046900423,
            "wrist_3_joint": -3.192491284697111
        }
    },
    "waypoints": [
        {
            "positions": [
                0.12281154014795169,
                -1.1394853015351272,
                1.9715477243005601,
                -0.7804696478968182,
                0.12958648046900423,
                -3.192491284697111
            ]
        },
        {
            "positions": [
                0.056831892558914215,
                -1.17300706975507,
                2.0360946716995643,
                -0.8158267306313437,
                0.28689137572965584,
                -3.177511778224136
            ]
        },
        {
            "positions": [
                -0.009147755030123259,
                -1.2065288379750132,
                2.100641619098569,
                -0.8511838133658693,
                0.4441962709903074,
                -3.1625322717511613
            ]
        },
        {
            "positions": [
                -0.07512740261916075,
                -1.240050606194956,
                2.165188566497573,
                -0.8865408961003949,
                0.6015011662509591,
                -3.1475527652781863
            ]
        },
        {
            "positions": [
                -0.1411070502081982,
                -1.273572374414899,
                2.2297355138965775,
                -0.9218979788349205,
                0.7588060615116106,
                -3.1325732588052113
            ]
        },
        {
            "positions": [
                -0.2070866977972357,
                -1.307094142634842,
                2.2942824612955817,
                -0.9572550615694461,
                0.9161109567722622,
                -3.1175937523322363
            ]
        },
        {
            "positions": [
                -0.27306634538627317,
                -1.340615910854785,
                2.358829408694586,
                -0.9926121443039717,
                1.0734158520329138,
                -3.1026142458592614
            ]
        },
        {
            "positions": [
                -0.3390459929753107,
                -1.374137679074728,
                2.4233763560935904,
                -1.0279692270384972,
                1.2307207472935653,
                -3.0876347393862864
            ]
        }
    ]
}