{
    "goal": {
        "global_pose": {
            "orientation": {
                "w": 0.5084816217422485,
                "x": -0.49083608388900757,
                "y": 0.5182115435600281,
                "z": -0.4816462993621826
            },
            "position": {
                "x": 0.5540239810943604,
                "y": 0.030875300988554955,
                "z": 0.16403168439865112
            }
        },
        "name": "move_to_storage_A"
    },
    "id": "EST_move_to_storage_A_28",
    "joint_names": [
        "shoulder_pan_joint",
        "shoulder_lift_joint",
        "elbow_joint",
        "wrist_1_joint",
        "wrist_2_joint",
        "wrist_3_joint"
    ],
    "metrics": {
        "cart_traj_len": 0.35291747099762555,
        "distance_elbow_joint": 0.45037770079201334,
        "distance_shoulder_lift_joint": 0.23459006548598627,
        "distance_shoulder_pan_joint": 0.46308131973178007,
        "distance_wrist_1_joint": 0.24788384747438685,
        "distance_wrist_2_joint": 1.0913951908556832,
        "distance_wrist_3_joint": 0.09829462822977986,
        "smoothness": 0.0,
        "time": 0.030245555,
        "traj_len": 1.6079871742553264,
        "weighted_distance": 2.030145572947728
    },
    "planner": "EST",
    "start": {
        "state": {
            "elbow_joint": 1.9715477243005601,
            "shoulder_lift_joint": -1.1394853015351272,
            "shoulder_pan_joint": 0.12281154014795169,
            "wrist_1_joint": -0.7804696478968182,
            "wrist_2_joint": 0.12958648046900423,
            "wrist_3_joint": -3.192491284697111
        }
    },
    "waypoints": [
        {
            "positions": [
                0.12281154014795169,
                -1.1394853015351272,
                1.9715477243005601,
                -0.7804696478968182,
                0.12958648046900423,
                -3.192491284697111
            ]
        },
        {
            "positions": [
                0.05665706590055454,
                -1.1729981680331252,
                2.0358873958422765,
                -0.8158816261074449,
                0.2855000791626733,
                -3.17844919495
            ]
        },
        {
            "positions": [
                -0.009497408346842609,
                -1.2065110345311232,
                2.1002270673839925,
                -0.8512936043180716,
                0.4414136778563423,
                -3.1644071052028884
            ]
        },
        {
            "positions": [
                -0.07565188259423976,
                -1.2400239010291212,
                2.164566738925709,
                -0.8867055825286982,
                0.5973272765500113,
                -3.150365015455777
            ]
        },
        {
            "positions": [
                -0.1418063568416369,
                -1.2735367675271192,
                2.2289064104674248,
                -0.9221175607393249,
                0.7532408752436803,
                -3.1363229257086656
            ]
        },
        {
            "positions": [
                -0.20796083108903407,
                -1.3070496340251174,
                2.293246082009141,
                -0.9575295389499516,
                0.9091544739373494,
                -3.122280835961554
            ]
        },
        {
            "positions": [
                -0.2741153053364312,
                -1.3405625005231154,
                2.357585753550857,
                -0.9929415171605783,
                1.0650680726310182,
                -3.1082387462144427
            ]
        },
        {
            "positions": [
                -0.34026977958382837,
                -1.3740753670211134,
                2.4219254250925735,
                -1.028353495371205,
                1.2209816713246873,
                -3.0941966564673313
            ]
        }
    ]
}