{
    "goal": {
        "global_pose": {
            "orientation": {
                "w": 0.5084816217422485,
                "x": -0.49083608388900757,
                "y": 0.5182115435600281,
                "z": -0.4816462993621826
            },
            "position": {
                "x": 0.5540239810943604,
                "y": 0.030875300988554955,
                "z": 0.16403168439865112
            }
        },
        "name": "move_to_storage_A"
    },
    "id": "EST_move_to_storage_A_131",
    "joint_names": [
        "shoulder_pan_joint",
        "shoulder_lift_joint",
        "elbow_joint",
        "wrist_1_joint",
        "wrist_2_joint",
        "wrist_3_joint"
    ],
    "metrics": {
        "cart_traj_len": 0.35252648106457873,
        "distance_elbow_joint": 0.4527087758556445,
        "distance_shoulder_lift_joint": 0.23490938186503163,
        "distance_shoulder_pan_joint": 0.4617285602873611,
        "distance_wrist_1_joint": 0.25706600733387364,
        "distance_wrist_2_joint": 1.094718629393724,
        "distance_wrist_3_joint": 0.10984470522896883,
        "smoothness": 8.881784197001252e-16,
        "time": 0.078297972,
        "traj_len": 1.6158514968785356,
        "weighted_distance": 2.0451039355372966
    },
    "planner": "EST",
    "start": {
        "state": {
            "elbow_joint": 1.9715477243005601,
            "shoulder_lift_joint": -1.1394853015351272,
            "shoulder_pan_joint": 0.12281154014795169,
            "wrist_1_joint": -0.7804696478968182,
            "wrist_2_joint": 0.12958648046900423,
            "wrist_3_joint": -3.192491284697111
        }
    },
    "waypoints": [
        {
            "positions": [
                0.12281154014795169,
                -1.1394853015351272,
                1.9715477243005601,
                -0.7804696478968182,
                0.12958648046900423,
                -3.192491284697111
            ]
        },
        {
            "positions": [
                0.056850317249757254,
                -1.1730437846587032,
                2.0362204065656524,
                -0.8171933632302287,
                0.28597485609667905,
                -3.1767991839501155
            ]
        },
        {
            "positions": [
                -0.009110905648437181,
                -1.206602267782279,
                2.100893088830744,
                -0.8539170785636392,
                0.44236323172435393,
                -3.1611070832031203
            ]
        },
        {
            "positions": [
                -0.07507212854663163,
                -1.240160750905855,
                2.1655657710958365,
                -0.8906407938970498,
                0.5987516073520288,
                -3.1454149824561246
            ]
        },
        {
            "positions": [
                -0.14103335144482604,
                -1.273719234029431,
                2.2302384533609283,
                -0.9273645092304602,
                0.7551399829797036,
                -3.129722881709129
            ]
        },
        {
            "positions": [
                -0.2069945743430205,
                -1.307277717153007,
                2.2949111356260206,
                -0.9640882245638708,
                0.9115283586073786,
                -3.1140307809621333
            ]
        },
        {
            "positions": [
                -0.27295579724121494,
                -1.3408362002765828,
                2.3595838178911124,
                -1.0008119398972812,
                1.0679167342350535,
                -3.098338680215138
            ]
        },
        {
            "positions": [
                -0.3389170201394094,
                -1.3743946834001588,
                2.4242565001562046,
                -1.0375356552306918,
                1.2243051098627284,
                -3.0826465794681424
            ]
        }
    ]
}