{
    "goal": {
        "global_pose": {
            "orientation": {
                "w": 0.7047431468963623,
                "x": -0.7094548344612122,
                "y": 0.0024358443915843964,
                "z": -0.0022348060738295317
            },
            "position": {
                "x": 0.6094750761985779,
                "y": 0.3671506643295288,
                "z": 0.19426114857196808
            }
        },
        "name": "move_to_magneteinheit_A"
    },
    "id": "EST_move_to_magneteinheit_A_101",
    "joint_names": [
        "shoulder_pan_joint",
        "shoulder_lift_joint",
        "elbow_joint",
        "wrist_1_joint",
        "wrist_2_joint",
        "wrist_3_joint"
    ],
    "metrics": {
        "cart_traj_len": 3.7315969674524787,
        "distance_elbow_joint": 3.9090007668223077,
        "distance_shoulder_lift_joint": 0.46811358684942894,
        "distance_shoulder_pan_joint": 3.533782846279421,
        "distance_wrist_1_joint": 3.457829166949481,
        "distance_wrist_2_joint": 1.9077137408055522,
        "distance_wrist_3_joint": 0.5619196216390981,
        "smoothness": 0.21439631694714134,
        "time": 0.188014852,
        "traj_len": 3.719994587273655,
        "weighted_distance": 4.508629712049829
    },
    "planner": "EST",
    "start": {
        "state": {
            "elbow_joint": -1.919618573717145,
            "shoulder_lift_joint": -1.2443395971678275,
            "shoulder_pan_joint": 2.6996025300909787,
            "wrist_1_joint": -1.548550951253194,
            "wrist_2_joint": -1.5709469090946802,
            "wrist_3_joint": 0.4420197732051276
        }
    },
    "waypoints": [
        {
            "positions": [
                2.6996025300909787,
                -1.2443395971678275,
                -1.919618573717145,
                -1.548550951253194,
                -1.5709469090946802,
                0.4420197732051276
            ]
        },
        {
            "positions": [
                2.586453402893765,
                -1.2296143217262858,
                -1.8148479197868108,
                -1.4500006173887736,
                -1.5089065074546177,
                0.44457592415511404
            ]
        },
        {
            "positions": [
                2.4733042756965515,
                -1.2148890462847441,
                -1.7100772658564765,
                -1.3514502835243534,
                -1.4468661058145553,
                0.44713207510510045
            ]
        },
        {
            "positions": [
                2.360155148499338,
                -1.2001637708432025,
                -1.6053066119261423,
                -1.252899949659933,
                -1.384825704174493,
                0.4496882260550869
            ]
        },
        {
            "positions": [
                2.247006021302125,
                -1.1854384954016606,
                -1.5005359579958082,
                -1.1543496157955127,
                -1.3227853025344305,
                0.45224437700507336
            ]
        },
        {
            "positions": [
                2.133856894104911,
                -1.170713219960119,
                -1.395765304065474,
                -1.0557992819310922,
                -1.2607449008943683,
                0.45480052795505976
            ]
        },
        {
            "positions": [
                2.0207077669076976,
                -1.1559879445185772,
                -1.29099465013514,
                -0.9572489480666718,
                -1.1987044992543059,
                0.4573566789050462
            ]
        },
        {
            "positions": [
                1.907558639710484,
                -1.1412626690770356,
                -1.1862239962048056,
                -0.8586986142022515,
                -1.1366640976142435,
                0.4599128298550327
            ]
        },
        {
            "positions": [
                1.7944095125132704,
                -1.1265373936354939,
                -1.0814533422744714,
                -0.760148280337831,
                -1.074623695974181,
                0.46246898080501914
            ]
        },
        {
            "positions": [
                1.681260385316057,
                -1.1118121181939522,
                -0.9766826883441372,
                -0.6615979464734106,
                -1.0125832943341186,
                0.46502513175500554
            ]
        },
        {
            "positions": [
                1.5681112581188434,
                -1.0970868427524105,
                -0.8719120344138029,
                -0.5630476126089903,
                -0.9505428926940563,
                0.467581282704992
            ]
        },
        {
            "positions": [
                1.45496213092163,
                -1.0823615673108689,
                -0.7671413804834688,
                -0.4644972787445698,
                -0.8885024910539939,
                0.47013743365497845
            ]
        },
        {
            "positions": [
                1.3418130037244165,
                -1.0676362918693272,
                -0.6623707265531347,
                -0.36594694488014956,
                -0.8264620894139315,
                0.47269358460496486
            ]
        },
        {
            "positions": [
                1.2286638765272029,
                -1.0529110164277853,
                -0.5576000726228003,
                -0.2673966110157291,
                -0.7644216877738691,
                0.4752497355549513
            ]
        },
        {
            "positions": [
                1.1155147493299895,
                -1.0381857409862436,
                -0.4528294186924662,
                -0.16884627715130884,
                -0.7023812861338068,
                0.47780588650493777
            ]
        },
        {
            "positions": [
                1.0023656221327757,
                -1.023460465544702,
                -0.3480587647621318,
                -0.07029594328688815,
                -0.6403408844937443,
                0.48036203745492423
            ]
        },
        {
            "positions": [
                0.8892164949355623,
                -1.0087351901031603,
                -0.2432881108317979,
                0.028254390577532096,
                -0.578300482853682,
                0.48291818840491063
            ]
        },
        {
            "positions": [
                0.7760673677383487,
                -0.9940099146616186,
                -0.13851745690146355,
                0.12680472444195257,
                -0.5162600812136195,
                0.4854743393548971
            ]
        },
        {
            "positions": [
                0.6629182405411354,
                -0.9792846392200769,
                -0.03374680297112942,
                0.2253550583063728,
                -0.45421967957355713,
                0.48803049030488355
            ]
        },
        {
            "positions": [
                0.5497691133439218,
                -0.9645593637785351,
                0.07102385095920494,
                0.3239053921707933,
                -0.3921792779334947,
                0.49058664125486995
            ]
        },
        {
            "positions": [
                0.43661998614670816,
                -0.9498340883369935,
                0.17579450488953907,
                0.42245572603521353,
                -0.3301388762934325,
                0.4931427922048564
            ]
        },
        {
            "positions": [
                0.32347085894949457,
                -0.9351088128954517,
                0.2805651588198732,
                0.521006059899634,
                -0.2680984746533699,
                0.49569894315484286
            ]
        },
        {
            "positions": [
                0.21032173175228142,
                -0.92038353745391,
                0.38533581275020734,
                0.6195563937640545,
                -0.2060580730133077,
                0.49825509410482927
            ]
        },
        {
            "positions": [
                0.09717260455506738,
                -0.9056582620123683,
                0.4901064666805415,
                0.7181067276284749,
                -0.14401767137324506,
                0.5008112450548158
            ]
        },
        {
            "positions": [
                -0.015976522642145774,
                -0.8909329865708266,
                0.5948771206108756,
                0.816657061492895,
                -0.08197726973318287,
                0.5033673960048022
            ]
        },
        {
            "positions": [
                -0.12912564983935937,
                -0.876207711129285,
                0.6996477745412102,
                0.9152073953573154,
                -0.019936868093120452,
                0.5059235469547886
            ]
        },
        {
            "positions": [
                -0.24227477703657296,
                -0.8614824356877433,
                0.8044184284715443,
                1.013757729221736,
                0.04210353354694196,
                0.5084796979047751
            ]
        },
        {
            "positions": [
                -0.35542390423378656,
                -0.8467571602462015,
                0.9091890824018782,
                1.1123080630861564,
                0.10414393518700446,
                0.5110358488547615
            ]
        },
        {
            "positions": [
                -0.2955793527394544,
                -0.8379407665052261,
                1.0442132212397885,
                1.2119293321624227,
                0.07506607312152092,
                0.44942290560607845
            ]
        },
        {
            "positions": [
                -0.23573480124512228,
                -0.8291243727642508,
                1.1792373600776989,
                1.311550601238689,
                0.045988211056037384,
                0.38780996235739545
            ]
        },
        {
            "positions": [
                -0.17589024975079015,
                -0.8203079790232755,
                1.3142614989156092,
                1.4111718703149556,
                0.016910348990553853,
                0.3261970191087124
            ]
        },
        {
            "positions": [
                -0.116045698256458,
                -0.8114915852823,
                1.4492856377535195,
                1.510793139391222,
                -0.012167513074929692,
                0.2645840758600294
            ]
        },
        {
            "positions": [
                -0.05620114676212584,
                -0.8026751915413246,
                1.5843097765914298,
                1.6104144084674883,
                -0.04124537514041324,
                0.20297113261134636
            ]
        },
        {
            "positions": [
                0.003643404732206257,
                -0.7938587978003493,
                1.71933391542934,
                1.7100356775437549,
                -0.07032323720589675,
                0.1413581893626633
            ]
        },
        {
            "positions": [
                0.06348795622653841,
                -0.785042404059374,
                1.8543580542672504,
                1.8096569466200212,
                -0.0994010992713803,
                0.07974524611398032
            ]
        },
        {
            "positions": [
                0.12333250772087057,
                -0.7762260103183986,
                1.9893821931051607,
                1.9092782156962875,
                -0.12847896133686385,
                0.018132302865297243
            ]
        }
    ]
}{
    "goal": {
        "global_pose": {
            "orientation": {
                "w": 0.7047431468963623,
                "x": -0.7094548344612122,
                "y": 0.0024358443915843964,
                "z": -0.0022348060738295317
            },
            "position": {
                "x": 0.6094750761985779,
                "y": 0.3671506643295288,
                "z": 0.19426114857196808
            }
        },
        "name": "move_to_magneteinheit_A"
    },
    "id": "EST_move_to_magneteinheit_A_101",
    "joint_names": [
        "shoulder_pan_joint",
        "shoulder_lift_joint",
        "elbow_joint",
        "wrist_1_joint",
        "wrist_2_joint",
        "wrist_3_joint"
    ],
    "metrics": {
        "cart_traj_len": 1.2494895032861666,
        "distance_elbow_joint": 0.06924825294134385,
        "distance_shoulder_lift_joint": 1.120653248017768,
        "distance_shoulder_pan_joint": 1.241452628274686,
        "distance_wrist_1_joint": 3.5002407578565027,
        "distance_wrist_2_joint": 1.6935405325090467,
        "distance_wrist_3_joint": 1.1057514645509414,
        "smoothness": 6.291263845587044e-16,
        "time": 0.038835931,
        "traj_len": 2.954807419130778,
        "weighted_distance": 4.016985325292803
    },
    "planner": "EST",
    "start": {
        "state": {
            "elbow_joint": 1.919643534880228,
            "shoulder_lift_joint": -1.8972525353963687,
            "shoulder_pan_joint": -1.1188672234189438,
            "wrist_1_joint": -1.5931878212786155,
            "wrist_2_joint": 1.5706036197970081,
            "wrist_3_joint": 1.118896926603594
        }
    },
    "waypoints": [
        {
            "positions": [
                -1.1188672234189438,
                -1.8972525353963687,
                1.919643534880228,
                -1.5931878212786155,
                1.5706036197970081,
                1.118896926603594
            ]
        },
        {
            "positions": [
                -1.0648910221896097,
                -1.8485284811347267,
                1.9226543284863735,
                -1.4410034405022458,
                1.4969714227313975,
                1.0708207759709443
            ]
        },
        {
            "positions": [
                -1.0109148209602754,
                -1.7998044268730846,
                1.925665122092519,
                -1.2888190597258762,
                1.4233392256657866,
                1.0227446253382948
            ]
        },
        {
            "positions": [
                -0.9569386197309413,
                -1.7510803726114426,
                1.9286759156986641,
                -1.1366346789495063,
                1.349707028600176,
                0.9746684747056451
            ]
        },
        {
            "positions": [
                -0.9029624185016072,
                -1.7023563183498003,
                1.9316867093048096,
                -0.9844502981731368,
                1.2760748315345651,
                0.9265923240729954
            ]
        },
        {
            "positions": [
                -0.848986217272273,
                -1.6536322640881582,
                1.934697502910955,
                -0.832265917396767,
                1.2024426344689545,
                0.8785161734403458
            ]
        },
        {
            "positions": [
                -0.7950100160429387,
                -1.6049082098265162,
                1.9377082965171004,
                -0.6800815366203974,
                1.1288104374033439,
                0.8304400228076962
            ]
        },
        {
            "positions": [
                -0.7410338148136046,
                -1.556184155564874,
                1.9407190901232458,
                -0.5278971558440275,
                1.055178240337733,
                0.7823638721750465
            ]
        },
        {
            "positions": [
                -0.6870576135842704,
                -1.507460101303232,
                1.9437298837293913,
                -0.3757127750676581,
                0.9815460432721224,
                0.734287721542397
            ]
        },
        {
            "positions": [
                -0.6330814123549362,
                -1.45873604704159,
                1.9467406773355365,
                -0.22352839429128823,
                0.9079138462065116,
                0.6862115709097474
            ]
        },
        {
            "positions": [
                -0.5791052111256021,
                -1.410011992779948,
                1.9497514709416819,
                -0.07134401351491859,
                0.8342816491409009,
                0.6381354202770977
            ]
        },
        {
            "positions": [
                -0.5251290098962679,
                -1.3612879385183057,
                1.9527622645478273,
                0.08084036726145105,
                0.7606494520752901,
                0.5900592696444481
            ]
        },
        {
            "positions": [
                -0.47115280866693376,
                -1.3125638842566638,
                1.9557730581539727,
                0.2330247480378207,
                0.6870172550096795,
                0.5419831190117984
            ]
        },
        {
            "positions": [
                -0.41717660743759966,
                -1.2638398299950215,
                1.9587838517601182,
                0.38520912881419034,
                0.6133850579440687,
                0.4939069683791488
            ]
        },
        {
            "positions": [
                -0.3632004062082653,
                -1.2151157757333795,
                1.9617946453662636,
                0.5373935095905604,
                0.5397528608784579,
                0.44583081774649913
            ]
        },
        {
            "positions": [
                -0.3092242049789312,
                -1.1663917214717374,
                1.9648054389724088,
                0.6895778903669296,
                0.4661206638128472,
                0.39775466711384955
            ]
        },
        {
            "positions": [
                -0.255248003749597,
                -1.1176676672100954,
                1.9678162325785542,
                0.8417622711432993,
                0.3924884667472366,
                0.34967851648119996
            ]
        },
        {
            "positions": [
                -0.2012718025202629,
                -1.0689436129484533,
                1.9708270261846996,
                0.9939466519196689,
                0.31885626968162595,
                0.3016023658485504
            ]
        },
        {
            "positions": [
                -0.14729560129092867,
                -1.020219558686811,
                1.973837819790845,
                1.146131032696039,
                0.2452240726160151,
                0.2535262152159007
            ]
        },
        {
            "positions": [
                -0.09331940006159445,
                -0.9714955044251691,
                1.9768486133969905,
                1.2983154134724086,
                0.17159187555040445,
                0.2054500645832511
            ]
        },
        {
            "positions": [
                -0.03934319883226034,
                -0.922771450163527,
                1.979859407003136,
                1.4504997942487783,
                0.09795967848479359,
                0.1573739139506014
            ]
        },
        {
            "positions": [
                0.014633002397073769,
                -0.8740473959018851,
                1.982870200609281,
                1.6026841750251475,
                0.02432748141918295,
                0.10929776331795193
            ]
        },
        {
            "positions": [
                0.0686092036264081,
                -0.8253233416402428,
                1.9858809942154265,
                1.7548685558015176,
                -0.04930471564642791,
                0.06122161268530224
            ]
        },
        {
            "positions": [
                0.12258540485574212,
                -0.7765992873786007,
                1.988891787821572,
                1.9070529365778872,
                -0.12293691271203865,
                0.013145462052652497
            ]
        }
    ]
}