{
    "goal": {
        "global_pose": {
            "orientation": {
                "w": 0.5084816217422485,
                "x": -0.49083608388900757,
                "y": 0.5182115435600281,
                "z": -0.4816462993621826
            },
            "position": {
                "x": 0.5540239810943604,
                "y": 0.030875300988554955,
                "z": 0.16403168439865112
            }
        },
        "name": "move_to_storage_A"
    },
    "id": "EST_move_to_storage_A_23",
    "joint_names": [
        "shoulder_pan_joint",
        "shoulder_lift_joint",
        "elbow_joint",
        "wrist_1_joint",
        "wrist_2_joint",
        "wrist_3_joint"
    ],
    "metrics": {
        "cart_traj_len": 0.35374262174869453,
        "distance_elbow_joint": 0.4499508642794301,
        "distance_shoulder_lift_joint": 0.23362893814748342,
        "distance_shoulder_pan_joint": 0.4628829658930733,
        "distance_wrist_1_joint": 0.24081259035897518,
        "distance_wrist_2_joint": 1.0986363589626662,
        "distance_wrist_3_joint": 0.10553037184671554,
        "smoothness": 0.0,
        "time": 0.09843096099999998,
        "traj_len": 1.6097956669988722,
        "weighted_distance": 2.035178562805587
    },
    "planner": "EST",
    "start": {
        "state": {
            "elbow_joint": 1.9715477243005601,
            "shoulder_lift_joint": -1.1394853015351272,
            "shoulder_pan_joint": 0.12281154014795169,
            "wrist_1_joint": -0.7804696478968182,
            "wrist_2_joint": 0.12958648046900423,
            "wrist_3_joint": -3.192491284697111
        }
    },
    "waypoints": [
        {
            "positions": [
                0.12281154014795169,
                -1.1394853015351272,
                1.9715477243005601,
                -0.7804696478968182,
                0.12958648046900423,
                -3.192491284697111
            ]
        },
        {
            "positions": [
                0.05668540216322693,
                -1.1728608641276248,
                2.0358264191976216,
                -0.8148714465195289,
                0.28653453174938515,
                -3.1774155172904375
            ]
        },
        {
            "positions": [
                -0.009440735821497834,
                -1.2062364267201224,
                2.100105114094683,
                -0.8492732451422397,
                0.443482583029766,
                -3.1623397498837638
            ]
        },
        {
            "positions": [
                -0.07556687380622258,
                -1.23961198931262,
                2.1643838089917447,
                -0.8836750437649503,
                0.6004306343101469,
                -3.14726398247709
            ]
        },
        {
            "positions": [
                -0.14169301179094734,
                -1.2729875519051177,
                2.2286625038888057,
                -0.9180768423876611,
                0.7573786855905278,
                -3.132188215070417
            ]
        },
        {
            "positions": [
                -0.20781914977567212,
                -1.3063631144976153,
                2.292941198785867,
                -0.9524786410103718,
                0.9143267368709087,
                -3.117112447663743
            ]
        },
        {
            "positions": [
                -0.27394528776039684,
                -1.339738677090113,
                2.3572198936829287,
                -0.9868804396330826,
                1.0712747881512894,
                -3.1020366802570694
            ]
        },
        {
            "positions": [
                -0.3400714257451216,
                -1.3731142396826106,
                2.4214985885799902,
                -1.0212822382557933,
                1.2282228394316703,
                -3.0869609128503956
            ]
        }
    ]
}