{
    "goal": {
        "global_pose": {
            "orientation": {
                "w": 0.7047431468963623,
                "x": -0.7094548344612122,
                "y": 0.0024358443915843964,
                "z": -0.0022348060738295317
            },
            "position": {
                "x": 0.6094750761985779,
                "y": 0.3671506643295288,
                "z": 0.19426114857196808
            }
        },
        "name": "move_to_magneteinheit_A"
    },
    "id": "EST_move_to_magneteinheit_A_99",
    "joint_names": [
        "shoulder_pan_joint",
        "shoulder_lift_joint",
        "elbow_joint",
        "wrist_1_joint",
        "wrist_2_joint",
        "wrist_3_joint"
    ],
    "metrics": {
        "cart_traj_len": 3.0078974425418608,
        "distance_elbow_joint": 3.907923005905457,
        "distance_shoulder_lift_joint": 0.4774111425048475,
        "distance_shoulder_pan_joint": 2.91994909952638,
        "distance_wrist_1_joint": 3.4518928725637106,
        "distance_wrist_2_joint": 1.443416503666862,
        "distance_wrist_3_joint": 3.810349767680868,
        "smoothness": 0.21053295452640863,
        "time": 0.167643617,
        "traj_len": 4.001367565201694,
        "weighted_distance": 5.341062750374726
    },
    "planner": "EST",
    "start": {
        "state": {
            "elbow_joint": -1.919618573717145,
            "shoulder_lift_joint": -1.2443395971678275,
            "shoulder_pan_joint": 2.6996025300909787,
            "wrist_1_joint": -1.548550951253194,
            "wrist_2_joint": -1.5709469090946802,
            "wrist_3_joint": 0.4420197732051276
        }
    },
    "waypoints": [
        {
            "positions": [
                2.6996025300909787,
                -1.2443395971678275,
                -1.919618573717145,
                -1.548550951253194,
                -1.5709469090946802,
                0.4420197732051276
            ]
        },
        {
            "positions": [
                2.5789475285552736,
                -1.244544672244239,
                -1.827945828076437,
                -1.4870632790021963,
                -1.543946835841762,
                0.5267314262927982
            ]
        },
        {
            "positions": [
                2.458292527019568,
                -1.2447497473206504,
                -1.7362730824357286,
                -1.4255756067511987,
                -1.5169467625888442,
                0.6114430793804688
            ]
        },
        {
            "positions": [
                2.337637525483863,
                -1.244954822397062,
                -1.6446003367950206,
                -1.3640879345002008,
                -1.4899466893359261,
                0.6961547324681394
            ]
        },
        {
            "positions": [
                2.216982523948158,
                -1.2451598974734734,
                -1.5529275911543123,
                -1.3026002622492032,
                -1.462946616083008,
                0.7808663855558102
            ]
        },
        {
            "positions": [
                2.0963275224124525,
                -1.245364972549885,
                -1.4612548455136043,
                -1.2411125899982054,
                -1.4359465428300902,
                0.8655780386434808
            ]
        },
        {
            "positions": [
                1.9756725208767474,
                -1.2455700476262965,
                -1.369582099872896,
                -1.1796249177472076,
                -1.408946469577172,
                0.9502896917311514
            ]
        },
        {
            "positions": [
                1.8550175193410423,
                -1.2457751227027078,
                -1.277909354232188,
                -1.11813724549621,
                -1.381946396324254,
                1.035001344818822
            ]
        },
        {
            "positions": [
                1.734362517805337,
                -1.2459801977791194,
                -1.1862366085914797,
                -1.0566495732452121,
                -1.354946323071336,
                1.1197129979064928
            ]
        },
        {
            "positions": [
                1.6137075162696317,
                -1.246185272855531,
                -1.0945638629507717,
                -0.9951619009942144,
                -1.327946249818418,
                1.2044246509941634
            ]
        },
        {
            "positions": [
                1.4930525147339266,
                -1.2463903479319423,
                -1.0028911173100634,
                -0.9336742287432167,
                -1.3009461765655,
                1.289136304081834
            ]
        },
        {
            "positions": [
                1.3723975131982213,
                -1.2465954230083538,
                -0.9112183716693554,
                -0.8721865564922189,
                -1.2739461033125818,
                1.3738479571695046
            ]
        },
        {
            "positions": [
                1.2517425116625163,
                -1.2468004980847653,
                -0.8195456260286473,
                -0.8106988842412213,
                -1.246946030059664,
                1.4585596102571752
            ]
        },
        {
            "positions": [
                1.131087510126811,
                -1.2470055731611769,
                -0.7278728803879391,
                -0.7492112119902234,
                -1.219945956806746,
                1.543271263344846
            ]
        },
        {
            "positions": [
                1.010432508591106,
                -1.2472106482375884,
                -0.636200134747231,
                -0.6877235397392258,
                -1.1929458835538278,
                1.6279829164325164
            ]
        },
        {
            "positions": [
                0.8897775070554006,
                -1.2474157233139997,
                -0.5445273891065228,
                -0.626235867488228,
                -1.1659458103009097,
                1.7126945695201872
            ]
        },
        {
            "positions": [
                0.7691225055196953,
                -1.2476207983904113,
                -0.4528546434658145,
                -0.5647481952372302,
                -1.1389457370479918,
                1.797406222607858
            ]
        },
        {
            "positions": [
                0.6484675039839902,
                -1.2478258734668228,
                -0.3611818978251067,
                -0.5032605229862326,
                -1.1119456637950738,
                1.8821178756955284
            ]
        },
        {
            "positions": [
                0.5278125024482847,
                -1.2480309485432342,
                -0.2695091521843984,
                -0.44177285073523476,
                -1.0849455905421557,
                1.9668295287831992
            ]
        },
        {
            "positions": [
                0.4071575009125801,
                -1.2482360236196457,
                -0.17783640654369037,
                -0.38028517848423715,
                -1.0579455172892378,
                2.0515411818708693
            ]
        },
        {
            "positions": [
                0.2865024993768748,
                -1.2484410986960572,
                -0.08616366090298216,
                -0.3187975062332392,
                -1.0309454440363197,
                2.1362528349585403
            ]
        },
        {
            "positions": [
                0.2667393389799566,
                -1.2320676040208132,
                0.021101316349143376,
                -0.21275924473494368,
                -0.9816050098949616,
                2.0443256585522613
            ]
        },
        {
            "positions": [
                0.24697617858303839,
                -1.215694109345569,
                0.12836629360126892,
                -0.10672098323664811,
                -0.9322645757536033,
                1.9523984821459823
            ]
        },
        {
            "positions": [
                0.22721301818612022,
                -1.199320614670325,
                0.23563127085339447,
                -0.000682721738352543,
                -0.8829241416122452,
                1.8604713057397033
            ]
        },
        {
            "positions": [
                0.207449857789202,
                -1.182947119995081,
                0.34289624810552,
                0.105355539759943,
                -0.8335837074708871,
                1.7685441293334243
            ]
        },
        {
            "positions": [
                0.18768669739228383,
                -1.1665736253198369,
                0.4501612253576455,
                0.2113938012582386,
                -0.7842432733295288,
                1.676616952927145
            ]
        },
        {
            "positions": [
                0.16792353699536564,
                -1.1502001306445928,
                0.5574262026097712,
                0.31743206275653413,
                -0.7349028391881707,
                1.584689776520866
            ]
        },
        {
            "positions": [
                0.14816037659844744,
                -1.133826635969349,
                0.6646911798618966,
                0.42347032425482967,
                -0.6855624050468125,
                1.4927626001145873
            ]
        },
        {
            "positions": [
                0.12839721620152925,
                -1.117453141294105,
                0.7719561571140221,
                0.5295085857531252,
                -0.6362219709054544,
                1.400835423708308
            ]
        },
        {
            "positions": [
                0.10863405580461108,
                -1.1010796466188608,
                0.8792211343661476,
                0.6355468472514207,
                -0.5868815367640963,
                1.308908247302029
            ]
        },
        {
            "positions": [
                0.08887089540769288,
                -1.0847061519436167,
                0.9864861116182733,
                0.7415851087497164,
                -0.537541102622738,
                1.2169810708957498
            ]
        },
        {
            "positions": [
                0.06910773501077469,
                -1.0683326572683727,
                1.093751088870399,
                0.8476233702480119,
                -0.4882006684813799,
                1.1250538944894708
            ]
        },
        {
            "positions": [
                0.049344574613856496,
                -1.0519591625931286,
                1.2010160661225244,
                0.9536616317463075,
                -0.43886023434002164,
                1.0331267180831918
            ]
        },
        {
            "positions": [
                0.02958141421693833,
                -1.0355856679178845,
                1.3082810433746497,
                1.059699893244603,
                -0.3895198001986636,
                0.941199541676913
            ]
        },
        {
            "positions": [
                0.009818253820020106,
                -1.0192121732426405,
                1.4155460206267754,
                1.1657381547428987,
                -0.34017936605730537,
                0.849272365270634
            ]
        },
        {
            "positions": [
                -0.00994490657689806,
                -1.0028386785673964,
                1.5228109978789008,
                1.271776416241194,
                -0.29083893191594723,
                0.7573451888643548
            ]
        },
        {
            "positions": [
                -0.029708066973816283,
                -0.9864651838921524,
                1.6300759751310265,
                1.3778146777394897,
                -0.24149849777458898,
                0.6654180124580757
            ]
        },
        {
            "positions": [
                -0.04947122737073445,
                -0.9700916892169084,
                1.737340952383152,
                1.483852939237785,
                -0.19215806363323085,
                0.5734908360517966
            ]
        },
        {
            "positions": [
                -0.0152961589578011,
                -0.9310996429174145,
                1.7875336483441837,
                1.5677507356523313,
                -0.17923253199214823,
                0.4628198946476543
            ]
        },
        {
            "positions": [
                0.01887890945513225,
                -0.8921075966179208,
                1.8377263443052154,
                1.6516485320668775,
                -0.16630700035106563,
                0.3521489532435119
            ]
        },
        {
            "positions": [
                0.05305397786806561,
                -0.853115550318427,
                1.8879190402662474,
                1.7355463284814237,
                -0.153381468709983,
                0.24147801183936957
            ]
        },
        {
            "positions": [
                0.08722904628099895,
                -0.8141235040189332,
                1.938111736227279,
                1.8194441248959698,
                -0.14045593706890042,
                0.1308070704352272
            ]
        },
        {
            "positions": [
                0.12140411469393231,
                -0.7751314577194395,
                1.9883044321883108,
                1.903341921310516,
                -0.1275304054278178,
                0.020136129031084825
            ]
        }
    ]
}{
    "goal": {
        "global_pose": {
            "orientation": {
                "w": 0.7047431468963623,
                "x": -0.7094548344612122,
                "y": 0.0024358443915843964,
                "z": -0.0022348060738295317
            },
            "position": {
                "x": 0.6094750761985779,
                "y": 0.3671506643295288,
                "z": 0.19426114857196808
            }
        },
        "name": "move_to_magneteinheit_A"
    },
    "id": "EST_move_to_magneteinheit_A_99",
    "joint_names": [
        "shoulder_pan_joint",
        "shoulder_lift_joint",
        "elbow_joint",
        "wrist_1_joint",
        "wrist_2_joint",
        "wrist_3_joint"
    ],
    "metrics": {
        "cart_traj_len": 1.222409238178621,
        "distance_elbow_joint": 0.14988086751802232,
        "distance_shoulder_lift_joint": 0.7518247198080499,
        "distance_shoulder_pan_joint": 1.2413919507559243,
        "distance_wrist_1_joint": 0.7489544702707551,
        "distance_wrist_2_joint": 1.7393498220291206,
        "distance_wrist_3_joint": 4.251614509890682,
        "smoothness": 0.29393725612907823,
        "time": 0.176311767,
        "traj_len": 2.9804389509386953,
        "weighted_distance": 4.4580881162617
    },
    "planner": "EST",
    "start": {
        "state": {
            "elbow_joint": 1.919643534880228,
            "shoulder_lift_joint": -1.8972525353963687,
            "shoulder_pan_joint": -1.1188672234189438,
            "wrist_1_joint": -1.5931878212786155,
            "wrist_2_joint": 1.5706036197970081,
            "wrist_3_joint": 1.118896926603594
        }
    },
    "waypoints": [
        {
            "positions": [
                -1.1188672234189438,
                -1.8972525353963687,
                1.919643534880228,
                -1.5931878212786155,
                1.5706036197970081,
                1.118896926603594
            ]
        },
        {
            "positions": [
                -1.0626433533743813,
                -1.8642802025235745,
                1.917613885541418,
                -1.5628518405043008,
                1.4946508380378036,
                0.923425565061803
            ]
        },
        {
            "positions": [
                -1.0064194833298188,
                -1.8313078696507803,
                1.9155842362026079,
                -1.532515859729986,
                1.4186980562785991,
                0.7279542035200119
            ]
        },
        {
            "positions": [
                -0.9501956132852564,
                -1.798335536777986,
                1.913554586863798,
                -1.5021798789556713,
                1.3427452745193946,
                0.5324828419782209
            ]
        },
        {
            "positions": [
                -0.8939717432406938,
                -1.7653632039051919,
                1.9115249375249879,
                -1.4718438981813566,
                1.2667924927601901,
                0.3370114804364299
            ]
        },
        {
            "positions": [
                -0.8377478731961314,
                -1.7323908710323976,
                1.9094952881861778,
                -1.441507917407042,
                1.1908397110009856,
                0.1415401188946389
            ]
        },
        {
            "positions": [
                -0.7815240031515689,
                -1.6994185381596034,
                1.9074656388473676,
                -1.411171936632727,
                1.1148869292417813,
                -0.0539312426471521
            ]
        },
        {
            "positions": [
                -0.7253001331070064,
                -1.6664462052868092,
                1.9054359895085577,
                -1.3808359558584125,
                1.0389341474825768,
                -0.249402604188943
            ]
        },
        {
            "positions": [
                -0.6690762630624438,
                -1.633473872414015,
                1.9034063401697476,
                -1.3504999750840978,
                0.9629813657233723,
                -0.4448739657307341
            ]
        },
        {
            "positions": [
                -0.6128523930178814,
                -1.6005015395412208,
                1.9013766908309375,
                -1.320163994309783,
                0.8870285839641678,
                -0.640345327272525
            ]
        },
        {
            "positions": [
                -0.5566285229733189,
                -1.5675292066684263,
                1.8993470414921274,
                -1.2898280135354683,
                0.8110758022049633,
                -0.8358166888143161
            ]
        },
        {
            "positions": [
                -0.5004046529287564,
                -1.534556873795632,
                1.8973173921533175,
                -1.2594920327611536,
                0.7351230204457588,
                -1.0312880503561075
            ]
        },
        {
            "positions": [
                -0.44418078288419394,
                -1.5015845409228379,
                1.8952877428145074,
                -1.229156051986839,
                0.6591702386865544,
                -1.2267594118978982
            ]
        },
        {
            "positions": [
                -0.3879569128396313,
                -1.4686122080500437,
                1.8932580934756973,
                -1.198820071212524,
                0.5832174569273498,
                -1.4222307734396893
            ]
        },
        {
            "positions": [
                -0.3317330427950689,
                -1.4356398751772494,
                1.8912284441368872,
                -1.1684840904382094,
                0.5072646751681456,
                -1.61770213498148
            ]
        },
        {
            "positions": [
                -0.27550917275050635,
                -1.4026675423044552,
                1.8891987947980773,
                -1.1381481096638948,
                0.4313118934089408,
                -1.8131734965232715
            ]
        },
        {
            "positions": [
                -0.21928530270594393,
                -1.369695209431661,
                1.8871691454592672,
                -1.10781212888958,
                0.35535911164973655,
                -2.008644858065062
            ]
        },
        {
            "positions": [
                -0.1630614326613814,
                -1.3367228765588668,
                1.885139496120457,
                -1.0774761481152653,
                0.27940632989053205,
                -2.2041162196068536
            ]
        },
        {
            "positions": [
                -0.10683756261681898,
                -1.3037505436860726,
                1.883109846781647,
                -1.0471401673409506,
                0.20345354813132754,
                -2.3995875811486442
            ]
        },
        {
            "positions": [
                -0.05061369257225645,
                -1.2707782108132784,
                1.881080197442837,
                -1.016804186566636,
                0.12750076637212304,
                -2.595058942690436
            ]
        },
        {
            "positions": [
                0.005610177472306077,
                -1.2378058779404841,
                1.879050548104027,
                -0.9864682057923212,
                0.05154798461291854,
                -2.7905303042322265
            ]
        },
        {
            "positions": [
                0.06183404751686866,
                -1.20483354506769,
                1.8770208987652168,
                -0.9561322250180064,
                -0.02440479714628589,
                -2.9860016657740176
            ]
        },
        {
            "positions": [
                0.09217938742692464,
                -1.1751306803280044,
                1.9306500144667225,
                -0.9001827880129334,
                0.04776590539662734,
                -3.0593596245305523
            ]
        },
        {
            "positions": [
                0.12252472733698062,
                -1.1454278155883189,
                1.9842791301682279,
                -0.8442333510078603,
                0.11993660793954058,
                -3.1327175832870866
            ]
        }
    ]
}