{
    "goal": {
        "global_pose": {
            "orientation": {
                "w": 0.5084816217422485,
                "x": -0.49083608388900757,
                "y": 0.5182115435600281,
                "z": -0.4816462993621826
            },
            "position": {
                "x": 0.5540239810943604,
                "y": 0.030875300988554955,
                "z": 0.16403168439865112
            }
        },
        "name": "move_to_storage_A"
    },
    "id": "EST_move_to_storage_A_90",
    "joint_names": [
        "shoulder_pan_joint",
        "shoulder_lift_joint",
        "elbow_joint",
        "wrist_1_joint",
        "wrist_2_joint",
        "wrist_3_joint"
    ],
    "metrics": {
        "cart_traj_len": 0.35306391956898336,
        "distance_elbow_joint": 0.4495024576487534,
        "distance_shoulder_lift_joint": 0.23388592693521004,
        "distance_shoulder_pan_joint": 0.4619811385017594,
        "distance_wrist_1_joint": 0.24246701979502394,
        "distance_wrist_2_joint": 1.0971107905665227,
        "distance_wrist_3_joint": 0.10242608358548733,
        "smoothness": 4.440892098500626e-16,
        "time": 0.04985192,
        "traj_len": 1.6085314473247818,
        "weighted_distance": 2.0326837910912947
    },
    "planner": "EST",
    "start": {
        "state": {
            "elbow_joint": 1.9715477243005601,
            "shoulder_lift_joint": -1.1394853015351272,
            "shoulder_pan_joint": 0.12281154014795169,
            "wrist_1_joint": -0.7804696478968182,
            "wrist_2_joint": 0.12958648046900423,
            "wrist_3_joint": -3.192491284697111
        }
    },
    "waypoints": [
        {
            "positions": [
                0.12281154014795169,
                -1.1394853015351272,
                1.9715477243005601,
                -0.7804696478968182,
                0.12958648046900423,
                -3.192491284697111
            ]
        },
        {
            "positions": [
                0.05681423464770034,
                -1.1728975768115857,
                2.035762361107525,
                -0.8151077935818216,
                0.28631659340707893,
                -3.1778589870420415
            ]
        },
        {
            "positions": [
                -0.009183070852551004,
                -1.2063098520880444,
                2.0999769979144896,
                -0.849745939266825,
                0.4430467063451536,
                -3.163226689386972
            ]
        },
        {
            "positions": [
                -0.07518037635280235,
                -1.239722127364503,
                2.1641916347214543,
                -0.8843840849518284,
                0.5997768192832282,
                -3.148594391731902
            ]
        },
        {
            "positions": [
                -0.14117768185305368,
                -1.2731344026409614,
                2.228406271528419,
                -0.9190222306368319,
                0.7565069322213029,
                -3.133962094076833
            ]
        },
        {
            "positions": [
                -0.20717498735330503,
                -1.30654667791742,
                2.292620908335384,
                -0.9536603763218352,
                0.9132370451593776,
                -3.1193297964217632
            ]
        },
        {
            "positions": [
                -0.2731722928535564,
                -1.3399589531938787,
                2.356835545142349,
                -0.9882985220068387,
                1.0699671580974521,
                -3.1046974987666935
            ]
        },
        {
            "positions": [
                -0.3391695983538077,
                -1.3733712284703372,
                2.4210501819493135,
                -1.022936667691842,
                1.226697271035527,
                -3.090065201111624
            ]
        }
    ]
}