{
    "goal": {
        "global_pose": {
            "orientation": {
                "w": 0.5084816217422485,
                "x": -0.49083608388900757,
                "y": 0.5182115435600281,
                "z": -0.4816462993621826
            },
            "position": {
                "x": 0.5540239810943604,
                "y": 0.030875300988554955,
                "z": 0.16403168439865112
            }
        },
        "name": "move_to_storage_A"
    },
    "id": "EST_move_to_storage_A_65",
    "joint_names": [
        "shoulder_pan_joint",
        "shoulder_lift_joint",
        "elbow_joint",
        "wrist_1_joint",
        "wrist_2_joint",
        "wrist_3_joint"
    ],
    "metrics": {
        "cart_traj_len": 0.35338952675428753,
        "distance_elbow_joint": 0.44834879495259106,
        "distance_shoulder_lift_joint": 0.2347117038443609,
        "distance_shoulder_pan_joint": 0.46302140629497046,
        "distance_wrist_1_joint": 0.23674924303478917,
        "distance_wrist_2_joint": 1.095313327781335,
        "distance_wrist_3_joint": 0.09430695482408469,
        "smoothness": 8.881784197001252e-16,
        "time": 0.052187976,
        "traj_len": 1.6038863521871278,
        "weighted_distance": 2.0231480200905776
    },
    "planner": "EST",
    "start": {
        "state": {
            "elbow_joint": 1.9715477243005601,
            "shoulder_lift_joint": -1.1394853015351272,
            "shoulder_pan_joint": 0.12281154014795169,
            "wrist_1_joint": -0.7804696478968182,
            "wrist_2_joint": 0.12958648046900423,
            "wrist_3_joint": -3.192491284697111
        }
    },
    "waypoints": [
        {
            "positions": [
                0.12281154014795169,
                -1.1394853015351272,
                1.9715477243005601,
                -0.7804696478968182,
                0.12958648046900423,
                -3.192491284697111
            ]
        },
        {
            "positions": [
                0.05666562496295591,
                -1.1730155449414645,
                2.0355975521509304,
                -0.8142909683303595,
                0.2860598130091949,
                -3.179018862579385
            ]
        },
        {
            "positions": [
                -0.009480290222039875,
                -1.2065457883478017,
                2.0996473800013002,
                -0.8481122887639008,
                0.4425331455493856,
                -3.1655464404616582
            ]
        },
        {
            "positions": [
                -0.07562620540703564,
                -1.240076031754139,
                2.1636972078516705,
                -0.8819336091974421,
                0.5990064780895763,
                -3.152074018343932
            ]
        },
        {
            "positions": [
                -0.14177212059203143,
                -1.2736062751604762,
                2.227747035702041,
                -0.9157549296309834,
                0.755479810629767,
                -3.1386015962262057
            ]
        },
        {
            "positions": [
                -0.20791803577702722,
                -1.3071365185668136,
                2.291796863552411,
                -0.9495762500645247,
                0.9119531431699578,
                -3.1251291741084795
            ]
        },
        {
            "positions": [
                -0.27406395096202296,
                -1.3406667619731507,
                2.355846691402781,
                -0.983397570498066,
                1.0684264757101483,
                -3.1116567519907528
            ]
        },
        {
            "positions": [
                -0.34020986614701876,
                -1.374197005379488,
                2.419896519253151,
                -1.0172188909316073,
                1.2248998082503393,
                -3.0981843298730265
            ]
        }
    ]
}