{
    "goal": {
        "global_pose": {
            "orientation": {
                "w": 0.5084816217422485,
                "x": -0.49083608388900757,
                "y": 0.5182115435600281,
                "z": -0.4816462993621826
            },
            "position": {
                "x": 0.5540239810943604,
                "y": 0.030875300988554955,
                "z": 0.16403168439865112
            }
        },
        "name": "move_to_storage_A"
    },
    "id": "EST_move_to_storage_A_110",
    "joint_names": [
        "shoulder_pan_joint",
        "shoulder_lift_joint",
        "elbow_joint",
        "wrist_1_joint",
        "wrist_2_joint",
        "wrist_3_joint"
    ],
    "metrics": {
        "cart_traj_len": 0.35288264931900964,
        "distance_elbow_joint": 0.44829176042918784,
        "distance_shoulder_lift_joint": 0.23269061845021444,
        "distance_shoulder_pan_joint": 0.4604167669446423,
        "distance_wrist_1_joint": 0.23904396233327818,
        "distance_wrist_2_joint": 1.1018054755403495,
        "distance_wrist_3_joint": 0.09730897234020164,
        "smoothness": 4.440892133664971e-16,
        "time": 0.025459416,
        "traj_len": 1.606100107726126,
        "weighted_distance": 2.028552424413011
    },
    "planner": "EST",
    "start": {
        "state": {
            "elbow_joint": 1.9715477243005601,
            "shoulder_lift_joint": -1.1394853015351272,
            "shoulder_pan_joint": 0.12281154014795169,
            "wrist_1_joint": -0.7804696478968182,
            "wrist_2_joint": 0.12958648046900423,
            "wrist_3_joint": -3.192491284697111
        }
    },
    "waypoints": [
        {
            "positions": [
                0.12281154014795169,
                -1.1394853015351272,
                1.9715477243005601,
                -0.7804696478968182,
                0.12958648046900423,
                -3.192491284697111
            ]
        },
        {
            "positions": [
                0.05703771629871708,
                -1.1727268184565864,
                2.0355894043618727,
                -0.8146187853730008,
                0.28698726268905417,
                -3.178590002934225
            ]
        },
        {
            "positions": [
                -0.008736107550517527,
                -1.2059683353780455,
                2.0996310844231854,
                -0.8487679228491833,
                0.44438804490910405,
                -3.1646887211713395
            ]
        },
        {
            "positions": [
                -0.07450993139975214,
                -1.2392098522995048,
                2.163672764484498,
                -0.882917060325366,
                0.601788827129154,
                -3.1507874394084534
            ]
        },
        {
            "positions": [
                -0.14028375524898673,
                -1.272451369220964,
                2.22771444454581,
                -0.9170661978015485,
                0.7591896093492039,
                -3.1368861576455673
            ]
        },
        {
            "positions": [
                -0.20605757909822137,
                -1.3056928861424233,
                2.2917561246071227,
                -0.9512153352777312,
                0.9165903915692538,
                -3.1229848758826813
            ]
        },
        {
            "positions": [
                -0.27183140294745595,
                -1.3389344030638823,
                2.3557978046684354,
                -0.9853644727539137,
                1.0739911737893038,
                -3.1090835941197956
            ]
        },
        {
            "positions": [
                -0.3376052267966906,
                -1.3721759199853416,
                2.419839484729748,
                -1.0195136102300963,
                1.2313919560093538,
                -3.0951823123569095
            ]
        }
    ]
}