{
    "goal": {
        "global_pose": {
            "orientation": {
                "w": 0.7047431468963623,
                "x": -0.7094548344612122,
                "y": 0.0024358443915843964,
                "z": -0.0022348060738295317
            },
            "position": {
                "x": 0.6094750761985779,
                "y": 0.3671506643295288,
                "z": 0.19426114857196808
            }
        },
        "name": "move_to_magneteinheit_A"
    },
    "id": "EST_move_to_magneteinheit_A_63",
    "joint_names": [
        "shoulder_pan_joint",
        "shoulder_lift_joint",
        "elbow_joint",
        "wrist_1_joint",
        "wrist_2_joint",
        "wrist_3_joint"
    ],
    "metrics": {
        "cart_traj_len": 3.9855766469873224,
        "distance_elbow_joint": 3.8822402898833355,
        "distance_shoulder_lift_joint": 0.5129688370172822,
        "distance_shoulder_pan_joint": 4.374477194920958,
        "distance_wrist_1_joint": 0.7976235392680436,
        "distance_wrist_2_joint": 1.6951831456724276,
        "distance_wrist_3_joint": 2.614656538842971,
        "smoothness": 0.1929678548815366,
        "time": 0.066190471,
        "traj_len": 3.7252046313732907,
        "weighted_distance": 4.647501404865999
    },
    "planner": "EST",
    "start": {
        "state": {
            "elbow_joint": -1.919618573717145,
            "shoulder_lift_joint": -1.2443395971678275,
            "shoulder_pan_joint": 2.6996025300909787,
            "wrist_1_joint": -1.548550951253194,
            "wrist_2_joint": -1.5709469090946802,
            "wrist_3_joint": 0.4420197732051276
        }
    },
    "waypoints": [
        {
            "positions": [
                2.6996025300909787,
                -1.2443395971678275,
                -1.919618573717145,
                -1.548550951253194,
                -1.5709469090946802,
                0.4420197732051276
            ]
        },
        {
            "positions": [
                2.5484958020891804,
                -1.2307949639328417,
                -1.8449520871852219,
                -1.5207734126440555,
                -1.5424607141615996,
                0.5337497815100897
            ]
        },
        {
            "positions": [
                2.397389074087382,
                -1.217250330697856,
                -1.7702856006532985,
                -1.4929958740349172,
                -1.513974519228519,
                0.6254797898150518
            ]
        },
        {
            "positions": [
                2.2462823460855836,
                -1.2037056974628702,
                -1.6956191141213752,
                -1.4652183354257786,
                -1.4854883242954382,
                0.717209798120014
            ]
        },
        {
            "positions": [
                2.0951756180837853,
                -1.1901610642278844,
                -1.6209526275894521,
                -1.43744079681664,
                -1.4570021293623576,
                0.808939806424976
            ]
        },
        {
            "positions": [
                1.944068890081987,
                -1.1766164309928986,
                -1.546286141057529,
                -1.4096632582075017,
                -1.428515934429277,
                0.9006698147299381
            ]
        },
        {
            "positions": [
                1.7929621620801885,
                -1.1630717977579128,
                -1.4716196545256057,
                -1.3818857195983631,
                -1.4000297394961965,
                0.9923998230349003
            ]
        },
        {
            "positions": [
                1.6418554340783902,
                -1.149527164522927,
                -1.3969531679936824,
                -1.3541081809892246,
                -1.371543544563116,
                1.0841298313398624
            ]
        },
        {
            "positions": [
                1.4907487060765918,
                -1.1359825312879412,
                -1.3222866814617593,
                -1.326330642380086,
                -1.343057349630035,
                1.1758598396448245
            ]
        },
        {
            "positions": [
                1.3396419780747935,
                -1.1224378980529555,
                -1.247620194929836,
                -1.2985531037709477,
                -1.3145711546969545,
                1.2675898479497867
            ]
        },
        {
            "positions": [
                1.188535250072995,
                -1.10889326481797,
                -1.172953708397913,
                -1.2707755651618091,
                -1.286084959763874,
                1.3593198562547488
            ]
        },
        {
            "positions": [
                1.0374285220711967,
                -1.0953486315829841,
                -1.0982872218659896,
                -1.2429980265526706,
                -1.2575987648307934,
                1.451049864559711
            ]
        },
        {
            "positions": [
                0.8863217940693984,
                -1.0818039983479983,
                -1.0236207353340665,
                -1.2152204879435322,
                -1.2291125698977128,
                1.542779872864673
            ]
        },
        {
            "positions": [
                0.7352150660676002,
                -1.0682593651130126,
                -0.9489542488021433,
                -1.1874429493343936,
                -1.200626374964632,
                1.634509881169635
            ]
        },
        {
            "positions": [
                0.5841083380658016,
                -1.0547147318780268,
                -0.8742877622702199,
                -1.159665410725255,
                -1.1721401800315514,
                1.7262398894745974
            ]
        },
        {
            "positions": [
                0.4330016100640033,
                -1.041170098643041,
                -0.7996212757382968,
                -1.1318878721161165,
                -1.1436539850984708,
                1.8179698977795595
            ]
        },
        {
            "positions": [
                0.2818948820622049,
                -1.0276254654080552,
                -0.7249547892063737,
                -1.1041103335069782,
                -1.1151677901653902,
                1.9096999060845214
            ]
        },
        {
            "positions": [
                0.13078815406040656,
                -1.0140808321730694,
                -0.6502883026744506,
                -1.0763327948978396,
                -1.0866815952323097,
                2.0014299143894836
            ]
        },
        {
            "positions": [
                -0.020318573941391804,
                -1.0005361989380837,
                -0.575621816142527,
                -1.0485552562887013,
                -1.0581954002992289,
                2.0931599226944457
            ]
        },
        {
            "positions": [
                -0.17142530194319017,
                -0.9869915657030979,
                -0.500955329610604,
                -1.0207777176795627,
                -1.0297092053661485,
                2.184889930999408
            ]
        },
        {
            "positions": [
                -0.32253202994498853,
                -0.9734469324681121,
                -0.42628884307868087,
                -0.9930001790704241,
                -1.0012230104330677,
                2.27661993930437
            ]
        },
        {
            "positions": [
                -0.4736387579467869,
                -0.9599022992331263,
                -0.35162235654675755,
                -0.9652226404612857,
                -0.9727368154999871,
                2.368349947609332
            ]
        },
        {
            "positions": [
                -0.6247454859485853,
                -0.9463576659981405,
                -0.27695587001483424,
                -0.9374451018521471,
                -0.9442506205669065,
                2.4600799559142943
            ]
        },
        {
            "positions": [
                -0.7758522139503836,
                -0.9328130327631547,
                -0.20228938348291114,
                -0.9096675632430087,
                -0.9157644256338259,
                2.5518099642192564
            ]
        },
        {
            "positions": [
                -0.7066966408057995,
                -0.9483085921948939,
                -0.03575776043298018,
                -0.8974567823770195,
                -0.8357643746944741,
                2.590645837129167
            ]
        },
        {
            "positions": [
                -0.6375410676612154,
                -0.9638041516266331,
                0.1307738626169508,
                -0.8852460015110305,
                -0.7557643237551224,
                2.6294817100390784
            ]
        },
        {
            "positions": [
                -0.5683854945166313,
                -0.9792997110583723,
                0.29730548566688175,
                -0.8730352206450414,
                -0.6757642728157705,
                2.668317582948989
            ]
        },
        {
            "positions": [
                -0.49922992137204725,
                -0.9947952704901115,
                0.4638371087168127,
                -0.8608244397790523,
                -0.5957642218764188,
                2.7071534558589003
            ]
        },
        {
            "positions": [
                -0.43007434822746315,
                -1.0102908299218507,
                0.6303687317667437,
                -0.8486136589130632,
                -0.515764170937067,
                2.745989328768811
            ]
        },
        {
            "positions": [
                -0.36091877508287906,
                -1.02578638935359,
                0.7969003548166746,
                -0.8364028780470741,
                -0.43576411999771514,
                2.784825201678722
            ]
        },
        {
            "positions": [
                -0.29176320193829497,
                -1.041281948785329,
                0.9634319778666054,
                -0.824192097181085,
                -0.35576406905836344,
                2.823661074588633
            ]
        },
        {
            "positions": [
                -0.22260762879371088,
                -1.0567775082170683,
                1.1299636009165366,
                -0.811981316315096,
                -0.27576401811901163,
                2.8624969474985438
            ]
        },
        {
            "positions": [
                -0.15345205564912678,
                -1.0722730676488075,
                1.2964952239664673,
                -0.7997705354491068,
                -0.19576396717965983,
                2.901332820408455
            ]
        },
        {
            "positions": [
                -0.08429648250454269,
                -1.0877686270805467,
                1.4630268470163985,
                -0.7875597545831177,
                -0.11576391624030802,
                2.9401686933183657
            ]
        },
        {
            "positions": [
                -0.015140909359958599,
                -1.1032641865122859,
                1.6295584700663293,
                -0.7753489737171286,
                -0.03576386530095632,
                2.9790045662282765
            ]
        },
        {
            "positions": [
                0.054014663784625494,
                -1.118759745944025,
                1.7960900931162604,
                -0.7631381928511396,
                0.0442361856383956,
                3.0178404391381877
            ]
        },
        {
            "positions": [
                0.12317023692920963,
                -1.1342553053757642,
                1.9626217161661914,
                -0.7509274119851505,
                0.1242362365777474,
                3.0566763120480984
            ]
        }
    ]
}{
    "goal": {
        "global_pose": {
            "orientation": {
                "w": 0.7047431468963623,
                "x": -0.7094548344612122,
                "y": 0.0024358443915843964,
                "z": -0.0022348060738295317
            },
            "position": {
                "x": 0.6094750761985779,
                "y": 0.3671506643295288,
                "z": 0.19426114857196808
            }
        },
        "name": "move_to_magneteinheit_A"
    },
    "id": "EST_move_to_magneteinheit_A_63",
    "joint_names": [
        "shoulder_pan_joint",
        "shoulder_lift_joint",
        "elbow_joint",
        "wrist_1_joint",
        "wrist_2_joint",
        "wrist_3_joint"
    ],
    "metrics": {
        "cart_traj_len": 1.2678825149417203,
        "distance_elbow_joint": 0.35029376831895753,
        "distance_shoulder_lift_joint": 0.7636107031956778,
        "distance_shoulder_pan_joint": 1.2408118079400923,
        "distance_wrist_1_joint": 1.43460997692989,
        "distance_wrist_2_joint": 1.4360174199642917,
        "distance_wrist_3_joint": 4.362761238980605,
        "smoothness": 0.19882535844912694,
        "time": 0.09722982299999999,
        "traj_len": 3.0964665209443996,
        "weighted_distance": 4.602635635175232
    },
    "planner": "EST",
    "start": {
        "state": {
            "elbow_joint": 1.919643534880228,
            "shoulder_lift_joint": -1.8972525353963687,
            "shoulder_pan_joint": -1.1188672234189438,
            "wrist_1_joint": -1.5931878212786155,
            "wrist_2_joint": 1.5706036197970081,
            "wrist_3_joint": 1.118896926603594
        }
    },
    "waypoints": [
        {
            "positions": [
                -1.1188672234189438,
                -1.8972525353963687,
                1.919643534880228,
                -1.5931878212786155,
                1.5706036197970081,
                1.118896926603594
            ]
        },
        {
            "positions": [
                -1.073131060136867,
                -1.8627595842247888,
                1.9125792346922657,
                -1.5406398166571968,
                1.510513839667221,
                0.933939464911532
            ]
        },
        {
            "positions": [
                -1.0273948968547901,
                -1.828266633053209,
                1.9055149345043032,
                -1.4880918120357782,
                1.450424059537434,
                0.7489820032194701
            ]
        },
        {
            "positions": [
                -0.9816587335727134,
                -1.793773681881629,
                1.8984506343163408,
                -1.4355438074143596,
                1.390334279407647,
                0.5640245415274082
            ]
        },
        {
            "positions": [
                -0.9359225702906366,
                -1.759280730710049,
                1.891386334128378,
                -1.382995802792941,
                1.33024449927786,
                0.37906707983534627
            ]
        },
        {
            "positions": [
                -0.8901864070085598,
                -1.7247877795384692,
                1.8843220339404156,
                -1.3304477981715224,
                1.2701547191480729,
                0.1941096181432843
            ]
        },
        {
            "positions": [
                -0.8444502437264829,
                -1.690294828366889,
                1.8772577337524532,
                -1.2778997935501037,
                1.2100649390182858,
                0.00915215645122247
            ]
        },
        {
            "positions": [
                -0.7987140804444062,
                -1.6558018771953091,
                1.8701934335644907,
                -1.2253517889286851,
                1.1499751588884988,
                -0.17580530524083948
            ]
        },
        {
            "positions": [
                -0.7529779171623293,
                -1.6213089260237292,
                1.8631291333765283,
                -1.1728037843072665,
                1.0898853787587117,
                -0.36076276693290144
            ]
        },
        {
            "positions": [
                -0.7072417538802525,
                -1.5868159748521493,
                1.8560648331885659,
                -1.1202557796858479,
                1.0297955986289247,
                -0.5457202286249636
            ]
        },
        {
            "positions": [
                -0.6615055905981757,
                -1.5523230236805694,
                1.8490005330006034,
                -1.0677077750644293,
                0.9697058184991377,
                -0.7306776903170253
            ]
        },
        {
            "positions": [
                -0.6157694273160988,
                -1.5178300725089895,
                1.8419362328126407,
                -1.0151597704430106,
                0.9096160383693507,
                -0.9156351520090873
            ]
        },
        {
            "positions": [
                -0.5700332640340221,
                -1.4833371213374096,
                1.8348719326246783,
                -0.962611765821592,
                0.8495262582395637,
                -1.100592613701149
            ]
        },
        {
            "positions": [
                -0.5242971007519451,
                -1.4488441701658297,
                1.8278076324367158,
                -0.9100637612001734,
                0.7894364781097766,
                -1.2855500753932112
            ]
        },
        {
            "positions": [
                -0.4785609374698684,
                -1.4143512189942498,
                1.8207433322487534,
                -0.8575157565787548,
                0.7293466979799895,
                -1.470507537085273
            ]
        },
        {
            "positions": [
                -0.43282477418779164,
                -1.3798582678226698,
                1.813679032060791,
                -0.8049677519573363,
                0.6692569178502026,
                -1.6554649987773347
            ]
        },
        {
            "positions": [
                -0.3870886109057148,
                -1.34536531665109,
                1.8066147318728285,
                -0.7524197473359175,
                0.6091671377204154,
                -1.8404224604693968
            ]
        },
        {
            "positions": [
                -0.3413524476236379,
                -1.31087236547951,
                1.799550431684866,
                -0.6998717427144989,
                0.5490773575906285,
                -2.0253799221614592
            ]
        },
        {
            "positions": [
                -0.29561628434156106,
                -1.27637941430793,
                1.7924861314969034,
                -0.6473237380930802,
                0.4889875774608414,
                -2.2103373838535214
            ]
        },
        {
            "positions": [
                -0.24988012105948432,
                -1.24188646313635,
                1.785421831308941,
                -0.5947757334716617,
                0.4288977973310544,
                -2.3952948455455827
            ]
        },
        {
            "positions": [
                -0.20414395777740757,
                -1.2073935119647703,
                1.7783575311209785,
                -0.5422277288502431,
                0.3688080172012673,
                -2.580252307237645
            ]
        },
        {
            "positions": [
                -0.1584077944953306,
                -1.1729005607931902,
                1.771293230933016,
                -0.48967972422882444,
                0.3087182370714803,
                -2.765209768929707
            ]
        },
        {
            "positions": [
                -0.11267163121325385,
                -1.1384076096216103,
                1.7642289307450536,
                -0.43713171960740577,
                0.24862845694169317,
                -2.9501672306217688
            ]
        },
        {
            "positions": [
                -0.034466225968453085,
                -1.1368190171479704,
                1.8291886521396479,
                -0.5299830113602992,
                0.21061437123870094,
                -3.0480662578735163
            ]
        },
        {
            "positions": [
                0.043739179276347684,
                -1.1352304246743308,
                1.8941483735342424,
                -0.6228343031131927,
                0.17260028553570872,
                -3.1459652851252633
            ]
        },
        {
            "positions": [
                0.1219445845211485,
                -1.133641832200691,
                1.9591080949288366,
                -0.7156855948660861,
                0.1345861998327165,
                -3.243864312377011
            ]
        }
    ]
}