{
    "goal": {
        "global_pose": {
            "orientation": {
                "w": 0.7047431468963623,
                "x": -0.7094548344612122,
                "y": 0.0024358443915843964,
                "z": -0.0022348060738295317
            },
            "position": {
                "x": 0.6094750761985779,
                "y": 0.3671506643295288,
                "z": 0.19426114857196808
            }
        },
        "name": "move_to_magneteinheit_A"
    },
    "id": "EST_move_to_magneteinheit_A_37",
    "joint_names": [
        "shoulder_pan_joint",
        "shoulder_lift_joint",
        "elbow_joint",
        "wrist_1_joint",
        "wrist_2_joint",
        "wrist_3_joint"
    ],
    "metrics": {
        "cart_traj_len": 3.6425245250872424,
        "distance_elbow_joint": 3.9408191788571276,
        "distance_shoulder_lift_joint": 0.6643460995077973,
        "distance_shoulder_pan_joint": 3.3149281799005337,
        "distance_wrist_1_joint": 3.5706751274240074,
        "distance_wrist_2_joint": 1.4386898630775986,
        "distance_wrist_3_joint": 2.0023491608711734,
        "smoothness": 0.1973209137472125,
        "time": 0.185592407,
        "traj_len": 3.8641697180168255,
        "weighted_distance": 4.893451841173282
    },
    "planner": "EST",
    "start": {
        "state": {
            "elbow_joint": -1.919618573717145,
            "shoulder_lift_joint": -1.2443395971678275,
            "shoulder_pan_joint": 2.6996025300909787,
            "wrist_1_joint": -1.548550951253194,
            "wrist_2_joint": -1.5709469090946802,
            "wrist_3_joint": 0.4420197732051276
        }
    },
    "waypoints": [
        {
            "positions": [
                2.6996025300909787,
                -1.2443395971678275,
                -1.919618573717145,
                -1.548550951253194,
                -1.5709469090946802,
                0.4420197732051276
            ]
        },
        {
            "positions": [
                2.5944047818755096,
                -1.224334456194902,
                -1.8318603344853035,
                -1.459344145534763,
                -1.5274135582106083,
                0.39620955446423384
            ]
        },
        {
            "positions": [
                2.4892070336600405,
                -1.2043293152219765,
                -1.744102095253462,
                -1.370137339816332,
                -1.4838802073265365,
                0.35039933572334003
            ]
        },
        {
            "positions": [
                2.384009285444572,
                -1.1843241742490511,
                -1.6563438560216206,
                -1.2809305340979007,
                -1.4403468564424646,
                0.3045891169824463
            ]
        },
        {
            "positions": [
                2.2788115372291027,
                -1.1643190332761257,
                -1.5685856167897791,
                -1.1917237283794697,
                -1.3968135055583928,
                0.25877889824155254
            ]
        },
        {
            "positions": [
                2.1736137890136336,
                -1.1443138923032001,
                -1.4808273775579377,
                -1.1025169226610387,
                -1.353280154674321,
                0.21296867950065873
            ]
        },
        {
            "positions": [
                2.0684160407981644,
                -1.1243087513302747,
                -1.3930691383260962,
                -1.0133101169426075,
                -1.309746803790249,
                0.16715846075976498
            ]
        },
        {
            "positions": [
                1.9632182925826953,
                -1.1043036103573494,
                -1.3053108990942548,
                -0.9241033112241764,
                -1.2662134529061773,
                0.12134824201887118
            ]
        },
        {
            "positions": [
                1.8580205443672264,
                -1.084298469384424,
                -1.2175526598624133,
                -0.8348965055057453,
                -1.2226801020221054,
                0.07553802327797743
            ]
        },
        {
            "positions": [
                1.7528227961517573,
                -1.0642933284114984,
                -1.1297944206305717,
                -0.7456896997873141,
                -1.1791467511380336,
                0.029727804537083624
            ]
        },
        {
            "positions": [
                1.6476250479362882,
                -1.044288187438573,
                -1.0420361813987304,
                -0.6564828940688832,
                -1.1356134002539617,
                -0.016082414203810125
            ]
        },
        {
            "positions": [
                1.5424272997208193,
                -1.0242830464656476,
                -0.954277942166889,
                -0.5672760883504521,
                -1.0920800493698901,
                -0.061892632944703874
            ]
        },
        {
            "positions": [
                1.4372295515053504,
                -1.004277905492722,
                -0.8665197029350475,
                -0.478069282632021,
                -1.048546698485818,
                -0.10770285168559762
            ]
        },
        {
            "positions": [
                1.332031803289881,
                -0.9842727645197966,
                -0.7787614637032061,
                -0.38886247691358977,
                -1.0050133476017464,
                -0.15351307042649148
            ]
        },
        {
            "positions": [
                1.2268340550744121,
                -0.9642676235468712,
                -0.6910032244713646,
                -0.2996556711951588,
                -0.9614799967176745,
                -0.19932328916738523
            ]
        },
        {
            "positions": [
                1.1216363068589432,
                -0.9442624825739457,
                -0.6032449852395232,
                -0.2104488654767278,
                -0.9179466458336026,
                -0.24513350790827898
            ]
        },
        {
            "positions": [
                1.016438558643474,
                -0.9242573416010202,
                -0.5154867460076817,
                -0.1212420597582966,
                -0.8744132949495308,
                -0.29094372664917273
            ]
        },
        {
            "positions": [
                0.9112408104280052,
                -0.9042522006280949,
                -0.4277285067758405,
                -0.032035254039865624,
                -0.8308799440654591,
                -0.3367539453900665
            ]
        },
        {
            "positions": [
                0.8060430622125359,
                -0.8842470596551694,
                -0.3399702675439986,
                0.0571715516785658,
                -0.7873465931813871,
                -0.38256416413096034
            ]
        },
        {
            "positions": [
                0.7008453139970667,
                -0.8642419186822439,
                -0.2522120283121574,
                0.14637835739699678,
                -0.7438132422973153,
                -0.4283743828718541
            ]
        },
        {
            "positions": [
                0.5956475657815976,
                -0.8442367777093185,
                -0.16445378908031594,
                0.23558516311542776,
                -0.7002798914132434,
                -0.47418460161274784
            ]
        },
        {
            "positions": [
                0.49044981756612893,
                -0.824231636736393,
                -0.07669554984847449,
                0.32479196883385875,
                -0.6567465405291717,
                -0.5199948203536415
            ]
        },
        {
            "positions": [
                0.3852520693506598,
                -0.8042264957634675,
                0.011062689383366964,
                0.41399877455228995,
                -0.6132131896450999,
                -0.5658050390945353
            ]
        },
        {
            "positions": [
                0.2800543211351907,
                -0.7842213547905421,
                0.09882092861520841,
                0.5032055802707212,
                -0.569679838761028,
                -0.611615257835429
            ]
        },
        {
            "positions": [
                0.174856572919722,
                -0.7642162138176167,
                0.18657916784704986,
                0.5924123859891521,
                -0.5261464878769562,
                -0.6574254765763228
            ]
        },
        {
            "positions": [
                0.06965882470425244,
                -0.7442110728446912,
                0.2743374070788913,
                0.6816191917075836,
                -0.48261313699288433,
                -0.7032356953172167
            ]
        },
        {
            "positions": [
                -0.03553892351121668,
                -0.7242059318717657,
                0.36209564631073277,
                0.7708259974260145,
                -0.4390797861088125,
                -0.7490459140581105
            ]
        },
        {
            "positions": [
                -0.14073667172668536,
                -0.7042007908988404,
                0.4498538855425742,
                0.8600328031444455,
                -0.39554643522474064,
                -0.7948561327990042
            ]
        },
        {
            "positions": [
                -0.24593441994215437,
                -0.6841956499259149,
                0.5376121247744156,
                0.9492396088628765,
                -0.3520130843406688,
                -0.840666351539898
            ]
        },
        {
            "positions": [
                -0.21235339904511805,
                -0.6936685728591772,
                0.6724838048076489,
                1.0467745695272346,
                -0.33203526267488814,
                -0.7752424391647937
            ]
        },
        {
            "positions": [
                -0.17877237814808172,
                -0.7031414957924393,
                0.8073554848408823,
                1.1443095301915924,
                -0.31205744100910743,
                -0.7098185267896895
            ]
        },
        {
            "positions": [
                -0.14519135725104543,
                -0.7126144187257016,
                0.9422271648741156,
                1.2418444908559505,
                -0.29207961934332677,
                -0.6443946144145851
            ]
        },
        {
            "positions": [
                -0.1116103363540091,
                -0.7220873416589638,
                1.0770988449073489,
                1.3393794515203084,
                -0.27210179767754605,
                -0.5789707020394809
            ]
        },
        {
            "positions": [
                -0.07802931545697281,
                -0.7315602645922261,
                1.2119705249405823,
                1.4369144121846664,
                -0.2521239760117654,
                -0.5135467896643766
            ]
        },
        {
            "positions": [
                -0.044448294559936485,
                -0.7410331875254883,
                1.3468422049738158,
                1.5344493728490243,
                -0.23214615434598473,
                -0.4481228772892723
            ]
        },
        {
            "positions": [
                -0.010867273662900162,
                -0.7505061104587506,
                1.481713885007049,
                1.6319843335133823,
                -0.21216833268020402,
                -0.382698964914168
            ]
        },
        {
            "positions": [
                0.02271374723413616,
                -0.7599790333920128,
                1.6165855650402823,
                1.7295192941777402,
                -0.19219051101442333,
                -0.31727505253906374
            ]
        },
        {
            "positions": [
                0.05629476813117251,
                -0.7694519563252751,
                1.751457245073516,
                1.8270542548420983,
                -0.17221268934864264,
                -0.2518511401639594
            ]
        },
        {
            "positions": [
                0.08987578902820875,
                -0.7789248792585373,
                1.8863289251067492,
                1.9245892155064563,
                -0.15223486768286199,
                -0.18642722778885512
            ]
        },
        {
            "positions": [
                0.12345680992524509,
                -0.7883978021917996,
                2.0212006051399825,
                2.022124176170814,
                -0.1322570460170813,
                -0.12100331541375084
            ]
        }
    ]
}{
    "goal": {
        "global_pose": {
            "orientation": {
                "w": 0.7047431468963623,
                "x": -0.7094548344612122,
                "y": 0.0024358443915843964,
                "z": -0.0022348060738295317
            },
            "position": {
                "x": 0.6094750761985779,
                "y": 0.3671506643295288,
                "z": 0.19426114857196808
            }
        },
        "name": "move_to_magneteinheit_A"
    },
    "id": "EST_move_to_magneteinheit_A_37",
    "joint_names": [
        "shoulder_pan_joint",
        "shoulder_lift_joint",
        "elbow_joint",
        "wrist_1_joint",
        "wrist_2_joint",
        "wrist_3_joint"
    ],
    "metrics": {
        "cart_traj_len": 1.1992084070683457,
        "distance_elbow_joint": 0.043722125633607334,
        "distance_shoulder_lift_joint": 0.7623235873679488,
        "distance_shoulder_pan_joint": 1.2414110133594864,
        "distance_wrist_1_joint": 0.9852829769820548,
        "distance_wrist_2_joint": 1.4410439665859565,
        "distance_wrist_3_joint": 4.3283154552412615,
        "smoothness": 0.22310903709346708,
        "time": 0.08193395,
        "traj_len": 2.966833181217022,
        "weighted_distance": 4.459266417161107
    },
    "planner": "EST",
    "start": {
        "state": {
            "elbow_joint": 1.919643534880228,
            "shoulder_lift_joint": -1.8972525353963687,
            "shoulder_pan_joint": -1.1188672234189438,
            "wrist_1_joint": -1.5931878212786155,
            "wrist_2_joint": 1.5706036197970081,
            "wrist_3_joint": 1.118896926603594
        }
    },
    "waypoints": [
        {
            "positions": [
                -1.1188672234189438,
                -1.8972525353963687,
                1.919643534880228,
                -1.5931878212786155,
                1.5706036197970081,
                1.118896926603594
            ]
        },
        {
            "positions": [
                -1.063653836035192,
                -1.864118204775862,
                1.9213304409830143,
                -1.5516300607026436,
                1.506283402844092,
                0.9234730201362167
            ]
        },
        {
            "positions": [
                -1.00844044865144,
                -1.8309838741553555,
                1.9230173470858007,
                -1.510072300126672,
                1.4419631858911757,
                0.7280491136688393
            ]
        },
        {
            "positions": [
                -0.9532270612676882,
                -1.7978495435348487,
                1.9247042531885872,
                -1.4685145395507002,
                1.3776429689382594,
                0.532625207201462
            ]
        },
        {
            "positions": [
                -0.8980136738839363,
                -1.7647152129143422,
                1.9263911592913734,
                -1.4269567789747284,
                1.3133227519853432,
                0.3372013007340846
            ]
        },
        {
            "positions": [
                -0.8428002865001843,
                -1.7315808822938354,
                1.9280780653941596,
                -1.3853990183987566,
                1.249002535032427,
                0.14177739426670732
            ]
        },
        {
            "positions": [
                -0.7875868991164325,
                -1.698446551673329,
                1.929764971496946,
                -1.343841257822785,
                1.1846823180795107,
                -0.05364651220066996
            ]
        },
        {
            "positions": [
                -0.7323735117326806,
                -1.6653122210528222,
                1.9314518775997325,
                -1.3022834972468131,
                1.1203621011265945,
                -0.24907041866804747
            ]
        },
        {
            "positions": [
                -0.6771601243489287,
                -1.6321778904323154,
                1.9331387837025187,
                -1.2607257366708413,
                1.0560418841736783,
                -0.44449432513542475
            ]
        },
        {
            "positions": [
                -0.6219467369651768,
                -1.599043559811809,
                1.9348256898053051,
                -1.2191679760948695,
                0.991721667220762,
                -0.6399182316028023
            ]
        },
        {
            "positions": [
                -0.5667333495814249,
                -1.5659092291913022,
                1.9365125959080913,
                -1.1776102155188979,
                0.9274014502678458,
                -0.8353421380701793
            ]
        },
        {
            "positions": [
                -0.5115199621976729,
                -1.5327748985707954,
                1.9381995020108778,
                -1.136052454942926,
                0.8630812333149296,
                -1.0307660445375568
            ]
        },
        {
            "positions": [
                -0.4563065748139211,
                -1.4996405679502889,
                1.939886408113664,
                -1.0944946943669542,
                0.7987610163620135,
                -1.2261899510049339
            ]
        },
        {
            "positions": [
                -0.4010931874301691,
                -1.4665062373297821,
                1.9415733142164502,
                -1.0529369337909824,
                0.7344407994090971,
                -1.4216138574723118
            ]
        },
        {
            "positions": [
                -0.3458798000464173,
                -1.4333719067092756,
                1.9432602203192366,
                -1.0113791732150106,
                0.6701205824561809,
                -1.617037763939689
            ]
        },
        {
            "positions": [
                -0.29066641266266535,
                -1.4002375760887689,
                1.9449471264220228,
                -0.969821412639039,
                0.6058003655032648,
                -1.812461670407066
            ]
        },
        {
            "positions": [
                -0.23545302527891343,
                -1.3671032454682623,
                1.9466340325248093,
                -0.9282636520630672,
                0.5414801485503484,
                -2.0078855768744432
            ]
        },
        {
            "positions": [
                -0.1802396378951615,
                -1.3339689148477556,
                1.9483209386275955,
                -0.8867058914870954,
                0.4771599315974322,
                -2.2033094833418208
            ]
        },
        {
            "positions": [
                -0.1250262505114096,
                -1.3008345842272488,
                1.950007844730382,
                -0.8451481309111236,
                0.41283971464451596,
                -2.3987333898091983
            ]
        },
        {
            "positions": [
                -0.06981286312765778,
                -1.2677002536067423,
                1.9516947508331683,
                -0.8035903703351518,
                0.34851949769159973,
                -2.5941572962765758
            ]
        },
        {
            "positions": [
                -0.014599475743905854,
                -1.2345659229862358,
                1.9533816569359546,
                -0.7620326097591801,
                0.2841992807386835,
                -2.7895812027439524
            ]
        },
        {
            "positions": [
                0.04061391163984607,
                -1.2014315923657288,
                1.9550685630387408,
                -0.7204748491832083,
                0.21987906378576727,
                -2.98500510921133
            ]
        },
        {
            "positions": [
                0.0958272990235979,
                -1.1682972617452223,
                1.9567554691415272,
                -0.6789170886072365,
                0.1555588468328511,
                -3.1804290156787074
            ]
        },
        {
            "positions": [
                0.12254378994054242,
                -1.13492894802842,
                1.9633656605138354,
                -0.7499293329179124,
                0.12955965321105165,
                -3.2094185286376677
            ]
        }
    ]
}