{
    "goal": {
        "global_pose": {
            "orientation": {
                "w": 0.7047431468963623,
                "x": -0.7094548344612122,
                "y": 0.0024358443915843964,
                "z": -0.0022348060738295317
            },
            "position": {
                "x": 0.6094750761985779,
                "y": 0.3671506643295288,
                "z": 0.19426114857196808
            }
        },
        "name": "move_to_magneteinheit_A"
    },
    "id": "EST_move_to_magneteinheit_A_145",
    "joint_names": [
        "shoulder_pan_joint",
        "shoulder_lift_joint",
        "elbow_joint",
        "wrist_1_joint",
        "wrist_2_joint",
        "wrist_3_joint"
    ],
    "metrics": {
        "cart_traj_len": 3.8993934238055465,
        "distance_elbow_joint": 3.881584208328275,
        "distance_shoulder_lift_joint": 0.11068296838013603,
        "distance_shoulder_pan_joint": 3.793807235083383,
        "distance_wrist_1_joint": 1.0433577109841965,
        "distance_wrist_2_joint": 1.6973363518480684,
        "distance_wrist_3_joint": 3.669319108101961,
        "smoothness": 0.2512342754625683,
        "time": 0.119147137,
        "traj_len": 3.767769576649562,
        "weighted_distance": 4.9270092207912715
    },
    "planner": "EST",
    "start": {
        "state": {
            "elbow_joint": -1.919618573717145,
            "shoulder_lift_joint": -1.2443395971678275,
            "shoulder_pan_joint": 2.6996025300909787,
            "wrist_1_joint": -1.548550951253194,
            "wrist_2_joint": -1.5709469090946802,
            "wrist_3_joint": 0.4420197732051276
        }
    },
    "waypoints": [
        {
            "positions": [
                2.6996025300909787,
                -1.2443395971678275,
                -1.919618573717145,
                -1.548550951253194,
                -1.5709469090946802,
                0.4420197732051276
            ]
        },
        {
            "positions": [
                2.593445079626553,
                -1.2427679352646954,
                -1.8215547885216659,
                -1.5177935481945906,
                -1.5230534010456422,
                0.33391523485714825
            ]
        },
        {
            "positions": [
                2.4872876291621275,
                -1.2411962733615631,
                -1.723491003326187,
                -1.487036145135987,
                -1.4751598929966045,
                0.22581069650916888
            ]
        },
        {
            "positions": [
                2.3811301786977017,
                -1.239624611458431,
                -1.625427218130708,
                -1.4562787420773835,
                -1.4272663849475666,
                0.11770615816118951
            ]
        },
        {
            "positions": [
                2.274972728233276,
                -1.238052949555299,
                -1.5273634329352288,
                -1.42552133901878,
                -1.3793728768985287,
                0.009601619813210172
            ]
        },
        {
            "positions": [
                2.1688152777688505,
                -1.236481287652167,
                -1.42929964773975,
                -1.3947639359601767,
                -1.3314793688494908,
                -0.09850291853476917
            ]
        },
        {
            "positions": [
                2.0626578273044247,
                -1.2349096257490346,
                -1.331235862544271,
                -1.3640065329015731,
                -1.2835858608004531,
                -0.20660745688274856
            ]
        },
        {
            "positions": [
                1.956500376839999,
                -1.2333379638459026,
                -1.233172077348792,
                -1.3332491298429696,
                -1.2356923527514152,
                -0.31471199523072796
            ]
        },
        {
            "positions": [
                1.8503429263755735,
                -1.2317663019427705,
                -1.1351082921533129,
                -1.302491726784366,
                -1.1877988447023773,
                -0.42281653357870724
            ]
        },
        {
            "positions": [
                1.7441854759111477,
                -1.2301946400396382,
                -1.0370445069578338,
                -1.2717343237257626,
                -1.1399053366533396,
                -0.5309210719266866
            ]
        },
        {
            "positions": [
                1.638028025446722,
                -1.2286229781365061,
                -0.9389807217623549,
                -1.240976920667159,
                -1.0920118286043017,
                -0.6390256102746659
            ]
        },
        {
            "positions": [
                1.5318705749822965,
                -1.227051316233374,
                -0.840916936566876,
                -1.2102195176085555,
                -1.0441183205552638,
                -0.7471301486226452
            ]
        },
        {
            "positions": [
                1.4257131245178707,
                -1.2254796543302418,
                -0.742853151371397,
                -1.179462114549952,
                -0.996224812506226,
                -0.8552346869706247
            ]
        },
        {
            "positions": [
                1.3195556740534449,
                -1.2239079924271097,
                -0.6447893661759179,
                -1.1487047114913485,
                -0.9483313044571882,
                -0.9633392253186042
            ]
        },
        {
            "positions": [
                1.2133982235890193,
                -1.2223363305239776,
                -0.546725580980439,
                -1.1179473084327451,
                -0.9004377964081502,
                -1.0714437636665834
            ]
        },
        {
            "positions": [
                1.1072407731245937,
                -1.2207646686208453,
                -0.4486617957849599,
                -1.0871899053741416,
                -0.8525442883591124,
                -1.1795483020145627
            ]
        },
        {
            "positions": [
                1.001083322660168,
                -1.2191930067177132,
                -0.3505980105894808,
                -1.056432502315538,
                -0.8046507803100746,
                -1.287652840362542
            ]
        },
        {
            "positions": [
                0.8949258721957425,
                -1.2176213448145812,
                -0.25253422539400194,
                -1.0256750992569346,
                -0.7567572722610367,
                -1.3957573787105213
            ]
        },
        {
            "positions": [
                0.7887684217313167,
                -1.216049682911449,
                -0.15447044019852285,
                -0.994917696198331,
                -0.7088637642119989,
                -1.5038619170585008
            ]
        },
        {
            "positions": [
                0.6826109712668913,
                -1.2144780210083168,
                -0.05640665500304398,
                -0.9641602931397276,
                -0.6609702561629611,
                -1.6119664554064799
            ]
        },
        {
            "positions": [
                0.5764535208024655,
                -1.2129063591051847,
                0.04165713019243511,
                -0.9334028900811241,
                -0.6130767481139232,
                -1.7200709937544594
            ]
        },
        {
            "positions": [
                0.47029607033803966,
                -1.2113346972020527,
                0.1397209153879142,
                -0.9026454870225206,
                -0.5651832400648855,
                -1.8281755321024389
            ]
        },
        {
            "positions": [
                0.3641386198736143,
                -1.2097630352989204,
                0.23778470058339285,
                -0.8718880839639171,
                -0.5172897320158476,
                -1.936280070450418
            ]
        },
        {
            "positions": [
                0.257981169409188,
                -1.2081913733957883,
                0.3358484857788724,
                -0.8411306809053135,
                -0.4693962239668097,
                -2.044384608798398
            ]
        },
        {
            "positions": [
                0.15182371894476265,
                -1.2066197114926562,
                0.43391227097435103,
                -0.81037327784671,
                -0.4215027159177718,
                -2.152489147146377
            ]
        },
        {
            "positions": [
                0.045666268480336836,
                -1.2050480495895242,
                0.5319760561698301,
                -0.7796158747881066,
                -0.37360920786873386,
                -2.2605936854943565
            ]
        },
        {
            "positions": [
                -0.06049118198408898,
                -1.2034763876863919,
                0.6300398413653092,
                -0.748858471729503,
                -0.32571569981969617,
                -2.368698223842336
            ]
        },
        {
            "positions": [
                -0.16664863244851436,
                -1.2019047257832598,
                0.7281036265607883,
                -0.7181010686708995,
                -0.27782219177065826,
                -2.476802762190315
            ]
        },
        {
            "positions": [
                -0.2728060829129402,
                -1.2003330638801277,
                0.826167411756267,
                -0.687343665612296,
                -0.22992868372162034,
                -2.5849073005382945
            ]
        },
        {
            "positions": [
                -0.37896353337736555,
                -1.1987614019769954,
                0.924231196951746,
                -0.6565862625536926,
                -0.18203517567258265,
                -2.6930118388862736
            ]
        },
        {
            "positions": [
                -0.4851209838417915,
                -1.1971897400738634,
                1.0222949821472254,
                -0.625828859495089,
                -0.1341416676235448,
                -2.801116377234253
            ]
        },
        {
            "positions": [
                -0.3981090236774181,
                -1.188113581318696,
                1.156533646784926,
                -0.6430625193845306,
                -0.0969229375696973,
                -2.861999656900336
            ]
        },
        {
            "positions": [
                -0.31109706351304467,
                -1.1790374225635285,
                1.2907723114226266,
                -0.6602961792739723,
                -0.05970420751584983,
                -2.922882936566419
            ]
        },
        {
            "positions": [
                -0.22408510334867132,
                -1.1699612638083612,
                1.4250109760603273,
                -0.6775298391634139,
                -0.022485477462002343,
                -2.983766216232502
            ]
        },
        {
            "positions": [
                -0.13707314318429792,
                -1.1608851050531936,
                1.5592496406980279,
                -0.6947634990528556,
                0.01473325259184513,
                -3.0446494958985846
            ]
        },
        {
            "positions": [
                -0.050061183019924516,
                -1.1518089462980263,
                1.6934883053357286,
                -0.7119971589422972,
                0.05195198264569262,
                -3.105532775564668
            ]
        },
        {
            "positions": [
                0.03695077714444883,
                -1.1427327875428588,
                1.8277269699734293,
                -0.7292308188317389,
                0.0891707126995401,
                -3.1664160552307505
            ]
        },
        {
            "positions": [
                0.12396273730882226,
                -1.1336566287876915,
                1.96196563461113,
                -0.7464644787211805,
                0.1263894427533876,
                -3.2272993348968333
            ]
        }
    ]
}{
    "goal": {
        "global_pose": {
            "orientation": {
                "w": 0.7047431468963623,
                "x": -0.7094548344612122,
                "y": 0.0024358443915843964,
                "z": -0.0022348060738295317
            },
            "position": {
                "x": 0.6094750761985779,
                "y": 0.3671506643295288,
                "z": 0.19426114857196808
            }
        },
        "name": "move_to_magneteinheit_A"
    },
    "id": "EST_move_to_magneteinheit_A_145",
    "joint_names": [
        "shoulder_pan_joint",
        "shoulder_lift_joint",
        "elbow_joint",
        "wrist_1_joint",
        "wrist_2_joint",
        "wrist_3_joint"
    ],
    "metrics": {
        "cart_traj_len": 1.2594500320350395,
        "distance_elbow_joint": 0.12147455862183909,
        "distance_shoulder_lift_joint": 0.8655264659508808,
        "distance_shoulder_pan_joint": 1.2408265643861511,
        "distance_wrist_1_joint": 0.9178210448426933,
        "distance_wrist_2_joint": 1.431319785783768,
        "distance_wrist_3_joint": 4.360666984948229,
        "smoothness": 0.1369295976816496,
        "time": 0.19582449400000002,
        "traj_len": 2.9895878318814386,
        "weighted_distance": 4.473042611585148
    },
    "planner": "EST",
    "start": {
        "state": {
            "elbow_joint": 1.919643534880228,
            "shoulder_lift_joint": -1.8972525353963687,
            "shoulder_pan_joint": -1.1188672234189438,
            "wrist_1_joint": -1.5931878212786155,
            "wrist_2_joint": 1.5706036197970081,
            "wrist_3_joint": 1.118896926603594
        }
    },
    "waypoints": [
        {
            "positions": [
                -1.1188672234189438,
                -1.8972525353963687,
                1.919643534880228,
                -1.5931878212786155,
                1.5706036197970081,
                1.118896926603594
            ]
        },
        {
            "positions": [
                -1.0624502489085144,
                -1.8584685050381666,
                1.9177053465136786,
                -1.550464436332598,
                1.5040320261869307,
                0.9338846102649979
            ]
        },
        {
            "positions": [
                -1.0060332743980849,
                -1.8196844746799645,
                1.9157671581471294,
                -1.5077410513865805,
                1.4374604325768532,
                0.7488722939264019
            ]
        },
        {
            "positions": [
                -0.9496162998876555,
                -1.7809004443217622,
                1.91382896978058,
                -1.4650176664405632,
                1.3708888389667755,
                0.5638599775878058
            ]
        },
        {
            "positions": [
                -0.8931993253772261,
                -1.74211641396356,
                1.9118907814140307,
                -1.4222942814945456,
                1.304317245356698,
                0.37884766124920977
            ]
        },
        {
            "positions": [
                -0.8367823508667966,
                -1.703332383605358,
                1.9099525930474812,
                -1.379570896548528,
                1.2377456517466205,
                0.19383534491061372
            ]
        },
        {
            "positions": [
                -0.7803653763563672,
                -1.6645483532471559,
                1.908014404680932,
                -1.3368475116025107,
                1.1711740581365429,
                0.008823028572017666
            ]
        },
        {
            "positions": [
                -0.7239484018459378,
                -1.6257643228889538,
                1.9060762163143825,
                -1.2941241266564933,
                1.1046024645264654,
                -0.17618928776657827
            ]
        },
        {
            "positions": [
                -0.6675314273355084,
                -1.5869802925307517,
                1.904138027947833,
                -1.2514007417104758,
                1.038030870916388,
                -0.36120160410517443
            ]
        },
        {
            "positions": [
                -0.6111144528250789,
                -1.5481962621725494,
                1.9021998395812838,
                -1.2086773567644582,
                0.9714592773063103,
                -0.5462139204437704
            ]
        },
        {
            "positions": [
                -0.5546974783146494,
                -1.5094122318143472,
                1.9002616512147343,
                -1.1659539718184408,
                0.9048876836962328,
                -0.7312262367823665
            ]
        },
        {
            "positions": [
                -0.49828050380421995,
                -1.4706282014561451,
                1.898323462848185,
                -1.1232305868724235,
                0.8383160900861552,
                -0.9162385531209629
            ]
        },
        {
            "positions": [
                -0.4418635292937906,
                -1.431844171097943,
                1.8963852744816356,
                -1.080507201926406,
                0.7717444964760778,
                -1.1012508694595586
            ]
        },
        {
            "positions": [
                -0.3854465547833611,
                -1.393060140739741,
                1.8944470861150864,
                -1.0377838169803884,
                0.7051729028660001,
                -1.2862631857981548
            ]
        },
        {
            "positions": [
                -0.3290295802729317,
                -1.3542761103815386,
                1.892508897748537,
                -0.995060432034371,
                0.6386013092559226,
                -1.4712755021367505
            ]
        },
        {
            "positions": [
                -0.27261260576250224,
                -1.3154920800233365,
                1.8905707093819875,
                -0.9523370470883535,
                0.572029715645845,
                -1.6562878184753471
            ]
        },
        {
            "positions": [
                -0.21619563125207286,
                -1.2767080496651344,
                1.8886325210154382,
                -0.9096136621423361,
                0.5054581220357677,
                -1.8413001348139428
            ]
        },
        {
            "positions": [
                -0.15977865674164327,
                -1.237924019306932,
                1.8866943326488888,
                -0.8668902771963186,
                0.43888652842569,
                -2.026312451152539
            ]
        },
        {
            "positions": [
                -0.103361682231214,
                -1.1991399889487302,
                1.8847561442823395,
                -0.8241668922503012,
                0.3723149348156125,
                -2.211324767491135
            ]
        },
        {
            "positions": [
                -0.04694470772078452,
                -1.1603559585905279,
                1.88281795591579,
                -0.7814435073042837,
                0.30574334120553504,
                -2.3963370838297315
            ]
        },
        {
            "positions": [
                0.009472266789644967,
                -1.121571928232326,
                1.8808797675492408,
                -0.7387201223582662,
                0.23917174759545756,
                -2.5813494001683273
            ]
        },
        {
            "positions": [
                0.06588924130007452,
                -1.0827878978741237,
                1.8789415791826913,
                -0.6959967374122488,
                0.1726001539853799,
                -2.7663617165069234
            ]
        },
        {
            "positions": [
                0.09392429113364104,
                -1.1083188120884415,
                1.9193278806448424,
                -0.7063117179004121,
                0.15594199399930997,
                -3.0040658874257793
            ]
        },
        {
            "positions": [
                0.12195934096720754,
                -1.1338497263027594,
                1.9597141821069937,
                -0.7166266983885754,
                0.13928383401324007,
                -3.241770058344635
            ]
        }
    ]
}