{
    "goal": {
        "global_pose": {
            "orientation": {
                "w": 0.5084816217422485,
                "x": -0.49083608388900757,
                "y": 0.5182115435600281,
                "z": -0.4816462993621826
            },
            "position": {
                "x": 0.5540239810943604,
                "y": 0.030875300988554955,
                "z": 0.16403168439865112
            }
        },
        "name": "move_to_storage_A"
    },
    "id": "EST_move_to_storage_A_49",
    "joint_names": [
        "shoulder_pan_joint",
        "shoulder_lift_joint",
        "elbow_joint",
        "wrist_1_joint",
        "wrist_2_joint",
        "wrist_3_joint"
    ],
    "metrics": {
        "cart_traj_len": 0.3530597930533395,
        "distance_elbow_joint": 0.4493518919210331,
        "distance_shoulder_lift_joint": 0.23416146304380403,
        "distance_shoulder_pan_joint": 0.46260511947795074,
        "distance_wrist_1_joint": 0.2401027288008376,
        "distance_wrist_2_joint": 1.0946337459465347,
        "distance_wrist_3_joint": 0.10489803096114425,
        "smoothness": 4.440892098500626e-16,
        "time": 0.05593907,
        "traj_len": 1.6080276677194656,
        "weighted_distance": 2.0323103888975633
    },
    "planner": "EST",
    "start": {
        "state": {
            "elbow_joint": 1.9715477243005601,
            "shoulder_lift_joint": -1.1394853015351272,
            "shoulder_pan_joint": 0.12281154014795169,
            "wrist_1_joint": -0.7804696478968182,
            "wrist_2_joint": 0.12958648046900423,
            "wrist_3_joint": -3.192491284697111
        }
    },
    "waypoints": [
        {
            "positions": [
                0.12281154014795169,
                -1.1394853015351272,
                1.9715477243005601,
                -0.7804696478968182,
                0.12958648046900423,
                -3.192491284697111
            ]
        },
        {
            "positions": [
                0.05672509450824445,
                -1.1729369391128135,
                2.0357408517178506,
                -0.8147700377255093,
                0.28596272988993776,
                -3.177505851702662
            ]
        },
        {
            "positions": [
                -0.009361351131462789,
                -1.2063885766904998,
                2.099933979135141,
                -0.8490704275542004,
                0.4423389793108713,
                -3.1625204187082128
            ]
        },
        {
            "positions": [
                -0.07544779677117004,
                -1.2398402142681861,
                2.1641271065524315,
                -0.8833708173828914,
                0.5987152287318048,
                -3.1475349857137638
            ]
        },
        {
            "positions": [
                -0.14153424241087725,
                -1.2732918518458722,
                2.228320233969722,
                -0.9176712072115825,
                0.7550914781527384,
                -3.1325495527193143
            ]
        },
        {
            "positions": [
                -0.20762068805058453,
                -1.3067434894235586,
                2.2925133613870123,
                -0.9519715970402736,
                0.9114677275736719,
                -3.1175641197248654
            ]
        },
        {
            "positions": [
                -0.27370713369029176,
                -1.3401951270012449,
                2.356706488804303,
                -0.9862719868689647,
                1.0678439769946055,
                -3.102578686730416
            ]
        },
        {
            "positions": [
                -0.33979357932999904,
                -1.3736467645789312,
                2.420899616221593,
                -1.0205723766976558,
                1.2242202264155388,
                -3.087593253735967
            ]
        }
    ]
}