{
    "goal": {
        "global_pose": {
            "orientation": {
                "w": 0.7047431468963623,
                "x": -0.7094548344612122,
                "y": 0.0024358443915843964,
                "z": -0.0022348060738295317
            },
            "position": {
                "x": 0.6094750761985779,
                "y": 0.3671506643295288,
                "z": 0.19426114857196808
            }
        },
        "name": "move_to_magneteinheit_A"
    },
    "id": "EST_move_to_magneteinheit_A_115",
    "joint_names": [
        "shoulder_pan_joint",
        "shoulder_lift_joint",
        "elbow_joint",
        "wrist_1_joint",
        "wrist_2_joint",
        "wrist_3_joint"
    ],
    "metrics": {
        "cart_traj_len": 4.935076837764643,
        "distance_elbow_joint": 3.9138523857300482,
        "distance_shoulder_lift_joint": 1.0658304588550251,
        "distance_shoulder_pan_joint": 5.009896641076137,
        "distance_wrist_1_joint": 4.30465353702329,
        "distance_wrist_2_joint": 3.8646258956315984,
        "distance_wrist_3_joint": 2.901284283600559,
        "smoothness": 0.24666942471329614,
        "time": 0.472107875,
        "traj_len": 4.589133164543895,
        "weighted_distance": 5.918782915580925
    },
    "planner": "EST",
    "start": {
        "state": {
            "elbow_joint": -1.919618573717145,
            "shoulder_lift_joint": -1.2443395971678275,
            "shoulder_pan_joint": 2.6996025300909787,
            "wrist_1_joint": -1.548550951253194,
            "wrist_2_joint": -1.5709469090946802,
            "wrist_3_joint": 0.4420197732051276
        }
    },
    "waypoints": [
        {
            "positions": [
                2.6996025300909787,
                -1.2443395971678275,
                -1.919618573717145,
                -1.548550951253194,
                -1.5709469090946802,
                0.4420197732051276
            ]
        },
        {
            "positions": [
                2.5537071247411505,
                -1.2558783671264833,
                -1.8762851077099718,
                -1.5646434449732263,
                -1.4689315760987722,
                0.37767829962718324
            ]
        },
        {
            "positions": [
                2.4078117193913218,
                -1.267417137085139,
                -1.8329516417027985,
                -1.5807359386932582,
                -1.3669162431028645,
                0.31333682604923896
            ]
        },
        {
            "positions": [
                2.2619163140414935,
                -1.2789559070437948,
                -1.7896181756956253,
                -1.5968284324132904,
                -1.2649009101069566,
                0.24899535247129465
            ]
        },
        {
            "positions": [
                2.116020908691665,
                -1.2904946770024506,
                -1.7462847096884522,
                -1.6129209261333224,
                -1.1628855771110487,
                0.18465387889335033
            ]
        },
        {
            "positions": [
                1.9701255033418366,
                -1.3020334469611063,
                -1.7029512436812788,
                -1.6290134198533546,
                -1.060870244115141,
                0.12031240531540599
            ]
        },
        {
            "positions": [
                1.824230097992008,
                -1.3135722169197623,
                -1.6596177776741057,
                -1.6451059135733868,
                -0.9588549111192329,
                0.055970931737461704
            ]
        },
        {
            "positions": [
                1.6783346926421798,
                -1.325110986878418,
                -1.6162843116669325,
                -1.6611984072934187,
                -0.8568395781233252,
                -0.008370541840482582
            ]
        },
        {
            "positions": [
                1.5324392872923513,
                -1.3366497568370739,
                -1.5729508456597592,
                -1.677290901013451,
                -0.7548242451274173,
                -0.07271201541842692
            ]
        },
        {
            "positions": [
                1.3865438819425229,
                -1.3481885267957296,
                -1.529617379652586,
                -1.6933833947334829,
                -0.6528089121315095,
                -0.1370534889963712
            ]
        },
        {
            "positions": [
                1.2406484765926944,
                -1.3597272967543854,
                -1.486283913645413,
                -1.709475888453515,
                -0.5507935791356016,
                -0.2013949625743156
            ]
        },
        {
            "positions": [
                1.0947530712428661,
                -1.3712660667130412,
                -1.4429504476382398,
                -1.725568382173547,
                -0.44877824613969364,
                -0.2657364361522598
            ]
        },
        {
            "positions": [
                0.9488576658930374,
                -1.382804836671697,
                -1.3996169816310664,
                -1.7416608758935792,
                -0.3467629131437857,
                -0.3300779097302042
            ]
        },
        {
            "positions": [
                0.8029622605432092,
                -1.3943436066303527,
                -1.3562835156238933,
                -1.7577533696136114,
                -0.244747580147878,
                -0.39441938330814846
            ]
        },
        {
            "positions": [
                0.6570668551933809,
                -1.4058823765890085,
                -1.3129500496167201,
                -1.7738458633336434,
                -0.1427322471519703,
                -0.45876085688609275
            ]
        },
        {
            "positions": [
                0.5111714498435527,
                -1.4174211465476643,
                -1.269616583609547,
                -1.7899383570536753,
                -0.04071691415606238,
                -0.523102330464037
            ]
        },
        {
            "positions": [
                0.365276044493724,
                -1.42895991650632,
                -1.2262831176023736,
                -1.8060308507737075,
                0.06129841883984555,
                -0.5874438040419814
            ]
        },
        {
            "positions": [
                0.21938063914389527,
                -1.4404986864649758,
                -1.1829496515952003,
                -1.8221233444937397,
                0.16331375183575347,
                -0.6517852776199258
            ]
        },
        {
            "positions": [
                0.07348523379406702,
                -1.4520374564236316,
                -1.1396161855880274,
                -1.8382158382137717,
                0.2653290848316612,
                -0.71612675119787
            ]
        },
        {
            "positions": [
                -0.07241017155576124,
                -1.4635762263822873,
                -1.096282719580854,
                -1.8543083319338038,
                0.3673444178275691,
                -0.7804682247758141
            ]
        },
        {
            "positions": [
                -0.21830557690558994,
                -1.4751149963409433,
                -1.0529492535736806,
                -1.870400825653836,
                0.46935975082347703,
                -0.8448096983537587
            ]
        },
        {
            "positions": [
                -0.3642009822554182,
                -1.4866537662995991,
                -1.0096157875665077,
                -1.886493319373868,
                0.571375083819385,
                -0.9091511719317029
            ]
        },
        {
            "positions": [
                -0.5100963876052464,
                -1.4981925362582549,
                -0.9662823215593345,
                -1.9025858130939002,
                0.6733904168152929,
                -0.9734926455096471
            ]
        },
        {
            "positions": [
                -0.6559917929550751,
                -1.5097313062169107,
                -0.9229488555521612,
                -1.9186783068139321,
                0.7754057498112004,
                -1.0378341190875915
            ]
        },
        {
            "positions": [
                -0.8018871983049038,
                -1.5212700761755664,
                -0.8796153895449879,
                -1.9347708005339643,
                0.8774210828071087,
                -1.1021755926655359
            ]
        },
        {
            "positions": [
                -0.9477826036547321,
                -1.5328088461342222,
                -0.8362819235378147,
                -1.9508632942539963,
                0.9794364158030162,
                -1.1665170662434803
            ]
        },
        {
            "positions": [
                -1.0936780090045606,
                -1.544347616092878,
                -0.7929484575306416,
                -1.9669557879740285,
                1.081451748798924,
                -1.2308585398214245
            ]
        },
        {
            "positions": [
                -1.0517257296259193,
                -1.517939945750465,
                -0.6968387240981055,
                -1.83294721210153,
                1.0396508095665795,
                -1.1884997132499069
            ]
        },
        {
            "positions": [
                -1.0097734502472782,
                -1.4915322754080522,
                -0.6007289906655695,
                -1.6989386362290315,
                0.9978498703342349,
                -1.1461408866783895
            ]
        },
        {
            "positions": [
                -0.9678211708686368,
                -1.4651246050656392,
                -0.5046192572330335,
                -1.564930060356533,
                0.9560489311018904,
                -1.1037820601068722
            ]
        },
        {
            "positions": [
                -0.9258688914899955,
                -1.4387169347232263,
                -0.4085095238004975,
                -1.4309214844840348,
                0.9142479918695459,
                -1.0614232335353546
            ]
        },
        {
            "positions": [
                -0.8839166121113543,
                -1.4123092643808133,
                -0.3123997903679614,
                -1.296912908611536,
                0.8724470526372015,
                -1.019064406963837
            ]
        },
        {
            "positions": [
                -0.8419643327327131,
                -1.3859015940384003,
                -0.21629005693542536,
                -1.1629043327390378,
                0.8306461134048568,
                -0.9767055803923197
            ]
        },
        {
            "positions": [
                -0.8000120533540718,
                -1.3594939236959875,
                -0.12018032350288932,
                -1.0288957568665393,
                0.7888451741725124,
                -0.9343467538208021
            ]
        },
        {
            "positions": [
                -0.7580597739754306,
                -1.3330862533535746,
                -0.024070590070353393,
                -0.8948871809940409,
                0.7470442349401679,
                -0.8919879272492848
            ]
        },
        {
            "positions": [
                -0.7161074945967894,
                -1.3066785830111616,
                0.07203914336218276,
                -0.7608786051215424,
                0.7052432957078234,
                -0.8496291006777672
            ]
        },
        {
            "positions": [
                -0.674155215218148,
                -1.2802709126687488,
                0.1681488767947188,
                -0.6268700292490439,
                0.6634423564754789,
                -0.8072702741062499
            ]
        },
        {
            "positions": [
                -0.6322029358395068,
                -1.2538632423263358,
                0.2642586102272546,
                -0.49286145337654563,
                0.6216414172431344,
                -0.7649114475347324
            ]
        },
        {
            "positions": [
                -0.5902506564608656,
                -1.2274555719839229,
                0.36036834365979087,
                -0.35885287750404715,
                0.5798404780107899,
                -0.7225526209632149
            ]
        },
        {
            "positions": [
                -0.5482983770822243,
                -1.2010479016415099,
                0.4564780770923269,
                -0.22484430163154867,
                0.5380395387784453,
                -0.6801937943916974
            ]
        },
        {
            "positions": [
                -0.506346097703583,
                -1.174640231299097,
                0.5525878105248629,
                -0.09083572575905019,
                0.49623859954610083,
                -0.6378349678201799
            ]
        },
        {
            "positions": [
                -0.46439381832494175,
                -1.1482325609566841,
                0.648697543957399,
                0.04317285011344851,
                0.4544376603137563,
                -0.5954761412486624
            ]
        },
        {
            "positions": [
                -0.42244153894630054,
                -1.1218248906142712,
                0.7448072773899348,
                0.17718142598594677,
                0.4126367210814119,
                -0.5531173146771451
            ]
        },
        {
            "positions": [
                -0.38048925956765933,
                -1.0954172202718584,
                0.8409170108224708,
                0.31119000185844503,
                0.3708357818490674,
                -0.5107584881056276
            ]
        },
        {
            "positions": [
                -0.338536980189018,
                -1.0690095499294454,
                0.9370267442550071,
                0.44519857773094373,
                0.3290348426167229,
                -0.46839966153411006
            ]
        },
        {
            "positions": [
                -0.2965847008103768,
                -1.0426018795870324,
                1.033136477687543,
                0.579207153603442,
                0.2872339033843784,
                -0.4260408349625927
            ]
        },
        {
            "positions": [
                -0.2546324214317355,
                -1.0161942092446195,
                1.1292462111200792,
                0.7132157294759407,
                0.24543296415203386,
                -0.38368200839107514
            ]
        },
        {
            "positions": [
                -0.21268014205309427,
                -0.9897865389022066,
                1.225355944552615,
                0.847224305348439,
                0.20363202491968935,
                -0.3413231818195577
            ]
        },
        {
            "positions": [
                -0.17072786267445306,
                -0.9633788685597937,
                1.3214656779851508,
                0.9812328812209372,
                0.16183108568734494,
                -0.2989643552480403
            ]
        },
        {
            "positions": [
                -0.12877558329581174,
                -0.9369711982173807,
                1.417575411417687,
                1.115241457093436,
                0.12003014645500032,
                -0.25660552867652275
            ]
        },
        {
            "positions": [
                -0.08682330391717064,
                -0.9105635278749677,
                1.5136851448502233,
                1.2492500329659342,
                0.0782292072226558,
                -0.2142467021050054
            ]
        },
        {
            "positions": [
                -0.044871024538529314,
                -0.8841558575325549,
                1.6097948782827591,
                1.3832586088384324,
                0.0364282679903114,
                -0.17188787553348783
            ]
        },
        {
            "positions": [
                -0.002918745159887992,
                -0.8577481871901419,
                1.7059046117152954,
                1.5172671847109311,
                -0.005372671242033222,
                -0.12952904896197026
            ]
        },
        {
            "positions": [
                0.03903353421875311,
                -0.831340516847729,
                1.8020143451478312,
                1.6512757605834294,
                -0.047173610474377625,
                -0.08717022239045291
            ]
        },
        {
            "positions": [
                0.08098581359739465,
                -0.804932846505316,
                1.8981240785803675,
                1.785284336455928,
                -0.08897454970672225,
                -0.04481139581893534
            ]
        },
        {
            "positions": [
                0.12293809297603578,
                -0.7785251761629032,
                1.9942338120129033,
                1.9192929123284264,
                -0.1307754889390667,
                -0.002452569247418034
            ]
        }
    ]
}{
    "goal": {
        "global_pose": {
            "orientation": {
                "w": 0.7047431468963623,
                "x": -0.7094548344612122,
                "y": 0.0024358443915843964,
                "z": -0.0022348060738295317
            },
            "position": {
                "x": 0.6094750761985779,
                "y": 0.3671506643295288,
                "z": 0.19426114857196808
            }
        },
        "name": "move_to_magneteinheit_A"
    },
    "id": "EST_move_to_magneteinheit_A_115",
    "joint_names": [
        "shoulder_pan_joint",
        "shoulder_lift_joint",
        "elbow_joint",
        "wrist_1_joint",
        "wrist_2_joint",
        "wrist_3_joint"
    ],
    "metrics": {
        "cart_traj_len": 1.987671247774807,
        "distance_elbow_joint": 2.787850928100604,
        "distance_shoulder_lift_joint": 0.7599090931046257,
        "distance_shoulder_pan_joint": 1.2418181534391324,
        "distance_wrist_1_joint": 1.3905648090288034,
        "distance_wrist_2_joint": 1.4318057471614511,
        "distance_wrist_3_joint": 4.318584908595103,
        "smoothness": 0.28941456237661584,
        "time": 0.158062596,
        "traj_len": 3.4540604568289943,
        "weighted_distance": 4.836328567499336
    },
    "planner": "EST",
    "start": {
        "state": {
            "elbow_joint": 1.919643534880228,
            "shoulder_lift_joint": -1.8972525353963687,
            "shoulder_pan_joint": -1.1188672234189438,
            "wrist_1_joint": -1.5931878212786155,
            "wrist_2_joint": 1.5706036197970081,
            "wrist_3_joint": 1.118896926603594
        }
    },
    "waypoints": [
        {
            "positions": [
                -1.1188672234189438,
                -1.8972525353963687,
                1.919643534880228,
                -1.5931878212786155,
                1.5706036197970081,
                1.118896926603594
            ]
        },
        {
            "positions": [
                -1.097138463409132,
                -1.862727183107971,
                1.828315505016045,
                -1.5191285987987357,
                1.5428190584724177,
                0.9847555008289851
            ]
        },
        {
            "positions": [
                -1.0754097033993202,
                -1.8282018308195733,
                1.7369874751518615,
                -1.445069376318856,
                1.5150344971478276,
                0.8506140750543763
            ]
        },
        {
            "positions": [
                -1.0536809433895082,
                -1.7936764785311758,
                1.6456594452876783,
                -1.3710101538389763,
                1.4872499358232372,
                0.7164726492797674
            ]
        },
        {
            "positions": [
                -1.0319521833796963,
                -1.7591511262427781,
                1.554331415423495,
                -1.2969509313590968,
                1.459465374498647,
                0.5823312235051585
            ]
        },
        {
            "positions": [
                -1.0102234233698844,
                -1.7246257739543804,
                1.4630033855593116,
                -1.222891708879217,
                1.4316808131740566,
                0.4481897977305498
            ]
        },
        {
            "positions": [
                -0.9884946633600725,
                -1.6901004216659827,
                1.3716753556951284,
                -1.1488324863993373,
                1.4038962518494662,
                0.3140483719559408
            ]
        },
        {
            "positions": [
                -0.9667659033502607,
                -1.655575069377585,
                1.2803473258309452,
                -1.0747732639194576,
                1.376111690524876,
                0.17990694618133196
            ]
        },
        {
            "positions": [
                -0.9450371433404487,
                -1.6210497170891873,
                1.1890192959667618,
                -1.0007140414395779,
                1.3483271292002856,
                0.045765520406723104
            ]
        },
        {
            "positions": [
                -0.9233083833306369,
                -1.5865243648007898,
                1.0976912661025786,
                -0.9266548189596983,
                1.3205425678756955,
                -0.08837590536788564
            ]
        },
        {
            "positions": [
                -0.9015796233208251,
                -1.5519990125123921,
                1.0063632362383954,
                -0.8525955964798185,
                1.292758006551105,
                -0.2225173311424944
            ]
        },
        {
            "positions": [
                -0.8798508633110131,
                -1.5174736602239944,
                0.9150352063742122,
                -0.7785363739999388,
                1.2649734452265147,
                -0.35665875691710336
            ]
        },
        {
            "positions": [
                -0.8581221033012012,
                -1.4829483079355967,
                0.8237071765100288,
                -0.7044771515200591,
                1.2371888839019245,
                -0.49080018269171233
            ]
        },
        {
            "positions": [
                -0.8363933432913894,
                -1.448422955647199,
                0.7323791466458454,
                -0.6304179290401793,
                1.209404322577334,
                -0.6249416084663211
            ]
        },
        {
            "positions": [
                -0.8146645832815775,
                -1.4138976033588015,
                0.6410511167816622,
                -0.5563587065602997,
                1.181619761252744,
                -0.75908303424093
            ]
        },
        {
            "positions": [
                -0.7929358232717656,
                -1.3793722510704038,
                0.549723086917479,
                -0.48229948408041995,
                1.1538351999281535,
                -0.8932244600155388
            ]
        },
        {
            "positions": [
                -0.7356929011910185,
                -1.3642454505217376,
                0.6383437419260948,
                -0.49977926356983293,
                1.0903953669723663,
                -1.037378430139037
            ]
        },
        {
            "positions": [
                -0.6784499791102714,
                -1.3491186499730712,
                0.7269643969347106,
                -0.517259043059246,
                1.026955534016579,
                -1.181532400262535
            ]
        },
        {
            "positions": [
                -0.6212070570295242,
                -1.333991849424405,
                0.8155850519433264,
                -0.5347388225486589,
                0.9635157010607915,
                -1.325686370386033
            ]
        },
        {
            "positions": [
                -0.5639641349487771,
                -1.3188650488757387,
                0.9042057069519422,
                -0.5522186020380719,
                0.9000758681050043,
                -1.4698403405095313
            ]
        },
        {
            "positions": [
                -0.50672121286803,
                -1.3037382483270723,
                0.9928263619605581,
                -0.569698381527485,
                0.836636035149217,
                -1.6139943106330294
            ]
        },
        {
            "positions": [
                -0.4494782907872828,
                -1.288611447778406,
                1.081447016969174,
                -0.5871781610168979,
                0.7731962021934297,
                -1.7581482807565276
            ]
        },
        {
            "positions": [
                -0.39223536870653564,
                -1.2734846472297396,
                1.1700676719777898,
                -0.6046579405063109,
                0.7097563692376423,
                -1.9023022508800256
            ]
        },
        {
            "positions": [
                -0.33499244662578853,
                -1.2583578466810734,
                1.2586883269864055,
                -0.6221377199957239,
                0.646316536281855,
                -2.046456221003524
            ]
        },
        {
            "positions": [
                -0.2777495245450414,
                -1.2432310461324072,
                1.3473089819950212,
                -0.6396174994851369,
                0.5828767033260678,
                -2.190610191127022
            ]
        },
        {
            "positions": [
                -0.22050660246429432,
                -1.2281042455837408,
                1.4359296370036372,
                -0.65709727897455,
                0.5194368703702804,
                -2.3347641612505203
            ]
        },
        {
            "positions": [
                -0.1632636803835471,
                -1.2129774450350745,
                1.5245502920122531,
                -0.6745770584639629,
                0.45599703741449304,
                -2.478918131374018
            ]
        },
        {
            "positions": [
                -0.1060207583028,
                -1.197850644486408,
                1.6131709470208688,
                -0.6920568379533758,
                0.3925572044587058,
                -2.6230721014975162
            ]
        },
        {
            "positions": [
                -0.048777836222052895,
                -1.1827238439377419,
                1.7017916020294848,
                -0.7095366174427888,
                0.32911737150291853,
                -2.7672260716210144
            ]
        },
        {
            "positions": [
                0.008465085858694321,
                -1.1675970433890757,
                1.7904122570381005,
                -0.7270163969322019,
                0.26567753854713116,
                -2.911380041744512
            ]
        },
        {
            "positions": [
                0.06570800793944143,
                -1.1524702428404092,
                1.8790329120467162,
                -0.7444961764216149,
                0.2022377055913438,
                -3.0555340118680103
            ]
        },
        {
            "positions": [
                0.12295093002018856,
                -1.137343442291743,
                1.9676535670553321,
                -0.7619759559110278,
                0.13879787263555665,
                -3.199687981991509
            ]
        }
    ]
}