{
    "goal": {
        "global_pose": {
            "orientation": {
                "w": 0.5084816217422485,
                "x": -0.49083608388900757,
                "y": 0.5182115435600281,
                "z": -0.4816462993621826
            },
            "position": {
                "x": 0.5540239810943604,
                "y": 0.030875300988554955,
                "z": 0.16403168439865112
            }
        },
        "name": "move_to_storage_A"
    },
    "id": "EST_move_to_storage_A_85",
    "joint_names": [
        "shoulder_pan_joint",
        "shoulder_lift_joint",
        "elbow_joint",
        "wrist_1_joint",
        "wrist_2_joint",
        "wrist_3_joint"
    ],
    "metrics": {
        "cart_traj_len": 0.35329031382104864,
        "distance_elbow_joint": 0.4487306584742341,
        "distance_shoulder_lift_joint": 0.23317204831286453,
        "distance_shoulder_pan_joint": 0.46165171198504545,
        "distance_wrist_1_joint": 0.23884400082718316,
        "distance_wrist_2_joint": 1.0999514895313198,
        "distance_wrist_3_joint": 0.1051352922647193,
        "smoothness": 6.661338200497456e-16,
        "time": 0.058008116,
        "traj_len": 1.6085661942846388,
        "weighted_distance": 2.033851340753131
    },
    "planner": "EST",
    "start": {
        "state": {
            "elbow_joint": 1.9715477243005601,
            "shoulder_lift_joint": -1.1394853015351272,
            "shoulder_pan_joint": 0.12281154014795169,
            "wrist_1_joint": -0.7804696478968182,
            "wrist_2_joint": 0.12958648046900423,
            "wrist_3_joint": -3.192491284697111
        }
    },
    "waypoints": [
        {
            "positions": [
                0.12281154014795169,
                -1.1394853015351272,
                1.9715477243005601,
                -0.7804696478968182,
                0.12958648046900423,
                -3.192491284697111
            ]
        },
        {
            "positions": [
                0.05686129557865949,
                -1.1727955941512507,
                2.0356521040825934,
                -0.8145902194435586,
                0.2867224075449071,
                -3.177471957230723
            ]
        },
        {
            "positions": [
                -0.009088948990632714,
                -1.2061058867673742,
                2.099756483864627,
                -0.8487107909902991,
                0.44385833462080987,
                -3.162452629764334
            ]
        },
        {
            "positions": [
                -0.07503919355992493,
                -1.2394161793834977,
                2.1638608636466605,
                -0.8828313625370395,
                0.6009942616967128,
                -3.1474333022979457
            ]
        },
        {
            "positions": [
                -0.1409894381292171,
                -1.2727264719996212,
                2.227965243428694,
                -0.91695193408378,
                0.7581301887726155,
                -3.1324139748315574
            ]
        },
        {
            "positions": [
                -0.20693968269850932,
                -1.3060367646157447,
                2.292069623210727,
                -0.9510725056305205,
                0.9152661158485184,
                -3.117394647365169
            ]
        },
        {
            "positions": [
                -0.27288992726780154,
                -1.3393470572318682,
                2.356174002992761,
                -0.9851930771772608,
                1.0724020429244212,
                -3.1023753198987802
            ]
        },
        {
            "positions": [
                -0.33884017183709375,
                -1.3726573498479917,
                2.4202783827747942,
                -1.0193136487240013,
                1.2295379700003242,
                -3.087355992432392
            ]
        }
    ]
}