{
    "goal": {
        "global_pose": {
            "orientation": {
                "w": 0.5084816217422485,
                "x": -0.49083608388900757,
                "y": 0.5182115435600281,
                "z": -0.4816462993621826
            },
            "position": {
                "x": 0.5540239810943604,
                "y": 0.030875300988554955,
                "z": 0.16403168439865112
            }
        },
        "name": "move_to_storage_A"
    },
    "id": "EST_move_to_storage_A_63",
    "joint_names": [
        "shoulder_pan_joint",
        "shoulder_lift_joint",
        "elbow_joint",
        "wrist_1_joint",
        "wrist_2_joint",
        "wrist_3_joint"
    ],
    "metrics": {
        "cart_traj_len": 0.3532446961030486,
        "distance_elbow_joint": 0.45433843499053816,
        "distance_shoulder_lift_joint": 0.23389306850239655,
        "distance_shoulder_pan_joint": 0.46373564808111456,
        "distance_wrist_1_joint": 0.26167482049901325,
        "distance_wrist_2_joint": 1.0915002125972584,
        "distance_wrist_3_joint": 0.09552312297027354,
        "smoothness": 6.661338165333112e-16,
        "time": 0.072776011,
        "traj_len": 1.61265783960535,
        "weighted_distance": 2.035899453970508
    },
    "planner": "EST",
    "start": {
        "state": {
            "elbow_joint": 1.9715477243005601,
            "shoulder_lift_joint": -1.1394853015351272,
            "shoulder_pan_joint": 0.12281154014795169,
            "wrist_1_joint": -0.7804696478968182,
            "wrist_2_joint": 0.12958648046900423,
            "wrist_3_joint": -3.192491284697111
        }
    },
    "waypoints": [
        {
            "positions": [
                0.12281154014795169,
                -1.1394853015351272,
                1.9715477243005601,
                -0.7804696478968182,
                0.12958648046900423,
                -3.192491284697111
            ]
        },
        {
            "positions": [
                0.05656359042207819,
                -1.1728985970354695,
                2.036453215013494,
                -0.8178517651109629,
                0.28551508226861255,
                -3.178845124272786
            ]
        },
        {
            "positions": [
                -0.009684359303795312,
                -1.2063118925358118,
                2.1013587057264282,
                -0.8552338823251077,
                0.4414436840682209,
                -3.1651989638484617
            ]
        },
        {
            "positions": [
                -0.07593230902966881,
                -1.2397251880361542,
                2.166264196439362,
                -0.8926159995392524,
                0.5973722858678292,
                -3.1515528034241367
            ]
        },
        {
            "positions": [
                -0.1421802587555423,
                -1.2731384835364965,
                2.2311696871522964,
                -0.9299981167533972,
                0.7533008876674375,
                -3.137906642999812
            ]
        },
        {
            "positions": [
                -0.20842820848141586,
                -1.306551779036839,
                2.29607517786523,
                -0.9673802339675419,
                0.909229489467046,
                -3.124260482575487
            ]
        },
        {
            "positions": [
                -0.2746761582072893,
                -1.3399650745371814,
                2.360980668578164,
                -1.0047623511816868,
                1.065158091266654,
                -3.1106143221511626
            ]
        },
        {
            "positions": [
                -0.34092410793316286,
                -1.3733783700375237,
                2.4258861592910983,
                -1.0421444683958314,
                1.2210866930662627,
                -3.0969681617268376
            ]
        }
    ]
}