{
    "goal": {
        "global_pose": {
            "orientation": {
                "w": 0.7047431468963623,
                "x": -0.7094548344612122,
                "y": 0.0024358443915843964,
                "z": -0.0022348060738295317
            },
            "position": {
                "x": 0.6094750761985779,
                "y": 0.3671506643295288,
                "z": 0.19426114857196808
            }
        },
        "name": "move_to_magneteinheit_A"
    },
    "id": "EST_move_to_magneteinheit_A_116",
    "joint_names": [
        "shoulder_pan_joint",
        "shoulder_lift_joint",
        "elbow_joint",
        "wrist_1_joint",
        "wrist_2_joint",
        "wrist_3_joint"
    ],
    "metrics": {
        "cart_traj_len": 3.3585439075500054,
        "distance_elbow_joint": 3.9216872570878945,
        "distance_shoulder_lift_joint": 1.0914966250003162,
        "distance_shoulder_pan_joint": 3.1086105234636996,
        "distance_wrist_1_joint": 3.499565480350296,
        "distance_wrist_2_joint": 1.4373062339976375,
        "distance_wrist_3_joint": 2.244659435893472,
        "smoothness": 0.15426970535265055,
        "time": 0.137508021,
        "traj_len": 3.911946517501653,
        "weighted_distance": 4.9728780541984126
    },
    "planner": "EST",
    "start": {
        "state": {
            "elbow_joint": -1.919618573717145,
            "shoulder_lift_joint": -1.2443395971678275,
            "shoulder_pan_joint": 2.6996025300909787,
            "wrist_1_joint": -1.548550951253194,
            "wrist_2_joint": -1.5709469090946802,
            "wrist_3_joint": 0.4420197732051276
        }
    },
    "waypoints": [
        {
            "positions": [
                2.6996025300909787,
                -1.2443395971678275,
                -1.919618573717145,
                -1.548550951253194,
                -1.5709469090946802,
                0.4420197732051276
            ]
        },
        {
            "positions": [
                2.557458892454231,
                -1.2054528840193115,
                -1.862349570101756,
                -1.4920327522129728,
                -1.5507606215219947,
                0.3739737384546667
            ]
        },
        {
            "positions": [
                2.415315254817483,
                -1.1665661708707955,
                -1.8050805664863672,
                -1.4355145531727513,
                -1.530574333949309,
                0.30592770370420586
            ]
        },
        {
            "positions": [
                2.2731716171807355,
                -1.1276794577222795,
                -1.747811562870978,
                -1.3789963541325299,
                -1.5103880463766235,
                0.237881668953745
            ]
        },
        {
            "positions": [
                2.1310279795439877,
                -1.0887927445737635,
                -1.6905425592555892,
                -1.3224781550923086,
                -1.4902017588039378,
                0.16983563420328407
            ]
        },
        {
            "positions": [
                1.98888434190724,
                -1.0499060314252475,
                -1.6332735556402003,
                -1.2659599560520873,
                -1.4700154712312523,
                0.10178959945282323
            ]
        },
        {
            "positions": [
                1.8467407042704922,
                -1.0110193182767315,
                -1.5760045520248114,
                -1.2094417570118658,
                -1.4498291836585666,
                0.033743564702362394
            ]
        },
        {
            "positions": [
                1.7045970666337444,
                -0.9721326051282155,
                -1.5187355484094225,
                -1.1529235579716444,
                -1.4296428960858811,
                -0.0343024700480985
            ]
        },
        {
            "positions": [
                1.5624534289969967,
                -0.9332458919796995,
                -1.4614665447940334,
                -1.096405358931423,
                -1.4094566085131954,
                -0.10234850479855945
            ]
        },
        {
            "positions": [
                1.420309791360249,
                -0.8943591788311835,
                -1.4041975411786445,
                -1.0398871598912018,
                -1.38927032094051,
                -0.17039453954902023
            ]
        },
        {
            "positions": [
                1.2781661537235012,
                -0.8554724656826675,
                -1.3469285375632556,
                -0.9833689608509804,
                -1.3690840333678245,
                -0.23844057429948112
            ]
        },
        {
            "positions": [
                1.1360225160867532,
                -0.8165857525341516,
                -1.2896595339478667,
                -0.926850761810759,
                -1.3488977457951388,
                -0.306486609049942
            ]
        },
        {
            "positions": [
                0.9938788784500057,
                -0.7776990393856356,
                -1.2323905303324776,
                -0.8703325627705376,
                -1.3287114582224533,
                -0.3745326438004028
            ]
        },
        {
            "positions": [
                0.8517352408132579,
                -0.7388123262371196,
                -1.175121526717089,
                -0.8138143637303162,
                -1.3085251706497676,
                -0.4425786785508638
            ]
        },
        {
            "positions": [
                0.7095916031765104,
                -0.6999256130886036,
                -1.1178525231016998,
                -0.7572961646900949,
                -1.288338883077082,
                -0.5106247133013246
            ]
        },
        {
            "positions": [
                0.5674479655397624,
                -0.6610388999400876,
                -1.060583519486311,
                -0.7007779656498735,
                -1.2681525955043964,
                -0.5786707480517854
            ]
        },
        {
            "positions": [
                0.42530432790301465,
                -0.6221521867915716,
                -1.003314515870922,
                -0.6442597666096521,
                -1.247966307931711,
                -0.6467167828022464
            ]
        },
        {
            "positions": [
                0.2831606902662669,
                -0.5832654736430556,
                -0.946045512255533,
                -0.5877415675694307,
                -1.2277800203590252,
                -0.7147628175527072
            ]
        },
        {
            "positions": [
                0.14101705262951914,
                -0.5443787604945396,
                -0.888776508640144,
                -0.5312233685292094,
                -1.2075937327863397,
                -0.782808852303168
            ]
        },
        {
            "positions": [
                -0.0011265850072286199,
                -0.5054920473460236,
                -0.8315075050247551,
                -0.4747051694889881,
                -1.1874074452136543,
                -0.8508548870536288
            ]
        },
        {
            "positions": [
                -0.14327022264397624,
                -0.4666053341975076,
                -0.7742385014093661,
                -0.4181869704487665,
                -1.1672211576409686,
                -0.9189009218040899
            ]
        },
        {
            "positions": [
                -0.12998333410753912,
                -0.4822934522990074,
                -0.6354231421703603,
                -0.29972689547147313,
                -1.1155421335137723,
                -0.8747139847598772
            ]
        },
        {
            "positions": [
                -0.11669644557110204,
                -0.4979815704005072,
                -0.4966077829313546,
                -0.1812668204941797,
                -1.063863109386576,
                -0.8305270477156643
            ]
        },
        {
            "positions": [
                -0.10340955703466492,
                -0.513669688502007,
                -0.3577924236923489,
                -0.06280674551688631,
                -1.0121840852593798,
                -0.7863401106714516
            ]
        },
        {
            "positions": [
                -0.09012266849822782,
                -0.5293578066035068,
                -0.21897706445334308,
                0.05565332946040713,
                -0.9605050611321835,
                -0.7421531736272389
            ]
        },
        {
            "positions": [
                -0.07683577996179072,
                -0.5450459247050066,
                -0.08016170521433741,
                0.17411340443770051,
                -0.9088260370049872,
                -0.6979662365830261
            ]
        },
        {
            "positions": [
                -0.06354889142535362,
                -0.5607340428065064,
                0.05865365402466827,
                0.2925734794149939,
                -0.8571470128777909,
                -0.6537792995388134
            ]
        },
        {
            "positions": [
                -0.050262002888916524,
                -0.5764221609080062,
                0.19746901326367405,
                0.4110335543922873,
                -0.8054679887505947,
                -0.6095923624946006
            ]
        },
        {
            "positions": [
                -0.03697511435247941,
                -0.5921102790095061,
                0.33628437250267995,
                0.5294936293695808,
                -0.7537889646233983,
                -0.5654054254503877
            ]
        },
        {
            "positions": [
                -0.02368822581604231,
                -0.6077983971110058,
                0.4750997317416855,
                0.6479537043468743,
                -0.702109940496202,
                -0.521218488406175
            ]
        },
        {
            "positions": [
                -0.01040133727960521,
                -0.6234865152125056,
                0.6139150909806913,
                0.7664137793241675,
                -0.6504309163690057,
                -0.4770315513619623
            ]
        },
        {
            "positions": [
                0.002885551256831903,
                -0.6391746333140055,
                0.7527304502196971,
                0.884873854301461,
                -0.5987518922418094,
                -0.4328446143177495
            ]
        },
        {
            "positions": [
                0.01617243979326899,
                -0.6548627514155052,
                0.8915458094587027,
                1.0033339292787544,
                -0.5470728681146132,
                -0.38865767727353684
            ]
        },
        {
            "positions": [
                0.029459328329706103,
                -0.670550869517005,
                1.0303611686977088,
                1.121794004256048,
                -0.4953938439874168,
                -0.344470740229324
            ]
        },
        {
            "positions": [
                0.04274621686614319,
                -0.6862389876185049,
                1.1691765279367141,
                1.240254079233341,
                -0.44371481986022066,
                -0.3002838031851113
            ]
        },
        {
            "positions": [
                0.0560331054025803,
                -0.7019271057200047,
                1.30799188717572,
                1.3587141542106345,
                -0.3920357957330243,
                -0.25609686614089855
            ]
        },
        {
            "positions": [
                0.06931999393901742,
                -0.7176152238215046,
                1.4468072464147261,
                1.477174229187928,
                -0.340356771605828,
                -0.2119099290966857
            ]
        },
        {
            "positions": [
                0.0826068824754545,
                -0.7333033419230043,
                1.5856226056537315,
                1.595634304165221,
                -0.28867774747863184,
                -0.16772299205247299
            ]
        },
        {
            "positions": [
                0.09589377101189162,
                -0.748991460024504,
                1.7244379648927373,
                1.714094379142515,
                -0.23699872335143546,
                -0.12353605500826015
            ]
        },
        {
            "positions": [
                0.1091806595483287,
                -0.7646795781260038,
                1.863253324131743,
                1.832554454119808,
                -0.1853196992242393,
                -0.07934911796404753
            ]
        },
        {
            "positions": [
                0.12246754808476579,
                -0.7803676962275037,
                2.002068683370749,
                1.9510145290971017,
                -0.13364067509704286,
                -0.035162180919834696
            ]
        }
    ]
}{
    "goal": {
        "global_pose": {
            "orientation": {
                "w": 0.7047431468963623,
                "x": -0.7094548344612122,
                "y": 0.0024358443915843964,
                "z": -0.0022348060738295317
            },
            "position": {
                "x": 0.6094750761985779,
                "y": 0.3671506643295288,
                "z": 0.19426114857196808
            }
        },
        "name": "move_to_magneteinheit_A"
    },
    "id": "EST_move_to_magneteinheit_A_116",
    "joint_names": [
        "shoulder_pan_joint",
        "shoulder_lift_joint",
        "elbow_joint",
        "wrist_1_joint",
        "wrist_2_joint",
        "wrist_3_joint"
    ],
    "metrics": {
        "cart_traj_len": 1.3382736755334395,
        "distance_elbow_joint": 0.584559797095759,
        "distance_shoulder_lift_joint": 0.7536484395757115,
        "distance_shoulder_pan_joint": 1.2421955636951831,
        "distance_wrist_1_joint": 0.7647221189208226,
        "distance_wrist_2_joint": 1.4464173212464286,
        "distance_wrist_3_joint": 4.260428288287622,
        "smoothness": 0.04319440572873836,
        "time": 0.302263467,
        "traj_len": 3.008649452631783,
        "weighted_distance": 4.44791721433347
    },
    "planner": "EST",
    "start": {
        "state": {
            "elbow_joint": 1.919643534880228,
            "shoulder_lift_joint": -1.8972525353963687,
            "shoulder_pan_joint": -1.1188672234189438,
            "wrist_1_joint": -1.5931878212786155,
            "wrist_2_joint": 1.5706036197970081,
            "wrist_3_joint": 1.118896926603594
        }
    },
    "waypoints": [
        {
            "positions": [
                -1.1188672234189438,
                -1.8972525353963687,
                1.919643534880228,
                -1.5931878212786155,
                1.5706036197970081,
                1.118896926603594
            ]
        },
        {
            "positions": [
                -1.0643205543946523,
                -1.8621605695799366,
                1.907156773188037,
                -1.562404981625192,
                1.50319431790769,
                0.9244086762275275
            ]
        },
        {
            "positions": [
                -1.0097738853703606,
                -1.8270686037635042,
                1.894670011495846,
                -1.5316221419717686,
                1.4357850160183723,
                0.7299204258514611
            ]
        },
        {
            "positions": [
                -0.955227216346069,
                -1.791976637947072,
                1.8821832498036548,
                -1.500839302318345,
                1.3683757141290542,
                0.5354321754753948
            ]
        },
        {
            "positions": [
                -0.9006805473217774,
                -1.75688467213064,
                1.8696964881114637,
                -1.4700564626649217,
                1.3009664122397364,
                0.34094392509932836
            ]
        },
        {
            "positions": [
                -0.8461338782974859,
                -1.7217927063142076,
                1.8572097264192726,
                -1.4392736230114982,
                1.2335571103504184,
                0.14645567472326204
            ]
        },
        {
            "positions": [
                -0.7915872092731941,
                -1.6867007404977754,
                1.8447229647270815,
                -1.4084907833580749,
                1.1661478084611006,
                -0.04803257565280439
            ]
        },
        {
            "positions": [
                -0.7370405402489026,
                -1.6516087746813433,
                1.8322362030348904,
                -1.3777079437046513,
                1.0987385065717825,
                -0.2425208260288707
            ]
        },
        {
            "positions": [
                -0.6824938712246109,
                -1.616516808864911,
                1.8197494413426993,
                -1.346925104051228,
                1.0313292046824647,
                -0.43700907640493725
            ]
        },
        {
            "positions": [
                -0.6279472022003194,
                -1.5814248430484787,
                1.8072626796505082,
                -1.3161422643978045,
                0.9639199027931467,
                -0.6314973267810036
            ]
        },
        {
            "positions": [
                -0.5734005331760278,
                -1.5463328772320466,
                1.7947759179583174,
                -1.2853594247443811,
                0.8965106009038287,
                -0.8259855771570699
            ]
        },
        {
            "positions": [
                -0.5188538641517361,
                -1.5112409114156142,
                1.7822891562661263,
                -1.2545765850909576,
                0.8291012990145107,
                -1.0204738275331364
            ]
        },
        {
            "positions": [
                -0.46430719512744456,
                -1.476148945599182,
                1.7698023945739352,
                -1.2237937454375343,
                0.7616919971251929,
                -1.2149620779092027
            ]
        },
        {
            "positions": [
                -0.40976052610315283,
                -1.4410569797827497,
                1.757315632881744,
                -1.1930109057841107,
                0.6942826952358748,
                -1.4094503282852695
            ]
        },
        {
            "positions": [
                -0.35521385707886133,
                -1.4059650139663176,
                1.744828871189553,
                -1.1622280661306874,
                0.6268733933465569,
                -1.6039385786613354
            ]
        },
        {
            "positions": [
                -0.3006671880545697,
                -1.3708730481498854,
                1.732342109497362,
                -1.1314452264772639,
                0.5594640914572389,
                -1.7984268290374021
            ]
        },
        {
            "positions": [
                -0.2461205190302781,
                -1.3357810823334533,
                1.7198553478051708,
                -1.1006623868238405,
                0.49205478956792104,
                -1.9929150794134685
            ]
        },
        {
            "positions": [
                -0.19157385000598648,
                -1.3006891165170211,
                1.7073685861129797,
                -1.069879547170417,
                0.424645487678603,
                -2.187403329789535
            ]
        },
        {
            "positions": [
                -0.13702718098169486,
                -1.2655971507005888,
                1.6948818244207886,
                -1.0390967075169937,
                0.3572361857892852,
                -2.3818915801656013
            ]
        },
        {
            "positions": [
                -0.08248051195740325,
                -1.2305051848841564,
                1.6823950627285975,
                -1.0083138678635701,
                0.28982688389996714,
                -2.5763798305416676
            ]
        },
        {
            "positions": [
                -0.02793384293311174,
                -1.1954132190677242,
                1.6699083010364064,
                -0.9775310282101467,
                0.22241758201064932,
                -2.770868080917734
            ]
        },
        {
            "positions": [
                0.02661282609117991,
                -1.160321253251292,
                1.6574215393442153,
                -0.9467481885567233,
                0.15500828012133136,
                -2.9653563312938003
            ]
        },
        {
            "positions": [
                0.07497058318370958,
                -1.1519626745359748,
                1.8185904401240884,
                -0.887606945457258,
                0.13959728933595544,
                -3.053443846488914
            ]
        },
        {
            "positions": [
                0.12332834027623923,
                -1.1436040958206573,
                1.9797593409039616,
                -0.8284657023577928,
                0.12418629855057954,
                -3.141531361684028
            ]
        }
    ]
}