{
    "goal": {
        "global_pose": {
            "orientation": {
                "w": 0.7047431468963623,
                "x": -0.7094548344612122,
                "y": 0.0024358443915843964,
                "z": -0.0022348060738295317
            },
            "position": {
                "x": 0.6094750761985779,
                "y": 0.3671506643295288,
                "z": 0.19426114857196808
            }
        },
        "name": "move_to_magneteinheit_A"
    },
    "id": "EST_move_to_magneteinheit_A_8",
    "joint_names": [
        "shoulder_pan_joint",
        "shoulder_lift_joint",
        "elbow_joint",
        "wrist_1_joint",
        "wrist_2_joint",
        "wrist_3_joint"
    ],
    "metrics": {
        "cart_traj_len": 3.703856476688815,
        "distance_elbow_joint": 3.892072892887277,
        "distance_shoulder_lift_joint": 1.1623606674375047,
        "distance_shoulder_pan_joint": 4.431291015603286,
        "distance_wrist_1_joint": 0.9393331124527525,
        "distance_wrist_2_joint": 1.6967336219279918,
        "distance_wrist_3_joint": 3.6255953372712333,
        "smoothness": 0.16613481752271783,
        "time": 0.064324221,
        "traj_len": 3.9682977014810827,
        "weighted_distance": 5.063066665224077
    },
    "planner": "EST",
    "start": {
        "state": {
            "elbow_joint": -1.919618573717145,
            "shoulder_lift_joint": -1.2443395971678275,
            "shoulder_pan_joint": 2.6996025300909787,
            "wrist_1_joint": -1.548550951253194,
            "wrist_2_joint": -1.5709469090946802,
            "wrist_3_joint": 0.4420197732051276
        }
    },
    "waypoints": [
        {
            "positions": [
                2.6996025300909787,
                -1.2443395971678275,
                -1.919618573717145,
                -1.548550951253194,
                -1.5709469090946802,
                0.4420197732051276
            ]
        },
        {
            "positions": [
                2.553604351320839,
                -1.266366041043528,
                -1.7664785880997242,
                -1.5523899168681843,
                -1.5364893340894556,
                0.4106070177699065
            ]
        },
        {
            "positions": [
                2.4076061725506994,
                -1.2883924849192285,
                -1.6133386024823038,
                -1.5562288824831745,
                -1.502031759084231,
                0.37919426233468545
            ]
        },
        {
            "positions": [
                2.2616079937805598,
                -1.3104189287949288,
                -1.4601986168648833,
                -1.5600678480981647,
                -1.4675741840790064,
                0.34778150689946435
            ]
        },
        {
            "positions": [
                2.11560981501042,
                -1.3324453726706293,
                -1.3070586312474626,
                -1.563906813713155,
                -1.433116609073782,
                0.31636875146424326
            ]
        },
        {
            "positions": [
                1.9696116362402802,
                -1.3544718165463299,
                -1.1539186456300419,
                -1.5677457793281453,
                -1.3986590340685572,
                0.2849559960290222
            ]
        },
        {
            "positions": [
                1.8236134574701406,
                -1.3764982604220304,
                -1.0007786600126214,
                -1.5715847449431355,
                -1.3642014590633327,
                0.2535432405938011
            ]
        },
        {
            "positions": [
                1.677615278700001,
                -1.398524704297731,
                -0.8476386743952007,
                -1.5754237105581257,
                -1.3297438840581082,
                0.22213048515858003
            ]
        },
        {
            "positions": [
                1.5316170999298613,
                -1.4205511481734314,
                -0.6944986887777802,
                -1.5792626761731159,
                -1.2952863090528837,
                0.190717729723359
            ]
        },
        {
            "positions": [
                1.3856189211597214,
                -1.442577592049132,
                -0.5413587031603597,
                -1.5831016417881063,
                -1.260828734047659,
                0.1593049742881379
            ]
        },
        {
            "positions": [
                1.2396207423895818,
                -1.4646040359248322,
                -0.388218717542939,
                -1.5869406074030965,
                -1.2263711590424342,
                0.1278922188529168
            ]
        },
        {
            "positions": [
                1.093622563619442,
                -1.4866304798005328,
                -0.23507873192551854,
                -1.5907795730180867,
                -1.1919135840372097,
                0.09647946341769575
            ]
        },
        {
            "positions": [
                0.9476243848493024,
                -1.5086569236762333,
                -0.08193874630809783,
                -1.594618538633077,
                -1.1574560090319852,
                0.06506670798247466
            ]
        },
        {
            "positions": [
                0.8016262060791628,
                -1.5306833675519338,
                0.07120123930932265,
                -1.598457504248067,
                -1.1229984340267607,
                0.03365395254725362
            ]
        },
        {
            "positions": [
                0.6556280273090231,
                -1.5527098114276343,
                0.22434122492674358,
                -1.6022964698630573,
                -1.088540859021536,
                0.002241197112032467
            ]
        },
        {
            "positions": [
                0.5096298485388835,
                -1.5747362553033346,
                0.37748121054416406,
                -1.6061354354780475,
                -1.0540832840163115,
                -0.029171558323188573
            ]
        },
        {
            "positions": [
                0.36363166976874384,
                -1.5967626991790351,
                0.5306211961615845,
                -1.609974401093038,
                -1.019625709011087,
                -0.060584313758409614
            ]
        },
        {
            "positions": [
                0.21763349099860374,
                -1.6187891430547356,
                0.6837611817790055,
                -1.613813366708028,
                -0.9851681340058622,
                -0.09199706919363076
            ]
        },
        {
            "positions": [
                0.07163531222846409,
                -1.6408155869304362,
                0.8369011673964255,
                -1.6176523323230183,
                -0.9507105590006377,
                -0.1234098246288518
            ]
        },
        {
            "positions": [
                -0.07436286654167512,
                -1.6628420308061367,
                0.990041153013846,
                -1.6214912979380085,
                -0.9162529839954132,
                -0.15482258006407285
            ]
        },
        {
            "positions": [
                -0.22036104531181522,
                -1.6848684746818372,
                1.143181138631267,
                -1.6253302635529987,
                -0.8817954089901885,
                -0.186235335499294
            ]
        },
        {
            "positions": [
                -0.36635922408195487,
                -1.7068949185575377,
                1.2963211242486874,
                -1.6291692291679891,
                -0.847337833984964,
                -0.21764809093451504
            ]
        },
        {
            "positions": [
                -0.5123574028520945,
                -1.728921362433238,
                1.4494611098661079,
                -1.6330081947829793,
                -0.8128802589797395,
                -0.24906084636973608
            ]
        },
        {
            "positions": [
                -0.6583555816222342,
                -1.7509478063089388,
                1.6026010954835288,
                -1.6368471603979695,
                -0.7784226839745148,
                -0.28047360180495723
            ]
        },
        {
            "positions": [
                -0.8043537603923737,
                -1.772974250184639,
                1.755741081100949,
                -1.6406861260129597,
                -0.7439651089692902,
                -0.3118863572401783
            ]
        },
        {
            "positions": [
                -0.7498046589147305,
                -1.735696249336363,
                1.7684889186344304,
                -1.59085095320749,
                -0.692803237098549,
                -0.4808092517593505
            ]
        },
        {
            "positions": [
                -0.6952555574370873,
                -1.698418248488087,
                1.7812367561679119,
                -1.5410157804020201,
                -0.6416413652278077,
                -0.6497321462785227
            ]
        },
        {
            "positions": [
                -0.6407064559594441,
                -1.661140247639811,
                1.7939845937013932,
                -1.4911806075965504,
                -0.5904794933570664,
                -0.8186550407976949
            ]
        },
        {
            "positions": [
                -0.5861573544818008,
                -1.6238622467915347,
                1.8067324312348747,
                -1.4413454347910803,
                -0.5393176214863251,
                -0.9875779353168671
            ]
        },
        {
            "positions": [
                -0.5316082530041577,
                -1.5865842459432586,
                1.819480268768356,
                -1.3915102619856106,
                -0.4881557496155839,
                -1.1565008298360393
            ]
        },
        {
            "positions": [
                -0.4770591515265144,
                -1.5493062450949826,
                1.8322281063018375,
                -1.3416750891801408,
                -0.4369938777448426,
                -1.3254237243552116
            ]
        },
        {
            "positions": [
                -0.4225100500488712,
                -1.5120282442467066,
                1.8449759438353188,
                -1.291839916374671,
                -0.3858320058741014,
                -1.4943466188743835
            ]
        },
        {
            "positions": [
                -0.367960948571228,
                -1.4747502433984305,
                1.8577237813688003,
                -1.2420047435692012,
                -0.3346701340033601,
                -1.6632695133935558
            ]
        },
        {
            "positions": [
                -0.31341184709358477,
                -1.4374722425501545,
                1.8704716189022816,
                -1.1921695707637314,
                -0.2835082621326188,
                -1.832192407912728
            ]
        },
        {
            "positions": [
                -0.2588627456159416,
                -1.4001942417018785,
                1.8832194564357632,
                -1.1423343979582614,
                -0.23234639026187753,
                -2.0011153024319004
            ]
        },
        {
            "positions": [
                -0.20431364413829833,
                -1.3629162408536022,
                1.8959672939692445,
                -1.0924992251527916,
                -0.18118451839113625,
                -2.1700381969510727
            ]
        },
        {
            "positions": [
                -0.1497645426606551,
                -1.3256382400053264,
                1.908715131502726,
                -1.0426640523473218,
                -0.13002264652039497,
                -2.3389610914702446
            ]
        },
        {
            "positions": [
                -0.09521544118301195,
                -1.2883602391570501,
                1.9214629690362073,
                -0.9928288795418522,
                -0.0788607746496538,
                -2.507883985989417
            ]
        },
        {
            "positions": [
                -0.040666339705368704,
                -1.2510822383087743,
                1.9342108065696886,
                -0.9429937067363823,
                -0.027698902778912515,
                -2.6768068805085887
            ]
        },
        {
            "positions": [
                0.013882761772274432,
                -1.213804237460498,
                1.94695864410317,
                -0.8931585339309125,
                0.023462969091828767,
                -2.845729775027761
            ]
        },
        {
            "positions": [
                0.06843186324991768,
                -1.176526236612222,
                1.9597064816366516,
                -0.8433233611254426,
                0.07462484096257005,
                -3.0146526695469333
            ]
        },
        {
            "positions": [
                0.12298096472756087,
                -1.139248235763946,
                1.972454319170133,
                -0.7934881883199728,
                0.12578671283331133,
                -3.1835755640661056
            ]
        }
    ]
}{
    "goal": {
        "global_pose": {
            "orientation": {
                "w": 0.7047431468963623,
                "x": -0.7094548344612122,
                "y": 0.0024358443915843964,
                "z": -0.0022348060738295317
            },
            "position": {
                "x": 0.6094750761985779,
                "y": 0.3671506643295288,
                "z": 0.19426114857196808
            }
        },
        "name": "move_to_magneteinheit_A"
    },
    "id": "EST_move_to_magneteinheit_A_8",
    "joint_names": [
        "shoulder_pan_joint",
        "shoulder_lift_joint",
        "elbow_joint",
        "wrist_1_joint",
        "wrist_2_joint",
        "wrist_3_joint"
    ],
    "metrics": {
        "cart_traj_len": 1.2004388950152247,
        "distance_elbow_joint": 0.06714268044896143,
        "distance_shoulder_lift_joint": 0.7505402021652154,
        "distance_shoulder_pan_joint": 1.241364222210115,
        "distance_wrist_1_joint": 0.7421098964976162,
        "distance_wrist_2_joint": 1.6351030878006312,
        "distance_wrist_3_joint": 4.257875229516696,
        "smoothness": 0.19753163019456002,
        "time": 0.213185485,
        "traj_len": 2.9485819165556917,
        "weighted_distance": 4.425731438075618
    },
    "planner": "EST",
    "start": {
        "state": {
            "elbow_joint": 1.919643534880228,
            "shoulder_lift_joint": -1.8972525353963687,
            "shoulder_pan_joint": -1.1188672234189438,
            "wrist_1_joint": -1.5931878212786155,
            "wrist_2_joint": 1.5706036197970081,
            "wrist_3_joint": 1.118896926603594
        }
    },
    "waypoints": [
        {
            "positions": [
                -1.1188672234189438,
                -1.8972525353963687,
                1.919643534880228,
                -1.5931878212786155,
                1.5706036197970081,
                1.118896926603594
            ]
        },
        {
            "positions": [
                -1.060678753909614,
                -1.8635209991765813,
                1.9214948284633822,
                -1.5590698622189212,
                1.49728750777743,
                0.9336406324896093
            ]
        },
        {
            "positions": [
                -1.0024902844002845,
                -1.8297894629567941,
                1.9233461220465362,
                -1.524951903159227,
                1.4239713957578517,
                0.7483843383756246
            ]
        },
        {
            "positions": [
                -0.9443018148909548,
                -1.7960579267370067,
                1.9251974156296903,
                -1.4908339440995324,
                1.3506552837382735,
                0.5631280442616399
            ]
        },
        {
            "positions": [
                -0.8861133453816251,
                -1.7623263905172193,
                1.9270487092128443,
                -1.4567159850398381,
                1.2773391717186953,
                0.37787175014765517
            ]
        },
        {
            "positions": [
                -0.8279248758722955,
                -1.728594854297432,
                1.9289000027959984,
                -1.4225980259801438,
                1.204023059699117,
                0.19261545603367047
            ]
        },
        {
            "positions": [
                -0.7697364063629657,
                -1.6948633180776447,
                1.9307512963791524,
                -1.3884800669204496,
                1.1307069476795388,
                0.007359161919685775
            ]
        },
        {
            "positions": [
                -0.711547936853636,
                -1.6611317818578573,
                1.9326025899623065,
                -1.3543621078607553,
                1.0573908356599606,
                -0.17789713219429903
            ]
        },
        {
            "positions": [
                -0.6533594673443064,
                -1.6274002456380698,
                1.9344538835454606,
                -1.320244148801061,
                0.9840747236403824,
                -0.3631534263082836
            ]
        },
        {
            "positions": [
                -0.5951709978349766,
                -1.5936687094182826,
                1.9363051771286146,
                -1.2861261897413665,
                0.9107586116208042,
                -0.5484097204222684
            ]
        },
        {
            "positions": [
                -0.536982528325647,
                -1.5599371731984952,
                1.9381564707117687,
                -1.2520082306816722,
                0.837442499601226,
                -0.733666014536253
            ]
        },
        {
            "positions": [
                -0.4787940588163172,
                -1.5262056369787078,
                1.9400077642949225,
                -1.217890271621978,
                0.7641263875816477,
                -0.9189223086502378
            ]
        },
        {
            "positions": [
                -0.42060558930698755,
                -1.4924741007589204,
                1.9418590578780766,
                -1.1837723125622837,
                0.6908102755620695,
                -1.1041786027642224
            ]
        },
        {
            "positions": [
                -0.3624171197976578,
                -1.4587425645391332,
                1.9437103514612306,
                -1.1496543535025894,
                0.6174941635424913,
                -1.2894348968782074
            ]
        },
        {
            "positions": [
                -0.30422865028832824,
                -1.4250110283193458,
                1.9455616450443847,
                -1.1155363944428949,
                0.5441780515229131,
                -1.474691190992192
            ]
        },
        {
            "positions": [
                -0.24604018077899847,
                -1.3912794920995584,
                1.9474129386275387,
                -1.0814184353832006,
                0.4708619395033349,
                -1.6599474851061766
            ]
        },
        {
            "positions": [
                -0.18785171126966882,
                -1.3575479558797712,
                1.9492642322106928,
                -1.0473004763235063,
                0.39754582748375666,
                -1.8452037792201612
            ]
        },
        {
            "positions": [
                -0.12966324176033905,
                -1.3238164196599838,
                1.9511155257938468,
                -1.0131825172638118,
                0.32422971546417845,
                -2.0304600733341465
            ]
        },
        {
            "positions": [
                -0.0714747722510094,
                -1.2900848834401963,
                1.952966819377001,
                -0.9790645582041176,
                0.25091360344460023,
                -2.215716367448131
            ]
        },
        {
            "positions": [
                -0.013286302741679634,
                -1.2563533472204091,
                1.954818112960155,
                -0.9449465991444234,
                0.177597491425022,
                -2.4009726615621156
            ]
        },
        {
            "positions": [
                0.04490216676764991,
                -1.2226218110006217,
                1.956669406543309,
                -0.9108286400847291,
                0.1042813794054438,
                -2.5862289556761002
            ]
        },
        {
            "positions": [
                0.10309063627697973,
                -1.1888902747808343,
                1.958520700126463,
                -0.8767106810250347,
                0.03096526738586569,
                -2.7714852497900853
            ]
        },
        {
            "positions": [
                0.11279381753407551,
                -1.1678013040059938,
                1.9726534577278263,
                -0.863894302903017,
                0.07869763508060999,
                -2.9552317763515936
            ]
        },
        {
            "positions": [
                0.12249699879117129,
                -1.1467123332311533,
                1.9867862153291895,
                -0.8510779247809993,
                0.1264300027753543,
                -3.138978302913102
            ]
        }
    ]
}