{
    "goal": {
        "global_pose": {
            "orientation": {
                "w": 0.5084816217422485,
                "x": -0.49083608388900757,
                "y": 0.5182115435600281,
                "z": -0.4816462993621826
            },
            "position": {
                "x": 0.5540239810943604,
                "y": 0.030875300988554955,
                "z": 0.16403168439865112
            }
        },
        "name": "move_to_storage_A"
    },
    "id": "EST_move_to_storage_A_146",
    "joint_names": [
        "shoulder_pan_joint",
        "shoulder_lift_joint",
        "elbow_joint",
        "wrist_1_joint",
        "wrist_2_joint",
        "wrist_3_joint"
    ],
    "metrics": {
        "cart_traj_len": 0.3537095897396723,
        "distance_elbow_joint": 0.4493169581067442,
        "distance_shoulder_lift_joint": 0.2364401285809452,
        "distance_shoulder_pan_joint": 0.4604004486370675,
        "distance_wrist_1_joint": 0.2353308166443343,
        "distance_wrist_2_joint": 1.110272496674149,
        "distance_wrist_3_joint": 0.09367447998756795,
        "smoothness": 1.1102230263833737e-15,
        "time": 0.059411903,
        "traj_len": 1.6079288941463823,
        "weighted_distance": 2.029381088392327
    },
    "planner": "EST",
    "start": {
        "state": {
            "elbow_joint": 1.9715477243005601,
            "shoulder_lift_joint": -1.1394853015351272,
            "shoulder_pan_joint": 0.12281154014795169,
            "wrist_1_joint": -0.7804696478968182,
            "wrist_2_joint": 0.12958648046900423,
            "wrist_3_joint": -3.192491284697111
        }
    },
    "waypoints": [
        {
            "positions": [
                0.12281154014795169,
                -1.1394853015351272,
                1.9715477243005601,
                -0.7804696478968182,
                0.12958648046900423,
                -3.192491284697111
            ]
        },
        {
            "positions": [
                0.05704004748551347,
                -1.1732624627609765,
                2.0357358611729524,
                -0.8140883359888659,
                0.2881968371367398,
                -3.1791092161274586
            ]
        },
        {
            "positions": [
                -0.008731445176924743,
                -1.2070396239868257,
                2.099923998045344,
                -0.8477070240809137,
                0.44680719380447537,
                -3.165727147557806
            ]
        },
        {
            "positions": [
                -0.07450293783936295,
                -1.240816785212675,
                2.1641121349177364,
                -0.8813257121729614,
                0.605417550472211,
                -3.1523450789881533
            ]
        },
        {
            "positions": [
                -0.14027443050180116,
                -1.2745939464385243,
                2.228300271790128,
                -0.9149444002650092,
                0.7640279071399465,
                -3.138963010418501
            ]
        },
        {
            "positions": [
                -0.20604592316423942,
                -1.3083711076643738,
                2.2924884086625203,
                -0.9485630883570569,
                0.9226382638076821,
                -3.1255809418488485
            ]
        },
        {
            "positions": [
                -0.27181741582667757,
                -1.342148268890223,
                2.356676545534912,
                -0.9821817764491048,
                1.0812486204754177,
                -3.112198873279196
            ]
        },
        {
            "positions": [
                -0.3375889084891158,
                -1.3759254301160724,
                2.4208646824073043,
                -1.0158004645411525,
                1.2398589771431532,
                -3.0988168047095432
            ]
        }
    ]
}