{
    "goal": {
        "global_pose": {
            "orientation": {
                "w": 0.7047431468963623,
                "x": -0.7094548344612122,
                "y": 0.0024358443915843964,
                "z": -0.0022348060738295317
            },
            "position": {
                "x": 0.6094750761985779,
                "y": 0.3671506643295288,
                "z": 0.19426114857196808
            }
        },
        "name": "move_to_magneteinheit_A"
    },
    "id": "EST_move_to_magneteinheit_A_94",
    "joint_names": [
        "shoulder_pan_joint",
        "shoulder_lift_joint",
        "elbow_joint",
        "wrist_1_joint",
        "wrist_2_joint",
        "wrist_3_joint"
    ],
    "metrics": {
        "cart_traj_len": 3.899077135910943,
        "distance_elbow_joint": 3.878435271012113,
        "distance_shoulder_lift_joint": 0.11296902352845795,
        "distance_shoulder_pan_joint": 3.6836037270006936,
        "distance_wrist_1_joint": 0.8138212923222355,
        "distance_wrist_2_joint": 1.6923344177234785,
        "distance_wrist_3_joint": 2.600562312199535,
        "smoothness": 0.2017940582560788,
        "time": 0.057304748,
        "traj_len": 3.575153988821533,
        "weighted_distance": 4.526478363831125
    },
    "planner": "EST",
    "start": {
        "state": {
            "elbow_joint": -1.919618573717145,
            "shoulder_lift_joint": -1.2443395971678275,
            "shoulder_pan_joint": 2.6996025300909787,
            "wrist_1_joint": -1.548550951253194,
            "wrist_2_joint": -1.5709469090946802,
            "wrist_3_joint": 0.4420197732051276
        }
    },
    "waypoints": [
        {
            "positions": [
                2.6996025300909787,
                -1.2443395971678275,
                -1.919618573717145,
                -1.548550951253194,
                -1.5709469090946802,
                0.4420197732051276
            ]
        },
        {
            "positions": [
                2.579224944142695,
                -1.244033896149169,
                -1.788715051190033,
                -1.5344412037340163,
                -1.5270145930637695,
                0.5231598175982751
            ]
        },
        {
            "positions": [
                2.458847358194411,
                -1.2437281951305108,
                -1.6578115286629207,
                -1.5203314562148382,
                -1.4830822770328589,
                0.6042998619914227
            ]
        },
        {
            "positions": [
                2.3384697722461274,
                -1.2434224941118523,
                -1.5269080061358087,
                -1.5062217086956604,
                -1.4391499610019483,
                0.6854399063845703
            ]
        },
        {
            "positions": [
                2.2180921862978433,
                -1.243116793093194,
                -1.3960044836086967,
                -1.4921119611764826,
                -1.3952176449710376,
                0.7665799507777179
            ]
        },
        {
            "positions": [
                2.0977146003495597,
                -1.2428110920745357,
                -1.2651009610815844,
                -1.4780022136573048,
                -1.3512853289401268,
                0.8477199951708655
            ]
        },
        {
            "positions": [
                1.977337014401276,
                -1.2425053910558772,
                -1.1341974385544726,
                -1.4638924661381267,
                -1.3073530129092161,
                0.9288600395640131
            ]
        },
        {
            "positions": [
                1.8569594284529924,
                -1.2421996900372188,
                -1.0032939160273604,
                -1.449782718618949,
                -1.2634206968783055,
                1.0100000839571606
            ]
        },
        {
            "positions": [
                1.7365818425047084,
                -1.2418939890185605,
                -0.8723903935002484,
                -1.435672971099771,
                -1.2194883808473949,
                1.0911401283503082
            ]
        },
        {
            "positions": [
                1.6162042565564247,
                -1.241588287999902,
                -0.7414868709731364,
                -1.4215632235805933,
                -1.1755560648164842,
                1.1722801727434558
            ]
        },
        {
            "positions": [
                1.495826670608141,
                -1.2412825869812436,
                -0.6105833484460241,
                -1.4074534760614152,
                -1.1316237487855736,
                1.2534202171366033
            ]
        },
        {
            "positions": [
                1.375449084659857,
                -1.2409768859625854,
                -0.47967982591891234,
                -1.3933437285422374,
                -1.087691432754663,
                1.334560261529751
            ]
        },
        {
            "positions": [
                1.2550714987115732,
                -1.240671184943927,
                -0.3487763033918001,
                -1.3792339810230596,
                -1.043759116723752,
                1.4157003059228985
            ]
        },
        {
            "positions": [
                1.1346939127632896,
                -1.2403654839252685,
                -0.2178727808646881,
                -1.3651242335038818,
                -0.9998268006928416,
                1.4968403503160461
            ]
        },
        {
            "positions": [
                1.014316326815006,
                -1.2400597829066102,
                -0.08696925833757607,
                -1.3510144859847038,
                -0.9558944846619309,
                1.5779803947091937
            ]
        },
        {
            "positions": [
                0.8939387408667221,
                -1.2397540818879518,
                0.04393426418953594,
                -1.336904738465526,
                -0.9119621686310203,
                1.659120439102341
            ]
        },
        {
            "positions": [
                0.773561154918438,
                -1.2394483808692935,
                0.17483778671664818,
                -1.3227949909463481,
                -0.8680298526001096,
                1.740260483495489
            ]
        },
        {
            "positions": [
                0.6531835689701544,
                -1.239142679850635,
                0.3057413092437604,
                -1.30868524342717,
                -0.8240975365691989,
                1.8214005278886365
            ]
        },
        {
            "positions": [
                0.5328059830218708,
                -1.2388369788319766,
                0.4366448317708722,
                -1.2945754959079923,
                -0.7801652205382883,
                1.9025405722817839
            ]
        },
        {
            "positions": [
                0.41242839707358714,
                -1.2385312778133184,
                0.567548354297984,
                -1.2804657483888144,
                -0.7362329045073777,
                1.9836806166749315
            ]
        },
        {
            "positions": [
                0.29205081112530307,
                -1.23822557679466,
                0.6984518768250967,
                -1.2663560008696364,
                -0.6923005884764669,
                2.064820661068079
            ]
        },
        {
            "positions": [
                0.17167322517701944,
                -1.2379198757760015,
                0.8293553993522085,
                -1.2522462533504586,
                -0.6483682724455563,
                2.145960705461227
            ]
        },
        {
            "positions": [
                0.05129563922873537,
                -1.2376141747573433,
                0.9602589218793203,
                -1.2381365058312808,
                -0.6044359564146456,
                2.2271007498543742
            ]
        },
        {
            "positions": [
                -0.06908194671954826,
                -1.2373084737386848,
                1.0911624444064325,
                -1.224026758312103,
                -0.5605036403837351,
                2.3082407942475216
            ]
        },
        {
            "positions": [
                -0.18945953266783233,
                -1.2370027727200263,
                1.2220659669335447,
                -1.2099170107929251,
                -0.5165713243528243,
                2.3893808386406694
            ]
        },
        {
            "positions": [
                -0.30983711861611596,
                -1.2366970717013681,
                1.352969489460657,
                -1.195807263273747,
                -0.47263900832191363,
                2.4705208830338172
            ]
        },
        {
            "positions": [
                -0.4302147045643995,
                -1.2363913706827097,
                1.483873011987769,
                -1.1816975157545693,
                -0.428706692291003,
                2.5516609274269646
            ]
        },
        {
            "positions": [
                -0.3511023485150686,
                -1.2213883996765182,
                1.5517221098887972,
                -1.1178449647797677,
                -0.3501218064453171,
                2.6217925214237785
            ]
        },
        {
            "positions": [
                -0.27198999246573774,
                -1.2063854286703268,
                1.6195712077898254,
                -1.0539924138049663,
                -0.27153692059963114,
                2.691924115420593
            ]
        },
        {
            "positions": [
                -0.19287763641640693,
                -1.1913824576641354,
                1.6874203056908537,
                -0.9901398628301648,
                -0.1929520347539452,
                2.7620557094174067
            ]
        },
        {
            "positions": [
                -0.11376528036707606,
                -1.1763794866579438,
                1.7552694035918819,
                -0.9262873118553632,
                -0.11436714890825928,
                2.8321873034142206
            ]
        },
        {
            "positions": [
                -0.03465292431774519,
                -1.1613765156517524,
                1.8231185014929103,
                -0.8624347608805616,
                -0.035782263062573316,
                2.9023188974110345
            ]
        },
        {
            "positions": [
                0.04445943173158562,
                -1.146373544645561,
                1.8909675993939385,
                -0.7985822099057601,
                0.04280262278311259,
                2.972450491407849
            ]
        },
        {
            "positions": [
                0.12357178778091654,
                -1.1313705736393695,
                1.9588166972949668,
                -0.7347296589309585,
                0.12138750862879853,
                3.042582085404663
            ]
        }
    ]
}{
    "goal": {
        "global_pose": {
            "orientation": {
                "w": 0.7047431468963623,
                "x": -0.7094548344612122,
                "y": 0.0024358443915843964,
                "z": -0.0022348060738295317
            },
            "position": {
                "x": 0.6094750761985779,
                "y": 0.3671506643295288,
                "z": 0.19426114857196808
            }
        },
        "name": "move_to_magneteinheit_A"
    },
    "id": "EST_move_to_magneteinheit_A_94",
    "joint_names": [
        "shoulder_pan_joint",
        "shoulder_lift_joint",
        "elbow_joint",
        "wrist_1_joint",
        "wrist_2_joint",
        "wrist_3_joint"
    ],
    "metrics": {
        "cart_traj_len": 1.1992474474149952,
        "distance_elbow_joint": 0.03580226748898285,
        "distance_shoulder_lift_joint": 0.7666935794856129,
        "distance_shoulder_pan_joint": 1.242264504016851,
        "distance_wrist_1_joint": 1.3032571907224524,
        "distance_wrist_2_joint": 1.4335046370460092,
        "distance_wrist_3_joint": 4.370342201117879,
        "smoothness": 0.17864542799768038,
        "time": 0.076441274,
        "traj_len": 3.0252048492420784,
        "weighted_distance": 4.541950088880546
    },
    "planner": "EST",
    "start": {
        "state": {
            "elbow_joint": 1.919643534880228,
            "shoulder_lift_joint": -1.8972525353963687,
            "shoulder_pan_joint": -1.1188672234189438,
            "wrist_1_joint": -1.5931878212786155,
            "wrist_2_joint": 1.5706036197970081,
            "wrist_3_joint": 1.118896926603594
        }
    },
    "waypoints": [
        {
            "positions": [
                -1.1188672234189438,
                -1.8972525353963687,
                1.919643534880228,
                -1.5931878212786155,
                1.5706036197970081,
                1.118896926603594
            ]
        },
        {
            "positions": [
                -1.0649988984948444,
                -1.8643594655845117,
                1.921125852513765,
                -1.543366924505132,
                1.5086517235473502,
                0.934588462111862
            ]
        },
        {
            "positions": [
                -1.0111305735707448,
                -1.831466395772655,
                1.9226081701473021,
                -1.4935460277316488,
                1.4466998272976923,
                0.75027999762013
            ]
        },
        {
            "positions": [
                -0.9572622486466453,
                -1.7985733259607979,
                1.9240904877808391,
                -1.4437251309581653,
                1.3847479310480344,
                0.565971533128398
            ]
        },
        {
            "positions": [
                -0.9033939237225457,
                -1.7656802561489409,
                1.9255728054143761,
                -1.393904234184682,
                1.3227960347983765,
                0.3816630686366659
            ]
        },
        {
            "positions": [
                -0.8495255987984462,
                -1.732787186337084,
                1.9270551230479132,
                -1.3440833374111987,
                1.2608441385487186,
                0.197354604144934
            ]
        },
        {
            "positions": [
                -0.7956572738743467,
                -1.699894116525227,
                1.9285374406814502,
                -1.2942624406377152,
                1.1988922422990607,
                0.013046139653202005
            ]
        },
        {
            "positions": [
                -0.7417889489502472,
                -1.66700104671337,
                1.9300197583149872,
                -1.2444415438642318,
                1.1369403460494028,
                -0.1712623248385301
            ]
        },
        {
            "positions": [
                -0.6879206240261475,
                -1.6341079769015132,
                1.9315020759485242,
                -1.1946206470907486,
                1.0749884497997448,
                -0.3555707893302622
            ]
        },
        {
            "positions": [
                -0.6340522991020481,
                -1.6012149070896562,
                1.9329843935820612,
                -1.144799750317265,
                1.0130365535500867,
                -0.5398792538219941
            ]
        },
        {
            "positions": [
                -0.5801839741779485,
                -1.5683218372777992,
                1.9344667112155982,
                -1.0949788535437817,
                0.9510846573004289,
                -0.724187718313726
            ]
        },
        {
            "positions": [
                -0.526315649253849,
                -1.5354287674659424,
                1.9359490288491354,
                -1.0451579567702982,
                0.889132761050771,
                -0.9084961828054581
            ]
        },
        {
            "positions": [
                -0.47244732432974956,
                -1.5025356976540853,
                1.9374313464826725,
                -0.995337059996815,
                0.8271808648011131,
                -1.09280464729719
            ]
        },
        {
            "positions": [
                -0.4185789994056499,
                -1.4696426278422283,
                1.9389136641162095,
                -0.9455161632233315,
                0.7652289685514551,
                -1.2771131117889223
            ]
        },
        {
            "positions": [
                -0.36471067448155037,
                -1.4367495580303715,
                1.9403959817497465,
                -0.8956952664498482,
                0.7032770723017973,
                -1.4614215762806542
            ]
        },
        {
            "positions": [
                -0.31084234955745094,
                -1.4038564882185145,
                1.9418782993832835,
                -0.8458743696763649,
                0.6413251760521393,
                -1.645730040772386
            ]
        },
        {
            "positions": [
                -0.2569740246333513,
                -1.3709634184066575,
                1.9433606170168205,
                -0.7960534729028814,
                0.5793732798024813,
                -1.8300385052641184
            ]
        },
        {
            "positions": [
                -0.20310569970925185,
                -1.3380703485948007,
                1.9448429346503575,
                -0.7462325761293981,
                0.5174213835528234,
                -2.0143469697558496
            ]
        },
        {
            "positions": [
                -0.1492373747851522,
                -1.3051772787829434,
                1.9463252522838945,
                -0.6964116793559146,
                0.4554694873031655,
                -2.1986554342475824
            ]
        },
        {
            "positions": [
                -0.09536904986105266,
                -1.2722842089710866,
                1.9478075699174315,
                -0.6465907825824313,
                0.3935175910535076,
                -2.3829638987393142
            ]
        },
        {
            "positions": [
                -0.041500724936953226,
                -1.2393911391592298,
                1.9492898875509685,
                -0.596769885808948,
                0.3315656948038497,
                -2.567272363231046
            ]
        },
        {
            "positions": [
                0.012367599987146427,
                -1.2064980693473726,
                1.9507722051845056,
                -0.5469489890354644,
                0.26961379855419176,
                -2.751580827722778
            ]
        },
        {
            "positions": [
                0.06623592491124586,
                -1.1736049995355158,
                1.9522545228180426,
                -0.49712809226198124,
                0.20766190230453382,
                -2.9358892922145103
            ]
        },
        {
            "positions": [
                0.09481660275457637,
                -1.1520819777231357,
                1.9538501625936266,
                -0.6007268231148903,
                0.17238044252776646,
                -3.093667283364397
            ]
        },
        {
            "positions": [
                0.1233972805979069,
                -1.1305589559107558,
                1.955445802369211,
                -0.7043255539677994,
                0.13709898275099908,
                -3.2514452745142837
            ]
        }
    ]
}