{
    "goal": {
        "global_pose": {
            "orientation": {
                "w": 0.7047431468963623,
                "x": -0.7094548344612122,
                "y": 0.0024358443915843964,
                "z": -0.0022348060738295317
            },
            "position": {
                "x": 0.6094750761985779,
                "y": 0.3671506643295288,
                "z": 0.19426114857196808
            }
        },
        "name": "move_to_magneteinheit_A"
    },
    "id": "EST_move_to_magneteinheit_A_123",
    "joint_names": [
        "shoulder_pan_joint",
        "shoulder_lift_joint",
        "elbow_joint",
        "wrist_1_joint",
        "wrist_2_joint",
        "wrist_3_joint"
    ],
    "metrics": {
        "cart_traj_len": 4.018260207434555,
        "distance_elbow_joint": 3.886307455032533,
        "distance_shoulder_lift_joint": 0.4163465298848261,
        "distance_shoulder_pan_joint": 4.129281359800313,
        "distance_wrist_1_joint": 2.0296803546198503,
        "distance_wrist_2_joint": 2.4621137208821384,
        "distance_wrist_3_joint": 3.657457514088266,
        "smoothness": 0.32683267050387643,
        "time": 0.082170374,
        "traj_len": 4.07200036030302,
        "weighted_distance": 5.3280292827636035
    },
    "planner": "EST",
    "start": {
        "state": {
            "elbow_joint": -1.919618573717145,
            "shoulder_lift_joint": -1.2443395971678275,
            "shoulder_pan_joint": 2.6996025300909787,
            "wrist_1_joint": -1.548550951253194,
            "wrist_2_joint": -1.5709469090946802,
            "wrist_3_joint": 0.4420197732051276
        }
    },
    "waypoints": [
        {
            "positions": [
                2.6996025300909787,
                -1.2443395971678275,
                -1.919618573717145,
                -1.548550951253194,
                -1.5709469090946802,
                0.4420197732051276
            ]
        },
        {
            "positions": [
                2.6016031497701886,
                -1.24785080797286,
                -1.8511052711287808,
                -1.4949981522194504,
                -1.4919032136676678,
                0.3658776871755859
            ]
        },
        {
            "positions": [
                2.503603769449398,
                -1.2513620187778924,
                -1.7825919685404163,
                -1.4414453531857065,
                -1.4128595182406551,
                0.28973560114604413
            ]
        },
        {
            "positions": [
                2.405604389128608,
                -1.254873229582925,
                -1.7140786659520522,
                -1.3878925541519629,
                -1.3338158228136427,
                0.21359351511650237
            ]
        },
        {
            "positions": [
                2.3076050088078173,
                -1.2583844403879576,
                -1.6455653633636877,
                -1.3343397551182192,
                -1.2547721273866301,
                0.13745142908696067
            ]
        },
        {
            "positions": [
                2.209605628487027,
                -1.2618956511929902,
                -1.5770520607753236,
                -1.2807869560844756,
                -1.1757284319596177,
                0.06130934305741892
            ]
        },
        {
            "positions": [
                2.1116062481662365,
                -1.2654068619980225,
                -1.5085387581869592,
                -1.2272341570507317,
                -1.0966847365326051,
                -0.014832742972122837
            ]
        },
        {
            "positions": [
                2.0136068678454464,
                -1.2689180728030551,
                -1.440025455598595,
                -1.173681358016988,
                -1.0176410411055927,
                -0.09097482900166459
            ]
        },
        {
            "positions": [
                1.9156074875246558,
                -1.2724292836080877,
                -1.3715121530102308,
                -1.1201285589832444,
                -0.9385973456785802,
                -0.16711691503120624
            ]
        },
        {
            "positions": [
                1.8176081072038657,
                -1.2759404944131203,
                -1.3029988504218664,
                -1.0665757599495005,
                -0.8595536502515677,
                -0.243259001060748
            ]
        },
        {
            "positions": [
                1.7196087268830753,
                -1.2794517052181527,
                -1.234485547833502,
                -1.0130229609157568,
                -0.7805099548245552,
                -0.31940108709028975
            ]
        },
        {
            "positions": [
                1.6216093465622847,
                -1.2829629160231852,
                -1.1659722452451375,
                -0.9594701618820131,
                -0.7014662593975426,
                -0.3955431731198316
            ]
        },
        {
            "positions": [
                1.5236099662414946,
                -1.2864741268282178,
                -1.0974589426567736,
                -0.9059173628482694,
                -0.6224225639705302,
                -0.47168525914937326
            ]
        },
        {
            "positions": [
                1.4256105859207042,
                -1.2899853376332504,
                -1.0289456400684092,
                -0.8523645638145256,
                -0.5433788685435177,
                -0.5478273451789151
            ]
        },
        {
            "positions": [
                1.3276112055999139,
                -1.2934965484382828,
                -0.9604323374800449,
                -0.798811764780782,
                -0.4643351731165053,
                -0.6239694312084567
            ]
        },
        {
            "positions": [
                1.2296118252791235,
                -1.2970077592433154,
                -0.8919190348916806,
                -0.7452589657470381,
                -0.3852914776894927,
                -0.7001115172379984
            ]
        },
        {
            "positions": [
                1.1316124449583331,
                -1.300518970048348,
                -0.8234057323033164,
                -0.6917061667132944,
                -0.3062477822624803,
                -0.77625360326754
            ]
        },
        {
            "positions": [
                1.0336130646375428,
                -1.3040301808533805,
                -0.754892429714952,
                -0.6381533676795507,
                -0.22720408683546767,
                -0.8523956892970819
            ]
        },
        {
            "positions": [
                0.9356136843167524,
                -1.3075413916584129,
                -0.6863791271265878,
                -0.584600568645807,
                -0.14816039140845527,
                -0.9285377753266235
            ]
        },
        {
            "positions": [
                0.837614303995962,
                -1.3110526024634455,
                -0.6178658245382234,
                -0.5310477696120632,
                -0.06911669598144266,
                -1.0046798613561654
            ]
        },
        {
            "positions": [
                0.7547798970146076,
                -1.2964674237268936,
                -0.4822485670047533,
                -0.5092936913959454,
                -0.09019269906306285,
                -1.1050725033066338
            ]
        },
        {
            "positions": [
                0.6719454900332531,
                -1.2818822449903415,
                -0.3466313094712833,
                -0.4875396131798275,
                -0.11126870214468303,
                -1.2054651452571021
            ]
        },
        {
            "positions": [
                0.5891110830518986,
                -1.2672970662537897,
                -0.2110140519378133,
                -0.46578553496370967,
                -0.1323447052263032,
                -1.3058577872075705
            ]
        },
        {
            "positions": [
                0.5062766760705442,
                -1.2527118875172376,
                -0.07539679440434321,
                -0.4440314567475918,
                -0.1534207083079234,
                -1.4062504291580389
            ]
        },
        {
            "positions": [
                0.4234422690891897,
                -1.2381267087806858,
                0.06022046312912677,
                -0.42227737853147396,
                -0.1744967113895436,
                -1.5066430711085075
            ]
        },
        {
            "positions": [
                0.3406078621078352,
                -1.223541530044134,
                0.19583772066259675,
                -0.4005233003153561,
                -0.19557271447116376,
                -1.6070357130589756
            ]
        },
        {
            "positions": [
                0.25777345512648075,
                -1.2089563513075818,
                0.33145497819606684,
                -0.37876922209923825,
                -0.21664871755278398,
                -1.7074283550094442
            ]
        },
        {
            "positions": [
                0.17493904814512629,
                -1.19437117257103,
                0.46707223572953693,
                -0.3570151438831204,
                -0.23772472063440414,
                -1.8078209969599124
            ]
        },
        {
            "positions": [
                0.09210464116377182,
                -1.1797859938344781,
                0.6026894932630069,
                -0.33526106566700253,
                -0.25880072371602436,
                -1.908213638910381
            ]
        },
        {
            "positions": [
                0.009270234182417347,
                -1.165200815097926,
                0.7383067507964769,
                -0.3135069874508847,
                -0.2798767267976445,
                -2.0086062808608496
            ]
        },
        {
            "positions": [
                -0.07356417279893723,
                -1.1506156363613742,
                0.8739240083299471,
                -0.2917529092347668,
                -0.3009527298792647,
                -2.1089989228113177
            ]
        },
        {
            "positions": [
                -0.1563985797802916,
                -1.1360304576248221,
                1.0095412658634169,
                -0.26999883101864897,
                -0.32202873296088486,
                -2.209391564761786
            ]
        },
        {
            "positions": [
                -0.23923298676164606,
                -1.1214452788882703,
                1.145158523396887,
                -0.2482447528025311,
                -0.3431047360425051,
                -2.3097842067122545
            ]
        },
        {
            "positions": [
                -0.32206739374300053,
                -1.1068601001517182,
                1.280775780930357,
                -0.22649067458641325,
                -0.3641807391241253,
                -2.410176848662723
            ]
        },
        {
            "positions": [
                -0.404901800724355,
                -1.0922749214151664,
                1.4163930384638272,
                -0.2047365963702954,
                -0.38525674220574546,
                -2.5105694906131912
            ]
        },
        {
            "positions": [
                -0.48773620770570947,
                -1.0776897426786145,
                1.5520102959972972,
                -0.18298251815417754,
                -0.4063327452873656,
                -2.6109621325636594
            ]
        },
        {
            "positions": [
                -0.5705706146870639,
                -1.0631045639420624,
                1.6876275535307672,
                -0.1612284399380597,
                -0.4274087483689858,
                -2.7113547745141284
            ]
        },
        {
            "positions": [
                -0.6534050216684184,
                -1.0485193852055106,
                1.8232448110642374,
                -0.13947436172194183,
                -0.448484751450606,
                -2.8117474164645966
            ]
        },
        {
            "positions": [
                -0.542508763376859,
                -1.0609622862528354,
                1.8437368211001164,
                -0.22813204244888446,
                -0.3654968296935007,
                -2.8694174628101026
            ]
        },
        {
            "positions": [
                -0.43161250508529964,
                -1.07340518730016,
                1.8642288311359954,
                -0.3167897231758271,
                -0.2825089079363955,
                -2.9270875091556086
            ]
        },
        {
            "positions": [
                -0.3207162467937403,
                -1.0858480883474848,
                1.8847208411718743,
                -0.4054474039027697,
                -0.19952098617929018,
                -2.9847575555011145
            ]
        },
        {
            "positions": [
                -0.20981998850218087,
                -1.0982909893948096,
                1.9052128512077533,
                -0.4941050846297123,
                -0.11653306442218492,
                -3.0424276018466205
            ]
        },
        {
            "positions": [
                -0.0989237302106214,
                -1.1107338904421344,
                1.9257048612436323,
                -0.5827627653566549,
                -0.03354514266507963,
                -3.1000976481921265
            ]
        },
        {
            "positions": [
                0.01197252808093785,
                -1.123176791489459,
                1.9461968712795112,
                -0.6714204460835975,
                0.04944277909202566,
                -3.1577676945376325
            ]
        },
        {
            "positions": [
                0.12286878637249736,
                -1.1356196925367839,
                1.9666888813153902,
                -0.7600781268105402,
                0.13243070084913097,
                -3.2154377408831385
            ]
        }
    ]
}{
    "goal": {
        "global_pose": {
            "orientation": {
                "w": 0.7047431468963623,
                "x": -0.7094548344612122,
                "y": 0.0024358443915843964,
                "z": -0.0022348060738295317
            },
            "position": {
                "x": 0.6094750761985779,
                "y": 0.3671506643295288,
                "z": 0.19426114857196808
            }
        },
        "name": "move_to_magneteinheit_A"
    },
    "id": "EST_move_to_magneteinheit_A_123",
    "joint_names": [
        "shoulder_pan_joint",
        "shoulder_lift_joint",
        "elbow_joint",
        "wrist_1_joint",
        "wrist_2_joint",
        "wrist_3_joint"
    ],
    "metrics": {
        "cart_traj_len": 2.1530803518676236,
        "distance_elbow_joint": 2.088198176722448,
        "distance_shoulder_lift_joint": 0.7465138675175202,
        "distance_shoulder_pan_joint": 1.2420458104317103,
        "distance_wrist_1_joint": 2.97754701302715,
        "distance_wrist_2_joint": 4.27089664037577,
        "distance_wrist_3_joint": 4.231175872209517,
        "smoothness": 0.38437625265559805,
        "time": 0.504019786,
        "traj_len": 3.9441573726569428,
        "weighted_distance": 5.591705712759396
    },
    "planner": "EST",
    "start": {
        "state": {
            "elbow_joint": 1.919643534880228,
            "shoulder_lift_joint": -1.8972525353963687,
            "shoulder_pan_joint": -1.1188672234189438,
            "wrist_1_joint": -1.5931878212786155,
            "wrist_2_joint": 1.5706036197970081,
            "wrist_3_joint": 1.118896926603594
        }
    },
    "waypoints": [
        {
            "positions": [
                -1.1188672234189438,
                -1.8972525353963687,
                1.919643534880228,
                -1.5931878212786155,
                1.5706036197970081,
                1.118896926603594
            ]
        },
        {
            "positions": [
                -1.1086174279734882,
                -1.8889973285084012,
                1.8716588763254733,
                -1.646744493448936,
                1.434848941905194,
                0.984407028866938
            ]
        },
        {
            "positions": [
                -1.0983676325280323,
                -1.8807421216204334,
                1.8236742177707186,
                -1.7003011656192566,
                1.29909426401338,
                0.8499171311302821
            ]
        },
        {
            "positions": [
                -1.0881178370825766,
                -1.8724869147324659,
                1.775689559215964,
                -1.753857837789577,
                1.1633395861215658,
                0.7154272333936262
            ]
        },
        {
            "positions": [
                -1.0778680416371207,
                -1.8642317078444983,
                1.7277049006612093,
                -1.8074145099598975,
                1.027584908229752,
                0.5809373356569703
            ]
        },
        {
            "positions": [
                -1.067618246191665,
                -1.8559765009565306,
                1.6797202421064545,
                -1.8609711821302182,
                0.8918302303379377,
                0.44644743792031427
            ]
        },
        {
            "positions": [
                -1.057368450746209,
                -1.847721294068563,
                1.6317355835516998,
                -1.9145278543005386,
                0.7560755524461237,
                0.3119575401836584
            ]
        },
        {
            "positions": [
                -1.0471186553007534,
                -1.8394660871805955,
                1.583750924996945,
                -1.968084526470859,
                0.6203208745543096,
                0.17746764244700242
            ]
        },
        {
            "positions": [
                -1.0368688598552975,
                -1.8312108802926277,
                1.5357662664421903,
                -2.0216411986411797,
                0.48456619666249545,
                0.042977744710346544
            ]
        },
        {
            "positions": [
                -1.0266190644098419,
                -1.8229556734046601,
                1.4877816078874355,
                -2.0751978708115004,
                0.3488115187706815,
                -0.09151215302630944
            ]
        },
        {
            "positions": [
                -1.016369268964386,
                -1.8147004665166926,
                1.4397969493326808,
                -2.1287545429818207,
                0.21305684087886734,
                -0.22600205076296542
            ]
        },
        {
            "positions": [
                -1.0061194735189303,
                -1.8064452596287248,
                1.391812290777926,
                -2.1823112151521413,
                0.07730216298705317,
                -0.3604919484996214
            ]
        },
        {
            "positions": [
                -0.9958696780734745,
                -1.7981900527407573,
                1.3438276322231715,
                -2.235867887322462,
                -0.05845251490476078,
                -0.49498184623627717
            ]
        },
        {
            "positions": [
                -0.9856198826280187,
                -1.7899348458527897,
                1.2958429736684167,
                -2.2894245594927822,
                -0.19420719279657495,
                -0.6294717439729334
            ]
        },
        {
            "positions": [
                -0.9753700871825629,
                -1.781679638964822,
                1.247858315113662,
                -2.342981231663103,
                -0.3299618706883889,
                -0.7639616417095891
            ]
        },
        {
            "positions": [
                -0.9651202917371071,
                -1.7734244320768544,
                1.1998736565589072,
                -2.3965379038334236,
                -0.46571654858020306,
                -0.8984515394462453
            ]
        },
        {
            "positions": [
                -0.9548704962916513,
                -1.7651692251888869,
                1.1518889980041527,
                -2.4500945760037443,
                -0.6014712264720172,
                -1.0329414371829009
            ]
        },
        {
            "positions": [
                -0.9446207008461955,
                -1.756914018300919,
                1.103904339449398,
                -2.5036512481740645,
                -0.7372259043638314,
                -1.1674313349195569
            ]
        },
        {
            "positions": [
                -0.9343709054007397,
                -1.7486588114129515,
                1.0559196808946432,
                -2.557207920344385,
                -0.8729805822556451,
                -1.3019212326562128
            ]
        },
        {
            "positions": [
                -0.924121109955284,
                -1.740403604524984,
                1.0079350223398884,
                -2.6107645925147054,
                -1.0087352601474593,
                -1.4364111303928688
            ]
        },
        {
            "positions": [
                -0.9138713145098282,
                -1.7321483976370162,
                0.9599503637851337,
                -2.664321264685026,
                -1.1444899380392735,
                -1.5709010281295248
            ]
        },
        {
            "positions": [
                -0.9036215190643724,
                -1.7238931907490487,
                0.9119657052303789,
                -2.7178779368553467,
                -1.2802446159310874,
                -1.7053909258661806
            ]
        },
        {
            "positions": [
                -0.8495794082182072,
                -1.6937271632295645,
                0.9688351971815683,
                -2.620359152779009,
                -1.205505226212789,
                -1.7794376637472198
            ]
        },
        {
            "positions": [
                -0.795537297372042,
                -1.6635611357100801,
                1.0257046891327577,
                -2.522840368702671,
                -1.1307658364944904,
                -1.853484401628259
            ]
        },
        {
            "positions": [
                -0.7414951865258768,
                -1.633395108190596,
                1.082574181083947,
                -2.4253215846263334,
                -1.056026446776192,
                -1.927531139509298
            ]
        },
        {
            "positions": [
                -0.6874530756797116,
                -1.6032290806711118,
                1.1394436730351365,
                -2.3278028005499953,
                -0.9812870570578934,
                -2.0015778773903374
            ]
        },
        {
            "positions": [
                -0.6334109648335464,
                -1.5730630531516276,
                1.196313164986326,
                -2.2302840164736577,
                -0.9065476673395949,
                -2.0756246152713764
            ]
        },
        {
            "positions": [
                -0.5793688539873811,
                -1.5428970256321435,
                1.2531826569375153,
                -2.13276523239732,
                -0.8318082776212965,
                -2.1496713531524154
            ]
        },
        {
            "positions": [
                -0.5253267431412161,
                -1.512730998112659,
                1.3100521488887047,
                -2.035246448320982,
                -0.757068887902998,
                -2.223718091033455
            ]
        },
        {
            "positions": [
                -0.4712846322950508,
                -1.482564970593175,
                1.366921640839894,
                -1.9377276642446444,
                -0.6823294981846995,
                -2.297764828914494
            ]
        },
        {
            "positions": [
                -0.41724252144888563,
                -1.4523989430736908,
                1.4237911327910835,
                -1.8402088801683063,
                -0.607590108466401,
                -2.3718115667955333
            ]
        },
        {
            "positions": [
                -0.36320041060272046,
                -1.4222329155542064,
                1.480660624742273,
                -1.7426900960919687,
                -0.5328507187481025,
                -2.4458583046765723
            ]
        },
        {
            "positions": [
                -0.3091582997565552,
                -1.3920668880347222,
                1.5375301166934623,
                -1.6451713120156308,
                -0.458111329029804,
                -2.5199050425576117
            ]
        },
        {
            "positions": [
                -0.25511618891039,
                -1.361900860515238,
                1.5943996086446517,
                -1.547652527939293,
                -0.3833719393115056,
                -2.5939517804386507
            ]
        },
        {
            "positions": [
                -0.20107407806422473,
                -1.3317348329957537,
                1.651269100595841,
                -1.4501337438629551,
                -0.30863254959320696,
                -2.66799851831969
            ]
        },
        {
            "positions": [
                -0.14703196721805967,
                -1.3015688054762697,
                1.7081385925470305,
                -1.3526149597866175,
                -0.23389315987490855,
                -2.742045256200729
            ]
        },
        {
            "positions": [
                -0.09298985637189439,
                -1.2714027779567854,
                1.7650080844982199,
                -1.2550961757102794,
                -0.15915377015660992,
                -2.816091994081768
            ]
        },
        {
            "positions": [
                -0.038947745525729216,
                -1.2412367504373012,
                1.8218775764494093,
                -1.1575773916339418,
                -0.08441438043831151,
                -2.890138731962807
            ]
        },
        {
            "positions": [
                0.015094365320436065,
                -1.211070722917817,
                1.8787470684005987,
                -1.060058607557604,
                -0.009674990720013099,
                -2.9641854698438466
            ]
        },
        {
            "positions": [
                0.06913647616660112,
                -1.1809046953983326,
                1.935616560351788,
                -0.9625398234812661,
                0.06506439899828531,
                -3.038232207724886
            ]
        },
        {
            "positions": [
                0.12317858701276635,
                -1.1507386678788485,
                1.9924860523029775,
                -0.8650210394049284,
                0.13980378871658383,
                -3.112278945605925
            ]
        }
    ]
}