{
    "goal": {
        "global_pose": {
            "orientation": {
                "w": 0.7047431468963623,
                "x": -0.7094548344612122,
                "y": 0.0024358443915843964,
                "z": -0.0022348060738295317
            },
            "position": {
                "x": 0.6094750761985779,
                "y": 0.3671506643295288,
                "z": 0.19426114857196808
            }
        },
        "name": "move_to_magneteinheit_A"
    },
    "id": "EST_move_to_magneteinheit_A_120",
    "joint_names": [
        "shoulder_pan_joint",
        "shoulder_lift_joint",
        "elbow_joint",
        "wrist_1_joint",
        "wrist_2_joint",
        "wrist_3_joint"
    ],
    "metrics": {
        "cart_traj_len": 3.750907907668452,
        "distance_elbow_joint": 4.649870207610315,
        "distance_shoulder_lift_joint": 0.30262543969446454,
        "distance_shoulder_pan_joint": 2.5767006386773423,
        "distance_wrist_1_joint": 1.6293712789329051,
        "distance_wrist_2_joint": 2.0306226295643954,
        "distance_wrist_3_joint": 2.5637488685490153,
        "smoothness": 0.29794426320668643,
        "time": 0.10621381,
        "traj_len": 3.708495525550549,
        "weighted_distance": 4.747676348343868
    },
    "planner": "EST",
    "start": {
        "state": {
            "elbow_joint": -1.919618573717145,
            "shoulder_lift_joint": -1.2443395971678275,
            "shoulder_pan_joint": 2.6996025300909787,
            "wrist_1_joint": -1.548550951253194,
            "wrist_2_joint": -1.5709469090946802,
            "wrist_3_joint": 0.4420197732051276
        }
    },
    "waypoints": [
        {
            "positions": [
                2.6996025300909787,
                -1.2443395971678275,
                -1.919618573717145,
                -1.548550951253194,
                -1.5709469090946802,
                0.4420197732051276
            ]
        },
        {
            "positions": [
                2.5581223529687414,
                -1.2320296501462908,
                -1.9425011147409696,
                -1.48607958557989,
                -1.5457045301982175,
                0.5564290514363012
            ]
        },
        {
            "positions": [
                2.4166421758465035,
                -1.2197197031247544,
                -1.9653836557647943,
                -1.423608219906586,
                -1.5204621513017549,
                0.6708383296674748
            ]
        },
        {
            "positions": [
                2.275161998724266,
                -1.2074097561032178,
                -1.988266196788619,
                -1.361136854233282,
                -1.4952197724052925,
                0.7852476078986486
            ]
        },
        {
            "positions": [
                2.1336818216020284,
                -1.1950998090816811,
                -2.0111487378124435,
                -1.2986654885599782,
                -1.4699773935088298,
                0.8996568861298221
            ]
        },
        {
            "positions": [
                1.992201644479791,
                -1.1827898620601445,
                -2.0340312788362684,
                -1.2361941228866742,
                -1.4447350146123672,
                1.0140661643609958
            ]
        },
        {
            "positions": [
                1.8507214673575536,
                -1.170479915038608,
                -2.0569138198600934,
                -1.1737227572133702,
                -1.4194926357159046,
                1.1284754425921695
            ]
        },
        {
            "positions": [
                1.7092412902353162,
                -1.1581699680170714,
                -2.079796360883918,
                -1.1112513915400661,
                -1.3942502568194421,
                1.242884720823343
            ]
        },
        {
            "positions": [
                1.5677611131130784,
                -1.1458600209955347,
                -2.1026789019077423,
                -1.0487800258667623,
                -1.3690078779229795,
                1.3572939990545165
            ]
        },
        {
            "positions": [
                1.426280935990841,
                -1.1335500739739983,
                -2.1255614429315672,
                -0.9863086601934582,
                -1.3437654990265169,
                1.4717032772856904
            ]
        },
        {
            "positions": [
                1.2848007588686035,
                -1.1212401269524617,
                -2.148443983955392,
                -0.9238372945201542,
                -1.3185231201300542,
                1.586112555516864
            ]
        },
        {
            "positions": [
                1.1433205817463659,
                -1.108930179930925,
                -2.1713265249792166,
                -0.8613659288468503,
                -1.2932807412335916,
                1.7005218337480377
            ]
        },
        {
            "positions": [
                1.0018404046241283,
                -1.0966202329093884,
                -2.194209066003041,
                -0.7988945631735462,
                -1.2680383623371292,
                1.8149311119792113
            ]
        },
        {
            "positions": [
                0.8603602275018909,
                -1.084310285887852,
                -2.217091607026866,
                -0.7364231975002423,
                -1.2427959834406666,
                1.9293403902103847
            ]
        },
        {
            "positions": [
                0.7188800503796535,
                -1.0720003388663153,
                -2.239974148050691,
                -0.6739518318269383,
                -1.217553604544204,
                2.043749668441558
            ]
        },
        {
            "positions": [
                0.5773998732574159,
                -1.0596903918447786,
                -2.2628566890745154,
                -0.6114804661536344,
                -1.1923112256477415,
                2.158158946672732
            ]
        },
        {
            "positions": [
                0.4359196961351781,
                -1.0473804448232422,
                -2.28573923009834,
                -0.5490091004803304,
                -1.1670688467512789,
                2.2725682249039054
            ]
        },
        {
            "positions": [
                0.29443951901294085,
                -1.0350704978017056,
                -2.308621771122165,
                -0.48653773480702633,
                -1.1418264678548162,
                2.3869775031350793
            ]
        },
        {
            "positions": [
                0.28613014408082693,
                -1.035184761181651,
                -2.0590192281230784,
                -0.5106740062382147,
                -1.0521512670478663,
                2.403297189688459
            ]
        },
        {
            "positions": [
                0.27782076914871306,
                -1.0352990245615963,
                -1.8094166851239921,
                -0.5348102776694029,
                -0.9624760662409165,
                2.4196168762418386
            ]
        },
        {
            "positions": [
                0.26951139421659914,
                -1.0354132879415416,
                -1.5598141421249059,
                -0.5589465491005913,
                -0.8728008654339667,
                2.4359365627952183
            ]
        },
        {
            "positions": [
                0.2612020192844853,
                -1.035527551321487,
                -1.3102115991258194,
                -0.5830828205317795,
                -0.7831256646270168,
                2.452256249348598
            ]
        },
        {
            "positions": [
                0.25289264435237135,
                -1.0356418147014324,
                -1.060609056126733,
                -0.6072190919629679,
                -0.693450463820067,
                2.468575935901977
            ]
        },
        {
            "positions": [
                0.24458326942025746,
                -1.0357560780813777,
                -0.8110065131276467,
                -0.6313553633941562,
                -0.6037752630131172,
                2.484895622455357
            ]
        },
        {
            "positions": [
                0.23627389448814357,
                -1.035870341461323,
                -0.5614039701285605,
                -0.6554916348253446,
                -0.5141000622061673,
                2.5012153090087366
            ]
        },
        {
            "positions": [
                0.22796451955602967,
                -1.0359846048412686,
                -0.311801427129474,
                -0.6796279062565328,
                -0.42442486139921753,
                2.5175349955621162
            ]
        },
        {
            "positions": [
                0.21965514462391578,
                -1.036098868221214,
                -0.062198884130387544,
                -0.703764177687721,
                -0.33474966059226774,
                2.533854682115496
            ]
        },
        {
            "positions": [
                0.21134576969180188,
                -1.0362131316011594,
                0.18740365886869892,
                -0.7279004491189094,
                -0.24507445978531783,
                2.5501743686688756
            ]
        },
        {
            "positions": [
                0.203036394759688,
                -1.0363273949811047,
                0.43700620186778494,
                -0.7520367205500977,
                -0.15539925897836804,
                2.5664940552222553
            ]
        },
        {
            "positions": [
                0.19472701982757407,
                -1.03644165836105,
                0.6866087448668714,
                -0.7761729919812861,
                -0.06572405817141824,
                2.5828137417756345
            ]
        },
        {
            "positions": [
                0.1864176448954602,
                -1.0365559217409954,
                0.9362112878659579,
                -0.8003092634124743,
                0.023951142635531664,
                2.599133428329014
            ]
        },
        {
            "positions": [
                0.17810826996334628,
                -1.0366701851209408,
                1.1858138308650439,
                -0.8244455348436627,
                0.11362634344248157,
                2.615453114882394
            ]
        },
        {
            "positions": [
                0.16979889503123238,
                -1.0367844485008861,
                1.4354163738641303,
                -0.8485818062748509,
                0.20330154424943125,
                2.6317728014357735
            ]
        },
        {
            "positions": [
                0.1614895200991185,
                -1.0368987118808315,
                1.685018916863217,
                -0.8727180777060393,
                0.2929767450563811,
                2.648092487989153
            ]
        },
        {
            "positions": [
                0.14862697720395812,
                -1.0674080872972371,
                1.7740943576031885,
                -0.8123255045101312,
                0.2374104199186032,
                2.767317872577483
            ]
        },
        {
            "positions": [
                0.13576443430879778,
                -1.0979174627136425,
                1.8631697983431597,
                -0.7519329313142231,
                0.1818440947808253,
                2.886543257165813
            ]
        },
        {
            "positions": [
                0.12290189141363742,
                -1.1284268381300482,
                1.952245239083131,
                -0.691540358118315,
                0.12627776964304738,
                3.005768641754143
            ]
        }
    ]
}{
    "goal": {
        "global_pose": {
            "orientation": {
                "w": 0.7047431468963623,
                "x": -0.7094548344612122,
                "y": 0.0024358443915843964,
                "z": -0.0022348060738295317
            },
            "position": {
                "x": 0.6094750761985779,
                "y": 0.3671506643295288,
                "z": 0.19426114857196808
            }
        },
        "name": "move_to_magneteinheit_A"
    },
    "id": "EST_move_to_magneteinheit_A_120",
    "joint_names": [
        "shoulder_pan_joint",
        "shoulder_lift_joint",
        "elbow_joint",
        "wrist_1_joint",
        "wrist_2_joint",
        "wrist_3_joint"
    ],
    "metrics": {
        "cart_traj_len": 1.2367037468687367,
        "distance_elbow_joint": 0.15692169989152704,
        "distance_shoulder_lift_joint": 0.7621852222623804,
        "distance_shoulder_pan_joint": 1.2420109565072883,
        "distance_wrist_1_joint": 0.9090530731022446,
        "distance_wrist_2_joint": 1.4302212880919043,
        "distance_wrist_3_joint": 4.359607192130028,
        "smoothness": 0.08608079884681948,
        "time": 0.18861556899999998,
        "traj_len": 2.9765751178133186,
        "weighted_distance": 4.463013351698556
    },
    "planner": "EST",
    "start": {
        "state": {
            "elbow_joint": 1.919643534880228,
            "shoulder_lift_joint": -1.8972525353963687,
            "shoulder_pan_joint": -1.1188672234189438,
            "wrist_1_joint": -1.5931878212786155,
            "wrist_2_joint": 1.5706036197970081,
            "wrist_3_joint": 1.118896926603594
        }
    },
    "waypoints": [
        {
            "positions": [
                -1.1188672234189438,
                -1.8972525353963687,
                1.919643534880228,
                -1.5931878212786155,
                1.5706036197970081,
                1.118896926603594
            ]
        },
        {
            "positions": [
                -1.0652412173489003,
                -1.863508734152357,
                1.9170491101595581,
                -1.5527229377715916,
                1.5075028509376753,
                0.9231038929380591
            ]
        },
        {
            "positions": [
                -1.011615211278857,
                -1.8297649329083456,
                1.9144546854388884,
                -1.512258054264568,
                1.4444020820783423,
                0.7273108592725241
            ]
        },
        {
            "positions": [
                -0.9579892052088135,
                -1.796021131664334,
                1.9118602607182185,
                -1.4717931707575442,
                1.3813013132190095,
                0.5315178256069892
            ]
        },
        {
            "positions": [
                -0.90436319913877,
                -1.7622773304203223,
                1.9092658359975485,
                -1.4313282872505204,
                1.3182005443596765,
                0.3357247919414543
            ]
        },
        {
            "positions": [
                -0.8507371930687265,
                -1.7285335291763109,
                1.9066714112768788,
                -1.3908634037434968,
                1.2550997755003437,
                0.13993175827591942
            ]
        },
        {
            "positions": [
                -0.7971111869986831,
                -1.6947897279322992,
                1.9040769865562088,
                -1.350398520236473,
                1.1919990066410109,
                -0.055861275389615495
            ]
        },
        {
            "positions": [
                -0.7434851809286396,
                -1.6610459266882875,
                1.9014825618355389,
                -1.3099336367294492,
                1.1288982377816779,
                -0.2516543090551504
            ]
        },
        {
            "positions": [
                -0.689859174858596,
                -1.627302125444276,
                1.8988881371148691,
                -1.2694687532224256,
                1.065797468922345,
                -0.4474473427206853
            ]
        },
        {
            "positions": [
                -0.6362331687885525,
                -1.5935583242002644,
                1.8962937123941992,
                -1.2290038697154018,
                1.0026967000630123,
                -0.6432403763862202
            ]
        },
        {
            "positions": [
                -0.5826071627185092,
                -1.559814522956253,
                1.8936992876735292,
                -1.188538986208378,
                0.9395959312036793,
                -0.8390334100517551
            ]
        },
        {
            "positions": [
                -0.5289811566484657,
                -1.5260707217122413,
                1.8911048629528593,
                -1.1480741027013543,
                0.8764951623443464,
                -1.03482644371729
            ]
        },
        {
            "positions": [
                -0.47535515057842226,
                -1.49232692046823,
                1.8885104382321896,
                -1.1076092191943305,
                0.8133943934850136,
                -1.230619477382825
            ]
        },
        {
            "positions": [
                -0.42172914450837873,
                -1.4585831192242182,
                1.8859160135115196,
                -1.0671443356873067,
                0.7502936246256806,
                -1.4264125110483599
            ]
        },
        {
            "positions": [
                -0.3681031384383353,
                -1.4248393179802066,
                1.8833215887908497,
                -1.0266794521802831,
                0.6871928557663478,
                -1.6222055447138948
            ]
        },
        {
            "positions": [
                -0.3144771323682919,
                -1.3910955167361951,
                1.88072716407018,
                -0.9862145686732593,
                0.624092086907015,
                -1.8179985783794297
            ]
        },
        {
            "positions": [
                -0.26085112629824836,
                -1.3573517154921835,
                1.87813273934951,
                -0.9457496851662355,
                0.560991318047682,
                -2.0137916120449644
            ]
        },
        {
            "positions": [
                -0.20722512022820483,
                -1.3236079142481718,
                1.87553831462884,
                -0.9052848016592118,
                0.4978905491883492,
                -2.2095846457104997
            ]
        },
        {
            "positions": [
                -0.1535991141581613,
                -1.2898641130041604,
                1.8729438899081703,
                -0.864819918152188,
                0.43478978032901616,
                -2.405377679376034
            ]
        },
        {
            "positions": [
                -0.09997310808811788,
                -1.2561203117601487,
                1.8703494651875003,
                -0.8243550346451642,
                0.37168901146968336,
                -2.6011707130415695
            ]
        },
        {
            "positions": [
                -0.04634710201807457,
                -1.222376510516137,
                1.8677550404668304,
                -0.7838901511381405,
                0.30858824261035056,
                -2.796963746707104
            ]
        },
        {
            "positions": [
                0.00727890405196896,
                -1.1886327092721256,
                1.8651606157461607,
                -0.7434252676311167,
                0.24548747375101754,
                -2.9927567803726394
            ]
        },
        {
            "positions": [
                0.0609049101220125,
                -1.154888908028114,
                1.8625661910254907,
                -0.702960384124093,
                0.18238670489168485,
                -3.188549814038174
            ]
        },
        {
            "positions": [
                0.12314373308834449,
                -1.1350673131339883,
                1.9624105470622804,
                -0.7217860200718151,
                0.14038233170510386,
                -3.2407102655264333
            ]
        }
    ]
}