{
    "goal": {
        "global_pose": {
            "orientation": {
                "w": 0.5084816217422485,
                "x": -0.49083608388900757,
                "y": 0.5182115435600281,
                "z": -0.4816462993621826
            },
            "position": {
                "x": 0.5540239810943604,
                "y": 0.030875300988554955,
                "z": 0.16403168439865112
            }
        },
        "name": "move_to_storage_A"
    },
    "id": "EST_move_to_storage_A_42",
    "joint_names": [
        "shoulder_pan_joint",
        "shoulder_lift_joint",
        "elbow_joint",
        "wrist_1_joint",
        "wrist_2_joint",
        "wrist_3_joint"
    ],
    "metrics": {
        "cart_traj_len": 0.35296036904345307,
        "distance_elbow_joint": 0.45230604454409873,
        "distance_shoulder_lift_joint": 0.23168071995619943,
        "distance_shoulder_pan_joint": 0.4622486108217489,
        "distance_wrist_1_joint": 0.25832313447707034,
        "distance_wrist_2_joint": 1.0942879064800493,
        "distance_wrist_3_joint": 0.10530074901989073,
        "smoothness": 1.3322676295501878e-15,
        "time": 0.077257885,
        "traj_len": 1.6137370186306867,
        "weighted_distance": 2.041411204117377
    },
    "planner": "EST",
    "start": {
        "state": {
            "elbow_joint": 1.9715477243005601,
            "shoulder_lift_joint": -1.1394853015351272,
            "shoulder_pan_joint": 0.12281154014795169,
            "wrist_1_joint": -0.7804696478968182,
            "wrist_2_joint": 0.12958648046900423,
            "wrist_3_joint": -3.192491284697111
        }
    },
    "waypoints": [
        {
            "positions": [
                0.12281154014795169,
                -1.1394853015351272,
                1.9715477243005601,
                -0.7804696478968182,
                0.12958648046900423,
                -3.192491284697111
            ]
        },
        {
            "positions": [
                0.05677602431627328,
                -1.1725825472431557,
                2.0361628735211457,
                -0.817372952822114,
                0.28591332425186844,
                -3.1774483205514126
            ]
        },
        {
            "positions": [
                -0.00925949151540513,
                -1.2056797929511842,
                2.100778022741731,
                -0.8542762577474097,
                0.4422401680347326,
                -3.162405356405714
            ]
        },
        {
            "positions": [
                -0.07529500734708354,
                -1.2387770386592127,
                2.1653931719623167,
                -0.8911795626727055,
                0.5985670118175968,
                -3.1473623922600154
            ]
        },
        {
            "positions": [
                -0.14133052317876194,
                -1.271874284367241,
                2.2300083211829023,
                -0.9280828675980012,
                0.754893855600461,
                -3.1323194281143163
            ]
        },
        {
            "positions": [
                -0.20736603901044037,
                -1.3049715300752696,
                2.294623470403488,
                -0.964986172523297,
                0.9112206993833252,
                -3.1172764639686177
            ]
        },
        {
            "positions": [
                -0.27340155484211875,
                -1.338068775783298,
                2.3592386196240733,
                -1.0018894774485927,
                1.0675475431661892,
                -3.102233499822919
            ]
        },
        {
            "positions": [
                -0.3394370706737972,
                -1.3711660214913266,
                2.423853768844659,
                -1.0387927823738885,
                1.2238743869490536,
                -3.0871905356772205
            ]
        }
    ]
}