{
    "goal": {
        "global_pose": {
            "orientation": {
                "w": 0.5084816217422485,
                "x": -0.49083608388900757,
                "y": 0.5182115435600281,
                "z": -0.4816462993621826
            },
            "position": {
                "x": 0.5540239810943604,
                "y": 0.030875300988554955,
                "z": 0.16403168439865112
            }
        },
        "name": "move_to_storage_A"
    },
    "id": "EST_move_to_storage_A_61",
    "joint_names": [
        "shoulder_pan_joint",
        "shoulder_lift_joint",
        "elbow_joint",
        "wrist_1_joint",
        "wrist_2_joint",
        "wrist_3_joint"
    ],
    "metrics": {
        "cart_traj_len": 0.3532956815550556,
        "distance_elbow_joint": 0.4482316980173535,
        "distance_shoulder_lift_joint": 0.23292882936207215,
        "distance_shoulder_pan_joint": 0.4620223243107448,
        "distance_wrist_1_joint": 0.23757220227835962,
        "distance_wrist_2_joint": 1.0981698357184033,
        "distance_wrist_3_joint": 0.10096029857410072,
        "smoothness": 0.0,
        "time": 0.062225155000000004,
        "traj_len": 1.6062021006900202,
        "weighted_distance": 2.029174172762407
    },
    "planner": "EST",
    "start": {
        "state": {
            "elbow_joint": 1.9715477243005601,
            "shoulder_lift_joint": -1.1394853015351272,
            "shoulder_pan_joint": 0.12281154014795169,
            "wrist_1_joint": -0.7804696478968182,
            "wrist_2_joint": 0.12958648046900423,
            "wrist_3_joint": -3.192491284697111
        }
    },
    "waypoints": [
        {
            "positions": [
                0.12281154014795169,
                -1.1394853015351272,
                1.9715477243005601,
                -0.7804696478968182,
                0.12958648046900423,
                -3.192491284697111
            ]
        },
        {
            "positions": [
                0.05680835096070244,
                -1.1727608485868517,
                2.035580824017325,
                -0.8144085339365839,
                0.2864678855716333,
                -3.178068384900811
            ]
        },
        {
            "positions": [
                -0.009194838226546806,
                -1.2060363956385765,
                2.09961392373409,
                -0.8483474199763494,
                0.4433492906742623,
                -3.163645485104511
            ]
        },
        {
            "positions": [
                -0.07519802741379607,
                -1.239311942690301,
                2.1636470234508547,
                -0.8822863060161151,
                0.6002306957768914,
                -3.1492225853082108
            ]
        },
        {
            "positions": [
                -0.1412012166010453,
                -1.2725874897420255,
                2.227680123167619,
                -0.9162251920558808,
                0.7571121008795204,
                -3.134799685511911
            ]
        },
        {
            "positions": [
                -0.20720440578829458,
                -1.3058630367937503,
                2.291713222884384,
                -0.9501640780956464,
                0.9139935059821495,
                -3.1203767857156106
            ]
        },
        {
            "positions": [
                -0.2732075949755438,
                -1.3391385838454748,
                2.355746322601149,
                -0.9841029641354121,
                1.0708749110847786,
                -3.1059538859193108
            ]
        },
        {
            "positions": [
                -0.3392107841627931,
                -1.3724141308971993,
                2.4197794223179137,
                -1.0180418501751778,
                1.2277563161874077,
                -3.0915309861230105
            ]
        }
    ]
}