{
    "goal": {
        "global_pose": {
            "orientation": {
                "w": 0.5084816217422485,
                "x": -0.49083608388900757,
                "y": 0.5182115435600281,
                "z": -0.4816462993621826
            },
            "position": {
                "x": 0.5540239810943604,
                "y": 0.030875300988554955,
                "z": 0.16403168439865112
            }
        },
        "name": "move_to_storage_A"
    },
    "id": "EST_move_to_storage_A_106",
    "joint_names": [
        "shoulder_pan_joint",
        "shoulder_lift_joint",
        "elbow_joint",
        "wrist_1_joint",
        "wrist_2_joint",
        "wrist_3_joint"
    ],
    "metrics": {
        "cart_traj_len": 0.3538350360390092,
        "distance_elbow_joint": 0.453757973785732,
        "distance_shoulder_lift_joint": 0.2330493007936103,
        "distance_shoulder_pan_joint": 0.46223294039026486,
        "distance_wrist_1_joint": 0.2579634369920142,
        "distance_wrist_2_joint": 1.102217148073644,
        "distance_wrist_3_joint": 0.10028710813848463,
        "smoothness": 1.3322676295501878e-15,
        "time": 0.049688762,
        "traj_len": 1.6153971363642285,
        "weighted_distance": 2.0421221093549664
    },
    "planner": "EST",
    "start": {
        "state": {
            "elbow_joint": 1.9715477243005601,
            "shoulder_lift_joint": -1.1394853015351272,
            "shoulder_pan_joint": 0.12281154014795169,
            "wrist_1_joint": -0.7804696478968182,
            "wrist_2_joint": 0.12958648046900423,
            "wrist_3_joint": -3.192491284697111
        }
    },
    "waypoints": [
        {
            "positions": [
                0.12281154014795169,
                -1.1394853015351272,
                1.9715477243005601,
                -0.7804696478968182,
                0.12958648046900423,
                -3.192491284697111
            ]
        },
        {
            "positions": [
                0.056778262949342434,
                -1.1727780587913572,
                2.036370291984236,
                -0.8173215674671059,
                0.28704607305095337,
                -3.178164554963042
            ]
        },
        {
            "positions": [
                -0.009255014249266821,
                -1.2060708160475873,
                2.101192859667912,
                -0.8541734870373936,
                0.4445056656329025,
                -3.1638378252289727
            ]
        },
        {
            "positions": [
                -0.07528829144787609,
                -1.2393635733038173,
                2.166015427351588,
                -0.8910254066076814,
                0.6019652582148516,
                -3.1495110954949035
            ]
        },
        {
            "positions": [
                -0.14132156864648532,
                -1.2726563305600473,
                2.230837995035264,
                -0.9278773261779691,
                0.7594248507968008,
                -3.1351843657608343
            ]
        },
        {
            "positions": [
                -0.20735484584509462,
                -1.3059490878162774,
                2.29566056271894,
                -0.9647292457482568,
                0.91688444337875,
                -3.120857636026765
            ]
        },
        {
            "positions": [
                -0.27338812304370386,
                -1.3392418450725074,
                2.360483130402616,
                -1.0015811653185447,
                1.074344035960699,
                -3.106530906292696
            ]
        },
        {
            "positions": [
                -0.33942140024231315,
                -1.3725346023287375,
                2.425305698086292,
                -1.0384330848888323,
                1.2318036285426484,
                -3.0922041765586266
            ]
        }
    ]
}