{
    "goal": {
        "global_pose": {
            "orientation": {
                "w": 0.7047431468963623,
                "x": -0.7094548344612122,
                "y": 0.0024358443915843964,
                "z": -0.0022348060738295317
            },
            "position": {
                "x": 0.6094750761985779,
                "y": 0.3671506643295288,
                "z": 0.19426114857196808
            }
        },
        "name": "move_to_magneteinheit_A"
    },
    "id": "EST_move_to_magneteinheit_A_125",
    "joint_names": [
        "shoulder_pan_joint",
        "shoulder_lift_joint",
        "elbow_joint",
        "wrist_1_joint",
        "wrist_2_joint",
        "wrist_3_joint"
    ],
    "metrics": {
        "cart_traj_len": 3.5197810277249104,
        "distance_elbow_joint": 3.878069390162252,
        "distance_shoulder_lift_joint": 0.24387338245688972,
        "distance_shoulder_pan_joint": 3.1270018053386304,
        "distance_wrist_1_joint": 1.0166640021035804,
        "distance_wrist_2_joint": 1.6919731372713418,
        "distance_wrist_3_joint": 2.6051106749135964,
        "smoothness": 0.21801663854828432,
        "time": 0.147422069,
        "traj_len": 3.544388860191033,
        "weighted_distance": 4.525654746160869
    },
    "planner": "EST",
    "start": {
        "state": {
            "elbow_joint": -1.919618573717145,
            "shoulder_lift_joint": -1.2443395971678275,
            "shoulder_pan_joint": 2.6996025300909787,
            "wrist_1_joint": -1.548550951253194,
            "wrist_2_joint": -1.5709469090946802,
            "wrist_3_joint": 0.4420197732051276
        }
    },
    "waypoints": [
        {
            "positions": [
                2.6996025300909787,
                -1.2443395971678275,
                -1.919618573717145,
                -1.548550951253194,
                -1.5709469090946802,
                0.4420197732051276
            ]
        },
        {
            "positions": [
                2.5977396586833166,
                -1.2466691656339293,
                -1.7944455894919122,
                -1.5158287352739117,
                -1.51126045384875,
                0.505010682608215
            ]
        },
        {
            "positions": [
                2.495876787275655,
                -1.2489987341000308,
                -1.6692726052666798,
                -1.4831065192946293,
                -1.4515739986028198,
                0.5680015920113025
            ]
        },
        {
            "positions": [
                2.3940139158679927,
                -1.2513283025661326,
                -1.544099621041447,
                -1.4503843033153472,
                -1.3918875433568896,
                0.63099250141439
            ]
        },
        {
            "positions": [
                2.292151044460331,
                -1.2536578710322344,
                -1.4189266368162143,
                -1.4176620873360648,
                -1.3322010881109594,
                0.6939834108174775
            ]
        },
        {
            "positions": [
                2.190288173052669,
                -1.2559874394983361,
                -1.2937536525909819,
                -1.3849398713567824,
                -1.2725146328650292,
                0.756974320220565
            ]
        },
        {
            "positions": [
                2.0884253016450067,
                -1.258317007964438,
                -1.1685806683657491,
                -1.3522176553775003,
                -1.212828177619099,
                0.8199652296236524
            ]
        },
        {
            "positions": [
                1.9865624302373448,
                -1.2606465764305395,
                -1.0434076841405164,
                -1.319495439398218,
                -1.1531417223731688,
                0.88295613902674
            ]
        },
        {
            "positions": [
                1.8846995588296829,
                -1.2629761448966412,
                -0.918234699915284,
                -1.2867732234189355,
                -1.0934552671272386,
                0.9459470484298274
            ]
        },
        {
            "positions": [
                1.7828366874220207,
                -1.265305713362743,
                -0.793061715690051,
                -1.2540510074396531,
                -1.0337688118813084,
                1.008937957832915
            ]
        },
        {
            "positions": [
                1.6809738160143588,
                -1.2676352818288446,
                -0.6678887314648185,
                -1.2213287914603708,
                -0.9740823566353782,
                1.0719288672360023
            ]
        },
        {
            "positions": [
                1.5791109446066969,
                -1.2699648502949463,
                -0.5427157472395858,
                -1.1886065754810886,
                -0.914395901389448,
                1.1349197766390897
            ]
        },
        {
            "positions": [
                1.477248073199035,
                -1.272294418761048,
                -0.41754276301435334,
                -1.1558843595018062,
                -0.8547094461435178,
                1.1979106860421773
            ]
        },
        {
            "positions": [
                1.3753852017913728,
                -1.2746239872271499,
                -0.2923697787891204,
                -1.1231621435225239,
                -0.7950229908975877,
                1.2609015954452647
            ]
        },
        {
            "positions": [
                1.2735223303837109,
                -1.2769535556932516,
                -0.16719679456388792,
                -1.0904399275432417,
                -0.7353365356516575,
                1.3238925048483523
            ]
        },
        {
            "positions": [
                1.171659458976049,
                -1.2792831241593532,
                -0.04202381033865543,
                -1.0577177115639593,
                -0.6756500804057273,
                1.3868834142514397
            ]
        },
        {
            "positions": [
                1.069796587568387,
                -1.281612692625455,
                0.08314917388657705,
                -1.024995495584677,
                -0.6159636251597971,
                1.4498743236545273
            ]
        },
        {
            "positions": [
                0.9679337161607251,
                -1.2839422610915567,
                0.20832215811180999,
                -0.9922732796053947,
                -0.5562771699138669,
                1.5128652330576147
            ]
        },
        {
            "positions": [
                0.8660708447530627,
                -1.2862718295576583,
                0.3334951423370429,
                -0.9595510636261123,
                -0.4965907146679367,
                1.5758561424607023
            ]
        },
        {
            "positions": [
                0.7642079733454008,
                -1.28860139802376,
                0.4586681265622754,
                -0.9268288476468299,
                -0.4369042594220065,
                1.6388470518637897
            ]
        },
        {
            "positions": [
                0.6623451019377389,
                -1.2909309664898618,
                0.5838411107875079,
                -0.8941066316675477,
                -0.3772178041760763,
                1.7018379612668773
            ]
        },
        {
            "positions": [
                0.5604822305300772,
                -1.2932605349559636,
                0.7090140950127404,
                -0.8613844156882653,
                -0.3175313489301461,
                1.7648288706699646
            ]
        },
        {
            "positions": [
                0.458619359122415,
                -1.2955901034220654,
                0.8341870792379733,
                -0.828662199708983,
                -0.2578448936842159,
                1.827819780073052
            ]
        },
        {
            "positions": [
                0.3567564877147529,
                -1.297919671888167,
                0.9593600634632058,
                -0.7959399837297008,
                -0.19815843843828573,
                1.8908106894761396
            ]
        },
        {
            "positions": [
                0.2548936163070912,
                -1.3002492403542687,
                1.0845330476884383,
                -0.7632177677504184,
                -0.13847198319235554,
                1.953801598879227
            ]
        },
        {
            "positions": [
                0.15303074489942903,
                -1.3025788088203705,
                1.2097060319136712,
                -0.730495551771136,
                -0.07878552794642535,
                2.0167925082823146
            ]
        },
        {
            "positions": [
                0.05116787349176688,
                -1.304908377286472,
                1.3348790161389041,
                -0.6977733357918537,
                -0.019099072700495157,
                2.0797834176854018
            ]
        },
        {
            "positions": [
                -0.050694997915894824,
                -1.3072379457525738,
                1.4600520003641366,
                -0.6650511198125714,
                0.040587382545435036,
                2.1427743270884894
            ]
        },
        {
            "positions": [
                -0.15255786932355675,
                -1.3095675142186756,
                1.585224984589369,
                -0.6323289038332891,
                0.10027383779136531,
                2.205765236491577
            ]
        },
        {
            "positions": [
                -0.10421633679363085,
                -1.2787591733082069,
                1.6537474919403206,
                -0.6627689827757862,
                0.1014216185740436,
                2.372125525520408
            ]
        },
        {
            "positions": [
                -0.05587480426370495,
                -1.2479508323977382,
                1.7222699992912724,
                -0.6932090617182833,
                0.10256939935672188,
                2.538485814549239
            ]
        },
        {
            "positions": [
                0.0035113093577094703,
                -1.20894123786937,
                1.8009969383425506,
                -0.7063963273178437,
                0.10872167563003522,
                2.7080340257390674
            ]
        },
        {
            "positions": [
                0.06289742297912389,
                -1.169931643341002,
                1.8797238773938287,
                -0.719583592917404,
                0.11487395190334856,
                2.8775822369288955
            ]
        },
        {
            "positions": [
                0.1222835366005383,
                -1.130922048812634,
                1.9584508164451069,
                -0.7327708585169644,
                0.1210262281766619,
                3.047130448118724
            ]
        }
    ]
}{
    "goal": {
        "global_pose": {
            "orientation": {
                "w": 0.7047431468963623,
                "x": -0.7094548344612122,
                "y": 0.0024358443915843964,
                "z": -0.0022348060738295317
            },
            "position": {
                "x": 0.6094750761985779,
                "y": 0.3671506643295288,
                "z": 0.19426114857196808
            }
        },
        "name": "move_to_magneteinheit_A"
    },
    "id": "EST_move_to_magneteinheit_A_125",
    "joint_names": [
        "shoulder_pan_joint",
        "shoulder_lift_joint",
        "elbow_joint",
        "wrist_1_joint",
        "wrist_2_joint",
        "wrist_3_joint"
    ],
    "metrics": {
        "cart_traj_len": 1.7098231767740768,
        "distance_elbow_joint": 2.477951576175923,
        "distance_shoulder_lift_joint": 0.7646594736231014,
        "distance_shoulder_pan_joint": 1.2418974989367055,
        "distance_wrist_1_joint": 2.317621029273951,
        "distance_wrist_2_joint": 1.4377450822433286,
        "distance_wrist_3_joint": 4.360424082095851,
        "smoothness": 0.30393779547624367,
        "time": 0.206490354,
        "traj_len": 3.5496899501715444,
        "weighted_distance": 5.007645456505265
    },
    "planner": "EST",
    "start": {
        "state": {
            "elbow_joint": 1.919643534880228,
            "shoulder_lift_joint": -1.8972525353963687,
            "shoulder_pan_joint": -1.1188672234189438,
            "wrist_1_joint": -1.5931878212786155,
            "wrist_2_joint": 1.5706036197970081,
            "wrist_3_joint": 1.118896926603594
        }
    },
    "waypoints": [
        {
            "positions": [
                -1.1188672234189438,
                -1.8972525353963687,
                1.919643534880228,
                -1.5931878212786155,
                1.5706036197970081,
                1.118896926603594
            ]
        },
        {
            "positions": [
                -1.117841549838371,
                -1.8678405458206067,
                1.8479477658229435,
                -1.4993223889217127,
                1.4990986484931905,
                1.013168418692101
            ]
        },
        {
            "positions": [
                -1.1168158762577978,
                -1.8384285562448448,
                1.7762519967656591,
                -1.4054569565648098,
                1.427593677189373,
                0.9074399107806081
            ]
        },
        {
            "positions": [
                -1.1157902026772248,
                -1.8090165666690827,
                1.7045562277083746,
                -1.311591524207907,
                1.3560887058855553,
                0.8017114028691152
            ]
        },
        {
            "positions": [
                -1.114764529096652,
                -1.7796045770933209,
                1.63286045865109,
                -1.2177260918510044,
                1.2845837345817377,
                0.6959828949576223
            ]
        },
        {
            "positions": [
                -1.113738855516079,
                -1.7501925875175588,
                1.5611646895938054,
                -1.1238606594941016,
                1.21307876327792,
                0.5902543870461294
            ]
        },
        {
            "positions": [
                -1.1127131819355058,
                -1.720780597941797,
                1.4894689205365208,
                -1.0299952271371988,
                1.1415737919741025,
                0.4845258791346365
            ]
        },
        {
            "positions": [
                -1.111687508354933,
                -1.6913686083660349,
                1.4177731514792364,
                -0.936129794780296,
                1.0700688206702849,
                0.3787973712231437
            ]
        },
        {
            "positions": [
                -1.11066183477436,
                -1.661956618790273,
                1.3460773824219519,
                -0.8422643624233932,
                0.9985638493664672,
                0.2730688633116508
            ]
        },
        {
            "positions": [
                -1.1096361611937868,
                -1.632544629214511,
                1.2743816133646673,
                -0.7483989300664904,
                0.9270588780626496,
                0.1673403554001579
            ]
        },
        {
            "positions": [
                -1.108610487613214,
                -1.603132639638749,
                1.2026858443073827,
                -0.6545334977095876,
                0.855553906758832,
                0.061611847488664884
            ]
        },
        {
            "positions": [
                -1.107584814032641,
                -1.573720650062987,
                1.1309900752500983,
                -0.5606680653526848,
                0.7840489354550144,
                -0.044116660422828025
            ]
        },
        {
            "positions": [
                -1.1065591404520678,
                -1.544308660487225,
                1.0592943061928137,
                -0.46680263299578195,
                0.7125439641511967,
                -0.14984516833432093
            ]
        },
        {
            "positions": [
                -1.105533466871495,
                -1.514896670911463,
                0.9875985371355293,
                -0.37293720063887936,
                0.6410389928473793,
                -0.2555736762458136
            ]
        },
        {
            "positions": [
                -1.104507793290922,
                -1.4854846813357012,
                0.9159027680782448,
                -0.27907176828197655,
                0.5695340215435616,
                -0.3613021841573065
            ]
        },
        {
            "positions": [
                -1.103482119710349,
                -1.4560726917599391,
                0.8442069990209602,
                -0.18520633592507374,
                0.498029050239744,
                -0.46703069206879944
            ]
        },
        {
            "positions": [
                -1.102456446129776,
                -1.426660702184177,
                0.7725112299636756,
                -0.09134090356817093,
                0.42652407893592637,
                -0.5727591999802923
            ]
        },
        {
            "positions": [
                -1.101430772549203,
                -1.3972487126084152,
                0.700815460906391,
                0.0025245287887318488,
                0.35501910763210875,
                -0.6784877078917853
            ]
        },
        {
            "positions": [
                -1.0249019570450177,
                -1.3807077344312184,
                0.7795106797940214,
                -0.04259476366168086,
                0.34113407200220697,
                -0.8386776733668146
            ]
        },
        {
            "positions": [
                -0.9483731415408324,
                -1.3641667562540216,
                0.8582058986816518,
                -0.08771405611209357,
                0.32724903637230524,
                -0.998867638841844
            ]
        },
        {
            "positions": [
                -0.8718443260366471,
                -1.347625778076825,
                0.9369011175692821,
                -0.13283334856250625,
                0.31336400074240345,
                -1.1590576043168734
            ]
        },
        {
            "positions": [
                -0.7953155105324619,
                -1.3310847998996282,
                1.0155963364569125,
                -0.17795264101291897,
                0.29947896511250166,
                -1.3192475697919028
            ]
        },
        {
            "positions": [
                -0.7187866950282765,
                -1.3145438217224314,
                1.094291555344543,
                -0.22307193346333168,
                0.2855939294825999,
                -1.4794375352669322
            ]
        },
        {
            "positions": [
                -0.6422578795240912,
                -1.2980028435452349,
                1.1729867742321733,
                -0.2681912259137444,
                0.27170889385269814,
                -1.6396275007419616
            ]
        },
        {
            "positions": [
                -0.565729064019906,
                -1.281461865368038,
                1.2516819931198035,
                -0.31331051836415713,
                0.25782385822279635,
                -1.799817466216991
            ]
        },
        {
            "positions": [
                -0.48920024851572064,
                -1.2649208871908413,
                1.330377212007434,
                -0.3584298108145698,
                0.2439388225928946,
                -1.9600074316920204
            ]
        },
        {
            "positions": [
                -0.4126714330115353,
                -1.2483799090136445,
                1.4090724308950644,
                -0.4035491032649825,
                0.23005378696299283,
                -2.1201973971670496
            ]
        },
        {
            "positions": [
                -0.3361426175073501,
                -1.2318389308364477,
                1.4877676497826946,
                -0.44866839571539524,
                0.21616875133309105,
                -2.280387362642079
            ]
        },
        {
            "positions": [
                -0.25961380200316475,
                -1.2152979526592511,
                1.566462868670325,
                -0.4937876881658079,
                0.2022837157031893,
                -2.440577328117109
            ]
        },
        {
            "positions": [
                -0.18308498649897942,
                -1.1987569744820543,
                1.6451580875579555,
                -0.5389069806162206,
                0.18839868007328753,
                -2.600767293592138
            ]
        },
        {
            "positions": [
                -0.1065561709947942,
                -1.1822159963048575,
                1.7238533064455859,
                -0.5840262730666332,
                0.17451364444338574,
                -2.7609572590671676
            ]
        },
        {
            "positions": [
                -0.030027355490608976,
                -1.165675018127661,
                1.802548525333216,
                -0.629145565517046,
                0.16062860881348398,
                -2.9211472245421968
            ]
        },
        {
            "positions": [
                0.04650146001357647,
                -1.1491340399504641,
                1.8812437442208465,
                -0.6742648579674587,
                0.1467435731835822,
                -3.081337190017226
            ]
        },
        {
            "positions": [
                0.12303027551776173,
                -1.1325930617732674,
                1.959938963108477,
                -0.7193841504178714,
                0.13285853755368043,
                -3.2415271554922556
            ]
        }
    ]
}