{
    "goal": {
        "global_pose": {
            "orientation": {
                "w": 0.7047431468963623,
                "x": -0.7094548344612122,
                "y": 0.0024358443915843964,
                "z": -0.0022348060738295317
            },
            "position": {
                "x": 0.6094750761985779,
                "y": 0.3671506643295288,
                "z": 0.19426114857196808
            }
        },
        "name": "move_to_magneteinheit_A"
    },
    "id": "EST_move_to_magneteinheit_A_54",
    "joint_names": [
        "shoulder_pan_joint",
        "shoulder_lift_joint",
        "elbow_joint",
        "wrist_1_joint",
        "wrist_2_joint",
        "wrist_3_joint"
    ],
    "metrics": {
        "cart_traj_len": 3.4427149490405036,
        "distance_elbow_joint": 3.904224073190135,
        "distance_shoulder_lift_joint": 1.9123198437494047,
        "distance_shoulder_pan_joint": 4.215310327085838,
        "distance_wrist_1_joint": 1.7796611318601272,
        "distance_wrist_2_joint": 3.5270553608327235,
        "distance_wrist_3_joint": 3.569001660741253,
        "smoothness": 0.3595330856317062,
        "time": 0.082584433,
        "traj_len": 4.348283845088712,
        "weighted_distance": 5.599311762318191
    },
    "planner": "EST",
    "start": {
        "state": {
            "elbow_joint": -1.919618573717145,
            "shoulder_lift_joint": -1.2443395971678275,
            "shoulder_pan_joint": 2.6996025300909787,
            "wrist_1_joint": -1.548550951253194,
            "wrist_2_joint": -1.5709469090946802,
            "wrist_3_joint": 0.4420197732051276
        }
    },
    "waypoints": [
        {
            "positions": [
                2.6996025300909787,
                -1.2443395971678275,
                -1.919618573717145,
                -1.548550951253194,
                -1.5709469090946802,
                0.4420197732051276
            ]
        },
        {
            "positions": [
                2.6077996450602217,
                -1.2688528672600037,
                -1.8248454327526962,
                -1.514973279072559,
                -1.5003450727707126,
                0.37084422512068904
            ]
        },
        {
            "positions": [
                2.5159967600294646,
                -1.29336613735218,
                -1.7300722917882472,
                -1.4813956068919238,
                -1.4297432364467453,
                0.29966867703625044
            ]
        },
        {
            "positions": [
                2.4241938749987075,
                -1.3178794074443563,
                -1.6352991508237982,
                -1.4478179347112887,
                -1.3591414001227777,
                0.2284931289518119
            ]
        },
        {
            "positions": [
                2.3323909899679505,
                -1.3423926775365327,
                -1.5405260098593494,
                -1.4142402625306536,
                -1.2885395637988102,
                0.15731758086737335
            ]
        },
        {
            "positions": [
                2.240588104937194,
                -1.3669059476287089,
                -1.4457528688949006,
                -1.3806625903500187,
                -1.2179377274748429,
                0.08614203278293475
            ]
        },
        {
            "positions": [
                2.1487852199064363,
                -1.3914192177208853,
                -1.3509797279304516,
                -1.3470849181693836,
                -1.1473358911508753,
                0.014966484698496207
            ]
        },
        {
            "positions": [
                2.0569823348756797,
                -1.4159324878130615,
                -1.2562065869660026,
                -1.3135072459887485,
                -1.0767340548269078,
                -0.05620906338594239
            ]
        },
        {
            "positions": [
                1.9651794498449227,
                -1.4404457579052377,
                -1.1614334460015538,
                -1.2799295738081133,
                -1.0061322185029402,
                -0.12738461147038088
            ]
        },
        {
            "positions": [
                1.8733765648141656,
                -1.464959027997414,
                -1.066660305037105,
                -1.2463519016274782,
                -0.9355303821789729,
                -0.19856015955481948
            ]
        },
        {
            "positions": [
                1.7815736797834085,
                -1.4894722980895903,
                -0.9718871640726561,
                -1.212774229446843,
                -0.8649285458550054,
                -0.2697357076392581
            ]
        },
        {
            "positions": [
                1.6897707947526515,
                -1.5139855681817667,
                -0.8771140231082073,
                -1.179196557266208,
                -0.7943267095310379,
                -0.3409112557236967
            ]
        },
        {
            "positions": [
                1.5979679097218944,
                -1.5384988382739428,
                -0.7823408821437583,
                -1.1456188850855729,
                -0.7237248732070705,
                -0.41208680380813517
            ]
        },
        {
            "positions": [
                1.5061650246911376,
                -1.5630121083661193,
                -0.6875677411793095,
                -1.1120412129049377,
                -0.653123036883103,
                -0.48326235189257377
            ]
        },
        {
            "positions": [
                1.4143621396603805,
                -1.5875253784582954,
                -0.5927946002148605,
                -1.0784635407243028,
                -0.5825212005591355,
                -0.5544378999770123
            ]
        },
        {
            "positions": [
                1.3225592546296234,
                -1.6120386485504716,
                -0.49802145925041175,
                -1.0448858685436675,
                -0.511919364235168,
                -0.6256134480614508
            ]
        },
        {
            "positions": [
                1.2307563695988664,
                -1.636551918642648,
                -0.40324831828596275,
                -1.0113081963630326,
                -0.4413175279112005,
                -0.6967889961458893
            ]
        },
        {
            "positions": [
                1.1389534845681093,
                -1.6610651887348244,
                -0.30847517732151397,
                -0.9777305241823974,
                -0.37071569158723316,
                -0.767964544230328
            ]
        },
        {
            "positions": [
                1.0471505995373522,
                -1.6855784588270006,
                -0.21370203635706497,
                -0.9441528520017624,
                -0.3001138552632656,
                -0.8391400923147665
            ]
        },
        {
            "positions": [
                0.9553477145065956,
                -1.7100917289191768,
                -0.11892889539261642,
                -0.9105751798211272,
                -0.2295120189392983,
                -0.910315640399205
            ]
        },
        {
            "positions": [
                0.8635448294758383,
                -1.7346049990113532,
                -0.024155754428167198,
                -0.8769975076404921,
                -0.15891018261533074,
                -0.9814911884836437
            ]
        },
        {
            "positions": [
                0.7717419444450815,
                -1.7591182691035294,
                0.07061738653628136,
                -0.8434198354598571,
                -0.08830834629136342,
                -1.0526667365680822
            ]
        },
        {
            "positions": [
                0.6799390594143242,
                -1.7836315391957056,
                0.16539052750073036,
                -0.8098421632792219,
                -0.017706509967395645,
                -1.123842284652521
            ]
        },
        {
            "positions": [
                0.5881361743835676,
                -1.808144809287882,
                0.26016366846517935,
                -0.7762644910985869,
                0.05289532635657168,
                -1.1950178327369592
            ]
        },
        {
            "positions": [
                0.49633328935281007,
                -1.8326580793800584,
                0.35493680942962835,
                -0.7426868189179517,
                0.12349716268053923,
                -1.2661933808213979
            ]
        },
        {
            "positions": [
                0.40453040432205345,
                -1.8571713494722344,
                0.4497099503940769,
                -0.7091091467373167,
                0.19409899900450656,
                -1.3373689289058364
            ]
        },
        {
            "positions": [
                0.3127275192912964,
                -1.8816846195644108,
                0.5444830913585259,
                -0.6755314745566815,
                0.2647008353284741,
                -1.408544476990275
            ]
        },
        {
            "positions": [
                0.22092463426053932,
                -1.9061978896565872,
                0.6392562323229749,
                -0.6419538023760465,
                0.33530267165244143,
                -1.4797200250747136
            ]
        },
        {
            "positions": [
                0.12912174922978226,
                -1.9307111597487636,
                0.7340293732874239,
                -0.6083761301954114,
                0.4059045079764092,
                -1.5508955731591523
            ]
        },
        {
            "positions": [
                0.03731886419902519,
                -1.9552244298409396,
                0.8288025142518725,
                -0.5747984580147762,
                0.4765063443003763,
                -1.6220711212435908
            ]
        },
        {
            "positions": [
                -0.05448402083173187,
                -1.979737699933116,
                0.9235756552163215,
                -0.5412207858341411,
                0.5471081806243441,
                -1.6932466693280293
            ]
        },
        {
            "positions": [
                -0.14628690586248894,
                -2.0042509700252924,
                1.0183487961807705,
                -0.507643113653506,
                0.6177100169483114,
                -1.7644222174124677
            ]
        },
        {
            "positions": [
                -0.238089790893246,
                -2.028764240117469,
                1.1131219371452195,
                -0.4740654414728709,
                0.6883118532722792,
                -1.8355977654969062
            ]
        },
        {
            "positions": [
                -0.3298926759240026,
                -2.0532775102096448,
                1.207895078109668,
                -0.440487769292236,
                0.7589136895962465,
                -1.9067733135813447
            ]
        },
        {
            "positions": [
                -0.42169556095476013,
                -2.077790780301821,
                1.302668219074117,
                -0.40691009711160064,
                0.8295155259202138,
                -1.9779488616657837
            ]
        },
        {
            "positions": [
                -0.5134984459855167,
                -2.1023040503939976,
                1.397441360038566,
                -0.37333242493096574,
                0.9001173622441812,
                -2.049124409750222
            ]
        },
        {
            "positions": [
                -0.6053013310162743,
                -2.1268173204861736,
                1.492214501003015,
                -0.3397547527503306,
                0.9707191985681489,
                -2.1202999578346606
            ]
        },
        {
            "positions": [
                -0.6971042160470308,
                -2.15133059057835,
                1.5869876419674638,
                -0.3061770805696955,
                1.041321034892116,
                -2.191475505919099
            ]
        },
        {
            "positions": [
                -0.6288872509680451,
                -2.067553186383443,
                1.6201224634262577,
                -0.3509510190010813,
                0.9650887501549554,
                -2.269434371053851
            ]
        },
        {
            "positions": [
                -0.5606702858890593,
                -1.9837757821885362,
                1.6532572848850513,
                -0.395724957432467,
                0.8888564654177948,
                -2.3473932361886036
            ]
        },
        {
            "positions": [
                -0.49245332081007365,
                -1.8999983779936294,
                1.686392106343845,
                -0.4404988958638527,
                0.8126241806806342,
                -2.4253521013233557
            ]
        },
        {
            "positions": [
                -0.424236355731088,
                -1.8162209737987225,
                1.7195269278026388,
                -0.4852728342952385,
                0.7363918959434737,
                -2.5033109664581077
            ]
        },
        {
            "positions": [
                -0.3560193906521022,
                -1.7324435696038156,
                1.7526617492614327,
                -0.5300467727266243,
                0.660159611206313,
                -2.58126983159286
            ]
        },
        {
            "positions": [
                -0.2878024255731165,
                -1.6486661654089088,
                1.7857965707202264,
                -0.5748207111580099,
                0.5839273264691524,
                -2.659228696727612
            ]
        },
        {
            "positions": [
                -0.2195854604941308,
                -1.5648887612140019,
                1.8189313921790202,
                -0.6195946495893958,
                0.5076950417319918,
                -2.7371875618623642
            ]
        },
        {
            "positions": [
                -0.1513684954151452,
                -1.4811113570190952,
                1.8520662136378139,
                -0.6643685880207815,
                0.43146275699483116,
                -2.8151464269971163
            ]
        },
        {
            "positions": [
                -0.08315153033615941,
                -1.3973339528241884,
                1.8852010350966077,
                -0.7091425264521672,
                0.35523047225767046,
                -2.8931052921318687
            ]
        },
        {
            "positions": [
                -0.014934565257173626,
                -1.3135565486292813,
                1.9183358565554014,
                -0.753916464883553,
                0.27899818752050987,
                -2.971064157266621
            ]
        },
        {
            "positions": [
                0.05328239982181193,
                -1.2297791444343746,
                1.951470678014195,
                -0.7986904033149387,
                0.20276590278334927,
                -3.0490230224013732
            ]
        },
        {
            "positions": [
                0.1214993649007977,
                -1.1460017402394678,
                1.984605499472989,
                -0.8434643417463245,
                0.12653361804618868,
                -3.1269818875361253
            ]
        }
    ]
}{
    "goal": {
        "global_pose": {
            "orientation": {
                "w": 0.7047431468963623,
                "x": -0.7094548344612122,
                "y": 0.0024358443915843964,
                "z": -0.0022348060738295317
            },
            "position": {
                "x": 0.6094750761985779,
                "y": 0.3671506643295288,
                "z": 0.19426114857196808
            }
        },
        "name": "move_to_magneteinheit_A"
    },
    "id": "EST_move_to_magneteinheit_A_54",
    "joint_names": [
        "shoulder_pan_joint",
        "shoulder_lift_joint",
        "elbow_joint",
        "wrist_1_joint",
        "wrist_2_joint",
        "wrist_3_joint"
    ],
    "metrics": {
        "cart_traj_len": 1.1980459354740187,
        "distance_elbow_joint": 0.06524280437115504,
        "distance_shoulder_lift_joint": 0.7509226745608382,
        "distance_shoulder_pan_joint": 1.2410256507241655,
        "distance_wrist_1_joint": 0.7417548764140913,
        "distance_wrist_2_joint": 1.4470356731213307,
        "distance_wrist_3_joint": 2.030167883208965,
        "smoothness": 4.1796631846258547e-16,
        "time": 0.116240443,
        "traj_len": 2.5052244534972403,
        "weighted_distance": 3.539106649756955
    },
    "planner": "EST",
    "start": {
        "state": {
            "elbow_joint": 1.919643534880228,
            "shoulder_lift_joint": -1.8972525353963687,
            "shoulder_pan_joint": -1.1188672234189438,
            "wrist_1_joint": -1.5931878212786155,
            "wrist_2_joint": 1.5706036197970081,
            "wrist_3_joint": 1.118896926603594
        }
    },
    "waypoints": [
        {
            "positions": [
                -1.1188672234189438,
                -1.8972525353963687,
                1.919643534880228,
                -1.5931878212786155,
                1.5706036197970081,
                1.118896926603594
            ]
        },
        {
            "positions": [
                -1.0413031202486835,
                -1.8503198682363164,
                1.9237212101534253,
                -1.5468281415027347,
                1.480163890226925,
                1.2457824193041542
            ]
        },
        {
            "positions": [
                -0.9637390170784231,
                -1.803387201076264,
                1.9277988854266224,
                -1.500468461726854,
                1.3897241606568418,
                1.3726679120047147
            ]
        },
        {
            "positions": [
                -0.8861749139081628,
                -1.7564545339162116,
                1.9318765606998196,
                -1.4541087819509733,
                1.2992844310867586,
                1.499553404705275
            ]
        },
        {
            "positions": [
                -0.8086108107379024,
                -1.7095218667561591,
                1.9359542359730169,
                -1.4077491021750927,
                1.2088447015166754,
                1.6264388974058352
            ]
        },
        {
            "positions": [
                -0.7310467075676421,
                -1.6625891995961068,
                1.940031911246214,
                -1.361389422399212,
                1.1184049719465923,
                1.7533243901063955
            ]
        },
        {
            "positions": [
                -0.6534826043973818,
                -1.6156565324360543,
                1.9441095865194113,
                -1.3150297426233313,
                1.027965242376509,
                1.8802098828069558
            ]
        },
        {
            "positions": [
                -0.5759185012271214,
                -1.568723865276002,
                1.9481872617926084,
                -1.2686700628474505,
                0.9375255128064259,
                2.0070953755075163
            ]
        },
        {
            "positions": [
                -0.4983543980568611,
                -1.5217911981159498,
                1.9522649370658056,
                -1.2223103830715698,
                0.8470857832363428,
                2.1339808682080763
            ]
        },
        {
            "positions": [
                -0.4207902948866008,
                -1.4748585309558973,
                1.9563426123390029,
                -1.175950703295689,
                0.7566460536662596,
                2.260866360908637
            ]
        },
        {
            "positions": [
                -0.3432261917163404,
                -1.4279258637958447,
                1.9604202876121999,
                -1.1295910235198083,
                0.6662063240961764,
                2.3877518536091973
            ]
        },
        {
            "positions": [
                -0.2656620885460801,
                -1.3809931966357925,
                1.9644979628853971,
                -1.0832313437439276,
                0.5757665945260932,
                2.5146373463097573
            ]
        },
        {
            "positions": [
                -0.1880979853758198,
                -1.3340605294757402,
                1.9685756381585944,
                -1.0368716639680469,
                0.4853268649560101,
                2.641522839010318
            ]
        },
        {
            "positions": [
                -0.11053388220555949,
                -1.2871278623156877,
                1.9726533134317916,
                -0.9905119841921662,
                0.3948871353859269,
                2.7684083317108783
            ]
        },
        {
            "positions": [
                -0.03296977903529896,
                -1.2401951951556354,
                1.9767309887049889,
                -0.9441523044162856,
                0.30444740581584373,
                2.8952938244114383
            ]
        },
        {
            "positions": [
                0.04459432413496134,
                -1.193262527995583,
                1.980808663978186,
                -0.8977926246404049,
                0.21400767624576056,
                3.022179317111999
            ]
        },
        {
            "positions": [
                0.12215842730522164,
                -1.1463298608355306,
                1.9848863392513831,
                -0.8514329448645241,
                0.1235679466756773,
                3.149064809812559
            ]
        }
    ]
}