{
    "goal": {
        "global_pose": {
            "orientation": {
                "w": 0.5084816217422485,
                "x": -0.49083608388900757,
                "y": 0.5182115435600281,
                "z": -0.4816462993621826
            },
            "position": {
                "x": 0.5540239810943604,
                "y": 0.030875300988554955,
                "z": 0.16403168439865112
            }
        },
        "name": "move_to_storage_A"
    },
    "id": "EST_move_to_storage_A_47",
    "joint_names": [
        "shoulder_pan_joint",
        "shoulder_lift_joint",
        "elbow_joint",
        "wrist_1_joint",
        "wrist_2_joint",
        "wrist_3_joint"
    ],
    "metrics": {
        "cart_traj_len": 0.353436839000294,
        "distance_elbow_joint": 0.4518302309615416,
        "distance_shoulder_lift_joint": 0.2335640515113826,
        "distance_shoulder_pan_joint": 0.46255131543092914,
        "distance_wrist_1_joint": 0.2477569419285105,
        "distance_wrist_2_joint": 1.0980331490812092,
        "distance_wrist_3_joint": 0.1027448842798604,
        "smoothness": 4.440892098500626e-16,
        "time": 0.069254866,
        "traj_len": 1.6113598521725163,
        "weighted_distance": 2.036605124407496
    },
    "planner": "EST",
    "start": {
        "state": {
            "elbow_joint": 1.9715477243005601,
            "shoulder_lift_joint": -1.1394853015351272,
            "shoulder_pan_joint": 0.12281154014795169,
            "wrist_1_joint": -0.7804696478968182,
            "wrist_2_joint": 0.12958648046900423,
            "wrist_3_joint": -3.192491284697111
        }
    },
    "waypoints": [
        {
            "positions": [
                0.12281154014795169,
                -1.1394853015351272,
                1.9715477243005601,
                -0.7804696478968182,
                0.12958648046900423,
                -3.192491284697111
            ]
        },
        {
            "positions": [
                0.056732780800676105,
                -1.172851594608182,
                2.036094900152209,
                -0.8158634967437483,
                0.28644835890917697,
                -3.1778134440857024
            ]
        },
        {
            "positions": [
                -0.009345978546599479,
                -1.2062178876812364,
                2.1006420760038576,
                -0.8512573455906783,
                0.4433102373493497,
                -3.163135603474294
            ]
        },
        {
            "positions": [
                -0.07542473789387506,
                -1.239584180754291,
                2.1651892518555065,
                -0.8866511944376083,
                0.6001721157895225,
                -3.1484577628628854
            ]
        },
        {
            "positions": [
                -0.14150349724115063,
                -1.2729504738273458,
                2.2297364277071554,
                -0.9220450432845384,
                0.7570339942296952,
                -3.1337799222514766
            ]
        },
        {
            "positions": [
                -0.20758225658842627,
                -1.3063167669004005,
                2.2942836035588043,
                -0.9574388921314685,
                0.9138958726698679,
                -3.119102081640068
            ]
        },
        {
            "positions": [
                -0.2736610159357018,
                -1.339683059973455,
                2.358830779410453,
                -0.9928327409783986,
                1.0707577511100408,
                -3.1044242410286595
            ]
        },
        {
            "positions": [
                -0.33973977528297744,
                -1.3730493530465098,
                2.4233779552621018,
                -1.0282265898253287,
                1.2276196295502133,
                -3.089746400417251
            ]
        }
    ]
}