{
    "goal": {
        "global_pose": {
            "orientation": {
                "w": 0.7047431468963623,
                "x": -0.7094548344612122,
                "y": 0.0024358443915843964,
                "z": -0.0022348060738295317
            },
            "position": {
                "x": 0.6094750761985779,
                "y": 0.3671506643295288,
                "z": 0.19426114857196808
            }
        },
        "name": "move_to_magneteinheit_A"
    },
    "id": "EST_move_to_magneteinheit_A_73",
    "joint_names": [
        "shoulder_pan_joint",
        "shoulder_lift_joint",
        "elbow_joint",
        "wrist_1_joint",
        "wrist_2_joint",
        "wrist_3_joint"
    ],
    "metrics": {
        "cart_traj_len": 3.969721237864209,
        "distance_elbow_joint": 3.875941725153405,
        "distance_shoulder_lift_joint": 0.28424012039593105,
        "distance_shoulder_pan_joint": 3.853895517824027,
        "distance_wrist_1_joint": 0.8423404806231555,
        "distance_wrist_2_joint": 2.4277420848754314,
        "distance_wrist_3_joint": 3.4607649096076596,
        "smoothness": 0.4270534489460909,
        "time": 0.09246401600000001,
        "traj_len": 3.839912087337366,
        "weighted_distance": 4.993649689675231
    },
    "planner": "EST",
    "start": {
        "state": {
            "elbow_joint": -1.919618573717145,
            "shoulder_lift_joint": -1.2443395971678275,
            "shoulder_pan_joint": 2.6996025300909787,
            "wrist_1_joint": -1.548550951253194,
            "wrist_2_joint": -1.5709469090946802,
            "wrist_3_joint": 0.4420197732051276
        }
    },
    "waypoints": [
        {
            "positions": [
                2.6996025300909787,
                -1.2443395971678275,
                -1.919618573717145,
                -1.548550951253194,
                -1.5709469090946802,
                0.4420197732051276
            ]
        },
        {
            "positions": [
                2.5924458232209115,
                -1.2471915619842,
                -1.8224075232696308,
                -1.5341222404489598,
                -1.5020758520384958,
                0.5427490849702761
            ]
        },
        {
            "positions": [
                2.485289116350845,
                -1.2500435268005723,
                -1.725196472822117,
                -1.5196935296447254,
                -1.4332047949823115,
                0.6434783967354247
            ]
        },
        {
            "positions": [
                2.3781324094807776,
                -1.2528954916169446,
                -1.6279854223746029,
                -1.5052648188404911,
                -1.364333737926127,
                0.7442077085005733
            ]
        },
        {
            "positions": [
                2.2709757026107105,
                -1.255747456433317,
                -1.5307743719270888,
                -1.4908361080362569,
                -1.2954626808699428,
                0.8449370202657218
            ]
        },
        {
            "positions": [
                2.1638189957406437,
                -1.2585994212496896,
                -1.4335633214795749,
                -1.4764073972320224,
                -1.2265916238137584,
                0.9456663320308702
            ]
        },
        {
            "positions": [
                2.0566622888705766,
                -1.2614513860660619,
                -1.3363522710320608,
                -1.4619786864277882,
                -1.157720566757574,
                1.046395643796019
            ]
        },
        {
            "positions": [
                1.9495055820005094,
                -1.2643033508824342,
                -1.2391412205845467,
                -1.447549975623554,
                -1.0888495097013897,
                1.1471249555611676
            ]
        },
        {
            "positions": [
                1.8423488751304422,
                -1.2671553156988067,
                -1.1419301701370328,
                -1.4331212648193195,
                -1.0199784526452054,
                1.247854267326316
            ]
        },
        {
            "positions": [
                1.7351921682603753,
                -1.2700072805151792,
                -1.0447191196895187,
                -1.4186925540150852,
                -0.951107395589021,
                1.3485835790914644
            ]
        },
        {
            "positions": [
                1.6280354613903083,
                -1.2728592453315515,
                -0.9475080692420047,
                -1.404263843210851,
                -0.8822363385328367,
                1.449312890856613
            ]
        },
        {
            "positions": [
                1.5208787545202411,
                -1.2757112101479238,
                -0.8502970187944907,
                -1.3898351324066165,
                -0.8133652814766523,
                1.5500422026217617
            ]
        },
        {
            "positions": [
                1.413722047650174,
                -1.2785631749642963,
                -0.7530859683469766,
                -1.3754064216023822,
                -0.744494224420468,
                1.6507715143869104
            ]
        },
        {
            "positions": [
                1.306565340780107,
                -1.2814151397806688,
                -0.6558749178994625,
                -1.360977710798148,
                -0.6756231673642836,
                1.7515008261520588
            ]
        },
        {
            "positions": [
                1.1994086339100398,
                -1.284267104597041,
                -0.5586638674519486,
                -1.3465489999939135,
                -0.6067521103080993,
                1.8522301379172075
            ]
        },
        {
            "positions": [
                1.0922519270399729,
                -1.2871190694134134,
                -0.4614528170044345,
                -1.3321202891896793,
                -0.5378810532519149,
                1.952959449682356
            ]
        },
        {
            "positions": [
                0.9850952201699059,
                -1.2899710342297859,
                -0.3642417665569204,
                -1.317691578385445,
                -0.4690099961957306,
                2.0536887614475043
            ]
        },
        {
            "positions": [
                0.8779385132998387,
                -1.2928229990461584,
                -0.26703071610940654,
                -1.3032628675812106,
                -0.40013893913954623,
                2.154418073212653
            ]
        },
        {
            "positions": [
                0.7707818064297718,
                -1.2956749638625307,
                -0.16981966566189244,
                -1.2888341567769763,
                -0.3312678820833619,
                2.255147384977801
            ]
        },
        {
            "positions": [
                0.6636250995597046,
                -1.298526928678903,
                -0.07260861521437856,
                -1.274405445972742,
                -0.26239682502717754,
                2.35587669674295
            ]
        },
        {
            "positions": [
                0.5564683926896379,
                -1.3013788934952755,
                0.024602435233135544,
                -1.2599767351685078,
                -0.1935257679709932,
                2.4566060085080985
            ]
        },
        {
            "positions": [
                0.4493116858195707,
                -1.3042308583116478,
                0.12181348568064965,
                -1.2455480243642734,
                -0.12465471091480884,
                2.557335320273247
            ]
        },
        {
            "positions": [
                0.34215497894950353,
                -1.3070828231280203,
                0.21902453612816353,
                -1.2311193135600391,
                -0.05578365385862449,
                2.658064632038396
            ]
        },
        {
            "positions": [
                0.23499827207943635,
                -1.3099347879443926,
                0.31623558657567785,
                -1.2166906027558047,
                0.013087403197559855,
                2.7587939438035445
            ]
        },
        {
            "positions": [
                0.12784156520936918,
                -1.312786752760765,
                0.41344663702319173,
                -1.2022618919515704,
                0.0819584602537442,
                2.859523255568693
            ]
        },
        {
            "positions": [
                0.020684858339302004,
                -1.3156387175771376,
                0.5106576874707061,
                -1.1878331811473362,
                0.15082951730992855,
                2.9602525673338413
            ]
        },
        {
            "positions": [
                -0.08647184853076473,
                -1.3184906823935099,
                0.6078687379182199,
                -1.1734044703431017,
                0.2197005743661129,
                3.06098187909899
            ]
        },
        {
            "positions": [
                -0.1936285554008319,
                -1.3213426472098821,
                0.7050797883657338,
                -1.1589757595388674,
                0.28857163142229725,
                3.1617111908641387
            ]
        },
        {
            "positions": [
                -0.3007852622708991,
                -1.3241946120262547,
                0.8022908388132477,
                -1.1445470487346332,
                0.3574426884784816,
                3.2624405026292873
            ]
        },
        {
            "positions": [
                -0.4079419691409658,
                -1.3270465768426272,
                0.899501889260762,
                -1.1301183379303987,
                0.42631374553466594,
                3.3631698143944355
            ]
        },
        {
            "positions": [
                -0.515098676011033,
                -1.3298985416589995,
                0.9967129397082759,
                -1.1156896271261645,
                0.4951848025908505,
                3.463899126159584
            ]
        },
        {
            "positions": [
                -0.43519938704578087,
                -1.3050633946709045,
                1.1166642161742741,
                -1.0645047325641488,
                0.44998350594211284,
                3.4090384315779336
            ]
        },
        {
            "positions": [
                -0.35530009808052876,
                -1.2802282476828097,
                1.2366154926402722,
                -1.013319838002133,
                0.40478220929337516,
                3.3541777369962835
            ]
        },
        {
            "positions": [
                -0.27540080911527665,
                -1.2553931006947148,
                1.3565667691062704,
                -0.9621349434401173,
                0.35958091264463743,
                3.299317042414633
            ]
        },
        {
            "positions": [
                -0.19550152015002453,
                -1.23055795370662,
                1.4765180455722686,
                -0.9109500488781015,
                0.31437961599589975,
                3.2444563478329824
            ]
        },
        {
            "positions": [
                -0.11560223118477242,
                -1.205722806718525,
                1.5964693220382666,
                -0.8597651543160858,
                0.2691783193471621,
                3.1895956532513323
            ]
        },
        {
            "positions": [
                -0.035702942219520306,
                -1.18088765973043,
                1.7164205985042649,
                -0.8085802597540701,
                0.22397702269842434,
                3.1347349586696818
            ]
        },
        {
            "positions": [
                0.04419634674573181,
                -1.1560525127423353,
                1.836371874970263,
                -0.7573953651920544,
                0.17877572604968667,
                3.0798742640880317
            ]
        },
        {
            "positions": [
                0.12409563571098386,
                -1.1312173657542404,
                1.9563231514362611,
                -0.7062104706300386,
                0.13357442940094902,
                3.025013569506381
            ]
        }
    ]
}{
    "goal": {
        "global_pose": {
            "orientation": {
                "w": 0.7047431468963623,
                "x": -0.7094548344612122,
                "y": 0.0024358443915843964,
                "z": -0.0022348060738295317
            },
            "position": {
                "x": 0.6094750761985779,
                "y": 0.3671506643295288,
                "z": 0.19426114857196808
            }
        },
        "name": "move_to_magneteinheit_A"
    },
    "id": "EST_move_to_magneteinheit_A_73",
    "joint_names": [
        "shoulder_pan_joint",
        "shoulder_lift_joint",
        "elbow_joint",
        "wrist_1_joint",
        "wrist_2_joint",
        "wrist_3_joint"
    ],
    "metrics": {
        "cart_traj_len": 1.2318918830574612,
        "distance_elbow_joint": 0.2131749637995486,
        "distance_shoulder_lift_joint": 0.7498355338141687,
        "distance_shoulder_pan_joint": 1.2413359511760973,
        "distance_wrist_1_joint": 0.7496473414872221,
        "distance_wrist_2_joint": 1.5055034585579112,
        "distance_wrist_3_joint": 4.257132063325093,
        "smoothness": 0.06788809647883863,
        "time": 0.199898441,
        "traj_len": 2.9523938274153134,
        "weighted_distance": 4.414299971553288
    },
    "planner": "EST",
    "start": {
        "state": {
            "elbow_joint": 1.919643534880228,
            "shoulder_lift_joint": -1.8972525353963687,
            "shoulder_pan_joint": -1.1188672234189438,
            "wrist_1_joint": -1.5931878212786155,
            "wrist_2_joint": 1.5706036197970081,
            "wrist_3_joint": 1.118896926603594
        }
    },
    "waypoints": [
        {
            "positions": [
                -1.1188672234189438,
                -1.8972525353963687,
                1.919643534880228,
                -1.5931878212786155,
                1.5706036197970081,
                1.118896926603594
            ]
        },
        {
            "positions": [
                -1.0686242657668148,
                -1.8644944052121708,
                1.9161476505151047,
                -1.5589380150065968,
                1.500418534511912,
                0.9315679256600218
            ]
        },
        {
            "positions": [
                -1.0183813081146855,
                -1.831736275027973,
                1.9126517661499816,
                -1.5246882087345779,
                1.430233449226816,
                0.7442389247164495
            ]
        },
        {
            "positions": [
                -0.9681383504625565,
                -1.7989781448437752,
                1.9091558817848582,
                -1.4904384024625592,
                1.36004836394172,
                0.5569099237728773
            ]
        },
        {
            "positions": [
                -0.9178953928104273,
                -1.7662200146595772,
                1.905659997419735,
                -1.4561885961905405,
                1.289863278656624,
                0.369580922829305
            ]
        },
        {
            "positions": [
                -0.8676524351582982,
                -1.7334618844753795,
                1.9021641130546116,
                -1.4219387899185219,
                1.219678193371528,
                0.1822519218857328
            ]
        },
        {
            "positions": [
                -0.8174094775061691,
                -1.7007037542911816,
                1.8986682286894885,
                -1.387688983646503,
                1.149493108086432,
                -0.005077079057839384
            ]
        },
        {
            "positions": [
                -0.7671665198540399,
                -1.6679456241069837,
                1.895172344324365,
                -1.3534391773744843,
                1.079308022801336,
                -0.19240608000141157
            ]
        },
        {
            "positions": [
                -0.7169235622019108,
                -1.635187493922786,
                1.8916764599592417,
                -1.3191893711024656,
                1.0091229375162398,
                -0.379735080944984
            ]
        },
        {
            "positions": [
                -0.6666806045497817,
                -1.602429363738588,
                1.8881805755941186,
                -1.284939564830447,
                0.9389378522311439,
                -0.5670640818885562
            ]
        },
        {
            "positions": [
                -0.6164376468976526,
                -1.56967123355439,
                1.8846846912289952,
                -1.250689758558428,
                0.8687527669460479,
                -0.7543930828321284
            ]
        },
        {
            "positions": [
                -0.5661946892455233,
                -1.5369131033701922,
                1.881188806863872,
                -1.2164399522864093,
                0.7985676816609518,
                -0.9417220837757008
            ]
        },
        {
            "positions": [
                -0.5159517315933942,
                -1.5041549731859944,
                1.8776929224987486,
                -1.1821901460143907,
                0.7283825963758559,
                -1.1290510847192727
            ]
        },
        {
            "positions": [
                -0.4657087739412651,
                -1.4713968430017965,
                1.8741970381336255,
                -1.1479403397423718,
                0.6581975110907597,
                -1.3163800856628451
            ]
        },
        {
            "positions": [
                -0.41546581628913604,
                -1.4386387128175988,
                1.870701153768502,
                -1.113690533470353,
                0.5880124258056638,
                -1.5037090866064171
            ]
        },
        {
            "positions": [
                -0.36522285863700676,
                -1.4058805826334009,
                1.8672052694033787,
                -1.0794407271983344,
                0.5178273405205678,
                -1.6910380875499895
            ]
        },
        {
            "positions": [
                -0.3149799009848777,
                -1.373122452449203,
                1.8637093850382556,
                -1.0451909209263155,
                0.44764225523547174,
                -1.878367088493562
            ]
        },
        {
            "positions": [
                -0.26473694333274855,
                -1.340364322265005,
                1.8602135006731322,
                -1.0109411146542968,
                0.3774571699503757,
                -2.065696089437134
            ]
        },
        {
            "positions": [
                -0.2144939856806195,
                -1.3076061920808073,
                1.856717616308009,
                -0.9766913083822781,
                0.30727208466527967,
                -2.2530250903807065
            ]
        },
        {
            "positions": [
                -0.16425102802849023,
                -1.2748480618966096,
                1.8532217319428856,
                -0.9424415021102593,
                0.23708699938018363,
                -2.440354091324279
            ]
        },
        {
            "positions": [
                -0.11400807037636129,
                -1.2420899317124117,
                1.8497258475777625,
                -0.9081916958382407,
                0.1669019140950876,
                -2.6276830922678505
            ]
        },
        {
            "positions": [
                -0.06376511272423202,
                -1.2093318015282137,
                1.846229963212639,
                -0.8739418895662219,
                0.0967168288099915,
                -2.815012093211423
            ]
        },
        {
            "positions": [
                0.029351807516460757,
                -1.178374401555207,
                1.916110659278619,
                -0.8587411846788076,
                0.11252516259543888,
                -2.9766236149664613
            ]
        },
        {
            "positions": [
                0.12246872775715353,
                -1.1474170015822,
                1.9859913553445987,
                -0.8435404797913933,
                0.12833349638088626,
                -3.1382351367215
            ]
        }
    ]
}