{
    "goal": {
        "global_pose": {
            "orientation": {
                "w": 0.7047431468963623,
                "x": -0.7094548344612122,
                "y": 0.0024358443915843964,
                "z": -0.0022348060738295317
            },
            "position": {
                "x": 0.6094750761985779,
                "y": 0.3671506643295288,
                "z": 0.19426114857196808
            }
        },
        "name": "move_to_magneteinheit_A"
    },
    "id": "EST_move_to_magneteinheit_A_44",
    "joint_names": [
        "shoulder_pan_joint",
        "shoulder_lift_joint",
        "elbow_joint",
        "wrist_1_joint",
        "wrist_2_joint",
        "wrist_3_joint"
    ],
    "metrics": {
        "cart_traj_len": 3.555907694818591,
        "distance_elbow_joint": 3.902805105150368,
        "distance_shoulder_lift_joint": 0.349549068573471,
        "distance_shoulder_pan_joint": 3.4002536560562664,
        "distance_wrist_1_joint": 1.3491373801317257,
        "distance_wrist_2_joint": 2.2962618113614623,
        "distance_wrist_3_joint": 2.8414812164689267,
        "smoothness": 0.17983894231236844,
        "time": 0.226648633,
        "traj_len": 3.760251087060838,
        "weighted_distance": 4.844362688958503
    },
    "planner": "EST",
    "start": {
        "state": {
            "elbow_joint": -1.919618573717145,
            "shoulder_lift_joint": -1.2443395971678275,
            "shoulder_pan_joint": 2.6996025300909787,
            "wrist_1_joint": -1.548550951253194,
            "wrist_2_joint": -1.5709469090946802,
            "wrist_3_joint": 0.4420197732051276
        }
    },
    "waypoints": [
        {
            "positions": [
                2.6996025300909787,
                -1.2443395971678275,
                -1.919618573717145,
                -1.548550951253194,
                -1.5709469090946802,
                0.4420197732051276
            ]
        },
        {
            "positions": [
                2.5784117261232207,
                -1.2502772445915682,
                -1.7864548527072937,
                -1.4993912171635875,
                -1.4953971785632845,
                0.438299897116963
            ]
        },
        {
            "positions": [
                2.457220922155462,
                -1.256214892015309,
                -1.6532911316974421,
                -1.450231483073981,
                -1.4198474480318888,
                0.4345800210287984
            ]
        },
        {
            "positions": [
                2.336030118187704,
                -1.2621525394390496,
                -1.520127410687591,
                -1.4010717489843745,
                -1.3442977175004929,
                0.43086014494063385
            ]
        },
        {
            "positions": [
                2.2148393142199456,
                -1.2680901868627903,
                -1.3869636896777395,
                -1.3519120148947679,
                -1.2687479869690972,
                0.42714026885246925
            ]
        },
        {
            "positions": [
                2.0936485102521876,
                -1.274027834286531,
                -1.2537999686678882,
                -1.3027522808051615,
                -1.1931982564377015,
                0.42342039276430465
            ]
        },
        {
            "positions": [
                1.972457706284429,
                -1.2799654817102717,
                -1.120636247658037,
                -1.2535925467155549,
                -1.1176485259063058,
                0.41970051667614006
            ]
        },
        {
            "positions": [
                1.851266902316671,
                -1.2859031291340124,
                -0.9874725266481855,
                -1.2044328126259485,
                -1.0420987953749101,
                0.4159806405879755
            ]
        },
        {
            "positions": [
                1.7300760983489125,
                -1.291840776557753,
                -0.8543088056383341,
                -1.1552730785363419,
                -0.9665490648435143,
                0.4122607644998109
            ]
        },
        {
            "positions": [
                1.6088852943811545,
                -1.2977784239814938,
                -0.7211450846284828,
                -1.1061133444467353,
                -0.8909993343121186,
                0.4085408884116463
            ]
        },
        {
            "positions": [
                1.4876944904133962,
                -1.3037160714052343,
                -0.5879813636186315,
                -1.0569536103571289,
                -0.815449603780723,
                0.4048210123234817
            ]
        },
        {
            "positions": [
                1.3665036864456377,
                -1.309653718828975,
                -0.45481764260878,
                -1.007793876267522,
                -0.739899873249327,
                0.4011011362353172
            ]
        },
        {
            "positions": [
                1.2453128824778796,
                -1.3155913662527157,
                -0.3216539215989289,
                -0.9586341421779156,
                -0.6643501427179315,
                0.3973812601471526
            ]
        },
        {
            "positions": [
                1.1241220785101211,
                -1.3215290136764564,
                -0.1884902005890774,
                -0.909474408088309,
                -0.5888004121865357,
                0.393661384058988
            ]
        },
        {
            "positions": [
                1.002931274542363,
                -1.327466661100197,
                -0.055326479579226095,
                -0.8603146739987027,
                -0.5132506816551401,
                0.3899415079708234
            ]
        },
        {
            "positions": [
                0.8817404705746048,
                -1.3334043085239378,
                0.07783724143062543,
                -0.811154939909096,
                -0.4377009511237442,
                0.3862216318826588
            ]
        },
        {
            "positions": [
                0.7605496666068465,
                -1.3393419559476785,
                0.21100096244047672,
                -0.7619952058194895,
                -0.3621512205923485,
                0.38250175579449425
            ]
        },
        {
            "positions": [
                0.6393588626390883,
                -1.3452796033714192,
                0.34416468345032825,
                -0.7128354717298829,
                -0.2866014900609528,
                0.37878187970632965
            ]
        },
        {
            "positions": [
                0.5181680586713302,
                -1.3512172507951599,
                0.4773284044601793,
                -0.6636757376402764,
                -0.21105175952955713,
                0.37506200361816505
            ]
        },
        {
            "positions": [
                0.3969772547035717,
                -1.3571548982189006,
                0.6104921254700308,
                -0.6145160035506699,
                -0.13550202899816122,
                0.3713421275300005
            ]
        },
        {
            "positions": [
                0.27578645073581365,
                -1.3630925456426413,
                0.7436558464798819,
                -0.5653562694610634,
                -0.05995229846676575,
                0.3676222514418359
            ]
        },
        {
            "positions": [
                0.15459564676805515,
                -1.369030193066382,
                0.8768195674897332,
                -0.5161965353714567,
                0.01559743206463024,
                0.3639023753536713
            ]
        },
        {
            "positions": [
                0.12049174151072065,
                -1.367767674570783,
                0.9608936971829628,
                -0.5246239175119608,
                0.04729282423878757,
                0.5730932140770598
            ]
        },
        {
            "positions": [
                0.08638783625338613,
                -1.366505156075184,
                1.0449678268761924,
                -0.5330512996524648,
                0.0789882164129449,
                0.7822840528004483
            ]
        },
        {
            "positions": [
                0.05228393099605162,
                -1.365242637579585,
                1.129041956569422,
                -0.5414786817929689,
                0.11068360858710224,
                0.9914748915238368
            ]
        },
        {
            "positions": [
                0.018180025738717104,
                -1.3639801190839862,
                1.2131160862626518,
                -0.549906063933473,
                0.14237900076125956,
                1.2006657302472252
            ]
        },
        {
            "positions": [
                -0.0159238795186174,
                -1.3627176005883872,
                1.2971902159558812,
                -0.5583334460739771,
                0.1740743929354169,
                1.4098565689706137
            ]
        },
        {
            "positions": [
                -0.050027784775951906,
                -1.3614550820927882,
                1.381264345649111,
                -0.566760828214481,
                0.20576978510957425,
                1.6190474076940022
            ]
        },
        {
            "positions": [
                -0.08413169003328638,
                -1.3601925635971892,
                1.4653384753423406,
                -0.5751882103549851,
                0.23746517728373154,
                1.8282382464173907
            ]
        },
        {
            "positions": [
                -0.11823559529062094,
                -1.3589300451015902,
                1.5494126050355703,
                -0.5836155924954892,
                0.2691605694578889,
                2.0374290851407793
            ]
        },
        {
            "positions": [
                -0.15233950054795542,
                -1.3576675266059912,
                1.6334867347287998,
                -0.5920429746359932,
                0.3008559616320462,
                2.2466199238641678
            ]
        },
        {
            "positions": [
                -0.18644340580528995,
                -1.3564050081103924,
                1.7175608644220295,
                -0.6004703567764973,
                0.3325513538062036,
                2.4558107625875563
            ]
        },
        {
            "positions": [
                -0.22054731106262443,
                -1.3551424896147934,
                1.801634994115259,
                -0.6088977389170014,
                0.3642467459803609,
                2.6650016013109448
            ]
        },
        {
            "positions": [
                -0.25465121631995896,
                -1.3538799711191944,
                1.8857091238084889,
                -0.6173251210575054,
                0.3959421381545183,
                2.8741924400343333
            ]
        },
        {
            "positions": [
                -0.28875512157729344,
                -1.3526174526235955,
                1.9697832535017183,
                -0.6257525031980095,
                0.4276375303286755,
                3.083383278757722
            ]
        },
        {
            "positions": [
                -0.1514564534479615,
                -1.283135541879552,
                1.9742510128122195,
                -0.6948281686724881,
                0.32841173968264015,
                3.098010917162195
            ]
        },
        {
            "positions": [
                -0.014157785318629545,
                -1.2136536311355088,
                1.9787187721227206,
                -0.7639038341469666,
                0.22918594903660475,
                3.1126385555666687
            ]
        },
        {
            "positions": [
                0.12314088281070246,
                -1.1441717203914654,
                1.9831865314332218,
                -0.8329794996214452,
                0.12996015839056932,
                3.127266193971142
            ]
        }
    ]
}{
    "goal": {
        "global_pose": {
            "orientation": {
                "w": 0.7047431468963623,
                "x": -0.7094548344612122,
                "y": 0.0024358443915843964,
                "z": -0.0022348060738295317
            },
            "position": {
                "x": 0.6094750761985779,
                "y": 0.3671506643295288,
                "z": 0.19426114857196808
            }
        },
        "name": "move_to_magneteinheit_A"
    },
    "id": "EST_move_to_magneteinheit_A_44",
    "joint_names": [
        "shoulder_pan_joint",
        "shoulder_lift_joint",
        "elbow_joint",
        "wrist_1_joint",
        "wrist_2_joint",
        "wrist_3_joint"
    ],
    "metrics": {
        "cart_traj_len": 4.952926102949541,
        "distance_elbow_joint": 5.4228946048305255,
        "distance_shoulder_lift_joint": 0.9193724571149244,
        "distance_shoulder_pan_joint": 4.349710211241193,
        "distance_wrist_1_joint": 0.7333045379961712,
        "distance_wrist_2_joint": 1.4319707611607546,
        "distance_wrist_3_joint": 4.251088067348924,
        "smoothness": 0.39592994153604943,
        "time": 0.17168392,
        "traj_len": 4.136222992017292,
        "weighted_distance": 5.270274383136732
    },
    "planner": "EST",
    "start": {
        "state": {
            "elbow_joint": 1.919643534880228,
            "shoulder_lift_joint": -1.8972525353963687,
            "shoulder_pan_joint": -1.1188672234189438,
            "wrist_1_joint": -1.5931878212786155,
            "wrist_2_joint": 1.5706036197970081,
            "wrist_3_joint": 1.118896926603594
        }
    },
    "waypoints": [
        {
            "positions": [
                -1.1188672234189438,
                -1.8972525353963687,
                1.919643534880228,
                -1.5931878212786155,
                1.5706036197970081,
                1.118896926603594
            ]
        },
        {
            "positions": [
                -1.2051962032847507,
                -1.901996152138105,
                1.770998806501378,
                -1.5847235589995343,
                1.5222998960011804,
                1.031205619725263
            ]
        },
        {
            "positions": [
                -1.2915251831505576,
                -1.9067397688798415,
                1.6223540781225279,
                -1.576259296720453,
                1.473996172205353,
                0.9435143128469323
            ]
        },
        {
            "positions": [
                -1.3778541630163645,
                -1.9114833856215778,
                1.4737093497436775,
                -1.5677950344413718,
                1.4256924484095252,
                0.8558230059686014
            ]
        },
        {
            "positions": [
                -1.4641831428821717,
                -1.9162270023633141,
                1.3250646213648274,
                -1.5593307721622907,
                1.3773887246136975,
                0.7681316990902707
            ]
        },
        {
            "positions": [
                -1.5505121227479786,
                -1.9209706191050504,
                1.1764198929859773,
                -1.5508665098832093,
                1.32908500081787,
                0.6804403922119397
            ]
        },
        {
            "positions": [
                -1.6368411026137855,
                -1.925714235846787,
                1.0277751646071271,
                -1.5424022476041281,
                1.2807812770220424,
                0.5927490853336089
            ]
        },
        {
            "positions": [
                -1.7231700824795924,
                -1.9304578525885232,
                0.8791304362282768,
                -1.533937985325047,
                1.2324775532262147,
                0.505057778455278
            ]
        },
        {
            "positions": [
                -1.8094990623453993,
                -1.9352014693302595,
                0.7304857078494269,
                -1.5254737230459656,
                1.1841738294303872,
                0.4173664715769473
            ]
        },
        {
            "positions": [
                -1.8958280422112064,
                -1.939945086071996,
                0.5818409794705766,
                -1.5170094607668845,
                1.1358701056345595,
                0.32967516469861635
            ]
        },
        {
            "positions": [
                -1.9821570220770133,
                -1.9446887028137323,
                0.4331962510917262,
                -1.5085451984878033,
                1.0875663818387318,
                0.24198385782028542
            ]
        },
        {
            "positions": [
                -2.06848600194282,
                -1.9494323195554686,
                0.2845515227128761,
                -1.500080936208722,
                1.039262658042904,
                0.1542925509419546
            ]
        },
        {
            "positions": [
                -2.1548149818086273,
                -1.9541759362972049,
                0.1359067943340262,
                -1.4916166739296408,
                0.9909589342470766,
                0.06660124406362389
            ]
        },
        {
            "positions": [
                -2.241143961674434,
                -1.9589195530389414,
                -0.01273793404482415,
                -1.4831524116505597,
                0.942655210451249,
                -0.021090062814707045
            ]
        },
        {
            "positions": [
                -2.3274729415402406,
                -1.9636631697806777,
                -0.1613826624236745,
                -1.4746881493714783,
                0.8943514866554213,
                -0.10878136969303798
            ]
        },
        {
            "positions": [
                -2.4138019214060478,
                -1.968406786522414,
                -0.3100273908025246,
                -1.4662238870923971,
                0.8460477628595937,
                -0.1964726765713687
            ]
        },
        {
            "positions": [
                -2.500130901271855,
                -1.9731504032641503,
                -0.4586721191813743,
                -1.457759624813316,
                0.7977440390637661,
                -0.2841639834496994
            ]
        },
        {
            "positions": [
                -2.586459881137662,
                -1.9778940200058868,
                -0.6073168475602249,
                -1.4492953625342346,
                0.7494403152679385,
                -0.37185529032803033
            ]
        },
        {
            "positions": [
                -2.6727888610034687,
                -1.982637636747623,
                -0.7559615759390752,
                -1.4408311002551535,
                0.7011365914721108,
                -0.45954659720636126
            ]
        },
        {
            "positions": [
                -2.565258531247443,
                -1.950561199987482,
                -0.6502965954001821,
                -1.4184869534485107,
                0.6795018325168856,
                -0.5623406181117062
            ]
        },
        {
            "positions": [
                -2.4577282014914172,
                -1.9184847632273407,
                -0.544631614861289,
                -1.3961428066418682,
                0.6578670735616603,
                -0.6651346390170512
            ]
        },
        {
            "positions": [
                -2.3501978717353915,
                -1.8864083264671996,
                -0.43896663432239585,
                -1.3737986598352254,
                0.636232314606435,
                -0.7679286599223962
            ]
        },
        {
            "positions": [
                -2.2426675419793662,
                -1.8543318897070584,
                -0.3333016537835028,
                -1.3514545130285829,
                0.6145975556512097,
                -0.8707226808277411
            ]
        },
        {
            "positions": [
                -2.1351372122233405,
                -1.8222554529469173,
                -0.22763667324460968,
                -1.3291103662219401,
                0.5929627966959844,
                -0.9735167017330861
            ]
        },
        {
            "positions": [
                -2.027606882467315,
                -1.790179016186776,
                -0.1219716927057165,
                -1.3067662194152976,
                0.5713280377407591,
                -1.0763107226384312
            ]
        },
        {
            "positions": [
                -1.920076552711289,
                -1.758102579426635,
                -0.016306712166823556,
                -1.2844220726086548,
                0.5496932787855339,
                -1.179104743543776
            ]
        },
        {
            "positions": [
                -1.8125462229552634,
                -1.7260261426664938,
                0.08935826837206962,
                -1.262077925802012,
                0.5280585198303086,
                -1.2818987644491209
            ]
        },
        {
            "positions": [
                -1.7050158931992379,
                -1.6939497059063526,
                0.19502324891096268,
                -1.2397337789953695,
                0.5064237608750833,
                -1.3846927853544657
            ]
        },
        {
            "positions": [
                -1.5974855634432121,
                -1.6618732691462115,
                0.30068822944985585,
                -1.2173896321887268,
                0.48478900191985796,
                -1.487486806259811
            ]
        },
        {
            "positions": [
                -1.4899552336871864,
                -1.6297968323860703,
                0.406353209988749,
                -1.1950454853820842,
                0.4631542429646327,
                -1.5902808271651558
            ]
        },
        {
            "positions": [
                -1.3824249039311607,
                -1.5977203956259292,
                0.5120181905276422,
                -1.1727013385754415,
                0.44151948400940744,
                -1.693074848070501
            ]
        },
        {
            "positions": [
                -1.2748945741751352,
                -1.565643958865788,
                0.6176831710665351,
                -1.150357191768799,
                0.4198847250541822,
                -1.7958688689758457
            ]
        },
        {
            "positions": [
                -1.1673642444191097,
                -1.5335675221056468,
                0.7233481516054281,
                -1.1280130449621562,
                0.3982499660989569,
                -1.8986628898811906
            ]
        },
        {
            "positions": [
                -1.059833914663084,
                -1.5014910853455057,
                0.8290131321443213,
                -1.1056688981555136,
                0.37661520714373165,
                -2.001456910786535
            ]
        },
        {
            "positions": [
                -0.952303584907058,
                -1.4694146485853645,
                0.9346781126832144,
                -1.0833247513488709,
                0.3549804481885063,
                -2.1042509316918805
            ]
        },
        {
            "positions": [
                -0.8447732551510325,
                -1.4373382118252234,
                1.0403430932221076,
                -1.060980604542228,
                0.33334568923328106,
                -2.2070449525972258
            ]
        },
        {
            "positions": [
                -0.737242925395007,
                -1.4052617750650822,
                1.1460080737610006,
                -1.0386364577355855,
                0.3117109302780558,
                -2.30983897350257
            ]
        },
        {
            "positions": [
                -0.6297125956389813,
                -1.373185338304941,
                1.2516730542998937,
                -1.016292310928943,
                0.29007617132283053,
                -2.4126329944079155
            ]
        },
        {
            "positions": [
                -0.5221822658829556,
                -1.3411089015448,
                1.357338034838787,
                -0.9939481641223002,
                0.26844141236760516,
                -2.5154270153132607
            ]
        },
        {
            "positions": [
                -0.41465193612692985,
                -1.3090324647846587,
                1.46300301537768,
                -0.9716040173156575,
                0.2468066534123799,
                -2.6182210362186056
            ]
        },
        {
            "positions": [
                -0.30712160637090413,
                -1.2769560280245176,
                1.5686679959165732,
                -0.949259870509015,
                0.22517189445715463,
                -2.7210150571239504
            ]
        },
        {
            "positions": [
                -0.19959127661487885,
                -1.2448795912643764,
                1.674332976455466,
                -0.9269157237023723,
                0.20353713550192937,
                -2.8238090780292953
            ]
        },
        {
            "positions": [
                -0.09206094685885269,
                -1.2128031545042353,
                1.7799979569943596,
                -0.9045715768957295,
                0.18190237654670405,
                -2.9266030989346405
            ]
        },
        {
            "positions": [
                0.01546938289717259,
                -1.180726717744094,
                1.8856629375332523,
                -0.8822274300890869,
                0.16026761759147878,
                -3.0293971198399854
            ]
        },
        {
            "positions": [
                0.1229997126531984,
                -1.148650280983953,
                1.9913279180721453,
                -0.8598832832824442,
                0.13863285863625355,
                -3.1321911407453302
            ]
        }
    ]
}