{
    "goal": {
        "global_pose": {
            "orientation": {
                "w": 0.7047431468963623,
                "x": -0.7094548344612122,
                "y": 0.0024358443915843964,
                "z": -0.0022348060738295317
            },
            "position": {
                "x": 0.6094750761985779,
                "y": 0.3671506643295288,
                "z": 0.19426114857196808
            }
        },
        "name": "move_to_magneteinheit_A"
    },
    "id": "EST_move_to_magneteinheit_A_93",
    "joint_names": [
        "shoulder_pan_joint",
        "shoulder_lift_joint",
        "elbow_joint",
        "wrist_1_joint",
        "wrist_2_joint",
        "wrist_3_joint"
    ],
    "metrics": {
        "cart_traj_len": 2.83508601978631,
        "distance_elbow_joint": 3.9086833153682377,
        "distance_shoulder_lift_joint": 1.705725631891053,
        "distance_shoulder_pan_joint": 2.8546925678785797,
        "distance_wrist_1_joint": 3.455333062099271,
        "distance_wrist_2_joint": 1.439209219493492,
        "distance_wrist_3_joint": 0.6917973796228281,
        "smoothness": 0.09713873237787493,
        "time": 0.099377177,
        "traj_len": 3.749058705375718,
        "weighted_distance": 4.509276906244712
    },
    "planner": "EST",
    "start": {
        "state": {
            "elbow_joint": -1.919618573717145,
            "shoulder_lift_joint": -1.2443395971678275,
            "shoulder_pan_joint": 2.6996025300909787,
            "wrist_1_joint": -1.548550951253194,
            "wrist_2_joint": -1.5709469090946802,
            "wrist_3_joint": 0.4420197732051276
        }
    },
    "waypoints": [
        {
            "positions": [
                2.6996025300909787,
                -1.2443395971678275,
                -1.919618573717145,
                -1.548550951253194,
                -1.5709469090946802,
                0.4420197732051276
            ]
        },
        {
            "positions": [
                2.567803922797684,
                -1.2752405684512886,
                -1.792717742673376,
                -1.4765803115695286,
                -1.560113149387433,
                0.449000723267334
            ]
        },
        {
            "positions": [
                2.436005315504389,
                -1.3061415397347498,
                -1.6658169116296073,
                -1.404609671885863,
                -1.549279389680186,
                0.4559816733295403
            ]
        },
        {
            "positions": [
                2.304206708211094,
                -1.337042511018211,
                -1.5389160805858384,
                -1.3326390322021975,
                -1.5384456299729388,
                0.4629626233917467
            ]
        },
        {
            "positions": [
                2.1724081009177993,
                -1.367943482301672,
                -1.4120152495420695,
                -1.2606683925185318,
                -1.5276118702656918,
                0.4699435734539531
            ]
        },
        {
            "positions": [
                2.0406094936245047,
                -1.3988444535851332,
                -1.2851144184983008,
                -1.1886977528348663,
                -1.5167781105584446,
                0.47692452351615944
            ]
        },
        {
            "positions": [
                1.9088108863312097,
                -1.4297454248685944,
                -1.158213587454532,
                -1.1167271131512009,
                -1.5059443508511974,
                0.48390547357836583
            ]
        },
        {
            "positions": [
                1.777012279037915,
                -1.4606463961520555,
                -1.0313127564107631,
                -1.0447564734675354,
                -1.4951105911439504,
                0.4908864236405722
            ]
        },
        {
            "positions": [
                1.64521367174462,
                -1.4915473674355166,
                -0.9044119253669942,
                -0.9727858337838696,
                -1.4842768314367032,
                0.49786737370277856
            ]
        },
        {
            "positions": [
                1.5134150644513251,
                -1.5224483387189776,
                -0.7775110943232253,
                -0.9008151941002042,
                -1.4734430717294562,
                0.504848323764985
            ]
        },
        {
            "positions": [
                1.3816164571580303,
                -1.5533493100024387,
                -0.6506102632794566,
                -0.8288445544165386,
                -1.462609312022209,
                0.5118292738271913
            ]
        },
        {
            "positions": [
                1.2498178498647352,
                -1.5842502812858998,
                -0.5237094322356877,
                -0.756873914732873,
                -1.4517755523149618,
                0.5188102238893977
            ]
        },
        {
            "positions": [
                1.1180192425714406,
                -1.615151252569361,
                -0.39680860119191896,
                -0.6849032750492076,
                -1.4409417926077148,
                0.525791173951604
            ]
        },
        {
            "positions": [
                0.9862206352781457,
                -1.6460522238528221,
                -0.26990777014815004,
                -0.6129326353655419,
                -1.4301080329004676,
                0.5327721240138105
            ]
        },
        {
            "positions": [
                0.8544220279848511,
                -1.6769531951362833,
                -0.14300693910438134,
                -0.5409619956818765,
                -1.4192742731932206,
                0.5397530740760168
            ]
        },
        {
            "positions": [
                0.722623420691556,
                -1.7078541664197444,
                -0.016106108060612412,
                -0.46899135599821085,
                -1.4084405134859734,
                0.5467340241382231
            ]
        },
        {
            "positions": [
                0.5908248133982612,
                -1.7387551377032056,
                0.11079472298315651,
                -0.39702071631454516,
                -1.3976067537787262,
                0.5537149742004296
            ]
        },
        {
            "positions": [
                0.4590262061049666,
                -1.7696561089866667,
                0.237695554026925,
                -0.3250500766308797,
                -1.3867729940714792,
                0.5606959242626359
            ]
        },
        {
            "positions": [
                0.3272275988116715,
                -1.8005570802701278,
                0.36459638507069436,
                -0.25307943694721424,
                -1.375939234364232,
                0.5676768743248424
            ]
        },
        {
            "positions": [
                0.1954289915183769,
                -1.831458051553589,
                0.49149721611446284,
                -0.18110879726354878,
                -1.365105474656985,
                0.5746578243870486
            ]
        },
        {
            "positions": [
                0.06363038422508163,
                -1.8623590228370501,
                0.618398047158232,
                -0.10913815757988313,
                -1.3542717149497379,
                0.581638774449255
            ]
        },
        {
            "positions": [
                0.05834712336843008,
                -1.798928264505316,
                0.7013945644756032,
                0.013615891153970328,
                -1.2804584398074623,
                0.5505070550560494
            ]
        },
        {
            "positions": [
                0.053063862511778526,
                -1.735497506173582,
                0.7843910817929743,
                0.13636993988782378,
                -1.206645164665187,
                0.5193753356628437
            ]
        },
        {
            "positions": [
                0.04778060165512697,
                -1.672066747841848,
                0.8673875991103455,
                0.2591239886216773,
                -1.1328318895229115,
                0.48824361626963786
            ]
        },
        {
            "positions": [
                0.042497340798475426,
                -1.6086359895101139,
                0.9503841164277167,
                0.3818780373555307,
                -1.059018614380636,
                0.45711189687643217
            ]
        },
        {
            "positions": [
                0.03721407994182388,
                -1.5452052311783797,
                1.0333806337450877,
                0.5046320860893841,
                -0.9852053392383606,
                0.4259801774832265
            ]
        },
        {
            "positions": [
                0.03193081908517232,
                -1.4817744728466458,
                1.116377151062459,
                0.6273861348232377,
                -0.9113920640960851,
                0.39484845809002067
            ]
        },
        {
            "positions": [
                0.026647558228520773,
                -1.4183437145149118,
                1.1993736683798302,
                0.7501401835570911,
                -0.8375787889538097,
                0.363716738696815
            ]
        },
        {
            "positions": [
                0.02136429737186922,
                -1.3549129561831776,
                1.2823701856972014,
                0.8728942322909445,
                -0.7637655138115341,
                0.3325850193036093
            ]
        },
        {
            "positions": [
                0.016081036515217674,
                -1.2914821978514435,
                1.3653667030145726,
                0.995648281024798,
                -0.6899522386692587,
                0.30145329991040354
            ]
        },
        {
            "positions": [
                0.01079777565856612,
                -1.2280514395197095,
                1.4483632203319436,
                1.1184023297586514,
                -0.6161389635269833,
                0.27032158051719785
            ]
        },
        {
            "positions": [
                0.0055145148019145745,
                -1.1646206811879756,
                1.5313597376493149,
                1.2411563784925048,
                -0.5423256883847078,
                0.23918986112399215
            ]
        },
        {
            "positions": [
                0.00023125394526300747,
                -1.1011899228562414,
                1.614356254966686,
                1.3639104272263585,
                -0.4685124132424323,
                0.20805814173078635
            ]
        },
        {
            "positions": [
                -0.005052006911388532,
                -1.0377591645245072,
                1.6973527722840573,
                1.486664475960212,
                -0.3946991381001568,
                0.17692642233758066
            ]
        },
        {
            "positions": [
                -0.010335267768040085,
                -0.9743284061927733,
                1.7803492896014284,
                1.6094185246940653,
                -0.32088586295788146,
                0.1457947029443749
            ]
        },
        {
            "positions": [
                -0.015618528624691638,
                -0.9108976478610392,
                1.8633458069187996,
                1.7321725734279187,
                -0.24707258781560593,
                0.11466298355116925
            ]
        },
        {
            "positions": [
                0.05411722595676195,
                -0.8427752322381294,
                1.9262052742849463,
                1.819477342136998,
                -0.18940513870839695,
                0.07206168981086186
            ]
        },
        {
            "positions": [
                0.12385298053821556,
                -0.7746528166152197,
                1.989064741651093,
                1.9067821108460774,
                -0.13173768960118798,
                0.029460396070554486
            ]
        }
    ]
}{
    "goal": {
        "global_pose": {
            "orientation": {
                "w": 0.7047431468963623,
                "x": -0.7094548344612122,
                "y": 0.0024358443915843964,
                "z": -0.0022348060738295317
            },
            "position": {
                "x": 0.6094750761985779,
                "y": 0.3671506643295288,
                "z": 0.19426114857196808
            }
        },
        "name": "move_to_magneteinheit_A"
    },
    "id": "EST_move_to_magneteinheit_A_93",
    "joint_names": [
        "shoulder_pan_joint",
        "shoulder_lift_joint",
        "elbow_joint",
        "wrist_1_joint",
        "wrist_2_joint",
        "wrist_3_joint"
    ],
    "metrics": {
        "cart_traj_len": 2.073526258123375,
        "distance_elbow_joint": 4.1483334171180495,
        "distance_shoulder_lift_joint": 1.4626925823653716,
        "distance_shoulder_pan_joint": 1.2428926388739667,
        "distance_wrist_1_joint": 0.7785563650125498,
        "distance_wrist_2_joint": 1.7857289392371227,
        "distance_wrist_3_joint": 4.275105177876226,
        "smoothness": 0.3281183413690564,
        "time": 0.20674566100000002,
        "traj_len": 3.7004471514241732,
        "weighted_distance": 4.9807433963702055
    },
    "planner": "EST",
    "start": {
        "state": {
            "elbow_joint": 1.919643534880228,
            "shoulder_lift_joint": -1.8972525353963687,
            "shoulder_pan_joint": -1.1188672234189438,
            "wrist_1_joint": -1.5931878212786155,
            "wrist_2_joint": 1.5706036197970081,
            "wrist_3_joint": 1.118896926603594
        }
    },
    "waypoints": [
        {
            "positions": [
                -1.1188672234189438,
                -1.8972525353963687,
                1.919643534880228,
                -1.5931878212786155,
                1.5706036197970081,
                1.118896926603594
            ]
        },
        {
            "positions": [
                -1.101059934991162,
                -1.8418878010451678,
                1.817466650002787,
                -1.5697575245067346,
                1.4902061251792653,
                1.01989412720994
            ]
        },
        {
            "positions": [
                -1.08325264656338,
                -1.7865230666939667,
                1.7152897651253456,
                -1.5463272277348536,
                1.4098086305615227,
                0.9208913278162861
            ]
        },
        {
            "positions": [
                -1.0654453581355983,
                -1.7311583323427657,
                1.6131128802479044,
                -1.522896930962973,
                1.32941113594378,
                0.8218885284226323
            ]
        },
        {
            "positions": [
                -1.0476380697078165,
                -1.6757935979915648,
                1.510935995370463,
                -1.499466634191092,
                1.249013641326037,
                0.7228857290289783
            ]
        },
        {
            "positions": [
                -1.0298307812800345,
                -1.6204288636403636,
                1.408759110493022,
                -1.4760363374192111,
                1.1686161467082945,
                0.6238829296353244
            ]
        },
        {
            "positions": [
                -1.0120234928522527,
                -1.5650641292891627,
                1.3065822256155806,
                -1.4526060406473302,
                1.0882186520905517,
                0.5248801302416706
            ]
        },
        {
            "positions": [
                -0.9942162044244708,
                -1.5096993949379618,
                1.2044053407381394,
                -1.4291757438754495,
                1.0078211574728089,
                0.4258773308480167
            ]
        },
        {
            "positions": [
                -0.9764089159966889,
                -1.4543346605867606,
                1.1022284558606983,
                -1.4057454471035684,
                0.9274236628550662,
                0.3268745314543626
            ]
        },
        {
            "positions": [
                -0.9586016275689071,
                -1.3989699262355597,
                1.0000515709832571,
                -1.3823151503316877,
                0.8470261682373235,
                0.22787173206070876
            ]
        },
        {
            "positions": [
                -0.9407943391411252,
                -1.3436051918843588,
                0.8978746861058158,
                -1.3588848535598068,
                0.7666286736195808,
                0.1288689326670549
            ]
        },
        {
            "positions": [
                -0.9229870507133433,
                -1.2882404575331576,
                0.7956978012283744,
                -1.335454556787926,
                0.6862311790018379,
                0.02986613327340093
            ]
        },
        {
            "positions": [
                -0.9051797622855615,
                -1.232875723181957,
                0.6935209163509333,
                -1.3120242600160452,
                0.6058336843840954,
                -0.06913666612025282
            ]
        },
        {
            "positions": [
                -0.8873724738577796,
                -1.1775109888307558,
                0.5913440314734921,
                -1.288593963244164,
                0.5254361897663524,
                -0.1681394655139068
            ]
        },
        {
            "positions": [
                -0.8695651854299977,
                -1.1221462544795548,
                0.489167146596051,
                -1.2651636664722834,
                0.44503869514860983,
                -0.26714226490756054
            ]
        },
        {
            "positions": [
                -0.8517578970022159,
                -1.066781520128354,
                0.3869902617186096,
                -1.2417333697004025,
                0.364641200530867,
                -0.36614506430121474
            ]
        },
        {
            "positions": [
                -0.8339506085744339,
                -1.0114167857771528,
                0.28481337684116825,
                -1.2183030729285216,
                0.2842437059131242,
                -0.4651478636948687
            ]
        },
        {
            "positions": [
                -0.8161433201466521,
                -0.9560520514259518,
                0.1826364919637271,
                -1.194872776156641,
                0.2038462112953816,
                -0.5641506630885225
            ]
        },
        {
            "positions": [
                -0.7983360317188704,
                -0.9006873170747508,
                0.08045960708628597,
                -1.1714424793847598,
                0.12344871667763879,
                -0.6631534624821764
            ]
        },
        {
            "positions": [
                -0.7805287432910885,
                -0.84532258272355,
                -0.021717277791155176,
                -1.148012182612879,
                0.0430512220598962,
                -0.7621562618758302
            ]
        },
        {
            "positions": [
                -0.7627214548633066,
                -0.7899578483723488,
                -0.12389416266859676,
                -1.1245818858409982,
                -0.03734627255784671,
                -0.861159061269484
            ]
        },
        {
            "positions": [
                -0.7072997754684109,
                -0.8121702168311833,
                0.0076555698044797615,
                -1.1052099839925649,
                -0.026235082127705037,
                -1.0045996356446807
            ]
        },
        {
            "positions": [
                -0.6518780960735154,
                -0.8343825852900177,
                0.1392053022775563,
                -1.0858380821441316,
                -0.015123891697563362,
                -1.1480402100198774
            ]
        },
        {
            "positions": [
                -0.5964564166786198,
                -0.8565949537488522,
                0.2707550347506328,
                -1.0664661802956983,
                -0.004012701267421689,
                -1.2914807843950742
            ]
        },
        {
            "positions": [
                -0.5410347372837243,
                -0.8788073222076866,
                0.40230476722370934,
                -1.047094278447265,
                0.00709848916271999,
                -1.434921358770271
            ]
        },
        {
            "positions": [
                -0.4856130578888287,
                -0.9010196906665212,
                0.5338544996967859,
                -1.0277223765988317,
                0.01820967959286167,
                -1.5783619331454677
            ]
        },
        {
            "positions": [
                -0.43019137849393313,
                -0.9232320591253557,
                0.6654042321698623,
                -1.0083504747503984,
                0.029320870023003334,
                -1.7218025075206644
            ]
        },
        {
            "positions": [
                -0.37476969909903757,
                -0.9454444275841901,
                0.7969539646429389,
                -0.9889785729019652,
                0.04043206045314501,
                -1.8652430818958612
            ]
        },
        {
            "positions": [
                -0.319348019704142,
                -0.9676567960430246,
                0.9285036971160154,
                -0.9696066710535319,
                0.05154325088328669,
                -2.008683656271058
            ]
        },
        {
            "positions": [
                -0.26392634030924644,
                -0.989869164501859,
                1.060053429589092,
                -0.9502347692050986,
                0.06265444131342837,
                -2.1521242306462547
            ]
        },
        {
            "positions": [
                -0.20850466091435083,
                -1.0120815329606936,
                1.1916031620621685,
                -0.9308628673566653,
                0.07376563174357005,
                -2.2955648050214514
            ]
        },
        {
            "positions": [
                -0.15308298151945532,
                -1.034293901419528,
                1.323152894535245,
                -0.9114909655082322,
                0.08487682217371172,
                -2.439005379396648
            ]
        },
        {
            "positions": [
                -0.0976613021245597,
                -1.0565062698783625,
                1.4547026270083214,
                -0.8921190636597989,
                0.09598801260385338,
                -2.5824459537718445
            ]
        },
        {
            "positions": [
                -0.042239622729664195,
                -1.078718638337197,
                1.586252359481398,
                -0.8727471618113656,
                0.10709920303399507,
                -2.7258865281470412
            ]
        },
        {
            "positions": [
                0.013182056665231423,
                -1.1009310067960314,
                1.7178020919544745,
                -0.8533752599629323,
                0.11821039346413674,
                -2.869327102522238
            ]
        },
        {
            "positions": [
                0.06860373606012693,
                -1.1231433752548659,
                1.849351824427551,
                -0.834003358114499,
                0.12932158389427845,
                -3.0127676768974347
            ]
        },
        {
            "positions": [
                0.12402541545502258,
                -1.1453557437137003,
                1.9809015569006276,
                -0.8146314562660657,
                0.1404327743244201,
                -3.1562082512726315
            ]
        }
    ]
}