{
    "goal": {
        "global_pose": {
            "orientation": {
                "w": 0.5084816217422485,
                "x": -0.49083608388900757,
                "y": 0.5182115435600281,
                "z": -0.4816462993621826
            },
            "position": {
                "x": 0.5540239810943604,
                "y": 0.030875300988554955,
                "z": 0.16403168439865112
            }
        },
        "name": "move_to_storage_A"
    },
    "id": "EST_move_to_storage_A_76",
    "joint_names": [
        "shoulder_pan_joint",
        "shoulder_lift_joint",
        "elbow_joint",
        "wrist_1_joint",
        "wrist_2_joint",
        "wrist_3_joint"
    ],
    "metrics": {
        "cart_traj_len": 0.3535783143167024,
        "distance_elbow_joint": 0.45300296394111816,
        "distance_shoulder_lift_joint": 0.2329963639901831,
        "distance_shoulder_pan_joint": 0.46283118992210304,
        "distance_wrist_1_joint": 0.2622325282147525,
        "distance_wrist_2_joint": 1.0968512427943682,
        "distance_wrist_3_joint": 0.09209931103224145,
        "smoothness": 4.440892098500626e-16,
        "time": 0.030959672,
        "traj_len": 1.6124557668025397,
        "weighted_distance": 2.035508779879952
    },
    "planner": "EST",
    "start": {
        "state": {
            "elbow_joint": 1.9715477243005601,
            "shoulder_lift_joint": -1.1394853015351272,
            "shoulder_pan_joint": 0.12281154014795169,
            "wrist_1_joint": -0.7804696478968182,
            "wrist_2_joint": 0.12958648046900423,
            "wrist_3_joint": -3.192491284697111
        }
    },
    "waypoints": [
        {
            "positions": [
                0.12281154014795169,
                -1.1394853015351272,
                1.9715477243005601,
                -0.7804696478968182,
                0.12958648046900423,
                -3.192491284697111
            ]
        },
        {
            "positions": [
                0.056692798730508406,
                -1.1727704963908676,
                2.0362624334350055,
                -0.8179314376417828,
                0.2862795151539139,
                -3.179334240263934
            ]
        },
        {
            "positions": [
                -0.009425942686934877,
                -1.206055691246608,
                2.1009771425694512,
                -0.8553932273867475,
                0.44297254983882367,
                -3.1661771958307563
            ]
        },
        {
            "positions": [
                -0.07554468410437816,
                -1.2393408861023485,
                2.1656918517038966,
                -0.8928550171317121,
                0.5996655845237334,
                -3.153020151397579
            ]
        },
        {
            "positions": [
                -0.14166342552182143,
                -1.272626080958089,
                2.230406560838342,
                -0.9303168068766767,
                0.7563586192086431,
                -3.139863106964402
            ]
        },
        {
            "positions": [
                -0.20778216693926477,
                -1.3059112758138294,
                2.295121269972787,
                -0.9677785966216415,
                0.9130516538935529,
                -3.1267060625312246
            ]
        },
        {
            "positions": [
                -0.273900908356708,
                -1.3391964706695698,
                2.359835979107233,
                -1.005240386366606,
                1.0697446885784627,
                -3.113549018098047
            ]
        },
        {
            "positions": [
                -0.34001964977415133,
                -1.3724816655253103,
                2.4245506882416783,
                -1.0427021761115707,
                1.2264377232633725,
                -3.1003919736648697
            ]
        }
    ]
}