{
    "goal": {
        "global_pose": {
            "orientation": {
                "w": 0.7047431468963623,
                "x": -0.7094548344612122,
                "y": 0.0024358443915843964,
                "z": -0.0022348060738295317
            },
            "position": {
                "x": 0.6094750761985779,
                "y": 0.3671506643295288,
                "z": 0.19426114857196808
            }
        },
        "name": "move_to_magneteinheit_A"
    },
    "id": "EST_move_to_magneteinheit_A_76",
    "joint_names": [
        "shoulder_pan_joint",
        "shoulder_lift_joint",
        "elbow_joint",
        "wrist_1_joint",
        "wrist_2_joint",
        "wrist_3_joint"
    ],
    "metrics": {
        "cart_traj_len": 3.4960061789940347,
        "distance_elbow_joint": 3.8785022708117722,
        "distance_shoulder_lift_joint": 0.5339910511713672,
        "distance_shoulder_pan_joint": 4.104368227573197,
        "distance_wrist_1_joint": 2.3449877022865886,
        "distance_wrist_2_joint": 1.6929266434707744,
        "distance_wrist_3_joint": 3.689108572708275,
        "smoothness": 0.2540502897924058,
        "time": 0.27059960299999997,
        "traj_len": 4.030370264382912,
        "weighted_distance": 5.259279034163893
    },
    "planner": "EST",
    "start": {
        "state": {
            "elbow_joint": -1.919618573717145,
            "shoulder_lift_joint": -1.2443395971678275,
            "shoulder_pan_joint": 2.6996025300909787,
            "wrist_1_joint": -1.548550951253194,
            "wrist_2_joint": -1.5709469090946802,
            "wrist_3_joint": 0.4420197732051276
        }
    },
    "waypoints": [
        {
            "positions": [
                2.6996025300909787,
                -1.2443395971678275,
                -1.919618573717145,
                -1.548550951253194,
                -1.5709469090946802,
                0.4420197732051276
            ]
        },
        {
            "positions": [
                2.588227716631472,
                -1.2513690086288727,
                -1.8201502824995532,
                -1.4957145654721553,
                -1.5337769584847563,
                0.35835765636542816
            ]
        },
        {
            "positions": [
                2.4768529031719653,
                -1.2583984200899179,
                -1.7206819912819615,
                -1.4428781796911165,
                -1.4966070078748321,
                0.27469553952572867
            ]
        },
        {
            "positions": [
                2.3654780897124588,
                -1.265427831550963,
                -1.6212137000643698,
                -1.3900417939100778,
                -1.4594370572649082,
                0.19103342268602924
            ]
        },
        {
            "positions": [
                2.254103276252952,
                -1.2724572430120085,
                -1.5217454088467783,
                -1.337205408129039,
                -1.4222671066549841,
                0.10737130584632981
            ]
        },
        {
            "positions": [
                2.1427284627934453,
                -1.2794866544730537,
                -1.4222771176291866,
                -1.2843690223480002,
                -1.3850971560450602,
                0.023709189006630382
            ]
        },
        {
            "positions": [
                2.031353649333939,
                -1.2865160659340988,
                -1.322808826411595,
                -1.2315326365669614,
                -1.3479272054351361,
                -0.0599529278330691
            ]
        },
        {
            "positions": [
                1.9199788358744319,
                -1.293545477395144,
                -1.2233405351940032,
                -1.1786962507859227,
                -1.3107572548252122,
                -0.1436150446727686
            ]
        },
        {
            "positions": [
                1.8086040224149253,
                -1.3005748888561892,
                -1.1238722439764115,
                -1.1258598650048839,
                -1.273587304215288,
                -0.22727716151246796
            ]
        },
        {
            "positions": [
                1.6972292089554186,
                -1.3076043003172344,
                -1.0244039527588198,
                -1.0730234792238451,
                -1.2364173536053642,
                -0.31093927835216745
            ]
        },
        {
            "positions": [
                1.585854395495912,
                -1.3146337117782796,
                -0.9249356615412282,
                -1.0201870934428063,
                -1.1992474029954403,
                -0.3946013951918668
            ]
        },
        {
            "positions": [
                1.4744795820364054,
                -1.3216631232393248,
                -0.8254673703236366,
                -0.9673507076617677,
                -1.1620774523855162,
                -0.4782635120315663
            ]
        },
        {
            "positions": [
                1.3631047685768984,
                -1.3286925347003702,
                -0.7259990791060447,
                -0.9145143218807288,
                -1.1249075017755923,
                -0.5619256288712657
            ]
        },
        {
            "positions": [
                1.2517299551173917,
                -1.3357219461614154,
                -0.6265307878884532,
                -0.8616779360996901,
                -1.0877375511656682,
                -0.6455877457109653
            ]
        },
        {
            "positions": [
                1.1403551416578852,
                -1.3427513576224606,
                -0.5270624966708615,
                -0.8088415503186513,
                -1.0505676005557443,
                -0.7292498625506647
            ]
        },
        {
            "positions": [
                1.0289803281983785,
                -1.3497807690835057,
                -0.42759420545326976,
                -0.7560051645376126,
                -1.0133976499458202,
                -0.8129119793903641
            ]
        },
        {
            "positions": [
                0.9176055147388718,
                -1.356810180544551,
                -0.32812591423567805,
                -0.7031687787565738,
                -0.9762276993358963,
                -0.8965740962300635
            ]
        },
        {
            "positions": [
                0.8062307012793652,
                -1.3638395920055961,
                -0.22865762301808634,
                -0.650332392975535,
                -0.9390577487259723,
                -0.9802362130697628
            ]
        },
        {
            "positions": [
                0.6948558878198585,
                -1.3708690034666413,
                -0.12918933180049486,
                -0.5974960071944964,
                -0.9018877981160484,
                -1.0638983299094624
            ]
        },
        {
            "positions": [
                0.583481074360352,
                -1.3778984149276865,
                -0.029721040582903147,
                -0.5446596214134576,
                -0.8647178475061243,
                -1.1475604467491618
            ]
        },
        {
            "positions": [
                0.47210626090084507,
                -1.384927826388732,
                0.06974725063468856,
                -0.4918232356324188,
                -0.8275478968962003,
                -1.2312225635888612
            ]
        },
        {
            "positions": [
                0.36073144744133856,
                -1.391957237849777,
                0.16921554185228005,
                -0.43898684985138003,
                -0.7903779462862763,
                -1.3148846804285605
            ]
        },
        {
            "positions": [
                0.24935663398183205,
                -1.3989866493108223,
                0.26868383306987176,
                -0.38615046407034126,
                -0.7532079956763523,
                -1.3985467972682601
            ]
        },
        {
            "positions": [
                0.13798182052232466,
                -1.4060160607718675,
                0.3681521242874639,
                -0.33331407828930226,
                -0.7160380450664283,
                -1.4822089141079597
            ]
        },
        {
            "positions": [
                0.026607007062818155,
                -1.4130454722329127,
                0.4676204155050556,
                -0.2804776925082635,
                -0.6788680944565043,
                -1.5658710309476591
            ]
        },
        {
            "positions": [
                -0.08476780639668835,
                -1.4200748836939578,
                0.5670887067226473,
                -0.22764130672722493,
                -0.6416981438465803,
                -1.6495331477873587
            ]
        },
        {
            "positions": [
                -0.1961426198561953,
                -1.427104295155003,
                0.6665569979402386,
                -0.17480492094618616,
                -0.6045281932366563,
                -1.7331952646270583
            ]
        },
        {
            "positions": [
                -0.3075174333157018,
                -1.4341337066160484,
                0.7660252891578303,
                -0.12196853516514738,
                -0.5673582426267323,
                -1.8168573814667575
            ]
        },
        {
            "positions": [
                -0.4188922467752083,
                -1.4411631180770936,
                0.865493580375422,
                -0.06913214938410861,
                -0.5301882920168084,
                -1.900519498306457
            ]
        },
        {
            "positions": [
                -0.5302670602347153,
                -1.4481925295381388,
                0.9649618715930137,
                -0.016295763603069835,
                -0.4930183414068843,
                -1.9841816151461562
            ]
        },
        {
            "positions": [
                -0.6416418736942218,
                -1.455221940999184,
                1.0644301628106052,
                0.03654062217796894,
                -0.4558483907969604,
                -2.067843731985856
            ]
        },
        {
            "positions": [
                -0.5780482217118887,
                -1.4282962153875165,
                1.1389679573342737,
                -0.02678405522664995,
                -0.40769604703253914,
                -2.1661141542789633
            ]
        },
        {
            "positions": [
                -0.5144545697295556,
                -1.4013704897758488,
                1.213505751857942,
                -0.09010873263126884,
                -0.3595437032681179,
                -2.264384576572071
            ]
        },
        {
            "positions": [
                -0.45086091774722253,
                -1.3744447641641813,
                1.2880435463816104,
                -0.15343341003588773,
                -0.3113913595036967,
                -2.3626549988651786
            ]
        },
        {
            "positions": [
                -0.38726726576488946,
                -1.3475190385525138,
                1.3625813409052787,
                -0.21675808744050662,
                -0.2632390157392755,
                -2.4609254211582865
            ]
        },
        {
            "positions": [
                -0.3236736137825564,
                -1.3205933129408463,
                1.4371191354289472,
                -0.2800827648451255,
                -0.21508667197485423,
                -2.559195843451394
            ]
        },
        {
            "positions": [
                -0.2600799618002233,
                -1.2936675873291787,
                1.5116569299526157,
                -0.3434074422497444,
                -0.16693432821043303,
                -2.6574662657445014
            ]
        },
        {
            "positions": [
                -0.19648630981789017,
                -1.266741861717511,
                1.5861947244762842,
                -0.40673211965436334,
                -0.11878198444601179,
                -2.7557366880376093
            ]
        },
        {
            "positions": [
                -0.13289265783555715,
                -1.2398161361058435,
                1.6607325189999524,
                -0.4700567970589822,
                -0.07062964068159061,
                -2.8540071103307167
            ]
        },
        {
            "positions": [
                -0.06929900585322413,
                -1.212890410494176,
                1.735270313523621,
                -0.5333814744636011,
                -0.022477296917169376,
                -2.9522775326238246
            ]
        },
        {
            "positions": [
                -0.0057053538708909945,
                -1.1859646848825083,
                1.8098081080472894,
                -0.59670615186822,
                0.025675046847251914,
                -3.050547954916932
            ]
        },
        {
            "positions": [
                0.05788829811144203,
                -1.1590389592708408,
                1.8843459025709577,
                -0.6600308292728388,
                0.0738273906116731,
                -3.1488183772100395
            ]
        },
        {
            "positions": [
                0.12148195009377512,
                -1.1321132336591733,
                1.9588836970946262,
                -0.7233555066774577,
                0.12197973437609433,
                -3.2470887995031474
            ]
        }
    ]
}{
    "goal": {
        "global_pose": {
            "orientation": {
                "w": 0.7047431468963623,
                "x": -0.7094548344612122,
                "y": 0.0024358443915843964,
                "z": -0.0022348060738295317
            },
            "position": {
                "x": 0.6094750761985779,
                "y": 0.3671506643295288,
                "z": 0.19426114857196808
            }
        },
        "name": "move_to_magneteinheit_A"
    },
    "id": "EST_move_to_magneteinheit_A_76",
    "joint_names": [
        "shoulder_pan_joint",
        "shoulder_lift_joint",
        "elbow_joint",
        "wrist_1_joint",
        "wrist_2_joint",
        "wrist_3_joint"
    ],
    "metrics": {
        "cart_traj_len": 1.7648215972191041,
        "distance_elbow_joint": 3.201915184365072,
        "distance_shoulder_lift_joint": 1.5901700858914198,
        "distance_shoulder_pan_joint": 1.2418623738577277,
        "distance_wrist_1_joint": 6.744932950442164,
        "distance_wrist_2_joint": 6.60976129982016,
        "distance_wrist_3_joint": 4.29016045520558,
        "smoothness": 0.39520546446063737,
        "time": 0.124756403,
        "traj_len": 4.866086964860175,
        "weighted_distance": 6.753800227298375
    },
    "planner": "EST",
    "start": {
        "state": {
            "elbow_joint": 1.919643534880228,
            "shoulder_lift_joint": -1.8972525353963687,
            "shoulder_pan_joint": -1.1188672234189438,
            "wrist_1_joint": -1.5931878212786155,
            "wrist_2_joint": 1.5706036197970081,
            "wrist_3_joint": 1.118896926603594
        }
    },
    "waypoints": [
        {
            "positions": [
                -1.1188672234189438,
                -1.8972525353963687,
                1.919643534880228,
                -1.5931878212786155,
                1.5706036197970081,
                1.118896926603594
            ]
        },
        {
            "positions": [
                -1.0978307425512213,
                -1.86173899891703,
                1.8720180832461466,
                -1.47896165944269,
                1.4487670748300236,
                1.073235978432921
            ]
        },
        {
            "positions": [
                -1.076794261683499,
                -1.8262254624376912,
                1.8243926316120653,
                -1.3647354976067647,
                1.326930529863039,
                1.0275750302622482
            ]
        },
        {
            "positions": [
                -1.0557577808157763,
                -1.7907119259583526,
                1.7767671799779838,
                -1.2505093357708392,
                1.2050939848960545,
                0.9819140820915752
            ]
        },
        {
            "positions": [
                -1.0347212999480537,
                -1.755198389479014,
                1.7291417283439026,
                -1.1362831739349137,
                1.0832574399290698,
                0.9362531339209023
            ]
        },
        {
            "positions": [
                -1.0136848190803311,
                -1.7196848529996753,
                1.681516276709821,
                -1.0220570120989882,
                0.9614208949620853,
                0.8905921857502292
            ]
        },
        {
            "positions": [
                -0.9926483382126087,
                -1.6841713165203365,
                1.6338908250757398,
                -0.907830850263063,
                0.8395843499951007,
                0.8449312375795563
            ]
        },
        {
            "positions": [
                -0.9716118573448862,
                -1.6486577800409978,
                1.5862653734416583,
                -0.7936046884271376,
                0.7177478050281162,
                0.7992702894088834
            ]
        },
        {
            "positions": [
                -0.9505753764771636,
                -1.6131442435616592,
                1.5386399218075768,
                -0.6793785265912122,
                0.5959112600611316,
                0.7536093412382106
            ]
        },
        {
            "positions": [
                -0.9295388956094411,
                -1.5776307070823206,
                1.4910144701734955,
                -0.565152364755287,
                0.4740747150941471,
                0.7079483930675377
            ]
        },
        {
            "positions": [
                -0.9085024147417187,
                -1.5421171706029817,
                1.4433890185394143,
                -0.45092620291936125,
                0.3522381701271624,
                0.6622874448968646
            ]
        },
        {
            "positions": [
                -0.8874659338739961,
                -1.506603634123643,
                1.3957635669053328,
                -0.336700041083436,
                0.23040162516017793,
                0.6166264967261917
            ]
        },
        {
            "positions": [
                -0.8664294530062735,
                -1.4710900976443044,
                1.3481381152712513,
                -0.2224738792475105,
                0.10856508019319322,
                0.5709655485555187
            ]
        },
        {
            "positions": [
                -0.845392972138551,
                -1.4355765611649658,
                1.30051266363717,
                -0.10824771741158523,
                -0.013271464773791042,
                0.5253046003848458
            ]
        },
        {
            "positions": [
                -0.8243564912708286,
                -1.400063024685627,
                1.2528872120030887,
                0.005978444424340257,
                -0.13510800974077575,
                0.47964365221417293
            ]
        },
        {
            "positions": [
                -0.803320010403106,
                -1.3645494882062883,
                1.2052617603690072,
                0.12020460626026552,
                -0.25694455470776023,
                0.43398270404350003
            ]
        },
        {
            "positions": [
                -0.7822835295353834,
                -1.3290359517269494,
                1.1576363087349257,
                0.234430768096191,
                -0.37878109967474494,
                0.388321755872827
            ]
        },
        {
            "positions": [
                -0.761247048667661,
                -1.2935224152476108,
                1.1100108571008445,
                0.3486569299321165,
                -0.5006176446417294,
                0.3426608077021541
            ]
        },
        {
            "positions": [
                -0.7402105677999384,
                -1.2580088787682722,
                1.0623854054667632,
                0.46288309176804154,
                -0.6224541896087139,
                0.2969998595314812
            ]
        },
        {
            "positions": [
                -0.7191740869322159,
                -1.2224953422889335,
                1.0147599538326815,
                0.5771092536039675,
                -0.7442907345756988,
                0.2513389113608082
            ]
        },
        {
            "positions": [
                -0.6981376060644934,
                -1.186981805809595,
                0.9671345021986002,
                0.691335415439893,
                -0.8661272795426833,
                0.20567796319013532
            ]
        },
        {
            "positions": [
                -0.6771011251967709,
                -1.1514682693302563,
                0.9195090505645189,
                0.805561577275818,
                -0.9879638245096678,
                0.16001701501946242
            ]
        },
        {
            "positions": [
                -0.6560646443290483,
                -1.1159547328509174,
                0.8718835989304374,
                0.9197877391117435,
                -1.1098003694766523,
                0.11435606684878952
            ]
        },
        {
            "positions": [
                -0.6350281634613257,
                -1.0804411963715785,
                0.8242581472963559,
                1.034013900947669,
                -1.2316369144436372,
                0.0686951186781164
            ]
        },
        {
            "positions": [
                -0.6139916825936033,
                -1.04492765989224,
                0.7766326956622747,
                1.1482400627835945,
                -1.3534734594106217,
                0.023034170507443497
            ]
        },
        {
            "positions": [
                -0.5929552017258808,
                -1.0094141234129013,
                0.7290072440281932,
                1.2624662246195195,
                -1.4753100043776057,
                -0.022626777663229403
            ]
        },
        {
            "positions": [
                -0.5719187208581582,
                -0.9739005869335626,
                0.6813817923941119,
                1.376692386455445,
                -1.5971465493445902,
                -0.0682877258339023
            ]
        },
        {
            "positions": [
                -0.5508822399904356,
                -0.9383870504542239,
                0.6337563407600304,
                1.490918548291371,
                -1.7189830943115751,
                -0.1139486740045752
            ]
        },
        {
            "positions": [
                -0.5298457591227131,
                -0.9028735139748851,
                0.5861308891259491,
                1.605144710127296,
                -1.8408196392785596,
                -0.1596096221752481
            ]
        },
        {
            "positions": [
                -0.5088092782549907,
                -0.8673599774955465,
                0.5385054374918676,
                1.7193708719632215,
                -1.9626561842455441,
                -0.205270570345921
            ]
        },
        {
            "positions": [
                -0.4877727973872682,
                -0.8318464410162079,
                0.49087998585778636,
                1.8335970337991465,
                -2.0844927292125286,
                -0.2509315185165939
            ]
        },
        {
            "positions": [
                -0.4667363165195456,
                -0.796332904536869,
                0.44325453422370487,
                1.9478231956350724,
                -2.2063292741795135,
                -0.296592466687267
            ]
        },
        {
            "positions": [
                -0.44569983565182303,
                -0.7608193680575304,
                0.39562908258962337,
                2.0620493574709977,
                -2.328165819146498,
                -0.3422534148579399
            ]
        },
        {
            "positions": [
                -0.42466335478410056,
                -0.7253058315781917,
                0.3480036309555421,
                2.1762755193069228,
                -2.4500023641134825,
                -0.3879143630286128
            ]
        },
        {
            "positions": [
                -0.40510412245471183,
                -0.7402423809379505,
                0.4062277481141274,
                2.070008747526329,
                -2.357532531402423,
                -0.487319690370519
            ]
        },
        {
            "positions": [
                -0.3855448901253231,
                -0.7551789302977092,
                0.4644518652727126,
                1.9637419757457353,
                -2.2650626986913633,
                -0.5867250177124251
            ]
        },
        {
            "positions": [
                -0.36598565779593434,
                -0.7701154796574678,
                0.5226759824312979,
                1.8574752039651414,
                -2.1725928659803038,
                -0.6861303450543312
            ]
        },
        {
            "positions": [
                -0.3464264254665456,
                -0.7850520290172266,
                0.5809000995898831,
                1.7512084321845478,
                -2.0801230332692437,
                -0.7855356723962374
            ]
        },
        {
            "positions": [
                -0.32686719313715684,
                -0.7999885783769853,
                0.6391242167484684,
                1.644941660403954,
                -1.9876532005581842,
                -0.8849409997381436
            ]
        },
        {
            "positions": [
                -0.3073079608077681,
                -0.8149251277367441,
                0.6973483339070536,
                1.53867488862336,
                -1.8951833678471246,
                -0.9843463270800497
            ]
        },
        {
            "positions": [
                -0.2877487284783794,
                -0.8298616770965028,
                0.755572451065639,
                1.4324081168427665,
                -1.802713535136065,
                -1.0837516544219559
            ]
        },
        {
            "positions": [
                -0.2681894961489907,
                -0.8447982264562615,
                0.8137965682242241,
                1.3261413450621728,
                -1.7102437024250055,
                -1.183156981763862
            ]
        },
        {
            "positions": [
                -0.2486302638196019,
                -0.8597347758160202,
                0.8720206853828095,
                1.219874573281579,
                -1.6177738697139457,
                -1.282562309105768
            ]
        },
        {
            "positions": [
                -0.22907103149021318,
                -0.874671325175779,
                0.9302448025413947,
                1.1136078015009852,
                -1.525304037002886,
                -1.3819676364476743
            ]
        },
        {
            "positions": [
                -0.20951179916082446,
                -0.8896078745355376,
                0.98846891969998,
                1.0073410297203915,
                -1.4328342042918265,
                -1.4813729637895805
            ]
        },
        {
            "positions": [
                -0.18995256683143574,
                -0.9045444238952963,
                1.0466930368585652,
                0.9010742579397977,
                -1.340364371580767,
                -1.5807782911314865
            ]
        },
        {
            "positions": [
                -0.17039333450204697,
                -0.9194809732550551,
                1.1049171540171505,
                0.7948074861592038,
                -1.2478945388697071,
                -1.6801836184733927
            ]
        },
        {
            "positions": [
                -0.15083410217265825,
                -0.9344175226148138,
                1.1631412711757356,
                0.6885407143786102,
                -1.1554247061586476,
                -1.779588945815299
            ]
        },
        {
            "positions": [
                -0.13127486984326953,
                -0.9493540719745726,
                1.221365388334321,
                0.5822739425980166,
                -1.062954873447588,
                -1.8789942731572051
            ]
        },
        {
            "positions": [
                -0.1117156375138808,
                -0.9642906213343312,
                1.2795895054929063,
                0.4760071708174227,
                -0.9704850407365284,
                -1.9783996004991111
            ]
        },
        {
            "positions": [
                -0.09215640518449209,
                -0.9792271706940899,
                1.3378136226514914,
                0.3697403990368291,
                -0.8780152080254688,
                -2.0778049278410173
            ]
        },
        {
            "positions": [
                -0.07259717285510325,
                -0.9941637200538487,
                1.396037739810077,
                0.263473627256235,
                -0.7855453753144088,
                -2.1772102551829233
            ]
        },
        {
            "positions": [
                -0.05303794052571453,
                -1.0091002694136075,
                1.454261856968662,
                0.1572068554756414,
                -0.6930755426033492,
                -2.2766155825248298
            ]
        },
        {
            "positions": [
                -0.03347870819632581,
                -1.0240368187733662,
                1.5124859741272474,
                0.050940083695047544,
                -0.6006057098922897,
                -2.3760209098667358
            ]
        },
        {
            "positions": [
                -0.013919475866937092,
                -1.0389733681331248,
                1.5707100912858325,
                -0.055326688085546305,
                -0.5081358771812301,
                -2.4754262372086417
            ]
        },
        {
            "positions": [
                0.005639756462451628,
                -1.0539099174928834,
                1.6289342084444178,
                -0.1615934598661397,
                -0.4156660444701705,
                -2.574831564550548
            ]
        },
        {
            "positions": [
                0.02519898879184035,
                -1.0688464668526423,
                1.687158325603003,
                -0.26786023164673356,
                -0.32319621175911095,
                -2.674236891892454
            ]
        },
        {
            "positions": [
                0.04475822112122907,
                -1.083783016212401,
                1.7453824427615883,
                -0.3741270034273274,
                -0.23072637904805138,
                -2.77364221923436
            ]
        },
        {
            "positions": [
                0.0643174534506179,
                -1.0987195655721598,
                1.8036065599201736,
                -0.48039377520792126,
                -0.13825654633699136,
                -2.8730475465762666
            ]
        },
        {
            "positions": [
                0.08387668578000662,
                -1.1136561149319184,
                1.861830677078759,
                -0.5866605469885151,
                -0.045786713625931785,
                -2.9724528739181726
            ]
        },
        {
            "positions": [
                0.10343591810939534,
                -1.1285926642916773,
                1.920054794237344,
                -0.6929273187691085,
                0.04668311908512779,
                -3.071858201260079
            ]
        },
        {
            "positions": [
                0.12299515043878406,
                -1.143529213651436,
                1.9782789113959294,
                -0.7991940905497024,
                0.13915295179618725,
                -3.171263528601985
            ]
        }
    ]
}