{
    "goal": {
        "global_pose": {
            "orientation": {
                "w": 0.5084816217422485,
                "x": -0.49083608388900757,
                "y": 0.5182115435600281,
                "z": -0.4816462993621826
            },
            "position": {
                "x": 0.5540239810943604,
                "y": 0.030875300988554955,
                "z": 0.16403168439865112
            }
        },
        "name": "move_to_storage_A"
    },
    "id": "EST_move_to_storage_A_45",
    "joint_names": [
        "shoulder_pan_joint",
        "shoulder_lift_joint",
        "elbow_joint",
        "wrist_1_joint",
        "wrist_2_joint",
        "wrist_3_joint"
    ],
    "metrics": {
        "cart_traj_len": 0.3527758328284246,
        "distance_elbow_joint": 0.44714677672984937,
        "distance_shoulder_lift_joint": 0.23426618975698843,
        "distance_shoulder_pan_joint": 0.4607502658868466,
        "distance_wrist_1_joint": 0.23645488343250232,
        "distance_wrist_2_joint": 1.099758931578985,
        "distance_wrist_3_joint": 0.09379464105467772,
        "smoothness": 8.881784197001252e-16,
        "time": 0.034622140999999995,
        "traj_len": 1.6037991421745585,
        "weighted_distance": 2.023851473196759
    },
    "planner": "EST",
    "start": {
        "state": {
            "elbow_joint": 1.9715477243005601,
            "shoulder_lift_joint": -1.1394853015351272,
            "shoulder_pan_joint": 0.12281154014795169,
            "wrist_1_joint": -0.7804696478968182,
            "wrist_2_joint": 0.12958648046900423,
            "wrist_3_joint": -3.192491284697111
        }
    },
    "waypoints": [
        {
            "positions": [
                0.12281154014795169,
                -1.1394853015351272,
                1.9715477243005601,
                -0.7804696478968182,
                0.12958648046900423,
                -3.192491284697111
            ]
        },
        {
            "positions": [
                0.0569900735926879,
                -1.1729519000718398,
                2.035425835261967,
                -0.8142489169586042,
                0.2866948992660021,
                -3.1790920502607287
            ]
        },
        {
            "positions": [
                -0.008831392962575887,
                -1.2064184986085524,
                2.0993039462233742,
                -0.8480281860203902,
                0.44380331806299994,
                -3.1656928158243463
            ]
        },
        {
            "positions": [
                -0.07465285951783969,
                -1.239885097145265,
                2.1631820571847813,
                -0.8818074550821763,
                0.6009117368599979,
                -3.152293581387964
            ]
        },
        {
            "positions": [
                -0.14047432607310345,
                -1.2733516956819777,
                2.2270601681461883,
                -0.9155867241439624,
                0.7580201556569957,
                -3.138894346951581
            ]
        },
        {
            "positions": [
                -0.20629579262836728,
                -1.3068182942186903,
                2.2909382791075954,
                -0.9493659932057483,
                0.9151285744539935,
                -3.1254951125151984
            ]
        },
        {
            "positions": [
                -0.27211725918363106,
                -1.340284892755403,
                2.3548163900690025,
                -0.9831452622675344,
                1.0722369932509914,
                -3.112095878078816
            ]
        },
        {
            "positions": [
                -0.3379387257388949,
                -1.3737514912921156,
                2.4186945010304095,
                -1.0169245313293205,
                1.2293454120479894,
                -3.0986966436424335
            ]
        }
    ]
}