{
    "goal": {
        "global_pose": {
            "orientation": {
                "w": 0.5084816217422485,
                "x": -0.49083608388900757,
                "y": 0.5182115435600281,
                "z": -0.4816462993621826
            },
            "position": {
                "x": 0.5540239810943604,
                "y": 0.030875300988554955,
                "z": 0.16403168439865112
            }
        },
        "name": "move_to_storage_A"
    },
    "id": "EST_move_to_storage_A_134",
    "joint_names": [
        "shoulder_pan_joint",
        "shoulder_lift_joint",
        "elbow_joint",
        "wrist_1_joint",
        "wrist_2_joint",
        "wrist_3_joint"
    ],
    "metrics": {
        "cart_traj_len": 0.35329860663305934,
        "distance_elbow_joint": 0.44826572744281545,
        "distance_shoulder_lift_joint": 0.23485522891134725,
        "distance_shoulder_pan_joint": 0.46341956712817556,
        "distance_wrist_1_joint": 0.23771348844957718,
        "distance_wrist_2_joint": 1.0928074826794485,
        "distance_wrist_3_joint": 0.10504572093241249,
        "smoothness": 6.661338165333112e-16,
        "time": 0.083966309,
        "traj_len": 1.606893654086597,
        "weighted_distance": 2.0304481349046144
    },
    "planner": "EST",
    "start": {
        "state": {
            "elbow_joint": 1.9715477243005601,
            "shoulder_lift_joint": -1.1394853015351272,
            "shoulder_pan_joint": 0.12281154014795169,
            "wrist_1_joint": -0.7804696478968182,
            "wrist_2_joint": 0.12958648046900423,
            "wrist_3_joint": -3.192491284697111
        }
    },
    "waypoints": [
        {
            "positions": [
                0.12281154014795169,
                -1.1394853015351272,
                1.9715477243005601,
                -0.7804696478968182,
                0.12958648046900423,
                -3.192491284697111
            ]
        },
        {
            "positions": [
                0.05660874484392661,
                -1.1730360485224625,
                2.0355856853638197,
                -0.8144287176753292,
                0.28570183513749686,
                -3.177484753135338
            ]
        },
        {
            "positions": [
                -0.009594050460098466,
                -1.2065867955097977,
                2.0996236464270788,
                -0.8483877874538402,
                0.4418171898059895,
                -3.162478221573565
            ]
        },
        {
            "positions": [
                -0.07579684576412353,
                -1.240137542497133,
                2.1636616074903383,
                -0.8823468572323512,
                0.5979325444744821,
                -3.1474716900117916
            ]
        },
        {
            "positions": [
                -0.1419996410681486,
                -1.2736882894844683,
                2.2276995685535974,
                -0.9163059270108622,
                0.7540478991429748,
                -3.1324651584500183
            ]
        },
        {
            "positions": [
                -0.20820243637217373,
                -1.3072390364718038,
                2.291737529616857,
                -0.9502649967893733,
                0.9101632538114675,
                -3.117458626888245
            ]
        },
        {
            "positions": [
                -0.27440523167619874,
                -1.3407897834591391,
                2.355775490680116,
                -0.9842240665678843,
                1.06627860847996,
                -3.102452095326472
            ]
        },
        {
            "positions": [
                -0.34060802698022385,
                -1.3743405304464744,
                2.4198134517433756,
                -1.0181831363463953,
                1.2223939631484526,
                -3.0874455637646987
            ]
        }
    ]
}