{
    "goal": {
        "global_pose": {
            "orientation": {
                "w": 0.5084816217422485,
                "x": -0.49083608388900757,
                "y": 0.5182115435600281,
                "z": -0.4816462993621826
            },
            "position": {
                "x": 0.5540239810943604,
                "y": 0.030875300988554955,
                "z": 0.16403168439865112
            }
        },
        "name": "move_to_storage_A"
    },
    "id": "EST_move_to_storage_A_97",
    "joint_names": [
        "shoulder_pan_joint",
        "shoulder_lift_joint",
        "elbow_joint",
        "wrist_1_joint",
        "wrist_2_joint",
        "wrist_3_joint"
    ],
    "metrics": {
        "cart_traj_len": 0.3526403429620611,
        "distance_elbow_joint": 0.45125375779804244,
        "distance_shoulder_lift_joint": 0.23389162164807464,
        "distance_shoulder_pan_joint": 0.46103811372202275,
        "distance_wrist_1_joint": 0.24985247432677038,
        "distance_wrist_2_joint": 1.098178735809157,
        "distance_wrist_3_joint": 0.09797351058074799,
        "smoothness": 8.881784197001252e-16,
        "time": 0.031715738,
        "traj_len": 1.6100273953833255,
        "weighted_distance": 2.0337567320557883
    },
    "planner": "EST",
    "start": {
        "state": {
            "elbow_joint": 1.9715477243005601,
            "shoulder_lift_joint": -1.1394853015351272,
            "shoulder_pan_joint": 0.12281154014795169,
            "wrist_1_joint": -0.7804696478968182,
            "wrist_2_joint": 0.12958648046900423,
            "wrist_3_joint": -3.192491284697111
        }
    },
    "waypoints": [
        {
            "positions": [
                0.12281154014795169,
                -1.1394853015351272,
                1.9715477243005601,
                -0.7804696478968182,
                0.12958648046900423,
                -3.192491284697111
            ]
        },
        {
            "positions": [
                0.056948952473377015,
                -1.172898390341995,
                2.036012546843138,
                -0.8161628585149282,
                0.28646915701316955,
                -3.1784950688998617
            ]
        },
        {
            "positions": [
                -0.008913635201197659,
                -1.2063114791488627,
                2.100477369385715,
                -0.8518560691330382,
                0.4433518335573348,
                -3.1644988531026117
            ]
        },
        {
            "positions": [
                -0.07477622287577233,
                -1.2397245679557305,
                2.1649421919282927,
                -0.8875492797511483,
                0.6002345101015001,
                -3.150502637305362
            ]
        },
        {
            "positions": [
                -0.140638810550347,
                -1.2731376567625983,
                2.22940701447087,
                -0.9232424903692584,
                0.7571171866456654,
                -3.136506421508112
            ]
        },
        {
            "positions": [
                -0.2065013982249217,
                -1.3065507455694663,
                2.2938718370134477,
                -0.9589357009873685,
                0.9139998631898307,
                -3.1225102057108627
            ]
        },
        {
            "positions": [
                -0.27236398589949634,
                -1.339963834376334,
                2.358336659556025,
                -0.9946289116054785,
                1.0708825397339958,
                -3.1085139899136127
            ]
        },
        {
            "positions": [
                -0.33822657357407104,
                -1.3733769231832018,
                2.4228014820986026,
                -1.0303221222235885,
                1.2277652162781614,
                -3.094517774116363
            ]
        }
    ]
}