{
    "goal": {
        "global_pose": {
            "orientation": {
                "w": 0.5084816217422485,
                "x": -0.49083608388900757,
                "y": 0.5182115435600281,
                "z": -0.4816462993621826
            },
            "position": {
                "x": 0.5540239810943604,
                "y": 0.030875300988554955,
                "z": 0.16403168439865112
            }
        },
        "name": "move_to_storage_A"
    },
    "id": "EST_move_to_storage_A_115",
    "joint_names": [
        "shoulder_pan_joint",
        "shoulder_lift_joint",
        "elbow_joint",
        "wrist_1_joint",
        "wrist_2_joint",
        "wrist_3_joint"
    ],
    "metrics": {
        "cart_traj_len": 0.35249144931885523,
        "distance_elbow_joint": 0.45094630701382243,
        "distance_shoulder_lift_joint": 0.23472836939054043,
        "distance_shoulder_pan_joint": 0.46178067968970216,
        "distance_wrist_1_joint": 0.24606587588237938,
        "distance_wrist_2_joint": 1.0943483785690855,
        "distance_wrist_3_joint": 0.10687037121149867,
        "smoothness": 4.440892098500626e-16,
        "time": 0.100316706,
        "traj_len": 1.6108196614633894,
        "weighted_distance": 2.0368836438617426
    },
    "planner": "EST",
    "start": {
        "state": {
            "elbow_joint": 1.9715477243005601,
            "shoulder_lift_joint": -1.1394853015351272,
            "shoulder_pan_joint": 0.12281154014795169,
            "wrist_1_joint": -0.7804696478968182,
            "wrist_2_joint": 0.12958648046900423,
            "wrist_3_joint": -3.192491284697111
        }
    },
    "waypoints": [
        {
            "positions": [
                0.12281154014795169,
                -1.1394853015351272,
                1.9715477243005601,
                -0.7804696478968182,
                0.12958648046900423,
                -3.192491284697111
            ]
        },
        {
            "positions": [
                0.05684287162085139,
                -1.1730179257337758,
                2.0359686253025346,
                -0.8156219158800152,
                0.2859219631217307,
                -3.177224088809754
            ]
        },
        {
            "positions": [
                -0.009125796906248915,
                -1.2065505499324245,
                2.1003895263045096,
                -0.8507741838632122,
                0.4422574457744572,
                -3.1619568929223973
            ]
        },
        {
            "positions": [
                -0.07509446543334923,
                -1.2400831741310732,
                2.164810427306484,
                -0.8859264518464093,
                0.5985929284271837,
                -3.14668969703504
            ]
        },
        {
            "positions": [
                -0.1410631339604495,
                -1.2736157983297216,
                2.2292313283084586,
                -0.9210787198296064,
                0.7549284110799102,
                -3.1314225011476835
            ]
        },
        {
            "positions": [
                -0.20703180248754982,
                -1.3071484225283703,
                2.2936522293104336,
                -0.9562309878128035,
                0.9112638937326367,
                -3.1161553052603264
            ]
        },
        {
            "positions": [
                -0.27300047101465014,
                -1.340681046727019,
                2.358073130312408,
                -0.9913832557960005,
                1.0675993763853633,
                -3.1008881093729697
            ]
        },
        {
            "positions": [
                -0.33896913954175045,
                -1.3742136709256676,
                2.4224940313143826,
                -1.0265355237791975,
                1.2239348590380896,
                -3.0856209134856125
            ]
        }
    ]
}