{
    "goal": {
        "global_pose": {
            "orientation": {
                "w": 0.5084816217422485,
                "x": -0.49083608388900757,
                "y": 0.5182115435600281,
                "z": -0.4816462993621826
            },
            "position": {
                "x": 0.5540239810943604,
                "y": 0.030875300988554955,
                "z": 0.16403168439865112
            }
        },
        "name": "move_to_storage_A"
    },
    "id": "EST_move_to_storage_A_62",
    "joint_names": [
        "shoulder_pan_joint",
        "shoulder_lift_joint",
        "elbow_joint",
        "wrist_1_joint",
        "wrist_2_joint",
        "wrist_3_joint"
    ],
    "metrics": {
        "cart_traj_len": 0.35361550126412766,
        "distance_elbow_joint": 0.45107808077040934,
        "distance_shoulder_lift_joint": 0.23289519740615505,
        "distance_shoulder_pan_joint": 0.45927971427450304,
        "distance_wrist_1_joint": 0.25145920523580123,
        "distance_wrist_2_joint": 1.1125039687152394,
        "distance_wrist_3_joint": 0.10351174849244638,
        "smoothness": 2.2204460668324854e-16,
        "time": 0.051673978,
        "traj_len": 1.6157747104390991,
        "weighted_distance": 2.044924102706623
    },
    "planner": "EST",
    "start": {
        "state": {
            "elbow_joint": 1.9715477243005601,
            "shoulder_lift_joint": -1.1394853015351272,
            "shoulder_pan_joint": 0.12281154014795169,
            "wrist_1_joint": -0.7804696478968182,
            "wrist_2_joint": 0.12958648046900423,
            "wrist_3_joint": -3.192491284697111
        }
    },
    "waypoints": [
        {
            "positions": [
                0.12281154014795169,
                -1.1394853015351272,
                1.9715477243005601,
                -0.7804696478968182,
                0.12958648046900423,
                -3.192491284697111
            ]
        },
        {
            "positions": [
                0.057200152394451254,
                -1.1727560440217208,
                2.0359874501249045,
                -0.8163923915019327,
                0.2885156188568956,
                -3.1777038920553333
            ]
        },
        {
            "positions": [
                -0.008411235359049182,
                -1.2060267865083143,
                2.1004271759492483,
                -0.852315135107047,
                0.4474447572447869,
                -3.162916499413555
            ]
        },
        {
            "positions": [
                -0.0740226231125496,
                -1.239297528994908,
                2.1648669017735926,
                -0.8882378787121615,
                0.6063738956326783,
                -3.148129106771777
            ]
        },
        {
            "positions": [
                -0.13963401086605004,
                -1.2725682714815014,
                2.229306627597937,
                -0.924160622317276,
                0.7653030340205695,
                -3.133341714129999
            ]
        },
        {
            "positions": [
                -0.2052453986195505,
                -1.305839013968095,
                2.2937463534222813,
                -0.9600833659223904,
                0.9242321724084609,
                -3.118554321488221
            ]
        },
        {
            "positions": [
                -0.2708567863730509,
                -1.3391097564546885,
                2.358186079246625,
                -0.9960061095275049,
                1.0831613107963523,
                -3.1037669288464427
            ]
        },
        {
            "positions": [
                -0.33646817412655133,
                -1.3723804989412822,
                2.4226258050709695,
                -1.0319288531326194,
                1.2420904491842435,
                -3.088979536204665
            ]
        }
    ]
}