{
    "goal": {
        "global_pose": {
            "orientation": {
                "w": 0.7047431468963623,
                "x": -0.7094548344612122,
                "y": 0.0024358443915843964,
                "z": -0.0022348060738295317
            },
            "position": {
                "x": 0.6094750761985779,
                "y": 0.3671506643295288,
                "z": 0.19426114857196808
            }
        },
        "name": "move_to_magneteinheit_A"
    },
    "id": "EST_move_to_magneteinheit_A_21",
    "joint_names": [
        "shoulder_pan_joint",
        "shoulder_lift_joint",
        "elbow_joint",
        "wrist_1_joint",
        "wrist_2_joint",
        "wrist_3_joint"
    ],
    "metrics": {
        "cart_traj_len": 3.2040212744115424,
        "distance_elbow_joint": 3.90587462516393,
        "distance_shoulder_lift_joint": 1.0489974004183007,
        "distance_shoulder_pan_joint": 2.9051869250901157,
        "distance_wrist_1_joint": 3.4529252697346715,
        "distance_wrist_2_joint": 1.616279015434178,
        "distance_wrist_3_joint": 0.7136656171670648,
        "smoothness": 0.07637286715586208,
        "time": 0.21877997999999999,
        "traj_len": 3.6936335569474488,
        "weighted_distance": 4.487701457596221
    },
    "planner": "EST",
    "start": {
        "state": {
            "elbow_joint": -1.919618573717145,
            "shoulder_lift_joint": -1.2443395971678275,
            "shoulder_pan_joint": 2.6996025300909787,
            "wrist_1_joint": -1.548550951253194,
            "wrist_2_joint": -1.5709469090946802,
            "wrist_3_joint": 0.4420197732051276
        }
    },
    "waypoints": [
        {
            "positions": [
                2.6996025300909787,
                -1.2443395971678275,
                -1.919618573717145,
                -1.548550951253194,
                -1.5709469090946802,
                0.4420197732051276
            ]
        },
        {
            "positions": [
                2.5824301402153873,
                -1.2569222268138545,
                -1.8030094515778252,
                -1.4996855392720507,
                -1.5093556981843272,
                0.41761901414051184
            ]
        },
        {
            "positions": [
                2.465257750339796,
                -1.2695048564598816,
                -1.6864003294385055,
                -1.4508201272909074,
                -1.4477644872739746,
                0.3932182550758961
            ]
        },
        {
            "positions": [
                2.3480853604642045,
                -1.2820874861059086,
                -1.5697912072991858,
                -1.401954715309764,
                -1.3861732763636216,
                0.36881749601128033
            ]
        },
        {
            "positions": [
                2.230912970588613,
                -1.2946701157519358,
                -1.453182085159866,
                -1.3530893033286207,
                -1.324582065453269,
                0.34441673694666464
            ]
        },
        {
            "positions": [
                2.1137405807130216,
                -1.3072527453979628,
                -1.3365729630205463,
                -1.3042238913474775,
                -1.262990854542916,
                0.3200159778820489
            ]
        },
        {
            "positions": [
                1.9965681908374302,
                -1.31983537504399,
                -1.2199638408812266,
                -1.2553584793663342,
                -1.2013996436325634,
                0.29561521881743313
            ]
        },
        {
            "positions": [
                1.8793958009618388,
                -1.332418004690017,
                -1.1033547187419068,
                -1.2064930673851908,
                -1.1398084327222104,
                0.2712144597528173
            ]
        },
        {
            "positions": [
                1.7622234110862474,
                -1.345000634336044,
                -0.9867455966025871,
                -1.1576276554040474,
                -1.0782172218118578,
                0.24681370068820163
            ]
        },
        {
            "positions": [
                1.645051021210656,
                -1.357583263982071,
                -0.8701364744632671,
                -1.108762243422904,
                -1.0166260109015048,
                0.22241294162358588
            ]
        },
        {
            "positions": [
                1.5278786313350645,
                -1.3701658936280983,
                -0.7535273523239476,
                -1.0598968314417607,
                -0.955034799991152,
                0.19801218255897016
            ]
        },
        {
            "positions": [
                1.410706241459473,
                -1.3827485232741252,
                -0.6369182301846277,
                -1.0110314194606174,
                -0.8934435890807991,
                0.17361142349435438
            ]
        },
        {
            "positions": [
                1.2935338515838817,
                -1.3953311529201524,
                -0.5203091080453082,
                -0.9621660074794741,
                -0.8318523781704464,
                0.14921066442973868
            ]
        },
        {
            "positions": [
                1.1763614617082905,
                -1.4079137825661794,
                -0.40369998590598843,
                -0.9133005954983309,
                -0.7702611672600936,
                0.12480990536512293
            ]
        },
        {
            "positions": [
                1.0591890718326988,
                -1.4204964122122066,
                -0.2870908637666685,
                -0.8644351835171874,
                -0.7086699563497407,
                0.10040914630050712
            ]
        },
        {
            "positions": [
                0.9420166819571074,
                -1.4330790418582335,
                -0.17048174162734875,
                -0.8155697715360442,
                -0.6470787454393879,
                0.07600838723589143
            ]
        },
        {
            "positions": [
                0.824844292081516,
                -1.4456616715042607,
                -0.05387261948802924,
                -0.7667043595549008,
                -0.5854875345290351,
                0.05160762817127568
            ]
        },
        {
            "positions": [
                0.7076719022059248,
                -1.4582443011502877,
                0.0627365026512905,
                -0.7178389475737575,
                -0.5238963236186824,
                0.02720686910665998
            ]
        },
        {
            "positions": [
                0.5904995123303332,
                -1.4708269307963149,
                0.17934562479061067,
                -0.6689735355926141,
                -0.4623051127083295,
                0.0028061100420441742
            ]
        },
        {
            "positions": [
                0.47332712245474173,
                -1.4834095604423418,
                0.2959547469299302,
                -0.6201081236114708,
                -0.4007139017979766,
                -0.021594649022571577
            ]
        },
        {
            "positions": [
                0.3561547325791503,
                -1.4959921900883688,
                0.4125638690692497,
                -0.5712427116303275,
                -0.3391226908876239,
                -0.04599540808718727
            ]
        },
        {
            "positions": [
                0.2389823427035589,
                -1.508574819734396,
                0.5291729912085696,
                -0.5223772996491842,
                -0.277531479977271,
                -0.07039616715180302
            ]
        },
        {
            "positions": [
                0.12180995282796747,
                -1.5211574493804232,
                0.6457821133478896,
                -0.47351188766804087,
                -0.2159402690669181,
                -0.09479692621641883
            ]
        },
        {
            "positions": [
                0.004637562952376162,
                -1.5337400790264502,
                0.7623912354872091,
                -0.42464647568689745,
                -0.15434905815656547,
                -0.11919768528103455
            ]
        },
        {
            "positions": [
                0.0004527038490546413,
                -1.480575831683446,
                0.8668266796895746,
                -0.2377230856206255,
                -0.143835807751003,
                -0.11515736324260537
            ]
        },
        {
            "positions": [
                -0.0037321552542668793,
                -1.4274115843404422,
                0.9712621238919401,
                -0.05079969555435354,
                -0.13332255734544052,
                -0.11111704120417618
            ]
        },
        {
            "positions": [
                -0.0079170143575884,
                -1.3742473369974382,
                1.0756975680943055,
                0.13612369451191836,
                -0.12280930693987803,
                -0.10707671916574699
            ]
        },
        {
            "positions": [
                -0.01210187346090992,
                -1.321083089654434,
                1.180133012296671,
                0.32304708457819037,
                -0.11229605653431554,
                -0.1030363971273178
            ]
        },
        {
            "positions": [
                -0.01628673256423144,
                -1.2679188423114303,
                1.2845684564990365,
                0.5099704746444622,
                -0.10178280612875307,
                -0.09899607508888861
            ]
        },
        {
            "positions": [
                -0.02047159166755296,
                -1.2147545949684262,
                1.389003900701402,
                0.6968938647107341,
                -0.09126955572319059,
                -0.09495575305045943
            ]
        },
        {
            "positions": [
                -0.024656450770874486,
                -1.1615903476254221,
                1.4934393449037673,
                0.883817254777006,
                -0.08075630531762812,
                -0.09091543101203024
            ]
        },
        {
            "positions": [
                -0.028841309874196003,
                -1.108426100282418,
                1.597874789106133,
                1.0707406448432781,
                -0.07024305491206563,
                -0.08687510897360104
            ]
        },
        {
            "positions": [
                -0.03302616897751753,
                -1.055261852939414,
                1.7023102333084985,
                1.25766403490955,
                -0.05972980450650314,
                -0.08283478693517185
            ]
        },
        {
            "positions": [
                -0.037211028080839044,
                -1.0020976055964101,
                1.8067456775108637,
                1.444587424975822,
                -0.04921655410094068,
                -0.07879446489674267
            ]
        },
        {
            "positions": [
                -0.04139588718416057,
                -0.9489333582534061,
                1.9111811217132293,
                1.6315108150420938,
                -0.038703303695378194,
                -0.07475414285831349
            ]
        },
        {
            "positions": [
                0.01333361542083232,
                -0.8906699589911948,
                1.9362060982910814,
                1.722465316188555,
                -0.06671510704033669,
                -0.038752604105586286
            ]
        },
        {
            "positions": [
                0.06806311802582521,
                -0.8324065597289835,
                1.9612310748689332,
                1.813419817335016,
                -0.09472691038529518,
                -0.002751065352859086
            ]
        },
        {
            "positions": [
                0.1227926206308181,
                -0.7741431604667722,
                1.9862560514467853,
                1.9043743184814772,
                -0.12273871373025369,
                0.03325047339986813
            ]
        }
    ]
}{
    "goal": {
        "global_pose": {
            "orientation": {
                "w": 0.7047431468963623,
                "x": -0.7094548344612122,
                "y": 0.0024358443915843964,
                "z": -0.0022348060738295317
            },
            "position": {
                "x": 0.6094750761985779,
                "y": 0.3671506643295288,
                "z": 0.19426114857196808
            }
        },
        "name": "move_to_magneteinheit_A"
    },
    "id": "EST_move_to_magneteinheit_A_21",
    "joint_names": [
        "shoulder_pan_joint",
        "shoulder_lift_joint",
        "elbow_joint",
        "wrist_1_joint",
        "wrist_2_joint",
        "wrist_3_joint"
    ],
    "metrics": {
        "cart_traj_len": 1.1724323604711087,
        "distance_elbow_joint": 0.14483322173220747,
        "distance_shoulder_lift_joint": 0.7477258786068617,
        "distance_shoulder_pan_joint": 1.240907204837526,
        "distance_wrist_1_joint": 0.7288214189849817,
        "distance_wrist_2_joint": 2.569080633739431,
        "distance_wrist_3_joint": 4.232806485375124,
        "smoothness": 0.3326655197789567,
        "time": 0.223646225,
        "traj_len": 3.1087255979381854,
        "weighted_distance": 4.629005278323929
    },
    "planner": "EST",
    "start": {
        "state": {
            "elbow_joint": 1.919643534880228,
            "shoulder_lift_joint": -1.8972525353963687,
            "shoulder_pan_joint": -1.1188672234189438,
            "wrist_1_joint": -1.5931878212786155,
            "wrist_2_joint": 1.5706036197970081,
            "wrist_3_joint": 1.118896926603594
        }
    },
    "waypoints": [
        {
            "positions": [
                -1.1188672234189438,
                -1.8972525353963687,
                1.919643534880228,
                -1.5931878212786155,
                1.5706036197970081,
                1.118896926603594
            ]
        },
        {
            "positions": [
                -1.064944605177444,
                -1.8738160733703684,
                1.9177656123722104,
                -1.559721189812577,
                1.4703100965130504,
                0.9495503144051379
            ]
        },
        {
            "positions": [
                -1.0110219869359443,
                -1.850379611344368,
                1.9158876898641928,
                -1.5262545583465383,
                1.3700165732290928,
                0.7802037022066819
            ]
        },
        {
            "positions": [
                -0.9570993686944443,
                -1.8269431493183677,
                1.9140097673561751,
                -1.4927879268804998,
                1.2697230499451353,
                0.6108570900082259
            ]
        },
        {
            "positions": [
                -0.9031767504529444,
                -1.8035066872923673,
                1.9121318448481575,
                -1.4593212954144612,
                1.1694295266611776,
                0.4415104778097697
            ]
        },
        {
            "positions": [
                -0.8492541322114446,
                -1.780070225266367,
                1.9102539223401398,
                -1.4258546639484226,
                1.06913600337722,
                0.27216386561131367
            ]
        },
        {
            "positions": [
                -0.7953315139699448,
                -1.7566337632403666,
                1.9083759998321221,
                -1.392388032482384,
                0.9688424800932623,
                0.10281725341285775
            ]
        },
        {
            "positions": [
                -0.741408895728445,
                -1.7331973012143662,
                1.9064980773241045,
                -1.3589214010163455,
                0.8685489568093047,
                -0.0665293587855984
            ]
        },
        {
            "positions": [
                -0.687486277486945,
                -1.7097608391883659,
                1.9046201548160868,
                -1.325454769550307,
                0.768255433525347,
                -0.23587597098405455
            ]
        },
        {
            "positions": [
                -0.6335636592454452,
                -1.6863243771623655,
                1.9027422323080692,
                -1.2919881380842684,
                0.6679619102413893,
                -0.4052225831825107
            ]
        },
        {
            "positions": [
                -0.5796410410039454,
                -1.6628879151363654,
                1.9008643098000515,
                -1.2585215066182298,
                0.5676683869574317,
                -0.5745691953809666
            ]
        },
        {
            "positions": [
                -0.5257184227624455,
                -1.639451453110365,
                1.8989863872920338,
                -1.2250548751521912,
                0.46737486367347403,
                -0.7439158075794228
            ]
        },
        {
            "positions": [
                -0.4717958045209457,
                -1.6160149910843646,
                1.8971084647840162,
                -1.1915882436861527,
                0.36708134038951656,
                -0.9132624197778785
            ]
        },
        {
            "positions": [
                -0.4178731862794459,
                -1.5925785290583643,
                1.8952305422759985,
                -1.1581216122201141,
                0.26678781710555866,
                -1.0826090319763348
            ]
        },
        {
            "positions": [
                -0.3639505680379461,
                -1.569142067032364,
                1.8933526197679809,
                -1.1246549807540758,
                0.1664942938216012,
                -1.2519556441747908
            ]
        },
        {
            "positions": [
                -0.3100279497964462,
                -1.5457056050063636,
                1.8914746972599632,
                -1.091188349288037,
                0.0662007705376435,
                -1.4213022563732471
            ]
        },
        {
            "positions": [
                -0.2561053315549463,
                -1.5222691429803632,
                1.8895967747519455,
                -1.0577217178219986,
                -0.03409275274631418,
                -1.590648868571703
            ]
        },
        {
            "positions": [
                -0.2021827133134465,
                -1.4988326809543628,
                1.8877188522439279,
                -1.0242550863559599,
                -0.13438627603027165,
                -1.759995480770159
            ]
        },
        {
            "positions": [
                -0.1482600950719467,
                -1.4753962189283625,
                1.8858409297359102,
                -0.9907884548899214,
                -0.23467979931422955,
                -1.9293420929686154
            ]
        },
        {
            "positions": [
                -0.0943374768304468,
                -1.4519597569023621,
                1.8839630072278926,
                -0.9573218234238828,
                -0.334973322598187,
                -2.0986887051670706
            ]
        },
        {
            "positions": [
                -0.04041485858894708,
                -1.4285232948763618,
                1.882085084719875,
                -0.9238551919578443,
                -0.4352668458821447,
                -2.268035317365527
            ]
        },
        {
            "positions": [
                -0.013339051921025614,
                -1.3820238551952193,
                1.899964213315184,
                -0.9139403936804759,
                -0.3413984845387652,
                -2.409014357599861
            ]
        },
        {
            "positions": [
                0.013736754746895848,
                -1.3355244155140769,
                1.917843341910493,
                -0.9040255954031075,
                -0.24753012319538564,
                -2.5499933978341947
            ]
        },
        {
            "positions": [
                0.04081256141481731,
                -1.2890249758329344,
                1.935722470505802,
                -0.894110797125739,
                -0.15366176185200608,
                -2.6909724380685285
            ]
        },
        {
            "positions": [
                0.06788836808273876,
                -1.242525536151792,
                1.953601599101111,
                -0.8841959988483706,
                -0.05979340050862658,
                -2.8319514783028623
            ]
        },
        {
            "positions": [
                0.09496417475066024,
                -1.1960260964706495,
                1.9714807276964201,
                -0.8742812005710022,
                0.03407496083475303,
                -2.972930518537196
            ]
        },
        {
            "positions": [
                0.12203998141858169,
                -1.149526656789507,
                1.9893598562917292,
                -0.8643664022936338,
                0.12794332217813256,
                -3.11390955877153
            ]
        }
    ]
}