{
    "goal": {
        "global_pose": {
            "orientation": {
                "w": 0.5084816217422485,
                "x": -0.49083608388900757,
                "y": 0.5182115435600281,
                "z": -0.4816462993621826
            },
            "position": {
                "x": 0.5540239810943604,
                "y": 0.030875300988554955,
                "z": 0.16403168439865112
            }
        },
        "name": "move_to_storage_A"
    },
    "id": "FMT_move_to_storage_A_80",
    "joint_names": [
        "shoulder_pan_joint",
        "shoulder_lift_joint",
        "elbow_joint",
        "wrist_1_joint",
        "wrist_2_joint",
        "wrist_3_joint"
    ],
    "metrics": {
        "cart_traj_len": 0.35323795961441806,
        "distance_elbow_joint": 0.4485534742456663,
        "distance_shoulder_lift_joint": 0.2351213913669863,
        "distance_shoulder_pan_joint": 0.46227419683633436,
        "distance_wrist_1_joint": 0.23712775418862198,
        "distance_wrist_2_joint": 1.0976146296369698,
        "distance_wrist_3_joint": 0.09558229295900311,
        "smoothness": 1.665334528953551e-15,
        "time": 0.372649642,
        "traj_len": 1.605077486987336,
        "weighted_distance": 2.025384089247563
    },
    "planner": "FMT",
    "start": {
        "state": {
            "elbow_joint": 1.9715477243005601,
            "shoulder_lift_joint": -1.1394853015351272,
            "shoulder_pan_joint": 0.12281154014795169,
            "wrist_1_joint": -0.7804696478968182,
            "wrist_2_joint": 0.12958648046900423,
            "wrist_3_joint": -3.192491284697111
        }
    },
    "waypoints": [
        {
            "positions": [
                0.12281154014795169,
                -1.1394853015351272,
                1.9715477243005601,
                -0.7804696478968182,
                0.12958648046900423,
                -3.192491284697111
            ]
        },
        {
            "positions": [
                0.05677236917133249,
                -1.173074071730411,
                2.035626792049941,
                -0.8143450413523355,
                0.2863885704171427,
                -3.178836671417254
            ]
        },
        {
            "positions": [
                -0.009266801805286703,
                -1.2066628419256946,
                2.099705859799322,
                -0.848220434807853,
                0.44319066036528126,
                -3.165182058137396
            ]
        },
        {
            "positions": [
                -0.07530597278190589,
                -1.2402516121209783,
                2.163784927548703,
                -0.8820958282633704,
                0.5999927503134198,
                -3.1515274448575386
            ]
        },
        {
            "positions": [
                -0.14134514375852508,
                -1.273840382316262,
                2.2278639952980837,
                -0.9159712217188879,
                0.7567948402615583,
                -3.1378728315776807
            ]
        },
        {
            "positions": [
                -0.2073843147351443,
                -1.307429152511546,
                2.291943063047465,
                -0.9498466151744053,
                0.9135969302096969,
                -3.1242182182978233
            ]
        },
        {
            "positions": [
                -0.27342348571176345,
                -1.3410179227068297,
                2.3560221307968456,
                -0.9837220086299228,
                1.0703990201578355,
                -3.1105636050179655
            ]
        },
        {
            "positions": [
                -0.33946265668838266,
                -1.3746066929021135,
                2.4201011985462264,
                -1.0175974020854401,
                1.227201110105974,
                -3.096908991738108
            ]
        }
    ]
}