{
    "goal": {
        "global_pose": {
            "orientation": {
                "w": 0.7047431468963623,
                "x": -0.7094548344612122,
                "y": 0.0024358443915843964,
                "z": -0.0022348060738295317
            },
            "position": {
                "x": 0.6094750761985779,
                "y": 0.3671506643295288,
                "z": 0.19426114857196808
            }
        },
        "name": "move_to_magneteinheit_A"
    },
    "id": "FMT_move_to_magneteinheit_A_37",
    "joint_names": [
        "shoulder_pan_joint",
        "shoulder_lift_joint",
        "elbow_joint",
        "wrist_1_joint",
        "wrist_2_joint",
        "wrist_3_joint"
    ],
    "metrics": {
        "cart_traj_len": 3.532250102210206,
        "distance_elbow_joint": 3.8863029388208608,
        "distance_shoulder_lift_joint": 0.10740020578861409,
        "distance_shoulder_pan_joint": 2.577532953073878,
        "distance_wrist_1_joint": 0.7920006027748967,
        "distance_wrist_2_joint": 1.8929421196952312,
        "distance_wrist_3_joint": 2.628932357854138,
        "smoothness": 0.054224279034498744,
        "time": 1.215176195,
        "traj_len": 3.447478959762861,
        "weighted_distance": 4.452855108375528
    },
    "planner": "FMT",
    "start": {
        "state": {
            "elbow_joint": -1.919618573717145,
            "shoulder_lift_joint": -1.2443395971678275,
            "shoulder_pan_joint": 2.6996025300909787,
            "wrist_1_joint": -1.548550951253194,
            "wrist_2_joint": -1.5709469090946802,
            "wrist_3_joint": 0.4420197732051276
        }
    },
    "waypoints": [
        {
            "positions": [
                2.6996025300909787,
                -1.2443395971678275,
                -1.919618573717145,
                -1.548550951253194,
                -1.5709469090946802,
                0.4420197732051276
            ]
        },
        {
            "positions": [
                2.6080058205807775,
                -1.2404747744914224,
                -1.8085019682552814,
                -1.5264800494302782,
                -1.5043603808084143,
                0.5374750147241065
            ]
        },
        {
            "positions": [
                2.516409111070576,
                -1.2366099518150173,
                -1.697385362793418,
                -1.5044091476073624,
                -1.4377738525221484,
                0.6329302562430854
            ]
        },
        {
            "positions": [
                2.4248124015603754,
                -1.2327451291386122,
                -1.5862687573315544,
                -1.4823382457844465,
                -1.3711873242358827,
                0.7283854977620643
            ]
        },
        {
            "positions": [
                2.333215692050174,
                -1.228880306462207,
                -1.475152151869691,
                -1.4602673439615306,
                -1.3046007959496169,
                0.8238407392810433
            ]
        },
        {
            "positions": [
                2.241618982539973,
                -1.2250154837858018,
                -1.3640355464078273,
                -1.4381964421386146,
                -1.2380142676633512,
                0.9192959808000223
            ]
        },
        {
            "positions": [
                2.1500222730297716,
                -1.2211506611093967,
                -1.252918940945964,
                -1.416125540315699,
                -1.1714277393770853,
                1.0147512223190012
            ]
        },
        {
            "positions": [
                2.0584255635195703,
                -1.2172858384329917,
                -1.1418023354841005,
                -1.394054638492783,
                -1.1048412110908195,
                1.11020646383798
            ]
        },
        {
            "positions": [
                1.966828854009369,
                -1.2134210157565866,
                -1.030685730022237,
                -1.371983736669867,
                -1.0382546828045536,
                1.205661705356959
            ]
        },
        {
            "positions": [
                1.875232144499168,
                -1.2095561930801815,
                -0.9195691245603734,
                -1.3499128348469511,
                -0.9716681545182878,
                1.301116946875938
            ]
        },
        {
            "positions": [
                1.7836354349889667,
                -1.2056913704037764,
                -0.8084525190985099,
                -1.3278419330240354,
                -0.905081626232022,
                1.396572188394917
            ]
        },
        {
            "positions": [
                1.6920387254787657,
                -1.201826547727371,
                -0.6973359136366466,
                -1.3057710312011195,
                -0.8384950979457562,
                1.4920274299138958
            ]
        },
        {
            "positions": [
                1.6004420159685644,
                -1.197961725050966,
                -0.5862193081747831,
                -1.2837001293782035,
                -0.7719085696594904,
                1.5874826714328747
            ]
        },
        {
            "positions": [
                1.5088453064583631,
                -1.194096902374561,
                -0.47510270271291954,
                -1.2616292275552876,
                -0.7053220413732245,
                1.6829379129518538
            ]
        },
        {
            "positions": [
                1.4172485969481619,
                -1.1902320796981558,
                -0.363986097251056,
                -1.239558325732372,
                -0.6387355130869588,
                1.7783931544708327
            ]
        },
        {
            "positions": [
                1.3256518874379606,
                -1.1863672570217507,
                -0.25286949178919227,
                -1.217487423909456,
                -0.5721489848006928,
                1.8738483959898118
            ]
        },
        {
            "positions": [
                1.2340551779277595,
                -1.1825024343453456,
                -0.14175288632732896,
                -1.19541652208654,
                -0.505562456514427,
                1.9693036375087904
            ]
        },
        {
            "positions": [
                1.1424584684175583,
                -1.1786376116689405,
                -0.030636280865465437,
                -1.173345620263624,
                -0.4389759282281611,
                2.0647588790277696
            ]
        },
        {
            "positions": [
                1.0508617589073572,
                -1.1747727889925352,
                0.08048032459639809,
                -1.1512747184407084,
                -0.37238939994189546,
                2.1602141205467484
            ]
        },
        {
            "positions": [
                0.9592650493971557,
                -1.1709079663161301,
                0.19159693005826184,
                -1.1292038166177925,
                -0.3058028716556296,
                2.2556693620657273
            ]
        },
        {
            "positions": [
                0.8676683398869547,
                -1.167043143639725,
                0.30271353552012514,
                -1.1071329147948765,
                -0.23921634336936393,
                2.351124603584706
            ]
        },
        {
            "positions": [
                0.7760716303767534,
                -1.16317832096332,
                0.41383014098198845,
                -1.0850620129719606,
                -0.17262981508309783,
                2.446579845103685
            ]
        },
        {
            "positions": [
                0.6844749208665526,
                -1.1593134982869149,
                0.5249467464438518,
                -1.0629911111490449,
                -0.10604328679683217,
                2.542035086622664
            ]
        },
        {
            "positions": [
                0.5928782113563509,
                -1.1554486756105098,
                0.6360633519057155,
                -1.040920209326129,
                -0.03945675851056629,
                2.6374903281416433
            ]
        },
        {
            "positions": [
                0.5012815018461501,
                -1.1515838529341045,
                0.7471799573675788,
                -1.018849307503213,
                0.027129769775699364,
                2.7329455696606217
            ]
        },
        {
            "positions": [
                0.4096847923359488,
                -1.1477190302576994,
                0.8582965628294426,
                -0.9967784056802972,
                0.09371629806196546,
                2.828400811179601
            ]
        },
        {
            "positions": [
                0.3180880828257475,
                -1.1438542075812943,
                0.9694131682913059,
                -0.9747075038573814,
                0.16030282634823112,
                2.92385605269858
            ]
        },
        {
            "positions": [
                0.22649137331554636,
                -1.1399893849048892,
                1.0805297737531696,
                -0.9526366020344654,
                0.226889354634497,
                3.019311294217559
            ]
        },
        {
            "positions": [
                0.1959620545360524,
                -1.1392453379309377,
                1.283755043799341,
                -0.9086922408750461,
                0.20818614823881304,
                3.036168280944425
            ]
        },
        {
            "positions": [
                0.16543273575655842,
                -1.1385012909569863,
                1.4869803138455122,
                -0.8647478797156266,
                0.1894829418431291,
                3.0530252676712912
            ]
        },
        {
            "positions": [
                0.13490341697706446,
                -1.1377572439830348,
                1.6902055838916836,
                -0.8208035185562073,
                0.17077973544744515,
                3.0698822543981574
            ]
        },
        {
            "positions": [
                0.12206957701710076,
                -1.1369393913792134,
                1.9666843651037158,
                -0.7565503484782974,
                0.1317834986684431,
                3.070952131059266
            ]
        }
    ]
}{
    "goal": {
        "global_pose": {
            "orientation": {
                "w": 0.7047431468963623,
                "x": -0.7094548344612122,
                "y": 0.0024358443915843964,
                "z": -0.0022348060738295317
            },
            "position": {
                "x": 0.6094750761985779,
                "y": 0.3671506643295288,
                "z": 0.19426114857196808
            }
        },
        "name": "move_to_magneteinheit_A"
    },
    "id": "FMT_move_to_magneteinheit_A_37",
    "joint_names": [
        "shoulder_pan_joint",
        "shoulder_lift_joint",
        "elbow_joint",
        "wrist_1_joint",
        "wrist_2_joint",
        "wrist_3_joint"
    ],
    "metrics": {
        "cart_traj_len": 1.191304529643612,
        "distance_elbow_joint": 0.05216163277091024,
        "distance_shoulder_lift_joint": 0.7644038201267396,
        "distance_shoulder_pan_joint": 1.2420343276219736,
        "distance_wrist_1_joint": 1.236780913235045,
        "distance_wrist_2_joint": 1.4836182166024956,
        "distance_wrist_3_joint": 4.359882705483772,
        "smoothness": 0.14720033367909763,
        "time": 1.111526821,
        "traj_len": 3.023058321607596,
        "weighted_distance": 4.53641335822101
    },
    "planner": "FMT",
    "start": {
        "state": {
            "elbow_joint": 1.919643534880228,
            "shoulder_lift_joint": -1.8972525353963687,
            "shoulder_pan_joint": -1.1188672234189438,
            "wrist_1_joint": -1.5931878212786155,
            "wrist_2_joint": 1.5706036197970081,
            "wrist_3_joint": 1.118896926603594
        }
    },
    "waypoints": [
        {
            "positions": [
                -1.1188672234189438,
                -1.8972525353963687,
                1.919643534880228,
                -1.5931878212786155,
                1.5706036197970081,
                1.118896926603594
            ]
        },
        {
            "positions": [
                -1.0667019329798824,
                -1.8638650848096097,
                1.9192697388330635,
                -1.5375135123796764,
                1.4937098635166257,
                0.9441466922043893
            ]
        },
        {
            "positions": [
                -1.0145366425408209,
                -1.8304776342228504,
                1.918895942785899,
                -1.4818392034807375,
                1.4168161072362435,
                0.7693964578051846
            ]
        },
        {
            "positions": [
                -0.9623713521017595,
                -1.7970901836360913,
                1.9185221467387343,
                -1.4261648945817984,
                1.339922350955861,
                0.59464622340598
            ]
        },
        {
            "positions": [
                -0.9102060616626981,
                -1.7637027330493322,
                1.9181483506915697,
                -1.3704905856828595,
                1.263028594675479,
                0.41989598900677527
            ]
        },
        {
            "positions": [
                -0.8580407712236366,
                -1.7303152824625732,
                1.9177745546444052,
                -1.3148162767839204,
                1.1861348383950965,
                0.2451457546075706
            ]
        },
        {
            "positions": [
                -0.8058754807845752,
                -1.696927831875814,
                1.9174007585972406,
                -1.2591419678849816,
                1.1092410821147143,
                0.07039552020836592
            ]
        },
        {
            "positions": [
                -0.7537101903455138,
                -1.6635403812890548,
                1.917026962550076,
                -1.2034676589860425,
                1.0323473258343319,
                -0.10435471419083875
            ]
        },
        {
            "positions": [
                -0.7015448999064524,
                -1.6301529307022957,
                1.9166531665029114,
                -1.1477933500871034,
                0.9554535695539496,
                -0.2791049485900434
            ]
        },
        {
            "positions": [
                -0.6493796094673909,
                -1.5967654801155367,
                1.9162793704557468,
                -1.0921190411881645,
                0.8785598132735672,
                -0.4538551829892481
            ]
        },
        {
            "positions": [
                -0.5972143190283294,
                -1.5633780295287774,
                1.9159055744085824,
                -1.0364447322892256,
                0.8016660569931849,
                -0.6286054173884528
            ]
        },
        {
            "positions": [
                -0.545049028589268,
                -1.5299905789420183,
                1.9155317783614179,
                -0.9807704233902864,
                0.7247723007128025,
                -0.8033556517876577
            ]
        },
        {
            "positions": [
                -0.4928837381502066,
                -1.4966031283552592,
                1.9151579823142533,
                -0.9250961144913474,
                0.6478785444324203,
                -0.9781058861868621
            ]
        },
        {
            "positions": [
                -0.4407184477111451,
                -1.4632156777685,
                1.9147841862670887,
                -0.8694218055924084,
                0.5709847881520379,
                -1.152856120586067
            ]
        },
        {
            "positions": [
                -0.3885531572720837,
                -1.429828227181741,
                1.914410390219924,
                -0.8137474966934695,
                0.4940910318716556,
                -1.3276063549852715
            ]
        },
        {
            "positions": [
                -0.33638786683302224,
                -1.3964407765949818,
                1.9140365941727595,
                -0.7580731877945305,
                0.4171972755912732,
                -1.5023565893844764
            ]
        },
        {
            "positions": [
                -0.28422257639396087,
                -1.3630533260082227,
                1.913662798125595,
                -0.7023988788955915,
                0.340303519310891,
                -1.6771068237836808
            ]
        },
        {
            "positions": [
                -0.23205728595489938,
                -1.3296658754214636,
                1.9132890020784303,
                -0.6467245699966524,
                0.26340976303050856,
                -1.8518570581828857
            ]
        },
        {
            "positions": [
                -0.179891995515838,
                -1.2962784248347043,
                1.9129152060312657,
                -0.5910502610977135,
                0.18651600675012636,
                -2.0266072925820904
            ]
        },
        {
            "positions": [
                -0.12772670507677653,
                -1.2628909742479453,
                1.9125414099841012,
                -0.5353759521987745,
                0.10962225046974386,
                -2.201357526981295
            ]
        },
        {
            "positions": [
                -0.0775479432208152,
                -1.2368825224522821,
                1.9215533115590577,
                -0.5711697610298152,
                0.1141496199247902,
                -2.4092831773610714
            ]
        },
        {
            "positions": [
                -0.027369181364853862,
                -1.2108740706566188,
                1.9305652131340145,
                -0.6069635698608559,
                0.11867698937983652,
                -2.617208827740848
            ]
        },
        {
            "positions": [
                0.022809580491107456,
                -1.1848656188609556,
                1.939577114708971,
                -0.6427573786918966,
                0.12320435883488286,
                -2.825134478120625
            ]
        },
        {
            "positions": [
                0.0729883423470688,
                -1.1588571670652923,
                1.9485890162839279,
                -0.6785511875229373,
                0.12773172828992918,
                -3.0330601285004017
            ]
        },
        {
            "positions": [
                0.12316710420303013,
                -1.1328487152696292,
                1.9576009178588845,
                -0.714344996353978,
                0.13225909774497552,
                -3.2409857788801784
            ]
        }
    ]
}