{
    "goal": {
        "global_pose": {
            "orientation": {
                "w": 0.5084816217422485,
                "x": -0.49083608388900757,
                "y": 0.5182115435600281,
                "z": -0.4816462993621826
            },
            "position": {
                "x": 0.5540239810943604,
                "y": 0.030875300988554955,
                "z": 0.16403168439865112
            }
        },
        "name": "move_to_storage_A"
    },
    "id": "FMT_move_to_storage_A_74",
    "joint_names": [
        "shoulder_pan_joint",
        "shoulder_lift_joint",
        "elbow_joint",
        "wrist_1_joint",
        "wrist_2_joint",
        "wrist_3_joint"
    ],
    "metrics": {
        "cart_traj_len": 0.3523868784647301,
        "distance_elbow_joint": 0.44836010792100867,
        "distance_shoulder_lift_joint": 0.23466296930456654,
        "distance_shoulder_pan_joint": 0.4613222471563337,
        "distance_wrist_1_joint": 0.23754831598959159,
        "distance_wrist_2_joint": 1.0950199133269827,
        "distance_wrist_3_joint": 0.09552738068638256,
        "smoothness": 1.3322676330666221e-15,
        "time": 0.483520292,
        "traj_len": 1.6038830800232495,
        "weighted_distance": 2.0238734953238073
    },
    "planner": "FMT",
    "start": {
        "state": {
            "elbow_joint": 1.9715477243005601,
            "shoulder_lift_joint": -1.1394853015351272,
            "shoulder_pan_joint": 0.12281154014795169,
            "wrist_1_joint": -0.7804696478968182,
            "wrist_2_joint": 0.12958648046900423,
            "wrist_3_joint": -3.192491284697111
        }
    },
    "waypoints": [
        {
            "positions": [
                0.12281154014795169,
                -1.1394853015351272,
                1.9715477243005601,
                -0.7804696478968182,
                0.12958648046900423,
                -3.192491284697111
            ]
        },
        {
            "positions": [
                0.05690836198276117,
                -1.173008582864351,
                2.035599168289276,
                -0.814405121609617,
                0.28601789665857313,
                -3.178844516027628
            ]
        },
        {
            "positions": [
                -0.008994816182429352,
                -1.2065318641935747,
                2.099650612277991,
                -0.8483405953224158,
                0.4424493128481421,
                -3.1651977473581447
            ]
        },
        {
            "positions": [
                -0.07489799434761989,
                -1.2400551455227986,
                2.1637020562667066,
                -0.8822760690352145,
                0.5988807290377111,
                -3.1515509786886615
            ]
        },
        {
            "positions": [
                -0.14080117251281038,
                -1.2735784268520223,
                2.2277535002554223,
                -0.9162115427480133,
                0.75531214522728,
                -3.1379042100191783
            ]
        },
        {
            "positions": [
                -0.20670435067800091,
                -1.3071017081812462,
                2.291804944244138,
                -0.9501470164608121,
                0.911743561416849,
                -3.124257441349695
            ]
        },
        {
            "positions": [
                -0.27260752884319145,
                -1.3406249895104698,
                2.355856388232853,
                -0.9840824901736109,
                1.068174977606418,
                -3.110610672680212
            ]
        },
        {
            "positions": [
                -0.338510707008382,
                -1.3741482708396937,
                2.419907832221569,
                -1.0180179638864097,
                1.224606393795987,
                -3.0969639040107286
            ]
        }
    ]
}