{
    "goal": {
        "global_pose": {
            "orientation": {
                "w": 0.5084816217422485,
                "x": -0.49083608388900757,
                "y": 0.5182115435600281,
                "z": -0.4816462993621826
            },
            "position": {
                "x": 0.5540239810943604,
                "y": 0.030875300988554955,
                "z": 0.16403168439865112
            }
        },
        "name": "move_to_storage_A"
    },
    "id": "FMT_move_to_storage_A_142",
    "joint_names": [
        "shoulder_pan_joint",
        "shoulder_lift_joint",
        "elbow_joint",
        "wrist_1_joint",
        "wrist_2_joint",
        "wrist_3_joint"
    ],
    "metrics": {
        "cart_traj_len": 0.3535057078789321,
        "distance_elbow_joint": 0.4466479283327405,
        "distance_shoulder_lift_joint": 0.2349157099775001,
        "distance_shoulder_pan_joint": 0.4598621536354222,
        "distance_wrist_1_joint": 0.23255080263884886,
        "distance_wrist_2_joint": 1.109434723643854,
        "distance_wrist_3_joint": 0.08787254101370046,
        "smoothness": 4.440892133664971e-16,
        "time": 0.48241807600000003,
        "traj_len": 1.6035223288878975,
        "weighted_distance": 2.0221311697197515
    },
    "planner": "FMT",
    "start": {
        "state": {
            "elbow_joint": 1.9715477243005601,
            "shoulder_lift_joint": -1.1394853015351272,
            "shoulder_pan_joint": 0.12281154014795169,
            "wrist_1_joint": -0.7804696478968182,
            "wrist_2_joint": 0.12958648046900423,
            "wrist_3_joint": -3.192491284697111
        }
    },
    "waypoints": [
        {
            "positions": [
                0.12281154014795169,
                -1.1394853015351272,
                1.9715477243005601,
                -0.7804696478968182,
                0.12958648046900423,
                -3.192491284697111
            ]
        },
        {
            "positions": [
                0.05711694677146281,
                -1.17304468867477,
                2.035354571205237,
                -0.8136911911309395,
                0.2880771552752691,
                -3.1799380645522968
            ]
        },
        {
            "positions": [
                -0.008577646605026065,
                -1.206604075814413,
                2.0991614181099147,
                -0.8469127343650606,
                0.44656783008153395,
                -3.1673848444074824
            ]
        },
        {
            "positions": [
                -0.07427223998151496,
                -1.2401634629540559,
                2.162968265014592,
                -0.880134277599182,
                0.6050585048877988,
                -3.154831624262668
            ]
        },
        {
            "positions": [
                -0.1399668333580038,
                -1.2737228500936986,
                2.226775111919269,
                -0.9133558208333032,
                0.7635491796940637,
                -3.142278404117854
            ]
        },
        {
            "positions": [
                -0.20566142673449272,
                -1.3072822372333415,
                2.290581958823946,
                -0.9465773640674244,
                0.9220398545003285,
                -3.1297251839730396
            ]
        },
        {
            "positions": [
                -0.2713560201109816,
                -1.3408416243729844,
                2.3543888057286235,
                -0.9797989073015457,
                1.0805305293065932,
                -3.117171963828225
            ]
        },
        {
            "positions": [
                -0.3370506134874705,
                -1.3744010115126273,
                2.4181956526333006,
                -1.013020450535667,
                1.2390212041128583,
                -3.1046187436834107
            ]
        }
    ]
}