{
    "goal": {
        "global_pose": {
            "orientation": {
                "w": 0.5084816217422485,
                "x": -0.49083608388900757,
                "y": 0.5182115435600281,
                "z": -0.4816462993621826
            },
            "position": {
                "x": 0.5540239810943604,
                "y": 0.030875300988554955,
                "z": 0.16403168439865112
            }
        },
        "name": "move_to_storage_A"
    },
    "id": "FMT_move_to_storage_A_117",
    "joint_names": [
        "shoulder_pan_joint",
        "shoulder_lift_joint",
        "elbow_joint",
        "wrist_1_joint",
        "wrist_2_joint",
        "wrist_3_joint"
    ],
    "metrics": {
        "cart_traj_len": 0.3539027668515269,
        "distance_elbow_joint": 0.4518483878568209,
        "distance_shoulder_lift_joint": 0.2351241944181237,
        "distance_shoulder_pan_joint": 0.4648754571530003,
        "distance_wrist_1_joint": 0.24798800280314393,
        "distance_wrist_2_joint": 1.0920205945164572,
        "distance_wrist_3_joint": 0.09091499160997474,
        "smoothness": 1.3322676295501878e-15,
        "time": 0.373049507,
        "traj_len": 1.6071003790546254,
        "weighted_distance": 2.025983763236288
    },
    "planner": "FMT",
    "start": {
        "state": {
            "elbow_joint": 1.9715477243005601,
            "shoulder_lift_joint": -1.1394853015351272,
            "shoulder_pan_joint": 0.12281154014795169,
            "wrist_1_joint": -0.7804696478968182,
            "wrist_2_joint": 0.12958648046900423,
            "wrist_3_joint": -3.192491284697111
        }
    },
    "waypoints": [
        {
            "positions": [
                0.12281154014795169,
                -1.1394853015351272,
                1.9715477243005601,
                -0.7804696478968182,
                0.12958648046900423,
                -3.192491284697111
            ]
        },
        {
            "positions": [
                0.05640076055466593,
                -1.1730744721662878,
                2.036097493994392,
                -0.8158965054401245,
                0.28558942254278386,
                -3.179503428752829
            ]
        },
        {
            "positions": [
                -0.010010019038619825,
                -1.2066636427974482,
                2.100647263688223,
                -0.8513233629834307,
                0.4415923646165634,
                -3.166515572808547
            ]
        },
        {
            "positions": [
                -0.07642079863190558,
                -1.2402528134286088,
                2.165197033382055,
                -0.886750220526737,
                0.597595306690343,
                -3.153527716864265
            ]
        },
        {
            "positions": [
                -0.14283157822519132,
                -1.2738419840597692,
                2.2297468030758862,
                -0.9221770780700432,
                0.7535982487641226,
                -3.140539860919983
            ]
        },
        {
            "positions": [
                -0.2092423578184771,
                -1.3074311546909299,
                2.294296572769718,
                -0.9576039356133496,
                0.9096011908379023,
                -3.127552004975701
            ]
        },
        {
            "positions": [
                -0.27565313741176284,
                -1.3410203253220903,
                2.3588463424635493,
                -0.9930307931566558,
                1.0656041329116817,
                -3.1145641490314184
            ]
        },
        {
            "positions": [
                -0.3420639170050486,
                -1.3746094959532509,
                2.423396112157381,
                -1.028457650699962,
                1.2216070749854615,
                -3.1015762930871364
            ]
        }
    ]
}