{
    "goal": {
        "global_pose": {
            "orientation": {
                "w": 0.7047431468963623,
                "x": -0.7094548344612122,
                "y": 0.0024358443915843964,
                "z": -0.0022348060738295317
            },
            "position": {
                "x": 0.6094750761985779,
                "y": 0.3671506643295288,
                "z": 0.19426114857196808
            }
        },
        "name": "move_to_magneteinheit_A"
    },
    "id": "FMT_move_to_magneteinheit_A_108",
    "joint_names": [
        "shoulder_pan_joint",
        "shoulder_lift_joint",
        "elbow_joint",
        "wrist_1_joint",
        "wrist_2_joint",
        "wrist_3_joint"
    ],
    "metrics": {
        "cart_traj_len": 3.838076320833898,
        "distance_elbow_joint": 3.9071705559489924,
        "distance_shoulder_lift_joint": 0.7206963254789169,
        "distance_shoulder_pan_joint": 2.7251792772310925,
        "distance_wrist_1_joint": 0.7001655482047638,
        "distance_wrist_2_joint": 2.159167280784898,
        "distance_wrist_3_joint": 4.1210336737186815,
        "smoothness": 0.2976901126642317,
        "time": 1.224970916,
        "traj_len": 3.7859493738516035,
        "weighted_distance": 5.043293848051525
    },
    "planner": "FMT",
    "start": {
        "state": {
            "elbow_joint": -1.919618573717145,
            "shoulder_lift_joint": -1.2443395971678275,
            "shoulder_pan_joint": 2.6996025300909787,
            "wrist_1_joint": -1.548550951253194,
            "wrist_2_joint": -1.5709469090946802,
            "wrist_3_joint": 0.4420197732051276
        }
    },
    "waypoints": [
        {
            "positions": [
                2.6996025300909787,
                -1.2443395971678275,
                -1.919618573717145,
                -1.548550951253194,
                -1.5709469090946802,
                0.4420197732051276
            ]
        },
        {
            "positions": [
                2.6043018985992528,
                -1.2305416039243695,
                -1.8178347467091978,
                -1.5455751387664198,
                -1.5301616258414368,
                0.31626337146009614
            ]
        },
        {
            "positions": [
                2.509001267107527,
                -1.2167436106809115,
                -1.7160509197012503,
                -1.5425993262796454,
                -1.4893763425881932,
                0.1905069697150647
            ]
        },
        {
            "positions": [
                2.4137006356158004,
                -1.2029456174374538,
                -1.6142670926933032,
                -1.539623513792871,
                -1.4485910593349498,
                0.0647505679700332
            ]
        },
        {
            "positions": [
                2.3184000041240744,
                -1.1891476241939958,
                -1.512483265685356,
                -1.5366477013060966,
                -1.4078057760817064,
                -0.061005833774998186
            ]
        },
        {
            "positions": [
                2.2230993726323485,
                -1.1753496309505378,
                -1.4106994386774085,
                -1.5336718888193224,
                -1.367020492828463,
                -0.18676223552002974
            ]
        },
        {
            "positions": [
                2.1277987411406225,
                -1.1615516377070798,
                -1.3089156116694614,
                -1.530696076332548,
                -1.3262352095752195,
                -0.3125186372650612
            ]
        },
        {
            "positions": [
                2.0324981096488965,
                -1.147753644463622,
                -1.207131784661514,
                -1.5277202638457736,
                -1.285449926321976,
                -0.43827503901009274
            ]
        },
        {
            "positions": [
                1.9371974781571706,
                -1.133955651220164,
                -1.1053479576535667,
                -1.5247444513589992,
                -1.2446646430687327,
                -0.5640314407551239
            ]
        },
        {
            "positions": [
                1.8418968466654444,
                -1.120157657976706,
                -1.0035641306456196,
                -1.521768638872225,
                -1.203879359815489,
                -0.6897878425001556
            ]
        },
        {
            "positions": [
                1.7465962151737182,
                -1.106359664733248,
                -0.9017803036376721,
                -1.5187928263854504,
                -1.1630940765622457,
                -0.815544244245187
            ]
        },
        {
            "positions": [
                1.6512955836819925,
                -1.0925616714897903,
                -0.7999964766297252,
                -1.5158170138986762,
                -1.1223087933090024,
                -0.9413006459902185
            ]
        },
        {
            "positions": [
                1.5559949521902663,
                -1.0787636782463323,
                -0.6982126496217778,
                -1.5128412014119017,
                -1.0815235100557588,
                -1.06705704773525
            ]
        },
        {
            "positions": [
                1.4606943206985403,
                -1.0649656850028744,
                -0.5964288226138306,
                -1.5098653889251274,
                -1.0407382268025156,
                -1.1928134494802813
            ]
        },
        {
            "positions": [
                1.3653936892068141,
                -1.0511676917594164,
                -0.49464499560588315,
                -1.5068895764383532,
                -0.999952943549272,
                -1.318569851225313
            ]
        },
        {
            "positions": [
                1.2700930577150882,
                -1.0373696985159584,
                -0.39286116859793596,
                -1.5039137639515787,
                -0.9591676602960285,
                -1.4443262529703442
            ]
        },
        {
            "positions": [
                1.1747924262233622,
                -1.0235717052725006,
                -0.29107734158998877,
                -1.5009379514648045,
                -0.9183823770427851,
                -1.5700826547153754
            ]
        },
        {
            "positions": [
                1.079491794731636,
                -1.0097737120290426,
                -0.18929351458204136,
                -1.49796213897803,
                -0.8775970937895416,
                -1.6958390564604073
            ]
        },
        {
            "positions": [
                0.9841911632399101,
                -0.9959757187855847,
                -0.08750968757409416,
                -1.4949863264912557,
                -0.8368118105362983,
                -1.8215954582054388
            ]
        },
        {
            "positions": [
                0.8888905317481841,
                -0.9821777255421268,
                0.014274139433853028,
                -1.4920105140044813,
                -0.7960265272830548,
                -1.9473518599504702
            ]
        },
        {
            "positions": [
                0.7935899002564579,
                -0.9683797322986688,
                0.11605796644180066,
                -1.489034701517707,
                -0.7552412440298113,
                -2.0731082616955017
            ]
        },
        {
            "positions": [
                0.6982892687647322,
                -0.9545817390552109,
                0.2178417934497474,
                -1.4860588890309325,
                -0.7144559607765679,
                -2.198864663440533
            ]
        },
        {
            "positions": [
                0.6029886372730062,
                -0.940783745811753,
                0.3196256204576946,
                -1.4830830765441583,
                -0.6736706775233244,
                -2.3246210651855646
            ]
        },
        {
            "positions": [
                0.5076880057812798,
                -0.926985752568295,
                0.42140944746564224,
                -1.4801072640573838,
                -0.632885394270081,
                -2.450377466930596
            ]
        },
        {
            "positions": [
                0.41238737428955385,
                -0.9131877593248371,
                0.5231932744735897,
                -1.4771314515706095,
                -0.5921001110168376,
                -2.5761338686756274
            ]
        },
        {
            "positions": [
                0.37205318066998,
                -0.904564408795422,
                0.6337388166024082,
                -1.4471039313139828,
                -0.48596830500833865,
                -2.667811314932991
            ]
        },
        {
            "positions": [
                0.33171898705040614,
                -0.8959410582660069,
                0.7442843587312267,
                -1.417076411057356,
                -0.37983649899983973,
                -2.7594887611903554
            ]
        },
        {
            "positions": [
                0.29138479343083235,
                -0.8873177077365918,
                0.8548299008600453,
                -1.3870488908007292,
                -0.27370469299134087,
                -2.851166207447719
            ]
        },
        {
            "positions": [
                0.25105059981125843,
                -0.8786943572071767,
                0.9653754429888638,
                -1.3570213705441023,
                -0.16757288698284195,
                -2.9428436537050833
            ]
        },
        {
            "positions": [
                0.2107164061916846,
                -0.8700710066777615,
                1.0759209851176825,
                -1.3269938502874756,
                -0.061441080974342976,
                -3.034521099962447
            ]
        },
        {
            "positions": [
                0.17038221257211078,
                -0.8614476561483464,
                1.186466527246501,
                -1.2969663300308487,
                0.04469072503415583,
                -3.126198546219811
            ]
        },
        {
            "positions": [
                0.13004801895253693,
                -0.8528243056189313,
                1.2970120693753193,
                -1.266938809774222,
                0.15082253104265475,
                -3.217875992477175
            ]
        },
        {
            "positions": [
                0.08971382533296307,
                -0.8442009550895162,
                1.407557611504138,
                -1.2369112895175953,
                0.25695433705115367,
                -3.3095534387345387
            ]
        },
        {
            "positions": [
                0.049379631713389216,
                -0.8355776045601011,
                1.5181031536329566,
                -1.2068837692609684,
                0.36308614305965264,
                -3.401230884991903
            ]
        },
        {
            "positions": [
                0.06437090748408976,
                -0.8979644711343392,
                1.611992919352735,
                -1.1351840960184607,
                0.31805929733353966,
                -3.3456742818875727
            ]
        },
        {
            "positions": [
                0.0793621832547903,
                -0.9603513377085773,
                1.7058826850725133,
                -1.0634844227759532,
                0.2730324516074266,
                -3.2901176787832425
            ]
        },
        {
            "positions": [
                0.09435345902549086,
                -1.0227382042828155,
                1.7997724507922919,
                -0.9917847495334455,
                0.22800560588131363,
                -3.2345610756789127
            ]
        },
        {
            "positions": [
                0.1093447347961914,
                -1.0851250708570537,
                1.8936622165120702,
                -0.9200850762909378,
                0.18297876015520062,
                -3.1790044725745825
            ]
        },
        {
            "positions": [
                0.12433601056689195,
                -1.1475119374312917,
                1.9875519822318486,
                -0.8483854030484302,
                0.13795191442908764,
                -3.1234478694702523
            ]
        }
    ]
}{
    "goal": {
        "global_pose": {
            "orientation": {
                "w": 0.7047431468963623,
                "x": -0.7094548344612122,
                "y": 0.0024358443915843964,
                "z": -0.0022348060738295317
            },
            "position": {
                "x": 0.6094750761985779,
                "y": 0.3671506643295288,
                "z": 0.19426114857196808
            }
        },
        "name": "move_to_magneteinheit_A"
    },
    "id": "FMT_move_to_magneteinheit_A_108",
    "joint_names": [
        "shoulder_pan_joint",
        "shoulder_lift_joint",
        "elbow_joint",
        "wrist_1_joint",
        "wrist_2_joint",
        "wrist_3_joint"
    ],
    "metrics": {
        "cart_traj_len": 1.1799134609219752,
        "distance_elbow_joint": 0.06910724066748175,
        "distance_shoulder_lift_joint": 0.7487864758316103,
        "distance_shoulder_pan_joint": 1.2412528709729533,
        "distance_wrist_1_joint": 0.743412308275305,
        "distance_wrist_2_joint": 1.4395440013839578,
        "distance_wrist_3_joint": 4.244072824489584,
        "smoothness": 2.703151722643029e-16,
        "time": 1.101792242,
        "traj_len": 2.9131041384785563,
        "weighted_distance": 4.376902749691765
    },
    "planner": "FMT",
    "start": {
        "state": {
            "elbow_joint": 1.919643534880228,
            "shoulder_lift_joint": -1.8972525353963687,
            "shoulder_pan_joint": -1.1188672234189438,
            "wrist_1_joint": -1.5931878212786155,
            "wrist_2_joint": 1.5706036197970081,
            "wrist_3_joint": 1.118896926603594
        }
    },
    "waypoints": [
        {
            "positions": [
                -1.1188672234189438,
                -1.8972525353963687,
                1.919643534880228,
                -1.5931878212786155,
                1.5706036197970081,
                1.118896926603594
            ]
        },
        {
            "positions": [
                -1.068836724470568,
                -1.8675817273885083,
                1.9225349164664163,
                -1.5594338318036531,
                1.4996688121681623,
                0.9207872060595492
            ]
        },
        {
            "positions": [
                -1.0188062255221921,
                -1.8379109193806478,
                1.9254262980526047,
                -1.5256798423286908,
                1.4287340045393164,
                0.7226774855155045
            ]
        },
        {
            "positions": [
                -0.9687757265738164,
                -1.8082401113727873,
                1.9283176796387929,
                -1.4919258528537285,
                1.3577991969104706,
                0.5245677649714597
            ]
        },
        {
            "positions": [
                -0.9187452276254406,
                -1.7785693033649268,
                1.931209061224981,
                -1.4581718633787661,
                1.2868643892816245,
                0.326458044427415
            ]
        },
        {
            "positions": [
                -0.8687147286770649,
                -1.7488984953570663,
                1.9341004428111692,
                -1.424417873903804,
                1.2159295816527786,
                0.12834832388337025
            ]
        },
        {
            "positions": [
                -0.818684229728689,
                -1.7192276873492058,
                1.9369918243973574,
                -1.3906638844288417,
                1.1449947740239328,
                -0.06976139666067449
            ]
        },
        {
            "positions": [
                -0.7686537307803132,
                -1.6895568793413454,
                1.9398832059835458,
                -1.3569098949538794,
                1.074059966395087,
                -0.26787111720471923
            ]
        },
        {
            "positions": [
                -0.7186232318319374,
                -1.6598860713334846,
                1.942774587569734,
                -1.323155905478917,
                1.0031251587662409,
                -0.465980837748764
            ]
        },
        {
            "positions": [
                -0.6685927328835617,
                -1.6302152633256242,
                1.9456659691559222,
                -1.2894019160039547,
                0.9321903511373951,
                -0.6640905582928087
            ]
        },
        {
            "positions": [
                -0.6185622339351858,
                -1.6005444553177637,
                1.9485573507421106,
                -1.2556479265289924,
                0.8612555435085493,
                -0.8622002788368535
            ]
        },
        {
            "positions": [
                -0.56853173498681,
                -1.5708736473099032,
                1.9514487323282987,
                -1.22189393705403,
                0.7903207358797033,
                -1.0603099993808984
            ]
        },
        {
            "positions": [
                -0.5185012360384342,
                -1.5412028393020427,
                1.954340113914487,
                -1.1881399475790677,
                0.7193859282508576,
                -1.258419719924943
            ]
        },
        {
            "positions": [
                -0.4684707370900584,
                -1.5115320312941822,
                1.957231495500675,
                -1.1543859581041054,
                0.6484511206220116,
                -1.456529440468988
            ]
        },
        {
            "positions": [
                -0.41844023814168263,
                -1.4818612232863217,
                1.9601228770868633,
                -1.120631968629143,
                0.5775163129931657,
                -1.6546391610130324
            ]
        },
        {
            "positions": [
                -0.3684097391933068,
                -1.4521904152784613,
                1.9630142586730517,
                -1.0868779791541807,
                0.5065815053643199,
                -1.8527488815570774
            ]
        },
        {
            "positions": [
                -0.318379240244931,
                -1.4225196072706008,
                1.9659056402592399,
                -1.0531239896792184,
                0.4356466977354738,
                -2.0508586021011217
            ]
        },
        {
            "positions": [
                -0.2683487412965553,
                -1.3928487992627403,
                1.968797021845428,
                -1.0193700002042563,
                0.3647118901066282,
                -2.248968322645166
            ]
        },
        {
            "positions": [
                -0.21831824234817943,
                -1.3631779912548798,
                1.9716884034316164,
                -0.9856160107292938,
                0.2937770824777821,
                -2.4470780431892116
            ]
        },
        {
            "positions": [
                -0.16828774339980368,
                -1.3335071832470193,
                1.9745797850178046,
                -0.9518620212543316,
                0.22284227484893626,
                -2.645187763733256
            ]
        },
        {
            "positions": [
                -0.11825724445142782,
                -1.3038363752391589,
                1.9774711666039928,
                -0.9181080317793693,
                0.15190746722009035,
                -2.8432974842773007
            ]
        },
        {
            "positions": [
                0.0020642015512909034,
                -1.2261512174019586,
                1.9831109710758512,
                -0.8839417723913399,
                0.14148354281657025,
                -2.9842366910816454
            ]
        },
        {
            "positions": [
                0.12238564755400963,
                -1.1484660595647584,
                1.9887507755477098,
                -0.8497755130033104,
                0.13105961841305014,
                -3.12517589788599
            ]
        }
    ]
}