{
    "goal": {
        "global_pose": {
            "orientation": {
                "w": 0.7047431468963623,
                "x": -0.7094548344612122,
                "y": 0.0024358443915843964,
                "z": -0.0022348060738295317
            },
            "position": {
                "x": 0.6094750761985779,
                "y": 0.3671506643295288,
                "z": 0.19426114857196808
            }
        },
        "name": "move_to_magneteinheit_A"
    },
    "id": "FMT_move_to_magneteinheit_A_26",
    "joint_names": [
        "shoulder_pan_joint",
        "shoulder_lift_joint",
        "elbow_joint",
        "wrist_1_joint",
        "wrist_2_joint",
        "wrist_3_joint"
    ],
    "metrics": {
        "cart_traj_len": 3.308583267331758,
        "distance_elbow_joint": 3.881887594165778,
        "distance_shoulder_lift_joint": 0.43481343633284686,
        "distance_shoulder_pan_joint": 2.899677532323572,
        "distance_wrist_1_joint": 1.1964692936747405,
        "distance_wrist_2_joint": 1.6914836265935296,
        "distance_wrist_3_joint": 3.6638483228152885,
        "smoothness": 0.2309896479319233,
        "time": 1.161592527,
        "traj_len": 3.7105497983325533,
        "weighted_distance": 4.897328799642168
    },
    "planner": "FMT",
    "start": {
        "state": {
            "elbow_joint": -1.919618573717145,
            "shoulder_lift_joint": -1.2443395971678275,
            "shoulder_pan_joint": 2.6996025300909787,
            "wrist_1_joint": -1.548550951253194,
            "wrist_2_joint": -1.5709469090946802,
            "wrist_3_joint": 0.4420197732051276
        }
    },
    "waypoints": [
        {
            "positions": [
                2.6996025300909787,
                -1.2443395971678275,
                -1.919618573717145,
                -1.548550951253194,
                -1.5709469090946802,
                0.4420197732051276
            ]
        },
        {
            "positions": [
                2.600991373314372,
                -1.2380658178538808,
                -1.8154535342120541,
                -1.514418264136552,
                -1.5476718792791444,
                0.3174725644596188
            ]
        },
        {
            "positions": [
                2.502380216537765,
                -1.231792038539934,
                -1.7112884947069633,
                -1.48028557701991,
                -1.5243968494636086,
                0.19292535571411007
            ]
        },
        {
            "positions": [
                2.4037690597611583,
                -1.2255182592259872,
                -1.6071234552018725,
                -1.4461528899032678,
                -1.501121819648073,
                0.06837814696860128
            ]
        },
        {
            "positions": [
                2.3051579029845515,
                -1.2192444799120405,
                -1.502958415696782,
                -1.4120202027866258,
                -1.4778467898325371,
                -0.05616906177690745
            ]
        },
        {
            "positions": [
                2.206546746207944,
                -1.2129707005980939,
                -1.398793376191691,
                -1.3778875156699837,
                -1.4545717600170014,
                -0.1807162705224163
            ]
        },
        {
            "positions": [
                2.1079355894313374,
                -1.206696921284147,
                -1.2946283366866003,
                -1.3437548285533416,
                -1.4312967302014656,
                -0.305263479267925
            ]
        },
        {
            "positions": [
                2.0093244326547306,
                -1.2004231419702003,
                -1.1904632971815094,
                -1.3096221414366995,
                -1.4080217003859299,
                -0.42981068801343386
            ]
        },
        {
            "positions": [
                1.9107132758781238,
                -1.1941493626562536,
                -1.0862982576764186,
                -1.2754894543200574,
                -1.3847466705703941,
                -0.5543578967589424
            ]
        },
        {
            "positions": [
                1.812102119101517,
                -1.1878755833423067,
                -0.9821332181713278,
                -1.2413567672034151,
                -1.3614716407548584,
                -0.6789051055044513
            ]
        },
        {
            "positions": [
                1.7134909623249102,
                -1.18160180402836,
                -0.877968178666237,
                -1.2072240800867733,
                -1.3381966109393226,
                -0.8034523142499601
            ]
        },
        {
            "positions": [
                1.6148798055483031,
                -1.1753280247144133,
                -0.7738031391611462,
                -1.173091392970131,
                -1.3149215811237869,
                -0.9279995229954687
            ]
        },
        {
            "positions": [
                1.5162686487716963,
                -1.1690542454004667,
                -0.6696380996560554,
                -1.1389587058534891,
                -1.2916465513082511,
                -1.0525467317409776
            ]
        },
        {
            "positions": [
                1.4176574919950895,
                -1.1627804660865197,
                -0.5654730601509645,
                -1.1048260187368468,
                -1.2683715214927154,
                -1.1770939404864862
            ]
        },
        {
            "positions": [
                1.3190463352184825,
                -1.156506686772573,
                -0.46130802064587373,
                -1.0706933316202047,
                -1.2450964916771796,
                -1.3016411492319953
            ]
        },
        {
            "positions": [
                1.2204351784418757,
                -1.1502329074586264,
                -0.3571429811407829,
                -1.0365606445035627,
                -1.2218214618616439,
                -1.4261883579775039
            ]
        },
        {
            "positions": [
                1.1218240216652688,
                -1.1439591281446795,
                -0.2529779416356923,
                -1.0024279573869208,
                -1.1985464320461081,
                -1.5507355667230125
            ]
        },
        {
            "positions": [
                1.0232128648886618,
                -1.1376853488307328,
                -0.14881290213060128,
                -0.9682952702702785,
                -1.1752714022305724,
                -1.6752827754685216
            ]
        },
        {
            "positions": [
                0.9246017081120552,
                -1.1314115695167861,
                -0.04464786262551068,
                -0.9341625831536364,
                -1.1519963724150366,
                -1.7998299842140302
            ]
        },
        {
            "positions": [
                0.8259905513354484,
                -1.1251377902028392,
                0.059517176879580136,
                -0.9000298960369945,
                -1.1287213425995009,
                -1.9243771929595388
            ]
        },
        {
            "positions": [
                0.7273793945588414,
                -1.1188640108888925,
                0.16368221638467095,
                -0.8658972089203523,
                -1.105446312783965,
                -2.048924401705048
            ]
        },
        {
            "positions": [
                0.6287682377822343,
                -1.1125902315749459,
                0.26784725588976177,
                -0.8317645218037102,
                -1.0821712829684293,
                -2.1734716104505565
            ]
        },
        {
            "positions": [
                0.5301570810056275,
                -1.1063164522609992,
                0.3720122953948526,
                -0.7976318346870681,
                -1.0588962531528936,
                -2.298018819196065
            ]
        },
        {
            "positions": [
                0.4315459242290207,
                -1.1000426729470523,
                0.4761773348999434,
                -0.763499147570426,
                -1.0356212233373578,
                -2.422566027941574
            ]
        },
        {
            "positions": [
                0.33293476745241396,
                -1.0937688936331056,
                0.5803423744050342,
                -0.729366460453784,
                -1.012346193521822,
                -2.547113236687083
            ]
        },
        {
            "positions": [
                0.2864632961540876,
                -1.1140091353090698,
                0.7273180672663271,
                -0.7069767729560278,
                -0.9193564245901252,
                -2.612467514326539
            ]
        },
        {
            "positions": [
                0.23999182485576126,
                -1.134249376985034,
                0.87429376012762,
                -0.6845870854582716,
                -0.8263666556584284,
                -2.677821791965995
            ]
        },
        {
            "positions": [
                0.1935203535574349,
                -1.154489618660998,
                1.0212694529889128,
                -0.6621973979605155,
                -0.7333768867267315,
                -2.743176069605451
            ]
        },
        {
            "positions": [
                0.14704888225910856,
                -1.1747298603369623,
                1.168245145850206,
                -0.6398077104627593,
                -0.6403871177950347,
                -2.808530347244907
            ]
        },
        {
            "positions": [
                0.10057741096078221,
                -1.1949701020129266,
                1.3152208387114985,
                -0.6174180229650031,
                -0.5473973488633378,
                -2.8738846248843624
            ]
        },
        {
            "positions": [
                0.05410593966245586,
                -1.2152103436888908,
                1.4621965315727916,
                -0.595028335467247,
                -0.45440757993164094,
                -2.9392389025238184
            ]
        },
        {
            "positions": [
                0.00763446836412951,
                -1.235450585364855,
                1.6091722244340845,
                -0.5726386479694908,
                -0.3614178109999441,
                -3.0045931801632744
            ]
        },
        {
            "positions": [
                -0.03883700293419687,
                -1.2556908270408191,
                1.7561479172953773,
                -0.5502489604717347,
                -0.2684280420682472,
                -3.0699474578027304
            ]
        },
        {
            "positions": [
                0.001472496890401867,
                -1.2251106271932164,
                1.8076781930836914,
                -0.599790786195055,
                -0.1711868521764729,
                -3.107917730754588
            ]
        },
        {
            "positions": [
                0.0417819967150006,
                -1.1945304273456134,
                1.8592084688720052,
                -0.6493326119183753,
                -0.07394566228469857,
                -3.1458880037064456
            ]
        },
        {
            "positions": [
                0.08209149653959934,
                -1.1639502274980105,
                1.910738744660319,
                -0.6988744376416955,
                0.02329552760707576,
                -3.1838582766583032
            ]
        },
        {
            "positions": [
                0.12240099636419806,
                -1.1333700276504077,
                1.962269020448633,
                -0.7484162633650159,
                0.1205367174988501,
                -3.221828549610161
            ]
        }
    ]
}{
    "goal": {
        "global_pose": {
            "orientation": {
                "w": 0.7047431468963623,
                "x": -0.7094548344612122,
                "y": 0.0024358443915843964,
                "z": -0.0022348060738295317
            },
            "position": {
                "x": 0.6094750761985779,
                "y": 0.3671506643295288,
                "z": 0.19426114857196808
            }
        },
        "name": "move_to_magneteinheit_A"
    },
    "id": "FMT_move_to_magneteinheit_A_26",
    "joint_names": [
        "shoulder_pan_joint",
        "shoulder_lift_joint",
        "elbow_joint",
        "wrist_1_joint",
        "wrist_2_joint",
        "wrist_3_joint"
    ],
    "metrics": {
        "cart_traj_len": 1.2494754988982228,
        "distance_elbow_joint": 0.06994987227758731,
        "distance_shoulder_lift_joint": 1.1217523774214015,
        "distance_shoulder_pan_joint": 1.2406514609285784,
        "distance_wrist_1_joint": 3.499235964773997,
        "distance_wrist_2_joint": 1.6954324572274417,
        "distance_wrist_3_joint": 1.0887204364746124,
        "smoothness": 1.1584935891943437e-16,
        "time": 1.059206378,
        "traj_len": 2.9522436500234224,
        "weighted_distance": 4.010966450128233
    },
    "planner": "FMT",
    "start": {
        "state": {
            "elbow_joint": 1.919643534880228,
            "shoulder_lift_joint": -1.8972525353963687,
            "shoulder_pan_joint": -1.1188672234189438,
            "wrist_1_joint": -1.5931878212786155,
            "wrist_2_joint": 1.5706036197970081,
            "wrist_3_joint": 1.118896926603594
        }
    },
    "waypoints": [
        {
            "positions": [
                -1.1188672234189438,
                -1.8972525353963687,
                1.919643534880228,
                -1.5931878212786155,
                1.5706036197970081,
                1.118896926603594
            ]
        },
        {
            "positions": [
                -1.0624739751949175,
                -1.8462637909681232,
                1.9228230745292094,
                -1.4341316410616156,
                1.4935385081048518,
                1.0694096340365662
            ]
        },
        {
            "positions": [
                -1.0060807269708913,
                -1.7952750465398777,
                1.9260026141781905,
                -1.2750754608446158,
                1.4164733964126952,
                1.0199223414695382
            ]
        },
        {
            "positions": [
                -0.949687478746865,
                -1.7442863021116322,
                1.9291821538271718,
                -1.116019280627616,
                1.3394082847205389,
                0.9704350489025104
            ]
        },
        {
            "positions": [
                -0.8932942305228386,
                -1.6932975576833866,
                1.9323616934761532,
                -0.956963100410616,
                1.2623431730283823,
                0.9209477563354826
            ]
        },
        {
            "positions": [
                -0.8369009822988125,
                -1.642308813255141,
                1.9355412331251343,
                -0.7979069201936162,
                1.185278061336226,
                0.8714604637684548
            ]
        },
        {
            "positions": [
                -0.7805077340747861,
                -1.5913200688268956,
                1.9387207727741156,
                -0.6388507399766165,
                1.1082129496440696,
                0.821973171201427
            ]
        },
        {
            "positions": [
                -0.7241144858507598,
                -1.54033132439865,
                1.9419003124230967,
                -0.4797945597596165,
                1.031147837951913,
                0.7724858786343991
            ]
        },
        {
            "positions": [
                -0.6677212376267335,
                -1.4893425799704045,
                1.945079852072078,
                -0.32073837954261664,
                0.9540827262597565,
                0.7229985860673713
            ]
        },
        {
            "positions": [
                -0.6113279894027072,
                -1.438353835542159,
                1.9482593917210593,
                -0.16168219932561678,
                0.8770176145676001,
                0.6735112935003434
            ]
        },
        {
            "positions": [
                -0.554934741178681,
                -1.3873650911139135,
                1.9514389313700404,
                -0.0026260191086169282,
                0.7999525028754437,
                0.6240240009333156
            ]
        },
        {
            "positions": [
                -0.49854149295465466,
                -1.336376346685668,
                1.9546184710190218,
                0.15643016110838293,
                0.7228873911832873,
                0.5745367083662878
            ]
        },
        {
            "positions": [
                -0.4421482447306284,
                -1.2853876022574224,
                1.957798010668003,
                0.31548634132538256,
                0.6458222794911309,
                0.52504941579926
            ]
        },
        {
            "positions": [
                -0.38575499650660205,
                -1.234398857829177,
                1.9609775503169842,
                0.47454252154238286,
                0.5687571677989742,
                0.4755621232322321
            ]
        },
        {
            "positions": [
                -0.3293617482825758,
                -1.1834101134009314,
                1.9641570899659655,
                0.6335987017593825,
                0.4916920561068179,
                0.42607483066520424
            ]
        },
        {
            "positions": [
                -0.27296850005854956,
                -1.132421368972686,
                1.9673366296149468,
                0.7926548819763821,
                0.4146269444146615,
                0.37658753809817647
            ]
        },
        {
            "positions": [
                -0.2165752518345232,
                -1.0814326245444403,
                1.970516169263928,
                0.9517110621933822,
                0.33756183272250495,
                0.3271002455311486
            ]
        },
        {
            "positions": [
                -0.16018200361049695,
                -1.0304438801161948,
                1.9736957089129092,
                1.1107672424103818,
                0.2604967210303486,
                0.2776129529641208
            ]
        },
        {
            "positions": [
                -0.10378875538647048,
                -0.9794551356879492,
                1.9768752485618903,
                1.269823422627382,
                0.18343160933819203,
                0.22812566039709292
            ]
        },
        {
            "positions": [
                -0.04739550716244434,
                -0.9284663912597038,
                1.9800547882108717,
                1.428879602844382,
                0.10636649764603567,
                0.17863836783006515
            ]
        },
        {
            "positions": [
                0.008997741061581799,
                -0.8774776468314582,
                1.983234327859853,
                1.5879357830613816,
                0.029301385953879322,
                0.12915107526303726
            ]
        },
        {
            "positions": [
                0.06539098928560838,
                -0.8264889024032127,
                1.986413867508834,
                1.7469919632783817,
                -0.04776372573827725,
                0.07966378269600938
            ]
        },
        {
            "positions": [
                0.12178423750963445,
                -0.7755001579749673,
                1.9895934071578154,
                1.9060481434953813,
                -0.12482883743043367,
                0.030176490128981576
            ]
        }
    ]
}