{
    "goal": {
        "global_pose": {
            "orientation": {
                "w": 0.5084816217422485,
                "x": -0.49083608388900757,
                "y": 0.5182115435600281,
                "z": -0.4816462993621826
            },
            "position": {
                "x": 0.5540239810943604,
                "y": 0.030875300988554955,
                "z": 0.16403168439865112
            }
        },
        "name": "move_to_storage_A"
    },
    "id": "FMT_move_to_storage_A_54",
    "joint_names": [
        "shoulder_pan_joint",
        "shoulder_lift_joint",
        "elbow_joint",
        "wrist_1_joint",
        "wrist_2_joint",
        "wrist_3_joint"
    ],
    "metrics": {
        "cart_traj_len": 0.35322008119214615,
        "distance_elbow_joint": 0.44853604674978165,
        "distance_shoulder_lift_joint": 0.23369132286455563,
        "distance_shoulder_pan_joint": 0.4617680779272753,
        "distance_wrist_1_joint": 0.23714221002523128,
        "distance_wrist_2_joint": 1.099168510423823,
        "distance_wrist_3_joint": 0.09527631356608035,
        "smoothness": 0.0,
        "time": 0.381934515,
        "traj_len": 1.6048621378662864,
        "weighted_distance": 2.0254495375441874
    },
    "planner": "FMT",
    "start": {
        "state": {
            "elbow_joint": 1.9715477243005601,
            "shoulder_lift_joint": -1.1394853015351272,
            "shoulder_pan_joint": 0.12281154014795169,
            "wrist_1_joint": -0.7804696478968182,
            "wrist_2_joint": 0.12958648046900423,
            "wrist_3_joint": -3.192491284697111
        }
    },
    "waypoints": [
        {
            "positions": [
                0.12281154014795169,
                -1.1394853015351272,
                1.9715477243005601,
                -0.7804696478968182,
                0.12958648046900423,
                -3.192491284697111
            ]
        },
        {
            "positions": [
                0.05684467187262665,
                -1.1728697762300637,
                2.0356243024076717,
                -0.8143471064718512,
                0.28661055338669317,
                -3.1788803827591
            ]
        },
        {
            "positions": [
                -0.009122196402698388,
                -1.2062542509250003,
                2.0997008805147837,
                -0.8482245650468843,
                0.44363462630438216,
                -3.165269480821088
            ]
        },
        {
            "positions": [
                -0.07508906467802344,
                -1.2396387256199368,
                2.163777458621895,
                -0.8821020236219173,
                0.6006586992220712,
                -3.151658578883077
            ]
        },
        {
            "positions": [
                -0.14105593295334845,
                -1.2730232003148731,
                2.2278540367290067,
                -0.9159794821969504,
                0.7576827721397601,
                -3.138047676945065
            ]
        },
        {
            "positions": [
                -0.2070228012286735,
                -1.3064076750098097,
                2.2919306148361187,
                -0.9498569407719833,
                0.9147068450574491,
                -3.124436775007054
            ]
        },
        {
            "positions": [
                -0.27298966950399856,
                -1.3397921497047462,
                2.3560071929432302,
                -0.9837343993470165,
                1.0717309179751382,
                -3.110825873069042
            ]
        },
        {
            "positions": [
                -0.3389565377793236,
                -1.3731766243996828,
                2.420083771050342,
                -1.0176118579220494,
                1.2287549908928272,
                -3.097214971131031
            ]
        }
    ]
}