{
    "goal": {
        "global_pose": {
            "orientation": {
                "w": 0.7047431468963623,
                "x": -0.7094548344612122,
                "y": 0.0024358443915843964,
                "z": -0.0022348060738295317
            },
            "position": {
                "x": 0.6094750761985779,
                "y": 0.3671506643295288,
                "z": 0.19426114857196808
            }
        },
        "name": "move_to_magneteinheit_A"
    },
    "id": "FMT_move_to_magneteinheit_A_126",
    "joint_names": [
        "shoulder_pan_joint",
        "shoulder_lift_joint",
        "elbow_joint",
        "wrist_1_joint",
        "wrist_2_joint",
        "wrist_3_joint"
    ],
    "metrics": {
        "cart_traj_len": 3.504610078857753,
        "distance_elbow_joint": 3.873312320833296,
        "distance_shoulder_lift_joint": 0.12148079499639564,
        "distance_shoulder_pan_joint": 2.7271257065615804,
        "distance_wrist_1_joint": 0.8481430564061203,
        "distance_wrist_2_joint": 1.7032238106606554,
        "distance_wrist_3_joint": 2.5767619972807,
        "smoothness": 0.02964576638661799,
        "time": 1.172530309,
        "traj_len": 3.4423898220188183,
        "weighted_distance": 4.422096623590097
    },
    "planner": "FMT",
    "start": {
        "state": {
            "elbow_joint": -1.919618573717145,
            "shoulder_lift_joint": -1.2443395971678275,
            "shoulder_pan_joint": 2.6996025300909787,
            "wrist_1_joint": -1.548550951253194,
            "wrist_2_joint": -1.5709469090946802,
            "wrist_3_joint": 0.4420197732051276
        }
    },
    "waypoints": [
        {
            "positions": [
                2.6996025300909787,
                -1.2443395971678275,
                -1.919618573717145,
                -1.548550951253194,
                -1.5709469090946802,
                0.4420197732051276
            ]
        },
        {
            "positions": [
                2.5891120044431215,
                -1.2394297257268236,
                -1.8416941322340854,
                -1.5239928154346782,
                -1.50157480199199,
                0.5367783975691891
            ]
        },
        {
            "positions": [
                2.4786214787952643,
                -1.23451985428582,
                -1.7637696907510259,
                -1.4994346796161622,
                -1.4322026948892999,
                0.6315370219332507
            ]
        },
        {
            "positions": [
                2.3681309531474075,
                -1.2296099828448162,
                -1.6858452492679663,
                -1.4748765437976463,
                -1.3628305877866096,
                0.7262956462973122
            ]
        },
        {
            "positions": [
                2.2576404274995503,
                -1.2247001114038123,
                -1.6079208077849068,
                -1.4503184079791305,
                -1.2934584806839196,
                0.8210542706613737
            ]
        },
        {
            "positions": [
                2.147149901851693,
                -1.2197902399628087,
                -1.5299963663018472,
                -1.4257602721606144,
                -1.2240863735812293,
                0.9158128950254353
            ]
        },
        {
            "positions": [
                2.0366593762038363,
                -1.2148803685218048,
                -1.4520719248187874,
                -1.4012021363420986,
                -1.154714266478539,
                1.0105715193894969
            ]
        },
        {
            "positions": [
                1.926168850555979,
                -1.2099704970808012,
                -1.3741474833357281,
                -1.3766440005235827,
                -1.0853421593758488,
                1.1053301437535583
            ]
        },
        {
            "positions": [
                1.8156783249081219,
                -1.2050606256397973,
                -1.2962230418526683,
                -1.3520858647050666,
                -1.0159700522731587,
                1.2000887681176198
            ]
        },
        {
            "positions": [
                1.7051877992602646,
                -1.2001507541987935,
                -1.2182986003696088,
                -1.3275277288865508,
                -0.9465979451704685,
                1.2948473924816815
            ]
        },
        {
            "positions": [
                1.5946972736124077,
                -1.1952408827577898,
                -1.1403741588865492,
                -1.3029695930680347,
                -0.8772258380677782,
                1.389606016845743
            ]
        },
        {
            "positions": [
                1.4842067479645507,
                -1.190331011316786,
                -1.0624497174034897,
                -1.2784114572495189,
                -0.8078537309650882,
                1.4843646412098044
            ]
        },
        {
            "positions": [
                1.3737162223166934,
                -1.1854211398757823,
                -0.9845252759204302,
                -1.253853321431003,
                -0.7384816238623979,
                1.579123265573866
            ]
        },
        {
            "positions": [
                1.2632256966688364,
                -1.1805112684347785,
                -0.9066008344373706,
                -1.2292951856124872,
                -0.6691095167597078,
                1.6738818899379275
            ]
        },
        {
            "positions": [
                1.1527351710209792,
                -1.1756013969937746,
                -0.8286763929543111,
                -1.2047370497939711,
                -0.5997374096570175,
                1.7686405143019892
            ]
        },
        {
            "positions": [
                1.0422446453731222,
                -1.170691525552771,
                -0.7507519514712515,
                -1.1801789139754553,
                -0.5303653025543273,
                1.8633991386660507
            ]
        },
        {
            "positions": [
                0.931754119725265,
                -1.1657816541117672,
                -0.672827509988192,
                -1.1556207781569392,
                -0.4609931954516373,
                1.9581577630301121
            ]
        },
        {
            "positions": [
                0.8212635940774078,
                -1.1608717826707633,
                -0.5949030685051322,
                -1.1310626423384234,
                -0.3916210883489468,
                2.052916387394174
            ]
        },
        {
            "positions": [
                0.7107730684295508,
                -1.1559619112297597,
                -0.5169786270220726,
                -1.1065045065199075,
                -0.3222489812462568,
                2.1476750117582353
            ]
        },
        {
            "positions": [
                0.6002825427816938,
                -1.1510520397887558,
                -0.4390541855390133,
                -1.0819463707013914,
                -0.25287687414356674,
                2.2424336361222967
            ]
        },
        {
            "positions": [
                0.4897920171338366,
                -1.146142168347752,
                -0.36112974405595355,
                -1.0573882348828756,
                -0.18350476704087626,
                2.337192260486358
            ]
        },
        {
            "positions": [
                0.37930149148597936,
                -1.1412322969067483,
                -0.283205302572894,
                -1.0328300990643595,
                -0.11413265993818622,
                2.4319508848504197
            ]
        },
        {
            "positions": [
                0.2688109658381226,
                -1.1363224254657445,
                -0.20528086108983445,
                -1.0082719632458437,
                -0.04476055283549618,
                2.526709509214481
            ]
        },
        {
            "positions": [
                0.15832044019026537,
                -1.1314125540247408,
                -0.1273564196067749,
                -0.9837138274273278,
                0.024611554267194302,
                2.621468133578543
            ]
        },
        {
            "positions": [
                0.04782991454240827,
                -1.126502682583737,
                -0.04943197812371536,
                -0.9591556916088119,
                0.0939836613698843,
                2.7162267579426045
            ]
        },
        {
            "positions": [
                0.058594641829981226,
                -1.127023236928352,
                0.2367288397676941,
                -0.9221917206428493,
                0.09945412425504017,
                2.7594489025916364
            ]
        },
        {
            "positions": [
                0.06935936911755418,
                -1.127543791272967,
                0.5228896576591036,
                -0.8852277496768867,
                0.10492458714019605,
                2.8026710472406684
            ]
        },
        {
            "positions": [
                0.08012409640512713,
                -1.128064345617582,
                0.809050475550513,
                -0.8482637787109242,
                0.11039505002535192,
                2.8458931918897004
            ]
        },
        {
            "positions": [
                0.09088882369270009,
                -1.128584899962197,
                1.0952112934419225,
                -0.8112998077449616,
                0.11586551291050781,
                2.889115336538732
            ]
        },
        {
            "positions": [
                0.10165355098027304,
                -1.129105454306812,
                1.381372111333332,
                -0.774335836778999,
                0.12133597579566369,
                2.932337481187764
            ]
        },
        {
            "positions": [
                0.11241827826784599,
                -1.1296260086514271,
                1.6675329292247414,
                -0.7373718658130364,
                0.12680643868081956,
                2.975559625836796
            ]
        },
        {
            "positions": [
                0.12318300555541895,
                -1.130146562996042,
                1.9536937471161508,
                -0.7004078948470738,
                0.13227690156597544,
                3.0187817704858277
            ]
        }
    ]
}{
    "goal": {
        "global_pose": {
            "orientation": {
                "w": 0.7047431468963623,
                "x": -0.7094548344612122,
                "y": 0.0024358443915843964,
                "z": -0.0022348060738295317
            },
            "position": {
                "x": 0.6094750761985779,
                "y": 0.3671506643295288,
                "z": 0.19426114857196808
            }
        },
        "name": "move_to_magneteinheit_A"
    },
    "id": "FMT_move_to_magneteinheit_A_126",
    "joint_names": [
        "shoulder_pan_joint",
        "shoulder_lift_joint",
        "elbow_joint",
        "wrist_1_joint",
        "wrist_2_joint",
        "wrist_3_joint"
    ],
    "metrics": {
        "cart_traj_len": 1.2094002260023462,
        "distance_elbow_joint": 0.11820165561257312,
        "distance_shoulder_lift_joint": 0.7506654104596375,
        "distance_shoulder_pan_joint": 1.2420516828862382,
        "distance_wrist_1_joint": 0.7548536808409655,
        "distance_wrist_2_joint": 1.4313778612373222,
        "distance_wrist_3_joint": 4.267050822953352,
        "smoothness": 0.01791555556331781,
        "time": 1.093239611,
        "traj_len": 2.926465635197189,
        "weighted_distance": 4.391415979154682
    },
    "planner": "FMT",
    "start": {
        "state": {
            "elbow_joint": 1.919643534880228,
            "shoulder_lift_joint": -1.8972525353963687,
            "shoulder_pan_joint": -1.1188672234189438,
            "wrist_1_joint": -1.5931878212786155,
            "wrist_2_joint": 1.5706036197970081,
            "wrist_3_joint": 1.118896926603594
        }
    },
    "waypoints": [
        {
            "positions": [
                -1.1188672234189438,
                -1.8972525353963687,
                1.919643534880228,
                -1.5931878212786155,
                1.5706036197970081,
                1.118896926603594
            ]
        },
        {
            "positions": [
                -1.0601534235773453,
                -1.8605409961515897,
                1.9245125027083705,
                -1.554921877372551,
                1.5124243179017942,
                0.9386461065097207
            ]
        },
        {
            "positions": [
                -1.0014396237357468,
                -1.8238294569068108,
                1.929381470536513,
                -1.5166559334664869,
                1.45424501600658,
                0.7583952864158474
            ]
        },
        {
            "positions": [
                -0.9427258238941482,
                -1.7871179176620318,
                1.9342504383646555,
                -1.4783899895604224,
                1.3960657141113662,
                0.5781444663219741
            ]
        },
        {
            "positions": [
                -0.8840120240525495,
                -1.7504063784172528,
                1.9391194061927979,
                -1.4401240456543583,
                1.3378864122161522,
                0.39789364622810086
            ]
        },
        {
            "positions": [
                -0.825298224210951,
                -1.7136948391724736,
                1.9439883740209405,
                -1.4018581017482938,
                1.279707110320938,
                0.21764282613422747
            ]
        },
        {
            "positions": [
                -0.7665844243693525,
                -1.6769832999276946,
                1.9488573418490829,
                -1.3635921578422296,
                1.2215278084257242,
                0.03739200604035431
            ]
        },
        {
            "positions": [
                -0.707870624527754,
                -1.6402717606829156,
                1.9537263096772253,
                -1.3253262139361652,
                1.16334850653051,
                -0.14285881405351897
            ]
        },
        {
            "positions": [
                -0.6491568246861553,
                -1.6035602214381366,
                1.9585952775053679,
                -1.2870602700301008,
                1.105169204635296,
                -0.32310963414739224
            ]
        },
        {
            "positions": [
                -0.5904430248445567,
                -1.5668486821933576,
                1.9634642453335103,
                -1.2487943261240366,
                1.0469899027400822,
                -0.5033604542412657
            ]
        },
        {
            "positions": [
                -0.5317292250029582,
                -1.5301371429485786,
                1.9683332131616527,
                -1.2105283822179722,
                0.9888106008448682,
                -0.683611274335139
            ]
        },
        {
            "positions": [
                -0.4730154251613595,
                -1.4934256037037996,
                1.973202180989795,
                -1.172262438311908,
                0.9306312989496541,
                -0.8638620944290125
            ]
        },
        {
            "positions": [
                -0.414301625319761,
                -1.4567140644590206,
                1.9780711488179377,
                -1.1339964944058436,
                0.8724519970544402,
                -1.0441129145228853
            ]
        },
        {
            "positions": [
                -0.35558782547816237,
                -1.4200025252142416,
                1.98294011664608,
                -1.0957305504997792,
                0.8142726951592261,
                -1.224363734616759
            ]
        },
        {
            "positions": [
                -0.29687402563656395,
                -1.3832909859694626,
                1.9878090844742224,
                -1.057464606593715,
                0.7560933932640121,
                -1.404614554710632
            ]
        },
        {
            "positions": [
                -0.23816022579496532,
                -1.3465794467246837,
                1.992678052302365,
                -1.0191986626876508,
                0.6979140913687981,
                -1.5848653748045056
            ]
        },
        {
            "positions": [
                -0.1794464259533668,
                -1.3098679074799047,
                1.9975470201305074,
                -0.9809327187815864,
                0.6397347894735842,
                -1.7651161948983785
            ]
        },
        {
            "positions": [
                -0.12073262611176816,
                -1.2731563682351255,
                2.00241598795865,
                -0.942666774875522,
                0.5815554875783701,
                -1.9453670149922522
            ]
        },
        {
            "positions": [
                -0.062018826270169525,
                -1.2364448289903467,
                2.0072849557867922,
                -0.9044008309694578,
                0.5233761856831562,
                -2.1256178350861257
            ]
        },
        {
            "positions": [
                -0.003305026428571084,
                -1.1997332897455675,
                2.012153923614935,
                -0.8661348870633934,
                0.4651968837879422,
                -2.3058686551799985
            ]
        },
        {
            "positions": [
                0.028317345045395313,
                -1.1864467485433585,
                2.0057311068954684,
                -0.8591847004069575,
                0.38370410248087816,
                -2.516439965472438
            ]
        },
        {
            "positions": [
                0.05993971651936171,
                -1.1731602073411493,
                1.9993082901760015,
                -0.8522345137505216,
                0.30221132117381416,
                -2.7270112757648777
            ]
        },
        {
            "positions": [
                0.0915620879933281,
                -1.1598736661389402,
                1.992885473456535,
                -0.8452843270940859,
                0.22071853986675014,
                -2.9375825860573177
            ]
        },
        {
            "positions": [
                0.1231844594672945,
                -1.1465871249367312,
                1.9864626567370685,
                -0.83833414043765,
                0.13922575855968614,
                -3.1481538963497573
            ]
        }
    ]
}