{
    "goal": {
        "global_pose": {
            "orientation": {
                "w": 0.5084816217422485,
                "x": -0.49083608388900757,
                "y": 0.5182115435600281,
                "z": -0.4816462993621826
            },
            "position": {
                "x": 0.5540239810943604,
                "y": 0.030875300988554955,
                "z": 0.16403168439865112
            }
        },
        "name": "move_to_storage_A"
    },
    "id": "FMT_move_to_storage_A_109",
    "joint_names": [
        "shoulder_pan_joint",
        "shoulder_lift_joint",
        "elbow_joint",
        "wrist_1_joint",
        "wrist_2_joint",
        "wrist_3_joint"
    ],
    "metrics": {
        "cart_traj_len": 0.3530946473687501,
        "distance_elbow_joint": 0.4488595223760714,
        "distance_shoulder_lift_joint": 0.23553983032442205,
        "distance_shoulder_pan_joint": 0.4628007529016602,
        "distance_wrist_1_joint": 0.23849257862025464,
        "distance_wrist_2_joint": 1.0944205870954535,
        "distance_wrist_3_joint": 0.0874335085995912,
        "smoothness": 0.0,
        "time": 0.365496424,
        "traj_len": 1.6023566331867112,
        "weighted_distance": 2.018743907193863
    },
    "planner": "FMT",
    "start": {
        "state": {
            "elbow_joint": 1.9715477243005601,
            "shoulder_lift_joint": -1.1394853015351272,
            "shoulder_pan_joint": 0.12281154014795169,
            "wrist_1_joint": -0.7804696478968182,
            "wrist_2_joint": 0.12958648046900423,
            "wrist_3_joint": -3.192491284697111
        }
    },
    "waypoints": [
        {
            "positions": [
                0.12281154014795169,
                -1.1394853015351272,
                1.9715477243005601,
                -0.7804696478968182,
                0.12958648046900423,
                -3.192491284697111
            ]
        },
        {
            "positions": [
                0.05669714687628595,
                -1.1731338487243304,
                2.0356705132114277,
                -0.8145400162711403,
                0.2859322786254976,
                -3.180000783468598
            ]
        },
        {
            "positions": [
                -0.009417246395379789,
                -1.2067823959135335,
                2.0997933021222948,
                -0.8486103846454623,
                0.44227807678199094,
                -3.167510282240085
            ]
        },
        {
            "positions": [
                -0.07553163966704553,
                -1.2404309431027367,
                2.1639160910331623,
                -0.8826807530197844,
                0.5986238749384842,
                -3.155019781011572
            ]
        },
        {
            "positions": [
                -0.14164603293871125,
                -1.2740794902919397,
                2.2280388799440294,
                -0.9167511213941065,
                0.7549696730949776,
                -3.142529279783059
            ]
        },
        {
            "positions": [
                -0.207760426210377,
                -1.3077280374811429,
                2.292161668854897,
                -0.9508214897684286,
                0.911315471251471,
                -3.130038778554546
            ]
        },
        {
            "positions": [
                -0.27387481948204273,
                -1.341376584670346,
                2.356284457765764,
                -0.9848918581427507,
                1.0676612694079644,
                -3.117548277326033
            ]
        },
        {
            "positions": [
                -0.33998921275370847,
                -1.3750251318595492,
                2.4204072466766315,
                -1.0189622265170728,
                1.2240070675644577,
                -3.10505777609752
            ]
        }
    ]
}