{
    "goal": {
        "global_pose": {
            "orientation": {
                "w": 0.5084816217422485,
                "x": -0.49083608388900757,
                "y": 0.5182115435600281,
                "z": -0.4816462993621826
            },
            "position": {
                "x": 0.5540239810943604,
                "y": 0.030875300988554955,
                "z": 0.16403168439865112
            }
        },
        "name": "move_to_storage_A"
    },
    "id": "FMT_move_to_storage_A_150",
    "joint_names": [
        "shoulder_pan_joint",
        "shoulder_lift_joint",
        "elbow_joint",
        "wrist_1_joint",
        "wrist_2_joint",
        "wrist_3_joint"
    ],
    "metrics": {
        "cart_traj_len": 0.3537117201633587,
        "distance_elbow_joint": 0.44899568063173634,
        "distance_shoulder_lift_joint": 0.2351580075549422,
        "distance_shoulder_pan_joint": 0.4628631959874391,
        "distance_wrist_1_joint": 0.24014349759285392,
        "distance_wrist_2_joint": 1.098572428132928,
        "distance_wrist_3_joint": 0.08907370590222374,
        "smoothness": 4.440892133664971e-16,
        "time": 0.5034687330000001,
        "traj_len": 1.604620365009158,
        "weighted_distance": 2.0227876441515935
    },
    "planner": "FMT",
    "start": {
        "state": {
            "elbow_joint": 1.9715477243005601,
            "shoulder_lift_joint": -1.1394853015351272,
            "shoulder_pan_joint": 0.12281154014795169,
            "wrist_1_joint": -0.7804696478968182,
            "wrist_2_joint": 0.12958648046900423,
            "wrist_3_joint": -3.192491284697111
        }
    },
    "waypoints": [
        {
            "positions": [
                0.12281154014795169,
                -1.1394853015351272,
                1.9715477243005601,
                -0.7804696478968182,
                0.12958648046900423,
                -3.192491284697111
            ]
        },
        {
            "positions": [
                0.0566882264354604,
                -1.1730793026144046,
                2.035689964390808,
                -0.8147758618386545,
                0.2865253987737082,
                -3.179766469568222
            ]
        },
        {
            "positions": [
                -0.009435087277030893,
                -1.206673303693682,
                2.0998322044810562,
                -0.8490820757804907,
                0.4434643170784122,
                -3.167041654439333
            ]
        },
        {
            "positions": [
                -0.0755584009895222,
                -1.2402673047729595,
                2.1639744445713043,
                -0.883388289722327,
                0.6004032353831162,
                -3.154316839310444
            ]
        },
        {
            "positions": [
                -0.14168171470201346,
                -1.273861305852237,
                2.2281166846615523,
                -0.9176945036641633,
                0.7573421536878202,
                -3.1415920241815547
            ]
        },
        {
            "positions": [
                -0.20780502841450477,
                -1.3074553069315145,
                2.2922589247518004,
                -0.9520007176059995,
                0.9142810719925243,
                -3.1288672090526655
            ]
        },
        {
            "positions": [
                -0.27392834212699607,
                -1.341049308010792,
                2.3564011648420484,
                -0.9863069315478358,
                1.0712199902972284,
                -3.1161423939237767
            ]
        },
        {
            "positions": [
                -0.3400516558394874,
                -1.3746433090900694,
                2.4205434049322965,
                -1.020613145489672,
                1.2281589086019324,
                -3.1034175787948874
            ]
        }
    ]
}