{
    "goal": {
        "global_pose": {
            "orientation": {
                "w": 0.7047431468963623,
                "x": -0.7094548344612122,
                "y": 0.0024358443915843964,
                "z": -0.0022348060738295317
            },
            "position": {
                "x": 0.6094750761985779,
                "y": 0.3671506643295288,
                "z": 0.19426114857196808
            }
        },
        "name": "move_to_magneteinheit_A"
    },
    "id": "FMT_move_to_magneteinheit_A_75",
    "joint_names": [
        "shoulder_pan_joint",
        "shoulder_lift_joint",
        "elbow_joint",
        "wrist_1_joint",
        "wrist_2_joint",
        "wrist_3_joint"
    ],
    "metrics": {
        "cart_traj_len": 2.9520485692561422,
        "distance_elbow_joint": 3.9391845693456107,
        "distance_shoulder_lift_joint": 0.4554995744088849,
        "distance_shoulder_pan_joint": 2.718600696543271,
        "distance_wrist_1_joint": 3.5628853381533374,
        "distance_wrist_2_joint": 1.4437053431655724,
        "distance_wrist_3_joint": 0.8951101903241072,
        "smoothness": 0.11202226641148487,
        "time": 1.360522634,
        "traj_len": 3.607628821253759,
        "weighted_distance": 4.451044458765595
    },
    "planner": "FMT",
    "start": {
        "state": {
            "elbow_joint": -1.919618573717145,
            "shoulder_lift_joint": -1.2443395971678275,
            "shoulder_pan_joint": 2.6996025300909787,
            "wrist_1_joint": -1.548550951253194,
            "wrist_2_joint": -1.5709469090946802,
            "wrist_3_joint": 0.4420197732051276
        }
    },
    "waypoints": [
        {
            "positions": [
                2.6996025300909787,
                -1.2443395971678275,
                -1.919618573717145,
                -1.548550951253194,
                -1.5709469090946802,
                0.4420197732051276
            ]
        },
        {
            "positions": [
                2.563917929323629,
                -1.2431297604089173,
                -1.8700586427052428,
                -1.4172349813292913,
                -1.5117901551796222,
                0.4522126225328118
            ]
        },
        {
            "positions": [
                2.42823332855628,
                -1.2419199236500074,
                -1.8204987116933404,
                -1.2859190114053884,
                -1.4526334012645645,
                0.4624054718604961
            ]
        },
        {
            "positions": [
                2.2925487277889305,
                -1.2407100868910972,
                -1.7709387806814383,
                -1.1546030414814856,
                -1.3934766473495066,
                0.4725983211881803
            ]
        },
        {
            "positions": [
                2.1568641270215814,
                -1.239500250132187,
                -1.7213788496695361,
                -1.0232870715575828,
                -1.334319893434449,
                0.4827911705158645
            ]
        },
        {
            "positions": [
                2.021179526254232,
                -1.2382904133732768,
                -1.671818918657634,
                -0.89197110163368,
                -1.275163139519391,
                0.4929840198435488
            ]
        },
        {
            "positions": [
                1.8854949254868822,
                -1.2370805766143667,
                -1.6222589876457316,
                -0.7606551317097772,
                -1.216006385604333,
                0.5031768691712329
            ]
        },
        {
            "positions": [
                1.749810324719533,
                -1.2358707398554567,
                -1.5726990566338295,
                -0.6293391617858743,
                -1.1568496316892753,
                0.5133697184989172
            ]
        },
        {
            "positions": [
                1.6141257239521836,
                -1.2346609030965465,
                -1.523139125621927,
                -0.4980231918619715,
                -1.0976928777742174,
                0.5235625678266015
            ]
        },
        {
            "positions": [
                1.4784411231848342,
                -1.2334510663376363,
                -1.473579194610025,
                -0.3667072219380687,
                -1.0385361238591595,
                0.5337554171542856
            ]
        },
        {
            "positions": [
                1.3427565224174849,
                -1.2322412295787264,
                -1.4240192635981228,
                -0.23539125201416589,
                -0.9793793699441018,
                0.5439482664819699
            ]
        },
        {
            "positions": [
                1.2070719216501353,
                -1.2310313928198162,
                -1.3744593325862207,
                -0.10407528209026307,
                -0.9202226160290439,
                0.5541411158096542
            ]
        },
        {
            "positions": [
                1.071387320882786,
                -1.229821556060906,
                -1.3248994015743183,
                0.027240687833639754,
                -0.8610658621139861,
                0.5643339651373384
            ]
        },
        {
            "positions": [
                0.9357027201154366,
                -1.2286117193019959,
                -1.2753394705624161,
                0.15855665775754257,
                -0.8019091081989282,
                0.5745268144650226
            ]
        },
        {
            "positions": [
                0.8000181193480871,
                -1.2274018825430857,
                -1.2257795395505138,
                0.2898726276814454,
                -0.7427523542838703,
                0.5847196637927069
            ]
        },
        {
            "positions": [
                0.664333518580738,
                -1.2261920457841757,
                -1.1762196085386116,
                0.4211885976053482,
                -0.6835956003688125,
                0.5949125131203911
            ]
        },
        {
            "positions": [
                0.5286489178133884,
                -1.2249822090252656,
                -1.1266596775267095,
                0.5525045675292513,
                -0.6244388464537547,
                0.6051053624480753
            ]
        },
        {
            "positions": [
                0.5006003742573792,
                -1.2047935265546614,
                -0.9497610560531651,
                0.6348604814157796,
                -0.5953493800022871,
                0.5624854926948327
            ]
        },
        {
            "positions": [
                0.4725518307013701,
                -1.1846048440840573,
                -0.7728624345796207,
                0.7172163953023079,
                -0.5662599135508195,
                0.51986562294159
            ]
        },
        {
            "positions": [
                0.4445032871453609,
                -1.164416161613453,
                -0.5959638131060762,
                0.7995723091888363,
                -0.5371704470993519,
                0.4772457531883474
            ]
        },
        {
            "positions": [
                0.41645474358935175,
                -1.1442274791428488,
                -0.41906519163253175,
                0.8819282230753644,
                -0.5080809806478843,
                0.4346258834351048
            ]
        },
        {
            "positions": [
                0.3884062000333426,
                -1.1240387966722447,
                -0.24216657015898724,
                0.9642841369618929,
                -0.4789915141964166,
                0.3920060136818621
            ]
        },
        {
            "positions": [
                0.3603576564773334,
                -1.1038501142016406,
                -0.06526794868544283,
                1.0466400508484213,
                -0.449902047744949,
                0.34938614392861944
            ]
        },
        {
            "positions": [
                0.3323091129213243,
                -1.0836614317310362,
                0.11163067278810157,
                1.1289959647349495,
                -0.4208125812934814,
                0.30676627417537683
            ]
        },
        {
            "positions": [
                0.30426056936531515,
                -1.0634727492604321,
                0.288529294261646,
                1.2113518786214779,
                -0.39172311484201383,
                0.26414640442213416
            ]
        },
        {
            "positions": [
                0.276212025809306,
                -1.043284066789828,
                0.4654279157351906,
                1.2937077925080063,
                -0.36263364839054624,
                0.22152653466889155
            ]
        },
        {
            "positions": [
                0.24816348225329682,
                -1.0230953843192239,
                0.642326537208735,
                1.3760637063945345,
                -0.3335441819390786,
                0.17890666491564888
            ]
        },
        {
            "positions": [
                0.22011493869728765,
                -1.0029067018486195,
                0.8192251586822794,
                1.4584196202810626,
                -0.304454715487611,
                0.13628679516240622
            ]
        },
        {
            "positions": [
                0.1920663951412785,
                -0.9827180193780154,
                0.9961237801558238,
                1.540775534167591,
                -0.2753652490361434,
                0.09366692540916355
            ]
        },
        {
            "positions": [
                0.16401785158526938,
                -0.9625293369074113,
                1.173022401629368,
                1.6231314480541192,
                -0.2462757825846758,
                0.05104705565592105
            ]
        },
        {
            "positions": [
                0.13596930802926022,
                -0.9423406544368071,
                1.3499210231029126,
                1.7054873619406477,
                -0.2171863161332082,
                0.008427185902678325
            ]
        },
        {
            "positions": [
                0.10792076447325105,
                -0.9221519719662029,
                1.5268196445764572,
                1.787843275827176,
                -0.18809684968174062,
                -0.03419268385056429
            ]
        },
        {
            "positions": [
                0.07987222091724189,
                -0.9019632894955987,
                1.7037182660500014,
                1.8701991897137042,
                -0.15900738323027297,
                -0.07681255360380701
            ]
        },
        {
            "positions": [
                0.05182367736123271,
                -0.8817746070249946,
                1.8806168875235458,
                1.9525551036002327,
                -0.12991791677880535,
                -0.11943242335704965
            ]
        },
        {
            "positions": [
                0.12264552117475752,
                -0.7888400227589426,
                2.0195659956284664,
                2.0143343869001438,
                -0.12724156592910754,
                -0.11194560808101534
            ]
        }
    ]
}{
    "goal": {
        "global_pose": {
            "orientation": {
                "w": 0.7047431468963623,
                "x": -0.7094548344612122,
                "y": 0.0024358443915843964,
                "z": -0.0022348060738295317
            },
            "position": {
                "x": 0.6094750761985779,
                "y": 0.3671506643295288,
                "z": 0.19426114857196808
            }
        },
        "name": "move_to_magneteinheit_A"
    },
    "id": "FMT_move_to_magneteinheit_A_75",
    "joint_names": [
        "shoulder_pan_joint",
        "shoulder_lift_joint",
        "elbow_joint",
        "wrist_1_joint",
        "wrist_2_joint",
        "wrist_3_joint"
    ],
    "metrics": {
        "cart_traj_len": 1.1531931196758665,
        "distance_elbow_joint": 0.2675588825889197,
        "distance_shoulder_lift_joint": 0.7502307709428189,
        "distance_shoulder_pan_joint": 1.2417622940591548,
        "distance_wrist_1_joint": 0.7433930548129116,
        "distance_wrist_2_joint": 1.5743985413581911,
        "distance_wrist_3_joint": 4.244814456903168,
        "smoothness": 0.07873343269209457,
        "time": 1.143324238,
        "traj_len": 2.970211777073339,
        "weighted_distance": 4.430528017137754
    },
    "planner": "FMT",
    "start": {
        "state": {
            "elbow_joint": 1.919643534880228,
            "shoulder_lift_joint": -1.8972525353963687,
            "shoulder_pan_joint": -1.1188672234189438,
            "wrist_1_joint": -1.5931878212786155,
            "wrist_2_joint": 1.5706036197970081,
            "wrist_3_joint": 1.118896926603594
        }
    },
    "waypoints": [
        {
            "positions": [
                -1.1188672234189438,
                -1.8972525353963687,
                1.919643534880228,
                -1.5931878212786155,
                1.5706036197970081,
                1.118896926603594
            ]
        },
        {
            "positions": [
                -1.0581894117139423,
                -1.865494490735315,
                1.9288786887852685,
                -1.571785653238475,
                1.486681135882318,
                0.9369341293643493
            ]
        },
        {
            "positions": [
                -0.9975116000089408,
                -1.8337364460742611,
                1.938113842690309,
                -1.5503834851983347,
                1.4027586519676278,
                0.7549713321251046
            ]
        },
        {
            "positions": [
                -0.9368337883039393,
                -1.8019784014132074,
                1.9473489965953497,
                -1.5289813171581943,
                1.318836168052938,
                0.5730085348858599
            ]
        },
        {
            "positions": [
                -0.8761559765989377,
                -1.7702203567521537,
                1.95658415050039,
                -1.5075791491180541,
                1.2349136841382478,
                0.3910457376466152
            ]
        },
        {
            "positions": [
                -0.8154781648939362,
                -1.7384623120910998,
                1.9658193044054304,
                -1.4861769810779137,
                1.1509912002235576,
                0.2090829404073704
            ]
        },
        {
            "positions": [
                -0.7548003531889347,
                -1.706704267430046,
                1.975054458310471,
                -1.4647748130377733,
                1.0670687163088675,
                0.027120143168125832
            ]
        },
        {
            "positions": [
                -0.694122541483933,
                -1.6749462227689924,
                1.9842896122155116,
                -1.443372644997633,
                0.9831462323941773,
                -0.15484265407111897
            ]
        },
        {
            "positions": [
                -0.6334447297789316,
                -1.6431881781079385,
                1.993524766120552,
                -1.4219704769574926,
                0.8992237484794873,
                -0.33680545131036355
            ]
        },
        {
            "positions": [
                -0.57276691807393,
                -1.6114301334468848,
                2.0027599200255923,
                -1.4005683089173524,
                0.8153012645647971,
                -0.5187682485496083
            ]
        },
        {
            "positions": [
                -0.5120891063689285,
                -1.579672088785831,
                2.011995073930633,
                -1.379166140877212,
                0.731378780650107,
                -0.7007310457888531
            ]
        },
        {
            "positions": [
                -0.4514112946639268,
                -1.5479140441247772,
                2.0212302278356735,
                -1.3577639728370716,
                0.6474562967354168,
                -0.882693843028098
            ]
        },
        {
            "positions": [
                -0.3907334829589254,
                -1.5161559994637235,
                2.030465381740714,
                -1.3363618047969312,
                0.5635338128207268,
                -1.0646566402673423
            ]
        },
        {
            "positions": [
                -0.3300556712539239,
                -1.4843979548026698,
                2.0397005356457543,
                -1.3149596367567908,
                0.47961132890603664,
                -1.246619437506587
            ]
        },
        {
            "positions": [
                -0.26937785954892224,
                -1.4526399101416159,
                2.048935689550795,
                -1.2935574687166504,
                0.3956888449913465,
                -1.428582234745832
            ]
        },
        {
            "positions": [
                -0.2087000478439207,
                -1.4208818654805622,
                2.0581708434558355,
                -1.27215530067651,
                0.31176636107665634,
                -1.6105450319850767
            ]
        },
        {
            "positions": [
                -0.1480222361389193,
                -1.3891238208195085,
                2.0674059973608756,
                -1.25075313263637,
                0.2278438771619664,
                -1.792507829224321
            ]
        },
        {
            "positions": [
                -0.08734442443391766,
                -1.3573657761584546,
                2.076641151265916,
                -1.2293509645962295,
                0.14392139324727626,
                -1.9744706264635659
            ]
        },
        {
            "positions": [
                -0.026666612728916142,
                -1.3256077314974009,
                2.085876305170957,
                -1.207948796556089,
                0.05999890933258619,
                -2.1564334237028104
            ]
        },
        {
            "positions": [
                0.0032457239449093546,
                -1.2898905380886307,
                2.0656110827113188,
                -1.136317990538012,
                0.07275767551133999,
                -2.350330245022163
            ]
        },
        {
            "positions": [
                0.03315806061873485,
                -1.2541733446798604,
                2.0453458602516803,
                -1.064687184519935,
                0.08551644169009379,
                -2.5442270663415156
            ]
        },
        {
            "positions": [
                0.06307039729256034,
                -1.2184561512710903,
                2.0250806377920423,
                -0.993056378501858,
                0.09827520786884758,
                -2.738123887660868
            ]
        },
        {
            "positions": [
                0.09298273396638584,
                -1.18273895786232,
                2.004815415332404,
                -0.9214255724837809,
                0.1110339740476014,
                -2.9320207089802204
            ]
        },
        {
            "positions": [
                0.12289507064021134,
                -1.1470217644535499,
                1.9845501928727658,
                -0.8497947664657038,
                0.12379274022635518,
                -3.125917530299573
            ]
        }
    ]
}