{
    "goal": {
        "global_pose": {
            "orientation": {
                "w": 0.5084816217422485,
                "x": -0.49083608388900757,
                "y": 0.5182115435600281,
                "z": -0.4816462993621826
            },
            "position": {
                "x": 0.5540239810943604,
                "y": 0.030875300988554955,
                "z": 0.16403168439865112
            }
        },
        "name": "move_to_storage_A"
    },
    "id": "FMT_move_to_storage_A_77",
    "joint_names": [
        "shoulder_pan_joint",
        "shoulder_lift_joint",
        "elbow_joint",
        "wrist_1_joint",
        "wrist_2_joint",
        "wrist_3_joint"
    ],
    "metrics": {
        "cart_traj_len": 0.3533326977443473,
        "distance_elbow_joint": 0.4502374379563263,
        "distance_shoulder_lift_joint": 0.2360160026593794,
        "distance_shoulder_pan_joint": 0.461947956287019,
        "distance_wrist_1_joint": 0.2362175380297985,
        "distance_wrist_2_joint": 1.1010141810440186,
        "distance_wrist_3_joint": 0.09173395927611105,
        "smoothness": 1.3322676295501878e-15,
        "time": 0.547794264,
        "traj_len": 1.6053557472574898,
        "weighted_distance": 2.0243188268844143
    },
    "planner": "FMT",
    "start": {
        "state": {
            "elbow_joint": 1.9715477243005601,
            "shoulder_lift_joint": -1.1394853015351272,
            "shoulder_pan_joint": 0.12281154014795169,
            "wrist_1_joint": -0.7804696478968182,
            "wrist_2_joint": 0.12958648046900423,
            "wrist_3_joint": -3.192491284697111
        }
    },
    "waypoints": [
        {
            "positions": [
                0.12281154014795169,
                -1.1394853015351272,
                1.9715477243005601,
                -0.7804696478968182,
                0.12958648046900423,
                -3.192491284697111
            ]
        },
        {
            "positions": [
                0.05681897496409183,
                -1.17320187334361,
                2.035867358294321,
                -0.8142150104725037,
                0.2868742206181497,
                -3.1793864333719526
            ]
        },
        {
            "positions": [
                -0.009173590219768032,
                -1.2069184451520927,
                2.100186992288082,
                -0.8479603730481892,
                0.44416196076729525,
                -3.1662815820467936
            ]
        },
        {
            "positions": [
                -0.07516615540362788,
                -1.2406350169605755,
                2.1645066262818426,
                -0.8817057356238747,
                0.6014497009164408,
                -3.153176730721635
            ]
        },
        {
            "positions": [
                -0.14115872058748774,
                -1.2743515887690582,
                2.2288262602756035,
                -0.9154510981995602,
                0.7587374410655863,
                -3.1400718793964764
            ]
        },
        {
            "positions": [
                -0.20715128577134762,
                -1.308068160577541,
                2.2931458942693648,
                -0.9491964607752457,
                0.9160251812147319,
                -3.1269670280713178
            ]
        },
        {
            "positions": [
                -0.27314385095520743,
                -1.3417847323860237,
                2.3574655282631256,
                -0.9829418233509312,
                1.0733129213638772,
                -3.1138621767461587
            ]
        },
        {
            "positions": [
                -0.3391364161390673,
                -1.3755013041945066,
                2.4217851622568864,
                -1.0166871859266167,
                1.2306006615130227,
                -3.100757325421
            ]
        }
    ]
}