{
    "goal": {
        "global_pose": {
            "orientation": {
                "w": 0.5084816217422485,
                "x": -0.49083608388900757,
                "y": 0.5182115435600281,
                "z": -0.4816462993621826
            },
            "position": {
                "x": 0.5540239810943604,
                "y": 0.030875300988554955,
                "z": 0.16403168439865112
            }
        },
        "name": "move_to_storage_A"
    },
    "id": "FMT_move_to_storage_A_32",
    "joint_names": [
        "shoulder_pan_joint",
        "shoulder_lift_joint",
        "elbow_joint",
        "wrist_1_joint",
        "wrist_2_joint",
        "wrist_3_joint"
    ],
    "metrics": {
        "cart_traj_len": 0.3525504213846878,
        "distance_elbow_joint": 0.4496975067139699,
        "distance_shoulder_lift_joint": 0.23707947730658763,
        "distance_shoulder_pan_joint": 0.4628482286373089,
        "distance_wrist_1_joint": 0.2362330468523649,
        "distance_wrist_2_joint": 1.0913020468100871,
        "distance_wrist_3_joint": 0.10059368520971379,
        "smoothness": 1.1102230263833737e-15,
        "time": 0.38633827,
        "traj_len": 1.605538536295542,
        "weighted_distance": 2.0264442888004375
    },
    "planner": "FMT",
    "start": {
        "state": {
            "elbow_joint": 1.9715477243005601,
            "shoulder_lift_joint": -1.1394853015351272,
            "shoulder_pan_joint": 0.12281154014795169,
            "wrist_1_joint": -0.7804696478968182,
            "wrist_2_joint": 0.12958648046900423,
            "wrist_3_joint": -3.192491284697111
        }
    },
    "waypoints": [
        {
            "positions": [
                0.12281154014795169,
                -1.1394853015351272,
                1.9715477243005601,
                -0.7804696478968182,
                0.12958648046900423,
                -3.192491284697111
            ]
        },
        {
            "positions": [
                0.05669036462833614,
                -1.1733537982932112,
                2.035790225259699,
                -0.8142172260185846,
                0.2854867728704452,
                -3.1781207582385806
            ]
        },
        {
            "positions": [
                -0.00943081089127941,
                -1.207222295051295,
                2.100032726218837,
                -0.847964804140351,
                0.44138706527188626,
                -3.16375023178005
            ]
        },
        {
            "positions": [
                -0.07555198641089496,
                -1.241090791809379,
                2.164275227177976,
                -0.8817123822621173,
                0.5972873576733273,
                -3.1493797053215196
            ]
        },
        {
            "positions": [
                -0.1416731619305105,
                -1.274959288567463,
                2.2285177281371142,
                -0.9154599603838838,
                0.7531876500747683,
                -3.135009178862989
            ]
        },
        {
            "positions": [
                -0.2077943374501261,
                -1.308827785325547,
                2.292760229096253,
                -0.9492075385056502,
                0.9090879424762094,
                -3.1206386524044585
            ]
        },
        {
            "positions": [
                -0.2739155129697416,
                -1.3426962820836308,
                2.3570027300553913,
                -0.9829551166274166,
                1.0649882348776503,
                -3.106268125945928
            ]
        },
        {
            "positions": [
                -0.3400366884893572,
                -1.3765647788417148,
                2.42124523101453,
                -1.016702694749183,
                1.2208885272790913,
                -3.0918975994873974
            ]
        }
    ]
}