{
    "goal": {
        "global_pose": {
            "orientation": {
                "w": 0.5084816217422485,
                "x": -0.49083608388900757,
                "y": 0.5182115435600281,
                "z": -0.4816462993621826
            },
            "position": {
                "x": 0.5540239810943604,
                "y": 0.030875300988554955,
                "z": 0.16403168439865112
            }
        },
        "name": "move_to_storage_A"
    },
    "id": "FMT_move_to_storage_A_119",
    "joint_names": [
        "shoulder_pan_joint",
        "shoulder_lift_joint",
        "elbow_joint",
        "wrist_1_joint",
        "wrist_2_joint",
        "wrist_3_joint"
    ],
    "metrics": {
        "cart_traj_len": 0.3523020812367784,
        "distance_elbow_joint": 0.44847100649536387,
        "distance_shoulder_lift_joint": 0.23586801552370318,
        "distance_shoulder_pan_joint": 0.4614125310101469,
        "distance_wrist_1_joint": 0.23675372565438269,
        "distance_wrist_2_joint": 1.094536281791822,
        "distance_wrist_3_joint": 0.0895077949992662,
        "smoothness": 1.1102230244806396e-15,
        "time": 0.368034201,
        "traj_len": 1.6020453662348906,
        "weighted_distance": 2.0191223224261137
    },
    "planner": "FMT",
    "start": {
        "state": {
            "elbow_joint": 1.9715477243005601,
            "shoulder_lift_joint": -1.1394853015351272,
            "shoulder_pan_joint": 0.12281154014795169,
            "wrist_1_joint": -0.7804696478968182,
            "wrist_2_joint": 0.12958648046900423,
            "wrist_3_joint": -3.192491284697111
        }
    },
    "waypoints": [
        {
            "positions": [
                0.12281154014795169,
                -1.1394853015351272,
                1.9715477243005601,
                -0.7804696478968182,
                0.12958648046900423,
                -3.192491284697111
            ]
        },
        {
            "positions": [
                0.05689546428935928,
                -1.1731807323242276,
                2.035615010942755,
                -0.8142916087045872,
                0.2859488064392645,
                -3.179704456840073
            ]
        },
        {
            "positions": [
                -0.00902061156923313,
                -1.206876163113328,
                2.0996822975849496,
                -0.8481135695123561,
                0.4423111324095248,
                -3.166917628983035
            ]
        },
        {
            "positions": [
                -0.07493668742782554,
                -1.2405715939024284,
                2.1637495842271446,
                -0.8819355303201251,
                0.598673458379785,
                -3.154130801125997
            ]
        },
        {
            "positions": [
                -0.14085276328641794,
                -1.2742670246915289,
                2.2278168708693395,
                -0.915757491127894,
                0.7550357843500454,
                -3.141343973268959
            ]
        },
        {
            "positions": [
                -0.20676883914501037,
                -1.3079624554806295,
                2.2918841575115345,
                -0.949579451935663,
                0.9113981103203057,
                -3.128557145411921
            ]
        },
        {
            "positions": [
                -0.27268491500360276,
                -1.34165788626973,
                2.355951444153729,
                -0.9834014127434318,
                1.067760436290566,
                -3.115770317554883
            ]
        },
        {
            "positions": [
                -0.3386009908621952,
                -1.3753533170588303,
                2.420018730795924,
                -1.0172233735512008,
                1.2241227622608264,
                -3.102983489697845
            ]
        }
    ]
}