{
    "goal": {
        "global_pose": {
            "orientation": {
                "w": 0.5084816217422485,
                "x": -0.49083608388900757,
                "y": 0.5182115435600281,
                "z": -0.4816462993621826
            },
            "position": {
                "x": 0.5540239810943604,
                "y": 0.030875300988554955,
                "z": 0.16403168439865112
            }
        },
        "name": "move_to_storage_A"
    },
    "id": "FMT_move_to_storage_A_21",
    "joint_names": [
        "shoulder_pan_joint",
        "shoulder_lift_joint",
        "elbow_joint",
        "wrist_1_joint",
        "wrist_2_joint",
        "wrist_3_joint"
    ],
    "metrics": {
        "cart_traj_len": 0.35275407012495436,
        "distance_elbow_joint": 0.44770570225312856,
        "distance_shoulder_lift_joint": 0.23592555788386615,
        "distance_shoulder_pan_joint": 0.46187601049295973,
        "distance_wrist_1_joint": 0.23526037488061602,
        "distance_wrist_2_joint": 1.0957008321471093,
        "distance_wrist_3_joint": 0.1012361073503385,
        "smoothness": 4.440892133664971e-16,
        "time": 0.373027032,
        "traj_len": 1.6055231499445963,
        "weighted_distance": 2.027594142508905
    },
    "planner": "FMT",
    "start": {
        "state": {
            "elbow_joint": 1.9715477243005601,
            "shoulder_lift_joint": -1.1394853015351272,
            "shoulder_pan_joint": 0.12281154014795169,
            "wrist_1_joint": -0.7804696478968182,
            "wrist_2_joint": 0.12958648046900423,
            "wrist_3_joint": -3.192491284697111
        }
    },
    "waypoints": [
        {
            "positions": [
                0.12281154014795169,
                -1.1394853015351272,
                1.9715477243005601,
                -0.7804696478968182,
                0.12958648046900423,
                -3.192491284697111
            ]
        },
        {
            "positions": [
                0.056829252934671726,
                -1.1731889526613937,
                2.035505681765293,
                -0.8140782728797633,
                0.2861151707757341,
                -3.1780289836470628
            ]
        },
        {
            "positions": [
                -0.009153034278608238,
                -1.2068926037876604,
                2.0994636392300254,
                -0.8476868978627085,
                0.442643861082464,
                -3.1635666825970143
            ]
        },
        {
            "positions": [
                -0.07513532149188819,
                -1.2405962549139269,
                2.163421596694758,
                -0.8812955228456536,
                0.5991725513891939,
                -3.149104381546966
            ]
        },
        {
            "positions": [
                -0.14111760870516815,
                -1.2742999060401936,
                2.2273795541594907,
                -0.9149041478285987,
                0.7557012416959238,
                -3.134642080496918
            ]
        },
        {
            "positions": [
                -0.20709989591844813,
                -1.30800355716646,
                2.2913375116242234,
                -0.9485127728115439,
                0.9122299320026538,
                -3.1201797794468695
            ]
        },
        {
            "positions": [
                -0.27308218313172805,
                -1.3417072082927266,
                2.355295469088956,
                -0.982121397794489,
                1.0687586223093835,
                -3.105717478396821
            ]
        },
        {
            "positions": [
                -0.33906447034500803,
                -1.3754108594189933,
                2.4192534265536887,
                -1.0157300227774342,
                1.2252873126161137,
                -3.0912551773467727
            ]
        }
    ]
}