{
    "goal": {
        "global_pose": {
            "orientation": {
                "w": 0.7047431468963623,
                "x": -0.7094548344612122,
                "y": 0.0024358443915843964,
                "z": -0.0022348060738295317
            },
            "position": {
                "x": 0.6094750761985779,
                "y": 0.3671506643295288,
                "z": 0.19426114857196808
            }
        },
        "name": "move_to_magneteinheit_A"
    },
    "id": "FMT_move_to_magneteinheit_A_136",
    "joint_names": [
        "shoulder_pan_joint",
        "shoulder_lift_joint",
        "elbow_joint",
        "wrist_1_joint",
        "wrist_2_joint",
        "wrist_3_joint"
    ],
    "metrics": {
        "cart_traj_len": 3.079232008804834,
        "distance_elbow_joint": 3.9260167843483194,
        "distance_shoulder_lift_joint": 0.46151145579544695,
        "distance_shoulder_pan_joint": 2.7263676186008636,
        "distance_wrist_1_joint": 3.5080729700995184,
        "distance_wrist_2_joint": 1.4405988332702615,
        "distance_wrist_3_joint": 1.0652914273133094,
        "smoothness": 0.17191105934338602,
        "time": 1.2495985550000002,
        "traj_len": 3.6232387568897138,
        "weighted_distance": 4.495232335199608
    },
    "planner": "FMT",
    "start": {
        "state": {
            "elbow_joint": -1.919618573717145,
            "shoulder_lift_joint": -1.2443395971678275,
            "shoulder_pan_joint": 2.6996025300909787,
            "wrist_1_joint": -1.548550951253194,
            "wrist_2_joint": -1.5709469090946802,
            "wrist_3_joint": 0.4420197732051276
        }
    },
    "waypoints": [
        {
            "positions": [
                2.6996025300909787,
                -1.2443395971678275,
                -1.919618573717145,
                -1.548550951253194,
                -1.5709469090946802,
                0.4420197732051276
            ]
        },
        {
            "positions": [
                2.6127472002355963,
                -1.2373273593966052,
                -1.814063921931407,
                -1.4322998877515196,
                -1.527981793849034,
                0.41422038875210904
            ]
        },
        {
            "positions": [
                2.525891870380214,
                -1.2303151216253827,
                -1.708509270145669,
                -1.3160488242498452,
                -1.4850166786033878,
                0.3864210042990905
            ]
        },
        {
            "positions": [
                2.4390365405248318,
                -1.2233028838541604,
                -1.602954618359931,
                -1.1997977607481705,
                -1.4420515633577418,
                0.35862161984607194
            ]
        },
        {
            "positions": [
                2.3521812106694493,
                -1.2162906460829381,
                -1.4973999665741933,
                -1.083546697246496,
                -1.3990864481120955,
                0.33082223539305333
            ]
        },
        {
            "positions": [
                2.265325880814067,
                -1.2092784083117156,
                -1.3918453147884553,
                -0.9672956337448214,
                -1.3561213328664494,
                0.3030228509400348
            ]
        },
        {
            "positions": [
                2.1784705509586844,
                -1.2022661705404933,
                -1.2862906630027173,
                -0.851044570243147,
                -1.3131562176208034,
                0.27522346648701623
            ]
        },
        {
            "positions": [
                2.091615221103302,
                -1.195253932769271,
                -1.1807360112169794,
                -0.7347935067414724,
                -1.270191102375157,
                0.24742408203399768
            ]
        },
        {
            "positions": [
                2.00475989124792,
                -1.1882416949980485,
                -1.0751813594312414,
                -0.6185424432397979,
                -1.227225987129511,
                0.21962469758097913
            ]
        },
        {
            "positions": [
                1.9179045613925372,
                -1.1812294572268263,
                -0.9696267076455033,
                -0.5022913797381232,
                -1.1842608718838648,
                0.19182531312796053
            ]
        },
        {
            "positions": [
                1.831049231537155,
                -1.174217219455604,
                -0.8640720558597654,
                -0.38604031623644874,
                -1.1412957566382187,
                0.16402592867494198
            ]
        },
        {
            "positions": [
                1.7441939016817725,
                -1.1672049816843817,
                -0.7585174040740275,
                -0.2697892527347743,
                -1.0983306413925724,
                0.13622654422192348
            ]
        },
        {
            "positions": [
                1.6573385718263902,
                -1.1601927439131592,
                -0.6529627522882895,
                -0.1535381892330998,
                -1.0553655261469264,
                0.10842715976890493
            ]
        },
        {
            "positions": [
                1.5704832419710075,
                -1.153180506141937,
                -0.5474081005025515,
                -0.03728712573142512,
                -1.01240041090128,
                0.08062777531588633
            ]
        },
        {
            "positions": [
                1.4836279121156253,
                -1.1461682683707144,
                -0.44185344871681353,
                0.07896393777024935,
                -0.969435295655634,
                0.05282839086286778
            ]
        },
        {
            "positions": [
                1.396772582260243,
                -1.139156030599492,
                -0.33629879693107556,
                0.19521500127192382,
                -0.9264701804099879,
                0.02502900640984923
            ]
        },
        {
            "positions": [
                1.3099172524048606,
                -1.1321437928282698,
                -0.2307441451453378,
                0.3114660647735983,
                -0.8835050651643418,
                -0.0027703780431693192
            ]
        },
        {
            "positions": [
                1.2230619225494783,
                -1.1251315550570475,
                -0.12518949335959983,
                0.42771712827527275,
                -0.8405399499186956,
                -0.03056976249618787
            ]
        },
        {
            "positions": [
                1.1362065926940956,
                -1.118119317285825,
                -0.01963484157386164,
                0.5439681917769477,
                -0.7975748346730493,
                -0.05836914694920653
            ]
        },
        {
            "positions": [
                1.0493512628387132,
                -1.1111070795146027,
                0.08591981021187656,
                0.6602192552786219,
                -0.7546097194274032,
                -0.08616853140222508
            ]
        },
        {
            "positions": [
                0.9624959329833309,
                -1.1040948417433802,
                0.1914744619976141,
                0.7764703187802966,
                -0.7116446041817571,
                -0.11396791585524363
            ]
        },
        {
            "positions": [
                0.8756406031279487,
                -1.097082603972158,
                0.29702911378335206,
                0.8927213822819713,
                -0.668679488936111,
                -0.14176730030826207
            ]
        },
        {
            "positions": [
                0.7887852732725662,
                -1.0900703662009357,
                0.40258376556909004,
                1.0089724457836455,
                -0.6257143736904648,
                -0.16956668476128062
            ]
        },
        {
            "positions": [
                0.701929943417184,
                -1.0830581284297134,
                0.508138417354828,
                1.1252235092853202,
                -0.5827492584448187,
                -0.19736606921429917
            ]
        },
        {
            "positions": [
                0.6150746135618017,
                -1.0760458906584909,
                0.613693069140566,
                1.2414745727869945,
                -0.5397841431991726,
                -0.22516545366731772
            ]
        },
        {
            "positions": [
                0.5282192837064188,
                -1.0690336528872686,
                0.719247720926304,
                1.3577256362886692,
                -0.4968190279535263,
                -0.2529648381203364
            ]
        },
        {
            "positions": [
                0.44136395385103633,
                -1.0620214151160463,
                0.8248023727120419,
                1.4739766997903438,
                -0.4538539127078802,
                -0.2807642225733549
            ]
        },
        {
            "positions": [
                0.3545086239956543,
                -1.0550091773448238,
                0.9303570244977799,
                1.590227763292018,
                -0.41088879746223395,
                -0.3085636070263735
            ]
        },
        {
            "positions": [
                0.2676532941402717,
                -1.0479969395736015,
                1.0359116762835179,
                1.7064788267936928,
                -0.367923682216588,
                -0.3363629914793921
            ]
        },
        {
            "positions": [
                0.22363898424299533,
                -1.0020096282125215,
                1.2106751648368772,
                1.7486400122888601,
                -0.3357816926305549,
                -0.3127361483723491
            ]
        },
        {
            "positions": [
                0.17962467434571894,
                -0.9560223168514416,
                1.3854386533902368,
                1.7908011977840275,
                -0.30363970304452176,
                -0.2891093052653061
            ]
        },
        {
            "positions": [
                0.13561036444844257,
                -0.9100350054903616,
                1.560202141943596,
                1.8329623832791946,
                -0.27149771345848867,
                -0.2654824621582631
            ]
        },
        {
            "positions": [
                0.09159605455116615,
                -0.8640476941292816,
                1.7349656304969556,
                1.875123568774362,
                -0.23935572387245554,
                -0.2418556190512201
            ]
        },
        {
            "positions": [
                0.047581744653889785,
                -0.8180603827682017,
                1.909729119050315,
                1.9172847542695293,
                -0.20721373428642245,
                -0.2182287759441771
            ]
        },
        {
            "positions": [
                0.0847551612357769,
                -0.8004442620702912,
                1.9580636648407446,
                1.9384033865579269,
                -0.16878090505542048,
                -0.13384155239738973
            ]
        },
        {
            "positions": [
                0.12192857781766402,
                -0.7828281413723805,
                2.006398210631174,
                1.9595220188463245,
                -0.13034807582441854,
                -0.04945432885060237
            ]
        }
    ]
}{
    "goal": {
        "global_pose": {
            "orientation": {
                "w": 0.7047431468963623,
                "x": -0.7094548344612122,
                "y": 0.0024358443915843964,
                "z": -0.0022348060738295317
            },
            "position": {
                "x": 0.6094750761985779,
                "y": 0.3671506643295288,
                "z": 0.19426114857196808
            }
        },
        "name": "move_to_magneteinheit_A"
    },
    "id": "FMT_move_to_magneteinheit_A_136",
    "joint_names": [
        "shoulder_pan_joint",
        "shoulder_lift_joint",
        "elbow_joint",
        "wrist_1_joint",
        "wrist_2_joint",
        "wrist_3_joint"
    ],
    "metrics": {
        "cart_traj_len": 1.380864355375013,
        "distance_elbow_joint": 0.0576207827014239,
        "distance_shoulder_lift_joint": 0.7533644736690832,
        "distance_shoulder_pan_joint": 1.3735622229159794,
        "distance_wrist_1_joint": 2.8607859630192367,
        "distance_wrist_2_joint": 1.4302466915752579,
        "distance_wrist_3_joint": 4.292042645060861,
        "smoothness": 0.31882507973508273,
        "time": 1.1485355,
        "traj_len": 3.2814056102441596,
        "weighted_distance": 4.862380150055944
    },
    "planner": "FMT",
    "start": {
        "state": {
            "elbow_joint": 1.919643534880228,
            "shoulder_lift_joint": -1.8972525353963687,
            "shoulder_pan_joint": -1.1188672234189438,
            "wrist_1_joint": -1.5931878212786155,
            "wrist_2_joint": 1.5706036197970081,
            "wrist_3_joint": 1.118896926603594
        }
    },
    "waypoints": [
        {
            "positions": [
                -1.1188672234189438,
                -1.8972525353963687,
                1.919643534880228,
                -1.5931878212786155,
                1.5706036197970081,
                1.118896926603594
            ]
        },
        {
            "positions": [
                -1.1225050539603634,
                -1.872117138141036,
                1.9220425227679265,
                -1.491578911069226,
                1.497031280676661,
                0.9355009254933228
            ]
        },
        {
            "positions": [
                -1.1261428845017827,
                -1.8469817408857032,
                1.9244415106556247,
                -1.3899700008598366,
                1.4234589415563137,
                0.7521049243830515
            ]
        },
        {
            "positions": [
                -1.1297807150432022,
                -1.8218463436303705,
                1.926840498543323,
                -1.288361090650447,
                1.3498866024359666,
                0.5687089232727804
            ]
        },
        {
            "positions": [
                -1.1334185455846217,
                -1.7967109463750377,
                1.9292394864310214,
                -1.1867521804410575,
                1.2763142633156193,
                0.38531292216250923
            ]
        },
        {
            "positions": [
                -1.1370563761260413,
                -1.771575549119705,
                1.9316384743187198,
                -1.0851432702316681,
                1.2027419241952721,
                0.2019169210522379
            ]
        },
        {
            "positions": [
                -1.1406942066674606,
                -1.7464401518643722,
                1.934037462206418,
                -0.9835343600222786,
                1.129169585074925,
                0.018520919941966918
            ]
        },
        {
            "positions": [
                -1.14433203720888,
                -1.7213047546090394,
                1.9364364500941162,
                -0.881925449812889,
                1.0555972459545777,
                -0.1648750811683044
            ]
        },
        {
            "positions": [
                -1.1479698677502996,
                -1.6961693573537067,
                1.9388354379818147,
                -0.7803165396034996,
                0.9820249068342305,
                -0.3482710822785755
            ]
        },
        {
            "positions": [
                -1.151607698291719,
                -1.6710339600983737,
                1.9412344258695131,
                -0.67870762939411,
                0.9084525677138833,
                -0.5316670833888468
            ]
        },
        {
            "positions": [
                -1.1552455288331385,
                -1.645898562843041,
                1.9436334137572113,
                -0.5770987191847206,
                0.8348802285935361,
                -0.7150630844991182
            ]
        },
        {
            "positions": [
                -1.158883359374558,
                -1.6207631655877082,
                1.9460324016449098,
                -0.475489808975331,
                0.7613078894731888,
                -0.8984590856093895
            ]
        },
        {
            "positions": [
                -1.1625211899159775,
                -1.5956277683323754,
                1.948431389532608,
                -0.37388089876594166,
                0.6877355503528417,
                -1.0818550867196601
            ]
        },
        {
            "positions": [
                -1.1661590204573968,
                -1.5704923710770426,
                1.9508303774203064,
                -0.2722719885565521,
                0.6141632112324945,
                -1.2652510878299317
            ]
        },
        {
            "positions": [
                -1.1697968509988164,
                -1.54535697382171,
                1.9532293653080046,
                -0.17066307834716254,
                0.5405908721121473,
                -1.4486470889402028
            ]
        },
        {
            "positions": [
                -1.173434681540236,
                -1.5202215765663771,
                1.9556283531957028,
                -0.06905416813777299,
                0.46701853299179996,
                -1.6320430900504743
            ]
        },
        {
            "positions": [
                -1.1770725120816554,
                -1.4950861793110444,
                1.9580273410834013,
                0.03255474207161635,
                0.39344619387145285,
                -1.815439091160745
            ]
        },
        {
            "positions": [
                -1.1807103426230747,
                -1.4699507820557116,
                1.9604263289710997,
                0.1341636522810059,
                0.31987385475110575,
                -1.9988350922710165
            ]
        },
        {
            "positions": [
                -1.1843481731644943,
                -1.4448153848003789,
                1.962825316858798,
                0.23577256249039547,
                0.24630151563075842,
                -2.1822310933812874
            ]
        },
        {
            "positions": [
                -1.0535400458474513,
                -1.4147226524930696,
                1.9642692169310834,
                0.13259000456537284,
                0.2357070568898576,
                -2.2813225558888854
            ]
        },
        {
            "positions": [
                -0.9227319185304084,
                -1.3846299201857601,
                1.9657131170033688,
                0.02940744664035025,
                0.2251125981489568,
                -2.3804140183964835
            ]
        },
        {
            "positions": [
                -0.7919237912133656,
                -1.354537187878451,
                1.967157017075654,
                -0.07377511128467235,
                0.21451813940805597,
                -2.479505480904081
            ]
        },
        {
            "positions": [
                -0.6611156638963226,
                -1.3244444555711414,
                1.9686009171479395,
                -0.17695766920969497,
                0.20392368066715516,
                -2.578596943411679
            ]
        },
        {
            "positions": [
                -0.5303075365792798,
                -1.2943517232638322,
                1.970044817220225,
                -0.28014022713471753,
                0.19332922192625435,
                -2.677688405919277
            ]
        },
        {
            "positions": [
                -0.3994994092622369,
                -1.264258990956523,
                1.9714887172925104,
                -0.38332278505974016,
                0.18273476318535353,
                -2.776779868426875
            ]
        },
        {
            "positions": [
                -0.268691281945194,
                -1.2341662586492135,
                1.9729326173647959,
                -0.48650534298476267,
                0.17214030444445272,
                -2.875871330934473
            ]
        },
        {
            "positions": [
                -0.13788315462815093,
                -1.2040735263419042,
                1.974376517437081,
                -0.5896879009097854,
                0.16154584570355188,
                -2.974962793442071
            ]
        },
        {
            "positions": [
                -0.007075027311108206,
                -1.1739807940345948,
                1.9758204175093665,
                -0.6928704588348079,
                0.15095138696265106,
                -3.074054255949669
            ]
        },
        {
            "positions": [
                0.1237331000059348,
                -1.1438880617272855,
                1.977264317581652,
                -0.7960530167598305,
                0.14035692822175025,
                -3.173145718457267
            ]
        }
    ]
}