{
    "goal": {
        "global_pose": {
            "orientation": {
                "w": 0.7047431468963623,
                "x": -0.7094548344612122,
                "y": 0.0024358443915843964,
                "z": -0.0022348060738295317
            },
            "position": {
                "x": 0.6094750761985779,
                "y": 0.3671506643295288,
                "z": 0.19426114857196808
            }
        },
        "name": "move_to_magneteinheit_A"
    },
    "id": "FMT_move_to_magneteinheit_A_87",
    "joint_names": [
        "shoulder_pan_joint",
        "shoulder_lift_joint",
        "elbow_joint",
        "wrist_1_joint",
        "wrist_2_joint",
        "wrist_3_joint"
    ],
    "metrics": {
        "cart_traj_len": 3.438397684816525,
        "distance_elbow_joint": 3.9093881227438096,
        "distance_shoulder_lift_joint": 0.4677369490001738,
        "distance_shoulder_pan_joint": 2.919573362122027,
        "distance_wrist_1_joint": 3.4533745699968317,
        "distance_wrist_2_joint": 1.4415326630872431,
        "distance_wrist_3_joint": 0.4207453799312693,
        "smoothness": 0.007178748953475503,
        "time": 1.2583924579999999,
        "traj_len": 3.5513872003600726,
        "weighted_distance": 4.283543981311266
    },
    "planner": "FMT",
    "start": {
        "state": {
            "elbow_joint": -1.919618573717145,
            "shoulder_lift_joint": -1.2443395971678275,
            "shoulder_pan_joint": 2.6996025300909787,
            "wrist_1_joint": -1.548550951253194,
            "wrist_2_joint": -1.5709469090946802,
            "wrist_3_joint": 0.4420197732051276
        }
    },
    "waypoints": [
        {
            "positions": [
                2.6996025300909787,
                -1.2443395971678275,
                -1.919618573717145,
                -1.548550951253194,
                -1.5709469090946802,
                0.4420197732051276
            ]
        },
        {
            "positions": [
                2.5853782385038793,
                -1.230502063295029,
                -1.81242420795388,
                -1.4664060921893096,
                -1.5153631125068114,
                0.42901173201802806
            ]
        },
        {
            "positions": [
                2.47115394691678,
                -1.2166645294222307,
                -1.7052298421906147,
                -1.3842612331254254,
                -1.459779315918943,
                0.41600369083092853
            ]
        },
        {
            "positions": [
                2.3569296553296804,
                -1.2028269955494322,
                -1.5980354764273497,
                -1.302116374061541,
                -1.4041955193310742,
                0.40299564964382895
            ]
        },
        {
            "positions": [
                2.242705363742581,
                -1.1889894616766339,
                -1.4908411106640846,
                -1.2199715149976567,
                -1.3486117227432057,
                0.3899876084567294
            ]
        },
        {
            "positions": [
                2.128481072155481,
                -1.1751519278038354,
                -1.3836467449008194,
                -1.1378266559337722,
                -1.293027926155337,
                0.3769795672696299
            ]
        },
        {
            "positions": [
                2.0142567805683815,
                -1.161314393931037,
                -1.2764523791375542,
                -1.0556817968698877,
                -1.2374441295674683,
                0.36397152608253036
            ]
        },
        {
            "positions": [
                1.900032488981282,
                -1.1474768600582386,
                -1.1692580133742891,
                -0.9735369378060033,
                -1.1818603329795998,
                0.35096348489543083
            ]
        },
        {
            "positions": [
                1.7858081973941826,
                -1.13363932618544,
                -1.0620636476110241,
                -0.891392078742119,
                -1.1262765363917313,
                0.3379554437083313
            ]
        },
        {
            "positions": [
                1.6715839058070832,
                -1.1198017923126418,
                -0.9548692818477589,
                -0.8092472196782345,
                -1.0706927398038626,
                0.3249474025212318
            ]
        },
        {
            "positions": [
                1.5573596142199835,
                -1.1059642584398433,
                -0.8476749160844939,
                -0.7271023606143501,
                -1.0151089432159939,
                0.3119393613341322
            ]
        },
        {
            "positions": [
                1.443135322632884,
                -1.092126724567045,
                -0.7404805503212288,
                -0.6449575015504658,
                -0.9595251466281253,
                0.2989313201470327
            ]
        },
        {
            "positions": [
                1.3289110310457846,
                -1.0782891906942464,
                -0.6332861845579636,
                -0.5628126424865814,
                -0.9039413500402567,
                0.28592327895993314
            ]
        },
        {
            "positions": [
                1.214686739458685,
                -1.064451656821448,
                -0.5260918187946986,
                -0.4806677834226971,
                -0.8483575534523881,
                0.2729152377728336
            ]
        },
        {
            "positions": [
                1.1004624478715854,
                -1.0506141229486496,
                -0.41889745303143333,
                -0.3985229243588124,
                -0.7927737568645193,
                0.259907196585734
            ]
        },
        {
            "positions": [
                0.986238156284486,
                -1.0367765890758511,
                -0.3117030872681683,
                -0.3163780652949282,
                -0.7371899602766507,
                0.24689915539863452
            ]
        },
        {
            "positions": [
                0.8720138646973865,
                -1.0229390552030528,
                -0.2045087215049033,
                -0.23423320623104393,
                -0.6816061636887822,
                0.233891114211535
            ]
        },
        {
            "positions": [
                0.7577895731102868,
                -1.0091015213302543,
                -0.09731435574163783,
                -0.15208834716715924,
                -0.6260223671009135,
                0.22088307302443544
            ]
        },
        {
            "positions": [
                0.6435652815231876,
                -0.9952639874574559,
                0.009880010021627195,
                -0.069943488103275,
                -0.570438570513045,
                0.2078750318373359
            ]
        },
        {
            "positions": [
                0.5293409899360881,
                -0.9814264535846575,
                0.11707437578489199,
                0.012201370960609248,
                -0.5148547739251763,
                0.19486699065023638
            ]
        },
        {
            "positions": [
                0.41511669834898823,
                -0.967588919711859,
                0.22426874154815724,
                0.09434623002449394,
                -0.4592709773373076,
                0.1818589494631368
            ]
        },
        {
            "positions": [
                0.3008924067618888,
                -0.9537513858390607,
                0.3314631073114225,
                0.17649108908837818,
                -0.4036871807494391,
                0.16885090827603727
            ]
        },
        {
            "positions": [
                0.18666811517478932,
                -0.9399138519662622,
                0.4386574730746873,
                0.25863594815226243,
                -0.3481033841615704,
                0.1558428670889378
            ]
        },
        {
            "positions": [
                0.07244382358768986,
                -0.9260763180934638,
                0.545851838837953,
                0.3407808072161471,
                -0.29251958757370167,
                0.1428348259018382
            ]
        },
        {
            "positions": [
                -0.04178046799940951,
                -0.9122387842206654,
                0.6530462046012177,
                0.4229256662800315,
                -0.23693579098583328,
                0.12982678471473869
            ]
        },
        {
            "positions": [
                -0.043199801748523,
                -0.897131468681103,
                0.8091922066468903,
                0.5899141302811788,
                -0.21965596397283502,
                0.11687906702380264
            ]
        },
        {
            "positions": [
                -0.044619135497636485,
                -0.8820241531415406,
                0.9653382086925629,
                0.7569025942823262,
                -0.20237613695983675,
                0.1039313493328666
            ]
        },
        {
            "positions": [
                -0.04603846924674997,
                -0.8669168376019782,
                1.1214842107382355,
                0.9238910582834735,
                -0.1850963099468385,
                0.09098363164193055
            ]
        },
        {
            "positions": [
                -0.04745780299586346,
                -0.8518095220624158,
                1.277630212783908,
                1.090879522284621,
                -0.16781648293384022,
                0.0780359139509945
            ]
        },
        {
            "positions": [
                -0.04887713674497695,
                -0.8367022065228534,
                1.4337762148295807,
                1.2578679862857682,
                -0.15053665592084198,
                0.06508819626005846
            ]
        },
        {
            "positions": [
                -0.014430315350601339,
                -0.8235113905129806,
                1.557478634623255,
                1.4007267925753215,
                -0.14547769920455045,
                0.055306911785619514
            ]
        },
        {
            "positions": [
                0.020016506043774272,
                -0.8103205745031077,
                1.681181054416929,
                1.543585598864875,
                -0.14041874248825892,
                0.04552562731118056
            ]
        },
        {
            "positions": [
                0.05446332743814989,
                -0.7971297584932349,
                1.804883474210603,
                1.6864444051544285,
                -0.1353597857719674,
                0.035744342836741605
            ]
        },
        {
            "positions": [
                0.08891014883252549,
                -0.783938942483362,
                1.9285858940042773,
                1.8293032114439818,
                -0.13030082905567586,
                0.025963058362302657
            ]
        },
        {
            "positions": [
                0.1222165585410941,
                -0.7766026481676537,
                1.9897695490266645,
                1.904823618743638,
                -0.13118741210391424,
                0.02127439327385827
            ]
        }
    ]
}{
    "goal": {
        "global_pose": {
            "orientation": {
                "w": 0.7047431468963623,
                "x": -0.7094548344612122,
                "y": 0.0024358443915843964,
                "z": -0.0022348060738295317
            },
            "position": {
                "x": 0.6094750761985779,
                "y": 0.3671506643295288,
                "z": 0.19426114857196808
            }
        },
        "name": "move_to_magneteinheit_A"
    },
    "id": "FMT_move_to_magneteinheit_A_87",
    "joint_names": [
        "shoulder_pan_joint",
        "shoulder_lift_joint",
        "elbow_joint",
        "wrist_1_joint",
        "wrist_2_joint",
        "wrist_3_joint"
    ],
    "metrics": {
        "cart_traj_len": 1.292627260362801,
        "distance_elbow_joint": 0.06362921319367221,
        "distance_shoulder_lift_joint": 0.752052246457231,
        "distance_shoulder_pan_joint": 1.2408159475029639,
        "distance_wrist_1_joint": 0.7615081437507679,
        "distance_wrist_2_joint": 1.7149127797732315,
        "distance_wrist_3_joint": 4.266510837308879,
        "smoothness": 0.10015095917723703,
        "time": 1.163836796,
        "traj_len": 2.9663831795617277,
        "weighted_distance": 4.450715871197408
    },
    "planner": "FMT",
    "start": {
        "state": {
            "elbow_joint": 1.919643534880228,
            "shoulder_lift_joint": -1.8972525353963687,
            "shoulder_pan_joint": -1.1188672234189438,
            "wrist_1_joint": -1.5931878212786155,
            "wrist_2_joint": 1.5706036197970081,
            "wrist_3_joint": 1.118896926603594
        }
    },
    "waypoints": [
        {
            "positions": [
                -1.1188672234189438,
                -1.8972525353963687,
                1.919643534880228,
                -1.5931878212786155,
                1.5706036197970081,
                1.118896926603594
            ]
        },
        {
            "positions": [
                -1.106941470807762,
                -1.8674992673452881,
                1.922413471811756,
                -1.587630954906883,
                1.5980018923431338,
                0.8468531627790783
            ]
        },
        {
            "positions": [
                -1.09501571819658,
                -1.8377459992942078,
                1.925183408743284,
                -1.5820740885351507,
                1.6254001648892595,
                0.5748093989545627
            ]
        },
        {
            "positions": [
                -1.0830899655853983,
                -1.8079927312431272,
                1.9279533456748117,
                -1.5765172221634183,
                1.6527984374353855,
                0.30276563513004706
            ]
        },
        {
            "positions": [
                -1.0711642129742163,
                -1.7782394631920468,
                1.9307232826063396,
                -1.570960355791686,
                1.6801967099815112,
                0.0307218713055315
            ]
        },
        {
            "positions": [
                -1.0592384603630345,
                -1.7484861951409663,
                1.9334932195378676,
                -1.5654034894199536,
                1.7075949825276369,
                -0.24132189251898417
            ]
        },
        {
            "positions": [
                -0.993616950115976,
                -1.714970311463087,
                1.9362587489009806,
                -1.5246410554259477,
                1.6199326815808255,
                -0.4027825601960009
            ]
        },
        {
            "positions": [
                -0.9279954398689173,
                -1.6814544277852075,
                1.9390242782640934,
                -1.4838786214319417,
                1.5322703806340143,
                -0.5642432278730176
            ]
        },
        {
            "positions": [
                -0.8623739296218588,
                -1.6479385441073282,
                1.9417898076272064,
                -1.443116187437936,
                1.4446080796872032,
                -0.7257038955500345
            ]
        },
        {
            "positions": [
                -0.7967524193748001,
                -1.6144226604294487,
                1.9445553369903192,
                -1.40235375344393,
                1.3569457787403918,
                -0.8871645632270512
            ]
        },
        {
            "positions": [
                -0.7311309091277416,
                -1.5809067767515694,
                1.9473208663534323,
                -1.361591319449924,
                1.2692834777935804,
                -1.0486252309040682
            ]
        },
        {
            "positions": [
                -0.6655093988806831,
                -1.5473908930736902,
                1.950086395716545,
                -1.3208288854559183,
                1.1816211768467693,
                -1.2100858985810847
            ]
        },
        {
            "positions": [
                -0.5998878886336244,
                -1.5138750093958107,
                1.952851925079658,
                -1.2800664514619124,
                1.093958875899958,
                -1.3715465662581017
            ]
        },
        {
            "positions": [
                -0.5342663783865659,
                -1.4803591257179314,
                1.955617454442771,
                -1.2393040174679064,
                1.0062965749531467,
                -1.5330072339351182
            ]
        },
        {
            "positions": [
                -0.46864486813950723,
                -1.4468432420400519,
                1.958382983805884,
                -1.1985415834739006,
                0.9186342740063355,
                -1.6944679016121351
            ]
        },
        {
            "positions": [
                -0.4030233578924486,
                -1.4133273583621726,
                1.961148513168997,
                -1.1577791494798946,
                0.8309719730595242,
                -1.855928569289152
            ]
        },
        {
            "positions": [
                -0.33740184764539005,
                -1.3798114746842933,
                1.9639140425321098,
                -1.1170167154858888,
                0.7433096721127128,
                -2.017389236966169
            ]
        },
        {
            "positions": [
                -0.2717803373983315,
                -1.346295591006414,
                1.9666795718952228,
                -1.076254281491883,
                0.6556473711659017,
                -2.1788499046431853
            ]
        },
        {
            "positions": [
                -0.20615882715127287,
                -1.3127797073285346,
                1.9694451012583356,
                -1.0354918474978771,
                0.5679850702190905,
                -2.340310572320202
            ]
        },
        {
            "positions": [
                -0.14053731690421434,
                -1.279263823650655,
                1.9722106306214486,
                -0.9947294135038711,
                0.4803227692722791,
                -2.501771239997219
            ]
        },
        {
            "positions": [
                -0.07491580665715569,
                -1.2457479399727758,
                1.9749761599845614,
                -0.9539669795098652,
                0.39266046832546775,
                -2.663231907674236
            ]
        },
        {
            "positions": [
                -0.00929429641009727,
                -1.2122320562948965,
                1.9777416893476745,
                -0.9132045455158594,
                0.3049981673786566,
                -2.824692575351252
            ]
        },
        {
            "positions": [
                0.05632721383696149,
                -1.1787161726170172,
                1.9805072187107873,
                -0.8724421115218535,
                0.21733586643184544,
                -2.9861532430282693
            ]
        },
        {
            "positions": [
                0.12194872408402012,
                -1.1452002889391377,
                1.9832727480739003,
                -0.8316796775278475,
                0.12967356548503411,
                -3.147613910705286
            ]
        }
    ]
}