{
    "goal": {
        "global_pose": {
            "orientation": {
                "w": 0.7047431468963623,
                "x": -0.7094548344612122,
                "y": 0.0024358443915843964,
                "z": -0.0022348060738295317
            },
            "position": {
                "x": 0.6094750761985779,
                "y": 0.3671506643295288,
                "z": 0.19426114857196808
            }
        },
        "name": "move_to_magneteinheit_A"
    },
    "id": "FMT_move_to_magneteinheit_A_135",
    "joint_names": [
        "shoulder_pan_joint",
        "shoulder_lift_joint",
        "elbow_joint",
        "wrist_1_joint",
        "wrist_2_joint",
        "wrist_3_joint"
    ],
    "metrics": {
        "cart_traj_len": 2.946162019819013,
        "distance_elbow_joint": 3.935665923182373,
        "distance_shoulder_lift_joint": 0.6761761529093869,
        "distance_shoulder_pan_joint": 2.7813981227144238,
        "distance_wrist_1_joint": 3.5456331247278268,
        "distance_wrist_2_joint": 1.4338969436119815,
        "distance_wrist_3_joint": 0.5813698173235778,
        "smoothness": 0.03257815788680497,
        "time": 1.262278421,
        "traj_len": 3.5991860308227435,
        "weighted_distance": 4.369943911248352
    },
    "planner": "FMT",
    "start": {
        "state": {
            "elbow_joint": -1.919618573717145,
            "shoulder_lift_joint": -1.2443395971678275,
            "shoulder_pan_joint": 2.6996025300909787,
            "wrist_1_joint": -1.548550951253194,
            "wrist_2_joint": -1.5709469090946802,
            "wrist_3_joint": 0.4420197732051276
        }
    },
    "waypoints": [
        {
            "positions": [
                2.6996025300909787,
                -1.2443395971678275,
                -1.919618573717145,
                -1.548550951253194,
                -1.5709469090946802,
                0.4420197732051276
            ]
        },
        {
            "positions": [
                2.5466733826156984,
                -1.2507990896992478,
                -1.8443970697926315,
                -1.4609627480908642,
                -1.5423123569269186,
                0.4095891845672931
            ]
        },
        {
            "positions": [
                2.3937442351404186,
                -1.257258582230668,
                -1.7691755658681183,
                -1.3733745449285344,
                -1.513677804759157,
                0.37715859592945855
            ]
        },
        {
            "positions": [
                2.2408150876651383,
                -1.2637180747620884,
                -1.6939540619436049,
                -1.2857863417662045,
                -1.4850432525913955,
                0.34472800729162406
            ]
        },
        {
            "positions": [
                2.0878859401898584,
                -1.2701775672935087,
                -1.6187325580190914,
                -1.1981981386038747,
                -1.456408700423634,
                0.31229741865378957
            ]
        },
        {
            "positions": [
                1.934956792714578,
                -1.2766370598249293,
                -1.5435110540945782,
                -1.1106099354415448,
                -1.4277741482558721,
                0.279866830015955
            ]
        },
        {
            "positions": [
                1.7820276452392978,
                -1.2830965523563496,
                -1.4682895501700648,
                -1.023021732279215,
                -1.3991395960881106,
                0.24743624137812054
            ]
        },
        {
            "positions": [
                1.629098497764018,
                -1.2895560448877699,
                -1.3930680462455514,
                -0.935433529116885,
                -1.370505043920349,
                0.21500565274028605
            ]
        },
        {
            "positions": [
                1.4761693502887379,
                -1.2960155374191902,
                -1.3178465423210382,
                -0.8478453259545552,
                -1.3418704917525874,
                0.18257506410245156
            ]
        },
        {
            "positions": [
                1.3232402028134576,
                -1.3024750299506105,
                -1.2426250383965245,
                -0.7602571227922253,
                -1.3132359395848259,
                0.150144475464617
            ]
        },
        {
            "positions": [
                1.1703110553381775,
                -1.3089345224820308,
                -1.1674035344720113,
                -0.6726689196298955,
                -1.2846013874170643,
                0.11771388682678252
            ]
        },
        {
            "positions": [
                1.0173819078628974,
                -1.315394015013451,
                -1.0921820305474979,
                -0.5850807164675655,
                -1.2559668352493027,
                0.08528329818894798
            ]
        },
        {
            "positions": [
                0.8644527603876171,
                -1.3218535075448714,
                -1.0169605266229844,
                -0.4974925133052357,
                -1.227332283081541,
                0.052852709551113486
            ]
        },
        {
            "positions": [
                0.7115236129123372,
                -1.328313000076292,
                -0.9417390226984712,
                -0.40990431014290607,
                -1.1986977309137794,
                0.02042212091327905
            ]
        },
        {
            "positions": [
                0.5585944654370572,
                -1.3347724926077122,
                -0.8665175187739578,
                -0.322316106980576,
                -1.1700631787460178,
                -0.012008467724555494
            ]
        },
        {
            "positions": [
                0.40566531796177685,
                -1.3412319851391326,
                -0.7912960148494446,
                -0.23472790381824615,
                -1.1414286265782563,
                -0.044439056362389984
            ]
        },
        {
            "positions": [
                0.252736170486497,
                -1.3476914776705529,
                -0.7160745109249311,
                -0.1471397006559163,
                -1.1127940744104947,
                -0.07686964500022447
            ]
        },
        {
            "positions": [
                0.09980702301121683,
                -1.3541509702019732,
                -0.6408530070004176,
                -0.0595514974935865,
                -1.0841595222427332,
                -0.10930023363805905
            ]
        },
        {
            "positions": [
                0.0944913032192023,
                -1.3241740612914907,
                -0.47264355697371485,
                0.07000928263944355,
                -1.027892704943301,
                -0.10960007356647396
            ]
        },
        {
            "positions": [
                0.08917558342718776,
                -1.2941971523810085,
                -0.3044341069470121,
                0.19957006277247358,
                -0.9716258876438689,
                -0.10989991349488887
            ]
        },
        {
            "positions": [
                0.08385986363517323,
                -1.264220243470526,
                -0.13622465692030938,
                0.3291308429055037,
                -0.9153590703444369,
                -0.11019975342330376
            ]
        },
        {
            "positions": [
                0.07854414384315869,
                -1.2342433345600436,
                0.03198479310639335,
                0.45869162303853367,
                -0.8590922530450048,
                -0.11049959335171868
            ]
        },
        {
            "positions": [
                0.07322842405114417,
                -1.2042664256495614,
                0.20019424313309608,
                0.5882524031715638,
                -0.8028254357455726,
                -0.11079943328013359
            ]
        },
        {
            "positions": [
                0.06791270425912962,
                -1.174289516739079,
                0.3684036931597988,
                0.717813183304594,
                -0.7465586184461406,
                -0.1110992732085485
            ]
        },
        {
            "positions": [
                0.0625969844671151,
                -1.1443126078285966,
                0.5366131431865017,
                0.847373963437624,
                -0.6902918011467085,
                -0.1113991131369634
            ]
        },
        {
            "positions": [
                0.05728126467510057,
                -1.1143356989181141,
                0.7048225932132043,
                0.9769347435706539,
                -0.6340249838472765,
                -0.1116989530653783
            ]
        },
        {
            "positions": [
                0.051965544883086044,
                -1.084358790007632,
                0.8730320432399071,
                1.106495523703684,
                -0.5777581665478443,
                -0.11199879299379321
            ]
        },
        {
            "positions": [
                0.04664982509107151,
                -1.0543818810971495,
                1.0412414932666096,
                1.236056303836714,
                -0.5214913492484122,
                -0.11229863292220812
            ]
        },
        {
            "positions": [
                0.041334105299056983,
                -1.0244049721866673,
                1.2094509432933123,
                1.3656170839697441,
                -0.46522453194898017,
                -0.11259847285062304
            ]
        },
        {
            "positions": [
                0.036018385507042436,
                -0.9944280632761847,
                1.3776603933200153,
                1.4951778641027744,
                -0.408957714649548,
                -0.11289831277903795
            ]
        },
        {
            "positions": [
                0.030702665715027916,
                -0.9644511543657024,
                1.5458698433467184,
                1.6247386442358043,
                -0.35269089735011583,
                -0.11319815270745284
            ]
        },
        {
            "positions": [
                0.025386945923013382,
                -0.93447424545522,
                1.714079293373421,
                1.7542994243688343,
                -0.29642408005068377,
                -0.11349799263586775
            ]
        },
        {
            "positions": [
                0.02007122613099884,
                -0.9044973365447376,
                1.8822887434001234,
                1.8838602045018644,
                -0.24015726275125168,
                -0.11379783256428266
            ]
        },
        {
            "positions": [
                0.05827128316391592,
                -0.8607306567129855,
                1.9324482206745381,
                1.9263184428666529,
                -0.2014920262755442,
                -0.10421575323146963
            ]
        },
        {
            "positions": [
                0.09647134019683301,
                -0.8169639768812333,
                1.9826076979489526,
                1.9687766812314413,
                -0.16282678979983672,
                -0.0946336738986566
            ]
        },
        {
            "positions": [
                0.1219380448854444,
                -0.7877861903267319,
                2.016047349465229,
                1.9970821734746336,
                -0.1370499654826984,
                -0.08824562101011456
            ]
        }
    ]
}{
    "goal": {
        "global_pose": {
            "orientation": {
                "w": 0.7047431468963623,
                "x": -0.7094548344612122,
                "y": 0.0024358443915843964,
                "z": -0.0022348060738295317
            },
            "position": {
                "x": 0.6094750761985779,
                "y": 0.3671506643295288,
                "z": 0.19426114857196808
            }
        },
        "name": "move_to_magneteinheit_A"
    },
    "id": "FMT_move_to_magneteinheit_A_135",
    "joint_names": [
        "shoulder_pan_joint",
        "shoulder_lift_joint",
        "elbow_joint",
        "wrist_1_joint",
        "wrist_2_joint",
        "wrist_3_joint"
    ],
    "metrics": {
        "cart_traj_len": 1.2495719791845417,
        "distance_elbow_joint": 0.07042739789882013,
        "distance_shoulder_lift_joint": 0.7492716437455265,
        "distance_shoulder_pan_joint": 1.2416120883007737,
        "distance_wrist_1_joint": 0.7314703306678981,
        "distance_wrist_2_joint": 1.4423201105009467,
        "distance_wrist_3_joint": 4.24184714634896,
        "smoothness": 3.089316266897371e-16,
        "time": 1.131326125,
        "traj_len": 2.9115200012129274,
        "weighted_distance": 4.374292337204921
    },
    "planner": "FMT",
    "start": {
        "state": {
            "elbow_joint": 1.919643534880228,
            "shoulder_lift_joint": -1.8972525353963687,
            "shoulder_pan_joint": -1.1188672234189438,
            "wrist_1_joint": -1.5931878212786155,
            "wrist_2_joint": 1.5706036197970081,
            "wrist_3_joint": 1.118896926603594
        }
    },
    "waypoints": [
        {
            "positions": [
                -1.1188672234189438,
                -1.8972525353963687,
                1.919643534880228,
                -1.5931878212786155,
                1.5706036197970081,
                1.118896926603594
            ]
        },
        {
            "positions": [
                -1.0653301959470498,
                -1.8601438947382354,
                1.920550272850982,
                -1.5770665140317524,
                1.5144519753705152,
                0.8994033748557443
            ]
        },
        {
            "positions": [
                -1.0117931684751555,
                -1.8230352540801018,
                1.9214570108217361,
                -1.5609452067848892,
                1.4583003309440223,
                0.6799098231078946
            ]
        },
        {
            "positions": [
                -0.9582561410032615,
                -1.7859266134219685,
                1.92236374879249,
                -1.544823899538026,
                1.4021486865175292,
                0.4604162713600449
            ]
        },
        {
            "positions": [
                -0.9047191135313674,
                -1.7488179727638349,
                1.923270486763244,
                -1.5287025922911628,
                1.3459970420910363,
                0.24092271961219536
            ]
        },
        {
            "positions": [
                -0.8511820860594732,
                -1.7117093321057015,
                1.9241772247339979,
                -1.5125812850442997,
                1.2898453976645434,
                0.021429167864345677
            ]
        },
        {
            "positions": [
                -0.7976450585875792,
                -1.674600691447568,
                1.925083962704752,
                -1.4964599777974366,
                1.2336937532380503,
                -0.1980643838835041
            ]
        },
        {
            "positions": [
                -0.744108031115685,
                -1.6374920507894346,
                1.925990700675506,
                -1.4803386705505734,
                1.1775421088115574,
                -0.41755793563135346
            ]
        },
        {
            "positions": [
                -0.6905710036437909,
                -1.6003834101313013,
                1.9268974386462598,
                -1.4642173633037103,
                1.1213904643850645,
                -0.6370514873792033
            ]
        },
        {
            "positions": [
                -0.6370339761718968,
                -1.5632747694731677,
                1.927804176617014,
                -1.448096056056847,
                1.0652388199585716,
                -0.8565450391270528
            ]
        },
        {
            "positions": [
                -0.5834969487000027,
                -1.5261661288150343,
                1.9287109145877679,
                -1.4319747488099839,
                1.0090871755320787,
                -1.0760385908749026
            ]
        },
        {
            "positions": [
                -0.5299599212281085,
                -1.489057488156901,
                1.9296176525585218,
                -1.4158534415631208,
                0.9529355311055856,
                -1.2955321426227522
            ]
        },
        {
            "positions": [
                -0.4764228937562144,
                -1.4519488474987674,
                1.930524390529276,
                -1.3997321343162576,
                0.8967838866790926,
                -1.5150256943706022
            ]
        },
        {
            "positions": [
                -0.42288586628432034,
                -1.414840206840634,
                1.9314311285000298,
                -1.3836108270693945,
                0.8406322422525998,
                -1.7345192461184513
            ]
        },
        {
            "positions": [
                -0.3693488388124262,
                -1.3777315661825007,
                1.9323378664707838,
                -1.3674895198225314,
                0.7844805978261068,
                -1.9540127978663009
            ]
        },
        {
            "positions": [
                -0.31581181134053216,
                -1.3406229255243671,
                1.9332446044415377,
                -1.351368212575668,
                0.7283289533996138,
                -2.1735063496141507
            ]
        },
        {
            "positions": [
                -0.262274783868638,
                -1.3035142848662336,
                1.9341513424122918,
                -1.335246905328805,
                0.6721773089731209,
                -2.3929999013620007
            ]
        },
        {
            "positions": [
                -0.20873775639674386,
                -1.2664056442081002,
                1.9350580803830457,
                -1.3191255980819419,
                0.6160256645466279,
                -2.61249345310985
            ]
        },
        {
            "positions": [
                -0.14244123214102916,
                -1.2427206936966486,
                1.9460606508622462,
                -1.227643976587697,
                0.5184772334965146,
                -2.714584806436953
            ]
        },
        {
            "positions": [
                -0.0761447078853145,
                -1.219035743185197,
                1.9570632213414467,
                -1.136162355093452,
                0.4209288024464013,
                -2.8166761597640564
            ]
        },
        {
            "positions": [
                -0.0098481836295998,
                -1.1953507926737454,
                1.9680657918206472,
                -1.0446807335992072,
                0.32338037139628806,
                -2.9187675130911597
            ]
        },
        {
            "positions": [
                0.05644834062611487,
                -1.1716658421622939,
                1.9790683622998477,
                -0.9531991121049622,
                0.2258319403461747,
                -3.020858866418263
            ]
        },
        {
            "positions": [
                0.12274486488182955,
                -1.1479808916508423,
                1.9900709327790482,
                -0.8617174906107173,
                0.12828350929606147,
                -3.1229502197453662
            ]
        }
    ]
}