{
    "goal": {
        "global_pose": {
            "orientation": {
                "w": 0.7047431468963623,
                "x": -0.7094548344612122,
                "y": 0.0024358443915843964,
                "z": -0.0022348060738295317
            },
            "position": {
                "x": 0.6094750761985779,
                "y": 0.3671506643295288,
                "z": 0.19426114857196808
            }
        },
        "name": "move_to_magneteinheit_A"
    },
    "id": "FMT_move_to_magneteinheit_A_86",
    "joint_names": [
        "shoulder_pan_joint",
        "shoulder_lift_joint",
        "elbow_joint",
        "wrist_1_joint",
        "wrist_2_joint",
        "wrist_3_joint"
    ],
    "metrics": {
        "cart_traj_len": 3.5320241706589783,
        "distance_elbow_joint": 3.909493475522921,
        "distance_shoulder_lift_joint": 0.6395481856133638,
        "distance_shoulder_pan_joint": 3.0803203167903743,
        "distance_wrist_1_joint": 0.6846585140018292,
        "distance_wrist_2_joint": 2.0530534210047455,
        "distance_wrist_3_joint": 3.553310634066783,
        "smoothness": 0.20967443869583346,
        "time": 1.251791659,
        "traj_len": 3.7310031555869823,
        "weighted_distance": 4.874906947844252
    },
    "planner": "FMT",
    "start": {
        "state": {
            "elbow_joint": -1.919618573717145,
            "shoulder_lift_joint": -1.2443395971678275,
            "shoulder_pan_joint": 2.6996025300909787,
            "wrist_1_joint": -1.548550951253194,
            "wrist_2_joint": -1.5709469090946802,
            "wrist_3_joint": 0.4420197732051276
        }
    },
    "waypoints": [
        {
            "positions": [
                2.6996025300909787,
                -1.2443395971678275,
                -1.919618573717145,
                -1.548550951253194,
                -1.5709469090946802,
                0.4420197732051276
            ]
        },
        {
            "positions": [
                2.6142211355988696,
                -1.2532019514366353,
                -1.8071789078759886,
                -1.5264309497240627,
                -1.5055757650530874,
                0.34315790362591286
            ]
        },
        {
            "positions": [
                2.5288397411067605,
                -1.2620643057054428,
                -1.6947392420348322,
                -1.5043109481949313,
                -1.440204621011495,
                0.24429603404669814
            ]
        },
        {
            "positions": [
                2.4434583466146518,
                -1.2709266599742506,
                -1.5822995761936758,
                -1.4821909466657999,
                -1.3748334769699022,
                0.14543416446748342
            ]
        },
        {
            "positions": [
                2.3580769521225426,
                -1.2797890142430584,
                -1.4698599103525192,
                -1.4600709451366685,
                -1.3094623329283095,
                0.046572294888268695
            ]
        },
        {
            "positions": [
                2.2726955576304335,
                -1.2886513685118661,
                -1.3574202445113628,
                -1.437950943607537,
                -1.244091188886717,
                -0.05228957469094603
            ]
        },
        {
            "positions": [
                2.1873141631383244,
                -1.297513722780674,
                -1.2449805786702064,
                -1.4158309420784057,
                -1.1787200448451243,
                -0.15115144427016075
            ]
        },
        {
            "positions": [
                2.1019327686462157,
                -1.3063760770494814,
                -1.13254091282905,
                -1.3937109405492742,
                -1.1133489008035315,
                -0.2500133138493755
            ]
        },
        {
            "positions": [
                2.0165513741541066,
                -1.3152384313182892,
                -1.0201012469878936,
                -1.3715909390201428,
                -1.0479777567619388,
                -0.3488751834285902
            ]
        },
        {
            "positions": [
                1.9311699796619974,
                -1.324100785587097,
                -0.907661581146737,
                -1.3494709374910114,
                -0.9826066127203462,
                -0.44773705300780503
            ]
        },
        {
            "positions": [
                1.8457885851698883,
                -1.3329631398559045,
                -0.7952219153055806,
                -1.32735093596188,
                -0.9172354686787536,
                -0.5465989225870196
            ]
        },
        {
            "positions": [
                1.7604071906777794,
                -1.3418254941247123,
                -0.6827822494644245,
                -1.3052309344327486,
                -0.8518643246371609,
                -0.6454607921662343
            ]
        },
        {
            "positions": [
                1.6750257961856703,
                -1.35068784839352,
                -0.5703425836232681,
                -1.2831109329036172,
                -0.7864931805955683,
                -0.744322661745449
            ]
        },
        {
            "positions": [
                1.5896444016935611,
                -1.3595502026623278,
                -0.45790291778211145,
                -1.2609909313744858,
                -0.7211220365539756,
                -0.8431845313246638
            ]
        },
        {
            "positions": [
                1.5042630072014522,
                -1.3684125569311356,
                -0.34546325194095506,
                -1.2388709298453544,
                -0.6557508925123829,
                -0.9420464009038785
            ]
        },
        {
            "positions": [
                1.4188816127093433,
                -1.3772749111999432,
                -0.23302358609979867,
                -1.216750928316223,
                -0.5903797484707903,
                -1.0409082704830932
            ]
        },
        {
            "positions": [
                1.3335002182172342,
                -1.386137265468751,
                -0.12058392025864229,
                -1.1946309267870916,
                -0.5250086044291977,
                -1.139770140062308
            ]
        },
        {
            "positions": [
                1.2481188237251253,
                -1.3949996197375587,
                -0.008144254417485897,
                -1.1725109252579604,
                -0.459637460387605,
                -1.2386320096415224
            ]
        },
        {
            "positions": [
                1.162737429233016,
                -1.4038619740063663,
                0.10429541142367094,
                -1.1503909237288288,
                -0.3942663163460123,
                -1.3374938792207376
            ]
        },
        {
            "positions": [
                1.077356034740907,
                -1.412724328275174,
                0.2167350772648271,
                -1.1282709221996974,
                -0.32889517230441956,
                -1.436355748799952
            ]
        },
        {
            "positions": [
                0.9919746402487979,
                -1.4215866825439818,
                0.3291747431059837,
                -1.106150920670566,
                -0.26352402826282706,
                -1.5352176183791668
            ]
        },
        {
            "positions": [
                0.906593245756689,
                -1.4304490368127896,
                0.4416144089471399,
                -1.0840309191414348,
                -0.19815288422123434,
                -1.6340794879583815
            ]
        },
        {
            "positions": [
                0.8212118512645801,
                -1.4393113910815973,
                0.554054074788296,
                -1.0619109176123032,
                -0.13278174017964162,
                -1.7329413575375963
            ]
        },
        {
            "positions": [
                0.7358304567724709,
                -1.4481737453504049,
                0.6664937406294527,
                -1.039790916083172,
                -0.06741059613804912,
                -1.831803227116811
            ]
        },
        {
            "positions": [
                0.6504490622803618,
                -1.4570360996192127,
                0.7789334064706088,
                -1.0176709145540404,
                -0.0020394520964563956,
                -1.9306650966960257
            ]
        },
        {
            "positions": [
                0.5650676677882527,
                -1.4658984538880204,
                0.8913730723117659,
                -0.9955509130249091,
                0.06333169194513633,
                -2.0295269662752404
            ]
        },
        {
            "positions": [
                0.47968627329614355,
                -1.474760808156828,
                1.003812738152922,
                -0.9734309114957777,
                0.12870283598672905,
                -2.128388835854455
            ]
        },
        {
            "positions": [
                0.39430487880403486,
                -1.4836231624256357,
                1.1162524039940787,
                -0.9513109099666462,
                0.19407398002832155,
                -2.22725070543367
            ]
        },
        {
            "positions": [
                0.3089234843119257,
                -1.4924855166944435,
                1.2286920698352348,
                -0.9291909084375148,
                0.2594451240699142,
                -2.3261125750128846
            ]
        },
        {
            "positions": [
                0.2253075118475303,
                -1.4830333987377697,
                1.3593635950610548,
                -0.9233256940939802,
                0.27035865716308893,
                -2.417021428343733
            ]
        },
        {
            "positions": [
                0.14169153938313495,
                -1.473581280781096,
                1.4900351202868745,
                -0.9174604797504458,
                0.2812721902562637,
                -2.5079302816745814
            ]
        },
        {
            "positions": [
                0.05807556691873955,
                -1.4641291628244222,
                1.6207066455126944,
                -0.9115952654069112,
                0.29218572334943843,
                -2.59883913500543
            ]
        },
        {
            "positions": [
                -0.02554040554565578,
                -1.4546770448677484,
                1.7513781707385143,
                -0.9057300510633766,
                0.30309925644261315,
                -2.6897479883362783
            ]
        },
        {
            "positions": [
                -0.07730771348139609,
                -1.289661028808352,
                1.7746966997628386,
                -0.8946333339077769,
                0.25218562664417055,
                -2.7751058726428344
            ]
        },
        {
            "positions": [
                -0.12907502141713642,
                -1.1246450127489558,
                1.798015228787163,
                -0.8835366167521772,
                0.201271996845728,
                -2.8604637569493905
            ]
        },
        {
            "positions": [
                -0.04519409965638334,
                -1.1324989334627091,
                1.861968453126701,
                -0.8769885569185731,
                0.17554533155553892,
                -2.944072791586812
            ]
        },
        {
            "positions": [
                0.038686822104369745,
                -1.1403528541764625,
                1.9259216774662389,
                -0.870440497084969,
                0.14981866626534984,
                -3.0276818262242338
            ]
        },
        {
            "positions": [
                0.12256774386512283,
                -1.1482067748902158,
                1.9898749018057769,
                -0.8638924372513649,
                0.12409200097516074,
                -3.111290860861655
            ]
        }
    ]
}{
    "goal": {
        "global_pose": {
            "orientation": {
                "w": 0.7047431468963623,
                "x": -0.7094548344612122,
                "y": 0.0024358443915843964,
                "z": -0.0022348060738295317
            },
            "position": {
                "x": 0.6094750761985779,
                "y": 0.3671506643295288,
                "z": 0.19426114857196808
            }
        },
        "name": "move_to_magneteinheit_A"
    },
    "id": "FMT_move_to_magneteinheit_A_86",
    "joint_names": [
        "shoulder_pan_joint",
        "shoulder_lift_joint",
        "elbow_joint",
        "wrist_1_joint",
        "wrist_2_joint",
        "wrist_3_joint"
    ],
    "metrics": {
        "cart_traj_len": 1.200910413195153,
        "distance_elbow_joint": 0.05477703515887966,
        "distance_shoulder_lift_joint": 0.7562744739093148,
        "distance_shoulder_pan_joint": 1.2417966446690971,
        "distance_wrist_1_joint": 0.8052652160897709,
        "distance_wrist_2_joint": 1.4348079720745792,
        "distance_wrist_3_joint": 1.9695154281432268,
        "smoothness": 3.134747388469391e-16,
        "time": 0.891114997,
        "traj_len": 2.5024861178525786,
        "weighted_distance": 3.527256839882187
    },
    "planner": "FMT",
    "start": {
        "state": {
            "elbow_joint": 1.919643534880228,
            "shoulder_lift_joint": -1.8972525353963687,
            "shoulder_pan_joint": -1.1188672234189438,
            "wrist_1_joint": -1.5931878212786155,
            "wrist_2_joint": 1.5706036197970081,
            "wrist_3_joint": 1.118896926603594
        }
    },
    "waypoints": [
        {
            "positions": [
                -1.1188672234189438,
                -1.8972525353963687,
                1.919643534880228,
                -1.5931878212786155,
                1.5706036197970081,
                1.118896926603594
            ]
        },
        {
            "positions": [
                -1.0412549331271252,
                -1.8499853807770366,
                1.923067099577658,
                -1.5428587452730047,
                1.4809281215423469,
                1.2419916408625455
            ]
        },
        {
            "positions": [
                -0.9636426428353067,
                -1.8027182261577044,
                1.926490664275088,
                -1.4925296692673942,
                1.3912526232876856,
                1.3650863551214973
            ]
        },
        {
            "positions": [
                -0.8860303525434882,
                -1.7554510715383722,
                1.929914228972518,
                -1.4422005932617834,
                1.3015771250330246,
                1.488181069380449
            ]
        },
        {
            "positions": [
                -0.8084180622516696,
                -1.70818391691904,
                1.933337793669948,
                -1.3918715172561726,
                1.2119016267783633,
                1.6112757836394007
            ]
        },
        {
            "positions": [
                -0.730805771959851,
                -1.6609167622997079,
                1.936761358367378,
                -1.341542441250562,
                1.122226128523702,
                1.7343704978983523
            ]
        },
        {
            "positions": [
                -0.6531934816680325,
                -1.6136496076803757,
                1.940184923064808,
                -1.2912133652449513,
                1.032550630269041,
                1.857465212157304
            ]
        },
        {
            "positions": [
                -0.5755811913762139,
                -1.5663824530610435,
                1.943608487762238,
                -1.2408842892393408,
                0.9428751320143798,
                1.9805599264162557
            ]
        },
        {
            "positions": [
                -0.4979689010843953,
                -1.5191152984417113,
                1.9470320524596678,
                -1.19055521323373,
                0.8531996337597185,
                2.1036546406752072
            ]
        },
        {
            "positions": [
                -0.4203566107925767,
                -1.4718481438223792,
                1.950455617157098,
                -1.1402261372281193,
                0.7635241355050573,
                2.2267493549341593
            ]
        },
        {
            "positions": [
                -0.3427443205007581,
                -1.424580989203047,
                1.9538791818545278,
                -1.0898970612225087,
                0.6738486372503961,
                2.349844069193111
            ]
        },
        {
            "positions": [
                -0.2651320302089396,
                -1.3773138345837148,
                1.957302746551958,
                -1.039567985216898,
                0.584173138995735,
                2.4729387834520624
            ]
        },
        {
            "positions": [
                -0.187519739917121,
                -1.3300466799643826,
                1.9607263112493878,
                -0.9892389092112873,
                0.4944976407410737,
                2.596033497711014
            ]
        },
        {
            "positions": [
                -0.10990744962530252,
                -1.2827795253450505,
                1.964149875946818,
                -0.9389098332056767,
                0.40482214248641246,
                2.7191282119699656
            ]
        },
        {
            "positions": [
                -0.032295159333483925,
                -1.2355123707257183,
                1.9675734406442478,
                -0.8885807572000659,
                0.3151466442317514,
                2.842222926228917
            ]
        },
        {
            "positions": [
                0.04531713095833467,
                -1.1882452161063861,
                1.9709970053416779,
                -0.8382516811944553,
                0.22547114597709017,
                2.965317640487869
            ]
        },
        {
            "positions": [
                0.12292942125015338,
                -1.140978061487054,
                1.9744205700391078,
                -0.7879226051888446,
                0.13579564772242889,
                3.0884123547468207
            ]
        }
    ]
}