{
    "goal": {
        "global_pose": {
            "orientation": {
                "w": 0.5084816217422485,
                "x": -0.49083608388900757,
                "y": 0.5182115435600281,
                "z": -0.4816462993621826
            },
            "position": {
                "x": 0.5540239810943604,
                "y": 0.030875300988554955,
                "z": 0.16403168439865112
            }
        },
        "name": "move_to_storage_A"
    },
    "id": "FMT_move_to_storage_A_65",
    "joint_names": [
        "shoulder_pan_joint",
        "shoulder_lift_joint",
        "elbow_joint",
        "wrist_1_joint",
        "wrist_2_joint",
        "wrist_3_joint"
    ],
    "metrics": {
        "cart_traj_len": 0.3525751675215964,
        "distance_elbow_joint": 0.4494182444561128,
        "distance_shoulder_lift_joint": 0.2355662868210795,
        "distance_shoulder_pan_joint": 0.46151260720928455,
        "distance_wrist_1_joint": 0.23910607834097963,
        "distance_wrist_2_joint": 1.0963222979433862,
        "distance_wrist_3_joint": 0.08821941597195071,
        "smoothness": 0.0,
        "time": 0.375512385,
        "traj_len": 1.6031671562076095,
        "weighted_distance": 2.020399004892613
    },
    "planner": "FMT",
    "start": {
        "state": {
            "elbow_joint": 1.9715477243005601,
            "shoulder_lift_joint": -1.1394853015351272,
            "shoulder_pan_joint": 0.12281154014795169,
            "wrist_1_joint": -0.7804696478968182,
            "wrist_2_joint": 0.12958648046900423,
            "wrist_3_joint": -3.192491284697111
        }
    },
    "waypoints": [
        {
            "positions": [
                0.12281154014795169,
                -1.1394853015351272,
                1.9715477243005601,
                -0.7804696478968182,
                0.12958648046900423,
                -3.192491284697111
            ]
        },
        {
            "positions": [
                0.05688116768948247,
                -1.1731376282238528,
                2.0357503306514335,
                -0.8146276590883866,
                0.28620395160377365,
                -3.1798885109868325
            ]
        },
        {
            "positions": [
                -0.009049204768986754,
                -1.2067899549125785,
                2.0999529370023065,
                -0.8487856702799552,
                0.44282142273854314,
                -3.1672857372765537
            ]
        },
        {
            "positions": [
                -0.07497957722745598,
                -1.240442281601304,
                2.16415554335318,
                -0.8829436814715237,
                0.5994388938733126,
                -3.154682963566275
            ]
        },
        {
            "positions": [
                -0.14090994968592518,
                -1.2740946082900297,
                2.228358149704053,
                -0.9171016926630923,
                0.756056365008082,
                -3.1420801898559967
            ]
        },
        {
            "positions": [
                -0.2068403221443944,
                -1.3077469349787554,
                2.2925607560549266,
                -0.9512597038546607,
                0.9126738361428516,
                -3.129477416145718
            ]
        },
        {
            "positions": [
                -0.27277069460286363,
                -1.341399261667481,
                2.3567633624057995,
                -0.9854177150462293,
                1.069291307277621,
                -3.116874642435439
            ]
        },
        {
            "positions": [
                -0.33870106706133285,
                -1.3750515883562067,
                2.420965968756673,
                -1.0195757262377978,
                1.2259087784123903,
                -3.1042718687251605
            ]
        }
    ]
}