{
    "goal": {
        "global_pose": {
            "orientation": {
                "w": 0.7047431468963623,
                "x": -0.7094548344612122,
                "y": 0.0024358443915843964,
                "z": -0.0022348060738295317
            },
            "position": {
                "x": 0.6094750761985779,
                "y": 0.3671506643295288,
                "z": 0.19426114857196808
            }
        },
        "name": "move_to_magneteinheit_A"
    },
    "id": "FMT_move_to_magneteinheit_A_133",
    "joint_names": [
        "shoulder_pan_joint",
        "shoulder_lift_joint",
        "elbow_joint",
        "wrist_1_joint",
        "wrist_2_joint",
        "wrist_3_joint"
    ],
    "metrics": {
        "cart_traj_len": 3.595229410889807,
        "distance_elbow_joint": 3.8757188644645337,
        "distance_shoulder_lift_joint": 0.18438098756657828,
        "distance_shoulder_pan_joint": 2.990500717764158,
        "distance_wrist_1_joint": 0.8295751817800571,
        "distance_wrist_2_joint": 1.690454279668096,
        "distance_wrist_3_joint": 2.589924835401422,
        "smoothness": 0.07991601673644912,
        "time": 1.210269048,
        "traj_len": 3.4871987133865554,
        "weighted_distance": 4.456504684042847
    },
    "planner": "FMT",
    "start": {
        "state": {
            "elbow_joint": -1.919618573717145,
            "shoulder_lift_joint": -1.2443395971678275,
            "shoulder_pan_joint": 2.6996025300909787,
            "wrist_1_joint": -1.548550951253194,
            "wrist_2_joint": -1.5709469090946802,
            "wrist_3_joint": 0.4420197732051276
        }
    },
    "waypoints": [
        {
            "positions": [
                2.6996025300909787,
                -1.2443395971678275,
                -1.919618573717145,
                -1.548550951253194,
                -1.5709469090946802,
                0.4420197732051276
            ]
        },
        {
            "positions": [
                2.5835930908641247,
                -1.2381147730244568,
                -1.7985669772697177,
                -1.5278703376382161,
                -1.5491029504593794,
                0.544481814142642
            ]
        },
        {
            "positions": [
                2.4675836516372707,
                -1.231889948881086,
                -1.6775153808222905,
                -1.5071897240232381,
                -1.5272589918240786,
                0.6469438550801564
            ]
        },
        {
            "positions": [
                2.351574212410416,
                -1.225665124737715,
                -1.5564637843748632,
                -1.4865091104082602,
                -1.5054150331887781,
                0.7494058960176708
            ]
        },
        {
            "positions": [
                2.235564773183562,
                -1.2194403005943444,
                -1.4354121879274357,
                -1.4658284967932822,
                -1.4835710745534774,
                0.8518679369551851
            ]
        },
        {
            "positions": [
                2.119555333956708,
                -1.2132154764509737,
                -1.3143605914800085,
                -1.4451478831783042,
                -1.4617271159181766,
                0.9543299778926997
            ]
        },
        {
            "positions": [
                2.003545894729854,
                -1.2069906523076028,
                -1.1933089950325813,
                -1.4244672695633263,
                -1.4398831572828759,
                1.056792018830214
            ]
        },
        {
            "positions": [
                1.8875364555029999,
                -1.200765828164232,
                -1.0722573985851538,
                -1.4037866559483483,
                -1.418039198647575,
                1.1592540597677286
            ]
        },
        {
            "positions": [
                1.7715270162761458,
                -1.1945410040208613,
                -0.9512058021377268,
                -1.3831060423333703,
                -1.3961952400122746,
                1.2617161007052429
            ]
        },
        {
            "positions": [
                1.6555175770492916,
                -1.1883161798774906,
                -0.8301542056902995,
                -1.3624254287183923,
                -1.3743512813769738,
                1.3641781416427574
            ]
        },
        {
            "positions": [
                1.5395081378224376,
                -1.1820913557341197,
                -0.709102609242872,
                -1.3417448151034144,
                -1.352507322741673,
                1.4666401825802717
            ]
        },
        {
            "positions": [
                1.4234986985955835,
                -1.1758665315907488,
                -0.5880510127954448,
                -1.3210642014884364,
                -1.3306633641063723,
                1.569102223517786
            ]
        },
        {
            "positions": [
                1.3074892593687293,
                -1.1696417074473782,
                -0.46699941634801756,
                -1.3003835878734584,
                -1.3088194054710716,
                1.6715642644553006
            ]
        },
        {
            "positions": [
                1.1914798201418753,
                -1.1634168833040075,
                -0.3459478199005903,
                -1.2797029742584805,
                -1.286975446835771,
                1.774026305392815
            ]
        },
        {
            "positions": [
                1.075470380915021,
                -1.1571920591606366,
                -0.22489622345316285,
                -1.2590223606435025,
                -1.2651314882004703,
                1.8764883463303295
            ]
        },
        {
            "positions": [
                0.959460941688167,
                -1.1509672350172657,
                -0.1038446270057356,
                -1.2383417470285245,
                -1.2432875295651695,
                1.9789503872678438
            ]
        },
        {
            "positions": [
                0.843451502461313,
                -1.144742410873895,
                0.017206969441691422,
                -1.2176611334135465,
                -1.221443570929869,
                2.081412428205358
            ]
        },
        {
            "positions": [
                0.7274420632344585,
                -1.1385175867305244,
                0.1382585658891189,
                -1.1969805197985686,
                -1.199599612294568,
                2.1838744691428724
            ]
        },
        {
            "positions": [
                0.6114326240076045,
                -1.1322927625871535,
                0.2593101623365459,
                -1.1762999061835906,
                -1.1777556536592675,
                2.286336510080387
            ]
        },
        {
            "positions": [
                0.4954231847807504,
                -1.1260679384437826,
                0.3803617587839734,
                -1.1556192925686126,
                -1.1559116950239667,
                2.3887985510179015
            ]
        },
        {
            "positions": [
                0.3794137455538964,
                -1.119843114300412,
                0.5014133552314008,
                -1.1349386789536346,
                -1.134067736388666,
                2.491260591955416
            ]
        },
        {
            "positions": [
                0.26340430632704237,
                -1.1136182901570413,
                0.6224649516788279,
                -1.1142580653386567,
                -1.1122237777533655,
                2.59372263289293
            ]
        },
        {
            "positions": [
                0.14739486710018834,
                -1.1073934660136704,
                0.7435165481262553,
                -1.0935774517236787,
                -1.0903798191180647,
                2.6961846738304445
            ]
        },
        {
            "positions": [
                0.03138542787333387,
                -1.1011686418702995,
                0.8645681445736828,
                -1.0728968381087007,
                -1.068535860482764,
                2.7986467147679592
            ]
        },
        {
            "positions": [
                -0.08462401135352007,
                -1.0949438177269288,
                0.98561974102111,
                -1.0522162244937228,
                -1.0466919018474632,
                2.9011087557054736
            ]
        },
        {
            "positions": [
                -0.05883973931356282,
                -1.0993169687426387,
                1.106929809736895,
                -1.0105611676161494,
                -0.9009169927948534,
                2.917463237318108
            ]
        },
        {
            "positions": [
                -0.03305546727360556,
                -1.1036901197583489,
                1.2282398784526796,
                -0.9689061107385764,
                -0.7551420837422436,
                2.933817718930743
            ]
        },
        {
            "positions": [
                -0.007271195233648303,
                -1.1080632707740588,
                1.3495499471684644,
                -0.9272510538610031,
                -0.6093671746896336,
                2.9501722005433773
            ]
        },
        {
            "positions": [
                0.018513076806308953,
                -1.1124364217897686,
                1.470860015884249,
                -0.88559599698343,
                -0.4635922656370238,
                2.9665266821560117
            ]
        },
        {
            "positions": [
                0.04429734884626621,
                -1.1168095728054785,
                1.592170084600034,
                -0.8439409401058566,
                -0.317817356584414,
                2.982881163768646
            ]
        },
        {
            "positions": [
                0.07008162088622347,
                -1.1211827238211884,
                1.7134801533158188,
                -0.8022858832282834,
                -0.1720424475318041,
                2.9992356453812805
            ]
        },
        {
            "positions": [
                0.09586589292618072,
                -1.1255558748368986,
                1.8347902220316037,
                -0.7606308263507102,
                -0.026267538479194386,
                3.0155901269939154
            ]
        },
        {
            "positions": [
                0.12165016496613797,
                -1.1299290258526085,
                1.9561002907473883,
                -0.718975769473137,
                0.11950737057341561,
                3.03194460860655
            ]
        }
    ]
}{
    "goal": {
        "global_pose": {
            "orientation": {
                "w": 0.7047431468963623,
                "x": -0.7094548344612122,
                "y": 0.0024358443915843964,
                "z": -0.0022348060738295317
            },
            "position": {
                "x": 0.6094750761985779,
                "y": 0.3671506643295288,
                "z": 0.19426114857196808
            }
        },
        "name": "move_to_magneteinheit_A"
    },
    "id": "FMT_move_to_magneteinheit_A_133",
    "joint_names": [
        "shoulder_pan_joint",
        "shoulder_lift_joint",
        "elbow_joint",
        "wrist_1_joint",
        "wrist_2_joint",
        "wrist_3_joint"
    ],
    "metrics": {
        "cart_traj_len": 1.207807327229748,
        "distance_elbow_joint": 0.07009725479087092,
        "distance_shoulder_lift_joint": 0.7489147937001588,
        "distance_shoulder_pan_joint": 1.2419617396180294,
        "distance_wrist_1_joint": 0.7255875783352103,
        "distance_wrist_2_joint": 1.4481500876221842,
        "distance_wrist_3_joint": 4.243586252642143,
        "smoothness": 2.2204460551110373e-16,
        "time": 1.118606176,
        "traj_len": 2.9117516560841166,
        "weighted_distance": 4.374838040196491
    },
    "planner": "FMT",
    "start": {
        "state": {
            "elbow_joint": 1.919643534880228,
            "shoulder_lift_joint": -1.8972525353963687,
            "shoulder_pan_joint": -1.1188672234189438,
            "wrist_1_joint": -1.5931878212786155,
            "wrist_2_joint": 1.5706036197970081,
            "wrist_3_joint": 1.118896926603594
        }
    },
    "waypoints": [
        {
            "positions": [
                -1.1188672234189438,
                -1.8972525353963687,
                1.919643534880228,
                -1.5931878212786155,
                1.5706036197970081,
                1.118896926603594
            ]
        },
        {
            "positions": [
                -1.0631954035018305,
                -1.8632744916510997,
                1.921976403632309,
                -1.5612263324973479,
                1.5055995089766592,
                0.926432903604455
            ]
        },
        {
            "positions": [
                -1.0075235835847172,
                -1.8292964479058307,
                1.9243092723843898,
                -1.5292648437160803,
                1.44059539815631,
                0.7339688806053161
            ]
        },
        {
            "positions": [
                -0.9518517636676037,
                -1.7953184041605617,
                1.9266421411364707,
                -1.497303354934813,
                1.375591287335961,
                0.5415048576061772
            ]
        },
        {
            "positions": [
                -0.8961799437504904,
                -1.7613403604152926,
                1.9289750098885516,
                -1.4653418661535453,
                1.3105871765156119,
                0.34904083460703816
            ]
        },
        {
            "positions": [
                -0.8405081238333769,
                -1.7273623166700236,
                1.9313078786406326,
                -1.4333803773722777,
                1.245583065695263,
                0.15657681160789927
            ]
        },
        {
            "positions": [
                -0.7848363039162636,
                -1.6933842729247544,
                1.9336407473927133,
                -1.4014188885910102,
                1.180578954874914,
                -0.035887211391239626
            ]
        },
        {
            "positions": [
                -0.7291644839991502,
                -1.6594062291794853,
                1.9359736161447942,
                -1.3694573998097428,
                1.1155748440545648,
                -0.22835123439037863
            ]
        },
        {
            "positions": [
                -0.6734926640820369,
                -1.6254281854342163,
                1.9383064848968752,
                -1.3374959110284752,
                1.0505707332342156,
                -0.42081525738951764
            ]
        },
        {
            "positions": [
                -0.6178208441649234,
                -1.5914501416889473,
                1.9406393536489561,
                -1.3055344222472076,
                0.9855666224138666,
                -0.6132792803886566
            ]
        },
        {
            "positions": [
                -0.5621490242478101,
                -1.5574720979436782,
                1.9429722224010368,
                -1.27357293346594,
                0.9205625115935177,
                -0.8057433033877954
            ]
        },
        {
            "positions": [
                -0.5064772043306968,
                -1.5234940541984092,
                1.9453050911531178,
                -1.2416114446846724,
                0.8555584007731686,
                -0.9982073263869344
            ]
        },
        {
            "positions": [
                -0.4508053844135834,
                -1.4895160104531402,
                1.9476379599051987,
                -1.209649955903405,
                0.7905542899528196,
                -1.1906713493860732
            ]
        },
        {
            "positions": [
                -0.39513356449646997,
                -1.4555379667078712,
                1.9499708286572794,
                -1.1776884671221375,
                0.7255501791324704,
                -1.3831353723852124
            ]
        },
        {
            "positions": [
                -0.33946174457935663,
                -1.4215599229626021,
                1.9523036974093604,
                -1.14572697834087,
                0.6605460683121215,
                -1.5755993953843512
            ]
        },
        {
            "positions": [
                -0.2837899246622433,
                -1.3875818792173331,
                1.9546365661614413,
                -1.1137654895596025,
                0.5955419574917724,
                -1.76806341838349
            ]
        },
        {
            "positions": [
                -0.22811810474512983,
                -1.353603835472064,
                1.9569694349135223,
                -1.0818040007783347,
                0.5305378466714232,
                -1.9605274413826292
            ]
        },
        {
            "positions": [
                -0.1724462848280166,
                -1.319625791726795,
                1.959302303665603,
                -1.0498425119970674,
                0.46553373585107427,
                -2.152991464381768
            ]
        },
        {
            "positions": [
                -0.11677446491090304,
                -1.2856477479815258,
                1.961635172417684,
                -1.0178810232157998,
                0.4005296250307251,
                -2.3454554873809075
            ]
        },
        {
            "positions": [
                -0.0611026449937897,
                -1.2516697042362568,
                1.9639680411697649,
                -0.9859195344345323,
                0.33552551421037613,
                -2.5379195103800463
            ]
        },
        {
            "positions": [
                -0.00543082507667636,
                -1.217691660490988,
                1.9663009099218458,
                -0.9539580456532647,
                0.27052140339002717,
                -2.730383533379185
            ]
        },
        {
            "positions": [
                0.05024099484043698,
                -1.1837136167457187,
                1.9686337786739265,
                -0.9219965568719971,
                0.205517292569678,
                -2.922847556378324
            ]
        },
        {
            "positions": [
                0.10591281475755024,
                -1.1497355730004497,
                1.9709666474260075,
                -0.8900350680907296,
                0.14051318174932897,
                -3.1153115793774626
            ]
        },
        {
            "positions": [
                0.12309451619908535,
                -1.14833774169621,
                1.989740789671099,
                -0.8676002429434052,
                0.1224535321748238,
                -3.124689326038549
            ]
        }
    ]
}