{
    "goal": {
        "global_pose": {
            "orientation": {
                "w": 0.5084816217422485,
                "x": -0.49083608388900757,
                "y": 0.5182115435600281,
                "z": -0.4816462993621826
            },
            "position": {
                "x": 0.5540239810943604,
                "y": 0.030875300988554955,
                "z": 0.16403168439865112
            }
        },
        "name": "move_to_storage_A"
    },
    "id": "FMT_move_to_storage_A_138",
    "joint_names": [
        "shoulder_pan_joint",
        "shoulder_lift_joint",
        "elbow_joint",
        "wrist_1_joint",
        "wrist_2_joint",
        "wrist_3_joint"
    ],
    "metrics": {
        "cart_traj_len": 0.3524679246267445,
        "distance_elbow_joint": 0.44920217114901195,
        "distance_shoulder_lift_joint": 0.23297028518621432,
        "distance_shoulder_pan_joint": 0.4565118607325666,
        "distance_wrist_1_joint": 0.24686841136523896,
        "distance_wrist_2_joint": 1.1153439795691238,
        "distance_wrist_3_joint": 0.089236801013993,
        "smoothness": 1.443289937032604e-15,
        "time": 0.383545716,
        "traj_len": 1.6093891726416418,
        "weighted_distance": 2.032441758569848
    },
    "planner": "FMT",
    "start": {
        "state": {
            "elbow_joint": 1.9715477243005601,
            "shoulder_lift_joint": -1.1394853015351272,
            "shoulder_pan_joint": 0.12281154014795169,
            "wrist_1_joint": -0.7804696478968182,
            "wrist_2_joint": 0.12958648046900423,
            "wrist_3_joint": -3.192491284697111
        }
    },
    "waypoints": [
        {
            "positions": [
                0.12281154014795169,
                -1.1394853015351272,
                1.9715477243005601,
                -0.7804696478968182,
                0.12958648046900423,
                -3.192491284697111
            ]
        },
        {
            "positions": [
                0.057595560043299326,
                -1.1727667708474434,
                2.0357194630361333,
                -0.815736563806138,
                0.2889213346931647,
                -3.1797431702665406
            ]
        },
        {
            "positions": [
                -0.0076204200613530365,
                -1.2060482401597599,
                2.0998912017717064,
                -0.8510034797154579,
                0.44825618891732527,
                -3.1669950558359705
            ]
        },
        {
            "positions": [
                -0.07283640016600541,
                -1.239329709472076,
                2.1640629405072795,
                -0.8862703956247777,
                0.6075910431414858,
                -3.1542469414054
            ]
        },
        {
            "positions": [
                -0.13805238027065775,
                -1.2726111787843926,
                2.2282346792428527,
                -0.9215373115340976,
                0.7669258973656463,
                -3.1414988269748294
            ]
        },
        {
            "positions": [
                -0.20326836037531015,
                -1.3058926480967088,
                2.292406417978426,
                -0.9568042274434174,
                0.9262607515898069,
                -3.128750712544259
            ]
        },
        {
            "positions": [
                -0.2684843404799625,
                -1.339174117409025,
                2.356578156713999,
                -0.9920711433527373,
                1.0855956058139675,
                -3.1160025981136887
            ]
        },
        {
            "positions": [
                -0.3337003205846149,
                -1.3724555867213415,
                2.420749895449572,
                -1.0273380592620571,
                1.244930460038128,
                -3.103254483683118
            ]
        }
    ]
}