{
    "goal": {
        "global_pose": {
            "orientation": {
                "w": 0.5084816217422485,
                "x": -0.49083608388900757,
                "y": 0.5182115435600281,
                "z": -0.4816462993621826
            },
            "position": {
                "x": 0.5540239810943604,
                "y": 0.030875300988554955,
                "z": 0.16403168439865112
            }
        },
        "name": "move_to_storage_A"
    },
    "id": "FMT_move_to_storage_A_126",
    "joint_names": [
        "shoulder_pan_joint",
        "shoulder_lift_joint",
        "elbow_joint",
        "wrist_1_joint",
        "wrist_2_joint",
        "wrist_3_joint"
    ],
    "metrics": {
        "cart_traj_len": 0.3528123192385563,
        "distance_elbow_joint": 0.449359638972743,
        "distance_shoulder_lift_joint": 0.23308476397287214,
        "distance_shoulder_pan_joint": 0.4598152877006253,
        "distance_wrist_1_joint": 0.2448191618256167,
        "distance_wrist_2_joint": 1.1039949299135032,
        "distance_wrist_3_joint": 0.09218083603798721,
        "smoothness": 6.661338200497456e-16,
        "time": 0.370290854,
        "traj_len": 1.6072506395778312,
        "weighted_distance": 2.028898810251128
    },
    "planner": "FMT",
    "start": {
        "state": {
            "elbow_joint": 1.9715477243005601,
            "shoulder_lift_joint": -1.1394853015351272,
            "shoulder_pan_joint": 0.12281154014795169,
            "wrist_1_joint": -0.7804696478968182,
            "wrist_2_joint": 0.12958648046900423,
            "wrist_3_joint": -3.192491284697111
        }
    },
    "waypoints": [
        {
            "positions": [
                0.12281154014795169,
                -1.1394853015351272,
                1.9715477243005601,
                -0.7804696478968182,
                0.12958648046900423,
                -3.192491284697111
            ]
        },
        {
            "positions": [
                0.057123641905005226,
                -1.1727831249598233,
                2.0357419584395235,
                -0.8154438138719062,
                0.28730004188521896,
                -3.1793225938345415
            ]
        },
        {
            "positions": [
                -0.008564256337941237,
                -1.2060809483845192,
                2.0999361925784865,
                -0.8504179798469944,
                0.4450136033014337,
                -3.166153902971972
            ]
        },
        {
            "positions": [
                -0.0742521545808877,
                -1.2393787718092153,
                2.16413042671745,
                -0.8853921458220825,
                0.6027271647176484,
                -3.152985212109402
            ]
        },
        {
            "positions": [
                -0.13994005282383415,
                -1.2726765952339112,
                2.2283246608564133,
                -0.9203663117971705,
                0.7604407261338632,
                -3.139816521246833
            ]
        },
        {
            "positions": [
                -0.20562795106678067,
                -1.3059744186586073,
                2.2925188949953768,
                -0.9553404777722587,
                0.918154287550078,
                -3.1266478303842633
            ]
        },
        {
            "positions": [
                -0.2713158493097271,
                -1.3392722420833032,
                2.3567131291343397,
                -0.9903146437473467,
                1.0758678489662925,
                -3.1134791395216936
            ]
        },
        {
            "positions": [
                -0.3370037475526736,
                -1.3725700655079993,
                2.420907363273303,
                -1.0252888097224349,
                1.2335814103825076,
                -3.100310448659124
            ]
        }
    ]
}