{
    "goal": {
        "global_pose": {
            "orientation": {
                "w": 0.7047431468963623,
                "x": -0.7094548344612122,
                "y": 0.0024358443915843964,
                "z": -0.0022348060738295317
            },
            "position": {
                "x": 0.6094750761985779,
                "y": 0.3671506643295288,
                "z": 0.19426114857196808
            }
        },
        "name": "move_to_magneteinheit_A"
    },
    "id": "FMT_move_to_magneteinheit_A_121",
    "joint_names": [
        "shoulder_pan_joint",
        "shoulder_lift_joint",
        "elbow_joint",
        "wrist_1_joint",
        "wrist_2_joint",
        "wrist_3_joint"
    ],
    "metrics": {
        "cart_traj_len": 3.4556459478038644,
        "distance_elbow_joint": 3.870796619912161,
        "distance_shoulder_lift_joint": 0.5180333170013613,
        "distance_shoulder_pan_joint": 3.299126459250623,
        "distance_wrist_1_joint": 0.8562195558618036,
        "distance_wrist_2_joint": 1.6945625289122717,
        "distance_wrist_3_joint": 2.5652961294454784,
        "smoothness": 0.1987873799153744,
        "time": 1.16783411,
        "traj_len": 3.5782725735169625,
        "weighted_distance": 4.526080970779105
    },
    "planner": "FMT",
    "start": {
        "state": {
            "elbow_joint": -1.919618573717145,
            "shoulder_lift_joint": -1.2443395971678275,
            "shoulder_pan_joint": 2.6996025300909787,
            "wrist_1_joint": -1.548550951253194,
            "wrist_2_joint": -1.5709469090946802,
            "wrist_3_joint": 0.4420197732051276
        }
    },
    "waypoints": [
        {
            "positions": [
                2.6996025300909787,
                -1.2443395971678275,
                -1.919618573717145,
                -1.548550951253194,
                -1.5709469090946802,
                0.4420197732051276
            ]
        },
        {
            "positions": [
                2.594667378002182,
                -1.2515180862535138,
                -1.7976739743913517,
                -1.5277902707325877,
                -1.5298282090098507,
                0.5335220657991917
            ]
        },
        {
            "positions": [
                2.4897322259133845,
                -1.2586965753392003,
                -1.6757293750655582,
                -1.507029590211981,
                -1.4887095089250213,
                0.6250243583932559
            ]
        },
        {
            "positions": [
                2.3847970738245876,
                -1.2658750644248866,
                -1.553784775739765,
                -1.4862689096913746,
                -1.447590808840192,
                0.71652665098732
            ]
        },
        {
            "positions": [
                2.2798619217357903,
                -1.273053553510573,
                -1.4318401764139717,
                -1.4655082291707682,
                -1.4064721087553627,
                0.8080289435813841
            ]
        },
        {
            "positions": [
                2.1749267696469934,
                -1.2802320425962594,
                -1.3098955770881782,
                -1.4447475486501615,
                -1.3653534086705332,
                0.8995312361754484
            ]
        },
        {
            "positions": [
                2.0699916175581965,
                -1.2874105316819457,
                -1.1879509777623851,
                -1.423986868129555,
                -1.324234708585704,
                0.9910335287695125
            ]
        },
        {
            "positions": [
                1.9650564654693992,
                -1.294589020767632,
                -1.0660063784365916,
                -1.4032261876089487,
                -1.2831160085008746,
                1.0825358213635767
            ]
        },
        {
            "positions": [
                1.8601213133806023,
                -1.3017675098533186,
                -0.9440617791107984,
                -1.3824655070883423,
                -1.2419973084160452,
                1.1740381139576408
            ]
        },
        {
            "positions": [
                1.755186161291805,
                -1.3089459989390049,
                -0.8221171797850049,
                -1.3617048265677356,
                -1.2008786083312157,
                1.265540406551705
            ]
        },
        {
            "positions": [
                1.6502510092030078,
                -1.3161244880246912,
                -0.7001725804592116,
                -1.3409441460471292,
                -1.1597599082463863,
                1.3570426991457691
            ]
        },
        {
            "positions": [
                1.545315857114211,
                -1.3233029771103775,
                -0.5782279811334183,
                -1.3201834655265228,
                -1.118641208161557,
                1.4485449917398334
            ]
        },
        {
            "positions": [
                1.4403807050254138,
                -1.330481466196064,
                -0.45628338180762507,
                -1.2994227850059161,
                -1.0775225080767277,
                1.5400472843338975
            ]
        },
        {
            "positions": [
                1.3354455529366167,
                -1.3376599552817503,
                -0.3343387824818316,
                -1.2786621044853097,
                -1.0364038079918982,
                1.6315495769279618
            ]
        },
        {
            "positions": [
                1.2305104008478196,
                -1.3448384443674368,
                -0.2123941831560383,
                -1.2579014239647033,
                -0.9952851079070689,
                1.7230518695220258
            ]
        },
        {
            "positions": [
                1.1255752487590225,
                -1.3520169334531231,
                -0.09044958383024504,
                -1.2371407434440966,
                -0.9541664078222396,
                1.8145541621160899
            ]
        },
        {
            "positions": [
                1.0206400966702256,
                -1.3591954225388094,
                0.03149501549554823,
                -1.2163800629234902,
                -0.9130477077374102,
                1.906056454710154
            ]
        },
        {
            "positions": [
                0.9157049445814285,
                -1.3663739116244957,
                0.15343961482134172,
                -1.1956193824028838,
                -0.8719290076525809,
                1.9975587473042182
            ]
        },
        {
            "positions": [
                0.8107697924926311,
                -1.3735524007101823,
                0.2753842141471352,
                -1.1748587018822771,
                -0.8308103075677514,
                2.0890610398982825
            ]
        },
        {
            "positions": [
                0.705834640403834,
                -1.3807308897958686,
                0.39732881347292826,
                -1.1540980213616707,
                -0.789691607482922,
                2.180563332492347
            ]
        },
        {
            "positions": [
                0.6008994883150369,
                -1.387909378881555,
                0.5192734127987217,
                -1.1333373408410643,
                -0.7485729073980927,
                2.2720656250864106
            ]
        },
        {
            "positions": [
                0.49596433622624003,
                -1.3950878679672414,
                0.6412180121245148,
                -1.1125766603204577,
                -0.7074542073132633,
                2.363567917680475
            ]
        },
        {
            "positions": [
                0.39102918413744314,
                -1.4022663570529277,
                0.7631626114503083,
                -1.0918159797998512,
                -0.6663355072284339,
                2.455070210274539
            ]
        },
        {
            "positions": [
                0.2860940320486458,
                -1.409444846138614,
                0.8851072107761018,
                -1.0710552992792448,
                -0.6252168071436046,
                2.546572502868603
            ]
        },
        {
            "positions": [
                0.18115887995984892,
                -1.4166233352243005,
                1.0070518101018948,
                -1.0502946187586382,
                -0.5840981070587752,
                2.6380747954626673
            ]
        },
        {
            "positions": [
                0.07622372787105158,
                -1.4238018243099868,
                1.1289964094276883,
                -1.0295339382380317,
                -0.5429794069739458,
                2.7295770880567316
            ]
        },
        {
            "positions": [
                -0.028711424217745307,
                -1.430980313395673,
                1.2509410087534818,
                -1.0087732577174253,
                -0.5018607068891163,
                2.821079380650796
            ]
        },
        {
            "positions": [
                -0.13364657630654264,
                -1.4381588024813596,
                1.3728856080792748,
                -0.9880125771968188,
                -0.4607420068042871,
                2.9125816732448597
            ]
        },
        {
            "positions": [
                -0.23858172839533962,
                -1.445337291567046,
                1.4948302074050681,
                -0.9672518966762123,
                -0.41962330671945763,
                3.004083965838924
            ]
        },
        {
            "positions": [
                -0.16639328824247857,
                -1.3819301670466173,
                1.5860997751630574,
                -0.9122677964192479,
                -0.31097552141204776,
                3.0047303532012606
            ]
        },
        {
            "positions": [
                -0.09420484808961752,
                -1.3185230425261887,
                1.677369342921047,
                -0.8572836961622835,
                -0.20232773610463795,
                3.0053767405635967
            ]
        },
        {
            "positions": [
                -0.022016407936756494,
                -1.2551159180057603,
                1.7686389106790363,
                -0.8022995959053192,
                -0.09367995079722813,
                3.0060231279259333
            ]
        },
        {
            "positions": [
                0.050172032216104584,
                -1.1917087934853317,
                1.859908478437026,
                -0.7473154956483548,
                0.014967834510181743,
                3.0066695152882694
            ]
        },
        {
            "positions": [
                0.1223604723689656,
                -1.128301668964903,
                1.9511780461950152,
                -0.6923313953913904,
                0.1236156198175916,
                3.007315902650606
            ]
        }
    ]
}{
    "goal": {
        "global_pose": {
            "orientation": {
                "w": 0.7047431468963623,
                "x": -0.7094548344612122,
                "y": 0.0024358443915843964,
                "z": -0.0022348060738295317
            },
            "position": {
                "x": 0.6094750761985779,
                "y": 0.3671506643295288,
                "z": 0.19426114857196808
            }
        },
        "name": "move_to_magneteinheit_A"
    },
    "id": "FMT_move_to_magneteinheit_A_121",
    "joint_names": [
        "shoulder_pan_joint",
        "shoulder_lift_joint",
        "elbow_joint",
        "wrist_1_joint",
        "wrist_2_joint",
        "wrist_3_joint"
    ],
    "metrics": {
        "cart_traj_len": 1.2040513884221442,
        "distance_elbow_joint": 0.16544454678350107,
        "distance_shoulder_lift_joint": 0.7475029989947592,
        "distance_shoulder_pan_joint": 1.2416917833375227,
        "distance_wrist_1_joint": 0.7333633493375148,
        "distance_wrist_2_joint": 1.4366071657137247,
        "distance_wrist_3_joint": 4.23862029195042,
        "smoothness": 0.02391558408759054,
        "time": 1.093799042,
        "traj_len": 2.92629973449704,
        "weighted_distance": 4.38297173560012
    },
    "planner": "FMT",
    "start": {
        "state": {
            "elbow_joint": 1.919643534880228,
            "shoulder_lift_joint": -1.8972525353963687,
            "shoulder_pan_joint": -1.1188672234189438,
            "wrist_1_joint": -1.5931878212786155,
            "wrist_2_joint": 1.5706036197970081,
            "wrist_3_joint": 1.118896926603594
        }
    },
    "waypoints": [
        {
            "positions": [
                -1.1188672234189438,
                -1.8972525353963687,
                1.919643534880228,
                -1.5931878212786155,
                1.5706036197970081,
                1.118896926603594
            ]
        },
        {
            "positions": [
                -1.0667236057128657,
                -1.8617071632510072,
                1.926164366231382,
                -1.5592933909110336,
                1.4975295425406563,
                0.9422019463844118
            ]
        },
        {
            "positions": [
                -1.0145799880067878,
                -1.8261617911056456,
                1.9326851975825363,
                -1.5253989605434517,
                1.4244554652843047,
                0.7655069661652296
            ]
        },
        {
            "positions": [
                -0.9624363703007097,
                -1.790616418960284,
                1.9392060289336905,
                -1.4915045301758698,
                1.3513813880279528,
                0.5888119859460474
            ]
        },
        {
            "positions": [
                -0.9102927525946316,
                -1.7550710468149224,
                1.9457268602848445,
                -1.457610099808288,
                1.2783073107716012,
                0.41211700572686527
            ]
        },
        {
            "positions": [
                -0.8581491348885535,
                -1.7195256746695609,
                1.9522476916359985,
                -1.423715669440706,
                1.2052332335152494,
                0.2354220255076831
            ]
        },
        {
            "positions": [
                -0.8060055171824755,
                -1.6839803025241993,
                1.9587685229871528,
                -1.3898212390731242,
                1.1321591562588975,
                0.05872704528850092
            ]
        },
        {
            "positions": [
                -0.7538618994763975,
                -1.6484349303788377,
                1.965289354338307,
                -1.3559268087055423,
                1.059085079002546,
                -0.11796793493068125
            ]
        },
        {
            "positions": [
                -0.7017182817703194,
                -1.6128895582334761,
                1.971810185689461,
                -1.3220323783379604,
                0.9860110017461942,
                -0.2946629151498634
            ]
        },
        {
            "positions": [
                -0.6495746640642412,
                -1.5773441860881143,
                1.978331017040615,
                -1.2881379479703785,
                0.9129369244898423,
                -0.4713578953690456
            ]
        },
        {
            "positions": [
                -0.5974310463581632,
                -1.5417988139427528,
                1.9848518483917692,
                -1.2542435176027966,
                0.8398628472334905,
                -0.6480528755882278
            ]
        },
        {
            "positions": [
                -0.5452874286520851,
                -1.5062534417973912,
                1.9913726797429234,
                -1.2203490872352147,
                0.7667887699771387,
                -0.8247478558074102
            ]
        },
        {
            "positions": [
                -0.4931438109460071,
                -1.4707080696520296,
                1.9978935110940774,
                -1.1864546568676329,
                0.6937146927207871,
                -1.0014428360265921
            ]
        },
        {
            "positions": [
                -0.4410001932399291,
                -1.435162697506668,
                2.0044143424452314,
                -1.152560226500051,
                0.6206406154644353,
                -1.1781378162457743
            ]
        },
        {
            "positions": [
                -0.388856575533851,
                -1.3996173253613065,
                2.0109351737963856,
                -1.118665796132469,
                0.5475665382080834,
                -1.3548327964649565
            ]
        },
        {
            "positions": [
                -0.3367129578277729,
                -1.3640719532159449,
                2.01745600514754,
                -1.0847713657648872,
                0.4744924609517318,
                -1.5315277766841386
            ]
        },
        {
            "positions": [
                -0.2845693401216949,
                -1.3285265810705833,
                2.0239768364986936,
                -1.0508769353973053,
                0.4014183836953802,
                -1.7082227569033208
            ]
        },
        {
            "positions": [
                -0.23242572241561688,
                -1.2929812089252217,
                2.030497667849848,
                -1.0169825050297234,
                0.32834430643902834,
                -1.884917737122503
            ]
        },
        {
            "positions": [
                -0.18028210470953876,
                -1.2574358367798601,
                2.037018499201002,
                -0.9830880746621415,
                0.2552702291826765,
                -2.0616127173416854
            ]
        },
        {
            "positions": [
                -0.1196607717839153,
                -1.23589857670421,
                2.027404582708457,
                -0.9584353541179333,
                0.2310154741627978,
                -2.2732348469427137
            ]
        },
        {
            "positions": [
                -0.059039438858291854,
                -1.2143613166285598,
                2.017790666215911,
                -0.9337826335737252,
                0.20676071914291913,
                -2.484856976543742
            ]
        },
        {
            "positions": [
                0.001581894067331585,
                -1.1928240565529098,
                2.008176749723366,
                -0.9091299130295171,
                0.18250596412304043,
                -2.69647910614477
            ]
        },
        {
            "positions": [
                0.06220322699295505,
                -1.1712867964772595,
                1.9985628332308205,
                -0.8844771924853089,
                0.15825120910316176,
                -2.9081012357457983
            ]
        },
        {
            "positions": [
                0.12282455991857849,
                -1.1497495364016095,
                1.988948916738275,
                -0.8598244719411007,
                0.13399645408328306,
                -3.1197233653468266
            ]
        }
    ]
}