{
    "goal": {
        "global_pose": {
            "orientation": {
                "w": 0.5084816217422485,
                "x": -0.49083608388900757,
                "y": 0.5182115435600281,
                "z": -0.4816462993621826
            },
            "position": {
                "x": 0.5540239810943604,
                "y": 0.030875300988554955,
                "z": 0.16403168439865112
            }
        },
        "name": "move_to_storage_A"
    },
    "id": "FMT_move_to_storage_A_103",
    "joint_names": [
        "shoulder_pan_joint",
        "shoulder_lift_joint",
        "elbow_joint",
        "wrist_1_joint",
        "wrist_2_joint",
        "wrist_3_joint"
    ],
    "metrics": {
        "cart_traj_len": 0.3525488589622033,
        "distance_elbow_joint": 0.44718001427555576,
        "distance_shoulder_lift_joint": 0.23481033972566,
        "distance_shoulder_pan_joint": 0.46127950705970294,
        "distance_wrist_1_joint": 0.23566514933066818,
        "distance_wrist_2_joint": 1.096040416703549,
        "distance_wrist_3_joint": 0.0874059901439721,
        "smoothness": 2.2204460668324854e-16,
        "time": 0.36907200100000004,
        "traj_len": 1.6007440198979686,
        "weighted_distance": 2.01715119997517
    },
    "planner": "FMT",
    "start": {
        "state": {
            "elbow_joint": 1.9715477243005601,
            "shoulder_lift_joint": -1.1394853015351272,
            "shoulder_pan_joint": 0.12281154014795169,
            "wrist_1_joint": -0.7804696478968182,
            "wrist_2_joint": 0.12958648046900423,
            "wrist_3_joint": -3.192491284697111
        }
    },
    "waypoints": [
        {
            "positions": [
                0.12281154014795169,
                -1.1394853015351272,
                1.9715477243005601,
                -0.7804696478968182,
                0.12958648046900423,
                -3.192491284697111
            ]
        },
        {
            "positions": [
                0.05691446771085128,
                -1.17302963578165,
                2.0354305834827824,
                -0.8141360978011993,
                0.28616368285522553,
                -3.1800047146765436
            ]
        },
        {
            "positions": [
                -0.008982604726249135,
                -1.2065739700281728,
                2.0993134426650046,
                -0.8478025477055805,
                0.4427408852414468,
                -3.1675181446559764
            ]
        },
        {
            "positions": [
                -0.07487967716334955,
                -1.2401183042746957,
                2.163196301847227,
                -0.8814689976099617,
                0.599318087627668,
                -3.1550315746354087
            ]
        },
        {
            "positions": [
                -0.14077674960044995,
                -1.2736626385212186,
                2.227079161029449,
                -0.9151354475143428,
                0.7558952900138893,
                -3.1425450046148415
            ]
        },
        {
            "positions": [
                -0.20667382203755041,
                -1.3072069727677416,
                2.2909620202116714,
                -0.948801897418724,
                0.9124724924001106,
                -3.130058434594274
            ]
        },
        {
            "positions": [
                -0.27257089447465077,
                -1.3407513070142643,
                2.3548448793938936,
                -0.9824683473231052,
                1.0690496947863317,
                -3.1175718645737067
            ]
        },
        {
            "positions": [
                -0.33846796691175124,
                -1.3742956412607872,
                2.418727738576116,
                -1.0161347972274863,
                1.225626897172553,
                -3.105085294553139
            ]
        }
    ]
}