{
    "goal": {
        "global_pose": {
            "orientation": {
                "w": 0.5084816217422485,
                "x": -0.49083608388900757,
                "y": 0.5182115435600281,
                "z": -0.4816462993621826
            },
            "position": {
                "x": 0.5540239810943604,
                "y": 0.030875300988554955,
                "z": 0.16403168439865112
            }
        },
        "name": "move_to_storage_A"
    },
    "id": "FMT_move_to_storage_A_73",
    "joint_names": [
        "shoulder_pan_joint",
        "shoulder_lift_joint",
        "elbow_joint",
        "wrist_1_joint",
        "wrist_2_joint",
        "wrist_3_joint"
    ],
    "metrics": {
        "cart_traj_len": 0.35360114763952705,
        "distance_elbow_joint": 0.4492703058076235,
        "distance_shoulder_lift_joint": 0.23506585613798592,
        "distance_shoulder_pan_joint": 0.4646681942991028,
        "distance_wrist_1_joint": 0.23585299748886002,
        "distance_wrist_2_joint": 1.0904861163860122,
        "distance_wrist_3_joint": 0.0891591642144518,
        "smoothness": 4.440892098500626e-16,
        "time": 0.384287041,
        "traj_len": 1.6014064550681806,
        "weighted_distance": 2.0172159221654513
    },
    "planner": "FMT",
    "start": {
        "state": {
            "elbow_joint": 1.9715477243005601,
            "shoulder_lift_joint": -1.1394853015351272,
            "shoulder_pan_joint": 0.12281154014795169,
            "wrist_1_joint": -0.7804696478968182,
            "wrist_2_joint": 0.12958648046900423,
            "wrist_3_joint": -3.192491284697111
        }
    },
    "waypoints": [
        {
            "positions": [
                0.12281154014795169,
                -1.1394853015351272,
                1.9715477243005601,
                -0.7804696478968182,
                0.12958648046900423,
                -3.192491284697111
            ]
        },
        {
            "positions": [
                0.056430369533794156,
                -1.173066138126268,
                2.0357291965587923,
                -0.8141629332523695,
                0.2853702113812917,
                -3.1797542612379037
            ]
        },
        {
            "positions": [
                -0.009950801080363378,
                -1.206646974717409,
                2.099910668817024,
                -0.847856218607921,
                0.4411539422935791,
                -3.1670172377786963
            ]
        },
        {
            "positions": [
                -0.07633197169452093,
                -1.2402278113085496,
                2.164092141075256,
                -0.8815495039634724,
                0.5969376732058667,
                -3.154280214319489
            ]
        },
        {
            "positions": [
                -0.14271314230867843,
                -1.2738086478996906,
                2.2282736133334877,
                -0.9152427893190239,
                0.752721404118154,
                -3.1415431908602818
            ]
        },
        {
            "positions": [
                -0.20909431292283598,
                -1.3073894844908314,
                2.29245508559172,
                -0.9489360746745753,
                0.9085051350304415,
                -3.1288061674010743
            ]
        },
        {
            "positions": [
                -0.2754754835369935,
                -1.3409703210819721,
                2.3566365578499515,
                -0.9826293600301268,
                1.064288865942729,
                -3.116069143941867
            ]
        },
        {
            "positions": [
                -0.3418566541511511,
                -1.374551157673113,
                2.4208180301081836,
                -1.0163226453856782,
                1.2200725968550163,
                -3.1033321204826594
            ]
        }
    ]
}