{
    "goal": {
        "global_pose": {
            "orientation": {
                "w": 0.5084816217422485,
                "x": -0.49083608388900757,
                "y": 0.5182115435600281,
                "z": -0.4816462993621826
            },
            "position": {
                "x": 0.5540239810943604,
                "y": 0.030875300988554955,
                "z": 0.16403168439865112
            }
        },
        "name": "move_to_storage_A"
    },
    "id": "FMT_move_to_storage_A_101",
    "joint_names": [
        "shoulder_pan_joint",
        "shoulder_lift_joint",
        "elbow_joint",
        "wrist_1_joint",
        "wrist_2_joint",
        "wrist_3_joint"
    ],
    "metrics": {
        "cart_traj_len": 0.35321759930324537,
        "distance_elbow_joint": 0.4485131959327755,
        "distance_shoulder_lift_joint": 0.23245718649676061,
        "distance_shoulder_pan_joint": 0.45802177691758544,
        "distance_wrist_1_joint": 0.24092093910931334,
        "distance_wrist_2_joint": 1.1145049445718147,
        "distance_wrist_3_joint": 0.08930944861686951,
        "smoothness": 1.1102230263833737e-15,
        "time": 0.37220226900000003,
        "traj_len": 1.6073977390941916,
        "weighted_distance": 2.029229477550527
    },
    "planner": "FMT",
    "start": {
        "state": {
            "elbow_joint": 1.9715477243005601,
            "shoulder_lift_joint": -1.1394853015351272,
            "shoulder_pan_joint": 0.12281154014795169,
            "wrist_1_joint": -0.7804696478968182,
            "wrist_2_joint": 0.12958648046900423,
            "wrist_3_joint": -3.192491284697111
        }
    },
    "waypoints": [
        {
            "positions": [
                0.12281154014795169,
                -1.1394853015351272,
                1.9715477243005601,
                -0.7804696478968182,
                0.12958648046900423,
                -3.192491284697111
            ]
        },
        {
            "positions": [
                0.05737985773115377,
                -1.1726934710346644,
                2.0356210380052424,
                -0.8148869249124343,
                0.288801472550692,
                -3.179732792037558
            ]
        },
        {
            "positions": [
                -0.008051824685644152,
                -1.2059016405342016,
                2.0996943517099247,
                -0.8493042019280506,
                0.4480164646323798,
                -3.1669742993780057
            ]
        },
        {
            "positions": [
                -0.07348350710244207,
                -1.2391098100337388,
                2.163767665414607,
                -0.8837214789436667,
                0.6072314567140676,
                -3.1542158067184527
            ]
        },
        {
            "positions": [
                -0.13891518951923998,
                -1.272317979533276,
                2.227840979119289,
                -0.918138755959283,
                0.7664464487957554,
                -3.1414573140589
            ]
        },
        {
            "positions": [
                -0.2043468719360379,
                -1.3055261490328134,
                2.291914292823971,
                -0.9525560329748991,
                0.9256614408774433,
                -3.128698821399347
            ]
        },
        {
            "positions": [
                -0.2697785543528358,
                -1.3387343185323506,
                2.3559876065286534,
                -0.9869733099905154,
                1.0848764329591312,
                -3.1159403287397947
            ]
        },
        {
            "positions": [
                -0.33521023676963374,
                -1.3719424880318878,
                2.4200609202333356,
                -1.0213905870061315,
                1.2440914250408188,
                -3.1031818360802417
            ]
        }
    ]
}