{
    "goal": {
        "global_pose": {
            "orientation": {
                "w": 0.5084816217422485,
                "x": -0.49083608388900757,
                "y": 0.5182115435600281,
                "z": -0.4816462993621826
            },
            "position": {
                "x": 0.5540239810943604,
                "y": 0.030875300988554955,
                "z": 0.16403168439865112
            }
        },
        "name": "move_to_storage_A"
    },
    "id": "FMT_move_to_storage_A_55",
    "joint_names": [
        "shoulder_pan_joint",
        "shoulder_lift_joint",
        "elbow_joint",
        "wrist_1_joint",
        "wrist_2_joint",
        "wrist_3_joint"
    ],
    "metrics": {
        "cart_traj_len": 0.3527833024179394,
        "distance_elbow_joint": 0.45004089387914004,
        "distance_shoulder_lift_joint": 0.2353687304327512,
        "distance_shoulder_pan_joint": 0.4607184522324047,
        "distance_wrist_1_joint": 0.23811125671633937,
        "distance_wrist_2_joint": 1.1016754218218887,
        "distance_wrist_3_joint": 0.09608475243217285,
        "smoothness": 2.2204460668324854e-16,
        "time": 0.488614597,
        "traj_len": 1.606860139375763,
        "weighted_distance": 2.028288857859568
    },
    "planner": "FMT",
    "start": {
        "state": {
            "elbow_joint": 1.9715477243005601,
            "shoulder_lift_joint": -1.1394853015351272,
            "shoulder_pan_joint": 0.12281154014795169,
            "wrist_1_joint": -0.7804696478968182,
            "wrist_2_joint": 0.12958648046900423,
            "wrist_3_joint": -3.192491284697111
        }
    },
    "waypoints": [
        {
            "positions": [
                0.12281154014795169,
                -1.1394853015351272,
                1.9715477243005601,
                -0.7804696478968182,
                0.12958648046900423,
                -3.192491284697111
            ]
        },
        {
            "positions": [
                0.05699461840046531,
                -1.173109405882663,
                2.0358392805690086,
                -0.8144855417134381,
                0.2869686835864169,
                -3.178764891492515
            ]
        },
        {
            "positions": [
                -0.008822303347021068,
                -1.206733510230199,
                2.100130836837457,
                -0.848501435530058,
                0.44435088670382955,
                -3.165038498287919
            ]
        },
        {
            "positions": [
                -0.07463922509450745,
                -1.2403576145777349,
                2.1644223931059057,
                -0.8825173293466779,
                0.6017330898212423,
                -3.151312105083323
            ]
        },
        {
            "positions": [
                -0.1404561468419938,
                -1.2739817189252707,
                2.228713949374354,
                -0.9165332231632978,
                0.7591152929386549,
                -3.1375857118787267
            ]
        },
        {
            "positions": [
                -0.20627306858948025,
                -1.3076058232728065,
                2.293005505642803,
                -0.9505491169799177,
                0.9164974960560676,
                -3.1238593186741306
            ]
        },
        {
            "positions": [
                -0.27208999033696657,
                -1.3412299276203425,
                2.3572970619112517,
                -0.9845650107965376,
                1.0738796991734803,
                -3.1101329254695345
            ]
        },
        {
            "positions": [
                -0.337906912084453,
                -1.3748540319678784,
                2.4215886181797,
                -1.0185809046131575,
                1.231261902290893,
                -3.0964065322649383
            ]
        }
    ]
}