{
    "goal": {
        "global_pose": {
            "orientation": {
                "w": 0.7047431468963623,
                "x": -0.7094548344612122,
                "y": 0.0024358443915843964,
                "z": -0.0022348060738295317
            },
            "position": {
                "x": 0.6094750761985779,
                "y": 0.3671506643295288,
                "z": 0.19426114857196808
            }
        },
        "name": "move_to_magneteinheit_A"
    },
    "id": "FMT_move_to_magneteinheit_A_84",
    "joint_names": [
        "shoulder_pan_joint",
        "shoulder_lift_joint",
        "elbow_joint",
        "wrist_1_joint",
        "wrist_2_joint",
        "wrist_3_joint"
    ],
    "metrics": {
        "cart_traj_len": 3.446471138079351,
        "distance_elbow_joint": 3.8865161865682687,
        "distance_shoulder_lift_joint": 0.10725514610304909,
        "distance_shoulder_pan_joint": 3.01449979875258,
        "distance_wrist_1_joint": 1.3481857018592844,
        "distance_wrist_2_joint": 1.6935714241482611,
        "distance_wrist_3_joint": 3.636131876977371,
        "smoothness": 0.12335132491668788,
        "time": 1.247228489,
        "traj_len": 3.6994810628531147,
        "weighted_distance": 4.898997960233409
    },
    "planner": "FMT",
    "start": {
        "state": {
            "elbow_joint": -1.919618573717145,
            "shoulder_lift_joint": -1.2443395971678275,
            "shoulder_pan_joint": 2.6996025300909787,
            "wrist_1_joint": -1.548550951253194,
            "wrist_2_joint": -1.5709469090946802,
            "wrist_3_joint": 0.4420197732051276
        }
    },
    "waypoints": [
        {
            "positions": [
                2.6996025300909787,
                -1.2443395971678275,
                -1.919618573717145,
                -1.548550951253194,
                -1.5709469090946802,
                0.4420197732051276
            ]
        },
        {
            "positions": [
                2.603186334405093,
                -1.242835834870272,
                -1.8139461037166464,
                -1.5118477598236975,
                -1.531805459363721,
                0.3388517495614327
            ]
        },
        {
            "positions": [
                2.506770138719207,
                -1.2413320725727162,
                -1.708273633716148,
                -1.4751445683942008,
                -1.4926640096327617,
                0.2356837259177378
            ]
        },
        {
            "positions": [
                2.4103539430333214,
                -1.2398283102751606,
                -1.6026011637156494,
                -1.4384413769647042,
                -1.4535225599018025,
                0.1325157022740429
            ]
        },
        {
            "positions": [
                2.313937747347436,
                -1.238324547977605,
                -1.4969286937151507,
                -1.4017381855352076,
                -1.4143811101708432,
                0.02934767863034804
            ]
        },
        {
            "positions": [
                2.2175215516615503,
                -1.2368207856800495,
                -1.3912562237146524,
                -1.365034994105711,
                -1.375239660439884,
                -0.07382034501334694
            ]
        },
        {
            "positions": [
                2.1211053559756645,
                -1.2353170233824937,
                -1.2855837537141537,
                -1.3283318026762143,
                -1.3360982107089248,
                -0.17698836865704176
            ]
        },
        {
            "positions": [
                2.0246891602897787,
                -1.2338132610849382,
                -1.1799112837136552,
                -1.2916286112467177,
                -1.2969567609779655,
                -0.2801563923007367
            ]
        },
        {
            "positions": [
                1.928272964603893,
                -1.2323094987873826,
                -1.0742388137131567,
                -1.254925419817221,
                -1.2578153112470063,
                -0.3833244159444315
            ]
        },
        {
            "positions": [
                1.8318567689180072,
                -1.230805736489827,
                -0.9685663437126582,
                -1.2182222283877244,
                -1.218673861516047,
                -0.48649243958812644
            ]
        },
        {
            "positions": [
                1.7354405732321214,
                -1.2293019741922713,
                -0.8628938737121596,
                -1.1815190369582278,
                -1.1795324117850878,
                -0.5896604632318214
            ]
        },
        {
            "positions": [
                1.6390243775462359,
                -1.2277982118947157,
                -0.7572214037116611,
                -1.1448158455287314,
                -1.1403909620541288,
                -0.6928284868755161
            ]
        },
        {
            "positions": [
                1.54260818186035,
                -1.2262944495971602,
                -0.6515489337111626,
                -1.1081126540992345,
                -1.1012495123231694,
                -0.795996510519211
            ]
        },
        {
            "positions": [
                1.4461919861744643,
                -1.2247906872996044,
                -0.5458764637106641,
                -1.0714094626697381,
                -1.0621080625922104,
                -0.899164534162906
            ]
        },
        {
            "positions": [
                1.3497757904885788,
                -1.2232869250020488,
                -0.4402039937101654,
                -1.0347062712402413,
                -1.022966612861251,
                -1.002332557806601
            ]
        },
        {
            "positions": [
                1.253359594802693,
                -1.2217831627044933,
                -0.3345315237096669,
                -0.9980030798107448,
                -0.9838251631302918,
                -1.1055005814502958
            ]
        },
        {
            "positions": [
                1.1569433991168074,
                -1.2202794004069377,
                -0.22885905370916837,
                -0.9612998883812481,
                -0.9446837133993325,
                -1.2086686050939905
            ]
        },
        {
            "positions": [
                1.0605272034309217,
                -1.218775638109382,
                -0.12318658370867008,
                -0.9245966969517516,
                -0.9055422636683734,
                -1.3118366287376853
            ]
        },
        {
            "positions": [
                0.9641110077450359,
                -1.2172718758118264,
                -0.017514113708171353,
                -0.8878935055222549,
                -0.8664008139374141,
                -1.4150046523813804
            ]
        },
        {
            "positions": [
                0.8676948120591503,
                -1.2157681135142708,
                0.08815835629232693,
                -0.8511903140927584,
                -0.827259364206455,
                -1.518172676025075
            ]
        },
        {
            "positions": [
                0.7712786163732643,
                -1.214264351216715,
                0.19383082629282566,
                -0.8144871226632616,
                -0.7881179144754956,
                -1.6213406996687705
            ]
        },
        {
            "positions": [
                0.6748624206873788,
                -1.2127605889191595,
                0.2995032962933244,
                -0.777783931233765,
                -0.7489764647445364,
                -1.7245087233124652
            ]
        },
        {
            "positions": [
                0.578446225001493,
                -1.211256826621604,
                0.4051757662938227,
                -0.7410807398042685,
                -0.7098350150135773,
                -1.82767674695616
            ]
        },
        {
            "positions": [
                0.48203002931560723,
                -1.2097530643240484,
                0.5108482362943214,
                -0.7043775483747717,
                -0.6706935652826179,
                -1.930844770599855
            ]
        },
        {
            "positions": [
                0.38561383362972146,
                -1.2082493020264926,
                0.6165207062948197,
                -0.6676743569452752,
                -0.6315521155516588,
                -2.0340127942435497
            ]
        },
        {
            "positions": [
                0.28919763794383613,
                -1.206745539728937,
                0.722193176295318,
                -0.6309711655157786,
                -0.5924106658206996,
                -2.1371808178872445
            ]
        },
        {
            "positions": [
                0.1927814422579499,
                -1.2052417774313815,
                0.8278656462958167,
                -0.594267974086282,
                -0.5532692160897403,
                -2.2403488415309396
            ]
        },
        {
            "positions": [
                0.09636524657206458,
                -1.203738015133826,
                0.9335381162963154,
                -0.5575647826567853,
                -0.5141277663587811,
                -2.3435168651746343
            ]
        },
        {
            "positions": [
                -5.0949113821197045e-05,
                -1.2022342528362702,
                1.0392105862968142,
                -0.5208615912272887,
                -0.47498631662782187,
                -2.4466848888183295
            ]
        },
        {
            "positions": [
                -0.09646714479970692,
                -1.2007304905387146,
                1.1448830562973122,
                -0.484158399797792,
                -0.43584486689686264,
                -2.549852912462024
            ]
        },
        {
            "positions": [
                -0.07556644348958072,
                -1.193608511945551,
                1.2381009394435394,
                -0.5101347231720604,
                -0.37282691633842824,
                -2.6274172392087967
            ]
        },
        {
            "positions": [
                -0.05466574217945454,
                -1.1864865333523877,
                1.3313188225897667,
                -0.5361110465463288,
                -0.30980896577999384,
                -2.7049815659555696
            ]
        },
        {
            "positions": [
                -0.03376504086932834,
                -1.1793645547592242,
                1.424536705735994,
                -0.5620873699205973,
                -0.24679101522155938,
                -2.782545892702342
            ]
        },
        {
            "positions": [
                -0.0026194368830253466,
                -1.1709085340203351,
                1.5330088871590195,
                -0.6032602059768127,
                -0.17290790916653137,
                -2.864859134916322
            ]
        },
        {
            "positions": [
                0.02852616710327765,
                -1.1624525132814458,
                1.6414810685820453,
                -0.6444330420330282,
                -0.09902480311150338,
                -2.9471723771303027
            ]
        },
        {
            "positions": [
                0.05967177108958063,
                -1.1539964925425568,
                1.749953250005071,
                -0.6856058780892437,
                -0.025141697056475426,
                -3.0294856193442827
            ]
        },
        {
            "positions": [
                0.09081737507588364,
                -1.1455404718036675,
                1.8584254314280968,
                -0.7267787141454591,
                0.048741408998552616,
                -3.1117988615582632
            ]
        },
        {
            "positions": [
                0.12196297906218663,
                -1.1370844510647784,
                1.9668976128511224,
                -0.7679515502016746,
                0.12262451505358056,
                -3.1941121037722433
            ]
        }
    ]
}{
    "goal": {
        "global_pose": {
            "orientation": {
                "w": 0.7047431468963623,
                "x": -0.7094548344612122,
                "y": 0.0024358443915843964,
                "z": -0.0022348060738295317
            },
            "position": {
                "x": 0.6094750761985779,
                "y": 0.3671506643295288,
                "z": 0.19426114857196808
            }
        },
        "name": "move_to_magneteinheit_A"
    },
    "id": "FMT_move_to_magneteinheit_A_84",
    "joint_names": [
        "shoulder_pan_joint",
        "shoulder_lift_joint",
        "elbow_joint",
        "wrist_1_joint",
        "wrist_2_joint",
        "wrist_3_joint"
    ],
    "metrics": {
        "cart_traj_len": 1.250800304703155,
        "distance_elbow_joint": 0.06710739493785223,
        "distance_shoulder_lift_joint": 1.122802950856104,
        "distance_shoulder_pan_joint": 1.2425084072970038,
        "distance_wrist_1_joint": 3.5049308292093286,
        "distance_wrist_2_joint": 1.69226778256213,
        "distance_wrist_3_joint": 1.1083458070383168,
        "smoothness": 7.401486889441618e-17,
        "time": 1.040829917,
        "traj_len": 2.9560045960554144,
        "weighted_distance": 4.018936849186464
    },
    "planner": "FMT",
    "start": {
        "state": {
            "elbow_joint": 1.919643534880228,
            "shoulder_lift_joint": -1.8972525353963687,
            "shoulder_pan_joint": -1.1188672234189438,
            "wrist_1_joint": -1.5931878212786155,
            "wrist_2_joint": 1.5706036197970081,
            "wrist_3_joint": 1.118896926603594
        }
    },
    "waypoints": [
        {
            "positions": [
                -1.1188672234189438,
                -1.8972525353963687,
                1.919643534880228,
                -1.5931878212786155,
                1.5706036197970081,
                1.118896926603594
            ]
        },
        {
            "positions": [
                -1.0648451187538568,
                -1.8484350157939293,
                1.922561247703613,
                -1.4407995243564709,
                1.4970267596856113,
                1.0707079784714932
            ]
        },
        {
            "positions": [
                -1.0108230140887695,
                -1.7996174961914901,
                1.925478960526998,
                -1.288411227434326,
                1.4234498995742142,
                1.0225190303393925
            ]
        },
        {
            "positions": [
                -0.9568009094236825,
                -1.7507999765890507,
                1.9283966733503828,
                -1.1360229305121812,
                1.3498730394628173,
                0.9743300822072918
            ]
        },
        {
            "positions": [
                -0.9027788047585954,
                -1.7019824569866115,
                1.9313143861737676,
                -0.9836346335900366,
                1.2762961793514203,
                0.926141134075191
            ]
        },
        {
            "positions": [
                -0.8487567000935082,
                -1.6531649373841721,
                1.9342320989971524,
                -0.8312463366678918,
                1.2027193192400234,
                0.8779521859430903
            ]
        },
        {
            "positions": [
                -0.7947345954284211,
                -1.604347417781733,
                1.9371498118205375,
                -0.6788580397457471,
                1.1291424591286265,
                0.8297632378109896
            ]
        },
        {
            "positions": [
                -0.740712490763334,
                -1.5555298981792935,
                1.9400675246439223,
                -0.5264697428236023,
                1.0555655990172295,
                0.7815742896788889
            ]
        },
        {
            "positions": [
                -0.6866903860982468,
                -1.5067123785768544,
                1.9429852374673071,
                -0.37408144590145764,
                0.9819887389058325,
                0.7333853415467881
            ]
        },
        {
            "positions": [
                -0.6326682814331597,
                -1.457894858974415,
                1.945902950290692,
                -0.2216931489793128,
                0.9084118787944355,
                0.6851963934146874
            ]
        },
        {
            "positions": [
                -0.5786461767680726,
                -1.4090773393719758,
                1.948820663114077,
                -0.06930485205716819,
                0.8348350186830386,
                0.6370074452825867
            ]
        },
        {
            "positions": [
                -0.5246240721029855,
                -1.3602598197695364,
                1.9517383759374618,
                0.08308344486497643,
                0.7612581585716416,
                0.588818497150486
            ]
        },
        {
            "positions": [
                -0.4706019674378984,
                -1.3114423001670972,
                1.9546560887608466,
                0.23547174178712127,
                0.6876812984602447,
                0.5406295490183852
            ]
        },
        {
            "positions": [
                -0.41657986277281134,
                -1.262624780564658,
                1.9575738015842314,
                0.3878600387092659,
                0.6141044383488478,
                0.4924406008862845
            ]
        },
        {
            "positions": [
                -0.36255775810772406,
                -1.2138072609622186,
                1.9604915144076165,
                0.540248335631411,
                0.5405275782374508,
                0.44425165275418377
            ]
        },
        {
            "positions": [
                -0.308535653442637,
                -1.1649897413597792,
                1.9634092272310013,
                0.6926366325535553,
                0.4669507181260537,
                0.39606270462208304
            ]
        },
        {
            "positions": [
                -0.25451354877754984,
                -1.1161722217573398,
                1.9663269400543861,
                0.8450249294757002,
                0.39337385801465685,
                0.3478737564899823
            ]
        },
        {
            "positions": [
                -0.20049144411246278,
                -1.0673547021549008,
                1.969244652877771,
                0.9974132263978446,
                0.31979699790326,
                0.2996848083578816
            ]
        },
        {
            "positions": [
                -0.1464693394473756,
                -1.0185371825524614,
                1.972162365701156,
                1.1498015233199899,
                0.24622013779186291,
                0.25149586022578085
            ]
        },
        {
            "positions": [
                -0.09244723478228845,
                -0.969719662950022,
                1.9750800785245408,
                1.3021898202421343,
                0.17264327768046606,
                0.20330691209368013
            ]
        },
        {
            "positions": [
                -0.03842513011720139,
                -0.9209021433475827,
                1.9779977913479256,
                1.454578117164279,
                0.09906641756906898,
                0.1551179639615794
            ]
        },
        {
            "positions": [
                0.015596974547885667,
                -0.8720846237451434,
                1.9809155041713105,
                1.6069664140864235,
                0.02548955745767212,
                0.10692901582947867
            ]
        },
        {
            "positions": [
                0.06961907921297295,
                -0.823267104142704,
                1.9838332169946955,
                1.7593547110085683,
                -0.04808730265372496,
                0.05874006769737794
            ]
        },
        {
            "positions": [
                0.12364118387805996,
                -0.7744495845402648,
                1.9867509298180803,
                1.911743007930713,
                -0.12166416276512178,
                0.010551119565277264
            ]
        }
    ]
}