{
    "goal": {
        "global_pose": {
            "orientation": {
                "w": 0.5084816217422485,
                "x": -0.49083608388900757,
                "y": 0.5182115435600281,
                "z": -0.4816462993621826
            },
            "position": {
                "x": 0.5540239810943604,
                "y": 0.030875300988554955,
                "z": 0.16403168439865112
            }
        },
        "name": "move_to_storage_A"
    },
    "id": "FMT_move_to_storage_A_66",
    "joint_names": [
        "shoulder_pan_joint",
        "shoulder_lift_joint",
        "elbow_joint",
        "wrist_1_joint",
        "wrist_2_joint",
        "wrist_3_joint"
    ],
    "metrics": {
        "cart_traj_len": 0.3530625149476223,
        "distance_elbow_joint": 0.4474736705183999,
        "distance_shoulder_lift_joint": 0.23465470712482484,
        "distance_shoulder_pan_joint": 0.46303817594183444,
        "distance_wrist_1_joint": 0.23548869236114844,
        "distance_wrist_2_joint": 1.0924146490239335,
        "distance_wrist_3_joint": 0.09459117185264798,
        "smoothness": 2.2204460668324854e-16,
        "time": 0.37618985,
        "traj_len": 1.602392294921187,
        "weighted_distance": 2.0210756423036638
    },
    "planner": "FMT",
    "start": {
        "state": {
            "elbow_joint": 1.9715477243005601,
            "shoulder_lift_joint": -1.1394853015351272,
            "shoulder_pan_joint": 0.12281154014795169,
            "wrist_1_joint": -0.7804696478968182,
            "wrist_2_joint": 0.12958648046900423,
            "wrist_3_joint": -3.192491284697111
        }
    },
    "waypoints": [
        {
            "positions": [
                0.12281154014795169,
                -1.1394853015351272,
                1.9715477243005601,
                -0.7804696478968182,
                0.12958648046900423,
                -3.192491284697111
            ]
        },
        {
            "positions": [
                0.0566632292991182,
                -1.1730074025529593,
                2.0354725343746174,
                -0.8141108896626965,
                0.28564571604385186,
                -3.178978260146733
            ]
        },
        {
            "positions": [
                -0.009485081549715293,
                -1.2065295035707915,
                2.099397344448674,
                -0.8477521314285749,
                0.4417049516186995,
                -3.1654652355963546
            ]
        },
        {
            "positions": [
                -0.07563339239854878,
                -1.2400516045886236,
                2.1633221545227315,
                -0.8813933731944532,
                0.5977641871935471,
                -3.1519522110459763
            ]
        },
        {
            "positions": [
                -0.14178170324738226,
                -1.2735737056064556,
                2.2272469645967887,
                -0.9150346149603316,
                0.7538234227683948,
                -3.138439186495598
            ]
        },
        {
            "positions": [
                -0.20793001409621575,
                -1.3070958066242877,
                2.291171774670846,
                -0.9486758567262099,
                0.9098826583432424,
                -3.1249261619452198
            ]
        },
        {
            "positions": [
                -0.27407832494504925,
                -1.3406179076421199,
                2.355096584744903,
                -0.9823170984920883,
                1.06594189391809,
                -3.1114131373948415
            ]
        },
        {
            "positions": [
                -0.34022663579388274,
                -1.374140008659952,
                2.41902139481896,
                -1.0159583402579666,
                1.2220011294929378,
                -3.097900112844463
            ]
        }
    ]
}