{
    "goal": {
        "global_pose": {
            "orientation": {
                "w": 0.5084816217422485,
                "x": -0.49083608388900757,
                "y": 0.5182115435600281,
                "z": -0.4816462993621826
            },
            "position": {
                "x": 0.5540239810943604,
                "y": 0.030875300988554955,
                "z": 0.16403168439865112
            }
        },
        "name": "move_to_storage_A"
    },
    "id": "FMT_move_to_storage_A_71",
    "joint_names": [
        "shoulder_pan_joint",
        "shoulder_lift_joint",
        "elbow_joint",
        "wrist_1_joint",
        "wrist_2_joint",
        "wrist_3_joint"
    ],
    "metrics": {
        "cart_traj_len": 0.3537292203101043,
        "distance_elbow_joint": 0.4481870595208375,
        "distance_shoulder_lift_joint": 0.23456540606005727,
        "distance_shoulder_pan_joint": 0.46275594190395897,
        "distance_wrist_1_joint": 0.23790597617783338,
        "distance_wrist_2_joint": 1.0987638108315614,
        "distance_wrist_3_joint": 0.09199996984953307,
        "smoothness": 8.881784197001252e-16,
        "time": 0.377664978,
        "traj_len": 1.6044245586327148,
        "weighted_distance": 2.0235730505845946
    },
    "planner": "FMT",
    "start": {
        "state": {
            "elbow_joint": 1.9715477243005601,
            "shoulder_lift_joint": -1.1394853015351272,
            "shoulder_pan_joint": 0.12281154014795169,
            "wrist_1_joint": -0.7804696478968182,
            "wrist_2_joint": 0.12958648046900423,
            "wrist_3_joint": -3.192491284697111
        }
    },
    "waypoints": [
        {
            "positions": [
                0.12281154014795169,
                -1.1394853015351272,
                1.9715477243005601,
                -0.7804696478968182,
                0.12958648046900423,
                -3.192491284697111
            ]
        },
        {
            "positions": [
                0.05670354844738612,
                -1.1729946452579925,
                2.0355744470892514,
                -0.814456215922223,
                0.2865527391592273,
                -3.1793484318614635
            ]
        },
        {
            "positions": [
                -0.009404443253179448,
                -1.2065039889808578,
                2.099601169877942,
                -0.8484427839476277,
                0.4435189978494503,
                -3.166205579025816
            ]
        },
        {
            "positions": [
                -0.075512434953745,
                -1.240013332703723,
                2.1636278926666335,
                -0.8824293519730324,
                0.6004852565396734,
                -3.1530627261901683
            ]
        },
        {
            "positions": [
                -0.14162042665431057,
                -1.2735226764265883,
                2.2276546154553243,
                -0.9164159199984372,
                0.7574515152298964,
                -3.139919873354521
            ]
        },
        {
            "positions": [
                -0.20772841835487615,
                -1.3070320201494539,
                2.2916813382440155,
                -0.950402488023842,
                0.9144177739201195,
                -3.1267770205188734
            ]
        },
        {
            "positions": [
                -0.2738364100554417,
                -1.3405413638723191,
                2.3557080610327064,
                -0.9843890560492468,
                1.0713840326103425,
                -3.1136341676832258
            ]
        },
        {
            "positions": [
                -0.33994440175600726,
                -1.3740507075951844,
                2.4197347838213976,
                -1.0183756240746515,
                1.2283502913005655,
                -3.100491314847578
            ]
        }
    ]
}