{
    "goal": {
        "global_pose": {
            "orientation": {
                "w": 0.7047431468963623,
                "x": -0.7094548344612122,
                "y": 0.0024358443915843964,
                "z": -0.0022348060738295317
            },
            "position": {
                "x": 0.6094750761985779,
                "y": 0.3671506643295288,
                "z": 0.19426114857196808
            }
        },
        "name": "move_to_magneteinheit_A"
    },
    "id": "FMT_move_to_magneteinheit_A_55",
    "joint_names": [
        "shoulder_pan_joint",
        "shoulder_lift_joint",
        "elbow_joint",
        "wrist_1_joint",
        "wrist_2_joint",
        "wrist_3_joint"
    ],
    "metrics": {
        "cart_traj_len": 3.446883583743652,
        "distance_elbow_joint": 3.881472333011245,
        "distance_shoulder_lift_joint": 0.12422649305652822,
        "distance_shoulder_pan_joint": 2.9253774029609674,
        "distance_wrist_1_joint": 0.8079674355581468,
        "distance_wrist_2_joint": 1.6956204570121802,
        "distance_wrist_3_joint": 2.6170493095958265,
        "smoothness": 0.052434160269117396,
        "time": 1.2339868859999998,
        "traj_len": 3.471557781629869,
        "weighted_distance": 4.448527839966484
    },
    "planner": "FMT",
    "start": {
        "state": {
            "elbow_joint": -1.919618573717145,
            "shoulder_lift_joint": -1.2443395971678275,
            "shoulder_pan_joint": 2.6996025300909787,
            "wrist_1_joint": -1.548550951253194,
            "wrist_2_joint": -1.5709469090946802,
            "wrist_3_joint": 0.4420197732051276
        }
    },
    "waypoints": [
        {
            "positions": [
                2.6996025300909787,
                -1.2443395971678275,
                -1.919618573717145,
                -1.548550951253194,
                -1.5709469090946802,
                0.4420197732051276
            ]
        },
        {
            "positions": [
                2.5745211955226366,
                -1.2389958525987734,
                -1.800838338341477,
                -1.5165815139910892,
                -1.5512244651844918,
                0.5344306532206156
            ]
        },
        {
            "positions": [
                2.4494398609542944,
                -1.2336521080297196,
                -1.682058102965809,
                -1.4846120767289843,
                -1.5315020212743031,
                0.6268415332361036
            ]
        },
        {
            "positions": [
                2.3243585263859528,
                -1.2283083634606655,
                -1.563277867590141,
                -1.4526426394668794,
                -1.5117795773641147,
                0.7192524132515916
            ]
        },
        {
            "positions": [
                2.1992771918176106,
                -1.2229646188916115,
                -1.4444976322144731,
                -1.4206732022047746,
                -1.4920571334539263,
                0.8116632932670796
            ]
        },
        {
            "positions": [
                2.0741958572492685,
                -1.2176208743225576,
                -1.3257173968388052,
                -1.3887037649426697,
                -1.4723346895437377,
                0.9040741732825677
            ]
        },
        {
            "positions": [
                1.9491145226809263,
                -1.2122771297535035,
                -1.2069371614631372,
                -1.356734327680565,
                -1.4526122456335493,
                0.9964850532980556
            ]
        },
        {
            "positions": [
                1.8240331881125842,
                -1.2069333851844495,
                -1.0881569260874693,
                -1.3247648904184601,
                -1.432889801723361,
                1.0888959333135437
            ]
        },
        {
            "positions": [
                1.6989518535442423,
                -1.2015896406153956,
                -0.9693766907118013,
                -1.2927954531563552,
                -1.4131673578131723,
                1.1813068133290316
            ]
        },
        {
            "positions": [
                1.5738705189759001,
                -1.1962458960463416,
                -0.8505964553361334,
                -1.2608260158942504,
                -1.3934449139029839,
                1.2737176933445198
            ]
        },
        {
            "positions": [
                1.4487891844075582,
                -1.1909021514772875,
                -0.7318162199604654,
                -1.2288565786321455,
                -1.3737224699927952,
                1.3661285733600077
            ]
        },
        {
            "positions": [
                1.323707849839216,
                -1.1855584069082337,
                -0.6130359845847975,
                -1.1968871413700406,
                -1.3540000260826068,
                1.4585394533754958
            ]
        },
        {
            "positions": [
                1.1986265152708742,
                -1.1802146623391796,
                -0.4942557492091295,
                -1.1649177041079357,
                -1.3342775821724184,
                1.5509503333909838
            ]
        },
        {
            "positions": [
                1.0735451807025318,
                -1.1748709177701255,
                -0.37547551383346156,
                -1.1329482668458308,
                -1.3145551382622298,
                1.643361213406472
            ]
        },
        {
            "positions": [
                0.9484638461341899,
                -1.1695271732010715,
                -0.2566952784577936,
                -1.100978829583726,
                -1.2948326943520414,
                1.7357720934219598
            ]
        },
        {
            "positions": [
                0.823382511565848,
                -1.1641834286320176,
                -0.13791504308212588,
                -1.0690093923216213,
                -1.275110250441853,
                1.8281829734374477
            ]
        },
        {
            "positions": [
                0.6983011769975058,
                -1.1588396840629636,
                -0.0191348077064577,
                -1.0370399550595164,
                -1.2553878065316644,
                1.9205938534529359
            ]
        },
        {
            "positions": [
                0.5732198424291637,
                -1.1534959394939095,
                0.09964542766921025,
                -1.0050705177974115,
                -1.235665362621476,
                2.013004733468424
            ]
        },
        {
            "positions": [
                0.44813850786082154,
                -1.1481521949248557,
                0.2184256630448782,
                -0.9731010805353065,
                -1.2159429187112873,
                2.105415613483912
            ]
        },
        {
            "positions": [
                0.3230571732924794,
                -1.1428084503558016,
                0.33720589842054616,
                -0.9411316432732016,
                -1.196220474801099,
                2.1978264934994
            ]
        },
        {
            "positions": [
                0.1979758387241377,
                -1.1374647057867475,
                0.4559861337962141,
                -0.9091622060110969,
                -1.1764980308909105,
                2.2902373735148878
            ]
        },
        {
            "positions": [
                0.07289450415579557,
                -1.1321209612176937,
                0.5747663691718821,
                -0.877192768748992,
                -1.156775586980722,
                2.382648253530376
            ]
        },
        {
            "positions": [
                -0.05218683041254654,
                -1.1267772166486396,
                0.6935466045475498,
                -0.8452233314868871,
                -1.1370531430705335,
                2.475059133545864
            ]
        },
        {
            "positions": [
                -0.03289927013949724,
                -1.127517673597233,
                0.8344696217416108,
                -0.8335966852877938,
                -0.9968612885163075,
                2.5399491279075406
            ]
        },
        {
            "positions": [
                -0.013611709866447948,
                -1.1282581305458264,
                0.9753926389356717,
                -0.8219700390887005,
                -0.8566694339620816,
                2.6048391222692175
            ]
        },
        {
            "positions": [
                0.005675850406601353,
                -1.1289985874944197,
                1.116315656129733,
                -0.8103433928896072,
                -0.7164775794078557,
                2.669729116630894
            ]
        },
        {
            "positions": [
                0.024963410679650647,
                -1.129739044443013,
                1.2572386733237937,
                -0.7987167466905138,
                -0.5762857248536297,
                2.7346191109925706
            ]
        },
        {
            "positions": [
                0.04425097095269996,
                -1.1304795013916065,
                1.3981616905178549,
                -0.7870901004914206,
                -0.4360938702994037,
                2.7995091053542476
            ]
        },
        {
            "positions": [
                0.06353853122574925,
                -1.1312199583401998,
                1.5390847077119159,
                -0.7754634542923272,
                -0.2959020157451778,
                2.864399099715924
            ]
        },
        {
            "positions": [
                0.08282609149879855,
                -1.1319604152887932,
                1.6800077249059768,
                -0.763836808093234,
                -0.15571016119095182,
                2.9292890940776006
            ]
        },
        {
            "positions": [
                0.10211365177184784,
                -1.1327008722373866,
                1.8209307421000378,
                -0.7522101618941406,
                -0.015518306636725931,
                2.994179088439277
            ]
        },
        {
            "positions": [
                0.12140121204489716,
                -1.13344132918598,
                1.961853759294099,
                -0.7405835156950473,
                0.12467354791750006,
                3.059069082800954
            ]
        }
    ]
}{
    "goal": {
        "global_pose": {
            "orientation": {
                "w": 0.7047431468963623,
                "x": -0.7094548344612122,
                "y": 0.0024358443915843964,
                "z": -0.0022348060738295317
            },
            "position": {
                "x": 0.6094750761985779,
                "y": 0.3671506643295288,
                "z": 0.19426114857196808
            }
        },
        "name": "move_to_magneteinheit_A"
    },
    "id": "FMT_move_to_magneteinheit_A_55",
    "joint_names": [
        "shoulder_pan_joint",
        "shoulder_lift_joint",
        "elbow_joint",
        "wrist_1_joint",
        "wrist_2_joint",
        "wrist_3_joint"
    ],
    "metrics": {
        "cart_traj_len": 1.3423713731540945,
        "distance_elbow_joint": 0.5996904891319672,
        "distance_shoulder_lift_joint": 0.7498593283643566,
        "distance_shoulder_pan_joint": 1.244554529686782,
        "distance_wrist_1_joint": 0.7391299116484333,
        "distance_wrist_2_joint": 1.4401565050905556,
        "distance_wrist_3_joint": 4.250090157306859,
        "smoothness": 0.05711278793161987,
        "time": 1.1800411,
        "traj_len": 3.0039109376326314,
        "weighted_distance": 4.438800249231955
    },
    "planner": "FMT",
    "start": {
        "state": {
            "elbow_joint": 1.919643534880228,
            "shoulder_lift_joint": -1.8972525353963687,
            "shoulder_pan_joint": -1.1188672234189438,
            "wrist_1_joint": -1.5931878212786155,
            "wrist_2_joint": 1.5706036197970081,
            "wrist_3_joint": 1.118896926603594
        }
    },
    "waypoints": [
        {
            "positions": [
                -1.1188672234189438,
                -1.8972525353963687,
                1.919643534880228,
                -1.5931878212786155,
                1.5706036197970081,
                1.118896926603594
            ]
        },
        {
            "positions": [
                -1.1189374790525088,
                -1.8792933842540975,
                1.9030243589909872,
                -1.54943684253828,
                1.4934575930229645,
                0.8822627213352932
            ]
        },
        {
            "positions": [
                -1.1190077346860738,
                -1.8613342331118266,
                1.8864051831017463,
                -1.5056858637979444,
                1.416311566248921,
                0.6456285160669923
            ]
        },
        {
            "positions": [
                -1.1190779903196386,
                -1.8433750819695556,
                1.8697860072125052,
                -1.4619348850576088,
                1.3391655394748774,
                0.40899431079869153
            ]
        },
        {
            "positions": [
                -1.1191482459532036,
                -1.8254159308272844,
                1.8531668313232643,
                -1.4181839063172734,
                1.2620195127008338,
                0.17236010553039072
            ]
        },
        {
            "positions": [
                -1.1192185015867686,
                -1.8074567796850132,
                1.8365476554340234,
                -1.374432927576938,
                1.1848734859267902,
                -0.0642740997379101
            ]
        },
        {
            "positions": [
                -1.1192887572203336,
                -1.7894976285427422,
                1.8199284795447825,
                -1.3306819488366024,
                1.1077274591527466,
                -0.3009083050062109
            ]
        },
        {
            "positions": [
                -1.1193590128538986,
                -1.7715384774004712,
                1.8033093036555417,
                -1.2869309700962668,
                1.0305814323787033,
                -0.5375425102745117
            ]
        },
        {
            "positions": [
                -1.1194292684874636,
                -1.7535793262582,
                1.7866901277663008,
                -1.2431799913559314,
                0.9534354056046596,
                -0.7741767155428125
            ]
        },
        {
            "positions": [
                -1.1194995241210284,
                -1.7356201751159288,
                1.7700709518770597,
                -1.199429012615596,
                0.876289378830616,
                -1.0108109208111131
            ]
        },
        {
            "positions": [
                -1.1195697797545934,
                -1.7176610239736578,
                1.7534517759878188,
                -1.1556780338752604,
                0.7991433520565724,
                -1.2474451260794142
            ]
        },
        {
            "positions": [
                -1.1196400353881584,
                -1.6997018728313869,
                1.7368326000985779,
                -1.1119270551349247,
                0.7219973252825288,
                -1.4840793313477152
            ]
        },
        {
            "positions": [
                -1.1197102910217234,
                -1.6817427216891156,
                1.720213424209337,
                -1.0681760763945893,
                0.6448512985084853,
                -1.7207135366160158
            ]
        },
        {
            "positions": [
                -1.1197805466552884,
                -1.6637835705468444,
                1.7035942483200959,
                -1.024425097654254,
                0.5677052717344417,
                -1.9573477418843164
            ]
        },
        {
            "positions": [
                -1.1198508022888531,
                -1.6458244194045735,
                1.686975072430855,
                -0.9806741189139183,
                0.49055924496039816,
                -2.1939819471526176
            ]
        },
        {
            "positions": [
                -1.1199210579224181,
                -1.6278652682623025,
                1.670355896541614,
                -0.9369231401735828,
                0.41341321818635457,
                -2.430616152420918
            ]
        },
        {
            "positions": [
                -1.1199913135559831,
                -1.6099061171200313,
                1.6537367206523732,
                -0.8931721614332473,
                0.33626719141231093,
                -2.667250357689219
            ]
        },
        {
            "positions": [
                -0.9423583936203056,
                -1.5438328442503142,
                1.701420102781532,
                -0.8875844111756666,
                0.3068643233114739,
                -2.7335279109769397
            ]
        },
        {
            "positions": [
                -0.7647254736846281,
                -1.4777595713805973,
                1.749103484910691,
                -0.8819966609180858,
                0.2774614552106369,
                -2.799805464264661
            ]
        },
        {
            "positions": [
                -0.5870925537489506,
                -1.4116862985108802,
                1.79678686703985,
                -0.8764089106605051,
                0.2480585871097999,
                -2.866083017552382
            ]
        },
        {
            "positions": [
                -0.4094596338132731,
                -1.3456130256411631,
                1.8444702491690088,
                -0.8708211604029243,
                0.21865571900896288,
                -2.932360570840103
            ]
        },
        {
            "positions": [
                -0.23182671387759557,
                -1.2795397527714463,
                1.8921536312981677,
                -0.8652334101453436,
                0.18925285090812585,
                -2.998638124127824
            ]
        },
        {
            "positions": [
                -0.054193793941918145,
                -1.2134664799017292,
                1.9398370134273266,
                -0.8596456598877629,
                0.15984998280728888,
                -3.064915677415545
            ]
        },
        {
            "positions": [
                0.12343912599375956,
                -1.147393207032012,
                1.9875203955564855,
                -0.8540579096301821,
                0.13044711470645184,
                -3.131193230703266
            ]
        }
    ]
}