{
    "goal": {
        "global_pose": {
            "orientation": {
                "w": 0.5084816217422485,
                "x": -0.49083608388900757,
                "y": 0.5182115435600281,
                "z": -0.4816462993621826
            },
            "position": {
                "x": 0.5540239810943604,
                "y": 0.030875300988554955,
                "z": 0.16403168439865112
            }
        },
        "name": "move_to_storage_A"
    },
    "id": "FMT_move_to_storage_A_27",
    "joint_names": [
        "shoulder_pan_joint",
        "shoulder_lift_joint",
        "elbow_joint",
        "wrist_1_joint",
        "wrist_2_joint",
        "wrist_3_joint"
    ],
    "metrics": {
        "cart_traj_len": 0.3527992801657748,
        "distance_elbow_joint": 0.44988461054696893,
        "distance_shoulder_lift_joint": 0.2354659889082955,
        "distance_shoulder_pan_joint": 0.46275841472885443,
        "distance_wrist_1_joint": 0.241168260489658,
        "distance_wrist_2_joint": 1.0926245134328485,
        "distance_wrist_3_joint": 0.08794090213703809,
        "smoothness": 1.7763568391112168e-15,
        "time": 0.450809955,
        "traj_len": 1.6030728898723425,
        "weighted_distance": 2.019781490270729
    },
    "planner": "FMT",
    "start": {
        "state": {
            "elbow_joint": 1.9715477243005601,
            "shoulder_lift_joint": -1.1394853015351272,
            "shoulder_pan_joint": 0.12281154014795169,
            "wrist_1_joint": -0.7804696478968182,
            "wrist_2_joint": 0.12958648046900423,
            "wrist_3_joint": -3.192491284697111
        }
    },
    "waypoints": [
        {
            "positions": [
                0.12281154014795169,
                -1.1394853015351272,
                1.9715477243005601,
                -0.7804696478968182,
                0.12958648046900423,
                -3.192491284697111
            ]
        },
        {
            "positions": [
                0.056703195186686775,
                -1.173123299950598,
                2.0358169543786984,
                -0.8149222565381978,
                0.28567569667369686,
                -3.179928298677534
            ]
        },
        {
            "positions": [
                -0.00940514977457814,
                -1.2067612983660687,
                2.100086184456837,
                -0.8493748651795776,
                0.4417649128783895,
                -3.1673653126579575
            ]
        },
        {
            "positions": [
                -0.07551349473584305,
                -1.2403992967815396,
                2.1643554145349753,
                -0.8838274738209573,
                0.5978541290830821,
                -3.1548023266383804
            ]
        },
        {
            "positions": [
                -0.14162183969710795,
                -1.2740372951970103,
                2.228624644613114,
                -0.918280082462337,
                0.7539433452877747,
                -3.142239340618804
            ]
        },
        {
            "positions": [
                -0.2077301846583729,
                -1.3076752936124811,
                2.292893874691252,
                -0.9527326911037167,
                0.9100325614924675,
                -3.1296763545992268
            ]
        },
        {
            "positions": [
                -0.2738385296196378,
                -1.3413132920279518,
                2.3571631047693904,
                -0.9871852997450965,
                1.0661217776971599,
                -3.11711336857965
            ]
        },
        {
            "positions": [
                -0.3399468745809027,
                -1.3749512904434227,
                2.421432334847529,
                -1.0216379083864762,
                1.2222109939018528,
                -3.104550382560073
            ]
        }
    ]
}