{
    "goal": {
        "global_pose": {
            "orientation": {
                "w": 0.7047431468963623,
                "x": -0.7094548344612122,
                "y": 0.0024358443915843964,
                "z": -0.0022348060738295317
            },
            "position": {
                "x": 0.6094750761985779,
                "y": 0.3671506643295288,
                "z": 0.19426114857196808
            }
        },
        "name": "move_to_magneteinheit_A"
    },
    "id": "FMT_move_to_magneteinheit_A_90",
    "joint_names": [
        "shoulder_pan_joint",
        "shoulder_lift_joint",
        "elbow_joint",
        "wrist_1_joint",
        "wrist_2_joint",
        "wrist_3_joint"
    ],
    "metrics": {
        "cart_traj_len": 3.181087790348811,
        "distance_elbow_joint": 3.924643365125889,
        "distance_shoulder_lift_joint": 0.760043484026654,
        "distance_shoulder_pan_joint": 2.7557236165729364,
        "distance_wrist_1_joint": 3.8105087003389633,
        "distance_wrist_2_joint": 1.6029835712641485,
        "distance_wrist_3_joint": 0.6137460839674125,
        "smoothness": 0.7422535883124687,
        "time": 1.278212816,
        "traj_len": 3.669829535727239,
        "weighted_distance": 4.484265074773562
    },
    "planner": "FMT",
    "start": {
        "state": {
            "elbow_joint": -1.919618573717145,
            "shoulder_lift_joint": -1.2443395971678275,
            "shoulder_pan_joint": 2.6996025300909787,
            "wrist_1_joint": -1.548550951253194,
            "wrist_2_joint": -1.5709469090946802,
            "wrist_3_joint": 0.4420197732051276
        }
    },
    "waypoints": [
        {
            "positions": [
                2.6996025300909787,
                -1.2443395971678275,
                -1.919618573717145,
                -1.548550951253194,
                -1.5709469090946802,
                0.4420197732051276
            ]
        },
        {
            "positions": [
                2.6051382389520894,
                -1.2355829667866165,
                -1.8117605717073142,
                -1.411030623110067,
                -1.5362597203031914,
                0.43173931176639524
            ]
        },
        {
            "positions": [
                2.5106739478131996,
                -1.2268263364054053,
                -1.7039025696974834,
                -1.2735102949669401,
                -1.5015725315117028,
                0.42145885032766295
            ]
        },
        {
            "positions": [
                2.4162096566743103,
                -1.2180697060241943,
                -1.596044567687653,
                -1.1359899668238134,
                -1.466885342720214,
                0.4111783888889306
            ]
        },
        {
            "positions": [
                2.321745365535421,
                -1.209313075642983,
                -1.4881865656778221,
                -0.9984696386806864,
                -1.4321981539287254,
                0.40089792745019825
            ]
        },
        {
            "positions": [
                2.2272810743965312,
                -1.200556445261772,
                -1.3803285636679914,
                -0.8609493105375594,
                -1.3975109651372366,
                0.39061746601146596
            ]
        },
        {
            "positions": [
                2.132816783257642,
                -1.191799814880561,
                -1.2724705616581606,
                -0.7234289823944325,
                -1.3628237763457478,
                0.3803370045727336
            ]
        },
        {
            "positions": [
                2.0383524921187526,
                -1.1830431844993499,
                -1.1646125596483299,
                -0.5859086542513054,
                -1.3281365875542592,
                0.37005654313400127
            ]
        },
        {
            "positions": [
                1.9438882009798628,
                -1.1742865541181389,
                -1.0567545576384991,
                -0.4483883261081787,
                -1.2934493987627704,
                0.359776081695269
            ]
        },
        {
            "positions": [
                1.8494239098409735,
                -1.1655299237369277,
                -0.9488965556286685,
                -0.3108679979650517,
                -1.2587622099712816,
                0.34949562025653663
            ]
        },
        {
            "positions": [
                1.754959618702084,
                -1.1567732933557167,
                -0.8410385536188378,
                -0.17334766982192473,
                -1.224075021179793,
                0.3392151588178043
            ]
        },
        {
            "positions": [
                1.6604953275631944,
                -1.1480166629745057,
                -0.7331805516090071,
                -0.03582734167879775,
                -1.1893878323883043,
                0.328934697379072
            ]
        },
        {
            "positions": [
                1.566031036424305,
                -1.1392600325932944,
                -0.6253225495991763,
                0.101692986464329,
                -1.1547006435968155,
                0.31865423594033965
            ]
        },
        {
            "positions": [
                1.4715667452854155,
                -1.1305034022120835,
                -0.5174645475893458,
                0.23921331460745598,
                -1.1200134548053269,
                0.3083737745016073
            ]
        },
        {
            "positions": [
                1.377102454146526,
                -1.1217467718308725,
                -0.4096065455795148,
                0.3767336427505832,
                -1.085326266013838,
                0.298093313062875
            ]
        },
        {
            "positions": [
                1.2826381630076364,
                -1.1129901414496612,
                -0.3017485435696843,
                0.5142539708937099,
                -1.0506390772223493,
                0.28781285162414266
            ]
        },
        {
            "positions": [
                1.1881738718687471,
                -1.1042335110684502,
                -0.19389054155985352,
                0.6517742990368367,
                -1.0159518884308607,
                0.2775323901854103
            ]
        },
        {
            "positions": [
                1.0937095807298578,
                -1.095476880687239,
                -0.08603253955002277,
                0.7892946271799635,
                -0.981264699639372,
                0.267251928746678
            ]
        },
        {
            "positions": [
                0.999245289590968,
                -1.086720250306028,
                0.021825462459807987,
                0.9268149553230907,
                -0.9465775108478832,
                0.2569714673079456
            ]
        },
        {
            "positions": [
                0.9047809984520787,
                -1.0779636199248168,
                0.12968346446963852,
                1.0643352834662174,
                -0.9118903220563945,
                0.24669100586921333
            ]
        },
        {
            "positions": [
                0.8103167073131892,
                -1.0692069895436058,
                0.23754146647946928,
                1.2018556116093446,
                -0.8772031332649058,
                0.236410544430481
            ]
        },
        {
            "positions": [
                0.7158524161742998,
                -1.0604503591623948,
                0.34539946848930003,
                1.3393759397524714,
                -0.8425159444734172,
                0.2261300829917487
            ]
        },
        {
            "positions": [
                0.6213881250354101,
                -1.0516937287811836,
                0.4532574704991308,
                1.4768962678955986,
                -0.8078287556819284,
                0.21584962155301635
            ]
        },
        {
            "positions": [
                0.5269238338965208,
                -1.0429370983999726,
                0.5611154725089614,
                1.6144165960387253,
                -0.7731415668904397,
                0.20556916011428403
            ]
        },
        {
            "positions": [
                0.45978131089781726,
                -1.018339448058325,
                0.701894453854662,
                1.6809126592487782,
                -0.7146146794583209,
                0.17418328906274946
            ]
        },
        {
            "positions": [
                0.3926387878991137,
                -0.9937417977166775,
                0.8426734352003624,
                1.7474087224588313,
                -0.656087792026202,
                0.1427974180112149
            ]
        },
        {
            "positions": [
                0.32549626490041017,
                -0.96914414737503,
                0.983452416546063,
                1.8139047856688841,
                -0.5975609045940833,
                0.11141154695968034
            ]
        },
        {
            "positions": [
                0.2583537419017067,
                -0.9445464970333823,
                1.1242313978917635,
                1.880400848878937,
                -0.5390340171619645,
                0.08002567590814577
            ]
        },
        {
            "positions": [
                0.19121121890300308,
                -0.9199488466917347,
                1.265010379237464,
                1.94689691208899,
                -0.48050712972984566,
                0.04863980485661121
            ]
        },
        {
            "positions": [
                0.12406869590429956,
                -0.8953511963500872,
                1.4057893605831646,
                2.013392975299043,
                -0.42198024229772685,
                0.017253933805076643
            ]
        },
        {
            "positions": [
                0.16891455649177695,
                -0.7641958299982827,
                1.4687856645134088,
                2.0651534996971037,
                -0.4621645326006213,
                0.04588525046438598
            ]
        },
        {
            "positions": [
                0.21376041707925436,
                -0.6330404636464784,
                1.531781968443653,
                2.1169140240951645,
                -0.5023488229035158,
                0.07451656712369531
            ]
        },
        {
            "positions": [
                0.19113590177642853,
                -0.6702265512728046,
                1.6500926741849258,
                2.0806530928475135,
                -0.4089367419381643,
                0.041587164311509585
            ]
        },
        {
            "positions": [
                0.1685113864736027,
                -0.7074126388991309,
                1.7684033799261982,
                2.0443921615998626,
                -0.3155246609728128,
                0.00865776149932386
            ]
        },
        {
            "positions": [
                0.14588687117077687,
                -0.744598726525457,
                1.886714085667471,
                2.0081312303522116,
                -0.22211258000746126,
                -0.024271641312861858
            ]
        },
        {
            "positions": [
                0.12326235586795105,
                -0.7817848141517832,
                2.0050247914087436,
                1.9718702991045605,
                -0.12870049904210976,
                -0.0572010441250476
            ]
        }
    ]
}{
    "goal": {
        "global_pose": {
            "orientation": {
                "w": 0.7047431468963623,
                "x": -0.7094548344612122,
                "y": 0.0024358443915843964,
                "z": -0.0022348060738295317
            },
            "position": {
                "x": 0.6094750761985779,
                "y": 0.3671506643295288,
                "z": 0.19426114857196808
            }
        },
        "name": "move_to_magneteinheit_A"
    },
    "id": "FMT_move_to_magneteinheit_A_90",
    "joint_names": [
        "shoulder_pan_joint",
        "shoulder_lift_joint",
        "elbow_joint",
        "wrist_1_joint",
        "wrist_2_joint",
        "wrist_3_joint"
    ],
    "metrics": {
        "cart_traj_len": 1.2734501483555722,
        "distance_elbow_joint": 0.06843647841208611,
        "distance_shoulder_lift_joint": 0.7494132431628193,
        "distance_shoulder_pan_joint": 1.2408545304557153,
        "distance_wrist_1_joint": 0.7469838604134144,
        "distance_wrist_2_joint": 1.4338863539683504,
        "distance_wrist_3_joint": 4.25868497375313,
        "smoothness": 1.544658121217609e-16,
        "time": 1.080589149,
        "traj_len": 2.9151774285908423,
        "weighted_distance": 4.381381015393838
    },
    "planner": "FMT",
    "start": {
        "state": {
            "elbow_joint": 1.919643534880228,
            "shoulder_lift_joint": -1.8972525353963687,
            "shoulder_pan_joint": -1.1188672234189438,
            "wrist_1_joint": -1.5931878212786155,
            "wrist_2_joint": 1.5706036197970081,
            "wrist_3_joint": 1.118896926603594
        }
    },
    "waypoints": [
        {
            "positions": [
                -1.1188672234189438,
                -1.8972525353963687,
                1.919643534880228,
                -1.5931878212786155,
                1.5706036197970081,
                1.118896926603594
            ]
        },
        {
            "positions": [
                -1.0681474125685277,
                -1.8573414102119017,
                1.9225017233685964,
                -1.5562694703238205,
                1.513399920204332,
                0.9126221807859805
            ]
        },
        {
            "positions": [
                -1.0174276017181116,
                -1.8174302850274349,
                1.9253599118569646,
                -1.5193511193690254,
                1.456196220611656,
                0.7063474349683669
            ]
        },
        {
            "positions": [
                -0.9667077908676955,
                -1.777519159842968,
                1.9282181003453331,
                -1.4824327684142304,
                1.39899252101898,
                0.5000726891507534
            ]
        },
        {
            "positions": [
                -0.9159879800172795,
                -1.737608034658501,
                1.9310762888337014,
                -1.4455144174594354,
                1.3417888214263038,
                0.2937979433331399
            ]
        },
        {
            "positions": [
                -0.8652681691668633,
                -1.697696909474034,
                1.9339344773220697,
                -1.4085960665046404,
                1.284585121833628,
                0.0875231975155264
            ]
        },
        {
            "positions": [
                -0.8145483583164473,
                -1.6577857842895671,
                1.936792665810438,
                -1.3716777155498454,
                1.2273814222409518,
                -0.11875154830208712
            ]
        },
        {
            "positions": [
                -0.7638285474660312,
                -1.6178746591051003,
                1.9396508542988065,
                -1.3347593645950504,
                1.1701777226482757,
                -0.32502629411970063
            ]
        },
        {
            "positions": [
                -0.7131087366156152,
                -1.5779635339206333,
                1.9425090427871747,
                -1.2978410136402556,
                1.1129740230555998,
                -0.5313010399373141
            ]
        },
        {
            "positions": [
                -0.6623889257651991,
                -1.5380524087361662,
                1.945367231275543,
                -1.2609226626854606,
                1.0557703234629237,
                -0.7375757857549277
            ]
        },
        {
            "positions": [
                -0.6116691149147829,
                -1.4981412835516994,
                1.9482254197639113,
                -1.2240043117306656,
                0.9985666238702475,
                -0.9438505315725412
            ]
        },
        {
            "positions": [
                -0.5609493040643668,
                -1.4582301583672324,
                1.9510836082522796,
                -1.1870859607758706,
                0.9413629242775715,
                -1.1501252773901547
            ]
        },
        {
            "positions": [
                -0.5102294932139508,
                -1.4183190331827655,
                1.953941796740648,
                -1.1501676098210756,
                0.8841592246848955,
                -1.3564000232077682
            ]
        },
        {
            "positions": [
                -0.45950968236353473,
                -1.3784079079982985,
                1.9567999852290163,
                -1.1132492588662806,
                0.8269555250922195,
                -1.5626747690253817
            ]
        },
        {
            "positions": [
                -0.40878987151311863,
                -1.3384967828138317,
                1.9596581737173846,
                -1.0763309079114856,
                0.7697518254995434,
                -1.7689495148429952
            ]
        },
        {
            "positions": [
                -0.3580700606627025,
                -1.2985856576293648,
                1.9625163622057529,
                -1.0394125569566905,
                0.7125481259068673,
                -1.9752242606606087
            ]
        },
        {
            "positions": [
                -0.30735024981228654,
                -1.2586745324448978,
                1.9653745506941214,
                -1.0024942060018955,
                0.6553444263141913,
                -2.181499006478222
            ]
        },
        {
            "positions": [
                -0.25663043896187043,
                -1.2187634072604308,
                1.9682327391824896,
                -0.9655758550471005,
                0.5981407267215153,
                -2.3877737522958355
            ]
        },
        {
            "positions": [
                -0.20591062811145433,
                -1.178852282075964,
                1.971090927670858,
                -0.9286575040923055,
                0.5409370271288393,
                -2.594048498113449
            ]
        },
        {
            "positions": [
                -0.12393614432439791,
                -1.1710990346153602,
                1.975338199076222,
                -0.9080441182855294,
                0.43988208680379387,
                -2.730483385372471
            ]
        },
        {
            "positions": [
                -0.04196166053734149,
                -1.1633457871547566,
                1.979585470481586,
                -0.8874307324787534,
                0.33882714647874845,
                -2.8669182726314926
            ]
        },
        {
            "positions": [
                0.040012823249714946,
                -1.155592539694153,
                1.9838327418869501,
                -0.8668173466719772,
                0.23777220615370304,
                -3.003353159890514
            ]
        },
        {
            "positions": [
                0.12198730703677137,
                -1.1478392922335494,
                1.9880800132923142,
                -0.8462039608652011,
                0.1367172658286576,
                -3.1397880471495356
            ]
        }
    ]
}