{
    "goal": {
        "global_pose": {
            "orientation": {
                "w": 0.7047431468963623,
                "x": -0.7094548344612122,
                "y": 0.0024358443915843964,
                "z": -0.0022348060738295317
            },
            "position": {
                "x": 0.6094750761985779,
                "y": 0.3671506643295288,
                "z": 0.19426114857196808
            }
        },
        "name": "move_to_magneteinheit_A"
    },
    "id": "FMT_move_to_magneteinheit_A_117",
    "joint_names": [
        "shoulder_pan_joint",
        "shoulder_lift_joint",
        "elbow_joint",
        "wrist_1_joint",
        "wrist_2_joint",
        "wrist_3_joint"
    ],
    "metrics": {
        "cart_traj_len": 3.304309945838043,
        "distance_elbow_joint": 3.9071579397792693,
        "distance_shoulder_lift_joint": 0.7446570554060561,
        "distance_shoulder_pan_joint": 2.924350402890982,
        "distance_wrist_1_joint": 0.697576590479426,
        "distance_wrist_2_joint": 1.834089941889826,
        "distance_wrist_3_joint": 3.5684561898231006,
        "smoothness": 0.086089259395289,
        "time": 1.2675168760000002,
        "traj_len": 3.6981465790675006,
        "weighted_distance": 4.831652619165011
    },
    "planner": "FMT",
    "start": {
        "state": {
            "elbow_joint": -1.919618573717145,
            "shoulder_lift_joint": -1.2443395971678275,
            "shoulder_pan_joint": 2.6996025300909787,
            "wrist_1_joint": -1.548550951253194,
            "wrist_2_joint": -1.5709469090946802,
            "wrist_3_joint": 0.4420197732051276
        }
    },
    "waypoints": [
        {
            "positions": [
                2.6996025300909787,
                -1.2443395971678275,
                -1.919618573717145,
                -1.548550951253194,
                -1.5709469090946802,
                0.4420197732051276
            ]
        },
        {
            "positions": [
                2.6104444480289044,
                -1.2558894617494833,
                -1.7994200331338281,
                -1.5340878475810569,
                -1.5131341928687574,
                0.3462935732387392
            ]
        },
        {
            "positions": [
                2.5212863659668305,
                -1.2674393263311394,
                -1.6792214925505111,
                -1.5196247439089194,
                -1.4553214766428346,
                0.2505673732723508
            ]
        },
        {
            "positions": [
                2.432128283904756,
                -1.2789891909127953,
                -1.5590229519671943,
                -1.5051616402367822,
                -1.397508760416912,
                0.15484117330596237
            ]
        },
        {
            "positions": [
                2.3429702018426823,
                -1.2905390554944514,
                -1.4388244113838775,
                -1.4906985365646448,
                -1.3396960441909893,
                0.059114973339573995
            ]
        },
        {
            "positions": [
                2.253812119780608,
                -1.3020889200761072,
                -1.3186258708005605,
                -1.4762354328925076,
                -1.2818833279650665,
                -0.036611226626814486
            ]
        },
        {
            "positions": [
                2.164654037718534,
                -1.3136387846577633,
                -1.1984273302172435,
                -1.4617723292203704,
                -1.224070611739144,
                -0.13233742659320286
            ]
        },
        {
            "positions": [
                2.07549595565646,
                -1.3251886492394191,
                -1.0782287896339267,
                -1.447309225548233,
                -1.1662578955132212,
                -0.22806362655959128
            ]
        },
        {
            "positions": [
                1.9863378735943857,
                -1.3367385138210752,
                -0.9580302490506099,
                -1.4328461218760957,
                -1.1084451792872985,
                -0.3237898265259796
            ]
        },
        {
            "positions": [
                1.8971797915323116,
                -1.348288378402731,
                -0.8378317084672928,
                -1.4183830182039583,
                -1.0506324630613757,
                -0.41951602649236813
            ]
        },
        {
            "positions": [
                1.8080217094702373,
                -1.3598382429843872,
                -0.717633167883976,
                -1.403919914531821,
                -0.992819746835453,
                -0.5152422264587566
            ]
        },
        {
            "positions": [
                1.7188636274081635,
                -1.371388107566043,
                -0.597434627300659,
                -1.3894568108596839,
                -0.9350070306095304,
                -0.6109684264251449
            ]
        },
        {
            "positions": [
                1.6297055453460894,
                -1.3829379721476989,
                -0.4772360867173422,
                -1.3749937071875464,
                -0.8771943143836076,
                -0.7066946263915332
            ]
        },
        {
            "positions": [
                1.540547463284015,
                -1.394487836729355,
                -0.35703754613402516,
                -1.3605306035154092,
                -0.8193815981576849,
                -0.8024208263579218
            ]
        },
        {
            "positions": [
                1.451389381221941,
                -1.406037701311011,
                -0.23683900555070836,
                -1.3460674998432718,
                -0.7615688819317622,
                -0.8981470263243101
            ]
        },
        {
            "positions": [
                1.3622312991598668,
                -1.4175875658926669,
                -0.11664046496739156,
                -1.3316043961711346,
                -0.7037561657058395,
                -0.9938732262906984
            ]
        },
        {
            "positions": [
                1.2730732170977928,
                -1.4291374304743227,
                0.003558075615925249,
                -1.3171412924989974,
                -0.6459434494799168,
                -1.0895994262570867
            ]
        },
        {
            "positions": [
                1.1839151350357187,
                -1.4406872950559788,
                0.12375661619924228,
                -1.30267818882686,
                -0.5881307332539941,
                -1.1853256262234753
            ]
        },
        {
            "positions": [
                1.0947570529736443,
                -1.4522371596376347,
                0.2439551567825593,
                -1.2882150851547227,
                -0.5303180170280712,
                -1.2810518261898638
            ]
        },
        {
            "positions": [
                1.0055989709115702,
                -1.4637870242192907,
                0.3641536973658763,
                -1.2737519814825853,
                -0.4725053008021487,
                -1.3767780261562523
            ]
        },
        {
            "positions": [
                0.9164408888494961,
                -1.4753368888009466,
                0.4843522379491929,
                -1.259288877810448,
                -0.41469258457622593,
                -1.4725042261226406
            ]
        },
        {
            "positions": [
                0.827282806787422,
                -1.4868867533826027,
                0.6045507785325099,
                -1.2448257741383109,
                -0.35687986835030316,
                -1.5682304260890287
            ]
        },
        {
            "positions": [
                0.738124724725348,
                -1.4984366179642585,
                0.724749319115827,
                -1.2303626704661736,
                -0.2990671521243806,
                -1.6639566260554175
            ]
        },
        {
            "positions": [
                0.6489666426632739,
                -1.5099864825459146,
                0.8449478596991435,
                -1.2158995667940362,
                -0.24125443589845785,
                -1.7596828260218058
            ]
        },
        {
            "positions": [
                0.5598085606012,
                -1.5215363471275705,
                0.9651464002824606,
                -1.201436463121899,
                -0.1834417196725351,
                -1.8554090259881941
            ]
        },
        {
            "positions": [
                0.4706504785391252,
                -1.5330862117092265,
                1.0853449408657776,
                -1.1869733594497616,
                -0.12562900344661232,
                -1.9511352259545829
            ]
        },
        {
            "positions": [
                0.38149239647705135,
                -1.5446360762908824,
                1.2055434814490946,
                -1.1725102557776244,
                -0.06781628722068955,
                -2.046861425920971
            ]
        },
        {
            "positions": [
                0.29233431441497704,
                -1.5561859408725383,
                1.3257420220324112,
                -1.158047152105487,
                -0.010003570994767008,
                -2.1425876258873595
            ]
        },
        {
            "positions": [
                0.20317623235290327,
                -1.5677358054541943,
                1.445940562615728,
                -1.1435840484333497,
                0.04780914523115584,
                -2.238313825853748
            ]
        },
        {
            "positions": [
                0.11859429229622118,
                -1.566557064687269,
                1.5761488504416026,
                -1.1456811384352517,
                0.09614722380394,
                -2.295697992968612
            ]
        },
        {
            "positions": [
                0.03401235223953908,
                -1.565378323920344,
                1.7063571382674771,
                -1.1477782284371536,
                0.14448530237672416,
                -2.353082160083476
            ]
        },
        {
            "positions": [
                -0.05056958781714306,
                -1.5641995831534188,
                1.8365654260933517,
                -1.1498753184390555,
                0.19282338094950832,
                -2.41046632719834
            ]
        },
        {
            "positions": [
                -0.02929812224003657,
                -1.4842709112110435,
                1.8836137816035037,
                -1.094919586539325,
                0.18613195271549254,
                -2.554396057124947
            ]
        },
        {
            "positions": [
                -0.008026656662930079,
                -1.4043422392686682,
                1.9306621371136559,
                -1.0399638546395946,
                0.17944052448147677,
                -2.6983257870515547
            ]
        },
        {
            "positions": [
                0.035851794613285186,
                -1.3183864789572806,
                1.9496212134298117,
                -0.981161536688123,
                0.16046159268894136,
                -2.8410293302403606
            ]
        },
        {
            "positions": [
                0.07973024588950045,
                -1.2324307186458927,
                1.9685802897459677,
                -0.9223592187366514,
                0.141482660896406,
                -2.983732873429167
            ]
        },
        {
            "positions": [
                0.12360869716571572,
                -1.146474958334505,
                1.9875393660621234,
                -0.8635569007851798,
                0.12250372910387057,
                -3.126436416617973
            ]
        }
    ]
}{
    "goal": {
        "global_pose": {
            "orientation": {
                "w": 0.7047431468963623,
                "x": -0.7094548344612122,
                "y": 0.0024358443915843964,
                "z": -0.0022348060738295317
            },
            "position": {
                "x": 0.6094750761985779,
                "y": 0.3671506643295288,
                "z": 0.19426114857196808
            }
        },
        "name": "move_to_magneteinheit_A"
    },
    "id": "FMT_move_to_magneteinheit_A_117",
    "joint_names": [
        "shoulder_pan_joint",
        "shoulder_lift_joint",
        "elbow_joint",
        "wrist_1_joint",
        "wrist_2_joint",
        "wrist_3_joint"
    ],
    "metrics": {
        "cart_traj_len": 1.3112288684668056,
        "distance_elbow_joint": 0.07109133193045958,
        "distance_shoulder_lift_joint": 0.8441198857596024,
        "distance_shoulder_pan_joint": 1.241647733096676,
        "distance_wrist_1_joint": 0.7305736775911088,
        "distance_wrist_2_joint": 1.433986970852481,
        "distance_wrist_3_joint": 4.229386862031528,
        "smoothness": 0.034961943664471404,
        "time": 1.164304488,
        "traj_len": 2.924176202157089,
        "weighted_distance": 4.378828705689285
    },
    "planner": "FMT",
    "start": {
        "state": {
            "elbow_joint": 1.919643534880228,
            "shoulder_lift_joint": -1.8972525353963687,
            "shoulder_pan_joint": -1.1188672234189438,
            "wrist_1_joint": -1.5931878212786155,
            "wrist_2_joint": 1.5706036197970081,
            "wrist_3_joint": 1.118896926603594
        }
    },
    "waypoints": [
        {
            "positions": [
                -1.1188672234189438,
                -1.8972525353963687,
                1.919643534880228,
                -1.5931878212786155,
                1.5706036197970081,
                1.118896926603594
            ]
        },
        {
            "positions": [
                -1.062498772093809,
                -1.8530254043110974,
                1.920358686282713,
                -1.5673087237055618,
                1.5148286569027758,
                0.9272427292716099
            ]
        },
        {
            "positions": [
                -1.0061303207686743,
                -1.8087982732258263,
                1.9210738376851975,
                -1.5414296261325084,
                1.4590536940085435,
                0.7355885319396257
            ]
        },
        {
            "positions": [
                -0.9497618694435394,
                -1.764571142140555,
                1.9217889890876823,
                -1.5155505285594548,
                1.4032787311143111,
                0.5439343346076415
            ]
        },
        {
            "positions": [
                -0.8933934181184044,
                -1.7203440110552837,
                1.9225041404901668,
                -1.4896714309864012,
                1.3475037682200788,
                0.35228013727565743
            ]
        },
        {
            "positions": [
                -0.8370249667932697,
                -1.6761168799700124,
                1.9232192918926516,
                -1.4637923334133476,
                1.2917288053258464,
                0.16062593994367313
            ]
        },
        {
            "positions": [
                -0.7806565154681349,
                -1.6318897488847413,
                1.9239344432951364,
                -1.4379132358402942,
                1.235953842431614,
                -0.031028257388310942
            ]
        },
        {
            "positions": [
                -0.724288064143,
                -1.58766261779947,
                1.924649594697621,
                -1.4120341382672406,
                1.1801788795373815,
                -0.22268245472029502
            ]
        },
        {
            "positions": [
                -0.667919612817865,
                -1.5434354867141986,
                1.9253647461001058,
                -1.386155040694187,
                1.1244039166431492,
                -0.4143366520522791
            ]
        },
        {
            "positions": [
                -0.6115511614927303,
                -1.4992083556289275,
                1.9260798975025906,
                -1.3602759431211333,
                1.0686289537489169,
                -0.6059908493842634
            ]
        },
        {
            "positions": [
                -0.5551827101675954,
                -1.4549812245436562,
                1.9267950489050751,
                -1.33439684554808,
                1.0128539908546845,
                -0.7976450467162477
            ]
        },
        {
            "positions": [
                -0.49881425884246056,
                -1.4107540934583849,
                1.92751020030756,
                -1.3085177479750263,
                0.9570790279604521,
                -0.989299244048232
            ]
        },
        {
            "positions": [
                -0.44244580751732576,
                -1.3665269623731136,
                1.9282253517100445,
                -1.2826386504019727,
                0.9013040650662199,
                -1.1809534413802159
            ]
        },
        {
            "positions": [
                -0.38607735619219086,
                -1.3222998312878422,
                1.9289405031125293,
                -1.2567595528289193,
                0.8455291021719874,
                -1.3726076387122002
            ]
        },
        {
            "positions": [
                -0.32970890486705606,
                -1.2780727002025711,
                1.929655654515014,
                -1.2308804552558656,
                0.7897541392777551,
                -1.564261836044184
            ]
        },
        {
            "positions": [
                -0.27334045354192116,
                -1.2338455691172998,
                1.9303708059174987,
                -1.205001357682812,
                0.7339791763835226,
                -1.7559160333761683
            ]
        },
        {
            "positions": [
                -0.21697200221678636,
                -1.1896184380320287,
                1.9310859573199834,
                -1.1791222601097586,
                0.6782042134892904,
                -1.9475702307081522
            ]
        },
        {
            "positions": [
                -0.16060355089165157,
                -1.1453913069467574,
                1.931801108722468,
                -1.153243162536705,
                0.6224292505950579,
                -2.1392244280401362
            ]
        },
        {
            "positions": [
                -0.10423509956651665,
                -1.101164175861486,
                1.9325162601249528,
                -1.1273640649636514,
                0.5666542877008256,
                -2.330878625372121
            ]
        },
        {
            "positions": [
                -0.05883197771766693,
                -1.11077048110643,
                1.9441599814620998,
                -1.0744140807084224,
                0.4806467599495659,
                -2.4868008873832834
            ]
        },
        {
            "positions": [
                -0.013428855868817216,
                -1.120376786351374,
                1.9558037027992468,
                -1.0214640964531936,
                0.3946392321983062,
                -2.6427231493944463
            ]
        },
        {
            "positions": [
                0.03197426598003249,
                -1.1299830915963178,
                1.9674474241363937,
                -0.9685141121979646,
                0.3086317044470466,
                -2.7986454114056087
            ]
        },
        {
            "positions": [
                0.07737738782888222,
                -1.1395893968412618,
                1.9790911454735407,
                -0.9155641279427356,
                0.22262417669578682,
                -2.9545676734167716
            ]
        },
        {
            "positions": [
                0.12278050967773192,
                -1.1491957020862058,
                1.9907348668106877,
                -0.8626141436875067,
                0.13661664894452716,
                -3.110489935427934
            ]
        }
    ]
}