{
    "goal": {
        "global_pose": {
            "orientation": {
                "w": 0.5084816217422485,
                "x": -0.49083608388900757,
                "y": 0.5182115435600281,
                "z": -0.4816462993621826
            },
            "position": {
                "x": 0.5540239810943604,
                "y": 0.030875300988554955,
                "z": 0.16403168439865112
            }
        },
        "name": "move_to_storage_A"
    },
    "id": "FMT_move_to_storage_A_125",
    "joint_names": [
        "shoulder_pan_joint",
        "shoulder_lift_joint",
        "elbow_joint",
        "wrist_1_joint",
        "wrist_2_joint",
        "wrist_3_joint"
    ],
    "metrics": {
        "cart_traj_len": 0.3532174114258289,
        "distance_elbow_joint": 0.44965931966870487,
        "distance_shoulder_lift_joint": 0.23502381816986784,
        "distance_shoulder_pan_joint": 0.4639336548465603,
        "distance_wrist_1_joint": 0.23835004591859377,
        "distance_wrist_2_joint": 1.0907082343399113,
        "distance_wrist_3_joint": 0.10131220752169012,
        "smoothness": 8.881784213138256e-16,
        "time": 0.5243600620000001,
        "traj_len": 1.6059225636578272,
        "weighted_distance": 2.027478723875349
    },
    "planner": "FMT",
    "start": {
        "state": {
            "elbow_joint": 1.9715477243005601,
            "shoulder_lift_joint": -1.1394853015351272,
            "shoulder_pan_joint": 0.12281154014795169,
            "wrist_1_joint": -0.7804696478968182,
            "wrist_2_joint": 0.12958648046900423,
            "wrist_3_joint": -3.192491284697111
        }
    },
    "waypoints": [
        {
            "positions": [
                0.12281154014795169,
                -1.1394853015351272,
                1.9715477243005601,
                -0.7804696478968182,
                0.12958648046900423,
                -3.192491284697111
            ]
        },
        {
            "positions": [
                0.056535303741300225,
                -1.1730601327022512,
                2.035784769967518,
                -0.8145196544566172,
                0.285401942517563,
                -3.1780181121940125
            ]
        },
        {
            "positions": [
                -0.00974093266535124,
                -1.2066349638693752,
                2.100021815634476,
                -0.8485696610164164,
                0.44121740456612174,
                -3.163544939690914
            ]
        },
        {
            "positions": [
                -0.07601716907200272,
                -1.2402097950364992,
                2.1642588613014335,
                -0.8826196675762155,
                0.5970328666146805,
                -3.1490717671878152
            ]
        },
        {
            "positions": [
                -0.14229340547865416,
                -1.273784626203623,
                2.2284959069683916,
                -0.9166696741360146,
                0.7528483286632393,
                -3.134598594684717
            ]
        },
        {
            "positions": [
                -0.20856964188530563,
                -1.307359457370747,
                2.2927329526353493,
                -0.9507196806958137,
                0.908663790711798,
                -3.1201254221816184
            ]
        },
        {
            "positions": [
                -0.2748458782919571,
                -1.340934288537871,
                2.356969998302307,
                -0.9847696872556129,
                1.0644792527603566,
                -3.1056522496785197
            ]
        },
        {
            "positions": [
                -0.3411221146986086,
                -1.374509119704995,
                2.421207043969265,
                -1.018819693815412,
                1.2202947148089154,
                -3.091179077175421
            ]
        }
    ]
}