{
    "goal": {
        "global_pose": {
            "orientation": {
                "w": 0.7047431468963623,
                "x": -0.7094548344612122,
                "y": 0.0024358443915843964,
                "z": -0.0022348060738295317
            },
            "position": {
                "x": 0.6094750761985779,
                "y": 0.3671506643295288,
                "z": 0.19426114857196808
            }
        },
        "name": "move_to_magneteinheit_A"
    },
    "id": "FMT_move_to_magneteinheit_A_85",
    "joint_names": [
        "shoulder_pan_joint",
        "shoulder_lift_joint",
        "elbow_joint",
        "wrist_1_joint",
        "wrist_2_joint",
        "wrist_3_joint"
    ],
    "metrics": {
        "cart_traj_len": 4.041642213349563,
        "distance_elbow_joint": 3.897750340146313,
        "distance_shoulder_lift_joint": 0.8445029057854501,
        "distance_shoulder_pan_joint": 2.8479728034912672,
        "distance_wrist_1_joint": 0.727130940600435,
        "distance_wrist_2_joint": 2.0525348761718916,
        "distance_wrist_3_joint": 3.101721123910823,
        "smoothness": 0.33168410260880005,
        "time": 1.297190184,
        "traj_len": 3.6703695985699016,
        "weighted_distance": 4.738641266724055
    },
    "planner": "FMT",
    "start": {
        "state": {
            "elbow_joint": -1.919618573717145,
            "shoulder_lift_joint": -1.2443395971678275,
            "shoulder_pan_joint": 2.6996025300909787,
            "wrist_1_joint": -1.548550951253194,
            "wrist_2_joint": -1.5709469090946802,
            "wrist_3_joint": 0.4420197732051276
        }
    },
    "waypoints": [
        {
            "positions": [
                2.6996025300909787,
                -1.2443395971678275,
                -1.919618573717145,
                -1.548550951253194,
                -1.5709469090946802,
                0.4420197732051276
            ]
        },
        {
            "positions": [
                2.6033810966334348,
                -1.2283828703477617,
                -1.8112043739145984,
                -1.5329365653712943,
                -1.5198219205599321,
                0.5421829787930299
            ]
        },
        {
            "positions": [
                2.507159663175891,
                -1.2124261435276957,
                -1.7027901741120517,
                -1.5173221794893945,
                -1.4686969320251844,
                0.6423461843809322
            ]
        },
        {
            "positions": [
                2.410938229718347,
                -1.19646941670763,
                -1.594375974309505,
                -1.5017077936074945,
                -1.4175719434904366,
                0.7425093899688345
            ]
        },
        {
            "positions": [
                2.314716796260803,
                -1.1805126898875642,
                -1.4859617745069584,
                -1.4860934077255947,
                -1.3664469549556886,
                0.8426725955567369
            ]
        },
        {
            "positions": [
                2.218495362803259,
                -1.1645559630674982,
                -1.377547574704412,
                -1.470479021843695,
                -1.3153219664209406,
                0.9428358011446392
            ]
        },
        {
            "positions": [
                2.122273929345715,
                -1.1485992362474324,
                -1.2691333749018652,
                -1.4548646359617952,
                -1.2641969778861928,
                1.0429990067325414
            ]
        },
        {
            "positions": [
                2.0260524958881705,
                -1.1326425094273667,
                -1.1607191750993184,
                -1.4392502500798954,
                -1.213071989351445,
                1.1431622123204437
            ]
        },
        {
            "positions": [
                1.9298310624306267,
                -1.1166857826073007,
                -1.052304975296772,
                -1.4236358641979956,
                -1.161947000816697,
                1.2433254179083462
            ]
        },
        {
            "positions": [
                1.8336096289730828,
                -1.100729055787235,
                -0.9438907754942252,
                -1.4080214783160956,
                -1.110822012281949,
                1.3434886234962484
            ]
        },
        {
            "positions": [
                1.7373881955155388,
                -1.0847723289671691,
                -0.8354765756916787,
                -1.3924070924341958,
                -1.0596970237472012,
                1.4436518290841507
            ]
        },
        {
            "positions": [
                1.6411667620579948,
                -1.0688156021471031,
                -0.7270623758891319,
                -1.376792706552296,
                -1.0085720352124534,
                1.5438150346720532
            ]
        },
        {
            "positions": [
                1.5449453286004509,
                -1.0528588753270374,
                -0.6186481760865854,
                -1.3611783206703962,
                -0.9574470466777054,
                1.6439782402599554
            ]
        },
        {
            "positions": [
                1.4487238951429067,
                -1.0369021485069716,
                -0.5102339762840387,
                -1.3455639347884965,
                -0.9063220581429575,
                1.7441414458478577
            ]
        },
        {
            "positions": [
                1.3525024616853627,
                -1.0209454216869056,
                -0.40181977648149214,
                -1.3299495489065967,
                -0.8551970696082096,
                1.84430465143576
            ]
        },
        {
            "positions": [
                1.2562810282278185,
                -1.0049886948668398,
                -0.2934055766789452,
                -1.3143351630246967,
                -0.8040720810734616,
                1.9444678570236624
            ]
        },
        {
            "positions": [
                1.1600595947702748,
                -0.989031968046774,
                -0.18499137687639888,
                -1.2987207771427969,
                -0.7529470925387138,
                2.0446310626115647
            ]
        },
        {
            "positions": [
                1.0638381613127306,
                -0.9730752412267081,
                -0.07657717707385192,
                -1.283106391260897,
                -0.7018221040039658,
                2.144794268199467
            ]
        },
        {
            "positions": [
                0.9676167278551868,
                -0.9571185144066423,
                0.0318370227286946,
                -1.2674920053789973,
                -0.650697115469218,
                2.244957473787369
            ]
        },
        {
            "positions": [
                0.8713952943976426,
                -0.9411617875865763,
                0.14025122253124134,
                -1.2518776194970975,
                -0.59957212693447,
                2.3451206793752717
            ]
        },
        {
            "positions": [
                0.7751738609400989,
                -0.9252050607665105,
                0.24866542233378763,
                -1.2362632336151975,
                -0.5484471383997223,
                2.4452838849631737
            ]
        },
        {
            "positions": [
                0.6789524274825545,
                -0.9092483339464447,
                0.3570796221363344,
                -1.2206488477332977,
                -0.49732214986497425,
                2.545447090551076
            ]
        },
        {
            "positions": [
                0.5827309940250109,
                -0.8932916071263788,
                0.4654938219388811,
                -1.205034461851398,
                -0.44619716133022647,
                2.6456102961389787
            ]
        },
        {
            "positions": [
                0.4865095605674665,
                -0.877334880306313,
                0.5739080217414279,
                -1.1894200759694982,
                -0.39507217279547846,
                2.745773501726881
            ]
        },
        {
            "positions": [
                0.390288127109923,
                -0.8613781534862472,
                0.6823222215439742,
                -1.1738056900875984,
                -0.3439471842607307,
                2.845936707314783
            ]
        },
        {
            "positions": [
                0.2940666936523786,
                -0.8454214266661813,
                0.7907364213465209,
                -1.1581913042056984,
                -0.29282219572598267,
                2.9460999129026857
            ]
        },
        {
            "positions": [
                0.19784526019483462,
                -0.8294646998461155,
                0.8991506211490676,
                -1.1425769183237986,
                -0.2416972071912349,
                3.0462631184905877
            ]
        },
        {
            "positions": [
                0.10162382673729072,
                -0.8135079730260496,
                1.0075648209516144,
                -1.1269625324418988,
                -0.19057221865648688,
                3.14642632407849
            ]
        },
        {
            "positions": [
                0.0730749885873447,
                -0.8029509741733186,
                1.1471247128561008,
                -1.082525165449744,
                -0.06681755973950906,
                3.1944656720859967
            ]
        },
        {
            "positions": [
                0.044526150437398666,
                -0.7923939753205875,
                1.2866846047605875,
                -1.0380877984575896,
                0.05693709917746875,
                3.2425050200935033
            ]
        },
        {
            "positions": [
                0.01597731228745264,
                -0.7818369764678565,
                1.426244496665074,
                -0.9936504314654349,
                0.1806917580944466,
                3.29054436810101
            ]
        },
        {
            "positions": [
                -0.012571525862493382,
                -0.7712799776151256,
                1.5658043885695605,
                -0.9492130644732802,
                0.3044464170114244,
                3.3385837161085163
            ]
        },
        {
            "positions": [
                0.021378161021955402,
                -0.8641407991733125,
                1.6688862330344625,
                -0.9172648010181499,
                0.26016102949497766,
                3.2872944208566577
            ]
        },
        {
            "positions": [
                0.05532784790640419,
                -0.9570016207314996,
                1.7719680774993647,
                -0.8853165375630196,
                0.21587564197853093,
                3.236005125604799
            ]
        },
        {
            "positions": [
                0.08927753479085297,
                -1.0498624422896867,
                1.875049921964267,
                -0.8533682741078894,
                0.17159025446208423,
                3.184715830352941
            ]
        },
        {
            "positions": [
                0.12322722167530177,
                -1.1427232638478737,
                1.9781317664291689,
                -0.821420010652759,
                0.1273048669456375,
                3.133426535101082
            ]
        }
    ]
}{
    "goal": {
        "global_pose": {
            "orientation": {
                "w": 0.7047431468963623,
                "x": -0.7094548344612122,
                "y": 0.0024358443915843964,
                "z": -0.0022348060738295317
            },
            "position": {
                "x": 0.6094750761985779,
                "y": 0.3671506643295288,
                "z": 0.19426114857196808
            }
        },
        "name": "move_to_magneteinheit_A"
    },
    "id": "FMT_move_to_magneteinheit_A_85",
    "joint_names": [
        "shoulder_pan_joint",
        "shoulder_lift_joint",
        "elbow_joint",
        "wrist_1_joint",
        "wrist_2_joint",
        "wrist_3_joint"
    ],
    "metrics": {
        "cart_traj_len": 1.2560745686456833,
        "distance_elbow_joint": 0.0666560241386136,
        "distance_shoulder_lift_joint": 0.75070642987662,
        "distance_shoulder_pan_joint": 1.2416616588895033,
        "distance_wrist_1_joint": 0.7552611232537831,
        "distance_wrist_2_joint": 1.4353996139197553,
        "distance_wrist_3_joint": 4.26722301354918,
        "smoothness": 1.5446581334486854e-16,
        "time": 1.159485803,
        "traj_len": 2.9183741815653894,
        "weighted_distance": 4.386572081694242
    },
    "planner": "FMT",
    "start": {
        "state": {
            "elbow_joint": 1.919643534880228,
            "shoulder_lift_joint": -1.8972525353963687,
            "shoulder_pan_joint": -1.1188672234189438,
            "wrist_1_joint": -1.5931878212786155,
            "wrist_2_joint": 1.5706036197970081,
            "wrist_3_joint": 1.118896926603594
        }
    },
    "waypoints": [
        {
            "positions": [
                -1.1188672234189438,
                -1.8972525353963687,
                1.919643534880228,
                -1.5931878212786155,
                1.5706036197970081,
                1.118896926603594
            ]
        },
        {
            "positions": [
                -1.0736187580556997,
                -1.861526371534355,
                1.9225142360415897,
                -1.5603926953975806,
                1.505608999417261,
                0.9056392845579407
            ]
        },
        {
            "positions": [
                -1.0283702926924558,
                -1.8258002076723412,
                1.925384937202951,
                -1.5275975695165456,
                1.4406143790375139,
                0.6923816425122875
            ]
        },
        {
            "positions": [
                -0.9831218273292118,
                -1.7900740438103275,
                1.9282556383643126,
                -1.4948024436355107,
                1.3756197586577668,
                0.4791240004666344
            ]
        },
        {
            "positions": [
                -0.9378733619659678,
                -1.7543478799483139,
                1.9311263395256741,
                -1.462007317754476,
                1.3106251382780196,
                0.26586635842098105
            ]
        },
        {
            "positions": [
                -0.8926248966027237,
                -1.7186217160863002,
                1.9339970406870357,
                -1.4292121918734408,
                1.2456305178982725,
                0.052608716375327935
            ]
        },
        {
            "positions": [
                -0.8473764312394798,
                -1.6828955522242863,
                1.9368677418483973,
                -1.396417065992406,
                1.1806358975185254,
                -0.16064892567032518
            ]
        },
        {
            "positions": [
                -0.8021279658762357,
                -1.6471693883622727,
                1.9397384430097586,
                -1.3636219401113712,
                1.1156412771387783,
                -0.3739065677159783
            ]
        },
        {
            "positions": [
                -0.7568795005129917,
                -1.6114432245002588,
                1.9426091441711202,
                -1.330826814230336,
                1.0506466567590311,
                -0.5871642097616319
            ]
        },
        {
            "positions": [
                -0.7116310351497477,
                -1.5757170606382451,
                1.9454798453324817,
                -1.2980316883493013,
                0.985652036379284,
                -0.800421851807285
            ]
        },
        {
            "positions": [
                -0.6663825697865037,
                -1.5399908967762315,
                1.948350546493843,
                -1.2652365624682664,
                0.9206574159995369,
                -1.013679493852938
            ]
        },
        {
            "positions": [
                -0.6211341044232597,
                -1.5042647329142178,
                1.9512212476552047,
                -1.2324414365872314,
                0.8556627956197896,
                -1.2269371358985917
            ]
        },
        {
            "positions": [
                -0.5758856390600157,
                -1.4685385690522041,
                1.9540919488165662,
                -1.1996463107061965,
                0.7906681752400426,
                -1.4401947779442443
            ]
        },
        {
            "positions": [
                -0.5306371736967717,
                -1.4328124051901903,
                1.9569626499779278,
                -1.1668511848251617,
                0.7256735548602955,
                -1.653452419989898
            ]
        },
        {
            "positions": [
                -0.48538870833352765,
                -1.3970862413281766,
                1.9598333511392894,
                -1.1340560589441266,
                0.6606789344805485,
                -1.8667100620355506
            ]
        },
        {
            "positions": [
                -0.44014024297028365,
                -1.3613600774661627,
                1.9627040523006507,
                -1.1012609330630918,
                0.5956843141008012,
                -2.079967704081204
            ]
        },
        {
            "positions": [
                -0.39489177760703953,
                -1.325633913604149,
                1.9655747534620123,
                -1.068465807182057,
                0.5306896937210541,
                -2.2932253461268575
            ]
        },
        {
            "positions": [
                -0.3496433122437955,
                -1.2899077497421354,
                1.9684454546233738,
                -1.035670681301022,
                0.465695073341307,
                -2.50648298817251
            ]
        },
        {
            "positions": [
                -0.3043948468805515,
                -1.2541815858801217,
                1.9713161557847352,
                -1.0028755554199869,
                0.40070045296155987,
                -2.7197406302181637
            ]
        },
        {
            "positions": [
                -0.2591463815173075,
                -1.218455422018108,
                1.9741868569460967,
                -0.9700804295389521,
                0.33570583258181275,
                -2.9329982722638164
            ]
        },
        {
            "positions": [
                -0.21389791615406348,
                -1.1827292581560942,
                1.9770575581074583,
                -0.9372853036579172,
                0.2707112122020656,
                -3.1462559143094704
            ]
        },
        {
            "positions": [
                -0.045551740341751995,
                -1.1646376818379216,
                1.98167855856315,
                -0.8876060008413748,
                0.20295760903965915,
                -3.1472910006275283
            ]
        },
        {
            "positions": [
                0.1227944354705595,
                -1.1465461055197488,
                1.9862995590188417,
                -0.8379266980248323,
                0.1352040058772527,
                -3.148326086945586
            ]
        }
    ]
}