{
    "goal": {
        "global_pose": {
            "orientation": {
                "w": 0.7047431468963623,
                "x": -0.7094548344612122,
                "y": 0.0024358443915843964,
                "z": -0.0022348060738295317
            },
            "position": {
                "x": 0.6094750761985779,
                "y": 0.3671506643295288,
                "z": 0.19426114857196808
            }
        },
        "name": "move_to_magneteinheit_A"
    },
    "id": "FMT_move_to_magneteinheit_A_148",
    "joint_names": [
        "shoulder_pan_joint",
        "shoulder_lift_joint",
        "elbow_joint",
        "wrist_1_joint",
        "wrist_2_joint",
        "wrist_3_joint"
    ],
    "metrics": {
        "cart_traj_len": 3.0767583897695268,
        "distance_elbow_joint": 3.9113751349956796,
        "distance_shoulder_lift_joint": 0.47681171030036695,
        "distance_shoulder_pan_joint": 2.6423721539112757,
        "distance_wrist_1_joint": 3.461512323604034,
        "distance_wrist_2_joint": 1.441787055377637,
        "distance_wrist_3_joint": 0.42702610288154425,
        "smoothness": 0.02406760417011535,
        "time": 1.35442712,
        "traj_len": 3.51580495492434,
        "weighted_distance": 4.256552133571877
    },
    "planner": "FMT",
    "start": {
        "state": {
            "elbow_joint": -1.919618573717145,
            "shoulder_lift_joint": -1.2443395971678275,
            "shoulder_pan_joint": 2.6996025300909787,
            "wrist_1_joint": -1.548550951253194,
            "wrist_2_joint": -1.5709469090946802,
            "wrist_3_joint": 0.4420197732051276
        }
    },
    "waypoints": [
        {
            "positions": [
                2.6996025300909787,
                -1.2443395971678275,
                -1.919618573717145,
                -1.548550951253194,
                -1.5709469090946802,
                0.4420197732051276
            ]
        },
        {
            "positions": [
                2.5785124387121683,
                -1.2229331483950459,
                -1.8146425897168394,
                -1.4292456747997506,
                -1.5510868816261674,
                0.44189197738921826
            ]
        },
        {
            "positions": [
                2.457422347333358,
                -1.2015266996222642,
                -1.709666605716534,
                -1.3099403983463072,
                -1.5312268541576548,
                0.44176418157330893
            ]
        },
        {
            "positions": [
                2.3363322559545474,
                -1.1801202508494826,
                -1.6046906217162284,
                -1.1906351218928637,
                -1.5113668266891422,
                0.4416363857573996
            ]
        },
        {
            "positions": [
                2.215242164575737,
                -1.1587138020767007,
                -1.4997146377159227,
                -1.0713298454394202,
                -1.4915067992206295,
                0.4415085899414903
            ]
        },
        {
            "positions": [
                2.0941520731969265,
                -1.137307353303919,
                -1.3947386537156174,
                -0.9520245689859768,
                -1.4716467717521167,
                0.44138079412558096
            ]
        },
        {
            "positions": [
                1.973061981818116,
                -1.1159009045311374,
                -1.2897626697153117,
                -0.8327192925325333,
                -1.451786744283604,
                0.4412529983096716
            ]
        },
        {
            "positions": [
                1.8519718904393057,
                -1.0944944557583558,
                -1.1847866857150064,
                -0.7134140160790898,
                -1.4319267168150915,
                0.44112520249376225
            ]
        },
        {
            "positions": [
                1.7308817990604952,
                -1.0730880069855742,
                -1.0798107017147007,
                -0.5941087396256464,
                -1.4120666893465788,
                0.4409974066778529
            ]
        },
        {
            "positions": [
                1.6097917076816848,
                -1.0516815582127923,
                -0.9748347177143952,
                -0.4748034631722029,
                -1.392206661878066,
                0.4408696108619436
            ]
        },
        {
            "positions": [
                1.4887016163028743,
                -1.0302751094400107,
                -0.8698587337140897,
                -0.35549818671875943,
                -1.3723466344095534,
                0.44074181504603427
            ]
        },
        {
            "positions": [
                1.367611524924064,
                -1.008868660667229,
                -0.764882749713784,
                -0.23619291026531597,
                -1.3524866069410406,
                0.44061401923012494
            ]
        },
        {
            "positions": [
                1.2465214335452535,
                -0.9874622118944474,
                -0.6599067657134787,
                -0.1168876338118725,
                -1.332626579472528,
                0.4404862234142156
            ]
        },
        {
            "positions": [
                1.125431342166443,
                -0.9660557631216657,
                -0.554930781713173,
                0.0024176426415709606,
                -1.3127665520040153,
                0.4403584275983063
            ]
        },
        {
            "positions": [
                1.0043412507876326,
                -0.9446493143488841,
                -0.4499547977128677,
                0.12172291909501443,
                -1.2929065245355027,
                0.44023063178239696
            ]
        },
        {
            "positions": [
                0.8832511594088222,
                -0.9232428655761024,
                -0.3449788137125622,
                0.2410281955484579,
                -1.2730464970669901,
                0.4401028359664876
            ]
        },
        {
            "positions": [
                0.7621610680300117,
                -0.9018364168033206,
                -0.2400028297122565,
                0.36033347200190136,
                -1.2531864695984773,
                0.43997504015057826
            ]
        },
        {
            "positions": [
                0.6410709766512013,
                -0.880429968030539,
                -0.13502684571195123,
                0.4796387484553448,
                -1.2333264421299646,
                0.43984724433466893
            ]
        },
        {
            "positions": [
                0.5199808852723908,
                -0.8590235192577573,
                -0.030050861711645505,
                0.5989440249087883,
                -1.213466414661452,
                0.4397194485187596
            ]
        },
        {
            "positions": [
                0.3988907938935804,
                -0.8376170704849757,
                0.07492512228865977,
                0.7182493013622318,
                -1.1936063871929394,
                0.4395916527028503
            ]
        },
        {
            "positions": [
                0.27780070251476974,
                -0.8162106217121939,
                0.1799011062889655,
                0.837554577815675,
                -1.1737463597244266,
                0.43946385688694095
            ]
        },
        {
            "positions": [
                0.2480059993386115,
                -0.8101730289947247,
                0.32963338021974353,
                0.9235296834806306,
                -1.1025569989469586,
                0.4064832603447846
            ]
        },
        {
            "positions": [
                0.21821129616245327,
                -0.8041354362772554,
                0.47936565415052157,
                1.0095047891455862,
                -1.0313676381694905,
                0.3735026638026283
            ]
        },
        {
            "positions": [
                0.18841659298629504,
                -0.798097843559786,
                0.6290979280812996,
                1.0954798948105418,
                -0.9601782773920225,
                0.34052206726047196
            ]
        },
        {
            "positions": [
                0.15862188981013678,
                -0.7920602508423167,
                0.7788302020120776,
                1.1814550004754973,
                -0.8889889166145544,
                0.3075414707183156
            ]
        },
        {
            "positions": [
                0.12882718663397855,
                -0.7860226581248474,
                0.9285624759428557,
                1.267430106140453,
                -0.8177995558370864,
                0.2745608741761593
            ]
        },
        {
            "positions": [
                0.12329588410492205,
                -0.7840916331318877,
                1.0708126820402166,
                1.3526145338419968,
                -0.7300345565993127,
                0.240330879271683
            ]
        },
        {
            "positions": [
                0.11776458157586554,
                -0.7821606081389278,
                1.2130628881375776,
                1.4377989615435405,
                -0.6422695573615391,
                0.2061008843672067
            ]
        },
        {
            "positions": [
                0.11223327904680905,
                -0.7802295831459681,
                1.3553130942349385,
                1.5229833892450844,
                -0.5545045581237655,
                0.17187088946273038
            ]
        },
        {
            "positions": [
                0.10670197651775254,
                -0.7782985581530084,
                1.4975633003322995,
                1.6081678169466282,
                -0.46673955888599183,
                0.13764089455825404
            ]
        },
        {
            "positions": [
                0.10117067398869604,
                -0.7763675331600487,
                1.6398135064296606,
                1.693352244648172,
                -0.37897455964821813,
                0.1034108996537777
            ]
        },
        {
            "positions": [
                0.09563937145963955,
                -0.7744365081670889,
                1.7820637125270213,
                1.7785366723497158,
                -0.29120956041044455,
                0.06918090474930141
            ]
        },
        {
            "positions": [
                0.09010806893058304,
                -0.7725054831741291,
                1.9243139186243825,
                1.8637211000512597,
                -0.2034445611726709,
                0.03495090984482506
            ]
        },
        {
            "positions": [
                0.12298576168146448,
                -0.7774830794807978,
                1.9917565612785344,
                1.9129613723508412,
                -0.12915985371704328,
                0.01499367032358335
            ]
        }
    ]
}{
    "goal": {
        "global_pose": {
            "orientation": {
                "w": 0.7047431468963623,
                "x": -0.7094548344612122,
                "y": 0.0024358443915843964,
                "z": -0.0022348060738295317
            },
            "position": {
                "x": 0.6094750761985779,
                "y": 0.3671506643295288,
                "z": 0.19426114857196808
            }
        },
        "name": "move_to_magneteinheit_A"
    },
    "id": "FMT_move_to_magneteinheit_A_148",
    "joint_names": [
        "shoulder_pan_joint",
        "shoulder_lift_joint",
        "elbow_joint",
        "wrist_1_joint",
        "wrist_2_joint",
        "wrist_3_joint"
    ],
    "metrics": {
        "cart_traj_len": 1.1038798956281228,
        "distance_elbow_joint": 0.6684922589289082,
        "distance_shoulder_lift_joint": 0.7514096282073195,
        "distance_shoulder_pan_joint": 1.2418970147607422,
        "distance_wrist_1_joint": 0.7736849589866391,
        "distance_wrist_2_joint": 1.4310050720903194,
        "distance_wrist_3_joint": 4.268442844887794,
        "smoothness": 0.07308887307838975,
        "time": 1.155167439,
        "traj_len": 3.022404965894167,
        "weighted_distance": 4.458307694486134
    },
    "planner": "FMT",
    "start": {
        "state": {
            "elbow_joint": 1.919643534880228,
            "shoulder_lift_joint": -1.8972525353963687,
            "shoulder_pan_joint": -1.1188672234189438,
            "wrist_1_joint": -1.5931878212786155,
            "wrist_2_joint": 1.5706036197970081,
            "wrist_3_joint": 1.118896926603594
        }
    },
    "waypoints": [
        {
            "positions": [
                -1.1188672234189438,
                -1.8972525353963687,
                1.919643534880228,
                -1.5931878212786155,
                1.5706036197970081,
                1.118896926603594
            ]
        },
        {
            "positions": [
                -1.0578640253654559,
                -1.8769418903018413,
                1.9562371327446189,
                -1.573542420860867,
                1.502936384649036,
                0.9310106576213789
            ]
        },
        {
            "positions": [
                -0.9968608273119681,
                -1.856631245207314,
                1.9928307306090096,
                -1.5538970204431184,
                1.4352691495010637,
                0.7431243886391639
            ]
        },
        {
            "positions": [
                -0.9358576292584803,
                -1.8363206001127865,
                2.0294243284734,
                -1.53425162002537,
                1.3676019143530915,
                0.5552381196569488
            ]
        },
        {
            "positions": [
                -0.8748544312049924,
                -1.8160099550182591,
                2.066017926337791,
                -1.5146062196076215,
                1.2999346792051192,
                0.36735185067473364
            ]
        },
        {
            "positions": [
                -0.8138512331515045,
                -1.795699309923732,
                2.1026115242021817,
                -1.4949608191898731,
                1.232267444057147,
                0.17946558169251858
            ]
        },
        {
            "positions": [
                -0.7528480350980167,
                -1.7753886648292045,
                2.1392051220665724,
                -1.4753154187721245,
                1.164600208909175,
                -0.00842068728969636
            ]
        },
        {
            "positions": [
                -0.6918448370445288,
                -1.7550780197346771,
                2.175798719930963,
                -1.455670018354376,
                1.0969329737612026,
                -0.19630695627191153
            ]
        },
        {
            "positions": [
                -0.630841638991041,
                -1.7347673746401497,
                2.212392317795354,
                -1.4360246179366274,
                1.0292657386132302,
                -0.3841932252541267
            ]
        },
        {
            "positions": [
                -0.5698384409375531,
                -1.7144567295456223,
                2.2489859156597447,
                -1.416379217518879,
                0.9615985034652582,
                -0.5720794942363419
            ]
        },
        {
            "positions": [
                -0.5088352428840652,
                -1.694146084451095,
                2.2855795135241355,
                -1.3967338171011305,
                0.893931268317286,
                -0.7599657632185569
            ]
        },
        {
            "positions": [
                -0.4637020261536464,
                -1.6549815717895202,
                2.2639683506466355,
                -1.3555030346147623,
                0.8400503597022434,
                -0.93065006000896
            ]
        },
        {
            "positions": [
                -0.41856880942322755,
                -1.6158170591279455,
                2.2423571877691355,
                -1.3142722521283943,
                0.7861694510872007,
                -1.101334356799363
            ]
        },
        {
            "positions": [
                -0.3734355926928087,
                -1.5766525464663708,
                2.220746024891635,
                -1.273041469642026,
                0.7322885424721581,
                -1.272018653589766
            ]
        },
        {
            "positions": [
                -0.32830237596238987,
                -1.5374880338047963,
                2.199134862014135,
                -1.231810687155658,
                0.6784076338571154,
                -1.4427029503801692
            ]
        },
        {
            "positions": [
                -0.283169159231971,
                -1.4983235211432215,
                2.177523699136635,
                -1.1905799046692898,
                0.6245267252420729,
                -1.6133872471705724
            ]
        },
        {
            "positions": [
                -0.2380359425015522,
                -1.4591590084816468,
                2.155912536259135,
                -1.1493491221829215,
                0.5706458166270303,
                -1.7840715439609753
            ]
        },
        {
            "positions": [
                -0.19290272577113332,
                -1.419994495820072,
                2.134301373381635,
                -1.1081183396965535,
                0.5167649080119876,
                -1.9547558407513783
            ]
        },
        {
            "positions": [
                -0.1477695090407145,
                -1.3808299831584974,
                2.112690210504135,
                -1.0668875572101852,
                0.462883999396945,
                -2.1254401375417813
            ]
        },
        {
            "positions": [
                -0.10263629231029558,
                -1.3416654704969226,
                2.0910790476266348,
                -1.0256567747238172,
                0.40900309078190233,
                -2.2961244343321847
            ]
        },
        {
            "positions": [
                -0.05750307557987677,
                -1.3025009578353481,
                2.069467884749135,
                -0.984425992237449,
                0.35512218216685976,
                -2.4668087311225877
            ]
        },
        {
            "positions": [
                -0.01236985884945796,
                -1.2633364451737732,
                2.047856721871635,
                -0.9431952097510807,
                0.30124127355181707,
                -2.6374930279129907
            ]
        },
        {
            "positions": [
                0.03276335788096085,
                -1.2241719325121987,
                2.026245558994135,
                -0.9019644272647127,
                0.2473603649367745,
                -2.8081773247033937
            ]
        },
        {
            "positions": [
                0.07789657461137978,
                -1.185007419850624,
                2.004634396116635,
                -0.8607336447783445,
                0.1934794563217318,
                -2.978861621493797
            ]
        },
        {
            "positions": [
                0.1230297913417986,
                -1.1458429071890492,
                1.9830232332391347,
                -0.8195028622919763,
                0.1395985477066892,
                -3.1495459182842
            ]
        }
    ]
}