{
    "goal": {
        "global_pose": {
            "orientation": {
                "w": 0.7047431468963623,
                "x": -0.7094548344612122,
                "y": 0.0024358443915843964,
                "z": -0.0022348060738295317
            },
            "position": {
                "x": 0.6094750761985779,
                "y": 0.3671506643295288,
                "z": 0.19426114857196808
            }
        },
        "name": "move_to_magneteinheit_A"
    },
    "id": "FMT_move_to_magneteinheit_A_51",
    "joint_names": [
        "shoulder_pan_joint",
        "shoulder_lift_joint",
        "elbow_joint",
        "wrist_1_joint",
        "wrist_2_joint",
        "wrist_3_joint"
    ],
    "metrics": {
        "cart_traj_len": 3.5796602245273044,
        "distance_elbow_joint": 3.899015770781222,
        "distance_shoulder_lift_joint": 1.3733047697084564,
        "distance_shoulder_pan_joint": 5.558667364435232,
        "distance_wrist_1_joint": 0.7342471037949851,
        "distance_wrist_2_joint": 4.598633816382944,
        "distance_wrist_3_joint": 3.6018603137379706,
        "smoothness": 0.23584192694980174,
        "time": 1.2170665559999998,
        "traj_len": 4.445866522832281,
        "weighted_distance": 5.6835139382687085
    },
    "planner": "FMT",
    "start": {
        "state": {
            "elbow_joint": -1.919618573717145,
            "shoulder_lift_joint": -1.2443395971678275,
            "shoulder_pan_joint": 2.6996025300909787,
            "wrist_1_joint": -1.548550951253194,
            "wrist_2_joint": -1.5709469090946802,
            "wrist_3_joint": 0.4420197732051276
        }
    },
    "waypoints": [
        {
            "positions": [
                2.6996025300909787,
                -1.2443395971678275,
                -1.919618573717145,
                -1.548550951253194,
                -1.5709469090946802,
                0.4420197732051276
            ]
        },
        {
            "positions": [
                2.554319523141303,
                -1.2670492028153215,
                -1.8065334749155932,
                -1.5327846406228798,
                -1.6227709985888548,
                0.40493020344713154
            ]
        },
        {
            "positions": [
                2.4090365161916276,
                -1.2897588084628158,
                -1.6934483761140413,
                -1.5170183299925655,
                -1.6745950880830294,
                0.3678406336891355
            ]
        },
        {
            "positions": [
                2.263753509241952,
                -1.3124684141103098,
                -1.5803632773124896,
                -1.501252019362251,
                -1.726419177577204,
                0.33075106393113946
            ]
        },
        {
            "positions": [
                2.1184705022922765,
                -1.335178019757804,
                -1.467278178510938,
                -1.4854857087319366,
                -1.7782432670713784,
                0.2936614941731434
            ]
        },
        {
            "positions": [
                1.9731874953426007,
                -1.357887625405298,
                -1.354193079709386,
                -1.4697193981016223,
                -1.830067356565553,
                0.25657192441514737
            ]
        },
        {
            "positions": [
                1.8279044883929254,
                -1.380597231052792,
                -1.2411079809078343,
                -1.453953087471308,
                -1.8818914460597276,
                0.21948235465715132
            ]
        },
        {
            "positions": [
                1.6826214814432496,
                -1.4033068367002863,
                -1.1280228821062823,
                -1.4381867768409937,
                -1.9337155355539022,
                0.18239278489915528
            ]
        },
        {
            "positions": [
                1.537338474493574,
                -1.4260164423477804,
                -1.0149377833047306,
                -1.4224204662106792,
                -1.9855396250480768,
                0.14530321514115924
            ]
        },
        {
            "positions": [
                1.3920554675438983,
                -1.4487260479952746,
                -0.9018526845031787,
                -1.4066541555803649,
                -2.037363714542251,
                0.10821364538316319
            ]
        },
        {
            "positions": [
                1.2467724605942228,
                -1.4714356536427686,
                -0.788767585701627,
                -1.3908878449500506,
                -2.089187804036426,
                0.07112407562516715
            ]
        },
        {
            "positions": [
                1.1014894536445474,
                -1.4941452592902627,
                -0.6756824869000753,
                -1.3751215343197363,
                -2.1410118935306004,
                0.034034505867171105
            ]
        },
        {
            "positions": [
                0.9562064466948719,
                -1.516854864937757,
                -0.5625973880985236,
                -1.359355223689422,
                -2.192835983024775,
                -0.0030550638908249383
            ]
        },
        {
            "positions": [
                0.8109234397451961,
                -1.539564470585251,
                -0.4495122892969716,
                -1.3435889130591074,
                -2.2446600725189496,
                -0.04014463364882098
            ]
        },
        {
            "positions": [
                0.6656404327955205,
                -1.562274076232745,
                -0.3364271904954199,
                -1.3278226024287931,
                -2.296484162013124,
                -0.07723420340681703
            ]
        },
        {
            "positions": [
                0.520357425845845,
                -1.5849836818802392,
                -0.2233420916938682,
                -1.3120562917984788,
                -2.348308251507299,
                -0.11432377316481307
            ]
        },
        {
            "positions": [
                0.37507441889616944,
                -1.6076932875277332,
                -0.1102569928923165,
                -1.2962899811681645,
                -2.4001323410014734,
                -0.1514133429228091
            ]
        },
        {
            "positions": [
                0.22979141194649388,
                -1.6304028931752272,
                0.0028281059092352123,
                -1.2805236705378502,
                -2.451956430495648,
                -0.18850291268080516
            ]
        },
        {
            "positions": [
                0.08450840499681789,
                -1.6531124988227215,
                0.11591320471078759,
                -1.2647573599075357,
                -2.5037805199898227,
                -0.2255924824388012
            ]
        },
        {
            "positions": [
                -0.060774601952857665,
                -1.6758221044702157,
                0.2289983035123393,
                -1.2489910492772214,
                -2.5556046094839973,
                -0.26268205219679724
            ]
        },
        {
            "positions": [
                -0.20605760890253322,
                -1.6985317101177098,
                0.342083402313891,
                -1.233224738646907,
                -2.607428698978172,
                -0.2997716219547933
            ]
        },
        {
            "positions": [
                -0.35134061585220877,
                -1.7212413157652038,
                0.4551685011154427,
                -1.2174584280165925,
                -2.6592527884723465,
                -0.33686119171278933
            ]
        },
        {
            "positions": [
                -0.4966236228018839,
                -1.743950921412698,
                0.5682535999169944,
                -1.2016921173862782,
                -2.711076877966521,
                -0.3739507614707854
            ]
        },
        {
            "positions": [
                -0.6419066297515594,
                -1.766660527060192,
                0.6813386987185461,
                -1.185925806755964,
                -2.7629009674606957,
                -0.4110403312287814
            ]
        },
        {
            "positions": [
                -0.787189636701235,
                -1.789370132707686,
                0.7944237975200978,
                -1.1701594961256496,
                -2.81472505695487,
                -0.44812990098677746
            ]
        },
        {
            "positions": [
                -0.932472643650911,
                -1.8120797383551803,
                0.90750889632165,
                -1.1543931854953353,
                -2.866549146449045,
                -0.4852194707447735
            ]
        },
        {
            "positions": [
                -1.0777556506005865,
                -1.8347893440026746,
                1.0205939951232017,
                -1.1386268748650208,
                -2.918373235943219,
                -0.5223090405027695
            ]
        },
        {
            "positions": [
                -1.223038657550262,
                -1.8574989496501684,
                1.1336790939247534,
                -1.1228605642347065,
                -2.9701973254373937,
                -0.5593986102607655
            ]
        },
        {
            "positions": [
                -1.3683216644999376,
                -1.8802085552976626,
                1.2467641927263051,
                -1.1070942536043922,
                -3.0220214149315683,
                -0.5964881800187616
            ]
        },
        {
            "positions": [
                -1.3035067440719241,
                -1.8481461287072878,
                1.278617801610556,
                -1.0943642359458625,
                -2.885171010125218,
                -0.7079382826498086
            ]
        },
        {
            "positions": [
                -1.2386918236439104,
                -1.816083702116913,
                1.310471410494807,
                -1.0816342182873329,
                -2.7483206053188676,
                -0.8193883852808557
            ]
        },
        {
            "positions": [
                -1.1738769032158969,
                -1.784021275526538,
                1.342325019379058,
                -1.068904200628803,
                -2.6114702005125174,
                -0.9308384879119026
            ]
        },
        {
            "positions": [
                -1.1090619827878834,
                -1.7519588489361633,
                1.3741786282633088,
                -1.0561741829702733,
                -2.4746197957061673,
                -1.0422885905429498
            ]
        },
        {
            "positions": [
                -1.0442470623598696,
                -1.7198964223457884,
                1.4060322371475598,
                -1.0434441653117437,
                -2.337769390899817,
                -1.1537386931739966
            ]
        },
        {
            "positions": [
                -0.9794321419318561,
                -1.6878339957554136,
                1.437885846031811,
                -1.030714147653214,
                -2.200918986093467,
                -1.2651887958050436
            ]
        },
        {
            "positions": [
                -0.9146172215038426,
                -1.6557715691650388,
                1.4697394549160618,
                -1.0179841299946841,
                -2.0640685812871165,
                -1.3766388984360907
            ]
        },
        {
            "positions": [
                -0.849802301075829,
                -1.623709142574664,
                1.5015930638003128,
                -1.0052541123361545,
                -1.9272181764807663,
                -1.4880890010671377
            ]
        },
        {
            "positions": [
                -0.7849873806478154,
                -1.591646715984289,
                1.5334466726845637,
                -0.9925240946776248,
                -1.790367771674416,
                -1.5995391036981847
            ]
        },
        {
            "positions": [
                -0.7201724602198019,
                -1.5595842893939142,
                1.5653002815688146,
                -0.9797940770190952,
                -1.6535173668680658,
                -1.7109892063292318
            ]
        },
        {
            "positions": [
                -0.6553575397917882,
                -1.5275218628035394,
                1.5971538904530656,
                -0.9670640593605654,
                -1.5166669620617155,
                -1.8224393089602788
            ]
        },
        {
            "positions": [
                -0.5905426193637747,
                -1.4954594362131646,
                1.6290074993373165,
                -0.9543340417020357,
                -1.3798165572553653,
                -1.9338894115913257
            ]
        },
        {
            "positions": [
                -0.5257276989357612,
                -1.4633970096227897,
                1.6608611082215674,
                -0.941604024043506,
                -1.2429661524490152,
                -2.0453395142223725
            ]
        },
        {
            "positions": [
                -0.4609127785077475,
                -1.431334583032415,
                1.6927147171058183,
                -0.9288740063849763,
                -1.1061157476426646,
                -2.1567896168534197
            ]
        },
        {
            "positions": [
                -0.39609785807973397,
                -1.39927215644204,
                1.7245683259900693,
                -0.9161439887264466,
                -0.9692653428363145,
                -2.268239719484467
            ]
        },
        {
            "positions": [
                -0.33128293765172034,
                -1.3672097298516652,
                1.7564219348743202,
                -0.9034139710679169,
                -0.8324149380299644,
                -2.379689822115514
            ]
        },
        {
            "positions": [
                -0.26646801722370683,
                -1.3351473032612904,
                1.7882755437585711,
                -0.8906839534093872,
                -0.6955645332236142,
                -2.4911399247465607
            ]
        },
        {
            "positions": [
                -0.2016530967956931,
                -1.3030848766709155,
                1.820129152642822,
                -0.8779539357508575,
                -0.5587141284172636,
                -2.602590027377608
            ]
        },
        {
            "positions": [
                -0.1368381763676796,
                -1.2710224500805407,
                1.851982761527073,
                -0.8652239180923278,
                -0.4218637236109135,
                -2.7140401300086547
            ]
        },
        {
            "positions": [
                -0.07202325593966608,
                -1.2389600234901659,
                1.883836370411324,
                -0.8524939004337981,
                -0.2850133188045634,
                -2.825490232639702
            ]
        },
        {
            "positions": [
                -0.007208335511652564,
                -1.206897596899791,
                1.9156899792955748,
                -0.8397638827752684,
                -0.14816291399821324,
                -2.936940335270749
            ]
        },
        {
            "positions": [
                0.05760658491636117,
                -1.1748351703094162,
                1.947543588179826,
                -0.8270338651167386,
                -0.011312509191862663,
                -3.048390437901796
            ]
        },
        {
            "positions": [
                0.12242150534437476,
                -1.1427727437190414,
                1.979397197064077,
                -0.8143038474582089,
                0.1255378956144874,
                -3.159840540532843
            ]
        }
    ]
}{
    "goal": {
        "global_pose": {
            "orientation": {
                "w": 0.7047431468963623,
                "x": -0.7094548344612122,
                "y": 0.0024358443915843964,
                "z": -0.0022348060738295317
            },
            "position": {
                "x": 0.6094750761985779,
                "y": 0.3671506643295288,
                "z": 0.19426114857196808
            }
        },
        "name": "move_to_magneteinheit_A"
    },
    "id": "FMT_move_to_magneteinheit_A_51",
    "joint_names": [
        "shoulder_pan_joint",
        "shoulder_lift_joint",
        "elbow_joint",
        "wrist_1_joint",
        "wrist_2_joint",
        "wrist_3_joint"
    ],
    "metrics": {
        "cart_traj_len": 1.1905450458764069,
        "distance_elbow_joint": 0.473864960737878,
        "distance_shoulder_lift_joint": 0.7513740023364635,
        "distance_shoulder_pan_joint": 1.2415244177733873,
        "distance_wrist_1_joint": 0.7490819282665981,
        "distance_wrist_2_joint": 1.4465573659480053,
        "distance_wrist_3_joint": 4.259675261873727,
        "smoothness": 0.06465027131478135,
        "time": 1.12362561,
        "traj_len": 2.98698475672978,
        "weighted_distance": 4.431373122960661
    },
    "planner": "FMT",
    "start": {
        "state": {
            "elbow_joint": 1.919643534880228,
            "shoulder_lift_joint": -1.8972525353963687,
            "shoulder_pan_joint": -1.1188672234189438,
            "wrist_1_joint": -1.5931878212786155,
            "wrist_2_joint": 1.5706036197970081,
            "wrist_3_joint": 1.118896926603594
        }
    },
    "waypoints": [
        {
            "positions": [
                -1.1188672234189438,
                -1.8972525353963687,
                1.919643534880228,
                -1.5931878212786155,
                1.5706036197970081,
                1.118896926603594
            ]
        },
        {
            "positions": [
                -1.0755902173436473,
                -1.8667230526885845,
                1.9403231441013664,
                -1.587974818100169,
                1.5323527022638128,
                0.8906050541342292
            ]
        },
        {
            "positions": [
                -1.0323132112683508,
                -1.8361935699808003,
                1.9610027533225047,
                -1.5827618149217224,
                1.4941017847306175,
                0.6623131816648645
            ]
        },
        {
            "positions": [
                -0.9890362051930544,
                -1.805664087273016,
                1.981682362543643,
                -1.5775488117432759,
                1.455850867197422,
                0.43402130919549986
            ]
        },
        {
            "positions": [
                -0.9457591991177579,
                -1.7751346045652319,
                2.0023619717647816,
                -1.5723358085648296,
                1.4175999496642266,
                0.20572943672613508
            ]
        },
        {
            "positions": [
                -0.9024821930424614,
                -1.7446051218574476,
                2.02304158098592,
                -1.567122805386383,
                1.3793490321310313,
                -0.022562435743229692
            ]
        },
        {
            "positions": [
                -0.8592051869671649,
                -1.7140756391496634,
                2.0437211902070582,
                -1.5619098022079365,
                1.3410981145978358,
                -0.25085430821259425
            ]
        },
        {
            "positions": [
                -0.8159281808918684,
                -1.6835461564418792,
                2.0644007994281965,
                -1.55669679902949,
                1.3028471970646405,
                -0.479146180681959
            ]
        },
        {
            "positions": [
                -0.7726511748165719,
                -1.653016673734095,
                2.085080408649335,
                -1.5514837958510435,
                1.2645962795314452,
                -0.7074380531513238
            ]
        },
        {
            "positions": [
                -0.7293741687412754,
                -1.6224871910263108,
                2.105760017870473,
                -1.546270792672597,
                1.2263453619982498,
                -0.9357299256206886
            ]
        },
        {
            "positions": [
                -0.6860971626659789,
                -1.5919577083185266,
                2.1264396270916115,
                -1.5410577894941506,
                1.1880944444650545,
                -1.1640217980900534
            ]
        },
        {
            "positions": [
                -0.6428201565906824,
                -1.5614282256107423,
                2.14711923631275,
                -1.535844786315704,
                1.1498435269318592,
                -1.3923136705594177
            ]
        },
        {
            "positions": [
                -0.5995431505153859,
                -1.5308987429029581,
                2.167798845533888,
                -1.5306317831372576,
                1.1115926093986637,
                -1.6206055430287825
            ]
        },
        {
            "positions": [
                -0.5562661444400894,
                -1.500369260195174,
                2.1884784547550264,
                -1.525418779958811,
                1.0733416918654684,
                -1.8488974154981475
            ]
        },
        {
            "positions": [
                -0.49454584091331366,
                -1.4681428304556041,
                2.1698393601311103,
                -1.4634812447818297,
                0.9870421065912441,
                -1.966341135477419
            ]
        },
        {
            "positions": [
                -0.4328255373865379,
                -1.435916400716034,
                2.151200265507194,
                -1.4015437096048484,
                0.90074252131702,
                -2.0837848554566905
            ]
        },
        {
            "positions": [
                -0.3711052338597622,
                -1.4036899709764643,
                2.1325611708832777,
                -1.3396061744278673,
                0.8144429360427958,
                -2.2012285754359615
            ]
        },
        {
            "positions": [
                -0.3093849303329864,
                -1.3714635412368943,
                2.113922076259361,
                -1.277668639250886,
                0.7281433507685717,
                -2.318672295415233
            ]
        },
        {
            "positions": [
                -0.2476646268062107,
                -1.3392371114973245,
                2.095282981635445,
                -1.215731104073905,
                0.6418437654943476,
                -2.4361160153945045
            ]
        },
        {
            "positions": [
                -0.185944323279435,
                -1.3070106817577547,
                2.0766438870115285,
                -1.1537935688969236,
                0.5555441802201234,
                -2.553559735373776
            ]
        },
        {
            "positions": [
                -0.12422401975265929,
                -1.274784252018185,
                2.058004792387612,
                -1.0918560337199423,
                0.4692445949458992,
                -2.6710034553530475
            ]
        },
        {
            "positions": [
                -0.06250371622588352,
                -1.2425578222786149,
                2.039365697763696,
                -1.029918498542961,
                0.382945009671675,
                -2.788447175332319
            ]
        },
        {
            "positions": [
                -0.000783412699107755,
                -1.210331392539045,
                2.0207266031397797,
                -0.9679809633659798,
                0.2966454243974509,
                -2.9058908953115905
            ]
        },
        {
            "positions": [
                0.060936890827667956,
                -1.178104962799475,
                2.002087508515863,
                -0.9060434281889986,
                0.2103458391232268,
                -3.0233346152908616
            ]
        },
        {
            "positions": [
                0.12265719435444365,
                -1.1458785330599053,
                1.9834484138919468,
                -0.8441058930120173,
                0.12404625384900253,
                -3.140778335270133
            ]
        }
    ]
}