{
    "goal": {
        "global_pose": {
            "orientation": {
                "w": 0.7047431468963623,
                "x": -0.7094548344612122,
                "y": 0.0024358443915843964,
                "z": -0.0022348060738295317
            },
            "position": {
                "x": 0.6094750761985779,
                "y": 0.3671506643295288,
                "z": 0.19426114857196808
            }
        },
        "name": "move_to_magneteinheit_A"
    },
    "id": "FMT_move_to_magneteinheit_A_143",
    "joint_names": [
        "shoulder_pan_joint",
        "shoulder_lift_joint",
        "elbow_joint",
        "wrist_1_joint",
        "wrist_2_joint",
        "wrist_3_joint"
    ],
    "metrics": {
        "cart_traj_len": 3.543755390587112,
        "distance_elbow_joint": 3.877127338270438,
        "distance_shoulder_lift_joint": 0.43875500686287294,
        "distance_shoulder_pan_joint": 3.346757981275176,
        "distance_wrist_1_joint": 1.8032741163167287,
        "distance_wrist_2_joint": 1.8111858756152919,
        "distance_wrist_3_joint": 3.1270517676896588,
        "smoothness": 0.49568160319851023,
        "time": 1.240794112,
        "traj_len": 3.7952802381418653,
        "weighted_distance": 4.926734782119037
    },
    "planner": "FMT",
    "start": {
        "state": {
            "elbow_joint": -1.919618573717145,
            "shoulder_lift_joint": -1.2443395971678275,
            "shoulder_pan_joint": 2.6996025300909787,
            "wrist_1_joint": -1.548550951253194,
            "wrist_2_joint": -1.5709469090946802,
            "wrist_3_joint": 0.4420197732051276
        }
    },
    "waypoints": [
        {
            "positions": [
                2.6996025300909787,
                -1.2443395971678275,
                -1.919618573717145,
                -1.548550951253194,
                -1.5709469090946802,
                0.4420197732051276
            ]
        },
        {
            "positions": [
                2.5850379863624733,
                -1.2381317351637864,
                -1.80074737321534,
                -1.5198294742681178,
                -1.543101727077302,
                0.5386935439394219
            ]
        },
        {
            "positions": [
                2.470473442633968,
                -1.2319238731597453,
                -1.6818761727135352,
                -1.4911079972830417,
                -1.5152565450599238,
                0.6353673146737162
            ]
        },
        {
            "positions": [
                2.3559088989054624,
                -1.2257160111557042,
                -1.5630049722117303,
                -1.4623865202979653,
                -1.4874113630425456,
                0.7320410854080106
            ]
        },
        {
            "positions": [
                2.241344355176957,
                -1.219508149151663,
                -1.4441337717099254,
                -1.4336650433128892,
                -1.4595661810251674,
                0.828714856142305
            ]
        },
        {
            "positions": [
                2.1267798114484515,
                -1.213300287147622,
                -1.3252625712081205,
                -1.404943566327813,
                -1.4317209990077893,
                0.9253886268765993
            ]
        },
        {
            "positions": [
                2.0122152677199465,
                -1.2070924251435808,
                -1.2063913707063156,
                -1.3762220893427368,
                -1.4038758169904113,
                1.0220623976108936
            ]
        },
        {
            "positions": [
                1.897650723991441,
                -1.2008845631395397,
                -1.0875201702045107,
                -1.3475006123576605,
                -1.3760306349730331,
                1.118736168345188
            ]
        },
        {
            "positions": [
                1.7830861802629356,
                -1.1946767011354986,
                -0.9686489697027059,
                -1.3187791353725844,
                -1.348185452955655,
                1.2154099390794824
            ]
        },
        {
            "positions": [
                1.6685216365344302,
                -1.1884688391314575,
                -0.849777769200901,
                -1.290057658387508,
                -1.3203402709382768,
                1.3120837098137765
            ]
        },
        {
            "positions": [
                1.5539570928059248,
                -1.1822609771274164,
                -0.7309065686990961,
                -1.2613361814024318,
                -1.2924950889208986,
                1.408757480548071
            ]
        },
        {
            "positions": [
                1.4393925490774193,
                -1.1760531151233753,
                -0.6120353681972912,
                -1.2326147044173557,
                -1.2646499069035204,
                1.5054312512823655
            ]
        },
        {
            "positions": [
                1.324828005348914,
                -1.1698452531193342,
                -0.4931641676954863,
                -1.2038932274322793,
                -1.2368047248861422,
                1.6021050220166597
            ]
        },
        {
            "positions": [
                1.2102634616204084,
                -1.163637391115293,
                -0.37429296719368144,
                -1.1751717504472032,
                -1.208959542868764,
                1.6987787927509541
            ]
        },
        {
            "positions": [
                1.0956989178919032,
                -1.157429529111252,
                -0.25542176669187655,
                -1.146450273462127,
                -1.181114360851386,
                1.7954525634852483
            ]
        },
        {
            "positions": [
                0.9811343741633978,
                -1.1512216671072109,
                -0.13655056619007166,
                -1.1177287964770506,
                -1.153269178834008,
                1.892126334219543
            ]
        },
        {
            "positions": [
                0.8665698304348926,
                -1.1450138051031697,
                -0.01767936568826678,
                -1.0890073194919745,
                -1.1254239968166297,
                1.988800104953837
            ]
        },
        {
            "positions": [
                0.7520052867063869,
                -1.1388059430991286,
                0.1011918348135381,
                -1.0602858425068982,
                -1.0975788147992516,
                2.0854738756881313
            ]
        },
        {
            "positions": [
                0.6374407429778817,
                -1.1325980810950875,
                0.220063035315343,
                -1.031564365521822,
                -1.0697336327818734,
                2.1821476464224254
            ]
        },
        {
            "positions": [
                0.5228761992493762,
                -1.1263902190910464,
                0.3389342358171479,
                -1.0028428885367457,
                -1.0418884507644952,
                2.27882141715672
            ]
        },
        {
            "positions": [
                0.4083116555208708,
                -1.1201823570870053,
                0.45780543631895276,
                -0.9741214115516695,
                -1.014043268747117,
                2.375495187891014
            ]
        },
        {
            "positions": [
                0.2937471117923651,
                -1.1139744950829642,
                0.5766766368207575,
                -0.9453999345665933,
                -0.9861980867297389,
                2.472168958625309
            ]
        },
        {
            "positions": [
                0.2474216829805991,
                -1.1275698070174653,
                0.6725658210041814,
                -0.8859141967673507,
                -0.8889143433036072,
                2.5411381950870835
            ]
        },
        {
            "positions": [
                0.2010962541688331,
                -1.1411651189519665,
                0.7684550051876051,
                -0.826428458968108,
                -0.7916305998774756,
                2.6101074315488577
            ]
        },
        {
            "positions": [
                0.15477082535706704,
                -1.1547604308864676,
                0.864344189371029,
                -0.7669427211688654,
                -0.694346856451344,
                2.679076668010632
            ]
        },
        {
            "positions": [
                0.10844539654530103,
                -1.1683557428209688,
                0.9602333735544528,
                -0.7074569833696228,
                -0.5970631130252124,
                2.7480459044724066
            ]
        },
        {
            "positions": [
                0.06211996773353498,
                -1.18195105475547,
                1.0561225577378766,
                -0.6479712455703801,
                -0.4997793695990807,
                2.8170151409341813
            ]
        },
        {
            "positions": [
                0.015794538921768964,
                -1.195546366689971,
                1.1520117419213003,
                -0.5884855077711375,
                -0.4024956261729491,
                2.8859843773959555
            ]
        },
        {
            "positions": [
                -0.03053088988999708,
                -1.2091416786244722,
                1.2479009261047243,
                -0.5289997699718949,
                -0.30521188274681743,
                2.95495361385773
            ]
        },
        {
            "positions": [
                -0.07685631870176307,
                -1.2227369905589733,
                1.343790110288148,
                -0.46951403217265225,
                -0.20792813932068588,
                3.0239228503195044
            ]
        },
        {
            "positions": [
                -0.12318174751352912,
                -1.2363323024934745,
                1.439679294471572,
                -0.4100282943734096,
                -0.11064439589455421,
                3.092892086781279
            ]
        },
        {
            "positions": [
                -0.16950717632529516,
                -1.2499276144279756,
                1.5355684786549957,
                -0.3505425565741669,
                -0.013360652468422551,
                3.1618613232430532
            ]
        },
        {
            "positions": [
                -0.21583260513706115,
                -1.2635229263624768,
                1.6314576628384194,
                -0.2910568187749244,
                0.08392309095770889,
                3.2308305597048275
            ]
        },
        {
            "positions": [
                -0.2621580339488272,
                -1.277118238296978,
                1.7273468470218434,
                -0.2315710809756817,
                0.18120683438384066,
                3.299799796166602
            ]
        },
        {
            "positions": [
                -0.1659086796399848,
                -1.2408066979059789,
                1.7848873264047063,
                -0.3531446424854859,
                0.1664488013496478,
                3.232481859984556
            ]
        },
        {
            "positions": [
                -0.06965932533114236,
                -1.2044951575149798,
                1.842427805787569,
                -0.4747182039952901,
                0.15169076831545494,
                3.1651639238025098
            ]
        },
        {
            "positions": [
                0.026590028977700075,
                -1.168183617123981,
                1.8999682851704316,
                -0.5962917655050943,
                0.13693273528126207,
                3.097845987620464
            ]
        },
        {
            "positions": [
                0.1228393832865425,
                -1.131872076732982,
                1.9575087645532945,
                -0.7178653270148985,
                0.12217470224706921,
                3.030528051438418
            ]
        }
    ]
}{
    "goal": {
        "global_pose": {
            "orientation": {
                "w": 0.7047431468963623,
                "x": -0.7094548344612122,
                "y": 0.0024358443915843964,
                "z": -0.0022348060738295317
            },
            "position": {
                "x": 0.6094750761985779,
                "y": 0.3671506643295288,
                "z": 0.19426114857196808
            }
        },
        "name": "move_to_magneteinheit_A"
    },
    "id": "FMT_move_to_magneteinheit_A_143",
    "joint_names": [
        "shoulder_pan_joint",
        "shoulder_lift_joint",
        "elbow_joint",
        "wrist_1_joint",
        "wrist_2_joint",
        "wrist_3_joint"
    ],
    "metrics": {
        "cart_traj_len": 1.1666266404128462,
        "distance_elbow_joint": 0.052505631594745195,
        "distance_shoulder_lift_joint": 0.7567791665612154,
        "distance_shoulder_pan_joint": 1.241574788235307,
        "distance_wrist_1_joint": 0.797266401810531,
        "distance_wrist_2_joint": 1.4487356374400406,
        "distance_wrist_3_joint": 4.296741174948222,
        "smoothness": 2.2204460668324854e-16,
        "time": 1.0937484210000001,
        "traj_len": 2.9314847433664153,
        "weighted_distance": 4.408297538703243
    },
    "planner": "FMT",
    "start": {
        "state": {
            "elbow_joint": 1.919643534880228,
            "shoulder_lift_joint": -1.8972525353963687,
            "shoulder_pan_joint": -1.1188672234189438,
            "wrist_1_joint": -1.5931878212786155,
            "wrist_2_joint": 1.5706036197970081,
            "wrist_3_joint": 1.118896926603594
        }
    },
    "waypoints": [
        {
            "positions": [
                -1.1188672234189438,
                -1.8972525353963687,
                1.919643534880228,
                -1.5931878212786155,
                1.5706036197970081,
                1.118896926603594
            ]
        },
        {
            "positions": [
                -1.0659125545709047,
                -1.895328180573394,
                1.9205213295089592,
                -1.571542832749775,
                1.4792822851363714,
                0.9023660729233569
            ]
        },
        {
            "positions": [
                -1.0129578857228656,
                -1.893403825750419,
                1.9213991241376902,
                -1.5498978442209344,
                1.3879609504757349,
                0.6858352192431199
            ]
        },
        {
            "positions": [
                -0.9600032168748265,
                -1.8914794709274443,
                1.922276918766421,
                -1.5282528556920938,
                1.2966396158150981,
                0.4693043655628827
            ]
        },
        {
            "positions": [
                -0.9070485480267874,
                -1.8895551161044692,
                1.923154713395152,
                -1.5066078671632535,
                1.2053182811544614,
                0.25277351188264563
            ]
        },
        {
            "positions": [
                -0.8540938791787482,
                -1.8876307612814944,
                1.9240325080238831,
                -1.484962878634413,
                1.1139969464938249,
                0.03624265820240846
            ]
        },
        {
            "positions": [
                -0.8011392103307091,
                -1.8857064064585196,
                1.9249103026526142,
                -1.4633178901055723,
                1.0226756118331881,
                -0.1802881954778286
            ]
        },
        {
            "positions": [
                -0.74818454148267,
                -1.8837820516355448,
                1.925788097281345,
                -1.4416729015767318,
                0.9313542771725515,
                -0.39681904915806543
            ]
        },
        {
            "positions": [
                -0.6952298726346309,
                -1.88185769681257,
                1.926665891910076,
                -1.4200279130478912,
                0.8400329425119147,
                -0.6133499028383027
            ]
        },
        {
            "positions": [
                -0.6422752037865918,
                -1.8799333419895952,
                1.9275436865388071,
                -1.3983829245190507,
                0.7487116078512781,
                -0.8298807565185395
            ]
        },
        {
            "positions": [
                -0.5893205349385526,
                -1.8780089871666201,
                1.9284214811675382,
                -1.37673793599021,
                0.6573902731906414,
                -1.046411610198777
            ]
        },
        {
            "positions": [
                -0.5363658660905135,
                -1.8760846323436453,
                1.929299275796269,
                -1.3550929474613698,
                0.5660689385300046,
                -1.2629424638790139
            ]
        },
        {
            "positions": [
                -0.4834111972424744,
                -1.8741602775206705,
                1.930177070425,
                -1.3334479589325292,
                0.4747476038693679,
                -1.4794733175592512
            ]
        },
        {
            "positions": [
                -0.43045652839443527,
                -1.8722359226976957,
                1.9310548650537311,
                -1.3118029704036887,
                0.3834262692087314,
                -1.6960041712394878
            ]
        },
        {
            "positions": [
                -0.3751401190733554,
                -1.7990596673114414,
                1.9351642951958554,
                -1.2602148153101282,
                0.35727044052355506,
                -1.8441881789500019
            ]
        },
        {
            "positions": [
                -0.3198237097522756,
                -1.7258834119251871,
                1.9392737253379795,
                -1.2086266602165678,
                0.3311146118383787,
                -1.9923721866605157
            ]
        },
        {
            "positions": [
                -0.26450730043119575,
                -1.652707156538933,
                1.9433831554801038,
                -1.1570385051230074,
                0.3049587831532024,
                -2.1405561943710296
            ]
        },
        {
            "positions": [
                -0.20919089111011593,
                -1.5795309011526788,
                1.947492585622228,
                -1.105450350029447,
                0.27880295446802605,
                -2.2887402020815437
            ]
        },
        {
            "positions": [
                -0.15387448178903612,
                -1.5063546457664245,
                1.9516020157643523,
                -1.0538621949358866,
                0.2526471257828497,
                -2.436924209792058
            ]
        },
        {
            "positions": [
                -0.09855807246795628,
                -1.4331783903801703,
                1.9557114459064764,
                -1.0022740398423262,
                0.22649129709767338,
                -2.585108217502572
            ]
        },
        {
            "positions": [
                -0.0432416631468765,
                -1.3600021349939162,
                1.9598208760486007,
                -0.9506858847487658,
                0.20033546841249703,
                -2.733292225213086
            ]
        },
        {
            "positions": [
                0.012074746174203399,
                -1.2868258796076617,
                1.963930306190725,
                -0.8990977296552053,
                0.17417963972732067,
                -2.8814762329235997
            ]
        },
        {
            "positions": [
                0.06739115549528318,
                -1.2136496242214077,
                1.968039736332849,
                -0.8475095745616449,
                0.14802381104214432,
                -3.029660240634114
            ]
        },
        {
            "positions": [
                0.12270756481636298,
                -1.1404733688351534,
                1.9721491664749733,
                -0.7959214194680845,
                0.12186798235696797,
                -3.177844248344628
            ]
        }
    ]
}