{
    "goal": {
        "global_pose": {
            "orientation": {
                "w": 0.7047431468963623,
                "x": -0.7094548344612122,
                "y": 0.0024358443915843964,
                "z": -0.0022348060738295317
            },
            "position": {
                "x": 0.6094750761985779,
                "y": 0.3671506643295288,
                "z": 0.19426114857196808
            }
        },
        "name": "move_to_magneteinheit_A"
    },
    "id": "FMT_move_to_magneteinheit_A_111",
    "joint_names": [
        "shoulder_pan_joint",
        "shoulder_lift_joint",
        "elbow_joint",
        "wrist_1_joint",
        "wrist_2_joint",
        "wrist_3_joint"
    ],
    "metrics": {
        "cart_traj_len": 3.841814107422673,
        "distance_elbow_joint": 3.8772687945951136,
        "distance_shoulder_lift_joint": 0.15758350761031403,
        "distance_shoulder_pan_joint": 3.4276191158143607,
        "distance_wrist_1_joint": 0.8434105302465051,
        "distance_wrist_2_joint": 2.2678727550695563,
        "distance_wrist_3_joint": 3.440701847643904,
        "smoothness": 0.5887901780207224,
        "time": 1.262142352,
        "traj_len": 3.743588726206414,
        "weighted_distance": 4.899708514961234
    },
    "planner": "FMT",
    "start": {
        "state": {
            "elbow_joint": -1.919618573717145,
            "shoulder_lift_joint": -1.2443395971678275,
            "shoulder_pan_joint": 2.6996025300909787,
            "wrist_1_joint": -1.548550951253194,
            "wrist_2_joint": -1.5709469090946802,
            "wrist_3_joint": 0.4420197732051276
        }
    },
    "waypoints": [
        {
            "positions": [
                2.6996025300909787,
                -1.2443395971678275,
                -1.919618573717145,
                -1.548550951253194,
                -1.5709469090946802,
                0.4420197732051276
            ]
        },
        {
            "positions": [
                2.602742312983316,
                -1.245072993163271,
                -1.8003003567236586,
                -1.5327268115117327,
                -1.5068035877444497,
                0.5390389506077757
            ]
        },
        {
            "positions": [
                2.505882095875653,
                -1.2458063891587141,
                -1.6809821397301725,
                -1.5169026717702712,
                -1.442660266394219,
                0.6360581280104238
            ]
        },
        {
            "positions": [
                2.4090218787679905,
                -1.2465397851541575,
                -1.5616639227366862,
                -1.5010785320288098,
                -1.3785169450439885,
                0.7330773054130719
            ]
        },
        {
            "positions": [
                2.3121616616603275,
                -1.247273181149601,
                -1.4423457057431999,
                -1.4852543922873482,
                -1.314373623693758,
                0.8300964828157201
            ]
        },
        {
            "positions": [
                2.2153014445526646,
                -1.2480065771450444,
                -1.3230274887497138,
                -1.4694302525458869,
                -1.2502303023435273,
                0.9271156602183683
            ]
        },
        {
            "positions": [
                2.1184412274450017,
                -1.2487399731404876,
                -1.2037092717562274,
                -1.4536061128044255,
                -1.1860869809932968,
                1.0241348376210164
            ]
        },
        {
            "positions": [
                2.0215810103373393,
                -1.249473369135931,
                -1.0843910547627411,
                -1.437781973062964,
                -1.1219436596430663,
                1.1211540150236645
            ]
        },
        {
            "positions": [
                1.9247207932296762,
                -1.2502067651313744,
                -0.965072837769255,
                -1.4219578333215026,
                -1.0578003382928358,
                1.2181731924263126
            ]
        },
        {
            "positions": [
                1.8278605761220132,
                -1.2509401611268176,
                -0.8457546207757687,
                -1.406133693580041,
                -0.9936570169426051,
                1.315192369828961
            ]
        },
        {
            "positions": [
                1.7310003590143506,
                -1.251673557122261,
                -0.7264364037822826,
                -1.3903095538385797,
                -0.9295136955923746,
                1.412211547231609
            ]
        },
        {
            "positions": [
                1.6341401419066877,
                -1.2524069531177044,
                -0.6071181867887963,
                -1.374485414097118,
                -0.865370374242144,
                1.5092307246342571
            ]
        },
        {
            "positions": [
                1.537279924799025,
                -1.2531403491131479,
                -0.48779996979530993,
                -1.3586612743556568,
                -0.8012270528919134,
                1.6062499020369052
            ]
        },
        {
            "positions": [
                1.440419707691362,
                -1.253873745108591,
                -0.3684817528018236,
                -1.3428371346141952,
                -0.7370837315416828,
                1.7032690794395535
            ]
        },
        {
            "positions": [
                1.3435594905836994,
                -1.2546071411040345,
                -0.2491635358083375,
                -1.3270129948727338,
                -0.6729404101914523,
                1.8002882568422016
            ]
        },
        {
            "positions": [
                1.2466992734760365,
                -1.255340537099478,
                -0.12984531881485117,
                -1.3111888551312725,
                -0.6087970888412217,
                1.8973074342448497
            ]
        },
        {
            "positions": [
                1.1498390563683736,
                -1.256073933094921,
                -0.01052710182136507,
                -1.295364715389811,
                -0.5446537674909913,
                1.9943266116474978
            ]
        },
        {
            "positions": [
                1.052978839260711,
                -1.2568073290903645,
                0.10879111517212103,
                -1.2795405756483496,
                -0.48051044614076077,
                2.0913457890501457
            ]
        },
        {
            "positions": [
                0.9561186221530478,
                -1.257540725085808,
                0.22810933216560758,
                -1.263716435906888,
                -0.41636712479053006,
                2.188364966452794
            ]
        },
        {
            "positions": [
                0.8592584050453851,
                -1.2582741210812511,
                0.3474275491590937,
                -1.2478922961654266,
                -0.3522238034402996,
                2.2853841438554423
            ]
        },
        {
            "positions": [
                0.7623981879377224,
                -1.2590075170766946,
                0.4667457661525798,
                -1.2320681564239653,
                -0.2880804820900691,
                2.3824033212580904
            ]
        },
        {
            "positions": [
                0.6655379708300595,
                -1.259740913072138,
                0.5860639831460659,
                -1.2162440166825037,
                -0.2239371607398386,
                2.4794224986607385
            ]
        },
        {
            "positions": [
                0.5686777537223966,
                -1.2604743090675814,
                0.7053822001395524,
                -1.2004198769410424,
                -0.1597938393896079,
                2.5764416760633866
            ]
        },
        {
            "positions": [
                0.4718175366147337,
                -1.2612077050630246,
                0.8247004171330385,
                -1.1845957371995808,
                -0.09565051803937741,
                2.6734608534660347
            ]
        },
        {
            "positions": [
                0.37495731950707123,
                -1.261941101058468,
                0.9440186341265251,
                -1.1687715974581194,
                -0.0315071966891467,
                2.7704800308686828
            ]
        },
        {
            "positions": [
                0.2780971023994083,
                -1.2626744970539114,
                1.0633368511200112,
                -1.152947457716658,
                0.03263612466108379,
                2.867499208271331
            ]
        },
        {
            "positions": [
                0.18123688529174542,
                -1.2634078930493546,
                1.1826550681134977,
                -1.1371233179751965,
                0.0967794460113145,
                2.9645183856739794
            ]
        },
        {
            "positions": [
                0.08437666818408252,
                -1.264141289044798,
                1.3019732851069838,
                -1.1212991782337351,
                0.16092276736154498,
                3.0615375630766275
            ]
        },
        {
            "positions": [
                -0.012483548923579946,
                -1.2648746850402415,
                1.42129150210047,
                -1.1054750384922736,
                0.22506608871177547,
                3.1585567404792756
            ]
        },
        {
            "positions": [
                -0.10934376603124285,
                -1.265608081035685,
                1.540609719093956,
                -1.0896508987508122,
                0.28920941006200596,
                3.2555759178819232
            ]
        },
        {
            "positions": [
                -0.20620398313890576,
                -1.266341477031128,
                1.6599279360874426,
                -1.0738267590093507,
                0.35335273141223666,
                3.352595095284572
            ]
        },
        {
            "positions": [
                -0.3030642002465686,
                -1.2670748730265715,
                1.779246153080929,
                -1.0580026192678893,
                0.41749605276246726,
                3.44961427268722
            ]
        },
        {
            "positions": [
                -0.21807372315120593,
                -1.2401052266762576,
                1.814926966640337,
                -0.9874301796156493,
                0.36161009411998546,
                3.3629928030548575
            ]
        },
        {
            "positions": [
                -0.13308324605584324,
                -1.2131355803259436,
                1.8506077801997447,
                -0.9168577399634091,
                0.30572413547750366,
                3.276371333422495
            ]
        },
        {
            "positions": [
                -0.04809276896048059,
                -1.1861659339756294,
                1.8862885937591527,
                -0.8462853003111691,
                0.24983817683502185,
                3.1897498637901327
            ]
        },
        {
            "positions": [
                0.036897708134882135,
                -1.1591962876253155,
                1.9219694073185605,
                -0.775712860658929,
                0.19395221819254005,
                3.1031283941577703
            ]
        },
        {
            "positions": [
                0.12188818523024479,
                -1.1322266412750015,
                1.9576502208779685,
                -0.7051404210066889,
                0.13806625955005822,
                3.016506924525408
            ]
        }
    ]
}{
    "goal": {
        "global_pose": {
            "orientation": {
                "w": 0.7047431468963623,
                "x": -0.7094548344612122,
                "y": 0.0024358443915843964,
                "z": -0.0022348060738295317
            },
            "position": {
                "x": 0.6094750761985779,
                "y": 0.3671506643295288,
                "z": 0.19426114857196808
            }
        },
        "name": "move_to_magneteinheit_A"
    },
    "id": "FMT_move_to_magneteinheit_A_111",
    "joint_names": [
        "shoulder_pan_joint",
        "shoulder_lift_joint",
        "elbow_joint",
        "wrist_1_joint",
        "wrist_2_joint",
        "wrist_3_joint"
    ],
    "metrics": {
        "cart_traj_len": 1.2616293074643659,
        "distance_elbow_joint": 0.06047156388399633,
        "distance_shoulder_lift_joint": 0.7529440267658374,
        "distance_shoulder_pan_joint": 1.2410682928631251,
        "distance_wrist_1_joint": 1.1343121088777717,
        "distance_wrist_2_joint": 1.4356698769052578,
        "distance_wrist_3_joint": 4.272956521614891,
        "smoothness": 0.05612642010084695,
        "time": 1.1431789780000001,
        "traj_len": 2.982854738486418,
        "weighted_distance": 4.473624640034486
    },
    "planner": "FMT",
    "start": {
        "state": {
            "elbow_joint": 1.919643534880228,
            "shoulder_lift_joint": -1.8972525353963687,
            "shoulder_pan_joint": -1.1188672234189438,
            "wrist_1_joint": -1.5931878212786155,
            "wrist_2_joint": 1.5706036197970081,
            "wrist_3_joint": 1.118896926603594
        }
    },
    "waypoints": [
        {
            "positions": [
                -1.1188672234189438,
                -1.8972525353963687,
                1.919643534880228,
                -1.5931878212786155,
                1.5706036197970081,
                1.118896926603594
            ]
        },
        {
            "positions": [
                -1.0430787839580495,
                -1.8414333242210223,
                1.9211504712506462,
                -1.5134585787870911,
                1.5084991743579579,
                0.9976589741954798
            ]
        },
        {
            "positions": [
                -0.9672903444971555,
                -1.7856141130456757,
                1.9226574076210645,
                -1.4337293362955668,
                1.4463947289189079,
                0.8764210217873656
            ]
        },
        {
            "positions": [
                -0.8915019050362611,
                -1.7297949018703294,
                1.9241643439914826,
                -1.3540000938040424,
                1.3842902834798578,
                0.7551830693792514
            ]
        },
        {
            "positions": [
                -0.815713465575367,
                -1.673975690694983,
                1.9256712803619007,
                -1.2742708513125183,
                1.3221858380408076,
                0.6339451169711372
            ]
        },
        {
            "positions": [
                -0.7399250261144726,
                -1.6181564795196366,
                1.9271782167323188,
                -1.194541608820994,
                1.2600813926017573,
                0.512707164563023
            ]
        },
        {
            "positions": [
                -0.6641365866535784,
                -1.5623372683442902,
                1.928685153102737,
                -1.1148123663294696,
                1.1979769471627073,
                0.3914692121549088
            ]
        },
        {
            "positions": [
                -0.5883481471926841,
                -1.5065180571689436,
                1.9301920894731552,
                -1.0350831238379452,
                1.1358725017236573,
                0.2702312597467946
            ]
        },
        {
            "positions": [
                -0.51255970773179,
                -1.4506988459935972,
                1.9316990258435733,
                -0.955353881346421,
                1.073768056284607,
                0.14899330733868044
            ]
        },
        {
            "positions": [
                -0.43677126827089574,
                -1.3948796348182508,
                1.9332059622139914,
                -0.8756246388548966,
                1.0116636108455568,
                0.027755354930566245
            ]
        },
        {
            "positions": [
                -0.36098282881000143,
                -1.3390604236429042,
                1.9347128985844098,
                -0.7958953963633723,
                0.9495591654065068,
                -0.09348259747754795
            ]
        },
        {
            "positions": [
                -0.28519438934910735,
                -1.283241212467558,
                1.9362198349548279,
                -0.716166153871848,
                0.8874547199674566,
                -0.21472054988566214
            ]
        },
        {
            "positions": [
                -0.20940594988821298,
                -1.2274220012922115,
                1.937726771325246,
                -0.6364369113803237,
                0.8253502745284065,
                -0.3359585022937763
            ]
        },
        {
            "positions": [
                -0.17925985722163168,
                -1.2198662292320588,
                1.9415802556378803,
                -0.6525788385602764,
                0.7625851352887104,
                -0.5921495107226418
            ]
        },
        {
            "positions": [
                -0.1491137645550504,
                -1.2123104571719059,
                1.9454337399505148,
                -0.6687207657402291,
                0.6998199960490145,
                -0.8483405191515072
            ]
        },
        {
            "positions": [
                -0.11896767188846913,
                -1.2047546851117532,
                1.9492872242631492,
                -0.6848626929201819,
                0.6370548568093184,
                -1.1045315275803724
            ]
        },
        {
            "positions": [
                -0.08882157922188783,
                -1.1971989130516005,
                1.9531407085757835,
                -0.7010046201001345,
                0.5742897175696224,
                -1.360722536009238
            ]
        },
        {
            "positions": [
                -0.05867548655530655,
                -1.1896431409914479,
                1.956994192888418,
                -0.7171465472800873,
                0.5115245783299264,
                -1.6169135444381035
            ]
        },
        {
            "positions": [
                -0.028529393888725274,
                -1.182087368931295,
                1.9608476772010524,
                -0.73328847446004,
                0.44875943909023036,
                -1.8731045528669688
            ]
        },
        {
            "positions": [
                0.0016166987778560293,
                -1.1745315968711423,
                1.964701161513687,
                -0.7494304016399927,
                0.3859942998505343,
                -2.129295561295834
            ]
        },
        {
            "positions": [
                0.03176279144443733,
                -1.1669758248109896,
                1.9685546458263212,
                -0.7655723288199454,
                0.3232291606108383,
                -2.3854865697246996
            ]
        },
        {
            "positions": [
                0.061908884111018636,
                -1.159420052750837,
                1.9724081301389556,
                -0.7817142559998982,
                0.2604640213711422,
                -2.641677578153565
            ]
        },
        {
            "positions": [
                0.09205497677759988,
                -1.151864280690684,
                1.97626161445159,
                -0.797856183179851,
                0.19769888213144626,
                -2.8978685865824305
            ]
        },
        {
            "positions": [
                0.12220106944418119,
                -1.1443085086305314,
                1.9801150987642244,
                -0.8139981103598036,
                0.13493374289175017,
                -3.154059595011296
            ]
        }
    ]
}