{
    "goal": {
        "global_pose": {
            "orientation": {
                "w": 0.7047431468963623,
                "x": -0.7094548344612122,
                "y": 0.0024358443915843964,
                "z": -0.0022348060738295317
            },
            "position": {
                "x": 0.6094750761985779,
                "y": 0.3671506643295288,
                "z": 0.19426114857196808
            }
        },
        "name": "move_to_magneteinheit_A"
    },
    "id": "FMT_move_to_magneteinheit_A_81",
    "joint_names": [
        "shoulder_pan_joint",
        "shoulder_lift_joint",
        "elbow_joint",
        "wrist_1_joint",
        "wrist_2_joint",
        "wrist_3_joint"
    ],
    "metrics": {
        "cart_traj_len": 3.467728346061188,
        "distance_elbow_joint": 3.89824591068733,
        "distance_shoulder_lift_joint": 0.65618887053368,
        "distance_shoulder_pan_joint": 3.1857148409335907,
        "distance_wrist_1_joint": 0.9820969838285608,
        "distance_wrist_2_joint": 1.6951241497320018,
        "distance_wrist_3_joint": 3.6015632430339877,
        "smoothness": 0.15005643223242074,
        "time": 1.223197451,
        "traj_len": 3.7441866938961725,
        "weighted_distance": 4.8886891513347095
    },
    "planner": "FMT",
    "start": {
        "state": {
            "elbow_joint": -1.919618573717145,
            "shoulder_lift_joint": -1.2443395971678275,
            "shoulder_pan_joint": 2.6996025300909787,
            "wrist_1_joint": -1.548550951253194,
            "wrist_2_joint": -1.5709469090946802,
            "wrist_3_joint": 0.4420197732051276
        }
    },
    "waypoints": [
        {
            "positions": [
                2.6996025300909787,
                -1.2443395971678275,
                -1.919618573717145,
                -1.548550951253194,
                -1.5709469090946802,
                0.4420197732051276
            ]
        },
        {
            "positions": [
                2.606646355129357,
                -1.2533126833351145,
                -1.8010355740771358,
                -1.5525865929337626,
                -1.527358242079554,
                0.32645870606448923
            ]
        },
        {
            "positions": [
                2.513690180167735,
                -1.2622857695024015,
                -1.6824525744371264,
                -1.556622234614331,
                -1.4837695750644277,
                0.21089763892385086
            ]
        },
        {
            "positions": [
                2.4207340052061133,
                -1.2712588556696887,
                -1.5638695747971172,
                -1.5606578762948995,
                -1.4401809080493018,
                0.09533657178321248
            ]
        },
        {
            "positions": [
                2.327777830244491,
                -1.2802319418369756,
                -1.445286575157108,
                -1.564693517975468,
                -1.3965922410341756,
                -0.020224495357425876
            ]
        },
        {
            "positions": [
                2.2348216552828695,
                -1.2892050280042626,
                -1.3267035755170986,
                -1.5687291596560364,
                -1.3530035740190494,
                -0.13578556249806423
            ]
        },
        {
            "positions": [
                2.1418654803212474,
                -1.2981781141715496,
                -1.2081205758770897,
                -1.5727648013366047,
                -1.3094149070039232,
                -0.25134662963870263
            ]
        },
        {
            "positions": [
                2.0489093053596257,
                -1.3071512003388366,
                -1.0895375762370803,
                -1.5768004430171731,
                -1.265826239988797,
                -0.36690769677934093
            ]
        },
        {
            "positions": [
                1.9559531303980038,
                -1.3161242865061238,
                -0.9709545765970711,
                -1.5808360846977416,
                -1.222237572973671,
                -0.48246876391997934
            ]
        },
        {
            "positions": [
                1.8629969554363819,
                -1.3250973726734108,
                -0.8523715769570617,
                -1.58487172637831,
                -1.1786489059585445,
                -0.5980298310606178
            ]
        },
        {
            "positions": [
                1.77004078047476,
                -1.3340704588406977,
                -0.7337885773170525,
                -1.5889073680588786,
                -1.1350602389434186,
                -0.713590898201256
            ]
        },
        {
            "positions": [
                1.677084605513138,
                -1.3430435450079847,
                -0.6152055776770433,
                -1.592943009739447,
                -1.0914715719282924,
                -0.8291519653418944
            ]
        },
        {
            "positions": [
                1.5841284305515162,
                -1.3520166311752717,
                -0.49662257803703413,
                -1.5969786514200155,
                -1.0478829049131662,
                -0.9447130324825328
            ]
        },
        {
            "positions": [
                1.4911722555898943,
                -1.360989717342559,
                -0.37803957839702473,
                -1.601014293100584,
                -1.0042942378980402,
                -1.0602740996231712
            ]
        },
        {
            "positions": [
                1.3982160806282726,
                -1.369962803509846,
                -0.25945657875701555,
                -1.6050499347811524,
                -0.960705570882914,
                -1.1758351667638094
            ]
        },
        {
            "positions": [
                1.3052599056666505,
                -1.3789358896771329,
                -0.14087357911700615,
                -1.609085576461721,
                -0.9171169038677878,
                -1.2913962339044478
            ]
        },
        {
            "positions": [
                1.2123037307050288,
                -1.3879089758444199,
                -0.022290579476997197,
                -1.6131212181422891,
                -0.8735282368526616,
                -1.4069573010450862
            ]
        },
        {
            "positions": [
                1.119347555743407,
                -1.3968820620117068,
                0.0962924201630122,
                -1.6171568598228576,
                -0.8299395698375355,
                -1.5225183681857244
            ]
        },
        {
            "positions": [
                1.0263913807817848,
                -1.4058551481789938,
                0.2148754198030216,
                -1.621192501503426,
                -0.7863509028224092,
                -1.6380794353263632
            ]
        },
        {
            "positions": [
                0.9334352058201631,
                -1.414828234346281,
                0.33345841944303056,
                -1.6252281431839946,
                -0.7427622358072831,
                -1.7536405024670012
            ]
        },
        {
            "positions": [
                0.8404790308585413,
                -1.423801320513568,
                0.45204141908303996,
                -1.629263784864563,
                -0.699173568792157,
                -1.8692015696076396
            ]
        },
        {
            "positions": [
                0.7475228558969196,
                -1.432774406680855,
                0.5706244187230489,
                -1.6332994265451315,
                -0.6555849017770309,
                -1.984762636748278
            ]
        },
        {
            "positions": [
                0.6545666809352975,
                -1.441747492848142,
                0.6892074183630583,
                -1.6373350682257,
                -0.6119962347619046,
                -2.1003237038889164
            ]
        },
        {
            "positions": [
                0.5616105059736758,
                -1.450720579015429,
                0.8077904180030677,
                -1.6413707099062684,
                -0.5684075677467784,
                -2.215884771029555
            ]
        },
        {
            "positions": [
                0.46865433101205367,
                -1.4596936651827161,
                0.9263734176430767,
                -1.645406351586837,
                -0.5248189007316524,
                -2.3314458381701932
            ]
        },
        {
            "positions": [
                0.375698156050432,
                -1.4686667513500031,
                1.044956417283086,
                -1.6494419932674054,
                -0.4812302337165262,
                -2.447006905310831
            ]
        },
        {
            "positions": [
                0.2827419810888099,
                -1.4776398375172901,
                1.1635394169230955,
                -1.6534776349479738,
                -0.4376415667014,
                -2.56256797245147
            ]
        },
        {
            "positions": [
                0.1897858061271882,
                -1.486612923684577,
                1.2821224165631044,
                -1.657513276628542,
                -0.39405289968627377,
                -2.678129039592108
            ]
        },
        {
            "positions": [
                0.09682963116556653,
                -1.495586009851864,
                1.4007054162031138,
                -1.6615489183091106,
                -0.3504642326711478,
                -2.7936901067327464
            ]
        },
        {
            "positions": [
                0.0038734562039444143,
                -1.5045590960191513,
                1.5192884158431228,
                -1.665584559989679,
                -0.3068755656560216,
                -2.909251173873385
            ]
        },
        {
            "positions": [
                -0.0890827187576777,
                -1.5135321821864383,
                1.6378714154831326,
                -1.6696202016702475,
                -0.2632868986408954,
                -3.0248122410140232
            ]
        },
        {
            "positions": [
                -0.18203889371929943,
                -1.5225052683537252,
                1.7564544151231418,
                -1.673655843350816,
                -0.21969823162576924,
                -3.1403733081546616
            ]
        },
        {
            "positions": [
                -0.131359990865414,
                -1.4595014017957615,
                1.7934832354309826,
                -1.530823828062326,
                -0.1623856529152541,
                -3.1435683351003614
            ]
        },
        {
            "positions": [
                -0.08068108801152857,
                -1.3964975352377977,
                1.8305120557388235,
                -1.3879918127738362,
                -0.10507307420473891,
                -3.146763362046061
            ]
        },
        {
            "positions": [
                -0.030002185157643135,
                -1.333493668679834,
                1.8675408760466643,
                -1.2451597974853466,
                -0.04776049549422373,
                -3.149958388991761
            ]
        },
        {
            "positions": [
                0.020676717696242297,
                -1.2704898021218705,
                1.9045696963545051,
                -1.1023277821968567,
                0.009552083216291418,
                -3.1531534159374606
            ]
        },
        {
            "positions": [
                0.07135562055012773,
                -1.2074859355639067,
                1.941598516662346,
                -0.9594957669083668,
                0.06686466192680662,
                -3.1563484428831603
            ]
        },
        {
            "positions": [
                0.12203452340401319,
                -1.144482069005943,
                1.9786273369701868,
                -0.816663751619877,
                0.12417724063732176,
                -3.15954346982886
            ]
        }
    ]
}{
    "goal": {
        "global_pose": {
            "orientation": {
                "w": 0.7047431468963623,
                "x": -0.7094548344612122,
                "y": 0.0024358443915843964,
                "z": -0.0022348060738295317
            },
            "position": {
                "x": 0.6094750761985779,
                "y": 0.3671506643295288,
                "z": 0.19426114857196808
            }
        },
        "name": "move_to_magneteinheit_A"
    },
    "id": "FMT_move_to_magneteinheit_A_81",
    "joint_names": [
        "shoulder_pan_joint",
        "shoulder_lift_joint",
        "elbow_joint",
        "wrist_1_joint",
        "wrist_2_joint",
        "wrist_3_joint"
    ],
    "metrics": {
        "cart_traj_len": 1.2605746615232534,
        "distance_elbow_joint": 0.9121056615287033,
        "distance_shoulder_lift_joint": 0.7668155098221558,
        "distance_shoulder_pan_joint": 1.240742959723784,
        "distance_wrist_1_joint": 1.55114404601109,
        "distance_wrist_2_joint": 1.445698003438685,
        "distance_wrist_3_joint": 4.362840078963864,
        "smoothness": 0.20718664004082216,
        "time": 1.216136992,
        "traj_len": 3.2061419587236437,
        "weighted_distance": 4.690614934831656
    },
    "planner": "FMT",
    "start": {
        "state": {
            "elbow_joint": 1.919643534880228,
            "shoulder_lift_joint": -1.8972525353963687,
            "shoulder_pan_joint": -1.1188672234189438,
            "wrist_1_joint": -1.5931878212786155,
            "wrist_2_joint": 1.5706036197970081,
            "wrist_3_joint": 1.118896926603594
        }
    },
    "waypoints": [
        {
            "positions": [
                -1.1188672234189438,
                -1.8972525353963687,
                1.919643534880228,
                -1.5931878212786155,
                1.5706036197970081,
                1.118896926603594
            ]
        },
        {
            "positions": [
                -1.090385857672352,
                -1.8806746614287078,
                1.8966287863395976,
                -1.5293229113221207,
                1.5072671968158768,
                0.9210414683650588
            ]
        },
        {
            "positions": [
                -1.06190449192576,
                -1.8640967874610466,
                1.8736140377989672,
                -1.465458001365626,
                1.4439307738347456,
                0.7231860101265237
            ]
        },
        {
            "positions": [
                -1.0334231261791682,
                -1.8475189134933856,
                1.8505992892583367,
                -1.4015930914091315,
                1.3805943508536145,
                0.5253305518879886
            ]
        },
        {
            "positions": [
                -1.0049417604325763,
                -1.8309410395257244,
                1.8275845407177063,
                -1.3377281814526367,
                1.3172579278724832,
                0.3274750936494536
            ]
        },
        {
            "positions": [
                -0.9764603946859844,
                -1.8143631655580634,
                1.8045697921770758,
                -1.273863271496142,
                1.253921504891352,
                0.12961963541091848
            ]
        },
        {
            "positions": [
                -0.9479790289393926,
                -1.7977852915904022,
                1.7815550436364453,
                -1.2099983615396472,
                1.1905850819102208,
                -0.06823582282761675
            ]
        },
        {
            "positions": [
                -0.9194976631928006,
                -1.7812074176227413,
                1.7585402950958149,
                -1.1461334515831525,
                1.1272486589290895,
                -0.26609128106615176
            ]
        },
        {
            "positions": [
                -0.8910162974462087,
                -1.76462954365508,
                1.7355255465551844,
                -1.0822685416266578,
                1.0639122359479583,
                -0.4639467393046868
            ]
        },
        {
            "positions": [
                -0.8625349316996168,
                -1.748051669687419,
                1.712510798014554,
                -1.018403631670163,
                1.0005758129668272,
                -0.661802197543222
            ]
        },
        {
            "positions": [
                -0.8340535659530249,
                -1.731473795719758,
                1.6894960494739233,
                -0.9545387217136684,
                0.9372393899856959,
                -0.859657655781757
            ]
        },
        {
            "positions": [
                -0.8055722002064329,
                -1.714895921752097,
                1.666481300933293,
                -0.8906738117571736,
                0.8739029670045646,
                -1.0575131140202922
            ]
        },
        {
            "positions": [
                -0.7770908344598412,
                -1.6983180477844357,
                1.6434665523926624,
                -0.826808901800679,
                0.8105665440234334,
                -1.2553685722588275
            ]
        },
        {
            "positions": [
                -0.7486094687132492,
                -1.6817401738167748,
                1.620451803852032,
                -0.7629439918441843,
                0.7472301210423021,
                -1.4532240304973627
            ]
        },
        {
            "positions": [
                -0.7201281029666573,
                -1.6651622998491136,
                1.5974370553114015,
                -0.6990790818876896,
                0.683893698061171,
                -1.6510794887358975
            ]
        },
        {
            "positions": [
                -0.6916467372200654,
                -1.6485844258814526,
                1.574422306770771,
                -0.6352141719311949,
                0.6205572750800397,
                -1.8489349469744327
            ]
        },
        {
            "positions": [
                -0.6631653714734735,
                -1.6320065519137916,
                1.5514075582301405,
                -0.5713492619747003,
                0.5572208520989084,
                -2.0467904052129677
            ]
        },
        {
            "positions": [
                -0.6346840057268817,
                -1.6154286779461304,
                1.52839280968951,
                -0.5074843520182055,
                0.4938844291177771,
                -2.2446458634515034
            ]
        },
        {
            "positions": [
                -0.6062026399802898,
                -1.5988508039784692,
                1.5053780611488796,
                -0.4436194420617108,
                0.430548006136646,
                -2.442501321690038
            ]
        },
        {
            "positions": [
                -0.5777212742336979,
                -1.5822729300108083,
                1.4823633126082492,
                -0.37975453210521604,
                0.3672115831555146,
                -2.640356779928573
            ]
        },
        {
            "positions": [
                -0.4902716479163806,
                -1.5257934419562338,
                1.5417164925153397,
                -0.42196837670992726,
                0.33692333730586566,
                -2.7158050764825354
            ]
        },
        {
            "positions": [
                -0.40282202159906333,
                -1.4693139539016595,
                1.6010696724224303,
                -0.4641822213146385,
                0.3066350914562167,
                -2.7912533730364975
            ]
        },
        {
            "positions": [
                -0.315372395281746,
                -1.412834465847085,
                1.6604228523295208,
                -0.5063960659193497,
                0.27634684560656775,
                -2.8667016695904595
            ]
        },
        {
            "positions": [
                -0.2279227689644287,
                -1.3563549777925106,
                1.7197760322366114,
                -0.5486099105240609,
                0.2460585997569188,
                -2.942149966144422
            ]
        },
        {
            "positions": [
                -0.14047314264711142,
                -1.299875489737936,
                1.779129212143702,
                -0.5908237551287722,
                0.21577035390726984,
                -3.0175982626983844
            ]
        },
        {
            "positions": [
                -0.053023516329794074,
                -1.2433960016833616,
                1.8384823920507924,
                -0.6330375997334834,
                0.1854821080576209,
                -3.0930465592523464
            ]
        },
        {
            "positions": [
                0.03442610998752316,
                -1.1869165136287874,
                1.897835571957883,
                -0.6752514443381946,
                0.15519386220797193,
                -3.1684948558063084
            ]
        },
        {
            "positions": [
                0.12187573630484046,
                -1.1304370255742129,
                1.9571887518649735,
                -0.7174652889429058,
                0.12490561635832297,
                -3.243943152360271
            ]
        }
    ]
}