{
    "goal": {
        "global_pose": {
            "orientation": {
                "w": 0.7047431468963623,
                "x": -0.7094548344612122,
                "y": 0.0024358443915843964,
                "z": -0.0022348060738295317
            },
            "position": {
                "x": 0.6094750761985779,
                "y": 0.3671506643295288,
                "z": 0.19426114857196808
            }
        },
        "name": "move_to_magneteinheit_A"
    },
    "id": "FMT_move_to_magneteinheit_A_50",
    "joint_names": [
        "shoulder_pan_joint",
        "shoulder_lift_joint",
        "elbow_joint",
        "wrist_1_joint",
        "wrist_2_joint",
        "wrist_3_joint"
    ],
    "metrics": {
        "cart_traj_len": 3.3226053762267536,
        "distance_elbow_joint": 3.9000530750419955,
        "distance_shoulder_lift_joint": 1.4241360118384119,
        "distance_shoulder_pan_joint": 4.546904249357169,
        "distance_wrist_1_joint": 2.014985982702977,
        "distance_wrist_2_joint": 1.704665555912062,
        "distance_wrist_3_joint": 3.848297426148679,
        "smoothness": 0.32664197902667774,
        "time": 1.260686572,
        "traj_len": 4.1760079383307325,
        "weighted_distance": 5.3717118958404395
    },
    "planner": "FMT",
    "start": {
        "state": {
            "elbow_joint": -1.919618573717145,
            "shoulder_lift_joint": -1.2443395971678275,
            "shoulder_pan_joint": 2.6996025300909787,
            "wrist_1_joint": -1.548550951253194,
            "wrist_2_joint": -1.5709469090946802,
            "wrist_3_joint": 0.4420197732051276
        }
    },
    "waypoints": [
        {
            "positions": [
                2.6996025300909787,
                -1.2443395971678275,
                -1.919618573717145,
                -1.548550951253194,
                -1.5709469090946802,
                0.4420197732051276
            ]
        },
        {
            "positions": [
                2.603339453474284,
                -1.2621522342417661,
                -1.8143484591624242,
                -1.510821561698949,
                -1.5377011113830674,
                0.3406606208226662
            ]
        },
        {
            "positions": [
                2.507076376857589,
                -1.2799648713157048,
                -1.7090783446077036,
                -1.4730921721447041,
                -1.5044553136714547,
                0.2393014684402048
            ]
        },
        {
            "positions": [
                2.4108133002408945,
                -1.2977775083896435,
                -1.6038082300529828,
                -1.4353627825904591,
                -1.471209515959842,
                0.13794231605774343
            ]
        },
        {
            "positions": [
                2.3145502236241997,
                -1.315590145463582,
                -1.498538115498262,
                -1.3976333930362141,
                -1.4379637182482292,
                0.03658316367528203
            ]
        },
        {
            "positions": [
                2.218287147007505,
                -1.3334027825375208,
                -1.3932680009435412,
                -1.3599040034819692,
                -1.4047179205366163,
                -0.06477598870717943
            ]
        },
        {
            "positions": [
                2.12202407039081,
                -1.3512154196114596,
                -1.2879978863888204,
                -1.3221746139277242,
                -1.3714721228250035,
                -0.16613514108964073
            ]
        },
        {
            "positions": [
                2.0257609937741154,
                -1.3690280566853983,
                -1.1827277718340996,
                -1.2844452243734792,
                -1.3382263251133908,
                -0.26749429347210213
            ]
        },
        {
            "positions": [
                1.9294979171574207,
                -1.386840693759337,
                -1.077457657279379,
                -1.2467158348192342,
                -1.304980527401778,
                -0.36885344585456353
            ]
        },
        {
            "positions": [
                1.833234840540726,
                -1.4046533308332756,
                -0.9721875427246582,
                -1.2089864452649892,
                -1.2717347296901653,
                -0.47021259823702494
            ]
        },
        {
            "positions": [
                1.7369717639240312,
                -1.4224659679072142,
                -0.8669174281699374,
                -1.1712570557107442,
                -1.2384889319785526,
                -0.5715717506194864
            ]
        },
        {
            "positions": [
                1.6407086873073364,
                -1.440278604981153,
                -0.7616473136152169,
                -1.1335276661564992,
                -1.2052431342669399,
                -0.6729309030019477
            ]
        },
        {
            "positions": [
                1.5444456106906417,
                -1.4580912420550916,
                -0.6563771990604961,
                -1.0957982766022543,
                -1.171997336555327,
                -0.774290055384409
            ]
        },
        {
            "positions": [
                1.448182534073947,
                -1.4759038791290302,
                -0.5511070845057753,
                -1.0580688870480093,
                -1.1387515388437142,
                -0.8756492077668705
            ]
        },
        {
            "positions": [
                1.3519194574572522,
                -1.4937165162029689,
                -0.4458369699510545,
                -1.0203394974937643,
                -1.1055057411321014,
                -0.9770083601493318
            ]
        },
        {
            "positions": [
                1.2556563808405574,
                -1.5115291532769075,
                -0.3405668553963339,
                -0.9826101079395194,
                -1.0722599434204887,
                -1.0783675125317933
            ]
        },
        {
            "positions": [
                1.1593933042238627,
                -1.5293417903508462,
                -0.23529674084161312,
                -0.9448807183852744,
                -1.039014145708876,
                -1.1797266649142546
            ]
        },
        {
            "positions": [
                1.063130227607168,
                -1.5471544274247848,
                -0.13002662628689232,
                -0.9071513288310296,
                -1.0057683479972632,
                -1.2810858172967161
            ]
        },
        {
            "positions": [
                0.9668671509904732,
                -1.5649670644987235,
                -0.024756511732171527,
                -0.8694219392767846,
                -0.9725225502856505,
                -1.3824449696791774
            ]
        },
        {
            "positions": [
                0.8706040743737784,
                -1.5827797015726621,
                0.08051360282254882,
                -0.8316925497225396,
                -0.9392767525740378,
                -1.4838041220616387
            ]
        },
        {
            "positions": [
                0.7743409977570836,
                -1.600592338646601,
                0.18578371737727006,
                -0.7939631601682946,
                -0.9060309548624249,
                -1.5851632744441004
            ]
        },
        {
            "positions": [
                0.6780779211403889,
                -1.6184049757205397,
                0.2910538319319904,
                -0.7562337706140497,
                -0.8727851571508123,
                -1.6865224268265613
            ]
        },
        {
            "positions": [
                0.5818148445236941,
                -1.6362176127944783,
                0.3963239464867112,
                -0.7185043810598046,
                -0.8395393594391994,
                -1.787881579209023
            ]
        },
        {
            "positions": [
                0.4855517679069994,
                -1.654030249868417,
                0.501594061041432,
                -0.6807749915055598,
                -0.8062935617275867,
                -1.8892407315914843
            ]
        },
        {
            "positions": [
                0.38928869129030463,
                -1.6718428869423556,
                0.6068641755961528,
                -0.6430456019513147,
                -0.7730477640159739,
                -1.9905998839739456
            ]
        },
        {
            "positions": [
                0.2930256146736099,
                -1.6896555240162943,
                0.7121342901508732,
                -0.6053162123970698,
                -0.7398019663043612,
                -2.091959036356407
            ]
        },
        {
            "positions": [
                0.19676253805691513,
                -1.707468161090233,
                0.8174044047055944,
                -0.5675868228428247,
                -0.7065561685927484,
                -2.1933181887388686
            ]
        },
        {
            "positions": [
                0.10049946144022037,
                -1.7252807981641716,
                0.9226745192603147,
                -0.5298574332885799,
                -0.6733103708811357,
                -2.29467734112133
            ]
        },
        {
            "positions": [
                0.0042363848235256185,
                -1.7430934352381104,
                1.027944633815036,
                -0.4921280437343347,
                -0.6400645731695228,
                -2.396036493503791
            ]
        },
        {
            "positions": [
                -0.09202669179316914,
                -1.760906072312049,
                1.1332147483697563,
                -0.45439865418008996,
                -0.6068187754579102,
                -2.4973956458862525
            ]
        },
        {
            "positions": [
                -0.1882897684098639,
                -1.7787187093859878,
                1.2384848629244771,
                -0.41666926462584475,
                -0.5735729777462973,
                -2.5987547982687143
            ]
        },
        {
            "positions": [
                -0.28455284502655864,
                -1.7965313464599264,
                1.343754977479198,
                -0.3789398750716,
                -0.5403271800346847,
                -2.7001139506511755
            ]
        },
        {
            "positions": [
                -0.3808159216432534,
                -1.814343983533865,
                1.4490250920339187,
                -0.3412104855173548,
                -0.5070813823230718,
                -2.801473103033637
            ]
        },
        {
            "positions": [
                -0.47707899825994815,
                -1.8321566206078037,
                1.554295206588639,
                -0.30348109596311,
                -0.473835584611459,
                -2.902832255416098
            ]
        },
        {
            "positions": [
                -0.5733420748766429,
                -1.8499692576817424,
                1.6595653211433603,
                -0.26575170640886503,
                -0.4405897868998463,
                -3.00419140779856
            ]
        },
        {
            "positions": [
                -0.6696051514933377,
                -1.867781894755681,
                1.7648354356980807,
                -0.22802231685462004,
                -0.40734398918823356,
                -3.105550560181021
            ]
        },
        {
            "positions": [
                -0.7658682281100324,
                -1.8855945318296197,
                1.870105550252802,
                -0.19029292730037506,
                -0.3740981914766208,
                -3.2069097125634825
            ]
        },
        {
            "positions": [
                -0.8621313047267272,
                -1.9034071689035583,
                1.9753756648075222,
                -0.15256353774613007,
                -0.3408523937650082,
                -3.3082688649459437
            ]
        },
        {
            "positions": [
                -0.7389850029092943,
                -1.8077736138907232,
                1.9747433102428562,
                -0.2299383588956191,
                -0.2815310136922095,
                -3.296017766446243
            ]
        },
        {
            "positions": [
                -0.6158387010918613,
                -1.7121400588778881,
                1.9741109556781902,
                -0.3073131800451081,
                -0.2222096336194108,
                -3.2837666679465416
            ]
        },
        {
            "positions": [
                -0.4926923992744283,
                -1.616506503865053,
                1.9734786011135241,
                -0.3846880011945971,
                -0.16288825354661207,
                -3.2715155694468407
            ]
        },
        {
            "positions": [
                -0.3695460974569954,
                -1.520872948852218,
                1.9728462465488583,
                -0.46206282234408613,
                -0.10356687347381338,
                -3.25926447094714
            ]
        },
        {
            "positions": [
                -0.2463997956395625,
                -1.4252393938393828,
                1.9722138919841923,
                -0.5394376434935751,
                -0.04424549340101469,
                -3.247013372447439
            ]
        },
        {
            "positions": [
                -0.12325349382212947,
                -1.3296058388265475,
                1.9715815374195262,
                -0.6168124646430642,
                0.015075886671784056,
                -3.234762273947738
            ]
        },
        {
            "positions": [
                -0.00010719200469655465,
                -1.2339722838137124,
                1.9709491828548602,
                -0.6941872857925532,
                0.07439726674458275,
                -3.222511175448037
            ]
        },
        {
            "positions": [
                0.1230391098127364,
                -1.1383387288008773,
                1.9703168282901942,
                -0.7715621069420422,
                0.13371864681738146,
                -3.210260076948336
            ]
        }
    ]
}{
    "goal": {
        "global_pose": {
            "orientation": {
                "w": 0.7047431468963623,
                "x": -0.7094548344612122,
                "y": 0.0024358443915843964,
                "z": -0.0022348060738295317
            },
            "position": {
                "x": 0.6094750761985779,
                "y": 0.3671506643295288,
                "z": 0.19426114857196808
            }
        },
        "name": "move_to_magneteinheit_A"
    },
    "id": "FMT_move_to_magneteinheit_A_50",
    "joint_names": [
        "shoulder_pan_joint",
        "shoulder_lift_joint",
        "elbow_joint",
        "wrist_1_joint",
        "wrist_2_joint",
        "wrist_3_joint"
    ],
    "metrics": {
        "cart_traj_len": 1.1414150441974502,
        "distance_elbow_joint": 0.10466212037020561,
        "distance_shoulder_lift_joint": 0.7501297095584045,
        "distance_shoulder_pan_joint": 1.241538584668843,
        "distance_wrist_1_joint": 0.728529915287896,
        "distance_wrist_2_joint": 1.4507614912848932,
        "distance_wrist_3_joint": 4.234995065270061,
        "smoothness": 0.008454006901966305,
        "time": 1.159644715,
        "traj_len": 2.9172961602210195,
        "weighted_distance": 4.377202122766691
    },
    "planner": "FMT",
    "start": {
        "state": {
            "elbow_joint": 1.919643534880228,
            "shoulder_lift_joint": -1.8972525353963687,
            "shoulder_pan_joint": -1.1188672234189438,
            "wrist_1_joint": -1.5931878212786155,
            "wrist_2_joint": 1.5706036197970081,
            "wrist_3_joint": 1.118896926603594
        }
    },
    "waypoints": [
        {
            "positions": [
                -1.1188672234189438,
                -1.8972525353963687,
                1.919643534880228,
                -1.5931878212786155,
                1.5706036197970081,
                1.118896926603594
            ]
        },
        {
            "positions": [
                -1.0910166645106614,
                -1.8845252504541135,
                1.9253730946835192,
                -1.5747098068891294,
                1.4976856747987262,
                0.88521209038155
            ]
        },
        {
            "positions": [
                -1.0631661056023787,
                -1.8717979655118582,
                1.9311026544868104,
                -1.5562317924996434,
                1.4247677298004442,
                0.6515272541595061
            ]
        },
        {
            "positions": [
                -1.0353155466940962,
                -1.859070680569603,
                1.9368322142901016,
                -1.5377537781101573,
                1.3518497848021624,
                0.417842417937462
            ]
        },
        {
            "positions": [
                -1.0074649877858135,
                -1.8463433956273478,
                1.9425617740933925,
                -1.5192757637206713,
                1.2789318398038805,
                0.18415758171541818
            ]
        },
        {
            "positions": [
                -0.979614428877531,
                -1.8336161106850926,
                1.9482913338966836,
                -1.5007977493311853,
                1.2060138948055985,
                -0.04952725450662565
            ]
        },
        {
            "positions": [
                -0.9517638699692484,
                -1.8208888257428373,
                1.9540208936999748,
                -1.4823197349416992,
                1.1330959498073165,
                -0.28321209072866993
            ]
        },
        {
            "positions": [
                -0.9239133110609659,
                -1.808161540800582,
                1.959750453503266,
                -1.4638417205522134,
                1.0601780048090346,
                -0.5168969269507138
            ]
        },
        {
            "positions": [
                -0.8960627521526834,
                -1.7954342558583267,
                1.965480013306557,
                -1.4453637061627274,
                0.9872600598107527,
                -0.7505817631727576
            ]
        },
        {
            "positions": [
                -0.8682121932444008,
                -1.7827069709160714,
                1.9712095731098482,
                -1.4268856917732413,
                0.9143421148124709,
                -0.9842665993948014
            ]
        },
        {
            "positions": [
                -0.8403616343361182,
                -1.7699796859738162,
                1.9769391329131394,
                -1.4084076773837553,
                0.8414241698141889,
                -1.2179514356168453
            ]
        },
        {
            "positions": [
                -0.8125110754278357,
                -1.757252401031561,
                1.9826686927164303,
                -1.3899296629942692,
                0.768506224815907,
                -1.4516362718388895
            ]
        },
        {
            "positions": [
                -0.784660516519553,
                -1.7445251160893056,
                1.9883982525197215,
                -1.3714516486047832,
                0.6955882798176249,
                -1.6853211080609338
            ]
        },
        {
            "positions": [
                -0.7568099576112706,
                -1.7317978311470505,
                1.9941278123230126,
                -1.3529736342152971,
                0.6226703348193431,
                -1.9190059442829777
            ]
        },
        {
            "positions": [
                -0.7289593987029879,
                -1.7190705462047953,
                1.9998573721263038,
                -1.334495619825811,
                0.5497523898210612,
                -2.1526907805050213
            ]
        },
        {
            "positions": [
                -0.7011088397947054,
                -1.70634326126254,
                2.005586931929595,
                -1.316017605436325,
                0.47683444482277915,
                -2.386375616727065
            ]
        },
        {
            "positions": [
                -0.5981363146641299,
                -1.636440706834468,
                2.00324709151449,
                -1.2595976430056244,
                0.43221040528394616,
                -2.47759093196949
            ]
        },
        {
            "positions": [
                -0.4951637895335543,
                -1.566538152406396,
                2.000907251099385,
                -1.2031776805749237,
                0.3875863657451131,
                -2.5688062472119157
            ]
        },
        {
            "positions": [
                -0.3921912644029787,
                -1.4966355979783241,
                1.9985674106842803,
                -1.146757718144223,
                0.34296232620628014,
                -2.660021562454341
            ]
        },
        {
            "positions": [
                -0.28921873927240316,
                -1.426733043550252,
                1.9962275702691756,
                -1.0903377557135223,
                0.2983382866674471,
                -2.7512368776967664
            ]
        },
        {
            "positions": [
                -0.18624621414182763,
                -1.35683048912218,
                1.9938877298540707,
                -1.0339177932828216,
                0.2537142471286141,
                -2.8424521929391915
            ]
        },
        {
            "positions": [
                -0.08327368901125198,
                -1.2869279346941083,
                1.9915478894389658,
                -0.9774978308521208,
                0.20909020758978114,
                -2.9336675081816166
            ]
        },
        {
            "positions": [
                0.01969883611932355,
                -1.2170253802660362,
                1.989208049023861,
                -0.9210778684214201,
                0.1644661680509481,
                -3.0248828234240417
            ]
        },
        {
            "positions": [
                0.12267136124989902,
                -1.1471228258379642,
                1.9868682086087561,
                -0.8646579059907195,
                0.11984212851211512,
                -3.1160981386664672
            ]
        }
    ]
}