{
    "goal": {
        "global_pose": {
            "orientation": {
                "w": 0.5084816217422485,
                "x": -0.49083608388900757,
                "y": 0.5182115435600281,
                "z": -0.4816462993621826
            },
            "position": {
                "x": 0.5540239810943604,
                "y": 0.030875300988554955,
                "z": 0.16403168439865112
            }
        },
        "name": "move_to_storage_A"
    },
    "id": "FMT_move_to_storage_A_134",
    "joint_names": [
        "shoulder_pan_joint",
        "shoulder_lift_joint",
        "elbow_joint",
        "wrist_1_joint",
        "wrist_2_joint",
        "wrist_3_joint"
    ],
    "metrics": {
        "cart_traj_len": 0.35305416289249913,
        "distance_elbow_joint": 0.4513109563834501,
        "distance_shoulder_lift_joint": 0.236489016644704,
        "distance_shoulder_pan_joint": 0.4622927715847683,
        "distance_wrist_1_joint": 0.24089059416576386,
        "distance_wrist_2_joint": 1.0976816321519336,
        "distance_wrist_3_joint": 0.08938743254889303,
        "smoothness": 1.5543122378471369e-15,
        "time": 0.388899463,
        "traj_len": 1.6056314656481772,
        "weighted_distance": 2.023709340516813
    },
    "planner": "FMT",
    "start": {
        "state": {
            "elbow_joint": 1.9715477243005601,
            "shoulder_lift_joint": -1.1394853015351272,
            "shoulder_pan_joint": 0.12281154014795169,
            "wrist_1_joint": -0.7804696478968182,
            "wrist_2_joint": 0.12958648046900423,
            "wrist_3_joint": -3.192491284697111
        }
    },
    "waypoints": [
        {
            "positions": [
                0.12281154014795169,
                -1.1394853015351272,
                1.9715477243005601,
                -0.7804696478968182,
                0.12958648046900423,
                -3.192491284697111
            ]
        },
        {
            "positions": [
                0.05676971563584193,
                -1.1732694467700848,
                2.0360207180696244,
                -0.8148825899204987,
                0.2863981422049947,
                -3.1797216514758406
            ]
        },
        {
            "positions": [
                -0.009272108876267823,
                -1.2070535920050427,
                2.1004937118386886,
                -0.8492955319441793,
                0.44320980394098525,
                -3.1669520182545705
            ]
        },
        {
            "positions": [
                -0.07531393338837757,
                -1.2408377372400003,
                2.164966705607753,
                -0.8837084739678598,
                0.6000214656769758,
                -3.1541823850333
            ]
        },
        {
            "positions": [
                -0.14135575790048732,
                -1.274621882474958,
                2.229439699376817,
                -0.9181214159915404,
                0.7568331274129663,
                -3.1414127518120294
            ]
        },
        {
            "positions": [
                -0.2073975824125971,
                -1.3084060277099159,
                2.2939126931458818,
                -0.9525343580152209,
                0.9136447891489569,
                -3.128643118590759
            ]
        },
        {
            "positions": [
                -0.2734394069247068,
                -1.3421901729448735,
                2.358385686914946,
                -0.9869473000389015,
                1.0704564508849472,
                -3.1158734853694887
            ]
        },
        {
            "positions": [
                -0.3394812314368166,
                -1.3759743181798312,
                2.4228586806840102,
                -1.021360242062582,
                1.227268112620938,
                -3.103103852148218
            ]
        }
    ]
}