{
    "goal": {
        "global_pose": {
            "orientation": {
                "w": 0.7047431468963623,
                "x": -0.7094548344612122,
                "y": 0.0024358443915843964,
                "z": -0.0022348060738295317
            },
            "position": {
                "x": 0.6094750761985779,
                "y": 0.3671506643295288,
                "z": 0.19426114857196808
            }
        },
        "name": "move_to_magneteinheit_A"
    },
    "id": "FMT_move_to_magneteinheit_A_107",
    "joint_names": [
        "shoulder_pan_joint",
        "shoulder_lift_joint",
        "elbow_joint",
        "wrist_1_joint",
        "wrist_2_joint",
        "wrist_3_joint"
    ],
    "metrics": {
        "cart_traj_len": 3.860143088396812,
        "distance_elbow_joint": 3.87351529231701,
        "distance_shoulder_lift_joint": 0.11492319817875951,
        "distance_shoulder_pan_joint": 3.4072256623791812,
        "distance_wrist_1_joint": 0.8445124707635483,
        "distance_wrist_2_joint": 1.700583580408495,
        "distance_wrist_3_joint": 2.580871779370072,
        "smoothness": 0.09528339719140937,
        "time": 1.212535677,
        "traj_len": 3.538591807967834,
        "weighted_distance": 4.497607318711723
    },
    "planner": "FMT",
    "start": {
        "state": {
            "elbow_joint": -1.919618573717145,
            "shoulder_lift_joint": -1.2443395971678275,
            "shoulder_pan_joint": 2.6996025300909787,
            "wrist_1_joint": -1.548550951253194,
            "wrist_2_joint": -1.5709469090946802,
            "wrist_3_joint": 0.4420197732051276
        }
    },
    "waypoints": [
        {
            "positions": [
                2.6996025300909787,
                -1.2443395971678275,
                -1.919618573717145,
                -1.548550951253194,
                -1.5709469090946802,
                0.4420197732051276
            ]
        },
        {
            "positions": [
                2.5571249444425774,
                -1.23890123166883,
                -1.7779169910012838,
                -1.5405873241534374,
                -1.5285577968801811,
                0.4951081723526426
            ]
        },
        {
            "positions": [
                2.414647358794176,
                -1.2334628661698324,
                -1.6362154082854226,
                -1.5326236970536808,
                -1.4861686846656823,
                0.5481965715001577
            ]
        },
        {
            "positions": [
                2.272169773145775,
                -1.2280245006708348,
                -1.4945138255695616,
                -1.5246600699539241,
                -1.4437795724511833,
                0.6012849706476726
            ]
        },
        {
            "positions": [
                2.1296921874973735,
                -1.222586135171837,
                -1.3528122428537004,
                -1.5166964428541674,
                -1.4013904602366845,
                0.6543733697951877
            ]
        },
        {
            "positions": [
                1.987214601848972,
                -1.2171477696728394,
                -1.2111106601378392,
                -1.5087328157544106,
                -1.3590013480221854,
                0.7074617689427027
            ]
        },
        {
            "positions": [
                1.8447370162005707,
                -1.2117094041738419,
                -1.069409077421978,
                -1.5007691886546541,
                -1.3166122358076864,
                0.7605501680902178
            ]
        },
        {
            "positions": [
                1.7022594305521694,
                -1.2062710386748443,
                -0.9277074947061168,
                -1.4928055615548974,
                -1.2742231235931876,
                0.8136385672377329
            ]
        },
        {
            "positions": [
                1.5597818449037681,
                -1.2008326731758467,
                -0.7860059119902556,
                -1.4848419344551407,
                -1.2318340113786885,
                0.8667269663852478
            ]
        },
        {
            "positions": [
                1.4173042592553668,
                -1.1953943076768492,
                -0.6443043292743944,
                -1.4768783073553842,
                -1.1894448991641897,
                0.9198153655327628
            ]
        },
        {
            "positions": [
                1.2748266736069653,
                -1.1899559421778516,
                -0.5026027465585332,
                -1.4689146802556274,
                -1.1470557869496907,
                0.9729037646802778
            ]
        },
        {
            "positions": [
                1.132349087958564,
                -1.1845175766788538,
                -0.360901163842672,
                -1.4609510531558707,
                -1.1046666747351916,
                1.025992163827793
            ]
        },
        {
            "positions": [
                0.9898715023101627,
                -1.1790792111798563,
                -0.21919958112681104,
                -1.452987426056114,
                -1.0622775625206928,
                1.079080562975308
            ]
        },
        {
            "positions": [
                0.8473939166617612,
                -1.1736408456808587,
                -0.07749799841094962,
                -1.4450237989563575,
                -1.0198884503061938,
                1.132168962122823
            ]
        },
        {
            "positions": [
                0.7049163310133602,
                -1.1682024801818611,
                0.06420358430491135,
                -1.4370601718566007,
                -0.977499338091695,
                1.185257361270338
            ]
        },
        {
            "positions": [
                0.5624387453649584,
                -1.1627641146828636,
                0.20590516702077255,
                -1.429096544756844,
                -0.9351102258771959,
                1.2383457604178532
            ]
        },
        {
            "positions": [
                0.41996115971655756,
                -1.157325749183866,
                0.34760674973663375,
                -1.4211329176570875,
                -0.892721113662697,
                1.291434159565368
            ]
        },
        {
            "positions": [
                0.2774835740681558,
                -1.1518873836848684,
                0.48930833245249494,
                -1.4131692905573308,
                -0.8503320014481981,
                1.344522558712883
            ]
        },
        {
            "positions": [
                0.13500598841975497,
                -1.1464490181858706,
                0.6310099151683561,
                -1.405205663457574,
                -0.8079428892336992,
                1.3976109578603981
            ]
        },
        {
            "positions": [
                -0.007471597228646765,
                -1.141010652686873,
                0.7727114978842173,
                -1.3972420363578173,
                -0.7655537770192001,
                1.4506993570079132
            ]
        },
        {
            "positions": [
                -0.14994918287704806,
                -1.1355722871878755,
                0.9144130806000785,
                -1.3892784092580608,
                -0.7231646648047013,
                1.5037877561554283
            ]
        },
        {
            "positions": [
                -0.29242676852544924,
                -1.130133921688878,
                1.05611466331594,
                -1.381314782158304,
                -0.6807755525902023,
                1.5568761553029433
            ]
        },
        {
            "positions": [
                -0.254681644547017,
                -1.1300686923525316,
                1.137731213796297,
                -1.3197442092793352,
                -0.6071017140534735,
                1.690150282327694
            ]
        },
        {
            "positions": [
                -0.2169365205685848,
                -1.1300034630161853,
                1.219347764276654,
                -1.2581736364003662,
                -0.5334278755167446,
                1.8234244093524445
            ]
        },
        {
            "positions": [
                -0.17919139659015265,
                -1.129938233679839,
                1.3009643147570107,
                -1.1966030635213973,
                -0.4597540369800158,
                1.956698536377195
            ]
        },
        {
            "positions": [
                -0.1414462726117204,
                -1.1298730043434926,
                1.3825808652373677,
                -1.1350324906424283,
                -0.386080198443287,
                2.0899726634019458
            ]
        },
        {
            "positions": [
                -0.10370114863328822,
                -1.1298077750071462,
                1.4641974157177247,
                -1.0734619177634595,
                -0.3124063599065582,
                2.223246790426696
            ]
        },
        {
            "positions": [
                -0.06595602465485603,
                -1.1297425456707997,
                1.5458139661980816,
                -1.0118913448844906,
                -0.23873252136982942,
                2.356520917451447
            ]
        },
        {
            "positions": [
                -0.02821090067642379,
                -1.1296773163344533,
                1.6274305166784386,
                -0.9503207720055216,
                -0.16505868283310055,
                2.4897950444761974
            ]
        },
        {
            "positions": [
                0.009534223302008427,
                -1.129612086998107,
                1.7090470671587954,
                -0.8887501991265525,
                -0.09138484429637173,
                2.6230691715009478
            ]
        },
        {
            "positions": [
                0.04727934728044064,
                -1.1295468576617607,
                1.7906636176391526,
                -0.8271796262475837,
                -0.017711005759642906,
                2.7563432985256986
            ]
        },
        {
            "positions": [
                0.0850244712588728,
                -1.1294816283254143,
                1.8722801681195094,
                -0.7656090533686147,
                0.055962832777085914,
                2.8896174255504494
            ]
        },
        {
            "positions": [
                0.12276959523730503,
                -1.129416398989068,
                1.9538967185998664,
                -0.7040384804896458,
                0.12963667131381476,
                3.0228915525752
            ]
        }
    ]
}{
    "goal": {
        "global_pose": {
            "orientation": {
                "w": 0.7047431468963623,
                "x": -0.7094548344612122,
                "y": 0.0024358443915843964,
                "z": -0.0022348060738295317
            },
            "position": {
                "x": 0.6094750761985779,
                "y": 0.3671506643295288,
                "z": 0.19426114857196808
            }
        },
        "name": "move_to_magneteinheit_A"
    },
    "id": "FMT_move_to_magneteinheit_A_107",
    "joint_names": [
        "shoulder_pan_joint",
        "shoulder_lift_joint",
        "elbow_joint",
        "wrist_1_joint",
        "wrist_2_joint",
        "wrist_3_joint"
    ],
    "metrics": {
        "cart_traj_len": 1.3515143247446024,
        "distance_elbow_joint": 0.33242210094461666,
        "distance_shoulder_lift_joint": 0.7690099171572229,
        "distance_shoulder_pan_joint": 1.2418731048855656,
        "distance_wrist_1_joint": 0.7555603774627704,
        "distance_wrist_2_joint": 1.4318492033977548,
        "distance_wrist_3_joint": 4.256048506946802,
        "smoothness": 0.03430674431151376,
        "time": 1.188300087,
        "traj_len": 2.964247494861846,
        "weighted_distance": 4.414325521022307
    },
    "planner": "FMT",
    "start": {
        "state": {
            "elbow_joint": 1.919643534880228,
            "shoulder_lift_joint": -1.8972525353963687,
            "shoulder_pan_joint": -1.1188672234189438,
            "wrist_1_joint": -1.5931878212786155,
            "wrist_2_joint": 1.5706036197970081,
            "wrist_3_joint": 1.118896926603594
        }
    },
    "waypoints": [
        {
            "positions": [
                -1.1188672234189438,
                -1.8972525353963687,
                1.919643534880228,
                -1.5931878212786155,
                1.5706036197970081,
                1.118896926603594
            ]
        },
        {
            "positions": [
                -1.074853808048008,
                -1.8572878544178963,
                1.912679073095751,
                -1.5626079722457384,
                1.5140881081713,
                0.907228627708967
            ]
        },
        {
            "positions": [
                -1.0308403926770722,
                -1.8173231734394237,
                1.905714611311274,
                -1.5320281232128614,
                1.4575725965455917,
                0.6955603288143398
            ]
        },
        {
            "positions": [
                -0.9868269773061362,
                -1.7773584924609513,
                1.8987501495267969,
                -1.5014482741799846,
                1.4010570849198833,
                0.4838920299197128
            ]
        },
        {
            "positions": [
                -0.9428135619352003,
                -1.737393811482479,
                1.8917856877423198,
                -1.4708684251471076,
                1.3445415732941752,
                0.2722237310250857
            ]
        },
        {
            "positions": [
                -0.8988001465642644,
                -1.6974291305040063,
                1.884821225957843,
                -1.4402885761142306,
                1.2880260616684671,
                0.060555432130458664
            ]
        },
        {
            "positions": [
                -0.8547867311933286,
                -1.657464449525534,
                1.8778567641733659,
                -1.4097087270813535,
                1.2315105500427588,
                -0.15111286676416835
            ]
        },
        {
            "positions": [
                -0.8107733158223926,
                -1.6174997685470616,
                1.8708923023888888,
                -1.3791288780484767,
                1.1749950384170504,
                -0.36278116565879537
            ]
        },
        {
            "positions": [
                -0.7667599004514568,
                -1.577535087568589,
                1.8639278406044117,
                -1.3485490290155997,
                1.1184795267913423,
                -0.5744494645534226
            ]
        },
        {
            "positions": [
                -0.722746485080521,
                -1.5375704065901166,
                1.8569633788199347,
                -1.3179691799827227,
                1.0619640151656342,
                -0.7861177634480496
            ]
        },
        {
            "positions": [
                -0.678733069709585,
                -1.4976057256116442,
                1.8499989170354576,
                -1.2873893309498456,
                1.0054485035399259,
                -0.9977860623426766
            ]
        },
        {
            "positions": [
                -0.6347196543386491,
                -1.4576410446331716,
                1.8430344552509805,
                -1.2568094819169686,
                0.9489329919142175,
                -1.2094543612373039
            ]
        },
        {
            "positions": [
                -0.5907062389677132,
                -1.4176763636546992,
                1.8360699934665035,
                -1.2262296328840918,
                0.8924174802885094,
                -1.4211226601319307
            ]
        },
        {
            "positions": [
                -0.5466928235967773,
                -1.3777116826762268,
                1.8291055316820264,
                -1.1956497838512148,
                0.8359019686628011,
                -1.632790959026558
            ]
        },
        {
            "positions": [
                -0.5026794082258415,
                -1.3377470016977542,
                1.8221410698975493,
                -1.1650699348183378,
                0.779386457037093,
                -1.8444592579211847
            ]
        },
        {
            "positions": [
                -0.4586659928549056,
                -1.2977823207192818,
                1.8151766081130725,
                -1.1344900857854607,
                0.7228709454113846,
                -2.056127556815812
            ]
        },
        {
            "positions": [
                -0.4146525774839698,
                -1.2578176397408094,
                1.8082121463285954,
                -1.1039102367525837,
                0.6663554337856765,
                -2.267795855710439
            ]
        },
        {
            "positions": [
                -0.3706391621130338,
                -1.2178529587623368,
                1.8012476845441183,
                -1.073330387719707,
                0.6098399221599682,
                -2.4794641546050666
            ]
        },
        {
            "positions": [
                -0.326625746742098,
                -1.1778882777838646,
                1.7942832227596412,
                -1.0427505386868299,
                0.5533244105342601,
                -2.6911324534996934
            ]
        },
        {
            "positions": [
                -0.28261233137116204,
                -1.137923596805392,
                1.7873187609751642,
                -1.0121706896539528,
                0.4968088989085518,
                -2.9028007523943202
            ]
        },
        {
            "positions": [
                -0.1812077781617161,
                -1.1403438414469536,
                1.8373430927350523,
                -0.9685348781944259,
                0.4072952782812272,
                -2.961388459381542
            ]
        },
        {
            "positions": [
                -0.07980322495227016,
                -1.142764086088515,
                1.8873674244949405,
                -0.924899066734899,
                0.3177816576539026,
                -3.019976166368764
            ]
        },
        {
            "positions": [
                0.021601328257175756,
                -1.1451843307300766,
                1.9373917562548288,
                -0.8812632552753721,
                0.228268037026578,
                -3.0785638733559857
            ]
        },
        {
            "positions": [
                0.12300588146662172,
                -1.1476045753716382,
                1.987416088014717,
                -0.8376274438158451,
                0.13875441639925343,
                -3.1371515803432075
            ]
        }
    ]
}