{
    "goal": {
        "global_pose": {
            "orientation": {
                "w": 0.7047431468963623,
                "x": -0.7094548344612122,
                "y": 0.0024358443915843964,
                "z": -0.0022348060738295317
            },
            "position": {
                "x": 0.6094750761985779,
                "y": 0.3671506643295288,
                "z": 0.19426114857196808
            }
        },
        "name": "move_to_magneteinheit_A"
    },
    "id": "FMT_move_to_magneteinheit_A_123",
    "joint_names": [
        "shoulder_pan_joint",
        "shoulder_lift_joint",
        "elbow_joint",
        "wrist_1_joint",
        "wrist_2_joint",
        "wrist_3_joint"
    ],
    "metrics": {
        "cart_traj_len": 3.1417025953524345,
        "distance_elbow_joint": 3.912971424487055,
        "distance_shoulder_lift_joint": 0.46889582647456274,
        "distance_shoulder_pan_joint": 3.3496385987667314,
        "distance_wrist_1_joint": 3.459790717660195,
        "distance_wrist_2_joint": 1.4316466939211199,
        "distance_wrist_3_joint": 0.5307356045668987,
        "smoothness": 0.15015541064612756,
        "time": 1.208973921,
        "traj_len": 3.626800086284956,
        "weighted_distance": 4.371108267544019
    },
    "planner": "FMT",
    "start": {
        "state": {
            "elbow_joint": -1.919618573717145,
            "shoulder_lift_joint": -1.2443395971678275,
            "shoulder_pan_joint": 2.6996025300909787,
            "wrist_1_joint": -1.548550951253194,
            "wrist_2_joint": -1.5709469090946802,
            "wrist_3_joint": 0.4420197732051276
        }
    },
    "waypoints": [
        {
            "positions": [
                2.6996025300909787,
                -1.2443395971678275,
                -1.919618573717145,
                -1.548550951253194,
                -1.5709469090946802,
                0.4420197732051276
            ]
        },
        {
            "positions": [
                2.4908445271167223,
                -1.2297058789386186,
                -1.8630448862648112,
                -1.470744564555745,
                -1.5481766070867122,
                0.4481453544625299
            ]
        },
        {
            "positions": [
                2.2820865241424655,
                -1.21507216070941,
                -1.8064711988124778,
                -1.3929381778582963,
                -1.5254063050787443,
                0.4542709357199322
            ]
        },
        {
            "positions": [
                2.073328521168209,
                -1.200438442480201,
                -1.749897511360144,
                -1.3151317911608473,
                -1.5026360030707766,
                0.4603965169773345
            ]
        },
        {
            "positions": [
                1.8645705181939523,
                -1.1858047242509921,
                -1.6933238239078103,
                -1.2373254044633986,
                -1.4798657010628087,
                0.4665220982347368
            ]
        },
        {
            "positions": [
                1.6558125152196956,
                -1.1711710060217835,
                -1.6367501364554766,
                -1.1595190177659496,
                -1.4570953990548408,
                0.47264767949213915
            ]
        },
        {
            "positions": [
                1.4470545122454392,
                -1.1565372877925746,
                -1.580176449003143,
                -1.0817126310685006,
                -1.4343250970468728,
                0.4787732607495414
            ]
        },
        {
            "positions": [
                1.2382965092711826,
                -1.1419035695633657,
                -1.5236027615508094,
                -1.0039062443710516,
                -1.4115547950389051,
                0.4848988420069437
            ]
        },
        {
            "positions": [
                1.029538506296926,
                -1.127269851334157,
                -1.4670290740984757,
                -0.9260998576736028,
                -1.3887844930309372,
                0.49102442326434603
            ]
        },
        {
            "positions": [
                0.8207805033226694,
                -1.1126361331049481,
                -1.410455386646142,
                -0.8482934709761538,
                -1.3660141910229693,
                0.49715000452174835
            ]
        },
        {
            "positions": [
                0.7637183485312413,
                -1.11117017974317,
                -1.231690214909643,
                -0.7488219088849022,
                -1.3207532684703105,
                0.49214889166544745
            ]
        },
        {
            "positions": [
                0.7066561937398133,
                -1.1097042263813914,
                -1.0529250431731438,
                -0.6493503467936506,
                -1.2754923459176517,
                0.4871477788091465
            ]
        },
        {
            "positions": [
                0.6495940389483853,
                -1.1082382730196132,
                -0.8741598714366449,
                -0.549878784702399,
                -1.230231423364993,
                0.4821466659528456
            ]
        },
        {
            "positions": [
                0.5925318841569572,
                -1.106772319657835,
                -0.6953946997001458,
                -0.4504072226111474,
                -1.1849705008123341,
                0.4771455530965447
            ]
        },
        {
            "positions": [
                0.5354697293655292,
                -1.1053063662960565,
                -0.5166295279636467,
                -0.35093566051989583,
                -1.1397095782596751,
                0.4721444402402438
            ]
        },
        {
            "positions": [
                0.47840757457410116,
                -1.1038404129342783,
                -0.3378643562271477,
                -0.25146409842864426,
                -1.0944486557070165,
                0.4671433273839429
            ]
        },
        {
            "positions": [
                0.4213454197826731,
                -1.1023744595725,
                -0.15909918449064864,
                -0.15199253633739263,
                -1.0491877331543575,
                0.462142214527642
            ]
        },
        {
            "positions": [
                0.3642832649912451,
                -1.1009085062107216,
                0.019665987245850447,
                -0.052520974246140995,
                -1.0039268106016987,
                0.4571411016713411
            ]
        },
        {
            "positions": [
                0.307221110199817,
                -1.0994425528489433,
                0.19843115898234953,
                0.046950587845110636,
                -0.95866588804904,
                0.4521399888150402
            ]
        },
        {
            "positions": [
                0.25015895540838895,
                -1.097976599487165,
                0.3771963307188486,
                0.14642214993636216,
                -0.9134049654963812,
                0.44713887595873925
            ]
        },
        {
            "positions": [
                0.19309680061696088,
                -1.0965106461253868,
                0.5559615024553477,
                0.2458937120276139,
                -0.8681440429437224,
                0.44213776310243835
            ]
        },
        {
            "positions": [
                0.13603464582553293,
                -1.0950446927636084,
                0.7347266741918466,
                0.3453652741188653,
                -0.8228831203910636,
                0.43713665024613746
            ]
        },
        {
            "positions": [
                0.07897249103410486,
                -1.0935787394018301,
                0.9134918459283456,
                0.44483683621011716,
                -0.7776221978384047,
                0.43213553738983657
            ]
        },
        {
            "positions": [
                0.021910336242676798,
                -1.092112786040052,
                1.0922570176648447,
                0.5443083983013686,
                -0.7323612752857459,
                0.4271344245335357
            ]
        },
        {
            "positions": [
                -0.03515181854875127,
                -1.0906468326782734,
                1.2710221894013438,
                0.6437799603926204,
                -0.6871003527330871,
                0.4221333116772347
            ]
        },
        {
            "positions": [
                -0.09221397334017922,
                -1.0891808793164952,
                1.449787361137843,
                0.7432515224838718,
                -0.6418394301804283,
                0.41713219882093383
            ]
        },
        {
            "positions": [
                -0.1492761281316073,
                -1.087714925954717,
                1.628552532874342,
                0.8427230845751235,
                -0.5965785076277694,
                0.4121310859646329
            ]
        },
        {
            "positions": [
                -0.20633828292303535,
                -1.0862489725929385,
                1.807317704610841,
                0.9421946466663751,
                -0.5513175850751107,
                0.407129973108332
            ]
        },
        {
            "positions": [
                -0.2634004377144635,
                -1.0847830192311603,
                1.9860828763473402,
                1.0416662087576267,
                -0.5060566625224518,
                0.4021288602520311
            ]
        },
        {
            "positions": [
                -0.19896116588758148,
                -1.0332264778081777,
                1.9872945387511018,
                1.1865951350325226,
                -0.4449305879643033,
                0.33869815542193765
            ]
        },
        {
            "positions": [
                -0.13452189406069948,
                -0.9816699363851951,
                1.9885062011548633,
                1.3315240613074182,
                -0.38380451340615473,
                0.2752674505918442
            ]
        },
        {
            "positions": [
                -0.07008262223381748,
                -0.9301133949622125,
                1.989717863558625,
                1.476452987582314,
                -0.3226784388480062,
                0.2118367457617507
            ]
        },
        {
            "positions": [
                -0.005643350406935477,
                -0.87855685353923,
                1.9909295259623867,
                1.6213819138572099,
                -0.2615523642898576,
                0.14840604093165727
            ]
        },
        {
            "positions": [
                0.05879592141994655,
                -0.8270003121162472,
                1.9921411883661482,
                1.7663108401321055,
                -0.20042628973170906,
                0.08497533610156377
            ]
        },
        {
            "positions": [
                0.12323519324682852,
                -0.7754437706932648,
                1.9933528507699099,
                1.9112397664070013,
                -0.1393002151735605,
                0.02154463127147033
            ]
        }
    ]
}{
    "goal": {
        "global_pose": {
            "orientation": {
                "w": 0.7047431468963623,
                "x": -0.7094548344612122,
                "y": 0.0024358443915843964,
                "z": -0.0022348060738295317
            },
            "position": {
                "x": 0.6094750761985779,
                "y": 0.3671506643295288,
                "z": 0.19426114857196808
            }
        },
        "name": "move_to_magneteinheit_A"
    },
    "id": "FMT_move_to_magneteinheit_A_123",
    "joint_names": [
        "shoulder_pan_joint",
        "shoulder_lift_joint",
        "elbow_joint",
        "wrist_1_joint",
        "wrist_2_joint",
        "wrist_3_joint"
    ],
    "metrics": {
        "cart_traj_len": 1.136110321286801,
        "distance_elbow_joint": 0.5008383401958141,
        "distance_shoulder_lift_joint": 0.7494403553510125,
        "distance_shoulder_pan_joint": 1.240781205038355,
        "distance_wrist_1_joint": 0.7250149211495578,
        "distance_wrist_2_joint": 1.8661532329023742,
        "distance_wrist_3_joint": 4.2309644797394075,
        "smoothness": 0.23706329409563984,
        "time": 1.076894834,
        "traj_len": 3.051752371077398,
        "weighted_distance": 4.5129025746084155
    },
    "planner": "FMT",
    "start": {
        "state": {
            "elbow_joint": 1.919643534880228,
            "shoulder_lift_joint": -1.8972525353963687,
            "shoulder_pan_joint": -1.1188672234189438,
            "wrist_1_joint": -1.5931878212786155,
            "wrist_2_joint": 1.5706036197970081,
            "wrist_3_joint": 1.118896926603594
        }
    },
    "waypoints": [
        {
            "positions": [
                -1.1188672234189438,
                -1.8972525353963687,
                1.919643534880228,
                -1.5931878212786155,
                1.5706036197970081,
                1.118896926603594
            ]
        },
        {
            "positions": [
                -1.0713411844192546,
                -1.8757615050576875,
                1.9339022776641441,
                -1.5720088202957987,
                1.4877914504341696,
                0.9106651230197975
            ]
        },
        {
            "positions": [
                -1.0238151454195652,
                -1.8542704747190064,
                1.9481610204480604,
                -1.5508298193129817,
                1.404979281071331,
                0.702433319436001
            ]
        },
        {
            "positions": [
                -0.976289106419876,
                -1.8327794443803251,
                1.9624197632319764,
                -1.529650818330165,
                1.3221671117084925,
                0.4942015158522045
            ]
        },
        {
            "positions": [
                -0.9287630674201868,
                -1.8112884140416439,
                1.9766785060158927,
                -1.5084718173473481,
                1.239354942345654,
                0.28596971226840795
            ]
        },
        {
            "positions": [
                -0.8812370284204976,
                -1.7897973837029628,
                1.9909372487998087,
                -1.4872928163645311,
                1.1565427729828155,
                0.0777379086846115
            ]
        },
        {
            "positions": [
                -0.8337109894208082,
                -1.7683063533642815,
                2.005195991583725,
                -1.4661138153817144,
                1.073730603619977,
                -0.13049389489918495
            ]
        },
        {
            "positions": [
                -0.7861849504211189,
                -1.7468153230256003,
                2.019454734367641,
                -1.4449348143988976,
                0.9909184342571385,
                -0.3387256984829814
            ]
        },
        {
            "positions": [
                -0.7386589114214297,
                -1.725324292686919,
                2.033713477151557,
                -1.4237558134160806,
                0.9081062648942999,
                -0.5469575020667781
            ]
        },
        {
            "positions": [
                -0.6911328724217405,
                -1.703833262348238,
                2.0479722199354735,
                -1.4025768124332638,
                0.8252940955314615,
                -0.7551893056505745
            ]
        },
        {
            "positions": [
                -0.6436068334220512,
                -1.6823422320095567,
                2.0622309627193895,
                -1.381397811450447,
                0.742481926168623,
                -0.963421109234371
            ]
        },
        {
            "positions": [
                -0.5960807944223618,
                -1.6608512016708754,
                2.0764897055033056,
                -1.3602188104676303,
                0.6596697568057843,
                -1.1716529128181679
            ]
        },
        {
            "positions": [
                -0.5485547554226726,
                -1.6393601713321944,
                2.0907484482872216,
                -1.3390398094848135,
                0.576857587442946,
                -1.3798847164019639
            ]
        },
        {
            "positions": [
                -0.5010287164229833,
                -1.617869140993513,
                2.1050071910711377,
                -1.3178608085019965,
                0.49404541808010727,
                -1.5881165199857608
            ]
        },
        {
            "positions": [
                -0.4535026774232941,
                -1.5963781106548318,
                2.119265933855054,
                -1.2966818075191797,
                0.41123324871726896,
                -1.7963483235695568
            ]
        },
        {
            "positions": [
                -0.40597663842360476,
                -1.5748870803161505,
                2.13352467663897,
                -1.275502806536363,
                0.32842107935443043,
                -2.0045801271533534
            ]
        },
        {
            "positions": [
                -0.35845059942391555,
                -1.5533960499774695,
                2.147783419422886,
                -1.254323805553546,
                0.24560890999159168,
                -2.21281193073715
            ]
        },
        {
            "positions": [
                -0.31092456042422634,
                -1.5319050196387882,
                2.1620421622068022,
                -1.2331448045707292,
                0.16279674062875338,
                -2.4210437343209463
            ]
        },
        {
            "positions": [
                -0.263398521424537,
                -1.510413989300107,
                2.1763009049907187,
                -1.2119658035879124,
                0.07998457126591485,
                -2.6292755379047428
            ]
        },
        {
            "positions": [
                -0.2158724824248478,
                -1.488922958961426,
                2.1905596477746347,
                -1.1907868026050954,
                -0.002827598096923678,
                -2.8375073414885392
            ]
        },
        {
            "positions": [
                -0.16834644342515848,
                -1.4674319286227446,
                2.2048183905585508,
                -1.1696078016222786,
                -0.08563976745976218,
                -3.045739145072336
            ]
        },
        {
            "positions": [
                -0.09578133716401604,
                -1.3875269914783974,
                2.1509025194291778,
                -1.0942490762489734,
                -0.03316230604836126,
                -3.0623212470882057
            ]
        },
        {
            "positions": [
                -0.023216230902873614,
                -1.3076220543340504,
                2.096986648299805,
                -1.0188903508756681,
                0.019315155363039654,
                -3.0789033491040754
            ]
        },
        {
            "positions": [
                0.04934887535826882,
                -1.2277171171897034,
                2.043070777170432,
                -0.9435316255023629,
                0.07179261677444057,
                -3.095485451119945
            ]
        },
        {
            "positions": [
                0.12191398161941122,
                -1.1478121800453562,
                1.9891549060410594,
                -0.8681729001290577,
                0.12427007818584149,
                -3.1120675531358146
            ]
        }
    ]
}