{
    "goal": {
        "global_pose": {
            "orientation": {
                "w": 0.5084816217422485,
                "x": -0.49083608388900757,
                "y": 0.5182115435600281,
                "z": -0.4816462993621826
            },
            "position": {
                "x": 0.5540239810943604,
                "y": 0.030875300988554955,
                "z": 0.16403168439865112
            }
        },
        "name": "move_to_storage_A"
    },
    "id": "FMT_move_to_storage_A_49",
    "joint_names": [
        "shoulder_pan_joint",
        "shoulder_lift_joint",
        "elbow_joint",
        "wrist_1_joint",
        "wrist_2_joint",
        "wrist_3_joint"
    ],
    "metrics": {
        "cart_traj_len": 0.35369745016979376,
        "distance_elbow_joint": 0.44834450204961884,
        "distance_shoulder_lift_joint": 0.23481141180633136,
        "distance_shoulder_pan_joint": 0.46110097715750337,
        "distance_wrist_1_joint": 0.23574578213670583,
        "distance_wrist_2_joint": 1.106063697489398,
        "distance_wrist_3_joint": 0.0882721362372707,
        "smoothness": 4.440892098500626e-16,
        "time": 0.368337494,
        "traj_len": 1.6044745267148457,
        "weighted_distance": 2.0230403503087806
    },
    "planner": "FMT",
    "start": {
        "state": {
            "elbow_joint": 1.9715477243005601,
            "shoulder_lift_joint": -1.1394853015351272,
            "shoulder_pan_joint": 0.12281154014795169,
            "wrist_1_joint": -0.7804696478968182,
            "wrist_2_joint": 0.12958648046900423,
            "wrist_3_joint": -3.192491284697111
        }
    },
    "waypoints": [
        {
            "positions": [
                0.12281154014795169,
                -1.1394853015351272,
                1.9715477243005601,
                -0.7804696478968182,
                0.12958648046900423,
                -3.192491284697111
            ]
        },
        {
            "positions": [
                0.05693997198259407,
                -1.1730297889360317,
                2.035596938879077,
                -0.8141476167734905,
                0.2875955801103468,
                -3.1798809795203584
            ]
        },
        {
            "positions": [
                -0.008931596182763554,
                -1.206574276336936,
                2.099646153457594,
                -0.8478255856501626,
                0.4456046797516894,
                -3.167270674343605
            ]
        },
        {
            "positions": [
                -0.07480316434812116,
                -1.2401187637378406,
                2.163695368036111,
                -0.8815035545268349,
                0.603613779393032,
                -3.1546603691668524
            ]
        },
        {
            "positions": [
                -0.14067473251347878,
                -1.2736632511387451,
                2.227744582614628,
                -0.9151815234035072,
                0.7616228790343745,
                -3.1420500639900992
            ]
        },
        {
            "positions": [
                -0.20654630067883645,
                -1.3072077385396497,
                2.291793797193145,
                -0.9488594922801794,
                0.9196319786757171,
                -3.1294397588133465
            ]
        },
        {
            "positions": [
                -0.272417868844194,
                -1.340752225940554,
                2.355843011771662,
                -0.9825374611568517,
                1.0776410783170598,
                -3.1168294536365933
            ]
        },
        {
            "positions": [
                -0.33828943700955166,
                -1.3742967133414585,
                2.419892226350179,
                -1.016215430033524,
                1.2356501779584024,
                -3.1042191484598405
            ]
        }
    ]
}