{
    "goal": {
        "global_pose": {
            "orientation": {
                "w": 0.7047431468963623,
                "x": -0.7094548344612122,
                "y": 0.0024358443915843964,
                "z": -0.0022348060738295317
            },
            "position": {
                "x": 0.6094750761985779,
                "y": 0.3671506643295288,
                "z": 0.19426114857196808
            }
        },
        "name": "move_to_magneteinheit_A"
    },
    "id": "FMT_move_to_magneteinheit_A_1",
    "joint_names": [
        "shoulder_pan_joint",
        "shoulder_lift_joint",
        "elbow_joint",
        "wrist_1_joint",
        "wrist_2_joint",
        "wrist_3_joint"
    ],
    "metrics": {
        "cart_traj_len": 3.159953157547112,
        "distance_elbow_joint": 3.880091816402504,
        "distance_shoulder_lift_joint": 1.17934737967811,
        "distance_shoulder_pan_joint": 2.9806852069909278,
        "distance_wrist_1_joint": 0.81224398956852,
        "distance_wrist_2_joint": 1.6939142330329715,
        "distance_wrist_3_joint": 2.61656382310341,
        "smoothness": 0.07875728542187624,
        "time": 1.226578408,
        "traj_len": 3.628063732733542,
        "weighted_distance": 4.571884985165829
    },
    "planner": "FMT",
    "start": {
        "state": {
            "elbow_joint": -1.919618573717145,
            "shoulder_lift_joint": -1.2443395971678275,
            "shoulder_pan_joint": 2.6996025300909787,
            "wrist_1_joint": -1.548550951253194,
            "wrist_2_joint": -1.5709469090946802,
            "wrist_3_joint": 0.4420197732051276
        }
    },
    "waypoints": [
        {
            "positions": [
                2.6996025300909787,
                -1.2443395971678275,
                -1.919618573717145,
                -1.548550951253194,
                -1.5709469090946802,
                0.4420197732051276
            ]
        },
        {
            "positions": [
                2.592735018665054,
                -1.2648755932792248,
                -1.779591665093172,
                -1.5271205688851286,
                -1.5150016821501622,
                0.4865311001243093
            ]
        },
        {
            "positions": [
                2.485867507239129,
                -1.285411589390622,
                -1.6395647564691989,
                -1.505690186517063,
                -1.4590564552056442,
                0.5310424270434909
            ]
        },
        {
            "positions": [
                2.3789999958132046,
                -1.3059475855020193,
                -1.499537847845226,
                -1.4842598041489976,
                -1.4031112282611262,
                0.5755537539626726
            ]
        },
        {
            "positions": [
                2.2721324843872797,
                -1.3264835816134164,
                -1.359510939221253,
                -1.462829421780932,
                -1.3471660013166082,
                0.6200650808818543
            ]
        },
        {
            "positions": [
                2.165264972961355,
                -1.3470195777248137,
                -1.2194840305972798,
                -1.4413990394128664,
                -1.29122077437209,
                0.664576407801036
            ]
        },
        {
            "positions": [
                2.05839746153543,
                -1.3675555738362108,
                -1.0794571219733071,
                -1.419968657044801,
                -1.235275547427572,
                0.7090877347202176
            ]
        },
        {
            "positions": [
                1.9515299501095056,
                -1.3880915699476082,
                -0.9394302133493341,
                -1.3985382746767354,
                -1.179330320483054,
                0.7535990616393993
            ]
        },
        {
            "positions": [
                1.8446624386835806,
                -1.4086275660590055,
                -0.799403304725361,
                -1.37710789230867,
                -1.123385093538536,
                0.798110388558581
            ]
        },
        {
            "positions": [
                1.737794927257656,
                -1.4291635621704026,
                -0.6593763961013881,
                -1.3556775099406044,
                -1.0674398665940181,
                0.8426217154777627
            ]
        },
        {
            "positions": [
                1.6309274158317313,
                -1.4496995582818,
                -0.5193494874774149,
                -1.334247127572539,
                -1.0114946396495,
                0.8871330423969443
            ]
        },
        {
            "positions": [
                1.5240599044058065,
                -1.470235554393197,
                -0.3793225788534422,
                -1.3128167452044734,
                -0.9555494127049822,
                0.931644369316126
            ]
        },
        {
            "positions": [
                1.4171923929798818,
                -1.4907715505045944,
                -0.23929567022946907,
                -1.2913863628364077,
                -0.8996041857604641,
                0.9761556962353077
            ]
        },
        {
            "positions": [
                1.310324881553957,
                -1.5113075466159915,
                -0.09926876160549614,
                -1.2699559804683422,
                -0.8436589588159461,
                1.0206670231544894
            ]
        },
        {
            "positions": [
                1.2034573701280322,
                -1.5318435427273889,
                0.0407581470184768,
                -1.2485255981002767,
                -0.7877137318714281,
                1.0651783500736711
            ]
        },
        {
            "positions": [
                1.0965898587021077,
                -1.5523795388387862,
                0.18078505564244973,
                -1.2270952157322113,
                -0.7317685049269101,
                1.1096896769928526
            ]
        },
        {
            "positions": [
                0.9897223472761827,
                -1.5729155349501833,
                0.3208119642664229,
                -1.2056648333641458,
                -0.6758232779823921,
                1.1542010039120345
            ]
        },
        {
            "positions": [
                0.8828548358502579,
                -1.5934515310615807,
                0.46083887289039605,
                -1.1842344509960803,
                -0.6198780510378741,
                1.198712330831216
            ]
        },
        {
            "positions": [
                0.7759873244243334,
                -1.6139875271729778,
                0.6008657815143688,
                -1.1628040686280148,
                -0.5639328240933561,
                1.2432236577503977
            ]
        },
        {
            "positions": [
                0.6691198129984084,
                -1.6345235232843751,
                0.7408926901383415,
                -1.141373686259949,
                -0.5079875971488381,
                1.2877349846695794
            ]
        },
        {
            "positions": [
                0.5622523015724838,
                -1.6550595193957724,
                0.8809195987623151,
                -1.1199433038918836,
                -0.4520423702043199,
                1.332246311588761
            ]
        },
        {
            "positions": [
                0.45538479014655886,
                -1.6755955155071696,
                1.0209465073862878,
                -1.098512921523818,
                -0.39609714325980194,
                1.3767576385079427
            ]
        },
        {
            "positions": [
                0.3485172787206343,
                -1.696131511618567,
                1.1609734160102605,
                -1.0770825391557526,
                -0.3401519163152842,
                1.4212689654271244
            ]
        },
        {
            "positions": [
                0.24164976729470977,
                -1.716667507729964,
                1.3010003246342337,
                -1.055652156787687,
                -0.2842066893707662,
                1.4657802923463061
            ]
        },
        {
            "positions": [
                0.13478225586878478,
                -1.7372035038413614,
                1.4410272332582068,
                -1.0342217744196214,
                -0.228261462426248,
                1.5102916192654878
            ]
        },
        {
            "positions": [
                0.027914744442859796,
                -1.7577394999527587,
                1.58105414188218,
                -1.012791392051556,
                -0.17231623548173003,
                1.5548029461846695
            ]
        },
        {
            "positions": [
                -0.0789527669830646,
                -1.7782754960641558,
                1.7210810505061527,
                -0.9913610096834905,
                -0.11637100853721198,
                1.5993142731038512
            ]
        },
        {
            "positions": [
                -0.06624248818704434,
                -1.7016747206912668,
                1.7685005389396684,
                -0.9731170704589163,
                -0.07620876955723482,
                1.797970762716
            ]
        },
        {
            "positions": [
                -0.05353220939102407,
                -1.6250739453183776,
                1.8159200273731844,
                -0.9548731312343421,
                -0.03604653057725765,
                1.9966272523281487
            ]
        },
        {
            "positions": [
                -0.0240806506702168,
                -1.5430389569790437,
                1.8400122299252137,
                -0.9184454363093975,
                -0.00954422149133288,
                2.17361997632488
            ]
        },
        {
            "positions": [
                0.00537090805059047,
                -1.4610039686397098,
                1.864104432477243,
                -0.8820177413844528,
                0.016958087594591893,
                2.3506127003216117
            ]
        },
        {
            "positions": [
                0.03482246677139775,
                -1.378968980300376,
                1.888196635029272,
                -0.8455900464595081,
                0.04346039668051667,
                2.5276054243183435
            ]
        },
        {
            "positions": [
                0.06427402549220501,
                -1.2969339919610419,
                1.9122888375813014,
                -0.8091623515345635,
                0.06996270576644144,
                2.7045981483150747
            ]
        },
        {
            "positions": [
                0.0937255842130123,
                -1.214899003621708,
                1.9363810401333308,
                -0.7727346566096188,
                0.09646501485236622,
                2.881590872311806
            ]
        },
        {
            "positions": [
                0.12317714293381958,
                -1.1328640152823741,
                1.96047324268536,
                -0.7363069616846741,
                0.12296732393829099,
                3.0585835963085377
            ]
        }
    ]
}{
    "goal": {
        "global_pose": {
            "orientation": {
                "w": 0.7047431468963623,
                "x": -0.7094548344612122,
                "y": 0.0024358443915843964,
                "z": -0.0022348060738295317
            },
            "position": {
                "x": 0.6094750761985779,
                "y": 0.3671506643295288,
                "z": 0.19426114857196808
            }
        },
        "name": "move_to_magneteinheit_A"
    },
    "id": "FMT_move_to_magneteinheit_A_1",
    "joint_names": [
        "shoulder_pan_joint",
        "shoulder_lift_joint",
        "elbow_joint",
        "wrist_1_joint",
        "wrist_2_joint",
        "wrist_3_joint"
    ],
    "metrics": {
        "cart_traj_len": 1.30152176401671,
        "distance_elbow_joint": 0.0742392838440975,
        "distance_shoulder_lift_joint": 0.9258059382619788,
        "distance_shoulder_pan_joint": 1.241153051594474,
        "distance_wrist_1_joint": 0.7313421674138487,
        "distance_wrist_2_joint": 1.432953055115311,
        "distance_wrist_3_joint": 4.543798071054269,
        "smoothness": 0.47909602702706894,
        "time": 1.098819486,
        "traj_len": 2.991536656516844,
        "weighted_distance": 4.49457260837131
    },
    "planner": "FMT",
    "start": {
        "state": {
            "elbow_joint": 1.919643534880228,
            "shoulder_lift_joint": -1.8972525353963687,
            "shoulder_pan_joint": -1.1188672234189438,
            "wrist_1_joint": -1.5931878212786155,
            "wrist_2_joint": 1.5706036197970081,
            "wrist_3_joint": 1.118896926603594
        }
    },
    "waypoints": [
        {
            "positions": [
                -1.1188672234189438,
                -1.8972525353963687,
                1.919643534880228,
                -1.5931878212786155,
                1.5706036197970081,
                1.118896926603594
            ]
        },
        {
            "positions": [
                -1.0631049159075698,
                -1.8592544328686966,
                1.9196108850110596,
                -1.5643646756479386,
                1.5127261359504893,
                0.9194861378464192
            ]
        },
        {
            "positions": [
                -1.007342608396196,
                -1.8212563303410243,
                1.9195782351418913,
                -1.5355415300172617,
                1.4548486521039705,
                0.7200753490892445
            ]
        },
        {
            "positions": [
                -0.9515803008848222,
                -1.7832582278133522,
                1.9195455852727228,
                -1.506718384386585,
                1.3969711682574517,
                0.5206645603320699
            ]
        },
        {
            "positions": [
                -0.8958179933734483,
                -1.7452601252856799,
                1.9195129354035543,
                -1.4778952387559081,
                1.3390936844109327,
                0.3212537715748951
            ]
        },
        {
            "positions": [
                -0.8400556858620744,
                -1.7072620227580078,
                1.9194802855343858,
                -1.4490720931252312,
                1.2812162005644139,
                0.12184298281772044
            ]
        },
        {
            "positions": [
                -0.7842933783507005,
                -1.6692639202303354,
                1.9194476356652175,
                -1.4202489474945543,
                1.223338716717895,
                -0.07756780593945423
            ]
        },
        {
            "positions": [
                -0.7285310708393266,
                -1.6312658177026633,
                1.919414985796049,
                -1.3914258018638777,
                1.1654612328713763,
                -0.276978594696629
            ]
        },
        {
            "positions": [
                -0.6727687633279527,
                -1.593267715174991,
                1.9193823359268805,
                -1.3626026562332008,
                1.1075837490248572,
                -0.47638938345380377
            ]
        },
        {
            "positions": [
                -0.6170064558165788,
                -1.5552696126473189,
                1.919349686057712,
                -1.3337795106025239,
                1.0497062651783384,
                -0.6758001722109785
            ]
        },
        {
            "positions": [
                -0.5612441483052049,
                -1.5172715101196466,
                1.9193170361885437,
                -1.304956364971847,
                0.9918287813318197,
                -0.8752109609681531
            ]
        },
        {
            "positions": [
                -0.505481840793831,
                -1.4792734075919745,
                1.9192843863193751,
                -1.2761332193411703,
                0.9339512974853008,
                -1.0746217497253279
            ]
        },
        {
            "positions": [
                -0.44971953328245706,
                -1.4412753050643023,
                1.9192517364502066,
                -1.2473100737104934,
                0.876073813638782,
                -1.2740325384825024
            ]
        },
        {
            "positions": [
                -0.39395722577108316,
                -1.40327720253663,
                1.9192190865810383,
                -1.2184869280798165,
                0.8181963297922631,
                -1.4734433272396774
            ]
        },
        {
            "positions": [
                -0.33819491825970927,
                -1.3652791000089577,
                1.9191864367118698,
                -1.1896637824491396,
                0.7603188459457443,
                -1.672854115996852
            ]
        },
        {
            "positions": [
                -0.2824326107483355,
                -1.3272809974812856,
                1.9191537868427013,
                -1.1608406368184627,
                0.7024413620992255,
                -1.8722649047540265
            ]
        },
        {
            "positions": [
                -0.22667030323696147,
                -1.2892828949536135,
                1.9191211369735328,
                -1.1320174911877858,
                0.6445638782527066,
                -2.0716756935112013
            ]
        },
        {
            "positions": [
                -0.17090799572558757,
                -1.2512847924259414,
                1.9190884871043645,
                -1.1031943455571092,
                0.5866863944061878,
                -2.271086482268376
            ]
        },
        {
            "positions": [
                -0.11514568821421367,
                -1.2132866898982688,
                1.919055837235196,
                -1.0743711999264323,
                0.5288089105596687,
                -2.4704972710255513
            ]
        },
        {
            "positions": [
                -0.05938338070283966,
                -1.1752885873705967,
                1.9190231873660275,
                -1.0455480542957556,
                0.4709314267131499,
                -2.669908059782726
            ]
        },
        {
            "positions": [
                -0.0036210731914658734,
                -1.1372904848429246,
                1.918990537496859,
                -1.0167249086650787,
                0.41305394286663133,
                -2.8693188485399004
            ]
        },
        {
            "positions": [
                0.052141234319908136,
                -1.0992923823152525,
                1.9189578876276907,
                -0.9879017630344017,
                0.3551764590201123,
                -3.068729637297075
            ]
        },
        {
            "positions": [
                0.10790354183128195,
                -1.0612942797875802,
                1.9189252377585222,
                -0.9590786174037249,
                0.2972989751735935,
                -3.2681404260542495
            ]
        },
        {
            "positions": [
                0.11509468500340599,
                -1.1062181211141753,
                1.955685731119718,
                -0.9104621356342458,
                0.2174747699276453,
                -3.189760066856037
            ]
        },
        {
            "positions": [
                0.12228582817553002,
                -1.1511419624407704,
                1.9924462244809138,
                -0.8618456538647667,
                0.13765056468169712,
                -3.1113797076578247
            ]
        }
    ]
}