{
    "goal": {
        "global_pose": {
            "orientation": {
                "w": 0.5084816217422485,
                "x": -0.49083608388900757,
                "y": 0.5182115435600281,
                "z": -0.4816462993621826
            },
            "position": {
                "x": 0.5540239810943604,
                "y": 0.030875300988554955,
                "z": 0.16403168439865112
            }
        },
        "name": "move_to_storage_A"
    },
    "id": "FMT_move_to_storage_A_104",
    "joint_names": [
        "shoulder_pan_joint",
        "shoulder_lift_joint",
        "elbow_joint",
        "wrist_1_joint",
        "wrist_2_joint",
        "wrist_3_joint"
    ],
    "metrics": {
        "cart_traj_len": 0.35303042154281045,
        "distance_elbow_joint": 0.4496699668983628,
        "distance_shoulder_lift_joint": 0.23731561803143264,
        "distance_shoulder_pan_joint": 0.4611681388919339,
        "distance_wrist_1_joint": 0.2354274188748252,
        "distance_wrist_2_joint": 1.1023261703716534,
        "distance_wrist_3_joint": 0.09192582081366307,
        "smoothness": 2.2204460668324854e-16,
        "time": 0.466859201,
        "traj_len": 1.6055631827747767,
        "weighted_distance": 2.0247069824435524
    },
    "planner": "FMT",
    "start": {
        "state": {
            "elbow_joint": 1.9715477243005601,
            "shoulder_lift_joint": -1.1394853015351272,
            "shoulder_pan_joint": 0.12281154014795169,
            "wrist_1_joint": -0.7804696478968182,
            "wrist_2_joint": 0.12958648046900423,
            "wrist_3_joint": -3.192491284697111
        }
    },
    "waypoints": [
        {
            "positions": [
                0.12281154014795169,
                -1.1394853015351272,
                1.9715477243005601,
                -0.7804696478968182,
                0.12958648046900423,
                -3.192491284697111
            ]
        },
        {
            "positions": [
                0.056930377449103994,
                -1.1733875326824748,
                2.0357862910003264,
                -0.8141021363075075,
                0.2870616476649547,
                -3.1793590245808736
            ]
        },
        {
            "positions": [
                -0.0089507852497437,
                -1.2072897638298221,
                2.100024857700092,
                -0.8477346247181968,
                0.4445368148609052,
                -3.166226764464636
            ]
        },
        {
            "positions": [
                -0.0748319479485914,
                -1.2411919949771697,
                2.1642634243998584,
                -0.881367113128886,
                0.6020119820568557,
                -3.1530945043483984
            ]
        },
        {
            "positions": [
                -0.14071311064743908,
                -1.2750942261245173,
                2.2285019910996247,
                -0.9149996015395754,
                0.7594871492528061,
                -3.139962244232161
            ]
        },
        {
            "positions": [
                -0.20659427334628683,
                -1.3089964572718649,
                2.292740557799391,
                -0.9486320899502647,
                0.9169623164487567,
                -3.1268299841159233
            ]
        },
        {
            "positions": [
                -0.27247543604513447,
                -1.3428986884192122,
                2.3569791244991567,
                -0.982264578360954,
                1.074437483644707,
                -3.1136977239996857
            ]
        },
        {
            "positions": [
                -0.3383565987439822,
                -1.3768009195665598,
                2.421217691198923,
                -1.0158970667716434,
                1.2319126508406577,
                -3.100565463883448
            ]
        }
    ]
}