{
    "goal": {
        "global_pose": {
            "orientation": {
                "w": 0.5084816217422485,
                "x": -0.49083608388900757,
                "y": 0.5182115435600281,
                "z": -0.4816462993621826
            },
            "position": {
                "x": 0.5540239810943604,
                "y": 0.030875300988554955,
                "z": 0.16403168439865112
            }
        },
        "name": "move_to_storage_A"
    },
    "id": "FMT_move_to_storage_A_24",
    "joint_names": [
        "shoulder_pan_joint",
        "shoulder_lift_joint",
        "elbow_joint",
        "wrist_1_joint",
        "wrist_2_joint",
        "wrist_3_joint"
    ],
    "metrics": {
        "cart_traj_len": 0.35243525846403523,
        "distance_elbow_joint": 0.44827247345115584,
        "distance_shoulder_lift_joint": 0.23617547143279127,
        "distance_shoulder_pan_joint": 0.45915020546149754,
        "distance_wrist_1_joint": 0.2331418448967616,
        "distance_wrist_2_joint": 1.1056793826300844,
        "distance_wrist_3_joint": 0.09278131369469333,
        "smoothness": 8.881784197001252e-16,
        "time": 0.38986508999999997,
        "traj_len": 1.6047431855493215,
        "weighted_distance": 2.0247430815990497
    },
    "planner": "FMT",
    "start": {
        "state": {
            "elbow_joint": 1.9715477243005601,
            "shoulder_lift_joint": -1.1394853015351272,
            "shoulder_pan_joint": 0.12281154014795169,
            "wrist_1_joint": -0.7804696478968182,
            "wrist_2_joint": 0.12958648046900423,
            "wrist_3_joint": -3.192491284697111
        }
    },
    "waypoints": [
        {
            "positions": [
                0.12281154014795169,
                -1.1394853015351272,
                1.9715477243005601,
                -0.7804696478968182,
                0.12958648046900423,
                -3.192491284697111
            ]
        },
        {
            "positions": [
                0.05721865365345205,
                -1.1732246545969545,
                2.035586649079297,
                -0.8137756257392127,
                0.2875406779875877,
                -3.179236811312155
            ]
        },
        {
            "positions": [
                -0.008374232841047588,
                -1.2069640076587818,
                2.099625573858033,
                -0.8470816035816072,
                0.4454948755061712,
                -3.1659823379271987
            ]
        },
        {
            "positions": [
                -0.07396711933554724,
                -1.240703360720609,
                2.16366449863677,
                -0.8803875814240016,
                0.6034490730247546,
                -3.1527278645422427
            ]
        },
        {
            "positions": [
                -0.13956000583004685,
                -1.2744427137824363,
                2.227703423415506,
                -0.9136935592663962,
                0.7614032705433381,
                -3.1394733911572863
            ]
        },
        {
            "positions": [
                -0.20515289232454653,
                -1.3081820668442639,
                2.291742348194243,
                -0.9469995371087907,
                0.9193574680619216,
                -3.1262189177723303
            ]
        },
        {
            "positions": [
                -0.27074577881904616,
                -1.3419214199060912,
                2.3557812729729792,
                -0.9803055149511852,
                1.077311665580505,
                -3.112964444387374
            ]
        },
        {
            "positions": [
                -0.33633866531354584,
                -1.3756607729679184,
                2.419820197751716,
                -1.0136114927935798,
                1.2352658630990885,
                -3.099709971002418
            ]
        }
    ]
}