{
    "goal": {
        "global_pose": {
            "orientation": {
                "w": 0.7047431468963623,
                "x": -0.7094548344612122,
                "y": 0.0024358443915843964,
                "z": -0.0022348060738295317
            },
            "position": {
                "x": 0.6094750761985779,
                "y": 0.3671506643295288,
                "z": 0.19426114857196808
            }
        },
        "name": "move_to_magneteinheit_A"
    },
    "id": "FMT_move_to_magneteinheit_A_91",
    "joint_names": [
        "shoulder_pan_joint",
        "shoulder_lift_joint",
        "elbow_joint",
        "wrist_1_joint",
        "wrist_2_joint",
        "wrist_3_joint"
    ],
    "metrics": {
        "cart_traj_len": 3.1448929574204234,
        "distance_elbow_joint": 3.9297688094020096,
        "distance_shoulder_lift_joint": 0.6954667681258835,
        "distance_shoulder_pan_joint": 3.556773308296952,
        "distance_wrist_1_joint": 3.5288264068569384,
        "distance_wrist_2_joint": 1.4332147175868877,
        "distance_wrist_3_joint": 0.5122634555111978,
        "smoothness": 0.2437944103747608,
        "time": 1.27183367,
        "traj_len": 3.695444961811753,
        "weighted_distance": 4.4320290501356245
    },
    "planner": "FMT",
    "start": {
        "state": {
            "elbow_joint": -1.919618573717145,
            "shoulder_lift_joint": -1.2443395971678275,
            "shoulder_pan_joint": 2.6996025300909787,
            "wrist_1_joint": -1.548550951253194,
            "wrist_2_joint": -1.5709469090946802,
            "wrist_3_joint": 0.4420197732051276
        }
    },
    "waypoints": [
        {
            "positions": [
                2.6996025300909787,
                -1.2443395971678275,
                -1.919618573717145,
                -1.548550951253194,
                -1.5709469090946802,
                0.4420197732051276
            ]
        },
        {
            "positions": [
                2.5973860553910786,
                -1.2482688262806487,
                -1.7978135489084976,
                -1.4361792190529665,
                -1.5312040557595972,
                0.4315613198859084
            ]
        },
        {
            "positions": [
                2.495169580691178,
                -1.25219805539347,
                -1.6760085240998501,
                -1.323807486852739,
                -1.4914612024245142,
                0.4211028665666892
            ]
        },
        {
            "positions": [
                2.392953105991278,
                -1.2561272845062912,
                -1.5542034992912028,
                -1.2114357546525114,
                -1.4517183490894312,
                0.41064441324747003
            ]
        },
        {
            "positions": [
                2.2907366312913777,
                -1.2600565136191126,
                -1.4323984744825555,
                -1.0990640224522839,
                -1.4119754957543482,
                0.40018595992825085
            ]
        },
        {
            "positions": [
                2.188520156591477,
                -1.2639857427319339,
                -1.3105934496739082,
                -0.9866922902520562,
                -1.3722326424192652,
                0.38972750660903166
            ]
        },
        {
            "positions": [
                2.086303681891577,
                -1.267914971844755,
                -1.1887884248652607,
                -0.8743205580518285,
                -1.3324897890841823,
                0.37926905328981253
            ]
        },
        {
            "positions": [
                1.9840872071916769,
                -1.2718442009575763,
                -1.0669834000566134,
                -0.761948825851601,
                -1.2927469357490993,
                0.36881059997059334
            ]
        },
        {
            "positions": [
                1.8818707324917763,
                -1.2757734300703976,
                -0.9451783752479661,
                -0.6495770936513734,
                -1.2530040824140163,
                0.35835214665137416
            ]
        },
        {
            "positions": [
                1.7796542577918761,
                -1.279702659183219,
                -0.8233733504393188,
                -0.5372053614511458,
                -1.2132612290789335,
                0.347893693332155
            ]
        },
        {
            "positions": [
                1.677437783091976,
                -1.2836318882960402,
                -0.7015683256306715,
                -0.4248336292509183,
                -1.1735183757438505,
                0.3374352400129358
            ]
        },
        {
            "positions": [
                1.5752213083920756,
                -1.2875611174088615,
                -0.579763300822024,
                -0.3124618970506907,
                -1.1337755224087676,
                0.3269767866937166
            ]
        },
        {
            "positions": [
                1.4730048336921753,
                -1.2914903465216827,
                -0.45795827601337646,
                -0.20009016485046294,
                -1.0940326690736846,
                0.3165183333744974
            ]
        },
        {
            "positions": [
                1.370788358992275,
                -1.295419575634504,
                -0.33615325120472916,
                -0.08771843265023538,
                -1.0542898157386016,
                0.30605988005527823
            ]
        },
        {
            "positions": [
                1.2685718842923748,
                -1.2993488047473252,
                -0.21434822639608186,
                0.02465329954999218,
                -1.0145469624035186,
                0.29560142673605905
            ]
        },
        {
            "positions": [
                1.1663554095924744,
                -1.3032780338601464,
                -0.09254320158743456,
                0.13702503175021974,
                -0.9748041090684356,
                0.2851429734168399
            ]
        },
        {
            "positions": [
                1.064138934892574,
                -1.3072072629729679,
                0.029261823221212735,
                0.2493967639504473,
                -0.9350612557333526,
                0.2746845200976207
            ]
        },
        {
            "positions": [
                0.9619224601926739,
                -1.311136492085789,
                0.15106684802986003,
                0.36176849615067486,
                -0.8953184023982697,
                0.26422606677840155
            ]
        },
        {
            "positions": [
                0.8597059854927736,
                -1.3150657211986103,
                0.27287187283850733,
                0.4741402283509024,
                -0.8555755490631868,
                0.25376761345918236
            ]
        },
        {
            "positions": [
                0.7574895107928734,
                -1.3189949503114315,
                0.39467689764715463,
                0.58651196055113,
                -0.8158326957281038,
                0.24330916013996318
            ]
        },
        {
            "positions": [
                0.6552730360929733,
                -1.3229241794242528,
                0.5164819224558019,
                0.6988836927513575,
                -0.7760898423930208,
                0.232850706820744
            ]
        },
        {
            "positions": [
                0.5530565613930727,
                -1.3268534085370742,
                0.6382869472644492,
                0.8112554249515851,
                -0.7363469890579378,
                0.22239225350152483
            ]
        },
        {
            "positions": [
                0.45084008669317255,
                -1.3307826376498955,
                0.760091972073097,
                0.9236271571518126,
                -0.6966041357228548,
                0.21193380018230565
            ]
        },
        {
            "positions": [
                0.34862361199327196,
                -1.3347118667627167,
                0.8818969968817443,
                1.0359988893520407,
                -0.6568612823877719,
                0.20147534686308644
            ]
        },
        {
            "positions": [
                0.24640713729337183,
                -1.338641095875538,
                1.003702021690392,
                1.1483706215522682,
                -0.6171184290526889,
                0.19101689354386725
            ]
        },
        {
            "positions": [
                0.14419066259347124,
                -1.3425703249883592,
                1.1255070464990393,
                1.2607423537524958,
                -0.5773755757176059,
                0.18055844022464806
            ]
        },
        {
            "positions": [
                0.0419741878935711,
                -1.3464995541011804,
                1.2473120713076866,
                1.3731140859527233,
                -0.537632722382523,
                0.17009998690542888
            ]
        },
        {
            "positions": [
                -0.06024228680632904,
                -1.3504287832140016,
                1.369117096116334,
                1.4854858181529509,
                -0.49788986904744004,
                0.15964153358620975
            ]
        },
        {
            "positions": [
                -0.16245876150622918,
                -1.354358012326823,
                1.4909221209249812,
                1.5978575503531784,
                -0.45814701571235705,
                0.14918308026699056
            ]
        },
        {
            "positions": [
                -0.26467523620612976,
                -1.3582872414396443,
                1.6127271457336285,
                1.710229282553406,
                -0.41840416237727407,
                0.13872462694777138
            ]
        },
        {
            "positions": [
                -0.3668917109060299,
                -1.3622164705524655,
                1.7345321705422756,
                1.8226010147536333,
                -0.37866130904219103,
                0.1282661736285522
            ]
        },
        {
            "positions": [
                -0.26883589744604125,
                -1.2466984916042165,
                1.7896557835707931,
                1.8541359029236555,
                -0.33047548553531136,
                0.08856420244162772
            ]
        },
        {
            "positions": [
                -0.17078008398605257,
                -1.1311805126559673,
                1.8447793965993107,
                1.8856707910936779,
                -0.28228966202843164,
                0.04886223125470325
            ]
        },
        {
            "positions": [
                -0.07272427052606395,
                -1.0156625337077183,
                1.8999030096278284,
                1.9172056792637,
                -0.234103838521552,
                0.0091602600677788
            ]
        },
        {
            "positions": [
                0.025331542933924756,
                -0.9001445547594691,
                1.955026622656346,
                1.9487405674337224,
                -0.1859180150146723,
                -0.030541711119145692
            ]
        },
        {
            "positions": [
                0.12338735639391339,
                -0.7846265758112201,
                2.0101502356848635,
                1.9802754556037445,
                -0.13773219150779265,
                -0.07024368230607013
            ]
        }
    ]
}{
    "goal": {
        "global_pose": {
            "orientation": {
                "w": 0.7047431468963623,
                "x": -0.7094548344612122,
                "y": 0.0024358443915843964,
                "z": -0.0022348060738295317
            },
            "position": {
                "x": 0.6094750761985779,
                "y": 0.3671506643295288,
                "z": 0.19426114857196808
            }
        },
        "name": "move_to_magneteinheit_A"
    },
    "id": "FMT_move_to_magneteinheit_A_91",
    "joint_names": [
        "shoulder_pan_joint",
        "shoulder_lift_joint",
        "elbow_joint",
        "wrist_1_joint",
        "wrist_2_joint",
        "wrist_3_joint"
    ],
    "metrics": {
        "cart_traj_len": 1.1878039873685564,
        "distance_elbow_joint": 0.18658643464991487,
        "distance_shoulder_lift_joint": 0.7466748184585361,
        "distance_shoulder_pan_joint": 1.2415663913531942,
        "distance_wrist_1_joint": 0.7321749418033315,
        "distance_wrist_2_joint": 1.437864916701391,
        "distance_wrist_3_joint": 4.234090174122972,
        "smoothness": 0.02592126321368693,
        "time": 1.14753521,
        "traj_len": 2.9289857761841964,
        "weighted_distance": 4.383740170657929
    },
    "planner": "FMT",
    "start": {
        "state": {
            "elbow_joint": 1.919643534880228,
            "shoulder_lift_joint": -1.8972525353963687,
            "shoulder_pan_joint": -1.1188672234189438,
            "wrist_1_joint": -1.5931878212786155,
            "wrist_2_joint": 1.5706036197970081,
            "wrist_3_joint": 1.118896926603594
        }
    },
    "waypoints": [
        {
            "positions": [
                -1.1188672234189438,
                -1.8972525353963687,
                1.919643534880228,
                -1.5931878212786155,
                1.5706036197970081,
                1.118896926603594
            ]
        },
        {
            "positions": [
                -1.0632121382357893,
                -1.8627789132922032,
                1.9267952302441722,
                -1.5633666472165202,
                1.5031382520652667,
                0.9207966624117616
            ]
        },
        {
            "positions": [
                -1.0075570530526345,
                -1.8283052911880378,
                1.933946925608116,
                -1.533545473154425,
                1.4356728843335254,
                0.7226963982199293
            ]
        },
        {
            "positions": [
                -0.95190196786948,
                -1.7938316690838723,
                1.9410986209720602,
                -1.5037242990923296,
                1.3682075166017837,
                0.5245961340280969
            ]
        },
        {
            "positions": [
                -0.8962468826863255,
                -1.7593580469797068,
                1.9482503163360043,
                -1.4739031250302344,
                1.3007421488700424,
                0.32649586983626455
            ]
        },
        {
            "positions": [
                -0.8405917975031708,
                -1.7248844248755413,
                1.9554020116999484,
                -1.444081950968139,
                1.2332767811383007,
                0.12839560564443198
            ]
        },
        {
            "positions": [
                -0.7849367123200163,
                -1.6904108027713758,
                1.9625537070638923,
                -1.4142607769060438,
                1.1658114134065594,
                -0.06970465854740016
            ]
        },
        {
            "positions": [
                -0.7292816271368616,
                -1.6559371806672103,
                1.9697054024278364,
                -1.3844396028439485,
                1.098346045674818,
                -0.26780492273923273
            ]
        },
        {
            "positions": [
                -0.6736265419537071,
                -1.6214635585630446,
                1.9768570977917805,
                -1.3546184287818535,
                1.0308806779430766,
                -0.46590518693106486
            ]
        },
        {
            "positions": [
                -0.6179714567705524,
                -1.5869899364588793,
                1.9840087931557244,
                -1.324797254719758,
                0.9634153102113351,
                -0.6640054511228974
            ]
        },
        {
            "positions": [
                -0.5623163715873978,
                -1.5525163143547136,
                1.9911604885196685,
                -1.294976080657663,
                0.8959499424795936,
                -0.86210571531473
            ]
        },
        {
            "positions": [
                -0.5066612864042431,
                -1.518042692250548,
                1.9983121838836126,
                -1.2651549065955674,
                0.8284845747478521,
                -1.0602059795065626
            ]
        },
        {
            "positions": [
                -0.4510062012210887,
                -1.4835690701463826,
                2.0054638792475568,
                -1.2353337325334723,
                0.7610192070161108,
                -1.2583062436983943
            ]
        },
        {
            "positions": [
                -0.39535111603793405,
                -1.4490954480422171,
                2.012615574611501,
                -1.205512558471377,
                0.6935538392843693,
                -1.4564065078902269
            ]
        },
        {
            "positions": [
                -0.3396960308547794,
                -1.4146218259380516,
                2.019767269975445,
                -1.1756913844092818,
                0.6260884715526278,
                -1.6545067720820594
            ]
        },
        {
            "positions": [
                -0.28404094567162474,
                -1.3801482038338861,
                2.0269189653393886,
                -1.1458702103471865,
                0.5586231038208864,
                -1.852607036273892
            ]
        },
        {
            "positions": [
                -0.22838586048847032,
                -1.3456745817297207,
                2.0340706607033328,
                -1.1160490362850912,
                0.49115773608914504,
                -2.0507073004657235
            ]
        },
        {
            "positions": [
                -0.17273077530531566,
                -1.3112009596255552,
                2.041222356067277,
                -1.086227862222996,
                0.4236923683574034,
                -2.2488075646575565
            ]
        },
        {
            "positions": [
                -0.1170756901221611,
                -1.2767273375213897,
                2.048374051431221,
                -1.0564066881609007,
                0.35622700062566204,
                -2.4469078288493886
            ]
        },
        {
            "positions": [
                -0.057131975608058314,
                -1.2451899323755005,
                2.0339100719064906,
                -1.0075582359894966,
                0.30035492624315074,
                -2.613979183516886
            ]
        },
        {
            "positions": [
                0.0028117389060444697,
                -1.2136525272296113,
                2.01944609238176,
                -0.9587097838180922,
                0.24448285186063948,
                -2.7810505381843837
            ]
        },
        {
            "positions": [
                0.06275545342014724,
                -1.1821151220837218,
                2.0049821128570295,
                -0.9098613316466881,
                0.1886107774781282,
                -2.948121892851881
            ]
        },
        {
            "positions": [
                0.12269916793425002,
                -1.1505777169378326,
                1.990518133332299,
                -0.8610128794752839,
                0.13273870309561692,
                -3.1151932475193784
            ]
        }
    ]
}