{
    "goal": {
        "global_pose": {
            "orientation": {
                "w": 0.5084816217422485,
                "x": -0.49083608388900757,
                "y": 0.5182115435600281,
                "z": -0.4816462993621826
            },
            "position": {
                "x": 0.5540239810943604,
                "y": 0.030875300988554955,
                "z": 0.16403168439865112
            }
        },
        "name": "move_to_storage_A"
    },
    "id": "FMT_move_to_storage_A_99",
    "joint_names": [
        "shoulder_pan_joint",
        "shoulder_lift_joint",
        "elbow_joint",
        "wrist_1_joint",
        "wrist_2_joint",
        "wrist_3_joint"
    ],
    "metrics": {
        "cart_traj_len": 0.3534303818263808,
        "distance_elbow_joint": 0.44819985345387714,
        "distance_shoulder_lift_joint": 0.23405419653738146,
        "distance_shoulder_pan_joint": 0.46034512014434864,
        "distance_wrist_1_joint": 0.2369655966033014,
        "distance_wrist_2_joint": 1.106863304261946,
        "distance_wrist_3_joint": 0.08762972186176832,
        "smoothness": 6.661338165333112e-16,
        "time": 0.36529722400000003,
        "traj_len": 1.604387045841066,
        "weighted_distance": 2.0231525245149973
    },
    "planner": "FMT",
    "start": {
        "state": {
            "elbow_joint": 1.9715477243005601,
            "shoulder_lift_joint": -1.1394853015351272,
            "shoulder_pan_joint": 0.12281154014795169,
            "wrist_1_joint": -0.7804696478968182,
            "wrist_2_joint": 0.12958648046900423,
            "wrist_3_joint": -3.192491284697111
        }
    },
    "waypoints": [
        {
            "positions": [
                0.12281154014795169,
                -1.1394853015351272,
                1.9715477243005601,
                -0.7804696478968182,
                0.12958648046900423,
                -3.192491284697111
            ]
        },
        {
            "positions": [
                0.057047951555901893,
                -1.1729216153261817,
                2.035576274793971,
                -0.8143218759830041,
                0.2877098096492822,
                -3.179972753002573
            ]
        },
        {
            "positions": [
                -0.008715637036147902,
                -1.2063579291172362,
                2.0996048252873822,
                -0.84817410406919,
                0.4458331388295602,
                -3.1674542213080343
            ]
        },
        {
            "positions": [
                -0.07447922562819771,
                -1.2397942429082907,
                2.163633375780793,
                -0.8820263321553758,
                0.6039564680098382,
                -3.154935689613496
            ]
        },
        {
            "positions": [
                -0.14024281422024748,
                -1.2732305566993452,
                2.2276619262742043,
                -0.9158785602415618,
                0.7620797971901162,
                -3.142417157918958
            ]
        },
        {
            "positions": [
                -0.20600640281229732,
                -1.3066668704903996,
                2.291690476767615,
                -0.9497307883277477,
                0.9202031263703943,
                -3.1298986262244197
            ]
        },
        {
            "positions": [
                -0.2717699914043471,
                -1.3401031842814541,
                2.355719027261026,
                -0.9835830164139336,
                1.0783264555506722,
                -3.117380094529881
            ]
        },
        {
            "positions": [
                -0.33753357999639694,
                -1.3735394980725086,
                2.4197475777544373,
                -1.0174352445001196,
                1.2364497847309504,
                -3.104861562835343
            ]
        }
    ]
}