{
    "goal": {
        "global_pose": {
            "orientation": {
                "w": 0.7047431468963623,
                "x": -0.7094548344612122,
                "y": 0.0024358443915843964,
                "z": -0.0022348060738295317
            },
            "position": {
                "x": 0.6094750761985779,
                "y": 0.3671506643295288,
                "z": 0.19426114857196808
            }
        },
        "name": "move_to_magneteinheit_A"
    },
    "id": "FMT_move_to_magneteinheit_A_42",
    "joint_names": [
        "shoulder_pan_joint",
        "shoulder_lift_joint",
        "elbow_joint",
        "wrist_1_joint",
        "wrist_2_joint",
        "wrist_3_joint"
    ],
    "metrics": {
        "cart_traj_len": 3.710790794861745,
        "distance_elbow_joint": 3.9015133343468245,
        "distance_shoulder_lift_joint": 0.10926720507688081,
        "distance_shoulder_pan_joint": 3.3478707151608944,
        "distance_wrist_1_joint": 1.1361903979034467,
        "distance_wrist_2_joint": 1.7072263192044457,
        "distance_wrist_3_joint": 3.604401707915707,
        "smoothness": 0.0887263072360458,
        "time": 1.261757528,
        "traj_len": 3.7157058117682302,
        "weighted_distance": 4.884535782707248
    },
    "planner": "FMT",
    "start": {
        "state": {
            "elbow_joint": -1.919618573717145,
            "shoulder_lift_joint": -1.2443395971678275,
            "shoulder_pan_joint": 2.6996025300909787,
            "wrist_1_joint": -1.548550951253194,
            "wrist_2_joint": -1.5709469090946802,
            "wrist_3_joint": 0.4420197732051276
        }
    },
    "waypoints": [
        {
            "positions": [
                2.6996025300909787,
                -1.2443395971678275,
                -1.919618573717145,
                -1.548550951253194,
                -1.5709469090946802,
                0.4420197732051276
            ]
        },
        {
            "positions": [
                2.5708010015937646,
                -1.2445791499433305,
                -1.800571705360749,
                -1.557292699586456,
                -1.542727591802647,
                0.3423836865421621
            ]
        },
        {
            "positions": [
                2.441999473096551,
                -1.2448187027188338,
                -1.6815248370043532,
                -1.5660344479197177,
                -1.514508274510614,
                0.2427475998791966
            ]
        },
        {
            "positions": [
                2.313197944599337,
                -1.2450582554943368,
                -1.5624779686479573,
                -1.5747761962529796,
                -1.486288957218581,
                0.1431115132162311
            ]
        },
        {
            "positions": [
                2.184396416102123,
                -1.2452978082698398,
                -1.4434311002915614,
                -1.5835179445862415,
                -1.4580696399265478,
                0.04347542655326564
            ]
        },
        {
            "positions": [
                2.0555948876049093,
                -1.245537361045343,
                -1.3243842319351655,
                -1.5922596929195034,
                -1.4298503226345147,
                -0.056160660109699834
            ]
        },
        {
            "positions": [
                1.9267933591076951,
                -1.245776913820846,
                -1.2053373635787696,
                -1.6010014412527651,
                -1.4016310053424816,
                -0.15579674677266536
            ]
        },
        {
            "positions": [
                1.7979918306104812,
                -1.2460164665963491,
                -1.0862904952223738,
                -1.609743189586027,
                -1.3734116880504486,
                -0.2554328334356309
            ]
        },
        {
            "positions": [
                1.6691903021132672,
                -1.2462560193718524,
                -0.9672436268659779,
                -1.618484937919289,
                -1.3451923707584157,
                -0.3550689200985963
            ]
        },
        {
            "positions": [
                1.5403887736160533,
                -1.2464955721473554,
                -0.8481967585095818,
                -1.6272266862525508,
                -1.3169730534663826,
                -0.45470500676156184
            ]
        },
        {
            "positions": [
                1.4115872451188396,
                -1.2467351249228584,
                -0.7291498901531861,
                -1.6359684345858125,
                -1.2887537361743495,
                -0.5543410934245272
            ]
        },
        {
            "positions": [
                1.2827857166216254,
                -1.2469746776983617,
                -0.61010302179679,
                -1.6447101829190744,
                -1.2605344188823164,
                -0.6539771800874927
            ]
        },
        {
            "positions": [
                1.1539841881244117,
                -1.2472142304738647,
                -0.4910561534403943,
                -1.6534519312523364,
                -1.2323151015902833,
                -0.7536132667504583
            ]
        },
        {
            "positions": [
                1.0251826596271978,
                -1.247453783249368,
                -0.37200928508399844,
                -1.6621936795855983,
                -1.2040957842982503,
                -0.8532493534134236
            ]
        },
        {
            "positions": [
                0.8963811311299836,
                -1.247693336024871,
                -0.25296241672760233,
                -1.67093542791886,
                -1.1758764670062172,
                -0.9528854400763893
            ]
        },
        {
            "positions": [
                0.7675796026327699,
                -1.247932888800374,
                -0.13391554837120645,
                -1.6796771762521219,
                -1.147657149714184,
                -1.0525215267393546
            ]
        },
        {
            "positions": [
                0.6387780741355558,
                -1.2481724415758773,
                -0.014868680014810787,
                -1.6884189245853838,
                -1.1194378324221512,
                -1.1521576134023201
            ]
        },
        {
            "positions": [
                0.509976545638342,
                -1.2484119943513803,
                0.10417818834158532,
                -1.6971606729186455,
                -1.0912185151301181,
                -1.2517937000652857
            ]
        },
        {
            "positions": [
                0.3811750171411279,
                -1.2486515471268833,
                0.22322505669798143,
                -1.7059024212519074,
                -1.062999197838085,
                -1.3514297867282512
            ]
        },
        {
            "positions": [
                0.2523734886439142,
                -1.2488910999023866,
                0.3422719250543771,
                -1.7146441695851693,
                -1.034779880546052,
                -1.4510658733912167
            ]
        },
        {
            "positions": [
                0.12357196014670047,
                -1.2491306526778896,
                0.46131879341077275,
                -1.7233859179184312,
                -1.0065605632540189,
                -1.550701960054182
            ]
        },
        {
            "positions": [
                -0.005229568350513691,
                -1.2493702054533926,
                0.5803656617671689,
                -1.7321276662516931,
                -0.9783412459619858,
                -1.6503380467171476
            ]
        },
        {
            "positions": [
                -0.13403109684772785,
                -1.2496097582288959,
                0.699412530123565,
                -1.7408694145849548,
                -0.9501219286699527,
                -1.749974133380113
            ]
        },
        {
            "positions": [
                -0.26283262534494145,
                -1.2498493110043989,
                0.8184593984799604,
                -1.7496111629182167,
                -0.9219026113779196,
                -1.8496102200430788
            ]
        },
        {
            "positions": [
                -0.2331837361353279,
                -1.2418679655243752,
                0.9079544263376311,
                -1.677678071669107,
                -0.8405039943404053,
                -1.9505926596328866
            ]
        },
        {
            "positions": [
                -0.2035348469257143,
                -1.2338866200443512,
                0.9974494541953018,
                -1.6057449804199977,
                -0.7591053773028911,
                -2.051575099222694
            ]
        },
        {
            "positions": [
                -0.17388595771610071,
                -1.2259052745643275,
                1.0869444820529726,
                -1.533811889170888,
                -0.6777067602653769,
                -2.152557538812502
            ]
        },
        {
            "positions": [
                -0.14423706850648715,
                -1.2179239290843036,
                1.1764395099106433,
                -1.4618787979217784,
                -0.5963081432278626,
                -2.25353997840231
            ]
        },
        {
            "positions": [
                -0.11458817929687357,
                -1.2099425836042799,
                1.265934537768314,
                -1.389945706672669,
                -0.5149095261903485,
                -2.3545224179921176
            ]
        },
        {
            "positions": [
                -0.08493929008726,
                -1.2019612381242561,
                1.3554295656259847,
                -1.3180126154235596,
                -0.43351090915283413,
                -2.455504857581925
            ]
        },
        {
            "positions": [
                -0.055290400877646445,
                -1.1939798926442322,
                1.4449245934836554,
                -1.24607952417445,
                -0.3521122921153199,
                -2.5564872971717327
            ]
        },
        {
            "positions": [
                -0.025641511668032857,
                -1.1859985471642085,
                1.5344196213413261,
                -1.1741464329253404,
                -0.27071367507780564,
                -2.6574697367615405
            ]
        },
        {
            "positions": [
                0.004007377541580703,
                -1.1780172016841848,
                1.6239146491989966,
                -1.102213341676231,
                -0.18931505804029147,
                -2.7584521763513483
            ]
        },
        {
            "positions": [
                0.03365626675119432,
                -1.1700358562041608,
                1.7134096770566676,
                -1.0302802504271213,
                -0.1079164410027772,
                -2.859434615941156
            ]
        },
        {
            "positions": [
                0.06330515596080782,
                -1.1620545107241371,
                1.802904704914338,
                -0.9583471591780118,
                -0.02651782396526292,
                -2.9604170555309635
            ]
        },
        {
            "positions": [
                0.09295404517042144,
                -1.1540731652441132,
                1.8923997327720088,
                -0.8864140679289023,
                0.054880793072251355,
                -3.0613994951207717
            ]
        },
        {
            "positions": [
                0.12260293438003503,
                -1.1460918197640895,
                1.9818947606296795,
                -0.8144809766797928,
                0.13627941010976544,
                -3.162381934710579
            ]
        }
    ]
}{
    "goal": {
        "global_pose": {
            "orientation": {
                "w": 0.7047431468963623,
                "x": -0.7094548344612122,
                "y": 0.0024358443915843964,
                "z": -0.0022348060738295317
            },
            "position": {
                "x": 0.6094750761985779,
                "y": 0.3671506643295288,
                "z": 0.19426114857196808
            }
        },
        "name": "move_to_magneteinheit_A"
    },
    "id": "FMT_move_to_magneteinheit_A_42",
    "joint_names": [
        "shoulder_pan_joint",
        "shoulder_lift_joint",
        "elbow_joint",
        "wrist_1_joint",
        "wrist_2_joint",
        "wrist_3_joint"
    ],
    "metrics": {
        "cart_traj_len": 1.3799348586481441,
        "distance_elbow_joint": 0.13124774678327,
        "distance_shoulder_lift_joint": 0.7532762796245218,
        "distance_shoulder_pan_joint": 1.2429805579596291,
        "distance_wrist_1_joint": 0.7716321960502437,
        "distance_wrist_2_joint": 1.439550210742044,
        "distance_wrist_3_joint": 4.2650439792068395,
        "smoothness": 0.012708556120801852,
        "time": 1.0956327170000002,
        "traj_len": 2.9332117159125333,
        "weighted_distance": 4.39829527607828
    },
    "planner": "FMT",
    "start": {
        "state": {
            "elbow_joint": 1.919643534880228,
            "shoulder_lift_joint": -1.8972525353963687,
            "shoulder_pan_joint": -1.1188672234189438,
            "wrist_1_joint": -1.5931878212786155,
            "wrist_2_joint": 1.5706036197970081,
            "wrist_3_joint": 1.118896926603594
        }
    },
    "waypoints": [
        {
            "positions": [
                -1.1188672234189438,
                -1.8972525353963687,
                1.919643534880228,
                -1.5931878212786155,
                1.5706036197970081,
                1.118896926603594
            ]
        },
        {
            "positions": [
                -1.082814859478139,
                -1.8482592115274687,
                1.9276102285028458,
                -1.5493217489300288,
                1.5280044915979782,
                0.9051934574918068
            ]
        },
        {
            "positions": [
                -1.0467624955373342,
                -1.7992658876585688,
                1.9355769221254635,
                -1.5054556765814424,
                1.4854053633989486,
                0.6914899883800196
            ]
        },
        {
            "positions": [
                -1.0107101315965294,
                -1.7502725637896688,
                1.9435436157480812,
                -1.4615896042328558,
                1.4428062351999187,
                0.47778651926823246
            ]
        },
        {
            "positions": [
                -0.9746577676557246,
                -1.7012792399207688,
                1.951510309370699,
                -1.4177235318842694,
                1.400207107000889,
                0.2640830501564453
            ]
        },
        {
            "positions": [
                -0.9386054037149199,
                -1.6522859160518688,
                1.9594770029933166,
                -1.3738574595356827,
                1.3576079788018591,
                0.05037958104465812
            ]
        },
        {
            "positions": [
                -0.902553039774115,
                -1.6032925921829688,
                1.9674436966159345,
                -1.3299913871870963,
                1.3150088506028292,
                -0.16332388806712905
            ]
        },
        {
            "positions": [
                -0.8665006758333103,
                -1.5542992683140688,
                1.9754103902385522,
                -1.2861253148385097,
                1.2724097224037996,
                -0.3770273571789162
            ]
        },
        {
            "positions": [
                -0.8304483118925055,
                -1.5053059444451689,
                1.98337708386117,
                -1.242259242489923,
                1.22981059420477,
                -0.5907308262907034
            ]
        },
        {
            "positions": [
                -0.7943959479517007,
                -1.4563126205762689,
                1.9913437774837877,
                -1.1983931701413366,
                1.18721146600574,
                -0.8044342954024906
            ]
        },
        {
            "positions": [
                -0.7583435840108959,
                -1.4073192967073689,
                1.9993104711064054,
                -1.15452709779275,
                1.1446123378067101,
                -1.0181377645142777
            ]
        },
        {
            "positions": [
                -0.7222912200700911,
                -1.358325972838469,
                2.007277164729023,
                -1.1106610254441636,
                1.1020132096076805,
                -1.2318412336260647
            ]
        },
        {
            "positions": [
                -0.6862388561292863,
                -1.309332648969569,
                2.0152438583516408,
                -1.066794953095577,
                1.0594140814086506,
                -1.4455447027378518
            ]
        },
        {
            "positions": [
                -0.6052036370622891,
                -1.2927970096497967,
                2.011679116020455,
                -1.0422710203088563,
                0.9665780141732819,
                -1.6156049377243913
            ]
        },
        {
            "positions": [
                -0.5241684179952919,
                -1.2762613703300245,
                2.0081143736892693,
                -1.017747087522136,
                0.8737419469379133,
                -1.7856651727109305
            ]
        },
        {
            "positions": [
                -0.44313319892829484,
                -1.2597257310102523,
                2.0045496313580835,
                -0.9932231547354153,
                0.7809058797025448,
                -1.9557254076974697
            ]
        },
        {
            "positions": [
                -0.3620979798612976,
                -1.2431900916904801,
                2.0009848890268978,
                -0.9686992219486948,
                0.688069812467176,
                -2.125785642684009
            ]
        },
        {
            "positions": [
                -0.2810627607943005,
                -1.226654452370708,
                1.997420146695712,
                -0.9441752891619744,
                0.5952337452318075,
                -2.2958458776705486
            ]
        },
        {
            "positions": [
                -0.20002754172730336,
                -1.2101188130509357,
                1.9938554043645265,
                -0.9196513563752539,
                0.5023976779964389,
                -2.4659061126570876
            ]
        },
        {
            "positions": [
                -0.11899232266030624,
                -1.1935831737311635,
                1.9902906620333407,
                -0.8951274235885334,
                0.40956161076107034,
                -2.6359663476436275
            ]
        },
        {
            "positions": [
                -0.03795710359330895,
                -1.1770475344113913,
                1.986725919702155,
                -0.8706034908018128,
                0.3167255435257016,
                -2.8060265826301665
            ]
        },
        {
            "positions": [
                0.04307811547368812,
                -1.1605118950916191,
                1.9831611773709692,
                -0.8460795580150923,
                0.22388947629033307,
                -2.9760868176167063
            ]
        },
        {
            "positions": [
                0.12411333454068524,
                -1.143976255771847,
                1.9795964350397834,
                -0.8215556252283718,
                0.13105340905496443,
                -3.1461470526032453
            ]
        }
    ]
}