{
    "goal": {
        "global_pose": {
            "orientation": {
                "w": 0.5084816217422485,
                "x": -0.49083608388900757,
                "y": 0.5182115435600281,
                "z": -0.4816462993621826
            },
            "position": {
                "x": 0.5540239810943604,
                "y": 0.030875300988554955,
                "z": 0.16403168439865112
            }
        },
        "name": "move_to_storage_A"
    },
    "id": "KPIECE_move_to_storage_A_147",
    "joint_names": [
        "shoulder_pan_joint",
        "shoulder_lift_joint",
        "elbow_joint",
        "wrist_1_joint",
        "wrist_2_joint",
        "wrist_3_joint"
    ],
    "metrics": {
        "cart_traj_len": 0.35308816318842573,
        "distance_elbow_joint": 0.45172351532242105,
        "distance_shoulder_lift_joint": 0.23362824878976074,
        "distance_shoulder_pan_joint": 0.46338419019762533,
        "distance_wrist_1_joint": 0.24899667045430374,
        "distance_wrist_2_joint": 1.091645671572825,
        "distance_wrist_3_joint": 0.10700988132626055,
        "smoothness": 6.661338165333112e-16,
        "time": 0.073695391,
        "traj_len": 1.6113311818689529,
        "weighted_distance": 2.0374126441010536
    },
    "planner": "KPIECE",
    "start": {
        "state": {
            "elbow_joint": 1.9715477243005601,
            "shoulder_lift_joint": -1.1394853015351272,
            "shoulder_pan_joint": 0.12281154014795169,
            "wrist_1_joint": -0.7804696478968182,
            "wrist_2_joint": 0.12958648046900423,
            "wrist_3_joint": -3.192491284697111
        }
    },
    "waypoints": [
        {
            "positions": [
                0.12281154014795169,
                -1.1394853015351272,
                1.9715477243005601,
                -0.7804696478968182,
                0.12958648046900423,
                -3.192491284697111
            ]
        },
        {
            "positions": [
                0.056613798691148076,
                -1.1728607656479502,
                2.036079655060906,
                -0.8160406008188615,
                0.28553586212226495,
                -3.1772041587933595
            ]
        },
        {
            "positions": [
                -0.009583942765655537,
                -1.2062362297607732,
                2.1006115858212517,
                -0.8516115537409049,
                0.44148524377552567,
                -3.1619170328896082
            ]
        },
        {
            "positions": [
                -0.07578168422245916,
                -1.2396116938735962,
                2.1651435165815975,
                -0.8871825066629483,
                0.5974346254287863,
                -3.1466299069858565
            ]
        },
        {
            "positions": [
                -0.14197942567926275,
                -1.272987157986419,
                2.2296754473419433,
                -0.9227534595849918,
                0.7533840070820471,
                -3.1313427810821053
            ]
        },
        {
            "positions": [
                -0.20817716713606638,
                -1.306362622099242,
                2.2942073781022896,
                -0.9583244125070352,
                0.9093333887353079,
                -3.1160556551783536
            ]
        },
        {
            "positions": [
                -0.27437490859287,
                -1.339738086212065,
                2.3587393088626354,
                -0.9938953654290785,
                1.0652827703885686,
                -3.1007685292746023
            ]
        },
        {
            "positions": [
                -0.34057265004967363,
                -1.373113550324888,
                2.423271239622981,
                -1.029466318351122,
                1.2212321520418292,
                -3.0854814033708506
            ]
        }
    ]
}