{
    "goal": {
        "global_pose": {
            "orientation": {
                "w": 0.7047431468963623,
                "x": -0.7094548344612122,
                "y": 0.0024358443915843964,
                "z": -0.0022348060738295317
            },
            "position": {
                "x": 0.6094750761985779,
                "y": 0.3671506643295288,
                "z": 0.19426114857196808
            }
        },
        "name": "move_to_magneteinheit_A"
    },
    "id": "KPIECE_move_to_magneteinheit_A_79",
    "joint_names": [
        "shoulder_pan_joint",
        "shoulder_lift_joint",
        "elbow_joint",
        "wrist_1_joint",
        "wrist_2_joint",
        "wrist_3_joint"
    ],
    "metrics": {
        "cart_traj_len": 3.142283049530634,
        "distance_elbow_joint": 3.873495495619519,
        "distance_shoulder_lift_joint": 0.5105054770208501,
        "distance_shoulder_pan_joint": 2.7518839686157976,
        "distance_wrist_1_joint": 1.1676071962269579,
        "distance_wrist_2_joint": 1.6971171759457304,
        "distance_wrist_3_joint": 2.5837052265132776,
        "smoothness": 0.08485540245636647,
        "time": 0.286254334,
        "traj_len": 3.5474377429268773,
        "weighted_distance": 4.540534039641304
    },
    "planner": "KPIECE",
    "start": {
        "state": {
            "elbow_joint": -1.919618573717145,
            "shoulder_lift_joint": -1.2443395971678275,
            "shoulder_pan_joint": 2.6996025300909787,
            "wrist_1_joint": -1.548550951253194,
            "wrist_2_joint": -1.5709469090946802,
            "wrist_3_joint": 0.4420197732051276
        }
    },
    "waypoints": [
        {
            "positions": [
                2.6996025300909787,
                -1.2443395971678275,
                -1.919618573717145,
                -1.548550951253194,
                -1.5709469090946802,
                0.4420197732051276
            ]
        },
        {
            "positions": [
                2.5745166020780235,
                -1.2542067108943402,
                -1.8018498561694303,
                -1.4983544457579174,
                -1.5274290837569102,
                0.4728357244220548
            ]
        },
        {
            "positions": [
                2.4494306740650678,
                -1.2640738246208532,
                -1.6840811386217158,
                -1.4481579402626406,
                -1.4839112584191403,
                0.5036516756389819
            ]
        },
        {
            "positions": [
                2.3243447460521125,
                -1.2739409383473659,
                -1.5663124210740011,
                -1.397961434767364,
                -1.4403934330813704,
                0.5344676268559092
            ]
        },
        {
            "positions": [
                2.199258818039157,
                -1.2838080520738786,
                -1.4485437035262865,
                -1.347764929272087,
                -1.3968756077436004,
                0.5652835780728364
            ]
        },
        {
            "positions": [
                2.0741728900262015,
                -1.2936751658003915,
                -1.330774985978572,
                -1.2975684237768104,
                -1.3533577824058305,
                0.5960995292897635
            ]
        },
        {
            "positions": [
                1.9490869620132458,
                -1.3035422795269043,
                -1.2130062684308576,
                -1.2473719182815337,
                -1.3098399570680606,
                0.6269154805066908
            ]
        },
        {
            "positions": [
                1.8240010340002906,
                -1.313409393253417,
                -1.095237550883143,
                -1.197175412786257,
                -1.2663221317302908,
                0.6577314317236179
            ]
        },
        {
            "positions": [
                1.698915105987335,
                -1.32327650697993,
                -0.9774688333354282,
                -1.1469789072909802,
                -1.2228043063925207,
                0.6885473829405452
            ]
        },
        {
            "positions": [
                1.5738291779743796,
                -1.3331436207064427,
                -0.8597001157877135,
                -1.0967824017957035,
                -1.179286481054751,
                0.7193633341574723
            ]
        },
        {
            "positions": [
                1.4487432499614241,
                -1.3430107344329554,
                -0.7419313982399991,
                -1.0465858963004266,
                -1.1357686557169808,
                0.7501792853743996
            ]
        },
        {
            "positions": [
                1.3236573219484686,
                -1.3528778481594683,
                -0.6241626806922844,
                -0.99638939080515,
                -1.0922508303792111,
                0.7809952365913267
            ]
        },
        {
            "positions": [
                1.1985713939355132,
                -1.362744961885981,
                -0.50639396314457,
                -0.9461928853098733,
                -1.048733005041441,
                0.8118111878082539
            ]
        },
        {
            "positions": [
                1.0734854659225577,
                -1.372612075612494,
                -0.3886252455968553,
                -0.8959963798145966,
                -1.0052151797036712,
                0.8426271390251812
            ]
        },
        {
            "positions": [
                0.9483995379096024,
                -1.3824791893390067,
                -0.27085652804914084,
                -0.8457998743193199,
                -0.9616973543659013,
                0.8734430902421083
            ]
        },
        {
            "positions": [
                0.8233136098966467,
                -1.3923463030655194,
                -0.15308781050142617,
                -0.7956033688240431,
                -0.9181795290281314,
                0.9042590414590355
            ]
        },
        {
            "positions": [
                0.6982276818836914,
                -1.4022134167920324,
                -0.035319092953711495,
                -0.7454068633287663,
                -0.8746617036903613,
                0.9350749926759627
            ]
        },
        {
            "positions": [
                0.5731417538707357,
                -1.412080530518545,
                0.08244962459400296,
                -0.6952103578334896,
                -0.8311438783525915,
                0.96589094389289
            ]
        },
        {
            "positions": [
                0.4480558258577805,
                -1.4219476442450578,
                0.20021834214171785,
                -0.6450138523382128,
                -0.7876260530148216,
                0.996706895109817
            ]
        },
        {
            "positions": [
                0.3229698978448252,
                -1.4318147579715708,
                0.31798705968943186,
                -0.5948173468429362,
                -0.7441082276770516,
                1.0275228463267443
            ]
        },
        {
            "positions": [
                0.1978839698318695,
                -1.4416818716980835,
                0.43575577723714687,
                -0.5446208413476594,
                -0.7005904023392817,
                1.0583387975436716
            ]
        },
        {
            "positions": [
                0.1816162943983631,
                -1.4185552227938183,
                0.5615639030251517,
                -0.5528077322493425,
                -0.6338524914902077,
                1.2098931881639972
            ]
        },
        {
            "positions": [
                0.16534861896485667,
                -1.3954285738895529,
                0.6873720288131564,
                -0.5609946231510257,
                -0.5671145806411337,
                1.3614475787843225
            ]
        },
        {
            "positions": [
                0.14908094353135026,
                -1.3723019249852877,
                0.8131801546011612,
                -0.5691815140527089,
                -0.5003766697920597,
                1.5130019694046482
            ]
        },
        {
            "positions": [
                0.13281326809784383,
                -1.3491752760810225,
                0.938988280389166,
                -0.577368404954392,
                -0.43363875894298576,
                1.6645563600249735
            ]
        },
        {
            "positions": [
                0.11654559266433742,
                -1.3260486271767573,
                1.0647964061771709,
                -0.5855552958560751,
                -0.36690084809391177,
                1.8161107506452991
            ]
        },
        {
            "positions": [
                0.100277917230831,
                -1.302921978272492,
                1.1906045319651755,
                -0.5937421867577583,
                -0.3001629372448378,
                1.9676651412656248
            ]
        },
        {
            "positions": [
                0.0840102417973246,
                -1.2797953293682267,
                1.3164126577531803,
                -0.6019290776594414,
                -0.23342502639576385,
                2.11921953188595
            ]
        },
        {
            "positions": [
                0.06774256636381817,
                -1.2566686804639615,
                1.442220783541185,
                -0.6101159685611246,
                -0.1666871155466898,
                2.270773922506276
            ]
        },
        {
            "positions": [
                0.05147489093031174,
                -1.233542031559696,
                1.5680289093291897,
                -0.6183028594628077,
                -0.09994920469761581,
                2.4223283131266014
            ]
        },
        {
            "positions": [
                0.03520721549680533,
                -1.210415382655431,
                1.6938370351171945,
                -0.6264897503644908,
                -0.03321129384854185,
                2.5738827037469267
            ]
        },
        {
            "positions": [
                0.06437010017067993,
                -1.1831164781727836,
                1.7805169973789212,
                -0.6537591427993548,
                0.019915893051322214,
                2.724496802404086
            ]
        },
        {
            "positions": [
                0.09353298484455452,
                -1.1558175736901366,
                1.8671969596406477,
                -0.6810285352342188,
                0.07304307995118628,
                2.875110901061246
            ]
        },
        {
            "positions": [
                0.12269586951842913,
                -1.1285186692074893,
                1.9538769219023744,
                -0.7082979276690827,
                0.12617026685105034,
                3.0257249997184053
            ]
        }
    ]
}{
    "goal": {
        "global_pose": {
            "orientation": {
                "w": 0.7047431468963623,
                "x": -0.7094548344612122,
                "y": 0.0024358443915843964,
                "z": -0.0022348060738295317
            },
            "position": {
                "x": 0.6094750761985779,
                "y": 0.3671506643295288,
                "z": 0.19426114857196808
            }
        },
        "name": "move_to_magneteinheit_A"
    },
    "id": "KPIECE_move_to_magneteinheit_A_79",
    "joint_names": [
        "shoulder_pan_joint",
        "shoulder_lift_joint",
        "elbow_joint",
        "wrist_1_joint",
        "wrist_2_joint",
        "wrist_3_joint"
    ],
    "metrics": {
        "cart_traj_len": 1.2196269063536804,
        "distance_elbow_joint": 0.14207451195163445,
        "distance_shoulder_lift_joint": 0.7665246706059559,
        "distance_shoulder_pan_joint": 1.2428077331077427,
        "distance_wrist_1_joint": 1.1532002473473673,
        "distance_wrist_2_joint": 1.4486941554582977,
        "distance_wrist_3_joint": 4.358623719661984,
        "smoothness": 0.18741999664274078,
        "time": 0.120937665,
        "traj_len": 3.0185965345062233,
        "weighted_distance": 4.520073769338573
    },
    "planner": "KPIECE",
    "start": {
        "state": {
            "elbow_joint": 1.919643534880228,
            "shoulder_lift_joint": -1.8972525353963687,
            "shoulder_pan_joint": -1.1188672234189438,
            "wrist_1_joint": -1.5931878212786155,
            "wrist_2_joint": 1.5706036197970081,
            "wrist_3_joint": 1.118896926603594
        }
    },
    "waypoints": [
        {
            "positions": [
                -1.1188672234189438,
                -1.8972525353963687,
                1.919643534880228,
                -1.5931878212786155,
                1.5706036197970081,
                1.118896926603594
            ]
        },
        {
            "positions": [
                -1.0642860939958105,
                -1.8631746848081427,
                1.917116267933842,
                -1.5448675321371153,
                1.5045946451188406,
                0.9337760492296802
            ]
        },
        {
            "positions": [
                -1.0097049645726772,
                -1.8290968342199168,
                1.914589000987456,
                -1.496547242995615,
                1.438585670440673,
                0.7486551718557664
            ]
        },
        {
            "positions": [
                -0.9551238351495438,
                -1.7950189836316905,
                1.91206173404107,
                -1.4482269538541148,
                1.3725766957625054,
                0.5635342944818525
            ]
        },
        {
            "positions": [
                -0.9005427057264104,
                -1.7609411330434646,
                1.9095344670946839,
                -1.3999066647126146,
                1.3065677210843378,
                0.37841341710793874
            ]
        },
        {
            "positions": [
                -0.8459615763032771,
                -1.7268632824552386,
                1.9070072001482978,
                -1.3515863755711144,
                1.2405587464061703,
                0.19329253973402494
            ]
        },
        {
            "positions": [
                -0.7913804468801438,
                -1.6927854318670126,
                1.9044799332019118,
                -1.303266086429614,
                1.1745497717280027,
                0.008171662360111132
            ]
        },
        {
            "positions": [
                -0.7367993174570104,
                -1.6587075812787864,
                1.9019526662555257,
                -1.254945797288114,
                1.108540797049835,
                -0.17694921501380256
            ]
        },
        {
            "positions": [
                -0.682218188033877,
                -1.6246297306905604,
                1.8994253993091397,
                -1.2066255081466135,
                1.0425318223716675,
                -0.3620700923877165
            ]
        },
        {
            "positions": [
                -0.6276370586107437,
                -1.5905518801023344,
                1.8968981323627536,
                -1.1583052190051133,
                0.9765228476935,
                -0.5471909697616302
            ]
        },
        {
            "positions": [
                -0.5730559291876103,
                -1.5564740295141084,
                1.8943708654163676,
                -1.109984929863613,
                0.9105138730153324,
                -0.7323118471355441
            ]
        },
        {
            "positions": [
                -0.518474799764477,
                -1.5223961789258822,
                1.8918435984699817,
                -1.0616646407221129,
                0.8445048983371648,
                -0.9174327245094582
            ]
        },
        {
            "positions": [
                -0.46389367034134366,
                -1.4883183283376562,
                1.8893163315235957,
                -1.0133443515806126,
                0.7784959236589972,
                -1.1025536018833717
            ]
        },
        {
            "positions": [
                -0.40931254091821023,
                -1.4542404777494302,
                1.8867890645772096,
                -0.9650240624391123,
                0.7124869489808296,
                -1.2876744792572856
            ]
        },
        {
            "positions": [
                -0.3547314114950769,
                -1.4201626271612042,
                1.8842617976308236,
                -0.9167037732976122,
                0.6464779743026621,
                -1.472795356631199
            ]
        },
        {
            "positions": [
                -0.3001502820719435,
                -1.3860847765729782,
                1.8817345306844375,
                -0.8683834841561119,
                0.5804689996244945,
                -1.6579162340051135
            ]
        },
        {
            "positions": [
                -0.24556915264881019,
                -1.3520069259847523,
                1.8792072637380515,
                -0.8200631950146117,
                0.5144600249463269,
                -1.843037111379027
            ]
        },
        {
            "positions": [
                -0.19098802322567676,
                -1.317929075396526,
                1.8766799967916654,
                -0.7717429058731115,
                0.44845105026815935,
                -2.028157988752941
            ]
        },
        {
            "positions": [
                -0.13640689380254356,
                -1.2838512248083,
                1.8741527298452794,
                -0.7234226167316112,
                0.38244207558999177,
                -2.2132788661268545
            ]
        },
        {
            "positions": [
                -0.08182576437941003,
                -1.2497733742200738,
                1.8716254628988933,
                -0.6751023275901109,
                0.3164331009118242,
                -2.398399743500769
            ]
        },
        {
            "positions": [
                -0.027244634956276714,
                -1.2156955236318479,
                1.8690981959525073,
                -0.6267820384486108,
                0.2504241262336566,
                -2.5835206208746824
            ]
        },
        {
            "positions": [
                0.027336494466856702,
                -1.1816176730436219,
                1.8665709290061212,
                -0.5784617493071105,
                0.18441515155548904,
                -2.768641498248596
            ]
        },
        {
            "positions": [
                0.05953783287417089,
                -1.1646544036258855,
                1.8962382310319637,
                -0.6246198077657312,
                0.1635799224832295,
                -2.9256699298518605
            ]
        },
        {
            "positions": [
                0.09173917128148507,
                -1.1476911342081493,
                1.9259055330578063,
                -0.670777866224352,
                0.14274469341096999,
                -3.0826983614551247
            ]
        },
        {
            "positions": [
                0.12394050968879926,
                -1.1307278647904129,
                1.9555728350836488,
                -0.7169359246829727,
                0.12190946433871044,
                -3.2397267930583893
            ]
        }
    ]
}