{
    "goal": {
        "global_pose": {
            "orientation": {
                "w": 0.5084816217422485,
                "x": -0.49083608388900757,
                "y": 0.5182115435600281,
                "z": -0.4816462993621826
            },
            "position": {
                "x": 0.5540239810943604,
                "y": 0.030875300988554955,
                "z": 0.16403168439865112
            }
        },
        "name": "move_to_storage_A"
    },
    "id": "KPIECE_move_to_storage_A_137",
    "joint_names": [
        "shoulder_pan_joint",
        "shoulder_lift_joint",
        "elbow_joint",
        "wrist_1_joint",
        "wrist_2_joint",
        "wrist_3_joint"
    ],
    "metrics": {
        "cart_traj_len": 0.3529070234954719,
        "distance_elbow_joint": 0.4523369380466038,
        "distance_shoulder_lift_joint": 0.23325410333640417,
        "distance_shoulder_pan_joint": 0.45733301641266993,
        "distance_wrist_1_joint": 0.252921279484135,
        "distance_wrist_2_joint": 1.1161932357470872,
        "distance_wrist_3_joint": 0.10414259799220238,
        "smoothness": 8.881784197001252e-16,
        "time": 0.10627688700000001,
        "traj_len": 1.6174613352470293,
        "weighted_distance": 2.047823449966996
    },
    "planner": "KPIECE",
    "start": {
        "state": {
            "elbow_joint": 1.9715477243005601,
            "shoulder_lift_joint": -1.1394853015351272,
            "shoulder_pan_joint": 0.12281154014795169,
            "wrist_1_joint": -0.7804696478968182,
            "wrist_2_joint": 0.12958648046900423,
            "wrist_3_joint": -3.192491284697111
        }
    },
    "waypoints": [
        {
            "positions": [
                0.12281154014795169,
                -1.1394853015351272,
                1.9715477243005601,
                -0.7804696478968182,
                0.12958648046900423,
                -3.192491284697111
            ]
        },
        {
            "positions": [
                0.057478252088998844,
                -1.1728073162974706,
                2.0361672868786465,
                -0.8166012592516946,
                0.28904265700430243,
                -3.1776137706982253
            ]
        },
        {
            "positions": [
                -0.007855035969954002,
                -1.206129331059814,
                2.1007868494567328,
                -0.852732870606571,
                0.44849883353960057,
                -3.162736256699339
            ]
        },
        {
            "positions": [
                -0.07318832402890683,
                -1.2394513458221574,
                2.165406412034819,
                -0.8888644819614474,
                0.6079550100748987,
                -3.147858742700453
            ]
        },
        {
            "positions": [
                -0.13852161208785968,
                -1.2727733605845009,
                2.230025974612905,
                -0.9249960933163239,
                0.7674111866101969,
                -3.132981228701567
            ]
        },
        {
            "positions": [
                -0.20385490014681257,
                -1.3060953753468445,
                2.2946455371909913,
                -0.9611277046712003,
                0.9268673631454951,
                -3.118103714702681
            ]
        },
        {
            "positions": [
                -0.26918818820576534,
                -1.339417390109188,
                2.3592650997690776,
                -0.9972593160260768,
                1.086323539680793,
                -3.1032262007037947
            ]
        },
        {
            "positions": [
                -0.33452147626471823,
                -1.3727394048715313,
                2.423884662347164,
                -1.0333909273809532,
                1.2457797162160915,
                -3.088348686704909
            ]
        }
    ]
}