{
    "goal": {
        "global_pose": {
            "orientation": {
                "w": 0.5084816217422485,
                "x": -0.49083608388900757,
                "y": 0.5182115435600281,
                "z": -0.4816462993621826
            },
            "position": {
                "x": 0.5540239810943604,
                "y": 0.030875300988554955,
                "z": 0.16403168439865112
            }
        },
        "name": "move_to_storage_A"
    },
    "id": "KPIECE_move_to_storage_A_142",
    "joint_names": [
        "shoulder_pan_joint",
        "shoulder_lift_joint",
        "elbow_joint",
        "wrist_1_joint",
        "wrist_2_joint",
        "wrist_3_joint"
    ],
    "metrics": {
        "cart_traj_len": 0.3529141909272937,
        "distance_elbow_joint": 0.44812648803527466,
        "distance_shoulder_lift_joint": 0.23297447756188738,
        "distance_shoulder_pan_joint": 0.4621122910780423,
        "distance_wrist_1_joint": 0.23741175923211422,
        "distance_wrist_2_joint": 1.09488267886301,
        "distance_wrist_3_joint": 0.09636415982605762,
        "smoothness": 8.881784232165597e-16,
        "time": 0.058626857000000004,
        "traj_len": 1.6037056633298974,
        "weighted_distance": 2.024078707052575
    },
    "planner": "KPIECE",
    "start": {
        "state": {
            "elbow_joint": 1.9715477243005601,
            "shoulder_lift_joint": -1.1394853015351272,
            "shoulder_pan_joint": 0.12281154014795169,
            "wrist_1_joint": -0.7804696478968182,
            "wrist_2_joint": 0.12958648046900423,
            "wrist_3_joint": -3.192491284697111
        }
    },
    "waypoints": [
        {
            "positions": [
                0.12281154014795169,
                -1.1394853015351272,
                1.9715477243005601,
                -0.7804696478968182,
                0.12958648046900423,
                -3.192491284697111
            ]
        },
        {
            "positions": [
                0.05679549856537422,
                -1.172767369758254,
                2.035565794019885,
                -0.8143856135014059,
                0.28599829173514846,
                -3.1787249761505314
            ]
        },
        {
            "positions": [
                -0.00922054301720325,
                -1.2060494379813806,
                2.09958386373921,
                -0.8483015791059937,
                0.44241010300129274,
                -3.164958667603952
            ]
        },
        {
            "positions": [
                -0.0752365845997807,
                -1.2393315062045074,
                2.163601933458535,
                -0.8822175447105813,
                0.598821914267437,
                -3.1511923590573723
            ]
        },
        {
            "positions": [
                -0.14125262618235818,
                -1.2726135744276341,
                2.2276200031778597,
                -0.9161335103151691,
                0.7552337255335813,
                -3.1374260505107925
            ]
        },
        {
            "positions": [
                -0.2072686677649357,
                -1.305895642650761,
                2.291638072897185,
                -0.9500494759197569,
                0.9116455367997256,
                -3.1236597419642127
            ]
        },
        {
            "positions": [
                -0.2732847093475131,
                -1.3391777108738878,
                2.35565614261651,
                -0.9839654415243446,
                1.06805734806587,
                -3.1098934334176334
            ]
        },
        {
            "positions": [
                -0.3393007509300906,
                -1.3724597790970146,
                2.419674212335835,
                -1.0178814071289324,
                1.224469159332014,
                -3.0961271248710536
            ]
        }
    ]
}