{
    "goal": {
        "global_pose": {
            "orientation": {
                "w": 0.5084816217422485,
                "x": -0.49083608388900757,
                "y": 0.5182115435600281,
                "z": -0.4816462993621826
            },
            "position": {
                "x": 0.5540239810943604,
                "y": 0.030875300988554955,
                "z": 0.16403168439865112
            }
        },
        "name": "move_to_storage_A"
    },
    "id": "KPIECE_move_to_storage_A_98",
    "joint_names": [
        "shoulder_pan_joint",
        "shoulder_lift_joint",
        "elbow_joint",
        "wrist_1_joint",
        "wrist_2_joint",
        "wrist_3_joint"
    ],
    "metrics": {
        "cart_traj_len": 0.3524481050734573,
        "distance_elbow_joint": 0.4476416688294038,
        "distance_shoulder_lift_joint": 0.23591293687202075,
        "distance_shoulder_pan_joint": 0.4618659071236225,
        "distance_wrist_1_joint": 0.23309813395652534,
        "distance_wrist_2_joint": 1.0936218446626147,
        "distance_wrist_3_joint": 0.09428149275626296,
        "smoothness": 4.440892133664971e-16,
        "time": 0.042459362,
        "traj_len": 1.6020056130364992,
        "weighted_distance": 2.0203229811918972
    },
    "planner": "KPIECE",
    "start": {
        "state": {
            "elbow_joint": 1.9715477243005601,
            "shoulder_lift_joint": -1.1394853015351272,
            "shoulder_pan_joint": 0.12281154014795169,
            "wrist_1_joint": -0.7804696478968182,
            "wrist_2_joint": 0.12958648046900423,
            "wrist_3_joint": -3.192491284697111
        }
    },
    "waypoints": [
        {
            "positions": [
                0.12281154014795169,
                -1.1394853015351272,
                1.9715477243005601,
                -0.7804696478968182,
                0.12958648046900423,
                -3.192491284697111
            ]
        },
        {
            "positions": [
                0.056830696273148476,
                -1.1731871496597015,
                2.035496534133332,
                -0.813769381319179,
                0.2858181725636635,
                -3.179022500017645
            ]
        },
        {
            "positions": [
                -0.009150147601654737,
                -1.206888997784276,
                2.0994453439661043,
                -0.8470691147415397,
                0.4420498646583227,
                -3.165553715338179
            ]
        },
        {
            "positions": [
                -0.07513099147645795,
                -1.2405908459088504,
                2.163394153798876,
                -0.8803688481639005,
                0.598281556752982,
                -3.1520849306587126
            ]
        },
        {
            "positions": [
                -0.14111183535126115,
                -1.2742926940334247,
                2.227342963631648,
                -0.9136685815862612,
                0.7545132488476411,
                -3.1386161459792468
            ]
        },
        {
            "positions": [
                -0.2070926792260644,
                -1.3079945421579993,
                2.29129177346442,
                -0.946968315008622,
                0.9107449409423004,
                -3.1251473612997804
            ]
        },
        {
            "positions": [
                -0.2730735231008676,
                -1.3416963902825736,
                2.355240583297192,
                -0.9802680484309827,
                1.0669766330369597,
                -3.1116785766203146
            ]
        },
        {
            "positions": [
                -0.3390543669756708,
                -1.375398238407148,
                2.419189393129964,
                -1.0135677818533435,
                1.2232083251316188,
                -3.0982097919408482
            ]
        }
    ]
}