{
    "goal": {
        "global_pose": {
            "orientation": {
                "w": 0.7047431468963623,
                "x": -0.7094548344612122,
                "y": 0.0024358443915843964,
                "z": -0.0022348060738295317
            },
            "position": {
                "x": 0.6094750761985779,
                "y": 0.3671506643295288,
                "z": 0.19426114857196808
            }
        },
        "name": "move_to_magneteinheit_A"
    },
    "id": "KPIECE_move_to_magneteinheit_A_22",
    "joint_names": [
        "shoulder_pan_joint",
        "shoulder_lift_joint",
        "elbow_joint",
        "wrist_1_joint",
        "wrist_2_joint",
        "wrist_3_joint"
    ],
    "metrics": {
        "cart_traj_len": 3.308445116877136,
        "distance_elbow_joint": 3.9155185716092236,
        "distance_shoulder_lift_joint": 0.6777020071479096,
        "distance_shoulder_pan_joint": 3.6062747825692645,
        "distance_wrist_1_joint": 3.4804137639548545,
        "distance_wrist_2_joint": 1.546618549727727,
        "distance_wrist_3_joint": 1.4211085284095364,
        "smoothness": 0.19946020560739677,
        "time": 0.138772867,
        "traj_len": 3.827223040720063,
        "weighted_distance": 4.745196052211138
    },
    "planner": "KPIECE",
    "start": {
        "state": {
            "elbow_joint": -1.919618573717145,
            "shoulder_lift_joint": -1.2443395971678275,
            "shoulder_pan_joint": 2.6996025300909787,
            "wrist_1_joint": -1.548550951253194,
            "wrist_2_joint": -1.5709469090946802,
            "wrist_3_joint": 0.4420197732051276
        }
    },
    "waypoints": [
        {
            "positions": [
                2.6996025300909787,
                -1.2443395971678275,
                -1.919618573717145,
                -1.548550951253194,
                -1.5709469090946802,
                0.4420197732051276
            ]
        },
        {
            "positions": [
                2.5806815364488616,
                -1.2484114364962746,
                -1.8244119288550074,
                -1.471628435744398,
                -1.513725458006837,
                0.4061367659733357
            ]
        },
        {
            "positions": [
                2.4617605428067444,
                -1.2524832758247217,
                -1.72920528399287,
                -1.3947059202356018,
                -1.456504006918994,
                0.37025375874154387
            ]
        },
        {
            "positions": [
                2.3428395491646272,
                -1.256555115153169,
                -1.6339986391307324,
                -1.3177834047268058,
                -1.399282555831151,
                0.33437075150975193
            ]
        },
        {
            "positions": [
                2.2239185555225096,
                -1.2606269544816162,
                -1.5387919942685948,
                -1.2408608892180097,
                -1.342061104743308,
                0.2984877442779601
            ]
        },
        {
            "positions": [
                2.1049975618803924,
                -1.2646987938100633,
                -1.4435853494064572,
                -1.1639383737092135,
                -1.2848396536554652,
                0.2626047370461682
            ]
        },
        {
            "positions": [
                1.9860765682382753,
                -1.2687706331385105,
                -1.3483787045443196,
                -1.0870158582004175,
                -1.227618202567622,
                0.22672172981437633
            ]
        },
        {
            "positions": [
                1.867155574596158,
                -1.2728424724669576,
                -1.2531720596821825,
                -1.0100933426916214,
                -1.170396751479779,
                0.1908387225825845
            ]
        },
        {
            "positions": [
                1.748234580954041,
                -1.276914311795405,
                -1.157965414820045,
                -0.9331708271828253,
                -1.113175300391936,
                0.1549557153507926
            ]
        },
        {
            "positions": [
                1.6293135873119236,
                -1.280986151123852,
                -1.0627587699579073,
                -0.8562483116740293,
                -1.055953849304093,
                0.11907270811900073
            ]
        },
        {
            "positions": [
                1.5103925936698064,
                -1.2850579904522992,
                -0.9675521250957697,
                -0.779325796165233,
                -0.99873239821625,
                0.08318970088720884
            ]
        },
        {
            "positions": [
                1.3914716000276892,
                -1.2891298297807463,
                -0.8723454802336321,
                -0.702403280656437,
                -0.941510947128407,
                0.04730669365541701
            ]
        },
        {
            "positions": [
                1.2725506063855718,
                -1.2932016691091934,
                -0.7771388353714945,
                -0.6254807651476408,
                -0.884289496040564,
                0.011423686423625068
            ]
        },
        {
            "positions": [
                1.1536296127434547,
                -1.2972735084376406,
                -0.6819321905093572,
                -0.5485582496388448,
                -0.827068044952721,
                -0.024459320808166762
            ]
        },
        {
            "positions": [
                1.0347086191013375,
                -1.301345347766088,
                -0.5867255456472198,
                -0.4716357341300488,
                -0.7698465938648781,
                -0.06034232803995859
            ]
        },
        {
            "positions": [
                0.9157876254592203,
                -1.305417187094535,
                -0.4915189007850822,
                -0.39471321862125275,
                -0.712625142777035,
                -0.09622533527175042
            ]
        },
        {
            "positions": [
                0.7968666318171029,
                -1.3094890264229821,
                -0.3963122559229446,
                -0.3177907031124565,
                -0.6554036916891919,
                -0.13210834250354236
            ]
        },
        {
            "positions": [
                0.6779456381749855,
                -1.3135608657514293,
                -0.301105611060807,
                -0.24086818760366047,
                -0.598182240601349,
                -0.1679913497353343
            ]
        },
        {
            "positions": [
                0.5590246445328684,
                -1.3176327050798764,
                -0.20589896619866965,
                -0.16394567209486444,
                -0.540960789513506,
                -0.20387435696712614
            ]
        },
        {
            "positions": [
                0.4401036508907512,
                -1.3217045444083237,
                -0.11069232133653206,
                -0.0870231565860684,
                -0.48373933842566297,
                -0.23975736419891797
            ]
        },
        {
            "positions": [
                0.32118265724863404,
                -1.3257763837367709,
                -0.015485676474394472,
                -0.010100641077271932,
                -0.4265178873378199,
                -0.2756403714307099
            ]
        },
        {
            "positions": [
                0.20226166360651687,
                -1.329848223065218,
                0.07972096838774312,
                0.0668218744315241,
                -0.3692964362499769,
                -0.31152337866250174
            ]
        },
        {
            "positions": [
                0.0833406699643997,
                -1.3339200623936651,
                0.1749276132498807,
                0.14374438994032013,
                -0.31207498516213383,
                -0.34740638589429357
            ]
        },
        {
            "positions": [
                -0.03558032367771746,
                -1.3379919017221122,
                0.27013425811201786,
                0.22066690544911616,
                -0.254853534074291,
                -0.3832893931260855
            ]
        },
        {
            "positions": [
                -0.15450131731983507,
                -1.3420637410505596,
                0.3653409029741559,
                0.2975894209579124,
                -0.19763208298644774,
                -0.41917240035787745
            ]
        },
        {
            "positions": [
                -0.27342231096195224,
                -1.3461355803790067,
                0.46054754783629304,
                0.37451193646670844,
                -0.14041063189860492,
                -0.4550554075896693
            ]
        },
        {
            "positions": [
                -0.3923433046040695,
                -1.3502074197074538,
                0.5557541926984308,
                0.45143445197550436,
                -0.08318918081076178,
                -0.49093841482146117
            ]
        },
        {
            "positions": [
                -0.349093114924528,
                -1.3010270508596773,
                0.6842975703535497,
                0.5818270277454984,
                -0.08852339420596027,
                -0.4519429927551214
            ]
        },
        {
            "positions": [
                -0.30584292524498646,
                -1.2518466820119007,
                0.8128409480086685,
                0.7122196035154926,
                -0.09385760760115877,
                -0.4129475706887817
            ]
        },
        {
            "positions": [
                -0.26259273556544493,
                -1.202666313164124,
                0.9413843256637873,
                0.8426121792854866,
                -0.09919182099635726,
                -0.3739521486224419
            ]
        },
        {
            "positions": [
                -0.2193425458859034,
                -1.1534859443163474,
                1.069927703318906,
                0.9730047550554808,
                -0.10452603439155575,
                -0.3349567265561022
            ]
        },
        {
            "positions": [
                -0.1760923562063619,
                -1.1043055754685709,
                1.1984710809740249,
                1.1033973308254748,
                -0.10986024778675424,
                -0.29596130448976243
            ]
        },
        {
            "positions": [
                -0.1328421665268204,
                -1.0551252066207943,
                1.3270144586291437,
                1.233789906595469,
                -0.11519446118195273,
                -0.25696588242342266
            ]
        },
        {
            "positions": [
                -0.08959197684727888,
                -1.0059448377730178,
                1.4555578362842625,
                1.3641824823654631,
                -0.12052867457715123,
                -0.21797046035708295
            ]
        },
        {
            "positions": [
                -0.04634178716773729,
                -0.956764468925241,
                1.5841012139393813,
                1.494575058135457,
                -0.12586288797234974,
                -0.17897503829074318
            ]
        },
        {
            "positions": [
                -0.0030915974881958186,
                -0.9075841000774645,
                1.7126445915945,
                1.6249676339054515,
                -0.13119710136754822,
                -0.1399796162244034
            ]
        },
        {
            "positions": [
                0.040158592191345724,
                -0.8584037312296879,
                1.841187969249619,
                1.7553602096754453,
                -0.1365313147627467,
                -0.1009841941580637
            ]
        },
        {
            "positions": [
                0.08107211773074682,
                -0.8183884831644292,
                1.9185439835708489,
                1.8436115111885532,
                -0.13377197101683524,
                -0.05188613429828872
            ]
        },
        {
            "positions": [
                0.12198564327014791,
                -0.7783732350991706,
                1.9958999978920786,
                1.931862812701661,
                -0.1310126272709238,
                -0.0027880744385137407
            ]
        }
    ]
}{
    "goal": {
        "global_pose": {
            "orientation": {
                "w": 0.7047431468963623,
                "x": -0.7094548344612122,
                "y": 0.0024358443915843964,
                "z": -0.0022348060738295317
            },
            "position": {
                "x": 0.6094750761985779,
                "y": 0.3671506643295288,
                "z": 0.19426114857196808
            }
        },
        "name": "move_to_magneteinheit_A"
    },
    "id": "KPIECE_move_to_magneteinheit_A_22",
    "joint_names": [
        "shoulder_pan_joint",
        "shoulder_lift_joint",
        "elbow_joint",
        "wrist_1_joint",
        "wrist_2_joint",
        "wrist_3_joint"
    ],
    "metrics": {
        "cart_traj_len": 1.2261598155433413,
        "distance_elbow_joint": 0.05180446438381359,
        "distance_shoulder_lift_joint": 0.7885042751086535,
        "distance_shoulder_pan_joint": 1.2425307166151442,
        "distance_wrist_1_joint": 0.8793277140971122,
        "distance_wrist_2_joint": 1.4458747378903996,
        "distance_wrist_3_joint": 4.322586191293497,
        "smoothness": 0.2339736777574466,
        "time": 0.134404285,
        "traj_len": 2.95476362834468,
        "weighted_distance": 4.438581184789023
    },
    "planner": "KPIECE",
    "start": {
        "state": {
            "elbow_joint": 1.919643534880228,
            "shoulder_lift_joint": -1.8972525353963687,
            "shoulder_pan_joint": -1.1188672234189438,
            "wrist_1_joint": -1.5931878212786155,
            "wrist_2_joint": 1.5706036197970081,
            "wrist_3_joint": 1.118896926603594
        }
    },
    "waypoints": [
        {
            "positions": [
                -1.1188672234189438,
                -1.8972525353963687,
                1.919643534880228,
                -1.5931878212786155,
                1.5706036197970081,
                1.118896926603594
            ]
        },
        {
            "positions": [
                -1.0632711784632036,
                -1.8620033158036082,
                1.9194665981983692,
                -1.554194646503632,
                1.505497666937418,
                0.9236131422868195
            ]
        },
        {
            "positions": [
                -1.0076751335074636,
                -1.826754096210848,
                1.9192896615165103,
                -1.5152014717286486,
                1.4403917140778277,
                0.7283293579700449
            ]
        },
        {
            "positions": [
                -0.9520790885517234,
                -1.7915048766180874,
                1.9191127248346513,
                -1.4762082969536652,
                1.3752857612182376,
                0.5330455736532705
            ]
        },
        {
            "positions": [
                -0.8964830435959832,
                -1.7562556570253272,
                1.9189357881527926,
                -1.4372151221786817,
                1.3101798083586476,
                0.33776178933649603
            ]
        },
        {
            "positions": [
                -0.8408869986402431,
                -1.7210064374325666,
                1.9187588514709337,
                -1.3982219474036985,
                1.2450738554990575,
                0.14247800501972163
            ]
        },
        {
            "positions": [
                -0.785290953684503,
                -1.6857572178398064,
                1.9185819147890748,
                -1.359228772628715,
                1.1799679026394672,
                -0.05280577929705288
            ]
        },
        {
            "positions": [
                -0.7296949087287627,
                -1.6505079982470459,
                1.9184049781072159,
                -1.3202355978537317,
                1.114861949779877,
                -0.2480895636138274
            ]
        },
        {
            "positions": [
                -0.6740988637730225,
                -1.6152587786542854,
                1.918228041425357,
                -1.2812424230787482,
                1.049755996920287,
                -0.4433733479306019
            ]
        },
        {
            "positions": [
                -0.6185028188172824,
                -1.580009559061525,
                1.918051104743498,
                -1.2422492483037648,
                0.9846500440606967,
                -0.6386571322473764
            ]
        },
        {
            "positions": [
                -0.5629067738615423,
                -1.5447603394687646,
                1.9178741680616391,
                -1.2032560735287814,
                0.9195440912011066,
                -0.8339409165641507
            ]
        },
        {
            "positions": [
                -0.5073107289058021,
                -1.509511119876004,
                1.9176972313797802,
                -1.164262898753798,
                0.8544381383415164,
                -1.0292247008809252
            ]
        },
        {
            "positions": [
                -0.451714683950062,
                -1.4742619002832438,
                1.9175202946979215,
                -1.1252697239788145,
                0.7893321854819263,
                -1.2245084851976997
            ]
        },
        {
            "positions": [
                -0.39611863899432176,
                -1.4390126806904833,
                1.9173433580160626,
                -1.086276549203831,
                0.724226232622336,
                -1.4197922695144742
            ]
        },
        {
            "positions": [
                -0.34052259403858165,
                -1.403763461097723,
                1.9171664213342037,
                -1.0472833744288477,
                0.6591202797627459,
                -1.6150760538312487
            ]
        },
        {
            "positions": [
                -0.28492654908284154,
                -1.3685142415049625,
                1.9169894846523448,
                -1.0082901996538645,
                0.5940143269031558,
                -1.8103598381480228
            ]
        },
        {
            "positions": [
                -0.22933050412710132,
                -1.3332650219122022,
                1.9168125479704858,
                -0.9692970248788809,
                0.5289083740435656,
                -2.005643622464798
            ]
        },
        {
            "positions": [
                -0.1737344591713611,
                -1.2980158023194417,
                1.916635611288627,
                -0.9303038501038976,
                0.4638024211839755,
                -2.200927406781572
            ]
        },
        {
            "positions": [
                -0.11813841421562099,
                -1.2627665827266812,
                1.916458674606768,
                -0.8913106753289142,
                0.3986964683243852,
                -2.396211191098347
            ]
        },
        {
            "positions": [
                -0.06254236925988077,
                -1.227517363133921,
                1.9162817379249093,
                -0.8523175005539307,
                0.3335905154647951,
                -2.591494975415121
            ]
        },
        {
            "positions": [
                -0.006946324304140772,
                -1.1922681435411606,
                1.9161048012430504,
                -0.8133243257789474,
                0.26848456260520503,
                -2.786778759731895
            ]
        },
        {
            "positions": [
                0.04864972065159945,
                -1.1570189239484,
                1.9159278645611915,
                -0.7743311510039639,
                0.20337860974561472,
                -2.98206254404867
            ]
        },
        {
            "positions": [
                0.10424576560733965,
                -1.1217697043556396,
                1.9157509278793325,
                -0.7353379762289806,
                0.13827265688602458,
                -3.1773463283654446
            ]
        },
        {
            "positions": [
                0.12366349319620043,
                -1.134791148423564,
                1.9636627852622506,
                -0.7568158452764578,
                0.12472888190660852,
                -3.203689264689903
            ]
        }
    ]
}