{
    "goal": {
        "global_pose": {
            "orientation": {
                "w": 0.7047431468963623,
                "x": -0.7094548344612122,
                "y": 0.0024358443915843964,
                "z": -0.0022348060738295317
            },
            "position": {
                "x": 0.6094750761985779,
                "y": 0.3671506643295288,
                "z": 0.19426114857196808
            }
        },
        "name": "move_to_magneteinheit_A"
    },
    "id": "KPIECE_move_to_magneteinheit_A_146",
    "joint_names": [
        "shoulder_pan_joint",
        "shoulder_lift_joint",
        "elbow_joint",
        "wrist_1_joint",
        "wrist_2_joint",
        "wrist_3_joint"
    ],
    "metrics": {
        "cart_traj_len": 3.447833860007573,
        "distance_elbow_joint": 3.9076558922598443,
        "distance_shoulder_lift_joint": 0.5125741753526349,
        "distance_shoulder_pan_joint": 2.7674772049433747,
        "distance_wrist_1_joint": 0.7005850958679237,
        "distance_wrist_2_joint": 2.1322118961019023,
        "distance_wrist_3_joint": 3.5768610088856385,
        "smoothness": 0.09259612168140002,
        "time": 0.164883744,
        "traj_len": 3.6874605453362235,
        "weighted_distance": 4.856324153426377
    },
    "planner": "KPIECE",
    "start": {
        "state": {
            "elbow_joint": -1.919618573717145,
            "shoulder_lift_joint": -1.2443395971678275,
            "shoulder_pan_joint": 2.6996025300909787,
            "wrist_1_joint": -1.548550951253194,
            "wrist_2_joint": -1.5709469090946802,
            "wrist_3_joint": 0.4420197732051276
        }
    },
    "waypoints": [
        {
            "positions": [
                2.6996025300909787,
                -1.2443395971678275,
                -1.919618573717145,
                -1.548550951253194,
                -1.5709469090946802,
                0.4420197732051276
            ]
        },
        {
            "positions": [
                2.607914854537759,
                -1.253812022174549,
                -1.7959382892395201,
                -1.5419400832265318,
                -1.4862570546032832,
                0.36458760202622875
            ]
        },
        {
            "positions": [
                2.5162271789845394,
                -1.2632844471812705,
                -1.6722580047618953,
                -1.5353292151998696,
                -1.401567200111886,
                0.28715543084733
            ]
        },
        {
            "positions": [
                2.4245395034313195,
                -1.272756872187992,
                -1.5485777202842703,
                -1.5287183471732073,
                -1.316877345620489,
                0.20972325966843114
            ]
        },
        {
            "positions": [
                2.3328518278781,
                -1.2822292971947138,
                -1.4248974358066455,
                -1.522107479146545,
                -1.232187491129092,
                0.1322910884895323
            ]
        },
        {
            "positions": [
                2.24116415232488,
                -1.2917017222014353,
                -1.3012171513290207,
                -1.5154966111198827,
                -1.147497636637695,
                0.054858917310633526
            ]
        },
        {
            "positions": [
                2.1494764767716603,
                -1.3011741472081568,
                -1.177536866851396,
                -1.5088857430932205,
                -1.0628077821462978,
                -0.02257325386826531
            ]
        },
        {
            "positions": [
                2.057788801218441,
                -1.3106465722148783,
                -1.0538565823737711,
                -1.5022748750665582,
                -0.9781179276549008,
                -0.10000542504716409
            ]
        },
        {
            "positions": [
                1.966101125665221,
                -1.3201189972215999,
                -0.9301762978961462,
                -1.4956640070398959,
                -0.8934280731635037,
                -0.17743759622606298
            ]
        },
        {
            "positions": [
                1.8744134501120013,
                -1.3295914222283214,
                -0.8064960134185213,
                -1.4890531390132336,
                -0.8087382186721067,
                -0.25486976740496187
            ]
        },
        {
            "positions": [
                1.7827257745587817,
                -1.339063847235043,
                -0.6828157289408965,
                -1.4824422709865714,
                -0.7240483641807097,
                -0.33230193858386053
            ]
        },
        {
            "positions": [
                1.691038099005562,
                -1.3485362722417644,
                -0.5591354444632717,
                -1.4758314029599091,
                -0.6393585096893126,
                -0.4097341097627594
            ]
        },
        {
            "positions": [
                1.5993504234523424,
                -1.3580086972484862,
                -0.4354551599856469,
                -1.4692205349332468,
                -0.5546686551979156,
                -0.4871662809416582
            ]
        },
        {
            "positions": [
                1.5076627478991225,
                -1.3674811222552077,
                -0.31177487550802185,
                -1.4626096669065847,
                -0.46997880070651843,
                -0.5645984521205571
            ]
        },
        {
            "positions": [
                1.415975072345903,
                -1.3769535472619292,
                -0.18809459103039727,
                -1.4559987988799223,
                -0.38528894621512144,
                -0.6420306232994557
            ]
        },
        {
            "positions": [
                1.3242873967926834,
                -1.3864259722686507,
                -0.06441430655277247,
                -1.44938793085326,
                -0.30059909172372445,
                -0.7194627944783545
            ]
        },
        {
            "positions": [
                1.2325997212394635,
                -1.3958983972753722,
                0.05926597792485255,
                -1.4427770628265977,
                -0.21590923723232724,
                -0.7968949656572535
            ]
        },
        {
            "positions": [
                1.1409120456862438,
                -1.4053708222820938,
                0.18294626240247713,
                -1.4361661947999356,
                -0.13121938274093048,
                -0.8743271368361523
            ]
        },
        {
            "positions": [
                1.049224370133024,
                -1.4148432472888155,
                0.3066265468801024,
                -1.4295553267732732,
                -0.04652952824953327,
                -0.9517593080150513
            ]
        },
        {
            "positions": [
                0.9575366945798043,
                -1.424315672295537,
                0.4303068313577272,
                -1.422944458746611,
                0.03816032624186372,
                -1.02919147919395
            ]
        },
        {
            "positions": [
                0.8658490190265848,
                -1.4337880973022585,
                0.553987115835352,
                -1.4163335907199488,
                0.1228501807332607,
                -1.1066236503728486
            ]
        },
        {
            "positions": [
                0.774161343473365,
                -1.44326052230898,
                0.6776674003129768,
                -1.4097227226932865,
                0.20754003522465791,
                -1.1840558215517476
            ]
        },
        {
            "positions": [
                0.6824736679201452,
                -1.4527329473157016,
                0.8013476847906015,
                -1.4031118546666241,
                0.292229889716055,
                -1.2614879927306464
            ]
        },
        {
            "positions": [
                0.6096398823139424,
                -1.4403676669621919,
                0.8906067570158672,
                -1.3481895299419289,
                0.2983223293489511,
                -1.4066264095326875
            ]
        },
        {
            "positions": [
                0.5368060967077396,
                -1.4280023866086822,
                0.9798658292411329,
                -1.2932672052172338,
                0.3044147689818471,
                -1.5517648263347286
            ]
        },
        {
            "positions": [
                0.46397231110153686,
                -1.4156371062551723,
                1.0691249014663986,
                -1.2383448804925385,
                0.3105072086147432,
                -1.6969032431367694
            ]
        },
        {
            "positions": [
                0.39113852549533407,
                -1.4032718259016626,
                1.1583839736916643,
                -1.1834225557678433,
                0.3165996482476392,
                -1.8420416599388105
            ]
        },
        {
            "positions": [
                0.31830473988913127,
                -1.3909065455481529,
                1.24764304591693,
                -1.128500231043148,
                0.32269208788053527,
                -1.9871800767408516
            ]
        },
        {
            "positions": [
                0.24547095428292853,
                -1.3785412651946432,
                1.3369021181421958,
                -1.073577906318453,
                0.3287845275134313,
                -2.1323184935428925
            ]
        },
        {
            "positions": [
                0.17263716867672574,
                -1.3661759848411332,
                1.4261611903674614,
                -1.0186555815937577,
                0.33487696714632736,
                -2.2774569103449336
            ]
        },
        {
            "positions": [
                0.09980338307052294,
                -1.3538107044876235,
                1.515420262592727,
                -0.9637332568690626,
                0.3409694067792234,
                -2.4225953271469747
            ]
        },
        {
            "positions": [
                0.026969597464320132,
                -1.3414454241341138,
                1.6046793348179929,
                -0.9088109321443674,
                0.34706184641211946,
                -2.5677337439490158
            ]
        },
        {
            "positions": [
                0.05068066554349876,
                -1.2932220986283205,
                1.7005188307491692,
                -0.8935996629545931,
                0.29351106126334386,
                -2.7095106168818894
            ]
        },
        {
            "positions": [
                0.07439173362267738,
                -1.2449987731225272,
                1.7963583266803458,
                -0.8783883937648189,
                0.2399602761145683,
                -2.851287489814763
            ]
        },
        {
            "positions": [
                0.09810280170185602,
                -1.196775447616734,
                1.8921978226115224,
                -0.8631771245750446,
                0.18640949096579273,
                -2.993064362747637
            ]
        },
        {
            "positions": [
                0.12181386978103464,
                -1.1485521221109407,
                1.9880373185426987,
                -0.8479658553852704,
                0.13285870581701714,
                -3.134841235680511
            ]
        }
    ]
}{
    "goal": {
        "global_pose": {
            "orientation": {
                "w": 0.7047431468963623,
                "x": -0.7094548344612122,
                "y": 0.0024358443915843964,
                "z": -0.0022348060738295317
            },
            "position": {
                "x": 0.6094750761985779,
                "y": 0.3671506643295288,
                "z": 0.19426114857196808
            }
        },
        "name": "move_to_magneteinheit_A"
    },
    "id": "KPIECE_move_to_magneteinheit_A_146",
    "joint_names": [
        "shoulder_pan_joint",
        "shoulder_lift_joint",
        "elbow_joint",
        "wrist_1_joint",
        "wrist_2_joint",
        "wrist_3_joint"
    ],
    "metrics": {
        "cart_traj_len": 1.1399051579999844,
        "distance_elbow_joint": 0.429813224982901,
        "distance_shoulder_lift_joint": 1.2618759442772651,
        "distance_shoulder_pan_joint": 1.2417438880806593,
        "distance_wrist_1_joint": 1.325482591700732,
        "distance_wrist_2_joint": 1.438951242906128,
        "distance_wrist_3_joint": 4.286904713649798,
        "smoothness": 0.1882903654055191,
        "time": 0.06358703299999999,
        "traj_len": 3.1598689222177367,
        "weighted_distance": 4.617685011724375
    },
    "planner": "KPIECE",
    "start": {
        "state": {
            "elbow_joint": 1.919643534880228,
            "shoulder_lift_joint": -1.8972525353963687,
            "shoulder_pan_joint": -1.1188672234189438,
            "wrist_1_joint": -1.5931878212786155,
            "wrist_2_joint": 1.5706036197970081,
            "wrist_3_joint": 1.118896926603594
        }
    },
    "waypoints": [
        {
            "positions": [
                -1.1188672234189438,
                -1.8972525353963687,
                1.919643534880228,
                -1.5931878212786155,
                1.5706036197970081,
                1.118896926603594
            ]
        },
        {
            "positions": [
                -1.1172201224682765,
                -1.920263327132904,
                1.9417402277546199,
                -1.6176756436687387,
                1.4512590899282507,
                0.9435445497783741
            ]
        },
        {
            "positions": [
                -1.1155730215176092,
                -1.9432741188694391,
                1.9638369206290116,
                -1.6421634660588622,
                1.3319145600594935,
                0.7681921729531542
            ]
        },
        {
            "positions": [
                -1.113925920566942,
                -1.9662849106059743,
                1.9859336135034031,
                -1.6666512884489855,
                1.212570030190736,
                0.5928397961279344
            ]
        },
        {
            "positions": [
                -1.1122788196162747,
                -1.9892957023425095,
                2.008030306377795,
                -1.691139110839109,
                1.0932255003219788,
                0.4174874193027145
            ]
        },
        {
            "positions": [
                -1.1106317186656074,
                -2.0123064940790445,
                2.030126999252187,
                -1.7156269332292322,
                0.9738809704532214,
                0.24213504247749462
            ]
        },
        {
            "positions": [
                -1.10898461771494,
                -2.0353172858155797,
                2.0522236921265784,
                -1.7401147556193557,
                0.8545364405844641,
                0.06678266565227475
            ]
        },
        {
            "positions": [
                -1.1073375167642727,
                -2.058328077552115,
                2.07432038500097,
                -1.764602578009479,
                0.7351919107157067,
                -0.10856971117294512
            ]
        },
        {
            "positions": [
                -1.1056904158136054,
                -2.08133886928865,
                2.096417077875362,
                -1.7890904003996024,
                0.6158473808469493,
                -0.283922087998165
            ]
        },
        {
            "positions": [
                -1.1040433148629383,
                -2.1043496610251853,
                2.1185137707497534,
                -1.8135782227897257,
                0.4965028509781919,
                -0.45927446482338485
            ]
        },
        {
            "positions": [
                -1.102396213912271,
                -2.1273604527617205,
                2.1406104636241454,
                -1.8380660451798492,
                0.3771583211094347,
                -0.6346268416486047
            ]
        },
        {
            "positions": [
                -1.1007491129616036,
                -2.1503712444982557,
                2.162707156498537,
                -1.8625538675699724,
                0.2578137912406773,
                -0.8099792184738246
            ]
        },
        {
            "positions": [
                -1.0242725018601462,
                -2.0873239172997944,
                2.15103530628825,
                -1.7965465834818866,
                0.24992870284381502,
                -0.9573560040095983
            ]
        },
        {
            "positions": [
                -0.9477958907586888,
                -2.0242765901013335,
                2.139363456077963,
                -1.7305392993938005,
                0.2420436144469527,
                -1.104732789545372
            ]
        },
        {
            "positions": [
                -0.8713192796572312,
                -1.9612292629028723,
                2.127691605867676,
                -1.6645320153057146,
                0.23415852605009035,
                -1.2521095750811455
            ]
        },
        {
            "positions": [
                -0.7948426685557738,
                -1.8981819357044112,
                2.1160197556573888,
                -1.5985247312176287,
                0.22627343765322805,
                -1.3994863606169192
            ]
        },
        {
            "positions": [
                -0.7183660574543164,
                -1.8351346085059501,
                2.104347905447102,
                -1.5325174471295426,
                0.21838834925636574,
                -1.546863146152693
            ]
        },
        {
            "positions": [
                -0.6418894463528588,
                -1.7720872813074888,
                2.092676055236815,
                -1.4665101630414568,
                0.2105032608595034,
                -1.6942399316884664
            ]
        },
        {
            "positions": [
                -0.5654128352514014,
                -1.7090399541090278,
                2.081004205026528,
                -1.4005028789533709,
                0.20261817246264108,
                -1.8416167172242401
            ]
        },
        {
            "positions": [
                -0.488936224149944,
                -1.6459926269105667,
                2.069332354816241,
                -1.334495594865285,
                0.19473308406577877,
                -1.9889935027600139
            ]
        },
        {
            "positions": [
                -0.41245961304848655,
                -1.5829452997121054,
                2.0576605046059537,
                -1.268488310777199,
                0.18684799566891647,
                -2.1363702882957876
            ]
        },
        {
            "positions": [
                -0.3359830019470291,
                -1.5198979725136443,
                2.045988654395667,
                -1.202481026689113,
                0.17896290727205413,
                -2.2837470738315613
            ]
        },
        {
            "positions": [
                -0.2595063908455716,
                -1.4568506453151833,
                2.03431680418538,
                -1.136473742601027,
                0.1710778188751918,
                -2.431123859367335
            ]
        },
        {
            "positions": [
                -0.18302977974411416,
                -1.393803318116722,
                2.022644953975093,
                -1.070466458512941,
                0.1631927304783295,
                -2.5785006449031087
            ]
        },
        {
            "positions": [
                -0.10655316864265674,
                -1.330755990918261,
                2.010973103764806,
                -1.0044591744248552,
                0.1553076420814672,
                -2.7258774304388824
            ]
        },
        {
            "positions": [
                -0.0300765575411992,
                -1.2677086637197998,
                1.999301253554519,
                -0.9384518903367692,
                0.14742255368460486,
                -2.8732542159746557
            ]
        },
        {
            "positions": [
                0.046400053560258225,
                -1.2046613365213386,
                1.9876294033442319,
                -0.8724446062486834,
                0.13953746528774252,
                -3.0206310015104294
            ]
        },
        {
            "positions": [
                0.12287666466171565,
                -1.1416140093228775,
                1.9759575531339448,
                -0.8064373221605974,
                0.13165237689088022,
                -3.168007787046203
            ]
        }
    ]
}