{
    "goal": {
        "global_pose": {
            "orientation": {
                "w": 0.5084816217422485,
                "x": -0.49083608388900757,
                "y": 0.5182115435600281,
                "z": -0.4816462993621826
            },
            "position": {
                "x": 0.5540239810943604,
                "y": 0.030875300988554955,
                "z": 0.16403168439865112
            }
        },
        "name": "move_to_storage_A"
    },
    "id": "KPIECE_move_to_storage_A_95",
    "joint_names": [
        "shoulder_pan_joint",
        "shoulder_lift_joint",
        "elbow_joint",
        "wrist_1_joint",
        "wrist_2_joint",
        "wrist_3_joint"
    ],
    "metrics": {
        "cart_traj_len": 0.35336266253847876,
        "distance_elbow_joint": 0.44805823463823025,
        "distance_shoulder_lift_joint": 0.23488187698058005,
        "distance_shoulder_pan_joint": 0.46333884705246103,
        "distance_wrist_1_joint": 0.23768874372079518,
        "distance_wrist_2_joint": 1.0935390145831616,
        "distance_wrist_3_joint": 0.10016021637463668,
        "smoothness": 1.3322676311638882e-15,
        "time": 0.059641241,
        "traj_len": 1.6055114242352388,
        "weighted_distance": 2.027119908738281
    },
    "planner": "KPIECE",
    "start": {
        "state": {
            "elbow_joint": 1.9715477243005601,
            "shoulder_lift_joint": -1.1394853015351272,
            "shoulder_pan_joint": 0.12281154014795169,
            "wrist_1_joint": -0.7804696478968182,
            "wrist_2_joint": 0.12958648046900423,
            "wrist_3_joint": -3.192491284697111
        }
    },
    "waypoints": [
        {
            "positions": [
                0.12281154014795169,
                -1.1394853015351272,
                1.9715477243005601,
                -0.7804696478968182,
                0.12958648046900423,
                -3.192491284697111
            ]
        },
        {
            "positions": [
                0.0566202762833144,
                -1.1730398553894958,
                2.035556043534593,
                -0.8144251827140746,
                0.28580633969517016,
                -3.1781826823578774
            ]
        },
        {
            "positions": [
                -0.009570987581322896,
                -1.2065944092438643,
                2.099564362768626,
                -0.848380717531331,
                0.4420261989213361,
                -3.1638740800186436
            ]
        },
        {
            "positions": [
                -0.07576225144596017,
                -1.240148963098233,
                2.1635726820026586,
                -0.8823362523485875,
                0.598246058147502,
                -3.1495654776794098
            ]
        },
        {
            "positions": [
                -0.14195351531059747,
                -1.2737035169526014,
                2.2275810012366914,
                -0.916291787165844,
                0.754465917373668,
                -3.135256875340176
            ]
        },
        {
            "positions": [
                -0.20814477917523477,
                -1.30725807080697,
                2.2915893204707247,
                -0.9502473219831005,
                0.910685776599834,
                -3.120948273000942
            ]
        },
        {
            "positions": [
                -0.274336043039872,
                -1.3408126246613385,
                2.3555976397047576,
                -0.9842028568003569,
                1.0669056358259998,
                -3.1066396706617083
            ]
        },
        {
            "positions": [
                -0.34052730690450933,
                -1.3743671785157072,
                2.4196059589387904,
                -1.0181583916176133,
                1.223125495052166,
                -3.0923310683224745
            ]
        }
    ]
}