{
    "goal": {
        "global_pose": {
            "orientation": {
                "w": 0.5084816217422485,
                "x": -0.49083608388900757,
                "y": 0.5182115435600281,
                "z": -0.4816462993621826
            },
            "position": {
                "x": 0.5540239810943604,
                "y": 0.030875300988554955,
                "z": 0.16403168439865112
            }
        },
        "name": "move_to_storage_A"
    },
    "id": "KPIECE_move_to_storage_A_86",
    "joint_names": [
        "shoulder_pan_joint",
        "shoulder_lift_joint",
        "elbow_joint",
        "wrist_1_joint",
        "wrist_2_joint",
        "wrist_3_joint"
    ],
    "metrics": {
        "cart_traj_len": 0.35365535033982703,
        "distance_elbow_joint": 0.45046914016952355,
        "distance_shoulder_lift_joint": 0.23449193698358228,
        "distance_shoulder_pan_joint": 0.46429555265987843,
        "distance_wrist_1_joint": 0.24838494342451367,
        "distance_wrist_2_joint": 1.0916623902253773,
        "distance_wrist_3_joint": 0.09695250529432187,
        "smoothness": 0.0,
        "time": 0.073005915,
        "traj_len": 1.6081842148078676,
        "weighted_distance": 2.0298297497563023
    },
    "planner": "KPIECE",
    "start": {
        "state": {
            "elbow_joint": 1.9715477243005601,
            "shoulder_lift_joint": -1.1394853015351272,
            "shoulder_pan_joint": 0.12281154014795169,
            "wrist_1_joint": -0.7804696478968182,
            "wrist_2_joint": 0.12958648046900423,
            "wrist_3_joint": -3.192491284697111
        }
    },
    "waypoints": [
        {
            "positions": [
                0.12281154014795169,
                -1.1394853015351272,
                1.9715477243005601,
                -0.7804696478968182,
                0.12958648046900423,
                -3.192491284697111
            ]
        },
        {
            "positions": [
                0.05648360405368334,
                -1.172984149675639,
                2.035900458610492,
                -0.8159532112431772,
                0.28553825050120096,
                -3.1786409267979225
            ]
        },
        {
            "positions": [
                -0.009844332040585005,
                -1.2064829978161506,
                2.100253192920424,
                -0.8514367745895364,
                0.4414900205333977,
                -3.1647905688987334
            ]
        },
        {
            "positions": [
                -0.07617226813485335,
                -1.2399818459566625,
                2.164605927230356,
                -0.8869203379358954,
                0.5974417905655944,
                -3.150940210999545
            ]
        },
        {
            "positions": [
                -0.14250020422912169,
                -1.2734806940971741,
                2.228958661540288,
                -0.9224039012822546,
                0.7533935605977912,
                -3.1370898531003557
            ]
        },
        {
            "positions": [
                -0.20882814032339003,
                -1.306979542237686,
                2.29331139585022,
                -0.9578874646286136,
                0.909345330629988,
                -3.123239495201167
            ]
        },
        {
            "positions": [
                -0.2751560764176584,
                -1.3404783903781976,
                2.3576641301601517,
                -0.9933710279749728,
                1.0652971006621845,
                -3.109389137301978
            ]
        },
        {
            "positions": [
                -0.3414840125119267,
                -1.3739772385187095,
                2.4220168644700837,
                -1.0288545913213318,
                1.2212488706943816,
                -3.0955387794027893
            ]
        }
    ]
}