{
    "goal": {
        "global_pose": {
            "orientation": {
                "w": 0.7047431468963623,
                "x": -0.7094548344612122,
                "y": 0.0024358443915843964,
                "z": -0.0022348060738295317
            },
            "position": {
                "x": 0.6094750761985779,
                "y": 0.3671506643295288,
                "z": 0.19426114857196808
            }
        },
        "name": "move_to_magneteinheit_A"
    },
    "id": "KPIECE_move_to_magneteinheit_A_1",
    "joint_names": [
        "shoulder_pan_joint",
        "shoulder_lift_joint",
        "elbow_joint",
        "wrist_1_joint",
        "wrist_2_joint",
        "wrist_3_joint"
    ],
    "metrics": {
        "cart_traj_len": 3.1102441610044624,
        "distance_elbow_joint": 3.9380516496178095,
        "distance_shoulder_lift_joint": 1.1166721243072453,
        "distance_shoulder_pan_joint": 3.7188866486551433,
        "distance_wrist_1_joint": 3.5486221551876693,
        "distance_wrist_2_joint": 1.5816041015721984,
        "distance_wrist_3_joint": 0.6376792192065637,
        "smoothness": 0.2425601310050359,
        "time": 0.24615206899999997,
        "traj_len": 3.8133339610564696,
        "weighted_distance": 4.576800257135941
    },
    "planner": "KPIECE",
    "start": {
        "state": {
            "elbow_joint": -1.919618573717145,
            "shoulder_lift_joint": -1.2443395971678275,
            "shoulder_pan_joint": 2.6996025300909787,
            "wrist_1_joint": -1.548550951253194,
            "wrist_2_joint": -1.5709469090946802,
            "wrist_3_joint": 0.4420197732051276
        }
    },
    "waypoints": [
        {
            "positions": [
                2.6996025300909787,
                -1.2443395971678275,
                -1.919618573717145,
                -1.548550951253194,
                -1.5709469090946802,
                0.4420197732051276
            ]
        },
        {
            "positions": [
                2.5844966901184705,
                -1.2412328627987723,
                -1.8432165611732676,
                -1.5391865841960013,
                -1.512146166482852,
                0.38873364851458597
            ]
        },
        {
            "positions": [
                2.469390850145962,
                -1.2381261284297174,
                -1.76681454862939,
                -1.5298222171388087,
                -1.453345423871024,
                0.33544752382404436
            ]
        },
        {
            "positions": [
                2.354285010173453,
                -1.2350193940606622,
                -1.6904125360855127,
                -1.5204578500816162,
                -1.394544681259196,
                0.2821613991335028
            ]
        },
        {
            "positions": [
                2.239179170200945,
                -1.231912659691607,
                -1.6140105235416353,
                -1.5110934830244234,
                -1.3357439386473677,
                0.22887527444296116
            ]
        },
        {
            "positions": [
                2.122347020605537,
                -1.2462706633867338,
                -1.478700850678092,
                -1.391628794364686,
                -1.3389466555024199,
                0.22991359217568977
            ]
        },
        {
            "positions": [
                2.0055148710101283,
                -1.2606286670818605,
                -1.3433911778145489,
                -1.2721641057049486,
                -1.342149372357472,
                0.23095190990841835
            ]
        },
        {
            "positions": [
                1.8886827214147202,
                -1.274986670776987,
                -1.2080815049510056,
                -1.1526994170452112,
                -1.3453520892125244,
                0.23199022764114696
            ]
        },
        {
            "positions": [
                1.7718505718193118,
                -1.2893446744721138,
                -1.0727718320874624,
                -1.033234728385474,
                -1.3485548060675765,
                0.23302854537387555
            ]
        },
        {
            "positions": [
                1.6550184222239035,
                -1.3037026781672405,
                -0.9374621592239192,
                -0.9137700397257364,
                -1.3517575229226286,
                0.23406686310660416
            ]
        },
        {
            "positions": [
                1.5381862726284954,
                -1.3180606818623672,
                -0.802152486360376,
                -0.794305351065999,
                -1.3549602397776808,
                0.23510518083933277
            ]
        },
        {
            "positions": [
                1.421354123033087,
                -1.332418685557494,
                -0.6668428134968326,
                -0.6748406624062615,
                -1.3581629566327331,
                0.23614349857206135
            ]
        },
        {
            "positions": [
                1.3045219734376787,
                -1.3467766892526207,
                -0.5315331406332895,
                -0.5553759737465243,
                -1.3613656734877853,
                0.23718181630478996
            ]
        },
        {
            "positions": [
                1.1876898238422706,
                -1.3611346929477475,
                -0.39622346776974604,
                -0.4359112850867868,
                -1.3645683903428374,
                0.23822013403751857
            ]
        },
        {
            "positions": [
                1.0708576742468623,
                -1.375492696642874,
                -0.26091379490620303,
                -0.31644659642704953,
                -1.3677711071978895,
                0.23925845177024715
            ]
        },
        {
            "positions": [
                0.954025524651454,
                -1.3898507003380007,
                -0.12560412204265958,
                -0.19698190776731206,
                -1.3709738240529417,
                0.24029676950297577
            ]
        },
        {
            "positions": [
                0.8371933750560459,
                -1.4042087040331275,
                0.009705550820883424,
                -0.07751721910757459,
                -1.374176540907994,
                0.24133508723570435
            ]
        },
        {
            "positions": [
                0.7203612254606375,
                -1.4185667077282542,
                0.14501522368442665,
                0.041947469552162664,
                -1.3773792577630461,
                0.24237340496843296
            ]
        },
        {
            "positions": [
                0.6035290758652292,
                -1.432924711423381,
                0.2803248965479701,
                0.16141215821190036,
                -1.3805819746180983,
                0.24341172270116157
            ]
        },
        {
            "positions": [
                0.48669692626982086,
                -1.4472827151185075,
                0.41563456941151333,
                0.2808768468716376,
                -1.3837846914731504,
                0.24445004043389015
            ]
        },
        {
            "positions": [
                0.36986477667441275,
                -1.4616407188136342,
                0.5509442422750563,
                0.40034153553137486,
                -1.3869874083282026,
                0.24548835816661876
            ]
        },
        {
            "positions": [
                0.25303262707900465,
                -1.475998722508761,
                0.6862539151385998,
                0.5198062241911123,
                -1.390190125183255,
                0.24652667589934735
            ]
        },
        {
            "positions": [
                0.13620047748359632,
                -1.4903567262038877,
                0.8215635880021432,
                0.6392709128508498,
                -1.393392842038307,
                0.24756499363207596
            ]
        },
        {
            "positions": [
                0.019368327888187764,
                -1.5047147298990144,
                0.9568732608656862,
                0.7587356015105873,
                -1.3965955588933592,
                0.24860331136480457
            ]
        },
        {
            "positions": [
                -0.09746382170722034,
                -1.519072733594141,
                1.0921829337292293,
                0.8782002901703243,
                -1.3997982757484113,
                0.24964162909753315
            ]
        },
        {
            "positions": [
                -0.21429597130262845,
                -1.5334307372892677,
                1.2274926065927727,
                0.9976649788300618,
                -1.4030009926034637,
                0.25067994683026174
            ]
        },
        {
            "positions": [
                -0.331128120898037,
                -1.5477887409843945,
                1.3628022794563162,
                1.1171296674897992,
                -1.4062037094585158,
                0.25171826456299035
            ]
        },
        {
            "positions": [
                -0.447960270493445,
                -1.5621467446795212,
                1.4981119523198592,
                1.2365943561495367,
                -1.409406426313568,
                0.25275658229571896
            ]
        },
        {
            "positions": [
                -0.3984566603915741,
                -1.4953667155718904,
                1.5397797583275634,
                1.3006232323760683,
                -1.2940373330416273,
                0.21871573211848944
            ]
        },
        {
            "positions": [
                -0.3489530502897033,
                -1.4285866864642598,
                1.5814475643352677,
                1.3646521086026,
                -1.1786682397696866,
                0.1846748819412599
            ]
        },
        {
            "positions": [
                -0.2994494401878325,
                -1.361806657356629,
                1.623115370342972,
                1.4286809848291315,
                -1.0632991464977457,
                0.15063403176403034
            ]
        },
        {
            "positions": [
                -0.24994583008596158,
                -1.2950266282489982,
                1.6647831763506762,
                1.4927098610556633,
                -0.947930053225805,
                0.11659318158680082
            ]
        },
        {
            "positions": [
                -0.20044221998409073,
                -1.2282465991413676,
                1.7064509823583802,
                1.5567387372821948,
                -0.8325609599538644,
                0.08255233140957127
            ]
        },
        {
            "positions": [
                -0.1509386098822199,
                -1.1614665700337368,
                1.7481187883660845,
                1.6207676135087263,
                -0.7171918666819237,
                0.04851148123234175
            ]
        },
        {
            "positions": [
                -0.10143499978034903,
                -1.094686540926106,
                1.7897865943737887,
                1.684796489735258,
                -0.601822773409983,
                0.014470631055112204
            ]
        },
        {
            "positions": [
                -0.05193138967847816,
                -1.0279065118184754,
                1.831454400381493,
                1.7488253659617898,
                -0.48645368013804224,
                -0.019570219122117316
            ]
        },
        {
            "positions": [
                -0.0024277795766072807,
                -0.9611264827108446,
                1.8731222063891972,
                1.8128542421883216,
                -0.37108458686610146,
                -0.05361106929934689
            ]
        },
        {
            "positions": [
                0.04707583052526354,
                -0.8943464536032139,
                1.9147900123969015,
                1.876883118414853,
                -0.2557154935941608,
                -0.08765191947657641
            ]
        },
        {
            "positions": [
                0.0965794406271344,
                -0.8275664244955832,
                1.9564578184046058,
                1.9409119946413846,
                -0.14034640032222004,
                -0.12169276965380593
            ]
        },
        {
            "positions": [
                0.12336357757727442,
                -0.7881356428364105,
                2.018433075900663,
                2.0000712039344744,
                -0.1366677828548819,
                -0.09548870901169138
            ]
        }
    ]
}{
    "goal": {
        "global_pose": {
            "orientation": {
                "w": 0.7047431468963623,
                "x": -0.7094548344612122,
                "y": 0.0024358443915843964,
                "z": -0.0022348060738295317
            },
            "position": {
                "x": 0.6094750761985779,
                "y": 0.3671506643295288,
                "z": 0.19426114857196808
            }
        },
        "name": "move_to_magneteinheit_A"
    },
    "id": "KPIECE_move_to_magneteinheit_A_1",
    "joint_names": [
        "shoulder_pan_joint",
        "shoulder_lift_joint",
        "elbow_joint",
        "wrist_1_joint",
        "wrist_2_joint",
        "wrist_3_joint"
    ],
    "metrics": {
        "cart_traj_len": 1.2037785095531972,
        "distance_elbow_joint": 0.32794433832347214,
        "distance_shoulder_lift_joint": 0.7656587319594643,
        "distance_shoulder_pan_joint": 1.2416835131746766,
        "distance_wrist_1_joint": 1.8027111274792125,
        "distance_wrist_2_joint": 1.4353249386341147,
        "distance_wrist_3_joint": 4.3761639983233795,
        "smoothness": 0.23595085682781966,
        "time": 0.111922345,
        "traj_len": 3.1542806862887653,
        "weighted_distance": 4.683999435381521
    },
    "planner": "KPIECE",
    "start": {
        "state": {
            "elbow_joint": 1.919643534880228,
            "shoulder_lift_joint": -1.8972525353963687,
            "shoulder_pan_joint": -1.1188672234189438,
            "wrist_1_joint": -1.5931878212786155,
            "wrist_2_joint": 1.5706036197970081,
            "wrist_3_joint": 1.118896926603594
        }
    },
    "waypoints": [
        {
            "positions": [
                -1.1188672234189438,
                -1.8972525353963687,
                1.919643534880228,
                -1.5931878212786155,
                1.5706036197970081,
                1.118896926603594
            ]
        },
        {
            "positions": [
                -1.0701772238790694,
                -1.869055828384351,
                1.9124214127326742,
                -1.5260488522059719,
                1.5032928845781701,
                0.9578854019446987
            ]
        },
        {
            "positions": [
                -1.021487224339195,
                -1.840859121372333,
                1.9051992905851205,
                -1.4589098831333283,
                1.435982149359332,
                0.7968738772858034
            ]
        },
        {
            "positions": [
                -0.9727972247993207,
                -1.8126624143603154,
                1.8979771684375666,
                -1.3917709140606846,
                1.368671414140494,
                0.6358623526269082
            ]
        },
        {
            "positions": [
                -0.9241072252594463,
                -1.7844657073482975,
                1.8907550462900127,
                -1.324631944988041,
                1.3013606789216559,
                0.4748508279680128
            ]
        },
        {
            "positions": [
                -0.8754172257195719,
                -1.7562690003362798,
                1.8835329241424588,
                -1.2574929759153974,
                1.2340499437028178,
                0.3138393033091176
            ]
        },
        {
            "positions": [
                -0.8267272261796976,
                -1.7280722933242618,
                1.876310801994905,
                -1.1903540068427538,
                1.1667392084839798,
                0.15282777865022235
            ]
        },
        {
            "positions": [
                -0.7780372266398232,
                -1.6998755863122441,
                1.8690886798473512,
                -1.1232150377701102,
                1.0994284732651418,
                -0.008183746008672887
            ]
        },
        {
            "positions": [
                -0.7293472270999488,
                -1.6716788793002262,
                1.8618665576997973,
                -1.0560760686974666,
                1.0321177380463036,
                -0.16919527066756834
            ]
        },
        {
            "positions": [
                -0.6806572275600744,
                -1.6434821722882085,
                1.8546444355522436,
                -0.988937099624823,
                0.9648070028274657,
                -0.3302067953264636
            ]
        },
        {
            "positions": [
                -0.6319672280202,
                -1.6152854652761905,
                1.8474223134046897,
                -0.9217981305521794,
                0.8974962676086277,
                -0.4912183199853588
            ]
        },
        {
            "positions": [
                -0.5832772284803256,
                -1.5870887582641728,
                1.8402001912571357,
                -0.8546591614795357,
                0.8301855323897895,
                -0.6522298446442543
            ]
        },
        {
            "positions": [
                -0.5345872289404513,
                -1.5588920512521551,
                1.832978069109582,
                -0.7875201924068922,
                0.7628747971709516,
                -0.8132413693031493
            ]
        },
        {
            "positions": [
                -0.4858972294005768,
                -1.5306953442401372,
                1.8257559469620281,
                -0.7203812233342486,
                0.6955640619521135,
                -0.9742528939620445
            ]
        },
        {
            "positions": [
                -0.4372072298607025,
                -1.5024986372281195,
                1.8185338248144742,
                -0.6532422542616051,
                0.6282533267332755,
                -1.1352644186209397
            ]
        },
        {
            "positions": [
                -0.3885172303208281,
                -1.4743019302161016,
                1.8113117026669205,
                -0.5861032851889614,
                0.5609425915144375,
                -1.2962759432798354
            ]
        },
        {
            "positions": [
                -0.33982723078095367,
                -1.4461052232040839,
                1.8040895805193666,
                -0.5189643161163178,
                0.49363185629559925,
                -1.4572874679387307
            ]
        },
        {
            "positions": [
                -0.2911372312410794,
                -1.4179085161920661,
                1.7968674583718127,
                -0.45182534704367416,
                0.42632112107676146,
                -1.6182989925976259
            ]
        },
        {
            "positions": [
                -0.24244723170120486,
                -1.3897118091800482,
                1.7896453362242588,
                -0.38468637797103056,
                0.3590103858579232,
                -1.7793105172565211
            ]
        },
        {
            "positions": [
                -0.19375723216133056,
                -1.3615151021680303,
                1.7824232140767051,
                -0.31754740889838695,
                0.2916996506390852,
                -1.9403220419154164
            ]
        },
        {
            "positions": [
                -0.14506723262145618,
                -1.3333183951560126,
                1.7752010919291512,
                -0.25040843982574346,
                0.2243889154202472,
                -2.101333566574312
            ]
        },
        {
            "positions": [
                -0.10041997889192468,
                -1.2996976298694944,
                1.8057847411578838,
                -0.3270637308301335,
                0.20953720971068823,
                -2.293989150765224
            ]
        },
        {
            "positions": [
                -0.05577272516239318,
                -1.2660768645829765,
                1.8363683903866164,
                -0.40371902183452363,
                0.19468550400112924,
                -2.4866447349561365
            ]
        },
        {
            "positions": [
                -0.011125471432861661,
                -1.2324560992964586,
                1.8669520396153487,
                -0.48037431283891374,
                0.17983379829157026,
                -2.679300319147049
            ]
        },
        {
            "positions": [
                0.03352178229666983,
                -1.1988353340099405,
                1.8975356888440813,
                -0.5570296038433038,
                0.1649820925820113,
                -2.8719559033379616
            ]
        },
        {
            "positions": [
                0.07816903602620137,
                -1.1652145687234223,
                1.9281193380728139,
                -0.633684894847694,
                0.15013038687245234,
                -3.064611487528874
            ]
        },
        {
            "positions": [
                0.12281628975573289,
                -1.1315938034369044,
                1.9587029873015465,
                -0.710340185852084,
                0.13527868116289335,
                -3.2572670717197862
            ]
        }
    ]
}