{
    "goal": {
        "global_pose": {
            "orientation": {
                "w": 0.5084816217422485,
                "x": -0.49083608388900757,
                "y": 0.5182115435600281,
                "z": -0.4816462993621826
            },
            "position": {
                "x": 0.5540239810943604,
                "y": 0.030875300988554955,
                "z": 0.16403168439865112
            }
        },
        "name": "move_to_storage_A"
    },
    "id": "KPIECE_move_to_storage_A_87",
    "joint_names": [
        "shoulder_pan_joint",
        "shoulder_lift_joint",
        "elbow_joint",
        "wrist_1_joint",
        "wrist_2_joint",
        "wrist_3_joint"
    ],
    "metrics": {
        "cart_traj_len": 0.3524344230238206,
        "distance_elbow_joint": 0.4515762854355665,
        "distance_shoulder_lift_joint": 0.23444248829147907,
        "distance_shoulder_pan_joint": 0.46042292398060397,
        "distance_wrist_1_joint": 0.2515668408533741,
        "distance_wrist_2_joint": 1.0994732556028937,
        "distance_wrist_3_joint": 0.09912488565633959,
        "smoothness": 0.0,
        "time": 0.010998474000000001,
        "traj_len": 1.6113989821953647,
        "weighted_distance": 2.0361474768761725
    },
    "planner": "KPIECE",
    "start": {
        "state": {
            "elbow_joint": 1.9715477243005601,
            "shoulder_lift_joint": -1.1394853015351272,
            "shoulder_pan_joint": 0.12281154014795169,
            "wrist_1_joint": -0.7804696478968182,
            "wrist_2_joint": 0.12958648046900423,
            "wrist_3_joint": -3.192491284697111
        }
    },
    "waypoints": [
        {
            "positions": [
                0.12281154014795169,
                -1.1394853015351272,
                1.9715477243005601,
                -0.7804696478968182,
                0.12958648046900423,
                -3.192491284697111
            ]
        },
        {
            "positions": [
                0.057036836722151124,
                -1.172977085576767,
                2.036058622219927,
                -0.8164077680187287,
                0.28665408841227474,
                -3.1783305867462057
            ]
        },
        {
            "positions": [
                -0.008737866703649441,
                -1.206468869618407,
                2.1005695201392935,
                -0.8523458881406394,
                0.44372169635554526,
                -3.1641698887953
            ]
        },
        {
            "positions": [
                -0.07451257012944999,
                -1.2399606536600467,
                2.1650804180586602,
                -0.8882840082625499,
                0.6007893042988157,
                -3.1500091908443943
            ]
        },
        {
            "positions": [
                -0.14028727355525056,
                -1.2734524377016867,
                2.2295913159780265,
                -0.9242221283844605,
                0.7578569122420863,
                -3.1358484928934884
            ]
        },
        {
            "positions": [
                -0.20606197698105116,
                -1.3069442217433265,
                2.294102213897393,
                -0.9601602485063712,
                0.9149245201853569,
                -3.121687794942583
            ]
        },
        {
            "positions": [
                -0.27183668040685166,
                -1.3404360057849662,
                2.35861311181676,
                -0.9960983686282816,
                1.0719921281286273,
                -3.107527096991677
            ]
        },
        {
            "positions": [
                -0.33761138383265227,
                -1.3739277898266062,
                2.4231240097361266,
                -1.0320364887501923,
                1.229059736071898,
                -3.0933663990407716
            ]
        }
    ]
}