{
    "goal": {
        "global_pose": {
            "orientation": {
                "w": 0.7047431468963623,
                "x": -0.7094548344612122,
                "y": 0.0024358443915843964,
                "z": -0.0022348060738295317
            },
            "position": {
                "x": 0.6094750761985779,
                "y": 0.3671506643295288,
                "z": 0.19426114857196808
            }
        },
        "name": "move_to_magneteinheit_A"
    },
    "id": "KPIECE_move_to_magneteinheit_A_16",
    "joint_names": [
        "shoulder_pan_joint",
        "shoulder_lift_joint",
        "elbow_joint",
        "wrist_1_joint",
        "wrist_2_joint",
        "wrist_3_joint"
    ],
    "metrics": {
        "cart_traj_len": 3.91576470491782,
        "distance_elbow_joint": 3.8884034302744035,
        "distance_shoulder_lift_joint": 0.13936594884193299,
        "distance_shoulder_pan_joint": 3.590082519730942,
        "distance_wrist_1_joint": 0.7919975271262327,
        "distance_wrist_2_joint": 1.9254403584805146,
        "distance_wrist_3_joint": 3.64984407892392,
        "smoothness": 0.1608775986784674,
        "time": 0.09061046,
        "traj_len": 3.7396702880572166,
        "weighted_distance": 4.899210130912178
    },
    "planner": "KPIECE",
    "start": {
        "state": {
            "elbow_joint": -1.919618573717145,
            "shoulder_lift_joint": -1.2443395971678275,
            "shoulder_pan_joint": 2.6996025300909787,
            "wrist_1_joint": -1.548550951253194,
            "wrist_2_joint": -1.5709469090946802,
            "wrist_3_joint": 0.4420197732051276
        }
    },
    "waypoints": [
        {
            "positions": [
                2.6996025300909787,
                -1.2443395971678275,
                -1.919618573717145,
                -1.548550951253194,
                -1.5709469090946802,
                0.4420197732051276
            ]
        },
        {
            "positions": [
                2.5854150170620307,
                -1.2397954237505189,
                -1.8307694874627312,
                -1.5480984898948318,
                -1.5036548409224033,
                0.3299936967819661
            ]
        },
        {
            "positions": [
                2.471227504033083,
                -1.2352512503332103,
                -1.7419204012083174,
                -1.5476460285364695,
                -1.4363627727501265,
                0.21796762035880457
            ]
        },
        {
            "positions": [
                2.357039991004135,
                -1.2307070769159016,
                -1.6530713149539036,
                -1.547193567178107,
                -1.3690707045778496,
                0.10594154393564309
            ]
        },
        {
            "positions": [
                2.242852477975187,
                -1.226162903498593,
                -1.56422222869949,
                -1.5467411058197447,
                -1.3017786364055728,
                -0.006084532487518446
            ]
        },
        {
            "positions": [
                2.1286649649462395,
                -1.2216187300812844,
                -1.4753731424450762,
                -1.5462886444613824,
                -1.2344865682332962,
                -0.11811060891067998
            ]
        },
        {
            "positions": [
                2.0144774519172914,
                -1.2170745566639758,
                -1.3865240561906624,
                -1.54583618310302,
                -1.1671945000610193,
                -0.2301366853338414
            ]
        },
        {
            "positions": [
                1.9002899388883436,
                -1.212530383246667,
                -1.2976749699362489,
                -1.5453837217446575,
                -1.0999024318887425,
                -0.34216276175700294
            ]
        },
        {
            "positions": [
                1.7861024258593958,
                -1.2079862098293583,
                -1.2088258836818349,
                -1.5449312603862952,
                -1.0326103637164656,
                -0.4541888381801645
            ]
        },
        {
            "positions": [
                1.6719149128304478,
                -1.2034420364120497,
                -1.1199767974274213,
                -1.544478799027933,
                -0.9653182955441888,
                -0.566214914603326
            ]
        },
        {
            "positions": [
                1.5577273998015,
                -1.198897862994741,
                -1.0311277111730075,
                -1.5440263376695706,
                -0.8980262273719121,
                -0.6782409910264875
            ]
        },
        {
            "positions": [
                1.4435398867725522,
                -1.1943536895774325,
                -0.9422786249185938,
                -1.5435738763112083,
                -0.8307341591996352,
                -0.7902670674496488
            ]
        },
        {
            "positions": [
                1.3293523737436042,
                -1.1898095161601239,
                -0.8534295386641799,
                -1.5431214149528458,
                -0.7634420910273584,
                -0.9022931438728103
            ]
        },
        {
            "positions": [
                1.2151648607146563,
                -1.1852653427428153,
                -0.7645804524097664,
                -1.5426689535944835,
                -0.6961500228550815,
                -1.0143192202959719
            ]
        },
        {
            "positions": [
                1.1009773476857085,
                -1.1807211693255066,
                -0.6757313661553526,
                -1.5422164922361212,
                -0.6288579546828048,
                -1.1263452967191334
            ]
        },
        {
            "positions": [
                0.9867898346567605,
                -1.176176995908198,
                -0.5868822799009388,
                -1.541764030877759,
                -0.5615658865105277,
                -1.2383713731422952
            ]
        },
        {
            "positions": [
                0.8726023216278127,
                -1.1716328224908894,
                -0.498033193646525,
                -1.5413115695193964,
                -0.4942738183382511,
                -1.3503974495654565
            ]
        },
        {
            "positions": [
                0.7584148085988647,
                -1.1670886490735808,
                -0.4091841073921112,
                -1.540859108161034,
                -0.4269817501659743,
                -1.462423525988618
            ]
        },
        {
            "positions": [
                0.6442272955699169,
                -1.1625444756562722,
                -0.32033502113769763,
                -1.5404066468026718,
                -0.35968968199369744,
                -1.5744496024117796
            ]
        },
        {
            "positions": [
                0.5300397825409688,
                -1.1580003022389636,
                -0.23148593488328362,
                -1.5399541854443095,
                -0.2923976138214206,
                -1.6864756788349413
            ]
        },
        {
            "positions": [
                0.41585226951202126,
                -1.153456128821655,
                -0.14263684862887005,
                -1.5395017240859472,
                -0.22510554564914398,
                -1.7985017552581026
            ]
        },
        {
            "positions": [
                0.3016647564830732,
                -1.148911955404346,
                -0.05378776237445626,
                -1.5390492627275847,
                -0.15781347747686691,
                -1.910527831681264
            ]
        },
        {
            "positions": [
                0.18747724345412564,
                -1.1443677819870375,
                0.03506132387995731,
                -1.5385968013692224,
                -0.0905214093045903,
                -2.0225539081044253
            ]
        },
        {
            "positions": [
                0.07328973042517761,
                -1.1398236085697289,
                0.1239104101343711,
                -1.53814434001086,
                -0.02322934113231323,
                -2.134579984527587
            ]
        },
        {
            "positions": [
                -0.040897782603770416,
                -1.1352794351524202,
                0.2127594963887851,
                -1.5376918786524978,
                0.04406272703996339,
                -2.2466060609507483
            ]
        },
        {
            "positions": [
                -0.15508529563271845,
                -1.1307352617351116,
                0.3016085826431987,
                -1.5372394172941353,
                0.11135479521224023,
                -2.35863213737391
            ]
        },
        {
            "positions": [
                -0.26927280866166603,
                -1.126191088317803,
                0.39045766889761224,
                -1.536786955935773,
                0.17864686338451707,
                -2.4706582137970714
            ]
        },
        {
            "positions": [
                -0.38346032169061384,
                -1.1216469149004944,
                0.4793067551520264,
                -1.5363344945774107,
                0.24593893155679386,
                -2.582684290220233
            ]
        },
        {
            "positions": [
                -0.3271248030295752,
                -1.12349950007545,
                0.6448043219748298,
                -1.4496921534162497,
                0.23387731846467824,
                -2.6521442919422955
            ]
        },
        {
            "positions": [
                -0.27078928436853655,
                -1.1253520852504055,
                0.8103018887976333,
                -1.3630498122550887,
                0.22181570537256262,
                -2.7216042936643574
            ]
        },
        {
            "positions": [
                -0.2144537657074979,
                -1.127204670425361,
                0.9757994556204368,
                -1.2764074710939277,
                0.20975409228044703,
                -2.7910642953864198
            ]
        },
        {
            "positions": [
                -0.15811824704645927,
                -1.1290572556003167,
                1.1412970224432402,
                -1.1897651299327665,
                0.1976924791883314,
                -2.8605242971084817
            ]
        },
        {
            "positions": [
                -0.10178272838542057,
                -1.130909840775272,
                1.3067945892660437,
                -1.1031227887716055,
                0.1856308660962158,
                -2.929984298830544
            ]
        },
        {
            "positions": [
                -0.04544720972438199,
                -1.1327624259502276,
                1.4722921560888471,
                -1.0164804476104445,
                0.1735692530041002,
                -2.999444300552606
            ]
        },
        {
            "positions": [
                0.01088830893665671,
                -1.1346150111251831,
                1.6377897229116507,
                -0.9298381064492834,
                0.16150763991198458,
                -3.0689043022746683
            ]
        },
        {
            "positions": [
                0.0672238275976953,
                -1.1364675963001387,
                1.803287289734454,
                -0.8431957652881225,
                0.14944602681986896,
                -3.13836430399673
            ]
        },
        {
            "positions": [
                0.12355934625873403,
                -1.1383201814750943,
                1.9687848565572577,
                -0.7565534241269614,
                0.13738441372775334,
                -3.2078243057187925
            ]
        }
    ]
}{
    "goal": {
        "global_pose": {
            "orientation": {
                "w": 0.7047431468963623,
                "x": -0.7094548344612122,
                "y": 0.0024358443915843964,
                "z": -0.0022348060738295317
            },
            "position": {
                "x": 0.6094750761985779,
                "y": 0.3671506643295288,
                "z": 0.19426114857196808
            }
        },
        "name": "move_to_magneteinheit_A"
    },
    "id": "KPIECE_move_to_magneteinheit_A_16",
    "joint_names": [
        "shoulder_pan_joint",
        "shoulder_lift_joint",
        "elbow_joint",
        "wrist_1_joint",
        "wrist_2_joint",
        "wrist_3_joint"
    ],
    "metrics": {
        "cart_traj_len": 1.7626403643650619,
        "distance_elbow_joint": 1.2616934635222472,
        "distance_shoulder_lift_joint": 1.636247536307001,
        "distance_shoulder_pan_joint": 1.2410326334930435,
        "distance_wrist_1_joint": 0.7644327605490574,
        "distance_wrist_2_joint": 1.4492855604288633,
        "distance_wrist_3_joint": 4.697273264704801,
        "smoothness": 0.36223875671871614,
        "time": 0.074783551,
        "traj_len": 3.324148796158952,
        "weighted_distance": 4.760066183299613
    },
    "planner": "KPIECE",
    "start": {
        "state": {
            "elbow_joint": 1.919643534880228,
            "shoulder_lift_joint": -1.8972525353963687,
            "shoulder_pan_joint": -1.1188672234189438,
            "wrist_1_joint": -1.5931878212786155,
            "wrist_2_joint": 1.5706036197970081,
            "wrist_3_joint": 1.118896926603594
        }
    },
    "waypoints": [
        {
            "positions": [
                -1.1188672234189438,
                -1.8972525353963687,
                1.919643534880228,
                -1.5931878212786155,
                1.5706036197970081,
                1.118896926603594
            ]
        },
        {
            "positions": [
                -1.0877247610155334,
                -1.8475241111260703,
                1.8947551092881354,
                -1.5618556020765104,
                1.513758233292285,
                0.9326908186277398
            ]
        },
        {
            "positions": [
                -1.0565822986121227,
                -1.7977956868557718,
                1.869866683696043,
                -1.5305233828744051,
                1.4569128467875616,
                0.7464847106518856
            ]
        },
        {
            "positions": [
                -1.0254398362087123,
                -1.7480672625854734,
                1.8449782581039502,
                -1.4991911636723,
                1.4000674602828385,
                0.5602786026760314
            ]
        },
        {
            "positions": [
                -0.9942973738053017,
                -1.698338838315175,
                1.8200898325118575,
                -1.467858944470195,
                1.3432220737781153,
                0.3740724947001772
            ]
        },
        {
            "positions": [
                -0.9631549114018911,
                -1.6486104140448765,
                1.7952014069197648,
                -1.4365267252680898,
                1.2863766872733922,
                0.18786638672432288
            ]
        },
        {
            "positions": [
                -0.9320124489984806,
                -1.598881989774578,
                1.7703129813276723,
                -1.4051945060659847,
                1.2295313007686688,
                0.0016602787484687465
            ]
        },
        {
            "positions": [
                -0.90086998659507,
                -1.5491535655042796,
                1.7454245557355796,
                -1.3738622868638795,
                1.1726859142639456,
                -0.1845458292273856
            ]
        },
        {
            "positions": [
                -0.8697275241916596,
                -1.4994251412339814,
                1.720536130143487,
                -1.3425300676617744,
                1.1158405277592225,
                -0.3707519372032395
            ]
        },
        {
            "positions": [
                -0.8385850617882489,
                -1.449696716963683,
                1.6956477045513945,
                -1.3111978484596691,
                1.0589951412544991,
                -0.5569580451790939
            ]
        },
        {
            "positions": [
                -0.8074425993848384,
                -1.3999682926933843,
                1.6707592789593018,
                -1.279865629257564,
                1.002149754749776,
                -0.7431641531549482
            ]
        },
        {
            "positions": [
                -0.7763001369814279,
                -1.350239868423086,
                1.645870853367209,
                -1.248533410055459,
                0.9453043682450528,
                -0.9293702611308021
            ]
        },
        {
            "positions": [
                -0.7451576745780173,
                -1.3005114441527876,
                1.6209824277751164,
                -1.2172011908533538,
                0.8884589817403296,
                -1.1155763691066565
            ]
        },
        {
            "positions": [
                -0.7140152121746068,
                -1.2507830198824892,
                1.5960940021830239,
                -1.1858689716512487,
                0.8316135952356064,
                -1.3017824770825104
            ]
        },
        {
            "positions": [
                -0.6828727497711962,
                -1.2010545956121907,
                1.5712055765909312,
                -1.1545367524491437,
                0.774768208730883,
                -1.4879885850583652
            ]
        },
        {
            "positions": [
                -0.6517302873677857,
                -1.1513261713418923,
                1.5463171509988385,
                -1.1232045332470384,
                0.7179228222261599,
                -1.674194693034219
            ]
        },
        {
            "positions": [
                -0.6205878249643751,
                -1.1015977470715939,
                1.521428725406746,
                -1.0918723140449333,
                0.6610774357214367,
                -1.860400801010073
            ]
        },
        {
            "positions": [
                -0.5894453625609646,
                -1.0518693228012954,
                1.4965402998146533,
                -1.0605400948428283,
                0.6042320492167135,
                -2.046606908985928
            ]
        },
        {
            "positions": [
                -0.558302900157554,
                -1.002140898530997,
                1.4716518742225606,
                -1.029207875640723,
                0.5473866627119903,
                -2.2328130169617815
            ]
        },
        {
            "positions": [
                -0.5271604377541435,
                -0.9524124742606985,
                1.4467634486304681,
                -0.997875656438618,
                0.4905412762072672,
                -2.419019124937636
            ]
        },
        {
            "positions": [
                -0.4960179753507329,
                -0.9026840499904,
                1.4218750230383754,
                -0.9665434372365128,
                0.4336958897025438,
                -2.60522523291349
            ]
        },
        {
            "positions": [
                -0.4648755129473223,
                -0.8529556257201016,
                1.3969865974462827,
                -0.9352112180344077,
                0.37685050319782065,
                -2.7914313408893445
            ]
        },
        {
            "positions": [
                -0.43373305054391187,
                -0.8032272014498032,
                1.3720981718541903,
                -0.9038789988323026,
                0.3200051166930975,
                -2.977637448865198
            ]
        },
        {
            "positions": [
                -0.4025905881405013,
                -0.7534987771795048,
                1.3472097462620973,
                -0.8725467796301973,
                0.26315973018837413,
                -3.1638435568410523
            ]
        },
        {
            "positions": [
                -0.3714481257370908,
                -0.7037703529092063,
                1.3223213206700049,
                -0.8412145604280923,
                0.20631434368365098,
                -3.350049664816907
            ]
        },
        {
            "positions": [
                -0.2727254185748528,
                -0.792323423673174,
                1.4551955705324096,
                -0.8437064603677992,
                0.18931508682054982,
                -3.3043843301600466
            ]
        },
        {
            "positions": [
                -0.17400271141261475,
                -0.8808764944371418,
                1.5880698203948145,
                -0.846198360307506,
                0.17231582995744868,
                -3.2587189955031866
            ]
        },
        {
            "positions": [
                -0.07528000425037673,
                -0.9694295652011095,
                1.7209440702572192,
                -0.8486902602472128,
                0.15531657309434754,
                -3.213053660846326
            ]
        },
        {
            "positions": [
                0.02344270291186129,
                -1.0579826359650772,
                1.853818320119624,
                -0.8511821601869196,
                0.13831731623124638,
                -3.167388326189466
            ]
        },
        {
            "positions": [
                0.12216541007409933,
                -1.146535706729045,
                1.9866925699820288,
                -0.8536740601266265,
                0.12131805936814523,
                -3.1217229915326055
            ]
        }
    ]
}