{
    "goal": {
        "global_pose": {
            "orientation": {
                "w": 0.5084816217422485,
                "x": -0.49083608388900757,
                "y": 0.5182115435600281,
                "z": -0.4816462993621826
            },
            "position": {
                "x": 0.5540239810943604,
                "y": 0.030875300988554955,
                "z": 0.16403168439865112
            }
        },
        "name": "move_to_storage_A"
    },
    "id": "KPIECE_move_to_storage_A_75",
    "joint_names": [
        "shoulder_pan_joint",
        "shoulder_lift_joint",
        "elbow_joint",
        "wrist_1_joint",
        "wrist_2_joint",
        "wrist_3_joint"
    ],
    "metrics": {
        "cart_traj_len": 0.35250723897392505,
        "distance_elbow_joint": 0.4518466035797468,
        "distance_shoulder_lift_joint": 0.23503832845952544,
        "distance_shoulder_pan_joint": 0.4611055281982303,
        "distance_wrist_1_joint": 0.24955185838635863,
        "distance_wrist_2_joint": 1.0976149669695947,
        "distance_wrist_3_joint": 0.10586269622683542,
        "smoothness": 2.2204460668324854e-16,
        "time": 0.044598206,
        "traj_len": 1.6127678015822027,
        "weighted_distance": 2.0395862814869874
    },
    "planner": "KPIECE",
    "start": {
        "state": {
            "elbow_joint": 1.9715477243005601,
            "shoulder_lift_joint": -1.1394853015351272,
            "shoulder_pan_joint": 0.12281154014795169,
            "wrist_1_joint": -0.7804696478968182,
            "wrist_2_joint": 0.12958648046900423,
            "wrist_3_joint": -3.192491284697111
        }
    },
    "waypoints": [
        {
            "positions": [
                0.12281154014795169,
                -1.1394853015351272,
                1.9715477243005601,
                -0.7804696478968182,
                0.12958648046900423,
                -3.192491284697111
            ]
        },
        {
            "positions": [
                0.056939321833918796,
                -1.1730622056007736,
                2.036097239097667,
                -0.8161199133805837,
                0.28638861860751774,
                -3.177368042378992
            ]
        },
        {
            "positions": [
                -0.008932896480114097,
                -1.2066391096664202,
                2.1006467538947735,
                -0.8517701788643492,
                0.44319075674603126,
                -3.1622448000608725
            ]
        },
        {
            "positions": [
                -0.07480511479414699,
                -1.2402160137320666,
                2.16519626869188,
                -0.8874204443481147,
                0.5999928948845448,
                -3.147121557742753
            ]
        },
        {
            "positions": [
                -0.14067733310817987,
                -1.2737929177977132,
                2.229745783488987,
                -0.9230707098318802,
                0.7567950330230583,
                -3.131998315424634
            ]
        },
        {
            "positions": [
                -0.20654955142221282,
                -1.3073698218633596,
                2.2942952982860936,
                -0.9587209753156458,
                0.9135971711615719,
                -3.1168750731065145
            ]
        },
        {
            "positions": [
                -0.27242176973624566,
                -1.340946725929006,
                2.3588448130832003,
                -0.9943712407994112,
                1.0703993093000852,
                -3.101751830788395
            ]
        },
        {
            "positions": [
                -0.3382939880502786,
                -1.3745236299946526,
                2.423394327880307,
                -1.0300215062831768,
                1.227201447438599,
                -3.0866285884702758
            ]
        }
    ]
}