{
    "goal": {
        "global_pose": {
            "orientation": {
                "w": 0.7047431468963623,
                "x": -0.7094548344612122,
                "y": 0.0024358443915843964,
                "z": -0.0022348060738295317
            },
            "position": {
                "x": 0.6094750761985779,
                "y": 0.3671506643295288,
                "z": 0.19426114857196808
            }
        },
        "name": "move_to_magneteinheit_A"
    },
    "id": "KPIECE_move_to_magneteinheit_A_87",
    "joint_names": [
        "shoulder_pan_joint",
        "shoulder_lift_joint",
        "elbow_joint",
        "wrist_1_joint",
        "wrist_2_joint",
        "wrist_3_joint"
    ],
    "metrics": {
        "cart_traj_len": 4.658119684686424,
        "distance_elbow_joint": 3.872441264244273,
        "distance_shoulder_lift_joint": 0.8603515056531312,
        "distance_shoulder_pan_joint": 4.422806584779737,
        "distance_wrist_1_joint": 0.8995076384341008,
        "distance_wrist_2_joint": 6.440700705173292,
        "distance_wrist_3_joint": 5.261260525845122,
        "smoothness": 0.355299411672763,
        "time": 0.112007889,
        "traj_len": 4.664447258157139,
        "weighted_distance": 6.2944259165890015
    },
    "planner": "KPIECE",
    "start": {
        "state": {
            "elbow_joint": -1.919618573717145,
            "shoulder_lift_joint": -1.2443395971678275,
            "shoulder_pan_joint": 2.6996025300909787,
            "wrist_1_joint": -1.548550951253194,
            "wrist_2_joint": -1.5709469090946802,
            "wrist_3_joint": 0.4420197732051276
        }
    },
    "waypoints": [
        {
            "positions": [
                2.6996025300909787,
                -1.2443395971678275,
                -1.919618573717145,
                -1.548550951253194,
                -1.5709469090946802,
                0.4420197732051276
            ]
        },
        {
            "positions": [
                2.5714194849334806,
                -1.254541345393122,
                -1.8820018012360418,
                -1.5422527007973292,
                -1.4145470560520272,
                0.3903152169503974
            ]
        },
        {
            "positions": [
                2.4432364397759825,
                -1.2647430936184165,
                -1.8443850287549384,
                -1.5359544503414646,
                -1.2581472030093743,
                0.33861066069566714
            ]
        },
        {
            "positions": [
                2.315053394618484,
                -1.274944841843711,
                -1.8067682562738352,
                -1.5296561998855998,
                -1.1017473499667214,
                0.2869061044409369
            ]
        },
        {
            "positions": [
                2.186870349460986,
                -1.2851465900690053,
                -1.769151483792732,
                -1.5233579494297351,
                -0.9453474969240685,
                0.23520154818620673
            ]
        },
        {
            "positions": [
                2.0586873043034877,
                -1.2953483382942999,
                -1.7315347113116286,
                -1.5170596989738703,
                -0.7889476438814156,
                0.1834969919314765
            ]
        },
        {
            "positions": [
                1.9305042591459893,
                -1.3055500865195944,
                -1.6939179388305254,
                -1.5107614485180054,
                -0.6325477908387627,
                0.13179243567674626
            ]
        },
        {
            "positions": [
                1.8023212139884912,
                -1.3157518347448889,
                -1.6563011663494223,
                -1.5044631980621408,
                -0.47614793779610975,
                0.08008787942201612
            ]
        },
        {
            "positions": [
                1.6741381688309929,
                -1.3259535829701834,
                -1.6186843938683189,
                -1.498164947606276,
                -0.31974808475345684,
                0.028383323167285868
            ]
        },
        {
            "positions": [
                1.5459551236734947,
                -1.336155331195478,
                -1.5810676213872157,
                -1.491866697150411,
                -0.16334823171080393,
                -0.023321233087444326
            ]
        },
        {
            "positions": [
                1.4177720785159964,
                -1.3463570794207724,
                -1.5434508489061125,
                -1.4855684466945465,
                -0.006948378668151012,
                -0.07502578934217458
            ]
        },
        {
            "positions": [
                1.2895890333584983,
                -1.3565588276460667,
                -1.505834076425009,
                -1.4792701962386816,
                0.1494514743745019,
                -0.12673034559690483
            ]
        },
        {
            "positions": [
                1.161405988201,
                -1.3667605758713612,
                -1.468217303943906,
                -1.472971945782817,
                0.3058513274171548,
                -0.17843490185163507
            ]
        },
        {
            "positions": [
                1.0332229430435018,
                -1.3769623240966558,
                -1.4306005314628027,
                -1.4666736953269521,
                0.46225118045980773,
                -0.2301394581063652
            ]
        },
        {
            "positions": [
                0.9050398978860037,
                -1.3871640723219503,
                -1.3929837589816993,
                -1.4603754448710873,
                0.6186510335024606,
                -0.28184401436109535
            ]
        },
        {
            "positions": [
                0.7768568527285056,
                -1.3973658205472448,
                -1.3553669865005964,
                -1.4540771944152227,
                0.7750508865451136,
                -0.3335485706158256
            ]
        },
        {
            "positions": [
                0.648673807571007,
                -1.4075675687725393,
                -1.317750214019493,
                -1.4477789439593578,
                0.9314507395877665,
                -0.38525312687055585
            ]
        },
        {
            "positions": [
                0.5204907624135089,
                -1.4177693169978336,
                -1.2801334415383896,
                -1.4414806935034932,
                1.0878505926304194,
                -0.4369576831252861
            ]
        },
        {
            "positions": [
                0.39230771725601077,
                -1.4279710652231281,
                -1.2425166690572864,
                -1.4351824430476283,
                1.2442504456730723,
                -0.48866223938001624
            ]
        },
        {
            "positions": [
                0.26412467209851265,
                -1.4381728134484226,
                -1.2048998965761832,
                -1.4288841925917635,
                1.4006502987157252,
                -0.5403667956347464
            ]
        },
        {
            "positions": [
                0.13594162694101408,
                -1.4483745616737171,
                -1.1672831240950798,
                -1.4225859421358988,
                1.5570501517583781,
                -0.5920713518894767
            ]
        },
        {
            "positions": [
                0.007758581783515961,
                -1.4585763098990117,
                -1.1296663516139767,
                -1.416287691680034,
                1.713450004801031,
                -0.6437759081442069
            ]
        },
        {
            "positions": [
                -0.12042446337398216,
                -1.4687780581243062,
                -1.0920495791328735,
                -1.4099894412241691,
                1.869849857843684,
                -0.6954804643989372
            ]
        },
        {
            "positions": [
                -0.24860750853148028,
                -1.4789798063496005,
                -1.05443280665177,
                -1.4036911907683045,
                2.026249710886337,
                -0.7471850206536672
            ]
        },
        {
            "positions": [
                -0.37679055368897885,
                -1.489181554574895,
                -1.016816034170667,
                -1.3973929403124397,
                2.18264956392899,
                -0.7988895769083977
            ]
        },
        {
            "positions": [
                -0.504973598846477,
                -1.4993833028001895,
                -0.9791992616895636,
                -1.391094689856575,
                2.3390494169716427,
                -0.8505941331631277
            ]
        },
        {
            "positions": [
                -0.6331566440039749,
                -1.509585051025484,
                -0.9415824892084604,
                -1.3847964394007102,
                2.495449270014296,
                -0.902298689417858
            ]
        },
        {
            "positions": [
                -0.5892294517979204,
                -1.4863399012883942,
                -0.828301077415571,
                -1.3511036640305698,
                2.407410230536276,
                -0.8138753711343976
            ]
        },
        {
            "positions": [
                -0.5453022595918661,
                -1.4630947515513044,
                -0.7150196656226815,
                -1.3174108886604297,
                2.3193711910582557,
                -0.7254520528509371
            ]
        },
        {
            "positions": [
                -0.5013750673858116,
                -1.4398496018142144,
                -0.6017382538297921,
                -1.2837181132902893,
                2.231332151580236,
                -0.6370287345674767
            ]
        },
        {
            "positions": [
                -0.4574478751797572,
                -1.4166044520771246,
                -0.48845684203690265,
                -1.250025337920149,
                2.143293112102216,
                -0.5486054162840162
            ]
        },
        {
            "positions": [
                -0.4135206829737028,
                -1.3933593023400348,
                -0.37517543024401323,
                -1.2163325625500088,
                2.0552540726241957,
                -0.4601820980005558
            ]
        },
        {
            "positions": [
                -0.36959349076764836,
                -1.370114152602945,
                -0.2618940184511237,
                -1.1826397871798684,
                1.9672150331461755,
                -0.37175877971709537
            ]
        },
        {
            "positions": [
                -0.32566629856159396,
                -1.3468690028658552,
                -0.14861260665823428,
                -1.148947011809728,
                1.8791759936681556,
                -0.28333546143363497
            ]
        },
        {
            "positions": [
                -0.28173910635553956,
                -1.3236238531287654,
                -0.03533119486534486,
                -1.1152542364395877,
                1.7911369541901354,
                -0.19491214315017447
            ]
        },
        {
            "positions": [
                -0.2378119141494851,
                -1.3003787033916754,
                0.07795021692754467,
                -1.0815614610694475,
                1.7030979147121155,
                -0.10648882486671407
            ]
        },
        {
            "positions": [
                -0.1938847219434307,
                -1.2771335536545856,
                0.19123162872043398,
                -1.0478686856993071,
                1.6150588752340953,
                -0.018065506583253677
            ]
        },
        {
            "positions": [
                -0.14995752973737625,
                -1.2538884039174958,
                0.30451304051332373,
                -1.0141759103291668,
                1.5270198357560751,
                0.07035781170020694
            ]
        },
        {
            "positions": [
                -0.10603033753132185,
                -1.230643254180406,
                0.41779445230621304,
                -0.9804831349590265,
                1.4389807962780552,
                0.15878112998366722
            ]
        },
        {
            "positions": [
                -0.062103145325267395,
                -1.2073981044433162,
                0.5310758640991026,
                -0.9467903595888862,
                1.350941756800035,
                0.24720444826712784
            ]
        },
        {
            "positions": [
                -0.01817595311921305,
                -1.1841529547062262,
                0.6443572758919919,
                -0.9130975842187459,
                1.262902717322015,
                0.335627766550588
            ]
        },
        {
            "positions": [
                0.025751239086841404,
                -1.1609078049691364,
                0.7576386876848814,
                -0.8794048088486055,
                1.174863677843995,
                0.42405108483404863
            ]
        },
        {
            "positions": [
                0.06967843129289575,
                -1.1376626552320466,
                0.8709200994777707,
                -0.8457120334784652,
                1.0868246383659748,
                0.512474403117509
            ]
        },
        {
            "positions": [
                0.1136056234989502,
                -1.1144175054949568,
                0.9842015112706602,
                -0.812019258108325,
                0.9987855988879546,
                0.6008977214009694
            ]
        },
        {
            "positions": [
                0.15753281570500466,
                -1.091172355757867,
                1.0974829230635499,
                -0.7783264827381847,
                0.9107465594099347,
                0.6893210396844298
            ]
        },
        {
            "positions": [
                0.2014600079110591,
                -1.067927206020777,
                1.2107643348564392,
                -0.7446337073680444,
                0.8227075199319145,
                0.7777443579678904
            ]
        },
        {
            "positions": [
                0.24538720011711346,
                -1.0446820562836872,
                1.3240457466493285,
                -0.7109409319979041,
                0.7346684804538945,
                0.8661676762513506
            ]
        },
        {
            "positions": [
                0.2893143923231679,
                -1.0214369065465974,
                1.4373271584422183,
                -0.6772481566277637,
                0.6466294409758745,
                0.9545909945348112
            ]
        },
        {
            "positions": [
                0.2706947951723186,
                -1.0333211184706628,
                1.4946044397849862,
                -0.6803820281620604,
                0.5882422524174422,
                1.1834857033425297
            ]
        },
        {
            "positions": [
                0.25207519802146927,
                -1.045205330394728,
                1.551881721127754,
                -0.6835158996963572,
                0.5298550638590099,
                1.4123804121502481
            ]
        },
        {
            "positions": [
                0.23345560087062,
                -1.0570895423187934,
                1.609159002470522,
                -0.6866497712306538,
                0.4714678753005776,
                1.6412751209579666
            ]
        },
        {
            "positions": [
                0.21483600371977069,
                -1.0689737542428588,
                1.6664362838132898,
                -0.6897836427649505,
                0.41308068674214526,
                1.870169829765685
            ]
        },
        {
            "positions": [
                0.19621640656892136,
                -1.080857966166924,
                1.7237135651560578,
                -0.6929175142992473,
                0.354693498183713,
                2.099064538573404
            ]
        },
        {
            "positions": [
                0.17759680941807207,
                -1.0927421780909894,
                1.7809908464988256,
                -0.696051385833544,
                0.2963063096252807,
                2.3279592473811217
            ]
        },
        {
            "positions": [
                0.15897721226722275,
                -1.1046263900150548,
                1.8382681278415935,
                -0.6991852573678407,
                0.23791912106684837,
                2.5568539561888404
            ]
        },
        {
            "positions": [
                0.14035761511637346,
                -1.11651060193912,
                1.8955454091843613,
                -0.7023191289021374,
                0.1795319325084161,
                2.785748664996559
            ]
        },
        {
            "positions": [
                0.12173801796552412,
                -1.1283948138631854,
                1.9528226905271293,
                -0.7054530004364341,
                0.12114474394998379,
                3.0146433738042777
            ]
        }
    ]
}{
    "goal": {
        "global_pose": {
            "orientation": {
                "w": 0.7047431468963623,
                "x": -0.7094548344612122,
                "y": 0.0024358443915843964,
                "z": -0.0022348060738295317
            },
            "position": {
                "x": 0.6094750761985779,
                "y": 0.3671506643295288,
                "z": 0.19426114857196808
            }
        },
        "name": "move_to_magneteinheit_A"
    },
    "id": "KPIECE_move_to_magneteinheit_A_87",
    "joint_names": [
        "shoulder_pan_joint",
        "shoulder_lift_joint",
        "elbow_joint",
        "wrist_1_joint",
        "wrist_2_joint",
        "wrist_3_joint"
    ],
    "metrics": {
        "cart_traj_len": 1.350295563776624,
        "distance_elbow_joint": 0.9218473216399765,
        "distance_shoulder_lift_joint": 0.7568285611850354,
        "distance_shoulder_pan_joint": 1.2411386071312673,
        "distance_wrist_1_joint": 0.8071787342254814,
        "distance_wrist_2_joint": 1.4442111806362539,
        "distance_wrist_3_joint": 4.298590796978948,
        "smoothness": 0.07650265906175396,
        "time": 0.183644833,
        "traj_len": 3.0773032352689853,
        "weighted_distance": 4.507589900447532
    },
    "planner": "KPIECE",
    "start": {
        "state": {
            "elbow_joint": 1.919643534880228,
            "shoulder_lift_joint": -1.8972525353963687,
            "shoulder_pan_joint": -1.1188672234189438,
            "wrist_1_joint": -1.5931878212786155,
            "wrist_2_joint": 1.5706036197970081,
            "wrist_3_joint": 1.118896926603594
        }
    },
    "waypoints": [
        {
            "positions": [
                -1.1188672234189438,
                -1.8972525353963687,
                1.919643534880228,
                -1.5931878212786155,
                1.5706036197970081,
                1.118896926603594
            ]
        },
        {
            "positions": [
                -1.0777894576363976,
                -1.869090082269052,
                1.8968111132671042,
                -1.553697404276812,
                1.510899469071345,
                0.9248037506500789
            ]
        },
        {
            "positions": [
                -1.0367116918538515,
                -1.8409276291417351,
                1.8739786916539805,
                -1.5142069872750084,
                1.4511953183456823,
                0.7307105746965639
            ]
        },
        {
            "positions": [
                -0.9956339260713053,
                -1.8127651760144183,
                1.8511462700408565,
                -1.4747165702732048,
                1.3914911676200195,
                0.5366173987430488
            ]
        },
        {
            "positions": [
                -0.9545561602887591,
                -1.7846027228871015,
                1.8283138484277326,
                -1.4352261532714012,
                1.3317870168943564,
                0.34252422278953376
            ]
        },
        {
            "positions": [
                -0.9134783945062129,
                -1.7564402697597847,
                1.8054814268146087,
                -1.3957357362695977,
                1.2720828661686934,
                0.1484310468360187
            ]
        },
        {
            "positions": [
                -0.8724006287236667,
                -1.728277816632468,
                1.782649005201485,
                -1.3562453192677941,
                1.2123787154430306,
                -0.04566212911749634
            ]
        },
        {
            "positions": [
                -0.8313228629411206,
                -1.7001153635051511,
                1.759816583588361,
                -1.3167549022659906,
                1.1526745647173677,
                -0.23975530507101128
            ]
        },
        {
            "positions": [
                -0.7902450971585744,
                -1.6719529103778343,
                1.736984161975237,
                -1.277264485264187,
                1.0929704139917047,
                -0.43384848102452644
            ]
        },
        {
            "positions": [
                -0.7491673313760281,
                -1.6437904572505175,
                1.7141517403621132,
                -1.2377740682623835,
                1.0332662632660417,
                -0.6279416569780414
            ]
        },
        {
            "positions": [
                -0.708089565593482,
                -1.6156280041232007,
                1.6913193187489894,
                -1.19828365126058,
                0.9735621125403788,
                -0.8220348329315565
            ]
        },
        {
            "positions": [
                -0.6670117998109357,
                -1.587465550995884,
                1.6684868971358655,
                -1.1587932342587763,
                0.9138579618147158,
                -1.0161280088850717
            ]
        },
        {
            "positions": [
                -0.6259340340283897,
                -1.5593030978685671,
                1.6456544755227416,
                -1.1193028172569728,
                0.854153811089053,
                -1.2102211848385866
            ]
        },
        {
            "positions": [
                -0.5848562682458434,
                -1.5311406447412503,
                1.6228220539096179,
                -1.0798124002551692,
                0.7944496603633899,
                -1.404314360792102
            ]
        },
        {
            "positions": [
                -0.5437785024632973,
                -1.5029781916139335,
                1.599989632296494,
                -1.0403219832533657,
                0.7347455096377271,
                -1.5984075367456165
            ]
        },
        {
            "positions": [
                -0.502700736680751,
                -1.4748157384866167,
                1.57715721068337,
                -1.000831566251562,
                0.6750413589120641,
                -1.792500712699132
            ]
        },
        {
            "positions": [
                -0.4616229708982048,
                -1.4466532853593,
                1.554324789070246,
                -0.9613411492497586,
                0.6153372081864013,
                -1.9865938886526469
            ]
        },
        {
            "positions": [
                -0.4205452051156586,
                -1.4184908322319831,
                1.5314923674571221,
                -0.921850732247955,
                0.5556330574607382,
                -2.180687064606162
            ]
        },
        {
            "positions": [
                -0.37946743933311244,
                -1.3903283791046663,
                1.5086599458439984,
                -0.8823603152461514,
                0.4959289067350754,
                -2.3747802405596765
            ]
        },
        {
            "positions": [
                -0.3383896735505662,
                -1.3621659259773495,
                1.4858275242308745,
                -0.8428698982443479,
                0.4362247560094124,
                -2.568873416513192
            ]
        },
        {
            "positions": [
                -0.26161283067341784,
                -1.3252089340163469,
                1.567166076062645,
                -0.8333930963791456,
                0.384586036534636,
                -2.6706768254902187
            ]
        },
        {
            "positions": [
                -0.18483598779626947,
                -1.2882519420553442,
                1.6485046278944155,
                -0.8239162945139433,
                0.3329473170598597,
                -2.7724802344672455
            ]
        },
        {
            "positions": [
                -0.10805914491912111,
                -1.2512949500943416,
                1.729843179726186,
                -0.814439492648741,
                0.2813085975850833,
                -2.8742836434442722
            ]
        },
        {
            "positions": [
                -0.03128230204197274,
                -1.2143379581333387,
                1.8111817315579564,
                -0.8049626907835387,
                0.22966987811030695,
                -2.9760870524212995
            ]
        },
        {
            "positions": [
                0.04549454083517562,
                -1.177380966172336,
                1.892520283389727,
                -0.7954858889183364,
                0.17803115863553054,
                -3.0778904613983262
            ]
        },
        {
            "positions": [
                0.12227138371232397,
                -1.1404239742113333,
                1.9738588352214974,
                -0.7860090870531341,
                0.12639243916075418,
                -3.179693870375353
            ]
        }
    ]
}