{
    "goal": {
        "global_pose": {
            "orientation": {
                "w": 0.5084816217422485,
                "x": -0.49083608388900757,
                "y": 0.5182115435600281,
                "z": -0.4816462993621826
            },
            "position": {
                "x": 0.5540239810943604,
                "y": 0.030875300988554955,
                "z": 0.16403168439865112
            }
        },
        "name": "move_to_storage_A"
    },
    "id": "KPIECE_move_to_storage_A_22",
    "joint_names": [
        "shoulder_pan_joint",
        "shoulder_lift_joint",
        "elbow_joint",
        "wrist_1_joint",
        "wrist_2_joint",
        "wrist_3_joint"
    ],
    "metrics": {
        "cart_traj_len": 0.3538185456947179,
        "distance_elbow_joint": 0.44980188225098283,
        "distance_shoulder_lift_joint": 0.23484538873910998,
        "distance_shoulder_pan_joint": 0.46230223812113214,
        "distance_wrist_1_joint": 0.24472124662951,
        "distance_wrist_2_joint": 1.1016569278318733,
        "distance_wrist_3_joint": 0.09070145873114654,
        "smoothness": 6.661338200497456e-16,
        "time": 0.021924371999999998,
        "traj_len": 1.6074915683460846,
        "weighted_distance": 2.0277599054689466
    },
    "planner": "KPIECE",
    "start": {
        "state": {
            "elbow_joint": 1.9715477243005601,
            "shoulder_lift_joint": -1.1394853015351272,
            "shoulder_pan_joint": 0.12281154014795169,
            "wrist_1_joint": -0.7804696478968182,
            "wrist_2_joint": 0.12958648046900423,
            "wrist_3_joint": -3.192491284697111
        }
    },
    "waypoints": [
        {
            "positions": [
                0.12281154014795169,
                -1.1394853015351272,
                1.9715477243005601,
                -0.7804696478968182,
                0.12958648046900423,
                -3.192491284697111
            ]
        },
        {
            "positions": [
                0.05676836327350425,
                -1.1730346427835714,
                2.0358051360507003,
                -0.8154298259867482,
                0.2869660415878432,
                -3.1795339334498047
            ]
        },
        {
            "positions": [
                -0.00927481360094319,
                -1.2065839840320158,
                2.100062547800841,
                -0.8503900040766782,
                0.4443456027066823,
                -3.166576582202498
            ]
        },
        {
            "positions": [
                -0.07531799047539063,
                -1.24013332528046,
                2.164319959550981,
                -0.8853501821666081,
                0.6017251638255213,
                -3.1536192309551914
            ]
        },
        {
            "positions": [
                -0.14136116734983806,
                -1.2736826665289043,
                2.228577371301122,
                -0.9203103602565381,
                0.7591047249443603,
                -3.1406618797078845
            ]
        },
        {
            "positions": [
                -0.20740434422428555,
                -1.3072320077773485,
                2.292834783051262,
                -0.9552705383464681,
                0.9164842860631994,
                -3.127704528460578
            ]
        },
        {
            "positions": [
                -0.27344752109873294,
                -1.340781349025793,
                2.3570921948014023,
                -0.9902307164363982,
                1.0738638471820385,
                -3.114747177213271
            ]
        },
        {
            "positions": [
                -0.33949069797318043,
                -1.3743306902742372,
                2.421349606551543,
                -1.0251908945263282,
                1.2312434083008776,
                -3.1017898259659646
            ]
        }
    ]
}