{
    "goal": {
        "global_pose": {
            "orientation": {
                "w": 0.7047431468963623,
                "x": -0.7094548344612122,
                "y": 0.0024358443915843964,
                "z": -0.0022348060738295317
            },
            "position": {
                "x": 0.6094750761985779,
                "y": 0.3671506643295288,
                "z": 0.19426114857196808
            }
        },
        "name": "move_to_magneteinheit_A"
    },
    "id": "KPIECE_move_to_magneteinheit_A_97",
    "joint_names": [
        "shoulder_pan_joint",
        "shoulder_lift_joint",
        "elbow_joint",
        "wrist_1_joint",
        "wrist_2_joint",
        "wrist_3_joint"
    ],
    "metrics": {
        "cart_traj_len": 3.3144395682479995,
        "distance_elbow_joint": 3.904478450133861,
        "distance_shoulder_lift_joint": 0.4710656917164111,
        "distance_shoulder_pan_joint": 2.7501060254984586,
        "distance_wrist_1_joint": 3.452708062609533,
        "distance_wrist_2_joint": 1.4489534879577437,
        "distance_wrist_3_joint": 0.4206805799394234,
        "smoothness": 0.021200748279422917,
        "time": 0.19592108800000002,
        "traj_len": 3.5281712398713627,
        "weighted_distance": 4.265092614270123
    },
    "planner": "KPIECE",
    "start": {
        "state": {
            "elbow_joint": -1.919618573717145,
            "shoulder_lift_joint": -1.2443395971678275,
            "shoulder_pan_joint": 2.6996025300909787,
            "wrist_1_joint": -1.548550951253194,
            "wrist_2_joint": -1.5709469090946802,
            "wrist_3_joint": 0.4420197732051276
        }
    },
    "waypoints": [
        {
            "positions": [
                2.6996025300909787,
                -1.2443395971678275,
                -1.919618573717145,
                -1.548550951253194,
                -1.5709469090946802,
                0.4420197732051276
            ]
        },
        {
            "positions": [
                2.5708490759387796,
                -1.2273160962244722,
                -1.8684345167666432,
                -1.4979985318337388,
                -1.5268386402684166,
                0.41125537366840004
            ]
        },
        {
            "positions": [
                2.442095621786581,
                -1.2102925952811168,
                -1.8172504598161414,
                -1.4474461124142832,
                -1.482730371442153,
                0.38049097413167254
            ]
        },
        {
            "positions": [
                2.313342167634382,
                -1.1932690943377615,
                -1.7660664028656399,
                -1.396893692994828,
                -1.4386221026158894,
                0.349726574594945
            ]
        },
        {
            "positions": [
                2.1845887134821833,
                -1.176245593394406,
                -1.714882345915138,
                -1.3463412735753724,
                -1.3945138337896257,
                0.31896217505821745
            ]
        },
        {
            "positions": [
                2.0558352593299842,
                -1.1592220924510508,
                -1.6636982889646363,
                -1.295788854155917,
                -1.3504055649633622,
                0.28819777552148995
            ]
        },
        {
            "positions": [
                1.9570063844337608,
                -1.1433410652093032,
                -1.5481645478352142,
                -1.194852355123037,
                -1.2980404768639573,
                0.2806806041733966
            ]
        },
        {
            "positions": [
                1.8581775095375375,
                -1.1274600379675555,
                -1.432630806705792,
                -1.093915856090157,
                -1.2456753887645522,
                0.2731634328253032
            ]
        },
        {
            "positions": [
                1.759348634641314,
                -1.111579010725808,
                -1.3170970655763699,
                -0.9929793570572768,
                -1.1933103006651473,
                0.2656462614772098
            ]
        },
        {
            "positions": [
                1.6605197597450907,
                -1.0956979834840603,
                -1.2015633244469477,
                -0.8920428580243966,
                -1.1409452125657424,
                0.25812909012911645
            ]
        },
        {
            "positions": [
                1.561690884848867,
                -1.0798169562423126,
                -1.0860295833175255,
                -0.7911063589915166,
                -1.0885801244663376,
                0.25061191878102307
            ]
        },
        {
            "positions": [
                1.462862009952644,
                -1.063935929000565,
                -0.9704958421881034,
                -0.6901698599586366,
                -1.0362150363669325,
                0.2430947474329297
            ]
        },
        {
            "positions": [
                1.3640331350564203,
                -1.0480549017588174,
                -0.8549621010586812,
                -0.5892333609257565,
                -0.9838499482675276,
                0.23557757608483632
            ]
        },
        {
            "positions": [
                1.265204260160197,
                -1.0321738745170699,
                -0.739428359929259,
                -0.48829686189287624,
                -0.9314848601681226,
                0.2280604047367429
            ]
        },
        {
            "positions": [
                1.1663753852639736,
                -1.016292847275322,
                -0.6238946187998369,
                -0.3873603628599962,
                -0.8791197720687176,
                0.22054323338864953
            ]
        },
        {
            "positions": [
                1.0675465103677502,
                -1.0004118200335745,
                -0.5083608776704147,
                -0.28642386382711615,
                -0.8267546839693127,
                0.21302606204055616
            ]
        },
        {
            "positions": [
                0.9687176354715268,
                -0.9845307927918269,
                -0.39282713654099255,
                -0.1854873647942359,
                -0.7743895958699077,
                0.20550889069246275
            ]
        },
        {
            "positions": [
                0.8698887605753034,
                -0.9686497655500793,
                -0.2772933954115704,
                -0.08455086576135606,
                -0.7220245077705029,
                0.1979917193443694
            ]
        },
        {
            "positions": [
                0.77105988567908,
                -0.9527687383083316,
                -0.16175965428214822,
                0.016385633271524203,
                -0.6696594196710979,
                0.190474547996276
            ]
        },
        {
            "positions": [
                0.6722310107828566,
                -0.9368877110665841,
                -0.04622591315272606,
                0.11732213230440403,
                -0.617294331571693,
                0.18295737664818265
            ]
        },
        {
            "positions": [
                0.5734021358866332,
                -0.9210066838248364,
                0.0693078279766961,
                0.2182586313372843,
                -0.564929243472288,
                0.17544020530008925
            ]
        },
        {
            "positions": [
                0.47457326099040964,
                -0.9051256565830887,
                0.18484156910611826,
                0.31919513037016456,
                -0.512564155372883,
                0.16792303395199587
            ]
        },
        {
            "positions": [
                0.37574438609418626,
                -0.8892446293413412,
                0.3003753102355404,
                0.4201316294030444,
                -0.46019906727347815,
                0.1604058626039025
            ]
        },
        {
            "positions": [
                0.27691551119796287,
                -0.8733636020995935,
                0.4159090513649626,
                0.5210681284359246,
                -0.40783397917407316,
                0.15288869125580912
            ]
        },
        {
            "positions": [
                0.1780866363017395,
                -0.8574825748578458,
                0.5314427924943845,
                0.6220046274688045,
                -0.3554688910746683,
                0.14537151990771574
            ]
        },
        {
            "positions": [
                0.07925776140551613,
                -0.8416015476160983,
                0.6469765336238071,
                0.7229411265016845,
                -0.3031038029752633,
                0.13785434855962236
            ]
        },
        {
            "positions": [
                0.07309818401627427,
                -0.8318910316974102,
                0.8283290744981776,
                0.8733348844888265,
                -0.29069835551103973,
                0.12972473626130193
            ]
        },
        {
            "positions": [
                0.06693860662703241,
                -0.8221805157787221,
                1.009681615372548,
                1.0237286424759684,
                -0.2782929080468162,
                0.12159512396298153
            ]
        },
        {
            "positions": [
                0.060779029237790536,
                -0.812469999860034,
                1.1910341562469187,
                1.1741224004631103,
                -0.26588746058259266,
                0.11346551166466111
            ]
        },
        {
            "positions": [
                0.054619451848548675,
                -0.802759483941346,
                1.372386697121289,
                1.3245161584502525,
                -0.2534820131183691,
                0.10533589936634069
            ]
        },
        {
            "positions": [
                0.04845987445930681,
                -0.7930489680226579,
                1.5537392379956596,
                1.4749099164373944,
                -0.24107656565414556,
                0.09720628706802027
            ]
        },
        {
            "positions": [
                0.04230029707006495,
                -0.7833384521039698,
                1.73509177887003,
                1.6253036744245364,
                -0.22867111818992203,
                0.08907667476969985
            ]
        },
        {
            "positions": [
                0.03614071968082308,
                -0.7736279361852817,
                1.9164443197444005,
                1.7756974324116783,
                -0.21626567072569847,
                0.08094706247137944
            ]
        },
        {
            "positions": [
                0.0794628272249745,
                -0.7738049515522143,
                1.9506520980805582,
                1.839927271884009,
                -0.16912954593131746,
                0.051143127868541825
            ]
        },
        {
            "positions": [
                0.12278493476912591,
                -0.773981966919147,
                1.9848598764167156,
                1.9041571113563398,
                -0.12199342113693647,
                0.02133919326570422
            ]
        }
    ]
}{
    "goal": {
        "global_pose": {
            "orientation": {
                "w": 0.7047431468963623,
                "x": -0.7094548344612122,
                "y": 0.0024358443915843964,
                "z": -0.0022348060738295317
            },
            "position": {
                "x": 0.6094750761985779,
                "y": 0.3671506643295288,
                "z": 0.19426114857196808
            }
        },
        "name": "move_to_magneteinheit_A"
    },
    "id": "KPIECE_move_to_magneteinheit_A_97",
    "joint_names": [
        "shoulder_pan_joint",
        "shoulder_lift_joint",
        "elbow_joint",
        "wrist_1_joint",
        "wrist_2_joint",
        "wrist_3_joint"
    ],
    "metrics": {
        "cart_traj_len": 1.2244143981848048,
        "distance_elbow_joint": 0.1485098071642723,
        "distance_shoulder_lift_joint": 0.764683560929013,
        "distance_shoulder_pan_joint": 1.2417575343019818,
        "distance_wrist_1_joint": 1.0690713732650616,
        "distance_wrist_2_joint": 1.6097959966449498,
        "distance_wrist_3_joint": 4.379596165833158,
        "smoothness": 0.3723342965016074,
        "time": 0.13287121699999999,
        "traj_len": 3.0353606767793573,
        "weighted_distance": 4.544389303274398
    },
    "planner": "KPIECE",
    "start": {
        "state": {
            "elbow_joint": 1.919643534880228,
            "shoulder_lift_joint": -1.8972525353963687,
            "shoulder_pan_joint": -1.1188672234189438,
            "wrist_1_joint": -1.5931878212786155,
            "wrist_2_joint": 1.5706036197970081,
            "wrist_3_joint": 1.118896926603594
        }
    },
    "waypoints": [
        {
            "positions": [
                -1.1188672234189438,
                -1.8972525353963687,
                1.919643534880228,
                -1.5931878212786155,
                1.5706036197970081,
                1.118896926603594
            ]
        },
        {
            "positions": [
                -1.063910201459961,
                -1.8682225756266047,
                1.9171077993101313,
                -1.5486677617799853,
                1.501417518195985,
                0.9261554051134058
            ]
        },
        {
            "positions": [
                -1.0089531795009783,
                -1.8391926158568408,
                1.9145720637400345,
                -1.504147702281355,
                1.4322314165949617,
                0.7334138836232176
            ]
        },
        {
            "positions": [
                -0.9539961575419955,
                -1.8101626560870767,
                1.912036328169938,
                -1.4596276427827246,
                1.3630453149939386,
                0.5406723621330295
            ]
        },
        {
            "positions": [
                -0.8990391355830127,
                -1.7811326963173129,
                1.9095005925998412,
                -1.4151075832840945,
                1.2938592133929154,
                0.3479308406428413
            ]
        },
        {
            "positions": [
                -0.84408211362403,
                -1.7521027365475488,
                1.9069648570297444,
                -1.3705875237854643,
                1.2246731117918923,
                0.15518931915265322
            ]
        },
        {
            "positions": [
                -0.7891250916650473,
                -1.723072776777785,
                1.9044291214596476,
                -1.326067464286834,
                1.155487010190869,
                -0.03755220233753498
            ]
        },
        {
            "positions": [
                -0.7341680697060644,
                -1.6940428170080208,
                1.9018933858895508,
                -1.2815474047882036,
                1.0863009085898458,
                -0.23029372382772317
            ]
        },
        {
            "positions": [
                -0.6792110477470816,
                -1.6650128572382568,
                1.899357650319454,
                -1.2370273452895735,
                1.0171148069888227,
                -0.42303524531791137
            ]
        },
        {
            "positions": [
                -0.6242540257880989,
                -1.6359828974684927,
                1.8968219147493575,
                -1.1925072857909433,
                0.9479287053877995,
                -0.6157767668080996
            ]
        },
        {
            "positions": [
                -0.5692970038291162,
                -1.6069529376987288,
                1.8942861791792607,
                -1.147987226292313,
                0.8787426037867764,
                -0.8085182882982875
            ]
        },
        {
            "positions": [
                -0.5143399818701334,
                -1.577922977928965,
                1.891750443609164,
                -1.1034671667936826,
                0.8095565021857531,
                -1.0012598097884757
            ]
        },
        {
            "positions": [
                -0.45938295991115075,
                -1.5488930181592009,
                1.889214708039067,
                -1.0589471072950525,
                0.74037040058473,
                -1.194001331278664
            ]
        },
        {
            "positions": [
                -0.40442593795216786,
                -1.5198630583894368,
                1.8866789724689703,
                -1.0144270477964223,
                0.6711842989837067,
                -1.3867428527688521
            ]
        },
        {
            "positions": [
                -0.3494689159931851,
                -1.490833098619673,
                1.8841432368988738,
                -0.969906988297792,
                0.6019981973826837,
                -1.5794843742590403
            ]
        },
        {
            "positions": [
                -0.2945118940342024,
                -1.4618031388499089,
                1.881607501328777,
                -0.9253869287991617,
                0.5328120957816604,
                -1.772225895749228
            ]
        },
        {
            "positions": [
                -0.23955487207521953,
                -1.432773179080145,
                1.8790717657586802,
                -0.8808668693005315,
                0.4636259941806371,
                -1.9649674172394167
            ]
        },
        {
            "positions": [
                -0.18459785011623686,
                -1.403743219310381,
                1.8765360301885834,
                -0.8363468098019012,
                0.3944398925796142,
                -2.1577089387296047
            ]
        },
        {
            "positions": [
                -0.12964082815725397,
                -1.3747132595406168,
                1.8740002946184866,
                -0.791826750303271,
                0.32525379097859086,
                -2.3504504602197933
            ]
        },
        {
            "positions": [
                -0.07468380619827131,
                -1.3456832997708528,
                1.8714645590483898,
                -0.7473066908046407,
                0.25606768937756774,
                -2.543191981709981
            ]
        },
        {
            "positions": [
                -0.01972678423928853,
                -1.3166533400010891,
                1.8689288234782933,
                -0.7027866313060105,
                0.18688158777654462,
                -2.735933503200169
            ]
        },
        {
            "positions": [
                0.035230237719694246,
                -1.287623380231325,
                1.8663930879081965,
                -0.6582665718073802,
                0.11769548617552128,
                -2.9286750246903575
            ]
        },
        {
            "positions": [
                0.09018725967867697,
                -1.258593420461561,
                1.8638573523380997,
                -0.61374651230875,
                0.04850938457449809,
                -3.121416546180545
            ]
        },
        {
            "positions": [
                0.10653878528085736,
                -1.1955811974644583,
                1.9102191646491717,
                -0.658561544456348,
                0.09236026528571809,
                -3.191057892705055
            ]
        },
        {
            "positions": [
                0.12289031088303777,
                -1.1325689744673557,
                1.9565809769602436,
                -0.703376576603946,
                0.13621114599693807,
                -3.260699239229565
            ]
        }
    ]
}