{
    "goal": {
        "global_pose": {
            "orientation": {
                "w": 0.5084816217422485,
                "x": -0.49083608388900757,
                "y": 0.5182115435600281,
                "z": -0.4816462993621826
            },
            "position": {
                "x": 0.5540239810943604,
                "y": 0.030875300988554955,
                "z": 0.16403168439865112
            }
        },
        "name": "move_to_storage_A"
    },
    "id": "KPIECE_move_to_storage_A_36",
    "joint_names": [
        "shoulder_pan_joint",
        "shoulder_lift_joint",
        "elbow_joint",
        "wrist_1_joint",
        "wrist_2_joint",
        "wrist_3_joint"
    ],
    "metrics": {
        "cart_traj_len": 0.35324096052966564,
        "distance_elbow_joint": 0.4502033559797769,
        "distance_shoulder_lift_joint": 0.2353552732541182,
        "distance_shoulder_pan_joint": 0.4619483444285791,
        "distance_wrist_1_joint": 0.24328905089307507,
        "distance_wrist_2_joint": 1.0993736901582034,
        "distance_wrist_3_joint": 0.10569155860806534,
        "smoothness": 4.440892098500626e-16,
        "time": 0.16243165999999998,
        "traj_len": 1.6111676738694263,
        "weighted_distance": 2.037132084963866
    },
    "planner": "KPIECE",
    "start": {
        "state": {
            "elbow_joint": 1.9715477243005601,
            "shoulder_lift_joint": -1.1394853015351272,
            "shoulder_pan_joint": 0.12281154014795169,
            "wrist_1_joint": -0.7804696478968182,
            "wrist_2_joint": 0.12958648046900423,
            "wrist_3_joint": -3.192491284697111
        }
    },
    "waypoints": [
        {
            "positions": [
                0.12281154014795169,
                -1.1394853015351272,
                1.9715477243005601,
                -0.7804696478968182,
                0.12958648046900423,
                -3.192491284697111
            ]
        },
        {
            "positions": [
                0.056818919515297536,
                -1.1731074834285726,
                2.0358624894405284,
                -0.8152252265958289,
                0.28663986477731895,
                -3.1773924906102446
            ]
        },
        {
            "positions": [
                -0.009173701117356617,
                -1.206729665322018,
                2.100177254580496,
                -0.8499808052948397,
                0.44369324908563373,
                -3.162293696523378
            ]
        },
        {
            "positions": [
                -0.07516632175001077,
                -1.2403518472154635,
                2.1644920197204645,
                -0.8847363839938504,
                0.6007466333939485,
                -3.1471949024365116
            ]
        },
        {
            "positions": [
                -0.1411589423826649,
                -1.273974029108909,
                2.2288067848604327,
                -0.919491962692861,
                0.7578000177022632,
                -3.1320961083496455
            ]
        },
        {
            "positions": [
                -0.20715156301531912,
                -1.3075962110023545,
                2.293121550000401,
                -0.9542475413918718,
                0.9148534020105781,
                -3.116997314262779
            ]
        },
        {
            "positions": [
                -0.2731441836479732,
                -1.3412183928958,
                2.3574363151403688,
                -0.9890031200908824,
                1.071906786318893,
                -3.1018985201759124
            ]
        },
        {
            "positions": [
                -0.3391368042806274,
                -1.3748405747892454,
                2.421751080280337,
                -1.0237586987898932,
                1.2289601706272075,
                -3.086799726089046
            ]
        }
    ]
}