{
    "goal": {
        "global_pose": {
            "orientation": {
                "w": 0.7047431468963623,
                "x": -0.7094548344612122,
                "y": 0.0024358443915843964,
                "z": -0.0022348060738295317
            },
            "position": {
                "x": 0.6094750761985779,
                "y": 0.3671506643295288,
                "z": 0.19426114857196808
            }
        },
        "name": "move_to_magneteinheit_A"
    },
    "id": "KPIECE_move_to_magneteinheit_A_52",
    "joint_names": [
        "shoulder_pan_joint",
        "shoulder_lift_joint",
        "elbow_joint",
        "wrist_1_joint",
        "wrist_2_joint",
        "wrist_3_joint"
    ],
    "metrics": {
        "cart_traj_len": 3.502610642189239,
        "distance_elbow_joint": 5.442826070617222,
        "distance_shoulder_lift_joint": 0.9815157055383219,
        "distance_shoulder_pan_joint": 4.335375714014178,
        "distance_wrist_1_joint": 5.1950441508169805,
        "distance_wrist_2_joint": 1.4432825600290056,
        "distance_wrist_3_joint": 2.2685066797533935,
        "smoothness": 0.4001229551331287,
        "time": 0.16135126,
        "traj_len": 4.434698510695976,
        "weighted_distance": 5.553547600509235
    },
    "planner": "KPIECE",
    "start": {
        "state": {
            "elbow_joint": -1.919618573717145,
            "shoulder_lift_joint": -1.2443395971678275,
            "shoulder_pan_joint": 2.6996025300909787,
            "wrist_1_joint": -1.548550951253194,
            "wrist_2_joint": -1.5709469090946802,
            "wrist_3_joint": 0.4420197732051276
        }
    },
    "waypoints": [
        {
            "positions": [
                2.6996025300909787,
                -1.2443395971678275,
                -1.919618573717145,
                -1.548550951253194,
                -1.5709469090946802,
                0.4420197732051276
            ]
        },
        {
            "positions": [
                2.6062015877121314,
                -1.2512839232692756,
                -1.7932041912710808,
                -1.431401788579751,
                -1.5616244963888797,
                0.40540198507081704
            ]
        },
        {
            "positions": [
                2.5128006453332836,
                -1.2582282493707235,
                -1.6667898088250164,
                -1.314252625906308,
                -1.5523020836830792,
                0.36878419693650655
            ]
        },
        {
            "positions": [
                2.4193997029544363,
                -1.2651725754721717,
                -1.5403754263789522,
                -1.197103463232865,
                -1.5429796709772787,
                0.332166408802196
            ]
        },
        {
            "positions": [
                2.325998760575589,
                -1.2721169015736198,
                -1.413961043932888,
                -1.0799543005594219,
                -1.5336572582714785,
                0.29554862066788545
            ]
        },
        {
            "positions": [
                2.232597818196741,
                -1.2790612276750677,
                -1.2875466614868236,
                -0.9628051378859789,
                -1.524334845565678,
                0.25893083253357496
            ]
        },
        {
            "positions": [
                2.139196875817894,
                -1.2860055537765158,
                -1.1611322790407592,
                -0.8456559752125359,
                -1.5150124328598775,
                0.2223130443992644
            ]
        },
        {
            "positions": [
                2.0457959334390465,
                -1.2929498798779637,
                -1.034717896594695,
                -0.7285068125390928,
                -1.505690020154077,
                0.18569525626495387
            ]
        },
        {
            "positions": [
                1.9523949910601988,
                -1.2998942059794119,
                -0.9083035141486309,
                -0.6113576498656498,
                -1.4963676074482766,
                0.14907746813064332
            ]
        },
        {
            "positions": [
                1.8589940486813514,
                -1.30683853208086,
                -0.7818891317025665,
                -0.4942084871922068,
                -1.487045194742476,
                0.11245967999633277
            ]
        },
        {
            "positions": [
                1.765593106302504,
                -1.3137828581823079,
                -0.6554747492565023,
                -0.37705932451876367,
                -1.4777227820366758,
                0.07584189186202228
            ]
        },
        {
            "positions": [
                1.6721921639236565,
                -1.320727184283756,
                -0.5290603668104379,
                -0.25991016184532056,
                -1.4684003693308754,
                0.039224103727711734
            ]
        },
        {
            "positions": [
                1.578791221544809,
                -1.327671510385204,
                -0.4026459843643737,
                -0.14276099917187768,
                -1.459077956625075,
                0.0026063155934011872
            ]
        },
        {
            "positions": [
                1.4853902791659614,
                -1.334615836486652,
                -0.27623160191830953,
                -0.02561183649843457,
                -1.4497555439192744,
                -0.03401147254090936
            ]
        },
        {
            "positions": [
                1.3919893367871141,
                -1.3415601625881002,
                -0.14981721947224513,
                0.09153732617500854,
                -1.440433131213474,
                -0.07062926067521985
            ]
        },
        {
            "positions": [
                1.2985883944082666,
                -1.348504488689548,
                -0.023402837026180956,
                0.20868648884845165,
                -1.4311107185076735,
                -0.10724704880953045
            ]
        },
        {
            "positions": [
                1.205187452029419,
                -1.3554488147909962,
                0.10301154541988322,
                0.32583565152189453,
                -1.421788305801873,
                -0.14386483694384095
            ]
        },
        {
            "positions": [
                1.1117865096505717,
                -1.3623931408924443,
                0.2294259278659474,
                0.44298481419533764,
                -1.4124658930960727,
                -0.18048262507815144
            ]
        },
        {
            "positions": [
                1.0183855672717241,
                -1.3693374669938922,
                0.355840310312012,
                0.5601339768687805,
                -1.4031434803902723,
                -0.21710041321246204
            ]
        },
        {
            "positions": [
                0.9249846248928768,
                -1.3762817930953404,
                0.48225469275807575,
                0.6772831395422236,
                -1.3938210676844718,
                -0.2537182013467724
            ]
        },
        {
            "positions": [
                0.8315836825140293,
                -1.3832261191967885,
                0.6086690752041404,
                0.7944323022156667,
                -1.3844986549786713,
                -0.290335989481083
            ]
        },
        {
            "positions": [
                0.7381827401351819,
                -1.3901704452982364,
                0.7350834576502046,
                0.9115814648891094,
                -1.3751762422728708,
                -0.3269537776153935
            ]
        },
        {
            "positions": [
                0.6447817977563344,
                -1.3971147713996845,
                0.8614978400962692,
                1.028730627562553,
                -1.3658538295670706,
                -0.3635715657497041
            ]
        },
        {
            "positions": [
                0.551380855377487,
                -1.4040590975011324,
                0.9879122225423329,
                1.1458797902359956,
                -1.35653141686127,
                -0.4001893538840146
            ]
        },
        {
            "positions": [
                0.45797991299863927,
                -1.4110034236025806,
                1.1143266049883975,
                1.2630289529094387,
                -1.3472090041554696,
                -0.4368071420183252
            ]
        },
        {
            "positions": [
                0.36457897061979194,
                -1.4179477497040285,
                1.2407409874344617,
                1.3801781155828818,
                -1.3378865914496691,
                -0.4734249301526357
            ]
        },
        {
            "positions": [
                0.27117802824094417,
                -1.4248920758054766,
                1.3671553698805259,
                1.497327278256325,
                -1.3285641787438687,
                -0.5100427182869463
            ]
        },
        {
            "positions": [
                0.17777708586209684,
                -1.4318364019069247,
                1.49356975232659,
                1.6144764409297676,
                -1.3192417660380684,
                -0.5466605064212566
            ]
        },
        {
            "positions": [
                0.08437614348324951,
                -1.4387807280083726,
                1.6199841347726547,
                1.7316256036032112,
                -1.3099193533322677,
                -0.5832782945555672
            ]
        },
        {
            "positions": [
                -0.009024798895597819,
                -1.4457250541098208,
                1.7463985172187184,
                1.8487747662766538,
                -1.3005969406264675,
                -0.6198960826898778
            ]
        },
        {
            "positions": [
                -0.10242574127444559,
                -1.452669380211269,
                1.872812899664783,
                1.9659239289500974,
                -1.291274527920667,
                -0.6565138708241884
            ]
        },
        {
            "positions": [
                -0.19582668365329292,
                -1.4596137063127168,
                1.9992272821108472,
                2.08307309162354,
                -1.2819521152148665,
                -0.6931316589584988
            ]
        },
        {
            "positions": [
                -0.2892276260321407,
                -1.466558032414165,
                2.1256416645569116,
                2.200222254296983,
                -1.272629702509066,
                -0.7297494470928094
            ]
        },
        {
            "positions": [
                -0.382628568410988,
                -1.473502358515613,
                2.2520560470029762,
                2.3173714169704263,
                -1.2633072898032656,
                -0.7663672352271198
            ]
        },
        {
            "positions": [
                -0.47602951078983535,
                -1.480446684617061,
                2.37847042944904,
                2.4345205796438694,
                -1.2539848770974653,
                -0.8029850233614304
            ]
        },
        {
            "positions": [
                -0.5694304531686827,
                -1.487391010718509,
                2.5048848118951046,
                2.551669742317312,
                -1.2446624643916648,
                -0.839602811495741
            ]
        },
        {
            "positions": [
                -0.6628313955475305,
                -1.4943353368199572,
                2.631299194341169,
                2.668818904990755,
                -1.2353400516858644,
                -0.8762205996300516
            ]
        },
        {
            "positions": [
                -0.7562323379263779,
                -1.5012796629214051,
                2.757713576787233,
                2.7859680676641982,
                -1.2260176389800639,
                -0.9128383877643621
            ]
        },
        {
            "positions": [
                -0.6934079917837477,
                -1.4495242600796376,
                2.703035439636315,
                2.7245019868142277,
                -1.1475638325576074,
                -0.8475777792797975
            ]
        },
        {
            "positions": [
                -0.6305836456411175,
                -1.3977688572378701,
                2.6483573024853975,
                2.6630359059642568,
                -1.0691100261351512,
                -0.7823171707952329
            ]
        },
        {
            "positions": [
                -0.5677592994984872,
                -1.3460134543961029,
                2.5936791653344797,
                2.6015698251142862,
                -0.9906562197126948,
                -0.7170565623106683
            ]
        },
        {
            "positions": [
                -0.5049349533558569,
                -1.2942580515543354,
                2.539001028183562,
                2.5401037442643153,
                -0.9122024132902384,
                -0.6517959538261037
            ]
        },
        {
            "positions": [
                -0.4421106072132267,
                -1.2425026487125679,
                2.4843228910326443,
                2.4786376634143448,
                -0.833748606867782,
                -0.5865353453415391
            ]
        },
        {
            "positions": [
                -0.37928626107059654,
                -1.1907472458708004,
                2.4296447538817265,
                2.4171715825643743,
                -0.7552948004453257,
                -0.5212747368569745
            ]
        },
        {
            "positions": [
                -0.31646191492796627,
                -1.1389918430290331,
                2.3749666167308088,
                2.3557055017144033,
                -0.6768409940228692,
                -0.45601412837240984
            ]
        },
        {
            "positions": [
                -0.25363756878533605,
                -1.0872364401872656,
                2.320288479579891,
                2.2942394208644328,
                -0.5983871876004129,
                -0.39075351988784524
            ]
        },
        {
            "positions": [
                -0.19081322264270573,
                -1.0354810373454981,
                2.2656103424289733,
                2.232773340014462,
                -0.5199333811779564,
                -0.3254929114032806
            ]
        },
        {
            "positions": [
                -0.1279888765000755,
                -0.9837256345037306,
                2.2109322052780556,
                2.1713072591644913,
                -0.44147957475550004,
                -0.260232302918716
            ]
        },
        {
            "positions": [
                -0.0651645303574454,
                -0.9319702316619632,
                2.156254068127138,
                2.1098411783145203,
                -0.3630257683330438,
                -0.1949716944341514
            ]
        },
        {
            "positions": [
                -0.0023401842148151886,
                -0.8802148288201957,
                2.10157593097622,
                2.04837509746455,
                -0.2845719619105874,
                -0.1297110859495868
            ]
        },
        {
            "positions": [
                0.06048416192781514,
                -0.8284594259784283,
                2.046897793825302,
                1.9869090166145789,
                -0.20611815548813084,
                -0.0644504774650222
            ]
        },
        {
            "positions": [
                0.12330850807044537,
                -0.7767040231366609,
                1.9922196566743844,
                1.9254429357646083,
                -0.12766434906567453,
                0.000810131019542395
            ]
        }
    ]
}{
    "goal": {
        "global_pose": {
            "orientation": {
                "w": 0.7047431468963623,
                "x": -0.7094548344612122,
                "y": 0.0024358443915843964,
                "z": -0.0022348060738295317
            },
            "position": {
                "x": 0.6094750761985779,
                "y": 0.3671506643295288,
                "z": 0.19426114857196808
            }
        },
        "name": "move_to_magneteinheit_A"
    },
    "id": "KPIECE_move_to_magneteinheit_A_52",
    "joint_names": [
        "shoulder_pan_joint",
        "shoulder_lift_joint",
        "elbow_joint",
        "wrist_1_joint",
        "wrist_2_joint",
        "wrist_3_joint"
    ],
    "metrics": {
        "cart_traj_len": 1.231204775137945,
        "distance_elbow_joint": 0.1479260425850515,
        "distance_shoulder_lift_joint": 0.7929193939219472,
        "distance_shoulder_pan_joint": 1.242547413012135,
        "distance_wrist_1_joint": 1.0211050142561424,
        "distance_wrist_2_joint": 1.5850264319859226,
        "distance_wrist_3_joint": 4.333046863750724,
        "smoothness": 0.4021184865968769,
        "time": 0.076811525,
        "traj_len": 3.02035944210485,
        "weighted_distance": 4.516059823923443
    },
    "planner": "KPIECE",
    "start": {
        "state": {
            "elbow_joint": 1.919643534880228,
            "shoulder_lift_joint": -1.8972525353963687,
            "shoulder_pan_joint": -1.1188672234189438,
            "wrist_1_joint": -1.5931878212786155,
            "wrist_2_joint": 1.5706036197970081,
            "wrist_3_joint": 1.118896926603594
        }
    },
    "waypoints": [
        {
            "positions": [
                -1.1188672234189438,
                -1.8972525353963687,
                1.919643534880228,
                -1.5931878212786155,
                1.5706036197970081,
                1.118896926603594
            ]
        },
        {
            "positions": [
                -1.0652167989699426,
                -1.8619105361208241,
                1.9172764734224832,
                -1.5509875673004645,
                1.5016474863660474,
                0.9280093104926905
            ]
        },
        {
            "positions": [
                -1.0115663745209413,
                -1.8265685368452798,
                1.9149094119647383,
                -1.5087873133223135,
                1.4326913529350866,
                0.737121694381787
            ]
        },
        {
            "positions": [
                -0.9579159500719403,
                -1.7912265375697352,
                1.9125423505069934,
                -1.4665870593441626,
                1.363735219504126,
                0.5462340782708835
            ]
        },
        {
            "positions": [
                -0.904265525622939,
                -1.7558845382941908,
                1.9101752890492487,
                -1.4243868053660116,
                1.2947790860731652,
                0.35534646215998
            ]
        },
        {
            "positions": [
                -0.8506151011739378,
                -1.7205425390186462,
                1.9078082275915038,
                -1.3821865513878606,
                1.2258229526422046,
                0.16445884604907657
            ]
        },
        {
            "positions": [
                -0.7969646767249366,
                -1.6852005397431018,
                1.905441166133759,
                -1.3399862974097096,
                1.156866819211244,
                -0.026428770061826867
            ]
        },
        {
            "positions": [
                -0.7433142522759354,
                -1.6498585404675572,
                1.903074104676014,
                -1.2977860434315587,
                1.0879106857802832,
                -0.21731638617273052
            ]
        },
        {
            "positions": [
                -0.6896638278269343,
                -1.6145165411920126,
                1.900707043218269,
                -1.2555857894534077,
                1.0189545523493222,
                -0.40820400228363396
            ]
        },
        {
            "positions": [
                -0.636013403377933,
                -1.5791745419164682,
                1.8983399817605242,
                -1.2133855354752567,
                0.9499984189183616,
                -0.5990916183945376
            ]
        },
        {
            "positions": [
                -0.5823629789289319,
                -1.5438325426409236,
                1.8959729203027793,
                -1.1711852814971058,
                0.8810422854874009,
                -0.7899792345054408
            ]
        },
        {
            "positions": [
                -0.5287125544799306,
                -1.508490543365379,
                1.8936058588450346,
                -1.1289850275189548,
                0.8120861520564402,
                -0.9808668506163445
            ]
        },
        {
            "positions": [
                -0.47506213003092945,
                -1.4731485440898346,
                1.8912387973872897,
                -1.0867847735408038,
                0.7431300186254796,
                -1.1717544667272477
            ]
        },
        {
            "positions": [
                -0.4214117055819282,
                -1.43780654481429,
                1.8888717359295448,
                -1.0445845195626529,
                0.6741738851945187,
                -1.3626420828381518
            ]
        },
        {
            "positions": [
                -0.36776128113292694,
                -1.4024645455387457,
                1.8865046744718,
                -1.0023842655845019,
                0.6052177517635581,
                -1.553529698949055
            ]
        },
        {
            "positions": [
                -0.3141108566839258,
                -1.367122546263201,
                1.884137613014055,
                -0.9601840116063509,
                0.5362616183325974,
                -1.7444173150599582
            ]
        },
        {
            "positions": [
                -0.26046043223492454,
                -1.3317805469876567,
                1.8817705515563101,
                -0.9179837576282,
                0.4673054849016365,
                -1.9353049311708619
            ]
        },
        {
            "positions": [
                -0.2068100077859234,
                -1.296438547712112,
                1.8794034900985652,
                -0.875783503650049,
                0.39834935147067596,
                -2.1261925472817653
            ]
        },
        {
            "positions": [
                -0.15315958333692214,
                -1.2610965484365675,
                1.8770364286408203,
                -0.833583249671898,
                0.329393218039715,
                -2.317080163392669
            ]
        },
        {
            "positions": [
                -0.09950915888792089,
                -1.225754549161023,
                1.8746693671830756,
                -0.791382995693747,
                0.2604370846087545,
                -2.5079677795035726
            ]
        },
        {
            "positions": [
                -0.04585873443891986,
                -1.1904125498854787,
                1.8723023057253307,
                -0.7491827417155961,
                0.19148095117779373,
                -2.6988553956144754
            ]
        },
        {
            "positions": [
                0.007791690010081398,
                -1.155070550609934,
                1.8699352442675858,
                -0.7069824877374451,
                0.12252481774683299,
                -2.889743011725379
            ]
        },
        {
            "positions": [
                0.061442114459082715,
                -1.1197285513343895,
                1.867568182809841,
                -0.6647822337592941,
                0.05356868431587221,
                -3.0806306278362827
            ]
        },
        {
            "positions": [
                0.0925611520261369,
                -1.1274262562643735,
                1.9154935280671732,
                -0.7111319471277047,
                0.08756443256826554,
                -3.147390282491706
            ]
        },
        {
            "positions": [
                0.12368018959319109,
                -1.1351239611943575,
                1.9634188733245053,
                -0.7574816604961151,
                0.12156018082065886,
                -3.2141499371471296
            ]
        }
    ]
}