{
    "goal": {
        "global_pose": {
            "orientation": {
                "w": 0.7047431468963623,
                "x": -0.7094548344612122,
                "y": 0.0024358443915843964,
                "z": -0.0022348060738295317
            },
            "position": {
                "x": 0.6094750761985779,
                "y": 0.3671506643295288,
                "z": 0.19426114857196808
            }
        },
        "name": "move_to_magneteinheit_A"
    },
    "id": "KPIECE_move_to_magneteinheit_A_19",
    "joint_names": [
        "shoulder_pan_joint",
        "shoulder_lift_joint",
        "elbow_joint",
        "wrist_1_joint",
        "wrist_2_joint",
        "wrist_3_joint"
    ],
    "metrics": {
        "cart_traj_len": 3.1639084690343946,
        "distance_elbow_joint": 3.943104830247016,
        "distance_shoulder_lift_joint": 0.45360148097628583,
        "distance_shoulder_pan_joint": 2.859017940094372,
        "distance_wrist_1_joint": 3.580570156757681,
        "distance_wrist_2_joint": 1.8405505289870652,
        "distance_wrist_3_joint": 0.8417590715785881,
        "smoothness": 0.12197781576121906,
        "time": 0.255422106,
        "traj_len": 3.6767654274703196,
        "weighted_distance": 4.541282069806161
    },
    "planner": "KPIECE",
    "start": {
        "state": {
            "elbow_joint": -1.919618573717145,
            "shoulder_lift_joint": -1.2443395971678275,
            "shoulder_pan_joint": 2.6996025300909787,
            "wrist_1_joint": -1.548550951253194,
            "wrist_2_joint": -1.5709469090946802,
            "wrist_3_joint": 0.4420197732051276
        }
    },
    "waypoints": [
        {
            "positions": [
                2.6996025300909787,
                -1.2443395971678275,
                -1.919618573717145,
                -1.548550951253194,
                -1.5709469090946802,
                0.4420197732051276
            ]
        },
        {
            "positions": [
                2.6025248634746228,
                -1.2421849831032088,
                -1.8111074170145598,
                -1.4511209876889573,
                -1.512245529586427,
                0.4167814277384809
            ]
        },
        {
            "positions": [
                2.505447196858267,
                -1.2400303690385903,
                -1.7025962603119746,
                -1.3536910241247206,
                -1.4535441500781736,
                0.39154308227183426
            ]
        },
        {
            "positions": [
                2.408369530241911,
                -1.2378757549739716,
                -1.5940851036093895,
                -1.256261060560484,
                -1.3948427705699205,
                0.3663047368051876
            ]
        },
        {
            "positions": [
                2.311291863625555,
                -1.2357211409093531,
                -1.485573946906804,
                -1.1588310969962472,
                -1.3361413910616673,
                0.341066391338541
            ]
        },
        {
            "positions": [
                2.2142141970091984,
                -1.2335665268447344,
                -1.377062790204219,
                -1.0614011334320104,
                -1.2774400115534141,
                0.3158280458718943
            ]
        },
        {
            "positions": [
                2.1171365303928424,
                -1.2314119127801157,
                -1.2685516335016338,
                -0.9639711698677738,
                -1.2187386320451608,
                0.2905897004052477
            ]
        },
        {
            "positions": [
                2.0200588637764865,
                -1.2292572987154973,
                -1.1600404767990486,
                -0.866541206303537,
                -1.1600372525369076,
                0.265351354938601
            ]
        },
        {
            "positions": [
                1.9229811971601305,
                -1.2271026846508786,
                -1.0515293200964635,
                -0.7691112427393003,
                -1.1013358730286544,
                0.24011300947195438
            ]
        },
        {
            "positions": [
                1.8259035305437743,
                -1.22494807058626,
                -0.9430181633938782,
                -0.6716812791750635,
                -1.042634493520401,
                0.2148746640053077
            ]
        },
        {
            "positions": [
                1.7288258639274183,
                -1.2227934565216414,
                -0.834507006691293,
                -0.5742513156108269,
                -0.9839331140121479,
                0.18963631853866103
            ]
        },
        {
            "positions": [
                1.6317481973110624,
                -1.2206388424570227,
                -0.725995849988708,
                -0.47682135204659026,
                -0.9252317345038947,
                0.16439797307201443
            ]
        },
        {
            "positions": [
                1.5346705306947064,
                -1.2184842283924042,
                -0.6174846932861229,
                -0.37939138848235343,
                -0.8665303549956415,
                0.13915962760536776
            ]
        },
        {
            "positions": [
                1.4375928640783502,
                -1.2163296143277855,
                -0.5089735365835375,
                -0.2819614249181166,
                -0.8078289754873882,
                0.1139212821387211
            ]
        },
        {
            "positions": [
                1.3405151974619942,
                -1.2141750002631668,
                -0.40046237988095235,
                -0.18453146135388,
                -0.749127595979135,
                0.08868293667207444
            ]
        },
        {
            "positions": [
                1.2434375308456382,
                -1.2120203861985483,
                -0.2919512231783672,
                -0.08710149778964338,
                -0.6904262164708819,
                0.06344459120542778
            ]
        },
        {
            "positions": [
                1.1463598642292823,
                -1.2098657721339297,
                -0.18344006647578204,
                0.010328465774593454,
                -0.6317248369626286,
                0.038206245738781175
            ]
        },
        {
            "positions": [
                1.0492821976129263,
                -1.2077111580693112,
                -0.07492890977319688,
                0.10775842933883006,
                -0.5730234574543754,
                0.012967900272134514
            ]
        },
        {
            "positions": [
                0.9522045309965699,
                -1.2055565440046925,
                0.03358224692938849,
                0.20518839290306712,
                -0.5143220779461222,
                -0.012270445194512203
            ]
        },
        {
            "positions": [
                0.8551268643802139,
                -1.2034019299400738,
                0.14209340363197387,
                0.30261835646730373,
                -0.4556206984378688,
                -0.037508790661158864
            ]
        },
        {
            "positions": [
                0.7580491977638579,
                -1.2012473158754553,
                0.250604560334559,
                0.40004832003154034,
                -0.3969193189296156,
                -0.06274713612780553
            ]
        },
        {
            "positions": [
                0.660971531147502,
                -1.1990927018108366,
                0.3591157170371442,
                0.49747828359577717,
                -0.33821793942136247,
                -0.08798548159445213
            ]
        },
        {
            "positions": [
                0.563893864531146,
                -1.1969380877462181,
                0.4676268737397289,
                0.5949082471600136,
                -0.2795165599131093,
                -0.11322382706109874
            ]
        },
        {
            "positions": [
                0.46681619791479,
                -1.1947834736815994,
                0.576138030442314,
                0.6923382107242504,
                -0.22081518040485615,
                -0.13846217252774545
            ]
        },
        {
            "positions": [
                0.36973853129843404,
                -1.1926288596169807,
                0.6846491871448992,
                0.7897681742884872,
                -0.16211380089660277,
                -0.16370051799439206
            ]
        },
        {
            "positions": [
                0.2726608646820776,
                -1.1904742455523623,
                0.7931603438474848,
                0.8871981378527241,
                -0.1034124213883496,
                -0.18893886346103878
            ]
        },
        {
            "positions": [
                0.17558319806572165,
                -1.1883196314877436,
                0.90167150055007,
                0.9846281014169609,
                -0.044711041880096225,
                -0.21417720892768538
            ]
        },
        {
            "positions": [
                0.07850553144936567,
                -1.186165017423125,
                1.010182657252655,
                1.0820580649811973,
                0.013990337628156935,
                -0.2394155543943321
            ]
        },
        {
            "positions": [
                -0.01857213516699044,
                -1.1840104033585064,
                1.1186938139552403,
                1.179488028545434,
                0.07269171713640998,
                -0.26465389986097865
            ]
        },
        {
            "positions": [
                -0.018550931755427054,
                -1.1329000958794633,
                1.2441705934750176,
                1.297525597743416,
                0.0358689043042396,
                -0.2511328057318742
            ]
        },
        {
            "positions": [
                -0.01852972834386367,
                -1.0817897884004202,
                1.3696473729947947,
                1.415563166941398,
                -0.0009539085279307857,
                -0.23761171160276973
            ]
        },
        {
            "positions": [
                -0.018508524932300284,
                -1.0306794809213773,
                1.495124152514572,
                1.53360073613938,
                -0.03777672136010117,
                -0.22409061747366527
            ]
        },
        {
            "positions": [
                -0.0184873215207369,
                -0.9795691734423342,
                1.6206009320343493,
                1.6516383053373618,
                -0.07459953419227154,
                -0.2105695233445608
            ]
        },
        {
            "positions": [
                0.016702293776800478,
                -0.932361409129636,
                1.72132226315823,
                1.7467335303791427,
                -0.08700469704909486,
                -0.19031926784554473
            ]
        },
        {
            "positions": [
                0.051891909074337855,
                -0.8851536448169379,
                1.8220435942821105,
                1.8418287554209238,
                -0.09940985990591818,
                -0.17006901234652866
            ]
        },
        {
            "positions": [
                0.08708152437187523,
                -0.8379458805042398,
                1.922764925405991,
                1.936923980462705,
                -0.1118150227627415,
                -0.1498187568475126
            ]
        },
        {
            "positions": [
                0.12227113966941261,
                -0.7907381161915417,
                2.0234862565298717,
                2.032019205504486,
                -0.12422018561956481,
                -0.12956850134849654
            ]
        }
    ]
}{
    "goal": {
        "global_pose": {
            "orientation": {
                "w": 0.7047431468963623,
                "x": -0.7094548344612122,
                "y": 0.0024358443915843964,
                "z": -0.0022348060738295317
            },
            "position": {
                "x": 0.6094750761985779,
                "y": 0.3671506643295288,
                "z": 0.19426114857196808
            }
        },
        "name": "move_to_magneteinheit_A"
    },
    "id": "KPIECE_move_to_magneteinheit_A_19",
    "joint_names": [
        "shoulder_pan_joint",
        "shoulder_lift_joint",
        "elbow_joint",
        "wrist_1_joint",
        "wrist_2_joint",
        "wrist_3_joint"
    ],
    "metrics": {
        "cart_traj_len": 1.6148891751759087,
        "distance_elbow_joint": 1.7905924930099892,
        "distance_shoulder_lift_joint": 0.7538942572646854,
        "distance_shoulder_pan_joint": 1.2424571363617287,
        "distance_wrist_1_joint": 0.7724951808761562,
        "distance_wrist_2_joint": 1.434369725943684,
        "distance_wrist_3_joint": 4.271446287288711,
        "smoothness": 0.1775044687346583,
        "time": 0.13571882400000002,
        "traj_len": 3.2039436762753737,
        "weighted_distance": 4.584213407133467
    },
    "planner": "KPIECE",
    "start": {
        "state": {
            "elbow_joint": 1.919643534880228,
            "shoulder_lift_joint": -1.8972525353963687,
            "shoulder_pan_joint": -1.1188672234189438,
            "wrist_1_joint": -1.5931878212786155,
            "wrist_2_joint": 1.5706036197970081,
            "wrist_3_joint": 1.118896926603594
        }
    },
    "waypoints": [
        {
            "positions": [
                -1.1188672234189438,
                -1.8972525353963687,
                1.919643534880228,
                -1.5931878212786155,
                1.5706036197970081,
                1.118896926603594
            ]
        },
        {
            "positions": [
                -1.0876568021432078,
                -1.8754083248416735,
                1.8619757615026007,
                -1.5506134754025782,
                1.4902796795051367,
                0.9576081361453075
            ]
        },
        {
            "positions": [
                -1.056446380867472,
                -1.853564114286978,
                1.804307988124973,
                -1.508039129526541,
                1.4099557392132653,
                0.796319345687021
            ]
        },
        {
            "positions": [
                -1.025235959591736,
                -1.8317199037322829,
                1.7466402147473457,
                -1.4654647836505037,
                1.329631798921394,
                0.6350305552287345
            ]
        },
        {
            "positions": [
                -0.9940255383160002,
                -1.8098756931775877,
                1.6889724413697182,
                -1.4228904377744662,
                1.2493078586295225,
                0.47374176477044805
            ]
        },
        {
            "positions": [
                -0.9628151170402642,
                -1.7880314826228922,
                1.6313046679920908,
                -1.380316091898429,
                1.1689839183376514,
                0.31245297431216157
            ]
        },
        {
            "positions": [
                -0.9316046957645283,
                -1.766187272068197,
                1.5736368946144632,
                -1.3377417460223917,
                1.08865997804578,
                0.15116418385387498
            ]
        },
        {
            "positions": [
                -0.9003942744887923,
                -1.7443430615135018,
                1.5159691212368358,
                -1.2951674001463545,
                1.0083360377539086,
                -0.010124606604411612
            ]
        },
        {
            "positions": [
                -0.8691838532130565,
                -1.7224988509588064,
                1.4583013478592084,
                -1.2525930542703172,
                0.9280120974620372,
                -0.17141339706269787
            ]
        },
        {
            "positions": [
                -0.8379734319373204,
                -1.7006546404041112,
                1.400633574481581,
                -1.21001870839428,
                0.8476881571701659,
                -0.33270218752098435
            ]
        },
        {
            "positions": [
                -0.8067630106615846,
                -1.678810429849416,
                1.3429658011039534,
                -1.1674443625182427,
                0.7673642168782945,
                -0.49399097797927083
            ]
        },
        {
            "positions": [
                -0.7755525893858486,
                -1.6569662192947205,
                1.2852980277263262,
                -1.1248700166422054,
                0.6870402765864231,
                -0.6552797684375573
            ]
        },
        {
            "positions": [
                -0.7443421681101127,
                -1.6351220087400253,
                1.2276302543486985,
                -1.0822956707661682,
                0.6067163362945517,
                -0.816568558895844
            ]
        },
        {
            "positions": [
                -0.7131317468343767,
                -1.61327779818533,
                1.169962480971071,
                -1.0397213248901307,
                0.5263923960026804,
                -0.9778573493541305
            ]
        },
        {
            "positions": [
                -0.6819213255586408,
                -1.5914335876306347,
                1.1122947075934435,
                -0.9971469790140934,
                0.446068455710809,
                -1.1391461398124172
            ]
        },
        {
            "positions": [
                -0.6507109042829049,
                -1.5695893770759395,
                1.054626934215816,
                -0.9545726331380562,
                0.3657445154189375,
                -1.3004349302707032
            ]
        },
        {
            "positions": [
                -0.5803199208987513,
                -1.5308410953537344,
                1.138770197156323,
                -0.9424017247075474,
                0.34487991345842717,
                -1.4688089693992865
            ]
        },
        {
            "positions": [
                -0.5099289375145977,
                -1.4920928136315292,
                1.22291346009683,
                -0.9302308162770385,
                0.3240153114979168,
                -1.6371830085278696
            ]
        },
        {
            "positions": [
                -0.43953795413044405,
                -1.4533445319093241,
                1.307056723037337,
                -0.9180599078465298,
                0.30315070953740647,
                -1.8055570476564529
            ]
        },
        {
            "positions": [
                -0.3691469707462904,
                -1.414596250187119,
                1.3911999859778441,
                -0.905888999416021,
                0.2822861075768961,
                -1.973931086785036
            ]
        },
        {
            "positions": [
                -0.29875598736213677,
                -1.3758479684649139,
                1.4753432489183513,
                -0.8937180909855121,
                0.2614215056163858,
                -2.142305125913619
            ]
        },
        {
            "positions": [
                -0.22836500397798315,
                -1.337099686742709,
                1.5594865118588581,
                -0.8815471825550033,
                0.24055690365587543,
                -2.3106791650422025
            ]
        },
        {
            "positions": [
                -0.15797402059382953,
                -1.2983514050205038,
                1.6436297747993653,
                -0.8693762741244945,
                0.21969230169536508,
                -2.4790532041707856
            ]
        },
        {
            "positions": [
                -0.08758303720967586,
                -1.2596031232982987,
                1.7277730377398723,
                -0.8572053656939856,
                0.19882769973485473,
                -2.6474272432993686
            ]
        },
        {
            "positions": [
                -0.017192053825522247,
                -1.2208548415760936,
                1.8119163006803793,
                -0.8450344572634769,
                0.17796309777434435,
                -2.8158012824279517
            ]
        },
        {
            "positions": [
                0.05319892955863137,
                -1.1821065598538885,
                1.8960595636208863,
                -0.8328635488329681,
                0.15709849581383403,
                -2.9841753215565348
            ]
        },
        {
            "positions": [
                0.12358991294278497,
                -1.1433582781316833,
                1.9802028265613933,
                -0.8206926404024593,
                0.13623389385332368,
                -3.1525493606851183
            ]
        }
    ]
}