{
    "goal": {
        "global_pose": {
            "orientation": {
                "w": 0.7047431468963623,
                "x": -0.7094548344612122,
                "y": 0.0024358443915843964,
                "z": -0.0022348060738295317
            },
            "position": {
                "x": 0.6094750761985779,
                "y": 0.3671506643295288,
                "z": 0.19426114857196808
            }
        },
        "name": "move_to_magneteinheit_A"
    },
    "id": "KPIECE_move_to_magneteinheit_A_48",
    "joint_names": [
        "shoulder_pan_joint",
        "shoulder_lift_joint",
        "elbow_joint",
        "wrist_1_joint",
        "wrist_2_joint",
        "wrist_3_joint"
    ],
    "metrics": {
        "cart_traj_len": 3.6227270349790386,
        "distance_elbow_joint": 3.8776873199369204,
        "distance_shoulder_lift_joint": 0.6310948343298202,
        "distance_shoulder_pan_joint": 3.8205644386525197,
        "distance_wrist_1_joint": 1.2408904354516876,
        "distance_wrist_2_joint": 1.696573598118202,
        "distance_wrist_3_joint": 3.6836176621979067,
        "smoothness": 0.30642301149154644,
        "time": 0.174680023,
        "traj_len": 3.8665783696554055,
        "weighted_distance": 5.025448004571608
    },
    "planner": "KPIECE",
    "start": {
        "state": {
            "elbow_joint": -1.919618573717145,
            "shoulder_lift_joint": -1.2443395971678275,
            "shoulder_pan_joint": 2.6996025300909787,
            "wrist_1_joint": -1.548550951253194,
            "wrist_2_joint": -1.5709469090946802,
            "wrist_3_joint": 0.4420197732051276
        }
    },
    "waypoints": [
        {
            "positions": [
                2.6996025300909787,
                -1.2443395971678275,
                -1.919618573717145,
                -1.548550951253194,
                -1.5709469090946802,
                0.4420197732051276
            ]
        },
        {
            "positions": [
                2.6026916948009857,
                -1.2521872413309525,
                -1.807032588385924,
                -1.5172829838102408,
                -1.520214542557689,
                0.3459791241347909
            ]
        },
        {
            "positions": [
                2.505780859510993,
                -1.2600348854940775,
                -1.6944466030547027,
                -1.4860150163672876,
                -1.4694821760206978,
                0.24993847506445432
            ]
        },
        {
            "positions": [
                2.408870024221,
                -1.2678825296572025,
                -1.5818606177234817,
                -1.4547470489243344,
                -1.4187498094837063,
                0.15389782599411772
            ]
        },
        {
            "positions": [
                2.3119591889310076,
                -1.2757301738203275,
                -1.4692746323922605,
                -1.4234790814813811,
                -1.3680174429467151,
                0.05785717692378106
            ]
        },
        {
            "positions": [
                2.2150483536410146,
                -1.2835778179834525,
                -1.3566886470610395,
                -1.3922111140384281,
                -1.317285076409724,
                -0.03818347214655554
            ]
        },
        {
            "positions": [
                2.118137518351022,
                -1.2914254621465777,
                -1.2441026617298183,
                -1.3609431465954749,
                -1.2665527098727327,
                -0.13422412121689214
            ]
        },
        {
            "positions": [
                2.021226683061029,
                -1.2992731063097027,
                -1.1315166763985973,
                -1.3296751791525216,
                -1.2158203433357415,
                -0.23026477028722886
            ]
        },
        {
            "positions": [
                1.9243158477710365,
                -1.3071207504728277,
                -1.0189306910673763,
                -1.2984072117095684,
                -1.1650879767987503,
                -0.32630541935756546
            ]
        },
        {
            "positions": [
                1.8274050124810437,
                -1.3149683946359527,
                -0.9063447057361553,
                -1.2671392442666152,
                -1.114355610261759,
                -0.42234606842790196
            ]
        },
        {
            "positions": [
                1.730494177191051,
                -1.3228160387990777,
                -0.7937587204049341,
                -1.235871276823662,
                -1.0636232437247677,
                -0.5183867174982386
            ]
        },
        {
            "positions": [
                1.6335833419010581,
                -1.3306636829622027,
                -0.6811727350737131,
                -1.2046033093807087,
                -1.0128908771877767,
                -0.6144273665685751
            ]
        },
        {
            "positions": [
                1.5366725066110651,
                -1.3385113271253277,
                -0.5685867497424919,
                -1.1733353419377557,
                -0.9621585106507853,
                -0.7104680156389118
            ]
        },
        {
            "positions": [
                1.4397616713210726,
                -1.3463589712884527,
                -0.4560007644112709,
                -1.1420673744948024,
                -0.9114261441137941,
                -0.8065086647092485
            ]
        },
        {
            "positions": [
                1.3428508360310796,
                -1.3542066154515777,
                -0.3434147790800497,
                -1.1107994070518492,
                -0.8606937775768029,
                -0.9025493137795852
            ]
        },
        {
            "positions": [
                1.245940000741087,
                -1.3620542596147027,
                -0.2308287937488287,
                -1.079531439608896,
                -0.8099614110398117,
                -0.9985899628499217
            ]
        },
        {
            "positions": [
                1.149029165451094,
                -1.3699019037778277,
                -0.11824280841760748,
                -1.0482634721659427,
                -0.7592290445028204,
                -1.0946306119202585
            ]
        },
        {
            "positions": [
                1.0521183301611015,
                -1.3777495479409527,
                -0.005656823086386709,
                -1.0169955047229895,
                -0.7084966779658292,
                -1.190671260990595
            ]
        },
        {
            "positions": [
                0.9552074948711087,
                -1.385597192104078,
                0.10692916224483429,
                -0.9857275372800364,
                -0.657764311428838,
                -1.2867119100609314
            ]
        },
        {
            "positions": [
                0.8582966595811157,
                -1.393444836267203,
                0.21951514757605595,
                -0.954459569837083,
                -0.6070319448918466,
                -1.3827525591312684
            ]
        },
        {
            "positions": [
                0.7613858242911229,
                -1.401292480430328,
                0.3321011329072767,
                -0.9231916023941299,
                -0.5562995783548554,
                -1.4787932082016049
            ]
        },
        {
            "positions": [
                0.6644749890011301,
                -1.409140124593453,
                0.44468711823849794,
                -0.8919236349511767,
                -0.5055672118178642,
                -1.5748338572719414
            ]
        },
        {
            "positions": [
                0.5675641537111376,
                -1.416987768756578,
                0.5572731035697187,
                -0.8606556675082235,
                -0.45483484528087303,
                -1.6708745063422779
            ]
        },
        {
            "positions": [
                0.47065331842114455,
                -1.424835412919703,
                0.6698590889009399,
                -0.8293877000652702,
                -0.4041024787438816,
                -1.7669151554126148
            ]
        },
        {
            "positions": [
                0.37374248313115155,
                -1.432683057082828,
                0.7824450742321611,
                -0.7981197326223171,
                -0.3533701122068904,
                -1.8629558044829513
            ]
        },
        {
            "positions": [
                0.276831647841159,
                -1.440530701245953,
                0.8950310595633819,
                -0.7668517651793638,
                -0.3026377456698992,
                -1.9589964535532882
            ]
        },
        {
            "positions": [
                0.17992081255116643,
                -1.448378345409078,
                1.0076170448946031,
                -0.7355837977364107,
                -0.251905379132908,
                -2.0550371026236247
            ]
        },
        {
            "positions": [
                0.08300997726117343,
                -1.4562259895722032,
                1.1202030302258243,
                -0.7043158302934573,
                -0.2011730125959168,
                -2.1510777516939616
            ]
        },
        {
            "positions": [
                -0.013900858028819574,
                -1.4640736337353282,
                1.2327890155570456,
                -0.6730478628505042,
                -0.1504406460589256,
                -2.247118400764298
            ]
        },
        {
            "positions": [
                -0.11081169331881213,
                -1.4719212778984532,
                1.3453750008882663,
                -0.641779895407551,
                -0.0997082795219344,
                -2.3431590498346346
            ]
        },
        {
            "positions": [
                -0.2077225286088047,
                -1.4797689220615782,
                1.4579609862194876,
                -0.6105119279645979,
                -0.04897591298494319,
                -2.439199698904971
            ]
        },
        {
            "positions": [
                -0.3046333638987977,
                -1.4876165662247032,
                1.5705469715507088,
                -0.5792439605216445,
                0.0017564535520482316,
                -2.535240347975308
            ]
        },
        {
            "positions": [
                -0.4015441991887907,
                -1.4954642103878282,
                1.68313295688193,
                -0.5479759930786914,
                0.052488820089039434,
                -2.6312809970456446
            ]
        },
        {
            "positions": [
                -0.4984550344787833,
                -1.5033118545509532,
                1.7957189422131505,
                -0.5167080256357381,
                0.10322118662603058,
                -2.727321646115981
            ]
        },
        {
            "positions": [
                -0.3739536596622318,
                -1.4288873391616144,
                1.8281889030144753,
                -0.5585175276025844,
                0.10770228710552877,
                -2.830176894691341
            ]
        },
        {
            "positions": [
                -0.24945228484568033,
                -1.3544628237722753,
                1.8606588638158004,
                -0.6003270295694307,
                0.11218338758502697,
                -2.9330321432667
            ]
        },
        {
            "positions": [
                -0.12495091002912889,
                -1.2800383083829365,
                1.8931288246171252,
                -0.642136531536277,
                0.11666448806452515,
                -3.03588739184206
            ]
        },
        {
            "positions": [
                -0.0004495352125773455,
                -1.2056137929935975,
                1.9255987854184502,
                -0.6839460335031234,
                0.12114558854402334,
                -3.1387426404174192
            ]
        },
        {
            "positions": [
                0.12405183960397408,
                -1.1311892776042587,
                1.958068746219775,
                -0.7257555354699697,
                0.12562668902352153,
                -3.241597888992779
            ]
        }
    ]
}{
    "goal": {
        "global_pose": {
            "orientation": {
                "w": 0.7047431468963623,
                "x": -0.7094548344612122,
                "y": 0.0024358443915843964,
                "z": -0.0022348060738295317
            },
            "position": {
                "x": 0.6094750761985779,
                "y": 0.3671506643295288,
                "z": 0.19426114857196808
            }
        },
        "name": "move_to_magneteinheit_A"
    },
    "id": "KPIECE_move_to_magneteinheit_A_48",
    "joint_names": [
        "shoulder_pan_joint",
        "shoulder_lift_joint",
        "elbow_joint",
        "wrist_1_joint",
        "wrist_2_joint",
        "wrist_3_joint"
    ],
    "metrics": {
        "cart_traj_len": 1.2108025067236925,
        "distance_elbow_joint": 0.06438052890551149,
        "distance_shoulder_lift_joint": 0.7514888903355192,
        "distance_shoulder_pan_joint": 1.2427054438495122,
        "distance_wrist_1_joint": 0.7511306840735019,
        "distance_wrist_2_joint": 1.4861358034807273,
        "distance_wrist_3_joint": 4.249715267454588,
        "smoothness": 0.07842969770821938,
        "time": 0.152100601,
        "traj_len": 2.9232784024275484,
        "weighted_distance": 4.3911562988081805
    },
    "planner": "KPIECE",
    "start": {
        "state": {
            "elbow_joint": 1.919643534880228,
            "shoulder_lift_joint": -1.8972525353963687,
            "shoulder_pan_joint": -1.1188672234189438,
            "wrist_1_joint": -1.5931878212786155,
            "wrist_2_joint": 1.5706036197970081,
            "wrist_3_joint": 1.118896926603594
        }
    },
    "waypoints": [
        {
            "positions": [
                -1.1188672234189438,
                -1.8972525353963687,
                1.919643534880228,
                -1.5931878212786155,
                1.5706036197970081,
                1.118896926603594
            ]
        },
        {
            "positions": [
                -1.0634008036375269,
                -1.8623995956529036,
                1.9209361418780162,
                -1.5594801381235102,
                1.5007901163839386,
                0.9229087285835804
            ]
        },
        {
            "positions": [
                -1.00793438385611,
                -1.8275466559094384,
                1.9222287488758043,
                -1.5257724549684049,
                1.430976612970869,
                0.726920530563567
            ]
        },
        {
            "positions": [
                -0.9524679640746928,
                -1.792693716165973,
                1.9235213558735924,
                -1.4920647718132993,
                1.3611631095577992,
                0.5309323325435534
            ]
        },
        {
            "positions": [
                -0.8970015442932757,
                -1.757840776422508,
                1.9248139628713805,
                -1.458357088658194,
                1.2913496061447296,
                0.33494413452354
            ]
        },
        {
            "positions": [
                -0.8415351245118587,
                -1.7229878366790428,
                1.9261065698691686,
                -1.4246494055030887,
                1.22153610273166,
                0.13895593650352644
            ]
        },
        {
            "positions": [
                -0.7860687047304418,
                -1.6881348969355776,
                1.927399176866957,
                -1.3909417223479834,
                1.1517225993185902,
                -0.057032261516487104
            ]
        },
        {
            "positions": [
                -0.7306022849490247,
                -1.6532819571921122,
                1.928691783864745,
                -1.357234039192878,
                1.0819090959055206,
                -0.25302045953650043
            ]
        },
        {
            "positions": [
                -0.6751358651676076,
                -1.618429017448647,
                1.9299843908625332,
                -1.3235263560377728,
                1.012095592492451,
                -0.449008657556514
            ]
        },
        {
            "positions": [
                -0.6196694453861906,
                -1.583576077705182,
                1.9312769978603213,
                -1.2898186728826673,
                0.9422820890793814,
                -0.6449968555765275
            ]
        },
        {
            "positions": [
                -0.5642030256047736,
                -1.5487231379617168,
                1.9325696048581094,
                -1.256110989727562,
                0.8724685856663118,
                -0.8409850535965411
            ]
        },
        {
            "positions": [
                -0.5087366058233564,
                -1.5138701982182514,
                1.9338622118558975,
                -1.2224033065724567,
                0.802655082253242,
                -1.0369732516165546
            ]
        },
        {
            "positions": [
                -0.4532701860419396,
                -1.4790172584747863,
                1.9351548188536856,
                -1.1886956234173514,
                0.7328415788401725,
                -1.2329614496365682
            ]
        },
        {
            "positions": [
                -0.3978037662605225,
                -1.4441643187313211,
                1.9364474258514737,
                -1.154987940262246,
                0.6630280754271027,
                -1.4289496476565817
            ]
        },
        {
            "positions": [
                -0.3423373464791055,
                -1.409311378987856,
                1.9377400328492618,
                -1.1212802571071405,
                0.5932145720140332,
                -1.6249378456765948
            ]
        },
        {
            "positions": [
                -0.28687092669768843,
                -1.3744584392443908,
                1.9390326398470499,
                -1.0875725739520352,
                0.5234010686009636,
                -1.8209260436966088
            ]
        },
        {
            "positions": [
                -0.23140450691627146,
                -1.3396054995009257,
                1.9403252468448382,
                -1.05386489079693,
                0.453587565187894,
                -2.0169142417166217
            ]
        },
        {
            "positions": [
                -0.17593808713485437,
                -1.3047525597574603,
                1.9416178538426263,
                -1.0201572076418244,
                0.3837740617748242,
                -2.2129024397366353
            ]
        },
        {
            "positions": [
                -0.1204716673534374,
                -1.2698996200139951,
                1.9429104608404144,
                -0.9864495244867192,
                0.3139605583617546,
                -2.408890637756649
            ]
        },
        {
            "positions": [
                -0.0650052475720202,
                -1.2350466802705298,
                1.9442030678382025,
                -0.9527418413316139,
                0.24414705494868505,
                -2.6048788357766623
            ]
        },
        {
            "positions": [
                -0.009538827790603444,
                -1.2001937405270646,
                1.9454956748359906,
                -0.9190341581765086,
                0.17433355153561547,
                -2.800867033796676
            ]
        },
        {
            "positions": [
                0.045927591990813754,
                -1.1653408007835995,
                1.9467882818337787,
                -0.8853264750214032,
                0.10452004812254573,
                -2.9968552318166894
            ]
        },
        {
            "positions": [
                0.12383822043056843,
                -1.1457636450608495,
                1.9840240637857396,
                -0.8420571372051135,
                0.12457227992881065,
                -3.130818340850994
            ]
        }
    ]
}