{
    "goal": {
        "global_pose": {
            "orientation": {
                "w": 0.5084816217422485,
                "x": -0.49083608388900757,
                "y": 0.5182115435600281,
                "z": -0.4816462993621826
            },
            "position": {
                "x": 0.5540239810943604,
                "y": 0.030875300988554955,
                "z": 0.16403168439865112
            }
        },
        "name": "move_to_storage_A"
    },
    "id": "KPIECE_move_to_storage_A_149",
    "joint_names": [
        "shoulder_pan_joint",
        "shoulder_lift_joint",
        "elbow_joint",
        "wrist_1_joint",
        "wrist_2_joint",
        "wrist_3_joint"
    ],
    "metrics": {
        "cart_traj_len": 0.35308469835854267,
        "distance_elbow_joint": 0.4545096228820391,
        "distance_shoulder_lift_joint": 0.23392792633025472,
        "distance_shoulder_pan_joint": 0.45802634391595975,
        "distance_wrist_1_joint": 0.2620615492365842,
        "distance_wrist_2_joint": 1.1149920638784212,
        "distance_wrist_3_joint": 0.1045236844834112,
        "smoothness": 8.881784197001252e-16,
        "time": 0.033012523,
        "traj_len": 1.6211234347595713,
        "weighted_distance": 2.0528375904607015
    },
    "planner": "KPIECE",
    "start": {
        "state": {
            "elbow_joint": 1.9715477243005601,
            "shoulder_lift_joint": -1.1394853015351272,
            "shoulder_pan_joint": 0.12281154014795169,
            "wrist_1_joint": -0.7804696478968182,
            "wrist_2_joint": 0.12958648046900423,
            "wrist_3_joint": -3.192491284697111
        }
    },
    "waypoints": [
        {
            "positions": [
                0.12281154014795169,
                -1.1394853015351272,
                1.9715477243005601,
                -0.7804696478968182,
                0.12958648046900423,
                -3.192491284697111
            ]
        },
        {
            "positions": [
                0.05737920530281458,
                -1.1729035767251637,
                2.036477670426566,
                -0.817907012073473,
                0.28887106102306437,
                -3.1775593297709097
            ]
        },
        {
            "positions": [
                -0.008053129542322526,
                -1.2063218519152,
                2.1014076165525712,
                -0.8553443762501279,
                0.44815564157712456,
                -3.162627374844708
            ]
        },
        {
            "positions": [
                -0.07348546438745963,
                -1.2397401271052364,
                2.166337562678577,
                -0.8927817404267828,
                0.6074402221311848,
                -3.1476954199185063
            ]
        },
        {
            "positions": [
                -0.13891779923259673,
                -1.2731584022952727,
                2.2312675088045824,
                -0.9302191046034377,
                0.7667248026852449,
                -3.132763464992305
            ]
        },
        {
            "positions": [
                -0.20435013407773384,
                -1.3065766774853091,
                2.296197454930588,
                -0.9676564687800926,
                0.9260093832393052,
                -3.1178315100661034
            ]
        },
        {
            "positions": [
                -0.26978246892287094,
                -1.3399949526753454,
                2.3611274010565935,
                -1.0050938329567476,
                1.0852939637933652,
                -3.1028995551399015
            ]
        },
        {
            "positions": [
                -0.33521480376800805,
                -1.373413227865382,
                2.4260573471825992,
                -1.0425311971334024,
                1.2445785443474255,
                -3.0879676002137
            ]
        }
    ]
}