{
    "goal": {
        "global_pose": {
            "orientation": {
                "w": 0.5084816217422485,
                "x": -0.49083608388900757,
                "y": 0.5182115435600281,
                "z": -0.4816462993621826
            },
            "position": {
                "x": 0.5540239810943604,
                "y": 0.030875300988554955,
                "z": 0.16403168439865112
            }
        },
        "name": "move_to_storage_A"
    },
    "id": "KPIECE_move_to_storage_A_72",
    "joint_names": [
        "shoulder_pan_joint",
        "shoulder_lift_joint",
        "elbow_joint",
        "wrist_1_joint",
        "wrist_2_joint",
        "wrist_3_joint"
    ],
    "metrics": {
        "cart_traj_len": 0.3531739698514646,
        "distance_elbow_joint": 0.4503262683710494,
        "distance_shoulder_lift_joint": 0.23633983251432134,
        "distance_shoulder_pan_joint": 0.4622867783363443,
        "distance_wrist_1_joint": 0.23695440922065003,
        "distance_wrist_2_joint": 1.098439940486708,
        "distance_wrist_3_joint": 0.1055282891503353,
        "smoothness": 0.0,
        "time": 0.043827145,
        "traj_len": 1.609309018827462,
        "weighted_distance": 2.0337960679693126
    },
    "planner": "KPIECE",
    "start": {
        "state": {
            "elbow_joint": 1.9715477243005601,
            "shoulder_lift_joint": -1.1394853015351272,
            "shoulder_pan_joint": 0.12281154014795169,
            "wrist_1_joint": -0.7804696478968182,
            "wrist_2_joint": 0.12958648046900423,
            "wrist_3_joint": -3.192491284697111
        }
    },
    "waypoints": [
        {
            "positions": [
                0.12281154014795169,
                -1.1394853015351272,
                1.9715477243005601,
                -0.7804696478968182,
                0.12958648046900423,
                -3.192491284697111
            ]
        },
        {
            "positions": [
                0.05677057181418822,
                -1.1732481347514587,
                2.035880048353567,
                -0.8143202777854824,
                0.2865064719671053,
                -3.1774158148184917
            ]
        },
        {
            "positions": [
                -0.009270396519575244,
                -1.2070109679677905,
                2.1002123724065744,
                -0.8481709076741467,
                0.4434264634652065,
                -3.1623403449398726
            ]
        },
        {
            "positions": [
                -0.07531136485333871,
                -1.240773801184122,
                2.1645446964595814,
                -0.882021537562811,
                0.6003464549633076,
                -3.147264875061253
            ]
        },
        {
            "positions": [
                -0.14135233318710216,
                -1.2745366344004536,
                2.2288770205125883,
                -0.9158721674514754,
                0.7572664464614087,
                -3.132189405182634
            ]
        },
        {
            "positions": [
                -0.20739330152086566,
                -1.3082994676167852,
                2.2932093445655957,
                -0.9497227973401396,
                0.9141864379595099,
                -3.1171139353040145
            ]
        },
        {
            "positions": [
                -0.2734342698546291,
                -1.342062300833117,
                2.3575416686186026,
                -0.9835734272288039,
                1.0711064294576111,
                -3.1020384654253954
            ]
        },
        {
            "positions": [
                -0.3394752381883926,
                -1.3758251340494485,
                2.4218739926716095,
                -1.0174240571174682,
                1.2280264209557124,
                -3.086962995546776
            ]
        }
    ]
}