{
    "goal": {
        "global_pose": {
            "orientation": {
                "w": 0.7047431468963623,
                "x": -0.7094548344612122,
                "y": 0.0024358443915843964,
                "z": -0.0022348060738295317
            },
            "position": {
                "x": 0.6094750761985779,
                "y": 0.3671506643295288,
                "z": 0.19426114857196808
            }
        },
        "name": "move_to_magneteinheit_A"
    },
    "id": "KPIECE_move_to_magneteinheit_A_43",
    "joint_names": [
        "shoulder_pan_joint",
        "shoulder_lift_joint",
        "elbow_joint",
        "wrist_1_joint",
        "wrist_2_joint",
        "wrist_3_joint"
    ],
    "metrics": {
        "cart_traj_len": 3.5358606917056066,
        "distance_elbow_joint": 3.909798439856985,
        "distance_shoulder_lift_joint": 0.46776099713906416,
        "distance_shoulder_pan_joint": 3.493391699253773,
        "distance_wrist_1_joint": 3.4548428435700917,
        "distance_wrist_2_joint": 1.4334741909915585,
        "distance_wrist_3_joint": 0.4134344113162148,
        "smoothness": 0.19799072686419478,
        "time": 0.120896672,
        "traj_len": 3.629421797218902,
        "weighted_distance": 4.34601983880904
    },
    "planner": "KPIECE",
    "start": {
        "state": {
            "elbow_joint": -1.919618573717145,
            "shoulder_lift_joint": -1.2443395971678275,
            "shoulder_pan_joint": 2.6996025300909787,
            "wrist_1_joint": -1.548550951253194,
            "wrist_2_joint": -1.5709469090946802,
            "wrist_3_joint": 0.4420197732051276
        }
    },
    "waypoints": [
        {
            "positions": [
                2.6996025300909787,
                -1.2443395971678275,
                -1.919618573717145,
                -1.548550951253194,
                -1.5709469090946802,
                0.4420197732051276
            ]
        },
        {
            "positions": [
                2.5949630221820015,
                -1.2341442432161376,
                -1.8137549599397134,
                -1.446230209330793,
                -1.5221806429466005,
                0.4282092020965145
            ]
        },
        {
            "positions": [
                2.490323514273024,
                -1.2239488892644474,
                -1.7078913461622816,
                -1.3439094674083922,
                -1.4734143767985206,
                0.41439863098790136
            ]
        },
        {
            "positions": [
                2.3856840063640465,
                -1.2137535353127575,
                -1.60202773238485,
                -1.2415887254859912,
                -1.424648110650441,
                0.40058805987928825
            ]
        },
        {
            "positions": [
                2.281044498455069,
                -1.2035581813610676,
                -1.4961641186074182,
                -1.1392679835635904,
                -1.3758818445023613,
                0.38677748877067514
            ]
        },
        {
            "positions": [
                2.1764049905460916,
                -1.1933628274093777,
                -1.3903005048299866,
                -1.0369472416411893,
                -1.3271155783542814,
                0.372966917662062
            ]
        },
        {
            "positions": [
                2.0717654826371144,
                -1.1831674734576876,
                -1.2844368910525548,
                -0.9346264997187884,
                -1.2783493122062017,
                0.3591563465534489
            ]
        },
        {
            "positions": [
                1.9671259747281367,
                -1.1729721195059977,
                -1.178573277275123,
                -0.8323057577963875,
                -1.229583046058122,
                0.3453457754448358
            ]
        },
        {
            "positions": [
                1.8624864668191594,
                -1.1627767655543078,
                -1.0727096634976916,
                -0.7299850158739866,
                -1.1808167799100424,
                0.3315352043362227
            ]
        },
        {
            "positions": [
                1.757846958910182,
                -1.1525814116026178,
                -0.9668460497202598,
                -0.6276642739515855,
                -1.1320505137619628,
                0.3177246332276096
            ]
        },
        {
            "positions": [
                1.6532074510012045,
                -1.1423860576509277,
                -0.860982435942828,
                -0.5253435320291846,
                -1.0832842476138829,
                0.30391406211899646
            ]
        },
        {
            "positions": [
                1.5485679430922272,
                -1.1321907036992378,
                -0.7551188221653964,
                -0.4230227901067838,
                -1.0345179814658032,
                0.29010349101038335
            ]
        },
        {
            "positions": [
                1.4439284351832498,
                -1.1219953497475479,
                -0.6492552083879648,
                -0.32070204818438275,
                -0.9857517153177234,
                0.27629291990177024
            ]
        },
        {
            "positions": [
                1.3392889272742723,
                -1.111799995795858,
                -0.543391594610533,
                -0.2183813062619817,
                -0.9369854491696438,
                0.2624823487931571
            ]
        },
        {
            "positions": [
                1.2346494193652948,
                -1.1016046418441678,
                -0.4375279808331012,
                -0.1160605643395809,
                -0.888219183021564,
                0.24867177768454402
            ]
        },
        {
            "positions": [
                1.1300099114563174,
                -1.091409287892478,
                -0.3316643670556696,
                -0.013739822417179859,
                -0.8394529168734842,
                0.2348612065759309
            ]
        },
        {
            "positions": [
                1.02537040354734,
                -1.081213933940788,
                -0.225800753278238,
                0.08858091950522096,
                -0.7906866507254046,
                0.2210506354673178
            ]
        },
        {
            "positions": [
                0.9207308956383629,
                -1.071018579989098,
                -0.11993713950080642,
                0.19090166142762177,
                -0.7419203845773249,
                0.2072400643587047
            ]
        },
        {
            "positions": [
                0.8160913877293852,
                -1.060823226037408,
                -0.014073525723374614,
                0.29322240335002303,
                -0.6931541184292451,
                0.19342949325009157
            ]
        },
        {
            "positions": [
                0.7114518798204079,
                -1.050627872085718,
                0.0917900880540572,
                0.39554314527242385,
                -0.6443878522811655,
                0.17961892214147845
            ]
        },
        {
            "positions": [
                0.6068123719114302,
                -1.0404325181340282,
                0.197653701831489,
                0.4978638871948249,
                -0.5956215861330856,
                0.16580835103286534
            ]
        },
        {
            "positions": [
                0.502172864002453,
                -1.0302371641823382,
                0.30351731560892037,
                0.6001846291172259,
                -0.5468553199850059,
                0.15199777992425223
            ]
        },
        {
            "positions": [
                0.39753335609347573,
                -1.020041810230648,
                0.4093809293863522,
                0.7025053710396265,
                -0.49808905383692625,
                0.13818720881563912
            ]
        },
        {
            "positions": [
                0.29289384818449804,
                -1.0098464562789582,
                0.515244543163784,
                0.8048261129620276,
                -0.44932278768884637,
                0.124376637707026
            ]
        },
        {
            "positions": [
                0.1882543402755208,
                -0.9996511023272683,
                0.6211081569412154,
                0.9071468548844286,
                -0.4005565215407667,
                0.1105660665984129
            ]
        },
        {
            "positions": [
                0.08361483236654355,
                -0.9894557483755783,
                0.7269717707186472,
                1.0094675968068292,
                -0.35179025539268705,
                0.09675549548979978
            ]
        },
        {
            "positions": [
                -0.021024675542434146,
                -0.9792603944238882,
                0.832835384496079,
                1.1117883387292307,
                -0.3030239892446074,
                0.08294492438118667
            ]
        },
        {
            "positions": [
                -0.1256641834514114,
                -0.9690650404721983,
                0.9386989982735103,
                1.2141090806516313,
                -0.2542577230965277,
                0.06913435327257356
            ]
        },
        {
            "positions": [
                -0.23030369136038908,
                -0.9588696865205084,
                1.0445626120509426,
                1.3164298225740323,
                -0.20549145694844784,
                0.055323782163960444
            ]
        },
        {
            "positions": [
                -0.33494319926936617,
                -0.9486743325688184,
                1.1504262258283737,
                1.4187505644964333,
                -0.15672519080036812,
                0.041513211055347346
            ]
        },
        {
            "positions": [
                -0.2584688709537949,
                -0.9199917104788092,
                1.2903851658802845,
                1.5000074524665106,
                -0.15351644535082706,
                0.03935856952760823
            ]
        },
        {
            "positions": [
                -0.18199454263822362,
                -0.8913090883888001,
                1.4303441059321953,
                1.581264340436588,
                -0.150307699901286,
                0.03720392799986912
            ]
        },
        {
            "positions": [
                -0.10552021432265235,
                -0.8626264662987908,
                1.570303045984106,
                1.6625212284066653,
                -0.14709895445174498,
                0.03504928647213001
            ]
        },
        {
            "positions": [
                -0.02904588600708108,
                -0.8339438442087816,
                1.7102619860360169,
                1.7437781163767425,
                -0.14389020900220392,
                0.0328946449443909
            ]
        },
        {
            "positions": [
                0.04742844230849019,
                -0.8052612221187725,
                1.8502209260879277,
                1.82503500434682,
                -0.14068146355266287,
                0.030740003416651784
            ]
        },
        {
            "positions": [
                0.12390277062406148,
                -0.7765786000287633,
                1.9901798661398384,
                1.9062918923168972,
                -0.1374727181031218,
                0.028585361888912673
            ]
        }
    ]
}{
    "goal": {
        "global_pose": {
            "orientation": {
                "w": 0.7047431468963623,
                "x": -0.7094548344612122,
                "y": 0.0024358443915843964,
                "z": -0.0022348060738295317
            },
            "position": {
                "x": 0.6094750761985779,
                "y": 0.3671506643295288,
                "z": 0.19426114857196808
            }
        },
        "name": "move_to_magneteinheit_A"
    },
    "id": "KPIECE_move_to_magneteinheit_A_43",
    "joint_names": [
        "shoulder_pan_joint",
        "shoulder_lift_joint",
        "elbow_joint",
        "wrist_1_joint",
        "wrist_2_joint",
        "wrist_3_joint"
    ],
    "metrics": {
        "cart_traj_len": 1.2509226627294818,
        "distance_elbow_joint": 0.09026400176430616,
        "distance_shoulder_lift_joint": 1.1128478685842809,
        "distance_shoulder_pan_joint": 1.2406679417390365,
        "distance_wrist_1_joint": 3.5836735926156207,
        "distance_wrist_2_joint": 1.6910138630942868,
        "distance_wrist_3_joint": 1.188094192433443,
        "smoothness": 1.4802973778883236e-16,
        "time": 0.17615400199999998,
        "traj_len": 2.9843862786561286,
        "weighted_distance": 4.069083103207376
    },
    "planner": "KPIECE",
    "start": {
        "state": {
            "elbow_joint": 1.919643534880228,
            "shoulder_lift_joint": -1.8972525353963687,
            "shoulder_pan_joint": -1.1188672234189438,
            "wrist_1_joint": -1.5931878212786155,
            "wrist_2_joint": 1.5706036197970081,
            "wrist_3_joint": 1.118896926603594
        }
    },
    "waypoints": [
        {
            "positions": [
                -1.1188672234189438,
                -1.8972525353963687,
                1.919643534880228,
                -1.5931878212786155,
                1.5706036197970081,
                1.118896926603594
            ]
        },
        {
            "positions": [
                -1.0649251389955074,
                -1.8488678454579217,
                1.9235680566960676,
                -1.4373759259475016,
                1.4970812779233436,
                1.0672406573673574
            ]
        },
        {
            "positions": [
                -1.010983054572071,
                -1.8004831555194747,
                1.9274925785119068,
                -1.2815640306163876,
                1.4235589360496788,
                1.0155843881311206
            ]
        },
        {
            "positions": [
                -0.9570409701486348,
                -1.7520984655810277,
                1.9314171003277463,
                -1.1257521352852735,
                1.3500365941760142,
                0.9639281188948841
            ]
        },
        {
            "positions": [
                -0.9030988857251984,
                -1.7037137756425809,
                1.9353416221435857,
                -0.9699402399541597,
                1.2765142523023496,
                0.9122718496586474
            ]
        },
        {
            "positions": [
                -0.8491568013017621,
                -1.6553290857041338,
                1.939266143959425,
                -0.8141283446230457,
                1.2029919104286848,
                0.8606155804224107
            ]
        },
        {
            "positions": [
                -0.7952147168783257,
                -1.6069443957656868,
                1.9431906657752644,
                -0.6583164492919318,
                1.1294695685550202,
                0.8089593111861741
            ]
        },
        {
            "positions": [
                -0.7412726324548893,
                -1.5585597058272398,
                1.947115187591104,
                -0.5025045539608177,
                1.0559472266813557,
                0.7573030419499374
            ]
        },
        {
            "positions": [
                -0.6873305480314529,
                -1.5101750158887928,
                1.9510397094069434,
                -0.3466926586297039,
                0.982424884807691,
                0.7056467727137008
            ]
        },
        {
            "positions": [
                -0.6333884636080165,
                -1.4617903259503457,
                1.9549642312227826,
                -0.19088076329858983,
                0.9089025429340263,
                0.6539905034774641
            ]
        },
        {
            "positions": [
                -0.5794463791845802,
                -1.4134056360118987,
                1.958888753038622,
                -0.03506886796747599,
                0.8353802010603617,
                0.6023342342412275
            ]
        },
        {
            "positions": [
                -0.5255042947611438,
                -1.365020946073452,
                1.9628132748544616,
                0.12074302736363784,
                0.761857859186697,
                0.5506779650049908
            ]
        },
        {
            "positions": [
                -0.4715622103377074,
                -1.3166362561350047,
                1.9667377966703008,
                0.2765549226947519,
                0.6883355173130324,
                0.4990216957687542
            ]
        },
        {
            "positions": [
                -0.4176201259142711,
                -1.2682515661965579,
                1.9706623184861403,
                0.4323668180258655,
                0.6148131754393679,
                0.44736542653251754
            ]
        },
        {
            "positions": [
                -0.3636780414908346,
                -1.2198668762581106,
                1.9745868403019797,
                0.58817871335698,
                0.541290833565703,
                0.39570915729628087
            ]
        },
        {
            "positions": [
                -0.3097359570673983,
                -1.1714821863196638,
                1.978511362117819,
                0.7439906086880936,
                0.4677684916920384,
                0.3440528880600442
            ]
        },
        {
            "positions": [
                -0.2557938726439619,
                -1.1230974963812168,
                1.9824358839336584,
                0.8998025040192077,
                0.3942461498183738,
                0.29239661882380763
            ]
        },
        {
            "positions": [
                -0.20185178822052563,
                -1.0747128064427698,
                1.986360405749498,
                1.0556143993503213,
                0.3207238079447092,
                0.24074034958757096
            ]
        },
        {
            "positions": [
                -0.14790970379708912,
                -1.0263281165043228,
                1.9902849275653374,
                1.2114262946814358,
                0.24720146607104443,
                0.18908408035133428
            ]
        },
        {
            "positions": [
                -0.09396761937365272,
                -0.9779434265658759,
                1.9942094493811766,
                1.3672381900125494,
                0.17367912419737985,
                0.1374278111150976
            ]
        },
        {
            "positions": [
                -0.040025534950216546,
                -0.9295587366274288,
                1.998133971197016,
                1.5230500853436635,
                0.10015678232371528,
                0.08577154187886094
            ]
        },
        {
            "positions": [
                0.013916549473219852,
                -0.8811740466889819,
                2.0020584930128553,
                1.678861980674777,
                0.0266344404500507,
                0.03411527264262437
            ]
        },
        {
            "positions": [
                0.06785863389665625,
                -0.8327893567505349,
                2.005983014828695,
                1.8346738760058912,
                -0.0468879014236141,
                -0.017540996593612412
            ]
        },
        {
            "positions": [
                0.1218007183200927,
                -0.7844046668120878,
                2.0099075366445343,
                1.9904857713370052,
                -0.12041024329727872,
                -0.06919726582984896
            ]
        }
    ]
}