{
    "goal": {
        "global_pose": {
            "orientation": {
                "w": 0.7047431468963623,
                "x": -0.7094548344612122,
                "y": 0.0024358443915843964,
                "z": -0.0022348060738295317
            },
            "position": {
                "x": 0.6094750761985779,
                "y": 0.3671506643295288,
                "z": 0.19426114857196808
            }
        },
        "name": "move_to_magneteinheit_A"
    },
    "id": "KPIECE_move_to_magneteinheit_A_80",
    "joint_names": [
        "shoulder_pan_joint",
        "shoulder_lift_joint",
        "elbow_joint",
        "wrist_1_joint",
        "wrist_2_joint",
        "wrist_3_joint"
    ],
    "metrics": {
        "cart_traj_len": 3.4475136748813435,
        "distance_elbow_joint": 3.8753210433307217,
        "distance_shoulder_lift_joint": 0.5507787707612988,
        "distance_shoulder_pan_joint": 3.071635700608007,
        "distance_wrist_1_joint": 0.8400757794099727,
        "distance_wrist_2_joint": 1.8155876142648049,
        "distance_wrist_3_joint": 2.5830432439659687,
        "smoothness": 0.06787406216532478,
        "time": 0.092089571,
        "traj_len": 3.568815230905178,
        "weighted_distance": 4.5341142502089085
    },
    "planner": "KPIECE",
    "start": {
        "state": {
            "elbow_joint": -1.919618573717145,
            "shoulder_lift_joint": -1.2443395971678275,
            "shoulder_pan_joint": 2.6996025300909787,
            "wrist_1_joint": -1.548550951253194,
            "wrist_2_joint": -1.5709469090946802,
            "wrist_3_joint": 0.4420197732051276
        }
    },
    "waypoints": [
        {
            "positions": [
                2.6996025300909787,
                -1.2443395971678275,
                -1.919618573717145,
                -1.548550951253194,
                -1.5709469090946802,
                0.4420197732051276
            ]
        },
        {
            "positions": [
                2.5230832422124414,
                -1.223601223903686,
                -1.810651016138178,
                -1.512356717403915,
                -1.5745766898657039,
                0.47195118719186396
            ]
        },
        {
            "positions": [
                2.3465639543339045,
                -1.2028628506395447,
                -1.7016834585592109,
                -1.476162483554636,
                -1.5782064706367276,
                0.5018826011786004
            ]
        },
        {
            "positions": [
                2.170044666455367,
                -1.1821244773754032,
                -1.5927159009802438,
                -1.439968249705357,
                -1.581836251407751,
                0.5318140151653368
            ]
        },
        {
            "positions": [
                1.99352537857683,
                -1.1613861041112616,
                -1.483748343401277,
                -1.403774015856078,
                -1.5854660321787748,
                0.5617454291520732
            ]
        },
        {
            "positions": [
                1.817006090698293,
                -1.1406477308471201,
                -1.37478078582231,
                -1.367579782006799,
                -1.5890958129497985,
                0.5916768431388095
            ]
        },
        {
            "positions": [
                1.6404868028197557,
                -1.1199093575829786,
                -1.265813228243343,
                -1.33138554815752,
                -1.592725593720822,
                0.621608257125546
            ]
        },
        {
            "positions": [
                1.4639675149412186,
                -1.0991709843188373,
                -1.1568456706643762,
                -1.295191314308241,
                -1.5963553744918457,
                0.6515396711122824
            ]
        },
        {
            "positions": [
                1.2874482270626815,
                -1.0784326110546958,
                -1.047878113085409,
                -1.258997080458962,
                -1.5999851552628694,
                0.6814710850990188
            ]
        },
        {
            "positions": [
                1.1109289391841444,
                -1.0576942377905543,
                -0.938910555506442,
                -1.222802846609683,
                -1.6036149360338932,
                0.7114024990857553
            ]
        },
        {
            "positions": [
                0.9344096513056073,
                -1.036955864526413,
                -0.8299429979274751,
                -1.1866086127604039,
                -1.6072447168049169,
                0.7413339130724916
            ]
        },
        {
            "positions": [
                0.75789036342707,
                -1.0162174912622715,
                -0.720975440348508,
                -1.150414378911125,
                -1.6108744975759404,
                0.771265327059228
            ]
        },
        {
            "positions": [
                0.5813710755485326,
                -0.9954791179981299,
                -0.612007882769541,
                -1.1142201450618459,
                -1.614504278346964,
                0.8011967410459644
            ]
        },
        {
            "positions": [
                0.40485178766999574,
                -0.9747407447339884,
                -0.503040325190574,
                -1.078025911212567,
                -1.6181340591179878,
                0.8311281550327008
            ]
        },
        {
            "positions": [
                0.22833249979145842,
                -0.954002371469847,
                -0.39407276761160714,
                -1.0418316773632879,
                -1.6217638398890113,
                0.8610595690194371
            ]
        },
        {
            "positions": [
                0.05181321191292154,
                -0.9332639982057056,
                -0.2851052100326401,
                -1.0056374435140087,
                -1.625393620660035,
                0.8909909830061736
            ]
        },
        {
            "positions": [
                -0.12470607596561596,
                -0.9125256249415641,
                -0.17613765245367308,
                -0.9694432096647299,
                -1.6290234014310587,
                0.92092239699291
            ]
        },
        {
            "positions": [
                -0.11140890861238134,
                -0.9237829215486434,
                -0.051139636717021014,
                -0.9549626903845488,
                -1.5252918646474214,
                1.0463441166583345
            ]
        },
        {
            "positions": [
                -0.0981117412591467,
                -0.9350402181557228,
                0.07385837901963105,
                -0.9404821711043677,
                -1.421560327863784,
                1.171765836323759
            ]
        },
        {
            "positions": [
                -0.08481457390591207,
                -0.9462975147628021,
                0.19885639475628314,
                -0.9260016518241867,
                -1.3178287910801467,
                1.2971875559891837
            ]
        },
        {
            "positions": [
                -0.07151740655267745,
                -0.9575548113698815,
                0.3238544104929352,
                -0.9115211325440056,
                -1.2140972542965096,
                1.4226092756546083
            ]
        },
        {
            "positions": [
                -0.058220239199442816,
                -0.9688121079769608,
                0.4488524262295872,
                -0.8970406132638246,
                -1.1103657175128723,
                1.5480309953200329
            ]
        },
        {
            "positions": [
                -0.044923071846208196,
                -0.9800694045840401,
                0.5738504419662394,
                -0.8825600939836435,
                -1.006634180729235,
                1.6734527149854572
            ]
        },
        {
            "positions": [
                -0.031625904492973575,
                -0.9913267011911195,
                0.6988484577028914,
                -0.8680795747034624,
                -0.9029026439455977,
                1.798874434650882
            ]
        },
        {
            "positions": [
                -0.01832873713973894,
                -1.0025839977981987,
                0.8238464734395434,
                -0.8535990554232814,
                -0.7991711071619604,
                1.9242961543163064
            ]
        },
        {
            "positions": [
                -0.005031569786504306,
                -1.0138412944052781,
                0.9488444891761956,
                -0.8391185361431004,
                -0.695439570378323,
                2.049717873981731
            ]
        },
        {
            "positions": [
                0.008265597566730329,
                -1.0250985910123576,
                1.0738425049128475,
                -0.8246380168629193,
                -0.5917080335946858,
                2.1751395936471556
            ]
        },
        {
            "positions": [
                0.021562764919964936,
                -1.036355887619437,
                1.1988405206494996,
                -0.8101574975827383,
                -0.4879764968110485,
                2.3005613133125804
            ]
        },
        {
            "positions": [
                0.03485993227319957,
                -1.0476131842265162,
                1.3238385363861518,
                -0.7956769783025572,
                -0.38424496002741115,
                2.4259830329780048
            ]
        },
        {
            "positions": [
                0.048157099626434205,
                -1.0588704808335956,
                1.4488365521228037,
                -0.7811964590223761,
                -0.2805134232437738,
                2.551404752643429
            ]
        },
        {
            "positions": [
                0.06145426697966881,
                -1.070127777440675,
                1.5738345678594559,
                -0.7667159397421951,
                -0.1767818864601367,
                2.676826472308854
            ]
        },
        {
            "positions": [
                0.07475143433290345,
                -1.0813850740477542,
                1.6988325835961078,
                -0.7522354204620141,
                -0.07305034967649937,
                2.8022481919742783
            ]
        },
        {
            "positions": [
                0.08804860168613807,
                -1.0926423706548336,
                1.82383059933276,
                -0.737754901181833,
                0.03068118710713788,
                2.927669911639703
            ]
        },
        {
            "positions": [
                0.10533481013596813,
                -1.1120663970657165,
                1.8897665344731682,
                -0.7231150365125272,
                0.07958445380225267,
                2.9763664644054
            ]
        },
        {
            "positions": [
                0.1226210185857982,
                -1.1314904234765994,
                1.9557024696135763,
                -0.7084751718432214,
                0.12848772049736745,
                3.0250630171710964
            ]
        }
    ]
}{
    "goal": {
        "global_pose": {
            "orientation": {
                "w": 0.7047431468963623,
                "x": -0.7094548344612122,
                "y": 0.0024358443915843964,
                "z": -0.0022348060738295317
            },
            "position": {
                "x": 0.6094750761985779,
                "y": 0.3671506643295288,
                "z": 0.19426114857196808
            }
        },
        "name": "move_to_magneteinheit_A"
    },
    "id": "KPIECE_move_to_magneteinheit_A_80",
    "joint_names": [
        "shoulder_pan_joint",
        "shoulder_lift_joint",
        "elbow_joint",
        "wrist_1_joint",
        "wrist_2_joint",
        "wrist_3_joint"
    ],
    "metrics": {
        "cart_traj_len": 1.2498588915565754,
        "distance_elbow_joint": 0.06599277485928656,
        "distance_shoulder_lift_joint": 1.1228039818767672,
        "distance_shoulder_pan_joint": 1.2412324010030185,
        "distance_wrist_1_joint": 3.4964686503361206,
        "distance_wrist_2_joint": 1.6915318456141135,
        "distance_wrist_3_joint": 1.1006697499621332,
        "smoothness": 0.0,
        "time": 0.066031323,
        "traj_len": 2.952744385085076,
        "weighted_distance": 4.013482203713621
    },
    "planner": "KPIECE",
    "start": {
        "state": {
            "elbow_joint": 1.919643534880228,
            "shoulder_lift_joint": -1.8972525353963687,
            "shoulder_pan_joint": -1.1188672234189438,
            "wrist_1_joint": -1.5931878212786155,
            "wrist_2_joint": 1.5706036197970081,
            "wrist_3_joint": 1.118896926603594
        }
    },
    "waypoints": [
        {
            "positions": [
                -1.1188672234189438,
                -1.8972525353963687,
                1.919643534880228,
                -1.5931878212786155,
                1.5706036197970081,
                1.118896926603594
            ]
        },
        {
            "positions": [
                -1.0649005972883778,
                -1.848434970966944,
                1.9225127859610667,
                -1.441167445177045,
                1.4970587569442206,
                1.0710417200835012
            ]
        },
        {
            "positions": [
                -1.0109339711578118,
                -1.7996174065375194,
                1.9253820370419052,
                -1.2891470690754745,
                1.4235138940914331,
                1.0231865135634084
            ]
        },
        {
            "positions": [
                -0.9569673450272458,
                -1.7507998421080948,
                1.9282512881227438,
                -1.1371266929739041,
                1.3499690312386454,
                0.9753313070433157
            ]
        },
        {
            "positions": [
                -0.9030007188966798,
                -1.7019822776786702,
                1.9311205392035822,
                -0.9851063168723336,
                1.276424168385858,
                0.927476100523223
            ]
        },
        {
            "positions": [
                -0.8490340927661137,
                -1.6531647132492455,
                1.9339897902844208,
                -0.8330859407707631,
                1.2028793055330704,
                0.8796208940031303
            ]
        },
        {
            "positions": [
                -0.7950674666355477,
                -1.6043471488198207,
                1.9368590413652593,
                -0.6810655646691928,
                1.129334442680283,
                0.8317656874830375
            ]
        },
        {
            "positions": [
                -0.7411008405049817,
                -1.555529584390396,
                1.939728292446098,
                -0.5290451885676222,
                1.0557895798274952,
                0.7839104809629447
            ]
        },
        {
            "positions": [
                -0.6871342143744157,
                -1.5067120199609714,
                1.9425975435269365,
                -0.3770248124660518,
                0.9822447169747078,
                0.736055274442852
            ]
        },
        {
            "positions": [
                -0.6331675882438497,
                -1.4578944555315467,
                1.945466794607775,
                -0.2250044363644812,
                0.9086998541219202,
                0.6882000679227592
            ]
        },
        {
            "positions": [
                -0.5792009621132836,
                -1.409076891102122,
                1.9483360456886136,
                -0.07298406026291082,
                0.8351549912691327,
                0.6403448614026666
            ]
        },
        {
            "positions": [
                -0.5252343359827176,
                -1.3602593266726974,
                1.9512052967694522,
                0.07903631583865978,
                0.7616101284163451,
                0.5924896548825738
            ]
        },
        {
            "positions": [
                -0.4712677098521516,
                -1.3114417622432728,
                1.9540745478502906,
                0.23105669194022993,
                0.6880652655635576,
                0.544634448362481
            ]
        },
        {
            "positions": [
                -0.4173010837215856,
                -1.2626241978138482,
                1.9569437989311291,
                0.3830770680418003,
                0.6145204027107701,
                0.4967792418423883
            ]
        },
        {
            "positions": [
                -0.36333445759101957,
                -1.2138066333844235,
                1.9598130500119677,
                0.5350974441433711,
                0.5409755398579825,
                0.4489240353222954
            ]
        },
        {
            "positions": [
                -0.30936783146045355,
                -1.1649890689549989,
                1.9626823010928063,
                0.6871178202449417,
                0.46743067700519503,
                0.40106882880220274
            ]
        },
        {
            "positions": [
                -0.2554012053298875,
                -1.1161715045255742,
                1.9655515521736449,
                0.8391381963465119,
                0.39388581415240753,
                0.35321362228211006
            ]
        },
        {
            "positions": [
                -0.20143457919932162,
                -1.0673539400961496,
                1.9684208032544834,
                0.991158572448082,
                0.32034095129962004,
                0.3053584157620173
            ]
        },
        {
            "positions": [
                -0.1474679530687555,
                -1.018536375666725,
                1.971290054335322,
                1.143178948549653,
                0.24679608844683232,
                0.2575032092419245
            ]
        },
        {
            "positions": [
                -0.09350132693818947,
                -0.9697188112373002,
                1.9741593054161606,
                1.2951993246512232,
                0.17325122559404482,
                0.20964800272183182
            ]
        },
        {
            "positions": [
                -0.039534700807623446,
                -0.9209012468078756,
                1.977028556496999,
                1.4472197007527938,
                0.09970636274125733,
                0.16179279620173903
            ]
        },
        {
            "positions": [
                0.014431925322942574,
                -0.8720836823784508,
                1.9798978075778375,
                1.599240076854364,
                0.02616149988846983,
                0.11393758968164636
            ]
        },
        {
            "positions": [
                0.0683985514535086,
                -0.8232661179490262,
                1.982767058658676,
                1.751260452955935,
                -0.04738336296431789,
                0.06608238316155357
            ]
        },
        {
            "positions": [
                0.12236517758407464,
                -0.7744485535196015,
                1.9856363097395147,
                1.9032808290575052,
                -0.12092822581710538,
                0.018227176641460827
            ]
        }
    ]
}