{
    "goal": {
        "global_pose": {
            "orientation": {
                "w": 0.7047431468963623,
                "x": -0.7094548344612122,
                "y": 0.0024358443915843964,
                "z": -0.0022348060738295317
            },
            "position": {
                "x": 0.6094750761985779,
                "y": 0.3671506643295288,
                "z": 0.19426114857196808
            }
        },
        "name": "move_to_magneteinheit_A"
    },
    "id": "KPIECE_move_to_magneteinheit_A_126",
    "joint_names": [
        "shoulder_pan_joint",
        "shoulder_lift_joint",
        "elbow_joint",
        "wrist_1_joint",
        "wrist_2_joint",
        "wrist_3_joint"
    ],
    "metrics": {
        "cart_traj_len": 3.2712744649204013,
        "distance_elbow_joint": 3.883077845149283,
        "distance_shoulder_lift_joint": 0.7233656612632946,
        "distance_shoulder_pan_joint": 2.7914524508339436,
        "distance_wrist_1_joint": 3.790381109836508,
        "distance_wrist_2_joint": 1.707851236226727,
        "distance_wrist_3_joint": 3.6585037559958087,
        "smoothness": 0.2078585027881209,
        "time": 0.099151528,
        "traj_len": 4.068738386687644,
        "weighted_distance": 5.419397744893837
    },
    "planner": "KPIECE",
    "start": {
        "state": {
            "elbow_joint": -1.919618573717145,
            "shoulder_lift_joint": -1.2443395971678275,
            "shoulder_pan_joint": 2.6996025300909787,
            "wrist_1_joint": -1.548550951253194,
            "wrist_2_joint": -1.5709469090946802,
            "wrist_3_joint": 0.4420197732051276
        }
    },
    "waypoints": [
        {
            "positions": [
                2.6996025300909787,
                -1.2443395971678275,
                -1.919618573717145,
                -1.548550951253194,
                -1.5709469090946802,
                0.4420197732051276
            ]
        },
        {
            "positions": [
                2.6017925814658414,
                -1.228926159071235,
                -1.827868164541468,
                -1.463437066878021,
                -1.540069533408969,
                0.3764681544575066
            ]
        },
        {
            "positions": [
                2.503982632840704,
                -1.2135127209746428,
                -1.7361177553657912,
                -1.378323182502848,
                -1.5091921577232577,
                0.31091653570988553
            ]
        },
        {
            "positions": [
                2.406172684215567,
                -1.1980992828780503,
                -1.6443673461901143,
                -1.2932092981276746,
                -1.4783147820375462,
                0.24536491696226456
            ]
        },
        {
            "positions": [
                2.3083627355904297,
                -1.1826858447814579,
                -1.5526169370144374,
                -1.2080954137525015,
                -1.447437406351835,
                0.17981329821464354
            ]
        },
        {
            "positions": [
                2.2105527869652923,
                -1.1672724066848656,
                -1.4608665278387605,
                -1.1229815293773284,
                -1.4165600306661237,
                0.11426167946702254
            ]
        },
        {
            "positions": [
                2.112742838340155,
                -1.1518589685882732,
                -1.3691161186630838,
                -1.0378676450021551,
                -1.3856826549804124,
                0.04871006071940154
            ]
        },
        {
            "positions": [
                2.014932889715018,
                -1.136445530491681,
                -1.2773657094874067,
                -0.9527537606269821,
                -1.3548052792947012,
                -0.01684155802821946
            ]
        },
        {
            "positions": [
                1.9171229410898805,
                -1.1210320923950885,
                -1.18561530031173,
                -0.8676398762518089,
                -1.32392790360899,
                -0.08239317677584052
            ]
        },
        {
            "positions": [
                1.8193129924647433,
                -1.105618654298496,
                -1.093864891136053,
                -0.7825259918766359,
                -1.2930505279232785,
                -0.14794479552346146
            ]
        },
        {
            "positions": [
                1.721503043839606,
                -1.0902052162019038,
                -1.0021144819603762,
                -0.6974121075014627,
                -1.2621731522375672,
                -0.2134964142710825
            ]
        },
        {
            "positions": [
                1.6236930952144686,
                -1.0747917781053113,
                -0.9103640727846993,
                -0.6122982231262896,
                -1.231295776551856,
                -0.27904803301870357
            ]
        },
        {
            "positions": [
                1.5258831465893314,
                -1.059378340008719,
                -0.8186136636090224,
                -0.5271843387511164,
                -1.2004184008661447,
                -0.3445996517663245
            ]
        },
        {
            "positions": [
                1.428073197964194,
                -1.0439649019121267,
                -0.7268632544333455,
                -0.4420704543759433,
                -1.1695410251804335,
                -0.41015127051394557
            ]
        },
        {
            "positions": [
                1.330263249339057,
                -1.0285514638155342,
                -0.6351128452576686,
                -0.3569565700007702,
                -1.1386636494947222,
                -0.4757028892615665
            ]
        },
        {
            "positions": [
                1.2324533007139193,
                -1.0131380257189417,
                -0.5433624360819915,
                -0.2718426856255969,
                -1.1077862738090107,
                -0.5412545080091877
            ]
        },
        {
            "positions": [
                1.1346433520887822,
                -0.9977245876223495,
                -0.45161202690631486,
                -0.1867288012504238,
                -1.0769088981232995,
                -0.6068061267568086
            ]
        },
        {
            "positions": [
                1.0368334034636448,
                -0.982311149525757,
                -0.35986161773063774,
                -0.10161491687525048,
                -1.0460315224375882,
                -0.6723577455044296
            ]
        },
        {
            "positions": [
                0.9390234548385077,
                -0.9668977114291648,
                -0.26811120855496107,
                -0.016501032500077617,
                -1.015154146751877,
                -0.7379093642520504
            ]
        },
        {
            "positions": [
                0.8412135062133703,
                -0.9514842733325724,
                -0.17636079937928417,
                0.06861285187509569,
                -0.9842767710661656,
                -0.8034609829996717
            ]
        },
        {
            "positions": [
                0.7434035575882332,
                -0.93607083523598,
                -0.08461039020360728,
                0.15372673625026878,
                -0.9533993953804544,
                -0.8690126017472926
            ]
        },
        {
            "positions": [
                0.6455936089630958,
                -0.9206573971393877,
                0.007140018972069617,
                0.2388406206254421,
                -0.922522019694743,
                -0.9345642204949136
            ]
        },
        {
            "positions": [
                0.5477836603379584,
                -0.9052439590427952,
                0.09889042814774629,
                0.32395450500061496,
                -0.8916446440090318,
                -1.0001158392425347
            ]
        },
        {
            "positions": [
                0.4499737117128211,
                -0.8898305209462029,
                0.1906408373234234,
                0.40906838937578827,
                -0.8607672683233204,
                -1.0656674579901557
            ]
        },
        {
            "positions": [
                0.35216376308768416,
                -0.8744170828496105,
                0.2823912464991001,
                0.49418227375096135,
                -0.8298898926376092,
                -1.1312190767377766
            ]
        },
        {
            "positions": [
                0.2543538144625468,
                -0.859003644753018,
                0.3741416556747772,
                0.5792961581261347,
                -0.7990125169518979,
                -1.1967706954853976
            ]
        },
        {
            "positions": [
                0.15654386583740942,
                -0.8435902066564258,
                0.46589206485045387,
                0.6644100425013075,
                -0.7681351412661866,
                -1.2623223142330187
            ]
        },
        {
            "positions": [
                0.058733917212271905,
                -0.8281767685598334,
                0.5576424740261309,
                0.749523926876481,
                -0.7372577655804753,
                -1.3278739329806397
            ]
        },
        {
            "positions": [
                0.04427812672075926,
                -0.8417658662961353,
                0.6378145733649455,
                0.6533682820944209,
                -0.6968341055472035,
                -1.454102215070526
            ]
        },
        {
            "positions": [
                0.029822336229246606,
                -0.855354964032437,
                0.7179866727037602,
                0.5572126373123607,
                -0.6564104455139318,
                -1.5803304971604124
            ]
        },
        {
            "positions": [
                0.015366545737733953,
                -0.868944061768739,
                0.7981587720425748,
                0.46105699253030064,
                -0.61598678548066,
                -1.7065587792502988
            ]
        },
        {
            "positions": [
                0.020264658424920895,
                -0.8891233013446698,
                0.8892692656275396,
                0.36376435460388307,
                -0.5594530284341059,
                -1.8270404396498567
            ]
        },
        {
            "positions": [
                0.025162771112107837,
                -0.9093025409206005,
                0.9803797592125044,
                0.2664717166774655,
                -0.5029192713875519,
                -1.9475221000494145
            ]
        },
        {
            "positions": [
                0.030060883799294773,
                -0.9294817804965313,
                1.0714902527974692,
                0.16917907875104798,
                -0.4463855143409979,
                -2.0680037604489723
            ]
        },
        {
            "positions": [
                0.03495899648648172,
                -0.9496610200724621,
                1.162600746382434,
                0.07188644082463036,
                -0.38985175729444377,
                -2.1884854208485303
            ]
        },
        {
            "positions": [
                0.03985710917366866,
                -0.9698402596483928,
                1.2537112399673989,
                -0.025406197101787154,
                -0.33331800024788977,
                -2.3089670812480882
            ]
        },
        {
            "positions": [
                0.04475522186085559,
                -0.9900194992243236,
                1.3448217335523636,
                -0.12269883502820467,
                -0.27678424320133577,
                -2.429448741647646
            ]
        },
        {
            "positions": [
                0.04965333454804254,
                -1.0101987388002545,
                1.4359322271373283,
                -0.2199914729546223,
                -0.22025048615478166,
                -2.549930402047204
            ]
        },
        {
            "positions": [
                0.054551447235229485,
                -1.0303779783761853,
                1.5270427207222932,
                -0.3172841108810399,
                -0.1637167291082276,
                -2.6704120624467618
            ]
        },
        {
            "positions": [
                0.05944955992241643,
                -1.0505572179521159,
                1.6181532143072581,
                -0.41457674880745754,
                -0.1071829720616736,
                -2.7908937228463193
            ]
        },
        {
            "positions": [
                0.06434767260960336,
                -1.0707364575280467,
                1.7092637078922228,
                -0.5118693867338749,
                -0.05064921501511954,
                -2.9113753832458773
            ]
        },
        {
            "positions": [
                0.0692457852967903,
                -1.0909156971039775,
                1.8003742014771875,
                -0.6091620246602925,
                0.005884542031434542,
                -3.0318570436454353
            ]
        },
        {
            "positions": [
                0.09591439875761157,
                -1.1131476491595556,
                1.8819167364546632,
                -0.6759721647453222,
                0.07139443458174065,
                -3.124170513218058
            ]
        },
        {
            "positions": [
                0.12258301221843283,
                -1.1353796012151338,
                1.9634592714321388,
                -0.7427823048303519,
                0.13690432713204675,
                -3.216483982790681
            ]
        }
    ]
}{
    "goal": {
        "global_pose": {
            "orientation": {
                "w": 0.7047431468963623,
                "x": -0.7094548344612122,
                "y": 0.0024358443915843964,
                "z": -0.0022348060738295317
            },
            "position": {
                "x": 0.6094750761985779,
                "y": 0.3671506643295288,
                "z": 0.19426114857196808
            }
        },
        "name": "move_to_magneteinheit_A"
    },
    "id": "KPIECE_move_to_magneteinheit_A_126",
    "joint_names": [
        "shoulder_pan_joint",
        "shoulder_lift_joint",
        "elbow_joint",
        "wrist_1_joint",
        "wrist_2_joint",
        "wrist_3_joint"
    ],
    "metrics": {
        "cart_traj_len": 1.573237654437812,
        "distance_elbow_joint": 1.5232076277103601,
        "distance_shoulder_lift_joint": 0.7479974446834714,
        "distance_shoulder_pan_joint": 1.2417200871584184,
        "distance_wrist_1_joint": 0.7340702086478581,
        "distance_wrist_2_joint": 1.435138618921885,
        "distance_wrist_3_joint": 4.232798953746506,
        "smoothness": 0.13482436846624923,
        "time": 0.151126991,
        "traj_len": 3.148798650417091,
        "weighted_distance": 4.53318206957665
    },
    "planner": "KPIECE",
    "start": {
        "state": {
            "elbow_joint": 1.919643534880228,
            "shoulder_lift_joint": -1.8972525353963687,
            "shoulder_pan_joint": -1.1188672234189438,
            "wrist_1_joint": -1.5931878212786155,
            "wrist_2_joint": 1.5706036197970081,
            "wrist_3_joint": 1.118896926603594
        }
    },
    "waypoints": [
        {
            "positions": [
                -1.1188672234189438,
                -1.8972525353963687,
                1.919643534880228,
                -1.5931878212786155,
                1.5706036197970081,
                1.118896926603594
            ]
        },
        {
            "positions": [
                -1.073450334042013,
                -1.864254603272943,
                1.8769130312876694,
                -1.57673200278543,
                1.522660876369929,
                0.9266008933416205
            ]
        },
        {
            "positions": [
                -1.0280334446650823,
                -1.8312566711495175,
                1.8341825276951105,
                -1.5602761842922446,
                1.4747181329428496,
                0.734304860079647
            ]
        },
        {
            "positions": [
                -0.9826165552881514,
                -1.7982587390260918,
                1.7914520241025518,
                -1.543820365799059,
                1.4267753895157704,
                0.5420088268176735
            ]
        },
        {
            "positions": [
                -0.9371996659112205,
                -1.765260806902666,
                1.748721520509993,
                -1.5273645473058737,
                1.378832646088691,
                0.34971279355570006
            ]
        },
        {
            "positions": [
                -0.8917827765342897,
                -1.7322628747792406,
                1.7059910169174342,
                -1.5109087288126881,
                1.330889902661612,
                0.15741676029372653
            ]
        },
        {
            "positions": [
                -0.8463658871573589,
                -1.6992649426558148,
                1.6632605133248755,
                -1.4944529103195028,
                1.2829471592345325,
                -0.034879272968247
            ]
        },
        {
            "positions": [
                -0.800948997780428,
                -1.6662670105323891,
                1.6205300097323168,
                -1.4779970918263172,
                1.2350044158074533,
                -0.2271753062302202
            ]
        },
        {
            "positions": [
                -0.7555321084034973,
                -1.6332690784089636,
                1.577799506139758,
                -1.4615412733331319,
                1.187061672380374,
                -0.41947133949219384
            ]
        },
        {
            "positions": [
                -0.7101152190265664,
                -1.600271146285538,
                1.5350690025471991,
                -1.4450854548399463,
                1.1391189289532948,
                -0.6117673727541673
            ]
        },
        {
            "positions": [
                -0.6646983296496356,
                -1.5672732141621122,
                1.4923384989546404,
                -1.428629636346761,
                1.0911761855262156,
                -0.8040634060161409
            ]
        },
        {
            "positions": [
                -0.6192814402727047,
                -1.5342752820386867,
                1.4496079953620817,
                -1.4121738178535754,
                1.0432334420991363,
                -0.9963594392781145
            ]
        },
        {
            "positions": [
                -0.5738645508957739,
                -1.501277349915261,
                1.406877491769523,
                -1.39571799936039,
                0.995290698672057,
                -1.188655472540088
            ]
        },
        {
            "positions": [
                -0.5284476615188431,
                -1.4682794177918355,
                1.3641469881769641,
                -1.3792621808672045,
                0.9473479552449778,
                -1.380951505802061
            ]
        },
        {
            "positions": [
                -0.48303077214191237,
                -1.4352814856684097,
                1.3214164845844054,
                -1.3628063623740192,
                0.8994052118178986,
                -1.5732475390640344
            ]
        },
        {
            "positions": [
                -0.4376138827649815,
                -1.402283553544984,
                1.2786859809918467,
                -1.3463505438808336,
                0.8514624683908193,
                -1.7655435723260082
            ]
        },
        {
            "positions": [
                -0.3921969933880507,
                -1.3692856214215583,
                1.2359554773992878,
                -1.329894725387648,
                0.80351972496374,
                -1.9578396055879816
            ]
        },
        {
            "positions": [
                -0.34678010401111975,
                -1.3362876892981328,
                1.193224973806729,
                -1.3134389068944627,
                0.7555769815366608,
                -2.150135638849955
            ]
        },
        {
            "positions": [
                -0.2945986631499426,
                -1.3155062894553289,
                1.281757092321936,
                -1.2629587630873844,
                0.6866756503520455,
                -2.257220793104728
            ]
        },
        {
            "positions": [
                -0.24241722228876544,
                -1.294724889612525,
                1.3702892108371427,
                -1.212478619280306,
                0.6177743191674301,
                -2.3643059473595005
            ]
        },
        {
            "positions": [
                -0.1902357814275883,
                -1.273943489769721,
                1.4588213293523493,
                -1.1619984754732275,
                0.5488729879828149,
                -2.4713911016142736
            ]
        },
        {
            "positions": [
                -0.13805434056641114,
                -1.2531620899269171,
                1.5473534478675561,
                -1.1115183316661492,
                0.47997165679819953,
                -2.5784762558690466
            ]
        },
        {
            "positions": [
                -0.08587289970523398,
                -1.232380690084113,
                1.635885566382763,
                -1.061038187859071,
                0.41107032561358425,
                -2.685561410123819
            ]
        },
        {
            "positions": [
                -0.03369145884405683,
                -1.211599290241309,
                1.7244176848979698,
                -1.0105580440519926,
                0.342168994428969,
                -2.7926465643785923
            ]
        },
        {
            "positions": [
                0.01848998201712032,
                -1.1908178903985052,
                1.8129498034131766,
                -0.9600779002449141,
                0.27326766324435364,
                -2.8997317186333653
            ]
        },
        {
            "positions": [
                0.07067142287829747,
                -1.1700364905557012,
                1.9014819219283834,
                -0.9095977564378357,
                0.2043663320597383,
                -3.006816872888138
            ]
        },
        {
            "positions": [
                0.12285286373947464,
                -1.1492550907128973,
                1.9900140404435902,
                -0.8591176126307574,
                0.13546500087512303,
                -3.113902027142911
            ]
        }
    ]
}