{
    "goal": {
        "global_pose": {
            "orientation": {
                "w": 0.5084816217422485,
                "x": -0.49083608388900757,
                "y": 0.5182115435600281,
                "z": -0.4816462993621826
            },
            "position": {
                "x": 0.5540239810943604,
                "y": 0.030875300988554955,
                "z": 0.16403168439865112
            }
        },
        "name": "move_to_storage_A"
    },
    "id": "KPIECE_move_to_storage_A_111",
    "joint_names": [
        "shoulder_pan_joint",
        "shoulder_lift_joint",
        "elbow_joint",
        "wrist_1_joint",
        "wrist_2_joint",
        "wrist_3_joint"
    ],
    "metrics": {
        "cart_traj_len": 0.35391348589199206,
        "distance_elbow_joint": 0.4523011016904346,
        "distance_shoulder_lift_joint": 0.23398401886664555,
        "distance_shoulder_pan_joint": 0.4649581187797185,
        "distance_wrist_1_joint": 0.2545198905178515,
        "distance_wrist_2_joint": 1.0909238406259711,
        "distance_wrist_3_joint": 0.09200311965480834,
        "smoothness": 4.440892098500626e-16,
        "time": 0.045316659999999995,
        "traj_len": 1.608940673280227,
        "weighted_distance": 2.029320098108938
    },
    "planner": "KPIECE",
    "start": {
        "state": {
            "elbow_joint": 1.9715477243005601,
            "shoulder_lift_joint": -1.1394853015351272,
            "shoulder_pan_joint": 0.12281154014795169,
            "wrist_1_joint": -0.7804696478968182,
            "wrist_2_joint": 0.12958648046900423,
            "wrist_3_joint": -3.192491284697111
        }
    },
    "waypoints": [
        {
            "positions": [
                0.12281154014795169,
                -1.1394853015351272,
                1.9715477243005601,
                -0.7804696478968182,
                0.12958648046900423,
                -3.192491284697111
            ]
        },
        {
            "positions": [
                0.056388951750849056,
                -1.172911589944648,
                2.0361621673991936,
                -0.8168296322565113,
                0.28543274341557157,
                -3.1793479818892814
            ]
        },
        {
            "positions": [
                -0.010033636646253577,
                -1.2063378783541687,
                2.100776610497827,
                -0.8531896166162043,
                0.44127900636213885,
                -3.1662046790814515
            ]
        },
        {
            "positions": [
                -0.07645622504335621,
                -1.2397641667636896,
                2.1653910535964607,
                -0.8895496009758974,
                0.5971252693087061,
                -3.1530613762736217
            ]
        },
        {
            "positions": [
                -0.14287881344045883,
                -1.2731904551732103,
                2.230005496695094,
                -0.9259095853355904,
                0.7529715322552735,
                -3.1399180734657923
            ]
        },
        {
            "positions": [
                -0.20930140183756152,
                -1.3066167435827312,
                2.2946199397937277,
                -0.9622695696952835,
                0.9088177952018408,
                -3.1267747706579625
            ]
        },
        {
            "positions": [
                -0.2757239902346641,
                -1.3400430319922518,
                2.359234382892361,
                -0.9986295540549766,
                1.064664058148408,
                -3.1136314678501327
            ]
        },
        {
            "positions": [
                -0.3421465786317668,
                -1.3734693204017727,
                2.4238488259909947,
                -1.0349895384146697,
                1.2205103210949755,
                -3.100488165042303
            ]
        }
    ]
}