{
    "goal": {
        "global_pose": {
            "orientation": {
                "w": 0.7047431468963623,
                "x": -0.7094548344612122,
                "y": 0.0024358443915843964,
                "z": -0.0022348060738295317
            },
            "position": {
                "x": 0.6094750761985779,
                "y": 0.3671506643295288,
                "z": 0.19426114857196808
            }
        },
        "name": "move_to_magneteinheit_A"
    },
    "id": "KPIECE_move_to_magneteinheit_A_77",
    "joint_names": [
        "shoulder_pan_joint",
        "shoulder_lift_joint",
        "elbow_joint",
        "wrist_1_joint",
        "wrist_2_joint",
        "wrist_3_joint"
    ],
    "metrics": {
        "cart_traj_len": 3.234774536116977,
        "distance_elbow_joint": 3.927246840145288,
        "distance_shoulder_lift_joint": 0.45982231325253076,
        "distance_shoulder_pan_joint": 2.686328248842597,
        "distance_wrist_1_joint": 3.5234255714078406,
        "distance_wrist_2_joint": 2.077172785248239,
        "distance_wrist_3_joint": 0.49210798242628595,
        "smoothness": 0.18972035596304548,
        "time": 0.107931345,
        "traj_len": 3.6285126072983105,
        "weighted_distance": 4.444200497595876
    },
    "planner": "KPIECE",
    "start": {
        "state": {
            "elbow_joint": -1.919618573717145,
            "shoulder_lift_joint": -1.2443395971678275,
            "shoulder_pan_joint": 2.6996025300909787,
            "wrist_1_joint": -1.548550951253194,
            "wrist_2_joint": -1.5709469090946802,
            "wrist_3_joint": 0.4420197732051276
        }
    },
    "waypoints": [
        {
            "positions": [
                2.6996025300909787,
                -1.2443395971678275,
                -1.919618573717145,
                -1.548550951253194,
                -1.5709469090946802,
                0.4420197732051276
            ]
        },
        {
            "positions": [
                2.608659636931186,
                -1.2334675105445678,
                -1.825081300688457,
                -1.4387696884498262,
                -1.508071819966325,
                0.4278956058068686
            ]
        },
        {
            "positions": [
                2.5177167437713925,
                -1.2225954239213084,
                -1.730544027659769,
                -1.3289884256464586,
                -1.44519673083797,
                0.4137714384086095
            ]
        },
        {
            "positions": [
                2.4267738506115997,
                -1.2117233372980487,
                -1.636006754631081,
                -1.2192071628430907,
                -1.382321641709615,
                0.3996472710103505
            ]
        },
        {
            "positions": [
                2.335830957451807,
                -1.2008512506747893,
                -1.541469481602393,
                -1.109425900039723,
                -1.3194465525812598,
                0.3855231036120915
            ]
        },
        {
            "positions": [
                2.2448880642920135,
                -1.1899791640515296,
                -1.446932208573705,
                -0.9996446372363552,
                -1.2565714634529046,
                0.37139893621383246
            ]
        },
        {
            "positions": [
                2.1539451711322206,
                -1.1791070774282701,
                -1.352394935545017,
                -0.8898633744329875,
                -1.1936963743245497,
                0.35727476881557346
            ]
        },
        {
            "positions": [
                2.0630022779724277,
                -1.1682349908050105,
                -1.2578576625163291,
                -0.7800821116296197,
                -1.1308212851961945,
                0.3431506014173144
            ]
        },
        {
            "positions": [
                1.9720593848126347,
                -1.1573629041817508,
                -1.1633203894876412,
                -0.670300848826252,
                -1.0679461960678394,
                0.3290264340190554
            ]
        },
        {
            "positions": [
                1.8811164916528416,
                -1.1464908175584914,
                -1.068783116458953,
                -0.5605195860228841,
                -1.0050711069394844,
                0.31490226662079635
            ]
        },
        {
            "positions": [
                1.7901735984930487,
                -1.1356187309352317,
                -0.9742458434302652,
                -0.45073832321951635,
                -0.9421960178111293,
                0.30077809922253734
            ]
        },
        {
            "positions": [
                1.6992307053332556,
                -1.1247466443119722,
                -0.8797085704015772,
                -0.3409570604161487,
                -0.8793209286827741,
                0.28665393182427834
            ]
        },
        {
            "positions": [
                1.6082878121734627,
                -1.1138745576887126,
                -0.7851712973728893,
                -0.23117579761278084,
                -0.8164458395544191,
                0.2725297644260193
            ]
        },
        {
            "positions": [
                1.5173449190136694,
                -1.103002471065453,
                -0.6906340243442013,
                -0.12139453480941298,
                -0.7535707504260639,
                0.2584055970277603
            ]
        },
        {
            "positions": [
                1.4264020258538765,
                -1.0921303844421935,
                -0.5960967513155133,
                -0.011613272006045339,
                -0.6906956612977089,
                0.24428142962950125
            ]
        },
        {
            "positions": [
                1.3354591326940837,
                -1.081258297818934,
                -0.5015594782868253,
                0.0981679907973223,
                -0.6278205721693538,
                0.23015726223124222
            ]
        },
        {
            "positions": [
                1.2445162395342906,
                -1.0703862111956743,
                -0.40702220525813737,
                0.20794925360069016,
                -0.5649454830409988,
                0.21603309483298322
            ]
        },
        {
            "positions": [
                1.1535733463744977,
                -1.0595141245724147,
                -0.3124849322294496,
                0.3177305164040578,
                -0.5020703939126436,
                0.2019089274347242
            ]
        },
        {
            "positions": [
                1.0626304532147044,
                -1.0486420379491552,
                -0.2179476592007612,
                0.4275117792074259,
                -0.4391953047842885,
                0.18778476003646516
            ]
        },
        {
            "positions": [
                0.9716875600549113,
                -1.0377699513258956,
                -0.12341038617207345,
                0.5372930420107935,
                -0.3763202156559333,
                0.1736605926382061
            ]
        },
        {
            "positions": [
                0.8807446668951184,
                -1.026897864702636,
                -0.028873113143385476,
                0.6470743048141614,
                -0.3134451265275784,
                0.1595364252399471
            ]
        },
        {
            "positions": [
                0.7898017737353253,
                -1.0160257780793764,
                0.0656641598853025,
                0.7568555676175288,
                -0.25057003739922323,
                0.1454122578416881
            ]
        },
        {
            "positions": [
                0.6988588805755325,
                -1.0051536914561168,
                0.16020143291399047,
                0.8666368304208967,
                -0.18769494827086808,
                0.13128809044342904
            ]
        },
        {
            "positions": [
                0.6079159874157396,
                -0.9942816048328573,
                0.25473870594267845,
                0.9764180932242645,
                -0.12481985914251315,
                0.11716392304517004
            ]
        },
        {
            "positions": [
                0.5169730942559467,
                -0.9834095182095977,
                0.3492759789713664,
                1.0861993560276324,
                -0.06194477001415799,
                0.10303975564691104
            ]
        },
        {
            "positions": [
                0.4260302010961534,
                -0.9725374315863382,
                0.4438132520000544,
                1.1959806188310003,
                0.0009303191141971645,
                0.08891558824865198
            ]
        },
        {
            "positions": [
                0.3350873079363601,
                -0.9616653449630785,
                0.5383505250287424,
                1.3057618816343681,
                0.06380540824255232,
                0.07479142085039298
            ]
        },
        {
            "positions": [
                0.24414441477656723,
                -0.950793258339819,
                0.6328877980574303,
                1.4155431444377355,
                0.12668049737090725,
                0.06066725345213392
            ]
        },
        {
            "positions": [
                0.15320152161677425,
                -0.9399211717165594,
                0.7274250710861184,
                1.5253244072411036,
                0.18955558649926235,
                0.0465430860538749
            ]
        },
        {
            "positions": [
                0.13608256268411267,
                -0.9099231809430475,
                0.8794016931153043,
                1.5951028680787194,
                0.13154591526593207,
                0.028175284048387726
            ]
        },
        {
            "positions": [
                0.11896360375145108,
                -0.8799251901695354,
                1.0313783151444902,
                1.6648813289163351,
                0.07353624403260176,
                0.00980748204290055
            ]
        },
        {
            "positions": [
                0.1018446448187895,
                -0.8499271993960235,
                1.183354937173676,
                1.734659789753951,
                0.01552657279927147,
                -0.008560319962586618
            ]
        },
        {
            "positions": [
                0.08472568588612792,
                -0.8199292086225114,
                1.3353315592028618,
                1.8044382505915668,
                -0.04248309843405884,
                -0.0269281219680738
            ]
        },
        {
            "positions": [
                0.06760672695346634,
                -0.7899312178489994,
                1.4873081812320477,
                1.8742167114291826,
                -0.1004927696673891,
                -0.04529592397356097
            ]
        },
        {
            "positions": [
                0.09477294980600813,
                -0.7872242508821481,
                1.7474682238300956,
                1.9245456657919147,
                -0.11380373641121153,
                -0.04769206659735971
            ]
        },
        {
            "positions": [
                0.12193917265854992,
                -0.7845172839152967,
                2.0076282664281435,
                1.9748746201546468,
                -0.12711470315503395,
                -0.05008820922115844
            ]
        }
    ]
}{
    "goal": {
        "global_pose": {
            "orientation": {
                "w": 0.7047431468963623,
                "x": -0.7094548344612122,
                "y": 0.0024358443915843964,
                "z": -0.0022348060738295317
            },
            "position": {
                "x": 0.6094750761985779,
                "y": 0.3671506643295288,
                "z": 0.19426114857196808
            }
        },
        "name": "move_to_magneteinheit_A"
    },
    "id": "KPIECE_move_to_magneteinheit_A_77",
    "joint_names": [
        "shoulder_pan_joint",
        "shoulder_lift_joint",
        "elbow_joint",
        "wrist_1_joint",
        "wrist_2_joint",
        "wrist_3_joint"
    ],
    "metrics": {
        "cart_traj_len": 1.3932669414079697,
        "distance_elbow_joint": 1.6287186318908435,
        "distance_shoulder_lift_joint": 0.7582854222340916,
        "distance_shoulder_pan_joint": 1.241488864481203,
        "distance_wrist_1_joint": 0.8274988844889162,
        "distance_wrist_2_joint": 2.916576680764602,
        "distance_wrist_3_joint": 4.327157209146478,
        "smoothness": 0.27976812787122607,
        "time": 0.159154173,
        "traj_len": 3.420486177870937,
        "weighted_distance": 4.908983161160018
    },
    "planner": "KPIECE",
    "start": {
        "state": {
            "elbow_joint": 1.919643534880228,
            "shoulder_lift_joint": -1.8972525353963687,
            "shoulder_pan_joint": -1.1188672234189438,
            "wrist_1_joint": -1.5931878212786155,
            "wrist_2_joint": 1.5706036197970081,
            "wrist_3_joint": 1.118896926603594
        }
    },
    "waypoints": [
        {
            "positions": [
                -1.1188672234189438,
                -1.8972525353963687,
                1.919643534880228,
                -1.5931878212786155,
                1.5706036197970081,
                1.118896926603594
            ]
        },
        {
            "positions": [
                -1.073608902807526,
                -1.8701769014201115,
                1.8758178411757884,
                -1.5473854720960882,
                1.449503578704187,
                1.0241791350491507
            ]
        },
        {
            "positions": [
                -1.0283505821961083,
                -1.8431012674438543,
                1.831992147471349,
                -1.501583122913561,
                1.3284035376113656,
                0.9294613434947074
            ]
        },
        {
            "positions": [
                -0.9830922615846904,
                -1.8160256334675973,
                1.7881664537669093,
                -1.4557807737310338,
                1.2073034965185445,
                0.8347435519402642
            ]
        },
        {
            "positions": [
                -0.9378339409732726,
                -1.78894999949134,
                1.7443407600624696,
                -1.4099784245485067,
                1.0862034554257234,
                0.7400257603858209
            ]
        },
        {
            "positions": [
                -0.8925756203618547,
                -1.7618743655150828,
                1.70051506635803,
                -1.3641760753659795,
                0.965103414332902,
                0.6453079688313774
            ]
        },
        {
            "positions": [
                -0.8473172997504369,
                -1.7347987315388256,
                1.6566893726535905,
                -1.3183737261834523,
                0.8440033732400809,
                0.5505901772769343
            ]
        },
        {
            "positions": [
                -0.8020589791390191,
                -1.7077230975625683,
                1.6128636789491508,
                -1.272571377000925,
                0.7229033321472597,
                0.4558723857224909
            ]
        },
        {
            "positions": [
                -0.7568006585276013,
                -1.6806474635863111,
                1.5690379852447112,
                -1.2267690278183978,
                0.6018032910544385,
                0.36115459416804774
            ]
        },
        {
            "positions": [
                -0.7115423379161834,
                -1.653571829610054,
                1.5252122915402717,
                -1.1809666786358706,
                0.4807032499616173,
                0.26643680261360436
            ]
        },
        {
            "positions": [
                -0.6662840173047656,
                -1.6264961956337967,
                1.481386597835832,
                -1.1351643294533433,
                0.35960320886879593,
                0.171719011059161
            ]
        },
        {
            "positions": [
                -0.6210256966933477,
                -1.5994205616575397,
                1.4375609041313924,
                -1.0893619802708163,
                0.2385031677759748,
                0.07700121950471761
            ]
        },
        {
            "positions": [
                -0.57576737608193,
                -1.5723449276812824,
                1.3937352104269527,
                -1.043559631088289,
                0.11740312668315367,
                -0.017716572049725432
            ]
        },
        {
            "positions": [
                -0.5305090554705122,
                -1.5452692937050252,
                1.349909516722513,
                -0.9977572819057619,
                -0.003696914409667462,
                -0.1124343636041687
            ]
        },
        {
            "positions": [
                -0.4852507348590943,
                -1.518193659728768,
                1.3060838230180736,
                -0.9519549327232346,
                -0.12479695550248882,
                -0.20715215515861218
            ]
        },
        {
            "positions": [
                -0.43999241424767643,
                -1.491118025752511,
                1.262258129313634,
                -0.9061525835407074,
                -0.24589699659530995,
                -0.30186994671305545
            ]
        },
        {
            "positions": [
                -0.39473409363625866,
                -1.4640423917762537,
                1.2184324356091945,
                -0.8603502343581803,
                -0.3669970376881311,
                -0.3965877382674985
            ]
        },
        {
            "positions": [
                -0.3494757730248409,
                -1.4369667577999965,
                1.1746067419047548,
                -0.814547885175653,
                -0.4880970787809522,
                -0.491305529821942
            ]
        },
        {
            "positions": [
                -0.304217452413423,
                -1.4098911238237393,
                1.130781048200315,
                -0.7687455359931258,
                -0.6091971198737738,
                -0.5860233213763851
            ]
        },
        {
            "positions": [
                -0.2713836759922167,
                -1.389050815311319,
                1.1953853670626944,
                -0.768980659008774,
                -0.5525220474819414,
                -0.787733856850731
            ]
        },
        {
            "positions": [
                -0.23854989957101042,
                -1.368210506798899,
                1.2599896859250737,
                -0.7692157820244222,
                -0.4958469750901091,
                -0.9894443923250771
            ]
        },
        {
            "positions": [
                -0.2057161231498041,
                -1.3473701982864787,
                1.324594004787453,
                -0.7694509050400704,
                -0.43917190269827683,
                -1.1911549277994231
            ]
        },
        {
            "positions": [
                -0.17288234672859779,
                -1.3265298897740587,
                1.3891983236498322,
                -0.7696860280557185,
                -0.3824968303064445,
                -1.392865463273769
            ]
        },
        {
            "positions": [
                -0.14004857030739148,
                -1.3056895812616385,
                1.4538026425122115,
                -0.7699211510713667,
                -0.32582175791461215,
                -1.5945759987481147
            ]
        },
        {
            "positions": [
                -0.10721479388618518,
                -1.2848492727492182,
                1.5184069613745907,
                -0.7701562740870149,
                -0.26914668552277987,
                -1.7962865342224608
            ]
        },
        {
            "positions": [
                -0.07438101746497891,
                -1.2640089642367982,
                1.58301128023697,
                -0.7703913971026631,
                -0.21247161313094753,
                -1.9979970696968063
            ]
        },
        {
            "positions": [
                -0.041547241043772554,
                -1.243168655724378,
                1.6476155990993493,
                -0.7706265201183113,
                -0.1557965407391152,
                -2.199707605171153
            ]
        },
        {
            "positions": [
                -0.00871346462256628,
                -1.222328347211958,
                1.7122199179617286,
                -0.7708616431339596,
                -0.09912146834728286,
                -2.4014181406454984
            ]
        },
        {
            "positions": [
                0.02412031179864005,
                -1.2014880386995377,
                1.7768242368241078,
                -0.7710967661496076,
                -0.04244639595545052,
                -2.6031286761198444
            ]
        },
        {
            "positions": [
                0.05695408821984632,
                -1.1806477301871174,
                1.8414285556864871,
                -0.7713318891652559,
                0.014228676436381704,
                -2.80483921159419
            ]
        },
        {
            "positions": [
                0.08978786464105265,
                -1.1598074216746972,
                1.9060328745488664,
                -0.7715670121809041,
                0.07090374882821404,
                -3.0065497470685365
            ]
        },
        {
            "positions": [
                0.12262164106225891,
                -1.1389671131622772,
                1.9706371934112457,
                -0.7718021351965523,
                0.12757882122004638,
                -3.208260282542882
            ]
        }
    ]
}