{
    "goal": {
        "global_pose": {
            "orientation": {
                "w": 0.5084816217422485,
                "x": -0.49083608388900757,
                "y": 0.5182115435600281,
                "z": -0.4816462993621826
            },
            "position": {
                "x": 0.5540239810943604,
                "y": 0.030875300988554955,
                "z": 0.16403168439865112
            }
        },
        "name": "move_to_storage_A"
    },
    "id": "KPIECE_move_to_storage_A_40",
    "joint_names": [
        "shoulder_pan_joint",
        "shoulder_lift_joint",
        "elbow_joint",
        "wrist_1_joint",
        "wrist_2_joint",
        "wrist_3_joint"
    ],
    "metrics": {
        "cart_traj_len": 0.35368673912220205,
        "distance_elbow_joint": 0.4487924715430385,
        "distance_shoulder_lift_joint": 0.236400920805788,
        "distance_shoulder_pan_joint": 0.46054349235119757,
        "distance_wrist_1_joint": 0.23647897422619468,
        "distance_wrist_2_joint": 1.1090833918564607,
        "distance_wrist_3_joint": 0.09677946563089135,
        "smoothness": 8.881784232165597e-16,
        "time": 0.025160402,
        "traj_len": 1.6087506694368678,
        "weighted_distance": 2.03155113491096
    },
    "planner": "KPIECE",
    "start": {
        "state": {
            "elbow_joint": 1.9715477243005601,
            "shoulder_lift_joint": -1.1394853015351272,
            "shoulder_pan_joint": 0.12281154014795169,
            "wrist_1_joint": -0.7804696478968182,
            "wrist_2_joint": 0.12958648046900423,
            "wrist_3_joint": -3.192491284697111
        }
    },
    "waypoints": [
        {
            "positions": [
                0.12281154014795169,
                -1.1394853015351272,
                1.9715477243005601,
                -0.7804696478968182,
                0.12958648046900423,
                -3.192491284697111
            ]
        },
        {
            "positions": [
                0.057019612669209185,
                -1.1732568616502397,
                2.0356609345209944,
                -0.8142523585005602,
                0.2880269650199272,
                -3.178665646749841
            ]
        },
        {
            "positions": [
                -0.008772314809533319,
                -1.2070284217653524,
                2.099774144741428,
                -0.8480350691043024,
                0.4464674495708501,
                -3.164840008802571
            ]
        },
        {
            "positions": [
                -0.07456424228827584,
                -1.240799981880465,
                2.1638873549618625,
                -0.8818177797080444,
                0.6049079341217731,
                -3.1510143708553007
            ]
        },
        {
            "positions": [
                -0.1403561697670183,
                -1.2745715419955774,
                2.2280005651822963,
                -0.9156004903117866,
                0.763348418672696,
                -3.1371887329080304
            ]
        },
        {
            "positions": [
                -0.20614809724576083,
                -1.30834310211069,
                2.2921137754027305,
                -0.9493832009155286,
                0.921788903223619,
                -3.12336309496076
            ]
        },
        {
            "positions": [
                -0.27194002472450335,
                -1.3421146622258027,
                2.3562269856231643,
                -0.9831659115192708,
                1.080229387774542,
                -3.10953745701349
            ]
        },
        {
            "positions": [
                -0.33773195220324587,
                -1.3758862223409152,
                2.4203401958435986,
                -1.0169486221230128,
                1.238669872325465,
                -3.09571181906622
            ]
        }
    ]
}