{
    "goal": {
        "global_pose": {
            "orientation": {
                "w": 0.7047431468963623,
                "x": -0.7094548344612122,
                "y": 0.0024358443915843964,
                "z": -0.0022348060738295317
            },
            "position": {
                "x": 0.6094750761985779,
                "y": 0.3671506643295288,
                "z": 0.19426114857196808
            }
        },
        "name": "move_to_magneteinheit_A"
    },
    "id": "KPIECE_move_to_magneteinheit_A_57",
    "joint_names": [
        "shoulder_pan_joint",
        "shoulder_lift_joint",
        "elbow_joint",
        "wrist_1_joint",
        "wrist_2_joint",
        "wrist_3_joint"
    ],
    "metrics": {
        "cart_traj_len": 5.415252951953201,
        "distance_elbow_joint": 3.8725703411974415,
        "distance_shoulder_lift_joint": 1.3596463534177434,
        "distance_shoulder_pan_joint": 8.015297049754976,
        "distance_wrist_1_joint": 0.8505592019919319,
        "distance_wrist_2_joint": 2.666263279500834,
        "distance_wrist_3_joint": 3.504121297900423,
        "smoothness": 0.3858483965643051,
        "time": 0.182680227,
        "traj_len": 4.502050368861211,
        "weighted_distance": 5.549191166382446
    },
    "planner": "KPIECE",
    "start": {
        "state": {
            "elbow_joint": -1.919618573717145,
            "shoulder_lift_joint": -1.2443395971678275,
            "shoulder_pan_joint": 2.6996025300909787,
            "wrist_1_joint": -1.548550951253194,
            "wrist_2_joint": -1.5709469090946802,
            "wrist_3_joint": 0.4420197732051276
        }
    },
    "waypoints": [
        {
            "positions": [
                2.6996025300909787,
                -1.2443395971678275,
                -1.919618573717145,
                -1.548550951253194,
                -1.5709469090946802,
                0.4420197732051276
            ]
        },
        {
            "positions": [
                2.5602215981636327,
                -1.2607173814676902,
                -1.824982964881048,
                -1.5468952848176714,
                -1.5135785078334043,
                0.5219307160878325
            ]
        },
        {
            "positions": [
                2.420840666236287,
                -1.2770951657675527,
                -1.7303473560449512,
                -1.5452396183821484,
                -1.4562101065721285,
                0.6018416589705373
            ]
        },
        {
            "positions": [
                2.281459734308941,
                -1.2934729500674154,
                -1.6357117472088545,
                -1.5435839519466257,
                -1.3988417053108526,
                0.6817526018532422
            ]
        },
        {
            "positions": [
                2.142078802381595,
                -1.309850734367278,
                -1.5410761383727576,
                -1.5419282855111027,
                -1.3414733040495768,
                0.761663544735947
            ]
        },
        {
            "positions": [
                2.0026978704542495,
                -1.3262285186671405,
                -1.4464405295366607,
                -1.54027261907558,
                -1.2841049027883007,
                0.8415744876186518
            ]
        },
        {
            "positions": [
                1.8633169385269035,
                -1.3426063029670032,
                -1.3518049207005638,
                -1.538616952640057,
                -1.226736501527025,
                0.9214854305013567
            ]
        },
        {
            "positions": [
                1.7239360065995575,
                -1.358984087266866,
                -1.257169311864467,
                -1.5369612862045343,
                -1.169368100265749,
                1.0013963733840616
            ]
        },
        {
            "positions": [
                1.5845550746722117,
                -1.3753618715667284,
                -1.16253370302837,
                -1.5353056197690114,
                -1.1119996990044732,
                1.0813073162667663
            ]
        },
        {
            "positions": [
                1.4451741427448659,
                -1.391739655866591,
                -1.067898094192273,
                -1.5336499533334886,
                -1.0546312977431973,
                1.1612182591494713
            ]
        },
        {
            "positions": [
                1.30579321081752,
                -1.4081174401664538,
                -0.9732624853561763,
                -1.531994286897966,
                -0.9972628964819215,
                1.241129202032176
            ]
        },
        {
            "positions": [
                1.166412278890174,
                -1.4244952244663165,
                -0.8786268765200793,
                -1.530338620462443,
                -0.9398944952206455,
                1.321040144914881
            ]
        },
        {
            "positions": [
                1.0270313469628283,
                -1.440873008766179,
                -0.7839912676839826,
                -1.5286829540269202,
                -0.8825260939593698,
                1.4009510877975857
            ]
        },
        {
            "positions": [
                0.8876504150354823,
                -1.4572507930660417,
                -0.6893556588478855,
                -1.5270272875913973,
                -0.8251576926980938,
                1.4808620306802909
            ]
        },
        {
            "positions": [
                0.7482694831081365,
                -1.4736285773659041,
                -0.5947200500117888,
                -1.5253716211558745,
                -0.767789291436818,
                1.5607729735629956
            ]
        },
        {
            "positions": [
                0.6088885511807907,
                -1.4900063616657668,
                -0.5000844411756917,
                -1.5237159547203516,
                -0.7104208901755421,
                1.6406839164457006
            ]
        },
        {
            "positions": [
                0.46950761925344464,
                -1.5063841459656295,
                -0.40544883233959506,
                -1.5220602882848289,
                -0.6530524889142663,
                1.7205948593284053
            ]
        },
        {
            "positions": [
                0.3301266873260986,
                -1.5227619302654922,
                -0.31081322350349816,
                -1.520404621849306,
                -0.5956840876529903,
                1.8005058022111102
            ]
        },
        {
            "positions": [
                0.19074575539875305,
                -1.5391397145653547,
                -0.21617761466740126,
                -1.5187489554137832,
                -0.5383156863917145,
                1.880416745093815
            ]
        },
        {
            "positions": [
                0.05136482347140703,
                -1.5555174988652174,
                -0.12154200583130437,
                -1.5170932889782605,
                -0.4809472851304386,
                1.96032768797652
            ]
        },
        {
            "positions": [
                -0.08801610845593855,
                -1.5718952831650799,
                -0.026906396995207693,
                -1.5154376225427375,
                -0.42357888386916276,
                2.0402386308592244
            ]
        },
        {
            "positions": [
                -0.227397040383285,
                -1.5882730674649426,
                0.06772921184088965,
                -1.5137819561072148,
                -0.3662104826078867,
                2.1201495737419296
            ]
        },
        {
            "positions": [
                -0.3667779723106306,
                -1.6046508517648053,
                0.16236482067698632,
                -1.5121262896716918,
                -0.30884208134661084,
                2.2000605166246343
            ]
        },
        {
            "positions": [
                -0.5061589042379766,
                -1.621028636064668,
                0.2570004295130832,
                -1.510470623236169,
                -0.2514736800853352,
                2.279971459507339
            ]
        },
        {
            "positions": [
                -0.6455398361653222,
                -1.6374064203645304,
                0.35163603834917967,
                -1.5088149568006461,
                -0.19410527882405937,
                2.3598824023900438
            ]
        },
        {
            "positions": [
                -0.7849207680926686,
                -1.6537842046643931,
                0.446271647185277,
                -1.5071592903651234,
                -0.1367368775627833,
                2.439793345272749
            ]
        },
        {
            "positions": [
                -0.9243017000200142,
                -1.6701619889642558,
                0.5409072560213739,
                -1.5055036239296005,
                -0.07936847630150745,
                2.519704288155454
            ]
        },
        {
            "positions": [
                -1.0636826319473598,
                -1.6865397732641183,
                0.6355428648574704,
                -1.5038479574940777,
                -0.022000075040231604,
                2.599615231038159
            ]
        },
        {
            "positions": [
                -1.2030635638747058,
                -1.702917557563981,
                0.7301784736935673,
                -1.502192291058555,
                0.035368326221044244,
                2.6795261739208636
            ]
        },
        {
            "positions": [
                -1.3424444958020523,
                -1.7192953418638437,
                0.8248140825296646,
                -1.500536624623032,
                0.09273672748232009,
                2.7594371168035687
            ]
        },
        {
            "positions": [
                -1.4818254277293974,
                -1.7356731261637064,
                0.9194496913657615,
                -1.4988809581875093,
                0.15010512874359594,
                2.8393480596862735
            ]
        },
        {
            "positions": [
                -1.6212063596567434,
                -1.7520509104635689,
                1.014085300201858,
                -1.4972252917519864,
                0.2074735300048718,
                2.919259002568978
            ]
        },
        {
            "positions": [
                -1.7605872915840894,
                -1.7684286947634316,
                1.1087209090379548,
                -1.4955696253164636,
                0.26484193126614763,
                2.999169945451683
            ]
        },
        {
            "positions": [
                -1.8999682235114355,
                -1.784806479063294,
                1.2033565178740522,
                -1.4939139588809407,
                0.3222103325274237,
                3.079080888334388
            ]
        },
        {
            "positions": [
                -2.0393491554387815,
                -1.8011842633631567,
                1.2979921267101486,
                -1.492258292445418,
                0.37957873378869955,
                3.158991831217093
            ]
        },
        {
            "positions": [
                -2.1787300873661266,
                -1.8175620476630194,
                1.3926277355462455,
                -1.490602626009895,
                0.4369471350499752,
                3.2389027740997975
            ]
        },
        {
            "positions": [
                -2.3181110192934726,
                -1.8339398319628821,
                1.4872633443823424,
                -1.4889469595743723,
                0.49431553631125125,
                3.3188137169825023
            ]
        },
        {
            "positions": [
                -2.4574919512208186,
                -1.8503176162627448,
                1.5818989532184393,
                -1.4872912931388493,
                0.5516839375725273,
                3.3987246598652074
            ]
        },
        {
            "positions": [
                -2.596872883148165,
                -1.8666954005626073,
                1.676534562054536,
                -1.4856356267033266,
                0.6090523388338029,
                3.478635602747912
            ]
        },
        {
            "positions": [
                -2.402671337682748,
                -1.8140317898466813,
                1.696278648156376,
                -1.4293753497431791,
                0.574319193721492,
                3.445242355008081
            ]
        },
        {
            "positions": [
                -2.2084697922173318,
                -1.7613681791307554,
                1.716022734258216,
                -1.3731150727830317,
                0.539586048609181,
                3.4118491072682495
            ]
        },
        {
            "positions": [
                -2.014268246751915,
                -1.7087045684148294,
                1.735766820360056,
                -1.3168547958228842,
                0.5048529034968701,
                3.378455859528418
            ]
        },
        {
            "positions": [
                -1.820066701286498,
                -1.6560409576989035,
                1.7555109064618961,
                -1.2605945188627368,
                0.47011975838455916,
                3.345062611788587
            ]
        },
        {
            "positions": [
                -1.625865155821081,
                -1.6033773469829775,
                1.775254992563736,
                -1.2043342419025893,
                0.4353866132722482,
                3.311669364048756
            ]
        },
        {
            "positions": [
                -1.4316636103556644,
                -1.5507137362670516,
                1.794999078665576,
                -1.1480739649424418,
                0.4006534681599373,
                3.2782761163089242
            ]
        },
        {
            "positions": [
                -1.2374620648902475,
                -1.4980501255511256,
                1.8147431647674162,
                -1.0918136879822944,
                0.36592032304762634,
                3.2448828685690927
            ]
        },
        {
            "positions": [
                -1.0432605194248308,
                -1.4453865148351994,
                1.834487250869256,
                -1.035553411022147,
                0.3311871779353154,
                3.2114896208292616
            ]
        },
        {
            "positions": [
                -0.8490589739594137,
                -1.3927229041192735,
                1.854231336971096,
                -0.9792931340619995,
                0.2964540328230044,
                3.1780963730894305
            ]
        },
        {
            "positions": [
                -0.654857428493997,
                -1.3400592934033475,
                1.873975423072936,
                -0.923032857101852,
                0.26172088771069346,
                3.144703125349599
            ]
        },
        {
            "positions": [
                -0.46065588302858007,
                -1.2873956826874218,
                1.893719509174776,
                -0.8667725801417046,
                0.2269877425983825,
                3.1113098776097674
            ]
        },
        {
            "positions": [
                -0.2664543375631636,
                -1.2347320719714956,
                1.9134635952766161,
                -0.8105123031815571,
                0.1922545974860716,
                3.0779166298699363
            ]
        },
        {
            "positions": [
                -0.07225279209774671,
                -1.1820684612555696,
                1.9332076813784562,
                -0.7542520262214096,
                0.15752145237376064,
                3.044523382130105
            ]
        },
        {
            "positions": [
                0.12194875336767029,
                -1.1294048505396437,
                1.952951767480296,
                -0.6979917492612622,
                0.12278830726144968,
                3.0111301343902737
            ]
        }
    ]
}{
    "goal": {
        "global_pose": {
            "orientation": {
                "w": 0.7047431468963623,
                "x": -0.7094548344612122,
                "y": 0.0024358443915843964,
                "z": -0.0022348060738295317
            },
            "position": {
                "x": 0.6094750761985779,
                "y": 0.3671506643295288,
                "z": 0.19426114857196808
            }
        },
        "name": "move_to_magneteinheit_A"
    },
    "id": "KPIECE_move_to_magneteinheit_A_57",
    "joint_names": [
        "shoulder_pan_joint",
        "shoulder_lift_joint",
        "elbow_joint",
        "wrist_1_joint",
        "wrist_2_joint",
        "wrist_3_joint"
    ],
    "metrics": {
        "cart_traj_len": 1.2217982715821212,
        "distance_elbow_joint": 0.0627188141736168,
        "distance_shoulder_lift_joint": 0.7611370676903646,
        "distance_shoulder_pan_joint": 1.2427734421755758,
        "distance_wrist_1_joint": 0.8612022519862312,
        "distance_wrist_2_joint": 1.4599614604328055,
        "distance_wrist_3_joint": 4.342359417181781,
        "smoothness": 0.08835060242018095,
        "time": 0.271636059,
        "traj_len": 2.954683139296052,
        "weighted_distance": 4.442525745611721
    },
    "planner": "KPIECE",
    "start": {
        "state": {
            "elbow_joint": 1.919643534880228,
            "shoulder_lift_joint": -1.8972525353963687,
            "shoulder_pan_joint": -1.1188672234189438,
            "wrist_1_joint": -1.5931878212786155,
            "wrist_2_joint": 1.5706036197970081,
            "wrist_3_joint": 1.118896926603594
        }
    },
    "waypoints": [
        {
            "positions": [
                -1.1188672234189438,
                -1.8972525353963687,
                1.919643534880228,
                -1.5931878212786155,
                1.5706036197970081,
                1.118896926603594
            ]
        },
        {
            "positions": [
                -1.06311180844116,
                -1.8629283179080867,
                1.919216239359201,
                -1.5543034661076285,
                1.5047103935199118,
                0.9258649229371937
            ]
        },
        {
            "positions": [
                -1.0073563934633762,
                -1.8286041004198046,
                1.9187889438381736,
                -1.5154191109366413,
                1.4388171672428152,
                0.7328329192707934
            ]
        },
        {
            "positions": [
                -0.9516009784855923,
                -1.7942798829315227,
                1.9183616483171464,
                -1.4765347557656543,
                1.3729239409657188,
                0.5398009156043931
            ]
        },
        {
            "positions": [
                -0.8958455635078085,
                -1.7599556654432407,
                1.917934352796119,
                -1.4376504005946673,
                1.3070307146886224,
                0.34676891193799275
            ]
        },
        {
            "positions": [
                -0.8400901485300247,
                -1.7256314479549586,
                1.9175070572750919,
                -1.39876604542368,
                1.241137488411526,
                0.1537369082715926
            ]
        },
        {
            "positions": [
                -0.7843347335522409,
                -1.6913072304666765,
                1.9170797617540645,
                -1.3598816902526931,
                1.1752442621344295,
                -0.03929509539480769
            ]
        },
        {
            "positions": [
                -0.7285793185744571,
                -1.6569830129783947,
                1.9166524662330373,
                -1.3209973350817061,
                1.109351035857333,
                -0.23232709906120808
            ]
        },
        {
            "positions": [
                -0.6728239035966732,
                -1.6226587954901126,
                1.91622517071201,
                -1.282112979910719,
                1.0434578095802367,
                -0.42535910272760846
            ]
        },
        {
            "positions": [
                -0.6170684886188894,
                -1.5883345780018305,
                1.9157978751909828,
                -1.243228624739732,
                0.9775645833031401,
                -0.6183911063940086
            ]
        },
        {
            "positions": [
                -0.5613130736411056,
                -1.5540103605135485,
                1.9153705796699554,
                -1.204344269568745,
                0.9116713570260437,
                -0.8114231100604088
            ]
        },
        {
            "positions": [
                -0.5055576586633218,
                -1.5196861430252664,
                1.9149432841489282,
                -1.165459914397758,
                0.8457781307489473,
                -1.0044551137268092
            ]
        },
        {
            "positions": [
                -0.449802243685538,
                -1.4853619255369845,
                1.914515988627901,
                -1.126575559226771,
                0.7798849044718509,
                -1.1974871173932093
            ]
        },
        {
            "positions": [
                -0.3940468287077541,
                -1.4510377080487025,
                1.9140886931068737,
                -1.0876912040557838,
                0.7139916781947543,
                -1.39051912105961
            ]
        },
        {
            "positions": [
                -0.3382914137299704,
                -1.4167134905604204,
                1.9136613975858465,
                -1.0488068488847968,
                0.6480984519176579,
                -1.5835511247260101
            ]
        },
        {
            "positions": [
                -0.2825359987521866,
                -1.3823892730721385,
                1.9132341020648191,
                -1.0099224937138098,
                0.5822052256405615,
                -1.7765831283924103
            ]
        },
        {
            "positions": [
                -0.2267805837744027,
                -1.3480650555838563,
                1.912806806543792,
                -0.9710381385428226,
                0.5163119993634651,
                -1.969615132058811
            ]
        },
        {
            "positions": [
                -0.1710251687966189,
                -1.3137408380955744,
                1.9123795110227646,
                -0.9321537833718356,
                0.4504187730863687,
                -2.1626471357252104
            ]
        },
        {
            "positions": [
                -0.11526975381883497,
                -1.2794166206072923,
                1.9119522155017374,
                -0.8932694282008485,
                0.3845255468092721,
                -2.3556791393916114
            ]
        },
        {
            "positions": [
                -0.059514338841051284,
                -1.2450924031190103,
                1.91152491998071,
                -0.8543850730298616,
                0.3186323205321757,
                -2.5487111430580116
            ]
        },
        {
            "positions": [
                -0.0037589238632673716,
                -1.2107681856307284,
                1.911097624459683,
                -0.8155007178588745,
                0.25273909425507934,
                -2.7417431467244118
            ]
        },
        {
            "positions": [
                0.05199649111451654,
                -1.1764439681424461,
                1.9106703289386555,
                -0.7766163626878874,
                0.18684586797798275,
                -2.934775150390812
            ]
        },
        {
            "positions": [
                0.10775190609230025,
                -1.1421197506541643,
                1.9102430334176284,
                -0.7377320075169004,
                0.12095264170088638,
                -3.127807154057212
            ]
        },
        {
            "positions": [
                0.12390621875663207,
                -1.1361154677060041,
                1.9635613461286454,
                -0.7434784457414165,
                0.13126312403757012,
                -3.223462490578186
            ]
        }
    ]
}