{
    "goal": {
        "global_pose": {
            "orientation": {
                "w": 0.5084816217422485,
                "x": -0.49083608388900757,
                "y": 0.5182115435600281,
                "z": -0.4816462993621826
            },
            "position": {
                "x": 0.5540239810943604,
                "y": 0.030875300988554955,
                "z": 0.16403168439865112
            }
        },
        "name": "move_to_storage_A"
    },
    "id": "KPIECE_move_to_storage_A_97",
    "joint_names": [
        "shoulder_pan_joint",
        "shoulder_lift_joint",
        "elbow_joint",
        "wrist_1_joint",
        "wrist_2_joint",
        "wrist_3_joint"
    ],
    "metrics": {
        "cart_traj_len": 0.35301025510448714,
        "distance_elbow_joint": 0.4495934572953044,
        "distance_shoulder_lift_joint": 0.23552275023114366,
        "distance_shoulder_pan_joint": 0.4579503893547458,
        "distance_wrist_1_joint": 0.23730434046744053,
        "distance_wrist_2_joint": 1.1152096152517914,
        "distance_wrist_3_joint": 0.10440477752780275,
        "smoothness": 6.661338165333112e-16,
        "time": 0.046697296,
        "traj_len": 1.6124470007191642,
        "weighted_distance": 2.0399286362280096
    },
    "planner": "KPIECE",
    "start": {
        "state": {
            "elbow_joint": 1.9715477243005601,
            "shoulder_lift_joint": -1.1394853015351272,
            "shoulder_pan_joint": 0.12281154014795169,
            "wrist_1_joint": -0.7804696478968182,
            "wrist_2_joint": 0.12958648046900423,
            "wrist_3_joint": -3.192491284697111
        }
    },
    "waypoints": [
        {
            "positions": [
                0.12281154014795169,
                -1.1394853015351272,
                1.9715477243005601,
                -0.7804696478968182,
                0.12958648046900423,
                -3.192491284697111
            ]
        },
        {
            "positions": [
                0.05739005595441658,
                -1.1731314087110047,
                2.0357753610570324,
                -0.8143702679635954,
                0.2889021397906887,
                -3.1775763164788535
            ]
        },
        {
            "positions": [
                -0.008031428239118524,
                -1.2067775158868825,
                2.100002997813504,
                -0.8482708880303726,
                0.4482177991123732,
                -3.1626613482605963
            ]
        },
        {
            "positions": [
                -0.07345291243265363,
                -1.24042362306276,
                2.1642306345699764,
                -0.8821715080971498,
                0.6075334584340577,
                -3.1477463800423386
            ]
        },
        {
            "positions": [
                -0.13887439662618872,
                -1.274069730238638,
                2.2284582713264482,
                -0.916072128163927,
                0.7668491177557422,
                -3.132831411824081
            ]
        },
        {
            "positions": [
                -0.20429588081972389,
                -1.3077158374145155,
                2.2926859080829205,
                -0.9499727482307043,
                0.9261647770774267,
                -3.1179164436058233
            ]
        },
        {
            "positions": [
                -0.26971736501325894,
                -1.341361944590393,
                2.3569135448393923,
                -0.9838733682974814,
                1.085480436399111,
                -3.103001475387566
            ]
        },
        {
            "positions": [
                -0.3351388492067941,
                -1.3750080517662708,
                2.4211411815958646,
                -1.0177739883642587,
                1.2447960957207957,
                -3.0880865071693084
            ]
        }
    ]
}