{
    "goal": {
        "global_pose": {
            "orientation": {
                "w": 0.5084816217422485,
                "x": -0.49083608388900757,
                "y": 0.5182115435600281,
                "z": -0.4816462993621826
            },
            "position": {
                "x": 0.5540239810943604,
                "y": 0.030875300988554955,
                "z": 0.16403168439865112
            }
        },
        "name": "move_to_storage_A"
    },
    "id": "KPIECE_move_to_storage_A_59",
    "joint_names": [
        "shoulder_pan_joint",
        "shoulder_lift_joint",
        "elbow_joint",
        "wrist_1_joint",
        "wrist_2_joint",
        "wrist_3_joint"
    ],
    "metrics": {
        "cart_traj_len": 0.35396594068703086,
        "distance_elbow_joint": 0.4503693949342047,
        "distance_shoulder_lift_joint": 0.23430512131080006,
        "distance_shoulder_pan_joint": 0.4619621216625257,
        "distance_wrist_1_joint": 0.24520059420715679,
        "distance_wrist_2_joint": 1.1043043290197057,
        "distance_wrist_3_joint": 0.1018180850180177,
        "smoothness": 4.440892098500626e-16,
        "time": 0.041716805,
        "traj_len": 1.6118187386156082,
        "weighted_distance": 2.0374250266979907
    },
    "planner": "KPIECE",
    "start": {
        "state": {
            "elbow_joint": 1.9715477243005601,
            "shoulder_lift_joint": -1.1394853015351272,
            "shoulder_pan_joint": 0.12281154014795169,
            "wrist_1_joint": -0.7804696478968182,
            "wrist_2_joint": 0.12958648046900423,
            "wrist_3_joint": -3.192491284697111
        }
    },
    "waypoints": [
        {
            "positions": [
                0.12281154014795169,
                -1.1394853015351272,
                1.9715477243005601,
                -0.7804696478968182,
                0.12958648046900423,
                -3.192491284697111
            ]
        },
        {
            "positions": [
                0.056816951339019456,
                -1.1729574617223844,
                2.035886209291161,
                -0.8154983042121263,
                0.2873442417575336,
                -3.1779458439802517
            ]
        },
        {
            "positions": [
                -0.009177637469912778,
                -1.2064296219096415,
                2.1002246942817613,
                -0.8505269605274344,
                0.44510200304606296,
                -3.163400403263392
            ]
        },
        {
            "positions": [
                -0.07517222627884503,
                -1.2399017820968987,
                2.164563179272362,
                -0.8855556168427425,
                0.6028597643345923,
                -3.1488549625465323
            ]
        },
        {
            "positions": [
                -0.14116681508777723,
                -1.2733739422841557,
                2.228901664262963,
                -0.9205842731580506,
                0.7606175256231217,
                -3.1343095218296724
            ]
        },
        {
            "positions": [
                -0.2071614038967095,
                -1.3068461024714129,
                2.2932401492535637,
                -0.9556129294733587,
                0.9183752869116512,
                -3.119764081112813
            ]
        },
        {
            "positions": [
                -0.2731559927056417,
                -1.34031826265867,
                2.357578634244164,
                -0.9906415857886668,
                1.0761330482001803,
                -3.105218640395953
            ]
        },
        {
            "positions": [
                -0.339150581514574,
                -1.3737904228459272,
                2.421917119234765,
                -1.025670242103975,
                1.2338908094887098,
                -3.0906731996790935
            ]
        }
    ]
}