{
    "goal": {
        "global_pose": {
            "orientation": {
                "w": 0.7047431468963623,
                "x": -0.7094548344612122,
                "y": 0.0024358443915843964,
                "z": -0.0022348060738295317
            },
            "position": {
                "x": 0.6094750761985779,
                "y": 0.3671506643295288,
                "z": 0.19426114857196808
            }
        },
        "name": "move_to_magneteinheit_A"
    },
    "id": "KPIECE_move_to_magneteinheit_A_100",
    "joint_names": [
        "shoulder_pan_joint",
        "shoulder_lift_joint",
        "elbow_joint",
        "wrist_1_joint",
        "wrist_2_joint",
        "wrist_3_joint"
    ],
    "metrics": {
        "cart_traj_len": 3.170419444149047,
        "distance_elbow_joint": 3.888397968135326,
        "distance_shoulder_lift_joint": 0.12320946734093474,
        "distance_shoulder_pan_joint": 2.7364375312187574,
        "distance_wrist_1_joint": 3.3462237473422016,
        "distance_wrist_2_joint": 1.7096200243198687,
        "distance_wrist_3_joint": 3.518394580166279,
        "smoothness": 0.20471426950629018,
        "time": 0.06471189399999999,
        "traj_len": 3.9143688276046973,
        "weighted_distance": 5.235925539054006
    },
    "planner": "KPIECE",
    "start": {
        "state": {
            "elbow_joint": -1.919618573717145,
            "shoulder_lift_joint": -1.2443395971678275,
            "shoulder_pan_joint": 2.6996025300909787,
            "wrist_1_joint": -1.548550951253194,
            "wrist_2_joint": -1.5709469090946802,
            "wrist_3_joint": 0.4420197732051276
        }
    },
    "waypoints": [
        {
            "positions": [
                2.6996025300909787,
                -1.2443395971678275,
                -1.919618573717145,
                -1.548550951253194,
                -1.5709469090946802,
                0.4420197732051276
            ]
        },
        {
            "positions": [
                2.573450730701702,
                -1.2395760255967596,
                -1.8577170750242284,
                -1.4451124061053748,
                -1.4994981197308976,
                0.41993532790470506
            ]
        },
        {
            "positions": [
                2.4472989313124254,
                -1.2348124540256917,
                -1.7958155763313117,
                -1.3416738609575554,
                -1.4280493303671151,
                0.3978508826042826
            ]
        },
        {
            "positions": [
                2.3211471319231483,
                -1.2300488824546238,
                -1.7339140776383952,
                -1.2382353158097361,
                -1.3566005410033328,
                0.37576643730386006
            ]
        },
        {
            "positions": [
                2.1949953325338716,
                -1.225285310883556,
                -1.6720125789454787,
                -1.1347967706619166,
                -1.2851517516395503,
                0.35368199200343753
            ]
        },
        {
            "positions": [
                2.068843533144595,
                -1.220521739312488,
                -1.610111080252562,
                -1.0313582255140974,
                -1.2137029622757678,
                0.33159754670301506
            ]
        },
        {
            "positions": [
                1.9426917337553182,
                -1.2157581677414202,
                -1.5482095815596455,
                -0.927919680366278,
                -1.1422541729119855,
                0.3095131014025925
            ]
        },
        {
            "positions": [
                1.8165399343660416,
                -1.2109945961703523,
                -1.486308082866729,
                -0.8244811352184588,
                -1.070805383548203,
                0.28742865610217005
            ]
        },
        {
            "positions": [
                1.6903881349767647,
                -1.2062310245992844,
                -1.4244065841738123,
                -0.7210425900706393,
                -0.9993565941844205,
                0.2653442108017475
            ]
        },
        {
            "positions": [
                1.5642363355874878,
                -1.2014674530282166,
                -1.3625050854808958,
                -0.6176040449228201,
                -0.927907804820638,
                0.243259765501325
            ]
        },
        {
            "positions": [
                1.438084536198211,
                -1.1967038814571485,
                -1.3006035867879793,
                -0.5141654997750007,
                -0.8564590154568555,
                0.2211753202009025
            ]
        },
        {
            "positions": [
                1.3119327368089342,
                -1.1919403098860806,
                -1.2387020880950625,
                -0.41072695462718123,
                -0.785010226093073,
                0.19909087490047997
            ]
        },
        {
            "positions": [
                1.1857809374196575,
                -1.1871767383150127,
                -1.176800589402146,
                -0.307288409479362,
                -0.7135614367292906,
                0.17700642960005747
            ]
        },
        {
            "positions": [
                1.0596291380303808,
                -1.1824131667439448,
                -1.1148990907092293,
                -0.20384986433154273,
                -0.6421126473655081,
                0.15492198429963494
            ]
        },
        {
            "positions": [
                0.9334773386411042,
                -1.177649595172877,
                -1.0529975920163128,
                -0.10041131918372348,
                -0.5706638580017258,
                0.13283753899921247
            ]
        },
        {
            "positions": [
                0.8073255392518273,
                -1.172886023601809,
                -0.9910960933233963,
                0.003027225964095992,
                -0.4992150686379433,
                0.11075309369878994
            ]
        },
        {
            "positions": [
                0.6811737398625506,
                -1.1681224520307412,
                -0.9291945946304796,
                0.10646577111191546,
                -0.4277662792741608,
                0.08866864839836741
            ]
        },
        {
            "positions": [
                0.5550219404732739,
                -1.1633588804596733,
                -0.8672930959375631,
                0.2099043162597347,
                -0.35631748991037826,
                0.06658420309794494
            ]
        },
        {
            "positions": [
                0.4288701410839968,
                -1.1585953088886054,
                -0.8053915972446466,
                0.31334286140755396,
                -0.28486870054659574,
                0.04449975779752241
            ]
        },
        {
            "positions": [
                0.3027183416947201,
                -1.1538317373175375,
                -0.7434900985517301,
                0.4167814065553732,
                -0.21341991118281345,
                0.022415312497099937
            ]
        },
        {
            "positions": [
                0.1765665423054434,
                -1.1490681657464696,
                -0.6815885998588134,
                0.5202199517031928,
                -0.14197112181903085,
                0.00033086719667738823
            ]
        },
        {
            "positions": [
                0.16918030970053632,
                -1.1495259914037115,
                -0.5391292291744968,
                0.45466246209446093,
                -0.12734260246327517,
                0.16458293984633238
            ]
        },
        {
            "positions": [
                0.16179407709562924,
                -1.1499838170609533,
                -0.39666985849018027,
                0.3891049724857291,
                -0.1127140831075195,
                0.3288350124959874
            ]
        },
        {
            "positions": [
                0.15440784449072215,
                -1.1504416427181952,
                -0.2542104878058637,
                0.3235474828769973,
                -0.09808556375176383,
                0.49308708514564237
            ]
        },
        {
            "positions": [
                0.14702161188581506,
                -1.150899468375437,
                -0.11175111712154717,
                0.25798999326826544,
                -0.08345704439600815,
                0.6573391577952974
            ]
        },
        {
            "positions": [
                0.13963537928090797,
                -1.1513572940326786,
                0.030708253562769516,
                0.19243250365953357,
                -0.06882852504025247,
                0.8215912304449524
            ]
        },
        {
            "positions": [
                0.13224914667600088,
                -1.1518151196899205,
                0.17316762424708598,
                0.12687501405080176,
                -0.0542000056844968,
                0.9858433030946073
            ]
        },
        {
            "positions": [
                0.12486291407109379,
                -1.1522729453471623,
                0.31562699493140256,
                0.06131752444206989,
                -0.03957148632874112,
                1.1500953757442622
            ]
        },
        {
            "positions": [
                0.1174766814661867,
                -1.1527307710044041,
                0.458086365615719,
                -0.004239965166661919,
                -0.024942966972985453,
                1.3143474483939173
            ]
        },
        {
            "positions": [
                0.11009044886127961,
                -1.153188596661646,
                0.6005457363000357,
                -0.06979745477539379,
                -0.010314447617229772,
                1.4785995210435723
            ]
        },
        {
            "positions": [
                0.10270421625637252,
                -1.1536464223188878,
                0.7430051069843524,
                -0.13535494438412565,
                0.00431407173852591,
                1.6428515936932273
            ]
        },
        {
            "positions": [
                0.09531798365146543,
                -1.1541042479761296,
                0.8854644776686689,
                -0.20091243399285752,
                0.01894259109428159,
                1.8071036663428823
            ]
        },
        {
            "positions": [
                0.08793175104655834,
                -1.1545620736333715,
                1.0279238483529853,
                -0.2664699236015893,
                0.033571110450037245,
                1.9713557389925371
            ]
        },
        {
            "positions": [
                0.08054551844165125,
                -1.1550198992906133,
                1.170383219037302,
                -0.33202741321032114,
                0.048199629805792926,
                2.1356078116421924
            ]
        },
        {
            "positions": [
                0.07315928583674416,
                -1.155477724947855,
                1.3128425897216185,
                -0.397584902819053,
                0.06282814916154861,
                2.2998598842918474
            ]
        },
        {
            "positions": [
                0.06577305323183708,
                -1.1559355506050968,
                1.4553019604059352,
                -0.4631423924277849,
                0.07745666851730429,
                2.4641119569415024
            ]
        },
        {
            "positions": [
                0.058386820626929986,
                -1.1563933762623386,
                1.5977613310902514,
                -0.5286998820365166,
                0.09208518787305994,
                2.6283640295911574
            ]
        },
        {
            "positions": [
                0.0510005880220229,
                -1.1568512019195805,
                1.7402207017745681,
                -0.5942573716452485,
                0.10671370722881562,
                2.7926161022408125
            ]
        },
        {
            "positions": [
                0.04361435541711582,
                -1.1573090275768223,
                1.8826800724588848,
                -0.6598148612539805,
                0.12134222658457129,
                2.9568681748904675
            ]
        },
        {
            "positions": [
                0.08383903368956169,
                -1.1474604405322102,
                1.9257297334385328,
                -0.7085238769683011,
                0.1300076709048806,
                3.0169523581224866
            ]
        },
        {
            "positions": [
                0.12406371196200758,
                -1.137611853487598,
                1.9687793944181808,
                -0.7572328926826217,
                0.1386731152251899,
                3.0770365413545058
            ]
        }
    ]
}{
    "goal": {
        "global_pose": {
            "orientation": {
                "w": 0.7047431468963623,
                "x": -0.7094548344612122,
                "y": 0.0024358443915843964,
                "z": -0.0022348060738295317
            },
            "position": {
                "x": 0.6094750761985779,
                "y": 0.3671506643295288,
                "z": 0.19426114857196808
            }
        },
        "name": "move_to_magneteinheit_A"
    },
    "id": "KPIECE_move_to_magneteinheit_A_100",
    "joint_names": [
        "shoulder_pan_joint",
        "shoulder_lift_joint",
        "elbow_joint",
        "wrist_1_joint",
        "wrist_2_joint",
        "wrist_3_joint"
    ],
    "metrics": {
        "cart_traj_len": 1.2102114563568056,
        "distance_elbow_joint": 0.07372588138426472,
        "distance_shoulder_lift_joint": 0.7481905733156848,
        "distance_shoulder_pan_joint": 1.2410608764342252,
        "distance_wrist_1_joint": 0.7343804931013372,
        "distance_wrist_2_joint": 1.6025749190543948,
        "distance_wrist_3_joint": 4.248759301448322,
        "smoothness": 0.19682340580637214,
        "time": 0.15319818600000001,
        "traj_len": 2.9408658664988834,
        "weighted_distance": 4.413973953229743
    },
    "planner": "KPIECE",
    "start": {
        "state": {
            "elbow_joint": 1.919643534880228,
            "shoulder_lift_joint": -1.8972525353963687,
            "shoulder_pan_joint": -1.1188672234189438,
            "wrist_1_joint": -1.5931878212786155,
            "wrist_2_joint": 1.5706036197970081,
            "wrist_3_joint": 1.118896926603594
        }
    },
    "waypoints": [
        {
            "positions": [
                -1.1188672234189438,
                -1.8972525353963687,
                1.919643534880228,
                -1.5931878212786155,
                1.5706036197970081,
                1.118896926603594
            ]
        },
        {
            "positions": [
                -1.061845977003385,
                -1.864337937342862,
                1.9195136763229041,
                -1.5605038164126896,
                1.4980302923102318,
                0.9226220477114278
            ]
        },
        {
            "positions": [
                -1.0048247305878262,
                -1.8314233392893553,
                1.9193838177655802,
                -1.5278198115467638,
                1.4254569648234554,
                0.7263471688192615
            ]
        },
        {
            "positions": [
                -0.9478034841722675,
                -1.7985087412358485,
                1.9192539592082563,
                -1.495135806680838,
                1.352883637336679,
                0.5300722899270954
            ]
        },
        {
            "positions": [
                -0.8907822377567087,
                -1.7655941431823416,
                1.9191241006509323,
                -1.4624518018149122,
                1.2803103098499027,
                0.3337974110349292
            ]
        },
        {
            "positions": [
                -0.8337609913411499,
                -1.732679545128835,
                1.9189942420936084,
                -1.4297677969489864,
                1.207736982363126,
                0.137522532142763
            ]
        },
        {
            "positions": [
                -0.7767397449255911,
                -1.6997649470753282,
                1.9188643835362842,
                -1.3970837920830605,
                1.13516365487635,
                -0.058752346749403106
            ]
        },
        {
            "positions": [
                -0.7197184985100323,
                -1.6668503490218214,
                1.9187345249789602,
                -1.3643997872171347,
                1.0625903273895734,
                -0.2550272256415693
            ]
        },
        {
            "positions": [
                -0.6626972520944736,
                -1.6339357509683146,
                1.9186046664216363,
                -1.331715782351209,
                0.9900169999027971,
                -0.45130210453373554
            ]
        },
        {
            "positions": [
                -0.6056760056789148,
                -1.601021152914808,
                1.9184748078643123,
                -1.299031777485283,
                0.9174436724160208,
                -0.6475769834259018
            ]
        },
        {
            "positions": [
                -0.5486547592633559,
                -1.5681065548613011,
                1.9183449493069884,
                -1.2663477726193573,
                0.8448703449292443,
                -0.843851862318068
            ]
        },
        {
            "positions": [
                -0.4916335128477971,
                -1.5351919568077943,
                1.9182150907496645,
                -1.2336637677534315,
                0.7722970174424679,
                -1.0401267412102342
            ]
        },
        {
            "positions": [
                -0.4346122664322384,
                -1.5022773587542875,
                1.9180852321923405,
                -1.2009797628875056,
                0.6997236899556916,
                -1.2364016201024002
            ]
        },
        {
            "positions": [
                -0.37759102001667955,
                -1.4693627607007809,
                1.9179553736350166,
                -1.1682957580215798,
                0.6271503624689151,
                -1.4326764989945666
            ]
        },
        {
            "positions": [
                -0.3205697736011208,
                -1.436448162647274,
                1.9178255150776926,
                -1.135611753155654,
                0.5545770349821388,
                -1.6289513778867326
            ]
        },
        {
            "positions": [
                -0.263548527185562,
                -1.4035335645937672,
                1.9176956565203687,
                -1.1029277482897282,
                0.48200370749536225,
                -1.825226256778899
            ]
        },
        {
            "positions": [
                -0.20652728077000326,
                -1.3706189665402606,
                1.9175657979630445,
                -1.0702437434238024,
                0.4094303800085861,
                -2.0215011356710653
            ]
        },
        {
            "positions": [
                -0.14950603435444432,
                -1.3377043684867538,
                1.9174359394057205,
                -1.0375597385578765,
                0.33685705252180953,
                -2.2177760145632313
            ]
        },
        {
            "positions": [
                -0.0924847879388857,
                -1.304789770433247,
                1.9173060808483966,
                -1.0048757336919507,
                0.2642837250350334,
                -2.4140508934553973
            ]
        },
        {
            "positions": [
                -0.03546354152332687,
                -1.2718751723797403,
                1.9171762222910727,
                -0.9721917288260249,
                0.1917103975482568,
                -2.610325772347564
            ]
        },
        {
            "positions": [
                0.021557704892231966,
                -1.2389605743262335,
                1.9170463637337487,
                -0.9395077239600991,
                0.11913707006148044,
                -2.80660065123973
            ]
        },
        {
            "positions": [
                0.07857895130779072,
                -1.2060459762727267,
                1.9169165051764248,
                -0.9068237190941733,
                0.046563742574704095,
                -3.002875530131896
            ]
        },
        {
            "positions": [
                0.10038630216153599,
                -1.1775539691767052,
                1.9524159310166556,
                -0.8828155236357258,
                0.08583126349074952,
                -3.066368952488312
            ]
        },
        {
            "positions": [
                0.12219365301528128,
                -1.149061962080684,
                1.9879153568568861,
                -0.8588073281772782,
                0.12509878440679495,
                -3.1298623748447274
            ]
        }
    ]
}