{
    "goal": {
        "global_pose": {
            "orientation": {
                "w": 0.5084816217422485,
                "x": -0.49083608388900757,
                "y": 0.5182115435600281,
                "z": -0.4816462993621826
            },
            "position": {
                "x": 0.5540239810943604,
                "y": 0.030875300988554955,
                "z": 0.16403168439865112
            }
        },
        "name": "move_to_storage_A"
    },
    "id": "KPIECE_move_to_storage_A_125",
    "joint_names": [
        "shoulder_pan_joint",
        "shoulder_lift_joint",
        "elbow_joint",
        "wrist_1_joint",
        "wrist_2_joint",
        "wrist_3_joint"
    ],
    "metrics": {
        "cart_traj_len": 0.352342027643066,
        "distance_elbow_joint": 0.4525386531664157,
        "distance_shoulder_lift_joint": 0.23298734199851867,
        "distance_shoulder_pan_joint": 0.45817771907991284,
        "distance_wrist_1_joint": 0.2596147466758888,
        "distance_wrist_2_joint": 1.107680805712104,
        "distance_wrist_3_joint": 0.10928661173237053,
        "smoothness": 8.881784197001252e-16,
        "time": 0.016035033,
        "traj_len": 1.6187297113370134,
        "weighted_distance": 2.05089118536746
    },
    "planner": "KPIECE",
    "start": {
        "state": {
            "elbow_joint": 1.9715477243005601,
            "shoulder_lift_joint": -1.1394853015351272,
            "shoulder_pan_joint": 0.12281154014795169,
            "wrist_1_joint": -0.7804696478968182,
            "wrist_2_joint": 0.12958648046900423,
            "wrist_3_joint": -3.192491284697111
        }
    },
    "waypoints": [
        {
            "positions": [
                0.12281154014795169,
                -1.1394853015351272,
                1.9715477243005601,
                -0.7804696478968182,
                0.12958648046900423,
                -3.192491284697111
            ]
        },
        {
            "positions": [
                0.05735758027939272,
                -1.1727692075349156,
                2.036196103324334,
                -0.8175574688505166,
                0.2878265955707333,
                -3.1768789115924867
            ]
        },
        {
            "positions": [
                -0.008096379589166244,
                -1.206053113534704,
                2.1008444823481076,
                -0.854645289804215,
                0.44606671067246245,
                -3.1612665384878627
            ]
        },
        {
            "positions": [
                -0.07355033945772523,
                -1.2393370195344924,
                2.1654928613718814,
                -0.8917331107579134,
                0.6043068257741916,
                -3.145654165383238
            ]
        },
        {
            "positions": [
                -0.13900429932628416,
                -1.2726209255342806,
                2.2301412403956546,
                -0.9288209317116117,
                0.7625469408759207,
                -3.1300417922786137
            ]
        },
        {
            "positions": [
                -0.20445825919484317,
                -1.305904831534069,
                2.2947896194194284,
                -0.9659087526653102,
                0.9207870559776499,
                -3.114429419173989
            ]
        },
        {
            "positions": [
                -0.2699122190634021,
                -1.3391887375338574,
                2.359437998443202,
                -1.0029965736190085,
                1.079027171079379,
                -3.098817046069365
            ]
        },
        {
            "positions": [
                -0.33536617893196113,
                -1.3724726435336458,
                2.424086377466976,
                -1.040084394572707,
                1.2372672861811083,
                -3.0832046729647407
            ]
        }
    ]
}