{
    "goal": {
        "global_pose": {
            "orientation": {
                "w": 0.5084816217422485,
                "x": -0.49083608388900757,
                "y": 0.5182115435600281,
                "z": -0.4816462993621826
            },
            "position": {
                "x": 0.5540239810943604,
                "y": 0.030875300988554955,
                "z": 0.16403168439865112
            }
        },
        "name": "move_to_storage_A"
    },
    "id": "KPIECE_move_to_storage_A_127",
    "joint_names": [
        "shoulder_pan_joint",
        "shoulder_lift_joint",
        "elbow_joint",
        "wrist_1_joint",
        "wrist_2_joint",
        "wrist_3_joint"
    ],
    "metrics": {
        "cart_traj_len": 0.35209294184239903,
        "distance_elbow_joint": 0.4520415652810579,
        "distance_shoulder_lift_joint": 0.23333139298994188,
        "distance_shoulder_pan_joint": 0.46092289037329887,
        "distance_wrist_1_joint": 0.257795726339915,
        "distance_wrist_2_joint": 1.0939744708580879,
        "distance_wrist_3_joint": 0.09677730763631187,
        "smoothness": 2.2204460668324854e-16,
        "time": 0.066438973,
        "traj_len": 1.6108517478274074,
        "weighted_distance": 2.034740319045465
    },
    "planner": "KPIECE",
    "start": {
        "state": {
            "elbow_joint": 1.9715477243005601,
            "shoulder_lift_joint": -1.1394853015351272,
            "shoulder_pan_joint": 0.12281154014795169,
            "wrist_1_joint": -0.7804696478968182,
            "wrist_2_joint": 0.12958648046900423,
            "wrist_3_joint": -3.192491284697111
        }
    },
    "waypoints": [
        {
            "positions": [
                0.12281154014795169,
                -1.1394853015351272,
                1.9715477243005601,
                -0.7804696478968182,
                0.12958648046900423,
                -3.192491284697111
            ]
        },
        {
            "positions": [
                0.056965412951766145,
                -1.1728183576765474,
                2.0361250907692825,
                -0.8172976088025203,
                0.28586854773444537,
                -3.178665955034781
            ]
        },
        {
            "positions": [
                -0.0088807142444194,
                -1.2061514138179676,
                2.1007024572380053,
                -0.8541255697082224,
                0.44215061499988645,
                -3.1648406253724506
            ]
        },
        {
            "positions": [
                -0.07472684144060494,
                -1.2394844699593879,
                2.1652798237067277,
                -0.8909535306139246,
                0.5984326822653276,
                -3.1510152957101205
            ]
        },
        {
            "positions": [
                -0.14057296863679047,
                -1.2728175261008081,
                2.2298571901754505,
                -0.9277814915196267,
                0.7547147495307687,
                -3.13718996604779
            ]
        },
        {
            "positions": [
                -0.20641909583297607,
                -1.3061505822422286,
                2.294434556644173,
                -0.9646094524253288,
                0.9109968167962098,
                -3.12336463638546
            ]
        },
        {
            "positions": [
                -0.27226522302916156,
                -1.3394836383836488,
                2.359011923112895,
                -1.001437413331031,
                1.067278884061651,
                -3.1095393067231294
            ]
        },
        {
            "positions": [
                -0.33811135022534716,
                -1.372816694525069,
                2.423589289581618,
                -1.0382653742367332,
                1.2235609513270922,
                -3.0957139770607993
            ]
        }
    ]
}