{
    "goal": {
        "global_pose": {
            "orientation": {
                "w": 0.7047431468963623,
                "x": -0.7094548344612122,
                "y": 0.0024358443915843964,
                "z": -0.0022348060738295317
            },
            "position": {
                "x": 0.6094750761985779,
                "y": 0.3671506643295288,
                "z": 0.19426114857196808
            }
        },
        "name": "move_to_magneteinheit_A"
    },
    "id": "KPIECE_move_to_magneteinheit_A_15",
    "joint_names": [
        "shoulder_pan_joint",
        "shoulder_lift_joint",
        "elbow_joint",
        "wrist_1_joint",
        "wrist_2_joint",
        "wrist_3_joint"
    ],
    "metrics": {
        "cart_traj_len": 3.940771013176173,
        "distance_elbow_joint": 3.8902307445372255,
        "distance_shoulder_lift_joint": 0.6129975897213111,
        "distance_shoulder_pan_joint": 4.5360659645730195,
        "distance_wrist_1_joint": 0.8135943747803893,
        "distance_wrist_2_joint": 1.6982937027686162,
        "distance_wrist_3_joint": 3.6297376649788706,
        "smoothness": 0.26850116153309067,
        "time": 0.104434958,
        "traj_len": 3.896270016484925,
        "weighted_distance": 4.995226065841884
    },
    "planner": "KPIECE",
    "start": {
        "state": {
            "elbow_joint": -1.919618573717145,
            "shoulder_lift_joint": -1.2443395971678275,
            "shoulder_pan_joint": 2.6996025300909787,
            "wrist_1_joint": -1.548550951253194,
            "wrist_2_joint": -1.5709469090946802,
            "wrist_3_joint": 0.4420197732051276
        }
    },
    "waypoints": [
        {
            "positions": [
                2.6996025300909787,
                -1.2443395971678275,
                -1.919618573717145,
                -1.548550951253194,
                -1.5709469090946802,
                0.4420197732051276
            ]
        },
        {
            "positions": [
                2.5918387692547964,
                -1.2520414833863784,
                -1.8152147108374626,
                -1.5246183334219574,
                -1.5334864536433368,
                0.33714864851765675
            ]
        },
        {
            "positions": [
                2.484075008418614,
                -1.2597433696049292,
                -1.7108108479577802,
                -1.5006857155907207,
                -1.4960259981919937,
                0.2322775238301859
            ]
        },
        {
            "positions": [
                2.3763112475824317,
                -1.26744525582348,
                -1.6064069850780978,
                -1.4767530977594838,
                -1.4585655427406503,
                0.12740639914271507
            ]
        },
        {
            "positions": [
                2.2685474867462494,
                -1.2751471420420308,
                -1.5020031221984154,
                -1.4528204799282471,
                -1.421105087289307,
                0.022535274455244225
            ]
        },
        {
            "positions": [
                2.160783725910067,
                -1.2828490282605818,
                -1.397599259318733,
                -1.4288878620970105,
                -1.3836446318379638,
                -0.08233585023222662
            ]
        },
        {
            "positions": [
                2.0530199650738847,
                -1.2905509144791325,
                -1.2931953964390508,
                -1.4049552442657736,
                -1.3461841763866205,
                -0.18720697491969746
            ]
        },
        {
            "positions": [
                1.9452562042377024,
                -1.2982528006976835,
                -1.1887915335593684,
                -1.3810226264345369,
                -1.3087237209352771,
                -0.2920780996071683
            ]
        },
        {
            "positions": [
                1.83749244340152,
                -1.3059546869162342,
                -1.084387670679686,
                -1.3570900086033002,
                -1.271263265483934,
                -0.39694922429463914
            ]
        },
        {
            "positions": [
                1.729728682565338,
                -1.3136565731347851,
                -0.9799838078000036,
                -1.3331573907720635,
                -1.2338028100325906,
                -0.5018203489821098
            ]
        },
        {
            "positions": [
                1.6219649217291554,
                -1.3213584593533358,
                -0.875579944920321,
                -1.3092247729408268,
                -1.1963423545812473,
                -0.6066914736695808
            ]
        },
        {
            "positions": [
                1.5142011608929733,
                -1.3290603455718868,
                -0.7711760820406388,
                -1.2852921551095902,
                -1.1588818991299041,
                -0.7115625983570515
            ]
        },
        {
            "positions": [
                1.406437400056791,
                -1.3367622317904375,
                -0.6667722191609564,
                -1.2613595372783533,
                -1.1214214436785608,
                -0.8164337230445224
            ]
        },
        {
            "positions": [
                1.2986736392206086,
                -1.3444641180089885,
                -0.562368356281274,
                -1.2374269194471166,
                -1.0839609882272176,
                -0.9213048477319932
            ]
        },
        {
            "positions": [
                1.1909098783844263,
                -1.3521660042275392,
                -0.4579644934015916,
                -1.2134943016158797,
                -1.046500532775874,
                -1.0261759724194641
            ]
        },
        {
            "positions": [
                1.083146117548244,
                -1.3598678904460901,
                -0.3535606305219092,
                -1.189561683784643,
                -1.009040077324531,
                -1.1310470971069349
            ]
        },
        {
            "positions": [
                0.9753823567120616,
                -1.3675697766646409,
                -0.24915676764222683,
                -1.1656290659534063,
                -0.9715796218731877,
                -1.2359182217944058
            ]
        },
        {
            "positions": [
                0.8676185958758793,
                -1.3752716628831918,
                -0.14475290476254443,
                -1.1416964481221696,
                -0.9341191664218443,
                -1.3407893464818765
            ]
        },
        {
            "positions": [
                0.7598548350396972,
                -1.3829735491017425,
                -0.04034904188286226,
                -1.117763830290933,
                -0.8966587109705011,
                -1.4456604711693473
            ]
        },
        {
            "positions": [
                0.6520910742035144,
                -1.3906754353202935,
                0.06405482099682058,
                -1.093831212459696,
                -0.8591982555191577,
                -1.5505315958568184
            ]
        },
        {
            "positions": [
                0.5443273133673321,
                -1.3983773215388442,
                0.16845868387650298,
                -1.0698985946284594,
                -0.8217378000678145,
                -1.6554027205442892
            ]
        },
        {
            "positions": [
                0.4365635525311502,
                -1.4060792077573951,
                0.27286254675618493,
                -1.0459659767972227,
                -0.7842773446164713,
                -1.76027384523176
            ]
        },
        {
            "positions": [
                0.32879979169496787,
                -1.4137810939759459,
                0.37726640963586733,
                -1.022033358965986,
                -0.746816889165128,
                -1.8651449699192306
            ]
        },
        {
            "positions": [
                0.2210360308587851,
                -1.4214829801944968,
                0.48167027251555017,
                -0.9981007411347492,
                -0.7093564337137847,
                -1.9700160946067018
            ]
        },
        {
            "positions": [
                0.1132722700226032,
                -1.4291848664130475,
                0.5860741353952321,
                -0.9741681233035124,
                -0.6718959782624414,
                -2.0748872192941725
            ]
        },
        {
            "positions": [
                0.0055085091864208735,
                -1.4368867526315985,
                0.6904779982749145,
                -0.9502355054722758,
                -0.6344355228110982,
                -2.1797583439816433
            ]
        },
        {
            "positions": [
                -0.10225525164976146,
                -1.4445886388501492,
                0.7948818611545969,
                -0.9263028876410391,
                -0.5969750673597549,
                -2.284629468669114
            ]
        },
        {
            "positions": [
                -0.21001901248594423,
                -1.4522905250687002,
                0.8992857240342798,
                -0.9023702698098023,
                -0.5595146119084116,
                -2.389500593356585
            ]
        },
        {
            "positions": [
                -0.3177827733221261,
                -1.459992411287251,
                1.0036895869139617,
                -0.8784376519785655,
                -0.5220541564570682,
                -2.494371718044056
            ]
        },
        {
            "positions": [
                -0.42554653415830845,
                -1.4676942975058018,
                1.108093449793644,
                -0.8545050341473288,
                -0.4845937010057251,
                -2.5992428427315266
            ]
        },
        {
            "positions": [
                -0.5333102949944908,
                -1.4753961837243526,
                1.2124973126733265,
                -0.8305724163160921,
                -0.4471332455543817,
                -2.7041139674189973
            ]
        },
        {
            "positions": [
                -0.6410740558306731,
                -1.4830980699429035,
                1.316901175553009,
                -0.8066397984848553,
                -0.40967279010303836,
                -2.8089850921064685
            ]
        },
        {
            "positions": [
                -0.7488378166668554,
                -1.4907999561614544,
                1.4213050384326913,
                -0.7827071806536186,
                -0.37221233465169523,
                -2.9138562167939392
            ]
        },
        {
            "positions": [
                -0.8566015775030379,
                -1.4985018423800052,
                1.5257089013123735,
                -0.7587745628223819,
                -0.33475187920035177,
                -3.01872734148141
            ]
        },
        {
            "positions": [
                -0.7166213122203231,
                -1.4472396503072718,
                1.589266511242046,
                -0.7621771323008929,
                -0.2687377830754535,
                -3.042868848666029
            ]
        },
        {
            "positions": [
                -0.5766410469376082,
                -1.3959774582345386,
                1.6528241211717185,
                -0.7655797017794039,
                -0.20272368695055526,
                -3.067010355850648
            ]
        },
        {
            "positions": [
                -0.43666078165489347,
                -1.3447152661618051,
                1.7163817311013911,
                -0.768982271257915,
                -0.136709590825657,
                -3.091151863035267
            ]
        },
        {
            "positions": [
                -0.2966805163721786,
                -1.2934530740890717,
                1.7799393410310638,
                -0.7723848407364259,
                -0.07069549470075875,
                -3.115293370219886
            ]
        },
        {
            "positions": [
                -0.15670025108946373,
                -1.2421908820163385,
                1.8434969509607364,
                -0.7757874102149369,
                -0.004681398575860474,
                -3.139434877404505
            ]
        },
        {
            "positions": [
                -0.01671998580674905,
                -1.1909286899436051,
                1.9070545608904088,
                -0.7791899796934479,
                0.06133269754903775,
                -3.163576384589124
            ]
        },
        {
            "positions": [
                0.12326027947596582,
                -1.1396664978708717,
                1.9706121708200814,
                -0.782592549171959,
                0.12734679367393603,
                -3.187717891773743
            ]
        }
    ]
}{
    "goal": {
        "global_pose": {
            "orientation": {
                "w": 0.7047431468963623,
                "x": -0.7094548344612122,
                "y": 0.0024358443915843964,
                "z": -0.0022348060738295317
            },
            "position": {
                "x": 0.6094750761985779,
                "y": 0.3671506643295288,
                "z": 0.19426114857196808
            }
        },
        "name": "move_to_magneteinheit_A"
    },
    "id": "KPIECE_move_to_magneteinheit_A_15",
    "joint_names": [
        "shoulder_pan_joint",
        "shoulder_lift_joint",
        "elbow_joint",
        "wrist_1_joint",
        "wrist_2_joint",
        "wrist_3_joint"
    ],
    "metrics": {
        "cart_traj_len": 1.240398844002811,
        "distance_elbow_joint": 0.4006209294719534,
        "distance_shoulder_lift_joint": 0.7562983973812829,
        "distance_shoulder_pan_joint": 1.2410622581191237,
        "distance_wrist_1_joint": 0.7855804068226432,
        "distance_wrist_2_joint": 1.446016270880902,
        "distance_wrist_3_joint": 4.2786420611249785,
        "smoothness": 0.03282263165329892,
        "time": 0.137326866,
        "traj_len": 2.9846641894526234,
        "weighted_distance": 4.438141629528556
    },
    "planner": "KPIECE",
    "start": {
        "state": {
            "elbow_joint": 1.919643534880228,
            "shoulder_lift_joint": -1.8972525353963687,
            "shoulder_pan_joint": -1.1188672234189438,
            "wrist_1_joint": -1.5931878212786155,
            "wrist_2_joint": 1.5706036197970081,
            "wrist_3_joint": 1.118896926603594
        }
    },
    "waypoints": [
        {
            "positions": [
                -1.1188672234189438,
                -1.8972525353963687,
                1.919643534880228,
                -1.5931878212786155,
                1.5706036197970081,
                1.118896926603594
            ]
        },
        {
            "positions": [
                -1.0705811202539313,
                -1.8881799546140436,
                1.9106021772678103,
                -1.5541019239848284,
                1.498989332795481,
                0.9139966742062811
            ]
        },
        {
            "positions": [
                -1.0222950170889187,
                -1.8791073738317188,
                1.9015608196553928,
                -1.515016026691041,
                1.4273750457939538,
                0.7090964218089681
            ]
        },
        {
            "positions": [
                -0.9740089139239061,
                -1.8700347930493937,
                1.892519462042975,
                -1.475930129397254,
                1.3557607587924267,
                0.5041961694116551
            ]
        },
        {
            "positions": [
                -0.9257228107588935,
                -1.8609622122670686,
                1.8834781044305573,
                -1.4368442321034667,
                1.2841464717908995,
                0.2992959170143422
            ]
        },
        {
            "positions": [
                -0.8774367075938809,
                -1.8518896314847437,
                1.8744367468181395,
                -1.3977583348096796,
                1.2125321847893724,
                0.0943956646170292
            ]
        },
        {
            "positions": [
                -0.8291506044288683,
                -1.8428170507024186,
                1.865395389205722,
                -1.3586724375158923,
                1.1409178977878451,
                -0.11050458778028371
            ]
        },
        {
            "positions": [
                -0.7808645012638558,
                -1.8337444699200938,
                1.8563540315933043,
                -1.3195865402221052,
                1.069303610786318,
                -0.3154048401775966
            ]
        },
        {
            "positions": [
                -0.7325783980988432,
                -1.8246718891377687,
                1.8473126739808865,
                -1.280500642928318,
                0.9976893237847909,
                -0.5203050925749095
            ]
        },
        {
            "positions": [
                -0.6842922949338306,
                -1.8155993083554436,
                1.8382713163684687,
                -1.2414147456345308,
                0.9260750367832637,
                -0.7252053449722224
            ]
        },
        {
            "positions": [
                -0.6360061917688179,
                -1.8065267275731187,
                1.8292299587560512,
                -1.2023288483407435,
                0.8544607497817366,
                -0.9301055973695356
            ]
        },
        {
            "positions": [
                -0.5877200886038053,
                -1.7974541467907936,
                1.8201886011436335,
                -1.1632429510469564,
                0.7828464627802093,
                -1.1350058497668487
            ]
        },
        {
            "positions": [
                -0.5394339854387927,
                -1.7883815660084685,
                1.8111472435312157,
                -1.1241570537531693,
                0.7112321757786823,
                -1.3399061021641614
            ]
        },
        {
            "positions": [
                -0.49114788227378003,
                -1.7793089852261437,
                1.802105885918798,
                -1.085071156459382,
                0.639617888777155,
                -1.5448063545614745
            ]
        },
        {
            "positions": [
                -0.44286177910876756,
                -1.7702364044438186,
                1.7930645283063804,
                -1.0459852591655947,
                0.568003601775628,
                -1.7497066069587872
            ]
        },
        {
            "positions": [
                -0.39457567594375487,
                -1.7611638236614935,
                1.7840231706939627,
                -1.0068993618718076,
                0.49638931477410075,
                -1.9546068593561003
            ]
        },
        {
            "positions": [
                -0.3462895727787424,
                -1.7520912428791686,
                1.774981813081545,
                -0.9678134645780204,
                0.4247750277725737,
                -2.1595071117534133
            ]
        },
        {
            "positions": [
                -0.2980034696137297,
                -1.7430186620968435,
                1.7659404554691274,
                -0.9287275672842332,
                0.3531607407710464,
                -2.3644073641507264
            ]
        },
        {
            "positions": [
                -0.24971736644871723,
                -1.7339460813145187,
                1.7568990978567096,
                -0.889641669990446,
                0.28154645376951937,
                -2.5693076165480386
            ]
        },
        {
            "positions": [
                -0.20143126328370448,
                -1.7248735005321936,
                1.7478577402442919,
                -0.8505557726966588,
                0.2099321667679921,
                -2.774207868945352
            ]
        },
        {
            "positions": [
                -0.13670600368692765,
                -1.608089628028772,
                1.7936247672114953,
                -0.8419661010485215,
                0.19286320319761485,
                -2.8513153220605587
            ]
        },
        {
            "positions": [
                -0.07198074409015079,
                -1.4913057555253504,
                1.8393917941786988,
                -0.8333764294003843,
                0.17579423962723764,
                -2.9284227751757648
            ]
        },
        {
            "positions": [
                -0.007255484493373959,
                -1.374521883021929,
                1.885158821145902,
                -0.8247867577522469,
                0.1587252760568604,
                -3.0055302282909713
            ]
        },
        {
            "positions": [
                0.0574697751034029,
                -1.2577380105185074,
                1.9309258481131055,
                -0.8161970861041096,
                0.1416563124864832,
                -3.0826376814061778
            ]
        },
        {
            "positions": [
                0.12219503470017976,
                -1.1409541380150858,
                1.976692875080309,
                -0.8076074144559723,
                0.12458734891610596,
                -3.159745134521384
            ]
        }
    ]
}