{
    "goal": {
        "global_pose": {
            "orientation": {
                "w": 0.7047431468963623,
                "x": -0.7094548344612122,
                "y": 0.0024358443915843964,
                "z": -0.0022348060738295317
            },
            "position": {
                "x": 0.6094750761985779,
                "y": 0.3671506643295288,
                "z": 0.19426114857196808
            }
        },
        "name": "move_to_magneteinheit_A"
    },
    "id": "KPIECE_move_to_magneteinheit_A_30",
    "joint_names": [
        "shoulder_pan_joint",
        "shoulder_lift_joint",
        "elbow_joint",
        "wrist_1_joint",
        "wrist_2_joint",
        "wrist_3_joint"
    ],
    "metrics": {
        "cart_traj_len": 3.3059491812856296,
        "distance_elbow_joint": 3.884648265745553,
        "distance_shoulder_lift_joint": 0.1524108715530097,
        "distance_shoulder_pan_joint": 2.7228062023488007,
        "distance_wrist_1_joint": 1.2033132236596744,
        "distance_wrist_2_joint": 1.701961639483362,
        "distance_wrist_3_joint": 2.620404305966164,
        "smoothness": 0.09262272320536936,
        "time": 0.188318874,
        "traj_len": 3.5050741088822304,
        "weighted_distance": 4.520135836878349
    },
    "planner": "KPIECE",
    "start": {
        "state": {
            "elbow_joint": -1.919618573717145,
            "shoulder_lift_joint": -1.2443395971678275,
            "shoulder_pan_joint": 2.6996025300909787,
            "wrist_1_joint": -1.548550951253194,
            "wrist_2_joint": -1.5709469090946802,
            "wrist_3_joint": 0.4420197732051276
        }
    },
    "waypoints": [
        {
            "positions": [
                2.6996025300909787,
                -1.2443395971678275,
                -1.919618573717145,
                -1.548550951253194,
                -1.5709469090946802,
                0.4420197732051276
            ]
        },
        {
            "positions": [
                2.560460386307054,
                -1.2456961391075052,
                -1.7992847871707855,
                -1.4927993496332241,
                -1.4940377375245277,
                0.4433564980640773
            ]
        },
        {
            "positions": [
                2.4213182425231294,
                -1.247052681047183,
                -1.6789510006244264,
                -1.4370477480132542,
                -1.4171285659543753,
                0.44469322292302704
            ]
        },
        {
            "positions": [
                2.2821760987392046,
                -1.2484092229868609,
                -1.558617214078067,
                -1.3812961463932842,
                -1.3402193943842229,
                0.44602994778197674
            ]
        },
        {
            "positions": [
                2.14303395495528,
                -1.2497657649265386,
                -1.4382834275317076,
                -1.3255445447733143,
                -1.2633102228140702,
                0.44736667264092644
            ]
        },
        {
            "positions": [
                2.0038918111713553,
                -1.2511223068662163,
                -1.3179496409853484,
                -1.2697929431533446,
                -1.1864010512439178,
                0.4487033974998762
            ]
        },
        {
            "positions": [
                1.8647496673874304,
                -1.252478848805894,
                -1.197615854438989,
                -1.2140413415333746,
                -1.1094918796737654,
                0.4500401223588259
            ]
        },
        {
            "positions": [
                1.7256075236035058,
                -1.2538353907455717,
                -1.0772820678926296,
                -1.1582897399134047,
                -1.0325827081036127,
                0.4513768472177756
            ]
        },
        {
            "positions": [
                1.5864653798195811,
                -1.2551919326852494,
                -0.9569482813462703,
                -1.1025381382934347,
                -0.9556735365334604,
                0.45271357207672536
            ]
        },
        {
            "positions": [
                1.4473232360356565,
                -1.2565484746249274,
                -0.836614494799911,
                -1.0467865366734648,
                -0.878764364963308,
                0.45405029693567506
            ]
        },
        {
            "positions": [
                1.3081810922517318,
                -1.257905016564605,
                -0.7162807082535516,
                -0.9910349350534948,
                -0.8018551933931555,
                0.45538702179462476
            ]
        },
        {
            "positions": [
                1.169038948467807,
                -1.2592615585042828,
                -0.5959469217071922,
                -0.935283333433525,
                -0.724946021823003,
                0.45672374665357446
            ]
        },
        {
            "positions": [
                1.0298968046838823,
                -1.2606181004439605,
                -0.47561313516083303,
                -0.879531731813555,
                -0.6480368502528506,
                0.4580604715125242
            ]
        },
        {
            "positions": [
                0.8907546608999577,
                -1.2619746423836382,
                -0.35527934861447363,
                -0.8237801301935851,
                -0.5711276786826981,
                0.4593971963714739
            ]
        },
        {
            "positions": [
                0.7516125171160328,
                -1.2633311843233161,
                -0.23494556206811423,
                -0.7680285285736153,
                -0.49421850711254556,
                0.4607339212304236
            ]
        },
        {
            "positions": [
                0.6124703733321084,
                -1.2646877262629939,
                -0.11461177552175505,
                -0.7122769269536453,
                -0.41730933554239313,
                0.46207064608937337
            ]
        },
        {
            "positions": [
                0.4733282295481837,
                -1.2660442682026716,
                0.005722011024604429,
                -0.6565253253336754,
                -0.34040016397224065,
                0.46340737094832307
            ]
        },
        {
            "positions": [
                0.41291731429187684,
                -1.2564710864061424,
                0.189730590049813,
                -0.6857184716361137,
                -0.3352262128807109,
                0.5621273859491808
            ]
        },
        {
            "positions": [
                0.3525063990355699,
                -1.2468979046096134,
                0.3737391690750216,
                -0.7149116179385518,
                -0.3300522617891812,
                0.6608474009500386
            ]
        },
        {
            "positions": [
                0.29209548377926303,
                -1.2373247228130841,
                0.5577477481002302,
                -0.7441047642409901,
                -0.32487831069765144,
                0.7595674159508963
            ]
        },
        {
            "positions": [
                0.23168456852295613,
                -1.2277515410165551,
                0.7417563271254387,
                -0.7732979105434283,
                -0.31970435960612165,
                0.8582874309517541
            ]
        },
        {
            "positions": [
                0.17127365326664923,
                -1.218178359220026,
                0.9257649061506474,
                -0.8024910568458666,
                -0.3145304085145919,
                0.9570074459526118
            ]
        },
        {
            "positions": [
                0.11086273801034235,
                -1.208605177423497,
                1.1097734851758558,
                -0.8316842031483048,
                -0.30935645742306217,
                1.0557274609534695
            ]
        },
        {
            "positions": [
                0.05045182275403543,
                -1.1990319956269677,
                1.2937820642010645,
                -0.8608773494507431,
                -0.30418250633153243,
                1.1544474759543273
            ]
        },
        {
            "positions": [
                0.0548139860785047,
                -1.1904490308626239,
                1.3900920364048481,
                -0.8590606425771493,
                -0.2642579838741074,
                1.375560463762506
            ]
        },
        {
            "positions": [
                0.05917614940297397,
                -1.1818660660982798,
                1.486402008608632,
                -0.8572439357035556,
                -0.22433346141668248,
                1.5966734515706849
            ]
        },
        {
            "positions": [
                0.06353831272744324,
                -1.173283101333936,
                1.5827119808124155,
                -0.8554272288299618,
                -0.18440893895925747,
                1.8177864393788639
            ]
        },
        {
            "positions": [
                0.0679004760519125,
                -1.164700136569592,
                1.6790219530161994,
                -0.8536105219563681,
                -0.1444844165018325,
                2.038899427187043
            ]
        },
        {
            "positions": [
                0.07226263937638178,
                -1.156117171805248,
                1.775331925219983,
                -0.8517938150827743,
                -0.10455989404440753,
                2.2600124149952214
            ]
        },
        {
            "positions": [
                0.08522380897375936,
                -1.1509223957750625,
                1.8227563669220896,
                -0.8273308052689944,
                -0.04566623793613518,
                2.460615331039239
            ]
        },
        {
            "positions": [
                0.09818497857113694,
                -1.1457276197448771,
                1.8701808086241962,
                -0.8028677954552146,
                0.01322741817213717,
                2.661218247083257
            ]
        },
        {
            "positions": [
                0.11114614816851451,
                -1.1405328437146915,
                1.9176052503263028,
                -0.7784047856414347,
                0.07212107428040952,
                2.8618211631272743
            ]
        },
        {
            "positions": [
                0.1241073177658921,
                -1.135338067684506,
                1.9650296920284094,
                -0.7539417758276548,
                0.1310147303886819,
                3.062424079171292
            ]
        }
    ]
}{
    "goal": {
        "global_pose": {
            "orientation": {
                "w": 0.7047431468963623,
                "x": -0.7094548344612122,
                "y": 0.0024358443915843964,
                "z": -0.0022348060738295317
            },
            "position": {
                "x": 0.6094750761985779,
                "y": 0.3671506643295288,
                "z": 0.19426114857196808
            }
        },
        "name": "move_to_magneteinheit_A"
    },
    "id": "KPIECE_move_to_magneteinheit_A_30",
    "joint_names": [
        "shoulder_pan_joint",
        "shoulder_lift_joint",
        "elbow_joint",
        "wrist_1_joint",
        "wrist_2_joint",
        "wrist_3_joint"
    ],
    "metrics": {
        "cart_traj_len": 1.2214850242606579,
        "distance_elbow_joint": 0.03442980420116504,
        "distance_shoulder_lift_joint": 0.7812086116409649,
        "distance_shoulder_pan_joint": 1.242349810399011,
        "distance_wrist_1_joint": 0.9177898241060507,
        "distance_wrist_2_joint": 1.4449626668934765,
        "distance_wrist_3_joint": 4.376816464585631,
        "smoothness": 0.12733982726020857,
        "time": 0.15242458199999998,
        "traj_len": 2.966067629341297,
        "weighted_distance": 4.462504073051036
    },
    "planner": "KPIECE",
    "start": {
        "state": {
            "elbow_joint": 1.919643534880228,
            "shoulder_lift_joint": -1.8972525353963687,
            "shoulder_pan_joint": -1.1188672234189438,
            "wrist_1_joint": -1.5931878212786155,
            "wrist_2_joint": 1.5706036197970081,
            "wrist_3_joint": 1.118896926603594
        }
    },
    "waypoints": [
        {
            "positions": [
                -1.1188672234189438,
                -1.8972525353963687,
                1.919643534880228,
                -1.5931878212786155,
                1.5706036197970081,
                1.118896926603594
            ]
        },
        {
            "positions": [
                -1.063181162133999,
                -1.8619960664061088,
                1.919593615592201,
                -1.5519625753337143,
                1.5054912428241753,
                0.9215506338953642
            ]
        },
        {
            "positions": [
                -1.0074951008490545,
                -1.826739597415849,
                1.919543696304174,
                -1.5107373293888133,
                1.4403788658513428,
                0.7242043411871344
            ]
        },
        {
            "positions": [
                -0.9518090395641097,
                -1.791483128425589,
                1.919493777016147,
                -1.4695120834439122,
                1.37526648887851,
                0.5268580484789046
            ]
        },
        {
            "positions": [
                -0.8961229782791649,
                -1.7562266594353293,
                1.91944385772812,
                -1.4282868374990112,
                1.3101541119056774,
                0.3295117557706747
            ]
        },
        {
            "positions": [
                -0.8404369169942203,
                -1.7209701904450694,
                1.919393938440093,
                -1.38706159155411,
                1.2450417349328446,
                0.13216546306244503
            ]
        },
        {
            "positions": [
                -0.7847508557092755,
                -1.6857137214548095,
                1.919344019152066,
                -1.345836345609209,
                1.179929357960012,
                -0.06518082964578475
            ]
        },
        {
            "positions": [
                -0.7290647944243307,
                -1.6504572524645496,
                1.919294099864039,
                -1.3046110996643079,
                1.1148169809871793,
                -0.26252712235401465
            ]
        },
        {
            "positions": [
                -0.673378733139386,
                -1.6152007834742896,
                1.919244180576012,
                -1.2633858537194067,
                1.0497046040143467,
                -0.45987341506224455
            ]
        },
        {
            "positions": [
                -0.6176926718544412,
                -1.5799443144840297,
                1.919194261287985,
                -1.2221606077745057,
                0.984592227041514,
                -0.6572197077704742
            ]
        },
        {
            "positions": [
                -0.5620066105694966,
                -1.5446878454937698,
                1.919144341999958,
                -1.1809353618296048,
                0.9194798500686813,
                -0.8545660004787039
            ]
        },
        {
            "positions": [
                -0.5063205492845518,
                -1.50943137650351,
                1.919094422711931,
                -1.1397101158847036,
                0.8543674730958486,
                -1.0519122931869338
            ]
        },
        {
            "positions": [
                -0.45063448799960715,
                -1.4741749075132502,
                1.9190445034239043,
                -1.0984848699398024,
                0.7892550961230159,
                -1.2492585858951635
            ]
        },
        {
            "positions": [
                -0.39494842671466235,
                -1.4389184385229903,
                1.9189945841358773,
                -1.0572596239949013,
                0.7241427191501831,
                -1.4466048786033936
            ]
        },
        {
            "positions": [
                -0.33926236542971766,
                -1.4036619695327304,
                1.9189446648478503,
                -1.0160343780500003,
                0.6590303421773506,
                -1.6439511713116233
            ]
        },
        {
            "positions": [
                -0.283576304144773,
                -1.3684055005424705,
                1.9188947455598233,
                -0.9748091321050992,
                0.5939179652045179,
                -1.841297464019853
            ]
        },
        {
            "positions": [
                -0.22789024285982817,
                -1.3331490315522105,
                1.9188448262717963,
                -0.9335838861601982,
                0.5288055882316851,
                -2.0386437567280833
            ]
        },
        {
            "positions": [
                -0.17220418157488349,
                -1.2978925625619508,
                1.9187949069837693,
                -0.8923586402152971,
                0.46369321125885254,
                -2.235990049436312
            ]
        },
        {
            "positions": [
                -0.11651812028993858,
                -1.262636093571691,
                1.9187449876957423,
                -0.8511333942703959,
                0.39858083428601976,
                -2.4333363421445426
            ]
        },
        {
            "positions": [
                -0.060832059004994,
                -1.227379624581431,
                1.9186950684077153,
                -0.8099081483254948,
                0.3334684573131872,
                -2.6306826348527723
            ]
        },
        {
            "positions": [
                -0.005145997720049422,
                -1.192123155591171,
                1.9186451491196883,
                -0.7686829023805939,
                0.2683560803403544,
                -2.828028927561002
            ]
        },
        {
            "positions": [
                0.0505400635648956,
                -1.1568666866009112,
                1.9185952298316613,
                -0.7274576564356927,
                0.20324370336752162,
                -3.0253752202692317
            ]
        },
        {
            "positions": [
                0.10622612484984016,
                -1.1216102176106513,
                1.9185453105436343,
                -0.6862324104907916,
                0.13813132639468895,
                -3.2227215129774613
            ]
        },
        {
            "positions": [
                0.12348258698006703,
                -1.1271765114658987,
                1.9518768904082056,
                -0.6970668238090185,
                0.12564095290353144,
                -3.257919537982037
            ]
        }
    ]
}