{
    "goal": {
        "global_pose": {
            "orientation": {
                "w": 0.5084816217422485,
                "x": -0.49083608388900757,
                "y": 0.5182115435600281,
                "z": -0.4816462993621826
            },
            "position": {
                "x": 0.5540239810943604,
                "y": 0.030875300988554955,
                "z": 0.16403168439865112
            }
        },
        "name": "move_to_storage_A"
    },
    "id": "KPIECE_move_to_storage_A_141",
    "joint_names": [
        "shoulder_pan_joint",
        "shoulder_lift_joint",
        "elbow_joint",
        "wrist_1_joint",
        "wrist_2_joint",
        "wrist_3_joint"
    ],
    "metrics": {
        "cart_traj_len": 0.35365764261242094,
        "distance_elbow_joint": 0.453444137710874,
        "distance_shoulder_lift_joint": 0.23468803576758757,
        "distance_shoulder_pan_joint": 0.46076377504939225,
        "distance_wrist_1_joint": 0.2566176765799756,
        "distance_wrist_2_joint": 1.107753180359298,
        "distance_wrist_3_joint": 0.09756026063937506,
        "smoothness": 2.2204460668324854e-16,
        "time": 0.050313923999999996,
        "traj_len": 1.6158053923992526,
        "weighted_distance": 2.042135755606009
    },
    "planner": "KPIECE",
    "start": {
        "state": {
            "elbow_joint": 1.9715477243005601,
            "shoulder_lift_joint": -1.1394853015351272,
            "shoulder_pan_joint": 0.12281154014795169,
            "wrist_1_joint": -0.7804696478968182,
            "wrist_2_joint": 0.12958648046900423,
            "wrist_3_joint": -3.192491284697111
        }
    },
    "waypoints": [
        {
            "positions": [
                0.12281154014795169,
                -1.1394853015351272,
                1.9715477243005601,
                -0.7804696478968182,
                0.12958648046900423,
                -3.192491284697111
            ]
        },
        {
            "positions": [
                0.05698814371232423,
                -1.1730121637876396,
                2.0363254582592565,
                -0.8171293159796719,
                0.2878369348060468,
                -3.1785541046057717
            ]
        },
        {
            "positions": [
                -0.008835252723303225,
                -1.2065390260401523,
                2.101103192217953,
                -0.8537889840625255,
                0.4460873891430893,
                -3.1646169245144327
            ]
        },
        {
            "positions": [
                -0.07465864915893068,
                -1.2400658882926647,
                2.165880926176649,
                -0.8904486521453792,
                0.6043378434801319,
                -3.150679744423093
            ]
        },
        {
            "positions": [
                -0.14048204559455812,
                -1.2735927505451772,
                2.230658660135345,
                -0.9271083202282328,
                0.7625882978171744,
                -3.136742564331754
            ]
        },
        {
            "positions": [
                -0.20630544203018564,
                -1.3071196127976896,
                2.2954363940940414,
                -0.9637679883110865,
                0.9208387521542171,
                -3.1228053842404147
            ]
        },
        {
            "positions": [
                -0.27212883846581304,
                -1.3406464750502023,
                2.360214128052738,
                -1.00042765639394,
                1.0790892064912594,
                -3.1088682041490756
            ]
        },
        {
            "positions": [
                -0.33795223490144055,
                -1.3741733373027147,
                2.424991862011434,
                -1.0370873244767937,
                1.2373396608283023,
                -3.094931024057736
            ]
        }
    ]
}