{
    "goal": {
        "global_pose": {
            "orientation": {
                "w": 0.7047431468963623,
                "x": -0.7094548344612122,
                "y": 0.0024358443915843964,
                "z": -0.0022348060738295317
            },
            "position": {
                "x": 0.6094750761985779,
                "y": 0.3671506643295288,
                "z": 0.19426114857196808
            }
        },
        "name": "move_to_magneteinheit_A"
    },
    "id": "KPIECE_move_to_magneteinheit_A_44",
    "joint_names": [
        "shoulder_pan_joint",
        "shoulder_lift_joint",
        "elbow_joint",
        "wrist_1_joint",
        "wrist_2_joint",
        "wrist_3_joint"
    ],
    "metrics": {
        "cart_traj_len": 3.096829210278684,
        "distance_elbow_joint": 3.9215990838871577,
        "distance_shoulder_lift_joint": 0.4631306913137818,
        "distance_shoulder_pan_joint": 2.9918355445641067,
        "distance_wrist_1_joint": 3.508999347303944,
        "distance_wrist_2_joint": 1.4475569846013356,
        "distance_wrist_3_joint": 0.6152963522479517,
        "smoothness": 0.07372974323992508,
        "time": 0.209538938,
        "traj_len": 3.598391029879642,
        "weighted_distance": 4.374421909272065
    },
    "planner": "KPIECE",
    "start": {
        "state": {
            "elbow_joint": -1.919618573717145,
            "shoulder_lift_joint": -1.2443395971678275,
            "shoulder_pan_joint": 2.6996025300909787,
            "wrist_1_joint": -1.548550951253194,
            "wrist_2_joint": -1.5709469090946802,
            "wrist_3_joint": 0.4420197732051276
        }
    },
    "waypoints": [
        {
            "positions": [
                2.6996025300909787,
                -1.2443395971678275,
                -1.919618573717145,
                -1.548550951253194,
                -1.5709469090946802,
                0.4420197732051276
            ]
        },
        {
            "positions": [
                2.5925048483091815,
                -1.2432982483615722,
                -1.7832477312516375,
                -1.4477502651211815,
                -1.5248342565541155,
                0.44469765596770233
            ]
        },
        {
            "positions": [
                2.485407166527384,
                -1.2422568995553172,
                -1.64687688878613,
                -1.3469495789891688,
                -1.478721604013551,
                0.4473755387302771
            ]
        },
        {
            "positions": [
                2.3783094847455866,
                -1.2412155507490619,
                -1.5105060463206226,
                -1.2461488928571562,
                -1.4326089514729863,
                0.45005342149285177
            ]
        },
        {
            "positions": [
                2.2712118029637893,
                -1.2401742019428066,
                -1.3741352038551151,
                -1.1453482067251437,
                -1.3864962989324217,
                0.4527313042554265
            ]
        },
        {
            "positions": [
                2.164114121181992,
                -1.2391328531365515,
                -1.2377643613896077,
                -1.044547520593131,
                -1.340383646391857,
                0.45540918701800126
            ]
        },
        {
            "positions": [
                2.0570164394001944,
                -1.2380915043302962,
                -1.1013935189241004,
                -0.9437468344611184,
                -1.2942709938512924,
                0.458087069780576
            ]
        },
        {
            "positions": [
                1.9499187576183972,
                -1.237050155524041,
                -0.9650226764585929,
                -0.8429461483291059,
                -1.248158341310728,
                0.46076495254315075
            ]
        },
        {
            "positions": [
                1.8428210758365997,
                -1.236008806717786,
                -0.8286518339930853,
                -0.7421454621970932,
                -1.2020456887701634,
                0.4634428353057255
            ]
        },
        {
            "positions": [
                1.7357233940548022,
                -1.2349674579115306,
                -0.692280991527578,
                -0.6413447760650807,
                -1.1559330362295988,
                0.4661207180683002
            ]
        },
        {
            "positions": [
                1.628625712273005,
                -1.2339261091052753,
                -0.5559101490620704,
                -0.540544089933068,
                -1.1098203836890341,
                0.46879860083087493
            ]
        },
        {
            "positions": [
                1.5215280304912076,
                -1.2328847602990203,
                -0.41953930659656313,
                -0.4397434038010555,
                -1.0637077311484697,
                0.4714764835934497
            ]
        },
        {
            "positions": [
                1.41443034870941,
                -1.231843411492765,
                -0.2831684641310557,
                -0.3389427176690427,
                -1.0175950786079049,
                0.4741543663560244
            ]
        },
        {
            "positions": [
                1.3073326669276129,
                -1.23080206268651,
                -0.14679762166554822,
                -0.23814203153703017,
                -0.9714824260673404,
                0.4768322491185991
            ]
        },
        {
            "positions": [
                1.2002349851458156,
                -1.2297607138802547,
                -0.010426779200040759,
                -0.13734134540501763,
                -0.9253697735267759,
                0.47951013188117386
            ]
        },
        {
            "positions": [
                1.0931373033640182,
                -1.2287193650739994,
                0.12594406326546648,
                -0.036540659273005094,
                -0.8792571209862112,
                0.4821880146437486
            ]
        },
        {
            "positions": [
                0.9860396215822207,
                -1.2276780162677443,
                0.2623149057309744,
                0.06426002685900767,
                -0.8331444684456465,
                0.48486589740632335
            ]
        },
        {
            "positions": [
                0.8789419398004232,
                -1.226636667461489,
                0.3986857481964814,
                0.1650607129910202,
                -0.787031815905082,
                0.4875437801688981
            ]
        },
        {
            "positions": [
                0.771844258018626,
                -1.2255953186552337,
                0.5350565906619889,
                0.26586139912303275,
                -0.7409191633645174,
                0.49022166293147285
            ]
        },
        {
            "positions": [
                0.6647465762368285,
                -1.2245539698489787,
                0.6714274331274963,
                0.3666620852550453,
                -0.6948065108239528,
                0.49289954569404754
            ]
        },
        {
            "positions": [
                0.5576488944550313,
                -1.2235126210427234,
                0.8077982755930042,
                0.46746277138705805,
                -0.6486938582833881,
                0.4955774284566223
            ]
        },
        {
            "positions": [
                0.4505512126732336,
                -1.2224712722364681,
                0.9441691180585112,
                0.5682634575190706,
                -0.6025812057428236,
                0.49825531121919703
            ]
        },
        {
            "positions": [
                0.3434535308914364,
                -1.221429923430213,
                1.0805399605240187,
                0.6690641436510831,
                -0.5564685532022591,
                0.5009331939817717
            ]
        },
        {
            "positions": [
                0.23635584910963914,
                -1.2203885746239578,
                1.2169108029895261,
                0.7698648297830957,
                -0.5103559006616945,
                0.5036110767443465
            ]
        },
        {
            "positions": [
                0.12925816732784146,
                -1.2193472258177025,
                1.3532816454550336,
                0.8706655159151087,
                -0.4642432481211296,
                0.5062889595069212
            ]
        },
        {
            "positions": [
                0.022160485546044217,
                -1.2183058770114474,
                1.489652487920541,
                0.9714662020471212,
                -0.4181305955805652,
                0.508966842269496
            ]
        },
        {
            "positions": [
                -0.08493719623575317,
                -1.2172645282051922,
                1.6260233303860485,
                1.0722668881791335,
                -0.37201794304000063,
                0.5116447250320707
            ]
        },
        {
            "positions": [
                -0.05688473273429007,
                -1.155842527032929,
                1.6798418446507097,
                1.1978101697540446,
                -0.3375912422759028,
                0.436218220188185
            ]
        },
        {
            "positions": [
                -0.028832269232826953,
                -1.0944205258606656,
                1.733660358915371,
                1.3233534513289555,
                -0.30316454151180494,
                0.3607917153442993
            ]
        },
        {
            "positions": [
                -0.000779805731363839,
                -1.0329985246884021,
                1.7874788731800324,
                1.4488967329038664,
                -0.2687378407477071,
                0.28536521050041364
            ]
        },
        {
            "positions": [
                0.027272657770099268,
                -0.971576523516139,
                1.8412973874446936,
                1.5744400144787776,
                -0.2343111399836093,
                0.209938705656528
            ]
        },
        {
            "positions": [
                0.0553251212715624,
                -0.9101545223438756,
                1.8951159017093548,
                1.6999832960536887,
                -0.19988443921951146,
                0.1345122008126423
            ]
        },
        {
            "positions": [
                0.08337758477302548,
                -0.8487325211716124,
                1.948934415974016,
                1.8255265776285996,
                -0.16545773845541364,
                0.059085695968756624
            ]
        },
        {
            "positions": [
                0.10286810338732343,
                -0.814970713512829,
                1.9754574630720145,
                1.8929874868396743,
                -0.1444238314743792,
                0.012529510289909417
            ]
        },
        {
            "positions": [
                0.12235862200162137,
                -0.7812089058540457,
                2.001980510170013,
                1.960448396050749,
                -0.1233899244933448,
                -0.03402667538893779
            ]
        }
    ]
}{
    "goal": {
        "global_pose": {
            "orientation": {
                "w": 0.7047431468963623,
                "x": -0.7094548344612122,
                "y": 0.0024358443915843964,
                "z": -0.0022348060738295317
            },
            "position": {
                "x": 0.6094750761985779,
                "y": 0.3671506643295288,
                "z": 0.19426114857196808
            }
        },
        "name": "move_to_magneteinheit_A"
    },
    "id": "KPIECE_move_to_magneteinheit_A_44",
    "joint_names": [
        "shoulder_pan_joint",
        "shoulder_lift_joint",
        "elbow_joint",
        "wrist_1_joint",
        "wrist_2_joint",
        "wrist_3_joint"
    ],
    "metrics": {
        "cart_traj_len": 1.7639399522945116,
        "distance_elbow_joint": 1.2002025401953056,
        "distance_shoulder_lift_joint": 1.2380907084242156,
        "distance_shoulder_pan_joint": 1.240303478996571,
        "distance_wrist_1_joint": 0.7727958980996918,
        "distance_wrist_2_joint": 2.6885467382297903,
        "distance_wrist_3_joint": 4.278995294352175,
        "smoothness": 0.24888949438814323,
        "time": 0.084817591,
        "traj_len": 3.3791914207836387,
        "weighted_distance": 4.841308488759168
    },
    "planner": "KPIECE",
    "start": {
        "state": {
            "elbow_joint": 1.919643534880228,
            "shoulder_lift_joint": -1.8972525353963687,
            "shoulder_pan_joint": -1.1188672234189438,
            "wrist_1_joint": -1.5931878212786155,
            "wrist_2_joint": 1.5706036197970081,
            "wrist_3_joint": 1.118896926603594
        }
    },
    "waypoints": [
        {
            "positions": [
                -1.1188672234189438,
                -1.8972525353963687,
                1.919643534880228,
                -1.5931878212786155,
                1.5706036197970081,
                1.118896926603594
            ]
        },
        {
            "positions": [
                -1.0897112044031512,
                -1.9215495176554669,
                1.8626991810238722,
                -1.5931768853456696,
                1.3641175592449388,
                1.0725354940658693
            ]
        },
        {
            "positions": [
                -1.0605551853873585,
                -1.9458464999145653,
                1.8057548271675163,
                -1.593165949412724,
                1.1576314986928695,
                1.0261740615281445
            ]
        },
        {
            "positions": [
                -1.0313991663715658,
                -1.9701434821736634,
                1.7488104733111605,
                -1.593155013479778,
                0.9511454381408001,
                0.9798126289904199
            ]
        },
        {
            "positions": [
                -1.0022431473557734,
                -1.9944404644327616,
                1.6918661194548044,
                -1.5931440775468322,
                0.7446593775887307,
                0.9334511964526951
            ]
        },
        {
            "positions": [
                -0.9730871283399807,
                -2.0187374466918597,
                1.6349217655984485,
                -1.5931331416138863,
                0.5381733170366614,
                0.8870897639149704
            ]
        },
        {
            "positions": [
                -0.943931109324188,
                -2.043034428950958,
                1.5779774117420926,
                -1.5931222056809407,
                0.3316872564845921,
                0.8407283313772458
            ]
        },
        {
            "positions": [
                -0.9147750903083953,
                -2.0673314112100565,
                1.5210330578857367,
                -1.5931112697479948,
                0.12520119593252277,
                0.7943668988395209
            ]
        },
        {
            "positions": [
                -0.8856190712926026,
                -2.0916283934691546,
                1.4640887040293808,
                -1.593100333815049,
                -0.08128486461954676,
                0.7480054663017963
            ]
        },
        {
            "positions": [
                -0.85646305227681,
                -2.115925375728253,
                1.407144350173025,
                -1.5930893978821032,
                -0.28777092517161607,
                0.7016440337640715
            ]
        },
        {
            "positions": [
                -0.8273070332610174,
                -2.140222357987351,
                1.350199996316669,
                -1.5930784619491574,
                -0.4942569857236853,
                0.6552826012263469
            ]
        },
        {
            "positions": [
                -0.7798698688190852,
                -2.090466313695689,
                1.3817379463982564,
                -1.5544441350106457,
                -0.4630726790882306,
                0.4645135527776004
            ]
        },
        {
            "positions": [
                -0.732432704377153,
                -2.0407102694040278,
                1.4132758964798438,
                -1.515809808072134,
                -0.43188837245277584,
                0.273744504328854
            ]
        },
        {
            "positions": [
                -0.6849955399352208,
                -1.990954225112366,
                1.444813846561431,
                -1.4771754811336224,
                -0.40070406581732115,
                0.08297545588010768
            ]
        },
        {
            "positions": [
                -0.6375583754932885,
                -1.9411981808207042,
                1.4763517966430184,
                -1.4385411541951105,
                -0.3695197591818664,
                -0.10779359256863885
            ]
        },
        {
            "positions": [
                -0.5901212110513563,
                -1.8914421365290426,
                1.5078897467246057,
                -1.3999068272565989,
                -0.3383354525464117,
                -0.29856264101738517
            ]
        },
        {
            "positions": [
                -0.5426840466094242,
                -1.841686092237381,
                1.539427696806193,
                -1.3612725003180872,
                -0.30715114591095694,
                -0.4893316894661315
            ]
        },
        {
            "positions": [
                -0.49524688216749196,
                -1.7919300479457192,
                1.5709656468877804,
                -1.3226381733795756,
                -0.27596683927550225,
                -0.6801007379148778
            ]
        },
        {
            "positions": [
                -0.44780971772555966,
                -1.7421740036540576,
                1.6025035969693677,
                -1.284003846441064,
                -0.24478253264004748,
                -0.8708697863636246
            ]
        },
        {
            "positions": [
                -0.4003725532836275,
                -1.6924179593623958,
                1.634041547050955,
                -1.2453695195025523,
                -0.21359822600459277,
                -1.0616388348123709
            ]
        },
        {
            "positions": [
                -0.3529353888416953,
                -1.6426619150707342,
                1.6655794971325424,
                -1.2067351925640404,
                -0.18241391936913803,
                -1.2524078832611172
            ]
        },
        {
            "positions": [
                -0.30549822439976304,
                -1.5929058707790724,
                1.6971174472141297,
                -1.1681008656255287,
                -0.1512296127336833,
                -1.443176931709864
            ]
        },
        {
            "positions": [
                -0.2580610599578309,
                -1.543149826487411,
                1.728655397295717,
                -1.129466538687017,
                -0.12004530609822861,
                -1.6339459801586098
            ]
        },
        {
            "positions": [
                -0.21062389551589866,
                -1.4933937821957493,
                1.7601933473773044,
                -1.0908322117485054,
                -0.08886099946277382,
                -1.8247150286073566
            ]
        },
        {
            "positions": [
                -0.16318673107396653,
                -1.4436377379040874,
                1.7917312974588917,
                -1.0521978848099938,
                -0.05767669282731913,
                -2.0154840770561027
            ]
        },
        {
            "positions": [
                -0.11574956663203417,
                -1.3938816936124259,
                1.823269247540479,
                -1.0135635578714821,
                -0.026492386191864392,
                -2.2062531255048494
            ]
        },
        {
            "positions": [
                -0.06831240219010193,
                -1.3441256493207643,
                1.8548071976220664,
                -0.9749292309329703,
                0.004691920443590347,
                -2.397022173953596
            ]
        },
        {
            "positions": [
                -0.020875237748169795,
                -1.2943696050291025,
                1.8863451477036537,
                -0.9362949039944587,
                0.03587622707904509,
                -2.587791222402342
            ]
        },
        {
            "positions": [
                0.02656192669376245,
                -1.2446135607374407,
                1.917883097785241,
                -0.8976605770559469,
                0.06706053371449977,
                -2.778560270851089
            ]
        },
        {
            "positions": [
                0.07399909113569458,
                -1.1948575164457793,
                1.9494210478668283,
                -0.8590262501174354,
                0.09824484034995445,
                -2.9693293192998347
            ]
        },
        {
            "positions": [
                0.12143625557762677,
                -1.1451014721541175,
                1.9809589979484157,
                -0.8203919231789236,
                0.1294291469854093,
                -3.160098367748581
            ]
        }
    ]
}