{
    "goal": {
        "global_pose": {
            "orientation": {
                "w": 0.5084816217422485,
                "x": -0.49083608388900757,
                "y": 0.5182115435600281,
                "z": -0.4816462993621826
            },
            "position": {
                "x": 0.5540239810943604,
                "y": 0.030875300988554955,
                "z": 0.16403168439865112
            }
        },
        "name": "move_to_storage_A"
    },
    "id": "KPIECE_move_to_storage_A_65",
    "joint_names": [
        "shoulder_pan_joint",
        "shoulder_lift_joint",
        "elbow_joint",
        "wrist_1_joint",
        "wrist_2_joint",
        "wrist_3_joint"
    ],
    "metrics": {
        "cart_traj_len": 0.3533915037521169,
        "distance_elbow_joint": 0.45104251868284395,
        "distance_shoulder_lift_joint": 0.23671009404785393,
        "distance_shoulder_pan_joint": 0.4592218817460173,
        "distance_wrist_1_joint": 0.2429413808373383,
        "distance_wrist_2_joint": 1.1131863332857983,
        "distance_wrist_3_joint": 0.09974284577231574,
        "smoothness": 2.2204460668324854e-16,
        "time": 0.065731121,
        "traj_len": 1.613333522360509,
        "weighted_distance": 2.039229869347724
    },
    "planner": "KPIECE",
    "start": {
        "state": {
            "elbow_joint": 1.9715477243005601,
            "shoulder_lift_joint": -1.1394853015351272,
            "shoulder_pan_joint": 0.12281154014795169,
            "wrist_1_joint": -0.7804696478968182,
            "wrist_2_joint": 0.12958648046900423,
            "wrist_3_joint": -3.192491284697111
        }
    },
    "waypoints": [
        {
            "positions": [
                0.12281154014795169,
                -1.1394853015351272,
                1.9715477243005601,
                -0.7804696478968182,
                0.12958648046900423,
                -3.192491284697111
            ]
        },
        {
            "positions": [
                0.05720841418423493,
                -1.1733010292562491,
                2.0359823698266806,
                -0.8151755594450093,
                0.28861309950983255,
                -3.1782423067296377
            ]
        },
        {
            "positions": [
                -0.008394711779481825,
                -1.207116756977371,
                2.1004170153528015,
                -0.8498814709932005,
                0.44763971855066087,
                -3.1639933287621638
            ]
        },
        {
            "positions": [
                -0.07399783774319858,
                -1.240932484698493,
                2.164851660878922,
                -0.8845873825413917,
                0.6066663375914891,
                -3.1497443507946903
            ]
        },
        {
            "positions": [
                -0.13960096370691533,
                -1.274748212419615,
                2.2292863064050423,
                -0.9192932940895829,
                0.7656929566323175,
                -3.1354953728272164
            ]
        },
        {
            "positions": [
                -0.20520408967063208,
                -1.3085639401407372,
                2.2937209519311628,
                -0.9539992056377741,
                0.9247195756731459,
                -3.121246394859743
            ]
        },
        {
            "positions": [
                -0.27080721563434884,
                -1.3423796678618591,
                2.3581555974572836,
                -0.9887051171859653,
                1.0837461947139742,
                -3.106997416892269
            ]
        },
        {
            "positions": [
                -0.3364103415980656,
                -1.376195395582981,
                2.422590242983404,
                -1.0234110287341565,
                1.2427728137548024,
                -3.0927484389247955
            ]
        }
    ]
}