{
    "goal": {
        "global_pose": {
            "orientation": {
                "w": 0.5084816217422485,
                "x": -0.49083608388900757,
                "y": 0.5182115435600281,
                "z": -0.4816462993621826
            },
            "position": {
                "x": 0.5540239810943604,
                "y": 0.030875300988554955,
                "z": 0.16403168439865112
            }
        },
        "name": "move_to_storage_A"
    },
    "id": "KPIECE_move_to_storage_A_46",
    "joint_names": [
        "shoulder_pan_joint",
        "shoulder_lift_joint",
        "elbow_joint",
        "wrist_1_joint",
        "wrist_2_joint",
        "wrist_3_joint"
    ],
    "metrics": {
        "cart_traj_len": 0.3533006676797186,
        "distance_elbow_joint": 0.45226318747227223,
        "distance_shoulder_lift_joint": 0.23552400597093515,
        "distance_shoulder_pan_joint": 0.46016131815199185,
        "distance_wrist_1_joint": 0.24841682501798845,
        "distance_wrist_2_joint": 1.1081501207739235,
        "distance_wrist_3_joint": 0.10485312219773579,
        "smoothness": 8.881784197001252e-16,
        "time": 0.011851262999999999,
        "traj_len": 1.615354010607225,
        "weighted_distance": 2.04343871201762
    },
    "planner": "KPIECE",
    "start": {
        "state": {
            "elbow_joint": 1.9715477243005601,
            "shoulder_lift_joint": -1.1394853015351272,
            "shoulder_pan_joint": 0.12281154014795169,
            "wrist_1_joint": -0.7804696478968182,
            "wrist_2_joint": 0.12958648046900423,
            "wrist_3_joint": -3.192491284697111
        }
    },
    "waypoints": [
        {
            "positions": [
                0.12281154014795169,
                -1.1394853015351272,
                1.9715477243005601,
                -0.7804696478968182,
                0.12958648046900423,
                -3.192491284697111
            ]
        },
        {
            "positions": [
                0.05707420898338143,
                -1.1731315881024036,
                2.0361567510823133,
                -0.8159577657565308,
                0.2878936405795647,
                -3.177512267240292
            ]
        },
        {
            "positions": [
                -0.008663122181188823,
                -1.20677787466968,
                2.1007657778640665,
                -0.8514458836162434,
                0.4462008006901252,
                -3.1625332497834724
            ]
        },
        {
            "positions": [
                -0.07440045334575908,
                -1.2404241612369564,
                2.1653748046458197,
                -0.886934001475956,
                0.6045079608006857,
                -3.147554232326653
            ]
        },
        {
            "positions": [
                -0.14013778451032932,
                -1.2740704478042328,
                2.229983831427573,
                -0.9224221193356688,
                0.7628151209112461,
                -3.1325752148698336
            ]
        },
        {
            "positions": [
                -0.20587511567489963,
                -1.3077167343715095,
                2.294592858209326,
                -0.9579102371953814,
                0.9211222810218067,
                -3.117596197413014
            ]
        },
        {
            "positions": [
                -0.27161244683946983,
                -1.341363020938786,
                2.359201884991079,
                -0.993398355055094,
                1.0794294411323673,
                -3.102617179956195
            ]
        },
        {
            "positions": [
                -0.33734977800404015,
                -1.3750093075060623,
                2.4238109117728324,
                -1.0288864729148066,
                1.2377366012429276,
                -3.0876381624993754
            ]
        }
    ]
}