{
    "goal": {
        "global_pose": {
            "orientation": {
                "w": 0.7047431468963623,
                "x": -0.7094548344612122,
                "y": 0.0024358443915843964,
                "z": -0.0022348060738295317
            },
            "position": {
                "x": 0.6094750761985779,
                "y": 0.3671506643295288,
                "z": 0.19426114857196808
            }
        },
        "name": "move_to_magneteinheit_A"
    },
    "id": "KPIECE_move_to_magneteinheit_A_25",
    "joint_names": [
        "shoulder_pan_joint",
        "shoulder_lift_joint",
        "elbow_joint",
        "wrist_1_joint",
        "wrist_2_joint",
        "wrist_3_joint"
    ],
    "metrics": {
        "cart_traj_len": 3.299396527983197,
        "distance_elbow_joint": 5.065949014903225,
        "distance_shoulder_lift_joint": 0.5236487466111689,
        "distance_shoulder_pan_joint": 3.8154411001597976,
        "distance_wrist_1_joint": 3.536881217944596,
        "distance_wrist_2_joint": 1.4368388156578005,
        "distance_wrist_3_joint": 1.8630027335919208,
        "smoothness": 0.43225722736632777,
        "time": 0.086289179,
        "traj_len": 4.030106900426899,
        "weighted_distance": 4.994145285196932
    },
    "planner": "KPIECE",
    "start": {
        "state": {
            "elbow_joint": -1.919618573717145,
            "shoulder_lift_joint": -1.2443395971678275,
            "shoulder_pan_joint": 2.6996025300909787,
            "wrist_1_joint": -1.548550951253194,
            "wrist_2_joint": -1.5709469090946802,
            "wrist_3_joint": 0.4420197732051276
        }
    },
    "waypoints": [
        {
            "positions": [
                2.6996025300909787,
                -1.2443395971678275,
                -1.919618573717145,
                -1.548550951253194,
                -1.5709469090946802,
                0.4420197732051276
            ]
        },
        {
            "positions": [
                2.6082914561202974,
                -1.24526848417683,
                -1.7910896125135196,
                -1.4537620910826032,
                -1.5343785542898785,
                0.40811510844763144
            ]
        },
        {
            "positions": [
                2.5169803821496157,
                -1.2461973711858325,
                -1.6625606513098943,
                -1.3589732309120124,
                -1.4978101994850768,
                0.3742104436901353
            ]
        },
        {
            "positions": [
                2.4256693081789344,
                -1.2471262581948348,
                -1.534031690106269,
                -1.2641843707414215,
                -1.4612418446802748,
                0.34030577893263914
            ]
        },
        {
            "positions": [
                2.334358234208253,
                -1.2480551452038373,
                -1.4055027289026436,
                -1.1693955105708307,
                -1.4246734898754732,
                0.30640111417514304
            ]
        },
        {
            "positions": [
                2.2430471602375714,
                -1.2489840322128398,
                -1.2769737676990183,
                -1.0746066504002398,
                -1.3881051350706715,
                0.27249644941764684
            ]
        },
        {
            "positions": [
                2.15173608626689,
                -1.2499129192218423,
                -1.148444806495393,
                -0.979817790229649,
                -1.3515367802658698,
                0.2385917846601507
            ]
        },
        {
            "positions": [
                2.060425012296209,
                -1.2508418062308448,
                -1.0199158452917676,
                -0.885028930059058,
                -1.314968425461068,
                0.20468711990265456
            ]
        },
        {
            "positions": [
                1.9691139383255272,
                -1.2517706932398471,
                -0.8913868840881423,
                -0.7902400698884673,
                -1.2784000706562662,
                0.17078245514515844
            ]
        },
        {
            "positions": [
                1.877802864354846,
                -1.2526995802488496,
                -0.7628579228845171,
                -0.6954512097178764,
                -1.2418317158514645,
                0.1368777903876623
            ]
        },
        {
            "positions": [
                1.7864917903841646,
                -1.2536284672578522,
                -0.6343289616808916,
                -0.6006623495472856,
                -1.2052633610466628,
                0.10297312563016614
            ]
        },
        {
            "positions": [
                1.6951807164134831,
                -1.2545573542668547,
                -0.5058000004772663,
                -0.5058734893766947,
                -1.168695006241861,
                0.06906846087266999
            ]
        },
        {
            "positions": [
                1.6038696424428016,
                -1.2554862412758572,
                -0.3772710392736409,
                -0.4110846292061039,
                -1.1321266514370594,
                0.03516379611517384
            ]
        },
        {
            "positions": [
                1.5125585684721201,
                -1.2564151282848595,
                -0.24874207807001558,
                -0.3162957690355128,
                -1.0955582966322575,
                0.0012591313576776897
            ]
        },
        {
            "positions": [
                1.4212474945014386,
                -1.257344015293862,
                -0.12021311686639025,
                -0.22150690886492197,
                -1.0589899418274558,
                -0.03264553339981846
            ]
        },
        {
            "positions": [
                1.3299364205307573,
                -1.2582729023028645,
                0.00831584433723509,
                -0.12671804869433134,
                -1.022421587022654,
                -0.06655019815731461
            ]
        },
        {
            "positions": [
                1.2386253465600758,
                -1.259201789311867,
                0.13684480554086043,
                -0.03192918852374049,
                -0.9858532322178524,
                -0.1004548629148107
            ]
        },
        {
            "positions": [
                1.1473142725893943,
                -1.2601306763208695,
                0.26537376674448576,
                0.06285967164685036,
                -0.9492848774130506,
                -0.1343595276723069
            ]
        },
        {
            "positions": [
                1.056003198618713,
                -1.2610595633298718,
                0.39390272794811065,
                0.1576485318174412,
                -0.9127165226082489,
                -0.168264192429803
            ]
        },
        {
            "positions": [
                0.9646921246480318,
                -1.2619884503388743,
                0.5224316891517364,
                0.25243739198803206,
                -0.8761481678034472,
                -0.2021688571872991
            ]
        },
        {
            "positions": [
                0.8733810506773503,
                -1.2629173373478768,
                0.6509606503553618,
                0.3472262521586229,
                -0.8395798129986454,
                -0.2360735219447953
            ]
        },
        {
            "positions": [
                0.7820699767066688,
                -1.2638462243568793,
                0.7794896115589871,
                0.44201511232921376,
                -0.8030114581938437,
                -0.2699781867022914
            ]
        },
        {
            "positions": [
                0.6907589027359875,
                -1.2647751113658818,
                0.9080185727626124,
                0.5368039724998046,
                -0.7664431033890419,
                -0.3038828514597876
            ]
        },
        {
            "positions": [
                0.5994478287653058,
                -1.2657039983748841,
                1.0365475339662378,
                0.6315928326703957,
                -0.7298747485842402,
                -0.3377875162172837
            ]
        },
        {
            "positions": [
                0.5081367547946245,
                -1.2666328853838866,
                1.1650764951698631,
                0.7263816928409863,
                -0.6933063937794384,
                -0.3716921809747799
            ]
        },
        {
            "positions": [
                0.4168256808239428,
                -1.2675617723928891,
                1.2936054563734884,
                0.8211705530115774,
                -0.6567380389746367,
                -0.4055968457322761
            ]
        },
        {
            "positions": [
                0.3255146068532615,
                -1.2684906594018917,
                1.4221344175771138,
                0.9159594131821684,
                -0.6201696841698349,
                -0.4395015104897722
            ]
        },
        {
            "positions": [
                0.23420353288257978,
                -1.2694195464108942,
                1.5506633787807391,
                1.010748273352759,
                -0.5836013293650332,
                -0.4734061752472684
            ]
        },
        {
            "positions": [
                0.1428924589118985,
                -1.2703484334198965,
                1.6791923399843645,
                1.1055371335233501,
                -0.5470329745602314,
                -0.5073108400047646
            ]
        },
        {
            "positions": [
                0.05158138494121722,
                -1.271277320428899,
                1.8077213011879902,
                1.2003259936939408,
                -0.5104646197554297,
                -0.5412155047622607
            ]
        },
        {
            "positions": [
                -0.039729689029464055,
                -1.2722062074379015,
                1.9362502623916151,
                1.2951148538645314,
                -0.473896264950628,
                -0.5751201695197568
            ]
        },
        {
            "positions": [
                -0.13104076300014533,
                -1.273135094446904,
                2.0647792235952407,
                1.3899037140351225,
                -0.4373279101458263,
                -0.6090248342772528
            ]
        },
        {
            "positions": [
                -0.22235183697082705,
                -1.2740639814559065,
                2.193308184798866,
                1.484692574205713,
                -0.4007595553410246,
                -0.6429294990347489
            ]
        },
        {
            "positions": [
                -0.31366291094150833,
                -1.2749928684649088,
                2.3218371460024914,
                1.5794814343763042,
                -0.3641912005362229,
                -0.676834163792245
            ]
        },
        {
            "positions": [
                -0.40497398491219005,
                -1.2759217554739113,
                2.4503661072061167,
                1.6742702945468948,
                -0.327622845731421,
                -0.7107388285497414
            ]
        },
        {
            "positions": [
                -0.49628505888287155,
                -1.2768506424829138,
                2.578895068409742,
                1.7690591547174859,
                -0.2910544909266194,
                -0.7446434933072376
            ]
        },
        {
            "positions": [
                -0.40777741442773624,
                -1.2066881137263306,
                2.497832872298836,
                1.8003835992851882,
                -0.2686335769995138,
                -0.6480235694387295
            ]
        },
        {
            "positions": [
                -0.3192697699726009,
                -1.1365255849697473,
                2.4167706761879306,
                1.8317080438528903,
                -0.24621266307240822,
                -0.5514036455702216
            ]
        },
        {
            "positions": [
                -0.23076212551746556,
                -1.066363056213164,
                2.3357084800770247,
                1.8630324884205927,
                -0.22379174914530264,
                -0.4547837217017136
            ]
        },
        {
            "positions": [
                -0.14225448106233024,
                -0.9962005274565808,
                2.254646283966119,
                1.894356932988295,
                -0.20137083521819704,
                -0.3581637978332056
            ]
        },
        {
            "positions": [
                -0.05374683660719487,
                -0.9260379986999976,
                2.1735840878552133,
                1.9256813775559973,
                -0.17894992129109144,
                -0.2615438739646976
            ]
        },
        {
            "positions": [
                0.034760807847940445,
                -0.8558754699434145,
                2.092521891744308,
                1.9570058221236994,
                -0.15652900736398587,
                -0.16492395009618965
            ]
        },
        {
            "positions": [
                0.12326845230307579,
                -0.7857129411868312,
                2.011459695633402,
                1.9883302666914018,
                -0.13410809343688027,
                -0.06830402622768167
            ]
        }
    ]
}{
    "goal": {
        "global_pose": {
            "orientation": {
                "w": 0.7047431468963623,
                "x": -0.7094548344612122,
                "y": 0.0024358443915843964,
                "z": -0.0022348060738295317
            },
            "position": {
                "x": 0.6094750761985779,
                "y": 0.3671506643295288,
                "z": 0.19426114857196808
            }
        },
        "name": "move_to_magneteinheit_A"
    },
    "id": "KPIECE_move_to_magneteinheit_A_25",
    "joint_names": [
        "shoulder_pan_joint",
        "shoulder_lift_joint",
        "elbow_joint",
        "wrist_1_joint",
        "wrist_2_joint",
        "wrist_3_joint"
    ],
    "metrics": {
        "cart_traj_len": 1.240114707079088,
        "distance_elbow_joint": 0.06869555661014859,
        "distance_shoulder_lift_joint": 0.7754590545755284,
        "distance_shoulder_pan_joint": 1.2407188367578323,
        "distance_wrist_1_joint": 0.7621405467353009,
        "distance_wrist_2_joint": 1.4454373691786144,
        "distance_wrist_3_joint": 4.2522362132608,
        "smoothness": 0.05483642679668408,
        "time": 0.177315953,
        "traj_len": 2.923129757146991,
        "weighted_distance": 4.388249983712612
    },
    "planner": "KPIECE",
    "start": {
        "state": {
            "elbow_joint": 1.919643534880228,
            "shoulder_lift_joint": -1.8972525353963687,
            "shoulder_pan_joint": -1.1188672234189438,
            "wrist_1_joint": -1.5931878212786155,
            "wrist_2_joint": 1.5706036197970081,
            "wrist_3_joint": 1.118896926603594
        }
    },
    "waypoints": [
        {
            "positions": [
                -1.1188672234189438,
                -1.8972525353963687,
                1.919643534880228,
                -1.5931878212786155,
                1.5706036197970081,
                1.118896926603594
            ]
        },
        {
            "positions": [
                -1.0630093926495878,
                -1.8609277818260923,
                1.9195932618628466,
                -1.557346800114621,
                1.508447393324741,
                0.9222667245536008
            ]
        },
        {
            "positions": [
                -1.0071515618802318,
                -1.8246030282558159,
                1.9195429888454651,
                -1.5215057789506263,
                1.446291166852474,
                0.7256365225036077
            ]
        },
        {
            "positions": [
                -0.9512937311108757,
                -1.7882782746855395,
                1.9194927158280837,
                -1.4856647577866318,
                1.384134940380207,
                0.5290063204536144
            ]
        },
        {
            "positions": [
                -0.8954359003415197,
                -1.751953521115263,
                1.9194424428107022,
                -1.4498237366226372,
                1.32197871390794,
                0.33237611840362125
            ]
        },
        {
            "positions": [
                -0.8395780695721635,
                -1.7156287675449866,
                1.9193921697933207,
                -1.4139827154586428,
                1.259822487435673,
                0.1357459163536281
            ]
        },
        {
            "positions": [
                -0.7837202388028075,
                -1.6793040139747102,
                1.9193418967759392,
                -1.3781416942946483,
                1.197666260963406,
                -0.06088428569636517
            ]
        },
        {
            "positions": [
                -0.7278624080334515,
                -1.6429792604044338,
                1.9192916237585578,
                -1.3423006731306537,
                1.1355100344911389,
                -0.2575144877463582
            ]
        },
        {
            "positions": [
                -0.6720045772640955,
                -1.6066545068341573,
                1.9192413507411763,
                -1.3064596519666591,
                1.0733538080188716,
                -0.4541446897963515
            ]
        },
        {
            "positions": [
                -0.6161467464947394,
                -1.570329753263881,
                1.9191910777237948,
                -1.2706186308026646,
                1.0111975815466048,
                -0.6507748918463447
            ]
        },
        {
            "positions": [
                -0.5602889157253833,
                -1.5340049996936045,
                1.9191408047064134,
                -1.23477760963867,
                0.9490413550743375,
                -0.8474050938963378
            ]
        },
        {
            "positions": [
                -0.5044310849560273,
                -1.497680246123328,
                1.919090531689032,
                -1.1989365884746754,
                0.8868851286020705,
                -1.0440352959463313
            ]
        },
        {
            "positions": [
                -0.44857325418667127,
                -1.4613554925530516,
                1.9190402586716506,
                -1.1630955673106809,
                0.8247289021298034,
                -1.2406654979963243
            ]
        },
        {
            "positions": [
                -0.39271542341731513,
                -1.4250307389827752,
                1.9189899856542691,
                -1.1272545461466863,
                0.7625726756575363,
                -1.4372957000463178
            ]
        },
        {
            "positions": [
                -0.3368575926479591,
                -1.3887059854124988,
                1.9189397126368877,
                -1.0914135249826917,
                0.7004164491852694,
                -1.6339259020963104
            ]
        },
        {
            "positions": [
                -0.2809997618786031,
                -1.3523812318422224,
                1.9188894396195062,
                -1.0555725038186972,
                0.6382602227130022,
                -1.8305561041463039
            ]
        },
        {
            "positions": [
                -0.22514193110924707,
                -1.316056478271946,
                1.9188391666021247,
                -1.0197314826547026,
                0.5761039962407352,
                -2.027186306196297
            ]
        },
        {
            "positions": [
                -0.16928410033989094,
                -1.2797317247016695,
                1.9187888935847432,
                -0.9838904614907081,
                0.513947769768468,
                -2.2238165082462906
            ]
        },
        {
            "positions": [
                -0.11342626957053503,
                -1.243406971131393,
                1.9187386205673618,
                -0.9480494403267137,
                0.4517915432962012,
                -2.420446710296283
            ]
        },
        {
            "positions": [
                -0.05756843880117879,
                -1.2070822175611167,
                1.9186883475499803,
                -0.9122084191627191,
                0.38963531682393393,
                -2.6170769123462767
            ]
        },
        {
            "positions": [
                -0.001710608031822769,
                -1.1707574639908402,
                1.9186380745325988,
                -0.8763673979987245,
                0.3274790903516669,
                -2.8137071143962693
            ]
        },
        {
            "positions": [
                0.054147222737533335,
                -1.1344327104205638,
                1.9185878015152174,
                -0.84052637683473,
                0.26532286387939996,
                -3.010337316446263
            ]
        },
        {
            "positions": [
                0.08799941803821096,
                -1.1407523252204257,
                1.9524077131377862,
                -0.8452659279804376,
                0.19524455724889694,
                -3.0718383015517343
            ]
        },
        {
            "positions": [
                0.12185161333888858,
                -1.1470719400202873,
                1.9862276247603552,
                -0.8500054791261453,
                0.1251662506183939,
                -3.133339286657206
            ]
        }
    ]
}