{
    "goal": {
        "global_pose": {
            "orientation": {
                "w": 0.7047431468963623,
                "x": -0.7094548344612122,
                "y": 0.0024358443915843964,
                "z": -0.0022348060738295317
            },
            "position": {
                "x": 0.6094750761985779,
                "y": 0.3671506643295288,
                "z": 0.19426114857196808
            }
        },
        "name": "move_to_magneteinheit_A"
    },
    "id": "KPIECE_move_to_magneteinheit_A_134",
    "joint_names": [
        "shoulder_pan_joint",
        "shoulder_lift_joint",
        "elbow_joint",
        "wrist_1_joint",
        "wrist_2_joint",
        "wrist_3_joint"
    ],
    "metrics": {
        "cart_traj_len": 3.0618997730754267,
        "distance_elbow_joint": 3.915693295269995,
        "distance_shoulder_lift_joint": 1.3711485441007,
        "distance_shoulder_pan_joint": 2.8910654794844395,
        "distance_wrist_1_joint": 3.4816403448035205,
        "distance_wrist_2_joint": 2.7631192046017543,
        "distance_wrist_3_joint": 0.7355407033224262,
        "smoothness": 0.19834723374579524,
        "time": 0.191410072,
        "traj_len": 3.8933542828238528,
        "weighted_distance": 4.782682147878215
    },
    "planner": "KPIECE",
    "start": {
        "state": {
            "elbow_joint": -1.919618573717145,
            "shoulder_lift_joint": -1.2443395971678275,
            "shoulder_pan_joint": 2.6996025300909787,
            "wrist_1_joint": -1.548550951253194,
            "wrist_2_joint": -1.5709469090946802,
            "wrist_3_joint": 0.4420197732051276
        }
    },
    "waypoints": [
        {
            "positions": [
                2.6996025300909787,
                -1.2443395971678275,
                -1.919618573717145,
                -1.548550951253194,
                -1.5709469090946802,
                0.4420197732051276
            ]
        },
        {
            "positions": [
                2.623297893722511,
                -1.259942775035127,
                -1.8116750055759783,
                -1.4404704369055756,
                -1.4985119367126933,
                0.4467758996416598
            ]
        },
        {
            "positions": [
                2.546993257354043,
                -1.275545952902427,
                -1.7037314374348118,
                -1.3323899225579572,
                -1.4260769643307063,
                0.45153202607819204
            ]
        },
        {
            "positions": [
                2.470688620985575,
                -1.2911491307697265,
                -1.5957878692936451,
                -1.2243094082103387,
                -1.3536419919487195,
                0.4562881525147242
            ]
        },
        {
            "positions": [
                2.3943839846171073,
                -1.3067523086370263,
                -1.4878443011524787,
                -1.1162288938627203,
                -1.2812070195667327,
                0.46104427895125644
            ]
        },
        {
            "positions": [
                2.3180793482486393,
                -1.3223554865043259,
                -1.379900733011312,
                -1.0081483795151018,
                -1.2087720471847456,
                0.46580040538778866
            ]
        },
        {
            "positions": [
                2.2417747118801716,
                -1.3379586643716257,
                -1.2719571648701455,
                -0.9000678651674833,
                -1.1363370748027588,
                0.4705565318243209
            ]
        },
        {
            "positions": [
                2.1654700755117036,
                -1.3535618422389253,
                -1.1640135967289789,
                -0.7919873508198648,
                -1.063902102420772,
                0.4753126582608531
            ]
        },
        {
            "positions": [
                2.089165439143236,
                -1.369165020106225,
                -1.0560700285878122,
                -0.6839068364722464,
                -0.9914671300387851,
                0.48006878469738534
            ]
        },
        {
            "positions": [
                2.012860802774768,
                -1.3847681979735247,
                -0.9481264604466456,
                -0.5758263221246278,
                -0.9190321576567981,
                0.48482491113391757
            ]
        },
        {
            "positions": [
                1.9365561664063002,
                -1.4003713758408245,
                -0.840182892305479,
                -0.46774580777700936,
                -0.8465971852748112,
                0.48958103757044974
            ]
        },
        {
            "positions": [
                1.8602515300378324,
                -1.415974553708124,
                -0.7322393241643126,
                -0.35966529342939113,
                -0.7741622128928244,
                0.49433716400698197
            ]
        },
        {
            "positions": [
                1.7839468936693645,
                -1.431577731575424,
                -0.6242957560231459,
                -0.25158477908177246,
                -0.7017272405108375,
                0.4990932904435142
            ]
        },
        {
            "positions": [
                1.7076422573008965,
                -1.4471809094427235,
                -0.5163521878819792,
                -0.143504264734154,
                -0.6292922681288505,
                0.5038494168800464
            ]
        },
        {
            "positions": [
                1.6313376209324286,
                -1.4627840873100233,
                -0.40840861974081255,
                -0.03542375038653556,
                -0.5568572957468636,
                0.5086055433165786
            ]
        },
        {
            "positions": [
                1.5550329845639608,
                -1.4783872651773229,
                -0.3004650515996461,
                0.07265676396108312,
                -0.4844223233648768,
                0.5133616697531108
            ]
        },
        {
            "positions": [
                1.4787283481954931,
                -1.4939904430446227,
                -0.19252148345847964,
                0.18073727830870134,
                -0.41198735098288997,
                0.518117796189643
            ]
        },
        {
            "positions": [
                1.4024237118270253,
                -1.5095936209119223,
                -0.08457791531731318,
                0.28881779265631957,
                -0.33955237860090315,
                0.5228739226261753
            ]
        },
        {
            "positions": [
                1.3261190754585572,
                -1.525196798779222,
                0.023365652823853722,
                0.39689830700393847,
                -0.2671174062189161,
                0.5276300490627075
            ]
        },
        {
            "positions": [
                1.2498144390900896,
                -1.5407999766465217,
                0.13130922096502018,
                0.5049788213515565,
                -0.1946824338369293,
                0.5323861754992397
            ]
        },
        {
            "positions": [
                1.1735098027216215,
                -1.5564031545138215,
                0.23925278910618686,
                0.6130593356991754,
                -0.12224746145494225,
                0.537142301935772
            ]
        },
        {
            "positions": [
                1.0972051663531537,
                -1.572006332381121,
                0.34719635724735354,
                0.7211398500467938,
                -0.049812489072955435,
                0.5418984283723042
            ]
        },
        {
            "positions": [
                1.020900529984686,
                -1.587609510248421,
                0.4551399253885198,
                0.8292203643944118,
                0.022622483309031383,
                0.5466545548088364
            ]
        },
        {
            "positions": [
                0.944595893616218,
                -1.6032126881157205,
                0.5630834935296865,
                0.9373008787420307,
                0.09505745569101842,
                0.5514106812453685
            ]
        },
        {
            "positions": [
                0.8682912572477501,
                -1.61881586598302,
                0.6710270616708531,
                1.0453813930896492,
                0.16749242807300524,
                0.5561668076819007
            ]
        },
        {
            "positions": [
                0.7919866208792825,
                -1.6344190438503199,
                0.7789706298120194,
                1.1534619074372672,
                0.23992740045499206,
                0.560922934118433
            ]
        },
        {
            "positions": [
                0.7156819845108144,
                -1.6500222217176197,
                0.8869141979531865,
                1.261542421784886,
                0.3123623728369791,
                0.5656790605549652
            ]
        },
        {
            "positions": [
                0.6393773481423466,
                -1.6656253995849193,
                0.9948577660943527,
                1.3696229361325045,
                0.3847973452189659,
                0.5704351869914974
            ]
        },
        {
            "positions": [
                0.5630727117738785,
                -1.6812285774522189,
                1.1028013342355198,
                1.477703450480123,
                0.45723231760095295,
                0.5751913134280296
            ]
        },
        {
            "positions": [
                0.4867680754054108,
                -1.6968317553195187,
                1.2107449023766863,
                1.5857839648277414,
                0.5296672899829399,
                0.5799474398645619
            ]
        },
        {
            "positions": [
                0.39998907801980554,
                -1.5721981846416093,
                1.2276819291139252,
                1.6420688704146185,
                0.487749941913604,
                0.512257476002905
            ]
        },
        {
            "positions": [
                0.3132100806342003,
                -1.4475646139637002,
                1.2446189558511638,
                1.6983537760014955,
                0.44583259384426815,
                0.4445675121412482
            ]
        },
        {
            "positions": [
                0.22643108324859507,
                -1.322931043285791,
                1.2615559825884026,
                1.7546386815883726,
                0.40391524577493226,
                0.3768775482795913
            ]
        },
        {
            "positions": [
                0.13965208586298983,
                -1.1982974726078817,
                1.2784930093256415,
                1.8109235871752496,
                0.3619978977055964,
                0.3091875844179345
            ]
        },
        {
            "positions": [
                0.05287308847738459,
                -1.0736639019299723,
                1.29543003606288,
                1.8672084927621266,
                0.32008054963626054,
                0.2414976205562776
            ]
        },
        {
            "positions": [
                -0.033905908908220594,
                -0.9490303312520632,
                1.312367062800119,
                1.9234933983490037,
                0.27816320156692464,
                0.17380765669462078
            ]
        },
        {
            "positions": [
                -0.002394500811172387,
                -0.9148593388757524,
                1.4491085945506657,
                1.925412597389268,
                0.19596301814530065,
                0.13551300599601068
            ]
        },
        {
            "positions": [
                0.02911690728587582,
                -0.8806883464994418,
                1.5858501263012121,
                1.9273317964295325,
                0.11376283472367665,
                0.09721835529740057
            ]
        },
        {
            "positions": [
                0.060628315382924014,
                -0.8465173541231311,
                1.7225916580517588,
                1.9292509954697967,
                0.03156265130205266,
                0.05892370459879047
            ]
        },
        {
            "positions": [
                0.09213972347997224,
                -0.8123463617468205,
                1.8593331898023053,
                1.9311701945100612,
                -0.05063753211957134,
                0.020629053900180355
            ]
        },
        {
            "positions": [
                0.12365113157702043,
                -0.7781753693705098,
                1.996074721552852,
                1.9330893935503255,
                -0.13283771554119533,
                -0.017665596798429755
            ]
        }
    ]
}{
    "goal": {
        "global_pose": {
            "orientation": {
                "w": 0.7047431468963623,
                "x": -0.7094548344612122,
                "y": 0.0024358443915843964,
                "z": -0.0022348060738295317
            },
            "position": {
                "x": 0.6094750761985779,
                "y": 0.3671506643295288,
                "z": 0.19426114857196808
            }
        },
        "name": "move_to_magneteinheit_A"
    },
    "id": "KPIECE_move_to_magneteinheit_A_134",
    "joint_names": [
        "shoulder_pan_joint",
        "shoulder_lift_joint",
        "elbow_joint",
        "wrist_1_joint",
        "wrist_2_joint",
        "wrist_3_joint"
    ],
    "metrics": {
        "cart_traj_len": 1.9028970179485234,
        "distance_elbow_joint": 2.9838106447293757,
        "distance_shoulder_lift_joint": 1.3550778133174828,
        "distance_shoulder_pan_joint": 1.241065260243016,
        "distance_wrist_1_joint": 1.6234581694495898,
        "distance_wrist_2_joint": 1.4477338852519104,
        "distance_wrist_3_joint": 4.374312223158041,
        "smoothness": 0.3005307837904873,
        "time": 0.196470797,
        "traj_len": 3.609079937622526,
        "weighted_distance": 4.984503435365152
    },
    "planner": "KPIECE",
    "start": {
        "state": {
            "elbow_joint": 1.919643534880228,
            "shoulder_lift_joint": -1.8972525353963687,
            "shoulder_pan_joint": -1.1188672234189438,
            "wrist_1_joint": -1.5931878212786155,
            "wrist_2_joint": 1.5706036197970081,
            "wrist_3_joint": 1.118896926603594
        }
    },
    "waypoints": [
        {
            "positions": [
                -1.1188672234189438,
                -1.8972525353963687,
                1.919643534880228,
                -1.5931878212786155,
                1.5706036197970081,
                1.118896926603594
            ]
        },
        {
            "positions": [
                -1.0748935573844016,
                -1.84900238367415,
                1.8525837006750514,
                -1.5360481646884883,
                1.5377690292534774,
                0.9829342640609533
            ]
        },
        {
            "positions": [
                -1.0309198913498594,
                -1.8007522319519316,
                1.7855238664698747,
                -1.4789085080983608,
                1.5049344387099468,
                0.8469716015183126
            ]
        },
        {
            "positions": [
                -0.9869462253153173,
                -1.7525020802297129,
                1.718464032264698,
                -1.4217688515082336,
                1.472099848166416,
                0.711008938975672
            ]
        },
        {
            "positions": [
                -0.9429725592807751,
                -1.7042519285074942,
                1.6514041980595213,
                -1.3646291949181064,
                1.4392652576228855,
                0.5750462764330312
            ]
        },
        {
            "positions": [
                -0.8989988932462328,
                -1.6560017767852757,
                1.5843443638543446,
                -1.3074895383279792,
                1.4064306670793547,
                0.4390836138903905
            ]
        },
        {
            "positions": [
                -0.8550252272116907,
                -1.607751625063057,
                1.517284529649168,
                -1.250349881737852,
                1.373596076535824,
                0.30312095134774986
            ]
        },
        {
            "positions": [
                -0.8110515611771485,
                -1.5595014733408383,
                1.4502246954439912,
                -1.1932102251477246,
                1.3407614859922932,
                0.1671582888051092
            ]
        },
        {
            "positions": [
                -0.7670778951426063,
                -1.5112513216186199,
                1.3831648612388143,
                -1.1360705685575974,
                1.3079268954487626,
                0.031195626262468412
            ]
        },
        {
            "positions": [
                -0.723104229108064,
                -1.4630011698964012,
                1.3161050270336379,
                -1.0789309119674702,
                1.2750923049052318,
                -0.10476703628017225
            ]
        },
        {
            "positions": [
                -0.6791305630735218,
                -1.4147510181741825,
                1.249045192828461,
                -1.021791255377343,
                1.2422577143617013,
                -0.24072969882281292
            ]
        },
        {
            "positions": [
                -0.6351568970389796,
                -1.3665008664519638,
                1.1819853586232845,
                -0.9646515987872156,
                1.2094231238181705,
                -0.3766923613654536
            ]
        },
        {
            "positions": [
                -0.5911832310044375,
                -1.3182507147297453,
                1.1149255244181075,
                -0.9075119421970884,
                1.1765885332746397,
                -0.5126550239080943
            ]
        },
        {
            "positions": [
                -0.5472095649698951,
                -1.2700005630075266,
                1.0478656902129309,
                -0.8503722856069611,
                1.1437539427311092,
                -0.6486176864507351
            ]
        },
        {
            "positions": [
                -0.503235898935353,
                -1.2217504112853081,
                0.9808058560077543,
                -0.7932326290168339,
                1.1109193521875784,
                -0.7845803489933756
            ]
        },
        {
            "positions": [
                -0.4592622329008108,
                -1.1735002595630895,
                0.9137460218025777,
                -0.7360929724267067,
                1.0780847616440479,
                -0.9205430115360163
            ]
        },
        {
            "positions": [
                -0.4152885668662686,
                -1.1252501078408708,
                0.8466861875974008,
                -0.6789533158365793,
                1.045250171100517,
                -1.0565056740786571
            ]
        },
        {
            "positions": [
                -0.37131490083172636,
                -1.076999956118652,
                0.7796263533922241,
                -0.6218136592464522,
                1.0124155805569863,
                -1.1924683366212976
            ]
        },
        {
            "positions": [
                -0.32734123479718413,
                -1.0287498043964334,
                0.7125665191870474,
                -0.5646740026563248,
                0.9795809900134557,
                -1.3284309991639385
            ]
        },
        {
            "positions": [
                -0.2833675687626419,
                -0.9804996526742149,
                0.6455066849818707,
                -0.5075343460661976,
                0.946746399469925,
                -1.464393661706579
            ]
        },
        {
            "positions": [
                -0.2393939027280998,
                -0.9322495009519963,
                0.578446850776694,
                -0.4503946894760704,
                0.9139118089263943,
                -1.6003563242492198
            ]
        },
        {
            "positions": [
                -0.19542023669355746,
                -0.8839993492297775,
                0.5113870165715173,
                -0.393255032885943,
                0.8810772183828636,
                -1.7363189867918607
            ]
        },
        {
            "positions": [
                -0.1514465706590154,
                -0.835749197507559,
                0.44432718236634056,
                -0.3361153762958158,
                0.8482426278393329,
                -1.8722816493345011
            ]
        },
        {
            "positions": [
                -0.1287948435679783,
                -0.8601779776049172,
                0.569063885024998,
                -0.36637978232439217,
                0.7878482702398837,
                -1.9869110712139613
            ]
        },
        {
            "positions": [
                -0.1061431164769412,
                -0.8846067577022754,
                0.6938005876836555,
                -0.39664418835296855,
                0.7274539126404345,
                -2.1015404930934216
            ]
        },
        {
            "positions": [
                -0.0834913893859041,
                -0.9090355377996335,
                0.818537290342313,
                -0.42690859438154494,
                0.6670595550409852,
                -2.2161699149728817
            ]
        },
        {
            "positions": [
                -0.06083966229486701,
                -0.9334643178969916,
                0.9432739930009706,
                -0.4571730004101213,
                0.6066651974415361,
                -2.330799336852342
            ]
        },
        {
            "positions": [
                -0.03818793520382989,
                -0.9578930979943497,
                1.068010695659628,
                -0.4874374064386977,
                0.5462708398420868,
                -2.445428758731802
            ]
        },
        {
            "positions": [
                -0.015536208112792799,
                -0.9823218780917079,
                1.1927473983182855,
                -0.5177018124672741,
                0.4858764822426377,
                -2.560058180611262
            ]
        },
        {
            "positions": [
                0.007115518978244306,
                -1.0067506581890662,
                1.3174841009769431,
                -0.5479662184958505,
                0.42548212464318846,
                -2.6746876024907227
            ]
        },
        {
            "positions": [
                0.029767246069281383,
                -1.031179438286424,
                1.4422208036356006,
                -0.5782306245244269,
                0.3650877670437393,
                -2.789317024370183
            ]
        },
        {
            "positions": [
                0.052418973160318516,
                -1.0556082183837823,
                1.566957506294258,
                -0.6084950305530032,
                0.30469340944429013,
                -2.903946446249643
            ]
        },
        {
            "positions": [
                0.07507070025135562,
                -1.0800369984811404,
                1.6916942089529157,
                -0.6387594365815796,
                0.2442990518448408,
                -3.018575868129103
            ]
        },
        {
            "positions": [
                0.0977224273423927,
                -1.1044657785784986,
                1.816430911611573,
                -0.669023842610156,
                0.1839046942453917,
                -3.133205290008563
            ]
        },
        {
            "positions": [
                0.1203741544334298,
                -1.1288945586758568,
                1.9411676142702305,
                -0.6992882486387324,
                0.12351033664594241,
                -3.2478347118880233
            ]
        },
        {
            "positions": [
                0.1221980368240718,
                -1.1293236729362324,
                1.9528214745818284,
                -0.7025011007626059,
                0.12286973454509793,
                -3.2554152965544474
            ]
        }
    ]
}