{
    "goal": {
        "global_pose": {
            "orientation": {
                "w": 0.7047431468963623,
                "x": -0.7094548344612122,
                "y": 0.0024358443915843964,
                "z": -0.0022348060738295317
            },
            "position": {
                "x": 0.6094750761985779,
                "y": 0.3671506643295288,
                "z": 0.19426114857196808
            }
        },
        "name": "move_to_magneteinheit_A"
    },
    "id": "KPIECE_move_to_magneteinheit_A_133",
    "joint_names": [
        "shoulder_pan_joint",
        "shoulder_lift_joint",
        "elbow_joint",
        "wrist_1_joint",
        "wrist_2_joint",
        "wrist_3_joint"
    ],
    "metrics": {
        "cart_traj_len": 3.2434198859272714,
        "distance_elbow_joint": 3.9138476196421665,
        "distance_shoulder_lift_joint": 0.5446271323007993,
        "distance_shoulder_pan_joint": 2.7218241192413797,
        "distance_wrist_1_joint": 3.468829502887899,
        "distance_wrist_2_joint": 1.4894717555359605,
        "distance_wrist_3_joint": 1.347793378951964,
        "smoothness": 0.10322363867224542,
        "time": 0.214256,
        "traj_len": 3.6723825384292645,
        "weighted_distance": 4.597856187930192
    },
    "planner": "KPIECE",
    "start": {
        "state": {
            "elbow_joint": -1.919618573717145,
            "shoulder_lift_joint": -1.2443395971678275,
            "shoulder_pan_joint": 2.6996025300909787,
            "wrist_1_joint": -1.548550951253194,
            "wrist_2_joint": -1.5709469090946802,
            "wrist_3_joint": 0.4420197732051276
        }
    },
    "waypoints": [
        {
            "positions": [
                2.6996025300909787,
                -1.2443395971678275,
                -1.919618573717145,
                -1.548550951253194,
                -1.5709469090946802,
                0.4420197732051276
            ]
        },
        {
            "positions": [
                2.5924061108265404,
                -1.2357500086417914,
                -1.814573702295924,
                -1.4706776365809169,
                -1.5215883401264119,
                0.40307805951570347
            ]
        },
        {
            "positions": [
                2.4852096915621016,
                -1.2271604201157553,
                -1.7095288308747034,
                -1.3928043219086395,
                -1.4722297711581434,
                0.3641363458262794
            ]
        },
        {
            "positions": [
                2.3780132722976632,
                -1.2185708315897192,
                -1.6044839594534825,
                -1.3149310072363622,
                -1.422871202189875,
                0.3251946321368553
            ]
        },
        {
            "positions": [
                2.270816853033225,
                -1.2099812430636834,
                -1.4994390880322617,
                -1.237057692564085,
                -1.3735126332216065,
                0.28625291844743117
            ]
        },
        {
            "positions": [
                2.163620433768786,
                -1.2013916545376473,
                -1.394394216611041,
                -1.1591843778918078,
                -1.3241540642533383,
                0.2473112047580071
            ]
        },
        {
            "positions": [
                2.0564240145043478,
                -1.1928020660116112,
                -1.2893493451898201,
                -1.0813110632195304,
                -1.27479549528507,
                0.208369491068583
            ]
        },
        {
            "positions": [
                1.9492275952399094,
                -1.1842124774855751,
                -1.1843044737685993,
                -1.003437748547253,
                -1.2254369263168015,
                0.16942777737915887
            ]
        },
        {
            "positions": [
                1.8420311759754708,
                -1.175622888959539,
                -1.0792596023473786,
                -0.9255644338749759,
                -1.176078357348533,
                0.1304860636897348
            ]
        },
        {
            "positions": [
                1.7348347567110323,
                -1.167033300433503,
                -0.9742147309261577,
                -0.8476911192026986,
                -1.1267197883802647,
                0.09154435000031069
            ]
        },
        {
            "positions": [
                1.627638337446594,
                -1.1584437119074669,
                -0.8691698595049371,
                -0.7698178045304214,
                -1.0773612194119964,
                0.05260263631088663
            ]
        },
        {
            "positions": [
                1.5204419181821553,
                -1.1498541233814308,
                -0.7641249880837162,
                -0.691944489858144,
                -1.0280026504437279,
                0.013660922621462512
            ]
        },
        {
            "positions": [
                1.413245498917717,
                -1.141264534855395,
                -0.6590801166624953,
                -0.6140711751858668,
                -0.9786440814754596,
                -0.025280791067961605
            ]
        },
        {
            "positions": [
                1.3060490796532787,
                -1.1326749463293588,
                -0.5540352452412747,
                -0.5361978605135895,
                -0.9292855125071912,
                -0.06422250475738561
            ]
        },
        {
            "positions": [
                1.1988526603888399,
                -1.1240853578033227,
                -0.4489903738200536,
                -0.4583245458413121,
                -0.8799269435389226,
                -0.10316421844680984
            ]
        },
        {
            "positions": [
                1.0916562411244015,
                -1.1154957692772867,
                -0.3439455023988329,
                -0.3804512311690349,
                -0.8305683745706544,
                -0.14210593213623385
            ]
        },
        {
            "positions": [
                0.984459821859963,
                -1.1069061807512506,
                -0.23890063097761227,
                -0.3025779164967577,
                -0.781209805602386,
                -0.18104764582565797
            ]
        },
        {
            "positions": [
                0.8772634025955246,
                -1.0983165922252145,
                -0.1338557595563914,
                -0.2247046018244805,
                -0.7318512366341177,
                -0.21998935951508208
            ]
        },
        {
            "positions": [
                0.770066983331086,
                -1.0897270036991784,
                -0.02881088813517052,
                -0.14683128715220306,
                -0.6824926676658492,
                -0.2589310732045062
            ]
        },
        {
            "positions": [
                0.6628705640666475,
                -1.0811374151731425,
                0.07623398328605013,
                -0.06895797247992586,
                -0.6331340986975807,
                -0.2978727868939303
            ]
        },
        {
            "positions": [
                0.5556741448022091,
                -1.0725478266471065,
                0.1812788547072708,
                0.00891534219235135,
                -0.5837755297293125,
                -0.3368145005833543
            ]
        },
        {
            "positions": [
                0.44847772553777077,
                -1.0639582381210704,
                0.28632372612849166,
                0.08678865686462855,
                -0.5344169607610441,
                -0.37575621427277844
            ]
        },
        {
            "positions": [
                0.341281306273332,
                -1.0553686495950343,
                0.39136859754971254,
                0.16466197153690598,
                -0.48505839179277555,
                -0.41469792796220256
            ]
        },
        {
            "positions": [
                0.23408488700889363,
                -1.0467790610689982,
                0.4964134689709333,
                0.2425352862091833,
                -0.43569982282450725,
                -0.4536396416516266
            ]
        },
        {
            "positions": [
                0.21164362192954744,
                -1.0206187126936959,
                0.5842234008243092,
                0.3267449140477281,
                -0.4402541126633648,
                -0.4406240195009448
            ]
        },
        {
            "positions": [
                0.18920235685020123,
                -0.9944583643183933,
                0.6720333326776853,
                0.41095454188627284,
                -0.44480840250222237,
                -0.427608397350263
            ]
        },
        {
            "positions": [
                0.16107796002300706,
                -0.9602103370289559,
                0.785338481156673,
                0.5211657674284305,
                -0.44948779504498193,
                -0.410525189989801
            ]
        },
        {
            "positions": [
                0.13295356319581292,
                -0.9259623097395183,
                0.8986436296356608,
                0.631376992970588,
                -0.45416718758774155,
                -0.39344198262933894
            ]
        },
        {
            "positions": [
                0.10482916636861875,
                -0.8917142824500808,
                1.0119487781146486,
                0.7415882185127456,
                -0.4588465801305011,
                -0.37635877526887695
            ]
        },
        {
            "positions": [
                0.07670476954142459,
                -0.8574662551606433,
                1.1252539265936363,
                0.8517994440549033,
                -0.4635259726732607,
                -0.3592755679084149
            ]
        },
        {
            "positions": [
                0.06811555733405467,
                -0.8180002265256952,
                1.2281147745780856,
                0.9823005905472381,
                -0.4434991468363718,
                -0.337506438771684
            ]
        },
        {
            "positions": [
                0.05952634512668474,
                -0.778534197890747,
                1.330975622562535,
                1.1128017370395729,
                -0.42347232099948295,
                -0.3157373096349531
            ]
        },
        {
            "positions": [
                0.05093713291931481,
                -0.7390681692557988,
                1.4338364705469844,
                1.2433028835319078,
                -0.4034454951625941,
                -0.2939681804982222
            ]
        },
        {
            "positions": [
                0.0655688773332577,
                -0.7469393101335529,
                1.5459149856225918,
                1.3786980171524672,
                -0.35018188678132045,
                -0.23547567990986124
            ]
        },
        {
            "positions": [
                0.08020062174720059,
                -0.754810451011307,
                1.6579935006981994,
                1.5140931507730266,
                -0.29691827840004686,
                -0.17698317932150026
            ]
        },
        {
            "positions": [
                0.09483236616114349,
                -0.7626815918890612,
                1.7700720157738068,
                1.649488284393586,
                -0.24365467001877325,
                -0.11849067873313932
            ]
        },
        {
            "positions": [
                0.10946411057508638,
                -0.7705527327668152,
                1.8821505308494144,
                1.7848834180141455,
                -0.1903910616374996,
                -0.05999817814477834
            ]
        },
        {
            "positions": [
                0.12409585498902927,
                -0.7784238736445693,
                1.9942290459250218,
                1.920278551634705,
                -0.13712745325622602,
                -0.0015056775564174002
            ]
        }
    ]
}{
    "goal": {
        "global_pose": {
            "orientation": {
                "w": 0.7047431468963623,
                "x": -0.7094548344612122,
                "y": 0.0024358443915843964,
                "z": -0.0022348060738295317
            },
            "position": {
                "x": 0.6094750761985779,
                "y": 0.3671506643295288,
                "z": 0.19426114857196808
            }
        },
        "name": "move_to_magneteinheit_A"
    },
    "id": "KPIECE_move_to_magneteinheit_A_133",
    "joint_names": [
        "shoulder_pan_joint",
        "shoulder_lift_joint",
        "elbow_joint",
        "wrist_1_joint",
        "wrist_2_joint",
        "wrist_3_joint"
    ],
    "metrics": {
        "cart_traj_len": 1.3150899769029094,
        "distance_elbow_joint": 0.038763611224103656,
        "distance_shoulder_lift_joint": 0.9520497329961097,
        "distance_shoulder_pan_joint": 1.2418939194308154,
        "distance_wrist_1_joint": 1.03424336239513,
        "distance_wrist_2_joint": 1.434149162037238,
        "distance_wrist_3_joint": 4.475896749559871,
        "smoothness": 0.5236901090036489,
        "time": 0.12176872,
        "traj_len": 3.0293557958158805,
        "weighted_distance": 4.538411898582518
    },
    "planner": "KPIECE",
    "start": {
        "state": {
            "elbow_joint": 1.919643534880228,
            "shoulder_lift_joint": -1.8972525353963687,
            "shoulder_pan_joint": -1.1188672234189438,
            "wrist_1_joint": -1.5931878212786155,
            "wrist_2_joint": 1.5706036197970081,
            "wrist_3_joint": 1.118896926603594
        }
    },
    "waypoints": [
        {
            "positions": [
                -1.1188672234189438,
                -1.8972525353963687,
                1.919643534880228,
                -1.5931878212786155,
                1.5706036197970081,
                1.118896926603594
            ]
        },
        {
            "positions": [
                -1.0654501997657644,
                -1.8599395253254987,
                1.9211803947071966,
                -1.5516200080143472,
                1.5120824103720543,
                0.9267954588074562
            ]
        },
        {
            "positions": [
                -1.0120331761125847,
                -1.8226265152546286,
                1.922717254534165,
                -1.5100521947500787,
                1.4535612009471004,
                0.7346939910113184
            ]
        },
        {
            "positions": [
                -0.9586161524594052,
                -1.7853135051837583,
                1.9242541143611338,
                -1.4684843814858104,
                1.3950399915221465,
                0.5425925232151805
            ]
        },
        {
            "positions": [
                -0.9051991288062257,
                -1.7480004951128882,
                1.9257909741881023,
                -1.4269165682215421,
                1.3365187820971927,
                0.3504910554190427
            ]
        },
        {
            "positions": [
                -0.8517821051530461,
                -1.7106874850420182,
                1.9273278340150708,
                -1.3853487549572736,
                1.2779975726722386,
                0.1583895876229049
            ]
        },
        {
            "positions": [
                -0.7983650814998666,
                -1.673374474971148,
                1.9288646938420393,
                -1.3437809416930053,
                1.2194763632472847,
                -0.03371188017323301
            ]
        },
        {
            "positions": [
                -0.744948057846687,
                -1.636061464900278,
                1.930401553669008,
                -1.302213128428737,
                1.1609551538223308,
                -0.22581334796937091
            ]
        },
        {
            "positions": [
                -0.6915310341935075,
                -1.5987484548294078,
                1.9319384134959765,
                -1.2606453151644685,
                1.102433944397377,
                -0.4179148157655086
            ]
        },
        {
            "positions": [
                -0.638114010540328,
                -1.5614354447585377,
                1.933475273322945,
                -1.2190775019002003,
                1.043912734972423,
                -0.6100162835616465
            ]
        },
        {
            "positions": [
                -0.5846969868871484,
                -1.5241224346876676,
                1.9350121331499135,
                -1.177509688635932,
                0.9853915255474692,
                -0.8021177513577842
            ]
        },
        {
            "positions": [
                -0.5312799632339689,
                -1.4868094246167973,
                1.936548992976882,
                -1.1359418753716635,
                0.9268703161225152,
                -0.9942192191539221
            ]
        },
        {
            "positions": [
                -0.4778629395807894,
                -1.4494964145459273,
                1.9380858528038507,
                -1.0943740621073952,
                0.8683491066975614,
                -1.18632068695006
            ]
        },
        {
            "positions": [
                -0.42444591592760983,
                -1.4121834044750572,
                1.9396227126308192,
                -1.052806248843127,
                0.8098278972726075,
                -1.3784221547461974
            ]
        },
        {
            "positions": [
                -0.37102889227443026,
                -1.3748703944041871,
                1.9411595724577877,
                -1.0112384355788584,
                0.7513066878476535,
                -1.5705236225423358
            ]
        },
        {
            "positions": [
                -0.3176118686212507,
                -1.337557384333317,
                1.9426964322847562,
                -0.9696706223145901,
                0.6927854784226997,
                -1.7626250903384733
            ]
        },
        {
            "positions": [
                -0.2641948449680712,
                -1.300244374262447,
                1.9442332921117247,
                -0.9281028090503218,
                0.6342642689977458,
                -1.9547265581346112
            ]
        },
        {
            "positions": [
                -0.21077782131489176,
                -1.262931364191577,
                1.9457701519386934,
                -0.8865349957860534,
                0.5757430595727919,
                -2.1468280259307493
            ]
        },
        {
            "positions": [
                -0.15736079766171207,
                -1.2256183541207066,
                1.947307011765662,
                -0.844967182521785,
                0.5172218501478378,
                -2.338929493726887
            ]
        },
        {
            "positions": [
                -0.1039437740085325,
                -1.1883053440498366,
                1.9488438715926304,
                -0.8033993692575168,
                0.45870064072288397,
                -2.531030961523025
            ]
        },
        {
            "positions": [
                -0.050526750355353034,
                -1.1509923339789663,
                1.950380731419599,
                -0.7618315559932484,
                0.4001794312979303,
                -2.723132429319162
            ]
        },
        {
            "positions": [
                0.002890273297826429,
                -1.1136793239080962,
                1.9519175912465676,
                -0.7202637427289801,
                0.34165822187297645,
                -2.9152338971153
            ]
        },
        {
            "positions": [
                0.056307296951006114,
                -1.0763663138372261,
                1.953454451073536,
                -0.6786959294647116,
                0.28313701244802236,
                -3.107335364911438
            ]
        },
        {
            "positions": [
                0.10972432060418565,
                -1.039053303766356,
                1.9549913109005046,
                -0.6371281162004433,
                0.2246158030230685,
                -3.2994368327075763
            ]
        },
        {
            "positions": [
                0.12302669601187162,
                -1.1329038051324531,
                1.9584071461043318,
                -0.715311773517401,
                0.13645445775977022,
                -3.2418738424588764
            ]
        }
    ]
}