{
    "goal": {
        "global_pose": {
            "orientation": {
                "w": 0.7047431468963623,
                "x": -0.7094548344612122,
                "y": 0.0024358443915843964,
                "z": -0.0022348060738295317
            },
            "position": {
                "x": 0.6094750761985779,
                "y": 0.3671506643295288,
                "z": 0.19426114857196808
            }
        },
        "name": "move_to_magneteinheit_A"
    },
    "id": "KPIECE_move_to_magneteinheit_A_76",
    "joint_names": [
        "shoulder_pan_joint",
        "shoulder_lift_joint",
        "elbow_joint",
        "wrist_1_joint",
        "wrist_2_joint",
        "wrist_3_joint"
    ],
    "metrics": {
        "cart_traj_len": 3.672605317092658,
        "distance_elbow_joint": 3.887254770519923,
        "distance_shoulder_lift_joint": 0.44616767083716247,
        "distance_shoulder_pan_joint": 2.6096750845300423,
        "distance_wrist_1_joint": 0.7945219298752253,
        "distance_wrist_2_joint": 1.7026083729003,
        "distance_wrist_3_joint": 2.869936888356586,
        "smoothness": 0.18091231431220403,
        "time": 0.047692752,
        "traj_len": 3.508584432077878,
        "weighted_distance": 4.532898498368118
    },
    "planner": "KPIECE",
    "start": {
        "state": {
            "elbow_joint": -1.919618573717145,
            "shoulder_lift_joint": -1.2443395971678275,
            "shoulder_pan_joint": 2.6996025300909787,
            "wrist_1_joint": -1.548550951253194,
            "wrist_2_joint": -1.5709469090946802,
            "wrist_3_joint": 0.4420197732051276
        }
    },
    "waypoints": [
        {
            "positions": [
                2.6996025300909787,
                -1.2443395971678275,
                -1.919618573717145,
                -1.548550951253194,
                -1.5709469090946802,
                0.4420197732051276
            ]
        },
        {
            "positions": [
                2.5319062291823258,
                -1.2301709584008818,
                -1.8789194657223267,
                -1.5209480805545716,
                -1.4849167509581562,
                0.4825371780309288
            ]
        },
        {
            "positions": [
                2.3642099282736724,
                -1.2160023196339362,
                -1.8382203577275087,
                -1.4933452098559492,
                -1.398886592821632,
                0.5230545828567301
            ]
        },
        {
            "positions": [
                2.1965136273650194,
                -1.2018336808669905,
                -1.7975212497326905,
                -1.465742339157327,
                -1.3128564346851082,
                0.5635719876825314
            ]
        },
        {
            "positions": [
                2.0288173264563665,
                -1.187665042100045,
                -1.7568221417378722,
                -1.4381394684587046,
                -1.226826276548584,
                0.6040893925083326
            ]
        },
        {
            "positions": [
                1.8611210255477133,
                -1.1734964033330992,
                -1.716123033743054,
                -1.4105365977600821,
                -1.14079611841206,
                0.6446067973341338
            ]
        },
        {
            "positions": [
                1.6934247246390601,
                -1.1593277645661537,
                -1.6754239257482357,
                -1.3829337270614597,
                -1.0547659602755362,
                0.6851242021599351
            ]
        },
        {
            "positions": [
                1.525728423730407,
                -1.145159125799208,
                -1.6347248177534177,
                -1.3553308563628372,
                -0.968735802139012,
                0.7256416069857363
            ]
        },
        {
            "positions": [
                1.358032122821754,
                -1.1309904870322625,
                -1.5940257097585995,
                -1.327727985664215,
                -0.8827056440024881,
                0.7661590118115376
            ]
        },
        {
            "positions": [
                1.1903358219131008,
                -1.1168218482653167,
                -1.5533266017637812,
                -1.3001251149655926,
                -0.796675485865964,
                0.8066764166373388
            ]
        },
        {
            "positions": [
                1.0226395210044479,
                -1.1026532094983712,
                -1.5126274937689632,
                -1.2725222442669701,
                -0.71064532772944,
                0.84719382146314
            ]
        },
        {
            "positions": [
                0.8549432200957947,
                -1.0884845707314255,
                -1.471928385774145,
                -1.2449193735683477,
                -0.6246151695929161,
                0.8877112262889413
            ]
        },
        {
            "positions": [
                0.6872469191871415,
                -1.0743159319644797,
                -1.4312292777793267,
                -1.2173165028697253,
                -0.5385850114563919,
                0.9282286311147427
            ]
        },
        {
            "positions": [
                0.5195506182784881,
                -1.0601472931975342,
                -1.3905301697845087,
                -1.1897136321711028,
                -0.452554853319868,
                0.968746035940544
            ]
        },
        {
            "positions": [
                0.3518543173698352,
                -1.0459786544305887,
                -1.3498310617896903,
                -1.1621107614724806,
                -0.36652469518334385,
                1.0092634407663452
            ]
        },
        {
            "positions": [
                0.1841580164611824,
                -1.031810015663643,
                -1.3091319537948722,
                -1.1345078907738582,
                -0.2804945370468198,
                1.0497808455921465
            ]
        },
        {
            "positions": [
                0.18516545722108577,
                -1.0277800435256577,
                -1.1158279331296395,
                -1.1175113881651348,
                -0.2559827346945559,
                1.183623947967892
            ]
        },
        {
            "positions": [
                0.18617289798098915,
                -1.0237500713876724,
                -0.9225239124644068,
                -1.1005148855564117,
                -0.231470932342292,
                1.3174670503436374
            ]
        },
        {
            "positions": [
                0.18718033874089252,
                -1.0197200992496873,
                -0.7292198917991741,
                -1.0835183829476884,
                -0.20695912999002805,
                1.451310152719383
            ]
        },
        {
            "positions": [
                0.18818777950079588,
                -1.015690127111702,
                -0.5359158711339413,
                -1.0665218803389651,
                -0.18244732763776414,
                1.5851532550951286
            ]
        },
        {
            "positions": [
                0.18919522026069927,
                -1.0116601549737168,
                -0.34261185046870857,
                -1.0495253777302418,
                -0.15793552528550023,
                1.7189963574708742
            ]
        },
        {
            "positions": [
                0.19020266102060263,
                -1.0076301828357317,
                -0.149307829803476,
                -1.0325288751215187,
                -0.1334237229332363,
                1.8528394598466198
            ]
        },
        {
            "positions": [
                0.191210101780506,
                -1.0036002106977464,
                0.04399619086175677,
                -1.0155323725127954,
                -0.10891192058097238,
                1.9866825622223652
            ]
        },
        {
            "positions": [
                0.19221754254040935,
                -0.9995702385597611,
                0.23730021152698955,
                -0.9985358699040721,
                -0.08440011822870847,
                2.1205256645981105
            ]
        },
        {
            "positions": [
                0.19322498330031274,
                -0.9955402664217758,
                0.4306042321922223,
                -0.9815393672953489,
                -0.05988831587644455,
                2.2543687669738564
            ]
        },
        {
            "positions": [
                0.1942324240602161,
                -0.9915102942837907,
                0.6239082528574551,
                -0.9645428646866256,
                -0.03537651352418064,
                2.388211869349602
            ]
        },
        {
            "positions": [
                0.19523986482011946,
                -0.9874803221458055,
                0.8172122735226877,
                -0.9475463620779023,
                -0.01086471117191673,
                2.522054971725347
            ]
        },
        {
            "positions": [
                0.19624730558002285,
                -0.9834503500078202,
                1.0105162941879202,
                -0.9305498594691791,
                0.013647091180347237,
                2.655898074101093
            ]
        },
        {
            "positions": [
                0.1972547463399262,
                -0.9794203778698349,
                1.2038203148531532,
                -0.9135533568604558,
                0.03815889353261115,
                2.7897411764768387
            ]
        },
        {
            "positions": [
                0.19826218709982957,
                -0.9753904057318498,
                1.3971243355183858,
                -0.8965568542517326,
                0.06267069588487506,
                2.9235842788525837
            ]
        },
        {
            "positions": [
                0.19926962785973296,
                -0.9713604335938646,
                1.5904283561836188,
                -0.8795603516430093,
                0.08718249823713897,
                3.0574273812283295
            ]
        },
        {
            "positions": [
                0.20027706861963632,
                -0.9673304614558793,
                1.7837323768488516,
                -0.8625638490342861,
                0.11169430058940288,
                3.191270483604075
            ]
        },
        {
            "positions": [
                0.16122130924873931,
                -1.0519097290184865,
                1.875684286825815,
                -0.8082964352061275,
                0.1216778821975115,
                3.1309273946252554
            ]
        },
        {
            "positions": [
                0.12216554987784231,
                -1.1364889965810936,
                1.9676361968027785,
                -0.7540290213779688,
                0.1316614638056201,
                3.070584305646436
            ]
        }
    ]
}{
    "goal": {
        "global_pose": {
            "orientation": {
                "w": 0.7047431468963623,
                "x": -0.7094548344612122,
                "y": 0.0024358443915843964,
                "z": -0.0022348060738295317
            },
            "position": {
                "x": 0.6094750761985779,
                "y": 0.3671506643295288,
                "z": 0.19426114857196808
            }
        },
        "name": "move_to_magneteinheit_A"
    },
    "id": "KPIECE_move_to_magneteinheit_A_76",
    "joint_names": [
        "shoulder_pan_joint",
        "shoulder_lift_joint",
        "elbow_joint",
        "wrist_1_joint",
        "wrist_2_joint",
        "wrist_3_joint"
    ],
    "metrics": {
        "cart_traj_len": 1.2116821655850099,
        "distance_elbow_joint": 0.04646697992243465,
        "distance_shoulder_lift_joint": 0.7620466202217921,
        "distance_shoulder_pan_joint": 1.241596513115622,
        "distance_wrist_1_joint": 0.9064854616452067,
        "distance_wrist_2_joint": 1.4416683490076259,
        "distance_wrist_3_joint": 4.344530846079402,
        "smoothness": 0.1519275725552021,
        "time": 0.110451631,
        "traj_len": 2.956821734564342,
        "weighted_distance": 4.447472346491175
    },
    "planner": "KPIECE",
    "start": {
        "state": {
            "elbow_joint": 1.919643534880228,
            "shoulder_lift_joint": -1.8972525353963687,
            "shoulder_pan_joint": -1.1188672234189438,
            "wrist_1_joint": -1.5931878212786155,
            "wrist_2_joint": 1.5706036197970081,
            "wrist_3_joint": 1.118896926603594
        }
    },
    "waypoints": [
        {
            "positions": [
                -1.1188672234189438,
                -1.8972525353963687,
                1.919643534880228,
                -1.5931878212786155,
                1.5706036197970081,
                1.118896926603594
            ]
        },
        {
            "positions": [
                -1.06354740583255,
                -1.8637557271214644,
                1.9198742393922243,
                -1.5534482746447458,
                1.5051759802434703,
                0.9274365465653264
            ]
        },
        {
            "positions": [
                -1.008227588246156,
                -1.83025891884656,
                1.9201049439042208,
                -1.513708728010876,
                1.4397483406899325,
                0.7359761665270588
            ]
        },
        {
            "positions": [
                -0.9529077706597622,
                -1.7967621105716556,
                1.920335648416217,
                -1.4739691813770062,
                1.3743207011363947,
                0.5445157864887912
            ]
        },
        {
            "positions": [
                -0.8975879530733681,
                -1.7632653022967513,
                1.9205663529282133,
                -1.4342296347431365,
                1.3088930615828567,
                0.35305540645052347
            ]
        },
        {
            "positions": [
                -0.8422681354869743,
                -1.7297684940218467,
                1.9207970574402096,
                -1.3944900881092668,
                1.2434654220293189,
                0.16159502641225587
            ]
        },
        {
            "positions": [
                -0.7869483179005804,
                -1.6962716857469424,
                1.921027761952206,
                -1.354750541475397,
                1.178037782475781,
                -0.029865353626011615
            ]
        },
        {
            "positions": [
                -0.7316285003141865,
                -1.6627748774720381,
                1.9212584664642023,
                -1.3150109948415274,
                1.1126101429222433,
                -0.22132573366427932
            ]
        },
        {
            "positions": [
                -0.6763086827277924,
                -1.6292780691971336,
                1.9214891709761985,
                -1.2752714482076575,
                1.0471825033687052,
                -0.41278611370254703
            ]
        },
        {
            "positions": [
                -0.6209888651413986,
                -1.5957812609222293,
                1.9217198754881948,
                -1.2355319015737878,
                0.9817548638151674,
                -0.6042464937408147
            ]
        },
        {
            "positions": [
                -0.5656690475550047,
                -1.562284452647325,
                1.9219505800001913,
                -1.195792354939918,
                0.9163272242616297,
                -0.7957068737790822
            ]
        },
        {
            "positions": [
                -0.5103492299686108,
                -1.5287876443724207,
                1.9221812845121875,
                -1.1560528083060484,
                0.8508995847080918,
                -0.9871672538173499
            ]
        },
        {
            "positions": [
                -0.45502941238221695,
                -1.4952908360975161,
                1.9224119890241838,
                -1.1163132616721787,
                0.785471945154554,
                -1.1786276338556172
            ]
        },
        {
            "positions": [
                -0.3997095947958229,
                -1.4617940278226118,
                1.9226426935361802,
                -1.0765737150383088,
                0.7200443056010161,
                -1.3700880138938853
            ]
        },
        {
            "positions": [
                -0.344389777209429,
                -1.4282972195477073,
                1.9228733980481765,
                -1.036834168404439,
                0.6546166660474783,
                -1.5615483939321526
            ]
        },
        {
            "positions": [
                -0.28906995962303517,
                -1.394800411272803,
                1.9231041025601727,
                -0.9970946217705694,
                0.5891890264939404,
                -1.7530087739704203
            ]
        },
        {
            "positions": [
                -0.23375014203664113,
                -1.3613036029978987,
                1.923334807072169,
                -0.9573550751366996,
                0.5237613869404025,
                -1.944469154008688
            ]
        },
        {
            "positions": [
                -0.1784303244502473,
                -1.3278067947229943,
                1.9235655115841654,
                -0.9176155285028299,
                0.4583337473868647,
                -2.135929534046956
            ]
        },
        {
            "positions": [
                -0.12311050686385328,
                -1.2943099864480898,
                1.9237962160961617,
                -0.8778759818689601,
                0.3929061078333267,
                -2.3273899140852237
            ]
        },
        {
            "positions": [
                -0.06779068927745935,
                -1.2608131781731855,
                1.924026920608158,
                -0.8381364352350904,
                0.3274784682797889,
                -2.5188502941234914
            ]
        },
        {
            "positions": [
                -0.012470871691065533,
                -1.227316369898281,
                1.9242576251201542,
                -0.7983968886012207,
                0.2620508287262513,
                -2.710310674161758
            ]
        },
        {
            "positions": [
                0.042848945895328505,
                -1.1938195616233767,
                1.9244883296321507,
                -0.7586573419673509,
                0.19662318917271326,
                -2.901771054200026
            ]
        },
        {
            "positions": [
                0.09816876348172228,
                -1.1603227533484723,
                1.924719034144147,
                -0.7189177953334812,
                0.13119554961917557,
                -3.0932314342382936
            ]
        },
        {
            "positions": [
                0.12272928969667807,
                -1.1352059151745766,
                1.9661105148026627,
                -0.7511332310335537,
                0.13345582844896875,
                -3.2256339194758077
            ]
        }
    ]
}