{
    "goal": {
        "global_pose": {
            "orientation": {
                "w": 0.7047431468963623,
                "x": -0.7094548344612122,
                "y": 0.0024358443915843964,
                "z": -0.0022348060738295317
            },
            "position": {
                "x": 0.6094750761985779,
                "y": 0.3671506643295288,
                "z": 0.19426114857196808
            }
        },
        "name": "move_to_magneteinheit_A"
    },
    "id": "KPIECE_move_to_magneteinheit_A_56",
    "joint_names": [
        "shoulder_pan_joint",
        "shoulder_lift_joint",
        "elbow_joint",
        "wrist_1_joint",
        "wrist_2_joint",
        "wrist_3_joint"
    ],
    "metrics": {
        "cart_traj_len": 3.6062147868412047,
        "distance_elbow_joint": 3.8739613241689623,
        "distance_shoulder_lift_joint": 0.3636025140532264,
        "distance_shoulder_pan_joint": 2.686549094505361,
        "distance_wrist_1_joint": 1.6368521104840608,
        "distance_wrist_2_joint": 2.3868413183030657,
        "distance_wrist_3_joint": 2.5928128531202046,
        "smoothness": 0.16414548653665698,
        "time": 0.124798801,
        "traj_len": 3.6797580375120975,
        "weighted_distance": 4.769689544368943
    },
    "planner": "KPIECE",
    "start": {
        "state": {
            "elbow_joint": -1.919618573717145,
            "shoulder_lift_joint": -1.2443395971678275,
            "shoulder_pan_joint": 2.6996025300909787,
            "wrist_1_joint": -1.548550951253194,
            "wrist_2_joint": -1.5709469090946802,
            "wrist_3_joint": 0.4420197732051276
        }
    },
    "waypoints": [
        {
            "positions": [
                2.6996025300909787,
                -1.2443395971678275,
                -1.919618573717145,
                -1.548550951253194,
                -1.5709469090946802,
                0.4420197732051276
            ]
        },
        {
            "positions": [
                2.6102043150756424,
                -1.2375565568749891,
                -1.80829932603067,
                -1.5091333194094891,
                -1.4835284363345171,
                0.4988300179479021
            ]
        },
        {
            "positions": [
                2.520806100060306,
                -1.2307735165821507,
                -1.6969800783441948,
                -1.469715687565784,
                -1.3961099635743541,
                0.5556402626906767
            ]
        },
        {
            "positions": [
                2.43140788504497,
                -1.2239904762893123,
                -1.5856608306577198,
                -1.430298055722079,
                -1.3086914908141911,
                0.6124505074334512
            ]
        },
        {
            "positions": [
                2.342009670029634,
                -1.2172074359964737,
                -1.474341582971245,
                -1.3908804238783739,
                -1.221273018054028,
                0.6692607521762257
            ]
        },
        {
            "positions": [
                2.2526114550142977,
                -1.2104243957036354,
                -1.3630223352847697,
                -1.351462792034669,
                -1.133854545293865,
                0.7260709969190002
            ]
        },
        {
            "positions": [
                2.1632132399989614,
                -1.203641355410797,
                -1.2517030875982949,
                -1.3120451601909637,
                -1.046436072533702,
                0.7828812416617748
            ]
        },
        {
            "positions": [
                2.073815024983625,
                -1.1968583151179586,
                -1.1403838399118196,
                -1.2726275283472588,
                -0.9590175997735391,
                0.8396914864045494
            ]
        },
        {
            "positions": [
                1.984416809968289,
                -1.1900752748251202,
                -1.0290645922253447,
                -1.2332098965035536,
                -0.871599127013376,
                0.8965017311473239
            ]
        },
        {
            "positions": [
                1.8950185949529528,
                -1.1832922345322818,
                -0.9177453445388697,
                -1.1937922646598487,
                -0.784180654253213,
                0.9533119758900985
            ]
        },
        {
            "positions": [
                1.8056203799376167,
                -1.1765091942394434,
                -0.8064260968523946,
                -1.1543746328161437,
                -0.69676218149305,
                1.010122220632873
            ]
        },
        {
            "positions": [
                1.7162221649222804,
                -1.169726153946605,
                -0.6951068491659196,
                -1.1149570009724385,
                -0.609343708732887,
                1.0669324653756476
            ]
        },
        {
            "positions": [
                1.6268239499069441,
                -1.1629431136537665,
                -0.5837876014794448,
                -1.0755393691287336,
                -0.521925235972724,
                1.123742710118422
            ]
        },
        {
            "positions": [
                1.537425734891608,
                -1.156160073360928,
                -0.4724683537929697,
                -1.0361217372850287,
                -0.434506763212561,
                1.1805529548611966
            ]
        },
        {
            "positions": [
                1.4480275198762718,
                -1.1493770330680897,
                -0.3611491061064944,
                -0.9967041054413235,
                -0.347088290452398,
                1.2373631996039711
            ]
        },
        {
            "positions": [
                1.3586293048609355,
                -1.1425939927752513,
                -0.2498298584200196,
                -0.9572864735976184,
                -0.25966981769223496,
                1.2941734443467456
            ]
        },
        {
            "positions": [
                1.2692310898455994,
                -1.135810952482413,
                -0.13851061073354454,
                -0.9178688417539134,
                -0.17225134493207195,
                1.3509836890895202
            ]
        },
        {
            "positions": [
                1.1798328748302631,
                -1.1290279121895745,
                -0.027191363047069705,
                -0.8784512099102084,
                -0.08483287217190894,
                1.4077939338322947
            ]
        },
        {
            "positions": [
                1.0904346598149268,
                -1.1222448718967362,
                0.08412788463940557,
                -0.8390335780665032,
                0.002585600588254078,
                1.4646041785750694
            ]
        },
        {
            "positions": [
                1.0010364447995908,
                -1.1154618316038976,
                0.1954471323258804,
                -0.7996159462227982,
                0.09000407334841709,
                1.521414423317844
            ]
        },
        {
            "positions": [
                0.9116382297842545,
                -1.1086787913110592,
                0.3067663800123557,
                -0.7601983143790932,
                0.1774225461085801,
                1.5782246680606185
            ]
        },
        {
            "positions": [
                0.8222400147689184,
                -1.1018957510182208,
                0.4180856276988305,
                -0.7207806825353882,
                0.2648410188687431,
                1.635034912803393
            ]
        },
        {
            "positions": [
                0.7328417997535819,
                -1.0951127107253824,
                0.5294048753853058,
                -0.6813630506916831,
                0.35225949162890613,
                1.6918451575461675
            ]
        },
        {
            "positions": [
                0.643443584738246,
                -1.088329670432544,
                0.6407241230717806,
                -0.6419454188479781,
                0.439677964389069,
                1.748655402288942
            ]
        },
        {
            "positions": [
                0.5756507001904123,
                -1.0717092020655292,
                0.7071716415166656,
                -0.5762117501870276,
                0.42251849560452465,
                1.832489196870714
            ]
        },
        {
            "positions": [
                0.5078578156425785,
                -1.0550887336985144,
                0.7736191599615505,
                -0.5104780815260771,
                0.40535902681998026,
                1.916322991452486
            ]
        },
        {
            "positions": [
                0.44006493109474476,
                -1.0384682653314996,
                0.8400666784064355,
                -0.4447444128651266,
                0.38819955803543593,
                2.000156786034258
            ]
        },
        {
            "positions": [
                0.372272046546911,
                -1.0218477969644848,
                0.9065141968513205,
                -0.37901074420417613,
                0.37104008925089155,
                2.08399058061603
            ]
        },
        {
            "positions": [
                0.3044791619990772,
                -1.00522732859747,
                0.9729617152962055,
                -0.31327707554322565,
                0.3538806204663472,
                2.167824375197802
            ]
        },
        {
            "positions": [
                0.25719731729508566,
                -1.0118719592516068,
                1.108142816097801,
                -0.3305625890491359,
                0.3017003017964023,
                2.2824094016315244
            ]
        },
        {
            "positions": [
                0.20991547259109405,
                -1.0185165899057436,
                1.2433239168993966,
                -0.3478481025550461,
                0.24951998312645735,
                2.3969944280652467
            ]
        },
        {
            "positions": [
                0.1626336278871025,
                -1.0251612205598806,
                1.3785050177009923,
                -0.3651336160609563,
                0.1973396644565124,
                2.5115794544989685
            ]
        },
        {
            "positions": [
                0.1153517831831109,
                -1.0318058512140174,
                1.513686118502588,
                -0.3824191295668665,
                0.14515934578656747,
                2.6261644809326907
            ]
        },
        {
            "positions": [
                0.06806993847911937,
                -1.0384504818681541,
                1.6488672193041836,
                -0.39970464307277676,
                0.09297902711662255,
                2.740749507366413
            ]
        },
        {
            "positions": [
                0.08426191059841885,
                -1.0654253612623938,
                1.7388268840389989,
                -0.4924235142833254,
                0.10237485777974789,
                2.827464102926471
            ]
        },
        {
            "positions": [
                0.10045388271771834,
                -1.0924002406566338,
                1.8287865487738142,
                -0.5851423854938742,
                0.11177068844287323,
                2.9141786984865288
            ]
        },
        {
            "positions": [
                0.11664585483701782,
                -1.1193751200508735,
                1.9187462135086295,
                -0.6778612567044229,
                0.12116651910599857,
                3.0008932940465867
            ]
        },
        {
            "positions": [
                0.12308644137262068,
                -1.129717574080339,
                1.954342750451818,
                -0.7148553103173177,
                0.12249653466349157,
                3.0348326263253322
            ]
        }
    ]
}{
    "goal": {
        "global_pose": {
            "orientation": {
                "w": 0.7047431468963623,
                "x": -0.7094548344612122,
                "y": 0.0024358443915843964,
                "z": -0.0022348060738295317
            },
            "position": {
                "x": 0.6094750761985779,
                "y": 0.3671506643295288,
                "z": 0.19426114857196808
            }
        },
        "name": "move_to_magneteinheit_A"
    },
    "id": "KPIECE_move_to_magneteinheit_A_56",
    "joint_names": [
        "shoulder_pan_joint",
        "shoulder_lift_joint",
        "elbow_joint",
        "wrist_1_joint",
        "wrist_2_joint",
        "wrist_3_joint"
    ],
    "metrics": {
        "cart_traj_len": 1.4147954029780292,
        "distance_elbow_joint": 1.4495162858629909,
        "distance_shoulder_lift_joint": 0.7636310497556507,
        "distance_shoulder_pan_joint": 1.2418955808495935,
        "distance_wrist_1_joint": 2.4050927619578766,
        "distance_wrist_2_joint": 1.433929787686774,
        "distance_wrist_3_joint": 4.366176525686882,
        "smoothness": 0.29745784815917087,
        "time": 0.130735331,
        "traj_len": 3.414709649706658,
        "weighted_distance": 4.92256209639027
    },
    "planner": "KPIECE",
    "start": {
        "state": {
            "elbow_joint": 1.919643534880228,
            "shoulder_lift_joint": -1.8972525353963687,
            "shoulder_pan_joint": -1.1188672234189438,
            "wrist_1_joint": -1.5931878212786155,
            "wrist_2_joint": 1.5706036197970081,
            "wrist_3_joint": 1.118896926603594
        }
    },
    "waypoints": [
        {
            "positions": [
                -1.1188672234189438,
                -1.8972525353963687,
                1.919643534880228,
                -1.5931878212786155,
                1.5706036197970081,
                1.118896926603594
            ]
        },
        {
            "positions": [
                -1.077674218929155,
                -1.8772978338494748,
                1.887603469735763,
                -1.518773613196398,
                1.5098291248095443,
                0.9574887828836657
            ]
        },
        {
            "positions": [
                -1.036481214439366,
                -1.8573431323025806,
                1.8555634045912979,
                -1.4443594051141804,
                1.4490546298220806,
                0.7960806391637374
            ]
        },
        {
            "positions": [
                -0.9952882099495772,
                -1.8373884307556867,
                1.8235233394468329,
                -1.369945197031963,
                1.3882801348346168,
                0.6346724954438092
            ]
        },
        {
            "positions": [
                -0.9540952054597884,
                -1.8174337292087925,
                1.7914832743023676,
                -1.2955309889497455,
                1.327505639847153,
                0.4732643517238809
            ]
        },
        {
            "positions": [
                -0.9129022009699995,
                -1.7974790276618986,
                1.7594432091579026,
                -1.2211167808675278,
                1.2667311448596892,
                0.31185620800395275
            ]
        },
        {
            "positions": [
                -0.8717091964802106,
                -1.7775243261150044,
                1.7274031440134376,
                -1.1467025727853104,
                1.2059566498722254,
                0.15044806428402446
            ]
        },
        {
            "positions": [
                -0.8305161919904218,
                -1.7575696245681103,
                1.6953630788689724,
                -1.072288364703093,
                1.1451821548847616,
                -0.010960079435903713
            ]
        },
        {
            "positions": [
                -0.7893231875006329,
                -1.7376149230212163,
                1.6633230137245074,
                -0.9978741566208753,
                1.0844076598972976,
                -0.1723682231558321
            ]
        },
        {
            "positions": [
                -0.748130183010844,
                -1.7176602214743224,
                1.6312829485800422,
                -0.9234599485386578,
                1.0236331649098338,
                -0.3337763668757605
            ]
        },
        {
            "positions": [
                -0.7069371785210552,
                -1.6977055199274282,
                1.5992428834355772,
                -0.8490457404564403,
                0.96285866992237,
                -0.49518451059568847
            ]
        },
        {
            "positions": [
                -0.6657441740312664,
                -1.677750818380534,
                1.5672028182911122,
                -0.7746315323742228,
                0.9020841749349062,
                -0.6565926543156169
            ]
        },
        {
            "positions": [
                -0.6245511695414775,
                -1.6577961168336401,
                1.535162753146647,
                -0.7002173242920053,
                0.8413096799474424,
                -0.818000798035545
            ]
        },
        {
            "positions": [
                -0.5833581650516886,
                -1.6378414152867462,
                1.5031226880021817,
                -0.6258031162097877,
                0.7805351849599785,
                -0.9794089417554737
            ]
        },
        {
            "positions": [
                -0.5421651605618998,
                -1.617886713739852,
                1.4710826228577167,
                -0.5513889081275702,
                0.7197606899725149,
                -1.1408170854754014
            ]
        },
        {
            "positions": [
                -0.500972156072111,
                -1.5979320121929579,
                1.4390425577132517,
                -0.4769747000453528,
                0.6589861949850511,
                -1.3022252291953296
            ]
        },
        {
            "positions": [
                -0.45977915158232197,
                -1.577977310646064,
                1.4070024925687865,
                -0.40256049196313515,
                0.5982116999975872,
                -1.4636333729152582
            ]
        },
        {
            "positions": [
                -0.41858614709253317,
                -1.55802260909917,
                1.3749624274243215,
                -0.3281462838809177,
                0.5374372050101235,
                -1.6250415166351864
            ]
        },
        {
            "positions": [
                -0.37739314260274426,
                -1.5380679075522758,
                1.3429223622798565,
                -0.25373207579870005,
                0.4766627100226595,
                -1.786449660355115
            ]
        },
        {
            "positions": [
                -0.33620013811295546,
                -1.5181132060053817,
                1.3108822971353913,
                -0.17931786771648262,
                0.4158882150351957,
                -1.9478578040750432
            ]
        },
        {
            "positions": [
                -0.29500713362316655,
                -1.4981585044584877,
                1.2788422319909263,
                -0.10490365963426518,
                0.3551137200477319,
                -2.109265947794971
            ]
        },
        {
            "positions": [
                -0.25381412913337764,
                -1.4782038029115938,
                1.2468021668464613,
                -0.03048945155204752,
                0.2943392250602681,
                -2.2706740915148993
            ]
        },
        {
            "positions": [
                -0.21262112464358884,
                -1.4582491013646997,
                1.214762101701996,
                0.043924756530169806,
                0.23356473007280434,
                -2.4320822352348275
            ]
        },
        {
            "positions": [
                -0.170664939384309,
                -1.417670649399202,
                1.3078414582875908,
                -0.05207276648846655,
                0.22145336782748315,
                -2.533981905715885
            ]
        },
        {
            "positions": [
                -0.12870875412502913,
                -1.3770921974337043,
                1.4009208148731858,
                -0.1480702895071029,
                0.20934200558216193,
                -2.6358815761969425
            ]
        },
        {
            "positions": [
                -0.08675256886574931,
                -1.3365137454682066,
                1.4940001714587807,
                -0.24406781252573928,
                0.19723064333684073,
                -2.7377812466780003
            ]
        },
        {
            "positions": [
                -0.04479638360646945,
                -1.2959352935027089,
                1.5870795280443755,
                -0.3400653355443756,
                0.18511928109151954,
                -2.8396809171590576
            ]
        },
        {
            "positions": [
                -0.0028401983471895986,
                -1.2553568415372112,
                1.6801588846299702,
                -0.43606285856301197,
                0.17300791884619832,
                -2.9415805876401153
            ]
        },
        {
            "positions": [
                0.03911598691209023,
                -1.2147783895717135,
                1.7732382412155652,
                -0.5320603815816484,
                0.16089655660087712,
                -3.043480258121173
            ]
        },
        {
            "positions": [
                0.08107217217137008,
                -1.1741999376062158,
                1.8663175978011601,
                -0.6280579046002847,
                0.14878519435555593,
                -3.145379928602231
            ]
        },
        {
            "positions": [
                0.12302835743064992,
                -1.133621485640718,
                1.9593969543867549,
                -0.724055427618921,
                0.1366738321102347,
                -3.247279599083288
            ]
        }
    ]
}