{
    "goal": {
        "global_pose": {
            "orientation": {
                "w": 0.5084816217422485,
                "x": -0.49083608388900757,
                "y": 0.5182115435600281,
                "z": -0.4816462993621826
            },
            "position": {
                "x": 0.5540239810943604,
                "y": 0.030875300988554955,
                "z": 0.16403168439865112
            }
        },
        "name": "move_to_storage_A"
    },
    "id": "KPIECE_move_to_storage_A_138",
    "joint_names": [
        "shoulder_pan_joint",
        "shoulder_lift_joint",
        "elbow_joint",
        "wrist_1_joint",
        "wrist_2_joint",
        "wrist_3_joint"
    ],
    "metrics": {
        "cart_traj_len": 0.3535414714450097,
        "distance_elbow_joint": 0.45036294687050393,
        "distance_shoulder_lift_joint": 0.23499030764683249,
        "distance_shoulder_pan_joint": 0.46490173936282336,
        "distance_wrist_1_joint": 0.2375498788207956,
        "distance_wrist_2_joint": 1.0894065353018405,
        "distance_wrist_3_joint": 0.10463092930187745,
        "smoothness": 8.881784197001252e-16,
        "time": 0.033996027,
        "traj_len": 1.6068112326296058,
        "weighted_distance": 2.0293005223551943
    },
    "planner": "KPIECE",
    "start": {
        "state": {
            "elbow_joint": 1.9715477243005601,
            "shoulder_lift_joint": -1.1394853015351272,
            "shoulder_pan_joint": 0.12281154014795169,
            "wrist_1_joint": -0.7804696478968182,
            "wrist_2_joint": 0.12958648046900423,
            "wrist_3_joint": -3.192491284697111
        }
    },
    "waypoints": [
        {
            "positions": [
                0.12281154014795169,
                -1.1394853015351272,
                1.9715477243005601,
                -0.7804696478968182,
                0.12958648046900423,
                -3.192491284697111
            ]
        },
        {
            "positions": [
                0.056397005953262636,
                -1.1730553454846746,
                2.0358852881392036,
                -0.8144053448712175,
                0.2852159855121243,
                -3.177544009082557
            ]
        },
        {
            "positions": [
                -0.010017528241426418,
                -1.2066253894342223,
                2.100222851977847,
                -0.8483410418456169,
                0.44084549055524436,
                -3.1625967334680034
            ]
        },
        {
            "positions": [
                -0.07643206243611546,
                -1.2401954333837697,
                2.1645604158164904,
                -0.8822767388200162,
                0.5964749955983644,
                -3.1476494578534493
            ]
        },
        {
            "positions": [
                -0.1428465966308045,
                -1.2737654773333171,
                2.228897979655134,
                -0.9162124357944157,
                0.7521045006414845,
                -3.1327021822388956
            ]
        },
        {
            "positions": [
                -0.20926113082549358,
                -1.3073355212828646,
                2.2932355434937772,
                -0.950148132768815,
                0.9077340056846046,
                -3.1177549066243415
            ]
        },
        {
            "positions": [
                -0.2756756650201826,
                -1.3409055652324122,
                2.3575731073324206,
                -0.9840838297432144,
                1.0633635107277246,
                -3.102807631009788
            ]
        },
        {
            "positions": [
                -0.34209019921487166,
                -1.3744756091819597,
                2.421910671171064,
                -1.0180195267176138,
                1.2189930157708446,
                -3.0878603553952337
            ]
        }
    ]
}