{
    "goal": {
        "global_pose": {
            "orientation": {
                "w": 0.5084816217422485,
                "x": -0.49083608388900757,
                "y": 0.5182115435600281,
                "z": -0.4816462993621826
            },
            "position": {
                "x": 0.5540239810943604,
                "y": 0.030875300988554955,
                "z": 0.16403168439865112
            }
        },
        "name": "move_to_storage_A"
    },
    "id": "KPIECE_move_to_storage_A_62",
    "joint_names": [
        "shoulder_pan_joint",
        "shoulder_lift_joint",
        "elbow_joint",
        "wrist_1_joint",
        "wrist_2_joint",
        "wrist_3_joint"
    ],
    "metrics": {
        "cart_traj_len": 0.35292176338969805,
        "distance_elbow_joint": 0.44915634301397844,
        "distance_shoulder_lift_joint": 0.2346215033680863,
        "distance_shoulder_pan_joint": 0.4621212028370048,
        "distance_wrist_1_joint": 0.24199980116302922,
        "distance_wrist_2_joint": 1.0955481687369053,
        "distance_wrist_3_joint": 0.09665505871215041,
        "smoothness": 0.0,
        "time": 0.058710698000000006,
        "traj_len": 1.6062696155475127,
        "weighted_distance": 2.027550286714337
    },
    "planner": "KPIECE",
    "start": {
        "state": {
            "elbow_joint": 1.9715477243005601,
            "shoulder_lift_joint": -1.1394853015351272,
            "shoulder_pan_joint": 0.12281154014795169,
            "wrist_1_joint": -0.7804696478968182,
            "wrist_2_joint": 0.12958648046900423,
            "wrist_3_joint": -3.192491284697111
        }
    },
    "waypoints": [
        {
            "positions": [
                0.12281154014795169,
                -1.1394853015351272,
                1.9715477243005601,
                -0.7804696478968182,
                0.12958648046900423,
                -3.192491284697111
            ]
        },
        {
            "positions": [
                0.05679422545695101,
                -1.1730026591591396,
                2.0357129161597,
                -0.8150410480629652,
                0.2860933617171335,
                -3.178683419166804
            ]
        },
        {
            "positions": [
                -0.009223089234049672,
                -1.2065200167831518,
                2.0998781080188396,
                -0.8496124482291122,
                0.44260024296526285,
                -3.164875553636497
            ]
        },
        {
            "positions": [
                -0.07524040392505037,
                -1.2400373744071642,
                2.1640432998779793,
                -0.8841838483952592,
                0.5991071242133922,
                -3.1510676881061896
            ]
        },
        {
            "positions": [
                -0.14125771861605102,
                -1.2735547320311764,
                2.228208491737119,
                -0.9187552485614063,
                0.7556140054615215,
                -3.1372598225758823
            ]
        },
        {
            "positions": [
                -0.20727503330705171,
                -1.3070720896551888,
                2.292373683596259,
                -0.9533266487275533,
                0.9121208867096509,
                -3.123451957045575
            ]
        },
        {
            "positions": [
                -0.2732923479980524,
                -1.340589447279201,
                2.356538875455399,
                -0.9878980488937004,
                1.0686277679577803,
                -3.109644091515268
            ]
        },
        {
            "positions": [
                -0.3393096626890531,
                -1.3741068049032135,
                2.4207040673145386,
                -1.0224694490598474,
                1.2251346492059096,
                -3.0958362259849608
            ]
        }
    ]
}