{
    "goal": {
        "global_pose": {
            "orientation": {
                "w": 0.7047431468963623,
                "x": -0.7094548344612122,
                "y": 0.0024358443915843964,
                "z": -0.0022348060738295317
            },
            "position": {
                "x": 0.6094750761985779,
                "y": 0.3671506643295288,
                "z": 0.19426114857196808
            }
        },
        "name": "move_to_magneteinheit_A"
    },
    "id": "KPIECE_move_to_magneteinheit_A_54",
    "joint_names": [
        "shoulder_pan_joint",
        "shoulder_lift_joint",
        "elbow_joint",
        "wrist_1_joint",
        "wrist_2_joint",
        "wrist_3_joint"
    ],
    "metrics": {
        "cart_traj_len": 3.209165710067621,
        "distance_elbow_joint": 4.505703951914888,
        "distance_shoulder_lift_joint": 1.6844193500105509,
        "distance_shoulder_pan_joint": 3.2090931407040673,
        "distance_wrist_1_joint": 3.452163839801119,
        "distance_wrist_2_joint": 3.763952670212008,
        "distance_wrist_3_joint": 0.5349081970893299,
        "smoothness": 0.3397867244725757,
        "time": 0.099410111,
        "traj_len": 4.141284963599096,
        "weighted_distance": 5.043428799331241
    },
    "planner": "KPIECE",
    "start": {
        "state": {
            "elbow_joint": -1.919618573717145,
            "shoulder_lift_joint": -1.2443395971678275,
            "shoulder_pan_joint": 2.6996025300909787,
            "wrist_1_joint": -1.548550951253194,
            "wrist_2_joint": -1.5709469090946802,
            "wrist_3_joint": 0.4420197732051276
        }
    },
    "waypoints": [
        {
            "positions": [
                2.6996025300909787,
                -1.2443395971678275,
                -1.919618573717145,
                -1.548550951253194,
                -1.5709469090946802,
                0.4420197732051276
            ]
        },
        {
            "positions": [
                2.6088393163100854,
                -1.2645625781027865,
                -1.8113344890866672,
                -1.4758486923621812,
                -1.4841034452969042,
                0.4309811555289815
            ]
        },
        {
            "positions": [
                2.5180761025291925,
                -1.2847855590377455,
                -1.7030504044561894,
                -1.403146433471168,
                -1.3972599814991282,
                0.4199425378528354
            ]
        },
        {
            "positions": [
                2.427312888748299,
                -1.3050085399727043,
                -1.5947663198257116,
                -1.3304441745801552,
                -1.3104165177013523,
                0.4089039201766893
            ]
        },
        {
            "positions": [
                2.336549674967406,
                -1.3252315209076633,
                -1.4864822351952336,
                -1.2577419156891423,
                -1.2235730539035763,
                0.3978653025005432
            ]
        },
        {
            "positions": [
                2.245786461186513,
                -1.3454545018426223,
                -1.378198150564756,
                -1.1850396567981294,
                -1.1367295901058003,
                0.38682668482439714
            ]
        },
        {
            "positions": [
                2.15502324740562,
                -1.3656774827775813,
                -1.269914065934278,
                -1.1123373979071163,
                -1.0498861263080244,
                0.375788067148251
            ]
        },
        {
            "positions": [
                2.0642600336247265,
                -1.38590046371254,
                -1.1616299813038002,
                -1.0396351390161032,
                -0.9630426625102483,
                0.36474944947210497
            ]
        },
        {
            "positions": [
                1.9734968198438336,
                -1.406123444647499,
                -1.0533458966733225,
                -0.9669328801250904,
                -0.8761991987124723,
                0.35371083179595886
            ]
        },
        {
            "positions": [
                1.8827336060629403,
                -1.426346425582458,
                -0.9450618120428447,
                -0.8942306212340774,
                -0.7893557349146963,
                0.34267221411981275
            ]
        },
        {
            "positions": [
                1.7919703922820474,
                -1.446569406517417,
                -0.8367777274123669,
                -0.8215283623430645,
                -0.7025122711169204,
                0.3316335964436667
            ]
        },
        {
            "positions": [
                1.701207178501154,
                -1.4667923874523758,
                -0.7284936427818891,
                -0.7488261034520515,
                -0.6156688073191444,
                0.3205949787675206
            ]
        },
        {
            "positions": [
                1.6104439647202609,
                -1.4870153683873348,
                -0.6202095581514111,
                -0.6761238445610385,
                -0.5288253435213683,
                0.3095563610913745
            ]
        },
        {
            "positions": [
                1.5196807509393677,
                -1.5072383493222938,
                -0.5119254735209333,
                -0.6034215856700255,
                -0.4419818797235924,
                0.2985177434152284
            ]
        },
        {
            "positions": [
                1.4289175371584746,
                -1.5274613302572528,
                -0.40364138889045553,
                -0.5307193267790125,
                -0.3551384159258164,
                0.2874791257390823
            ]
        },
        {
            "positions": [
                1.3381543233775814,
                -1.5476843111922118,
                -0.29535730425997775,
                -0.45801706788799956,
                -0.26829495212804044,
                0.2764405080629362
            ]
        },
        {
            "positions": [
                1.2473911095966883,
                -1.5679072921271706,
                -0.18707321962949996,
                -0.38531480899698667,
                -0.18145148833026448,
                0.26540189038679013
            ]
        },
        {
            "positions": [
                1.1566278958157952,
                -1.5881302730621296,
                -0.07878913499902218,
                -0.31261255010597355,
                -0.09460802453248851,
                0.2543632727106441
            ]
        },
        {
            "positions": [
                1.065864682034902,
                -1.6083532539970886,
                0.029494949631455603,
                -0.23991029121496066,
                -0.0077645607347125445,
                0.24332465503449793
            ]
        },
        {
            "positions": [
                0.9751014682540089,
                -1.6285762349320474,
                0.1377790342619336,
                -0.16720803232394776,
                0.07907890306306342,
                0.23228603735835185
            ]
        },
        {
            "positions": [
                0.8843382544731158,
                -1.6487992158670064,
                0.24606311889241117,
                -0.09450577343293487,
                0.1659223668608394,
                0.22124741968220576
            ]
        },
        {
            "positions": [
                0.7935750406922226,
                -1.6690221968019654,
                0.3543472035228892,
                -0.021803514541921754,
                0.25276583065861535,
                0.21020880200605968
            ]
        },
        {
            "positions": [
                0.7028118269113295,
                -1.6892451777369244,
                0.46263128815336674,
                0.05089874434909114,
                0.3396092944563913,
                0.1991701843299136
            ]
        },
        {
            "positions": [
                0.6120486131304359,
                -1.7094681586718834,
                0.5709153727838447,
                0.12360100324010426,
                0.4264527582541675,
                0.18813156665376746
            ]
        },
        {
            "positions": [
                0.521285399349543,
                -1.7296911396068424,
                0.6791994574143227,
                0.19630326213111715,
                0.5132962220519435,
                0.1770929489776214
            ]
        },
        {
            "positions": [
                0.43052218556864963,
                -1.7499141205418014,
                0.7874835420448003,
                0.26900552102213027,
                0.6001396858497197,
                0.1660543313014753
            ]
        },
        {
            "positions": [
                0.3397589717877567,
                -1.7701371014767602,
                0.8957676266752783,
                0.34170777991314316,
                0.6869831496474954,
                0.15501571362532918
            ]
        },
        {
            "positions": [
                0.24899575800686335,
                -1.7903600824117192,
                1.0040517113057559,
                0.41441003880415606,
                0.7738266134452716,
                0.14397709594918312
            ]
        },
        {
            "positions": [
                0.15823254422597044,
                -1.810583063346678,
                1.1123357959362339,
                0.48711229769516917,
                0.8606700772430473,
                0.132938478273037
            ]
        },
        {
            "positions": [
                0.06746933044507708,
                -1.830806044281637,
                1.2206198805667114,
                0.5598145565861818,
                0.9475135410408235,
                0.12189986059689095
            ]
        },
        {
            "positions": [
                -0.02329388333581594,
                -1.851029025216596,
                1.3289039651971895,
                0.6325168154771952,
                1.0343570048385993,
                0.11086124292074485
            ]
        },
        {
            "positions": [
                -0.04030222016813109,
                -1.761205786093467,
                1.4245829874634444,
                0.7377816567696736,
                0.9710373628142809,
                0.09613530241304094
            ]
        },
        {
            "positions": [
                -0.057310557000446245,
                -1.6713825469703378,
                1.520262009729699,
                0.8430464980621519,
                0.9077177207899625,
                0.08140936190533701
            ]
        },
        {
            "positions": [
                -0.07431889383276138,
                -1.581559307847209,
                1.6159410319959537,
                0.9483113393546303,
                0.844398078765644,
                0.06668342139763311
            ]
        },
        {
            "positions": [
                -0.09132723066507656,
                -1.49173606872408,
                1.7116200542622086,
                1.053576180647109,
                0.7810784367413256,
                0.051957480889929186
            ]
        },
        {
            "positions": [
                -0.1083355674973917,
                -1.4019128296009509,
                1.8072990765284636,
                1.1588410219395873,
                0.7177587947170072,
                0.03723154038222527
            ]
        },
        {
            "positions": [
                -0.12534390432970685,
                -1.312089590477822,
                1.9029780987947182,
                1.2641058632320656,
                0.6544391526926888,
                0.02250559987452136
            ]
        },
        {
            "positions": [
                -0.142352241162022,
                -1.222266351354693,
                1.998657121060973,
                1.369370704524544,
                0.5911195106683704,
                0.007779659366817446
            ]
        },
        {
            "positions": [
                -0.15936057799433717,
                -1.132443112231564,
                2.0943361433272276,
                1.4746355458170224,
                0.5277998686440519,
                -0.006946281140886482
            ]
        },
        {
            "positions": [
                -0.17636891482665232,
                -1.0426198731084348,
                2.1900151655934827,
                1.5799003871095008,
                0.46448022661973354,
                -0.02167222164859041
            ]
        },
        {
            "positions": [
                -0.19337725165896746,
                -0.9527966339853059,
                2.2856941878597374,
                1.6851652284019791,
                0.40116058459541515,
                -0.03639816215629432
            ]
        },
        {
            "positions": [
                -0.1301545798681431,
                -0.9168971278392074,
                2.2256159497921364,
                1.7288547604311684,
                0.2960701173883065,
                -0.02510010981071271
            ]
        },
        {
            "positions": [
                -0.06693190807731877,
                -0.880997621693109,
                2.165537711724535,
                1.7725442924603576,
                0.19097965018119786,
                -0.0138020574651311
            ]
        },
        {
            "positions": [
                -0.0037092362864944717,
                -0.8450981155470105,
                2.105459473656934,
                1.8162338244895466,
                0.08588918297408926,
                -0.002504005119549492
            ]
        },
        {
            "positions": [
                0.059513435504329915,
                -0.809198609400912,
                2.0453812355893324,
                1.8599233565187359,
                -0.019201284233019422,
                0.008794047226032123
            ]
        },
        {
            "positions": [
                0.1227361072951542,
                -0.7732991032548137,
                1.9853029975217313,
                1.903612888547925,
                -0.12429175144012806,
                0.02009209957161373
            ]
        }
    ]
}{
    "goal": {
        "global_pose": {
            "orientation": {
                "w": 0.7047431468963623,
                "x": -0.7094548344612122,
                "y": 0.0024358443915843964,
                "z": -0.0022348060738295317
            },
            "position": {
                "x": 0.6094750761985779,
                "y": 0.3671506643295288,
                "z": 0.19426114857196808
            }
        },
        "name": "move_to_magneteinheit_A"
    },
    "id": "KPIECE_move_to_magneteinheit_A_54",
    "joint_names": [
        "shoulder_pan_joint",
        "shoulder_lift_joint",
        "elbow_joint",
        "wrist_1_joint",
        "wrist_2_joint",
        "wrist_3_joint"
    ],
    "metrics": {
        "cart_traj_len": 1.2499768243752796,
        "distance_elbow_joint": 0.07191277702410948,
        "distance_shoulder_lift_joint": 1.1213148606026486,
        "distance_shoulder_pan_joint": 1.2413227317407116,
        "distance_wrist_1_joint": 3.5030119830387227,
        "distance_wrist_2_joint": 1.703942085486128,
        "distance_wrist_3_joint": 1.0996119707726792,
        "smoothness": 0.0,
        "time": 0.19663318400000002,
        "traj_len": 2.9565379092216966,
        "weighted_distance": 4.0183696219655065
    },
    "planner": "KPIECE",
    "start": {
        "state": {
            "elbow_joint": 1.919643534880228,
            "shoulder_lift_joint": -1.8972525353963687,
            "shoulder_pan_joint": -1.1188672234189438,
            "wrist_1_joint": -1.5931878212786155,
            "wrist_2_joint": 1.5706036197970081,
            "wrist_3_joint": 1.118896926603594
        }
    },
    "waypoints": [
        {
            "positions": [
                -1.1188672234189438,
                -1.8972525353963687,
                1.919643534880228,
                -1.5931878212786155,
                1.5706036197970081,
                1.118896926603594
            ]
        },
        {
            "positions": [
                -1.064896669865,
                -1.8484997153701666,
                1.9227701773595371,
                -1.4408829524508449,
                1.4965191812976113,
                1.0710877104830427
            ]
        },
        {
            "positions": [
                -1.0109261163110559,
                -1.7997468953439646,
                1.9258968198388464,
                -1.2885780836230745,
                1.4224347427982145,
                1.0232784943624915
            ]
        },
        {
            "positions": [
                -0.9569555627571119,
                -1.7509940753177624,
                1.9290234623181555,
                -1.1362732147953039,
                1.3483503042988176,
                0.9754692782419402
            ]
        },
        {
            "positions": [
                -0.9029850092031679,
                -1.7022412552915602,
                1.9321501047974645,
                -0.9839683459675332,
                1.2742658657994206,
                0.9276600621213889
            ]
        },
        {
            "positions": [
                -0.849014455649224,
                -1.6534884352653583,
                1.9352767472767736,
                -0.8316634771397627,
                1.2001814273000238,
                0.8798508460008376
            ]
        },
        {
            "positions": [
                -0.79504390209528,
                -1.604735615239156,
                1.9384033897560828,
                -0.6793586083119921,
                1.126096988800627,
                0.8320416298802864
            ]
        },
        {
            "positions": [
                -0.7410733485413359,
                -1.555982795212954,
                1.941530032235392,
                -0.5270537394842216,
                1.0520125503012299,
                0.7842324137597351
            ]
        },
        {
            "positions": [
                -0.687102794987392,
                -1.507229975186752,
                1.944656674714701,
                -0.374748870656451,
                0.9779281118018331,
                0.7364231976391837
            ]
        },
        {
            "positions": [
                -0.6331322414334479,
                -1.4584771551605498,
                1.94778331719401,
                -0.2224440018286804,
                0.9038436733024363,
                0.6886139815186325
            ]
        },
        {
            "positions": [
                -0.5791616878795041,
                -1.4097243351343476,
                1.9509099596733193,
                -0.07013913300091001,
                0.8297592348030395,
                0.6408047653980813
            ]
        },
        {
            "positions": [
                -0.52519113432556,
                -1.3609715151081456,
                1.9540366021526283,
                0.0821657358268606,
                0.7556747963036425,
                0.59299554927753
            ]
        },
        {
            "positions": [
                -0.4712205807716161,
                -1.3122186950819432,
                1.9571632446319374,
                0.2344706046546312,
                0.6815903578042457,
                0.5451863331569787
            ]
        },
        {
            "positions": [
                -0.4172500272176721,
                -1.2634658750557413,
                1.9602898871112464,
                0.3867754734824016,
                0.6075059193048489,
                0.4973771170364275
            ]
        },
        {
            "positions": [
                -0.36327947366372804,
                -1.214713055029539,
                1.9634165295905557,
                0.5390803423101722,
                0.5334214808054518,
                0.4495679009158762
            ]
        },
        {
            "positions": [
                -0.30930892010978406,
                -1.165960235003337,
                1.9665431720698647,
                0.6913852111379428,
                0.459337042306055,
                0.40175868479532484
            ]
        },
        {
            "positions": [
                -0.2553383665558402,
                -1.117207414977135,
                1.9696698145491738,
                0.8436900799657134,
                0.38525260380665816,
                0.3539494686747736
            ]
        },
        {
            "positions": [
                -0.2013678130018962,
                -1.068454594950933,
                1.9727964570284828,
                0.9959949487934836,
                0.3111681653072613,
                0.3061402525542224
            ]
        },
        {
            "positions": [
                -0.14739725944795212,
                -1.0197017749247306,
                1.975923099507792,
                1.1482998176212547,
                0.2370837268078645,
                0.25833103643367106
            ]
        },
        {
            "positions": [
                -0.09342670589400814,
                -0.9709489548985286,
                1.9790497419871012,
                1.3006046864490253,
                0.16299928830846766,
                0.21052182031311983
            ]
        },
        {
            "positions": [
                -0.03945615234006428,
                -0.9221961348723264,
                1.9821763844664102,
                1.4529095552767954,
                0.08891484980907083,
                0.1627126041925686
            ]
        },
        {
            "positions": [
                0.014514401213879813,
                -0.8734433148461245,
                1.9853030269457193,
                1.605214424104566,
                0.014830411309673996,
                0.11490338807201739
            ]
        },
        {
            "positions": [
                0.0684849547678239,
                -0.8246904948199223,
                1.9884296694250285,
                1.7575192929323367,
                -0.05925402718972306,
                0.06709417195146594
            ]
        },
        {
            "positions": [
                0.12245550832176787,
                -0.7759376747937202,
                1.9915563119043376,
                1.9098241617601073,
                -0.13333846568911992,
                0.01928495583091478
            ]
        }
    ]
}