{
    "goal": {
        "global_pose": {
            "orientation": {
                "w": 0.7047431468963623,
                "x": -0.7094548344612122,
                "y": 0.0024358443915843964,
                "z": -0.0022348060738295317
            },
            "position": {
                "x": 0.6094750761985779,
                "y": 0.3671506643295288,
                "z": 0.19426114857196808
            }
        },
        "name": "move_to_magneteinheit_A"
    },
    "id": "KPIECE_move_to_magneteinheit_A_4",
    "joint_names": [
        "shoulder_pan_joint",
        "shoulder_lift_joint",
        "elbow_joint",
        "wrist_1_joint",
        "wrist_2_joint",
        "wrist_3_joint"
    ],
    "metrics": {
        "cart_traj_len": 3.6146244213183207,
        "distance_elbow_joint": 3.8958446747150433,
        "distance_shoulder_lift_joint": 0.10133841802774901,
        "distance_shoulder_pan_joint": 3.0955571264578023,
        "distance_wrist_1_joint": 0.8221322312135689,
        "distance_wrist_2_joint": 1.7063476770548611,
        "distance_wrist_3_joint": 3.613670345634355,
        "smoothness": 0.10497740931749498,
        "time": 0.11111461,
        "traj_len": 3.6379788994857263,
        "weighted_distance": 4.7948629878903235
    },
    "planner": "KPIECE",
    "start": {
        "state": {
            "elbow_joint": -1.919618573717145,
            "shoulder_lift_joint": -1.2443395971678275,
            "shoulder_pan_joint": 2.6996025300909787,
            "wrist_1_joint": -1.548550951253194,
            "wrist_2_joint": -1.5709469090946802,
            "wrist_3_joint": 0.4420197732051276
        }
    },
    "waypoints": [
        {
            "positions": [
                2.6996025300909787,
                -1.2443395971678275,
                -1.919618573717145,
                -1.548550951253194,
                -1.5709469090946802,
                0.4420197732051276
            ]
        },
        {
            "positions": [
                2.598304033330618,
                -1.242210822155505,
                -1.8016495598760998,
                -1.5204379022258854,
                -1.5187752552695268,
                0.357273481455017
            ]
        },
        {
            "positions": [
                2.4970055365702573,
                -1.2400820471431826,
                -1.6836805460350546,
                -1.4923248531985767,
                -1.4666036014443735,
                0.2725271897049063
            ]
        },
        {
            "positions": [
                2.395707039809897,
                -1.2379532721308601,
                -1.5657115321940094,
                -1.4642118041712682,
                -1.41443194761922,
                0.1877808979547957
            ]
        },
        {
            "positions": [
                2.2944085430495362,
                -1.2358244971185377,
                -1.4477425183529642,
                -1.4360987551439595,
                -1.3622602937940667,
                0.10303460620468508
            ]
        },
        {
            "positions": [
                2.1931100462891755,
                -1.233695722106215,
                -1.329773504511919,
                -1.4079857061166507,
                -1.3100886399689133,
                0.018288314454574406
            ]
        },
        {
            "positions": [
                2.0918115495288148,
                -1.2315669470938926,
                -1.2118044906708738,
                -1.379872657089342,
                -1.25791698614376,
                -0.06645797729553621
            ]
        },
        {
            "positions": [
                1.9905130527684542,
                -1.2294381720815701,
                -1.0938354768298286,
                -1.3517596080620333,
                -1.2057453323186067,
                -0.15120426904564682
            ]
        },
        {
            "positions": [
                1.8892145560080937,
                -1.2273093970692477,
                -0.9758664629887834,
                -1.3236465590347248,
                -1.1535736784934534,
                -0.23595056079575744
            ]
        },
        {
            "positions": [
                1.787916059247733,
                -1.2251806220569252,
                -0.8578974491477382,
                -1.2955335100074161,
                -1.1014020246682998,
                -0.32069685254586816
            ]
        },
        {
            "positions": [
                1.6866175624873723,
                -1.2230518470446028,
                -0.739928435306693,
                -1.2674204609801074,
                -1.0492303708431465,
                -0.4054431442959788
            ]
        },
        {
            "positions": [
                1.5853190657270118,
                -1.2209230720322803,
                -0.6219594214656479,
                -1.2393074119527987,
                -0.9970587170179932,
                -0.4901894360460893
            ]
        },
        {
            "positions": [
                1.484020568966651,
                -1.218794297019958,
                -0.5039904076246027,
                -1.21119436292549,
                -0.9448870631928399,
                -0.5749357277962
            ]
        },
        {
            "positions": [
                1.3827220722062903,
                -1.2166655220076354,
                -0.3860213937835575,
                -1.1830813138981813,
                -0.8927154093676865,
                -0.6596820195463107
            ]
        },
        {
            "positions": [
                1.2814235754459298,
                -1.214536746995313,
                -0.2680523799425123,
                -1.1549682648708728,
                -0.8405437555425331,
                -0.7444283112964212
            ]
        },
        {
            "positions": [
                1.1801250786855693,
                -1.2124079719829903,
                -0.1500833661014671,
                -1.126855215843564,
                -0.7883721017173798,
                -0.8291746030465317
            ]
        },
        {
            "positions": [
                1.0788265819252085,
                -1.2102791969706679,
                -0.03211435226042192,
                -1.0987421668162554,
                -0.7362004478922265,
                -0.9139208947966424
            ]
        },
        {
            "positions": [
                0.977528085164848,
                -1.2081504219583454,
                0.08585466158062327,
                -1.0706291177889469,
                -0.6840287940670732,
                -0.9986671865467529
            ]
        },
        {
            "positions": [
                0.8762295884044871,
                -1.206021646946023,
                0.20382367542166846,
                -1.0425160687616382,
                -0.6318571402419196,
                -1.0834134782968639
            ]
        },
        {
            "positions": [
                0.7749310916441265,
                -1.2038928719337005,
                0.32179268926271365,
                -1.0144030197343294,
                -0.5796854864167663,
                -1.1681597700469744
            ]
        },
        {
            "positions": [
                0.6736325948837658,
                -1.201764096921378,
                0.43976170310375884,
                -0.9862899707070207,
                -0.5275138325916129,
                -1.252906061797085
            ]
        },
        {
            "positions": [
                0.5723340981234051,
                -1.1996353219090556,
                0.557730716944804,
                -0.958176921679712,
                -0.47534217876645957,
                -1.3376523535471956
            ]
        },
        {
            "positions": [
                0.4710356013630448,
                -1.1975065468967332,
                0.6756997307858492,
                -0.9300638726524034,
                -0.42317052494130625,
                -1.422398645297306
            ]
        },
        {
            "positions": [
                0.36973710460268405,
                -1.1953777718844107,
                0.7936687446268944,
                -0.9019508236250947,
                -0.37099887111615293,
                -1.5071449370474168
            ]
        },
        {
            "positions": [
                0.2684386078423233,
                -1.193248996872088,
                0.9116377584679396,
                -0.8738377745977861,
                -0.3188272172909996,
                -1.5918912287975275
            ]
        },
        {
            "positions": [
                0.16714011108196258,
                -1.1911202218597656,
                1.0296067723089848,
                -0.8457247255704773,
                -0.26665556346584607,
                -1.6766375205476383
            ]
        },
        {
            "positions": [
                0.06584161432160185,
                -1.1889914468474432,
                1.14757578615003,
                -0.8176116765431687,
                -0.21448390964069275,
                -1.761383812297749
            ]
        },
        {
            "positions": [
                -0.03545688243875844,
                -1.1868626718351207,
                1.2655447999910752,
                -0.78949862751586,
                -0.16231225581553943,
                -1.8461301040478593
            ]
        },
        {
            "positions": [
                -0.136755379199119,
                -1.1847338968227983,
                1.3835138138321201,
                -0.7613855784885514,
                -0.11014060199038603,
                -1.9308763957979702
            ]
        },
        {
            "positions": [
                -0.09752786592380652,
                -1.1789533317713894,
                1.47737617006784,
                -0.7658318441677447,
                -0.06928287151143035,
                -2.1277475833519657
            ]
        },
        {
            "positions": [
                -0.058300352648494036,
                -1.1731727667199805,
                1.5712385263035602,
                -0.7702781098469381,
                -0.028425141032474677,
                -2.3246187709059614
            ]
        },
        {
            "positions": [
                -0.019072839373181535,
                -1.1673922016685716,
                1.6651008825392801,
                -0.7747243755261315,
                0.012432589446480999,
                -2.521489958459957
            ]
        },
        {
            "positions": [
                0.020154673902130937,
                -1.1616116366171625,
                1.758963238775,
                -0.7791706412053248,
                0.053290319925436674,
                -2.7183611460139527
            ]
        },
        {
            "positions": [
                0.05938218717744345,
                -1.1558310715657536,
                1.8528255950107202,
                -0.7836169068845181,
                0.09414805040439236,
                -2.9152323335679484
            ]
        },
        {
            "positions": [
                0.09860970045275594,
                -1.1500505065143447,
                1.9466879512464401,
                -0.7880631725637115,
                0.13500578088334803,
                -3.112103521121944
            ]
        },
        {
            "positions": [
                0.12244383796858621,
                -1.1430011791400785,
                1.976226100997898,
                -0.7963524369374776,
                0.13461079380651503,
                -3.1716505724292277
            ]
        }
    ]
}{
    "goal": {
        "global_pose": {
            "orientation": {
                "w": 0.7047431468963623,
                "x": -0.7094548344612122,
                "y": 0.0024358443915843964,
                "z": -0.0022348060738295317
            },
            "position": {
                "x": 0.6094750761985779,
                "y": 0.3671506643295288,
                "z": 0.19426114857196808
            }
        },
        "name": "move_to_magneteinheit_A"
    },
    "id": "KPIECE_move_to_magneteinheit_A_4",
    "joint_names": [
        "shoulder_pan_joint",
        "shoulder_lift_joint",
        "elbow_joint",
        "wrist_1_joint",
        "wrist_2_joint",
        "wrist_3_joint"
    ],
    "metrics": {
        "cart_traj_len": 1.344162545048631,
        "distance_elbow_joint": 0.05198218195439264,
        "distance_shoulder_lift_joint": 0.9339944105136346,
        "distance_shoulder_pan_joint": 1.316836152134441,
        "distance_wrist_1_joint": 1.1569071684850645,
        "distance_wrist_2_joint": 1.45093396593827,
        "distance_wrist_3_joint": 4.365629200014255,
        "smoothness": 0.44741471961520995,
        "time": 0.119222743,
        "traj_len": 3.045699111704907,
        "weighted_distance": 4.540416568277838
    },
    "planner": "KPIECE",
    "start": {
        "state": {
            "elbow_joint": 1.919643534880228,
            "shoulder_lift_joint": -1.8972525353963687,
            "shoulder_pan_joint": -1.1188672234189438,
            "wrist_1_joint": -1.5931878212786155,
            "wrist_2_joint": 1.5706036197970081,
            "wrist_3_joint": 1.118896926603594
        }
    },
    "waypoints": [
        {
            "positions": [
                -1.1188672234189438,
                -1.8972525353963687,
                1.919643534880228,
                -1.5931878212786155,
                1.5706036197970081,
                1.118896926603594
            ]
        },
        {
            "positions": [
                -1.0632734804535307,
                -1.86026809207249,
                1.9215328476675464,
                -1.5488497435404376,
                1.5093343409290025,
                0.9309060728643626
            ]
        },
        {
            "positions": [
                -1.0076797374881175,
                -1.8232836487486115,
                1.9234221604548647,
                -1.5045116658022597,
                1.448065062060997,
                0.7429152191251313
            ]
        },
        {
            "positions": [
                -0.9520859945227043,
                -1.7862992054247329,
                1.9253114732421828,
                -1.4601735880640818,
                1.3867957831929911,
                0.5549243653858998
            ]
        },
        {
            "positions": [
                -0.8964922515572911,
                -1.7493147621008542,
                1.927200786029501,
                -1.4158355103259037,
                1.3255265043249855,
                0.36693351164666854
            ]
        },
        {
            "positions": [
                -0.8408985085918779,
                -1.7123303187769756,
                1.9290900988168194,
                -1.3714974325877258,
                1.26425722545698,
                0.17894265790743713
            ]
        },
        {
            "positions": [
                -0.7853047656264647,
                -1.675345875453097,
                1.9309794116041377,
                -1.327159354849548,
                1.2029879465889741,
                -0.009048195831794281
            ]
        },
        {
            "positions": [
                -0.7297110226610514,
                -1.6383614321292184,
                1.932868724391456,
                -1.28282127711137,
                1.1417186677209685,
                -0.1970390495710257
            ]
        },
        {
            "positions": [
                -0.6741172796956383,
                -1.6013769888053397,
                1.9347580371787743,
                -1.2384831993731922,
                1.080449388852963,
                -0.3850299033102569
            ]
        },
        {
            "positions": [
                -0.618523536730225,
                -1.5643925454814611,
                1.9366473499660923,
                -1.1941451216350143,
                1.0191801099849571,
                -0.5730207570494885
            ]
        },
        {
            "positions": [
                -0.5629297937648118,
                -1.5274081021575823,
                1.9385366627534106,
                -1.1498070438968364,
                0.9579108311169516,
                -0.7610116107887197
            ]
        },
        {
            "positions": [
                -0.5073360507993986,
                -1.4904236588337039,
                1.940425975540729,
                -1.1054689661586585,
                0.8966415522489459,
                -0.9490024645279511
            ]
        },
        {
            "positions": [
                -0.4517423078339854,
                -1.453439215509825,
                1.9423152883280472,
                -1.0611308884204806,
                0.8353722733809403,
                -1.1369933182671825
            ]
        },
        {
            "positions": [
                -0.3961485648685722,
                -1.4164547721859466,
                1.9442046011153655,
                -1.0167928106823028,
                0.7741029945129347,
                -1.3249841720064135
            ]
        },
        {
            "positions": [
                -0.3405548219031589,
                -1.3794703288620678,
                1.9460939139026838,
                -0.9724547329441247,
                0.7128337156449289,
                -1.5129750257456454
            ]
        },
        {
            "positions": [
                -0.2849610789377458,
                -1.3424858855381894,
                1.947983226690002,
                -0.9281166552059468,
                0.6515644367769233,
                -1.7009658794848768
            ]
        },
        {
            "positions": [
                -0.2293673359723326,
                -1.3055014422143105,
                1.9498725394773202,
                -0.8837785774677689,
                0.5902951579089177,
                -1.8889567332241077
            ]
        },
        {
            "positions": [
                -0.1737735930069194,
                -1.2685169988904321,
                1.9517618522646385,
                -0.839440499729591,
                0.5290258790409121,
                -2.076947586963339
            ]
        },
        {
            "positions": [
                -0.11817985004150611,
                -1.2315325555665533,
                1.9536511650519568,
                -0.795102421991413,
                0.4677566001729063,
                -2.264938440702571
            ]
        },
        {
            "positions": [
                -0.06258610707609291,
                -1.1945481122426747,
                1.955540477839275,
                -0.7507643442532351,
                0.40648732130490073,
                -2.4529292944418017
            ]
        },
        {
            "positions": [
                -0.006992364110679716,
                -1.157563668918796,
                1.9574297906265934,
                -0.7064262665150572,
                0.34521804243689513,
                -2.640920148181033
            ]
        },
        {
            "positions": [
                0.04860137885473348,
                -1.1205792255949176,
                1.9593191034139115,
                -0.6620881887768794,
                0.28394876356888954,
                -2.8289110019202646
            ]
        },
        {
            "positions": [
                0.10419512182014667,
                -1.0835947822710388,
                1.9612084162012298,
                -0.6177501110387014,
                0.22267948470088372,
                -3.016901855659496
            ]
        },
        {
            "positions": [
                0.15978886478555995,
                -1.0466103389471602,
                1.963097728988548,
                -0.5734120333005235,
                0.1614102058328782,
                -3.204892709398728
            ]
        },
        {
            "positions": [
                0.12160880085562265,
                -1.1299625530115862,
                1.9545697411424754,
                -0.710543413807496,
                0.11966965385873825,
                -3.2467322734106605
            ]
        }
    ]
}