{
    "goal": {
        "global_pose": {
            "orientation": {
                "w": 0.7047431468963623,
                "x": -0.7094548344612122,
                "y": 0.0024358443915843964,
                "z": -0.0022348060738295317
            },
            "position": {
                "x": 0.6094750761985779,
                "y": 0.3671506643295288,
                "z": 0.19426114857196808
            }
        },
        "name": "move_to_magneteinheit_A"
    },
    "id": "KPIECE_move_to_magneteinheit_A_10",
    "joint_names": [
        "shoulder_pan_joint",
        "shoulder_lift_joint",
        "elbow_joint",
        "wrist_1_joint",
        "wrist_2_joint",
        "wrist_3_joint"
    ],
    "metrics": {
        "cart_traj_len": 3.7332139393061046,
        "distance_elbow_joint": 3.8719478432539605,
        "distance_shoulder_lift_joint": 1.5959417242960385,
        "distance_shoulder_pan_joint": 2.769729315913466,
        "distance_wrist_1_joint": 3.3247990057417227,
        "distance_wrist_2_joint": 2.969455062651593,
        "distance_wrist_3_joint": 2.5686836867506893,
        "smoothness": 0.32421634371854674,
        "time": 0.161247629,
        "traj_len": 4.135281929760952,
        "weighted_distance": 5.341552029186102
    },
    "planner": "KPIECE",
    "start": {
        "state": {
            "elbow_joint": -1.919618573717145,
            "shoulder_lift_joint": -1.2443395971678275,
            "shoulder_pan_joint": 2.6996025300909787,
            "wrist_1_joint": -1.548550951253194,
            "wrist_2_joint": -1.5709469090946802,
            "wrist_3_joint": 0.4420197732051276
        }
    },
    "waypoints": [
        {
            "positions": [
                2.6996025300909787,
                -1.2443395971678275,
                -1.919618573717145,
                -1.548550951253194,
                -1.5709469090946802,
                0.4420197732051276
            ]
        },
        {
            "positions": [
                2.5951939819626713,
                -1.2762335869105306,
                -1.8306294896586541,
                -1.5096688507093476,
                -1.4846829147161131,
                0.47910196701075103
            ]
        },
        {
            "positions": [
                2.4907854338343642,
                -1.3081275766532339,
                -1.741640405600163,
                -1.4707867501655012,
                -1.398418920337546,
                0.5161841608163745
            ]
        },
        {
            "positions": [
                2.3863768857060568,
                -1.340021566395937,
                -1.6526513215416723,
                -1.4319046496216548,
                -1.3121549259589789,
                0.5532663546219979
            ]
        },
        {
            "positions": [
                2.2819683375777493,
                -1.3719155561386402,
                -1.5636622374831814,
                -1.3930225490778083,
                -1.2258909315804116,
                0.5903485484276214
            ]
        },
        {
            "positions": [
                2.1775597894494423,
                -1.4038095458813433,
                -1.4746731534246906,
                -1.3541404485339619,
                -1.1396269372018446,
                0.6274307422332448
            ]
        },
        {
            "positions": [
                2.073151241321135,
                -1.4357035356240466,
                -1.3856840693661998,
                -1.3152583479901154,
                -1.0533629428232776,
                0.6645129360388683
            ]
        },
        {
            "positions": [
                1.9687426931928274,
                -1.4675975253667497,
                -1.2966949853077088,
                -1.276376247446269,
                -0.9670989484447103,
                0.7015951298444918
            ]
        },
        {
            "positions": [
                1.86433414506452,
                -1.4994915151094528,
                -1.207705901249218,
                -1.2374941469024225,
                -0.8808349540661432,
                0.7386773236501152
            ]
        },
        {
            "positions": [
                1.7599255969362129,
                -1.531385504852156,
                -1.1187168171907271,
                -1.198612046358576,
                -0.7945709596875762,
                0.7757595174557386
            ]
        },
        {
            "positions": [
                1.6555170488079054,
                -1.5632794945948592,
                -1.029727733132236,
                -1.1597299458147297,
                -0.708306965309009,
                0.8128417112613621
            ]
        },
        {
            "positions": [
                1.551108500679598,
                -1.5951734843375625,
                -0.9407386490737452,
                -1.1208478452708832,
                -0.6220429709304418,
                0.8499239050669856
            ]
        },
        {
            "positions": [
                1.4466999525512907,
                -1.6270674740802655,
                -0.8517495650152545,
                -1.0819657447270368,
                -0.5357789765518748,
                0.887006098872609
            ]
        },
        {
            "positions": [
                1.3422914044229832,
                -1.6589614638229688,
                -0.7627604809567634,
                -1.0430836441831903,
                -0.44951498217330754,
                0.9240882926782324
            ]
        },
        {
            "positions": [
                1.237882856294676,
                -1.690855453565672,
                -0.6737713968982726,
                -1.0042015436393439,
                -0.3632509877947405,
                0.961170486483856
            ]
        },
        {
            "positions": [
                1.1334743081663685,
                -1.7227494433083752,
                -0.5847823128397818,
                -0.9653194430954974,
                -0.2769869934161733,
                0.9982526802894793
            ]
        },
        {
            "positions": [
                1.0290657600380615,
                -1.7546434330510783,
                -0.49579322878129095,
                -0.926437342551651,
                -0.19072299903760626,
                1.0353348740951027
            ]
        },
        {
            "positions": [
                0.924657211909754,
                -1.7865374227937814,
                -0.4068041447227999,
                -0.8875552420078046,
                -0.10445900465903923,
                1.0724170679007263
            ]
        },
        {
            "positions": [
                0.8202486637814468,
                -1.8184314125364844,
                -0.3178150606643091,
                -0.8486731414639581,
                -0.018195010280472212,
                1.1094992617063497
            ]
        },
        {
            "positions": [
                0.7158401156531393,
                -1.8503254022791877,
                -0.22882597660581827,
                -0.8097910409201117,
                0.06806898409809503,
                1.146581455511973
            ]
        },
        {
            "positions": [
                0.6114315675248321,
                -1.882219392021891,
                -0.13983689254732745,
                -0.7709089403762652,
                0.15433297847666205,
                1.1836636493175965
            ]
        },
        {
            "positions": [
                0.5070230193965248,
                -1.9141133817645941,
                -0.05084780848883633,
                -0.7320268398324188,
                0.24059697285522932,
                1.22074584312322
            ]
        },
        {
            "positions": [
                0.4769650152531796,
                -1.8606329973869484,
                0.05422001421125423,
                -0.6524601215946562,
                0.2731674410524716,
                1.2967855576854728
            ]
        },
        {
            "positions": [
                0.44690701110983433,
                -1.8071526130093025,
                0.1592878369113448,
                -0.5728934033568935,
                0.3057379092497139,
                1.3728252722477257
            ]
        },
        {
            "positions": [
                0.41684900696648913,
                -1.7536722286316568,
                0.26435565961143537,
                -0.49332668511913097,
                0.3383083774469562,
                1.4488649868099786
            ]
        },
        {
            "positions": [
                0.3867910028231439,
                -1.700191844254011,
                0.3694234823115259,
                -0.41375996688136835,
                0.3708788456441985,
                1.5249047013722312
            ]
        },
        {
            "positions": [
                0.35673299867979863,
                -1.6467114598763652,
                0.4744913050116165,
                -0.3341932486436057,
                0.4034493138414408,
                1.6009444159344839
            ]
        },
        {
            "positions": [
                0.32667499453645343,
                -1.5932310754987196,
                0.579559127711707,
                -0.25462653040584315,
                0.4360197820386831,
                1.6769841304967368
            ]
        },
        {
            "positions": [
                0.2966169903931082,
                -1.5397506911210739,
                0.6846269504117977,
                -0.17505981216808053,
                0.4685902502359254,
                1.7530238450589897
            ]
        },
        {
            "positions": [
                0.26655898624976293,
                -1.486270306743428,
                0.7896947731118882,
                -0.09549309393031791,
                0.5011607184331677,
                1.8290635596212423
            ]
        },
        {
            "positions": [
                0.23650098210641768,
                -1.432789922365782,
                0.8947625958119787,
                -0.015926375692555284,
                0.53373118663041,
                1.905103274183495
            ]
        },
        {
            "positions": [
                0.20644297796307243,
                -1.3793095379881364,
                0.9998304185120693,
                0.06364034254520734,
                0.5663016548276523,
                1.981142988745748
            ]
        },
        {
            "positions": [
                0.17638497381972723,
                -1.3258291536104907,
                1.1048982412121597,
                0.14320706078296996,
                0.5988721230248946,
                2.057182703308001
            ]
        },
        {
            "positions": [
                0.14632696967638198,
                -1.272348769232845,
                1.2099660639122503,
                0.22277377902073248,
                0.6314425912221369,
                2.1332224178702535
            ]
        },
        {
            "positions": [
                0.11626896553303673,
                -1.218868384855199,
                1.3150338866123408,
                0.3023404972584951,
                0.6640130594193792,
                2.209262132432506
            ]
        },
        {
            "positions": [
                0.08621096138969153,
                -1.1653880004775534,
                1.4201017093124315,
                0.3819072154962577,
                0.6965835276166215,
                2.2853018469947592
            ]
        },
        {
            "positions": [
                0.05615295724634628,
                -1.1119076160999075,
                1.525169532012522,
                0.46147393373402035,
                0.7291539958138638,
                2.361341561557012
            ]
        },
        {
            "positions": [
                0.02609495310300103,
                -1.0584272317222618,
                1.6302373547126126,
                0.541040651971783,
                0.761724464011106,
                2.4373812761192646
            ]
        },
        {
            "positions": [
                0.03812267046868705,
                -1.0672374554293793,
                1.6704988440656379,
                0.3866397266571898,
                0.6821265028178806,
                2.5090465490988336
            ]
        },
        {
            "positions": [
                0.050150387834373075,
                -1.0760476791364968,
                1.7107603334186632,
                0.23223880134259667,
                0.6025285416246551,
                2.5807118220784027
            ]
        },
        {
            "positions": [
                0.06217810520005909,
                -1.0848579028436143,
                1.7510218227716885,
                0.07783787602800352,
                0.5229305804314295,
                2.6523770950579717
            ]
        },
        {
            "positions": [
                0.07420582256574512,
                -1.0936681265507318,
                1.7912833121247136,
                -0.07656304928658964,
                0.443332619238204,
                2.7240423680375407
            ]
        },
        {
            "positions": [
                0.08623353993143114,
                -1.102478350257849,
                1.831544801477739,
                -0.2309639746011828,
                0.3637346580449785,
                2.79570764101711
            ]
        },
        {
            "positions": [
                0.09826125729711715,
                -1.1112885739649665,
                1.8718062908307642,
                -0.38536489991577594,
                0.28413669685175297,
                2.867372913996679
            ]
        },
        {
            "positions": [
                0.11028897466280319,
                -1.120098797672084,
                1.9120677801837895,
                -0.539765825230369,
                0.20453873565852743,
                2.939038186976248
            ]
        },
        {
            "positions": [
                0.1223166920284892,
                -1.1289090213792015,
                1.9523292695368148,
                -0.6941667505449622,
                0.12494077446530195,
                3.010703459955817
            ]
        }
    ]
}{
    "goal": {
        "global_pose": {
            "orientation": {
                "w": 0.7047431468963623,
                "x": -0.7094548344612122,
                "y": 0.0024358443915843964,
                "z": -0.0022348060738295317
            },
            "position": {
                "x": 0.6094750761985779,
                "y": 0.3671506643295288,
                "z": 0.19426114857196808
            }
        },
        "name": "move_to_magneteinheit_A"
    },
    "id": "KPIECE_move_to_magneteinheit_A_10",
    "joint_names": [
        "shoulder_pan_joint",
        "shoulder_lift_joint",
        "elbow_joint",
        "wrist_1_joint",
        "wrist_2_joint",
        "wrist_3_joint"
    ],
    "metrics": {
        "cart_traj_len": 1.2426419588479887,
        "distance_elbow_joint": 0.2685399605007286,
        "distance_shoulder_lift_joint": 0.7474005059367508,
        "distance_shoulder_pan_joint": 1.2409732049107924,
        "distance_wrist_1_joint": 0.7295040528651489,
        "distance_wrist_2_joint": 1.5488659464128147,
        "distance_wrist_3_joint": 4.2288413092064125,
        "smoothness": 0.09220631087064429,
        "time": 0.089640507,
        "traj_len": 2.9604264861388883,
        "weighted_distance": 4.415900542077849
    },
    "planner": "KPIECE",
    "start": {
        "state": {
            "elbow_joint": 1.919643534880228,
            "shoulder_lift_joint": -1.8972525353963687,
            "shoulder_pan_joint": -1.1188672234189438,
            "wrist_1_joint": -1.5931878212786155,
            "wrist_2_joint": 1.5706036197970081,
            "wrist_3_joint": 1.118896926603594
        }
    },
    "waypoints": [
        {
            "positions": [
                -1.1188672234189438,
                -1.8972525353963687,
                1.919643534880228,
                -1.5931878212786155,
                1.5706036197970081,
                1.118896926603594
            ]
        },
        {
            "positions": [
                -1.0649150101664915,
                -1.8653074019238332,
                1.9149431368105205,
                -1.5625925281203872,
                1.4993718052346154,
                0.93240121718424
            ]
        },
        {
            "positions": [
                -1.0109627969140393,
                -1.8333622684512976,
                1.910242738740813,
                -1.5319972349621591,
                1.4281399906722227,
                0.7459055077648858
            ]
        },
        {
            "positions": [
                -0.957010583661587,
                -1.8014171349787618,
                1.9055423406711054,
                -1.5014019418039308,
                1.3569081761098303,
                0.5594097983455318
            ]
        },
        {
            "positions": [
                -0.9030583704091346,
                -1.7694720015062262,
                1.9008419426013978,
                -1.4708066486457028,
                1.2856763615474376,
                0.3729140889261777
            ]
        },
        {
            "positions": [
                -0.8491061571566824,
                -1.7375268680336906,
                1.8961415445316903,
                -1.4402113554874745,
                1.214444546985045,
                0.18641837950682372
            ]
        },
        {
            "positions": [
                -0.7951539439042301,
                -1.705581734561155,
                1.8914411464619827,
                -1.4096160623292462,
                1.1432127324226524,
                -7.732991253028842e-05
            ]
        },
        {
            "positions": [
                -0.7412017306517777,
                -1.6736366010886192,
                1.8867407483922751,
                -1.3790207691710181,
                1.0719809178602597,
                -0.1865730393318843
            ]
        },
        {
            "positions": [
                -0.6872495173993255,
                -1.6416914676160836,
                1.8820403503225676,
                -1.3484254760127898,
                1.000749103297867,
                -0.3730687487512385
            ]
        },
        {
            "positions": [
                -0.6332973041468732,
                -1.609746334143548,
                1.87733995225286,
                -1.3178301828545615,
                0.9295172887354745,
                -0.5595644581705925
            ]
        },
        {
            "positions": [
                -0.5793450908944209,
                -1.5778012006710125,
                1.8726395541831524,
                -1.2872348896963335,
                0.8582854741730818,
                -0.7460601675899465
            ]
        },
        {
            "positions": [
                -0.5253928776419685,
                -1.5458560671984767,
                1.8679391561134446,
                -1.2566395965381052,
                0.7870536596106891,
                -0.9325558770093008
            ]
        },
        {
            "positions": [
                -0.47144066438951626,
                -1.513910933725941,
                1.863238758043737,
                -1.2260443033798771,
                0.7158218450482965,
                -1.1190515864286545
            ]
        },
        {
            "positions": [
                -0.4174884511370639,
                -1.4819658002534055,
                1.8585383599740295,
                -1.1954490102216488,
                0.6445900304859038,
                -1.3055472958480088
            ]
        },
        {
            "positions": [
                -0.36353623788461165,
                -1.45002066678087,
                1.853837961904322,
                -1.1648537170634206,
                0.5733582159235112,
                -1.4920430052673626
            ]
        },
        {
            "positions": [
                -0.3095840246321593,
                -1.4180755333083344,
                1.8491375638346144,
                -1.1342584239051925,
                0.5021264013611184,
                -1.6785387146867168
            ]
        },
        {
            "positions": [
                -0.25563181137970714,
                -1.3861303998357988,
                1.8444371657649068,
                -1.1036631307469642,
                0.43089458679872594,
                -1.865034424106071
            ]
        },
        {
            "positions": [
                -0.20167959812725478,
                -1.354185266363263,
                1.8397367676951992,
                -1.0730678375887361,
                0.35966277223633325,
                -2.051530133525425
            ]
        },
        {
            "positions": [
                -0.14772738487480253,
                -1.3222401328907274,
                1.8350363696254917,
                -1.0424725444305079,
                0.2884309576739408,
                -2.2380258429447792
            ]
        },
        {
            "positions": [
                -0.09377517162235005,
                -1.2902949994181916,
                1.830335971555784,
                -1.0118772512722796,
                0.21719914311154787,
                -2.4245215523641335
            ]
        },
        {
            "positions": [
                -0.03982295836989791,
                -1.258349865945656,
                1.8256355734860765,
                -0.9812819581140515,
                0.1459673285491554,
                -2.611017261783487
            ]
        },
        {
            "positions": [
                0.014129254882554496,
                -1.2264047324731204,
                1.820935175416369,
                -0.9506866649558232,
                0.0747355139867626,
                -2.7975129712028415
            ]
        },
        {
            "positions": [
                0.050121497085652486,
                -1.200887164801953,
                1.8775457090953254,
                -0.9216856994417043,
                0.09240146085428579,
                -2.901656775002834
            ]
        },
        {
            "positions": [
                0.08611373928875048,
                -1.1753695971307854,
                1.934156242774282,
                -0.8926847339275855,
                0.11006740772180898,
                -3.005800578802826
            ]
        },
        {
            "positions": [
                0.12210598149184847,
                -1.149852029459618,
                1.9907667764532384,
                -0.8636837684134666,
                0.12773335458933216,
                -3.1099443826028184
            ]
        }
    ]
}