{
    "goal": {
        "global_pose": {
            "orientation": {
                "w": 0.7047431468963623,
                "x": -0.7094548344612122,
                "y": 0.0024358443915843964,
                "z": -0.0022348060738295317
            },
            "position": {
                "x": 0.6094750761985779,
                "y": 0.3671506643295288,
                "z": 0.19426114857196808
            }
        },
        "name": "move_to_magneteinheit_A"
    },
    "id": "KPIECE_move_to_magneteinheit_A_50",
    "joint_names": [
        "shoulder_pan_joint",
        "shoulder_lift_joint",
        "elbow_joint",
        "wrist_1_joint",
        "wrist_2_joint",
        "wrist_3_joint"
    ],
    "metrics": {
        "cart_traj_len": 3.306415841511804,
        "distance_elbow_joint": 4.243433693591017,
        "distance_shoulder_lift_joint": 0.8105714415378626,
        "distance_shoulder_pan_joint": 3.251288040944211,
        "distance_wrist_1_joint": 3.719311937805082,
        "distance_wrist_2_joint": 2.3686326994452003,
        "distance_wrist_3_joint": 0.5996567644464338,
        "smoothness": 0.4938357574471683,
        "time": 0.24021626199999999,
        "traj_len": 3.872065931485389,
        "weighted_distance": 4.720185668372905
    },
    "planner": "KPIECE",
    "start": {
        "state": {
            "elbow_joint": -1.919618573717145,
            "shoulder_lift_joint": -1.2443395971678275,
            "shoulder_pan_joint": 2.6996025300909787,
            "wrist_1_joint": -1.548550951253194,
            "wrist_2_joint": -1.5709469090946802,
            "wrist_3_joint": 0.4420197732051276
        }
    },
    "waypoints": [
        {
            "positions": [
                2.6996025300909787,
                -1.2443395971678275,
                -1.919618573717145,
                -1.548550951253194,
                -1.5709469090946802,
                0.4420197732051276
            ]
        },
        {
            "positions": [
                2.5475903093613046,
                -1.238801372151614,
                -1.8351469437663825,
                -1.471182269666992,
                -1.5399483192114554,
                0.4214708956058038
            ]
        },
        {
            "positions": [
                2.3955780886316305,
                -1.2332631471354005,
                -1.7506753138156201,
                -1.39381358808079,
                -1.5089497293282303,
                0.4009220180064801
            ]
        },
        {
            "positions": [
                2.2435658679019563,
                -1.2277249221191868,
                -1.666203683864858,
                -1.316444906494588,
                -1.4779511394450056,
                0.3803731404071563
            ]
        },
        {
            "positions": [
                2.091553647172282,
                -1.2221866971029733,
                -1.5817320539140955,
                -1.239076224908386,
                -1.4469525495617805,
                0.35982426280783253
            ]
        },
        {
            "positions": [
                1.9395414264426079,
                -1.2166484720867599,
                -1.4972604239633331,
                -1.161707543322184,
                -1.4159539596785558,
                0.3392753852085088
            ]
        },
        {
            "positions": [
                1.7875292057129337,
                -1.2111102470705464,
                -1.4127887940125707,
                -1.0843388617359822,
                -1.384955369795331,
                0.31872650760918503
            ]
        },
        {
            "positions": [
                1.6355169849832596,
                -1.205572022054333,
                -1.3283171640618083,
                -1.00697018014978,
                -1.3539567799121062,
                0.2981776300098613
            ]
        },
        {
            "positions": [
                1.4835047642535852,
                -1.2000337970381194,
                -1.243845534111046,
                -0.929601498563578,
                -1.3229581900288812,
                0.2776287524105375
            ]
        },
        {
            "positions": [
                1.331492543523911,
                -1.1944955720219057,
                -1.1593739041602835,
                -0.852232816977376,
                -1.2919596001456564,
                0.25707987481121375
            ]
        },
        {
            "positions": [
                1.179480322794237,
                -1.1889573470056922,
                -1.0749022742095213,
                -0.774864135391174,
                -1.2609610102624313,
                0.23653099721189003
            ]
        },
        {
            "positions": [
                1.0274681020645628,
                -1.1834191219894787,
                -0.9904306442587589,
                -0.697495453804972,
                -1.2299624203792066,
                0.21598211961256625
            ]
        },
        {
            "positions": [
                0.9707502604151866,
                -1.1640366878056132,
                -0.8728914343233874,
                -0.5789826828377423,
                -1.1667498790276185,
                0.2188411264190994
            ]
        },
        {
            "positions": [
                0.9140324187658104,
                -1.1446542536217479,
                -0.755352224388016,
                -0.4604699118705126,
                -1.1035373376760302,
                0.2217001332256325
            ]
        },
        {
            "positions": [
                0.8573145771164342,
                -1.1252718194378823,
                -0.6378130144526445,
                -0.3419571409032829,
                -1.040324796324442,
                0.22455914003216565
            ]
        },
        {
            "positions": [
                0.800596735467058,
                -1.105889385254017,
                -0.520273804517273,
                -0.2234443699360532,
                -0.9771122549728539,
                0.22741814683869876
            ]
        },
        {
            "positions": [
                0.7438788938176817,
                -1.0865069510701515,
                -0.4027345945819014,
                -0.10493159896882343,
                -0.9138997136212658,
                0.2302771536452319
            ]
        },
        {
            "positions": [
                0.6871610521683056,
                -1.067124516886286,
                -0.28519538464653005,
                0.01358117199840625,
                -0.8506871722696776,
                0.23313616045176502
            ]
        },
        {
            "positions": [
                0.6304432105189293,
                -1.0477420827024206,
                -0.16765617471115846,
                0.13209394296563592,
                -0.7874746309180894,
                0.23599516725829817
            ]
        },
        {
            "positions": [
                0.5737253688695532,
                -1.028359648518555,
                -0.05011696477578709,
                0.2506067139328656,
                -0.7242620895665013,
                0.23885417406483128
            ]
        },
        {
            "positions": [
                0.5170075272201768,
                -1.0089772143346898,
                0.0674222451595845,
                0.3691194849000954,
                -0.6610495482149131,
                0.24171318087136442
            ]
        },
        {
            "positions": [
                0.46028968557080063,
                -0.9895947801508242,
                0.1849614550949561,
                0.48763225586732517,
                -0.597837006863325,
                0.24457218767789757
            ]
        },
        {
            "positions": [
                0.4035718439214243,
                -0.9702123459669587,
                0.3025006650303277,
                0.606145026834555,
                -0.5346244655117367,
                0.24743119448443068
            ]
        },
        {
            "positions": [
                0.3468540022720482,
                -0.9508299117830934,
                0.42003987496569883,
                0.7246577978017845,
                -0.47141192416014865,
                0.2502902012909638
            ]
        },
        {
            "positions": [
                0.290136160622672,
                -0.9314474775992279,
                0.5375790849010704,
                0.8431705687690143,
                -0.4081993828085605,
                0.25314920809749697
            ]
        },
        {
            "positions": [
                0.23341831897329568,
                -0.9120650434153624,
                0.655118294836442,
                0.9616833397362439,
                -0.34498684145697234,
                0.2560082149040301
            ]
        },
        {
            "positions": [
                0.17670047732391947,
                -0.892682609231497,
                0.7726575047718136,
                1.0801961107034737,
                -0.2817743001053842,
                0.2588672217105632
            ]
        },
        {
            "positions": [
                0.11998263567454337,
                -0.8733001750476315,
                0.8901967147071848,
                1.1987088816707032,
                -0.21856175875379602,
                0.2617262285170963
            ]
        },
        {
            "positions": [
                0.06326479402516705,
                -0.8539177408637662,
                1.0077359246425563,
                1.3172216526379332,
                -0.15534921740220797,
                0.2645852353236295
            ]
        },
        {
            "positions": [
                0.006546952375790796,
                -0.8345353066799006,
                1.1252751345779282,
                1.435734423605163,
                -0.09213667605061976,
                0.2674442421301626
            ]
        },
        {
            "positions": [
                -0.025114422983711714,
                -0.859060415477202,
                1.272756736732935,
                1.5231349988143001,
                -0.030499231145566838,
                0.2713930645758403
            ]
        },
        {
            "positions": [
                -0.05677579834321422,
                -0.8835855242745035,
                1.420238338887942,
                1.610535574023437,
                0.031138213759486083,
                0.275341887021518
            ]
        },
        {
            "positions": [
                -0.08843717370271674,
                -0.908110633071805,
                1.567719941042949,
                1.6979361492325742,
                0.09277565866453899,
                0.2792907094671957
            ]
        },
        {
            "positions": [
                -0.12009854906221924,
                -0.9326357418691065,
                1.715201543197956,
                1.785336724441711,
                0.15441310356959193,
                0.28323953191287343
            ]
        },
        {
            "positions": [
                -0.15175992442172176,
                -0.9571608506664079,
                1.862683145352963,
                1.8727372996508482,
                0.2160505484746449,
                0.2871883543585511
            ]
        },
        {
            "positions": [
                -0.1834212997812243,
                -0.9816859594637093,
                2.01016474750797,
                1.9601378748599854,
                0.27768799337969774,
                0.29113717680422885
            ]
        },
        {
            "positions": [
                -0.21508267514072682,
                -1.0062110682610108,
                2.157646349662977,
                2.0475384500691223,
                0.3393254382847507,
                0.2950859992499065
            ]
        },
        {
            "positions": [
                -0.1477621079982257,
                -0.9603927903672457,
                2.1244125956207975,
                2.0228939427725687,
                0.24765336787159672,
                0.2361829530066001
            ]
        },
        {
            "positions": [
                -0.08044154085572461,
                -0.9145745124734805,
                2.0911788415786186,
                1.9982494354760156,
                0.15598129745844275,
                0.1772799067632937
            ]
        },
        {
            "positions": [
                -0.013120973713223488,
                -0.8687562345797155,
                2.057945087536439,
                1.973604928179462,
                0.0643092270452888,
                0.1183768605199873
            ]
        },
        {
            "positions": [
                0.054199593429277604,
                -0.8229379566859504,
                2.0247113334942597,
                1.9489604208829088,
                -0.02736284336786521,
                0.05947381427668086
            ]
        },
        {
            "positions": [
                0.12152016057177874,
                -0.7771196787921852,
                1.9914775794520805,
                1.9243159135863555,
                -0.11903491378101917,
                0.0005707680333744778
            ]
        }
    ]
}{
    "goal": {
        "global_pose": {
            "orientation": {
                "w": 0.7047431468963623,
                "x": -0.7094548344612122,
                "y": 0.0024358443915843964,
                "z": -0.0022348060738295317
            },
            "position": {
                "x": 0.6094750761985779,
                "y": 0.3671506643295288,
                "z": 0.19426114857196808
            }
        },
        "name": "move_to_magneteinheit_A"
    },
    "id": "KPIECE_move_to_magneteinheit_A_50",
    "joint_names": [
        "shoulder_pan_joint",
        "shoulder_lift_joint",
        "elbow_joint",
        "wrist_1_joint",
        "wrist_2_joint",
        "wrist_3_joint"
    ],
    "metrics": {
        "cart_traj_len": 1.2042115150848036,
        "distance_elbow_joint": 0.04214810452593443,
        "distance_shoulder_lift_joint": 0.763742491715419,
        "distance_shoulder_pan_joint": 1.2420854223071771,
        "distance_wrist_1_joint": 0.8705949301441035,
        "distance_wrist_2_joint": 1.431826283248538,
        "distance_wrist_3_joint": 1.919302730372159,
        "smoothness": 2.0898315923129273e-16,
        "time": 0.082991039,
        "traj_len": 2.5039368926379377,
        "weighted_distance": 3.522886123116995
    },
    "planner": "KPIECE",
    "start": {
        "state": {
            "elbow_joint": 1.919643534880228,
            "shoulder_lift_joint": -1.8972525353963687,
            "shoulder_pan_joint": -1.1188672234189438,
            "wrist_1_joint": -1.5931878212786155,
            "wrist_2_joint": 1.5706036197970081,
            "wrist_3_joint": 1.118896926603594
        }
    },
    "waypoints": [
        {
            "positions": [
                -1.1188672234189438,
                -1.8972525353963687,
                1.919643534880228,
                -1.5931878212786155,
                1.5706036197970081,
                1.118896926603594
            ]
        },
        {
            "positions": [
                -1.0412368845247453,
                -1.849518629664155,
                1.922277791413099,
                -1.538775638144609,
                1.4811144770939746,
                1.238853347251854
            ]
        },
        {
            "positions": [
                -0.9636065456305467,
                -1.8017847239319413,
                1.9249120479459698,
                -1.4843634550106026,
                1.3916253343909408,
                1.3588097679001139
            ]
        },
        {
            "positions": [
                -0.8859762067363481,
                -1.7540508181997276,
                1.9275463044788408,
                -1.429951271876596,
                1.3021361916879073,
                1.4787661885483738
            ]
        },
        {
            "positions": [
                -0.8083458678421496,
                -1.706316912467514,
                1.9301805610117118,
                -1.3755390887425896,
                1.2126470489848735,
                1.5987226091966338
            ]
        },
        {
            "positions": [
                -0.730715528947951,
                -1.6585830067353002,
                1.9328148175445825,
                -1.3211269056085833,
                1.12315790628184,
                1.7186790298448935
            ]
        },
        {
            "positions": [
                -0.6530851900537524,
                -1.6108491010030868,
                1.9354490740774535,
                -1.2667147224745767,
                1.0336687635788064,
                1.8386354504931535
            ]
        },
        {
            "positions": [
                -0.5754548511595539,
                -1.563115195270873,
                1.9380833306103245,
                -1.2123025393405702,
                0.9441796208757728,
                1.9585918711414134
            ]
        },
        {
            "positions": [
                -0.4978245122653553,
                -1.5153812895386594,
                1.9407175871431952,
                -1.1578903562065637,
                0.8546904781727391,
                2.0785482917896734
            ]
        },
        {
            "positions": [
                -0.4201941733711567,
                -1.4676473838064457,
                1.9433518436760662,
                -1.1034781730725571,
                0.7652013354697055,
                2.1985047124379333
            ]
        },
        {
            "positions": [
                -0.34256383447695815,
                -1.419913478074232,
                1.9459861002089371,
                -1.0490659899385508,
                0.6757121927666718,
                2.3184611330861933
            ]
        },
        {
            "positions": [
                -0.2649334955827596,
                -1.3721795723420183,
                1.9486203567418081,
                -0.9946538068045443,
                0.5862230500636383,
                2.4384175537344532
            ]
        },
        {
            "positions": [
                -0.187303156688561,
                -1.3244456666098046,
                1.9512546132746789,
                -0.9402416236705379,
                0.49673390736060474,
                2.558373974382713
            ]
        },
        {
            "positions": [
                -0.10967281779436244,
                -1.2767117608775909,
                1.9538888698075498,
                -0.8858294405365313,
                0.407244764657571,
                2.678330395030973
            ]
        },
        {
            "positions": [
                -0.03204247890016387,
                -1.2289778551453772,
                1.9565231263404208,
                -0.8314172574025249,
                0.31775562195453744,
                2.798286815679233
            ]
        },
        {
            "positions": [
                0.045587859994034696,
                -1.1812439494131635,
                1.9591573828732916,
                -0.7770050742685184,
                0.22826647925150367,
                2.918243236327493
            ]
        },
        {
            "positions": [
                0.12321819888823327,
                -1.1335100436809498,
                1.9617916394061625,
                -0.722592891134512,
                0.13877733654847013,
                3.038199656975753
            ]
        }
    ]
}