{
    "goal": {
        "global_pose": {
            "orientation": {
                "w": 0.5084816217422485,
                "x": -0.49083608388900757,
                "y": 0.5182115435600281,
                "z": -0.4816462993621826
            },
            "position": {
                "x": 0.5540239810943604,
                "y": 0.030875300988554955,
                "z": 0.16403168439865112
            }
        },
        "name": "move_to_storage_A"
    },
    "id": "KPIECE_move_to_storage_A_82",
    "joint_names": [
        "shoulder_pan_joint",
        "shoulder_lift_joint",
        "elbow_joint",
        "wrist_1_joint",
        "wrist_2_joint",
        "wrist_3_joint"
    ],
    "metrics": {
        "cart_traj_len": 0.3531855156475602,
        "distance_elbow_joint": 0.4543142907894633,
        "distance_shoulder_lift_joint": 0.23430529033398195,
        "distance_shoulder_pan_joint": 0.4634477460514998,
        "distance_wrist_1_joint": 0.25858918985000023,
        "distance_wrist_2_joint": 1.092739117850949,
        "distance_wrist_3_joint": 0.10424960410422246,
        "smoothness": 6.661338165333112e-16,
        "time": 0.034711016,
        "traj_len": 1.6148204974485916,
        "weighted_distance": 2.0414388932538516
    },
    "planner": "KPIECE",
    "start": {
        "state": {
            "elbow_joint": 1.9715477243005601,
            "shoulder_lift_joint": -1.1394853015351272,
            "shoulder_pan_joint": 0.12281154014795169,
            "wrist_1_joint": -0.7804696478968182,
            "wrist_2_joint": 0.12958648046900423,
            "wrist_3_joint": -3.192491284697111
        }
    },
    "waypoints": [
        {
            "positions": [
                0.12281154014795169,
                -1.1394853015351272,
                1.9715477243005601,
                -0.7804696478968182,
                0.12958648046900423,
                -3.192491284697111
            ]
        },
        {
            "positions": [
                0.05660471928345172,
                -1.1729574858685532,
                2.036449765841912,
                -0.8174109607325325,
                0.28569206873342545,
                -3.177598484110794
            ]
        },
        {
            "positions": [
                -0.009602101581048253,
                -1.2064296702019792,
                2.101351807383264,
                -0.8543522735682468,
                0.44179765699784673,
                -3.162705683524476
            ]
        },
        {
            "positions": [
                -0.07580892244554822,
                -1.2399018545354052,
                2.1662538489246157,
                -0.8912935864039611,
                0.597903245262268,
                -3.1478128829381586
            ]
        },
        {
            "positions": [
                -0.14201574331004818,
                -1.273374038868831,
                2.231155890465968,
                -0.9282348992396754,
                0.7540088335266892,
                -3.1329200823518413
            ]
        },
        {
            "positions": [
                -0.20822256417454815,
                -1.306846223202257,
                2.2960579320073196,
                -0.9651762120753897,
                0.9101144217911106,
                -3.118027281765524
            ]
        },
        {
            "positions": [
                -0.2744293850390481,
                -1.340318407535683,
                2.3609599735486713,
                -1.002117524911104,
                1.066220010055532,
                -3.103134481179206
            ]
        },
        {
            "positions": [
                -0.3406362059035481,
                -1.3737905918691091,
                2.4258620150900234,
                -1.0390588377468184,
                1.2223255983199532,
                -3.0882416805928887
            ]
        }
    ]
}