{
    "goal": {
        "global_pose": {
            "orientation": {
                "w": 0.7047431468963623,
                "x": -0.7094548344612122,
                "y": 0.0024358443915843964,
                "z": -0.0022348060738295317
            },
            "position": {
                "x": 0.6094750761985779,
                "y": 0.3671506643295288,
                "z": 0.19426114857196808
            }
        },
        "name": "move_to_magneteinheit_A"
    },
    "id": "KPIECE_move_to_magneteinheit_A_34",
    "joint_names": [
        "shoulder_pan_joint",
        "shoulder_lift_joint",
        "elbow_joint",
        "wrist_1_joint",
        "wrist_2_joint",
        "wrist_3_joint"
    ],
    "metrics": {
        "cart_traj_len": 3.995463799757588,
        "distance_elbow_joint": 3.891749789908295,
        "distance_shoulder_lift_joint": 0.14710864129563905,
        "distance_shoulder_pan_joint": 3.390642924375101,
        "distance_wrist_1_joint": 0.7559887282942733,
        "distance_wrist_2_joint": 2.43506422092185,
        "distance_wrist_3_joint": 4.15612984978003,
        "smoothness": 0.5252895812269261,
        "time": 0.135602188,
        "traj_len": 3.844045285187883,
        "weighted_distance": 5.126401935407657
    },
    "planner": "KPIECE",
    "start": {
        "state": {
            "elbow_joint": -1.919618573717145,
            "shoulder_lift_joint": -1.2443395971678275,
            "shoulder_pan_joint": 2.6996025300909787,
            "wrist_1_joint": -1.548550951253194,
            "wrist_2_joint": -1.5709469090946802,
            "wrist_3_joint": 0.4420197732051276
        }
    },
    "waypoints": [
        {
            "positions": [
                2.6996025300909787,
                -1.2443395971678275,
                -1.919618573717145,
                -1.548550951253194,
                -1.5709469090946802,
                0.4420197732051276
            ]
        },
        {
            "positions": [
                2.6118580903840227,
                -1.2406313608124697,
                -1.8119149694367558,
                -1.5320496710026523,
                -1.5102073638741476,
                0.32766542701531565
            ]
        },
        {
            "positions": [
                2.5241136506770667,
                -1.236923124457112,
                -1.7042113651563664,
                -1.5155483907521106,
                -1.449467818653615,
                0.2133110808255037
            ]
        },
        {
            "positions": [
                2.4363692109701107,
                -1.2332148881017542,
                -1.5965077608759772,
                -1.4990471105015688,
                -1.3887282734330824,
                0.09895673463569171
            ]
        },
        {
            "positions": [
                2.3486247712631547,
                -1.2295066517463966,
                -1.488804156595588,
                -1.4825458302510268,
                -1.3279887282125498,
                -0.015397611554120172
            ]
        },
        {
            "positions": [
                2.2608803315561987,
                -1.2257984153910388,
                -1.381100552315199,
                -1.466044550000485,
                -1.2672491829920172,
                -0.12975195774393217
            ]
        },
        {
            "positions": [
                2.1731358918492427,
                -1.222090179035681,
                -1.2733969480348095,
                -1.4495432697499433,
                -1.2065096377714846,
                -0.24410630393374416
            ]
        },
        {
            "positions": [
                2.0853914521422867,
                -1.2183819426803233,
                -1.1656933437544204,
                -1.4330419894994015,
                -1.1457700925509522,
                -0.35846065012355594
            ]
        },
        {
            "positions": [
                1.9976470124353307,
                -1.2146737063249655,
                -1.057989739474031,
                -1.4165407092488598,
                -1.0850305473304196,
                -0.47281499631336793
            ]
        },
        {
            "positions": [
                1.9099025727283747,
                -1.2109654699696077,
                -0.9502861351936419,
                -1.400039428998318,
                -1.024291002109887,
                -0.5871693425031799
            ]
        },
        {
            "positions": [
                1.8221581330214187,
                -1.20725723361425,
                -0.8425825309132526,
                -1.383538148747776,
                -0.9635514568893544,
                -0.7015236886929919
            ]
        },
        {
            "positions": [
                1.7344136933144627,
                -1.2035489972588924,
                -0.7348789266328632,
                -1.3670368684972343,
                -0.9028119116688218,
                -0.8158780348828039
            ]
        },
        {
            "positions": [
                1.6466692536075067,
                -1.1998407609035346,
                -0.6271753223524741,
                -1.3505355882466925,
                -0.8420723664482892,
                -0.9302323810726159
            ]
        },
        {
            "positions": [
                1.5589248139005507,
                -1.1961325245481769,
                -0.5194717180720851,
                -1.3340343079961507,
                -0.7813328212277568,
                -1.0445867272624274
            ]
        },
        {
            "positions": [
                1.4711803741935947,
                -1.192424288192819,
                -0.41176811379169576,
                -1.317533027745609,
                -0.7205932760072242,
                -1.1589410734522394
            ]
        },
        {
            "positions": [
                1.3834359344866387,
                -1.1887160518374613,
                -0.3040645095113066,
                -1.3010317474950672,
                -0.6598537307866916,
                -1.2732954196420514
            ]
        },
        {
            "positions": [
                1.2956914947796827,
                -1.1850078154821035,
                -0.1963609052309172,
                -1.2845304672445255,
                -0.599114185566159,
                -1.3876497658318634
            ]
        },
        {
            "positions": [
                1.2079470550727267,
                -1.1812995791267458,
                -0.08865730095052804,
                -1.2680291869939837,
                -0.5383746403456264,
                -1.5020041120216754
            ]
        },
        {
            "positions": [
                1.1202026153657707,
                -1.1775913427713882,
                0.019046303329861125,
                -1.2515279067434417,
                -0.47763509512509383,
                -1.6163584582114874
            ]
        },
        {
            "positions": [
                1.0324581756588147,
                -1.1738831064160304,
                0.1267499076102505,
                -1.2350266264929,
                -0.41689554990456124,
                -1.7307128044012994
            ]
        },
        {
            "positions": [
                0.9447137359518587,
                -1.1701748700606727,
                0.23445351189063968,
                -1.2185253462423582,
                -0.35615600468402864,
                -1.8450671505911114
            ]
        },
        {
            "positions": [
                0.8569692962449027,
                -1.166466633705315,
                0.34215711617102884,
                -1.2020240659918164,
                -0.29541645946349604,
                -1.9594214967809234
            ]
        },
        {
            "positions": [
                0.7692248565379467,
                -1.1627583973499571,
                0.44986072045141845,
                -1.1855227857412747,
                -0.23467691424296344,
                -2.0737758429707354
            ]
        },
        {
            "positions": [
                0.6814804168309907,
                -1.1590501609945993,
                0.5575643247318076,
                -1.1690215054907327,
                -0.17393736902243084,
                -2.1881301891605474
            ]
        },
        {
            "positions": [
                0.5937359771240347,
                -1.1553419246392416,
                0.6652679290121968,
                -1.152520225240191,
                -0.11319782380189825,
                -2.3024845353503594
            ]
        },
        {
            "positions": [
                0.5059915374170787,
                -1.151633688283884,
                0.7729715332925859,
                -1.1360189449896492,
                -0.05245827858136565,
                -2.4168388815401713
            ]
        },
        {
            "positions": [
                0.4182470977101227,
                -1.1479254519285262,
                0.8806751375729747,
                -1.1195176647391074,
                0.008281266639166507,
                -2.5311932277299825
            ]
        },
        {
            "positions": [
                0.3305026580031667,
                -1.1442172155731685,
                0.9883787418533643,
                -1.1030163844885656,
                0.0690208118596991,
                -2.6455475739197944
            ]
        },
        {
            "positions": [
                0.2427582182962107,
                -1.1405089792178107,
                1.0960823461337534,
                -1.0865151042380239,
                0.1297603570802317,
                -2.7599019201096064
            ]
        },
        {
            "positions": [
                0.1550137785892547,
                -1.136800742862453,
                1.2037859504141426,
                -1.0700138239874821,
                0.1904999023007643,
                -2.8742562662994184
            ]
        },
        {
            "positions": [
                0.06726933888229869,
                -1.1330925065070951,
                1.3114895546945318,
                -1.0535125437369404,
                0.2512394475212969,
                -2.9886106124892304
            ]
        },
        {
            "positions": [
                -0.02047510082465731,
                -1.1293842701517376,
                1.419193158974921,
                -1.0370112634863986,
                0.3119789927418295,
                -3.1029649586790424
            ]
        },
        {
            "positions": [
                -0.10821954053161331,
                -1.1256760337963798,
                1.5268967632553105,
                -1.0205099832358568,
                0.3727185379623621,
                -3.2173193048688544
            ]
        },
        {
            "positions": [
                -0.1959639802385693,
                -1.121967797441022,
                1.6346003675356997,
                -1.0040087029853149,
                0.4334580831828947,
                -3.3316736510586664
            ]
        },
        {
            "positions": [
                -0.28370841994552526,
                -1.1182595610856643,
                1.7423039718160889,
                -0.9875074227347731,
                0.4941976284034275,
                -3.4460279972484784
            ]
        },
        {
            "positions": [
                -0.1818754263608759,
                -1.1235167123890333,
                1.7997607829098543,
                -0.93877112279081,
                0.4017177075474918,
                -3.379007477416873
            ]
        },
        {
            "positions": [
                -0.08004243277622652,
                -1.1287738636924023,
                1.8572175940036195,
                -0.8900348228468469,
                0.3092377866915561,
                -3.3119869575852667
            ]
        },
        {
            "positions": [
                0.021790560808422843,
                -1.134031014995771,
                1.9146744050973847,
                -0.8412985229028839,
                0.2167578658356204,
                -3.2449664377536607
            ]
        },
        {
            "positions": [
                0.12362355439307222,
                -1.13928816629914,
                1.9721312161911502,
                -0.7925622229589208,
                0.12427794497968467,
                -3.177945917922055
            ]
        }
    ]
}{
    "goal": {
        "global_pose": {
            "orientation": {
                "w": 0.7047431468963623,
                "x": -0.7094548344612122,
                "y": 0.0024358443915843964,
                "z": -0.0022348060738295317
            },
            "position": {
                "x": 0.6094750761985779,
                "y": 0.3671506643295288,
                "z": 0.19426114857196808
            }
        },
        "name": "move_to_magneteinheit_A"
    },
    "id": "KPIECE_move_to_magneteinheit_A_34",
    "joint_names": [
        "shoulder_pan_joint",
        "shoulder_lift_joint",
        "elbow_joint",
        "wrist_1_joint",
        "wrist_2_joint",
        "wrist_3_joint"
    ],
    "metrics": {
        "cart_traj_len": 1.1983267221308236,
        "distance_elbow_joint": 0.05039488455044805,
        "distance_shoulder_lift_joint": 0.7578723489161499,
        "distance_shoulder_pan_joint": 1.2408947600744087,
        "distance_wrist_1_joint": 0.8954306377748075,
        "distance_wrist_2_joint": 1.4352689235671294,
        "distance_wrist_3_joint": 4.320640686822884,
        "smoothness": 0.17016392042894982,
        "time": 0.132308941,
        "traj_len": 2.9496613774645093,
        "weighted_distance": 4.435367310234129
    },
    "planner": "KPIECE",
    "start": {
        "state": {
            "elbow_joint": 1.919643534880228,
            "shoulder_lift_joint": -1.8972525353963687,
            "shoulder_pan_joint": -1.1188672234189438,
            "wrist_1_joint": -1.5931878212786155,
            "wrist_2_joint": 1.5706036197970081,
            "wrist_3_joint": 1.118896926603594
        }
    },
    "waypoints": [
        {
            "positions": [
                -1.1188672234189438,
                -1.8972525353963687,
                1.919643534880228,
                -1.5931878212786155,
                1.5706036197970081,
                1.118896926603594
            ]
        },
        {
            "positions": [
                -1.0635130808015643,
                -1.8644252475894705,
                1.9215214979231132,
                -1.5539969267157023,
                1.5057317455604167,
                0.9268568907360628
            ]
        },
        {
            "positions": [
                -1.0081589381841844,
                -1.8315979597825724,
                1.9233994609659983,
                -1.5148060321527892,
                1.4408598713238254,
                0.7348168548685317
            ]
        },
        {
            "positions": [
                -0.9528047955668049,
                -1.7987706719756742,
                1.9252774240088835,
                -1.4756151375898758,
                1.375987997087234,
                0.5427768190010005
            ]
        },
        {
            "positions": [
                -0.8974506529494252,
                -1.7659433841687762,
                1.9271553870517686,
                -1.4364242430269627,
                1.3111161228506427,
                0.35073678313346934
            ]
        },
        {
            "positions": [
                -0.8420965103320455,
                -1.733116096361878,
                1.9290333500946537,
                -1.3972333484640496,
                1.2462442486140513,
                0.1586967472659382
            ]
        },
        {
            "positions": [
                -0.7867423677146659,
                -1.7002888085549799,
                1.9309113131375386,
                -1.3580424539011364,
                1.1813723743774598,
                -0.03334328860159297
            ]
        },
        {
            "positions": [
                -0.7313882250972861,
                -1.6674615207480816,
                1.9327892761804237,
                -1.3188515593382233,
                1.1165005001408685,
                -0.22538332446912412
            ]
        },
        {
            "positions": [
                -0.6760340824799065,
                -1.6346342329411834,
                1.9346672392233089,
                -1.2796606647753102,
                1.051628625904277,
                -0.4174233603366553
            ]
        },
        {
            "positions": [
                -0.6206799398625267,
                -1.6018069451342853,
                1.936545202266194,
                -1.2404697702123968,
                0.9867567516676856,
                -0.6094633962041864
            ]
        },
        {
            "positions": [
                -0.5653257972451471,
                -1.568979657327387,
                1.938423165309079,
                -1.2012788756494837,
                0.9218848774310943,
                -0.8015034320717176
            ]
        },
        {
            "positions": [
                -0.5099716546277674,
                -1.5361523695204888,
                1.9403011283519642,
                -1.1620879810865705,
                0.8570130031945029,
                -0.9935434679392487
            ]
        },
        {
            "positions": [
                -0.4546175120103878,
                -1.5033250817135908,
                1.9421790913948493,
                -1.1228970865236574,
                0.7921411289579116,
                -1.18558350380678
            ]
        },
        {
            "positions": [
                -0.399263369393008,
                -1.4704977939066926,
                1.9440570544377345,
                -1.083706191960744,
                0.7272692547213201,
                -1.377623539674311
            ]
        },
        {
            "positions": [
                -0.3439092267756284,
                -1.4376705060997945,
                1.9459350174806196,
                -1.0445152973978309,
                0.6623973804847287,
                -1.5696635755418422
            ]
        },
        {
            "positions": [
                -0.2885550841582487,
                -1.4048432182928963,
                1.9478129805235047,
                -1.0053244028349178,
                0.5975255062481375,
                -1.7617036114093734
            ]
        },
        {
            "positions": [
                -0.233200941540869,
                -1.3720159304859982,
                1.9496909435663898,
                -0.9661335082720046,
                0.532653632011546,
                -1.9537436472769045
            ]
        },
        {
            "positions": [
                -0.1778467989234893,
                -1.3391886426791,
                1.9515689066092747,
                -0.9269426137090915,
                0.46778175777495457,
                -2.145783683144436
            ]
        },
        {
            "positions": [
                -0.12249265630610962,
                -1.3063613548722017,
                1.9534468696521599,
                -0.8877517191461782,
                0.4029098835383631,
                -2.3378237190119666
            ]
        },
        {
            "positions": [
                -0.06713851368872992,
                -1.2735340670653037,
                1.955324832695045,
                -0.8485608245832651,
                0.33803800930177186,
                -2.529863754879498
            ]
        },
        {
            "positions": [
                -0.01178437107135033,
                -1.2407067792584057,
                1.95720279573793,
                -0.809369930020352,
                0.2731661350651804,
                -2.721903790747029
            ]
        },
        {
            "positions": [
                0.04356977154602948,
                -1.2078794914515072,
                1.9590807587808152,
                -0.7701790354574387,
                0.20829426082858893,
                -2.9139438266145605
            ]
        },
        {
            "positions": [
                0.09892391416340908,
                -1.1750522036446092,
                1.9609587218237003,
                -0.7309881408945256,
                0.14342238659199769,
                -3.1059838624820912
            ]
        },
        {
            "positions": [
                0.12202753665546494,
                -1.1393801864802189,
                1.9700384194306761,
                -0.7642190982852431,
                0.13533469622987868,
                -3.2017437602192893
            ]
        }
    ]
}