{
    "goal": {
        "global_pose": {
            "orientation": {
                "w": 0.5084816217422485,
                "x": -0.49083608388900757,
                "y": 0.5182115435600281,
                "z": -0.4816462993621826
            },
            "position": {
                "x": 0.5540239810943604,
                "y": 0.030875300988554955,
                "z": 0.16403168439865112
            }
        },
        "name": "move_to_storage_A"
    },
    "id": "KPIECE_move_to_storage_A_69",
    "joint_names": [
        "shoulder_pan_joint",
        "shoulder_lift_joint",
        "elbow_joint",
        "wrist_1_joint",
        "wrist_2_joint",
        "wrist_3_joint"
    ],
    "metrics": {
        "cart_traj_len": 0.3524495329657136,
        "distance_elbow_joint": 0.449231795365153,
        "distance_shoulder_lift_joint": 0.23507219605098473,
        "distance_shoulder_pan_joint": 0.4577242915516869,
        "distance_wrist_1_joint": 0.23999658594646378,
        "distance_wrist_2_joint": 1.1113818269446032,
        "distance_wrist_3_joint": 0.10550647255301282,
        "smoothness": 4.440892098500626e-16,
        "time": 0.093387464,
        "traj_len": 1.6121145022646204,
        "weighted_distance": 2.039927578716705
    },
    "planner": "KPIECE",
    "start": {
        "state": {
            "elbow_joint": 1.9715477243005601,
            "shoulder_lift_joint": -1.1394853015351272,
            "shoulder_pan_joint": 0.12281154014795169,
            "wrist_1_joint": -0.7804696478968182,
            "wrist_2_joint": 0.12958648046900423,
            "wrist_3_joint": -3.192491284697111
        }
    },
    "waypoints": [
        {
            "positions": [
                0.12281154014795169,
                -1.1394853015351272,
                1.9715477243005601,
                -0.7804696478968182,
                0.12958648046900423,
                -3.192491284697111
            ]
        },
        {
            "positions": [
                0.05742235564056784,
                -1.173067043828125,
                2.0357236950670106,
                -0.8147548744605987,
                0.2883553128896618,
                -3.1774189314752523
            ]
        },
        {
            "positions": [
                -0.007966828866816003,
                -1.2066487861211228,
                2.099899665833461,
                -0.8490401010243792,
                0.4471241453103194,
                -3.162346578253393
            ]
        },
        {
            "positions": [
                -0.07335601337419985,
                -1.2402305284141206,
                2.1640756365999114,
                -0.8833253275881597,
                0.605892977730977,
                -3.147274225031534
            ]
        },
        {
            "positions": [
                -0.13874519788158368,
                -1.2738122707071184,
                2.228251607366362,
                -0.9176105541519404,
                0.7646618101516346,
                -3.1322018718096754
            ]
        },
        {
            "positions": [
                -0.20413438238896753,
                -1.3073940130001163,
                2.2924275781328123,
                -0.9518957807157209,
                0.9234306425722922,
                -3.1171295185878165
            ]
        },
        {
            "positions": [
                -0.2695235668963514,
                -1.340975755293114,
                2.3566035488992627,
                -0.9861810072795014,
                1.0821994749929498,
                -3.102057165365957
            ]
        },
        {
            "positions": [
                -0.3349127514037352,
                -1.374557497586112,
                2.420779519665713,
                -1.020466233843282,
                1.2409683074136075,
                -3.0869848121440984
            ]
        }
    ]
}