{
    "goal": {
        "global_pose": {
            "orientation": {
                "w": 0.5084816217422485,
                "x": -0.49083608388900757,
                "y": 0.5182115435600281,
                "z": -0.4816462993621826
            },
            "position": {
                "x": 0.5540239810943604,
                "y": 0.030875300988554955,
                "z": 0.16403168439865112
            }
        },
        "name": "move_to_storage_A"
    },
    "id": "LazyPRM_move_to_storage_A_95",
    "joint_names": [
        "shoulder_pan_joint",
        "shoulder_lift_joint",
        "elbow_joint",
        "wrist_1_joint",
        "wrist_2_joint",
        "wrist_3_joint"
    ],
    "metrics": {
        "cart_traj_len": 0.3525550630553263,
        "distance_elbow_joint": 0.4477620466560168,
        "distance_shoulder_lift_joint": 0.23357614720856157,
        "distance_shoulder_pan_joint": 0.45620674703053715,
        "distance_wrist_1_joint": 0.24041069404524584,
        "distance_wrist_2_joint": 1.1174148094137664,
        "distance_wrist_3_joint": 0.10586826546051498,
        "smoothness": 8.881784232165597e-16,
        "time": 0.022269117,
        "traj_len": 1.6128356115285412,
        "weighted_distance": 2.042253839314468
    },
    "planner": "LazyPRM",
    "start": {
        "state": {
            "elbow_joint": 1.9715477243005601,
            "shoulder_lift_joint": -1.1394853015351272,
            "shoulder_pan_joint": 0.12281154014795169,
            "wrist_1_joint": -0.7804696478968182,
            "wrist_2_joint": 0.12958648046900423,
            "wrist_3_joint": -3.192491284697111
        }
    },
    "waypoints": [
        {
            "positions": [
                0.12281154014795169,
                -1.1394853015351272,
                1.9715477243005601,
                -0.7804696478968182,
                0.12958648046900423,
                -3.192491284697111
            ]
        },
        {
            "positions": [
                0.05763914771501781,
                -1.1728533225649216,
                2.035513730965705,
                -0.8148140327604247,
                0.28921716752811366,
                -3.1773672467741805
            ]
        },
        {
            "positions": [
                -0.007533244717916068,
                -1.2062213435947162,
                2.0994797376308507,
                -0.8491584176240312,
                0.44884785458722315,
                -3.1622432088512498
            ]
        },
        {
            "positions": [
                -0.07270563715084995,
                -1.2395893646245106,
                2.163445744295996,
                -0.8835028024876378,
                0.6084785416463326,
                -3.147119170928319
            ]
        },
        {
            "positions": [
                -0.1378780295837838,
                -1.2729573856543053,
                2.2274117509611413,
                -0.9178471873512444,
                0.7681092287054421,
                -3.1319951330053883
            ]
        },
        {
            "positions": [
                -0.2030504220167177,
                -1.3063254066840997,
                2.2913777576262864,
                -0.9521915722148508,
                0.9277399157645516,
                -3.1168710950824576
            ]
        },
        {
            "positions": [
                -0.26822281444965157,
                -1.339693427713894,
                2.3553437642914314,
                -0.9865359570784574,
                1.0873706028236612,
                -3.101747057159527
            ]
        },
        {
            "positions": [
                -0.33339520688258545,
                -1.3730614487436887,
                2.419309770956577,
                -1.020880341942064,
                1.2470012898827707,
                -3.086623019236596
            ]
        }
    ]
}