{
    "goal": {
        "global_pose": {
            "orientation": {
                "w": 0.5084816217422485,
                "x": -0.49083608388900757,
                "y": 0.5182115435600281,
                "z": -0.4816462993621826
            },
            "position": {
                "x": 0.5540239810943604,
                "y": 0.030875300988554955,
                "z": 0.16403168439865112
            }
        },
        "name": "move_to_storage_A"
    },
    "id": "LazyPRM_move_to_storage_A_27",
    "joint_names": [
        "shoulder_pan_joint",
        "shoulder_lift_joint",
        "elbow_joint",
        "wrist_1_joint",
        "wrist_2_joint",
        "wrist_3_joint"
    ],
    "metrics": {
        "cart_traj_len": 0.3537306074029309,
        "distance_elbow_joint": 0.44957783689958575,
        "distance_shoulder_lift_joint": 0.23532640151834672,
        "distance_shoulder_pan_joint": 0.4596554295349605,
        "distance_wrist_1_joint": 0.24377102772658732,
        "distance_wrist_2_joint": 1.1125587069381604,
        "distance_wrist_3_joint": 0.09048038563530847,
        "smoothness": 0.0,
        "time": 0.012122994,
        "traj_len": 1.6097732101923392,
        "weighted_distance": 2.0319105034888505
    },
    "planner": "LazyPRM",
    "start": {
        "state": {
            "elbow_joint": 1.9715477243005601,
            "shoulder_lift_joint": -1.1394853015351272,
            "shoulder_pan_joint": 0.12281154014795169,
            "wrist_1_joint": -0.7804696478968182,
            "wrist_2_joint": 0.12958648046900423,
            "wrist_3_joint": -3.192491284697111
        }
    },
    "waypoints": [
        {
            "positions": [
                0.12281154014795169,
                -1.1394853015351272,
                1.9715477243005601,
                -0.7804696478968182,
                0.12958648046900423,
                -3.192491284697111
            ]
        },
        {
            "positions": [
                0.05714647878581447,
                -1.173103358894891,
                2.0357731295719295,
                -0.8152940804291878,
                0.2885234386030271,
                -3.1795655153206384
            ]
        },
        {
            "positions": [
                -0.00851858257632275,
                -1.206721416254655,
                2.099998534843299,
                -0.8501185129615574,
                0.44746039673705,
                -3.166639745944166
            ]
        },
        {
            "positions": [
                -0.07418364393845996,
                -1.2403394736144187,
                2.164223940114668,
                -0.884942945493927,
                0.6063973548710729,
                -3.153713976567693
            ]
        },
        {
            "positions": [
                -0.13984870530059718,
                -1.2739575309741824,
                2.2284493453860375,
                -0.9197673780262966,
                0.7653343130050958,
                -3.1407882071912208
            ]
        },
        {
            "positions": [
                -0.2055137666627344,
                -1.3075755883339464,
                2.2926747506574072,
                -0.9545918105586663,
                0.9242712711391188,
                -3.127862437814748
            ]
        },
        {
            "positions": [
                -0.2711788280248716,
                -1.3411936456937101,
                2.3569001559287766,
                -0.9894162430910358,
                1.0832082292731418,
                -3.1149366684382755
            ]
        },
        {
            "positions": [
                -0.3368438893870088,
                -1.3748117030534739,
                2.421125561200146,
                -1.0242406756234055,
                1.2421451874071647,
                -3.1020108990618027
            ]
        }
    ]
}