{
    "goal": {
        "global_pose": {
            "orientation": {
                "w": 0.7047431468963623,
                "x": -0.7094548344612122,
                "y": 0.0024358443915843964,
                "z": -0.0022348060738295317
            },
            "position": {
                "x": 0.6094750761985779,
                "y": 0.3671506643295288,
                "z": 0.19426114857196808
            }
        },
        "name": "move_to_magneteinheit_A"
    },
    "id": "LazyPRMstar_move_to_magneteinheit_A_36",
    "joint_names": [
        "shoulder_pan_joint",
        "shoulder_lift_joint",
        "elbow_joint",
        "wrist_1_joint",
        "wrist_2_joint",
        "wrist_3_joint"
    ],
    "metrics": {
        "cart_traj_len": 3.508600536070666,
        "distance_elbow_joint": 3.9034392066141335,
        "distance_shoulder_lift_joint": 0.14157351897891957,
        "distance_shoulder_pan_joint": 2.921297021260168,
        "distance_wrist_1_joint": 0.9748422724785218,
        "distance_wrist_2_joint": 1.6912221892738541,
        "distance_wrist_3_joint": 3.57227755429594,
        "smoothness": 0.10441944935103374,
        "time": 5.030531033,
        "traj_len": 3.6338205463260755,
        "weighted_distance": 4.797423405667441
    },
    "planner": "LazyPRMstar",
    "start": {
        "state": {
            "elbow_joint": -1.919618573717145,
            "shoulder_lift_joint": -1.2443395971678275,
            "shoulder_pan_joint": 2.6996025300909787,
            "wrist_1_joint": -1.548550951253194,
            "wrist_2_joint": -1.5709469090946802,
            "wrist_3_joint": 0.4420197732051276
        }
    },
    "waypoints": [
        {
            "positions": [
                2.6996025300909787,
                -1.2443395971678275,
                -1.919618573717145,
                -1.548550951253194,
                -1.5709469090946802,
                0.4420197732051276
            ]
        },
        {
            "positions": [
                2.598792671461723,
                -1.2433940038195102,
                -1.8151362966355655,
                -1.5183112195060076,
                -1.5199551647893321,
                0.34078224836968646
            ]
        },
        {
            "positions": [
                2.4979828128324675,
                -1.2424484104711928,
                -1.710654019553986,
                -1.4880714877588208,
                -1.468963420483984,
                0.23954472353424536
            ]
        },
        {
            "positions": [
                2.3971729542032123,
                -1.2415028171228757,
                -1.6061717424724065,
                -1.4578317560116343,
                -1.417971676178636,
                0.13830719869880426
            ]
        },
        {
            "positions": [
                2.2963630955739567,
                -1.2405572237745583,
                -1.501689465390827,
                -1.4275920242644475,
                -1.366979931873288,
                0.03706967386336313
            ]
        },
        {
            "positions": [
                2.195553236944701,
                -1.239611630426241,
                -1.3972071883092476,
                -1.397352292517261,
                -1.3159881875679398,
                -0.06416785097207794
            ]
        },
        {
            "positions": [
                2.094743378315446,
                -1.2386660370779237,
                -1.2927249112276682,
                -1.3671125607700745,
                -1.2649964432625918,
                -0.16540537580751907
            ]
        },
        {
            "positions": [
                1.9939335196861903,
                -1.2377204437296063,
                -1.1882426341460888,
                -1.3368728290228877,
                -1.2140046989572437,
                -0.2666429006429602
            ]
        },
        {
            "positions": [
                1.8931236610569346,
                -1.2367748503812892,
                -1.0837603570645093,
                -1.3066330972757012,
                -1.1630129546518957,
                -0.36788042547840133
            ]
        },
        {
            "positions": [
                1.7923138024276792,
                -1.2358292570329719,
                -0.9792780799829298,
                -1.2763933655285147,
                -1.1120212103465477,
                -0.46911795031384235
            ]
        },
        {
            "positions": [
                1.6915039437984236,
                -1.2348836636846545,
                -0.8747958029013503,
                -1.246153633781328,
                -1.0610294660411994,
                -0.5703554751492834
            ]
        },
        {
            "positions": [
                1.5906940851691682,
                -1.2339380703363372,
                -0.7703135258197709,
                -1.2159139020341412,
                -1.0100377217358516,
                -0.6715929999847245
            ]
        },
        {
            "positions": [
                1.4898842265399126,
                -1.2329924769880198,
                -0.6658312487381914,
                -1.1856741702869547,
                -0.9590459774305035,
                -0.7728305248201657
            ]
        },
        {
            "positions": [
                1.3890743679106572,
                -1.2320468836397027,
                -0.561348971656612,
                -1.1554344385397681,
                -0.9080542331251554,
                -0.8740680496556068
            ]
        },
        {
            "positions": [
                1.2882645092814018,
                -1.2311012902913854,
                -0.4568666945750326,
                -1.1251947067925814,
                -0.8570624888198074,
                -0.9753055744910479
            ]
        },
        {
            "positions": [
                1.1874546506521464,
                -1.230155696943068,
                -0.3523844174934532,
                -1.0949549750453949,
                -0.8060707445144594,
                -1.0765430993264888
            ]
        },
        {
            "positions": [
                1.0866447920228905,
                -1.2292101035947507,
                -0.24790214041187353,
                -1.0647152432982083,
                -0.7550790002091112,
                -1.1777806241619302
            ]
        },
        {
            "positions": [
                0.9858349333936351,
                -1.2282645102464333,
                -0.1434198633302941,
                -1.0344755115510216,
                -0.7040872559037632,
                -1.2790181489973713
            ]
        },
        {
            "positions": [
                0.8850250747643797,
                -1.227318916898116,
                -0.038937586248714684,
                -1.004235779803835,
                -0.6530955115984152,
                -1.3802556738328122
            ]
        },
        {
            "positions": [
                0.7842152161351243,
                -1.2263733235497989,
                0.06554469083286452,
                -0.9739960480566484,
                -0.6021037672930671,
                -1.4814931986682534
            ]
        },
        {
            "positions": [
                0.6834053575058685,
                -1.2254277302014815,
                0.17002696791444438,
                -0.9437563163094618,
                -0.5511120229877189,
                -1.5827307235036945
            ]
        },
        {
            "positions": [
                0.5825954988766133,
                -1.2244821368531642,
                0.2745092449960238,
                -0.9135165845622751,
                -0.5001202786823709,
                -1.6839682483391356
            ]
        },
        {
            "positions": [
                0.4817856402473577,
                -1.2235365435048469,
                0.3789915220776032,
                -0.8832768528150885,
                -0.44912853437702305,
                -1.7852057731745767
            ]
        },
        {
            "positions": [
                0.3809757816181021,
                -1.2225909501565295,
                0.48347379915918265,
                -0.853037121067902,
                -0.398136790071675,
                -1.8864432980100179
            ]
        },
        {
            "positions": [
                0.28016592298884646,
                -1.2216453568082124,
                0.5879560762407621,
                -0.8227973893207152,
                -0.34714504576632677,
                -1.987680822845459
            ]
        },
        {
            "positions": [
                0.17935606435959128,
                -1.220699763459895,
                0.6924383533223415,
                -0.7925576575735287,
                -0.29615330146097874,
                -2.0889183476809
            ]
        },
        {
            "positions": [
                0.07854620573033547,
                -1.2197541701115777,
                0.7969206304039211,
                -0.7623179258263421,
                -0.24516155715563065,
                -2.1901558725163413
            ]
        },
        {
            "positions": [
                0.05720923151046965,
                -1.203881364577472,
                0.9480587476883617,
                -0.7529735262252336,
                -0.19566563394480824,
                -2.296524210137719
            ]
        },
        {
            "positions": [
                0.03587225729060384,
                -1.1880085590433664,
                1.0991968649728023,
                -0.7436291266241252,
                -0.14616971073398582,
                -2.4028925477590968
            ]
        },
        {
            "positions": [
                0.014535283070738023,
                -1.1721357535092607,
                1.2503349822572432,
                -0.7342847270230168,
                -0.09667378752316338,
                -2.5092608853804745
            ]
        },
        {
            "positions": [
                -0.006801691149127792,
                -1.156262947975155,
                1.4014730995416838,
                -0.7249403274219084,
                -0.04717786431234097,
                -2.6156292230018523
            ]
        },
        {
            "positions": [
                -0.028138665368993607,
                -1.1403901424410494,
                1.5526112168261246,
                -0.7155959278208,
                0.0023180588984814676,
                -2.72199756062323
            ]
        },
        {
            "positions": [
                -0.04947563958885942,
                -1.1245173369069437,
                1.7037493341105652,
                -0.7062515282196915,
                0.05181398210930388,
                -2.828365898244608
            ]
        },
        {
            "positions": [
                -0.0011978382261441933,
                -1.130459212185295,
                1.7833837648029387,
                -0.7433160410183719,
                0.07134667691595953,
                -2.9136457361359187
            ]
        },
        {
            "positions": [
                0.047079963136571035,
                -1.136401087463646,
                1.8630181954953124,
                -0.7803805538170523,
                0.09087937172261518,
                -2.998925574027229
            ]
        },
        {
            "positions": [
                0.09535776449928626,
                -1.1423429627419974,
                1.942652626187686,
                -0.8174450666157327,
                0.11041206652927084,
                -3.08420541191854
            ]
        },
        {
            "positions": [
                0.12274321199146912,
                -1.1462685956249794,
                1.9838206328969885,
                -0.8387943776647108,
                0.12027528017917377,
                -3.1302577810908123
            ]
        }
    ]
}{
    "goal": {
        "global_pose": {
            "orientation": {
                "w": 0.7047431468963623,
                "x": -0.7094548344612122,
                "y": 0.0024358443915843964,
                "z": -0.0022348060738295317
            },
            "position": {
                "x": 0.6094750761985779,
                "y": 0.3671506643295288,
                "z": 0.19426114857196808
            }
        },
        "name": "move_to_magneteinheit_A"
    },
    "id": "LazyPRMstar_move_to_magneteinheit_A_36",
    "joint_names": [
        "shoulder_pan_joint",
        "shoulder_lift_joint",
        "elbow_joint",
        "wrist_1_joint",
        "wrist_2_joint",
        "wrist_3_joint"
    ],
    "metrics": {
        "cart_traj_len": 1.1694434542178886,
        "distance_elbow_joint": 0.10303771660562888,
        "distance_shoulder_lift_joint": 0.7505596408494242,
        "distance_shoulder_pan_joint": 1.2412795721380332,
        "distance_wrist_1_joint": 0.8657945978437321,
        "distance_wrist_2_joint": 1.4457176479516123,
        "distance_wrist_3_joint": 4.254860915425089,
        "smoothness": 0.0680150096991617,
        "time": 5.041198575,
        "traj_len": 2.943000185323392,
        "weighted_distance": 4.413896710103108
    },
    "planner": "LazyPRMstar",
    "start": {
        "state": {
            "elbow_joint": 1.919643534880228,
            "shoulder_lift_joint": -1.8972525353963687,
            "shoulder_pan_joint": -1.1188672234189438,
            "wrist_1_joint": -1.5931878212786155,
            "wrist_2_joint": 1.5706036197970081,
            "wrist_3_joint": 1.118896926603594
        }
    },
    "waypoints": [
        {
            "positions": [
                -1.1188672234189438,
                -1.8972525353963687,
                1.919643534880228,
                -1.5931878212786155,
                1.5706036197970081,
                1.118896926603594
            ]
        },
        {
            "positions": [
                -1.060756510938703,
                -1.867652605236718,
                1.9240943216006245,
                -1.5506188057982342,
                1.5070746702948994,
                0.9370403605344818
            ]
        },
        {
            "positions": [
                -1.002645798458462,
                -1.8380526750770672,
                1.9285451083210208,
                -1.5080497903178527,
                1.4435457207927906,
                0.7551837944653697
            ]
        },
        {
            "positions": [
                -0.9445350859782212,
                -1.8084527449174164,
                1.9329958950414172,
                -1.4654807748374714,
                1.380016771290682,
                0.5733272283962575
            ]
        },
        {
            "positions": [
                -0.8864243734979803,
                -1.7788528147577656,
                1.9374466817618134,
                -1.4229117593570901,
                1.3164878217885732,
                0.39147066232714534
            ]
        },
        {
            "positions": [
                -0.8283136610177394,
                -1.7492528845981148,
                1.94189746848221,
                -1.3803427438767086,
                1.2529588722864642,
                0.20961409625803318
            ]
        },
        {
            "positions": [
                -0.7702029485374986,
                -1.719652954438464,
                1.9463482552026061,
                -1.3377737283963274,
                1.1894299227843554,
                0.02775753018892102
            ]
        },
        {
            "positions": [
                -0.7120922360572577,
                -1.6900530242788132,
                1.9507990419230026,
                -1.2952047129159459,
                1.1259009732822467,
                -0.15409903588019125
            ]
        },
        {
            "positions": [
                -0.6539815235770168,
                -1.6604530941191624,
                1.955249828643399,
                -1.2526356974355646,
                1.062372023780138,
                -0.3359556019493033
            ]
        },
        {
            "positions": [
                -0.5958708110967759,
                -1.6308531639595116,
                1.9597006153637953,
                -1.2100666819551833,
                0.9988430742780291,
                -0.5178121680184156
            ]
        },
        {
            "positions": [
                -0.537760098616535,
                -1.6012532337998608,
                1.9641514020841917,
                -1.1674976664748018,
                0.9353141247759204,
                -0.6996687340875276
            ]
        },
        {
            "positions": [
                -0.47964938613629404,
                -1.57165330364021,
                1.968602188804588,
                -1.1249286509944203,
                0.8717851752738115,
                -0.8815253001566401
            ]
        },
        {
            "positions": [
                -0.42153867365605324,
                -1.5420533734805593,
                1.9730529755249844,
                -1.082359635514039,
                0.8082562257717029,
                -1.063381866225752
            ]
        },
        {
            "positions": [
                -0.36342796117581233,
                -1.5124534433209085,
                1.9775037622453808,
                -1.0397906200336577,
                0.744727276269594,
                -1.2452384322948642
            ]
        },
        {
            "positions": [
                -0.3053172486955714,
                -1.4828535131612577,
                1.981954548965777,
                -0.9972216045532764,
                0.6811983267674853,
                -1.4270949983639765
            ]
        },
        {
            "positions": [
                -0.2472065362153305,
                -1.453253583001607,
                1.9864053356861735,
                -0.954652589072895,
                0.6176693772653764,
                -1.6089515644330887
            ]
        },
        {
            "positions": [
                -0.1890958237350897,
                -1.423653652841956,
                1.9908561224065697,
                -0.9120835735925137,
                0.5541404277632678,
                -1.7908081305022006
            ]
        },
        {
            "positions": [
                -0.1309851112548488,
                -1.3940537226823053,
                1.9953069091269662,
                -0.8695145581121323,
                0.4906114782611588,
                -1.9726646965713128
            ]
        },
        {
            "positions": [
                -0.07287439877460788,
                -1.3644537925226545,
                1.9997576958473624,
                -0.8269455426317509,
                0.42708252875905006,
                -2.154521262640425
            ]
        },
        {
            "positions": [
                -0.014763686294366871,
                -1.3348538623630037,
                2.004208482567759,
                -0.7843765271513695,
                0.36355357925694126,
                -2.336377828709537
            ]
        },
        {
            "positions": [
                0.01953032245899724,
                -1.287813620408989,
                1.9995902903382343,
                -0.798622353080491,
                0.30388667740405495,
                -2.536274368737527
            ]
        },
        {
            "positions": [
                0.05382433121236135,
                -1.2407733784549742,
                1.9949720981087098,
                -0.8128681790096126,
                0.2442197755511686,
                -2.7361709087655166
            ]
        },
        {
            "positions": [
                0.08811833996572545,
                -1.1937331365009594,
                1.9903539058791853,
                -0.8271140049387342,
                0.18455287369828227,
                -2.936067448793506
            ]
        },
        {
            "positions": [
                0.12241234871908956,
                -1.1466928945469446,
                1.9857357136496607,
                -0.8413598308678557,
                0.12488597184539596,
                -3.1359639888214956
            ]
        }
    ]
}