{
    "goal": {
        "global_pose": {
            "orientation": {
                "w": 0.5084816217422485,
                "x": -0.49083608388900757,
                "y": 0.5182115435600281,
                "z": -0.4816462993621826
            },
            "position": {
                "x": 0.5540239810943604,
                "y": 0.030875300988554955,
                "z": 0.16403168439865112
            }
        },
        "name": "move_to_storage_A"
    },
    "id": "LazyPRM_move_to_storage_A_44",
    "joint_names": [
        "shoulder_pan_joint",
        "shoulder_lift_joint",
        "elbow_joint",
        "wrist_1_joint",
        "wrist_2_joint",
        "wrist_3_joint"
    ],
    "metrics": {
        "cart_traj_len": 0.3532290396474284,
        "distance_elbow_joint": 0.4498990820994595,
        "distance_shoulder_lift_joint": 0.23545951643020535,
        "distance_shoulder_pan_joint": 0.4605445119303251,
        "distance_wrist_1_joint": 0.23648340987174754,
        "distance_wrist_2_joint": 1.1058960020061277,
        "distance_wrist_3_joint": 0.08660309242393494,
        "smoothness": 6.661338200497456e-16,
        "time": 0.022059875,
        "traj_len": 1.6046450120702085,
        "weighted_distance": 2.022491337802846
    },
    "planner": "LazyPRM",
    "start": {
        "state": {
            "elbow_joint": 1.9715477243005601,
            "shoulder_lift_joint": -1.1394853015351272,
            "shoulder_pan_joint": 0.12281154014795169,
            "wrist_1_joint": -0.7804696478968182,
            "wrist_2_joint": 0.12958648046900423,
            "wrist_3_joint": -3.192491284697111
        }
    },
    "waypoints": [
        {
            "positions": [
                0.12281154014795169,
                -1.1394853015351272,
                1.9715477243005601,
                -0.7804696478968182,
                0.12958648046900423,
                -3.192491284697111
            ]
        },
        {
            "positions": [
                0.057019467015048106,
                -1.1731223753108708,
                2.03581902174334,
                -0.8142529921642107,
                0.28757162361273675,
                -3.180119414350835
            ]
        },
        {
            "positions": [
                -0.008772606117855478,
                -1.2067594490866145,
                2.10009031918612,
                -0.8480363364316031,
                0.44555676675646927,
                -3.167747544004558
            ]
        },
        {
            "positions": [
                -0.07456467925075906,
                -1.2403965228623581,
                2.1643616166289,
                -0.8818196806989956,
                0.6035419099002017,
                -3.155375673658282
            ]
        },
        {
            "positions": [
                -0.14035675238366263,
                -1.2740335966381016,
                2.22863291407168,
                -0.9156030249663882,
                0.7615270530439343,
                -3.1430038033120056
            ]
        },
        {
            "positions": [
                -0.20614882551656621,
                -1.3076706704138452,
                2.2929042115144598,
                -0.9493863692337807,
                0.9195121961876669,
                -3.1306319329657293
            ]
        },
        {
            "positions": [
                -0.2719408986494698,
                -1.3413077441895889,
                2.3571755089572397,
                -0.9831697135011732,
                1.0774973393313994,
                -3.1182600626194525
            ]
        },
        {
            "positions": [
                -0.3377329717823734,
                -1.3749448179653325,
                2.4214468064000196,
                -1.0169530577685657,
                1.235482482475132,
                -3.1058881922731763
            ]
        }
    ]
}