{
    "goal": {
        "global_pose": {
            "orientation": {
                "w": 0.5084816217422485,
                "x": -0.49083608388900757,
                "y": 0.5182115435600281,
                "z": -0.4816462993621826
            },
            "position": {
                "x": 0.5540239810943604,
                "y": 0.030875300988554955,
                "z": 0.16403168439865112
            }
        },
        "name": "move_to_storage_A"
    },
    "id": "LazyPRMstar_move_to_storage_A_54",
    "joint_names": [
        "shoulder_pan_joint",
        "shoulder_lift_joint",
        "elbow_joint",
        "wrist_1_joint",
        "wrist_2_joint",
        "wrist_3_joint"
    ],
    "metrics": {
        "cart_traj_len": 0.35278011687108296,
        "distance_elbow_joint": 0.45359573437774614,
        "distance_shoulder_lift_joint": 0.23239597937565426,
        "distance_shoulder_pan_joint": 0.46030578795975446,
        "distance_wrist_1_joint": 0.2604615135639353,
        "distance_wrist_2_joint": 1.1020415835769684,
        "distance_wrist_3_joint": 0.0954826188432163,
        "smoothness": 1.665334528953551e-15,
        "time": 5.000167928,
        "traj_len": 1.6137791725317547,
        "weighted_distance": 2.0390565349015244
    },
    "planner": "LazyPRMstar",
    "start": {
        "state": {
            "elbow_joint": 1.9715477243005601,
            "shoulder_lift_joint": -1.1394853015351272,
            "shoulder_pan_joint": 0.12281154014795169,
            "wrist_1_joint": -0.7804696478968182,
            "wrist_2_joint": 0.12958648046900423,
            "wrist_3_joint": -3.192491284697111
        }
    },
    "waypoints": [
        {
            "positions": [
                0.12281154014795169,
                -1.1394853015351272,
                1.9715477243005601,
                -0.7804696478968182,
                0.12958648046900423,
                -3.192491284697111
            ]
        },
        {
            "positions": [
                0.057053570439415335,
                -1.1726847271602205,
                2.0363471149259524,
                -0.8176784355488089,
                0.28702099240857115,
                -3.1788509105766516
            ]
        },
        {
            "positions": [
                -0.008704399269121019,
                -1.2058841527853141,
                2.1011465055513447,
                -0.8548872232007997,
                0.444455504348138,
                -3.1652105364561924
            ]
        },
        {
            "positions": [
                -0.07446236897765736,
                -1.2390835784104075,
                2.165945896176737,
                -0.8920960108527904,
                0.601890016287705,
                -3.151570162335733
            ]
        },
        {
            "positions": [
                -0.1402203386861937,
                -1.272283004035501,
                2.2307452868021294,
                -0.9293047985047812,
                0.7593245282272718,
                -3.1379297882152732
            ]
        },
        {
            "positions": [
                -0.20597830839473008,
                -1.3054824296605945,
                2.2955446774275217,
                -0.966513586156772,
                0.9167590401668387,
                -3.1242894140948136
            ]
        },
        {
            "positions": [
                -0.2717362781032664,
                -1.3386818552856878,
                2.360344068052914,
                -1.0037223738087628,
                1.0741935521064057,
                -3.1106490399743545
            ]
        },
        {
            "positions": [
                -0.33749424781180276,
                -1.3718812809107814,
                2.4251434586783063,
                -1.0409311614607535,
                1.2316280640459727,
                -3.097008665853895
            ]
        }
    ]
}