{
    "goal": {
        "global_pose": {
            "orientation": {
                "w": 0.5084816217422485,
                "x": -0.49083608388900757,
                "y": 0.5182115435600281,
                "z": -0.4816462993621826
            },
            "position": {
                "x": 0.5540239810943604,
                "y": 0.030875300988554955,
                "z": 0.16403168439865112
            }
        },
        "name": "move_to_storage_A"
    },
    "id": "LazyPRMstar_move_to_storage_A_49",
    "joint_names": [
        "shoulder_pan_joint",
        "shoulder_lift_joint",
        "elbow_joint",
        "wrist_1_joint",
        "wrist_2_joint",
        "wrist_3_joint"
    ],
    "metrics": {
        "cart_traj_len": 0.3535331457881337,
        "distance_elbow_joint": 0.4497756151369461,
        "distance_shoulder_lift_joint": 0.23475337286147546,
        "distance_shoulder_pan_joint": 0.46276557411966834,
        "distance_wrist_1_joint": 0.24060740042841855,
        "distance_wrist_2_joint": 1.0978824137584078,
        "distance_wrist_3_joint": 0.09177243133459845,
        "smoothness": 1.3322676295501878e-15,
        "time": 5.0001843269999995,
        "traj_len": 1.6054771277223212,
        "weighted_distance": 2.02474479490516
    },
    "planner": "LazyPRMstar",
    "start": {
        "state": {
            "elbow_joint": 1.9715477243005601,
            "shoulder_lift_joint": -1.1394853015351272,
            "shoulder_pan_joint": 0.12281154014795169,
            "wrist_1_joint": -0.7804696478968182,
            "wrist_2_joint": 0.12958648046900423,
            "wrist_3_joint": -3.192491284697111
        }
    },
    "waypoints": [
        {
            "positions": [
                0.12281154014795169,
                -1.1394853015351272,
                1.9715477243005601,
                -0.7804696478968182,
                0.12958648046900423,
                -3.192491284697111
            ]
        },
        {
            "positions": [
                0.056702172416570495,
                -1.1730214976581952,
                2.035801383605838,
                -0.8148421336723065,
                0.2864268252916339,
                -3.179380937363597
            ]
        },
        {
            "positions": [
                -0.009407195314810698,
                -1.206557693781263,
                2.100055042911116,
                -0.8492146194477949,
                0.4432671701142636,
                -3.166270590030083
            ]
        },
        {
            "positions": [
                -0.07551656304619188,
                -1.240093889904331,
                2.164308702216394,
                -0.8835871052232832,
                0.6001075149368933,
                -3.153160242696569
            ]
        },
        {
            "positions": [
                -0.14162593077757307,
                -1.2736300860273988,
                2.2285623615216723,
                -0.9179595909987717,
                0.756947859759523,
                -3.140049895363055
            ]
        },
        {
            "positions": [
                -0.20773529850895428,
                -1.3071662821504668,
                2.29281602082695,
                -0.95233207677426,
                0.9137882045821527,
                -3.126939548029541
            ]
        },
        {
            "positions": [
                -0.27384466624033543,
                -1.3407024782735346,
                2.357069680132228,
                -0.9867045625497484,
                1.0706285494047822,
                -3.113829200696027
            ]
        },
        {
            "positions": [
                -0.33995403397171664,
                -1.3742386743966026,
                2.421323339437506,
                -1.0210770483252367,
                1.227468894227412,
                -3.1007188533625127
            ]
        }
    ]
}