{
    "goal": {
        "global_pose": {
            "orientation": {
                "w": 0.5084816217422485,
                "x": -0.49083608388900757,
                "y": 0.5182115435600281,
                "z": -0.4816462993621826
            },
            "position": {
                "x": 0.5540239810943604,
                "y": 0.030875300988554955,
                "z": 0.16403168439865112
            }
        },
        "name": "move_to_storage_A"
    },
    "id": "LazyPRM_move_to_storage_A_70",
    "joint_names": [
        "shoulder_pan_joint",
        "shoulder_lift_joint",
        "elbow_joint",
        "wrist_1_joint",
        "wrist_2_joint",
        "wrist_3_joint"
    ],
    "metrics": {
        "cart_traj_len": 0.3538246477790048,
        "distance_elbow_joint": 0.4489171463233883,
        "distance_shoulder_lift_joint": 0.2341983916764141,
        "distance_shoulder_pan_joint": 0.4618629515518352,
        "distance_wrist_1_joint": 0.2395426619630484,
        "distance_wrist_2_joint": 1.1034392207912407,
        "distance_wrist_3_joint": 0.09180648703994843,
        "smoothness": 4.440892098500626e-16,
        "time": 0.012155052,
        "traj_len": 1.6061652652656497,
        "weighted_distance": 2.026415978070658
    },
    "planner": "LazyPRM",
    "start": {
        "state": {
            "elbow_joint": 1.9715477243005601,
            "shoulder_lift_joint": -1.1394853015351272,
            "shoulder_pan_joint": 0.12281154014795169,
            "wrist_1_joint": -0.7804696478968182,
            "wrist_2_joint": 0.12958648046900423,
            "wrist_3_joint": -3.192491284697111
        }
    },
    "waypoints": [
        {
            "positions": [
                0.12281154014795169,
                -1.1394853015351272,
                1.9715477243005601,
                -0.7804696478968182,
                0.12958648046900423,
                -3.192491284697111
            ]
        },
        {
            "positions": [
                0.056831118497689515,
                -1.1729422146317579,
                2.035678745203901,
                -0.8146900281772537,
                0.2872206548677529,
                -3.179376072262833
            ]
        },
        {
            "positions": [
                -0.00914930315257266,
                -1.2063991277283883,
                2.0998097661072426,
                -0.8489104084576892,
                0.44485482926650155,
                -3.1662608598285544
            ]
        },
        {
            "positions": [
                -0.07512972480283482,
                -1.239856040825019,
                2.1639407870105836,
                -0.8831307887381246,
                0.6024890036652502,
                -3.1531456473942763
            ]
        },
        {
            "positions": [
                -0.141110146453097,
                -1.2733129539216494,
                2.228071807913925,
                -0.9173511690185601,
                0.7601231780639989,
                -3.1400304349599977
            ]
        },
        {
            "positions": [
                -0.20709056810335918,
                -1.3067698670182801,
                2.292202828817266,
                -0.9515715492989956,
                0.9177573524627476,
                -3.1269152225257195
            ]
        },
        {
            "positions": [
                -0.2730709897536213,
                -1.3402267801149106,
                2.356333849720607,
                -0.9857919295794311,
                1.0753915268614962,
                -3.113800010091441
            ]
        },
        {
            "positions": [
                -0.3390514114038835,
                -1.3736836932115413,
                2.4204648706239484,
                -1.0200123098598666,
                1.2330257012602448,
                -3.1006847976571628
            ]
        }
    ]
}