{
    "goal": {
        "global_pose": {
            "orientation": {
                "w": 0.7047431468963623,
                "x": -0.7094548344612122,
                "y": 0.0024358443915843964,
                "z": -0.0022348060738295317
            },
            "position": {
                "x": 0.6094750761985779,
                "y": 0.3671506643295288,
                "z": 0.19426114857196808
            }
        },
        "name": "move_to_magneteinheit_A"
    },
    "id": "LazyPRMstar_move_to_magneteinheit_A_128",
    "joint_names": [
        "shoulder_pan_joint",
        "shoulder_lift_joint",
        "elbow_joint",
        "wrist_1_joint",
        "wrist_2_joint",
        "wrist_3_joint"
    ],
    "metrics": {
        "cart_traj_len": 3.4505505123299467,
        "distance_elbow_joint": 3.901443397668985,
        "distance_shoulder_lift_joint": 0.18305276115394808,
        "distance_shoulder_pan_joint": 3.1907500228498957,
        "distance_wrist_1_joint": 0.8944572439451852,
        "distance_wrist_2_joint": 1.7023288364839069,
        "distance_wrist_3_joint": 3.5937790986235205,
        "smoothness": 0.13674245428282839,
        "time": 5.027410413999999,
        "traj_len": 3.6695791803319135,
        "weighted_distance": 4.8218415194198965
    },
    "planner": "LazyPRMstar",
    "start": {
        "state": {
            "elbow_joint": -1.919618573717145,
            "shoulder_lift_joint": -1.2443395971678275,
            "shoulder_pan_joint": 2.6996025300909787,
            "wrist_1_joint": -1.548550951253194,
            "wrist_2_joint": -1.5709469090946802,
            "wrist_3_joint": 0.4420197732051276
        }
    },
    "waypoints": [
        {
            "positions": [
                2.6996025300909787,
                -1.2443395971678275,
                -1.919618573717145,
                -1.548550951253194,
                -1.5709469090946802,
                0.4420197732051276
            ]
        },
        {
            "positions": [
                2.577664040217641,
                -1.2465383799799514,
                -1.8375955312759784,
                -1.5059876223417814,
                -1.5068163537893604,
                0.3615564019708001
            ]
        },
        {
            "positions": [
                2.455725550344304,
                -1.2487371627920756,
                -1.7555724888348117,
                -1.4634242934303687,
                -1.4426857984840407,
                0.2810930307364725
            ]
        },
        {
            "positions": [
                2.3337870604709665,
                -1.2509359456041995,
                -1.6735494463936451,
                -1.420860964518956,
                -1.378555243178721,
                0.200629659502145
            ]
        },
        {
            "positions": [
                2.2118485705976294,
                -1.2531347284163235,
                -1.5915264039524786,
                -1.3782976356075434,
                -1.3144246878734012,
                0.12016628826781744
            ]
        },
        {
            "positions": [
                2.089910080724292,
                -1.2553335112284474,
                -1.509503361511312,
                -1.3357343066961307,
                -1.2502941325680814,
                0.03970291703348994
            ]
        },
        {
            "positions": [
                1.9679715908509545,
                -1.2575322940405715,
                -1.4274803190701453,
                -1.293170977784718,
                -1.1861635772627617,
                -0.04076045420083757
            ]
        },
        {
            "positions": [
                1.8460331009776172,
                -1.2597310768526955,
                -1.3454572766289787,
                -1.2506076488733053,
                -1.1220330219574421,
                -0.12122382543516513
            ]
        },
        {
            "positions": [
                1.7240946111042799,
                -1.2619298596648194,
                -1.263434234187812,
                -1.2080443199618927,
                -1.0579024666521222,
                -0.2016871966694927
            ]
        },
        {
            "positions": [
                1.6021561212309425,
                -1.2641286424769433,
                -1.1814111917466454,
                -1.16548099105048,
                -0.9937719113468025,
                -0.28215056790382015
            ]
        },
        {
            "positions": [
                1.4802176313576052,
                -1.2663274252890675,
                -1.099388149305479,
                -1.1229176621390673,
                -0.9296413560414828,
                -0.3626139391381477
            ]
        },
        {
            "positions": [
                1.3582791414842676,
                -1.2685262081011914,
                -1.0173651068643124,
                -1.0803543332276546,
                -0.865510800736163,
                -0.4430773103724753
            ]
        },
        {
            "positions": [
                1.2363406516109303,
                -1.2707249909133154,
                -0.9353420644231457,
                -1.037791004316242,
                -0.8013802454308434,
                -0.5235406816068027
            ]
        },
        {
            "positions": [
                1.114402161737593,
                -1.2729237737254393,
                -0.8533190219819791,
                -0.9952276754048293,
                -0.7372496901255235,
                -0.6040040528411303
            ]
        },
        {
            "positions": [
                0.9924636718642557,
                -1.2751225565375635,
                -0.7712959795408125,
                -0.9526643464934166,
                -0.6731191348202039,
                -0.6844674240754578
            ]
        },
        {
            "positions": [
                0.8705251819909183,
                -1.2773213393496874,
                -0.6892729370996458,
                -0.9101010175820039,
                -0.608988579514884,
                -0.7649307953097855
            ]
        },
        {
            "positions": [
                0.748586692117581,
                -1.2795201221618113,
                -0.6072498946584792,
                -0.8675376886705912,
                -0.5448580242095644,
                -0.8453941665441129
            ]
        },
        {
            "positions": [
                0.6266482022442434,
                -1.2817189049739353,
                -0.5252268522173127,
                -0.8249743597591785,
                -0.48072746890424467,
                -0.9258575377784404
            ]
        },
        {
            "positions": [
                0.5047097123709063,
                -1.2839176877860594,
                -0.44320380977614615,
                -0.7824110308477659,
                -0.4165969135989249,
                -1.0063209090127678
            ]
        },
        {
            "positions": [
                0.382771222497569,
                -1.2861164705981833,
                -0.36118076733497945,
                -0.7398477019363532,
                -0.35246635829360506,
                -1.0867842802470955
            ]
        },
        {
            "positions": [
                0.33912442552940447,
                -1.2831100795227084,
                -0.18438084221207612,
                -0.7447084092834881,
                -0.3369036488979308,
                -1.2388563462090352
            ]
        },
        {
            "positions": [
                0.29547762856123994,
                -1.2801036884472334,
                -0.007580917089172801,
                -0.7495691166306232,
                -0.32134093950225645,
                -1.3909284121709748
            ]
        },
        {
            "positions": [
                0.2518308315930754,
                -1.2770972973717583,
                0.16921900803373052,
                -0.7544298239777582,
                -0.30577823010658217,
                -1.5430004781329145
            ]
        },
        {
            "positions": [
                0.2081840346249108,
                -1.2740909062962833,
                0.34601893315663385,
                -0.7592905313248932,
                -0.2902155207109079,
                -1.6950725440948542
            ]
        },
        {
            "positions": [
                0.16453723765674627,
                -1.2710845152208083,
                0.5228188582795372,
                -0.7641512386720282,
                -0.27465281131523356,
                -1.8471446100567939
            ]
        },
        {
            "positions": [
                0.12089044068858174,
                -1.2680781241453334,
                0.6996187834024405,
                -0.7690119460191632,
                -0.2590901019195593,
                -1.9992166760187335
            ]
        },
        {
            "positions": [
                0.0772436437204172,
                -1.2650717330698582,
                0.8764187085253436,
                -0.7738726533662982,
                -0.243527392523885,
                -2.151288741980673
            ]
        },
        {
            "positions": [
                0.03359684675225261,
                -1.2620653419943832,
                1.0532186336482472,
                -0.7787333607134332,
                -0.2279646831282107,
                -2.303360807942613
            ]
        },
        {
            "positions": [
                -0.010049950215911874,
                -1.2590589509189083,
                1.2300185587711503,
                -0.7835940680605682,
                -0.21240197373253641,
                -2.4554328739045523
            ]
        },
        {
            "positions": [
                -0.053696747184076465,
                -1.2560525598434333,
                1.4068184838940538,
                -0.7884547754077033,
                -0.1968392643368621,
                -2.6075049398664922
            ]
        },
        {
            "positions": [
                -0.097343544152241,
                -1.2530461687679582,
                1.583618409016957,
                -0.7933154827548382,
                -0.1812765549411878,
                -2.7595770058284317
            ]
        },
        {
            "positions": [
                -0.14099034112040554,
                -1.2500397776924832,
                1.7604183341398605,
                -0.7981761901019733,
                -0.1657138455455135,
                -2.9116490717903716
            ]
        },
        {
            "positions": [
                -0.18463713808857002,
                -1.2470333866170082,
                1.9372182592627634,
                -0.8030368974491082,
                -0.15015113614983921,
                -3.063721137752311
            ]
        },
        {
            "positions": [
                -0.08246701986512175,
                -1.2129691187028693,
                1.9520871141591218,
                -0.8105584971543046,
                -0.05630678163681713,
                -3.093067200307672
            ]
        },
        {
            "positions": [
                0.01970309835832651,
                -1.17890485078873,
                1.9669559690554805,
                -0.8180800968595011,
                0.03753757287620496,
                -3.1224132628630326
            ]
        },
        {
            "positions": [
                0.12187321658177483,
                -1.1448405828745911,
                1.981824823951839,
                -0.8256016965646975,
                0.13138192738922708,
                -3.1517593254183933
            ]
        }
    ]
}{
    "goal": {
        "global_pose": {
            "orientation": {
                "w": 0.7047431468963623,
                "x": -0.7094548344612122,
                "y": 0.0024358443915843964,
                "z": -0.0022348060738295317
            },
            "position": {
                "x": 0.6094750761985779,
                "y": 0.3671506643295288,
                "z": 0.19426114857196808
            }
        },
        "name": "move_to_magneteinheit_A"
    },
    "id": "LazyPRMstar_move_to_magneteinheit_A_128",
    "joint_names": [
        "shoulder_pan_joint",
        "shoulder_lift_joint",
        "elbow_joint",
        "wrist_1_joint",
        "wrist_2_joint",
        "wrist_3_joint"
    ],
    "metrics": {
        "cart_traj_len": 1.2183232979236285,
        "distance_elbow_joint": 0.058761141210672774,
        "distance_shoulder_lift_joint": 0.7658857994147317,
        "distance_shoulder_pan_joint": 1.2410649449600504,
        "distance_wrist_1_joint": 0.8827813425107304,
        "distance_wrist_2_joint": 1.4350110308193305,
        "distance_wrist_3_joint": 4.374364316008462,
        "smoothness": 0.0025365754029796224,
        "time": 5.03959309,
        "traj_len": 2.9593696245862864,
        "weighted_distance": 4.4524588240960705
    },
    "planner": "LazyPRMstar",
    "start": {
        "state": {
            "elbow_joint": 1.919643534880228,
            "shoulder_lift_joint": -1.8972525353963687,
            "shoulder_pan_joint": -1.1188672234189438,
            "wrist_1_joint": -1.5931878212786155,
            "wrist_2_joint": 1.5706036197970081,
            "wrist_3_joint": 1.118896926603594
        }
    },
    "waypoints": [
        {
            "positions": [
                -1.1188672234189438,
                -1.8972525353963687,
                1.919643534880228,
                -1.5931878212786155,
                1.5706036197970081,
                1.118896926603594
            ]
        },
        {
            "positions": [
                -1.0653910061281868,
                -1.8633976262734646,
                1.9191529081131995,
                -1.5534225027716457,
                1.5063490649062028,
                0.9214232151721613
            ]
        },
        {
            "positions": [
                -1.0119147888374298,
                -1.8295427171505607,
                1.918662281346171,
                -1.513657184264676,
                1.4420945100153975,
                0.7239495037407286
            ]
        },
        {
            "positions": [
                -0.9584385715466728,
                -1.7956878080276566,
                1.9181716545791423,
                -1.4738918657577063,
                1.3778399551245921,
                0.526475792309296
            ]
        },
        {
            "positions": [
                -0.9049623542559158,
                -1.7618328989047527,
                1.9176810278121135,
                -1.4341265472507365,
                1.3135854002337868,
                0.3290020808778632
            ]
        },
        {
            "positions": [
                -0.8514861369651587,
                -1.7279779897818486,
                1.9171904010450849,
                -1.3943612287437668,
                1.2493308453429817,
                0.13152836944643054
            ]
        },
        {
            "positions": [
                -0.7980099196744017,
                -1.6941230806589447,
                1.9166997742780563,
                -1.3545959102367968,
                1.1850762904521763,
                -0.06594534198500202
            ]
        },
        {
            "positions": [
                -0.7445337023836447,
                -1.6602681715360406,
                1.9162091475110277,
                -1.314830591729827,
                1.120821735561371,
                -0.2634190534164349
            ]
        },
        {
            "positions": [
                -0.6910574850928876,
                -1.6264132624131364,
                1.915718520743999,
                -1.2750652732228573,
                1.0565671806705657,
                -0.46089276484786756
            ]
        },
        {
            "positions": [
                -0.6375812678021305,
                -1.5925583532902325,
                1.9152278939769705,
                -1.2352999547158876,
                0.9923126257797603,
                -0.6583664762793002
            ]
        },
        {
            "positions": [
                -0.5841050505113735,
                -1.5587034441673286,
                1.9147372672099419,
                -1.1955346362089179,
                0.9280580708889551,
                -0.8558401877107329
            ]
        },
        {
            "positions": [
                -0.5306288332206165,
                -1.5248485350444245,
                1.9142466404429133,
                -1.1557693177019481,
                0.8638035159981498,
                -1.0533138991421656
            ]
        },
        {
            "positions": [
                -0.47715261592985947,
                -1.4909936259215204,
                1.9137560136758844,
                -1.1160039991949784,
                0.7995489611073445,
                -1.250787610573598
            ]
        },
        {
            "positions": [
                -0.42367639863910234,
                -1.4571387167986165,
                1.9132653869088558,
                -1.0762386806880087,
                0.7352944062165391,
                -1.4482613220050309
            ]
        },
        {
            "positions": [
                -0.3702001813483454,
                -1.4232838076757126,
                1.9127747601418272,
                -1.036473362181039,
                0.6710398513257338,
                -1.6457350334364638
            ]
        },
        {
            "positions": [
                -0.3167239640575884,
                -1.3894288985528085,
                1.9122841333747986,
                -0.9967080436740692,
                0.6067852964349286,
                -1.8432087448678962
            ]
        },
        {
            "positions": [
                -0.26324774676683127,
                -1.3555739894299044,
                1.91179350660777,
                -0.9569427251670993,
                0.5425307415441232,
                -2.0406824562993293
            ]
        },
        {
            "positions": [
                -0.20977152947607436,
                -1.3217190803070005,
                1.9113028798407414,
                -0.9171774066601296,
                0.47827618665331784,
                -2.2381561677307618
            ]
        },
        {
            "positions": [
                -0.15629531218531723,
                -1.2878641711840964,
                1.9108122530737128,
                -0.8774120881531597,
                0.4140216317625125,
                -2.435629879162194
            ]
        },
        {
            "positions": [
                -0.1028190948945602,
                -1.2540092620611922,
                1.910321626306684,
                -0.83764676964619,
                0.3497670768717074,
                -2.6331035905936266
            ]
        },
        {
            "positions": [
                -0.04934287760380318,
                -1.2201543529382883,
                1.9098309995396554,
                -0.7978814511392204,
                0.28551252198090205,
                -2.83057730202506
            ]
        },
        {
            "positions": [
                0.004133339686953841,
                -1.1862994438153844,
                1.9093403727726268,
                -0.7581161326322505,
                0.2212579670900967,
                -3.0280510134564924
            ]
        },
        {
            "positions": [
                0.057609556977710946,
                -1.1524445346924803,
                1.9088497460055982,
                -0.7183508141252808,
                0.15700341219929131,
                -3.2255247248879253
            ]
        },
        {
            "positions": [
                0.12219772154110665,
                -1.131366735981637,
                1.956817098341641,
                -0.7104064787678851,
                0.13559258897767756,
                -3.255467389404868
            ]
        }
    ]
}