{
    "goal": {
        "global_pose": {
            "orientation": {
                "w": 0.5084816217422485,
                "x": -0.49083608388900757,
                "y": 0.5182115435600281,
                "z": -0.4816462993621826
            },
            "position": {
                "x": 0.5540239810943604,
                "y": 0.030875300988554955,
                "z": 0.16403168439865112
            }
        },
        "name": "move_to_storage_A"
    },
    "id": "LazyPRM_move_to_storage_A_133",
    "joint_names": [
        "shoulder_pan_joint",
        "shoulder_lift_joint",
        "elbow_joint",
        "wrist_1_joint",
        "wrist_2_joint",
        "wrist_3_joint"
    ],
    "metrics": {
        "cart_traj_len": 0.35245737129223165,
        "distance_elbow_joint": 0.4526206204530516,
        "distance_shoulder_lift_joint": 0.23299506696410455,
        "distance_shoulder_pan_joint": 0.4583894461224821,
        "distance_wrist_1_joint": 0.25577945235935495,
        "distance_wrist_2_joint": 1.108049470886015,
        "distance_wrist_3_joint": 0.09712211959692363,
        "smoothness": 2.2204460668324854e-16,
        "time": 0.022199501,
        "traj_len": 1.6139876630203627,
        "weighted_distance": 2.040350298066768
    },
    "planner": "LazyPRM",
    "start": {
        "state": {
            "elbow_joint": 1.9715477243005601,
            "shoulder_lift_joint": -1.1394853015351272,
            "shoulder_pan_joint": 0.12281154014795169,
            "wrist_1_joint": -0.7804696478968182,
            "wrist_2_joint": 0.12958648046900423,
            "wrist_3_joint": -3.192491284697111
        }
    },
    "waypoints": [
        {
            "positions": [
                0.12281154014795169,
                -1.1394853015351272,
                1.9715477243005601,
                -0.7804696478968182,
                0.12958648046900423,
                -3.192491284697111
            ]
        },
        {
            "positions": [
                0.05732733355902568,
                -1.1727703111014278,
                2.0362078129367105,
                -0.8170095696624403,
                0.2878792620241492,
                -3.178616696183265
            ]
        },
        {
            "positions": [
                -0.008156873029900327,
                -1.2060553206677285,
                2.1008679015728604,
                -0.8535494914280625,
                0.4461720435792942,
                -3.1647421076694187
            ]
        },
        {
            "positions": [
                -0.07364107961882634,
                -1.2393403302340291,
                2.1655279902090108,
                -0.8900894131936845,
                0.6044648251344391,
                -3.1508675191555726
            ]
        },
        {
            "positions": [
                -0.13912528620775233,
                -1.2726253398003298,
                2.230188078845161,
                -0.9266293349593067,
                0.7627576066895841,
                -3.136992930641726
            ]
        },
        {
            "positions": [
                -0.2046094927966784,
                -1.3059103493666304,
                2.2948481674813115,
                -0.9631692567249288,
                0.9210503882447292,
                -3.12311834212788
            ]
        },
        {
            "positions": [
                -0.27009369938560435,
                -1.339195358932931,
                2.3595082561174614,
                -0.999709178490551,
                1.079343169799874,
                -3.1092437536140336
            ]
        },
        {
            "positions": [
                -0.3355779059745304,
                -1.3724803684992317,
                2.4241683447536118,
                -1.0362491002561731,
                1.237635951355019,
                -3.0953691651001876
            ]
        }
    ]
}