{
    "goal": {
        "global_pose": {
            "orientation": {
                "w": 0.7047431468963623,
                "x": -0.7094548344612122,
                "y": 0.0024358443915843964,
                "z": -0.0022348060738295317
            },
            "position": {
                "x": 0.6094750761985779,
                "y": 0.3671506643295288,
                "z": 0.19426114857196808
            }
        },
        "name": "move_to_magneteinheit_A"
    },
    "id": "LazyPRM_move_to_magneteinheit_A_144",
    "joint_names": [
        "shoulder_pan_joint",
        "shoulder_lift_joint",
        "elbow_joint",
        "wrist_1_joint",
        "wrist_2_joint",
        "wrist_3_joint"
    ],
    "metrics": {
        "cart_traj_len": 2.8048456504211914,
        "distance_elbow_joint": 3.9139498047451404,
        "distance_shoulder_lift_joint": 1.8845270723343277,
        "distance_shoulder_pan_joint": 2.8706158270319606,
        "distance_wrist_1_joint": 3.4697308628727273,
        "distance_wrist_2_joint": 1.4387391567563026,
        "distance_wrist_3_joint": 0.43846614271523693,
        "smoothness": 0.13755684040583335,
        "time": 0.13109728199999998,
        "traj_len": 3.743798721413278,
        "weighted_distance": 4.4498799052912865
    },
    "planner": "LazyPRM",
    "start": {
        "state": {
            "elbow_joint": -1.919618573717145,
            "shoulder_lift_joint": -1.2443395971678275,
            "shoulder_pan_joint": 2.6996025300909787,
            "wrist_1_joint": -1.548550951253194,
            "wrist_2_joint": -1.5709469090946802,
            "wrist_3_joint": 0.4420197732051276
        }
    },
    "waypoints": [
        {
            "positions": [
                2.6996025300909787,
                -1.2443395971678275,
                -1.919618573717145,
                -1.548550951253194,
                -1.5709469090946802,
                0.4420197732051276
            ]
        },
        {
            "positions": [
                2.5977645809083154,
                -1.2798054326633304,
                -1.7892811591177402,
                -1.4745465744343935,
                -1.545957642992682,
                0.4303197988150555
            ]
        },
        {
            "positions": [
                2.4959266317256525,
                -1.3152712681588332,
                -1.6589437445183353,
                -1.400542197615593,
                -1.5209683768906839,
                0.41861982442498347
            ]
        },
        {
            "positions": [
                2.3940886825429892,
                -1.350737103654336,
                -1.5286063299189305,
                -1.3265378207967926,
                -1.4959791107886857,
                0.4069198500349114
            ]
        },
        {
            "positions": [
                2.2922507333603264,
                -1.386202939149839,
                -1.3982689153195258,
                -1.252533443977992,
                -1.4709898446866876,
                0.3952198756448393
            ]
        },
        {
            "positions": [
                2.190412784177663,
                -1.4216687746453418,
                -1.2679315007201208,
                -1.1785290671591915,
                -1.4460005785846897,
                0.38351990125476726
            ]
        },
        {
            "positions": [
                2.0885748349949997,
                -1.4571346101408447,
                -1.1375940861207159,
                -1.104524690340391,
                -1.4210113124826915,
                0.37181992686469517
            ]
        },
        {
            "positions": [
                1.9867368858123369,
                -1.4926004456363475,
                -1.0072566715213114,
                -1.0305203135215906,
                -1.3960220463806934,
                0.36011995247462314
            ]
        },
        {
            "positions": [
                1.8848989366296736,
                -1.5280662811318504,
                -0.8769192569219064,
                -0.9565159367027899,
                -1.3710327802786952,
                0.34841997808455105
            ]
        },
        {
            "positions": [
                1.7830609874470105,
                -1.563532116627353,
                -0.7465818423225015,
                -0.8825115598839893,
                -1.346043514176697,
                0.33672000369447896
            ]
        },
        {
            "positions": [
                1.6812230382643474,
                -1.598997952122856,
                -0.6162444277230967,
                -0.8085071830651889,
                -1.321054248074699,
                0.3250200293044069
            ]
        },
        {
            "positions": [
                1.579385089081684,
                -1.6344637876183588,
                -0.4859070131236918,
                -0.7345028062463883,
                -1.2960649819727008,
                0.3133200549143348
            ]
        },
        {
            "positions": [
                1.4775471398990212,
                -1.6699296231138616,
                -0.35556959852428704,
                -0.6604984294275879,
                -1.2710757158707027,
                0.3016200805242628
            ]
        },
        {
            "positions": [
                1.3757091907163579,
                -1.7053954586093645,
                -0.2252321839248823,
                -0.5864940526087873,
                -1.2460864497687045,
                0.2899201061341907
            ]
        },
        {
            "positions": [
                1.273871241533695,
                -1.7408612941048673,
                -0.09489476932547758,
                -0.5124896757899868,
                -1.2210971836667066,
                0.27822013174411864
            ]
        },
        {
            "positions": [
                1.1720332923510317,
                -1.7763271296003702,
                0.035442645273927376,
                -0.43848529897118627,
                -1.1961079175647082,
                0.26652015735404655
            ]
        },
        {
            "positions": [
                1.0701953431683684,
                -1.811792965095873,
                0.1657800598733321,
                -0.3644809221523857,
                -1.1711186514627103,
                0.25482018296397446
            ]
        },
        {
            "positions": [
                0.9683573939857055,
                -1.847258800591376,
                0.29611747447273706,
                -0.29047654533358536,
                -1.1461293853607122,
                0.24312020857390243
            ]
        },
        {
            "positions": [
                0.8665194448030422,
                -1.8827246360868788,
                0.426454889072142,
                -0.21647216851478457,
                -1.121140119258714,
                0.23142023418383034
            ]
        },
        {
            "positions": [
                0.7646814956203793,
                -1.9181904715823817,
                0.5567923036715465,
                -0.14246779169598422,
                -1.096150853156716,
                0.2197202597937583
            ]
        },
        {
            "positions": [
                0.6628435464377163,
                -1.9536563070778845,
                0.6871297182709514,
                -0.06846341487718371,
                -1.0711615870547178,
                0.20802028540368622
            ]
        },
        {
            "positions": [
                0.6055932228925385,
                -1.8873415596962169,
                0.7731091910409456,
                0.03646187700793137,
                -1.0073485781374423,
                0.19618811766903108
            ]
        },
        {
            "positions": [
                0.5483428993473606,
                -1.8210268123145492,
                0.8590886638109397,
                0.14138716889304645,
                -0.9435355692201668,
                0.18435594993437593
            ]
        },
        {
            "positions": [
                0.49109257580218274,
                -1.7547120649328818,
                0.9450681365809339,
                0.24631246077816155,
                -0.8797225603028913,
                0.17252378219972075
            ]
        },
        {
            "positions": [
                0.4338422522570049,
                -1.6883973175512141,
                1.031047609350928,
                0.3512377526632766,
                -0.8159095513856158,
                0.16069161446506564
            ]
        },
        {
            "positions": [
                0.37659192871182706,
                -1.6220825701695465,
                1.1170270821209223,
                0.4561630445483918,
                -0.7520965424683403,
                0.14885944673041046
            ]
        },
        {
            "positions": [
                0.3193416051666492,
                -1.555767822787879,
                1.2030065548909166,
                0.5610883364335069,
                -0.6882835335510649,
                0.13702727899575531
            ]
        },
        {
            "positions": [
                0.2620912816214714,
                -1.4894530754062112,
                1.2889860276609106,
                0.666013628318622,
                -0.6244705246337893,
                0.12519511126110017
            ]
        },
        {
            "positions": [
                0.20484095807629354,
                -1.4231383280245438,
                1.3749655004309047,
                0.7709389202037369,
                -0.5606575157165139,
                0.11336294352644502
            ]
        },
        {
            "positions": [
                0.14759063453111576,
                -1.3568235806428761,
                1.460944973200899,
                0.875864212088852,
                -0.4968445067992383,
                0.10153077579178986
            ]
        },
        {
            "positions": [
                0.09034031098593787,
                -1.2905088332612085,
                1.5469244459708933,
                0.9807895039739674,
                -0.4330314978819628,
                0.0896986080571347
            ]
        },
        {
            "positions": [
                0.03308998744076008,
                -1.224194085879541,
                1.6329039187408874,
                1.0857147958590823,
                -0.36921848896468734,
                0.07786644032247955
            ]
        },
        {
            "positions": [
                -0.024160336104417854,
                -1.1578793384978734,
                1.7188833915108814,
                1.1906400877441974,
                -0.30540548004741186,
                0.06603427258782442
            ]
        },
        {
            "positions": [
                0.0023440306860839505,
                -1.0772304880943286,
                1.7804702814729052,
                1.347708370273264,
                -0.2666528697049535,
                0.049688828927675795
            ]
        },
        {
            "positions": [
                0.028848397476585755,
                -0.9965816376907841,
                1.8420571714349288,
                1.5047766528023305,
                -0.2279002593624951,
                0.03334338526752717
            ]
        },
        {
            "positions": [
                0.05535276426708756,
                -0.9159327872872394,
                1.9036440613969525,
                1.661844935331397,
                -0.18914764902003672,
                0.01699794160737854
            ]
        },
        {
            "positions": [
                0.089022694499616,
                -0.8471893659704266,
                1.948987646212474,
                1.791512423475465,
                -0.16067770067920717,
                0.010275786048634519
            ]
        },
        {
            "positions": [
                0.12269262473214446,
                -0.7784459446536137,
                1.9943312310279953,
                1.9211799116195327,
                -0.1322077523383776,
                0.003553630489890498
            ]
        }
    ]
}{
    "goal": {
        "global_pose": {
            "orientation": {
                "w": 0.7047431468963623,
                "x": -0.7094548344612122,
                "y": 0.0024358443915843964,
                "z": -0.0022348060738295317
            },
            "position": {
                "x": 0.6094750761985779,
                "y": 0.3671506643295288,
                "z": 0.19426114857196808
            }
        },
        "name": "move_to_magneteinheit_A"
    },
    "id": "LazyPRM_move_to_magneteinheit_A_144",
    "joint_names": [
        "shoulder_pan_joint",
        "shoulder_lift_joint",
        "elbow_joint",
        "wrist_1_joint",
        "wrist_2_joint",
        "wrist_3_joint"
    ],
    "metrics": {
        "cart_traj_len": 1.214911335642109,
        "distance_elbow_joint": 0.4708085463198044,
        "distance_shoulder_lift_joint": 0.7604302543193495,
        "distance_shoulder_pan_joint": 1.2426011738100475,
        "distance_wrist_1_joint": 1.6145825297399221,
        "distance_wrist_2_joint": 1.9777580404370534,
        "distance_wrist_3_joint": 4.321436348548268,
        "smoothness": 0.4116149912662852,
        "time": 0.14397090499999998,
        "traj_len": 3.222982608264345,
        "weighted_distance": 4.756346303671334
    },
    "planner": "LazyPRM",
    "start": {
        "state": {
            "elbow_joint": 1.919643534880228,
            "shoulder_lift_joint": -1.8972525353963687,
            "shoulder_pan_joint": -1.1188672234189438,
            "wrist_1_joint": -1.5931878212786155,
            "wrist_2_joint": 1.5706036197970081,
            "wrist_3_joint": 1.118896926603594
        }
    },
    "waypoints": [
        {
            "positions": [
                -1.1188672234189438,
                -1.8972525353963687,
                1.919643534880228,
                -1.5931878212786155,
                1.5706036197970081,
                1.118896926603594
            ]
        },
        {
            "positions": [
                -1.080679608141444,
                -1.873853884528269,
                1.9308896174326584,
                -1.54011246159483,
                1.4961040378674546,
                0.9345088212727024
            ]
        },
        {
            "positions": [
                -1.0424919928639442,
                -1.8504552336601694,
                1.9421356999850887,
                -1.4870371019110447,
                1.421604455937901,
                0.7501207159418108
            ]
        },
        {
            "positions": [
                -1.0043043775864444,
                -1.8270565827920695,
                1.9533817825375193,
                -1.433961742227259,
                1.3471048740083478,
                0.5657326106109192
            ]
        },
        {
            "positions": [
                -0.9661167623089445,
                -1.8036579319239698,
                1.9646278650899496,
                -1.3808863825434736,
                1.2726052920787942,
                0.3813445052800276
            ]
        },
        {
            "positions": [
                -0.9279291470314447,
                -1.7802592810558702,
                1.97587394764238,
                -1.3278110228596882,
                1.1981057101492407,
                0.19695639994913605
            ]
        },
        {
            "positions": [
                -0.8897415317539448,
                -1.7568606301877705,
                1.9871200301948102,
                -1.2747356631759028,
                1.1236061282196872,
                0.01256829461824438
            ]
        },
        {
            "positions": [
                -0.851553916476445,
                -1.7334619793196706,
                1.9983661127472405,
                -1.2216603034921172,
                1.0491065462901337,
                -0.17181981071264718
            ]
        },
        {
            "positions": [
                -0.8133663011989452,
                -1.710063328451571,
                2.009612195299671,
                -1.1685849438083318,
                0.9746069643605804,
                -0.35620791604353874
            ]
        },
        {
            "positions": [
                -0.7751786859214453,
                -1.6866646775834713,
                2.0208582778521014,
                -1.1155095841245464,
                0.9001073824310268,
                -0.5405960213744303
            ]
        },
        {
            "positions": [
                -0.7369910706439455,
                -1.6632660267153716,
                2.0321043604045315,
                -1.062434224440761,
                0.8256078005014734,
                -0.7249841267053219
            ]
        },
        {
            "positions": [
                -0.6988034553664456,
                -1.6398673758472717,
                2.043350442956962,
                -1.0093588647569756,
                0.7511082185719199,
                -0.9093722320362134
            ]
        },
        {
            "positions": [
                -0.6606158400889458,
                -1.616468724979172,
                2.0545965255093925,
                -0.95628350507319,
                0.6766086366423664,
                -1.0937603373671052
            ]
        },
        {
            "positions": [
                -0.622428224811446,
                -1.5930700741110724,
                2.0658426080618226,
                -0.9032081453894046,
                0.602109054712813,
                -1.2781484426979965
            ]
        },
        {
            "positions": [
                -0.5842406095339461,
                -1.5696714232429727,
                2.077088690614253,
                -0.850132785705619,
                0.5276094727832594,
                -1.4625365480288883
            ]
        },
        {
            "positions": [
                -0.5460529942564463,
                -1.546272772374873,
                2.0883347731666833,
                -0.7970574260218336,
                0.4531098908537059,
                -1.64692465335978
            ]
        },
        {
            "positions": [
                -0.5078653789789465,
                -1.5228741215067734,
                2.099580855719114,
                -0.7439820663380482,
                0.3786103089241526,
                -1.8313127586906714
            ]
        },
        {
            "positions": [
                -0.46967776370144665,
                -1.4994754706386737,
                2.110826938271544,
                -0.6909067066542628,
                0.30411072699459907,
                -2.0157008640215626
            ]
        },
        {
            "positions": [
                -0.43149014842394673,
                -1.4760768197705738,
                2.1220730208239744,
                -0.6378313469704773,
                0.22961114506504554,
                -2.2000889693524543
            ]
        },
        {
            "positions": [
                -0.3933025331464469,
                -1.4526781689024741,
                2.133319103376405,
                -0.5847559872866919,
                0.15511156313549201,
                -2.384477074683346
            ]
        },
        {
            "positions": [
                -0.3551149178689471,
                -1.4292795180343745,
                2.144565185928835,
                -0.5316806276029065,
                0.08061198120593871,
                -2.568865180014238
            ]
        },
        {
            "positions": [
                -0.3169273025914473,
                -1.4058808671662746,
                2.1558112684812656,
                -0.47860526791912106,
                0.006112399276385183,
                -2.753253285345129
            ]
        },
        {
            "positions": [
                -0.2787396873139474,
                -1.382482216298175,
                2.1670573510336957,
                -0.42552990823533543,
                -0.06838718265316834,
                -2.9376413906760206
            ]
        },
        {
            "positions": [
                -0.24055207203644752,
                -1.3590835654300752,
                2.178303433586126,
                -0.37245454855155,
                -0.14288676458272187,
                -3.122029496006913
            ]
        },
        {
            "positions": [
                -0.1494805664295597,
                -1.3035182443418112,
                2.1252662716826496,
                -0.4709168628047642,
                -0.076819850568391,
                -3.142156977491353
            ]
        },
        {
            "positions": [
                -0.05840906082267189,
                -1.2479529232535471,
                2.072229109779173,
                -0.5693791770579784,
                -0.010752936554060122,
                -3.162284458975794
            ]
        },
        {
            "positions": [
                0.03266244478421593,
                -1.1923876021652833,
                2.0191919478756963,
                -0.6678414913111926,
                0.05531397746027075,
                -3.1824119404602342
            ]
        },
        {
            "positions": [
                0.12373395039110373,
                -1.1368222810770192,
                1.96615478597222,
                -0.7663038055644068,
                0.12138089147460163,
                -3.2025394219446746
            ]
        }
    ]
}