{
    "goal": {
        "global_pose": {
            "orientation": {
                "w": 0.7047431468963623,
                "x": -0.7094548344612122,
                "y": 0.0024358443915843964,
                "z": -0.0022348060738295317
            },
            "position": {
                "x": 0.6094750761985779,
                "y": 0.3671506643295288,
                "z": 0.19426114857196808
            }
        },
        "name": "move_to_magneteinheit_A"
    },
    "id": "LazyPRMstar_move_to_magneteinheit_A_149",
    "joint_names": [
        "shoulder_pan_joint",
        "shoulder_lift_joint",
        "elbow_joint",
        "wrist_1_joint",
        "wrist_2_joint",
        "wrist_3_joint"
    ],
    "metrics": {
        "cart_traj_len": 3.6626188472121677,
        "distance_elbow_joint": 3.8919162331440145,
        "distance_shoulder_lift_joint": 0.4879633432095649,
        "distance_shoulder_pan_joint": 2.577154503218609,
        "distance_wrist_1_joint": 1.0312411749253914,
        "distance_wrist_2_joint": 1.7041858788418596,
        "distance_wrist_3_joint": 3.6335266552155168,
        "smoothness": 0.04294971028430112,
        "time": 5.035423038,
        "traj_len": 3.6504777479879196,
        "weighted_distance": 4.829955295109183
    },
    "planner": "LazyPRMstar",
    "start": {
        "state": {
            "elbow_joint": -1.919618573717145,
            "shoulder_lift_joint": -1.2443395971678275,
            "shoulder_pan_joint": 2.6996025300909787,
            "wrist_1_joint": -1.548550951253194,
            "wrist_2_joint": -1.5709469090946802,
            "wrist_3_joint": 0.4420197732051276
        }
    },
    "waypoints": [
        {
            "positions": [
                2.6996025300909787,
                -1.2443395971678275,
                -1.919618573717145,
                -1.548550951253194,
                -1.5709469090946802,
                0.4420197732051276
            ]
        },
        {
            "positions": [
                2.6143797352848113,
                -1.2346436642346033,
                -1.8146263362157344,
                -1.5536614832507225,
                -1.5206505656000537,
                0.3144297116241425
            ]
        },
        {
            "positions": [
                2.5291569404786443,
                -1.2249477313013792,
                -1.7096340987143241,
                -1.5587720152482507,
                -1.4703542221054273,
                0.18683965004315745
            ]
        },
        {
            "positions": [
                2.443934145672477,
                -1.215251798368155,
                -1.6046418612129136,
                -1.563882547245779,
                -1.420057878610801,
                0.05924958846217243
            ]
        },
        {
            "positions": [
                2.35871135086631,
                -1.2055558654349308,
                -1.4996496237115031,
                -1.5689930792433073,
                -1.3697615351161743,
                -0.0683404731188127
            ]
        },
        {
            "positions": [
                2.2734885560601423,
                -1.1958599325017067,
                -1.3946573862100928,
                -1.5741036112408358,
                -1.3194651916215479,
                -0.19593053469979776
            ]
        },
        {
            "positions": [
                2.188265761253975,
                -1.1861639995684825,
                -1.2896651487086823,
                -1.579214143238364,
                -1.2691688481269214,
                -0.3235205962807827
            ]
        },
        {
            "positions": [
                2.103042966447808,
                -1.1764680666352583,
                -1.184672911207272,
                -1.5843246752358922,
                -1.218872504632295,
                -0.4511106578617678
            ]
        },
        {
            "positions": [
                2.0178201716416404,
                -1.1667721337020343,
                -1.0796806737058615,
                -1.5894352072334206,
                -1.1685761611376686,
                -0.5787007194427529
            ]
        },
        {
            "positions": [
                1.9325973768354734,
                -1.15707620076881,
                -0.9746884362044511,
                -1.594545739230949,
                -1.1182798176430422,
                -0.7062907810237378
            ]
        },
        {
            "positions": [
                1.847374582029306,
                -1.1473802678355858,
                -0.8696961987030407,
                -1.5996562712284772,
                -1.0679834741484155,
                -0.8338808426047231
            ]
        },
        {
            "positions": [
                1.762151787223139,
                -1.1376843349023618,
                -0.7647039612016302,
                -1.6047668032260054,
                -1.0176871306537891,
                -0.9614709041857079
            ]
        },
        {
            "positions": [
                1.6769289924169715,
                -1.1279884019691375,
                -0.6597117237002197,
                -1.6098773352235338,
                -0.9673907871591627,
                -1.089060965766693
            ]
        },
        {
            "positions": [
                1.5917061976108042,
                -1.1182924690359135,
                -0.5547194861988094,
                -1.6149878672210622,
                -0.9170944436645363,
                -1.216651027347678
            ]
        },
        {
            "positions": [
                1.506483402804637,
                -1.1085965361026893,
                -0.4497272486973991,
                -1.6200983992185904,
                -0.8667981001699099,
                -1.3442410889286631
            ]
        },
        {
            "positions": [
                1.4212606079984698,
                -1.098900603169465,
                -0.3447350111959886,
                -1.6252089312161186,
                -0.8165017566752835,
                -1.471831150509648
            ]
        },
        {
            "positions": [
                1.3360378131923023,
                -1.0892046702362408,
                -0.23974277369457808,
                -1.630319463213647,
                -0.7662054131806569,
                -1.5994212120906335
            ]
        },
        {
            "positions": [
                1.250815018386135,
                -1.0795087373030168,
                -0.13475053619316757,
                -1.6354299952111755,
                -0.7159090696860305,
                -1.7270112736716183
            ]
        },
        {
            "positions": [
                1.1655922235799678,
                -1.0698128043697925,
                -0.02975829869175728,
                -1.6405405272087037,
                -0.6656127261914041,
                -1.8546013352526032
            ]
        },
        {
            "positions": [
                1.0803694287738008,
                -1.0601168714365685,
                0.07523393880965301,
                -1.645651059206232,
                -0.6153163826967777,
                -1.982191396833588
            ]
        },
        {
            "positions": [
                0.9951466339676331,
                -1.0504209385033443,
                0.18022617631106352,
                -1.6507615912037603,
                -0.5650200392021512,
                -2.1097814584145738
            ]
        },
        {
            "positions": [
                0.9099238391614661,
                -1.04072500557012,
                0.28521841381247426,
                -1.6558721232012887,
                -0.5147236957075247,
                -2.2373715199955586
            ]
        },
        {
            "positions": [
                0.8247010443552989,
                -1.031029072636896,
                0.39021065131388455,
                -1.660982655198817,
                -0.4644273522128983,
                -2.3649615815765435
            ]
        },
        {
            "positions": [
                0.7394782495491317,
                -1.0213331397036718,
                0.49520288881529484,
                -1.6660931871963451,
                -0.4141310087182719,
                -2.4925516431575283
            ]
        },
        {
            "positions": [
                0.6542554547429642,
                -1.0116372067704476,
                0.6001951263167056,
                -1.6712037191938736,
                -0.36383466522364527,
                -2.6201417047385136
            ]
        },
        {
            "positions": [
                0.5690326599367967,
                -1.0019412738372235,
                0.7051873638181159,
                -1.676314251191402,
                -0.31353832172901885,
                -2.747731766319499
            ]
        },
        {
            "positions": [
                0.4838098651306299,
                -0.9922453409039993,
                0.8101796013195264,
                -1.6814247831889302,
                -0.2632419782343924,
                -2.8753218279004837
            ]
        },
        {
            "positions": [
                0.43409991042866636,
                -0.9811034701453374,
                0.9095201766089467,
                -1.6313352411091027,
                -0.21590162119410425,
                -2.926947070231833
            ]
        },
        {
            "positions": [
                0.38438995572670287,
                -0.9699615993866755,
                1.008860751898367,
                -1.581245699029275,
                -0.16856126415381611,
                -2.9785723125631827
            ]
        },
        {
            "positions": [
                0.3346800010247393,
                -0.9588197286280136,
                1.1082013271877875,
                -1.5311561569494474,
                -0.12122090711352798,
                -3.0301975548945324
            ]
        },
        {
            "positions": [
                0.2849700463227758,
                -0.9476778578693517,
                1.2075419024772078,
                -1.4810666148696199,
                -0.07388055007323985,
                -3.0818227972258816
            ]
        },
        {
            "positions": [
                0.25193866177858737,
                -0.9657261681406083,
                1.3293178508177428,
                -1.3796724898804142,
                -0.03703078403090474,
                -3.1089698704747075
            ]
        },
        {
            "positions": [
                0.21890727723439896,
                -0.9837744784118649,
                1.451093799158278,
                -1.2782783648912086,
                -0.00018101798856963447,
                -3.136116943723534
            ]
        },
        {
            "positions": [
                0.18587589269021054,
                -1.0018227886831217,
                1.572869747498813,
                -1.1768842399020032,
                0.036668748053765465,
                -3.1632640169723603
            ]
        },
        {
            "positions": [
                0.15284450814602213,
                -1.0198710989543782,
                1.6946456958393479,
                -1.0754901149127976,
                0.07351851409610058,
                -3.190411090221186
            ]
        },
        {
            "positions": [
                0.13764626750919604,
                -1.0794252803674094,
                1.833471677633109,
                -0.9292737775560362,
                0.10337874192164012,
                -3.1909589861157874
            ]
        },
        {
            "positions": [
                0.12244802687236993,
                -1.1389794617804407,
                1.97229765942687,
                -0.7830574401992749,
                0.13323896974717966,
                -3.191506882010389
            ]
        }
    ]
}{
    "goal": {
        "global_pose": {
            "orientation": {
                "w": 0.7047431468963623,
                "x": -0.7094548344612122,
                "y": 0.0024358443915843964,
                "z": -0.0022348060738295317
            },
            "position": {
                "x": 0.6094750761985779,
                "y": 0.3671506643295288,
                "z": 0.19426114857196808
            }
        },
        "name": "move_to_magneteinheit_A"
    },
    "id": "LazyPRMstar_move_to_magneteinheit_A_149",
    "joint_names": [
        "shoulder_pan_joint",
        "shoulder_lift_joint",
        "elbow_joint",
        "wrist_1_joint",
        "wrist_2_joint",
        "wrist_3_joint"
    ],
    "metrics": {
        "cart_traj_len": 1.2224924948607963,
        "distance_elbow_joint": 0.06962846059742445,
        "distance_shoulder_lift_joint": 0.7481706052798882,
        "distance_shoulder_pan_joint": 1.2423462138324692,
        "distance_wrist_1_joint": 0.7371031503930847,
        "distance_wrist_2_joint": 1.4367185658091932,
        "distance_wrist_3_joint": 4.238226279029986,
        "smoothness": 3.475480789367372e-16,
        "time": 5.017302662,
        "traj_len": 2.910703226875259,
        "weighted_distance": 4.3729243703961185
    },
    "planner": "LazyPRMstar",
    "start": {
        "state": {
            "elbow_joint": 1.919643534880228,
            "shoulder_lift_joint": -1.8972525353963687,
            "shoulder_pan_joint": -1.1188672234189438,
            "wrist_1_joint": -1.5931878212786155,
            "wrist_2_joint": 1.5706036197970081,
            "wrist_3_joint": 1.118896926603594
        }
    },
    "waypoints": [
        {
            "positions": [
                -1.1188672234189438,
                -1.8972525353963687,
                1.919643534880228,
                -1.5931878212786155,
                1.5706036197970081,
                1.118896926603594
            ]
        },
        {
            "positions": [
                -1.0636502521019529,
                -1.8611401078142802,
                1.9213831821234355,
                -1.558593911614302,
                1.5046296742054028,
                0.9275504933490273
            ]
        },
        {
            "positions": [
                -1.008433280784962,
                -1.8250276802321916,
                1.923122829366643,
                -1.5240000019499884,
                1.4386557286137975,
                0.7362040600944606
            ]
        },
        {
            "positions": [
                -0.9532163094679711,
                -1.788915252650103,
                1.9248624766098503,
                -1.4894060922856749,
                1.3726817830221922,
                0.544857626839894
            ]
        },
        {
            "positions": [
                -0.8979993381509801,
                -1.7528028250680145,
                1.926602123853058,
                -1.4548121826213616,
                1.306707837430587,
                0.35351119358532734
            ]
        },
        {
            "positions": [
                -0.8427823668339891,
                -1.7166903974859262,
                1.9283417710962654,
                -1.420218272957048,
                1.2407338918389816,
                0.16216476033076077
            ]
        },
        {
            "positions": [
                -0.7875653955169982,
                -1.6805779699038377,
                1.9300814183394728,
                -1.3856243632927345,
                1.1747599462473763,
                -0.029181672923805912
            ]
        },
        {
            "positions": [
                -0.7323484242000073,
                -1.6444655423217491,
                1.9318210655826802,
                -1.351030453628421,
                1.108786000655771,
                -0.22052810617837237
            ]
        },
        {
            "positions": [
                -0.6771314528830163,
                -1.6083531147396606,
                1.9335607128258876,
                -1.3164365439641075,
                1.0428120550641657,
                -0.4118745394329393
            ]
        },
        {
            "positions": [
                -0.6219144815660254,
                -1.572240687157572,
                1.935300360069095,
                -1.281842634299794,
                0.9768381094725604,
                -0.6032209726875057
            ]
        },
        {
            "positions": [
                -0.5666975102490345,
                -1.5361282595754835,
                1.9370400073123024,
                -1.2472487246354804,
                0.9108641638809551,
                -0.7945674059420724
            ]
        },
        {
            "positions": [
                -0.5114805389320435,
                -1.500015831993395,
                1.93877965455551,
                -1.2126548149711671,
                0.8448902182893497,
                -0.9859138391966391
            ]
        },
        {
            "positions": [
                -0.4562635676150526,
                -1.4639034044113064,
                1.9405193017987175,
                -1.1780609053068536,
                0.7789162726977445,
                -1.1772602724512058
            ]
        },
        {
            "positions": [
                -0.4010465962980616,
                -1.4277909768292179,
                1.9422589490419249,
                -1.14346699564254,
                0.7129423271061393,
                -1.3686067057057725
            ]
        },
        {
            "positions": [
                -0.3458296249810707,
                -1.3916785492471293,
                1.9439985962851323,
                -1.1088730859782265,
                0.6469683815145341,
                -1.5599531389603387
            ]
        },
        {
            "positions": [
                -0.29061265366407985,
                -1.3555661216650408,
                1.9457382435283397,
                -1.074279176313913,
                0.5809944359229287,
                -1.7512995722149054
            ]
        },
        {
            "positions": [
                -0.23539568234708885,
                -1.3194536940829522,
                1.947477890771547,
                -1.0396852666495997,
                0.5150204903313234,
                -1.9426460054694725
            ]
        },
        {
            "positions": [
                -0.18017871103009797,
                -1.2833412665008639,
                1.9492175380147547,
                -1.005091356985286,
                0.44904654473971806,
                -2.1339924387240385
            ]
        },
        {
            "positions": [
                -0.12496173971310698,
                -1.2472288389187751,
                1.9509571852579621,
                -0.9704974473209725,
                0.38307259914811276,
                -2.3253388719786052
            ]
        },
        {
            "positions": [
                -0.0697447683961161,
                -1.2111164113366868,
                1.9526968325011695,
                -0.9359035376566591,
                0.31709865355650746,
                -2.516685305233172
            ]
        },
        {
            "positions": [
                -0.014527797079125021,
                -1.1750039837545982,
                1.954436479744377,
                -0.9013096279923456,
                0.25112470796490227,
                -2.708031738487739
            ]
        },
        {
            "positions": [
                0.05447559666720013,
                -1.1620429569355393,
                1.9718542376110149,
                -0.8786971494389382,
                0.19250488097635873,
                -2.9136805454570656
            ]
        },
        {
            "positions": [
                0.12347899041352528,
                -1.1490819301164805,
                1.9892719954776525,
                -0.8560846708855308,
                0.1338850539878152,
                -3.119329352426392
            ]
        }
    ]
}