{
    "goal": {
        "global_pose": {
            "orientation": {
                "w": 0.5084816217422485,
                "x": -0.49083608388900757,
                "y": 0.5182115435600281,
                "z": -0.4816462993621826
            },
            "position": {
                "x": 0.5540239810943604,
                "y": 0.030875300988554955,
                "z": 0.16403168439865112
            }
        },
        "name": "move_to_storage_A"
    },
    "id": "LazyPRMstar_move_to_storage_A_135",
    "joint_names": [
        "shoulder_pan_joint",
        "shoulder_lift_joint",
        "elbow_joint",
        "wrist_1_joint",
        "wrist_2_joint",
        "wrist_3_joint"
    ],
    "metrics": {
        "cart_traj_len": 0.35234752443021655,
        "distance_elbow_joint": 0.4497214909482423,
        "distance_shoulder_lift_joint": 0.23590478534267878,
        "distance_shoulder_pan_joint": 0.4592579270641493,
        "distance_wrist_1_joint": 0.23952950913235693,
        "distance_wrist_2_joint": 1.104578846772629,
        "distance_wrist_3_joint": 0.10653495360278287,
        "smoothness": 1.6653345324699852e-15,
        "time": 5.0014281380000005,
        "traj_len": 1.6110640933441596,
        "weighted_distance": 2.037818877126569
    },
    "planner": "LazyPRMstar",
    "start": {
        "state": {
            "elbow_joint": 1.9715477243005601,
            "shoulder_lift_joint": -1.1394853015351272,
            "shoulder_pan_joint": 0.12281154014795169,
            "wrist_1_joint": -0.7804696478968182,
            "wrist_2_joint": 0.12958648046900423,
            "wrist_3_joint": -3.192491284697111
        }
    },
    "waypoints": [
        {
            "positions": [
                0.12281154014795169,
                -1.1394853015351272,
                1.9715477243005601,
                -0.7804696478968182,
                0.12958648046900423,
                -3.192491284697111
            ]
        },
        {
            "positions": [
                0.05720326485307323,
                -1.1731859851555098,
                2.0357936515788806,
                -0.8146881492014406,
                0.28738345857937975,
                -3.1772720056109995
            ]
        },
        {
            "positions": [
                -0.008405010441805236,
                -1.2068866687758926,
                2.1000395788572006,
                -0.848906650506063,
                0.4451804366897553,
                -3.1620527265248874
            ]
        },
        {
            "positions": [
                -0.07401328573668371,
                -1.2405873523962752,
                2.164285506135521,
                -0.8831251518106854,
                0.6029774148001309,
                -3.146833447438776
            ]
        },
        {
            "positions": [
                -0.13962156103156215,
                -1.274288036016658,
                2.2285314334138415,
                -0.9173436531153079,
                0.7607743929105064,
                -3.1316141683526637
            ]
        },
        {
            "positions": [
                -0.20522983632644065,
                -1.3079887196370406,
                2.292777360692162,
                -0.9515621544199302,
                0.918571371020882,
                -3.116394889266552
            ]
        },
        {
            "positions": [
                -0.2708381116213191,
                -1.3416894032574231,
                2.357023287970482,
                -0.9857806557245526,
                1.0763683491312577,
                -3.10117561018044
            ]
        },
        {
            "positions": [
                -0.3364463869161976,
                -1.375390086877806,
                2.4212692152488025,
                -1.019999157029175,
                1.234165327241633,
                -3.0859563310943283
            ]
        }
    ]
}