{
    "goal": {
        "global_pose": {
            "orientation": {
                "w": 0.5084816217422485,
                "x": -0.49083608388900757,
                "y": 0.5182115435600281,
                "z": -0.4816462993621826
            },
            "position": {
                "x": 0.5540239810943604,
                "y": 0.030875300988554955,
                "z": 0.16403168439865112
            }
        },
        "name": "move_to_storage_A"
    },
    "id": "LazyPRM_move_to_storage_A_57",
    "joint_names": [
        "shoulder_pan_joint",
        "shoulder_lift_joint",
        "elbow_joint",
        "wrist_1_joint",
        "wrist_2_joint",
        "wrist_3_joint"
    ],
    "metrics": {
        "cart_traj_len": 0.35248967583186697,
        "distance_elbow_joint": 0.44883473248162,
        "distance_shoulder_lift_joint": 0.2340897504018995,
        "distance_shoulder_pan_joint": 0.46059709322470954,
        "distance_wrist_1_joint": 0.23860491082869906,
        "distance_wrist_2_joint": 1.098878756894441,
        "distance_wrist_3_joint": 0.0875076344538801,
        "smoothness": 4.440892133664971e-16,
        "time": 0.012059466,
        "traj_len": 1.602658066552329,
        "weighted_distance": 2.020151433659405
    },
    "planner": "LazyPRM",
    "start": {
        "state": {
            "elbow_joint": 1.9715477243005601,
            "shoulder_lift_joint": -1.1394853015351272,
            "shoulder_pan_joint": 0.12281154014795169,
            "wrist_1_joint": -0.7804696478968182,
            "wrist_2_joint": 0.12958648046900423,
            "wrist_3_joint": -3.192491284697111
        }
    },
    "waypoints": [
        {
            "positions": [
                0.12281154014795169,
                -1.1394853015351272,
                1.9715477243005601,
                -0.7804696478968182,
                0.12958648046900423,
                -3.192491284697111
            ]
        },
        {
            "positions": [
                0.05701195540156462,
                -1.1729266944496843,
                2.0356669717979345,
                -0.8145560637294894,
                0.28656916002535293,
                -3.1799901940608426
            ]
        },
        {
            "positions": [
                -0.008787629344822454,
                -1.2063680873642413,
                2.0997862192953085,
                -0.8486424795621608,
                0.44355183958170163,
                -3.167489103424574
            ]
        },
        {
            "positions": [
                -0.07458721409120954,
                -1.2398094802787984,
                2.163905466792683,
                -0.882728895394832,
                0.6005345191380503,
                -3.1549880127883054
            ]
        },
        {
            "positions": [
                -0.14038679883759658,
                -1.2732508731933554,
                2.2280247142900573,
                -0.9168153112275034,
                0.757517198694399,
                -3.142486922152037
            ]
        },
        {
            "positions": [
                -0.20618638358398367,
                -1.3066922661079126,
                2.2921439617874317,
                -0.9509017270601746,
                0.9144998782507477,
                -3.1299858315157683
            ]
        },
        {
            "positions": [
                -0.27198596833037075,
                -1.3401336590224695,
                2.3562632092848057,
                -0.984988142892846,
                1.0714825578070966,
                -3.1174847408794997
            ]
        },
        {
            "positions": [
                -0.33778555307675784,
                -1.3735750519370267,
                2.42038245678218,
                -1.0190745587255172,
                1.228465237363445,
                -3.104983650243231
            ]
        }
    ]
}