{
    "goal": {
        "global_pose": {
            "orientation": {
                "w": 0.5084816217422485,
                "x": -0.49083608388900757,
                "y": 0.5182115435600281,
                "z": -0.4816462993621826
            },
            "position": {
                "x": 0.5540239810943604,
                "y": 0.030875300988554955,
                "z": 0.16403168439865112
            }
        },
        "name": "move_to_storage_A"
    },
    "id": "LazyPRM_move_to_storage_A_59",
    "joint_names": [
        "shoulder_pan_joint",
        "shoulder_lift_joint",
        "elbow_joint",
        "wrist_1_joint",
        "wrist_2_joint",
        "wrist_3_joint"
    ],
    "metrics": {
        "cart_traj_len": 0.3528338905849261,
        "distance_elbow_joint": 0.45126503630418924,
        "distance_shoulder_lift_joint": 0.23295285298375434,
        "distance_shoulder_pan_joint": 0.4591124057530057,
        "distance_wrist_1_joint": 0.25040783922873733,
        "distance_wrist_2_joint": 1.1075778102936211,
        "distance_wrist_3_joint": 0.10399855908366007,
        "smoothness": 2.2204460668324854e-16,
        "time": 0.022042952,
        "traj_len": 1.6140986660198215,
        "weighted_distance": 2.0423753992194107
    },
    "planner": "LazyPRM",
    "start": {
        "state": {
            "elbow_joint": 1.9715477243005601,
            "shoulder_lift_joint": -1.1394853015351272,
            "shoulder_pan_joint": 0.12281154014795169,
            "wrist_1_joint": -0.7804696478968182,
            "wrist_2_joint": 0.12958648046900423,
            "wrist_3_joint": -3.192491284697111
        }
    },
    "waypoints": [
        {
            "positions": [
                0.12281154014795169,
                -1.1394853015351272,
                1.9715477243005601,
                -0.7804696478968182,
                0.12958648046900423,
                -3.192491284697111
            ]
        },
        {
            "positions": [
                0.05722405361180802,
                -1.1727642805328065,
                2.0360141580583013,
                -0.8162421963580664,
                0.28781188193952156,
                -3.1776343476851596
            ]
        },
        {
            "positions": [
                -0.008363432924335654,
                -1.2060432595304855,
                2.100480591816043,
                -0.8520147448193145,
                0.44603728341003884,
                -3.1627774106732085
            ]
        },
        {
            "positions": [
                -0.07395091946047931,
                -1.2393222385281648,
                2.164947025573784,
                -0.8877872932805627,
                0.6042626848805561,
                -3.147920473661257
            ]
        },
        {
            "positions": [
                -0.13953840599662298,
                -1.2726012175258439,
                2.2294134593315253,
                -0.9235598417418109,
                0.7624880863510735,
                -3.1330635366493054
            ]
        },
        {
            "positions": [
                -0.2051258925327667,
                -1.3058801965235232,
                2.293879893089267,
                -0.959332390203059,
                0.9207134878215908,
                -3.118206599637354
            ]
        },
        {
            "positions": [
                -0.2707133790689103,
                -1.3391591755212022,
                2.358346326847008,
                -0.9951049386643073,
                1.078938889292108,
                -3.1033496626254027
            ]
        },
        {
            "positions": [
                -0.336300865605054,
                -1.3724381545188815,
                2.4228127606047494,
                -1.0308774871255555,
                1.2371642907626252,
                -3.088492725613451
            ]
        }
    ]
}