{
    "goal": {
        "global_pose": {
            "orientation": {
                "w": 0.5084816217422485,
                "x": -0.49083608388900757,
                "y": 0.5182115435600281,
                "z": -0.4816462993621826
            },
            "position": {
                "x": 0.5540239810943604,
                "y": 0.030875300988554955,
                "z": 0.16403168439865112
            }
        },
        "name": "move_to_storage_A"
    },
    "id": "LazyPRM_move_to_storage_A_60",
    "joint_names": [
        "shoulder_pan_joint",
        "shoulder_lift_joint",
        "elbow_joint",
        "wrist_1_joint",
        "wrist_2_joint",
        "wrist_3_joint"
    ],
    "metrics": {
        "cart_traj_len": 0.35303796095424556,
        "distance_elbow_joint": 0.4511713410565217,
        "distance_shoulder_lift_joint": 0.23393498496826237,
        "distance_shoulder_pan_joint": 0.4622674376771026,
        "distance_wrist_1_joint": 0.24691009911581607,
        "distance_wrist_2_joint": 1.0961244666450813,
        "distance_wrist_3_joint": 0.1038131859805711,
        "smoothness": 4.440892133664971e-16,
        "time": 0.011879258,
        "traj_len": 1.6106587209720609,
        "weighted_distance": 2.0358984388140278
    },
    "planner": "LazyPRM",
    "start": {
        "state": {
            "elbow_joint": 1.9715477243005601,
            "shoulder_lift_joint": -1.1394853015351272,
            "shoulder_pan_joint": 0.12281154014795169,
            "wrist_1_joint": -0.7804696478968182,
            "wrist_2_joint": 0.12958648046900423,
            "wrist_3_joint": -3.192491284697111
        }
    },
    "waypoints": [
        {
            "positions": [
                0.12281154014795169,
                -1.1394853015351272,
                1.9715477243005601,
                -0.7804696478968182,
                0.12958648046900423,
                -3.192491284697111
            ]
        },
        {
            "positions": [
                0.05677333476550847,
                -1.172904585102022,
                2.0360007730229204,
                -0.8157425191990776,
                0.2861756899897301,
                -3.1776608295570297
            ]
        },
        {
            "positions": [
                -0.009264870616934748,
                -1.2063238686689164,
                2.1004538217452806,
                -0.851015390501337,
                0.442764899510456,
                -3.162830374416948
            ]
        },
        {
            "positions": [
                -0.07530307599937798,
                -1.239743152235811,
                2.164906870467641,
                -0.8862882618035964,
                0.5993541090311819,
                -3.1479999192768666
            ]
        },
        {
            "positions": [
                -0.14134128138182117,
                -1.2731624358027056,
                2.229359919190001,
                -0.921561133105856,
                0.7559433185519078,
                -3.1331694641367847
            ]
        },
        {
            "positions": [
                -0.20737948676426443,
                -1.3065817193696003,
                2.2938129679123613,
                -0.9568340044081154,
                0.9125325280726337,
                -3.118339008996703
            ]
        },
        {
            "positions": [
                -0.27341769214670764,
                -1.3400010029364948,
                2.3582660166347216,
                -0.9921068757103748,
                1.0691217375933597,
                -3.1035085538566216
            ]
        },
        {
            "positions": [
                -0.3394558975291509,
                -1.3734202865033895,
                2.422719065357082,
                -1.0273797470126342,
                1.2257109471140857,
                -3.08867809871654
            ]
        }
    ]
}