{
    "goal": {
        "global_pose": {
            "orientation": {
                "w": 0.7047431468963623,
                "x": -0.7094548344612122,
                "y": 0.0024358443915843964,
                "z": -0.0022348060738295317
            },
            "position": {
                "x": 0.6094750761985779,
                "y": 0.3671506643295288,
                "z": 0.19426114857196808
            }
        },
        "name": "move_to_magneteinheit_A"
    },
    "id": "LazyPRMstar_move_to_magneteinheit_A_100",
    "joint_names": [
        "shoulder_pan_joint",
        "shoulder_lift_joint",
        "elbow_joint",
        "wrist_1_joint",
        "wrist_2_joint",
        "wrist_3_joint"
    ],
    "metrics": {
        "cart_traj_len": 3.509973656453639,
        "distance_elbow_joint": 3.8772447786899864,
        "distance_shoulder_lift_joint": 0.11294164399699702,
        "distance_shoulder_pan_joint": 2.7895438264191124,
        "distance_wrist_1_joint": 0.831476586568184,
        "distance_wrist_2_joint": 1.6966444049258356,
        "distance_wrist_3_joint": 2.5867636789037047,
        "smoothness": 0.07093963787168889,
        "time": 5.022397531,
        "traj_len": 3.4488570453853,
        "weighted_distance": 4.4267666833486095
    },
    "planner": "LazyPRMstar",
    "start": {
        "state": {
            "elbow_joint": -1.919618573717145,
            "shoulder_lift_joint": -1.2443395971678275,
            "shoulder_pan_joint": 2.6996025300909787,
            "wrist_1_joint": -1.548550951253194,
            "wrist_2_joint": -1.5709469090946802,
            "wrist_3_joint": 0.4420197732051276
        }
    },
    "waypoints": [
        {
            "positions": [
                2.6996025300909787,
                -1.2443395971678275,
                -1.919618573717145,
                -1.548550951253194,
                -1.5709469090946802,
                0.4420197732051276
            ]
        },
        {
            "positions": [
                2.600219033755922,
                -1.2425521375456048,
                -1.8061939814714778,
                -1.5181593951007977,
                -1.5139202198873536,
                0.5254066089761403
            ]
        },
        {
            "positions": [
                2.5008355374208655,
                -1.240764677923382,
                -1.6927693892258104,
                -1.4877678389484013,
                -1.4568935306800268,
                0.608793444747153
            ]
        },
        {
            "positions": [
                2.401452041085809,
                -1.2389772183011596,
                -1.5793447969801433,
                -1.4573762827960046,
                -1.3998668414727002,
                0.6921802805181657
            ]
        },
        {
            "positions": [
                2.3020685447507523,
                -1.2371897586789369,
                -1.4659202047344762,
                -1.4269847266436082,
                -1.3428401522653735,
                0.7755671162891784
            ]
        },
        {
            "positions": [
                2.2026850484156957,
                -1.2354022990567142,
                -1.352495612488809,
                -1.3965931704912118,
                -1.285813463058047,
                0.8589539520601912
            ]
        },
        {
            "positions": [
                2.103301552080639,
                -1.2336148394344915,
                -1.2390710202431419,
                -1.3662016143388154,
                -1.2287867738507203,
                0.9423407878312038
            ]
        },
        {
            "positions": [
                2.0039180557455825,
                -1.231827379812269,
                -1.1256464279974745,
                -1.335810058186419,
                -1.1717600846433935,
                1.0257276236022166
            ]
        },
        {
            "positions": [
                1.9045345594105259,
                -1.2300399201900463,
                -1.0122218357518074,
                -1.3054185020340225,
                -1.114733395436067,
                1.1091144593732294
            ]
        },
        {
            "positions": [
                1.8051510630754692,
                -1.2282524605678236,
                -0.8987972435061402,
                -1.275026945881626,
                -1.0577067062287404,
                1.192501295144242
            ]
        },
        {
            "positions": [
                1.7057675667404126,
                -1.2264650009456008,
                -0.7853726512604731,
                -1.2446353897292295,
                -1.0006800170214136,
                1.2758881309152548
            ]
        },
        {
            "positions": [
                1.606384070405356,
                -1.2246775413233781,
                -0.6719480590148057,
                -1.214243833576833,
                -0.943653327814087,
                1.3592749666862673
            ]
        },
        {
            "positions": [
                1.5070005740702994,
                -1.2228900817011557,
                -0.5585234667691386,
                -1.1838522774244367,
                -0.8866266386067604,
                1.4426618024572802
            ]
        },
        {
            "positions": [
                1.4076170777352428,
                -1.221102622078933,
                -0.4450988745234714,
                -1.1534607212720402,
                -0.8295999493994337,
                1.526048638228293
            ]
        },
        {
            "positions": [
                1.3082335814001862,
                -1.2193151624567102,
                -0.33167428227780427,
                -1.1230691651196438,
                -0.772573260192107,
                1.6094354739993058
            ]
        },
        {
            "positions": [
                1.2088500850651296,
                -1.2175277028344875,
                -0.2182496900321369,
                -1.0926776089672472,
                -0.7155465709847803,
                1.6928223097703186
            ]
        },
        {
            "positions": [
                1.109466588730073,
                -1.215740243212265,
                -0.10482509778646976,
                -1.0622860528148508,
                -0.6585198817774537,
                1.7762091455413311
            ]
        },
        {
            "positions": [
                1.0100830923950164,
                -1.2139527835900423,
                0.00859949445919761,
                -1.0318944966624544,
                -0.601493192570127,
                1.859595981312344
            ]
        },
        {
            "positions": [
                0.9106995960599598,
                -1.2121653239678196,
                0.12202408670486453,
                -1.001502940510058,
                -0.5444665033628004,
                1.9429828170833565
            ]
        },
        {
            "positions": [
                0.8113160997249032,
                -1.210377864345597,
                0.2354486789505319,
                -0.9711113843576614,
                -0.48743981415547366,
                2.026369652854369
            ]
        },
        {
            "positions": [
                0.7119326033898465,
                -1.2085904047233742,
                0.3488732711961988,
                -0.940719828205265,
                -0.4304131249481471,
                2.109756488625382
            ]
        },
        {
            "positions": [
                0.6125491070547899,
                -1.2068029451011517,
                0.4622978634418662,
                -0.9103282720528685,
                -0.3733864357408203,
                2.1931433243963947
            ]
        },
        {
            "positions": [
                0.5131656107197333,
                -1.205015485478929,
                0.5757224556875336,
                -0.8799367159004721,
                -0.31635974653349375,
                2.276530160167407
            ]
        },
        {
            "positions": [
                0.4137821143846767,
                -1.2032280258567063,
                0.6891470479332009,
                -0.8495451597480755,
                -0.2593330573261672,
                2.3599169959384203
            ]
        },
        {
            "positions": [
                0.3143986180496201,
                -1.2014405662344836,
                0.8025716401788678,
                -0.8191536035956791,
                -0.20230636811884062,
                2.4433038317094327
            ]
        },
        {
            "positions": [
                0.2150151217145635,
                -1.199653106612261,
                0.9159962324245352,
                -0.7887620474432827,
                -0.14527967891151383,
                2.5266906674804455
            ]
        },
        {
            "positions": [
                0.11563162537950689,
                -1.1978656469900384,
                1.0294208246702021,
                -0.7583704912908863,
                -0.08825298970418727,
                2.6100775032514583
            ]
        },
        {
            "positions": [
                0.01624812904445022,
                -1.1960781873678157,
                1.1428454169158695,
                -0.7279789351384898,
                -0.03122630049686037,
                2.693464339022471
            ]
        },
        {
            "positions": [
                0.042795485387596074,
                -1.1799081288185693,
                1.3465406139301126,
                -0.7252527925251199,
                0.008004648585143666,
                2.7772941172940615
            ]
        },
        {
            "positions": [
                0.06934284173074193,
                -1.1637380702693232,
                1.5502358109443555,
                -0.72252664991175,
                0.0472355976671477,
                2.861123895565652
            ]
        },
        {
            "positions": [
                0.09589019807388778,
                -1.1475680117200768,
                1.7539310079585986,
                -0.71980050729838,
                0.08646654674915175,
                2.944953673837242
            ]
        },
        {
            "positions": [
                0.12243755441703363,
                -1.1313979531708305,
                1.9576262049728417,
                -0.7170743646850101,
                0.12569749583115578,
                3.0287834521088324
            ]
        }
    ]
}{
    "goal": {
        "global_pose": {
            "orientation": {
                "w": 0.7047431468963623,
                "x": -0.7094548344612122,
                "y": 0.0024358443915843964,
                "z": -0.0022348060738295317
            },
            "position": {
                "x": 0.6094750761985779,
                "y": 0.3671506643295288,
                "z": 0.19426114857196808
            }
        },
        "name": "move_to_magneteinheit_A"
    },
    "id": "LazyPRMstar_move_to_magneteinheit_A_100",
    "joint_names": [
        "shoulder_pan_joint",
        "shoulder_lift_joint",
        "elbow_joint",
        "wrist_1_joint",
        "wrist_2_joint",
        "wrist_3_joint"
    ],
    "metrics": {
        "cart_traj_len": 1.151452457064572,
        "distance_elbow_joint": 0.07976780236236003,
        "distance_shoulder_lift_joint": 0.7511394644820448,
        "distance_shoulder_pan_joint": 1.241525203568337,
        "distance_wrist_1_joint": 0.7581878866481733,
        "distance_wrist_2_joint": 1.4373522376242147,
        "distance_wrist_3_joint": 4.262836139347369,
        "smoothness": 0.005080016866391311,
        "time": 5.038185623,
        "traj_len": 2.9207548226498745,
        "weighted_distance": 4.387712517588137
    },
    "planner": "LazyPRMstar",
    "start": {
        "state": {
            "elbow_joint": 1.919643534880228,
            "shoulder_lift_joint": -1.8972525353963687,
            "shoulder_pan_joint": -1.1188672234189438,
            "wrist_1_joint": -1.5931878212786155,
            "wrist_2_joint": 1.5706036197970081,
            "wrist_3_joint": 1.118896926603594
        }
    },
    "waypoints": [
        {
            "positions": [
                -1.1188672234189438,
                -1.8972525353963687,
                1.919643534880228,
                -1.5931878212786155,
                1.5706036197970081,
                1.118896926603594
            ]
        },
        {
            "positions": [
                -1.0646767805524595,
                -1.8756224612359207,
                1.9239184757149284,
                -1.5720233797370653,
                1.49585475919806,
                0.9080162436216243
            ]
        },
        {
            "positions": [
                -1.0104863376859752,
                -1.8539923870754726,
                1.9281934165496286,
                -1.5508589381955153,
                1.4211058985991116,
                0.6971355606396545
            ]
        },
        {
            "positions": [
                -0.9562958948194908,
                -1.8323623129150248,
                1.9324683573843286,
                -1.5296944966539652,
                1.3463570380001633,
                0.4862548776576847
            ]
        },
        {
            "positions": [
                -0.9021054519530065,
                -1.8107322387545768,
                1.936743298219029,
                -1.508530055112415,
                1.2716081774012151,
                0.275374194675715
            ]
        },
        {
            "positions": [
                -0.8479150090865222,
                -1.7891021645941287,
                1.9410182390537292,
                -1.487365613570865,
                1.196859316802267,
                0.06449351169374529
            ]
        },
        {
            "positions": [
                -0.7937245662200378,
                -1.7674720904336807,
                1.9452931798884294,
                -1.4662011720293149,
                1.1221104562033186,
                -0.14638717128822454
            ]
        },
        {
            "positions": [
                -0.7395341233535535,
                -1.7458420162732329,
                1.9495681207231297,
                -1.445036730487765,
                1.0473615956043705,
                -0.35726785427019414
            ]
        },
        {
            "positions": [
                -0.6853436804870692,
                -1.7242119421127848,
                1.95384306155783,
                -1.4238722889462148,
                0.9726127350054222,
                -0.568148537252164
            ]
        },
        {
            "positions": [
                -0.6311532376205848,
                -1.7025818679523368,
                1.95811800239253,
                -1.4027078474046646,
                0.8978638744064739,
                -0.7790292202341336
            ]
        },
        {
            "positions": [
                -0.5769627947541005,
                -1.6809517937918887,
                1.9623929432272302,
                -1.3815434058631144,
                0.8231150138075256,
                -0.9899099032161034
            ]
        },
        {
            "positions": [
                -0.5227723518876162,
                -1.659321719631441,
                1.9666678840619305,
                -1.3603789643215645,
                0.7483661532085774,
                -1.200790586198073
            ]
        },
        {
            "positions": [
                -0.46858190902113184,
                -1.6376916454709929,
                1.9709428248966308,
                -1.3392145227800143,
                0.6736172926096291,
                -1.411671269180043
            ]
        },
        {
            "positions": [
                -0.4143914661546475,
                -1.6160615713105448,
                1.975217765731331,
                -1.3180500812384643,
                0.598868432010681,
                -1.6225519521620122
            ]
        },
        {
            "positions": [
                -0.36020102328816317,
                -1.5944314971500968,
                1.9794927065660313,
                -1.2968856396969142,
                0.5241195714117328,
                -1.8334326351439822
            ]
        },
        {
            "positions": [
                -0.30601058042167883,
                -1.5728014229896488,
                1.9837676474007313,
                -1.275721198155364,
                0.44937071081278446,
                -2.044313318125952
            ]
        },
        {
            "positions": [
                -0.2518201375551945,
                -1.551171348829201,
                1.9880425882354316,
                -1.254556756613814,
                0.3746218502138363,
                -2.255194001107922
            ]
        },
        {
            "positions": [
                -0.1976296946887101,
                -1.529541274668753,
                1.9923175290701318,
                -1.2333923150722639,
                0.29987298961488784,
                -2.4660746840898917
            ]
        },
        {
            "positions": [
                -0.13357215972108943,
                -1.452855633917867,
                1.9908987674356406,
                -1.1537138389838995,
                0.26654866812646905,
                -2.6016475898206686
            ]
        },
        {
            "positions": [
                -0.06951462475346878,
                -1.3761699931669813,
                1.9894800058011493,
                -1.0740353628955353,
                0.23322434663805025,
                -2.7372204955514454
            ]
        },
        {
            "positions": [
                -0.005457089785848163,
                -1.2994843524160955,
                1.988061244166658,
                -0.9943568868071708,
                0.19990002514963146,
                -2.872793401282222
            ]
        },
        {
            "positions": [
                0.05860044518177254,
                -1.2227987116652097,
                1.9866424825321667,
                -0.9146784107188065,
                0.16657570366121266,
                -3.0083663070129987
            ]
        },
        {
            "positions": [
                0.12265798014939319,
                -1.146113070914324,
                1.9852237208976755,
                -0.8349999346304422,
                0.13325138217279386,
                -3.1439392127437755
            ]
        }
    ]
}