{
    "goal": {
        "global_pose": {
            "orientation": {
                "w": 0.7047431468963623,
                "x": -0.7094548344612122,
                "y": 0.0024358443915843964,
                "z": -0.0022348060738295317
            },
            "position": {
                "x": 0.6094750761985779,
                "y": 0.3671506643295288,
                "z": 0.19426114857196808
            }
        },
        "name": "move_to_magneteinheit_A"
    },
    "id": "LazyPRM_move_to_magneteinheit_A_8",
    "joint_names": [
        "shoulder_pan_joint",
        "shoulder_lift_joint",
        "elbow_joint",
        "wrist_1_joint",
        "wrist_2_joint",
        "wrist_3_joint"
    ],
    "metrics": {
        "cart_traj_len": 3.2738373353299832,
        "distance_elbow_joint": 3.895100611316086,
        "distance_shoulder_lift_joint": 0.4562061430848028,
        "distance_shoulder_pan_joint": 2.7665064206372056,
        "distance_wrist_1_joint": 0.7873514015536005,
        "distance_wrist_2_joint": 1.7015934220780318,
        "distance_wrist_3_joint": 2.673890247849571,
        "smoothness": 0.13936326841007543,
        "time": 0.106382219,
        "traj_len": 3.5043755858239996,
        "weighted_distance": 4.4852395215696195
    },
    "planner": "LazyPRM",
    "start": {
        "state": {
            "elbow_joint": -1.919618573717145,
            "shoulder_lift_joint": -1.2443395971678275,
            "shoulder_pan_joint": 2.6996025300909787,
            "wrist_1_joint": -1.548550951253194,
            "wrist_2_joint": -1.5709469090946802,
            "wrist_3_joint": 0.4420197732051276
        }
    },
    "waypoints": [
        {
            "positions": [
                2.6996025300909787,
                -1.2443395971678275,
                -1.919618573717145,
                -1.548550951253194,
                -1.5709469090946802,
                0.4420197732051276
            ]
        },
        {
            "positions": [
                2.5797364462898997,
                -1.2531925573406897,
                -1.817572926150036,
                -1.5195867224028887,
                -1.5211445936168895,
                0.5258303052356934
            ]
        },
        {
            "positions": [
                2.4598703624888207,
                -1.2620455175135519,
                -1.7155272785829268,
                -1.4906224935525834,
                -1.4713422781390988,
                0.6096408372662593
            ]
        },
        {
            "positions": [
                2.340004278687742,
                -1.270898477686414,
                -1.6134816310158178,
                -1.4616582647022778,
                -1.421539962661308,
                0.6934513692968252
            ]
        },
        {
            "positions": [
                2.220138194886663,
                -1.2797514378592763,
                -1.5114359834487088,
                -1.4326940358519724,
                -1.3717376471835174,
                0.777261901327391
            ]
        },
        {
            "positions": [
                2.100272111085584,
                -1.2886043980321384,
                -1.4093903358815996,
                -1.403729807001667,
                -1.3219353317057267,
                0.8610724333579569
            ]
        },
        {
            "positions": [
                1.9804060272845054,
                -1.2974573582050006,
                -1.3073446883144908,
                -1.3747655781513617,
                -1.272133016227936,
                0.9448829653885227
            ]
        },
        {
            "positions": [
                1.8605399434834267,
                -1.3063103183778628,
                -1.2052990407473816,
                -1.3458013493010563,
                -1.2223307007501454,
                1.0286934974190884
            ]
        },
        {
            "positions": [
                1.7406738596823477,
                -1.315163278550725,
                -1.1032533931802724,
                -1.3168371204507507,
                -1.1725283852723547,
                1.1125040294496544
            ]
        },
        {
            "positions": [
                1.6208077758812687,
                -1.3240162387235872,
                -1.0012077456131634,
                -1.2878728916004456,
                -1.122726069794564,
                1.1963145614802202
            ]
        },
        {
            "positions": [
                1.50094169208019,
                -1.3328691988964492,
                -0.8991620980460544,
                -1.25890866275014,
                -1.0729237543167733,
                1.2801250935107862
            ]
        },
        {
            "positions": [
                1.381075608279111,
                -1.3417221590693114,
                -0.7971164504789452,
                -1.2299444338998347,
                -1.0231214388389827,
                1.363935625541352
            ]
        },
        {
            "positions": [
                1.2612095244780321,
                -1.3505751192421735,
                -0.6950708029118364,
                -1.2009802050495293,
                -0.9733191233611921,
                1.447746157571918
            ]
        },
        {
            "positions": [
                1.1413434406769531,
                -1.3594280794150357,
                -0.5930251553447272,
                -1.172015976199224,
                -0.9235168078834014,
                1.5315566896024837
            ]
        },
        {
            "positions": [
                1.0214773568758744,
                -1.368281039587898,
                -0.49097950777761823,
                -1.1430517473489186,
                -0.8737144924056108,
                1.6153672216330495
            ]
        },
        {
            "positions": [
                0.9016112730747956,
                -1.3771339997607601,
                -0.388933860210509,
                -1.114087518498613,
                -0.8239121769278202,
                1.6991777536636155
            ]
        },
        {
            "positions": [
                0.7817451892737166,
                -1.3859869599336223,
                -0.28688821264340003,
                -1.0851232896483076,
                -0.7741098614500294,
                1.7829882856941814
            ]
        },
        {
            "positions": [
                0.6618791054726376,
                -1.3948399201064845,
                -0.18484256507629104,
                -1.0561590607980023,
                -0.7243075459722388,
                1.8667988177247472
            ]
        },
        {
            "positions": [
                0.5420130216715586,
                -1.4036928802793467,
                -0.08279691750918183,
                -1.027194831947697,
                -0.6745052304944481,
                1.950609349755313
            ]
        },
        {
            "positions": [
                0.4221469378704801,
                -1.4125458404522089,
                0.019248730057926933,
                -0.9982306030973915,
                -0.6247029150166574,
                2.0344198817858787
            ]
        },
        {
            "positions": [
                0.30228085406940114,
                -1.421398800625071,
                0.12129437762503596,
                -0.9692663742470861,
                -0.5749005995388667,
                2.1182304138164447
            ]
        },
        {
            "positions": [
                0.27481556413804303,
                -1.4014291415105105,
                0.278195197891651,
                -0.9503608771363767,
                -0.5121932957076445,
                2.2110563816424644
            ]
        },
        {
            "positions": [
                0.2473502742066849,
                -1.3814594823959498,
                0.435096018158266,
                -0.9314553800256674,
                -0.44948599187642235,
                2.3038823494684837
            ]
        },
        {
            "positions": [
                0.2198849842753268,
                -1.3614898232813892,
                0.5919968384248808,
                -0.9125498829149581,
                -0.3867786880452001,
                2.3967083172945034
            ]
        },
        {
            "positions": [
                0.19241969434396866,
                -1.3415201641668286,
                0.7488976586914959,
                -0.8936443858042488,
                -0.3240713842139779,
                2.489534285120523
            ]
        },
        {
            "positions": [
                0.16495440441261056,
                -1.321550505052268,
                0.9057984789581108,
                -0.8747388886935394,
                -0.2613640803827557,
                2.5823602529465424
            ]
        },
        {
            "positions": [
                0.13748911448125245,
                -1.3015808459377074,
                1.0626992992247257,
                -0.8558333915828302,
                -0.19865677655153352,
                2.675186220772562
            ]
        },
        {
            "positions": [
                0.11002382454989434,
                -1.2816111868231468,
                1.2196001194913406,
                -0.8369278944721209,
                -0.13594947272031133,
                2.768012188598582
            ]
        },
        {
            "positions": [
                0.08255853461853618,
                -1.2616415277085862,
                1.376500939757956,
                -0.8180223973614116,
                -0.07324216888908908,
                2.8608381564246015
            ]
        },
        {
            "positions": [
                0.05509324468717808,
                -1.2416718685940256,
                1.5334017600245708,
                -0.7991169002507023,
                -0.010534865057866827,
                2.9536641242506207
            ]
        },
        {
            "positions": [
                0.02762795475581999,
                -1.221702209479465,
                1.6903025802911857,
                -0.7802114031399929,
                0.052172438773355284,
                3.0464900920766405
            ]
        },
        {
            "positions": [
                0.06076890425233927,
                -1.1914521545241763,
                1.8057424624658482,
                -0.7894925863655069,
                0.08205472862096516,
                3.078148188420676
            ]
        },
        {
            "positions": [
                0.09390985374885855,
                -1.1612020995688876,
                1.921182344640511,
                -0.7987737695910209,
                0.11193701846857504,
                3.109806284764712
            ]
        },
        {
            "positions": [
                0.1221598000578657,
                -1.1422518609975119,
                1.9754820375989404,
                -0.7992232565803923,
                0.1306465129833516,
                3.115910021054699
            ]
        }
    ]
}{
    "goal": {
        "global_pose": {
            "orientation": {
                "w": 0.7047431468963623,
                "x": -0.7094548344612122,
                "y": 0.0024358443915843964,
                "z": -0.0022348060738295317
            },
            "position": {
                "x": 0.6094750761985779,
                "y": 0.3671506643295288,
                "z": 0.19426114857196808
            }
        },
        "name": "move_to_magneteinheit_A"
    },
    "id": "LazyPRM_move_to_magneteinheit_A_8",
    "joint_names": [
        "shoulder_pan_joint",
        "shoulder_lift_joint",
        "elbow_joint",
        "wrist_1_joint",
        "wrist_2_joint",
        "wrist_3_joint"
    ],
    "metrics": {
        "cart_traj_len": 1.2902686218558443,
        "distance_elbow_joint": 0.09087221672808643,
        "distance_shoulder_lift_joint": 0.8823888581129029,
        "distance_shoulder_pan_joint": 1.2412533420164964,
        "distance_wrist_1_joint": 0.8470385924447865,
        "distance_wrist_2_joint": 1.4339413273782053,
        "distance_wrist_3_joint": 4.64733392127577,
        "smoothness": 0.40511023998202744,
        "time": 0.129596172,
        "traj_len": 3.0237110076785196,
        "weighted_distance": 4.551755268062067
    },
    "planner": "LazyPRM",
    "start": {
        "state": {
            "elbow_joint": 1.919643534880228,
            "shoulder_lift_joint": -1.8972525353963687,
            "shoulder_pan_joint": -1.1188672234189438,
            "wrist_1_joint": -1.5931878212786155,
            "wrist_2_joint": 1.5706036197970081,
            "wrist_3_joint": 1.118896926603594
        }
    },
    "waypoints": [
        {
            "positions": [
                -1.1188672234189438,
                -1.8972525353963687,
                1.919643534880228,
                -1.5931878212786155,
                1.5706036197970081,
                1.118896926603594
            ]
        },
        {
            "positions": [
                -1.0686095398699502,
                -1.859905970239873,
                1.9186155868377217,
                -1.557386997337547,
                1.5133860710407177,
                0.9143929273446756
            ]
        },
        {
            "positions": [
                -1.0183518563209566,
                -1.822559405083377,
                1.9175876387952153,
                -1.5215861733964782,
                1.456168522284427,
                0.7098889280857571
            ]
        },
        {
            "positions": [
                -0.9680941727719631,
                -1.7852128399268814,
                1.916559690752709,
                -1.4857853494554096,
                1.3989509735281365,
                0.5053849288268387
            ]
        },
        {
            "positions": [
                -0.9178364892229695,
                -1.7478662747703857,
                1.9155317427102025,
                -1.4499845255143409,
                1.3417334247718458,
                0.30088092956792023
            ]
        },
        {
            "positions": [
                -0.8675788056739758,
                -1.7105197096138898,
                1.9145037946676962,
                -1.4141837015732723,
                1.2845158760155553,
                0.09637693030900185
            ]
        },
        {
            "positions": [
                -0.8173211221249823,
                -1.673173144457394,
                1.9134758466251895,
                -1.3783828776322036,
                1.2272983272592648,
                -0.10812706894991653
            ]
        },
        {
            "positions": [
                -0.7670634385759887,
                -1.6358265793008984,
                1.9124478985826832,
                -1.342582053691135,
                1.170080778502974,
                -0.31263106820883513
            ]
        },
        {
            "positions": [
                -0.7168057550269951,
                -1.5984800141444024,
                1.9114199505401768,
                -1.3067812297500663,
                1.1128632297466834,
                -0.5171350674677535
            ]
        },
        {
            "positions": [
                -0.6665480714780014,
                -1.5611334489879067,
                1.9103920024976704,
                -1.2709804058089977,
                1.055645680990393,
                -0.7216390667266721
            ]
        },
        {
            "positions": [
                -0.6162903879290078,
                -1.523786883831411,
                1.909364054455164,
                -1.235179581867929,
                0.9984281322341023,
                -0.9261430659855903
            ]
        },
        {
            "positions": [
                -0.5660327043800142,
                -1.4864403186749153,
                1.9083361064126576,
                -1.1993787579268604,
                0.9412105834778117,
                -1.1306470652445089
            ]
        },
        {
            "positions": [
                -0.5157750208310207,
                -1.4490937535184194,
                1.9073081583701512,
                -1.163577933985792,
                0.8839930347215212,
                -1.335151064503427
            ]
        },
        {
            "positions": [
                -0.46551733728202693,
                -1.4117471883619237,
                1.9062802103276448,
                -1.1277771100447231,
                0.8267754859652305,
                -1.539655063762346
            ]
        },
        {
            "positions": [
                -0.4152596537330334,
                -1.3744006232054278,
                1.9052522622851384,
                -1.0919762861036544,
                0.76955793720894,
                -1.7441590630212642
            ]
        },
        {
            "positions": [
                -0.3650019701840398,
                -1.337054058048932,
                1.904224314242632,
                -1.056175462162586,
                0.7123403884526495,
                -1.9486630622801824
            ]
        },
        {
            "positions": [
                -0.31474428663504617,
                -1.2997074928924364,
                1.9031963662001257,
                -1.0203746382215173,
                0.6551228396963588,
                -2.1531670615391008
            ]
        },
        {
            "positions": [
                -0.26448660308605254,
                -1.2623609277359407,
                1.902168418157619,
                -0.9845738142804487,
                0.5979052909400683,
                -2.35767106079802
            ]
        },
        {
            "positions": [
                -0.21422891953705891,
                -1.2250143625794447,
                1.9011404701151127,
                -0.9487729903393799,
                0.5406877421837777,
                -2.562175060056938
            ]
        },
        {
            "positions": [
                -0.1639712359880653,
                -1.187667797422949,
                1.9001125220726063,
                -0.9129721663983114,
                0.483470193427487,
                -2.766679059315856
            ]
        },
        {
            "positions": [
                -0.11371355243907177,
                -1.150321232266453,
                1.8990845740301,
                -0.8771713424572427,
                0.4262526446711965,
                -2.9711830585747743
            ]
        },
        {
            "positions": [
                -0.06345586889007815,
                -1.1129746671099574,
                1.8980566259875935,
                -0.8413705185161741,
                0.3690350959149058,
                -3.1756870578336933
            ]
        },
        {
            "positions": [
                -0.013198185341084578,
                -1.0756281019534617,
                1.8970286779450871,
                -0.8055696945751054,
                0.3118175471586153,
                -3.380191057092612
            ]
        },
        {
            "positions": [
                0.05459396662823393,
                -1.1060103142884596,
                1.9311573578415597,
                -0.7758594617044672,
                0.224239919788709,
                -3.30606808830283
            ]
        },
        {
            "positions": [
                0.12238611859755244,
                -1.1363925266234576,
                1.9652860377380326,
                -0.746149228833829,
                0.13666229241880265,
                -3.2319451195130484
            ]
        }
    ]
}