{
    "goal": {
        "global_pose": {
            "orientation": {
                "w": 0.7047431468963623,
                "x": -0.7094548344612122,
                "y": 0.0024358443915843964,
                "z": -0.0022348060738295317
            },
            "position": {
                "x": 0.6094750761985779,
                "y": 0.3671506643295288,
                "z": 0.19426114857196808
            }
        },
        "name": "move_to_magneteinheit_A"
    },
    "id": "LazyPRM_move_to_magneteinheit_A_120",
    "joint_names": [
        "shoulder_pan_joint",
        "shoulder_lift_joint",
        "elbow_joint",
        "wrist_1_joint",
        "wrist_2_joint",
        "wrist_3_joint"
    ],
    "metrics": {
        "cart_traj_len": 4.082937138964898,
        "distance_elbow_joint": 4.2184686871064185,
        "distance_shoulder_lift_joint": 0.6082333920280845,
        "distance_shoulder_pan_joint": 3.4335515206188387,
        "distance_wrist_1_joint": 2.295677128099692,
        "distance_wrist_2_joint": 1.7000398686809048,
        "distance_wrist_3_joint": 3.3884382457784636,
        "smoothness": 0.5137435242975074,
        "time": 0.127988914,
        "traj_len": 3.955301359228195,
        "weighted_distance": 5.139747302217292
    },
    "planner": "LazyPRM",
    "start": {
        "state": {
            "elbow_joint": -1.919618573717145,
            "shoulder_lift_joint": -1.2443395971678275,
            "shoulder_pan_joint": 2.6996025300909787,
            "wrist_1_joint": -1.548550951253194,
            "wrist_2_joint": -1.5709469090946802,
            "wrist_3_joint": 0.4420197732051276
        }
    },
    "waypoints": [
        {
            "positions": [
                2.6996025300909787,
                -1.2443395971678275,
                -1.919618573717145,
                -1.548550951253194,
                -1.5709469090946802,
                0.4420197732051276
            ]
        },
        {
            "positions": [
                2.5689411544914704,
                -1.2288030217232477,
                -1.834438249933165,
                -1.507558117770655,
                -1.5078937489329236,
                0.49502582768659087
            ]
        },
        {
            "positions": [
                2.438279778891962,
                -1.2132664462786678,
                -1.749257926149185,
                -1.4665652842881156,
                -1.444840588771167,
                0.5480318821680541
            ]
        },
        {
            "positions": [
                2.3076184032924534,
                -1.197729870834088,
                -1.664077602365205,
                -1.4255724508055765,
                -1.3817874286094105,
                0.6010379366495174
            ]
        },
        {
            "positions": [
                2.176957027692945,
                -1.1821932953895082,
                -1.5788972785812252,
                -1.3845796173230371,
                -1.318734268447654,
                0.6540439911309808
            ]
        },
        {
            "positions": [
                2.046295652093437,
                -1.1666567199449285,
                -1.4937169547972453,
                -1.343586783840498,
                -1.2556811082858974,
                0.707050045612444
            ]
        },
        {
            "positions": [
                1.9156342764939283,
                -1.1511201445003485,
                -1.4085366310132652,
                -1.3025939503579589,
                -1.1926279481241409,
                0.7600561000939072
            ]
        },
        {
            "positions": [
                1.7849729008944197,
                -1.1355835690557687,
                -1.323356307229285,
                -1.2616011168754195,
                -1.1295747879623843,
                0.8130621545753707
            ]
        },
        {
            "positions": [
                1.6543115252949114,
                -1.120046993611189,
                -1.2381759834453052,
                -1.2206082833928804,
                -1.0665216278006278,
                0.8660682090568339
            ]
        },
        {
            "positions": [
                1.523650149695403,
                -1.104510418166609,
                -1.1529956596613253,
                -1.179615449910341,
                -1.0034684676388714,
                0.9190742635382971
            ]
        },
        {
            "positions": [
                1.3929887740958946,
                -1.0889738427220292,
                -1.0678153358773455,
                -1.138622616427802,
                -0.9404153074771148,
                0.9720803180197604
            ]
        },
        {
            "positions": [
                1.262327398496386,
                -1.0734372672774495,
                -0.9826350120933655,
                -1.0976297829452628,
                -0.8773621473153582,
                1.0250863725012238
            ]
        },
        {
            "positions": [
                1.1316660228968778,
                -1.0579006918328697,
                -0.8974546883093855,
                -1.0566369494627235,
                -0.8143089871536017,
                1.078092426982687
            ]
        },
        {
            "positions": [
                1.0010046472973695,
                -1.0423641163882897,
                -0.8122743645254056,
                -1.0156441159801843,
                -0.7512558269918452,
                1.1310984814641503
            ]
        },
        {
            "positions": [
                0.8703432716978607,
                -1.02682754094371,
                -0.7270940407414255,
                -0.9746512824976451,
                -0.6882026668300886,
                1.1841045359456137
            ]
        },
        {
            "positions": [
                0.7396818960983524,
                -1.0112909654991302,
                -0.6419137169574456,
                -0.9336584490151059,
                -0.625149506668332,
                1.237110590427077
            ]
        },
        {
            "positions": [
                0.6090205204988441,
                -0.9957543900545504,
                -0.5567333931734657,
                -0.8926656155325667,
                -0.5620963465065756,
                1.2901166449085402
            ]
        },
        {
            "positions": [
                0.47835914489933584,
                -0.9802178146099705,
                -0.4715530693894858,
                -0.8516727820500275,
                -0.49904318634481903,
                1.3431226993900034
            ]
        },
        {
            "positions": [
                0.3476977692998271,
                -0.9646812391653907,
                -0.3863727456055057,
                -0.8106799485674883,
                -0.4359900261830625,
                1.3961287538714668
            ]
        },
        {
            "positions": [
                0.2170363937003188,
                -0.9491446637208109,
                -0.30119242182152584,
                -0.769687115084949,
                -0.37293686602130593,
                1.44913480835293
            ]
        },
        {
            "positions": [
                0.0863750181008105,
                -0.9336080882762311,
                -0.21601209803754595,
                -0.7286942816024099,
                -0.3098837058595494,
                1.5021408628343933
            ]
        },
        {
            "positions": [
                -0.044286357498697804,
                -0.9180715128316512,
                -0.13083177425356607,
                -0.6877014481198707,
                -0.24683054569779284,
                1.5551469173158565
            ]
        },
        {
            "positions": [
                -0.17494773309820655,
                -0.9025349373870715,
                -0.045651450469585964,
                -0.6467086146373314,
                -0.1837773855360363,
                1.60815297179732
            ]
        },
        {
            "positions": [
                -0.30560910869771474,
                -0.8869983619424916,
                0.03952887331439389,
                -0.6057157811547922,
                -0.12072422537427975,
                1.6611590262787832
            ]
        },
        {
            "positions": [
                -0.29248296412740044,
                -0.8993243147379758,
                0.2006148273055192,
                -0.6643841879829798,
                -0.12105640254398549,
                1.7998685632305482
            ]
        },
        {
            "positions": [
                -0.27935681955708613,
                -0.91165026753346,
                0.3617007812966445,
                -0.7230525948111675,
                -0.12138857971369123,
                1.9385781001823132
            ]
        },
        {
            "positions": [
                -0.26623067498677183,
                -0.9239762203289442,
                0.5227867352877699,
                -0.7817210016393551,
                -0.12172075688339697,
                2.0772876371340785
            ]
        },
        {
            "positions": [
                -0.25310453041645753,
                -0.9363021731244284,
                0.6838726892788951,
                -0.8403894084675427,
                -0.1220529340531027,
                2.2159971740858433
            ]
        },
        {
            "positions": [
                -0.2399783858461432,
                -0.9486281259199126,
                0.8449586432700205,
                -0.8990578152957305,
                -0.12238511122280844,
                2.3547067110376085
            ]
        },
        {
            "positions": [
                -0.2268522412758289,
                -0.9609540787153968,
                1.0060445972611458,
                -0.957726222123918,
                -0.12271728839251418,
                2.4934162479893733
            ]
        },
        {
            "positions": [
                -0.2137260967055146,
                -0.9732800315108809,
                1.167130551252271,
                -1.0163946289521057,
                -0.1230494655622199,
                2.6321257849411386
            ]
        },
        {
            "positions": [
                -0.20059995213520027,
                -0.9856059843063651,
                1.3282165052433963,
                -1.0750630357802935,
                -0.12338164273192564,
                2.7708353218929034
            ]
        },
        {
            "positions": [
                -0.18747380756488596,
                -0.9979319371018494,
                1.4893024592345216,
                -1.133731442608481,
                -0.12371381990163138,
                2.9095448588446686
            ]
        },
        {
            "positions": [
                -0.17434766299457166,
                -1.0102578898973336,
                1.650388413225647,
                -1.1923998494366685,
                -0.12404599707133712,
                3.048254395796434
            ]
        },
        {
            "positions": [
                -0.16122151842425736,
                -1.0225838426928178,
                1.8114743672167721,
                -1.2510682562648563,
                -0.12437817424104286,
                3.1869639327481987
            ]
        },
        {
            "positions": [
                -0.14809537385394306,
                -1.034909795488302,
                1.9725603212078977,
                -1.309736663093044,
                -0.1247103514107486,
                3.3256734696999635
            ]
        },
        {
            "positions": [
                -0.13496922928362876,
                -1.0472357482837862,
                2.133646275199023,
                -1.3684050699212316,
                -0.12504252858045434,
                3.4643830066517287
            ]
        },
        {
            "positions": [
                -0.0834292288004164,
                -1.065366702376077,
                2.1006055075609726,
                -1.2503745360742613,
                -0.07594275222958856,
                3.391168004185356
            ]
        },
        {
            "positions": [
                -0.03188922831720402,
                -1.0834976564683678,
                2.0675647399229224,
                -1.132344002227291,
                -0.02684297587872278,
                3.3179530017189838
            ]
        },
        {
            "positions": [
                0.01965077216600833,
                -1.1016286105606585,
                2.0345239722848723,
                -1.014313468380321,
                0.022256800472142985,
                3.244737999252611
            ]
        },
        {
            "positions": [
                0.07119077264922072,
                -1.1197595646529495,
                2.001483204646822,
                -0.8962829345333507,
                0.07135657682300878,
                3.171522996786239
            ]
        },
        {
            "positions": [
                0.1227307731324331,
                -1.1378905187452402,
                1.968442437008772,
                -0.7782524006863806,
                0.12045635317387454,
                3.098307994319866
            ]
        }
    ]
}{
    "goal": {
        "global_pose": {
            "orientation": {
                "w": 0.7047431468963623,
                "x": -0.7094548344612122,
                "y": 0.0024358443915843964,
                "z": -0.0022348060738295317
            },
            "position": {
                "x": 0.6094750761985779,
                "y": 0.3671506643295288,
                "z": 0.19426114857196808
            }
        },
        "name": "move_to_magneteinheit_A"
    },
    "id": "LazyPRM_move_to_magneteinheit_A_120",
    "joint_names": [
        "shoulder_pan_joint",
        "shoulder_lift_joint",
        "elbow_joint",
        "wrist_1_joint",
        "wrist_2_joint",
        "wrist_3_joint"
    ],
    "metrics": {
        "cart_traj_len": 1.2512400886546786,
        "distance_elbow_joint": 0.09657187952772728,
        "distance_shoulder_lift_joint": 1.1111902450071516,
        "distance_shoulder_pan_joint": 1.2409979435544458,
        "distance_wrist_1_joint": 3.5875782367093625,
        "distance_wrist_2_joint": 1.707185099360097,
        "distance_wrist_3_joint": 1.2059554722645744,
        "smoothness": 7.401486889441618e-17,
        "time": 0.137040422,
        "traj_len": 2.991567962862177,
        "weighted_distance": 4.081195064809077
    },
    "planner": "LazyPRM",
    "start": {
        "state": {
            "elbow_joint": 1.919643534880228,
            "shoulder_lift_joint": -1.8972525353963687,
            "shoulder_pan_joint": -1.1188672234189438,
            "wrist_1_joint": -1.5931878212786155,
            "wrist_2_joint": 1.5706036197970081,
            "wrist_3_joint": 1.118896926603594
        }
    },
    "waypoints": [
        {
            "positions": [
                -1.1188672234189438,
                -1.8972525353963687,
                1.919643534880228,
                -1.5931878212786155,
                1.5706036197970081,
                1.118896926603594
            ]
        },
        {
            "positions": [
                -1.0649107910904896,
                -1.8489399160482316,
                1.9238423122509989,
                -1.437206158812991,
                1.4963781806943952,
                1.066464079983395
            ]
        },
        {
            "positions": [
                -1.0109543587620355,
                -1.8006272967000947,
                1.9280410896217697,
                -1.2812244963473667,
                1.4221527415917823,
                1.0140312333631962
            ]
        },
        {
            "positions": [
                -0.9569979264335814,
                -1.7523146773519578,
                1.9322398669925402,
                -1.1252428338817422,
                1.3479273024891694,
                0.9615983867429974
            ]
        },
        {
            "positions": [
                -0.9030414941051272,
                -1.7040020580038207,
                1.936438644363311,
                -0.9692611714161177,
                1.2737018633865564,
                0.9091655401227984
            ]
        },
        {
            "positions": [
                -0.849085061776673,
                -1.6556894386556835,
                1.9406374217340818,
                -0.8132795089504932,
                1.1994764242839435,
                0.8567326935025995
            ]
        },
        {
            "positions": [
                -0.7951286294482189,
                -1.6073768193075466,
                1.9448361991048526,
                -0.6572978464848688,
                1.1252509851813306,
                0.8042998468824006
            ]
        },
        {
            "positions": [
                -0.7411721971197647,
                -1.5590641999594095,
                1.9490349764756234,
                -0.5013161840192442,
                1.0510255460787177,
                0.7518670002622017
            ]
        },
        {
            "positions": [
                -0.6872157647913105,
                -1.5107515806112726,
                1.9532337538463942,
                -0.3453345215536199,
                0.9768001069761049,
                0.6994341536420028
            ]
        },
        {
            "positions": [
                -0.6332593324628564,
                -1.4624389612631354,
                1.9574325312171648,
                -0.18935285908799537,
                0.9025746678734919,
                0.6470013070218039
            ]
        },
        {
            "positions": [
                -0.5793029001344022,
                -1.4141263419149985,
                1.9616313085879356,
                -0.03337119662237087,
                0.828349228770879,
                0.594568460401605
            ]
        },
        {
            "positions": [
                -0.525346467805948,
                -1.3658137225668614,
                1.9658300859587063,
                0.12261046584325364,
                0.7541237896682661,
                0.5421356137814062
            ]
        },
        {
            "positions": [
                -0.4713900354774939,
                -1.3175011032187245,
                1.9700288633294771,
                0.2785921283088779,
                0.6798983505656532,
                0.4897027671612073
            ]
        },
        {
            "positions": [
                -0.41743360314903977,
                -1.2691884838705874,
                1.974227640700248,
                0.4345737907745024,
                0.6056729114630404,
                0.43726992054100844
            ]
        },
        {
            "positions": [
                -0.3634771708205855,
                -1.2208758645224504,
                1.9784264180710187,
                0.5905554532401271,
                0.5314474723604272,
                0.38483707392080946
            ]
        },
        {
            "positions": [
                -0.30952073849213135,
                -1.1725632451743133,
                1.9826251954417893,
                0.7465371157057514,
                0.4572220332578145,
                0.3324042273006106
            ]
        },
        {
            "positions": [
                -0.2555643061636772,
                -1.1242506258261762,
                1.98682397281256,
                0.9025187781713757,
                0.3829965941552016,
                0.2799713806804117
            ]
        },
        {
            "positions": [
                -0.20160787383522305,
                -1.0759380064780393,
                1.9910227501833309,
                1.058500440637,
                0.3087711550525887,
                0.22753853406021296
            ]
        },
        {
            "positions": [
                -0.1476514415067688,
                -1.0276253871299024,
                1.9952215275541016,
                1.2144821031026247,
                0.23454571594997575,
                0.17510568744001398
            ]
        },
        {
            "positions": [
                -0.09369500917831464,
                -0.9793127677817652,
                1.9994203049248724,
                1.370463765568249,
                0.16032027684736283,
                0.12267284081981511
            ]
        },
        {
            "positions": [
                -0.039738576849860596,
                -0.9310001484336282,
                2.0036190822956432,
                1.5264454280338737,
                0.08609483774474991,
                0.07023999419961613
            ]
        },
        {
            "positions": [
                0.014217855478593666,
                -0.8826875290854912,
                2.007817859666414,
                1.682427090499498,
                0.011869398642136986,
                0.01780714757941726
            ]
        },
        {
            "positions": [
                0.06817428780704793,
                -0.8343749097373541,
                2.012016637037185,
                1.8384087529651227,
                -0.06235604046047594,
                -0.03462569904078161
            ]
        },
        {
            "positions": [
                0.122130720135502,
                -0.7860622903892173,
                2.0162154144079554,
                1.994390415430747,
                -0.13658147956308886,
                -0.08705854566098058
            ]
        }
    ]
}