{
    "goal": {
        "global_pose": {
            "orientation": {
                "w": 0.7047431468963623,
                "x": -0.7094548344612122,
                "y": 0.0024358443915843964,
                "z": -0.0022348060738295317
            },
            "position": {
                "x": 0.6094750761985779,
                "y": 0.3671506643295288,
                "z": 0.19426114857196808
            }
        },
        "name": "move_to_magneteinheit_A"
    },
    "id": "LazyPRM_move_to_magneteinheit_A_19",
    "joint_names": [
        "shoulder_pan_joint",
        "shoulder_lift_joint",
        "elbow_joint",
        "wrist_1_joint",
        "wrist_2_joint",
        "wrist_3_joint"
    ],
    "metrics": {
        "cart_traj_len": 3.0101964102569485,
        "distance_elbow_joint": 3.9421675279217268,
        "distance_shoulder_lift_joint": 0.5411073795234103,
        "distance_shoulder_pan_joint": 3.0016378995248107,
        "distance_wrist_1_joint": 3.5627144100675086,
        "distance_wrist_2_joint": 1.4354290660340663,
        "distance_wrist_3_joint": 1.522030187666454,
        "smoothness": 0.14730164463248216,
        "time": 0.177681006,
        "traj_len": 3.7423370332905583,
        "weighted_distance": 4.695454218941174
    },
    "planner": "LazyPRM",
    "start": {
        "state": {
            "elbow_joint": -1.919618573717145,
            "shoulder_lift_joint": -1.2443395971678275,
            "shoulder_pan_joint": 2.6996025300909787,
            "wrist_1_joint": -1.548550951253194,
            "wrist_2_joint": -1.5709469090946802,
            "wrist_3_joint": 0.4420197732051276
        }
    },
    "waypoints": [
        {
            "positions": [
                2.6996025300909787,
                -1.2443395971678275,
                -1.919618573717145,
                -1.548550951253194,
                -1.5709469090946802,
                0.4420197732051276
            ]
        },
        {
            "positions": [
                2.6066214233613545,
                -1.245788679750266,
                -1.796216414933693,
                -1.4456104566927375,
                -1.5365156139717249,
                0.40740252141313865
            ]
        },
        {
            "positions": [
                2.5136403166317303,
                -1.2472377623327044,
                -1.672814256150241,
                -1.3426699621322806,
                -1.5020843188487694,
                0.37278526962114966
            ]
        },
        {
            "positions": [
                2.420659209902106,
                -1.248686844915143,
                -1.549412097366789,
                -1.239729467571824,
                -1.467653023725814,
                0.3381680178291607
            ]
        },
        {
            "positions": [
                2.327678103172482,
                -1.2501359274975814,
                -1.4260099385833374,
                -1.1367889730113674,
                -1.4332217286028586,
                0.3035507660371718
            ]
        },
        {
            "positions": [
                2.234696996442857,
                -1.2515850100800199,
                -1.3026077797998854,
                -1.0338484784509108,
                -1.3987904334799033,
                0.26893351424518286
            ]
        },
        {
            "positions": [
                2.141715889713233,
                -1.2530340926624586,
                -1.1792056210164334,
                -0.9309079838904539,
                -1.3643591383569478,
                0.23431626245319387
            ]
        },
        {
            "positions": [
                2.0487347829836087,
                -1.254483175244897,
                -1.0558034622329817,
                -0.8279674893299972,
                -1.3299278432339925,
                0.19969901066120493
            ]
        },
        {
            "positions": [
                1.9557536762539844,
                -1.2559322578273355,
                -0.9324013034495297,
                -0.7250269947695406,
                -1.295496548111037,
                0.165081758869216
            ]
        },
        {
            "positions": [
                1.8627725695243602,
                -1.257381340409774,
                -0.8089991446660778,
                -0.6220865002090838,
                -1.2610652529880817,
                0.13046450707722707
            ]
        },
        {
            "positions": [
                1.769791462794736,
                -1.2588304229922125,
                -0.6855969858826259,
                -0.5191460056486272,
                -1.2266339578651264,
                0.09584725528523813
            ]
        },
        {
            "positions": [
                1.6768103560651115,
                -1.260279505574651,
                -0.5621948270991741,
                -0.4162055110881706,
                -1.192202662742171,
                0.0612300034932492
            ]
        },
        {
            "positions": [
                1.5838292493354873,
                -1.2617285881570894,
                -0.43879266831572195,
                -0.31326501652771377,
                -1.1577713676192154,
                0.02661275170126015
            ]
        },
        {
            "positions": [
                1.4908481426058628,
                -1.263177670739528,
                -0.31539050953227,
                -0.21032452196725693,
                -1.1233400724962601,
                -0.008004500090728783
            ]
        },
        {
            "positions": [
                1.3978670358762386,
                -1.2646267533219664,
                -0.19198835074881826,
                -0.10738402740680031,
                -1.0889087773733048,
                -0.04262175188271772
            ]
        },
        {
            "positions": [
                1.3048859291466144,
                -1.266075835904405,
                -0.0685861919653663,
                -0.00444353284634369,
                -1.0544774822503493,
                -0.07723900367470665
            ]
        },
        {
            "positions": [
                1.2119048224169902,
                -1.2675249184868436,
                0.05481596681808565,
                0.09849696171411293,
                -1.0200461871273938,
                -0.11185625546669559
            ]
        },
        {
            "positions": [
                1.118923715687366,
                -1.268974001069282,
                0.1782181256015376,
                0.20143745627456955,
                -0.9856148920044385,
                -0.14647350725868452
            ]
        },
        {
            "positions": [
                1.0259426089577415,
                -1.2704230836517205,
                0.30162028438498933,
                0.3043779508350264,
                -0.9511835968814831,
                -0.18109075905067346
            ]
        },
        {
            "positions": [
                0.9329615022281172,
                -1.271872166234159,
                0.42502244316844107,
                0.407318445395483,
                -0.9167523017585278,
                -0.2157080108426624
            ]
        },
        {
            "positions": [
                0.839980395498493,
                -1.2733212488165975,
                0.5484246019518932,
                0.5102589399559396,
                -0.8823210066355724,
                -0.2503252626346513
            ]
        },
        {
            "positions": [
                0.7469992887688688,
                -1.274770331399036,
                0.671826760735345,
                0.6131994345163965,
                -0.847889711512617,
                -0.28494251442664026
            ]
        },
        {
            "positions": [
                0.6540181820392443,
                -1.2762194139814744,
                0.7952289195187967,
                0.7161399290768529,
                -0.8134584163896617,
                -0.3195597662186292
            ]
        },
        {
            "positions": [
                0.5610370753096201,
                -1.277668496563913,
                0.9186310783022493,
                0.8190804236373102,
                -0.7790271212667061,
                -0.35417701801061835
            ]
        },
        {
            "positions": [
                0.4680559685799959,
                -1.2791175791463514,
                1.042033237085701,
                0.9220209181977665,
                -0.7445958261437507,
                -0.3887942698026073
            ]
        },
        {
            "positions": [
                0.3750748618503712,
                -1.2805666617287899,
                1.1654353958691528,
                1.0249614127582234,
                -0.7101645310207954,
                -0.4234115215945962
            ]
        },
        {
            "positions": [
                0.28209375512074697,
                -1.2820157443112286,
                1.288837554652605,
                1.1279019073186802,
                -0.67573323589784,
                -0.45802877338658515
            ]
        },
        {
            "positions": [
                0.18911264839112274,
                -1.283464826893667,
                1.4122397134360567,
                1.2308424018791366,
                -0.6413019407748847,
                -0.4926460251785741
            ]
        },
        {
            "positions": [
                0.09613154166149851,
                -1.2849139094761055,
                1.5356418722195084,
                1.3337828964395935,
                -0.6068706456519293,
                -0.527263276970563
            ]
        },
        {
            "positions": [
                0.0031504349318742797,
                -1.286362992058544,
                1.6590440310029606,
                1.4367233910000499,
                -0.5724393505289739,
                -0.5618805287625519
            ]
        },
        {
            "positions": [
                -0.08983067179775,
                -1.2878120746409825,
                1.7824461897864126,
                1.5396638855605065,
                -0.5380080554060185,
                -0.5964977805545408
            ]
        },
        {
            "positions": [
                -0.06120763328234881,
                -1.2074058853666092,
                1.8218266378479935,
                1.6197988597484905,
                -0.47323514405063866,
                -0.5176004650527485
            ]
        },
        {
            "positions": [
                -0.032584594766947604,
                -1.126999696092236,
                1.8612070859095742,
                1.6999338339364745,
                -0.40846223269525883,
                -0.4387031495509561
            ]
        },
        {
            "positions": [
                -0.003961556251546414,
                -1.0465935068178627,
                1.900587533971155,
                1.7800688081244584,
                -0.34368932133987906,
                -0.3598058340491637
            ]
        },
        {
            "positions": [
                0.024661482263854798,
                -0.9661873175434893,
                1.9399679820327358,
                1.8602037823124424,
                -0.27891640998449924,
                -0.2809085185473713
            ]
        },
        {
            "positions": [
                0.05328452077925598,
                -0.885781128269116,
                1.9793484300943167,
                1.9403387565004264,
                -0.2141434986291194,
                -0.20201120304557893
            ]
        },
        {
            "positions": [
                0.08782927330879409,
                -0.8379791504299217,
                2.0009486921494495,
                1.9772511076573707,
                -0.17483067084486664,
                -0.1574981748466672
            ]
        },
        {
            "positions": [
                0.12237402583833219,
                -0.7901771725907272,
                2.0225489542045825,
                2.014163458814315,
                -0.13551784306061385,
                -0.11298514664775548
            ]
        }
    ]
}{
    "goal": {
        "global_pose": {
            "orientation": {
                "w": 0.7047431468963623,
                "x": -0.7094548344612122,
                "y": 0.0024358443915843964,
                "z": -0.0022348060738295317
            },
            "position": {
                "x": 0.6094750761985779,
                "y": 0.3671506643295288,
                "z": 0.19426114857196808
            }
        },
        "name": "move_to_magneteinheit_A"
    },
    "id": "LazyPRM_move_to_magneteinheit_A_19",
    "joint_names": [
        "shoulder_pan_joint",
        "shoulder_lift_joint",
        "elbow_joint",
        "wrist_1_joint",
        "wrist_2_joint",
        "wrist_3_joint"
    ],
    "metrics": {
        "cart_traj_len": 1.338001957861819,
        "distance_elbow_joint": 0.5841690420590162,
        "distance_shoulder_lift_joint": 0.7487866560183241,
        "distance_shoulder_pan_joint": 1.2412980833499203,
        "distance_wrist_1_joint": 0.7929198532624997,
        "distance_wrist_2_joint": 1.4598772857170939,
        "distance_wrist_3_joint": 4.240569220870103,
        "smoothness": 0.1155115884124873,
        "time": 0.143666751,
        "traj_len": 3.0112489337942416,
        "weighted_distance": 4.449893900083097
    },
    "planner": "LazyPRM",
    "start": {
        "state": {
            "elbow_joint": 1.919643534880228,
            "shoulder_lift_joint": -1.8972525353963687,
            "shoulder_pan_joint": -1.1188672234189438,
            "wrist_1_joint": -1.5931878212786155,
            "wrist_2_joint": 1.5706036197970081,
            "wrist_3_joint": 1.118896926603594
        }
    },
    "waypoints": [
        {
            "positions": [
                -1.1188672234189438,
                -1.8972525353963687,
                1.919643534880228,
                -1.5931878212786155,
                1.5706036197970081,
                1.118896926603594
            ]
        },
        {
            "positions": [
                -1.0605976368772148,
                -1.8650609648908907,
                1.9074367438863105,
                -1.55701723277222,
                1.5014713160454223,
                0.9308589054532546
            ]
        },
        {
            "positions": [
                -1.0023280503354854,
                -1.8328693943854126,
                1.8952299528923928,
                -1.5208466442658244,
                1.4323390122938364,
                0.7428208843029152
            ]
        },
        {
            "positions": [
                -0.9440584637937562,
                -1.8006778238799346,
                1.8830231618984752,
                -1.484676055759429,
                1.3632067085422508,
                0.5547828631525757
            ]
        },
        {
            "positions": [
                -0.885788877252027,
                -1.7684862533744568,
                1.8708163709045575,
                -1.4485054672530333,
                1.294074404790665,
                0.36674484200223634
            ]
        },
        {
            "positions": [
                -0.827519290710298,
                -1.7362946828689787,
                1.85860957991064,
                -1.4123348787466379,
                1.224942101039079,
                0.17870682085189693
            ]
        },
        {
            "positions": [
                -0.7692497041685686,
                -1.7041031123635006,
                1.8464027889167225,
                -1.3761642902402424,
                1.1558097972874934,
                -0.009331200298442477
            ]
        },
        {
            "positions": [
                -0.7109801176268395,
                -1.6719115418580226,
                1.8341959979228049,
                -1.3399937017338468,
                1.0866774935359076,
                -0.19736922144878188
            ]
        },
        {
            "positions": [
                -0.6527105310851102,
                -1.6397199713525445,
                1.8219892069288872,
                -1.3038231132274514,
                1.0175451897843217,
                -0.3854072425991213
            ]
        },
        {
            "positions": [
                -0.5944409445433811,
                -1.6075284008470665,
                1.8097824159349696,
                -1.267652524721056,
                0.948412886032736,
                -0.5734452637494607
            ]
        },
        {
            "positions": [
                -0.5361713580016519,
                -1.5753368303415884,
                1.797575624941052,
                -1.2314819362146603,
                0.8792805822811501,
                -0.7614832848998001
            ]
        },
        {
            "positions": [
                -0.47790177145992263,
                -1.5431452598361104,
                1.7853688339471343,
                -1.1953113477082646,
                0.8101482785295643,
                -0.94952130605014
            ]
        },
        {
            "positions": [
                -0.41963218491819354,
                -1.5109536893306326,
                1.7731620429532167,
                -1.1591407592018692,
                0.7410159747779785,
                -1.137559327200479
            ]
        },
        {
            "positions": [
                -0.36136259837646423,
                -1.4787621188251545,
                1.760955251959299,
                -1.1229701706954738,
                0.6718836710263927,
                -1.3255973483508188
            ]
        },
        {
            "positions": [
                -0.30309301183473514,
                -1.4465705483196765,
                1.7487484609653814,
                -1.0867995821890784,
                0.6027513672748069,
                -1.5136353695011577
            ]
        },
        {
            "positions": [
                -0.24482342529300594,
                -1.4143789778141984,
                1.7365416699714638,
                -1.0506289936826827,
                0.533619063523221,
                -1.7016733906514976
            ]
        },
        {
            "positions": [
                -0.18655383875127673,
                -1.3821874073087206,
                1.7243348789775463,
                -1.014458405176287,
                0.46448675977163534,
                -1.8897114118018365
            ]
        },
        {
            "positions": [
                -0.12828425220954753,
                -1.3499958368032425,
                1.7121280879836287,
                -0.9782878166698916,
                0.3953544560200495,
                -2.077749432952176
            ]
        },
        {
            "positions": [
                -0.07001466566781844,
                -1.3178042662977645,
                1.699921296989711,
                -0.9421172281634962,
                0.32622215226846385,
                -2.265787454102515
            ]
        },
        {
            "positions": [
                -0.01174507912608913,
                -1.2856126957922864,
                1.6877145059957934,
                -0.9059466396571006,
                0.2570898485168778,
                -2.453825475252855
            ]
        },
        {
            "positions": [
                0.04652450741563996,
                -1.2534211252868084,
                1.6755077150018758,
                -0.8697760511507051,
                0.18795754476529214,
                -2.641863496403194
            ]
        },
        {
            "positions": [
                0.10479409395736924,
                -1.2212295547813303,
                1.6633009240079581,
                -0.8336054626443096,
                0.11882524101370633,
                -2.829901517553534
            ]
        },
        {
            "positions": [
                0.11361247694417279,
                -1.1848477170796876,
                1.8272141396013313,
                -0.8502742099584064,
                0.12287469448060226,
                -2.975786905910022
            ]
        },
        {
            "positions": [
                0.12243085993097634,
                -1.1484658793780447,
                1.9911273551947044,
                -0.8669429572725034,
                0.12692414794749818,
                -3.1216722942665096
            ]
        }
    ]
}