{
    "goal": {
        "global_pose": {
            "orientation": {
                "w": 0.5084816217422485,
                "x": -0.49083608388900757,
                "y": 0.5182115435600281,
                "z": -0.4816462993621826
            },
            "position": {
                "x": 0.5540239810943604,
                "y": 0.030875300988554955,
                "z": 0.16403168439865112
            }
        },
        "name": "move_to_storage_A"
    },
    "id": "LazyPRM_move_to_storage_A_49",
    "joint_names": [
        "shoulder_pan_joint",
        "shoulder_lift_joint",
        "elbow_joint",
        "wrist_1_joint",
        "wrist_2_joint",
        "wrist_3_joint"
    ],
    "metrics": {
        "cart_traj_len": 0.3535945466225406,
        "distance_elbow_joint": 0.45175288676234304,
        "distance_shoulder_lift_joint": 0.23427774433229342,
        "distance_shoulder_pan_joint": 0.46394301365436275,
        "distance_wrist_1_joint": 0.2466616501152582,
        "distance_wrist_2_joint": 1.0935236729343911,
        "distance_wrist_3_joint": 0.09732692925736997,
        "smoothness": 9.992007236661072e-16,
        "time": 0.022080694999999997,
        "traj_len": 1.6085664105208768,
        "weighted_distance": 2.0303509742456862
    },
    "planner": "LazyPRM",
    "start": {
        "state": {
            "elbow_joint": 1.9715477243005601,
            "shoulder_lift_joint": -1.1394853015351272,
            "shoulder_pan_joint": 0.12281154014795169,
            "wrist_1_joint": -0.7804696478968182,
            "wrist_2_joint": 0.12958648046900423,
            "wrist_3_joint": -3.192491284697111
        }
    },
    "waypoints": [
        {
            "positions": [
                0.12281154014795169,
                -1.1394853015351272,
                1.9715477243005601,
                -0.7804696478968182,
                0.12958648046900423,
                -3.192491284697111
            ]
        },
        {
            "positions": [
                0.05653396676875702,
                -1.1729535507254547,
                2.0360838509808947,
                -0.8157070264847122,
                0.28580414803106013,
                -3.1785874376603442
            ]
        },
        {
            "positions": [
                -0.009743606610437647,
                -1.2064217999157825,
                2.1006199776612298,
                -0.8509444050726063,
                0.442021815593116,
                -3.164683590623577
            ]
        },
        {
            "positions": [
                -0.07602117998963233,
                -1.23989004910611,
                2.1651561043415644,
                -0.8861817836605003,
                0.5982394831551718,
                -3.15077974358681
            ]
        },
        {
            "positions": [
                -0.14229875336882697,
                -1.2733582982964378,
                2.229692231021899,
                -0.9214191622483943,
                0.7544571507172277,
                -3.1368758965500425
            ]
        },
        {
            "positions": [
                -0.20857632674802168,
                -1.3068265474867653,
                2.2942283577022335,
                -0.9566565408362884,
                0.9106748182792836,
                -3.1229720495132756
            ]
        },
        {
            "positions": [
                -0.27485390012721633,
                -1.3402947966770928,
                2.3587644843825686,
                -0.9918939194241823,
                1.0668924858413393,
                -3.109068202476508
            ]
        },
        {
            "positions": [
                -0.34113147350641104,
                -1.3737630458674206,
                2.423300611062903,
                -1.0271312980120764,
                1.2231101534033952,
                -3.095164355439741
            ]
        }
    ]
}