{
    "goal": {
        "global_pose": {
            "orientation": {
                "w": 0.7047431468963623,
                "x": -0.7094548344612122,
                "y": 0.0024358443915843964,
                "z": -0.0022348060738295317
            },
            "position": {
                "x": 0.6094750761985779,
                "y": 0.3671506643295288,
                "z": 0.19426114857196808
            }
        },
        "name": "move_to_magneteinheit_A"
    },
    "id": "LazyPRMstar_move_to_magneteinheit_A_115",
    "joint_names": [
        "shoulder_pan_joint",
        "shoulder_lift_joint",
        "elbow_joint",
        "wrist_1_joint",
        "wrist_2_joint",
        "wrist_3_joint"
    ],
    "metrics": {
        "cart_traj_len": 2.953925796894541,
        "distance_elbow_joint": 3.907818932610906,
        "distance_shoulder_lift_joint": 0.47021651436192435,
        "distance_shoulder_pan_joint": 2.577205777747837,
        "distance_wrist_1_joint": 3.4966340285067377,
        "distance_wrist_2_joint": 1.4411119266505665,
        "distance_wrist_3_joint": 0.4192724292828327,
        "smoothness": 0.029408830674795893,
        "time": 5.067586208,
        "traj_len": 3.5088829574610783,
        "weighted_distance": 4.253063651402806
    },
    "planner": "LazyPRMstar",
    "start": {
        "state": {
            "elbow_joint": -1.919618573717145,
            "shoulder_lift_joint": -1.2443395971678275,
            "shoulder_pan_joint": 2.6996025300909787,
            "wrist_1_joint": -1.548550951253194,
            "wrist_2_joint": -1.5709469090946802,
            "wrist_3_joint": 0.4420197732051276
        }
    },
    "waypoints": [
        {
            "positions": [
                2.6996025300909787,
                -1.2443395971678275,
                -1.919618573717145,
                -1.548550951253194,
                -1.5709469090946802,
                0.4420197732051276
            ]
        },
        {
            "positions": [
                2.599297824439985,
                -1.2309114769782568,
                -1.8569699967045181,
                -1.404863075007009,
                -1.5210135271087255,
                0.42457691309184586
            ]
        },
        {
            "positions": [
                2.4989931187889916,
                -1.2174833567886858,
                -1.7943214196918913,
                -1.261175198760824,
                -1.4710801451227709,
                0.4071340529785642
            ]
        },
        {
            "positions": [
                2.398688413137998,
                -1.204055236599115,
                -1.7316728426792645,
                -1.117487322514639,
                -1.4211467631368162,
                0.3896911928652825
            ]
        },
        {
            "positions": [
                2.2983837074870044,
                -1.1906271164095443,
                -1.6690242656666376,
                -0.9737994462684537,
                -1.3712133811508616,
                0.37224833275200075
            ]
        },
        {
            "positions": [
                2.1980790018360112,
                -1.1771989962199734,
                -1.6063756886540108,
                -0.8301115700222687,
                -1.321279999164907,
                0.3548054726387191
            ]
        },
        {
            "positions": [
                2.0977742961850177,
                -1.1637708760304026,
                -1.543727111641384,
                -0.6864236937760836,
                -1.2713466171789523,
                0.33736261252543737
            ]
        },
        {
            "positions": [
                1.997469590534024,
                -1.150342755840832,
                -1.4810785346287572,
                -0.5427358175298984,
                -1.2214132351929976,
                0.31991975241215564
            ]
        },
        {
            "positions": [
                1.8971648848830305,
                -1.136914635651261,
                -1.4184299576161303,
                -0.39904794128371335,
                -1.171479853207043,
                0.302476892298874
            ]
        },
        {
            "positions": [
                1.796860179232037,
                -1.1234865154616902,
                -1.3557813806035035,
                -0.2553600650375283,
                -1.1215464712210883,
                0.28503403218559226
            ]
        },
        {
            "positions": [
                1.6965554735810433,
                -1.1100583952721195,
                -1.2931328035908767,
                -0.11167218879134322,
                -1.0716130892351337,
                0.26759117207231053
            ]
        },
        {
            "positions": [
                1.5962507679300497,
                -1.0966302750825485,
                -1.2304842265782499,
                0.032015687454841846,
                -1.021679707249179,
                0.25014831195902887
            ]
        },
        {
            "positions": [
                1.4959460622790564,
                -1.0832021548929778,
                -1.1678356495656232,
                0.1757035637010269,
                -0.9717463252632244,
                0.23270545184574717
            ]
        },
        {
            "positions": [
                1.3956413566280625,
                -1.069774034703407,
                -1.1051870725529962,
                0.3193914399472122,
                -0.9218129432772697,
                0.21526259173246545
            ]
        },
        {
            "positions": [
                1.2953366509770692,
                -1.056345914513836,
                -1.0425384955403694,
                0.46307931619339726,
                -0.871879561291315,
                0.19781973161918376
            ]
        },
        {
            "positions": [
                1.1950319453260756,
                -1.0429177943242653,
                -0.9798899185277427,
                0.6067671924395821,
                -0.8219461793053604,
                0.1803768715059021
            ]
        },
        {
            "positions": [
                1.094727239675082,
                -1.0294896741346946,
                -0.9172413415151157,
                0.7504550686857674,
                -0.7720127973194058,
                0.16293401139262037
            ]
        },
        {
            "positions": [
                0.9944225340240884,
                -1.0160615539451239,
                -0.8545927645024889,
                0.8941429449319522,
                -0.7220794153334511,
                0.14549115127933865
            ]
        },
        {
            "positions": [
                0.8941178283730948,
                -1.002633433755553,
                -0.7919441874898621,
                1.0378308211781375,
                -0.6721460333474965,
                0.12804829116605693
            ]
        },
        {
            "positions": [
                0.7938131227221012,
                -0.9892053135659822,
                -0.7292956104772352,
                1.1815186974243224,
                -0.6222126513615418,
                0.11060543105277526
            ]
        },
        {
            "positions": [
                0.6935084170711079,
                -0.9757771933764114,
                -0.6666470334646084,
                1.3252065736705076,
                -0.5722792693755872,
                0.09316257093949354
            ]
        },
        {
            "positions": [
                0.5932037114201143,
                -0.9623490731868405,
                -0.6039984564519816,
                1.468894449916693,
                -0.5223458873896325,
                0.07571971082621182
            ]
        },
        {
            "positions": [
                0.4928990057691205,
                -0.9489209529972698,
                -0.5413498794393546,
                1.6125823261628776,
                -0.47241250540367796,
                0.05827685071293015
            ]
        },
        {
            "positions": [
                0.447844885236209,
                -0.930167987538361,
                -0.30678535147231306,
                1.651665842247488,
                -0.4349438662830878,
                0.054017783459878635
            ]
        },
        {
            "positions": [
                0.40279076470329755,
                -0.9114150220794524,
                -0.07222082350527148,
                1.690749358332098,
                -0.39747522716249756,
                0.04975871620682711
            ]
        },
        {
            "positions": [
                0.3577366441703861,
                -0.8926620566205437,
                0.16234370446177004,
                1.7298328744167084,
                -0.3600065880419073,
                0.04549964895377559
            ]
        },
        {
            "positions": [
                0.3126825236374746,
                -0.873909091161635,
                0.3969082324288117,
                1.7689163905013188,
                -0.32253794892131715,
                0.041240581700724074
            ]
        },
        {
            "positions": [
                0.26762840310456315,
                -0.8551561257027264,
                0.6314727603958533,
                1.807999906585929,
                -0.285069309800727,
                0.03698151444767256
            ]
        },
        {
            "positions": [
                0.22257428257165163,
                -0.8364031602438177,
                0.8660372883628947,
                1.8470834226705393,
                -0.24760067068013675,
                0.032722447194621036
            ]
        },
        {
            "positions": [
                0.17752016203874016,
                -0.817650194784909,
                1.1006018163299363,
                1.8861669387551494,
                -0.21013203155954652,
                0.028463379941569517
            ]
        },
        {
            "positions": [
                0.1324660415058287,
                -0.7988972293260003,
                1.335166344296978,
                1.9252504548397598,
                -0.17266339243895634,
                0.024204312688517998
            ]
        },
        {
            "positions": [
                0.12743139692448552,
                -0.7865101560659518,
                1.6616833515953697,
                1.9138341436328683,
                -0.15124918744153537,
                0.02347582830540646
            ]
        },
        {
            "positions": [
                0.12239675234314232,
                -0.7741230828059031,
                1.9882003588937613,
                1.9024178324259766,
                -0.12983498244411437,
                0.022747343922294928
            ]
        }
    ]
}{
    "goal": {
        "global_pose": {
            "orientation": {
                "w": 0.7047431468963623,
                "x": -0.7094548344612122,
                "y": 0.0024358443915843964,
                "z": -0.0022348060738295317
            },
            "position": {
                "x": 0.6094750761985779,
                "y": 0.3671506643295288,
                "z": 0.19426114857196808
            }
        },
        "name": "move_to_magneteinheit_A"
    },
    "id": "LazyPRMstar_move_to_magneteinheit_A_115",
    "joint_names": [
        "shoulder_pan_joint",
        "shoulder_lift_joint",
        "elbow_joint",
        "wrist_1_joint",
        "wrist_2_joint",
        "wrist_3_joint"
    ],
    "metrics": {
        "cart_traj_len": 1.473400024973649,
        "distance_elbow_joint": 0.834898383407702,
        "distance_shoulder_lift_joint": 0.7565908282003961,
        "distance_shoulder_pan_joint": 1.2434081841564713,
        "distance_wrist_1_joint": 0.8119777674539754,
        "distance_wrist_2_joint": 1.4373411635590996,
        "distance_wrist_3_joint": 4.310875650862405,
        "smoothness": 0.09258991097741359,
        "time": 5.021881552,
        "traj_len": 3.0651414286522,
        "weighted_distance": 4.501795442973608
    },
    "planner": "LazyPRMstar",
    "start": {
        "state": {
            "elbow_joint": 1.919643534880228,
            "shoulder_lift_joint": -1.8972525353963687,
            "shoulder_pan_joint": -1.1188672234189438,
            "wrist_1_joint": -1.5931878212786155,
            "wrist_2_joint": 1.5706036197970081,
            "wrist_3_joint": 1.118896926603594
        }
    },
    "waypoints": [
        {
            "positions": [
                -1.1188672234189438,
                -1.8972525353963687,
                1.919643534880228,
                -1.5931878212786155,
                1.5706036197970081,
                1.118896926603594
            ]
        },
        {
            "positions": [
                -1.118904898039009,
                -1.8652700741121897,
                1.9640725844442215,
                -1.518191420952994,
                1.5444663572358606,
                0.9086364018503272
            ]
        },
        {
            "positions": [
                -1.118942572659074,
                -1.8332876128280107,
                2.008501634008215,
                -1.443195020627373,
                1.5183290946747128,
                0.6983758770970605
            ]
        },
        {
            "positions": [
                -1.118980247279139,
                -1.8013051515438316,
                2.0529306835722085,
                -1.3681986203017515,
                1.4921918321135652,
                0.4881153523437938
            ]
        },
        {
            "positions": [
                -1.1190179218992042,
                -1.7693226902596526,
                2.097359733136202,
                -1.2932022199761302,
                1.4660545695524174,
                0.27785482759052704
            ]
        },
        {
            "positions": [
                -1.1190555965192694,
                -1.7373402289754738,
                2.1417887827001953,
                -1.218205819650509,
                1.4399173069912699,
                0.06759430283726031
            ]
        },
        {
            "positions": [
                -1.1190932711393344,
                -1.7053577676912948,
                2.1862178322641888,
                -1.1432094193248878,
                1.4137800444301223,
                -0.14266622191600642
            ]
        },
        {
            "positions": [
                -1.1191309457593994,
                -1.6733753064071157,
                2.230646881828182,
                -1.0682130189992665,
                1.3876427818689745,
                -0.35292674666927315
            ]
        },
        {
            "positions": [
                -1.1191686203794646,
                -1.6413928451229367,
                2.2750759313921756,
                -0.9932166186736451,
                1.361505519307827,
                -0.5631872714225399
            ]
        },
        {
            "positions": [
                -1.1192062949995298,
                -1.6094103838387577,
                2.319504980956169,
                -0.9182202183480238,
                1.3353682567466791,
                -0.7734477961758066
            ]
        },
        {
            "positions": [
                -1.1192439696195948,
                -1.5774279225545786,
                2.3639340305201624,
                -0.8432238180224025,
                1.3092309941855316,
                -0.9837083209290732
            ]
        },
        {
            "positions": [
                -1.0304560097656077,
                -1.5462303357432496,
                2.336033467108179,
                -0.838794263436848,
                1.2252332414749871,
                -1.1414419211669116
            ]
        },
        {
            "positions": [
                -0.9416680499116206,
                -1.5150327489319206,
                2.3081329036961957,
                -0.8343647088512937,
                1.1412354887644427,
                -1.29917552140475
            ]
        },
        {
            "positions": [
                -0.8528800900576334,
                -1.4838351621205916,
                2.280232340284212,
                -0.8299351542657392,
                1.057237736053898,
                -1.4569091216425885
            ]
        },
        {
            "positions": [
                -0.7640921302036462,
                -1.4526375753092626,
                2.2523317768722286,
                -0.8255055996801847,
                0.9732399833433536,
                -1.614642721880427
            ]
        },
        {
            "positions": [
                -0.675304170349659,
                -1.4214399884979336,
                2.2244312134602455,
                -0.8210760450946302,
                0.889242230632809,
                -1.7723763221182653
            ]
        },
        {
            "positions": [
                -0.5865162104956719,
                -1.3902424016866046,
                2.196530650048262,
                -0.8166464905090758,
                0.8052444779222646,
                -1.9301099223561038
            ]
        },
        {
            "positions": [
                -0.4977282506416847,
                -1.3590448148752756,
                2.1686300866362784,
                -0.8122169359235213,
                0.7212467252117201,
                -2.0878435225939422
            ]
        },
        {
            "positions": [
                -0.40894029078769756,
                -1.3278472280639466,
                2.1407295232242953,
                -0.8077873813379668,
                0.6372489725011756,
                -2.2455771228317807
            ]
        },
        {
            "positions": [
                -0.3201523309337103,
                -1.2966496412526176,
                2.112828959812312,
                -0.8033578267524124,
                0.553251219790631,
                -2.403310723069619
            ]
        },
        {
            "positions": [
                -0.23136437107972319,
                -1.2654520544412886,
                2.0849283964003282,
                -0.7989282721668579,
                0.46925346708008653,
                -2.5610443233074576
            ]
        },
        {
            "positions": [
                -0.14257641122573605,
                -1.2342544676299596,
                2.0570278329883447,
                -0.7944987175813034,
                0.3852557143695421,
                -2.718777923545296
            ]
        },
        {
            "positions": [
                -0.053788451371749035,
                -1.2030568808186306,
                2.0291272695763616,
                -0.7900691629957489,
                0.30125796165899765,
                -2.8765115237831345
            ]
        },
        {
            "positions": [
                0.03499950848223832,
                -1.1718592940073016,
                2.001226706164378,
                -0.7856396084101945,
                0.217260208948453,
                -3.034245124020973
            ]
        },
        {
            "positions": [
                0.12378746833622546,
                -1.1406617071959726,
                1.9733261427523947,
                -0.78121005382464,
                0.13326245623790856,
                -3.1919787242588114
            ]
        }
    ]
}