{
    "goal": {
        "global_pose": {
            "orientation": {
                "w": 0.5084816217422485,
                "x": -0.49083608388900757,
                "y": 0.5182115435600281,
                "z": -0.4816462993621826
            },
            "position": {
                "x": 0.5540239810943604,
                "y": 0.030875300988554955,
                "z": 0.16403168439865112
            }
        },
        "name": "move_to_storage_A"
    },
    "id": "LazyPRM_move_to_storage_A_145",
    "joint_names": [
        "shoulder_pan_joint",
        "shoulder_lift_joint",
        "elbow_joint",
        "wrist_1_joint",
        "wrist_2_joint",
        "wrist_3_joint"
    ],
    "metrics": {
        "cart_traj_len": 0.352898846212879,
        "distance_elbow_joint": 0.45296605183656125,
        "distance_shoulder_lift_joint": 0.233594982975734,
        "distance_shoulder_pan_joint": 0.46131320385549585,
        "distance_wrist_1_joint": 0.2522571369485417,
        "distance_wrist_2_joint": 1.0994809891732609,
        "distance_wrist_3_joint": 0.09771517619621095,
        "smoothness": 6.661338165333112e-16,
        "time": 0.011977753,
        "traj_len": 1.6116226422416027,
        "weighted_distance": 2.03580353165526
    },
    "planner": "LazyPRM",
    "start": {
        "state": {
            "elbow_joint": 1.9715477243005601,
            "shoulder_lift_joint": -1.1394853015351272,
            "shoulder_pan_joint": 0.12281154014795169,
            "wrist_1_joint": -0.7804696478968182,
            "wrist_2_joint": 0.12958648046900423,
            "wrist_3_joint": -3.192491284697111
        }
    },
    "waypoints": [
        {
            "positions": [
                0.12281154014795169,
                -1.1394853015351272,
                1.9715477243005601,
                -0.7804696478968182,
                0.12958648046900423,
                -3.192491284697111
            ]
        },
        {
            "positions": [
                0.056909653882880856,
                -1.1728560133888035,
                2.036257160277212,
                -0.8165063817466098,
                0.28665519320804145,
                -3.178531973811938
            ]
        },
        {
            "positions": [
                -0.008992232382189977,
                -1.2062267252424796,
                2.1009665962538633,
                -0.8525431155964015,
                0.4437239059470787,
                -3.164572662926765
            ]
        },
        {
            "positions": [
                -0.0748941186472608,
                -1.239597437096156,
                2.165676032230515,
                -0.8885798494461932,
                0.600792618686116,
                -3.150613352041592
            ]
        },
        {
            "positions": [
                -0.14079600491233163,
                -1.2729681489498323,
                2.2303854682071664,
                -0.9246165832959848,
                0.7578613314251532,
                -3.136654041156419
            ]
        },
        {
            "positions": [
                -0.2066978911774025,
                -1.3063388608035087,
                2.2950949041838182,
                -0.9606533171457765,
                0.9149300441641905,
                -3.1226947302712462
            ]
        },
        {
            "positions": [
                -0.27259977744247327,
                -1.3397095726571848,
                2.3598043401604696,
                -0.9966900509955682,
                1.0719987569032279,
                -3.1087354193860732
            ]
        },
        {
            "positions": [
                -0.33850166370754414,
                -1.3730802845108612,
                2.4245137761371214,
                -1.0327267848453598,
                1.229067469642265,
                -3.0947761085009002
            ]
        }
    ]
}