{
    "goal": {
        "global_pose": {
            "orientation": {
                "w": 0.5084816217422485,
                "x": -0.49083608388900757,
                "y": 0.5182115435600281,
                "z": -0.4816462993621826
            },
            "position": {
                "x": 0.5540239810943604,
                "y": 0.030875300988554955,
                "z": 0.16403168439865112
            }
        },
        "name": "move_to_storage_A"
    },
    "id": "LazyPRM_move_to_storage_A_121",
    "joint_names": [
        "shoulder_pan_joint",
        "shoulder_lift_joint",
        "elbow_joint",
        "wrist_1_joint",
        "wrist_2_joint",
        "wrist_3_joint"
    ],
    "metrics": {
        "cart_traj_len": 0.3530106834322992,
        "distance_elbow_joint": 0.4522648322324532,
        "distance_shoulder_lift_joint": 0.23475406812165978,
        "distance_shoulder_pan_joint": 0.46263325185055365,
        "distance_wrist_1_joint": 0.2527452200640702,
        "distance_wrist_2_joint": 1.0946056379964944,
        "distance_wrist_3_joint": 0.10062502880102642,
        "smoothness": 6.661338165333112e-16,
        "time": 0.02205794,
        "traj_len": 1.61171586796999,
        "weighted_distance": 2.0362291017291922
    },
    "planner": "LazyPRM",
    "start": {
        "state": {
            "elbow_joint": 1.9715477243005601,
            "shoulder_lift_joint": -1.1394853015351272,
            "shoulder_pan_joint": 0.12281154014795169,
            "wrist_1_joint": -0.7804696478968182,
            "wrist_2_joint": 0.12958648046900423,
            "wrist_3_joint": -3.192491284697111
        }
    },
    "waypoints": [
        {
            "positions": [
                0.12281154014795169,
                -1.1394853015351272,
                1.9715477243005601,
                -0.7804696478968182,
                0.12958648046900423,
                -3.192491284697111
            ]
        },
        {
            "positions": [
                0.056721075597872594,
                -1.1730215969810787,
                2.0361569860480535,
                -0.816576107905971,
                0.2859587144685034,
                -3.178116280582679
            ]
        },
        {
            "positions": [
                -0.0093693889522065,
                -1.20655789242703,
                2.100766247795547,
                -0.852682567915124,
                0.4423309484680026,
                -3.1637412764682464
            ]
        },
        {
            "positions": [
                -0.07545985350228558,
                -1.2400941878729814,
                2.1653755095430403,
                -0.8887890279242768,
                0.5987031824675018,
                -3.1493662723538143
            ]
        },
        {
            "positions": [
                -0.14155031805236468,
                -1.2736304833189327,
                2.229984771290533,
                -0.9248954879334297,
                0.7550754164670009,
                -3.1349912682393817
            ]
        },
        {
            "positions": [
                -0.20764078260244379,
                -1.3071667787648842,
                2.2945940330380266,
                -0.9610019479425826,
                0.9114476504665002,
                -3.1206162641249495
            ]
        },
        {
            "positions": [
                -0.27373124715252284,
                -1.3407030742108355,
                2.35920329478552,
                -0.9971084079517354,
                1.0678198844659992,
                -3.106241260010517
            ]
        },
        {
            "positions": [
                -0.33982171170260195,
                -1.374239369656787,
                2.4238125565330133,
                -1.0332148679608884,
                1.2241921184654985,
                -3.0918662558960848
            ]
        }
    ]
}