{
    "goal": {
        "global_pose": {
            "orientation": {
                "w": 0.5084816217422485,
                "x": -0.49083608388900757,
                "y": 0.5182115435600281,
                "z": -0.4816462993621826
            },
            "position": {
                "x": 0.5540239810943604,
                "y": 0.030875300988554955,
                "z": 0.16403168439865112
            }
        },
        "name": "move_to_storage_A"
    },
    "id": "LazyPRMstar_move_to_storage_A_91",
    "joint_names": [
        "shoulder_pan_joint",
        "shoulder_lift_joint",
        "elbow_joint",
        "wrist_1_joint",
        "wrist_2_joint",
        "wrist_3_joint"
    ],
    "metrics": {
        "cart_traj_len": 0.3530765775705588,
        "distance_elbow_joint": 0.454033715794671,
        "distance_shoulder_lift_joint": 0.2345911786631607,
        "distance_shoulder_pan_joint": 0.4635023105616338,
        "distance_wrist_1_joint": 0.2558459962635581,
        "distance_wrist_2_joint": 1.0919063002989162,
        "distance_wrist_3_joint": 0.1070631095828598,
        "smoothness": 8.881784197001252e-16,
        "time": 5.000859008,
        "traj_len": 1.6146029267794606,
        "weighted_distance": 2.041769116940746
    },
    "planner": "LazyPRMstar",
    "start": {
        "state": {
            "elbow_joint": 1.9715477243005601,
            "shoulder_lift_joint": -1.1394853015351272,
            "shoulder_pan_joint": 0.12281154014795169,
            "wrist_1_joint": -0.7804696478968182,
            "wrist_2_joint": 0.12958648046900423,
            "wrist_3_joint": -3.192491284697111
        }
    },
    "waypoints": [
        {
            "positions": [
                0.12281154014795169,
                -1.1394853015351272,
                1.9715477243005601,
                -0.7804696478968182,
                0.12958648046900423,
                -3.192491284697111
            ]
        },
        {
            "positions": [
                0.05659692435343258,
                -1.1729983270584359,
                2.036409683699799,
                -0.8170190759344693,
                0.2855730947974208,
                -3.1771965547567027
            ]
        },
        {
            "positions": [
                -0.009617691441086526,
                -1.2065113525817446,
                2.1012716430990377,
                -0.8535685039721205,
                0.4415597091258374,
                -3.1619018248162942
            ]
        },
        {
            "positions": [
                -0.07583230723560565,
                -1.2400243781050533,
                2.1661336024982765,
                -0.8901179320097716,
                0.597546323454254,
                -3.1466070948758857
            ]
        },
        {
            "positions": [
                -0.14204692303012473,
                -1.2735374036283618,
                2.230995561897515,
                -0.9266673600474228,
                0.7535329377826706,
                -3.131312364935477
            ]
        },
        {
            "positions": [
                -0.20826153882464388,
                -1.3070504291516705,
                2.2958575212967536,
                -0.9632167880850739,
                0.9095195521110873,
                -3.1160176349950683
            ]
        },
        {
            "positions": [
                -0.27447615461916297,
                -1.3405634546749792,
                2.3607194806959924,
                -0.9997662161227251,
                1.0655061664395038,
                -3.10072290505466
            ]
        },
        {
            "positions": [
                -0.3406907704136821,
                -1.3740764801982879,
                2.425581440095231,
                -1.0363156441603762,
                1.2214927807679206,
                -3.0854281751142514
            ]
        }
    ]
}