{
    "goal": {
        "global_pose": {
            "orientation": {
                "w": 0.7047431468963623,
                "x": -0.7094548344612122,
                "y": 0.0024358443915843964,
                "z": -0.0022348060738295317
            },
            "position": {
                "x": 0.6094750761985779,
                "y": 0.3671506643295288,
                "z": 0.19426114857196808
            }
        },
        "name": "move_to_magneteinheit_A"
    },
    "id": "LazyPRM_move_to_magneteinheit_A_148",
    "joint_names": [
        "shoulder_pan_joint",
        "shoulder_lift_joint",
        "elbow_joint",
        "wrist_1_joint",
        "wrist_2_joint",
        "wrist_3_joint"
    ],
    "metrics": {
        "cart_traj_len": 3.8390821476679444,
        "distance_elbow_joint": 3.9057922438660047,
        "distance_shoulder_lift_joint": 1.0231819497573915,
        "distance_shoulder_pan_joint": 2.661357770758554,
        "distance_wrist_1_joint": 0.6951856404896074,
        "distance_wrist_2_joint": 2.079876607033354,
        "distance_wrist_3_joint": 3.5718879534781736,
        "smoothness": 0.22323700137404298,
        "time": 0.15190383200000002,
        "traj_len": 3.733266956083248,
        "weighted_distance": 4.884272752402592
    },
    "planner": "LazyPRM",
    "start": {
        "state": {
            "elbow_joint": -1.919618573717145,
            "shoulder_lift_joint": -1.2443395971678275,
            "shoulder_pan_joint": 2.6996025300909787,
            "wrist_1_joint": -1.548550951253194,
            "wrist_2_joint": -1.5709469090946802,
            "wrist_3_joint": 0.4420197732051276
        }
    },
    "waypoints": [
        {
            "positions": [
                2.6996025300909787,
                -1.2443395971678275,
                -1.919618573717145,
                -1.548550951253194,
                -1.5709469090946802,
                0.4420197732051276
            ]
        },
        {
            "positions": [
                2.6296684080692194,
                -1.2148663459209736,
                -1.8454101109125558,
                -1.539723363978274,
                -1.508538236604949,
                0.29092257960768486
            ]
        },
        {
            "positions": [
                2.55973428604746,
                -1.1853930946741198,
                -1.7712016481079664,
                -1.530895776703354,
                -1.4461295641152176,
                0.13982538601024208
            ]
        },
        {
            "positions": [
                2.489800164025701,
                -1.155919843427266,
                -1.6969931853033773,
                -1.5220681894284338,
                -1.3837208916254864,
                -0.0112718075872007
            ]
        },
        {
            "positions": [
                2.4198660420039415,
                -1.1264465921804119,
                -1.622784722498788,
                -1.5132406021535139,
                -1.3213122191357551,
                -0.16236900118464342
            ]
        },
        {
            "positions": [
                2.3499319199821818,
                -1.096973340933558,
                -1.5485762596941988,
                -1.5044130148785937,
                -1.258903546646024,
                -0.3134661947820862
            ]
        },
        {
            "positions": [
                2.2799977979604225,
                -1.0675000896867042,
                -1.4743677968896094,
                -1.4955854276036737,
                -1.1964948741562929,
                -0.464563388379529
            ]
        },
        {
            "positions": [
                2.210063675938663,
                -1.0380268384398503,
                -1.4001593340850202,
                -1.4867578403287536,
                -1.1340862016665616,
                -0.6156605819769716
            ]
        },
        {
            "positions": [
                2.140129553916904,
                -1.0085535871929965,
                -1.325950871280431,
                -1.4779302530538336,
                -1.0716775291768303,
                -0.7667577755744144
            ]
        },
        {
            "positions": [
                2.0701954318951445,
                -0.9790803359461426,
                -1.2517424084758417,
                -1.4691026657789135,
                -1.009268856687099,
                -0.9178549691718572
            ]
        },
        {
            "positions": [
                2.0002613098733852,
                -0.9496070846992887,
                -1.1775339456712524,
                -1.4602750785039935,
                -0.9468601841973678,
                -1.0689521627693
            ]
        },
        {
            "positions": [
                1.9303271878516257,
                -0.9201338334524347,
                -1.103325482866663,
                -1.4514474912290733,
                -0.8844515117076366,
                -1.220049356366743
            ]
        },
        {
            "positions": [
                1.8603930658298664,
                -0.8906605822055809,
                -1.029117020062074,
                -1.4426199039541534,
                -0.8220428392179054,
                -1.3711465499641855
            ]
        },
        {
            "positions": [
                1.7904589438081069,
                -0.861187330958727,
                -0.9549085572574846,
                -1.4337923166792332,
                -0.7596341667281742,
                -1.5222437435616285
            ]
        },
        {
            "positions": [
                1.7205248217863476,
                -0.8317140797118732,
                -0.8807000944528955,
                -1.4249647294043133,
                -0.6972254942384429,
                -1.6733409371590708
            ]
        },
        {
            "positions": [
                1.6505906997645883,
                -0.8022408284650192,
                -0.8064916316483062,
                -1.4161371421293931,
                -0.6348168217487117,
                -1.8244381307565138
            ]
        },
        {
            "positions": [
                1.580656577742829,
                -0.7727675772181654,
                -0.732283168843717,
                -1.4073095548544732,
                -0.5724081492589805,
                -1.9755353243539564
            ]
        },
        {
            "positions": [
                1.5107224557210694,
                -0.7432943259713115,
                -0.6580747060391277,
                -1.398481967579553,
                -0.5099994767692493,
                -2.1266325179513994
            ]
        },
        {
            "positions": [
                1.4407883336993104,
                -0.7138210747244577,
                -0.5838662432345385,
                -1.389654380304633,
                -0.44759080427951803,
                -2.277729711548842
            ]
        },
        {
            "positions": [
                1.3708542116775508,
                -0.6843478234776037,
                -0.509657780429949,
                -1.380826793029713,
                -0.3851821317897868,
                -2.428826905146285
            ]
        },
        {
            "positions": [
                1.278648853318537,
                -0.7134364785096704,
                -0.36936220843706014,
                -1.3595462018215223,
                -0.335082515418641,
                -2.478724779828665
            ]
        },
        {
            "positions": [
                1.1864434949595228,
                -0.742525133541737,
                -0.22906663644417125,
                -1.3382656106133317,
                -0.2849828990474952,
                -2.528622654511045
            ]
        },
        {
            "positions": [
                1.094238136600509,
                -0.7716137885738037,
                -0.08877106445128236,
                -1.3169850194051411,
                -0.23488328267634936,
                -2.578520529193425
            ]
        },
        {
            "positions": [
                1.002032778241495,
                -0.8007024436058703,
                0.051524507541606535,
                -1.2957044281969505,
                -0.18478366630520354,
                -2.628418403875805
            ]
        },
        {
            "positions": [
                0.909827419882481,
                -0.829791098637937,
                0.19182007953449542,
                -1.27442383698876,
                -0.1346840499340577,
                -2.678316278558185
            ]
        },
        {
            "positions": [
                0.817622061523467,
                -0.8588797536700036,
                0.3321156515273843,
                -1.2531432457805693,
                -0.08458443356291195,
                -2.728214153240565
            ]
        },
        {
            "positions": [
                0.725416703164453,
                -0.8879684087020703,
                0.4724112235202732,
                -1.231862654572379,
                -0.034484817191766104,
                -2.778112027922945
            ]
        },
        {
            "positions": [
                0.6332113448054391,
                -0.9170570637341369,
                0.6127067955131621,
                -1.2105820633641884,
                0.01561479917937969,
                -2.828009902605325
            ]
        },
        {
            "positions": [
                0.541005986446425,
                -0.9461457187662037,
                0.753002367506051,
                -1.1893014721559978,
                0.06571441555052554,
                -2.877907777287705
            ]
        },
        {
            "positions": [
                0.44880062808741095,
                -0.9752343737982703,
                0.8932979394989399,
                -1.1680208809478072,
                0.11581403192167139,
                -2.9278056519700852
            ]
        },
        {
            "positions": [
                0.35659526972839695,
                -1.0043230288303369,
                1.0335935114918287,
                -1.1467402897396166,
                0.16591364829281707,
                -2.9777035266524647
            ]
        },
        {
            "positions": [
                0.26438991136938306,
                -1.0334116838624035,
                1.1738890834847178,
                -1.125459698531426,
                0.21601326466396287,
                -3.027601401334845
            ]
        },
        {
            "positions": [
                0.17218455301036895,
                -1.0625003388944703,
                1.3141846554776064,
                -1.1041791073232354,
                0.2661128810351088,
                -3.077499276017225
            ]
        },
        {
            "positions": [
                0.07997919465135511,
                -1.0915889939265369,
                1.4544802274704955,
                -1.0828985161150448,
                0.3162124974062545,
                -3.127397150699605
            ]
        },
        {
            "positions": [
                0.09389067309099898,
                -1.1102386624659484,
                1.6317113750299506,
                -1.006387447664559,
                0.2519734305621147,
                -3.1265734741751245
            ]
        },
        {
            "positions": [
                0.10780215153064283,
                -1.12888833100536,
                1.8089425225894056,
                -0.9298763792140727,
                0.1877343637179749,
                -3.1257497976506445
            ]
        },
        {
            "positions": [
                0.1217136299702867,
                -1.1475379995447714,
                1.9861736701488608,
                -0.8533653107635867,
                0.12349529687383506,
                -3.124926121126164
            ]
        }
    ]
}{
    "goal": {
        "global_pose": {
            "orientation": {
                "w": 0.7047431468963623,
                "x": -0.7094548344612122,
                "y": 0.0024358443915843964,
                "z": -0.0022348060738295317
            },
            "position": {
                "x": 0.6094750761985779,
                "y": 0.3671506643295288,
                "z": 0.19426114857196808
            }
        },
        "name": "move_to_magneteinheit_A"
    },
    "id": "LazyPRM_move_to_magneteinheit_A_148",
    "joint_names": [
        "shoulder_pan_joint",
        "shoulder_lift_joint",
        "elbow_joint",
        "wrist_1_joint",
        "wrist_2_joint",
        "wrist_3_joint"
    ],
    "metrics": {
        "cart_traj_len": 2.1259176072793027,
        "distance_elbow_joint": 2.239126019799941,
        "distance_shoulder_lift_joint": 2.2153296078256384,
        "distance_shoulder_pan_joint": 1.2415832063273227,
        "distance_wrist_1_joint": 0.7510345347539971,
        "distance_wrist_2_joint": 1.4336598567218553,
        "distance_wrist_3_joint": 4.251363384060523,
        "smoothness": 0.308065059466585,
        "time": 0.103606031,
        "traj_len": 3.4831159339719484,
        "weighted_distance": 4.776977890788921
    },
    "planner": "LazyPRM",
    "start": {
        "state": {
            "elbow_joint": 1.919643534880228,
            "shoulder_lift_joint": -1.8972525353963687,
            "shoulder_pan_joint": -1.1188672234189438,
            "wrist_1_joint": -1.5931878212786155,
            "wrist_2_joint": 1.5706036197970081,
            "wrist_3_joint": 1.118896926603594
        }
    },
    "waypoints": [
        {
            "positions": [
                -1.1188672234189438,
                -1.8972525353963687,
                1.919643534880228,
                -1.5931878212786155,
                1.5706036197970081,
                1.118896926603594
            ]
        },
        {
            "positions": [
                -1.082011568555988,
                -1.832801566807838,
                1.8724492275446343,
                -1.5636517886020371,
                1.5339380017560236,
                0.9448007064177031
            ]
        },
        {
            "positions": [
                -1.045155913693032,
                -1.768350598219307,
                1.8252549202090407,
                -1.5341157559254588,
                1.497272383715039,
                0.7707044862318123
            ]
        },
        {
            "positions": [
                -1.0083002588300758,
                -1.7038996296307762,
                1.778060612873447,
                -1.5045797232488805,
                1.4606067656740545,
                0.5966082660459215
            ]
        },
        {
            "positions": [
                -0.9714446039671198,
                -1.6394486610422456,
                1.7308663055378533,
                -1.4750436905723021,
                1.42394114763307,
                0.42251204586003066
            ]
        },
        {
            "positions": [
                -0.9345889491041639,
                -1.5749976924537146,
                1.6836719982022594,
                -1.4455076578957238,
                1.3872755295920853,
                0.2484158256741399
            ]
        },
        {
            "positions": [
                -0.897733294241208,
                -1.510546723865184,
                1.6364776908666658,
                -1.4159716252191454,
                1.3506099115511008,
                0.07431960548824912
            ]
        },
        {
            "positions": [
                -0.8608776393782519,
                -1.446095755276653,
                1.589283383531072,
                -1.386435592542567,
                1.313944293510116,
                -0.09977661469764199
            ]
        },
        {
            "positions": [
                -0.824021984515296,
                -1.3816447866881223,
                1.5420890761954784,
                -1.3568995598659888,
                1.2772786754691314,
                -0.27387283488353265
            ]
        },
        {
            "positions": [
                -0.7871663296523399,
                -1.3171938180995912,
                1.4948947688598846,
                -1.3273635271894104,
                1.2406130574281469,
                -0.4479690550694235
            ]
        },
        {
            "positions": [
                -0.750310674789384,
                -1.2527428495110606,
                1.447700461524291,
                -1.297827494512832,
                1.2039474393871623,
                -0.6220652752553142
            ]
        },
        {
            "positions": [
                -0.713455019926428,
                -1.1882918809225298,
                1.4005061541886972,
                -1.2682914618362537,
                1.1672818213461778,
                -0.7961614954412051
            ]
        },
        {
            "positions": [
                -0.6765993650634721,
                -1.123840912333999,
                1.3533118468531036,
                -1.2387554291596754,
                1.1306162033051932,
                -0.9702577156270957
            ]
        },
        {
            "positions": [
                -0.639743710200516,
                -1.0593899437454684,
                1.3061175395175098,
                -1.209219396483097,
                1.0939505852642086,
                -1.1443539358129866
            ]
        },
        {
            "positions": [
                -0.60288805533756,
                -0.9949389751569373,
                1.2589232321819162,
                -1.1796833638065187,
                1.0572849672232238,
                -1.318450155998878
            ]
        },
        {
            "positions": [
                -0.566032400474604,
                -0.9304880065684065,
                1.2117289248463223,
                -1.1501473311299404,
                1.0206193491822395,
                -1.4925463761847684
            ]
        },
        {
            "positions": [
                -0.5291767456116481,
                -0.8660370379798759,
                1.1645346175107285,
                -1.1206112984533623,
                0.9839537311412548,
                -1.6666425963706593
            ]
        },
        {
            "positions": [
                -0.4923210907486921,
                -0.801586069391345,
                1.117340310175135,
                -1.0910752657767837,
                0.9472881131002703,
                -1.8407388165565497
            ]
        },
        {
            "positions": [
                -0.45546543588573607,
                -0.737135100802814,
                1.0701460028395413,
                -1.0615392331002056,
                0.9106224950592857,
                -2.014835036742441
            ]
        },
        {
            "positions": [
                -0.4186097810227801,
                -0.6726841322142834,
                1.0229516955039475,
                -1.032003200423627,
                0.8739568770183012,
                -2.188931256928332
            ]
        },
        {
            "positions": [
                -0.38175412615982407,
                -0.6082331636257525,
                0.9757573881683538,
                -1.002467167747049,
                0.8372912589773166,
                -2.3630274771142226
            ]
        },
        {
            "positions": [
                -0.3448984712968681,
                -0.5437821950372217,
                0.9285630808327602,
                -0.9729311350704705,
                0.800625640936332,
                -2.537123697300113
            ]
        },
        {
            "positions": [
                -0.30804281643391207,
                -0.47933122644869086,
                0.8813687734971662,
                -0.9433951023938921,
                0.7639600228953474,
                -2.7112199174860043
            ]
        },
        {
            "positions": [
                -0.2711871615709561,
                -0.41488025786016003,
                0.8341744661615725,
                -0.9138590697173138,
                0.7272944048543628,
                -2.885316137671895
            ]
        },
        {
            "positions": [
                -0.22742014551769668,
                -0.49631996122565214,
                0.9623585718372709,
                -0.9058917604736809,
                0.6616998891011173,
                -2.912777284314677
            ]
        },
        {
            "positions": [
                -0.18365312946443726,
                -0.5777596645911443,
                1.0905426775129692,
                -0.8979244512300482,
                0.5961053733478718,
                -2.940238430957458
            ]
        },
        {
            "positions": [
                -0.13988611341117785,
                -0.6591993679566364,
                1.2187267831886675,
                -0.8899571419864153,
                0.5305108575946262,
                -2.9676995776002397
            ]
        },
        {
            "positions": [
                -0.0961190973579184,
                -0.7406390713221285,
                1.346910888864366,
                -0.8819898327427825,
                0.46491634184138075,
                -2.9951607242430214
            ]
        },
        {
            "positions": [
                -0.05235208130465896,
                -0.8220787746876208,
                1.4750949945400644,
                -0.8740225234991497,
                0.39932182608813516,
                -3.0226218708858026
            ]
        },
        {
            "positions": [
                -0.00858506525139957,
                -0.9035184780531128,
                1.6032791002157625,
                -0.8660552142555169,
                0.33372731033488967,
                -3.0500830175285842
            ]
        },
        {
            "positions": [
                0.03518195080185993,
                -0.984958181418605,
                1.731463205891461,
                -0.858087905011884,
                0.26813279458164413,
                -3.077544164171366
            ]
        },
        {
            "positions": [
                0.07894896685511932,
                -1.066397884784097,
                1.859647311567159,
                -0.8501205957682513,
                0.2025382788283987,
                -3.105005310814147
            ]
        },
        {
            "positions": [
                0.12271598290837875,
                -1.1478375881495892,
                1.9878314172428577,
                -0.8421532865246184,
                0.1369437630751531,
                -3.1324664574569288
            ]
        }
    ]
}