{
    "goal": {
        "global_pose": {
            "orientation": {
                "w": 0.7047431468963623,
                "x": -0.7094548344612122,
                "y": 0.0024358443915843964,
                "z": -0.0022348060738295317
            },
            "position": {
                "x": 0.6094750761985779,
                "y": 0.3671506643295288,
                "z": 0.19426114857196808
            }
        },
        "name": "move_to_magneteinheit_A"
    },
    "id": "LazyPRM_move_to_magneteinheit_A_106",
    "joint_names": [
        "shoulder_pan_joint",
        "shoulder_lift_joint",
        "elbow_joint",
        "wrist_1_joint",
        "wrist_2_joint",
        "wrist_3_joint"
    ],
    "metrics": {
        "cart_traj_len": 3.2191464774575245,
        "distance_elbow_joint": 4.215419928314754,
        "distance_shoulder_lift_joint": 0.9939612721229214,
        "distance_shoulder_pan_joint": 2.789534729913446,
        "distance_wrist_1_joint": 0.8472822628516554,
        "distance_wrist_2_joint": 1.6903640952727503,
        "distance_wrist_3_joint": 2.6887225569171287,
        "smoothness": 0.3468153824723021,
        "time": 0.127630445,
        "traj_len": 3.636658472470663,
        "weighted_distance": 4.59786649625142
    },
    "planner": "LazyPRM",
    "start": {
        "state": {
            "elbow_joint": -1.919618573717145,
            "shoulder_lift_joint": -1.2443395971678275,
            "shoulder_pan_joint": 2.6996025300909787,
            "wrist_1_joint": -1.548550951253194,
            "wrist_2_joint": -1.5709469090946802,
            "wrist_3_joint": 0.4420197732051276
        }
    },
    "waypoints": [
        {
            "positions": [
                2.6996025300909787,
                -1.2443395971678275,
                -1.919618573717145,
                -1.548550951253194,
                -1.5709469090946802,
                0.4420197732051276
            ]
        },
        {
            "positions": [
                2.604354361641333,
                -1.2602840110043105,
                -1.7891502300905109,
                -1.533939852943635,
                -1.5322584120173774,
                0.5310516409678574
            ]
        },
        {
            "positions": [
                2.5091061931916876,
                -1.2762284248407936,
                -1.6586818864638766,
                -1.5193287546340761,
                -1.4935699149400747,
                0.6200835087305872
            ]
        },
        {
            "positions": [
                2.4138580247420416,
                -1.2921728386772768,
                -1.5282135428372425,
                -1.504717656324517,
                -1.454881417862772,
                0.7091153764933169
            ]
        },
        {
            "positions": [
                2.318609856292396,
                -1.3081172525137599,
                -1.3977451992106085,
                -1.490106558014958,
                -1.4161929207854693,
                0.7981472442560467
            ]
        },
        {
            "positions": [
                2.2233616878427505,
                -1.324061666350243,
                -1.2672768555839742,
                -1.4754954597053989,
                -1.3775044237081666,
                0.8871791120187765
            ]
        },
        {
            "positions": [
                2.128113519393105,
                -1.340006080186726,
                -1.1368085119573401,
                -1.46088436139584,
                -1.338815926630864,
                0.9762109797815062
            ]
        },
        {
            "positions": [
                2.0328653509434593,
                -1.355950494023209,
                -1.006340168330706,
                -1.446273263086281,
                -1.300127429553561,
                1.0652428475442361
            ]
        },
        {
            "positions": [
                1.9376171824938135,
                -1.3718949078596923,
                -0.8758718247040718,
                -1.4316621647767218,
                -1.2614389324762585,
                1.154274715306966
            ]
        },
        {
            "positions": [
                1.8423690140441678,
                -1.3878393216961753,
                -0.7454034810774375,
                -1.4170510664671627,
                -1.2227504353989556,
                1.2433065830696957
            ]
        },
        {
            "positions": [
                1.7471208455945222,
                -1.4037837355326583,
                -0.6149351374508034,
                -1.4024399681576039,
                -1.1840619383216529,
                1.3323384508324254
            ]
        },
        {
            "positions": [
                1.6518726771448764,
                -1.4197281493691414,
                -0.48446679382416935,
                -1.3878288698480448,
                -1.1453734412443501,
                1.4213703185951552
            ]
        },
        {
            "positions": [
                1.5566245086952308,
                -1.4356725632056246,
                -0.3539984501975353,
                -1.373217771538486,
                -1.1066849441670474,
                1.510402186357885
            ]
        },
        {
            "positions": [
                1.461376340245585,
                -1.4516169770421077,
                -0.223530106570901,
                -1.3586066732289268,
                -1.0679964470897447,
                1.599434054120615
            ]
        },
        {
            "positions": [
                1.3661281717959395,
                -1.4675613908785907,
                -0.09306176294426693,
                -1.3439955749193677,
                -1.029307950012442,
                1.6884659218833447
            ]
        },
        {
            "positions": [
                1.270880003346294,
                -1.4835058047150738,
                0.03740658068236713,
                -1.3293844766098086,
                -0.9906194529351393,
                1.7774977896460744
            ]
        },
        {
            "positions": [
                1.1756318348966484,
                -1.4994502185515568,
                0.16787492430900142,
                -1.3147733783002498,
                -0.9519309558578366,
                1.8665296574088042
            ]
        },
        {
            "positions": [
                1.0803836664470026,
                -1.5153946323880398,
                0.29834326793563526,
                -1.3001622799906907,
                -0.9132424587805339,
                1.955561525171534
            ]
        },
        {
            "positions": [
                0.9851354979973568,
                -1.531339046224523,
                0.42881161156227,
                -1.2855511816811316,
                -0.8745539617032311,
                2.0445933929342637
            ]
        },
        {
            "positions": [
                0.889887329547711,
                -1.5472834600610061,
                0.5592799551889038,
                -1.2709400833715725,
                -0.8358654646259284,
                2.1336252606969937
            ]
        },
        {
            "positions": [
                0.7946391610980654,
                -1.5632278738974892,
                0.6897482988155381,
                -1.2563289850620136,
                -0.7971769675486257,
                2.222657128459723
            ]
        },
        {
            "positions": [
                0.6993909926484196,
                -1.5791722877339724,
                0.820216642442172,
                -1.2417178867524545,
                -0.758488470471323,
                2.311688996222453
            ]
        },
        {
            "positions": [
                0.6041428241987741,
                -1.5951167015704555,
                0.9506849860688062,
                -1.2271067884428954,
                -0.7197999733940202,
                2.4007208639851827
            ]
        },
        {
            "positions": [
                0.5088946557491285,
                -1.6110611154069385,
                1.08115332969544,
                -1.2124956901333366,
                -0.6811114763167175,
                2.4897527317479127
            ]
        },
        {
            "positions": [
                0.41364648729948295,
                -1.6270055292434216,
                1.2116216733220744,
                -1.1978845918237775,
                -0.6424229792394148,
                2.578784599510642
            ]
        },
        {
            "positions": [
                0.31839831884983694,
                -1.6429499430799046,
                1.3420900169487087,
                -1.1832734935142184,
                -0.603734482162112,
                2.6678164672733726
            ]
        },
        {
            "positions": [
                0.22315015040019137,
                -1.6588943569163879,
                1.472558360575343,
                -1.1686623952046593,
                -0.5650459850848093,
                2.756848335036102
            ]
        },
        {
            "positions": [
                0.1279019819505458,
                -1.674838770752871,
                1.6030267042019768,
                -1.1540512968951004,
                -0.5263574880075066,
                2.845880202798832
            ]
        },
        {
            "positions": [
                0.03265381350090027,
                -1.690783184589354,
                1.733495047828611,
                -1.1394401985855414,
                -0.48766899093020377,
                2.9349120705615617
            ]
        },
        {
            "positions": [
                0.02931107759156945,
                -1.6041485820989416,
                1.8142818195424875,
                -1.0645106191061007,
                -0.38568866089494586,
                2.945710682073092
            ]
        },
        {
            "positions": [
                0.025968341682238633,
                -1.5175139796085295,
                1.8950685912563638,
                -0.98958103962666,
                -0.28370833085968794,
                2.956509293584622
            ]
        },
        {
            "positions": [
                0.022625605772907814,
                -1.4308793771181172,
                1.9758553629702402,
                -0.9146514601472193,
                -0.18172800082443008,
                2.967307905096152
            ]
        },
        {
            "positions": [
                0.019282869863576996,
                -1.3442447746277049,
                2.0566421346841164,
                -0.8397218806677786,
                -0.07974767078917211,
                2.9781065166076823
            ]
        },
        {
            "positions": [
                0.015940133954246177,
                -1.2576101721372928,
                2.137428906397993,
                -0.764792301188338,
                0.02223265924608575,
                2.9889051281192125
            ]
        },
        {
            "positions": [
                0.06887630084260282,
                -1.2004378360126258,
                2.058242682298185,
                -0.7965541075817376,
                0.07082492271207783,
                3.059823729120734
            ]
        },
        {
            "positions": [
                0.12181246773095948,
                -1.143265499887959,
                1.979056458198377,
                -0.8283159139751373,
                0.1194171861780699,
                3.1307423301222563
            ]
        }
    ]
}{
    "goal": {
        "global_pose": {
            "orientation": {
                "w": 0.7047431468963623,
                "x": -0.7094548344612122,
                "y": 0.0024358443915843964,
                "z": -0.0022348060738295317
            },
            "position": {
                "x": 0.6094750761985779,
                "y": 0.3671506643295288,
                "z": 0.19426114857196808
            }
        },
        "name": "move_to_magneteinheit_A"
    },
    "id": "LazyPRM_move_to_magneteinheit_A_106",
    "joint_names": [
        "shoulder_pan_joint",
        "shoulder_lift_joint",
        "elbow_joint",
        "wrist_1_joint",
        "wrist_2_joint",
        "wrist_3_joint"
    ],
    "metrics": {
        "cart_traj_len": 1.2128674899905116,
        "distance_elbow_joint": 0.04423209818519913,
        "distance_shoulder_lift_joint": 0.7622709751951353,
        "distance_shoulder_pan_joint": 1.2423526419334638,
        "distance_wrist_1_joint": 0.9498856532484513,
        "distance_wrist_2_joint": 1.431593922922451,
        "distance_wrist_3_joint": 4.348765356909199,
        "smoothness": 0.22366606188183588,
        "time": 0.183191702,
        "traj_len": 2.9629547158864744,
        "weighted_distance": 4.456244039365798
    },
    "planner": "LazyPRM",
    "start": {
        "state": {
            "elbow_joint": 1.919643534880228,
            "shoulder_lift_joint": -1.8972525353963687,
            "shoulder_pan_joint": -1.1188672234189438,
            "wrist_1_joint": -1.5931878212786155,
            "wrist_2_joint": 1.5706036197970081,
            "wrist_3_joint": 1.118896926603594
        }
    },
    "waypoints": [
        {
            "positions": [
                -1.1188672234189438,
                -1.8972525353963687,
                1.919643534880228,
                -1.5931878212786155,
                1.5706036197970081,
                1.118896926603594
            ]
        },
        {
            "positions": [
                -1.0640942401548747,
                -1.862795252187535,
                1.9205430162144428,
                -1.552168463871524,
                1.5075690413720444,
                0.9226067620713505
            ]
        },
        {
            "positions": [
                -1.0093212568908057,
                -1.8283379689787014,
                1.9214424975486575,
                -1.511149106464433,
                1.4445344629470807,
                0.7263165975391072
            ]
        },
        {
            "positions": [
                -0.9545482736267366,
                -1.7938806857698675,
                1.9223419788828722,
                -1.4701297490573415,
                1.3814998845221171,
                0.5300264330068638
            ]
        },
        {
            "positions": [
                -0.8997752903626673,
                -1.7594234025610338,
                1.9232414602170869,
                -1.4291103916502501,
                1.3184653060971534,
                0.33373626847462035
            ]
        },
        {
            "positions": [
                -0.8450023070985982,
                -1.7249661193522001,
                1.9241409415513016,
                -1.388091034243159,
                1.2554307276721897,
                0.137446103942377
            ]
        },
        {
            "positions": [
                -0.7902293238345292,
                -1.6905088361433664,
                1.9250404228855162,
                -1.3470716768360675,
                1.192396149247226,
                -0.058844060589866354
            ]
        },
        {
            "positions": [
                -0.73545634057046,
                -1.6560515529345325,
                1.925939904219731,
                -1.3060523194289761,
                1.1293615708222622,
                -0.2551342251221098
            ]
        },
        {
            "positions": [
                -0.6806833573063908,
                -1.6215942697256989,
                1.9268393855539456,
                -1.265032962021885,
                1.0663269923972987,
                -0.4514243896543533
            ]
        },
        {
            "positions": [
                -0.6259103740423217,
                -1.5871369865168652,
                1.9277388668881603,
                -1.2240136046147936,
                1.0032924139723347,
                -0.6477145541865967
            ]
        },
        {
            "positions": [
                -0.5711373907782527,
                -1.5526797033080315,
                1.928638348222375,
                -1.1829942472077022,
                0.9402578355473712,
                -0.84400471871884
            ]
        },
        {
            "positions": [
                -0.5163644075141836,
                -1.5182224200991978,
                1.92953782955659,
                -1.1419748898006108,
                0.8772232571224075,
                -1.0402948832510834
            ]
        },
        {
            "positions": [
                -0.46159142425011446,
                -1.483765136890364,
                1.9304373108908046,
                -1.1009555323935196,
                0.8141886786974438,
                -1.2365850477833267
            ]
        },
        {
            "positions": [
                -0.40681844098604525,
                -1.4493078536815303,
                1.9313367922250193,
                -1.0599361749864282,
                0.75115410027248,
                -1.4328752123155704
            ]
        },
        {
            "positions": [
                -0.35204545772197626,
                -1.4148505704726966,
                1.932236273559234,
                -1.018916817579337,
                0.6881195218475163,
                -1.6291653768478136
            ]
        },
        {
            "positions": [
                -0.29727247445790717,
                -1.380393287263863,
                1.9331357548934487,
                -0.9778974601722457,
                0.6250849434225527,
                -1.8254555413800568
            ]
        },
        {
            "positions": [
                -0.24249949119383796,
                -1.3459360040550292,
                1.9340352362276634,
                -0.9368781027651543,
                0.562050364997589,
                -2.0217457059123003
            ]
        },
        {
            "positions": [
                -0.18772650792976886,
                -1.3114787208461953,
                1.934934717561878,
                -0.895858745358063,
                0.49901578657262524,
                -2.2180358704445435
            ]
        },
        {
            "positions": [
                -0.13295352466569965,
                -1.2770214376373614,
                1.9358341988960928,
                -0.8548393879509716,
                0.4359812081476615,
                -2.4143260349767877
            ]
        },
        {
            "positions": [
                -0.07818054140163055,
                -1.242564154428528,
                1.9367336802303075,
                -0.8138200305438803,
                0.37294662972269776,
                -2.610616199509031
            ]
        },
        {
            "positions": [
                -0.023407558137561457,
                -1.208106871219694,
                1.9376331615645221,
                -0.772800673136789,
                0.30991205129773425,
                -2.806906364041274
            ]
        },
        {
            "positions": [
                0.03136542512650764,
                -1.1736495880108604,
                1.9385326428987368,
                -0.7317813157296976,
                0.2468774728727705,
                -3.0031965285735174
            ]
        },
        {
            "positions": [
                0.08613840839057677,
                -1.1391923048020267,
                1.9394321242329515,
                -0.6907619583226063,
                0.18384289444780688,
                -3.1994866931057606
            ]
        },
        {
            "positions": [
                0.12348541851451997,
                -1.1349815602012334,
                1.9638756330654272,
                -0.7382217486150485,
                0.13900969687455714,
                -3.229868430305605
            ]
        }
    ]
}