{
    "goal": {
        "global_pose": {
            "orientation": {
                "w": 0.7047431468963623,
                "x": -0.7094548344612122,
                "y": 0.0024358443915843964,
                "z": -0.0022348060738295317
            },
            "position": {
                "x": 0.6094750761985779,
                "y": 0.3671506643295288,
                "z": 0.19426114857196808
            }
        },
        "name": "move_to_magneteinheit_A"
    },
    "id": "LazyPRM_move_to_magneteinheit_A_99",
    "joint_names": [
        "shoulder_pan_joint",
        "shoulder_lift_joint",
        "elbow_joint",
        "wrist_1_joint",
        "wrist_2_joint",
        "wrist_3_joint"
    ],
    "metrics": {
        "cart_traj_len": 3.1686925470671303,
        "distance_elbow_joint": 3.871825300818111,
        "distance_shoulder_lift_joint": 1.1036806071304635,
        "distance_shoulder_pan_joint": 2.645728282490325,
        "distance_wrist_1_joint": 1.4080371079888412,
        "distance_wrist_2_joint": 2.434364723867286,
        "distance_wrist_3_joint": 2.754549272866419,
        "smoothness": 0.17685096115432136,
        "time": 0.669499452,
        "traj_len": 3.7707009023736493,
        "weighted_distance": 4.854862065265131
    },
    "planner": "LazyPRM",
    "start": {
        "state": {
            "elbow_joint": -1.919618573717145,
            "shoulder_lift_joint": -1.2443395971678275,
            "shoulder_pan_joint": 2.6996025300909787,
            "wrist_1_joint": -1.548550951253194,
            "wrist_2_joint": -1.5709469090946802,
            "wrist_3_joint": 0.4420197732051276
        }
    },
    "waypoints": [
        {
            "positions": [
                2.6996025300909787,
                -1.2443395971678275,
                -1.919618573717145,
                -1.548550951253194,
                -1.5709469090946802,
                0.4420197732051276
            ]
        },
        {
            "positions": [
                2.622343625735817,
                -1.2595092725852424,
                -1.8003675600071052,
                -1.5246562039982188,
                -1.50211836023411,
                0.5209785960153577
            ]
        },
        {
            "positions": [
                2.545084721380655,
                -1.2746789480026575,
                -1.6811165462970656,
                -1.5007614567432437,
                -1.4332898113735397,
                0.5999374188255878
            ]
        },
        {
            "positions": [
                2.467825817025493,
                -1.2898486234200723,
                -1.5618655325870259,
                -1.4768667094882684,
                -1.3644612625129695,
                0.678896241635818
            ]
        },
        {
            "positions": [
                2.390566912670331,
                -1.3050182988374872,
                -1.442614518876986,
                -1.4529719622332933,
                -1.2956327136523993,
                0.7578550644460481
            ]
        },
        {
            "positions": [
                2.313308008315169,
                -1.3201879742549023,
                -1.3233635051669466,
                -1.429077214978318,
                -1.226804164791829,
                0.8368138872562783
            ]
        },
        {
            "positions": [
                2.2360491039600072,
                -1.3353576496723172,
                -1.2041124914569068,
                -1.4051824677233429,
                -1.1579756159312589,
                0.9157727100665085
            ]
        },
        {
            "positions": [
                2.1587901996048453,
                -1.350527325089732,
                -1.084861477746867,
                -1.3812877204683676,
                -1.0891470670706886,
                0.9947315328767385
            ]
        },
        {
            "positions": [
                2.0815312952496834,
                -1.365697000507147,
                -0.9656104640368274,
                -1.3573929732133925,
                -1.0203185182101184,
                1.0736903556869686
            ]
        },
        {
            "positions": [
                2.0042723908945215,
                -1.380866675924562,
                -0.8463594503267877,
                -1.3334982259584172,
                -0.9514899693495482,
                1.1526491784971988
            ]
        },
        {
            "positions": [
                1.9270134865393596,
                -1.396036351341977,
                -0.7271084366167482,
                -1.309603478703442,
                -0.882661420488978,
                1.2316080013074289
            ]
        },
        {
            "positions": [
                1.8497545821841976,
                -1.4112060267593918,
                -0.6078574229067084,
                -1.2857087314484668,
                -0.8138328716284078,
                1.3105668241176591
            ]
        },
        {
            "positions": [
                1.7724956778290357,
                -1.4263757021768069,
                -0.48860640919666865,
                -1.2618139841934917,
                -0.7450043227678376,
                1.3895256469278894
            ]
        },
        {
            "positions": [
                1.6952367734738738,
                -1.4415453775942217,
                -0.3693553954866289,
                -1.2379192369385164,
                -0.6761757739072674,
                1.4684844697381194
            ]
        },
        {
            "positions": [
                1.6179778691187119,
                -1.4567150530116366,
                -0.25010438177658934,
                -1.2140244896835413,
                -0.6073472250466971,
                1.5474432925483497
            ]
        },
        {
            "positions": [
                1.54071896476355,
                -1.4718847284290515,
                -0.13085336806654957,
                -1.190129742428566,
                -0.5385186761861269,
                1.6264021153585797
            ]
        },
        {
            "positions": [
                1.463460060408388,
                -1.4870544038464666,
                -0.011602354356509803,
                -1.1662349951735909,
                -0.4696901273255567,
                1.7053609381688097
            ]
        },
        {
            "positions": [
                1.3862011560532261,
                -1.5022240792638815,
                0.10764865935352996,
                -1.1423402479186155,
                -0.4008615784649865,
                1.78431976097904
            ]
        },
        {
            "positions": [
                1.3089422516980642,
                -1.5173937546812963,
                0.2268996730635695,
                -1.1184455006636405,
                -0.3320330296044163,
                1.86327858378927
            ]
        },
        {
            "positions": [
                1.2316833473429023,
                -1.5325634300987114,
                0.34615068677360905,
                -1.0945507534086651,
                -0.26320448074384606,
                1.9422374065995003
            ]
        },
        {
            "positions": [
                1.1544244429877404,
                -1.5477331055161263,
                0.4654017004836486,
                -1.07065600615369,
                -0.19437593188327584,
                2.02119622940973
            ]
        },
        {
            "positions": [
                1.0771655386325785,
                -1.5629027809335412,
                0.5846527141936886,
                -1.046761258898715,
                -0.12554738302270563,
                2.1001550522199603
            ]
        },
        {
            "positions": [
                0.9999066342774168,
                -1.5780724563509563,
                0.7039037279037281,
                -1.0228665116437397,
                -0.05671883416213541,
                2.1791138750301906
            ]
        },
        {
            "positions": [
                0.9226477299222544,
                -1.5932421317683712,
                0.8231547416137681,
                -0.9989717643887643,
                0.012109714698434804,
                2.258072697840421
            ]
        },
        {
            "positions": [
                0.8453888255670927,
                -1.608411807185786,
                0.9424057553238077,
                -0.9750770171337891,
                0.08093826355900502,
                2.337031520650651
            ]
        },
        {
            "positions": [
                0.7681299212119308,
                -1.6235814826032011,
                1.0616567690338476,
                -0.9511822698788139,
                0.14976681241957523,
                2.415990343460881
            ]
        },
        {
            "positions": [
                0.6908710168567689,
                -1.638751158020616,
                1.1809077827438872,
                -0.9272875226238387,
                0.21859536128014545,
                2.494949166271111
            ]
        },
        {
            "positions": [
                0.613612112501607,
                -1.6539208334380309,
                1.3001587964539267,
                -0.9033927753688635,
                0.28742391014071567,
                2.5739079890813414
            ]
        },
        {
            "positions": [
                0.536353208146445,
                -1.669090508855446,
                1.4194098101639663,
                -0.8794980281138883,
                0.3562524590012859,
                2.6528668118915717
            ]
        },
        {
            "positions": [
                0.45909430379128313,
                -1.6842601842728608,
                1.5386608238740063,
                -0.8556032808589131,
                0.4250810078618561,
                2.7318256347018015
            ]
        },
        {
            "positions": [
                0.3818353994361212,
                -1.6994298596902757,
                1.6579118375840458,
                -0.8317085336039379,
                0.4939095567224262,
                2.8107844575120318
            ]
        },
        {
            "positions": [
                0.31836554645633897,
                -1.7092432662666412,
                1.7217558548406182,
                -0.734156504146447,
                0.4883353106740811,
                2.876405771916251
            ]
        },
        {
            "positions": [
                0.2548956934765568,
                -1.7190566728430068,
                1.7855998720971904,
                -0.6366044746889559,
                0.4827610646257359,
                2.9420270863204703
            ]
        },
        {
            "positions": [
                0.19142584049677455,
                -1.7288700794193725,
                1.8494438893537628,
                -0.5390524452314649,
                0.47718681857739076,
                3.0076484007246895
            ]
        },
        {
            "positions": [
                0.12795598751699233,
                -1.738683485995738,
                1.9132879066103352,
                -0.4415004157739739,
                0.47161257252904565,
                3.073269715128909
            ]
        },
        {
            "positions": [
                0.08872140370964426,
                -1.626247201808591,
                1.944314144363918,
                -0.4215169403276504,
                0.36502214623366747,
                3.112080329339797
            ]
        },
        {
            "positions": [
                0.10033712241264084,
                -1.4606137237701224,
                1.9469450052762671,
                -0.5151846393487496,
                0.2848151970465272,
                3.083917423762547
            ]
        },
        {
            "positions": [
                0.11195284111563741,
                -1.294980245731654,
                1.9495758661886162,
                -0.6088523383698488,
                0.20460824785938692,
                3.055754518185297
            ]
        },
        {
            "positions": [
                0.123568559818634,
                -1.1293467676931852,
                1.9522067271009653,
                -0.702520037390948,
                0.12440129867224664,
                3.027591612608047
            ]
        }
    ]
}{
    "goal": {
        "global_pose": {
            "orientation": {
                "w": 0.7047431468963623,
                "x": -0.7094548344612122,
                "y": 0.0024358443915843964,
                "z": -0.0022348060738295317
            },
            "position": {
                "x": 0.6094750761985779,
                "y": 0.3671506643295288,
                "z": 0.19426114857196808
            }
        },
        "name": "move_to_magneteinheit_A"
    },
    "id": "LazyPRM_move_to_magneteinheit_A_99",
    "joint_names": [
        "shoulder_pan_joint",
        "shoulder_lift_joint",
        "elbow_joint",
        "wrist_1_joint",
        "wrist_2_joint",
        "wrist_3_joint"
    ],
    "metrics": {
        "cart_traj_len": 1.2077634768133942,
        "distance_elbow_joint": 0.058530820672171524,
        "distance_shoulder_lift_joint": 0.7537930710599927,
        "distance_shoulder_pan_joint": 1.2409226844338583,
        "distance_wrist_1_joint": 0.7684305138122589,
        "distance_wrist_2_joint": 1.4940218317217182,
        "distance_wrist_3_joint": 4.261884441288707,
        "smoothness": 0.13173825056950764,
        "time": 0.100659748,
        "traj_len": 2.9287511609880252,
        "weighted_distance": 4.400432318659168
    },
    "planner": "LazyPRM",
    "start": {
        "state": {
            "elbow_joint": 1.919643534880228,
            "shoulder_lift_joint": -1.8972525353963687,
            "shoulder_pan_joint": -1.1188672234189438,
            "wrist_1_joint": -1.5931878212786155,
            "wrist_2_joint": 1.5706036197970081,
            "wrist_3_joint": 1.118896926603594
        }
    },
    "waypoints": [
        {
            "positions": [
                -1.1188672234189438,
                -1.8972525353963687,
                1.919643534880228,
                -1.5931878212786155,
                1.5706036197970081,
                1.118896926603594
            ]
        },
        {
            "positions": [
                -1.064632911337579,
                -1.8632534435345756,
                1.9214576538461556,
                -1.5601944768280094,
                1.5036697856890358,
                0.9261349540603193
            ]
        },
        {
            "positions": [
                -1.010398599256214,
                -1.8292543516727826,
                1.9232717728120834,
                -1.5272011323774033,
                1.4367359515810634,
                0.7333729815170447
            ]
        },
        {
            "positions": [
                -0.956164287174849,
                -1.7952552598109894,
                1.925085891778011,
                -1.4942077879267972,
                1.369802117473091,
                0.5406110089737701
            ]
        },
        {
            "positions": [
                -0.901929975093484,
                -1.7612561679491965,
                1.9269000107439385,
                -1.4612144434761913,
                1.3028682833651186,
                0.34784903643049536
            ]
        },
        {
            "positions": [
                -0.8476956630121191,
                -1.7272570760874033,
                1.9287141297098662,
                -1.4282210990255853,
                1.2359344492571465,
                0.15508706388722082
            ]
        },
        {
            "positions": [
                -0.7934613509307542,
                -1.6932579842256104,
                1.9305282486757938,
                -1.3952277545749792,
                1.169000615149174,
                -0.03767490865605372
            ]
        },
        {
            "positions": [
                -0.7392270388493892,
                -1.6592588923638172,
                1.9323423676417213,
                -1.362234410124373,
                1.1020667810412017,
                -0.23043688119932848
            ]
        },
        {
            "positions": [
                -0.6849927267680243,
                -1.625259800502024,
                1.934156486607649,
                -1.329241065673767,
                1.035132946933229,
                -0.42319885374260324
            ]
        },
        {
            "positions": [
                -0.6307584146866593,
                -1.591260708640231,
                1.9359706055735766,
                -1.296247721223161,
                0.9681991128252568,
                -0.615960826285878
            ]
        },
        {
            "positions": [
                -0.5765241026052944,
                -1.5572616167784379,
                1.9377847245395041,
                -1.2632543767725548,
                0.9012652787172846,
                -0.8087227988291523
            ]
        },
        {
            "positions": [
                -0.5222897905239294,
                -1.5232625249166447,
                1.9395988435054319,
                -1.2302610323219487,
                0.8343314446093122,
                -1.001484771372427
            ]
        },
        {
            "positions": [
                -0.46805547844256457,
                -1.4892634330548518,
                1.9414129624713594,
                -1.1972676878713429,
                0.7673976105013399,
                -1.1942467439157014
            ]
        },
        {
            "positions": [
                -0.4138211663611995,
                -1.4552643411930586,
                1.943227081437287,
                -1.1642743434207368,
                0.7004637763933674,
                -1.3870087164589766
            ]
        },
        {
            "positions": [
                -0.3595868542798346,
                -1.4212652493312656,
                1.9450412004032145,
                -1.1312809989701307,
                0.6335299422853952,
                -1.579770689002251
            ]
        },
        {
            "positions": [
                -0.30535254219846975,
                -1.3872661574694725,
                1.9468553193691422,
                -1.0982876545195246,
                0.5665961081774229,
                -1.7725326615455252
            ]
        },
        {
            "positions": [
                -0.25111823011710466,
                -1.3532670656076795,
                1.9486694383350698,
                -1.0652943100689185,
                0.4996622740694503,
                -1.9652946340888005
            ]
        },
        {
            "positions": [
                -0.1968839180357398,
                -1.3192679737458863,
                1.9504835573009973,
                -1.0323009656183126,
                0.43272843996147814,
                -2.1580566066320745
            ]
        },
        {
            "positions": [
                -0.1426496059543747,
                -1.2852688818840932,
                1.952297676266925,
                -0.9993076211677064,
                0.36579460585350554,
                -2.3508185791753498
            ]
        },
        {
            "positions": [
                -0.08841529387300984,
                -1.2512697900223002,
                1.9541117952328526,
                -0.9663142767171004,
                0.2988607717455334,
                -2.543580551718624
            ]
        },
        {
            "positions": [
                -0.03418098179164497,
                -1.2172706981605073,
                1.9559259141987801,
                -0.9333209322664944,
                0.231926937637561,
                -2.7363425242618984
            ]
        },
        {
            "positions": [
                0.020053330289720117,
                -1.1832716062987139,
                1.957740033164708,
                -0.9003275878158882,
                0.16499310352958863,
                -2.9291044968051736
            ]
        },
        {
            "positions": [
                0.07428764237108507,
                -1.149272514436921,
                1.9595541521306354,
                -0.8673342433652822,
                0.09805926942161625,
                -3.121866469348448
            ]
        },
        {
            "positions": [
                0.12205546101491446,
                -1.143459464336376,
                1.9781743555523996,
                -0.8247573074663566,
                0.11953675076794253,
                -3.1429875146851125
            ]
        }
    ]
}