{
    "goal": {
        "global_pose": {
            "orientation": {
                "w": 0.7047431468963623,
                "x": -0.7094548344612122,
                "y": 0.0024358443915843964,
                "z": -0.0022348060738295317
            },
            "position": {
                "x": 0.6094750761985779,
                "y": 0.3671506643295288,
                "z": 0.19426114857196808
            }
        },
        "name": "move_to_magneteinheit_A"
    },
    "id": "LazyPRMstar_move_to_magneteinheit_A_41",
    "joint_names": [
        "shoulder_pan_joint",
        "shoulder_lift_joint",
        "elbow_joint",
        "wrist_1_joint",
        "wrist_2_joint",
        "wrist_3_joint"
    ],
    "metrics": {
        "cart_traj_len": 3.170581589853485,
        "distance_elbow_joint": 3.8759463088877126,
        "distance_shoulder_lift_joint": 0.23323098421303912,
        "distance_shoulder_pan_joint": 2.9571852175000766,
        "distance_wrist_1_joint": 1.617081132670478,
        "distance_wrist_2_joint": 1.7034597023584264,
        "distance_wrist_3_joint": 2.57417727956644,
        "smoothness": 0.18542770735785738,
        "time": 5.03063438,
        "traj_len": 3.6001500837043134,
        "weighted_distance": 4.629252209521313
    },
    "planner": "LazyPRMstar",
    "start": {
        "state": {
            "elbow_joint": -1.919618573717145,
            "shoulder_lift_joint": -1.2443395971678275,
            "shoulder_pan_joint": 2.6996025300909787,
            "wrist_1_joint": -1.548550951253194,
            "wrist_2_joint": -1.5709469090946802,
            "wrist_3_joint": 0.4420197732051276
        }
    },
    "waypoints": [
        {
            "positions": [
                2.6996025300909787,
                -1.2443395971678275,
                -1.919618573717145,
                -1.548550951253194,
                -1.5709469090946802,
                0.4420197732051276
            ]
        },
        {
            "positions": [
                2.597055075094098,
                -1.2469665369954779,
                -1.792122783444643,
                -1.4951037301264907,
                -1.5447247113648355,
                0.5258408368265635
            ]
        },
        {
            "positions": [
                2.494507620097217,
                -1.2495934768231285,
                -1.664626993172141,
                -1.441656508999787,
                -1.518502513634991,
                0.6096619004479993
            ]
        },
        {
            "positions": [
                2.3919601651003366,
                -1.2522204166507789,
                -1.537131202899639,
                -1.3882092878730836,
                -1.4922803159051463,
                0.6934829640694351
            ]
        },
        {
            "positions": [
                2.2894127101034556,
                -1.2548473564784295,
                -1.4096354126271369,
                -1.33476206674638,
                -1.4660581181753018,
                0.777304027690871
            ]
        },
        {
            "positions": [
                2.186865255106575,
                -1.2574742963060799,
                -1.2821396223546349,
                -1.2813148456196766,
                -1.4398359204454572,
                0.861125091312307
            ]
        },
        {
            "positions": [
                2.084317800109694,
                -1.2601012361337305,
                -1.1546438320821328,
                -1.2278676244929732,
                -1.4136137227156125,
                0.9449461549337428
            ]
        },
        {
            "positions": [
                1.9817703451128132,
                -1.2627281759613809,
                -1.0271480418096308,
                -1.1744204033662695,
                -1.3873915249857678,
                1.0287672185551786
            ]
        },
        {
            "positions": [
                1.8792228901159325,
                -1.2653551157890313,
                -0.8996522515371288,
                -1.1209731822395659,
                -1.3611693272559233,
                1.1125882821766144
            ]
        },
        {
            "positions": [
                1.7766754351190517,
                -1.2679820556166819,
                -0.7721564612646266,
                -1.0675259611128625,
                -1.3349471295260786,
                1.1964093457980505
            ]
        },
        {
            "positions": [
                1.6741279801221711,
                -1.2706089954443323,
                -0.6446606709921248,
                -1.014078739986159,
                -1.3087249317962342,
                1.2802304094194863
            ]
        },
        {
            "positions": [
                1.5715805251252901,
                -1.2732359352719829,
                -0.5171648807196225,
                -0.9606315188594554,
                -1.2825027340663895,
                1.3640514730409221
            ]
        },
        {
            "positions": [
                1.4690330701284096,
                -1.2758628750996333,
                -0.3896690904471207,
                -0.907184297732752,
                -1.2562805363365448,
                1.447872536662358
            ]
        },
        {
            "positions": [
                1.3664856151315288,
                -1.2784898149272839,
                -0.2621733001746187,
                -0.8537370766060485,
                -1.2300583386067003,
                1.5316936002837938
            ]
        },
        {
            "positions": [
                1.2639381601346478,
                -1.2811167547549343,
                -0.13467750990211647,
                -0.8002898554793448,
                -1.2038361408768556,
                1.6155146639052298
            ]
        },
        {
            "positions": [
                1.1613907051377672,
                -1.2837436945825849,
                -0.007181719629614447,
                -0.7468426343526414,
                -1.1776139431470112,
                1.6993357275266656
            ]
        },
        {
            "positions": [
                1.0588432501408864,
                -1.2863706344102352,
                0.12031407064288735,
                -0.6933954132259379,
                -1.1513917454171665,
                1.7831567911481014
            ]
        },
        {
            "positions": [
                0.9562957951440056,
                -1.2889975742378856,
                0.2478098609153896,
                -0.6399481920992345,
                -1.1251695476873218,
                1.8669778547695373
            ]
        },
        {
            "positions": [
                0.8537483401471246,
                -1.2916245140655362,
                0.37530565118789183,
                -0.5865009709725308,
                -1.0989473499574771,
                1.9507989183909733
            ]
        },
        {
            "positions": [
                0.7512008851502441,
                -1.2942514538931866,
                0.5028014414603936,
                -0.5330537498458274,
                -1.0727251522276327,
                2.034619982012409
            ]
        },
        {
            "positions": [
                0.6486534301533635,
                -1.2968783937208372,
                0.6302972317328954,
                -0.4796065287191238,
                -1.0465029544977882,
                2.118441045633845
            ]
        },
        {
            "positions": [
                0.5461059751564825,
                -1.2995053335484876,
                0.7577930220053977,
                -0.4261593075924204,
                -1.0202807567679435,
                2.2022621092552805
            ]
        },
        {
            "positions": [
                0.4435585201596015,
                -1.3021322733761382,
                0.8852888122778999,
                -0.37271208646571674,
                -0.9940585590380988,
                2.2860831728767166
            ]
        },
        {
            "positions": [
                0.34101106516272095,
                -1.3047592132037886,
                1.0127846025504017,
                -0.3192648653390133,
                -0.9678363613082542,
                2.3699042364981526
            ]
        },
        {
            "positions": [
                0.259284662972026,
                -1.2953794786824417,
                1.127078085155228,
                -0.358562742106723,
                -0.8978267451753841,
                2.4286429103285236
            ]
        },
        {
            "positions": [
                0.17755826078133105,
                -1.2859997441610949,
                1.241371567760054,
                -0.39786061887443275,
                -0.8278171290425139,
                2.487381584158895
            ]
        },
        {
            "positions": [
                0.09583185859063612,
                -1.276620009639748,
                1.3556650503648804,
                -0.43715849564214243,
                -0.7578075129096439,
                2.546120257989266
            ]
        },
        {
            "positions": [
                0.014105456399941152,
                -1.267240275118401,
                1.4699585329697067,
                -0.47645637240985217,
                -0.6877978967767737,
                2.6048589318196376
            ]
        },
        {
            "positions": [
                -0.06762094579075378,
                -1.2578605405970542,
                1.5842520155745328,
                -0.5157542491775619,
                -0.6177882806439036,
                2.6635976056500086
            ]
        },
        {
            "positions": [
                -0.03596065552102994,
                -1.2368750913353304,
                1.6462646355072053,
                -0.54763852633052,
                -0.49273810165929527,
                2.7223641801702683
            ]
        },
        {
            "positions": [
                -0.004300365251306101,
                -1.2158896420736063,
                1.7082772554398777,
                -0.5795228034834782,
                -0.367687922674687,
                2.7811307546905284
            ]
        },
        {
            "positions": [
                0.027359925018417747,
                -1.1949041928118824,
                1.77028987537255,
                -0.6114070806364362,
                -0.24263774369007862,
                2.839897329210788
            ]
        },
        {
            "positions": [
                0.05902021528814158,
                -1.1739187435501586,
                1.8323024953052225,
                -0.6432913577893944,
                -0.11758756470547038,
                2.8986639037310478
            ]
        },
        {
            "positions": [
                0.09068050555786544,
                -1.1529332942884345,
                1.894315115237895,
                -0.6751756349423526,
                0.00746261427913808,
                2.957430478251308
            ]
        },
        {
            "positions": [
                0.12234079582758929,
                -1.1319478450267106,
                1.9563277351705675,
                -0.7070599120953107,
                0.1325127932637463,
                3.0161970527715676
            ]
        }
    ]
}{
    "goal": {
        "global_pose": {
            "orientation": {
                "w": 0.7047431468963623,
                "x": -0.7094548344612122,
                "y": 0.0024358443915843964,
                "z": -0.0022348060738295317
            },
            "position": {
                "x": 0.6094750761985779,
                "y": 0.3671506643295288,
                "z": 0.19426114857196808
            }
        },
        "name": "move_to_magneteinheit_A"
    },
    "id": "LazyPRMstar_move_to_magneteinheit_A_41",
    "joint_names": [
        "shoulder_pan_joint",
        "shoulder_lift_joint",
        "elbow_joint",
        "wrist_1_joint",
        "wrist_2_joint",
        "wrist_3_joint"
    ],
    "metrics": {
        "cart_traj_len": 1.2504436145556699,
        "distance_elbow_joint": 0.3103344927183087,
        "distance_shoulder_lift_joint": 0.7502236232737833,
        "distance_shoulder_pan_joint": 1.4811478976923418,
        "distance_wrist_1_joint": 0.9401795246882642,
        "distance_wrist_2_joint": 1.4434350420488369,
        "distance_wrist_3_joint": 4.255688226455556,
        "smoothness": 0.10408668388260205,
        "time": 5.030382659,
        "traj_len": 3.0300179548770148,
        "weighted_distance": 4.480624937051226
    },
    "planner": "LazyPRMstar",
    "start": {
        "state": {
            "elbow_joint": 1.919643534880228,
            "shoulder_lift_joint": -1.8972525353963687,
            "shoulder_pan_joint": -1.1188672234189438,
            "wrist_1_joint": -1.5931878212786155,
            "wrist_2_joint": 1.5706036197970081,
            "wrist_3_joint": 1.118896926603594
        }
    },
    "waypoints": [
        {
            "positions": [
                -1.1188672234189438,
                -1.8972525353963687,
                1.919643534880228,
                -1.5931878212786155,
                1.5706036197970081,
                1.118896926603594
            ]
        },
        {
            "positions": [
                -1.1297175699140733,
                -1.8912632575166763,
                1.9085454127312775,
                -1.60193029248143,
                1.4424797903866333,
                0.9006967928400268
            ]
        },
        {
            "positions": [
                -1.140567916409203,
                -1.885273979636984,
                1.897447290582327,
                -1.6106727636842448,
                1.3143559609762587,
                0.6824966590764596
            ]
        },
        {
            "positions": [
                -1.1514182629043326,
                -1.8792847017572916,
                1.8863491684333764,
                -1.6194152348870594,
                1.186232131565884,
                0.46429652531289256
            ]
        },
        {
            "positions": [
                -1.1622686093994623,
                -1.8732954238775992,
                1.8752510462844258,
                -1.628157706089874,
                1.0581083021555093,
                0.24609639154932528
            ]
        },
        {
            "positions": [
                -1.1731189558945918,
                -1.8673061459979068,
                1.8641529241354753,
                -1.6369001772926888,
                0.9299844727451345,
                0.027896257785758216
            ]
        },
        {
            "positions": [
                -1.1839693023897215,
                -1.8613168681182144,
                1.8530548019865245,
                -1.6456426484955033,
                0.8018606433347598,
                -0.19030387597780885
            ]
        },
        {
            "positions": [
                -1.194819648884851,
                -1.855327590238522,
                1.841956679837574,
                -1.6543851196983181,
                0.673736813924385,
                -0.40850400974137613
            ]
        },
        {
            "positions": [
                -1.2056699953799808,
                -1.8493383123588296,
                1.8308585576886234,
                -1.6631275909011327,
                0.5456129845140103,
                -0.6267041435049434
            ]
        },
        {
            "positions": [
                -1.2165203418751103,
                -1.8433490344791372,
                1.8197604355396728,
                -1.6718700621039473,
                0.4174891551036355,
                -0.8449042772685107
            ]
        },
        {
            "positions": [
                -1.22737068837024,
                -1.8373597565994448,
                1.8086623133907223,
                -1.680612533306762,
                0.2893653256932609,
                -1.0631044110320775
            ]
        },
        {
            "positions": [
                -1.2382210348653695,
                -1.8313704787197524,
                1.7975641912417717,
                -1.6893550045095767,
                0.16124149628288614,
                -1.281304544795645
            ]
        },
        {
            "positions": [
                -1.1334676436156836,
                -1.7787288197507396,
                1.8120453565556065,
                -1.6244309782436304,
                0.1586205025494466,
                -1.4240342951845926
            ]
        },
        {
            "positions": [
                -1.0287142523659978,
                -1.7260871607817267,
                1.8265265218694413,
                -1.5595069519776839,
                0.15599950881600705,
                -1.5667640455735399
            ]
        },
        {
            "positions": [
                -0.9239608611163119,
                -1.673445501812714,
                1.8410076871832761,
                -1.4945829257117376,
                0.1533785150825675,
                -1.7094937959624874
            ]
        },
        {
            "positions": [
                -0.8192074698666261,
                -1.620803842843701,
                1.855488852497111,
                -1.429658899445791,
                0.15075752134912798,
                -1.8522235463514347
            ]
        },
        {
            "positions": [
                -0.7144540786169402,
                -1.5681621838746882,
                1.8699700178109457,
                -1.3647348731798448,
                0.14813652761568843,
                -1.9949532967403822
            ]
        },
        {
            "positions": [
                -0.6097006873672544,
                -1.5155205249056753,
                1.8844511831247805,
                -1.2998108469138983,
                0.1455155338822489,
                -2.1376830471293298
            ]
        },
        {
            "positions": [
                -0.5049472961175685,
                -1.4628788659366625,
                1.8989323484386151,
                -1.234886820647952,
                0.14289454014880934,
                -2.280412797518277
            ]
        },
        {
            "positions": [
                -0.40019390486788264,
                -1.4102372069676496,
                1.91341351375245,
                -1.1699627943820055,
                0.1402735464153698,
                -2.423142547907225
            ]
        },
        {
            "positions": [
                -0.2954405136181968,
                -1.3575955479986368,
                1.9278946790662848,
                -1.1050387681160592,
                0.13765255268193025,
                -2.565872298296172
            ]
        },
        {
            "positions": [
                -0.19068712236851093,
                -1.304953889029624,
                1.9423758443801196,
                -1.0401147418501129,
                0.13503155894849073,
                -2.7086020486851194
            ]
        },
        {
            "positions": [
                -0.08593373111882507,
                -1.252312230060611,
                1.9568570096939544,
                -0.9751907155841665,
                0.13241056521505118,
                -2.8513317990740665
            ]
        },
        {
            "positions": [
                0.018819660130860782,
                -1.1996705710915982,
                1.9713381750077892,
                -0.91026668931822,
                0.12978957148161163,
                -2.994061549463014
            ]
        },
        {
            "positions": [
                0.12357305138054664,
                -1.1470289121225854,
                1.985819340321624,
                -0.8453426630522737,
                0.12716857774817208,
                -3.1367912998519616
            ]
        }
    ]
}