{
    "goal": {
        "global_pose": {
            "orientation": {
                "w": 0.7047431468963623,
                "x": -0.7094548344612122,
                "y": 0.0024358443915843964,
                "z": -0.0022348060738295317
            },
            "position": {
                "x": 0.6094750761985779,
                "y": 0.3671506643295288,
                "z": 0.19426114857196808
            }
        },
        "name": "move_to_magneteinheit_A"
    },
    "id": "LazyPRMstar_move_to_magneteinheit_A_116",
    "joint_names": [
        "shoulder_pan_joint",
        "shoulder_lift_joint",
        "elbow_joint",
        "wrist_1_joint",
        "wrist_2_joint",
        "wrist_3_joint"
    ],
    "metrics": {
        "cart_traj_len": 4.11534436642408,
        "distance_elbow_joint": 3.9109708310119196,
        "distance_shoulder_lift_joint": 0.44603643147278516,
        "distance_shoulder_pan_joint": 3.3363360185997393,
        "distance_wrist_1_joint": 1.451056441728673,
        "distance_wrist_2_joint": 2.8294654486515656,
        "distance_wrist_3_joint": 3.574207483710782,
        "smoothness": 0.35921273742262755,
        "time": 5.028817823000001,
        "traj_len": 3.943104443858349,
        "weighted_distance": 5.193939690926077
    },
    "planner": "LazyPRMstar",
    "start": {
        "state": {
            "elbow_joint": -1.919618573717145,
            "shoulder_lift_joint": -1.2443395971678275,
            "shoulder_pan_joint": 2.6996025300909787,
            "wrist_1_joint": -1.548550951253194,
            "wrist_2_joint": -1.5709469090946802,
            "wrist_3_joint": 0.4420197732051276
        }
    },
    "waypoints": [
        {
            "positions": [
                2.6996025300909787,
                -1.2443395971678275,
                -1.919618573717145,
                -1.548550951253194,
                -1.5709469090946802,
                0.4420197732051276
            ]
        },
        {
            "positions": [
                2.610017022028265,
                -1.236130533935096,
                -1.8260020718267773,
                -1.516158012080071,
                -1.5021780299174747,
                0.3435386161145738
            ]
        },
        {
            "positions": [
                2.520431513965551,
                -1.2279214707023647,
                -1.7323855699364095,
                -1.483765072906948,
                -1.4334091507402695,
                0.24505745902402007
            ]
        },
        {
            "positions": [
                2.430846005902837,
                -1.2197124074696335,
                -1.6387690680460418,
                -1.4513721337338252,
                -1.3646402715630641,
                0.14657630193346632
            ]
        },
        {
            "positions": [
                2.3412604978401235,
                -1.211503344236902,
                -1.5451525661556742,
                -1.4189791945607022,
                -1.295871392385859,
                0.04809514484291255
            ]
        },
        {
            "positions": [
                2.2516749897774098,
                -1.2032942810041707,
                -1.4515360642653063,
                -1.3865862553875792,
                -1.2271025132086535,
                -0.050386012247641165
            ]
        },
        {
            "positions": [
                2.1620894817146956,
                -1.1950852177714393,
                -1.3579195623749387,
                -1.3541933162144562,
                -1.158333634031448,
                -0.14886716933819494
            ]
        },
        {
            "positions": [
                2.072503973651982,
                -1.1868761545387079,
                -1.264303060484571,
                -1.3218003770413331,
                -1.0895647548542429,
                -0.24734832642874865
            ]
        },
        {
            "positions": [
                1.9829184655892682,
                -1.1786670913059765,
                -1.1706865585942032,
                -1.2894074378682103,
                -1.0207958756770374,
                -0.3458294835193025
            ]
        },
        {
            "positions": [
                1.8933329575265545,
                -1.170458028073245,
                -1.0770700567038358,
                -1.2570144986950873,
                -0.9520269964998322,
                -0.4443106406098561
            ]
        },
        {
            "positions": [
                1.8037474494638404,
                -1.1622489648405139,
                -0.9834535548134679,
                -1.2246215595219643,
                -0.8832581173226268,
                -0.54279179770041
            ]
        },
        {
            "positions": [
                1.7141619414011267,
                -1.1540399016077825,
                -0.8898370529231003,
                -1.1922286203488413,
                -0.8144892381454215,
                -0.6412729547909635
            ]
        },
        {
            "positions": [
                1.6245764333384127,
                -1.145830838375051,
                -0.7962205510327325,
                -1.1598356811757182,
                -0.7457203589682161,
                -0.7397541118815174
            ]
        },
        {
            "positions": [
                1.534990925275699,
                -1.1376217751423197,
                -0.7026040491423649,
                -1.1274427420025952,
                -0.6769514797910109,
                -0.8382352689720711
            ]
        },
        {
            "positions": [
                1.445405417212985,
                -1.1294127119095883,
                -0.608987547251997,
                -1.0950498028294722,
                -0.6081826006138055,
                -0.9367164260626248
            ]
        },
        {
            "positions": [
                1.3558199091502714,
                -1.121203648676857,
                -0.5153710453616294,
                -1.0626568636563494,
                -0.5394137214366002,
                -1.0351975831531786
            ]
        },
        {
            "positions": [
                1.2662344010875575,
                -1.1129945854441257,
                -0.4217545434712615,
                -1.0302639244832263,
                -0.47064484225939474,
                -1.1336787402437325
            ]
        },
        {
            "positions": [
                1.1766488930248438,
                -1.1047855222113943,
                -0.3281380415808941,
                -0.9978709853101033,
                -0.40187596308218954,
                -1.232159897334286
            ]
        },
        {
            "positions": [
                1.08706338496213,
                -1.0965764589786628,
                -0.23452153969052647,
                -0.9654780461369804,
                -0.33310708390498434,
                -1.3306410544248397
            ]
        },
        {
            "positions": [
                0.9974778768994159,
                -1.0883673957459314,
                -0.1409050378001584,
                -0.9330851069638573,
                -0.2643382047277787,
                -1.4291222115153939
            ]
        },
        {
            "positions": [
                0.9078923688367022,
                -1.0801583325132,
                -0.04728853590979076,
                -0.9006921677907344,
                -0.1955693255505735,
                -1.5276033686059474
            ]
        },
        {
            "positions": [
                0.8183068607739885,
                -1.0719492692804686,
                0.04632796598057687,
                -0.8682992286176114,
                -0.12680044637336807,
                -1.626084525696501
            ]
        },
        {
            "positions": [
                0.7287213527112746,
                -1.0637402060477374,
                0.13994446787094428,
                -0.8359062894444884,
                -0.05803156719616287,
                -1.7245656827870546
            ]
        },
        {
            "positions": [
                0.6391358446485604,
                -1.055531142815006,
                0.23356096976131258,
                -0.8035133502713654,
                0.010737311981042552,
                -1.823046839877609
            ]
        },
        {
            "positions": [
                0.5495503365858467,
                -1.0473220795822746,
                0.32717747165168,
                -0.7711204110982425,
                0.07950619115824797,
                -1.9215279969681625
            ]
        },
        {
            "positions": [
                0.45996482852313303,
                -1.0391130163495432,
                0.42079397354204784,
                -0.7387274719251194,
                0.14827507033545317,
                -2.020009154058716
            ]
        },
        {
            "positions": [
                0.3703793204604193,
                -1.0309039531168118,
                0.5144104754324152,
                -0.7063345327519965,
                0.21704394951265837,
                -2.11849031114927
            ]
        },
        {
            "positions": [
                0.2807938123977052,
                -1.0226948898840806,
                0.6080269773227831,
                -0.6739415935788734,
                0.285812828689864,
                -2.216971468239824
            ]
        },
        {
            "positions": [
                0.19120830433499147,
                -1.0144858266513492,
                0.701643479213151,
                -0.6415486544057505,
                0.3545817078670692,
                -2.3154526253303773
            ]
        },
        {
            "positions": [
                0.10162279627227777,
                -1.0062767634186178,
                0.7952599811035184,
                -0.6091557152326276,
                0.42335058704427464,
                -2.4139337824209313
            ]
        },
        {
            "positions": [
                0.012037288209564068,
                -0.9980677001858864,
                0.8888764829938862,
                -0.5767627760595045,
                0.49211946622147984,
                -2.5124149395114848
            ]
        },
        {
            "positions": [
                -0.07754821985315008,
                -0.989858636953155,
                0.9824929848842541,
                -0.5443698368863814,
                0.5608883453986855,
                -2.6108960966020387
            ]
        },
        {
            "positions": [
                -0.16713372791586378,
                -0.9816495737204236,
                1.076109486774622,
                -0.5119768977132586,
                0.6296572245758907,
                -2.7093772536925926
            ]
        },
        {
            "positions": [
                -0.25671923597857765,
                -0.9734405104876923,
                1.1697259886649891,
                -0.4795839585401356,
                0.6984261037530961,
                -2.807858410783146
            ]
        },
        {
            "positions": [
                -0.20243148561712304,
                -0.9984601311723565,
                1.2871011698978156,
                -0.5341681655423662,
                0.618412898638269,
                -2.8541911678863614
            ]
        },
        {
            "positions": [
                -0.1481437352556684,
                -1.023479751857021,
                1.404476351130642,
                -0.588752372544597,
                0.5383996935234419,
                -2.900523924989577
            ]
        },
        {
            "positions": [
                -0.09385598489421379,
                -1.0484993725416851,
                1.5218515323634685,
                -0.6433365795468277,
                0.4583864884086146,
                -2.9468566820927924
            ]
        },
        {
            "positions": [
                -0.03956823453275915,
                -1.0735189932263494,
                1.6392267135962948,
                -0.6979207865490584,
                0.3783732832937875,
                -2.993189439196008
            ]
        },
        {
            "positions": [
                0.014719515828695517,
                -1.0985386139110138,
                1.7566018948291213,
                -0.7525049935512891,
                0.2983600781789603,
                -3.0395221962992234
            ]
        },
        {
            "positions": [
                0.06900726619015007,
                -1.123558234595678,
                1.8739770760619479,
                -0.8070892005535197,
                0.2183468730641332,
                -3.085854953402439
            ]
        },
        {
            "positions": [
                0.12329501655160476,
                -1.1485778552803423,
                1.9913522572947742,
                -0.8616734075557505,
                0.13833366794930602,
                -3.1321877105056544
            ]
        }
    ]
}{
    "goal": {
        "global_pose": {
            "orientation": {
                "w": 0.7047431468963623,
                "x": -0.7094548344612122,
                "y": 0.0024358443915843964,
                "z": -0.0022348060738295317
            },
            "position": {
                "x": 0.6094750761985779,
                "y": 0.3671506643295288,
                "z": 0.19426114857196808
            }
        },
        "name": "move_to_magneteinheit_A"
    },
    "id": "LazyPRMstar_move_to_magneteinheit_A_116",
    "joint_names": [
        "shoulder_pan_joint",
        "shoulder_lift_joint",
        "elbow_joint",
        "wrist_1_joint",
        "wrist_2_joint",
        "wrist_3_joint"
    ],
    "metrics": {
        "cart_traj_len": 1.198501844624228,
        "distance_elbow_joint": 0.06712598572524286,
        "distance_shoulder_lift_joint": 0.750303337157012,
        "distance_shoulder_pan_joint": 1.241637248743693,
        "distance_wrist_1_joint": 0.745834218106499,
        "distance_wrist_2_joint": 1.4450789506579076,
        "distance_wrist_3_joint": 2.0366427748133873,
        "smoothness": 0.0,
        "time": 5.000906166,
        "traj_len": 2.5073138046929313,
        "weighted_distance": 3.5427138232709288
    },
    "planner": "LazyPRMstar",
    "start": {
        "state": {
            "elbow_joint": 1.919643534880228,
            "shoulder_lift_joint": -1.8972525353963687,
            "shoulder_pan_joint": -1.1188672234189438,
            "wrist_1_joint": -1.5931878212786155,
            "wrist_2_joint": 1.5706036197970081,
            "wrist_3_joint": 1.118896926603594
        }
    },
    "waypoints": [
        {
            "positions": [
                -1.1188672234189438,
                -1.8972525353963687,
                1.919643534880228,
                -1.5931878212786155,
                1.5706036197970081,
                1.118896926603594
            ]
        },
        {
            "positions": [
                -1.041264895372463,
                -1.8503585768240556,
                1.9238389089880559,
                -1.5465731826469593,
                1.4802861853808889,
                1.2461871000294307
            ]
        },
        {
            "positions": [
                -0.9636625673259822,
                -1.8034646182517422,
                1.9280342830958834,
                -1.4999585440153032,
                1.3899687509647696,
                1.3734772734552674
            ]
        },
        {
            "positions": [
                -0.8860602392795014,
                -1.756570659679429,
                1.9322296572037112,
                -1.453343905383647,
                1.2996513165486505,
                1.500767446881104
            ]
        },
        {
            "positions": [
                -0.8084579112330206,
                -1.7096767011071157,
                1.9364250313115388,
                -1.4067292667519906,
                1.2093338821325312,
                1.6280576203069408
            ]
        },
        {
            "positions": [
                -0.7308555831865398,
                -1.6627827425348025,
                1.9406204054193665,
                -1.3601146281203345,
                1.119016447716412,
                1.7553477937327775
            ]
        },
        {
            "positions": [
                -0.6532532551400589,
                -1.6158887839624891,
                1.944815779527194,
                -1.3134999894886783,
                1.028699013300293,
                1.8826379671586142
            ]
        },
        {
            "positions": [
                -0.5756509270935781,
                -1.568994825390176,
                1.9490111536350219,
                -1.2668853508570221,
                0.9383815788841736,
                2.009928140584451
            ]
        },
        {
            "positions": [
                -0.4980485990470973,
                -1.5221008668178628,
                1.9532065277428496,
                -1.220270712225366,
                0.8480641444680543,
                2.137218314010288
            ]
        },
        {
            "positions": [
                -0.4204462710006165,
                -1.4752069082455495,
                1.9574019018506772,
                -1.1736560735937098,
                0.7577467100519351,
                2.2645084874361245
            ]
        },
        {
            "positions": [
                -0.34284394295413567,
                -1.428312949673236,
                1.961597275958505,
                -1.1270414349620537,
                0.6674292756358159,
                2.3917986608619612
            ]
        },
        {
            "positions": [
                -0.26524161490765485,
                -1.381418991100923,
                1.9657926500663325,
                -1.0804267963303973,
                0.5771118412196967,
                2.519088834287798
            ]
        },
        {
            "positions": [
                -0.18763928686117404,
                -1.3345250325286098,
                1.9699880241741603,
                -1.0338121576987414,
                0.48679440680357744,
                2.6463790077136347
            ]
        },
        {
            "positions": [
                -0.11003695881469322,
                -1.2876310739562964,
                1.9741833982819879,
                -0.9871975190670851,
                0.39647697238745816,
                2.7736691811394714
            ]
        },
        {
            "positions": [
                -0.0324346307682124,
                -1.2407371153839832,
                1.9783787723898156,
                -0.9405828804354288,
                0.3061595379713391,
                2.900959354565308
            ]
        },
        {
            "positions": [
                0.045167697278268415,
                -1.19384315681167,
                1.9825741464976432,
                -0.8939682418037727,
                0.21584210355521982,
                3.0282495279911448
            ]
        },
        {
            "positions": [
                0.12277002532474912,
                -1.1469491982393567,
                1.986769520605471,
                -0.8473536031721165,
                0.12552466913910057,
                3.1555397014169815
            ]
        }
    ]
}