{
    "goal": {
        "global_pose": {
            "orientation": {
                "w": 0.5084816217422485,
                "x": -0.49083608388900757,
                "y": 0.5182115435600281,
                "z": -0.4816462993621826
            },
            "position": {
                "x": 0.5540239810943604,
                "y": 0.030875300988554955,
                "z": 0.16403168439865112
            }
        },
        "name": "move_to_storage_A"
    },
    "id": "LazyPRMstar_move_to_storage_A_141",
    "joint_names": [
        "shoulder_pan_joint",
        "shoulder_lift_joint",
        "elbow_joint",
        "wrist_1_joint",
        "wrist_2_joint",
        "wrist_3_joint"
    ],
    "metrics": {
        "cart_traj_len": 0.3530525095755426,
        "distance_elbow_joint": 0.4534414561871216,
        "distance_shoulder_lift_joint": 0.23272811518669068,
        "distance_shoulder_pan_joint": 0.45926771904459623,
        "distance_wrist_1_joint": 0.25915446442218715,
        "distance_wrist_2_joint": 1.1087318217114692,
        "distance_wrist_3_joint": 0.11059399678493875,
        "smoothness": 2.2204460668324854e-16,
        "time": 5.000174390000001,
        "traj_len": 1.6198510960384613,
        "weighted_distance": 2.052557393360911
    },
    "planner": "LazyPRMstar",
    "start": {
        "state": {
            "elbow_joint": 1.9715477243005601,
            "shoulder_lift_joint": -1.1394853015351272,
            "shoulder_pan_joint": 0.12281154014795169,
            "wrist_1_joint": -0.7804696478968182,
            "wrist_2_joint": 0.12958648046900423,
            "wrist_3_joint": -3.192491284697111
        }
    },
    "waypoints": [
        {
            "positions": [
                0.12281154014795169,
                -1.1394853015351272,
                1.9715477243005601,
                -0.7804696478968182,
                0.12958648046900423,
                -3.192491284697111
            ]
        },
        {
            "positions": [
                0.057201865998723664,
                -1.1727321751332258,
                2.036325075184435,
                -0.817491714242845,
                0.2879767407134998,
                -3.1766921422992627
            ]
        },
        {
            "positions": [
                -0.008407808150504362,
                -1.2059790487313244,
                2.101102426068309,
                -0.8545137805888716,
                0.4463670009579954,
                -3.1608929999014146
            ]
        },
        {
            "positions": [
                -0.07401748229973239,
                -1.239225922329423,
                2.165879776952184,
                -0.8915358469348984,
                0.604757261202491,
                -3.145093857503566
            ]
        },
        {
            "positions": [
                -0.1396271564489604,
                -1.2724727959275217,
                2.230657127836058,
                -0.9285579132809251,
                0.7631475214469866,
                -3.1292947151057176
            ]
        },
        {
            "positions": [
                -0.20523683059818848,
                -1.3057196695256206,
                2.295434478719933,
                -0.9655799796269519,
                0.9215377816914823,
                -3.113495572707869
            ]
        },
        {
            "positions": [
                -0.27084650474741645,
                -1.3389665431237192,
                2.360211829603807,
                -1.0026020459729785,
                1.0799280419359778,
                -3.097696430310021
            ]
        },
        {
            "positions": [
                -0.33645617889664453,
                -1.3722134167218178,
                2.4249891804876818,
                -1.0396241123190053,
                1.2383183021804736,
                -3.0818972879121724
            ]
        }
    ]
}