{
    "goal": {
        "global_pose": {
            "orientation": {
                "w": 0.7047431468963623,
                "x": -0.7094548344612122,
                "y": 0.0024358443915843964,
                "z": -0.0022348060738295317
            },
            "position": {
                "x": 0.6094750761985779,
                "y": 0.3671506643295288,
                "z": 0.19426114857196808
            }
        },
        "name": "move_to_magneteinheit_A"
    },
    "id": "LazyPRMstar_move_to_magneteinheit_A_105",
    "joint_names": [
        "shoulder_pan_joint",
        "shoulder_lift_joint",
        "elbow_joint",
        "wrist_1_joint",
        "wrist_2_joint",
        "wrist_3_joint"
    ],
    "metrics": {
        "cart_traj_len": 4.072049013006092,
        "distance_elbow_joint": 4.32326116242352,
        "distance_shoulder_lift_joint": 0.770323512635146,
        "distance_shoulder_pan_joint": 3.255523662753093,
        "distance_wrist_1_joint": 0.7505525104146739,
        "distance_wrist_2_joint": 2.0406060429408295,
        "distance_wrist_3_joint": 4.1764272250877905,
        "smoothness": 0.4847311542822269,
        "time": 5.025876949,
        "traj_len": 3.9136548284506456,
        "weighted_distance": 5.1439971928244805
    },
    "planner": "LazyPRMstar",
    "start": {
        "state": {
            "elbow_joint": -1.919618573717145,
            "shoulder_lift_joint": -1.2443395971678275,
            "shoulder_pan_joint": 2.6996025300909787,
            "wrist_1_joint": -1.548550951253194,
            "wrist_2_joint": -1.5709469090946802,
            "wrist_3_joint": 0.4420197732051276
        }
    },
    "waypoints": [
        {
            "positions": [
                2.6996025300909787,
                -1.2443395971678275,
                -1.919618573717145,
                -1.548550951253194,
                -1.5709469090946802,
                0.4420197732051276
            ]
        },
        {
            "positions": [
                2.6196866624216044,
                -1.230236205965604,
                -1.8239357559686733,
                -1.5416937074709312,
                -1.520241078145058,
                0.3036148082267348
            ]
        },
        {
            "positions": [
                2.5397707947522297,
                -1.2161328147633805,
                -1.7282529382202017,
                -1.5348364636886682,
                -1.4695352471954357,
                0.16520984324834198
            ]
        },
        {
            "positions": [
                2.4598549270828554,
                -1.2020294235611573,
                -1.6325701204717298,
                -1.5279792199064053,
                -1.4188294162458135,
                0.02680487826994915
            ]
        },
        {
            "positions": [
                2.379939059413481,
                -1.1879260323589338,
                -1.5368873027232581,
                -1.5211219761241423,
                -1.3681235852961913,
                -0.11160008670844362
            ]
        },
        {
            "positions": [
                2.3000231917441063,
                -1.1738226411567103,
                -1.4412044849747865,
                -1.5142647323418794,
                -1.317417754346569,
                -0.25000505168683645
            ]
        },
        {
            "positions": [
                2.220107324074732,
                -1.1597192499544868,
                -1.3455216672263148,
                -1.5074074885596165,
                -1.2667119233969468,
                -0.3884100166652293
            ]
        },
        {
            "positions": [
                2.1401914564053577,
                -1.1456158587522633,
                -1.2498388494778432,
                -1.5005502447773535,
                -1.2160060924473246,
                -0.5268149816436221
            ]
        },
        {
            "positions": [
                2.060275588735983,
                -1.13151246755004,
                -1.1541560317293715,
                -1.4936930009950904,
                -1.1653002614977024,
                -0.6652199466220148
            ]
        },
        {
            "positions": [
                1.9803597210666086,
                -1.1174090763478166,
                -1.0584732139808997,
                -1.4868357572128275,
                -1.1145944305480802,
                -0.8036249116004077
            ]
        },
        {
            "positions": [
                1.900443853397234,
                -1.1033056851455931,
                -0.962790396232428,
                -1.4799785134305645,
                -1.063888599598458,
                -0.9420298765788004
            ]
        },
        {
            "positions": [
                1.8205279857278596,
                -1.0892022939433696,
                -0.8671075784839564,
                -1.4731212696483016,
                -1.0131827686488357,
                -1.0804348415571934
            ]
        },
        {
            "positions": [
                1.7406121180584853,
                -1.0750989027411464,
                -0.7714247607354847,
                -1.4662640258660387,
                -0.9624769376992136,
                -1.218839806535586
            ]
        },
        {
            "positions": [
                1.6606962503891107,
                -1.060995511538923,
                -0.6757419429870128,
                -1.4594067820837757,
                -0.9117711067495914,
                -1.357244771513979
            ]
        },
        {
            "positions": [
                1.5807803827197362,
                -1.0468921203366994,
                -0.5800591252385412,
                -1.4525495383015128,
                -0.8610652757999692,
                -1.4956497364923718
            ]
        },
        {
            "positions": [
                1.5008645150503617,
                -1.032788729134476,
                -0.48437630749006955,
                -1.4456922945192499,
                -0.8103594448503469,
                -1.6340547014707645
            ]
        },
        {
            "positions": [
                1.4209486473809874,
                -1.0186853379322525,
                -0.3886934897415979,
                -1.438835050736987,
                -0.7596536139007248,
                -1.7724596664491572
            ]
        },
        {
            "positions": [
                1.3410327797116128,
                -1.0045819467300292,
                -0.29301067199312625,
                -1.431977806954724,
                -0.7089477829511026,
                -1.91086463142755
            ]
        },
        {
            "positions": [
                1.2611169120422383,
                -0.9904785555278057,
                -0.19732785424465438,
                -1.425120563172461,
                -0.6582419520014803,
                -2.049269596405943
            ]
        },
        {
            "positions": [
                1.1812010443728638,
                -0.9763751643255822,
                -0.10164503649618273,
                -1.4182633193901981,
                -0.6075361210518581,
                -2.187674561384336
            ]
        },
        {
            "positions": [
                1.1012851767034895,
                -0.9622717731233588,
                -0.005962218747711079,
                -1.411406075607935,
                -0.556830290102236,
                -2.3260795263627285
            ]
        },
        {
            "positions": [
                1.021369309034115,
                -0.9481683819211354,
                0.08972059900076057,
                -1.404548831825672,
                -0.5061244591526137,
                -2.4644844913411212
            ]
        },
        {
            "positions": [
                0.9414534413647404,
                -0.934064990718912,
                0.18540341674923222,
                -1.397691588043409,
                -0.4554186282029915,
                -2.6028894563195144
            ]
        },
        {
            "positions": [
                0.8615375736953661,
                -0.9199615995166885,
                0.28108623449770387,
                -1.3908343442611462,
                -0.4047127972533693,
                -2.741294421297907
            ]
        },
        {
            "positions": [
                0.7816217060259916,
                -0.9058582083144651,
                0.3767690522461755,
                -1.3839771004788832,
                -0.35400696630374706,
                -2.8796993862763
            ]
        },
        {
            "positions": [
                0.701705838356617,
                -0.8917548171122416,
                0.4724518699946476,
                -1.3771198566966203,
                -0.30330113535412484,
                -3.018104351254693
            ]
        },
        {
            "positions": [
                0.6217899706872427,
                -0.8776514259100182,
                0.5681346877431193,
                -1.3702626129143574,
                -0.2525953044045026,
                -3.1565093162330857
            ]
        },
        {
            "positions": [
                0.541874103017868,
                -0.8635480347077948,
                0.6638175054915909,
                -1.3634053691320944,
                -0.2018894734548804,
                -3.2949142812114784
            ]
        },
        {
            "positions": [
                0.4619582353484936,
                -0.8494446435055714,
                0.7595003232400626,
                -1.3565481253498315,
                -0.15118364250525823,
                -3.433319246189871
            ]
        },
        {
            "positions": [
                0.386592369292566,
                -0.8865488106355572,
                0.9183702696580444,
                -1.3228833993997415,
                -0.10070197576199615,
                -3.4359652687161413
            ]
        },
        {
            "positions": [
                0.3112265032366384,
                -0.923652977765543,
                1.0772402160760262,
                -1.2892186734496514,
                -0.05022030901873406,
                -3.4386112912424114
            ]
        },
        {
            "positions": [
                0.23586063718071082,
                -0.9607571448955289,
                1.236110162494008,
                -1.2555539474995614,
                0.00026135772452801076,
                -3.4412573137686815
            ]
        },
        {
            "positions": [
                0.16049477112478322,
                -0.9978613120255146,
                1.39498010891199,
                -1.2218892215494714,
                0.05074302446779011,
                -3.4439033362949516
            ]
        },
        {
            "positions": [
                0.08512890506885556,
                -1.0349654791555005,
                1.553850055329972,
                -1.1882244955993813,
                0.10122469121105221,
                -3.4465493588212217
            ]
        },
        {
            "positions": [
                0.009763039012928021,
                -1.0720696462854864,
                1.7127200017479536,
                -1.1545597696492913,
                0.15170635795431425,
                -3.449195381347492
            ]
        },
        {
            "positions": [
                -0.06560282704299963,
                -1.109173813415472,
                1.8715899481659355,
                -1.1208950436992013,
                0.2021880246975764,
                -3.451841403873762
            ]
        },
        {
            "positions": [
                -0.14096869309892718,
                -1.146277980545458,
                2.030459894583917,
                -1.0872303177491114,
                0.25266969144083845,
                -3.454487426400032
            ]
        },
        {
            "positions": [
                -0.21633455915485483,
                -1.1833821476754438,
                2.189329841001899,
                -1.0535655917990212,
                0.30315135818410055,
                -3.457133448926302
            ]
        },
        {
            "positions": [
                -0.13143791577803984,
                -1.1730093839746893,
                2.13575165407578,
                -0.9896738040588959,
                0.26152441426858847,
                -3.387814948187212
            ]
        },
        {
            "positions": [
                -0.046541272401224854,
                -1.162636620273935,
                2.0821734671496617,
                -0.9257820163187707,
                0.21989747035307644,
                -3.3184964474481213
            ]
        },
        {
            "positions": [
                0.03835537097559011,
                -1.1522638565731809,
                2.0285952802235427,
                -0.8618902285786455,
                0.17827052643756436,
                -3.2491779467090307
            ]
        },
        {
            "positions": [
                0.12325201435240515,
                -1.1418910928724264,
                1.975017093297424,
                -0.7979984408385202,
                0.1366435825220523,
                -3.1798594459699405
            ]
        }
    ]
}{
    "goal": {
        "global_pose": {
            "orientation": {
                "w": 0.7047431468963623,
                "x": -0.7094548344612122,
                "y": 0.0024358443915843964,
                "z": -0.0022348060738295317
            },
            "position": {
                "x": 0.6094750761985779,
                "y": 0.3671506643295288,
                "z": 0.19426114857196808
            }
        },
        "name": "move_to_magneteinheit_A"
    },
    "id": "LazyPRMstar_move_to_magneteinheit_A_105",
    "joint_names": [
        "shoulder_pan_joint",
        "shoulder_lift_joint",
        "elbow_joint",
        "wrist_1_joint",
        "wrist_2_joint",
        "wrist_3_joint"
    ],
    "metrics": {
        "cart_traj_len": 1.1955233132165999,
        "distance_elbow_joint": 0.06576002718996876,
        "distance_shoulder_lift_joint": 0.7504684046645607,
        "distance_shoulder_pan_joint": 1.240712994499692,
        "distance_wrist_1_joint": 0.7441295481553599,
        "distance_wrist_2_joint": 1.450938482033841,
        "distance_wrist_3_joint": 4.240132778190185,
        "smoothness": 5.921189498184602e-16,
        "time": 5.028678307,
        "traj_len": 2.9141280402092162,
        "weighted_distance": 4.378067589850935
    },
    "planner": "LazyPRMstar",
    "start": {
        "state": {
            "elbow_joint": 1.919643534880228,
            "shoulder_lift_joint": -1.8972525353963687,
            "shoulder_pan_joint": -1.1188672234189438,
            "wrist_1_joint": -1.5931878212786155,
            "wrist_2_joint": 1.5706036197970081,
            "wrist_3_joint": 1.118896926603594
        }
    },
    "waypoints": [
        {
            "positions": [
                -1.1188672234189438,
                -1.8972525353963687,
                1.919643534880228,
                -1.5931878212786155,
                1.5706036197970081,
                1.118896926603594
            ]
        },
        {
            "positions": [
                -1.0670630015772347,
                -1.865172593238851,
                1.9226411196611042,
                -1.5614195296400424,
                1.504268923148313,
                0.9204960312434922
            ]
        },
        {
            "positions": [
                -1.0152587797355255,
                -1.8330926510813335,
                1.9256387044419803,
                -1.5296512380014695,
                1.4379342264996182,
                0.7220951358833905
            ]
        },
        {
            "positions": [
                -0.9634545578938163,
                -1.8010127089238157,
                1.9286362892228563,
                -1.4978829463628964,
                1.3715995298509231,
                0.5236942405232887
            ]
        },
        {
            "positions": [
                -0.9116503360521071,
                -1.768932766766298,
                1.9316338740037327,
                -1.4661146547243233,
                1.3052648332022283,
                0.325293345163187
            ]
        },
        {
            "positions": [
                -0.8598461142103979,
                -1.7368528246087804,
                1.9346314587846087,
                -1.4343463630857505,
                1.2389301365535332,
                0.12689244980308523
            ]
        },
        {
            "positions": [
                -0.8080418923686887,
                -1.7047728824512627,
                1.9376290435654848,
                -1.4025780714471774,
                1.1725954399048384,
                -0.07150844555701652
            ]
        },
        {
            "positions": [
                -0.7562376705269797,
                -1.672692940293745,
                1.940626628346361,
                -1.3708097798086043,
                1.1062607432561433,
                -0.26990934091711827
            ]
        },
        {
            "positions": [
                -0.7044334486852705,
                -1.6406129981362274,
                1.943624213127237,
                -1.3390414881700314,
                1.0399260466074485,
                -0.46831023627722
            ]
        },
        {
            "positions": [
                -0.6526292268435613,
                -1.6085330559787097,
                1.946621797908113,
                -1.3072731965314583,
                0.9735913499587534,
                -0.6667111316373218
            ]
        },
        {
            "positions": [
                -0.6008250050018521,
                -1.576453113821192,
                1.9496193826889892,
                -1.2755049048928853,
                0.9072566533100584,
                -0.8651120269974235
            ]
        },
        {
            "positions": [
                -0.5490207831601429,
                -1.5443731716636742,
                1.9526169674698655,
                -1.2437366132543124,
                0.8409219566613634,
                -1.0635129223575255
            ]
        },
        {
            "positions": [
                -0.4972165613184337,
                -1.5122932295061566,
                1.9556145522507415,
                -1.2119683216157393,
                0.7745872600126685,
                -1.261913817717627
            ]
        },
        {
            "positions": [
                -0.44541233947672454,
                -1.4802132873486389,
                1.9586121370316176,
                -1.1802000299771662,
                0.7082525633639735,
                -1.460314713077729
            ]
        },
        {
            "positions": [
                -0.39360811763501546,
                -1.4481333451911214,
                1.9616097218124937,
                -1.1484317383385934,
                0.6419178667152785,
                -1.6587156084378305
            ]
        },
        {
            "positions": [
                -0.34180389579330617,
                -1.4160534030336036,
                1.9646073065933698,
                -1.1166634467000203,
                0.5755831700665835,
                -1.8571165037979325
            ]
        },
        {
            "positions": [
                -0.2899996739515971,
                -1.3839734608760859,
                1.9676048913742459,
                -1.0848951550614472,
                0.5092484734178886,
                -2.0555173991580338
            ]
        },
        {
            "positions": [
                -0.2381954521098879,
                -1.351893518718568,
                1.970602476155122,
                -1.0531268634228743,
                0.4429137767691935,
                -2.2539182945181357
            ]
        },
        {
            "positions": [
                -0.18639123026817872,
                -1.3198135765610506,
                1.9736000609359983,
                -1.0213585717843012,
                0.3765790801204987,
                -2.4523191898782377
            ]
        },
        {
            "positions": [
                -0.13458700842646953,
                -1.287733634403533,
                1.9765976457168744,
                -0.9895902801457283,
                0.3102443834718036,
                -2.6507200852383397
            ]
        },
        {
            "positions": [
                -0.08278278658476035,
                -1.2556536922460153,
                1.9795952304977504,
                -0.9578219885071553,
                0.24390968682310876,
                -2.8491209805984408
            ]
        },
        {
            "positions": [
                -0.030978564743051218,
                -1.2235737500884976,
                1.9825928152786265,
                -0.9260536968685822,
                0.17757499017441378,
                -3.0475218759585427
            ]
        },
        {
            "positions": [
                0.04543360316884848,
                -1.185178940410153,
                1.9839981886744118,
                -0.8875559849959189,
                0.14862006396879057,
                -3.0843788637725664
            ]
        },
        {
            "positions": [
                0.12184577108074819,
                -1.146784130731808,
                1.9854035620701969,
                -0.8490582731232555,
                0.11966513776316735,
                -3.1212358515865906
            ]
        }
    ]
}