{
    "goal": {
        "global_pose": {
            "orientation": {
                "w": 0.7047431468963623,
                "x": -0.7094548344612122,
                "y": 0.0024358443915843964,
                "z": -0.0022348060738295317
            },
            "position": {
                "x": 0.6094750761985779,
                "y": 0.3671506643295288,
                "z": 0.19426114857196808
            }
        },
        "name": "move_to_magneteinheit_A"
    },
    "id": "LazyPRMstar_move_to_magneteinheit_A_122",
    "joint_names": [
        "shoulder_pan_joint",
        "shoulder_lift_joint",
        "elbow_joint",
        "wrist_1_joint",
        "wrist_2_joint",
        "wrist_3_joint"
    ],
    "metrics": {
        "cart_traj_len": 3.6106458109840918,
        "distance_elbow_joint": 3.925968188923465,
        "distance_shoulder_lift_joint": 0.46152461200402217,
        "distance_shoulder_pan_joint": 3.5367154711232587,
        "distance_wrist_1_joint": 4.660009442271751,
        "distance_wrist_2_joint": 1.4388271799779524,
        "distance_wrist_3_joint": 0.48132361924241696,
        "smoothness": 0.42013587546480946,
        "time": 5.03373506,
        "traj_len": 3.8084601236645326,
        "weighted_distance": 4.643904862750463
    },
    "planner": "LazyPRMstar",
    "start": {
        "state": {
            "elbow_joint": -1.919618573717145,
            "shoulder_lift_joint": -1.2443395971678275,
            "shoulder_pan_joint": 2.6996025300909787,
            "wrist_1_joint": -1.548550951253194,
            "wrist_2_joint": -1.5709469090946802,
            "wrist_3_joint": 0.4420197732051276
        }
    },
    "waypoints": [
        {
            "positions": [
                2.6996025300909787,
                -1.2443395971678275,
                -1.919618573717145,
                -1.548550951253194,
                -1.5709469090946802,
                0.4420197732051276
            ]
        },
        {
            "positions": [
                2.6040723179972622,
                -1.234973149046506,
                -1.811343083915329,
                -1.4208104103967498,
                -1.5313589368409906,
                0.4371576890461455
            ]
        },
        {
            "positions": [
                2.5085421059035458,
                -1.2256067009251845,
                -1.7030675941135132,
                -1.2930698695403053,
                -1.4917709645873007,
                0.43229560488716345
            ]
        },
        {
            "positions": [
                2.4130118938098293,
                -1.216240252803863,
                -1.5947921043116973,
                -1.165329328683861,
                -1.452182992333611,
                0.42743352072818136
            ]
        },
        {
            "positions": [
                2.317481681716113,
                -1.2068738046825416,
                -1.4865166145098814,
                -1.0375887878274166,
                -1.4125950200799213,
                0.4225714365691993
            ]
        },
        {
            "positions": [
                2.2219514696223963,
                -1.19750735656122,
                -1.3782411247080655,
                -0.9098482469709723,
                -1.3730070478262317,
                0.4177093524102172
            ]
        },
        {
            "positions": [
                2.12642125752868,
                -1.1881409084398984,
                -1.2699656349062496,
                -0.7821077061145281,
                -1.333419075572542,
                0.4128472682512352
            ]
        },
        {
            "positions": [
                2.030891045434963,
                -1.178774460318577,
                -1.1616901451044337,
                -0.6543671652580837,
                -1.293831103318852,
                0.4079851840922531
            ]
        },
        {
            "positions": [
                1.9353608333412466,
                -1.1694080121972554,
                -1.0534146553026178,
                -0.5266266244016393,
                -1.2542431310651625,
                0.40312309993327106
            ]
        },
        {
            "positions": [
                1.8398306212475302,
                -1.160041564075934,
                -0.9451391655008019,
                -0.39888608354519506,
                -1.214655158811473,
                0.39826101577428896
            ]
        },
        {
            "positions": [
                1.7443004091538137,
                -1.1506751159546125,
                -0.836863675698986,
                -0.2711455426887506,
                -1.175067186557783,
                0.3933989316153069
            ]
        },
        {
            "positions": [
                1.6487701970600972,
                -1.1413086678332909,
                -0.7285881858971701,
                -0.1434050018323063,
                -1.1354792143040933,
                0.38853684745632483
            ]
        },
        {
            "positions": [
                1.5532399849663805,
                -1.1319422197119695,
                -0.6203126960953542,
                -0.01566446097586205,
                -1.0958912420504037,
                0.3836747632973428
            ]
        },
        {
            "positions": [
                1.457709772872664,
                -1.122575771590648,
                -0.5120372062935383,
                0.11207607988058244,
                -1.056303269796714,
                0.3788126791383607
            ]
        },
        {
            "positions": [
                1.3621795607789475,
                -1.1132093234693266,
                -0.40376171649172243,
                0.2398166207370267,
                -1.0167152975430243,
                0.37395059497937866
            ]
        },
        {
            "positions": [
                1.266649348685231,
                -1.103842875348005,
                -0.29548622668990654,
                0.3675571615934712,
                -0.9771273252893345,
                0.36908851082039656
            ]
        },
        {
            "positions": [
                1.1711191365915146,
                -1.0944764272266836,
                -0.18721073688809065,
                0.49529770244991544,
                -0.9375393530356448,
                0.36422642666141447
            ]
        },
        {
            "positions": [
                1.075588924497798,
                -1.085109979105362,
                -0.07893524708627475,
                0.6230382433063597,
                -0.8979513807819551,
                0.35936434250243243
            ]
        },
        {
            "positions": [
                0.9800587124040816,
                -1.0757435309840404,
                0.029340242715541143,
                0.750778784162804,
                -0.8583634085282654,
                0.3545022583434504
            ]
        },
        {
            "positions": [
                0.8845285003103651,
                -1.066377082862719,
                0.13761573251735704,
                0.8785193250192487,
                -0.8187754362745757,
                0.3496401741844683
            ]
        },
        {
            "positions": [
                0.7889982882166486,
                -1.0570106347413974,
                0.24589122231917293,
                1.006259865875693,
                -0.779187464020886,
                0.3447780900254862
            ]
        },
        {
            "positions": [
                0.6934680761229322,
                -1.0476441866200759,
                0.3541667121209888,
                1.1340004067321372,
                -0.7395994917671963,
                0.33991600586650417
            ]
        },
        {
            "positions": [
                0.5979378640292157,
                -1.0382777384987545,
                0.4624422019228047,
                1.2617409475885815,
                -0.7000115195135066,
                0.3350539217075221
            ]
        },
        {
            "positions": [
                0.5024076519354992,
                -1.028911290377433,
                0.5707176917246206,
                1.3894814884450257,
                -0.6604235472598169,
                0.33019183754854003
            ]
        },
        {
            "positions": [
                0.40687743984178226,
                -1.0195448422561115,
                0.6789931815264365,
                1.51722202930147,
                -0.6208355750061272,
                0.32532975338955794
            ]
        },
        {
            "positions": [
                0.3113472277480658,
                -1.01017839413479,
                0.7872686713282524,
                1.6449625701579147,
                -0.5812476027524375,
                0.3204676692305759
            ]
        },
        {
            "positions": [
                0.2158170156543493,
                -1.0008119460134686,
                0.8955441611300683,
                1.772703111014359,
                -0.5416596304987478,
                0.3156055850715938
            ]
        },
        {
            "positions": [
                0.12028680356063282,
                -0.991445497892147,
                1.0038196509318842,
                1.9004436518708032,
                -0.502071658245058,
                0.3107435009126117
            ]
        },
        {
            "positions": [
                0.024756591466916333,
                -0.9820790497708255,
                1.1120951407337,
                2.0281841927272475,
                -0.46248368599136835,
                0.3058814167536297
            ]
        },
        {
            "positions": [
                -0.07077362062680015,
                -0.972712601649504,
                1.220370630535516,
                2.1559247335836917,
                -0.42289571373767876,
                0.30101933259464764
            ]
        },
        {
            "positions": [
                -0.16630383272051663,
                -0.9633461535281824,
                1.3286461203373319,
                2.2836652744401365,
                -0.38330774148398894,
                0.29615724843566554
            ]
        },
        {
            "positions": [
                -0.2618340448142331,
                -0.953979705406861,
                1.4369216101391478,
                2.4114058152965807,
                -0.3437197692302991,
                0.29129516427668345
            ]
        },
        {
            "positions": [
                -0.3573642569079495,
                -0.9446132572855395,
                1.5451970999409637,
                2.539146356153025,
                -0.3041317969766094,
                0.2864330801177014
            ]
        },
        {
            "positions": [
                -0.27740614288722765,
                -0.9176468785985837,
                1.6220558524851898,
                2.443761000342103,
                -0.2754631189999625,
                0.23214359242520294
            ]
        },
        {
            "positions": [
                -0.1974480288665058,
                -0.8906804999116281,
                1.698914605029416,
                2.348375644531181,
                -0.24679444102331563,
                0.1778541047327045
            ]
        },
        {
            "positions": [
                -0.11748991484578397,
                -0.8637141212246724,
                1.7757733575736419,
                2.2529902887202593,
                -0.21812576304666875,
                0.12356461704020602
            ]
        },
        {
            "positions": [
                -0.037531800825062134,
                -0.8367477425377167,
                1.852632110117868,
                2.1576049329093374,
                -0.18945708507002185,
                0.06927512934770758
            ]
        },
        {
            "positions": [
                0.042426313195659704,
                -0.8097813638507609,
                1.9294908626620941,
                2.0622195770984155,
                -0.16078840709337494,
                0.014985641655209103
            ]
        },
        {
            "positions": [
                0.12238442721638157,
                -0.7828149851638053,
                2.0063496152063203,
                1.9668342212874939,
                -0.13211972911672806,
                -0.039303846037289356
            ]
        }
    ]
}{
    "goal": {
        "global_pose": {
            "orientation": {
                "w": 0.7047431468963623,
                "x": -0.7094548344612122,
                "y": 0.0024358443915843964,
                "z": -0.0022348060738295317
            },
            "position": {
                "x": 0.6094750761985779,
                "y": 0.3671506643295288,
                "z": 0.19426114857196808
            }
        },
        "name": "move_to_magneteinheit_A"
    },
    "id": "LazyPRMstar_move_to_magneteinheit_A_122",
    "joint_names": [
        "shoulder_pan_joint",
        "shoulder_lift_joint",
        "elbow_joint",
        "wrist_1_joint",
        "wrist_2_joint",
        "wrist_3_joint"
    ],
    "metrics": {
        "cart_traj_len": 1.2503982972785077,
        "distance_elbow_joint": 0.08742550738287469,
        "distance_shoulder_lift_joint": 1.1127088023595615,
        "distance_shoulder_pan_joint": 1.241170506289375,
        "distance_wrist_1_joint": 3.5730177276486894,
        "distance_wrist_2_joint": 1.6902445593277682,
        "distance_wrist_3_joint": 1.180520249061704,
        "smoothness": 1.4802973778883236e-16,
        "time": 5.001763993,
        "traj_len": 2.98078636471485,
        "weighted_distance": 4.0631748839017305
    },
    "planner": "LazyPRMstar",
    "start": {
        "state": {
            "elbow_joint": 1.919643534880228,
            "shoulder_lift_joint": -1.8972525353963687,
            "shoulder_pan_joint": -1.1188672234189438,
            "wrist_1_joint": -1.5931878212786155,
            "wrist_2_joint": 1.5706036197970081,
            "wrist_3_joint": 1.118896926603594
        }
    },
    "waypoints": [
        {
            "positions": [
                -1.1188672234189438,
                -1.8972525353963687,
                1.919643534880228,
                -1.5931878212786155,
                1.5706036197970081,
                1.118896926603594
            ]
        },
        {
            "positions": [
                -1.0649032883628842,
                -1.8488738918155183,
                1.9234446438968749,
                -1.4378392244243245,
                1.497114725913192,
                1.0675699592530852
            ]
        },
        {
            "positions": [
                -1.0109393533068243,
                -1.8004952482346677,
                1.9272457529135216,
                -1.2824906275700338,
                1.4236258320293762,
                1.0162429919025762
            ]
        },
        {
            "positions": [
                -0.9569754182507645,
                -1.7521166046538172,
                1.9310468619301682,
                -1.127142030715743,
                1.3501369381455601,
                0.9649160245520674
            ]
        },
        {
            "positions": [
                -0.9030114831947047,
                -1.7037379610729668,
                1.934847970946815,
                -0.9717934338614521,
                1.276648044261744,
                0.9135890572015585
            ]
        },
        {
            "positions": [
                -0.849047548138645,
                -1.6553593174921162,
                1.9386490799634617,
                -0.8164448370071613,
                1.2031591503779282,
                0.8622620898510496
            ]
        },
        {
            "positions": [
                -0.7950836130825851,
                -1.6069806739112658,
                1.9424501889801085,
                -0.6610962401528704,
                1.1296702564941121,
                0.8109351225005408
            ]
        },
        {
            "positions": [
                -0.7411196780265253,
                -1.5586020303304151,
                1.9462512979967552,
                -0.5057476432985795,
                1.056181362610296,
                0.7596081551500319
            ]
        },
        {
            "positions": [
                -0.6871557429704656,
                -1.5102233867495647,
                1.950052407013402,
                -0.35039904644428876,
                0.9826924687264801,
                0.708281187799523
            ]
        },
        {
            "positions": [
                -0.6331918079144058,
                -1.4618447431687143,
                1.9538535160300485,
                -0.19505044958999784,
                0.909203574842664,
                0.6569542204490142
            ]
        },
        {
            "positions": [
                -0.5792278728583461,
                -1.4134660995878638,
                1.9576546250466953,
                -0.039701852735707144,
                0.835714680958848,
                0.6056272530985053
            ]
        },
        {
            "positions": [
                -0.5252639378022862,
                -1.3650874560070132,
                1.961455734063342,
                0.11564674411858378,
                0.762225787075032,
                0.5543002857479964
            ]
        },
        {
            "positions": [
                -0.4713000027462265,
                -1.3167088124261628,
                1.9652568430799888,
                0.2709953409728747,
                0.6887368931912161,
                0.5029733183974876
            ]
        },
        {
            "positions": [
                -0.41733606769016673,
                -1.2683301688453121,
                1.9690579520966356,
                0.4263439378271652,
                0.6152479993074002,
                0.4516463510469787
            ]
        },
        {
            "positions": [
                -0.36337213263410684,
                -1.2199515252644617,
                1.9728590611132824,
                0.5816925346814565,
                0.541759105423584,
                0.4003193836964698
            ]
        },
        {
            "positions": [
                -0.30940819757804716,
                -1.1715728816836113,
                1.976660170129929,
                0.737041131535747,
                0.4682702115397679,
                0.3489924163459609
            ]
        },
        {
            "positions": [
                -0.2554442625219874,
                -1.1231942381027609,
                1.9804612791465757,
                0.8923897283900379,
                0.39478131765595204,
                0.2976654489954521
            ]
        },
        {
            "positions": [
                -0.2014803274659276,
                -1.0748155945219104,
                1.9842623881632224,
                1.0477383252443289,
                0.3212924237721362,
                0.24633848164494332
            ]
        },
        {
            "positions": [
                -0.1475163924098677,
                -1.0264369509410596,
                1.9880634971798692,
                1.2030869220986198,
                0.24780352988831988,
                0.1950115142944343
            ]
        },
        {
            "positions": [
                -0.09355245735380802,
                -0.9780583073602093,
                1.991864606196516,
                1.3584355189529107,
                0.17431463600450403,
                0.14368454694392552
            ]
        },
        {
            "positions": [
                -0.03958852229774834,
                -0.9296796637793587,
                1.9956657152131627,
                1.5137841158072012,
                0.10082574212068796,
                0.09235757959341662
            ]
        },
        {
            "positions": [
                0.014375412758311557,
                -0.8813010201985083,
                1.9994668242298093,
                1.669132712661492,
                0.027336848236872102,
                0.04103061224290783
            ]
        },
        {
            "positions": [
                0.06833934781437145,
                -0.8329223766176577,
                2.0032679332464562,
                1.824481309515783,
                -0.046152045646944195,
                -0.010296355107601185
            ]
        },
        {
            "positions": [
                0.1223032828704312,
                -0.7845437330368074,
                2.007069042263103,
                1.979829906370074,
                -0.11964093953075995,
                -0.06162332245811004
            ]
        }
    ]
}