{
    "goal": {
        "global_pose": {
            "orientation": {
                "w": 0.7047431468963623,
                "x": -0.7094548344612122,
                "y": 0.0024358443915843964,
                "z": -0.0022348060738295317
            },
            "position": {
                "x": 0.6094750761985779,
                "y": 0.3671506643295288,
                "z": 0.19426114857196808
            }
        },
        "name": "move_to_magneteinheit_A"
    },
    "id": "LazyPRM_move_to_magneteinheit_A_67",
    "joint_names": [
        "shoulder_pan_joint",
        "shoulder_lift_joint",
        "elbow_joint",
        "wrist_1_joint",
        "wrist_2_joint",
        "wrist_3_joint"
    ],
    "metrics": {
        "cart_traj_len": 3.495334419799579,
        "distance_elbow_joint": 3.880506473134009,
        "distance_shoulder_lift_joint": 0.1111759123485756,
        "distance_shoulder_pan_joint": 2.5763176607968927,
        "distance_wrist_1_joint": 0.9098844685672428,
        "distance_wrist_2_joint": 1.7786922395231684,
        "distance_wrist_3_joint": 2.5830739803849383,
        "smoothness": 0.07221876343340804,
        "time": 0.09462214499999999,
        "traj_len": 3.44087935486771,
        "weighted_distance": 4.437834539909652
    },
    "planner": "LazyPRM",
    "start": {
        "state": {
            "elbow_joint": -1.919618573717145,
            "shoulder_lift_joint": -1.2443395971678275,
            "shoulder_pan_joint": 2.6996025300909787,
            "wrist_1_joint": -1.548550951253194,
            "wrist_2_joint": -1.5709469090946802,
            "wrist_3_joint": 0.4420197732051276
        }
    },
    "waypoints": [
        {
            "positions": [
                2.6996025300909787,
                -1.2443395971678275,
                -1.919618573717145,
                -1.548550951253194,
                -1.5709469090946802,
                0.4420197732051276
            ]
        },
        {
            "positions": [
                2.6079882427972807,
                -1.2416859906565616,
                -1.8119859556049251,
                -1.5174885694338345,
                -1.5086729609590517,
                0.532078492898491
            ]
        },
        {
            "positions": [
                2.516373955503583,
                -1.239032384145296,
                -1.7043533374927056,
                -1.486426187614475,
                -1.4463990128234234,
                0.6221372125918544
            ]
        },
        {
            "positions": [
                2.4247596682098855,
                -1.23637877763403,
                -1.5967207193804858,
                -1.4553638057951155,
                -1.3841250646877952,
                0.7121959322852178
            ]
        },
        {
            "positions": [
                2.3331453809161875,
                -1.2337251711227641,
                -1.4890881012682662,
                -1.424301423975756,
                -1.3218511165521667,
                0.8022546519785811
            ]
        },
        {
            "positions": [
                2.2415310936224895,
                -1.2310715646114985,
                -1.3814554831560464,
                -1.3932390421563965,
                -1.2595771684165382,
                0.8923133716719447
            ]
        },
        {
            "positions": [
                2.149916806328792,
                -1.2284179581002326,
                -1.2738228650438268,
                -1.362176660337037,
                -1.19730322028091,
                0.982372091365308
            ]
        },
        {
            "positions": [
                2.0583025190350943,
                -1.2257643515889667,
                -1.166190246931607,
                -1.3311142785176775,
                -1.1350292721452817,
                1.0724308110586716
            ]
        },
        {
            "positions": [
                1.9666882317413963,
                -1.223110745077701,
                -1.0585576288193872,
                -1.300051896698318,
                -1.0727553240096532,
                1.1624895307520349
            ]
        },
        {
            "positions": [
                1.8750739444476983,
                -1.2204571385664351,
                -0.9509250107071675,
                -1.2689895148789585,
                -1.0104813758740248,
                1.2525482504453984
            ]
        },
        {
            "positions": [
                1.7834596571540007,
                -1.2178035320551692,
                -0.8432923925949478,
                -1.237927133059599,
                -0.9482074277383965,
                1.3426069701387617
            ]
        },
        {
            "positions": [
                1.6918453698603029,
                -1.2151499255439036,
                -0.7356597744827282,
                -1.2068647512402395,
                -0.8859334796027681,
                1.432665689832125
            ]
        },
        {
            "positions": [
                1.600231082566605,
                -1.2124963190326377,
                -0.6280271563705084,
                -1.17580236942088,
                -0.8236595314671398,
                1.5227244095254886
            ]
        },
        {
            "positions": [
                1.5086167952729073,
                -1.2098427125213718,
                -0.5203945382582886,
                -1.1447399876015205,
                -0.7613855833315114,
                1.6127831292188521
            ]
        },
        {
            "positions": [
                1.4170025079792095,
                -1.207189106010106,
                -0.41276192014606905,
                -1.113677605782161,
                -0.699111635195883,
                1.7028418489122155
            ]
        },
        {
            "positions": [
                1.3253882206855117,
                -1.2045354994988402,
                -0.30512930203384947,
                -1.0826152239628013,
                -0.6368376870602547,
                1.7929005686055788
            ]
        },
        {
            "positions": [
                1.2337739333918138,
                -1.2018818929875743,
                -0.19749668392162967,
                -1.051552842143442,
                -0.5745637389246263,
                1.882959288298942
            ]
        },
        {
            "positions": [
                1.1421596460981163,
                -1.1992282864763084,
                -0.08986406580941009,
                -1.0204904603240825,
                -0.5122897907889981,
                1.9730180079923056
            ]
        },
        {
            "positions": [
                1.050545358804418,
                -1.1965746799650427,
                0.017768552302809937,
                -0.9894280785047228,
                -0.4500158426533696,
                2.063076727685669
            ]
        },
        {
            "positions": [
                0.9589310715107204,
                -1.1939210734537768,
                0.12540117041502952,
                -0.9583656966853633,
                -0.3877418945177411,
                2.1531354473790327
            ]
        },
        {
            "positions": [
                0.8673167842170226,
                -1.191267466942511,
                0.23303378852724932,
                -0.9273033148660038,
                -0.32546794638211285,
                2.243194167072396
            ]
        },
        {
            "positions": [
                0.7757024969233248,
                -1.1886138604312453,
                0.3406664066394691,
                -0.8962409330466443,
                -0.2631939982464844,
                2.3332528867657594
            ]
        },
        {
            "positions": [
                0.684088209629627,
                -1.1859602539199794,
                0.4482990247516885,
                -0.8651785512272848,
                -0.20092005011085612,
                2.4233116064591225
            ]
        },
        {
            "positions": [
                0.5924739223359294,
                -1.1833066474087135,
                0.5559316428639083,
                -0.8341161694079253,
                -0.13864610197522786,
                2.513370326152486
            ]
        },
        {
            "positions": [
                0.5008596350422314,
                -1.1806530408974478,
                0.6635642609761281,
                -0.8030537875885658,
                -0.07637215383959939,
                2.6034290458458496
            ]
        },
        {
            "positions": [
                0.4092453477485334,
                -1.177999434386182,
                0.7711968790883479,
                -0.7719914057692062,
                -0.014098205703970912,
                2.693487765539213
            ]
        },
        {
            "positions": [
                0.3176310604548358,
                -1.175345827874916,
                0.8788294972005677,
                -0.7409290239498467,
                0.04817574243165734,
                2.7835464852325766
            ]
        },
        {
            "positions": [
                0.22601677316113777,
                -1.1726922213636504,
                0.986462115312787,
                -0.7098666421304872,
                0.11044969056728582,
                2.8736052049259397
            ]
        },
        {
            "positions": [
                0.13440248586744036,
                -1.1700386148523845,
                1.094094733425007,
                -0.6788042603111277,
                0.17272363870291396,
                2.9636639246193033
            ]
        },
        {
            "positions": [
                0.1315066263631993,
                -1.1609536794415283,
                1.3116789034937524,
                -0.6931227244322425,
                0.1642198232058884,
                2.985194346874133
            ]
        },
        {
            "positions": [
                0.12739574782864282,
                -1.14705868213039,
                1.6362834014553083,
                -0.7060323811842734,
                0.15096088509161426,
                3.0051440502320994
            ]
        },
        {
            "positions": [
                0.12328486929408633,
                -1.133163684819252,
                1.9608878994168641,
                -0.7189420379363042,
                0.1377019469773401,
                3.025093753590066
            ]
        }
    ]
}{
    "goal": {
        "global_pose": {
            "orientation": {
                "w": 0.7047431468963623,
                "x": -0.7094548344612122,
                "y": 0.0024358443915843964,
                "z": -0.0022348060738295317
            },
            "position": {
                "x": 0.6094750761985779,
                "y": 0.3671506643295288,
                "z": 0.19426114857196808
            }
        },
        "name": "move_to_magneteinheit_A"
    },
    "id": "LazyPRM_move_to_magneteinheit_A_67",
    "joint_names": [
        "shoulder_pan_joint",
        "shoulder_lift_joint",
        "elbow_joint",
        "wrist_1_joint",
        "wrist_2_joint",
        "wrist_3_joint"
    ],
    "metrics": {
        "cart_traj_len": 1.3111795805514899,
        "distance_elbow_joint": 0.8104518548107422,
        "distance_shoulder_lift_joint": 0.7625989112619693,
        "distance_shoulder_pan_joint": 1.242762853059147,
        "distance_wrist_1_joint": 0.8545397985096859,
        "distance_wrist_2_joint": 1.5434803099170646,
        "distance_wrist_3_joint": 4.348285282558834,
        "smoothness": 0.08648970653058954,
        "time": 0.203435308,
        "traj_len": 3.092267616186775,
        "weighted_distance": 4.544965311601603
    },
    "planner": "LazyPRM",
    "start": {
        "state": {
            "elbow_joint": 1.919643534880228,
            "shoulder_lift_joint": -1.8972525353963687,
            "shoulder_pan_joint": -1.1188672234189438,
            "wrist_1_joint": -1.5931878212786155,
            "wrist_2_joint": 1.5706036197970081,
            "wrist_3_joint": 1.118896926603594
        }
    },
    "waypoints": [
        {
            "positions": [
                -1.1188672234189438,
                -1.8972525353963687,
                1.919643534880228,
                -1.5931878212786155,
                1.5706036197970081,
                1.118896926603594
            ]
        },
        {
            "positions": [
                -1.1013461725513336,
                -1.8706819024335013,
                1.864804195110033,
                -1.568642054008002,
                1.3573899135833136,
                1.0746854938223247
            ]
        },
        {
            "positions": [
                -1.0838251216837231,
                -1.8441112694706336,
                1.8099648553398378,
                -1.5440962867373884,
                1.1441762073696191,
                1.0304740610410554
            ]
        },
        {
            "positions": [
                -1.0663040708161127,
                -1.8175406365077662,
                1.7551255155696426,
                -1.5195505194667749,
                0.9309625011559245,
                0.9862626282597861
            ]
        },
        {
            "positions": [
                -1.0487830199485024,
                -1.7909700035448988,
                1.7002861757994474,
                -1.4950047521961614,
                0.71774879494223,
                0.9420511954785168
            ]
        },
        {
            "positions": [
                -1.0312619690808922,
                -1.7643993705820313,
                1.6454468360292522,
                -1.4704589849255478,
                0.5045350887285354,
                0.8978397626972474
            ]
        },
        {
            "positions": [
                -1.0137409182132817,
                -1.7378287376191637,
                1.590607496259057,
                -1.4459132176549343,
                0.29132138251484085,
                0.8536283299159781
            ]
        },
        {
            "positions": [
                -0.9962198673456714,
                -1.7112581046562962,
                1.535768156488862,
                -1.4213674503843208,
                0.07810767630114632,
                0.8094168971347089
            ]
        },
        {
            "positions": [
                -0.9339912286242339,
                -1.6792245224050797,
                1.5594668496232718,
                -1.3834385932945767,
                0.08094014110232417,
                0.5850388275186006
            ]
        },
        {
            "positions": [
                -0.8717625899027964,
                -1.6471909401538634,
                1.5831655427576814,
                -1.345509736204833,
                0.08377260590350202,
                0.36066075790249236
            ]
        },
        {
            "positions": [
                -0.809533951181359,
                -1.6151573579026468,
                1.6068642358920913,
                -1.307580879115089,
                0.08660507070467986,
                0.13628268828638412
            ]
        },
        {
            "positions": [
                -0.7473053124599215,
                -1.5831237756514303,
                1.630562929026501,
                -1.2696520220253449,
                0.08943753550585772,
                -0.08809538132972417
            ]
        },
        {
            "positions": [
                -0.685076673738484,
                -1.5510901934002137,
                1.6542616221609108,
                -1.231723164935601,
                0.09227000030703557,
                -0.31247345094583245
            ]
        },
        {
            "positions": [
                -0.6228480350170466,
                -1.5190566111489974,
                1.6779603152953206,
                -1.193794307845857,
                0.09510246510821341,
                -0.5368515205619406
            ]
        },
        {
            "positions": [
                -0.5606193962956091,
                -1.4870230288977808,
                1.7016590084297303,
                -1.155865450756113,
                0.09793492990939126,
                -0.761229590178049
            ]
        },
        {
            "positions": [
                -0.4983907575741716,
                -1.4549894466465643,
                1.7253577015641401,
                -1.1179365936663692,
                0.10076739471056911,
                -0.9856076597941572
            ]
        },
        {
            "positions": [
                -0.43616211885273415,
                -1.4229558643953477,
                1.7490563946985498,
                -1.0800077365766252,
                0.10359985951174697,
                -1.2099857294102656
            ]
        },
        {
            "positions": [
                -0.3739334801312967,
                -1.3909222821441314,
                1.7727550878329597,
                -1.0420788794868812,
                0.10643232431292482,
                -1.4343637990263738
            ]
        },
        {
            "positions": [
                -0.3117048414098592,
                -1.3588886998929148,
                1.7964537809673695,
                -1.0041500223971371,
                0.10926478911410267,
                -1.6587418686424824
            ]
        },
        {
            "positions": [
                -0.24947620268842174,
                -1.3268551176416983,
                1.8201524741017792,
                -0.9662211653073933,
                0.11209725391528051,
                -1.8831199382585901
            ]
        },
        {
            "positions": [
                -0.18724756396698428,
                -1.294821535390482,
                1.843851167236189,
                -0.9282923082176493,
                0.11492971871645837,
                -2.1074980078746988
            ]
        },
        {
            "positions": [
                -0.1250189252455468,
                -1.2627879531392654,
                1.8675498603705987,
                -0.8903634511279054,
                0.11776218351763622,
                -2.331876077490807
            ]
        },
        {
            "positions": [
                -0.06279028652410934,
                -1.2307543708880488,
                1.8912485535050085,
                -0.8524345940381615,
                0.12059464831881407,
                -2.5562541471069156
            ]
        },
        {
            "positions": [
                -0.0005616478026718719,
                -1.1987207886368325,
                1.9149472466394184,
                -0.8145057369484175,
                0.12342711311999191,
                -2.7806322167230233
            ]
        },
        {
            "positions": [
                0.061666990918765596,
                -1.166687206385616,
                1.938645939773828,
                -0.7765768798586735,
                0.12625957792116976,
                -3.005010286339132
            ]
        },
        {
            "positions": [
                0.12389562964020306,
                -1.1346536241343994,
                1.962344632908238,
                -0.7386480227689296,
                0.12909204272234762,
                -3.2293883559552397
            ]
        }
    ]
}