{
    "goal": {
        "global_pose": {
            "orientation": {
                "w": 0.7047431468963623,
                "x": -0.7094548344612122,
                "y": 0.0024358443915843964,
                "z": -0.0022348060738295317
            },
            "position": {
                "x": 0.6094750761985779,
                "y": 0.3671506643295288,
                "z": 0.19426114857196808
            }
        },
        "name": "move_to_magneteinheit_A"
    },
    "id": "LazyPRMstar_move_to_magneteinheit_A_34",
    "joint_names": [
        "shoulder_pan_joint",
        "shoulder_lift_joint",
        "elbow_joint",
        "wrist_1_joint",
        "wrist_2_joint",
        "wrist_3_joint"
    ],
    "metrics": {
        "cart_traj_len": 3.518351066827846,
        "distance_elbow_joint": 3.8811565990681114,
        "distance_shoulder_lift_joint": 0.8515565977368877,
        "distance_shoulder_pan_joint": 2.642473808542431,
        "distance_wrist_1_joint": 0.8803673515726237,
        "distance_wrist_2_joint": 1.703249072614106,
        "distance_wrist_3_joint": 2.6088020332803312,
        "smoothness": 0.08792357113077438,
        "time": 5.0283677870000005,
        "traj_len": 3.545081869691375,
        "weighted_distance": 4.513183571888239
    },
    "planner": "LazyPRMstar",
    "start": {
        "state": {
            "elbow_joint": -1.919618573717145,
            "shoulder_lift_joint": -1.2443395971678275,
            "shoulder_pan_joint": 2.6996025300909787,
            "wrist_1_joint": -1.548550951253194,
            "wrist_2_joint": -1.5709469090946802,
            "wrist_3_joint": 0.4420197732051276
        }
    },
    "waypoints": [
        {
            "positions": [
                2.6996025300909787,
                -1.2443395971678275,
                -1.919618573717145,
                -1.548550951253194,
                -1.5709469090946802,
                0.4420197732051276
            ]
        },
        {
            "positions": [
                2.5856172932064125,
                -1.2224778856675633,
                -1.8143102541216138,
                -1.5103569542425204,
                -1.5480424676139104,
                0.5243625287982054
            ]
        },
        {
            "positions": [
                2.4716320563218463,
                -1.2006161741672994,
                -1.709001934526083,
                -1.4721629572318464,
                -1.5251380261331404,
                0.6067052843912834
            ]
        },
        {
            "positions": [
                2.35764681943728,
                -1.1787544626670352,
                -1.603693614930552,
                -1.4339689602211727,
                -1.5022335846523704,
                0.6890480399843611
            ]
        },
        {
            "positions": [
                2.243661582552714,
                -1.1568927511667713,
                -1.498385295335021,
                -1.3957749632104988,
                -1.4793291431716007,
                0.7713907955774391
            ]
        },
        {
            "positions": [
                2.129676345668148,
                -1.135031039666507,
                -1.3930769757394899,
                -1.357580966199825,
                -1.456424701690831,
                0.8537335511705169
            ]
        },
        {
            "positions": [
                2.0156911087835816,
                -1.1131693281662431,
                -1.287768656143959,
                -1.3193869691891513,
                -1.433520260210061,
                0.9360763067635947
            ]
        },
        {
            "positions": [
                1.9017058718990154,
                -1.091307616665979,
                -1.1824603365484279,
                -1.2811929721784774,
                -1.410615818729291,
                1.0184190623566727
            ]
        },
        {
            "positions": [
                1.7877206350144492,
                -1.0694459051657148,
                -1.0771520169528968,
                -1.2429989751678037,
                -1.3877113772485212,
                1.1007618179497505
            ]
        },
        {
            "positions": [
                1.6737353981298833,
                -1.0475841936654509,
                -0.9718436973573659,
                -1.2048049781571297,
                -1.3648069357677515,
                1.1831045735428283
            ]
        },
        {
            "positions": [
                1.559750161245317,
                -1.0257224821651867,
                -0.866535377761835,
                -1.166610981146456,
                -1.3419024942869815,
                1.265447329135906
            ]
        },
        {
            "positions": [
                1.4457649243607509,
                -1.0038607706649225,
                -0.7612270581663039,
                -1.1284169841357823,
                -1.3189980528062115,
                1.347790084728984
            ]
        },
        {
            "positions": [
                1.331779687476185,
                -0.9819990591646586,
                -0.655918738570773,
                -1.0902229871251083,
                -1.2960936113254418,
                1.430132840322062
            ]
        },
        {
            "positions": [
                1.2177944505916185,
                -0.9601373476643944,
                -0.5506104189752419,
                -1.0520289901144344,
                -1.273189169844672,
                1.51247559591514
            ]
        },
        {
            "positions": [
                1.1038092137070523,
                -0.9382756361641305,
                -0.44530209937971077,
                -1.0138349931037607,
                -1.250284728363902,
                1.5948183515082177
            ]
        },
        {
            "positions": [
                0.9898239768224864,
                -0.9164139246638663,
                -0.3399937797841799,
                -0.975640996093087,
                -1.227380286883132,
                1.6771611071012955
            ]
        },
        {
            "positions": [
                0.8758387399379199,
                -0.8945522131636022,
                -0.23468546018864878,
                -0.9374469990824131,
                -1.2044758454023623,
                1.7595038626943735
            ]
        },
        {
            "positions": [
                0.761853503053354,
                -0.8726905016633382,
                -0.1293771405931179,
                -0.8992530020717393,
                -1.1815714039215925,
                1.841846618287451
            ]
        },
        {
            "positions": [
                0.6478682661687878,
                -0.850828790163074,
                -0.02406882099758678,
                -0.8610590050610655,
                -1.1586669624408226,
                1.9241893738805291
            ]
        },
        {
            "positions": [
                0.5338830292842216,
                -0.82896707866281,
                0.0812394985979441,
                -0.8228650080503916,
                -1.1357625209600526,
                2.006532129473607
            ]
        },
        {
            "positions": [
                0.4198977923996554,
                -0.8071053671625459,
                0.186547818193475,
                -0.7846710110397179,
                -1.1128580794792828,
                2.0888748850666845
            ]
        },
        {
            "positions": [
                0.3059125555150892,
                -0.7852436556622818,
                0.2918561377890063,
                -0.7464770140290441,
                -1.089953637998513,
                2.1712176406597625
            ]
        },
        {
            "positions": [
                0.1919273186305231,
                -0.7633819441620178,
                0.3971644573845373,
                -0.7082830170183703,
                -1.067049196517743,
                2.2535603962528405
            ]
        },
        {
            "positions": [
                0.18059053429882638,
                -0.795946922252978,
                0.5549740943734784,
                -0.7070305139167438,
                -0.9609838528373251,
                2.3286485114415703
            ]
        },
        {
            "positions": [
                0.16925374996712964,
                -0.8285119003439382,
                0.7127837313624197,
                -0.7057780108151174,
                -0.854918509156907,
                2.4037366266303004
            ]
        },
        {
            "positions": [
                0.1579169656354329,
                -0.8610768784348984,
                0.8705933683513608,
                -0.7045255077134909,
                -0.7488531654764891,
                2.47882474181903
            ]
        },
        {
            "positions": [
                0.14658018130373618,
                -0.8936418565258586,
                1.028403005340302,
                -0.7032730046118645,
                -0.642787821796071,
                2.5539128570077603
            ]
        },
        {
            "positions": [
                0.13524339697203946,
                -0.9262068346168189,
                1.1862126423292432,
                -0.702020501510238,
                -0.536722478115653,
                2.62900097219649
            ]
        },
        {
            "positions": [
                0.12390661264034272,
                -0.958771812707779,
                1.3440222793181844,
                -0.7007679984086116,
                -0.430657134435235,
                2.70408908738522
            ]
        },
        {
            "positions": [
                0.112569828308646,
                -0.9913367907987393,
                1.5018319163071254,
                -0.6995154953069851,
                -0.3245917907548169,
                2.77917720257395
            ]
        },
        {
            "positions": [
                0.10123304397694927,
                -1.0239017688896994,
                1.6596415532960664,
                -0.6982629922053587,
                -0.21852644707439894,
                2.85426531776268
            ]
        },
        {
            "positions": [
                0.08989625964525254,
                -1.0564667469806597,
                1.817451190285008,
                -0.6970104891037322,
                -0.1124611033939808,
                2.9293534329514097
            ]
        },
        {
            "positions": [
                0.10628002869360456,
                -1.0952238179368776,
                1.8894946078179877,
                -0.7114239338153131,
                0.009920530062722574,
                2.9900876197184343
            ]
        },
        {
            "positions": [
                0.12266379774195657,
                -1.1339808888930958,
                1.9615380253509676,
                -0.725837378526894,
                0.13230216351942595,
                3.050821806485459
            ]
        }
    ]
}{
    "goal": {
        "global_pose": {
            "orientation": {
                "w": 0.7047431468963623,
                "x": -0.7094548344612122,
                "y": 0.0024358443915843964,
                "z": -0.0022348060738295317
            },
            "position": {
                "x": 0.6094750761985779,
                "y": 0.3671506643295288,
                "z": 0.19426114857196808
            }
        },
        "name": "move_to_magneteinheit_A"
    },
    "id": "LazyPRMstar_move_to_magneteinheit_A_34",
    "joint_names": [
        "shoulder_pan_joint",
        "shoulder_lift_joint",
        "elbow_joint",
        "wrist_1_joint",
        "wrist_2_joint",
        "wrist_3_joint"
    ],
    "metrics": {
        "cart_traj_len": 1.227967205020245,
        "distance_elbow_joint": 0.05811952833004064,
        "distance_shoulder_lift_joint": 0.7539870057442497,
        "distance_shoulder_pan_joint": 1.24266650437408,
        "distance_wrist_1_joint": 0.7818487371665638,
        "distance_wrist_2_joint": 1.4376429629694387,
        "distance_wrist_3_joint": 4.283681469645676,
        "smoothness": 3.7007434447208084e-16,
        "time": 5.020962452,
        "traj_len": 2.925396760822376,
        "weighted_distance": 4.398272484471307
    },
    "planner": "LazyPRMstar",
    "start": {
        "state": {
            "elbow_joint": 1.919643534880228,
            "shoulder_lift_joint": -1.8972525353963687,
            "shoulder_pan_joint": -1.1188672234189438,
            "wrist_1_joint": -1.5931878212786155,
            "wrist_2_joint": 1.5706036197970081,
            "wrist_3_joint": 1.118896926603594
        }
    },
    "waypoints": [
        {
            "positions": [
                -1.1188672234189438,
                -1.8972525353963687,
                1.919643534880228,
                -1.5931878212786155,
                1.5706036197970081,
                1.118896926603594
            ]
        },
        {
            "positions": [
                -1.0624212154497834,
                -1.86135004021677,
                1.9221835020523381,
                -1.562639117464722,
                1.5096934480969326,
                0.9247593768657421
            ]
        },
        {
            "positions": [
                -1.005975207480623,
                -1.8254475450371712,
                1.9247234692244481,
                -1.5320904136508287,
                1.4487832763968571,
                0.73062182712789
            ]
        },
        {
            "positions": [
                -0.9495291995114624,
                -1.7895450498575725,
                1.9272634363965582,
                -1.5015417098369352,
                1.3878731046967818,
                0.5364842773900381
            ]
        },
        {
            "positions": [
                -0.8930831915423019,
                -1.7536425546779735,
                1.9298034035686684,
                -1.4709930060230418,
                1.3269629329967063,
                0.3423467276521861
            ]
        },
        {
            "positions": [
                -0.8366371835731414,
                -1.7177400594983747,
                1.9323433707407784,
                -1.4404443022091484,
                1.2660527612966308,
                0.1482091779143342
            ]
        },
        {
            "positions": [
                -0.780191175603981,
                -1.681837564318776,
                1.9348833379128885,
                -1.409895598395255,
                1.2051425895965553,
                -0.04592837182351772
            ]
        },
        {
            "positions": [
                -0.7237451676348204,
                -1.6459350691391772,
                1.9374233050849985,
                -1.3793468945813616,
                1.1442324178964798,
                -0.24006592156136963
            ]
        },
        {
            "positions": [
                -0.6672991596656599,
                -1.6100325739595784,
                1.9399632722571085,
                -1.3487981907674682,
                1.0833222461964043,
                -0.43420347129922177
            ]
        },
        {
            "positions": [
                -0.6108531516964995,
                -1.5741300787799797,
                1.9425032394292185,
                -1.3182494869535748,
                1.0224120744963288,
                -0.6283410210370737
            ]
        },
        {
            "positions": [
                -0.554407143727339,
                -1.538227583600381,
                1.9450432066013286,
                -1.2877007831396814,
                0.9615019027962534,
                -0.8224785707749256
            ]
        },
        {
            "positions": [
                -0.49796113575817835,
                -1.502325088420782,
                1.9475831737734388,
                -1.257152079325788,
                0.9005917310961778,
                -1.0166161205127777
            ]
        },
        {
            "positions": [
                -0.441515127789018,
                -1.4664225932411834,
                1.9501231409455488,
                -1.2266033755118946,
                0.8396815593961025,
                -1.2107536702506294
            ]
        },
        {
            "positions": [
                -0.3850691198198575,
                -1.4305200980615844,
                1.9526631081176589,
                -1.1960546716980012,
                0.7787713876960268,
                -1.4048912199884815
            ]
        },
        {
            "positions": [
                -0.32862311185069704,
                -1.3946176028819857,
                1.9552030752897689,
                -1.1655059678841078,
                0.7178612159959514,
                -1.5990287697263332
            ]
        },
        {
            "positions": [
                -0.2721771038815365,
                -1.358715107702387,
                1.957743042461879,
                -1.1349572640702144,
                0.6569510442958759,
                -1.7931663194641854
            ]
        },
        {
            "positions": [
                -0.21573109591237605,
                -1.3228126125227881,
                1.960283009633989,
                -1.104408560256321,
                0.5960408725958005,
                -1.9873038692020375
            ]
        },
        {
            "positions": [
                -0.1592850879432155,
                -1.2869101173431892,
                1.962822976806099,
                -1.0738598564424275,
                0.5351307008957249,
                -2.1814414189398894
            ]
        },
        {
            "positions": [
                -0.10283907997405506,
                -1.2510076221635904,
                1.9653629439782092,
                -1.0433111526285341,
                0.4742205291956496,
                -2.3755789686777415
            ]
        },
        {
            "positions": [
                -0.0463930720048944,
                -1.2151051269839916,
                1.9679029111503192,
                -1.0127624488146407,
                0.4133103574955741,
                -2.5697165184155937
            ]
        },
        {
            "positions": [
                0.010052935964265819,
                -1.1792026318043929,
                1.9704428783224293,
                -0.9822137450007473,
                0.3524001857954986,
                -2.763854068153445
            ]
        },
        {
            "positions": [
                0.06649894393342654,
                -1.1433001366247941,
                1.9729828454945393,
                -0.9516650411868539,
                0.291490014095423,
                -2.957991617891297
            ]
        },
        {
            "positions": [
                0.09514911244428151,
                -1.1432828331384566,
                1.975372954352404,
                -0.8815020626494527,
                0.21222533546149613,
                -3.0613880804666893
            ]
        },
        {
            "positions": [
                0.12379928095513647,
                -1.143265529652119,
                1.9777630632102687,
                -0.8113390841120517,
                0.13296065682756922,
                -3.1647845430420816
            ]
        }
    ]
}