{
    "goal": {
        "global_pose": {
            "orientation": {
                "w": 0.5084816217422485,
                "x": -0.49083608388900757,
                "y": 0.5182115435600281,
                "z": -0.4816462993621826
            },
            "position": {
                "x": 0.5540239810943604,
                "y": 0.030875300988554955,
                "z": 0.16403168439865112
            }
        },
        "name": "move_to_storage_A"
    },
    "id": "LazyPRMstar_move_to_storage_A_70",
    "joint_names": [
        "shoulder_pan_joint",
        "shoulder_lift_joint",
        "elbow_joint",
        "wrist_1_joint",
        "wrist_2_joint",
        "wrist_3_joint"
    ],
    "metrics": {
        "cart_traj_len": 0.35275908772348685,
        "distance_elbow_joint": 0.4519877385517703,
        "distance_shoulder_lift_joint": 0.23617354854912498,
        "distance_shoulder_pan_joint": 0.4612640125614304,
        "distance_wrist_1_joint": 0.24762697104627518,
        "distance_wrist_2_joint": 1.0994764791601046,
        "distance_wrist_3_joint": 0.09196265906608403,
        "smoothness": 2.2204460668324854e-16,
        "time": 5.0004863639999995,
        "traj_len": 1.6088789292345118,
        "weighted_distance": 2.02966011373169
    },
    "planner": "LazyPRMstar",
    "start": {
        "state": {
            "elbow_joint": 1.9715477243005601,
            "shoulder_lift_joint": -1.1394853015351272,
            "shoulder_pan_joint": 0.12281154014795169,
            "wrist_1_joint": -0.7804696478968182,
            "wrist_2_joint": 0.12958648046900423,
            "wrist_3_joint": -3.192491284697111
        }
    },
    "waypoints": [
        {
            "positions": [
                0.12281154014795169,
                -1.1394853015351272,
                1.9715477243005601,
                -0.7804696478968182,
                0.12958648046900423,
                -3.192491284697111
            ]
        },
        {
            "positions": [
                0.05691668121060449,
                -1.1732243798992879,
                2.0361174012365275,
                -0.8158449294748574,
                0.2866545489204477,
                -3.1793537619733847
            ]
        },
        {
            "positions": [
                -0.008978177726742712,
                -1.2069634582634485,
                2.1006870781724944,
                -0.8512202110528968,
                0.4437226173718912,
                -3.1662162392496587
            ]
        },
        {
            "positions": [
                -0.07487303666408991,
                -1.2407025366276092,
                2.165256755108462,
                -0.8865954926309361,
                0.6007906858233347,
                -3.153078716525932
            ]
        },
        {
            "positions": [
                -0.1407678956014371,
                -1.2744416149917699,
                2.2298264320444288,
                -0.9219707742089754,
                0.7578587542747782,
                -3.139941193802206
            ]
        },
        {
            "positions": [
                -0.2066627545387843,
                -1.3081806933559308,
                2.294396108980396,
                -0.9573460557870147,
                0.9149268227262218,
                -3.1268036710784797
            ]
        },
        {
            "positions": [
                -0.2725576134761315,
                -1.3419197717200915,
                2.358965785916363,
                -0.9927213373650541,
                1.071994891177665,
                -3.1136661483547536
            ]
        },
        {
            "positions": [
                -0.3384524724134787,
                -1.3756588500842521,
                2.4235354628523305,
                -1.0280966189430933,
                1.2290629596291087,
                -3.100528625631027
            ]
        }
    ]
}