{
    "goal": {
        "global_pose": {
            "orientation": {
                "w": 0.5084816217422485,
                "x": -0.49083608388900757,
                "y": 0.5182115435600281,
                "z": -0.4816462993621826
            },
            "position": {
                "x": 0.5540239810943604,
                "y": 0.030875300988554955,
                "z": 0.16403168439865112
            }
        },
        "name": "move_to_storage_A"
    },
    "id": "LazyPRMstar_move_to_storage_A_138",
    "joint_names": [
        "shoulder_pan_joint",
        "shoulder_lift_joint",
        "elbow_joint",
        "wrist_1_joint",
        "wrist_2_joint",
        "wrist_3_joint"
    ],
    "metrics": {
        "cart_traj_len": 0.35225723178272195,
        "distance_elbow_joint": 0.448490006275422,
        "distance_shoulder_lift_joint": 0.23562040759336988,
        "distance_shoulder_pan_joint": 0.4587329377801953,
        "distance_wrist_1_joint": 0.23796157506683813,
        "distance_wrist_2_joint": 1.1055909830351185,
        "distance_wrist_3_joint": 0.08798084968961062,
        "smoothness": 2.2204460668324854e-16,
        "time": 5.000819698,
        "traj_len": 1.6044864472598561,
        "weighted_distance": 2.0233366049478105
    },
    "planner": "LazyPRMstar",
    "start": {
        "state": {
            "elbow_joint": 1.9715477243005601,
            "shoulder_lift_joint": -1.1394853015351272,
            "shoulder_pan_joint": 0.12281154014795169,
            "wrist_1_joint": -0.7804696478968182,
            "wrist_2_joint": 0.12958648046900423,
            "wrist_3_joint": -3.192491284697111
        }
    },
    "waypoints": [
        {
            "positions": [
                0.12281154014795169,
                -1.1394853015351272,
                1.9715477243005601,
                -0.7804696478968182,
                0.12958648046900423,
                -3.192491284697111
            ]
        },
        {
            "positions": [
                0.057278263322209505,
                -1.1731453597627515,
                2.035617725197049,
                -0.8144641586206521,
                0.2875280494740211,
                -3.1799225918843095
            ]
        },
        {
            "positions": [
                -0.00825501350353268,
                -1.2068054179903758,
                2.099687726093538,
                -0.8484586693444862,
                0.44546961847903804,
                -3.167353899071508
            ]
        },
        {
            "positions": [
                -0.07378829032927485,
                -1.240465476218,
                2.1637577269900268,
                -0.8824531800683202,
                0.603411187484055,
                -3.1547852062587065
            ]
        },
        {
            "positions": [
                -0.13932156715501703,
                -1.2741255344456242,
                2.2278277278865155,
                -0.9164476907921543,
                0.7613527564890719,
                -3.1422165134459052
            ]
        },
        {
            "positions": [
                -0.20485484398075926,
                -1.3077855926732485,
                2.2918977287830042,
                -0.9504422015159882,
                0.9192943254940888,
                -3.1296478206331035
            ]
        },
        {
            "positions": [
                -0.2703881208065014,
                -1.3414456509008728,
                2.3559677296794934,
                -0.9844367122398223,
                1.0772358944991058,
                -3.1170791278203023
            ]
        },
        {
            "positions": [
                -0.3359213976322436,
                -1.375105709128497,
                2.420037730575982,
                -1.0184312229636563,
                1.2351774635041228,
                -3.1045104350075006
            ]
        }
    ]
}