{
    "goal": {
        "global_pose": {
            "orientation": {
                "w": 0.5084816217422485,
                "x": -0.49083608388900757,
                "y": 0.5182115435600281,
                "z": -0.4816462993621826
            },
            "position": {
                "x": 0.5540239810943604,
                "y": 0.030875300988554955,
                "z": 0.16403168439865112
            }
        },
        "name": "move_to_storage_A"
    },
    "id": "LazyPRMstar_move_to_storage_A_122",
    "joint_names": [
        "shoulder_pan_joint",
        "shoulder_lift_joint",
        "elbow_joint",
        "wrist_1_joint",
        "wrist_2_joint",
        "wrist_3_joint"
    ],
    "metrics": {
        "cart_traj_len": 0.3537027407354078,
        "distance_elbow_joint": 0.4507199558654129,
        "distance_shoulder_lift_joint": 0.23486564962316825,
        "distance_shoulder_pan_joint": 0.46323517945494974,
        "distance_wrist_1_joint": 0.2436072167203721,
        "distance_wrist_2_joint": 1.0973640169665129,
        "distance_wrist_3_joint": 0.09828383047676459,
        "smoothness": 2.2204460668324854e-16,
        "time": 5.000609113,
        "traj_len": 1.6087497782772746,
        "weighted_distance": 2.03116093496985
    },
    "planner": "LazyPRMstar",
    "start": {
        "state": {
            "elbow_joint": 1.9715477243005601,
            "shoulder_lift_joint": -1.1394853015351272,
            "shoulder_pan_joint": 0.12281154014795169,
            "wrist_1_joint": -0.7804696478968182,
            "wrist_2_joint": 0.12958648046900423,
            "wrist_3_joint": -3.192491284697111
        }
    },
    "waypoints": [
        {
            "positions": [
                0.12281154014795169,
                -1.1394853015351272,
                1.9715477243005601,
                -0.7804696478968182,
                0.12958648046900423,
                -3.192491284697111
            ]
        },
        {
            "positions": [
                0.056635085940101734,
                -1.1730375371955797,
                2.0359362894241904,
                -0.8152706788568713,
                0.2863527686070775,
                -3.178450737486145
            ]
        },
        {
            "positions": [
                -0.009541368267748221,
                -1.2065897728560324,
                2.100324854547821,
                -0.8500717098169245,
                0.44311905674515073,
                -3.1644101902751784
            ]
        },
        {
            "positions": [
                -0.07571782247559818,
                -1.240142008516485,
                2.1647134196714513,
                -0.8848727407769776,
                0.599885344883224,
                -3.150369643064212
            ]
        },
        {
            "positions": [
                -0.14189427668344812,
                -1.2736942441769377,
                2.229101984795082,
                -0.9196737717370308,
                0.7566516330212972,
                -3.1363290958532457
            ]
        },
        {
            "positions": [
                -0.20807073089129813,
                -1.3072464798373902,
                2.293490549918712,
                -0.954474802697084,
                0.9134179211593706,
                -3.1222885486422793
            ]
        },
        {
            "positions": [
                -0.274247185099148,
                -1.3407987154978427,
                2.3578791150423424,
                -0.9892758336571371,
                1.0701842092974436,
                -3.108248001431313
            ]
        },
        {
            "positions": [
                -0.34042363930699804,
                -1.3743509511582954,
                2.422267680165973,
                -1.0240768646171903,
                1.226950497435517,
                -3.0942074542203466
            ]
        }
    ]
}