{
    "goal": {
        "global_pose": {
            "orientation": {
                "w": 0.5084816217422485,
                "x": -0.49083608388900757,
                "y": 0.5182115435600281,
                "z": -0.4816462993621826
            },
            "position": {
                "x": 0.5540239810943604,
                "y": 0.030875300988554955,
                "z": 0.16403168439865112
            }
        },
        "name": "move_to_storage_A"
    },
    "id": "LazyPRM_move_to_storage_A_135",
    "joint_names": [
        "shoulder_pan_joint",
        "shoulder_lift_joint",
        "elbow_joint",
        "wrist_1_joint",
        "wrist_2_joint",
        "wrist_3_joint"
    ],
    "metrics": {
        "cart_traj_len": 0.3530986522051075,
        "distance_elbow_joint": 0.45229766132075744,
        "distance_shoulder_lift_joint": 0.23363823456910704,
        "distance_shoulder_pan_joint": 0.4614151714532401,
        "distance_wrist_1_joint": 0.2510241020115157,
        "distance_wrist_2_joint": 1.1003386941486735,
        "distance_wrist_3_joint": 0.1082321030366935,
        "smoothness": 1.1102230263833737e-15,
        "time": 0.022141977,
        "traj_len": 1.6146039658504456,
        "weighted_distance": 2.0432261178767175
    },
    "planner": "LazyPRM",
    "start": {
        "state": {
            "elbow_joint": 1.9715477243005601,
            "shoulder_lift_joint": -1.1394853015351272,
            "shoulder_pan_joint": 0.12281154014795169,
            "wrist_1_joint": -0.7804696478968182,
            "wrist_2_joint": 0.12958648046900423,
            "wrist_3_joint": -3.192491284697111
        }
    },
    "waypoints": [
        {
            "positions": [
                0.12281154014795169,
                -1.1394853015351272,
                1.9715477243005601,
                -0.7804696478968182,
                0.12958648046900423,
                -3.192491284697111
            ]
        },
        {
            "positions": [
                0.05689508708320311,
                -1.1728621921878568,
                2.0361616759178114,
                -0.8163302338984633,
                0.28677772249024325,
                -3.177029555691869
            ]
        },
        {
            "positions": [
                -0.009021365981545473,
                -1.2062390828405862,
                2.100775627535062,
                -0.8521908199001084,
                0.4439689645114823,
                -3.1615678266866274
            ]
        },
        {
            "positions": [
                -0.07493781904629405,
                -1.2396159734933159,
                2.1653895791523134,
                -0.8880514059017535,
                0.6011602065327214,
                -3.1461060976813853
            ]
        },
        {
            "positions": [
                -0.14085427211104262,
                -1.2729928641460455,
                2.2300035307695643,
                -0.9239119919033986,
                0.7583514485539604,
                -3.1306443686761436
            ]
        },
        {
            "positions": [
                -0.20677072517579126,
                -1.3063697547987752,
                2.2946174823868155,
                -0.9597725779050437,
                0.9155426905751995,
                -3.1151826396709015
            ]
        },
        {
            "positions": [
                -0.2726871782405398,
                -1.3397466454515046,
                2.3592314340040663,
                -0.9956331639066888,
                1.0727339325964387,
                -3.09972091066566
            ]
        },
        {
            "positions": [
                -0.3386036313052884,
                -1.3731235361042342,
                2.4238453856213176,
                -1.0314937499083339,
                1.2299251746176776,
                -3.0842591816604177
            ]
        }
    ]
}