{
    "goal": {
        "global_pose": {
            "orientation": {
                "w": 0.5084816217422485,
                "x": -0.49083608388900757,
                "y": 0.5182115435600281,
                "z": -0.4816462993621826
            },
            "position": {
                "x": 0.5540239810943604,
                "y": 0.030875300988554955,
                "z": 0.16403168439865112
            }
        },
        "name": "move_to_storage_A"
    },
    "id": "LazyPRM_move_to_storage_A_93",
    "joint_names": [
        "shoulder_pan_joint",
        "shoulder_lift_joint",
        "elbow_joint",
        "wrist_1_joint",
        "wrist_2_joint",
        "wrist_3_joint"
    ],
    "metrics": {
        "cart_traj_len": 0.35305085494778055,
        "distance_elbow_joint": 0.4524371714455726,
        "distance_shoulder_lift_joint": 0.23201041312791926,
        "distance_shoulder_pan_joint": 0.46207515419878376,
        "distance_wrist_1_joint": 0.26013462601235215,
        "distance_wrist_2_joint": 1.0957229550758179,
        "distance_wrist_3_joint": 0.10795152019032672,
        "smoothness": 6.661338165333112e-16,
        "time": 0.022424720999999998,
        "traj_len": 1.6156521407935474,
        "weighted_distance": 2.0450164941925517
    },
    "planner": "LazyPRM",
    "start": {
        "state": {
            "elbow_joint": 1.9715477243005601,
            "shoulder_lift_joint": -1.1394853015351272,
            "shoulder_pan_joint": 0.12281154014795169,
            "wrist_1_joint": -0.7804696478968182,
            "wrist_2_joint": 0.12958648046900423,
            "wrist_3_joint": -3.192491284697111
        }
    },
    "waypoints": [
        {
            "positions": [
                0.12281154014795169,
                -1.1394853015351272,
                1.9715477243005601,
                -0.7804696478968182,
                0.12958648046900423,
                -3.192491284697111
            ]
        },
        {
            "positions": [
                0.05680080383383973,
                -1.172629646267687,
                2.036181605935642,
                -0.8176317373271542,
                0.28611833119412106,
                -3.177069638955636
            ]
        },
        {
            "positions": [
                -0.009209932480272229,
                -1.205773991000247,
                2.1008154875707237,
                -0.8547938267574902,
                0.4426501819192379,
                -3.1616479932141606
            ]
        },
        {
            "positions": [
                -0.0752206687943842,
                -1.2389183357328069,
                2.1654493692058057,
                -0.8919559161878262,
                0.5991820326443547,
                -3.1462263474726853
            ]
        },
        {
            "positions": [
                -0.14123140510849613,
                -1.2720626804653667,
                2.230083250840887,
                -0.9291180056181623,
                0.7557138833694715,
                -3.1308047017312104
            ]
        },
        {
            "positions": [
                -0.2072421414226081,
                -1.3052070251979266,
                2.294717132475969,
                -0.9662800950484982,
                0.9122457340945884,
                -3.115383055989735
            ]
        },
        {
            "positions": [
                -0.2732528777367201,
                -1.3383513699304865,
                2.3593510141110507,
                -1.0034421844788344,
                1.0687775848197052,
                -3.0999614102482598
            ]
        },
        {
            "positions": [
                -0.33926361405083205,
                -1.3714957146630464,
                2.4239848957461327,
                -1.0406042739091703,
                1.2253094355448222,
                -3.0845397645067845
            ]
        }
    ]
}