{
    "goal": {
        "global_pose": {
            "orientation": {
                "w": 0.5084816217422485,
                "x": -0.49083608388900757,
                "y": 0.5182115435600281,
                "z": -0.4816462993621826
            },
            "position": {
                "x": 0.5540239810943604,
                "y": 0.030875300988554955,
                "z": 0.16403168439865112
            }
        },
        "name": "move_to_storage_A"
    },
    "id": "LazyPRMstar_move_to_storage_A_96",
    "joint_names": [
        "shoulder_pan_joint",
        "shoulder_lift_joint",
        "elbow_joint",
        "wrist_1_joint",
        "wrist_2_joint",
        "wrist_3_joint"
    ],
    "metrics": {
        "cart_traj_len": 0.3526648112613075,
        "distance_elbow_joint": 0.45078273053344375,
        "distance_shoulder_lift_joint": 0.23238538993128066,
        "distance_shoulder_pan_joint": 0.45934766932509247,
        "distance_wrist_1_joint": 0.2537148731049078,
        "distance_wrist_2_joint": 1.1045209395173514,
        "distance_wrist_3_joint": 0.10240334786368788,
        "smoothness": 2.331468353216295e-15,
        "time": 5.00034587,
        "traj_len": 1.6134295616096055,
        "weighted_distance": 2.0411265170550794
    },
    "planner": "LazyPRMstar",
    "start": {
        "state": {
            "elbow_joint": 1.9715477243005601,
            "shoulder_lift_joint": -1.1394853015351272,
            "shoulder_pan_joint": 0.12281154014795169,
            "wrist_1_joint": -0.7804696478968182,
            "wrist_2_joint": 0.12958648046900423,
            "wrist_3_joint": -3.192491284697111
        }
    },
    "waypoints": [
        {
            "positions": [
                0.12281154014795169,
                -1.1394853015351272,
                1.9715477243005601,
                -0.7804696478968182,
                0.12958648046900423,
                -3.192491284697111
            ]
        },
        {
            "positions": [
                0.05719044453008135,
                -1.172683214382453,
                2.035945257233909,
                -0.8167146297689478,
                0.2873751861143401,
                -3.1778622350022987
            ]
        },
        {
            "positions": [
                -0.008430651087788996,
                -1.2058811272297787,
                2.1003427901672582,
                -0.8529596116410776,
                0.445163891759676,
                -3.163233185307486
            ]
        },
        {
            "positions": [
                -0.07405174670565935,
                -1.2390790400771046,
                2.1647403231006073,
                -0.8892045935132072,
                0.602952597405012,
                -3.1486041356126737
            ]
        },
        {
            "positions": [
                -0.13967284232352967,
                -1.2722769529244304,
                2.2291378560339563,
                -0.9254495753853369,
                0.7607413030503478,
                -3.133975085917861
            ]
        },
        {
            "positions": [
                -0.20529393794140005,
                -1.3054748657717563,
                2.293535388967306,
                -0.9616945572574667,
                0.9185300086956838,
                -3.1193460362230483
            ]
        },
        {
            "positions": [
                -0.2709150335592704,
                -1.338672778619082,
                2.357932921900655,
                -0.9979395391295962,
                1.0763187143410198,
                -3.104716986528236
            ]
        },
        {
            "positions": [
                -0.33653612917714076,
                -1.3718706914664078,
                2.422330454834004,
                -1.034184521001726,
                1.2341074199863555,
                -3.0900879368334233
            ]
        }
    ]
}