{
    "goal": {
        "global_pose": {
            "orientation": {
                "w": 0.5084816217422485,
                "x": -0.49083608388900757,
                "y": 0.5182115435600281,
                "z": -0.4816462993621826
            },
            "position": {
                "x": 0.5540239810943604,
                "y": 0.030875300988554955,
                "z": 0.16403168439865112
            }
        },
        "name": "move_to_storage_A"
    },
    "id": "LazyPRMstar_move_to_storage_A_20",
    "joint_names": [
        "shoulder_pan_joint",
        "shoulder_lift_joint",
        "elbow_joint",
        "wrist_1_joint",
        "wrist_2_joint",
        "wrist_3_joint"
    ],
    "metrics": {
        "cart_traj_len": 0.3533660834130069,
        "distance_elbow_joint": 0.45120683809233286,
        "distance_shoulder_lift_joint": 0.23316667717410278,
        "distance_shoulder_pan_joint": 0.46141314749587453,
        "distance_wrist_1_joint": 0.25161270954874115,
        "distance_wrist_2_joint": 1.1015704831350202,
        "distance_wrist_3_joint": 0.09383813807805685,
        "smoothness": 0.0,
        "time": 5.000716766,
        "traj_len": 1.610219858753496,
        "weighted_distance": 2.033142263188684
    },
    "planner": "LazyPRMstar",
    "start": {
        "state": {
            "elbow_joint": 1.9715477243005601,
            "shoulder_lift_joint": -1.1394853015351272,
            "shoulder_pan_joint": 0.12281154014795169,
            "wrist_1_joint": -0.7804696478968182,
            "wrist_2_joint": 0.12958648046900423,
            "wrist_3_joint": -3.192491284697111
        }
    },
    "waypoints": [
        {
            "positions": [
                0.12281154014795169,
                -1.1394853015351272,
                1.9715477243005601,
                -0.7804696478968182,
                0.12958648046900423,
                -3.192491284697111
            ]
        },
        {
            "positions": [
                0.05689537621996962,
                -1.1727948268457133,
                2.036005844028036,
                -0.8164143206894955,
                0.28695369234543566,
                -3.179085836400246
            ]
        },
        {
            "positions": [
                -0.009020787708012443,
                -1.2061043521562993,
                2.1004639637555123,
                -0.8523589934821728,
                0.4443209042218671,
                -3.1656803881033806
            ]
        },
        {
            "positions": [
                -0.07493695163599452,
                -1.2394138774668855,
                2.1649220834829883,
                -0.88830366627485,
                0.6016881160982985,
                -3.1522749398065155
            ]
        },
        {
            "positions": [
                -0.14085311556397656,
                -1.2727234027774716,
                2.2293802032104644,
                -0.9242483390675273,
                0.75905532797473,
                -3.13886949150965
            ]
        },
        {
            "positions": [
                -0.20676927949195867,
                -1.3060329280880578,
                2.293838322937941,
                -0.9601930118602047,
                0.9164225398511615,
                -3.125464043212785
            ]
        },
        {
            "positions": [
                -0.2726854434199407,
                -1.3393424533986438,
                2.358296442665417,
                -0.996137684652882,
                1.0737897517275927,
                -3.1120585949159194
            ]
        },
        {
            "positions": [
                -0.33860160734792283,
                -1.37265197870923,
                2.422754562392893,
                -1.0320823574455593,
                1.2311569636040243,
                -3.0986531466190543
            ]
        }
    ]
}