{
    "goal": {
        "global_pose": {
            "orientation": {
                "w": 0.5084816217422485,
                "x": -0.49083608388900757,
                "y": 0.5182115435600281,
                "z": -0.4816462993621826
            },
            "position": {
                "x": 0.5540239810943604,
                "y": 0.030875300988554955,
                "z": 0.16403168439865112
            }
        },
        "name": "move_to_storage_A"
    },
    "id": "LazyPRMstar_move_to_storage_A_69",
    "joint_names": [
        "shoulder_pan_joint",
        "shoulder_lift_joint",
        "elbow_joint",
        "wrist_1_joint",
        "wrist_2_joint",
        "wrist_3_joint"
    ],
    "metrics": {
        "cart_traj_len": 0.35363825134642135,
        "distance_elbow_joint": 0.4506865135503455,
        "distance_shoulder_lift_joint": 0.23333815504564503,
        "distance_shoulder_pan_joint": 0.4621262574774486,
        "distance_wrist_1_joint": 0.25076375702661247,
        "distance_wrist_2_joint": 1.1004038647962258,
        "distance_wrist_3_joint": 0.09409229843491351,
        "smoothness": 1.665334528953551e-15,
        "time": 5.001722665,
        "traj_len": 1.609785962894195,
        "weighted_distance": 2.0324278744949
    },
    "planner": "LazyPRMstar",
    "start": {
        "state": {
            "elbow_joint": 1.9715477243005601,
            "shoulder_lift_joint": -1.1394853015351272,
            "shoulder_pan_joint": 0.12281154014795169,
            "wrist_1_joint": -0.7804696478968182,
            "wrist_2_joint": 0.12958648046900423,
            "wrist_3_joint": -3.192491284697111
        }
    },
    "waypoints": [
        {
            "positions": [
                0.12281154014795169,
                -1.1394853015351272,
                1.9715477243005601,
                -0.7804696478968182,
                0.12958648046900423,
                -3.192491284697111
            ]
        },
        {
            "positions": [
                0.05679350336545903,
                -1.172819323684505,
                2.0359315119506096,
                -0.8162930417577628,
                0.28678703258275073,
                -3.179049527777838
            ]
        },
        {
            "positions": [
                -0.009224533417033623,
                -1.206153345833883,
                2.1003152996006587,
                -0.8521164356187074,
                0.4439875846964973,
                -3.1656077708585646
            ]
        },
        {
            "positions": [
                -0.07524257019952628,
                -1.2394873679832608,
                2.164699087250708,
                -0.8879398294796521,
                0.6011881368102439,
                -3.1521660139392913
            ]
        },
        {
            "positions": [
                -0.14126060698201892,
                -1.2728213901326386,
                2.2290828749007576,
                -0.9237632233405967,
                0.7583886889239904,
                -3.1387242570200176
            ]
        },
        {
            "positions": [
                -0.2072786437645116,
                -1.3061554122820165,
                2.293466662550807,
                -0.9595866172015414,
                0.915589241037737,
                -3.1252825001007443
            ]
        },
        {
            "positions": [
                -0.27329668054700423,
                -1.3394894344313943,
                2.357850450200856,
                -0.9954100110624859,
                1.0727897931514834,
                -3.111840743181471
            ]
        },
        {
            "positions": [
                -0.3393147173294969,
                -1.3728234565807722,
                2.4222342378509056,
                -1.0312334049234306,
                1.2299903452652299,
                -3.0983989862621977
            ]
        }
    ]
}