{
    "goal": {
        "global_pose": {
            "orientation": {
                "w": 0.7047431468963623,
                "x": -0.7094548344612122,
                "y": 0.0024358443915843964,
                "z": -0.0022348060738295317
            },
            "position": {
                "x": 0.6094750761985779,
                "y": 0.3671506643295288,
                "z": 0.19426114857196808
            }
        },
        "name": "move_to_magneteinheit_A"
    },
    "id": "LazyPRM_move_to_magneteinheit_A_147",
    "joint_names": [
        "shoulder_pan_joint",
        "shoulder_lift_joint",
        "elbow_joint",
        "wrist_1_joint",
        "wrist_2_joint",
        "wrist_3_joint"
    ],
    "metrics": {
        "cart_traj_len": 3.698374086649417,
        "distance_elbow_joint": 3.906196973649799,
        "distance_shoulder_lift_joint": 0.44761535268379027,
        "distance_shoulder_pan_joint": 3.1271730233971686,
        "distance_wrist_1_joint": 1.2772173917378908,
        "distance_wrist_2_joint": 1.83302358328513,
        "distance_wrist_3_joint": 3.607756903184644,
        "smoothness": 0.17692555166327012,
        "time": 0.109004658,
        "traj_len": 3.7681538222236126,
        "weighted_distance": 4.952245754133243
    },
    "planner": "LazyPRM",
    "start": {
        "state": {
            "elbow_joint": -1.919618573717145,
            "shoulder_lift_joint": -1.2443395971678275,
            "shoulder_pan_joint": 2.6996025300909787,
            "wrist_1_joint": -1.548550951253194,
            "wrist_2_joint": -1.5709469090946802,
            "wrist_3_joint": 0.4420197732051276
        }
    },
    "waypoints": [
        {
            "positions": [
                2.6996025300909787,
                -1.2443395971678275,
                -1.919618573717145,
                -1.548550951253194,
                -1.5709469090946802,
                0.4420197732051276
            ]
        },
        {
            "positions": [
                2.567062354966105,
                -1.2559187997783388,
                -1.875622585063943,
                -1.482581463989369,
                -1.476573010154854,
                0.3968050238987165
            ]
        },
        {
            "positions": [
                2.434522179841231,
                -1.26749800238885,
                -1.831626596410741,
                -1.416611976725544,
                -1.3821991112150278,
                0.3515902745923054
            ]
        },
        {
            "positions": [
                2.3019820047163577,
                -1.2790772049993615,
                -1.7876306077575392,
                -1.350642489461719,
                -1.2878252122752016,
                0.3063755252858943
            ]
        },
        {
            "positions": [
                2.169441829591484,
                -1.2906564076098728,
                -1.7436346191043373,
                -1.284673002197894,
                -1.1934513133353755,
                0.26116077597948323
            ]
        },
        {
            "positions": [
                2.03690165446661,
                -1.302235610220384,
                -1.6996386304511353,
                -1.2187035149340693,
                -1.0990774143955493,
                0.21594602667307217
            ]
        },
        {
            "positions": [
                1.9043614793417363,
                -1.3138148128308953,
                -1.6556426417979333,
                -1.1527340276702442,
                -1.0047035154557231,
                0.17073127736666105
            ]
        },
        {
            "positions": [
                1.7718213042168625,
                -1.3253940154414066,
                -1.6116466531447315,
                -1.0867645404064192,
                -0.9103296165158971,
                0.12551652806025
            ]
        },
        {
            "positions": [
                1.6392811290919889,
                -1.336973218051918,
                -1.5676506644915293,
                -1.0207950531425942,
                -0.8159557175760709,
                0.08030177875383887
            ]
        },
        {
            "positions": [
                1.506740953967115,
                -1.3485524206624293,
                -1.5236546758383276,
                -0.9548255658787693,
                -0.7215818186362447,
                0.03508702944742781
            ]
        },
        {
            "positions": [
                1.3742007788422415,
                -1.3601316232729406,
                -1.4796586871851256,
                -0.8888560786149443,
                -0.6272079196964186,
                -0.010127719858983253
            ]
        },
        {
            "positions": [
                1.2416606037173676,
                -1.3717108258834518,
                -1.4356626985319236,
                -0.8228865913511193,
                -0.5328340207565925,
                -0.05534246916539437
            ]
        },
        {
            "positions": [
                1.1091204285924938,
                -1.383290028493963,
                -1.3916667098787219,
                -0.7569171040872943,
                -0.4384601218167663,
                -0.10055721847180549
            ]
        },
        {
            "positions": [
                0.97658025346762,
                -1.3948692311044746,
                -1.3476707212255197,
                -0.6909476168234693,
                -0.34408622287694013,
                -0.1457719677782166
            ]
        },
        {
            "positions": [
                0.8440400783427464,
                -1.4064484337149858,
                -1.303674732572318,
                -0.6249781295596444,
                -0.24971232393711396,
                -0.1909867170846276
            ]
        },
        {
            "positions": [
                0.7114999032178726,
                -1.418027636325497,
                -1.259678743919116,
                -0.5590086422958194,
                -0.15533842499728776,
                -0.23620146639103876
            ]
        },
        {
            "positions": [
                0.6660359808090001,
                -1.4181324000023527,
                -1.1076418746922825,
                -0.5655232349794805,
                -0.1367990457003734,
                -0.3892834521538532
            ]
        },
        {
            "positions": [
                0.6205720584001275,
                -1.4182371636792082,
                -0.955605005465449,
                -0.5720378276631417,
                -0.11825966640345906,
                -0.5423654379166677
            ]
        },
        {
            "positions": [
                0.5751081359912549,
                -1.4183419273560638,
                -0.8035681362386154,
                -0.5785524203468028,
                -0.09972028710654471,
                -0.6954474236794822
            ]
        },
        {
            "positions": [
                0.5296442135823823,
                -1.4184466910329192,
                -0.651531267011782,
                -0.5850670130304639,
                -0.08118090780963035,
                -0.8485294094422966
            ]
        },
        {
            "positions": [
                0.4841802911735098,
                -1.4185514547097748,
                -0.4994943977849484,
                -0.5915816057141251,
                -0.062641528512716,
                -1.001611395205111
            ]
        },
        {
            "positions": [
                0.43871636876463727,
                -1.4186562183866303,
                -0.34745752855811496,
                -0.5980961983977863,
                -0.04410214921580165,
                -1.1546933809679256
            ]
        },
        {
            "positions": [
                0.3932524463557647,
                -1.4187609820634859,
                -0.1954206593312815,
                -0.6046107910814473,
                -0.025562769918887313,
                -1.3077753667307401
            ]
        },
        {
            "positions": [
                0.34778852394689214,
                -1.4188657457403413,
                -0.04338379010444804,
                -0.6111253837651085,
                -0.007023390621972936,
                -1.4608573524935544
            ]
        },
        {
            "positions": [
                0.3023246015380196,
                -1.418970509417197,
                0.10865307912238564,
                -0.6176399764487697,
                0.011515988674941413,
                -1.613939338256369
            ]
        },
        {
            "positions": [
                0.256860679129147,
                -1.4190752730940523,
                0.2606899483492191,
                -0.6241545691324308,
                0.030055367971855762,
                -1.7670213240191834
            ]
        },
        {
            "positions": [
                0.21139675672027447,
                -1.419180036770908,
                0.4127268175760528,
                -0.630669161816092,
                0.04859474726877011,
                -1.9201033097819982
            ]
        },
        {
            "positions": [
                0.16593283431140193,
                -1.4192848004477634,
                0.564763686802886,
                -0.6371837544997531,
                0.06713412656568446,
                -2.0731852955448122
            ]
        },
        {
            "positions": [
                0.12046891190252929,
                -1.419389564124619,
                0.7168005560297197,
                -0.6436983471834142,
                0.08567350586259884,
                -2.226267281307627
            ]
        },
        {
            "positions": [
                0.07500498949365675,
                -1.4194943278014744,
                0.8688374252565529,
                -0.6502129398670754,
                0.10421288515951313,
                -2.3793492670704413
            ]
        },
        {
            "positions": [
                0.02954106708478421,
                -1.41959909147833,
                1.0208742944833868,
                -0.6567275325507366,
                0.12275226445642753,
                -2.5324312528332555
            ]
        },
        {
            "positions": [
                -0.015922855324088325,
                -1.4197038551551855,
                1.1729111637102199,
                -0.6632421252343977,
                0.14129164375334188,
                -2.68551323859607
            ]
        },
        {
            "positions": [
                -0.06138677773296097,
                -1.4198086188320411,
                1.3249480329370538,
                -0.6697567179180588,
                0.15983102305025623,
                -2.8385952243588846
            ]
        },
        {
            "positions": [
                -0.1068507001418334,
                -1.4199133825088965,
                1.4769849021638872,
                -0.67627131060172,
                0.17837040234717058,
                -2.991677210121699
            ]
        },
        {
            "positions": [
                -0.15231462255070605,
                -1.4200181461857522,
                1.6290217713907205,
                -0.6827859032853811,
                0.19690978164408493,
                -3.1447591958845136
            ]
        },
        {
            "positions": [
                -0.060562665632211854,
                -1.329372544963797,
                1.7482073142380319,
                -0.7374185105490326,
                0.1751874841286302,
                -3.1377665511861794
            ]
        },
        {
            "positions": [
                0.03118929128628234,
                -1.2387269437418418,
                1.8673928570853433,
                -0.792051117812684,
                0.15346518661317546,
                -3.130773906487845
            ]
        },
        {
            "positions": [
                0.12294124820477653,
                -1.1480813425198866,
                1.9865783999326547,
                -0.8466837250763355,
                0.13174288909772072,
                -3.1237812617895107
            ]
        }
    ]
}{
    "goal": {
        "global_pose": {
            "orientation": {
                "w": 0.7047431468963623,
                "x": -0.7094548344612122,
                "y": 0.0024358443915843964,
                "z": -0.0022348060738295317
            },
            "position": {
                "x": 0.6094750761985779,
                "y": 0.3671506643295288,
                "z": 0.19426114857196808
            }
        },
        "name": "move_to_magneteinheit_A"
    },
    "id": "LazyPRM_move_to_magneteinheit_A_147",
    "joint_names": [
        "shoulder_pan_joint",
        "shoulder_lift_joint",
        "elbow_joint",
        "wrist_1_joint",
        "wrist_2_joint",
        "wrist_3_joint"
    ],
    "metrics": {
        "cart_traj_len": 1.3476025720845557,
        "distance_elbow_joint": 0.34032396528995856,
        "distance_shoulder_lift_joint": 0.8801066966968221,
        "distance_shoulder_pan_joint": 1.2421001158037275,
        "distance_wrist_1_joint": 0.8057238051741666,
        "distance_wrist_2_joint": 1.4472028732540796,
        "distance_wrist_3_joint": 4.302940311584111,
        "smoothness": 0.14329981500458203,
        "time": 0.605640802,
        "traj_len": 3.003064729206293,
        "weighted_distance": 4.458385926476009
    },
    "planner": "LazyPRM",
    "start": {
        "state": {
            "elbow_joint": 1.919643534880228,
            "shoulder_lift_joint": -1.8972525353963687,
            "shoulder_pan_joint": -1.1188672234189438,
            "wrist_1_joint": -1.5931878212786155,
            "wrist_2_joint": 1.5706036197970081,
            "wrist_3_joint": 1.118896926603594
        }
    },
    "waypoints": [
        {
            "positions": [
                -1.1188672234189438,
                -1.8972525353963687,
                1.919643534880228,
                -1.5931878212786155,
                1.5706036197970081,
                1.118896926603594
            ]
        },
        {
            "positions": [
                -1.11929477728255,
                -1.928053372260675,
                1.8478881044916502,
                -1.4514797118878966,
                1.518467921238989,
                1.0397203693344756
            ]
        },
        {
            "positions": [
                -1.1197223311461557,
                -1.9588542091249814,
                1.7761326741030725,
                -1.309771602497178,
                1.46633222268097,
                0.9605438120653572
            ]
        },
        {
            "positions": [
                -1.060615425999655,
                -1.9198777794598285,
                1.7855047266989204,
                -1.2848998126689528,
                1.4023831047696347,
                0.7631825169679347
            ]
        },
        {
            "positions": [
                -1.0015085208531542,
                -1.8809013497946758,
                1.794876779294768,
                -1.2600280228407275,
                1.3384339868582995,
                0.5658212218705121
            ]
        },
        {
            "positions": [
                -0.9424016157066535,
                -1.841924920129523,
                1.8042488318906158,
                -1.2351562330125023,
                1.2744848689469641,
                0.3684599267730895
            ]
        },
        {
            "positions": [
                -0.8832947105601527,
                -1.8029484904643702,
                1.8136208844864636,
                -1.2102844431842772,
                1.210535751035629,
                0.17109863167566697
            ]
        },
        {
            "positions": [
                -0.824187805413652,
                -1.7639720607992173,
                1.8229929370823112,
                -1.185412653356052,
                1.1465866331242935,
                -0.02626266342175565
            ]
        },
        {
            "positions": [
                -0.7650809002671513,
                -1.7249956311340644,
                1.832364989678159,
                -1.1605408635278267,
                1.0826375152129584,
                -0.22362395851917827
            ]
        },
        {
            "positions": [
                -0.7059739951206505,
                -1.6860192014689117,
                1.841737042274007,
                -1.1356690736996016,
                1.018688397301623,
                -0.4209852536166009
            ]
        },
        {
            "positions": [
                -0.6468670899741498,
                -1.6470427718037588,
                1.8511090948698545,
                -1.1107972838713764,
                0.9547392793902877,
                -0.6183465487140233
            ]
        },
        {
            "positions": [
                -0.587760184827649,
                -1.6080663421386059,
                1.8604811474657024,
                -1.0859254940431513,
                0.8907901614789524,
                -0.8157078438114459
            ]
        },
        {
            "positions": [
                -0.5286532796811483,
                -1.5690899124734532,
                1.8698532000615502,
                -1.061053704214926,
                0.8268410435676171,
                -1.0130691389088686
            ]
        },
        {
            "positions": [
                -0.46954637453464754,
                -1.5301134828083003,
                1.8792252526573978,
                -1.0361819143867008,
                0.7628919256562817,
                -1.2104304340062915
            ]
        },
        {
            "positions": [
                -0.4104394693881468,
                -1.4911370531431476,
                1.8885973052532457,
                -1.0113101245584757,
                0.6989428077449465,
                -1.4077917291037139
            ]
        },
        {
            "positions": [
                -0.35133256424164605,
                -1.4521606234779947,
                1.8979693578490935,
                -0.9864383347302503,
                0.6349936898336112,
                -1.6051530242011367
            ]
        },
        {
            "positions": [
                -0.2922256590951453,
                -1.413184193812842,
                1.907341410444941,
                -0.9615665449020252,
                0.5710445719222759,
                -1.802514319298559
            ]
        },
        {
            "positions": [
                -0.23311875394864456,
                -1.3742077641476889,
                1.916713463040789,
                -0.9366947550738001,
                0.5070954540109406,
                -1.999875614395982
            ]
        },
        {
            "positions": [
                -0.17401184880214382,
                -1.3352313344825362,
                1.9260855156366368,
                -0.9118229652455748,
                0.4431463360996053,
                -2.197236909493404
            ]
        },
        {
            "positions": [
                -0.11490494365564308,
                -1.2962549048173835,
                1.9354575682324844,
                -0.8869511754173496,
                0.3791972181882699,
                -2.3945982045908267
            ]
        },
        {
            "positions": [
                -0.055798038509142334,
                -1.2572784751522306,
                1.9448296208283322,
                -0.8620793855891244,
                0.31524810027693473,
                -2.591959499688249
            ]
        },
        {
            "positions": [
                0.0033088666373584097,
                -1.2183020454870777,
                1.95420167342418,
                -0.8372075957608992,
                0.25129898236559933,
                -2.789320794785672
            ]
        },
        {
            "positions": [
                0.06241577178385915,
                -1.179325615821925,
                1.9635737260200277,
                -0.8123358059326741,
                0.18734986445426416,
                -2.9866820898830944
            ]
        },
        {
            "positions": [
                0.1215226769303598,
                -1.140349186156772,
                1.9729457786158755,
                -0.7874640161044488,
                0.12340074654292886,
                -3.184043384980517
            ]
        }
    ]
}