{
    "goal": {
        "global_pose": {
            "orientation": {
                "w": 0.5084816217422485,
                "x": -0.49083608388900757,
                "y": 0.5182115435600281,
                "z": -0.4816462993621826
            },
            "position": {
                "x": 0.5540239810943604,
                "y": 0.030875300988554955,
                "z": 0.16403168439865112
            }
        },
        "name": "move_to_storage_A"
    },
    "id": "LazyPRMstar_move_to_storage_A_147",
    "joint_names": [
        "shoulder_pan_joint",
        "shoulder_lift_joint",
        "elbow_joint",
        "wrist_1_joint",
        "wrist_2_joint",
        "wrist_3_joint"
    ],
    "metrics": {
        "cart_traj_len": 0.35252646293172074,
        "distance_elbow_joint": 0.4509662904196934,
        "distance_shoulder_lift_joint": 0.23352133000493125,
        "distance_shoulder_pan_joint": 0.45715783546331784,
        "distance_wrist_1_joint": 0.2552830031065966,
        "distance_wrist_2_joint": 1.113265145146367,
        "distance_wrist_3_joint": 0.10963113965677707,
        "smoothness": 6.661338165333112e-16,
        "time": 5.000275291,
        "traj_len": 1.6185872678968172,
        "weighted_distance": 2.051252098442364
    },
    "planner": "LazyPRMstar",
    "start": {
        "state": {
            "elbow_joint": 1.9715477243005601,
            "shoulder_lift_joint": -1.1394853015351272,
            "shoulder_pan_joint": 0.12281154014795169,
            "wrist_1_joint": -0.7804696478968182,
            "wrist_2_joint": 0.12958648046900423,
            "wrist_3_joint": -3.192491284697111
        }
    },
    "waypoints": [
        {
            "positions": [
                0.12281154014795169,
                -1.1394853015351272,
                1.9715477243005601,
                -0.7804696478968182,
                0.12958648046900423,
                -3.192491284697111
            ]
        },
        {
            "positions": [
                0.05750327793890629,
                -1.1728454915358317,
                2.035971480074802,
                -0.8169386483406177,
                0.2886243583470567,
                -3.1768296933175715
            ]
        },
        {
            "positions": [
                -0.0078049842701391065,
                -1.206205681536536,
                2.100395235849044,
                -0.8534076487844172,
                0.4476622362251091,
                -3.161168101938032
            ]
        },
        {
            "positions": [
                -0.0731132464791845,
                -1.2395658715372406,
                2.164818991623286,
                -0.8898766492282166,
                0.6067001141031616,
                -3.1455065105584925
            ]
        },
        {
            "positions": [
                -0.1384215086882299,
                -1.272926061537945,
                2.2292427473975276,
                -0.9263456496720162,
                0.765737991981214,
                -3.129844919178953
            ]
        },
        {
            "positions": [
                -0.20372977089727534,
                -1.3062862515386495,
                2.2936665031717696,
                -0.9628146501158157,
                0.9247758698592664,
                -3.114183327799413
            ]
        },
        {
            "positions": [
                -0.2690380331063207,
                -1.3396464415393539,
                2.3580902589460115,
                -0.9992836505596152,
                1.0838137477373189,
                -3.098521736419874
            ]
        },
        {
            "positions": [
                -0.33434629531536614,
                -1.3730066315400584,
                2.4225140147202535,
                -1.0357526510034147,
                1.2428516256153712,
                -3.082860145040334
            ]
        }
    ]
}