{
    "goal": {
        "global_pose": {
            "orientation": {
                "w": 0.5084816217422485,
                "x": -0.49083608388900757,
                "y": 0.5182115435600281,
                "z": -0.4816462993621826
            },
            "position": {
                "x": 0.5540239810943604,
                "y": 0.030875300988554955,
                "z": 0.16403168439865112
            }
        },
        "name": "move_to_storage_A"
    },
    "id": "LazyPRM_move_to_storage_A_2",
    "joint_names": [
        "shoulder_pan_joint",
        "shoulder_lift_joint",
        "elbow_joint",
        "wrist_1_joint",
        "wrist_2_joint",
        "wrist_3_joint"
    ],
    "metrics": {
        "cart_traj_len": 0.35393820626880107,
        "distance_elbow_joint": 0.4512015082510179,
        "distance_shoulder_lift_joint": 0.23535873798679008,
        "distance_shoulder_pan_joint": 0.4620008521489421,
        "distance_wrist_1_joint": 0.24567075685875917,
        "distance_wrist_2_joint": 1.1046775008670844,
        "distance_wrist_3_joint": 0.09473671245239768,
        "smoothness": 2.2204460668324854e-16,
        "time": 0.0217638,
        "traj_len": 1.6104800739422365,
        "weighted_distance": 2.033093148676575
    },
    "planner": "LazyPRM",
    "start": {
        "state": {
            "elbow_joint": 1.9715477243005601,
            "shoulder_lift_joint": -1.1394853015351272,
            "shoulder_pan_joint": 0.12281154014795169,
            "wrist_1_joint": -0.7804696478968182,
            "wrist_2_joint": 0.12958648046900423,
            "wrist_3_joint": -3.192491284697111
        }
    },
    "waypoints": [
        {
            "positions": [
                0.12281154014795169,
                -1.1394853015351272,
                1.9715477243005601,
                -0.7804696478968182,
                0.12958648046900423,
                -3.192491284697111
            ]
        },
        {
            "positions": [
                0.05681141841238854,
                -1.1731079783903828,
                2.0360050826221343,
                -0.8155654703052123,
                0.28739755202144485,
                -3.178957468632483
            ]
        },
        {
            "positions": [
                -0.009188703323174605,
                -1.2067306552456387,
                2.100462440943708,
                -0.8506612927136065,
                0.44520862357388546,
                -3.1654236525678545
            ]
        },
        {
            "positions": [
                -0.07518882505873777,
                -1.2403533321008944,
                2.164919799265282,
                -0.8857571151220006,
                0.603019695126326,
                -3.1518898365032264
            ]
        },
        {
            "positions": [
                -0.14118894679430088,
                -1.27397600895615,
                2.229377157586856,
                -0.9208529375303949,
                0.7608307666787667,
                -3.1383560204385983
            ]
        },
        {
            "positions": [
                -0.20718906852986407,
                -1.307598685811406,
                2.29383451590843,
                -0.955948759938789,
                0.9186418382312074,
                -3.12482220437397
            ]
        },
        {
            "positions": [
                -0.2731891902654272,
                -1.3412213626666616,
                2.358291874230004,
                -0.9910445823471832,
                1.076452909783648,
                -3.1112883883093416
            ]
        },
        {
            "positions": [
                -0.3391893120009904,
                -1.3748440395219172,
                2.422749232551578,
                -1.0261404047555773,
                1.2342639813360887,
                -3.0977545722447135
            ]
        }
    ]
}