{
    "goal": {
        "global_pose": {
            "orientation": {
                "w": 0.7047431468963623,
                "x": -0.7094548344612122,
                "y": 0.0024358443915843964,
                "z": -0.0022348060738295317
            },
            "position": {
                "x": 0.6094750761985779,
                "y": 0.3671506643295288,
                "z": 0.19426114857196808
            }
        },
        "name": "move_to_magneteinheit_A"
    },
    "id": "LazyPRMstar_move_to_magneteinheit_A_84",
    "joint_names": [
        "shoulder_pan_joint",
        "shoulder_lift_joint",
        "elbow_joint",
        "wrist_1_joint",
        "wrist_2_joint",
        "wrist_3_joint"
    ],
    "metrics": {
        "cart_traj_len": 3.832959269510903,
        "distance_elbow_joint": 3.890368038780395,
        "distance_shoulder_lift_joint": 0.3226555627626273,
        "distance_shoulder_pan_joint": 3.1620422655628233,
        "distance_wrist_1_joint": 0.7808510581280962,
        "distance_wrist_2_joint": 1.7040930225323239,
        "distance_wrist_3_joint": 2.628268689042052,
        "smoothness": 0.07791908069780652,
        "time": 5.018217525,
        "traj_len": 3.53387586607231,
        "weighted_distance": 4.497750559507812
    },
    "planner": "LazyPRMstar",
    "start": {
        "state": {
            "elbow_joint": -1.919618573717145,
            "shoulder_lift_joint": -1.2443395971678275,
            "shoulder_pan_joint": 2.6996025300909787,
            "wrist_1_joint": -1.548550951253194,
            "wrist_2_joint": -1.5709469090946802,
            "wrist_3_joint": 0.4420197732051276
        }
    },
    "waypoints": [
        {
            "positions": [
                2.6996025300909787,
                -1.2443395971678275,
                -1.919618573717145,
                -1.548550951253194,
                -1.5709469090946802,
                0.4420197732051276
            ]
        },
        {
            "positions": [
                2.5485607030952293,
                -1.2330996078355012,
                -1.758328586484589,
                -1.5399619994063374,
                -1.559894653890965,
                0.4925948023160355
            ]
        },
        {
            "positions": [
                2.3975188760994803,
                -1.221859618503175,
                -1.5970385992520333,
                -1.5313730475594807,
                -1.5488423986872502,
                0.5431698314269433
            ]
        },
        {
            "positions": [
                2.246477049103731,
                -1.2106196291708486,
                -1.4357486120194773,
                -1.522784095712624,
                -1.537790143483535,
                0.5937448605378512
            ]
        },
        {
            "positions": [
                2.095435222107982,
                -1.1993796398385224,
                -1.2744586247869214,
                -1.5141951438657673,
                -1.52673788827982,
                0.6443198896487591
            ]
        },
        {
            "positions": [
                1.9443933951122325,
                -1.1881396505061963,
                -1.1131686375543657,
                -1.5056061920189105,
                -1.515685633076105,
                0.6948949187596669
            ]
        },
        {
            "positions": [
                1.793351568116483,
                -1.17689966117387,
                -0.9518786503218098,
                -1.4970172401720538,
                -1.50463337787239,
                0.7454699478705749
            ]
        },
        {
            "positions": [
                1.642309741120734,
                -1.1656596718415437,
                -0.790588663089254,
                -1.4884282883251971,
                -1.4935811226686748,
                0.7960449769814828
            ]
        },
        {
            "positions": [
                1.4912679141249847,
                -1.1544196825092174,
                -0.6292986758566981,
                -1.4798393364783404,
                -1.48252886746496,
                0.8466200060923906
            ]
        },
        {
            "positions": [
                1.3402260871292355,
                -1.1431796931768912,
                -0.46800868862414235,
                -1.4712503846314837,
                -1.4714766122612448,
                0.8971950352032985
            ]
        },
        {
            "positions": [
                1.1891842601334863,
                -1.1319397038445649,
                -0.3067187013915864,
                -1.462661432784627,
                -1.4604243570575297,
                0.9477700643142064
            ]
        },
        {
            "positions": [
                1.038142433137737,
                -1.1206997145122386,
                -0.14542871415903047,
                -1.45407248093777,
                -1.4493721018538146,
                0.9983450934251143
            ]
        },
        {
            "positions": [
                0.8871006061419877,
                -1.1094597251799123,
                0.01586127307352525,
                -1.4454835290909134,
                -1.4383198466500997,
                1.048920122536022
            ]
        },
        {
            "positions": [
                0.7360587791462383,
                -1.098219735847586,
                0.1771512603060812,
                -1.4368945772440567,
                -1.4272675914463846,
                1.09949515164693
            ]
        },
        {
            "positions": [
                0.5850169521504891,
                -1.0869797465152597,
                0.3384412475386369,
                -1.4283056253972,
                -1.4162153362426695,
                1.150070180757838
            ]
        },
        {
            "positions": [
                0.4339751251547397,
                -1.0757397571829337,
                0.4997312347711931,
                -1.4197166735503433,
                -1.4051630810389546,
                1.200645209868746
            ]
        },
        {
            "positions": [
                0.2829332981589907,
                -1.0644997678506074,
                0.6610212220037488,
                -1.4111277217034865,
                -1.3941108258352395,
                1.2512202389796536
            ]
        },
        {
            "positions": [
                0.1318914711632413,
                -1.0532597785182811,
                0.8223112092363045,
                -1.4025387698566298,
                -1.3830585706315244,
                1.3017952680905616
            ]
        },
        {
            "positions": [
                -0.01915035583250768,
                -1.0420197891859548,
                0.9836011964688602,
                -1.3939498180097731,
                -1.3720063154278095,
                1.3523702972014695
            ]
        },
        {
            "positions": [
                -0.170192182828257,
                -1.0307797998536286,
                1.1448911837014164,
                -1.3853608661629164,
                -1.3609540602240944,
                1.4029453263123774
            ]
        },
        {
            "positions": [
                -0.1477116018556733,
                -1.0391717818112,
                1.2084187438061726,
                -1.3378484836215458,
                -1.24602327763473,
                1.5312024906150545
            ]
        },
        {
            "positions": [
                -0.1252310208830896,
                -1.0475637637687714,
                1.271946303910929,
                -1.290336101080175,
                -1.1310924950453654,
                1.6594596549177316
            ]
        },
        {
            "positions": [
                -0.1027504399105059,
                -1.0559557457263429,
                1.3354738640156854,
                -1.2428237185388045,
                -1.016161712456001,
                1.7877168192204087
            ]
        },
        {
            "positions": [
                -0.08026985893792223,
                -1.0643477276839142,
                1.3990014241204418,
                -1.1953113359974339,
                -0.9012309298666366,
                1.9159739835230858
            ]
        },
        {
            "positions": [
                -0.05778927796533853,
                -1.0727397096414857,
                1.462528984225198,
                -1.147798953456063,
                -0.786300147277272,
                2.044231147825763
            ]
        },
        {
            "positions": [
                -0.03530869699275482,
                -1.081131691599057,
                1.5260565443299545,
                -1.1002865709146925,
                -0.6713693646879076,
                2.17248831212844
            ]
        },
        {
            "positions": [
                -0.01282811602017117,
                -1.0895236735566285,
                1.5895841044347108,
                -1.052774188373322,
                -0.5564385820985432,
                2.3007454764311173
            ]
        },
        {
            "positions": [
                0.009652464952412537,
                -1.0979156555141998,
                1.6531116645394672,
                -1.0052618058319511,
                -0.44150779950917873,
                2.4290026407337946
            ]
        },
        {
            "positions": [
                0.03213304592499622,
                -1.1063076374717713,
                1.7166392246442235,
                -0.9577494232905805,
                -0.32657701691981433,
                2.5572598050364714
            ]
        },
        {
            "positions": [
                0.054613626897579926,
                -1.1146996194293426,
                1.78016678474898,
                -0.9102370407492099,
                -0.2116462343304497,
                2.6855169693391483
            ]
        },
        {
            "positions": [
                0.0770942078701636,
                -1.123091601386914,
                1.8436943448537362,
                -0.8627246582078392,
                -0.09671545174108553,
                2.8137741336418256
            ]
        },
        {
            "positions": [
                0.09957478884274734,
                -1.1314835833444854,
                1.9072219049584924,
                -0.8152122756664685,
                0.018215330848279088,
                2.942031297944503
            ]
        },
        {
            "positions": [
                0.12205536981533098,
                -1.139875565302057,
                1.9707494650632489,
                -0.7676998931250979,
                0.13314611343764352,
                3.0702884622471798
            ]
        }
    ]
}{
    "goal": {
        "global_pose": {
            "orientation": {
                "w": 0.7047431468963623,
                "x": -0.7094548344612122,
                "y": 0.0024358443915843964,
                "z": -0.0022348060738295317
            },
            "position": {
                "x": 0.6094750761985779,
                "y": 0.3671506643295288,
                "z": 0.19426114857196808
            }
        },
        "name": "move_to_magneteinheit_A"
    },
    "id": "LazyPRMstar_move_to_magneteinheit_A_84",
    "joint_names": [
        "shoulder_pan_joint",
        "shoulder_lift_joint",
        "elbow_joint",
        "wrist_1_joint",
        "wrist_2_joint",
        "wrist_3_joint"
    ],
    "metrics": {
        "cart_traj_len": 1.2512620905510923,
        "distance_elbow_joint": 0.10369328066823313,
        "distance_shoulder_lift_joint": 1.1072405435292616,
        "distance_shoulder_pan_joint": 1.2405582888334377,
        "distance_wrist_1_joint": 3.612732226684651,
        "distance_wrist_2_joint": 1.7049463781291272,
        "distance_wrist_3_joint": 1.2344780539197018,
        "smoothness": 7.401486889441618e-17,
        "time": 5.000218538,
        "traj_len": 3.000608067003155,
        "weighted_distance": 4.097594841418267
    },
    "planner": "LazyPRMstar",
    "start": {
        "state": {
            "elbow_joint": 1.919643534880228,
            "shoulder_lift_joint": -1.8972525353963687,
            "shoulder_pan_joint": -1.1188672234189438,
            "wrist_1_joint": -1.5931878212786155,
            "wrist_2_joint": 1.5706036197970081,
            "wrist_3_joint": 1.118896926603594
        }
    },
    "waypoints": [
        {
            "positions": [
                -1.1188672234189438,
                -1.8972525353963687,
                1.919643534880228,
                -1.5931878212786155,
                1.5706036197970081,
                1.118896926603594
            ]
        },
        {
            "positions": [
                -1.0649299065131421,
                -1.8491116421994442,
                1.9241519383875425,
                -1.436112507074935,
                1.4964755164000896,
                1.06522396773752
            ]
        },
        {
            "positions": [
                -1.0109925896073406,
                -1.80097074900252,
                1.9286603418948571,
                -1.2790371928712545,
                1.422347413003171,
                1.011551008871446
            ]
        },
        {
            "positions": [
                -0.9570552727015389,
                -1.7528298558055955,
                1.9331687454021715,
                -1.121961878667574,
                1.3482193096062525,
                0.957878050005372
            ]
        },
        {
            "positions": [
                -0.9031179557957373,
                -1.704688962608671,
                1.937677148909486,
                -0.9648865644638936,
                1.274091206209334,
                0.904205091139298
            ]
        },
        {
            "positions": [
                -0.8491806388899357,
                -1.6565480694117467,
                1.9421855524168006,
                -0.8078112502602132,
                1.1999631028124154,
                0.850532132273224
            ]
        },
        {
            "positions": [
                -0.795243321984134,
                -1.6084071762148222,
                1.946693955924115,
                -0.6507359360565327,
                1.1258349994154968,
                0.79685917340715
            ]
        },
        {
            "positions": [
                -0.7413060050783324,
                -1.5602662830178977,
                1.9512023594314294,
                -0.4936606218528521,
                1.051706896018578,
                0.743186214541076
            ]
        },
        {
            "positions": [
                -0.6873686881725307,
                -1.5121253898209734,
                1.955710762938744,
                -0.3365853076491718,
                0.9775787926216596,
                0.6895132556750021
            ]
        },
        {
            "positions": [
                -0.6334313712667291,
                -1.463984496624049,
                1.9602191664460584,
                -0.17950999344549112,
                0.9034506892247409,
                0.6358402968089281
            ]
        },
        {
            "positions": [
                -0.5794940543609275,
                -1.4158436034271245,
                1.9647275699533728,
                -0.022434679241810862,
                0.8293225858278224,
                0.582167337942854
            ]
        },
        {
            "positions": [
                -0.5255567374551258,
                -1.3677027102302002,
                1.9692359734606875,
                0.13464063496186984,
                0.7551944824309038,
                0.5284943790767801
            ]
        },
        {
            "positions": [
                -0.47161942054932426,
                -1.3195618170332757,
                1.9737443769680019,
                0.2917159491655501,
                0.6810663790339853,
                0.47482142021070606
            ]
        },
        {
            "positions": [
                -0.41768210364352265,
                -1.2714209238363514,
                1.9782527804753163,
                0.4487912633692306,
                0.6069382756370667,
                0.42114846134463213
            ]
        },
        {
            "positions": [
                -0.3637447867377209,
                -1.223280030639427,
                1.982761183982631,
                0.6058665775729113,
                0.5328101722401479,
                0.3674755024785581
            ]
        },
        {
            "positions": [
                -0.3098074698319193,
                -1.1751391374425024,
                1.9872695874899453,
                0.7629418917765916,
                0.4586820688432296,
                0.31380254361248405
            ]
        },
        {
            "positions": [
                -0.2558701529261177,
                -1.126998244245578,
                1.99177799099726,
                0.9200172059802718,
                0.38455396544631104,
                0.2601295847464101
            ]
        },
        {
            "positions": [
                -0.2019328360203161,
                -1.0788573510486537,
                1.9962863945045743,
                1.0770925201839525,
                0.3104258620493925,
                0.2064566258803362
            ]
        },
        {
            "positions": [
                -0.14799551911451436,
                -1.0307164578517292,
                2.000794798011889,
                1.2341678343876332,
                0.2362977586524737,
                0.15278366701426205
            ]
        },
        {
            "positions": [
                -0.09405820220871264,
                -0.9825755646548048,
                2.005303201519203,
                1.3912431485913135,
                0.16216965525555516,
                0.09911070814818812
            ]
        },
        {
            "positions": [
                -0.040120885302911136,
                -0.9344346714578804,
                2.009811605026518,
                1.5483184627949937,
                0.0880415518586366,
                0.04543774928211408
            ]
        },
        {
            "positions": [
                0.013816431602890367,
                -0.8862937782609561,
                2.0143200085338324,
                1.7053937769986744,
                0.01391344846171827,
                -0.008235209583959735
            ]
        },
        {
            "positions": [
                0.06775374850869231,
                -0.8381528850640316,
                2.0188284120411466,
                1.8624690912023552,
                -0.06021465493520051,
                -0.061908168450033774
            ]
        },
        {
            "positions": [
                0.12169106541449382,
                -0.790011991867107,
                2.0233368155484612,
                2.019544405406035,
                -0.1343427583321191,
                -0.11558112731610788
            ]
        }
    ]
}