{
    "goal": {
        "global_pose": {
            "orientation": {
                "w": 0.7047431468963623,
                "x": -0.7094548344612122,
                "y": 0.0024358443915843964,
                "z": -0.0022348060738295317
            },
            "position": {
                "x": 0.6094750761985779,
                "y": 0.3671506643295288,
                "z": 0.19426114857196808
            }
        },
        "name": "move_to_magneteinheit_A"
    },
    "id": "LazyPRMstar_move_to_magneteinheit_A_79",
    "joint_names": [
        "shoulder_pan_joint",
        "shoulder_lift_joint",
        "elbow_joint",
        "wrist_1_joint",
        "wrist_2_joint",
        "wrist_3_joint"
    ],
    "metrics": {
        "cart_traj_len": 4.0306649973236395,
        "distance_elbow_joint": 3.884030570471774,
        "distance_shoulder_lift_joint": 0.14251283814626703,
        "distance_shoulder_pan_joint": 3.58005419767683,
        "distance_wrist_1_joint": 0.7969009056913015,
        "distance_wrist_2_joint": 1.9389042383850912,
        "distance_wrist_3_joint": 2.6277013713372126,
        "smoothness": 0.34178713236275443,
        "time": 5.0154175510000005,
        "traj_len": 3.6014030768172116,
        "weighted_distance": 4.578352543050753
    },
    "planner": "LazyPRMstar",
    "start": {
        "state": {
            "elbow_joint": -1.919618573717145,
            "shoulder_lift_joint": -1.2443395971678275,
            "shoulder_pan_joint": 2.6996025300909787,
            "wrist_1_joint": -1.548550951253194,
            "wrist_2_joint": -1.5709469090946802,
            "wrist_3_joint": 0.4420197732051276
        }
    },
    "waypoints": [
        {
            "positions": [
                2.6996025300909787,
                -1.2443395971678275,
                -1.919618573717145,
                -1.548550951253194,
                -1.5709469090946802,
                0.4420197732051276
            ]
        },
        {
            "positions": [
                2.593425120845856,
                -1.2400101883283428,
                -1.806080070928746,
                -1.523543037188069,
                -1.508294612212674,
                0.5181868198692404
            ]
        },
        {
            "positions": [
                2.487247711600733,
                -1.2356807794888582,
                -1.6925415681403468,
                -1.4985351231229436,
                -1.4456423153306677,
                0.5943538665333532
            ]
        },
        {
            "positions": [
                2.3810703023556097,
                -1.2313513706493735,
                -1.5790030653519476,
                -1.4735272090578184,
                -1.3829900184486614,
                0.670520913197466
            ]
        },
        {
            "positions": [
                2.274892893110487,
                -1.2270219618098888,
                -1.4654645625635485,
                -1.4485192949926933,
                -1.3203377215666552,
                0.7466879598615788
            ]
        },
        {
            "positions": [
                2.168715483865364,
                -1.222692552970404,
                -1.3519260597751495,
                -1.423511380927568,
                -1.257685424684649,
                0.8228550065256917
            ]
        },
        {
            "positions": [
                2.062538074620241,
                -1.2183631441309195,
                -1.2383875569867504,
                -1.3985034668624428,
                -1.1950331278026427,
                0.8990220531898043
            ]
        },
        {
            "positions": [
                1.956360665375118,
                -1.2140337352914348,
                -1.1248490541983514,
                -1.3734955527973176,
                -1.1323808309206365,
                0.9751890998539172
            ]
        },
        {
            "positions": [
                1.850183256129995,
                -1.20970432645195,
                -1.0113105514099523,
                -1.3484876387321925,
                -1.0697285340386302,
                1.0513561465180299
            ]
        },
        {
            "positions": [
                1.744005846884872,
                -1.2053749176124653,
                -0.897772048621553,
                -1.323479724667067,
                -1.0070762371566238,
                1.1275231931821428
            ]
        },
        {
            "positions": [
                1.6378284376397492,
                -1.2010455087729808,
                -0.784233545833154,
                -1.298471810601942,
                -0.9444239402746176,
                1.2036902398462557
            ]
        },
        {
            "positions": [
                1.5316510283946263,
                -1.196716099933496,
                -0.6706950430447549,
                -1.2734638965368168,
                -0.8817716433926115,
                1.2798572865103683
            ]
        },
        {
            "positions": [
                1.4254736191495032,
                -1.1923866910940113,
                -0.5571565402563559,
                -1.2484559824716914,
                -0.8191193465106051,
                1.3560243331744812
            ]
        },
        {
            "positions": [
                1.3192962099043803,
                -1.1880572822545268,
                -0.4436180374679566,
                -1.2234480684065663,
                -0.7564670496285989,
                1.432191379838594
            ]
        },
        {
            "positions": [
                1.2131188006592573,
                -1.183727873415042,
                -0.33007953467955753,
                -1.1984401543414411,
                -0.6938147527465927,
                1.5083584265027068
            ]
        },
        {
            "positions": [
                1.1069413914141342,
                -1.1793984645755573,
                -0.21654103189115825,
                -1.1734322402763158,
                -0.6311624558645863,
                1.5845254731668197
            ]
        },
        {
            "positions": [
                1.0007639821690113,
                -1.1750690557360726,
                -0.10300252910275942,
                -1.1484243262111906,
                -0.5685101589825803,
                1.6606925198309324
            ]
        },
        {
            "positions": [
                0.8945865729238887,
                -1.170739646896588,
                0.010535973685639632,
                -1.1234164121460655,
                -0.505857862100574,
                1.736859566495045
            ]
        },
        {
            "positions": [
                0.7884091636787653,
                -1.1664102380571033,
                0.12407447647403891,
                -1.09840849808094,
                -0.4432055652185676,
                1.8130266131591581
            ]
        },
        {
            "positions": [
                0.6822317544336425,
                -1.1620808292176186,
                0.23761297926243796,
                -1.073400584015815,
                -0.38055326833656156,
                1.8891936598232708
            ]
        },
        {
            "positions": [
                0.5760543451885196,
                -1.1577514203781338,
                0.351151482050837,
                -1.0483926699506898,
                -0.3179009714545551,
                1.9653607064873837
            ]
        },
        {
            "positions": [
                0.46987693594339675,
                -1.1534220115386493,
                0.46468998483923607,
                -1.0233847558855644,
                -0.25524867457254885,
                2.041527753151496
            ]
        },
        {
            "positions": [
                0.3636995266982739,
                -1.1490926026991646,
                0.5782284876276351,
                -0.9983768418204394,
                -0.19259637769054283,
                2.117694799815609
            ]
        },
        {
            "positions": [
                0.25752211745315057,
                -1.1447631938596798,
                0.6917669904160346,
                -0.9733689277553141,
                -0.12994408080853637,
                2.193861846479722
            ]
        },
        {
            "positions": [
                0.1513447082080277,
                -1.1404337850201953,
                0.8053054932044332,
                -0.9483610136901889,
                -0.06729178392653012,
                2.270028893143835
            ]
        },
        {
            "positions": [
                0.045167298962904834,
                -1.1361043761807106,
                0.9188439959928323,
                -0.9233530996250637,
                -0.004639487044524104,
                2.3461959398079473
            ]
        },
        {
            "positions": [
                -0.06101011028221803,
                -1.1317749673412258,
                1.0323824987812318,
                -0.8983451855599385,
                0.05801280983748236,
                2.42236298647206
            ]
        },
        {
            "positions": [
                -0.1671875195273409,
                -1.127445558501741,
                1.1459210015696308,
                -0.8733372714948132,
                0.1206651067194886,
                2.498530033136173
            ]
        },
        {
            "positions": [
                -0.2733649287724642,
                -1.1231161496622566,
                1.25945950435803,
                -0.848329357429688,
                0.18331740360149484,
                2.574697079800286
            ]
        },
        {
            "positions": [
                -0.3795423380175872,
                -1.1187867408227719,
                1.372998007146429,
                -0.8233214433645628,
                0.24596970048350097,
                2.650864126464399
            ]
        },
        {
            "positions": [
                -0.2793604721039341,
                -1.122178737183014,
                1.491280805068069,
                -0.8089871638040288,
                0.221572174722119,
                2.734635530079987
            ]
        },
        {
            "positions": [
                -0.17917860619028106,
                -1.1255707335432563,
                1.609563602989709,
                -0.7946528842434948,
                0.197174648960737,
                2.8184069336955755
            ]
        },
        {
            "positions": [
                -0.07899674027662801,
                -1.1289627299034988,
                1.727846400911349,
                -0.7803186046829607,
                0.17277712319935504,
                2.9021783373111636
            ]
        },
        {
            "positions": [
                0.02118512563702507,
                -1.132354726263741,
                1.846129198832989,
                -0.7659843251224266,
                0.14837959743797305,
                2.985949740926752
            ]
        },
        {
            "positions": [
                0.12136699155067808,
                -1.1357467226239832,
                1.964411996754629,
                -0.7516500455618926,
                0.12398207167659107,
                3.0697211445423402
            ]
        }
    ]
}{
    "goal": {
        "global_pose": {
            "orientation": {
                "w": 0.7047431468963623,
                "x": -0.7094548344612122,
                "y": 0.0024358443915843964,
                "z": -0.0022348060738295317
            },
            "position": {
                "x": 0.6094750761985779,
                "y": 0.3671506643295288,
                "z": 0.19426114857196808
            }
        },
        "name": "move_to_magneteinheit_A"
    },
    "id": "LazyPRMstar_move_to_magneteinheit_A_79",
    "joint_names": [
        "shoulder_pan_joint",
        "shoulder_lift_joint",
        "elbow_joint",
        "wrist_1_joint",
        "wrist_2_joint",
        "wrist_3_joint"
    ],
    "metrics": {
        "cart_traj_len": 1.1526249605733028,
        "distance_elbow_joint": 0.16886600720913147,
        "distance_shoulder_lift_joint": 0.7501741613382804,
        "distance_shoulder_pan_joint": 1.2415620780766017,
        "distance_wrist_1_joint": 0.7317213120966111,
        "distance_wrist_2_joint": 1.6420599666874276,
        "distance_wrist_3_joint": 4.231027069623937,
        "smoothness": 0.09171831261276493,
        "time": 5.018478941,
        "traj_len": 2.960643611620958,
        "weighted_distance": 4.427329444830586
    },
    "planner": "LazyPRMstar",
    "start": {
        "state": {
            "elbow_joint": 1.919643534880228,
            "shoulder_lift_joint": -1.8972525353963687,
            "shoulder_pan_joint": -1.1188672234189438,
            "wrist_1_joint": -1.5931878212786155,
            "wrist_2_joint": 1.5706036197970081,
            "wrist_3_joint": 1.118896926603594
        }
    },
    "waypoints": [
        {
            "positions": [
                -1.1188672234189438,
                -1.8972525353963687,
                1.919643534880228,
                -1.5931878212786155,
                1.5706036197970081,
                1.118896926603594
            ]
        },
        {
            "positions": [
                -1.0597737246666183,
                -1.8770748907323636,
                1.92621995303365,
                -1.5596541611455141,
                1.484805517000209,
                0.9452775284312276
            ]
        },
        {
            "positions": [
                -1.000680225914293,
                -1.8568972460683584,
                1.932796371187072,
                -1.5261205010124126,
                1.3990074142034101,
                0.7716581302588612
            ]
        },
        {
            "positions": [
                -0.9415867271619676,
                -1.836719601404353,
                1.939372789340494,
                -1.4925868408793113,
                1.313209311406611,
                0.5980387320864949
            ]
        },
        {
            "positions": [
                -0.8824932284096421,
                -1.8165419567403478,
                1.9459492074939158,
                -1.45905318074621,
                1.2274112086098121,
                0.42441933391412856
            ]
        },
        {
            "positions": [
                -0.8233997296573166,
                -1.7963643120763426,
                1.9525256256473376,
                -1.4255195206131086,
                1.141613105813013,
                0.2507999357417622
            ]
        },
        {
            "positions": [
                -0.7643062309049912,
                -1.7761866674123374,
                1.9591020438007596,
                -1.391985860480007,
                1.055815003016214,
                0.07718053756939591
            ]
        },
        {
            "positions": [
                -0.7052127321526657,
                -1.756009022748332,
                1.9656784619541816,
                -1.3584522003469057,
                0.9700169002194149,
                -0.09643886060297047
            ]
        },
        {
            "positions": [
                -0.6461192334003403,
                -1.7358313780843269,
                1.9722548801076034,
                -1.3249185402138044,
                0.884218797422616,
                -0.27005825877533685
            ]
        },
        {
            "positions": [
                -0.5870257346480148,
                -1.7156537334203217,
                1.9788312982610252,
                -1.2913848800807028,
                0.7984206946258169,
                -0.4436776569477032
            ]
        },
        {
            "positions": [
                -0.5279322358956893,
                -1.6954760887563165,
                1.9854077164144472,
                -1.2578512199476015,
                0.7126225918290178,
                -0.6172970551200696
            ]
        },
        {
            "positions": [
                -0.46883873714336377,
                -1.675298444092311,
                1.9919841345678693,
                -1.2243175598145002,
                0.6268244890322188,
                -0.790916453292436
            ]
        },
        {
            "positions": [
                -0.4097452383910385,
                -1.655120799428306,
                1.998560552721291,
                -1.1907838996813989,
                0.5410263862354199,
                -0.9645358514648021
            ]
        },
        {
            "positions": [
                -0.350651739638713,
                -1.6349431547643007,
                2.005136970874713,
                -1.1572502395482975,
                0.45522828343862076,
                -1.1381552496371687
            ]
        },
        {
            "positions": [
                -0.2915582408863875,
                -1.6147655101002956,
                2.011713389028135,
                -1.123716579415196,
                0.36943018064182165,
                -1.311774647809535
            ]
        },
        {
            "positions": [
                -0.23246474213406199,
                -1.5945878654362904,
                2.018289807181557,
                -1.0901829192820944,
                0.28363207784502276,
                -1.4853940459819015
            ]
        },
        {
            "positions": [
                -0.1733712433817367,
                -1.5744102207722852,
                2.0248662253349785,
                -1.056649259148993,
                0.19783397504822386,
                -1.6590134441542677
            ]
        },
        {
            "positions": [
                -0.1142777446294112,
                -1.5542325761082798,
                2.0314426434884005,
                -1.0231155990158918,
                0.11203587225142475,
                -1.8326328423266338
            ]
        },
        {
            "positions": [
                -0.05518424587708568,
                -1.5340549314442746,
                2.0380190616418226,
                -0.9895819388827904,
                0.02623776945462558,
                -2.006252240499
            ]
        },
        {
            "positions": [
                -0.01960842577013707,
                -1.4566596199670374,
                2.0279209655523154,
                -0.9639588529426333,
                0.045776592723634615,
                -2.2274278210032685
            ]
        },
        {
            "positions": [
                0.01596739433681154,
                -1.3792643084898,
                2.0178228694628078,
                -0.938335767002476,
                0.06531541599264365,
                -2.4486034015075373
            ]
        },
        {
            "positions": [
                0.05154321444376014,
                -1.301868997012563,
                2.0077247733733,
                -0.9127126810623188,
                0.08485423926165267,
                -2.6697789820118056
            ]
        },
        {
            "positions": [
                0.08711903455070877,
                -1.2244736855353255,
                1.997626677283793,
                -0.8870895951221616,
                0.1043930625306617,
                -2.8909545625160744
            ]
        },
        {
            "positions": [
                0.12269485465765737,
                -1.1470783740580883,
                1.9875285811942855,
                -0.8614665091820044,
                0.12393188579967072,
                -3.1121301430203427
            ]
        }
    ]
}