{
    "goal": {
        "global_pose": {
            "orientation": {
                "w": 0.5084816217422485,
                "x": -0.49083608388900757,
                "y": 0.5182115435600281,
                "z": -0.4816462993621826
            },
            "position": {
                "x": 0.5540239810943604,
                "y": 0.030875300988554955,
                "z": 0.16403168439865112
            }
        },
        "name": "move_to_storage_A"
    },
    "id": "LazyPRM_move_to_storage_A_46",
    "joint_names": [
        "shoulder_pan_joint",
        "shoulder_lift_joint",
        "elbow_joint",
        "wrist_1_joint",
        "wrist_2_joint",
        "wrist_3_joint"
    ],
    "metrics": {
        "cart_traj_len": 0.3526896213995925,
        "distance_elbow_joint": 0.44918931423593467,
        "distance_shoulder_lift_joint": 0.23264133221828343,
        "distance_shoulder_pan_joint": 0.46029223068646663,
        "distance_wrist_1_joint": 0.2415556645800364,
        "distance_wrist_2_joint": 1.1010904283975544,
        "distance_wrist_3_joint": 0.09504074036701482,
        "smoothness": 6.661338165333112e-16,
        "time": 0.022166561,
        "traj_len": 1.6061786047900433,
        "weighted_distance": 2.027939171720126
    },
    "planner": "LazyPRM",
    "start": {
        "state": {
            "elbow_joint": 1.9715477243005601,
            "shoulder_lift_joint": -1.1394853015351272,
            "shoulder_pan_joint": 0.12281154014795169,
            "wrist_1_joint": -0.7804696478968182,
            "wrist_2_joint": 0.12958648046900423,
            "wrist_3_joint": -3.192491284697111
        }
    },
    "waypoints": [
        {
            "positions": [
                0.12281154014795169,
                -1.1394853015351272,
                1.9715477243005601,
                -0.7804696478968182,
                0.12958648046900423,
                -3.192491284697111
            ]
        },
        {
            "positions": [
                0.057055507192742175,
                -1.1727197775663105,
                2.035717626334265,
                -0.8149775999796806,
                0.2868851130972263,
                -3.1789140360732517
            ]
        },
        {
            "positions": [
                -0.00870052576246734,
                -1.2059542535974939,
                2.09988752836797,
                -0.8494855520625428,
                0.44418374572544833,
                -3.1653367874493927
            ]
        },
        {
            "positions": [
                -0.07445655871767685,
                -1.2391887296286772,
                2.164057430401675,
                -0.8839935041454052,
                0.6014823783536705,
                -3.1517595388255333
            ]
        },
        {
            "positions": [
                -0.14021259167288636,
                -1.2724232056598606,
                2.22822733243538,
                -0.9185014562282675,
                0.7587810109818924,
                -3.1381822902016743
            ]
        },
        {
            "positions": [
                -0.2059686246280959,
                -1.305657681691044,
                2.292397234469085,
                -0.9530094083111299,
                0.9160796436101145,
                -3.124605041577815
            ]
        },
        {
            "positions": [
                -0.2717246575833054,
                -1.3388921577222272,
                2.3565671365027896,
                -0.9875173603939922,
                1.0733782762383366,
                -3.111027792953956
            ]
        },
        {
            "positions": [
                -0.3374806905385149,
                -1.3721266337534106,
                2.420737038536495,
                -1.0220253124768546,
                1.2306769088665588,
                -3.0974505443300964
            ]
        }
    ]
}