{
    "goal": {
        "global_pose": {
            "orientation": {
                "w": 0.7047431468963623,
                "x": -0.7094548344612122,
                "y": 0.0024358443915843964,
                "z": -0.0022348060738295317
            },
            "position": {
                "x": 0.6094750761985779,
                "y": 0.3671506643295288,
                "z": 0.19426114857196808
            }
        },
        "name": "move_to_magneteinheit_A"
    },
    "id": "LazyPRM_move_to_magneteinheit_A_70",
    "joint_names": [
        "shoulder_pan_joint",
        "shoulder_lift_joint",
        "elbow_joint",
        "wrist_1_joint",
        "wrist_2_joint",
        "wrist_3_joint"
    ],
    "metrics": {
        "cart_traj_len": 3.6556814400713415,
        "distance_elbow_joint": 3.8912856408510033,
        "distance_shoulder_lift_joint": 0.24764609229183931,
        "distance_shoulder_pan_joint": 3.1132290212958194,
        "distance_wrist_1_joint": 0.7793325178766445,
        "distance_wrist_2_joint": 2.3059605292834053,
        "distance_wrist_3_joint": 3.6401377876783028,
        "smoothness": 0.3243125430526144,
        "time": 0.185295279,
        "traj_len": 3.738661737744807,
        "weighted_distance": 4.933878820136716
    },
    "planner": "LazyPRM",
    "start": {
        "state": {
            "elbow_joint": -1.919618573717145,
            "shoulder_lift_joint": -1.2443395971678275,
            "shoulder_pan_joint": 2.6996025300909787,
            "wrist_1_joint": -1.548550951253194,
            "wrist_2_joint": -1.5709469090946802,
            "wrist_3_joint": 0.4420197732051276
        }
    },
    "waypoints": [
        {
            "positions": [
                2.6996025300909787,
                -1.2443395971678275,
                -1.919618573717145,
                -1.548550951253194,
                -1.5709469090946802,
                0.4420197732051276
            ]
        },
        {
            "positions": [
                2.610703681456348,
                -1.2465658990142694,
                -1.8115347913032893,
                -1.5314305268226092,
                -1.5082193020967591,
                0.3292814428502432
            ]
        },
        {
            "positions": [
                2.5218048328217164,
                -1.2487922008607115,
                -1.703451008889434,
                -1.5143101023920245,
                -1.4454916950988381,
                0.21654311249535876
            ]
        },
        {
            "positions": [
                2.4329059841870855,
                -1.2510185027071534,
                -1.5953672264755783,
                -1.4971896779614395,
                -1.3827640881009173,
                0.10380478214047434
            ]
        },
        {
            "positions": [
                2.344007135552454,
                -1.2532448045535953,
                -1.4872834440617226,
                -1.4800692535308546,
                -1.3200364811029963,
                -0.008933548214410059
            ]
        },
        {
            "positions": [
                2.255108286917823,
                -1.2554711064000375,
                -1.379199661647867,
                -1.4629488291002697,
                -1.2573088741050753,
                -0.12167187856929446
            ]
        },
        {
            "positions": [
                2.1662094382831922,
                -1.2576974082464794,
                -1.2711158792340116,
                -1.445828404669685,
                -1.1945812671071545,
                -0.2344102089241789
            ]
        },
        {
            "positions": [
                2.077310589648561,
                -1.2599237100929213,
                -1.163032096820156,
                -1.4287079802391,
                -1.1318536601092335,
                -0.34714853927906325
            ]
        },
        {
            "positions": [
                1.98841174101393,
                -1.2621500119393634,
                -1.0549483144063005,
                -1.4115875558085151,
                -1.0691260531113125,
                -0.4598868696339477
            ]
        },
        {
            "positions": [
                1.8995128923792985,
                -1.2643763137858053,
                -0.9468645319924449,
                -1.3944671313779304,
                -1.0063984461133915,
                -0.5726251999888321
            ]
        },
        {
            "positions": [
                1.8106140437446676,
                -1.2666026156322472,
                -0.8387807495785893,
                -1.3773467069473455,
                -0.9436708391154706,
                -0.6853635303437164
            ]
        },
        {
            "positions": [
                1.7217151951100365,
                -1.2688289174786893,
                -0.7306969671647336,
                -1.3602262825167606,
                -0.8809432321175497,
                -0.7981018606986008
            ]
        },
        {
            "positions": [
                1.6328163464754053,
                -1.2710552193251312,
                -0.6226131847508782,
                -1.3431058580861757,
                -0.8182156251196286,
                -0.9108401910534853
            ]
        },
        {
            "positions": [
                1.5439174978407741,
                -1.2732815211715731,
                -0.5145294023370226,
                -1.325985433655591,
                -0.7554880181217076,
                -1.0235785214083697
            ]
        },
        {
            "positions": [
                1.4550186492061432,
                -1.2755078230180152,
                -0.40644561992316697,
                -1.308865009225006,
                -0.6927604111237867,
                -1.136316851763254
            ]
        },
        {
            "positions": [
                1.366119800571512,
                -1.2777341248644571,
                -0.29836183750931156,
                -1.2917445847944211,
                -0.6300328041258658,
                -1.2490551821181386
            ]
        },
        {
            "positions": [
                1.277220951936881,
                -1.279960426710899,
                -0.19027805509545592,
                -1.2746241603638362,
                -0.5673051971279448,
                -1.361793512473023
            ]
        },
        {
            "positions": [
                1.1883221033022497,
                -1.2821867285573412,
                -0.08219427268160029,
                -1.2575037359332515,
                -0.5045775901300238,
                -1.4745318428279073
            ]
        },
        {
            "positions": [
                1.0994232546676186,
                -1.284413030403783,
                0.025889509732255123,
                -1.2403833115026666,
                -0.4418499831321028,
                -1.5872701731827918
            ]
        },
        {
            "positions": [
                1.0105244060329877,
                -1.2866393322502252,
                0.13397329214611076,
                -1.2232628870720816,
                -0.379122376134182,
                -1.700008503537676
            ]
        },
        {
            "positions": [
                0.9216255573983565,
                -1.288865634096667,
                0.2420570745599664,
                -1.206142462641497,
                -0.31639476913626097,
                -1.8127468338925605
            ]
        },
        {
            "positions": [
                0.8327267087637253,
                -1.291091935943109,
                0.350140856973822,
                -1.189022038210912,
                -0.25366716213833995,
                -1.925485164247445
            ]
        },
        {
            "positions": [
                0.7438278601290942,
                -1.2933182377895511,
                0.45822463938767766,
                -1.171901613780327,
                -0.19093955514041916,
                -2.038223494602329
            ]
        },
        {
            "positions": [
                0.6549290114944633,
                -1.295544539635993,
                0.5663084218015328,
                -1.1547811893497424,
                -0.12821194814249814,
                -2.1509618249572138
            ]
        },
        {
            "positions": [
                0.5660301628598319,
                -1.297770841482435,
                0.6743922042153885,
                -1.1376607649191575,
                -0.06548434114457713,
                -2.2637001553120983
            ]
        },
        {
            "positions": [
                0.47713131422520094,
                -1.299997143328877,
                0.7824759866292441,
                -1.1205403404885725,
                -0.0027567341466561146,
                -2.3764384856669825
            ]
        },
        {
            "positions": [
                0.38823246559056956,
                -1.302223445175319,
                0.8905597690430997,
                -1.1034199160579876,
                0.0599708728512649,
                -2.489176816021867
            ]
        },
        {
            "positions": [
                0.29933361695593863,
                -1.3044497470217609,
                0.9986435514569554,
                -1.0862994916274027,
                0.1226984798491857,
                -2.6019151463767516
            ]
        },
        {
            "positions": [
                0.2104347683213077,
                -1.306676048868203,
                1.106727333870811,
                -1.069179067196818,
                0.1854260868471067,
                -2.7146534767316357
            ]
        },
        {
            "positions": [
                0.12153591968667632,
                -1.308902350714645,
                1.2148111162846662,
                -1.052058642766233,
                0.24815369384502772,
                -2.8273918070865203
            ]
        },
        {
            "positions": [
                0.032637071052045385,
                -1.3111286525610868,
                1.3228948986985218,
                -1.0349382183356481,
                0.3108813008429485,
                -2.940130137441405
            ]
        },
        {
            "positions": [
                -0.05626177758258599,
                -1.313354954407529,
                1.4309786811123775,
                -1.0178177939050634,
                0.37360890784086953,
                -3.052868467796289
            ]
        },
        {
            "positions": [
                -0.1451606262172171,
                -1.3155812562539708,
                1.539062463526233,
                -1.0006973694744785,
                0.43633651483879055,
                -3.1656067981511735
            ]
        },
        {
            "positions": [
                -0.07804415997031117,
                -1.2714801479525468,
                1.6472136144281393,
                -0.9428276354499963,
                0.3616672385013067,
                -3.173734602231674
            ]
        },
        {
            "positions": [
                -0.01092769372340524,
                -1.2273790396511228,
                1.7553647653300455,
                -0.884957901425514,
                0.2869979621638229,
                -3.1818624063121743
            ]
        },
        {
            "positions": [
                0.056188772523500685,
                -1.1832779313496988,
                1.8635159162319517,
                -0.8270881674010319,
                0.21232868582633907,
                -3.1899902103926747
            ]
        },
        {
            "positions": [
                0.12330523877040662,
                -1.1391768230482748,
                1.9716670671338579,
                -0.7692184333765496,
                0.13765940948885524,
                -3.198118014473175
            ]
        }
    ]
}{
    "goal": {
        "global_pose": {
            "orientation": {
                "w": 0.7047431468963623,
                "x": -0.7094548344612122,
                "y": 0.0024358443915843964,
                "z": -0.0022348060738295317
            },
            "position": {
                "x": 0.6094750761985779,
                "y": 0.3671506643295288,
                "z": 0.19426114857196808
            }
        },
        "name": "move_to_magneteinheit_A"
    },
    "id": "LazyPRM_move_to_magneteinheit_A_70",
    "joint_names": [
        "shoulder_pan_joint",
        "shoulder_lift_joint",
        "elbow_joint",
        "wrist_1_joint",
        "wrist_2_joint",
        "wrist_3_joint"
    ],
    "metrics": {
        "cart_traj_len": 1.1741906796343873,
        "distance_elbow_joint": 0.5629494076823724,
        "distance_shoulder_lift_joint": 0.7504838353115961,
        "distance_shoulder_pan_joint": 1.2412420589106035,
        "distance_wrist_1_joint": 0.7694761306217568,
        "distance_wrist_2_joint": 1.43433009079214,
        "distance_wrist_3_joint": 4.264454087657882,
        "smoothness": 0.05587077149700832,
        "time": 0.114424822,
        "traj_len": 3.0038201695468305,
        "weighted_distance": 4.444732838732381
    },
    "planner": "LazyPRM",
    "start": {
        "state": {
            "elbow_joint": 1.919643534880228,
            "shoulder_lift_joint": -1.8972525353963687,
            "shoulder_pan_joint": -1.1188672234189438,
            "wrist_1_joint": -1.5931878212786155,
            "wrist_2_joint": 1.5706036197970081,
            "wrist_3_joint": 1.118896926603594
        }
    },
    "waypoints": [
        {
            "positions": [
                -1.1188672234189438,
                -1.8972525353963687,
                1.919643534880228,
                -1.5931878212786155,
                1.5706036197970081,
                1.118896926603594
            ]
        },
        {
            "positions": [
                -1.0568099159858588,
                -1.8667304990095577,
                1.9353076999073313,
                -1.5858535726405885,
                1.514244781638837,
                0.9084452839900882
            ]
        },
        {
            "positions": [
                -0.9947526085527738,
                -1.8362084626227464,
                1.9509718649344345,
                -1.5785193240025617,
                1.4578859434806657,
                0.6979936413765824
            ]
        },
        {
            "positions": [
                -0.9326953011196889,
                -1.8056864262359353,
                1.9666360299615377,
                -1.5711850753645347,
                1.4015271053224945,
                0.4875419987630766
            ]
        },
        {
            "positions": [
                -0.8706379936866039,
                -1.775164389849124,
                1.9823001949886407,
                -1.5638508267265077,
                1.3451682671643233,
                0.27709035614957067
            ]
        },
        {
            "positions": [
                -0.808580686253519,
                -1.744642353462313,
                1.997964360015744,
                -1.5565165780884809,
                1.288809429006152,
                0.06663871353606488
            ]
        },
        {
            "positions": [
                -0.746523378820434,
                -1.7141203170755017,
                2.013628525042847,
                -1.5491823294504539,
                1.2324505908479808,
                -0.1438129290774408
            ]
        },
        {
            "positions": [
                -0.6844660713873489,
                -1.6835982806886907,
                2.0292926900699504,
                -1.5418480808124269,
                1.1760917526898096,
                -0.3542645716909467
            ]
        },
        {
            "positions": [
                -0.6224087639542639,
                -1.6530762443018794,
                2.0449568550970536,
                -1.5345138321743998,
                1.1197329145316381,
                -0.5647162143044526
            ]
        },
        {
            "positions": [
                -0.560351456521179,
                -1.6225542079150683,
                2.060621020124157,
                -1.527179583536373,
                1.063374076373467,
                -0.7751678569179585
            ]
        },
        {
            "positions": [
                -0.498294149088094,
                -1.592032171528257,
                2.07628518515126,
                -1.519845334898346,
                1.0070152382152957,
                -0.9856194995314642
            ]
        },
        {
            "positions": [
                -0.436236841655009,
                -1.561510135141446,
                2.0919493501783633,
                -1.512511086260319,
                0.9506564000571244,
                -1.1960711421449701
            ]
        },
        {
            "positions": [
                -0.37417953422192407,
                -1.530988098754635,
                2.1076135152054665,
                -1.5051768376222923,
                0.8942975618989533,
                -1.4065227847584756
            ]
        },
        {
            "positions": [
                -0.31212222678883905,
                -1.5004660623678236,
                2.1232776802325697,
                -1.4978425889842653,
                0.8379387237407819,
                -1.616974427371982
            ]
        },
        {
            "positions": [
                -0.25006491935575414,
                -1.4699440259810126,
                2.1389418452596725,
                -1.4905083403462382,
                0.7815798855826108,
                -1.8274260699854874
            ]
        },
        {
            "positions": [
                -0.18800761192266902,
                -1.4394219895942013,
                2.1546060102867757,
                -1.4831740917082112,
                0.7252210474244395,
                -2.037877712598993
            ]
        },
        {
            "positions": [
                -0.125950304489584,
                -1.4088999532073903,
                2.170270175313879,
                -1.4758398430701845,
                0.6688622092662682,
                -2.2483293552124994
            ]
        },
        {
            "positions": [
                -0.0638929970564992,
                -1.378377916820579,
                2.185934340340982,
                -1.4685055944321574,
                0.612503371108097,
                -2.458780997826005
            ]
        },
        {
            "positions": [
                -0.0018356896234141828,
                -1.347855880433768,
                2.2015985053680853,
                -1.4611713457941304,
                0.5561445329499257,
                -2.6692326404395113
            ]
        },
        {
            "positions": [
                0.060221617809670835,
                -1.3173338440469569,
                2.2172626703951885,
                -1.4538370971561037,
                0.4997856947917545,
                -2.8796842830530167
            ]
        },
        {
            "positions": [
                0.12227892524275594,
                -1.2868118076601456,
                2.2329268354222918,
                -1.4465028485180766,
                0.4434268566335834,
                -3.0901359256665226
            ]
        },
        {
            "positions": [
                0.12225494768053002,
                -1.2518010307663023,
                2.1705103086372146,
                -1.2908050590527722,
                0.36663852472640457,
                -3.103991234513464
            ]
        },
        {
            "positions": [
                0.12223097011830411,
                -1.216790253872459,
                2.1080937818521375,
                -1.1351072695874675,
                0.28985019281922575,
                -3.117846543360405
            ]
        },
        {
            "positions": [
                0.12220699255607821,
                -1.1817794769786159,
                2.0456772550670603,
                -0.9794094801221631,
                0.21306186091204693,
                -3.131701852207346
            ]
        },
        {
            "positions": [
                0.1221830149938523,
                -1.1467687000847726,
                1.983260728281983,
                -0.8237116906568587,
                0.13627352900486808,
                -3.1455571610542874
            ]
        }
    ]
}