{
    "goal": {
        "global_pose": {
            "orientation": {
                "w": 0.5084816217422485,
                "x": -0.49083608388900757,
                "y": 0.5182115435600281,
                "z": -0.4816462993621826
            },
            "position": {
                "x": 0.5540239810943604,
                "y": 0.030875300988554955,
                "z": 0.16403168439865112
            }
        },
        "name": "move_to_storage_A"
    },
    "id": "LazyPRM_move_to_storage_A_123",
    "joint_names": [
        "shoulder_pan_joint",
        "shoulder_lift_joint",
        "elbow_joint",
        "wrist_1_joint",
        "wrist_2_joint",
        "wrist_3_joint"
    ],
    "metrics": {
        "cart_traj_len": 0.3530845673538756,
        "distance_elbow_joint": 0.4501017575026225,
        "distance_shoulder_lift_joint": 0.23314142749841915,
        "distance_shoulder_pan_joint": 0.45851322343578305,
        "distance_wrist_1_joint": 0.2526297175089943,
        "distance_wrist_2_joint": 1.1112881857890509,
        "distance_wrist_3_joint": 0.09549196955200179,
        "smoothness": 7.771561204992932e-16,
        "time": 0.022282356,
        "traj_len": 1.612813157587348,
        "weighted_distance": 2.0386436970910147
    },
    "planner": "LazyPRM",
    "start": {
        "state": {
            "elbow_joint": 1.9715477243005601,
            "shoulder_lift_joint": -1.1394853015351272,
            "shoulder_pan_joint": 0.12281154014795169,
            "wrist_1_joint": -0.7804696478968182,
            "wrist_2_joint": 0.12958648046900423,
            "wrist_3_joint": -3.192491284697111
        }
    },
    "waypoints": [
        {
            "positions": [
                0.12281154014795169,
                -1.1394853015351272,
                1.9715477243005601,
                -0.7804696478968182,
                0.12958648046900423,
                -3.192491284697111
            ]
        },
        {
            "positions": [
                0.057309651085696967,
                -1.172791219749187,
                2.0358479753723633,
                -0.8165596075409602,
                0.2883419355817258,
                -3.1788495747611107
            ]
        },
        {
            "positions": [
                -0.008192237976557756,
                -1.206097137963247,
                2.1001482264441664,
                -0.8526495671851022,
                0.4470973906944473,
                -3.1652078648251107
            ]
        },
        {
            "positions": [
                -0.07369412703881247,
                -1.2394030561773068,
                2.1644484775159696,
                -0.8887395268292443,
                0.6058528458071688,
                -3.1515661548891103
            ]
        },
        {
            "positions": [
                -0.1391960161010672,
                -1.2727089743913667,
                2.2287487285877727,
                -0.9248294864733864,
                0.7646083009198904,
                -3.1379244449531103
            ]
        },
        {
            "positions": [
                -0.20469790516332192,
                -1.3060148926054267,
                2.2930489796595763,
                -0.9609194461175283,
                0.923363756032612,
                -3.12428273501711
            ]
        },
        {
            "positions": [
                -0.2701997942255766,
                -1.3393208108194865,
                2.3573492307313795,
                -0.9970094057616704,
                1.0821192111453335,
                -3.11064102508111
            ]
        },
        {
            "positions": [
                -0.33570168328783134,
                -1.3726267290335463,
                2.4216494818031826,
                -1.0330993654058125,
                1.2408746662580552,
                -3.0969993151451094
            ]
        }
    ]
}