{
    "goal": {
        "global_pose": {
            "orientation": {
                "w": 0.7047431468963623,
                "x": -0.7094548344612122,
                "y": 0.0024358443915843964,
                "z": -0.0022348060738295317
            },
            "position": {
                "x": 0.6094750761985779,
                "y": 0.3671506643295288,
                "z": 0.19426114857196808
            }
        },
        "name": "move_to_magneteinheit_A"
    },
    "id": "LazyPRM_move_to_magneteinheit_A_35",
    "joint_names": [
        "shoulder_pan_joint",
        "shoulder_lift_joint",
        "elbow_joint",
        "wrist_1_joint",
        "wrist_2_joint",
        "wrist_3_joint"
    ],
    "metrics": {
        "cart_traj_len": 3.07054236802106,
        "distance_elbow_joint": 3.934767484410494,
        "distance_shoulder_lift_joint": 0.45749958248321754,
        "distance_shoulder_pan_joint": 2.696328060203478,
        "distance_wrist_1_joint": 3.5394119687330745,
        "distance_wrist_2_joint": 1.6408678562334496,
        "distance_wrist_3_joint": 1.1568436887021136,
        "smoothness": 0.21761353891929797,
        "time": 0.13091698699999998,
        "traj_len": 3.6641122582101415,
        "weighted_distance": 4.573804307481527
    },
    "planner": "LazyPRM",
    "start": {
        "state": {
            "elbow_joint": -1.919618573717145,
            "shoulder_lift_joint": -1.2443395971678275,
            "shoulder_pan_joint": 2.6996025300909787,
            "wrist_1_joint": -1.548550951253194,
            "wrist_2_joint": -1.5709469090946802,
            "wrist_3_joint": 0.4420197732051276
        }
    },
    "waypoints": [
        {
            "positions": [
                2.6996025300909787,
                -1.2443395971678275,
                -1.919618573717145,
                -1.548550951253194,
                -1.5709469090946802,
                0.4420197732051276
            ]
        },
        {
            "positions": [
                2.6123842592168702,
                -1.2381174223730336,
                -1.8394333281477948,
                -1.4298501962231964,
                -1.5129104010828058,
                0.4098032887152666
            ]
        },
        {
            "positions": [
                2.5251659883427617,
                -1.2318952475782399,
                -1.7592480825784444,
                -1.3111494411931985,
                -1.4548738930709317,
                0.3775868042254056
            ]
        },
        {
            "positions": [
                2.4379477174686532,
                -1.225673072783446,
                -1.6790628370090943,
                -1.1924486861632007,
                -1.3968373850590574,
                0.3453703197355446
            ]
        },
        {
            "positions": [
                2.3507294465945447,
                -1.2194508979886522,
                -1.5988775914397442,
                -1.073747931133203,
                -1.3388008770471833,
                0.31315383524568363
            ]
        },
        {
            "positions": [
                2.2635111757204363,
                -1.2132287231938583,
                -1.5186923458703938,
                -0.9550471761032052,
                -1.280764369035309,
                0.2809373507558226
            ]
        },
        {
            "positions": [
                2.1762929048463278,
                -1.2070065483990644,
                -1.4385071003010435,
                -0.8363464210732074,
                -1.2227278610234347,
                0.2487208662659616
            ]
        },
        {
            "positions": [
                2.0890746339722193,
                -1.2007843736042707,
                -1.3583218547316935,
                -0.7176456660432098,
                -1.1646913530115606,
                0.21650438177610062
            ]
        },
        {
            "positions": [
                2.0018563630981108,
                -1.1945621988094768,
                -1.2781366091623432,
                -0.5989449110132119,
                -1.1066548449996862,
                0.18428789728623962
            ]
        },
        {
            "positions": [
                1.9146380922240023,
                -1.1883400240146829,
                -1.1979513635929928,
                -0.48024415598321424,
                -1.0486183369878121,
                0.15207141279637865
            ]
        },
        {
            "positions": [
                1.8274198213498938,
                -1.1821178492198892,
                -1.1177661180236427,
                -0.36154340095321635,
                -0.9905818289759377,
                0.11985492830651762
            ]
        },
        {
            "positions": [
                1.7402015504757853,
                -1.1758956744250952,
                -1.0375808724542925,
                -0.2428426459232187,
                -0.9325453209640636,
                0.08763844381665664
            ]
        },
        {
            "positions": [
                1.6529832796016768,
                -1.1696734996303015,
                -0.9573956268849422,
                -0.12414189089322081,
                -0.8745088129521893,
                0.05542195932679561
            ]
        },
        {
            "positions": [
                1.5657650087275683,
                -1.1634513248355076,
                -0.877210381315592,
                -0.0054411358632231455,
                -0.8164723049403151,
                0.023205474836934636
            ]
        },
        {
            "positions": [
                1.4785467378534598,
                -1.1572291500407137,
                -0.7970251357462419,
                0.11325961916677452,
                -0.7584357969284409,
                -0.009011009652926338
            ]
        },
        {
            "positions": [
                1.3913284669793515,
                -1.15100697524592,
                -0.7168398901768918,
                0.23196037419677218,
                -0.7003992889165667,
                -0.04122749414278731
            ]
        },
        {
            "positions": [
                1.3041101961052428,
                -1.144784800451126,
                -0.6366546446075414,
                0.3506611292267703,
                -0.6423627809046923,
                -0.07344397863264834
            ]
        },
        {
            "positions": [
                1.2168919252311343,
                -1.1385626256563324,
                -0.556469399038191,
                0.46936188425676795,
                -0.5843262728928181,
                -0.10566046312250937
            ]
        },
        {
            "positions": [
                1.1296736543570258,
                -1.1323404508615385,
                -0.4762841534688409,
                0.5880626392867656,
                -0.5262897648809439,
                -0.1378769476123703
            ]
        },
        {
            "positions": [
                1.0424553834829173,
                -1.1261182760667445,
                -0.39609890789949076,
                0.7067633943167633,
                -0.4682532568690698,
                -0.17009343210223132
            ]
        },
        {
            "positions": [
                0.9552371126088088,
                -1.1198961012719508,
                -0.3159136623301404,
                0.8254641493467614,
                -0.4102167488571953,
                -0.20230991659209235
            ]
        },
        {
            "positions": [
                0.8680188417347003,
                -1.113673926477157,
                -0.23572841676079026,
                0.944164904376759,
                -0.3521802408453212,
                -0.23452640108195338
            ]
        },
        {
            "positions": [
                0.7808005708605918,
                -1.1074517516823632,
                -0.15554317119144012,
                1.0628656594067567,
                -0.2941437328334471,
                -0.2667428855718143
            ]
        },
        {
            "positions": [
                0.6935822999864834,
                -1.1012295768875693,
                -0.07535792562208976,
                1.1815664144367544,
                -0.23610722482157276,
                -0.29895937006167533
            ]
        },
        {
            "positions": [
                0.6063640291123749,
                -1.0950074020927754,
                0.0048273199472606,
                1.3002671694667525,
                -0.17807071680969844,
                -0.33117585455153636
            ]
        },
        {
            "positions": [
                0.5191457582382664,
                -1.0887852272979817,
                0.08501256551661052,
                1.4189679244967501,
                -0.12003420879782412,
                -0.3633923390413974
            ]
        },
        {
            "positions": [
                0.431927487364158,
                -1.0825630525031877,
                0.16519781108596082,
                1.5376686795267476,
                -0.06199770078594991,
                -0.39560882353125837
            ]
        },
        {
            "positions": [
                0.38583771666668576,
                -1.0486828247709377,
                0.334314647980374,
                1.5882709290954915,
                -0.07482742757982493,
                -0.3611047055068807
            ]
        },
        {
            "positions": [
                0.3397479459692136,
                -1.0148025970386878,
                0.5034314848747873,
                1.6388731786642357,
                -0.08765715437369995,
                -0.326600587482503
            ]
        },
        {
            "positions": [
                0.29365817527174143,
                -0.9809223693064378,
                0.6725483217692005,
                1.6894754282329796,
                -0.10048688116757495,
                -0.29209646945812523
            ]
        },
        {
            "positions": [
                0.2475684045742692,
                -0.9470421415741879,
                0.8416651586636137,
                1.7400776778017235,
                -0.11331660796144996,
                -0.25759235143374754
            ]
        },
        {
            "positions": [
                0.20147863387679701,
                -0.9131619138419379,
                1.010781995558027,
                1.7906799273704677,
                -0.12614633475532497,
                -0.22308823340936984
            ]
        },
        {
            "positions": [
                0.15538886317932482,
                -0.8792816861096879,
                1.1798988324524402,
                1.8412821769392116,
                -0.1389760615492,
                -0.18858411538499212
            ]
        },
        {
            "positions": [
                0.10929909248185266,
                -0.845401458377438,
                1.3490156693468536,
                1.8918844265079557,
                -0.151805788343075,
                -0.1540799973606144
            ]
        },
        {
            "positions": [
                0.06320932178438046,
                -0.811521230645188,
                1.5181325062412667,
                1.9424866760766997,
                -0.16463551513695002,
                -0.11957587933623672
            ]
        },
        {
            "positions": [
                0.09317674773281978,
                -0.799180622664899,
                1.7666407084673081,
                1.9666738467782903,
                -0.14999509835009062,
                -0.09798480545088367
            ]
        },
        {
            "positions": [
                0.12314417368125909,
                -0.78684001468461,
                2.0151489106933496,
                1.9908610174798806,
                -0.1353546815632312,
                -0.07639373156553061
            ]
        }
    ]
}{
    "goal": {
        "global_pose": {
            "orientation": {
                "w": 0.7047431468963623,
                "x": -0.7094548344612122,
                "y": 0.0024358443915843964,
                "z": -0.0022348060738295317
            },
            "position": {
                "x": 0.6094750761985779,
                "y": 0.3671506643295288,
                "z": 0.19426114857196808
            }
        },
        "name": "move_to_magneteinheit_A"
    },
    "id": "LazyPRM_move_to_magneteinheit_A_35",
    "joint_names": [
        "shoulder_pan_joint",
        "shoulder_lift_joint",
        "elbow_joint",
        "wrist_1_joint",
        "wrist_2_joint",
        "wrist_3_joint"
    ],
    "metrics": {
        "cart_traj_len": 1.2514334462140986,
        "distance_elbow_joint": 0.08624681639182286,
        "distance_shoulder_lift_joint": 1.1153132205815972,
        "distance_shoulder_pan_joint": 1.2416173411169642,
        "distance_wrist_1_joint": 3.5705801523748333,
        "distance_wrist_2_joint": 1.6908603207653303,
        "distance_wrist_3_joint": 1.1778794295076633,
        "smoothness": 4.44089213366497e-16,
        "time": 0.097056013,
        "traj_len": 2.9803518719671693,
        "weighted_distance": 4.061981857775057
    },
    "planner": "LazyPRM",
    "start": {
        "state": {
            "elbow_joint": 1.919643534880228,
            "shoulder_lift_joint": -1.8972525353963687,
            "shoulder_pan_joint": -1.1188672234189438,
            "wrist_1_joint": -1.5931878212786155,
            "wrist_2_joint": 1.5706036197970081,
            "wrist_3_joint": 1.118896926603594
        }
    },
    "waypoints": [
        {
            "positions": [
                -1.1188672234189438,
                -1.8972525353963687,
                1.919643534880228,
                -1.5931878212786155,
                1.5706036197970081,
                1.118896926603594
            ]
        },
        {
            "positions": [
                -1.0648838607616846,
                -1.8487606562406471,
                1.9233933964624812,
                -1.4379452059579705,
                1.4970879536767763,
                1.067684777494565
            ]
        },
        {
            "positions": [
                -1.0109004981044252,
                -1.8002687770849255,
                1.9271432580447345,
                -1.2827025906373257,
                1.4235722875565446,
                1.0164726283855363
            ]
        },
        {
            "positions": [
                -0.956917135447166,
                -1.7517768979292039,
                1.9308931196269876,
                -1.1274599753166807,
                1.350056621436313,
                0.9652604792765075
            ]
        },
        {
            "positions": [
                -0.9029337727899066,
                -1.7032850187734823,
                1.9346429812092407,
                -0.9722173599960358,
                1.2765409553160811,
                0.9140483301674787
            ]
        },
        {
            "positions": [
                -0.8489504101326473,
                -1.6547931396177606,
                1.938392842791494,
                -0.8169747446753909,
                1.2030252891958493,
                0.8628361810584497
            ]
        },
        {
            "positions": [
                -0.794967047475388,
                -1.606301260462039,
                1.9421427043737471,
                -0.6617321293547459,
                1.1295096230756176,
                0.811624031949421
            ]
        },
        {
            "positions": [
                -0.7409836848181286,
                -1.5578093813063174,
                1.9458925659560002,
                -0.506489514034101,
                1.0559939569553858,
                0.7604118828403921
            ]
        },
        {
            "positions": [
                -0.6870003221608694,
                -1.5093175021505958,
                1.9496424275382533,
                -0.35124689871345605,
                0.9824782908351541,
                0.7091997337313632
            ]
        },
        {
            "positions": [
                -0.63301695950361,
                -1.4608256229948742,
                1.9533922891205067,
                -0.19600428339281106,
                0.9089626247149223,
                0.6579875846223344
            ]
        },
        {
            "positions": [
                -0.5790335968463507,
                -1.4123337438391526,
                1.9571421507027598,
                -0.0407616680721663,
                0.8354469585946906,
                0.6067754355133056
            ]
        },
        {
            "positions": [
                -0.5250502341890914,
                -1.363841864683431,
                1.9608920122850129,
                0.11448094724847868,
                0.7619312924744588,
                0.5555632864042767
            ]
        },
        {
            "positions": [
                -0.47106687153183213,
                -1.3153499855277093,
                1.9646418738672662,
                0.26972356256912366,
                0.6884156263542272,
                0.5043511372952479
            ]
        },
        {
            "positions": [
                -0.4170835088745728,
                -1.2668581063719877,
                1.9683917354495193,
                0.4249661778897684,
                0.6148999602339954,
                0.4531389881862191
            ]
        },
        {
            "positions": [
                -0.36310014621731346,
                -1.218366227216266,
                1.9721415970317724,
                0.5802087932104134,
                0.5413842941137634,
                0.4019268390771902
            ]
        },
        {
            "positions": [
                -0.3091167835600541,
                -1.1698743480605445,
                1.9758914586140257,
                0.7354514085310584,
                0.4678686279935318,
                0.35071468996816135
            ]
        },
        {
            "positions": [
                -0.2551334209027949,
                -1.1213824689048228,
                1.9796413201962788,
                0.8906940238517034,
                0.39435296187330016,
                0.2995025408591325
            ]
        },
        {
            "positions": [
                -0.20115005824553556,
                -1.0728905897491012,
                1.983391181778532,
                1.045936639172348,
                0.3208372957530683,
                0.2482903917501037
            ]
        },
        {
            "positions": [
                -0.14716669558827622,
                -1.0243987105933796,
                1.987141043360785,
                1.2011792544929933,
                0.24732162963283644,
                0.19707824264107476
            ]
        },
        {
            "positions": [
                -0.093183332931017,
                -0.975906831437658,
                1.9908909049430383,
                1.3564218698136383,
                0.1738059635126048,
                0.14586609353204594
            ]
        },
        {
            "positions": [
                -0.039199970273757545,
                -0.9274149522819364,
                1.9946407665252914,
                1.5116644851342829,
                0.10029029739237316,
                0.09465394442301722
            ]
        },
        {
            "positions": [
                0.014783392383501681,
                -0.8789230731262148,
                1.9983906281075445,
                1.6669071004549278,
                0.026774631272141303,
                0.043441795313988285
            ]
        },
        {
            "positions": [
                0.06876675504076113,
                -0.8304311939704931,
                2.002140489689798,
                1.8221497157755728,
                -0.04674103484809056,
                -0.007770353795040652
            ]
        },
        {
            "positions": [
                0.12275011769802029,
                -0.7819393148147715,
                2.005890351272051,
                1.9773923310962178,
                -0.12025670096832212,
                -0.05898250290406946
            ]
        }
    ]
}