{
    "goal": {
        "global_pose": {
            "orientation": {
                "w": 0.7047431468963623,
                "x": -0.7094548344612122,
                "y": 0.0024358443915843964,
                "z": -0.0022348060738295317
            },
            "position": {
                "x": 0.6094750761985779,
                "y": 0.3671506643295288,
                "z": 0.19426114857196808
            }
        },
        "name": "move_to_magneteinheit_A"
    },
    "id": "LazyPRM_move_to_magneteinheit_A_85",
    "joint_names": [
        "shoulder_pan_joint",
        "shoulder_lift_joint",
        "elbow_joint",
        "wrist_1_joint",
        "wrist_2_joint",
        "wrist_3_joint"
    ],
    "metrics": {
        "cart_traj_len": 3.334615031308036,
        "distance_elbow_joint": 4.025914091403726,
        "distance_shoulder_lift_joint": 0.9103488291707216,
        "distance_shoulder_pan_joint": 2.9846397068806074,
        "distance_wrist_1_joint": 1.1935199443204887,
        "distance_wrist_2_joint": 2.379901944911545,
        "distance_wrist_3_joint": 3.6345726166324446,
        "smoothness": 0.5820142822319738,
        "time": 0.102566142,
        "traj_len": 3.8895882986917174,
        "weighted_distance": 5.096220585474736
    },
    "planner": "LazyPRM",
    "start": {
        "state": {
            "elbow_joint": -1.919618573717145,
            "shoulder_lift_joint": -1.2443395971678275,
            "shoulder_pan_joint": 2.6996025300909787,
            "wrist_1_joint": -1.548550951253194,
            "wrist_2_joint": -1.5709469090946802,
            "wrist_3_joint": 0.4420197732051276
        }
    },
    "waypoints": [
        {
            "positions": [
                2.6996025300909787,
                -1.2443395971678275,
                -1.919618573717145,
                -1.548550951253194,
                -1.5709469090946802,
                0.4420197732051276
            ]
        },
        {
            "positions": [
                2.6161437080879963,
                -1.2613317953351373,
                -1.8100440458098426,
                -1.5168867495246783,
                -1.512253115175477,
                0.35710461228689566
            ]
        },
        {
            "positions": [
                2.5326848860850144,
                -1.2783239935024469,
                -1.7004695179025402,
                -1.4852225477961623,
                -1.4535593212562739,
                0.2721894513686637
            ]
        },
        {
            "positions": [
                2.4492260640820325,
                -1.2953161916697566,
                -1.5908949899952378,
                -1.4535583460676464,
                -1.3948655273370705,
                0.18727429045043176
            ]
        },
        {
            "positions": [
                2.36576724207905,
                -1.3123083898370662,
                -1.4813204620879354,
                -1.4218941443391304,
                -1.3361717334178673,
                0.10235912953219983
            ]
        },
        {
            "positions": [
                2.2823084200760677,
                -1.329300588004376,
                -1.371745934180633,
                -1.3902299426106146,
                -1.2774779394986642,
                0.017443968613967853
            ]
        },
        {
            "positions": [
                2.1988495980730858,
                -1.3462927861716856,
                -1.2621714062733307,
                -1.3585657408820986,
                -1.218784145579461,
                -0.06747119230426407
            ]
        },
        {
            "positions": [
                2.115390776070104,
                -1.3632849843389954,
                -1.1525968783660283,
                -1.3269015391535828,
                -1.1600903516602576,
                -0.1523863532224961
            ]
        },
        {
            "positions": [
                2.0319319540671215,
                -1.3802771825063052,
                -1.043022350458726,
                -1.2952373374250667,
                -1.1013965577410545,
                -0.23730151414072792
            ]
        },
        {
            "positions": [
                1.9484731320641393,
                -1.3972693806736147,
                -0.9334478225514236,
                -1.263573135696551,
                -1.0427027638218513,
                -0.32221667505895996
            ]
        },
        {
            "positions": [
                1.8650143100611571,
                -1.4142615788409245,
                -0.8238732946441212,
                -1.2319089339680351,
                -0.9840089699026482,
                -0.4071318359771919
            ]
        },
        {
            "positions": [
                1.781555488058175,
                -1.431253777008234,
                -0.7142987667368188,
                -1.200244732239519,
                -0.925315175983445,
                -0.4920469968954237
            ]
        },
        {
            "positions": [
                1.6980966660551928,
                -1.4482459751755439,
                -0.6047242388295164,
                -1.1685805305110033,
                -0.8666213820642418,
                -0.5769621578136557
            ]
        },
        {
            "positions": [
                1.6146378440522107,
                -1.4652381733428537,
                -0.49514971092221405,
                -1.1369163287824873,
                -0.8079275881450386,
                -0.6618773187318876
            ]
        },
        {
            "positions": [
                1.5311790220492285,
                -1.4822303715101632,
                -0.38557518301491167,
                -1.1052521270539715,
                -0.7492337942258354,
                -0.7467924796501197
            ]
        },
        {
            "positions": [
                1.4477202000462464,
                -1.499222569677473,
                -0.2760006551076093,
                -1.0735879253254557,
                -0.6905400003066322,
                -0.8317076405683514
            ]
        },
        {
            "positions": [
                1.3642613780432642,
                -1.5162147678447826,
                -0.16642612720030692,
                -1.0419237235969396,
                -0.631846206387429,
                -0.9166228014865834
            ]
        },
        {
            "positions": [
                1.280802556040282,
                -1.5332069660120924,
                -0.05685159929300454,
                -1.0102595218684236,
                -0.5731524124682257,
                -1.0015379624048155
            ]
        },
        {
            "positions": [
                1.1973437340372999,
                -1.5501991641794022,
                0.05272292861429784,
                -0.9785953201399078,
                -0.5144586185490225,
                -1.0864531233230474
            ]
        },
        {
            "positions": [
                1.1138849120343177,
                -1.5671913623467117,
                0.1622974565216,
                -0.946931118411392,
                -0.4557648246298194,
                -1.1713682842412791
            ]
        },
        {
            "positions": [
                1.0304260900313356,
                -1.5841835605140215,
                0.2718719844289026,
                -0.915266916682876,
                -0.3970710307106162,
                -1.2562834451595113
            ]
        },
        {
            "positions": [
                0.9469672680283534,
                -1.601175758681331,
                0.38144651233620475,
                -0.8836027149543602,
                -0.33837723679141307,
                -1.3411986060777432
            ]
        },
        {
            "positions": [
                0.8635084460253712,
                -1.618167956848641,
                0.49102104024350735,
                -0.8519385132258442,
                -0.2796834428722099,
                -1.426113766995975
            ]
        },
        {
            "positions": [
                0.7800496240223891,
                -1.6351601550159507,
                0.6005955681508099,
                -0.8202743114973283,
                -0.22098964895300655,
                -1.511028927914207
            ]
        },
        {
            "positions": [
                0.6965908020194067,
                -1.6521523531832603,
                0.7101700960581123,
                -0.7886101097688124,
                -0.16229585503380334,
                -1.595944088832439
            ]
        },
        {
            "positions": [
                0.6258990075742772,
                -1.6298667676470526,
                0.8092198991560292,
                -0.8003385863130358,
                -0.10504110625303362,
                -1.714721118218594
            ]
        },
        {
            "positions": [
                0.5552072131291477,
                -1.607581182110845,
                0.9082697022539461,
                -0.812067062857259,
                -0.04778635747226388,
                -1.8334981476047492
            ]
        },
        {
            "positions": [
                0.48451541868401815,
                -1.5852955965746374,
                1.0073195053518629,
                -0.8237955394014824,
                0.009468391308505825,
                -1.9522751769909041
            ]
        },
        {
            "positions": [
                0.41382362423888863,
                -1.5630100110384297,
                1.1063693084497799,
                -0.8355240159457057,
                0.06672314008927557,
                -2.0710522063770593
            ]
        },
        {
            "positions": [
                0.3431318297937591,
                -1.540724425502222,
                1.2054191115476967,
                -0.8472524924899291,
                0.1239778888700453,
                -2.1898292357632143
            ]
        },
        {
            "positions": [
                0.27244003534862965,
                -1.5184388399660143,
                1.3044689146456134,
                -0.8589809690341523,
                0.181232637650815,
                -2.3086062651493693
            ]
        },
        {
            "positions": [
                0.20174824090350008,
                -1.4961532544298066,
                1.4035187177435304,
                -0.8707094455783757,
                0.23848738643158474,
                -2.4273832945355243
            ]
        },
        {
            "positions": [
                0.13105644645837056,
                -1.473867668893599,
                1.5025685208414474,
                -0.882437922122599,
                0.2957421352123545,
                -2.5461603239216792
            ]
        },
        {
            "positions": [
                0.06036465201324104,
                -1.4515820833573914,
                1.6016183239393644,
                -0.8941663986668223,
                0.3529968839931243,
                -2.6649373533078347
            ]
        },
        {
            "positions": [
                -0.01032714243188848,
                -1.4292964978211837,
                1.700668127037281,
                -0.9058948752110456,
                0.4102516327738939,
                -2.783714382693989
            ]
        },
        {
            "positions": [
                -0.08101893687701797,
                -1.407010912284976,
                1.799717930135198,
                -0.917623351755269,
                0.4675063815546636,
                -2.9024914120801446
            ]
        },
        {
            "positions": [
                -0.039257814967757064,
                -1.3390555531052506,
                1.882271461483536,
                -0.8575373074662198,
                0.40950198667580423,
                -2.987285701355706
            ]
        },
        {
            "positions": [
                0.002503306941503844,
                -1.271100193925525,
                1.9648249928318742,
                -0.7974512631771706,
                0.35149759179694484,
                -3.0720799906312672
            ]
        },
        {
            "positions": [
                0.04426442885076476,
                -1.2031448347457996,
                2.0473785241802123,
                -0.7373652188881215,
                0.29349319691808545,
                -3.1568742799068286
            ]
        },
        {
            "positions": [
                0.08363186594317934,
                -1.1763805573868855,
                2.0179200274270284,
                -0.7995190828793729,
                0.20977546210527392,
                -3.1390349981465846
            ]
        },
        {
            "positions": [
                0.12299930303559393,
                -1.1496162800279714,
                1.9884615306738442,
                -0.8616729468706243,
                0.12605772729246242,
                -3.12119571638634
            ]
        }
    ]
}{
    "goal": {
        "global_pose": {
            "orientation": {
                "w": 0.7047431468963623,
                "x": -0.7094548344612122,
                "y": 0.0024358443915843964,
                "z": -0.0022348060738295317
            },
            "position": {
                "x": 0.6094750761985779,
                "y": 0.3671506643295288,
                "z": 0.19426114857196808
            }
        },
        "name": "move_to_magneteinheit_A"
    },
    "id": "LazyPRM_move_to_magneteinheit_A_85",
    "joint_names": [
        "shoulder_pan_joint",
        "shoulder_lift_joint",
        "elbow_joint",
        "wrist_1_joint",
        "wrist_2_joint",
        "wrist_3_joint"
    ],
    "metrics": {
        "cart_traj_len": 1.197896831219692,
        "distance_elbow_joint": 0.06511460467825492,
        "distance_shoulder_lift_joint": 0.7495621223366866,
        "distance_shoulder_pan_joint": 1.241548005874977,
        "distance_wrist_1_joint": 0.7641810567500309,
        "distance_wrist_2_joint": 1.4321238174560806,
        "distance_wrist_3_joint": 2.013352881359615,
        "smoothness": 1.0449157961564637e-16,
        "time": 0.077074994,
        "traj_len": 2.5031744822236512,
        "weighted_distance": 3.5339628075831513
    },
    "planner": "LazyPRM",
    "start": {
        "state": {
            "elbow_joint": 1.919643534880228,
            "shoulder_lift_joint": -1.8972525353963687,
            "shoulder_pan_joint": -1.1188672234189438,
            "wrist_1_joint": -1.5931878212786155,
            "wrist_2_joint": 1.5706036197970081,
            "wrist_3_joint": 1.118896926603594
        }
    },
    "waypoints": [
        {
            "positions": [
                -1.1188672234189438,
                -1.8972525353963687,
                1.919643534880228,
                -1.5931878212786155,
                1.5706036197970081,
                1.118896926603594
            ]
        },
        {
            "positions": [
                -1.0412704730517577,
                -1.8504049027503258,
                1.923713197672619,
                -1.5454265052317386,
                1.481095881206003,
                1.24473148168857
            ]
        },
        {
            "positions": [
                -0.9636737226845717,
                -1.803557270104283,
                1.92778286046501,
                -1.4976651891848616,
                1.391588142614998,
                1.3705660367735457
            ]
        },
        {
            "positions": [
                -0.8860769723173856,
                -1.75670963745824,
                1.9318525232574009,
                -1.4499038731379847,
                1.302080404023993,
                1.4964005918585217
            ]
        },
        {
            "positions": [
                -0.8084802219501996,
                -1.709862004812197,
                1.9359221860497917,
                -1.4021425570911077,
                1.212572665432988,
                1.6222351469434977
            ]
        },
        {
            "positions": [
                -0.7308834715830135,
                -1.663014372166154,
                1.9399918488421828,
                -1.3543812410442309,
                1.123064926841983,
                1.7480697020284737
            ]
        },
        {
            "positions": [
                -0.6532867212158274,
                -1.6161667395201111,
                1.9440615116345736,
                -1.3066199249973538,
                1.033557188250978,
                1.8739042571134497
            ]
        },
        {
            "positions": [
                -0.5756899708486414,
                -1.5693191068740684,
                1.9481311744269647,
                -1.258858608950477,
                0.9440494496599728,
                1.9997388121984254
            ]
        },
        {
            "positions": [
                -0.4980932204814553,
                -1.5224714742280254,
                1.9522008372193556,
                -1.2110972929036001,
                0.8545417110689678,
                2.125573367283401
            ]
        },
        {
            "positions": [
                -0.42049647011426927,
                -1.4756238415819825,
                1.9562705000117464,
                -1.163335976856723,
                0.7650339724779628,
                2.2514079223683776
            ]
        },
        {
            "positions": [
                -0.3428997197470832,
                -1.4287762089359397,
                1.9603401628041375,
                -1.115574660809846,
                0.6755262338869578,
                2.377242477453353
            ]
        },
        {
            "positions": [
                -0.26530296937989717,
                -1.3819285762898967,
                1.9644098255965283,
                -1.0678133447629692,
                0.5860184952959527,
                2.503077032538329
            ]
        },
        {
            "positions": [
                -0.187706219012711,
                -1.3350809436438538,
                1.9684794883889194,
                -1.0200520287160924,
                0.4965107567049476,
                2.628911587623305
            ]
        },
        {
            "positions": [
                -0.11010946864552507,
                -1.2882333109978108,
                1.9725491511813102,
                -0.9722907126692154,
                0.40700301811394257,
                2.754746142708281
            ]
        },
        {
            "positions": [
                -0.032512718278338903,
                -1.2413856783517678,
                1.976618813973701,
                -0.9245293966223385,
                0.31749527952293755,
                2.880580697793257
            ]
        },
        {
            "positions": [
                0.04508403208884704,
                -1.194538045705725,
                1.9806884767660922,
                -0.8767680805754615,
                0.22798754093193252,
                3.0064152528782326
            ]
        },
        {
            "positions": [
                0.12268078245603314,
                -1.1476904130596821,
                1.984758139558483,
                -0.8290067645285846,
                0.13847980234092755,
                3.132249807963209
            ]
        }
    ]
}