{
    "goal": {
        "global_pose": {
            "orientation": {
                "w": 0.7047431468963623,
                "x": -0.7094548344612122,
                "y": 0.0024358443915843964,
                "z": -0.0022348060738295317
            },
            "position": {
                "x": 0.6094750761985779,
                "y": 0.3671506643295288,
                "z": 0.19426114857196808
            }
        },
        "name": "move_to_magneteinheit_A"
    },
    "id": "LazyPRMstar_move_to_magneteinheit_A_117",
    "joint_names": [
        "shoulder_pan_joint",
        "shoulder_lift_joint",
        "elbow_joint",
        "wrist_1_joint",
        "wrist_2_joint",
        "wrist_3_joint"
    ],
    "metrics": {
        "cart_traj_len": 3.393096557680696,
        "distance_elbow_joint": 3.9366198070563274,
        "distance_shoulder_lift_joint": 0.5655666898472919,
        "distance_shoulder_pan_joint": 2.9666731555137127,
        "distance_wrist_1_joint": 3.5298991004303133,
        "distance_wrist_2_joint": 1.530126129279965,
        "distance_wrist_3_joint": 0.5046745901527565,
        "smoothness": 0.08925022043215937,
        "time": 5.034891051000001,
        "traj_len": 3.6102021373159094,
        "weighted_distance": 4.370690321024375
    },
    "planner": "LazyPRMstar",
    "start": {
        "state": {
            "elbow_joint": -1.919618573717145,
            "shoulder_lift_joint": -1.2443395971678275,
            "shoulder_pan_joint": 2.6996025300909787,
            "wrist_1_joint": -1.548550951253194,
            "wrist_2_joint": -1.5709469090946802,
            "wrist_3_joint": 0.4420197732051276
        }
    },
    "waypoints": [
        {
            "positions": [
                2.6996025300909787,
                -1.2443395971678275,
                -1.919618573717145,
                -1.548550951253194,
                -1.5709469090946802,
                0.4420197732051276
            ]
        },
        {
            "positions": [
                2.590134699443453,
                -1.2268768714743168,
                -1.8243817474338486,
                -1.4463825522594433,
                -1.509424716369055,
                0.43429182437592334
            ]
        },
        {
            "positions": [
                2.4806668687959275,
                -1.2094141457808059,
                -1.7291449211505523,
                -1.3442141532656928,
                -1.44790252364343,
                0.4265638755467191
            ]
        },
        {
            "positions": [
                2.3711990381484016,
                -1.1919514200872952,
                -1.633908094867256,
                -1.242045754271942,
                -1.3863803309178049,
                0.41883592671751485
            ]
        },
        {
            "positions": [
                2.2617312075008758,
                -1.1744886943937842,
                -1.5386712685839599,
                -1.1398773552781916,
                -1.3248581381921798,
                0.4111079778883106
            ]
        },
        {
            "positions": [
                2.15226337685335,
                -1.1570259687002735,
                -1.4434344423006633,
                -1.0377089562844408,
                -1.2633359454665547,
                0.40338002905910636
            ]
        },
        {
            "positions": [
                2.0427955462058245,
                -1.1395632430067626,
                -1.3481976160173672,
                -0.9355405572906901,
                -1.2018137527409296,
                0.39565208022990217
            ]
        },
        {
            "positions": [
                1.9333277155582986,
                -1.1221005173132519,
                -1.2529607897340709,
                -0.8333721582969393,
                -1.1402915600153045,
                0.3879241314006979
            ]
        },
        {
            "positions": [
                1.823859884910773,
                -1.1046377916197412,
                -1.1577239634507746,
                -0.7312037593031888,
                -1.0787693672896794,
                0.3801961825714937
            ]
        },
        {
            "positions": [
                1.7143920542632471,
                -1.0871750659262303,
                -1.0624871371674782,
                -0.6290353603094381,
                -1.0172471745640543,
                0.37246823374228943
            ]
        },
        {
            "positions": [
                1.6049242236157215,
                -1.0697123402327195,
                -0.9672503108841818,
                -0.5268669613156873,
                -0.9557249818384292,
                0.3647402849130852
            ]
        },
        {
            "positions": [
                1.4954563929681959,
                -1.0522496145392086,
                -0.8720134846008856,
                -0.4246985623219368,
                -0.8942027891128042,
                0.35701233608388094
            ]
        },
        {
            "positions": [
                1.38598856232067,
                -1.034786888845698,
                -0.7767766583175892,
                -0.32253016332818607,
                -0.8326805963871791,
                0.3492843872546767
            ]
        },
        {
            "positions": [
                1.2765207316731444,
                -1.0173241631521872,
                -0.6815398320342929,
                -0.22036176433443555,
                -0.771158403661554,
                0.34155643842547245
            ]
        },
        {
            "positions": [
                1.1670529010256185,
                -0.9998614374586763,
                -0.5863030057509966,
                -0.11819336534068459,
                -0.7096362109359289,
                0.3338284895962682
            ]
        },
        {
            "positions": [
                1.057585070378093,
                -0.9823987117651656,
                -0.49106617946770026,
                -0.016024966346934066,
                -0.6481140182103038,
                0.32610054076706396
            ]
        },
        {
            "positions": [
                0.9481172397305673,
                -0.9649359860716548,
                -0.39582935318440415,
                0.08614343264681645,
                -0.5865918254846787,
                0.3183725919378597
            ]
        },
        {
            "positions": [
                0.8386494090830412,
                -0.9474732603781439,
                -0.3005925269011076,
                0.18831183164056742,
                -0.5250696327590536,
                0.31064464310865547
            ]
        },
        {
            "positions": [
                0.7291815784355156,
                -0.9300105346846331,
                -0.2053557006178115,
                0.29048023063431794,
                -0.4635474400334285,
                0.3029166942794512
            ]
        },
        {
            "positions": [
                0.6197137477879902,
                -0.9125478089911223,
                -0.11011887433451517,
                0.39264862962806846,
                -0.4020252473078034,
                0.295188745450247
            ]
        },
        {
            "positions": [
                0.5102459171404643,
                -0.8950850832976115,
                -0.014882048051218622,
                0.4948170286218194,
                -0.34050305458217833,
                0.28746079662104274
            ]
        },
        {
            "positions": [
                0.40077808649293845,
                -0.8776223576041007,
                0.08035477823207748,
                0.5969854276155697,
                -0.27898086185655324,
                0.27973284779183855
            ]
        },
        {
            "positions": [
                0.29131025584541304,
                -0.86015963191059,
                0.1755916045153738,
                0.6991538266093205,
                -0.21745866913092815,
                0.2720048989626343
            ]
        },
        {
            "positions": [
                0.18184242519788674,
                -0.842696906217079,
                0.27082843079867014,
                0.8013222256030712,
                -0.15593647640530306,
                0.26427695013343006
            ]
        },
        {
            "positions": [
                0.07237459455036134,
                -0.8252341805235683,
                0.36606525708196647,
                0.9034906245968217,
                -0.09441428367967797,
                0.2565490013042258
            ]
        },
        {
            "positions": [
                0.05431239729994321,
                -0.8319106052592784,
                0.5720304198680128,
                1.0020815443552058,
                -0.09317701900868812,
                0.22272942781828522
            ]
        },
        {
            "positions": [
                0.036250200049525075,
                -0.8385870299949886,
                0.7779955826540592,
                1.10067246411359,
                -0.09193975433769827,
                0.18890985433234464
            ]
        },
        {
            "positions": [
                0.018188002799106942,
                -0.8452634547306987,
                0.9839607454401057,
                1.1992633838719744,
                -0.09070248966670841,
                0.15509028084640403
            ]
        },
        {
            "positions": [
                0.00012580554868880933,
                -0.8519398794664088,
                1.1899259082261522,
                1.2978543036303585,
                -0.08946522499571856,
                0.12127070736046344
            ]
        },
        {
            "positions": [
                -0.017936391701729323,
                -0.8586163042021189,
                1.3958910710121986,
                1.3964452233887426,
                -0.08822796032472871,
                0.08745113387452286
            ]
        },
        {
            "positions": [
                -0.035998588952147456,
                -0.865292728937829,
                1.601856233798245,
                1.4950361431471269,
                -0.08699069565373885,
                0.053631560388582245
            ]
        },
        {
            "positions": [
                -0.05406078620256559,
                -0.8719691536735392,
                1.8078213965842913,
                1.5936270629055111,
                -0.085753430982749,
                0.01981198690264166
            ]
        },
        {
            "positions": [
                -0.07212298345298371,
                -0.8786455784092493,
                2.0137865593703377,
                1.6922179826638952,
                -0.08451616631175915,
                -0.014007586583298925
            ]
        },
        {
            "positions": [
                0.02535083753189099,
                -0.8321206407505735,
                2.012179222385915,
                1.8367830659205073,
                -0.10636385956028074,
                -0.03833120176546396
            ]
        },
        {
            "positions": [
                0.12282465851676569,
                -0.7855957030918975,
                2.0105718854014927,
                1.9813481491771194,
                -0.12821155280880234,
                -0.06265481694762899
            ]
        }
    ]
}{
    "goal": {
        "global_pose": {
            "orientation": {
                "w": 0.7047431468963623,
                "x": -0.7094548344612122,
                "y": 0.0024358443915843964,
                "z": -0.0022348060738295317
            },
            "position": {
                "x": 0.6094750761985779,
                "y": 0.3671506643295288,
                "z": 0.19426114857196808
            }
        },
        "name": "move_to_magneteinheit_A"
    },
    "id": "LazyPRMstar_move_to_magneteinheit_A_117",
    "joint_names": [
        "shoulder_pan_joint",
        "shoulder_lift_joint",
        "elbow_joint",
        "wrist_1_joint",
        "wrist_2_joint",
        "wrist_3_joint"
    ],
    "metrics": {
        "cart_traj_len": 1.1789822440972992,
        "distance_elbow_joint": 0.07431490087650205,
        "distance_shoulder_lift_joint": 0.7581751754141155,
        "distance_shoulder_pan_joint": 1.2424335306726897,
        "distance_wrist_1_joint": 0.8188502990151152,
        "distance_wrist_2_joint": 2.2246099228452043,
        "distance_wrist_3_joint": 4.318209574323216,
        "smoothness": 0.2942046964931713,
        "time": 5.018572100999999,
        "traj_len": 3.071903872706118,
        "weighted_distance": 4.595266344147377
    },
    "planner": "LazyPRMstar",
    "start": {
        "state": {
            "elbow_joint": 1.919643534880228,
            "shoulder_lift_joint": -1.8972525353963687,
            "shoulder_pan_joint": -1.1188672234189438,
            "wrist_1_joint": -1.5931878212786155,
            "wrist_2_joint": 1.5706036197970081,
            "wrist_3_joint": 1.118896926603594
        }
    },
    "waypoints": [
        {
            "positions": [
                -1.1188672234189438,
                -1.8972525353963687,
                1.919643534880228,
                -1.5931878212786155,
                1.5706036197970081,
                1.118896926603594
            ]
        },
        {
            "positions": [
                -1.0726585548479783,
                -1.8672889623304065,
                1.922774298065911,
                -1.562404576989414,
                1.47899802594725,
                0.9288671392759738
            ]
        },
        {
            "positions": [
                -1.0264498862770128,
                -1.8373253892644446,
                1.925905061251594,
                -1.5316213327002124,
                1.387392432097492,
                0.7388373519483534
            ]
        },
        {
            "positions": [
                -0.9802412177060473,
                -1.8073618161984824,
                1.929035824437277,
                -1.5008380884110109,
                1.295786838247734,
                0.5488075646207332
            ]
        },
        {
            "positions": [
                -0.9340325491350818,
                -1.7773982431325204,
                1.9321665876229601,
                -1.4700548441218093,
                1.2041812443979758,
                0.3587777772931129
            ]
        },
        {
            "positions": [
                -0.8878238805641163,
                -1.7474346700665582,
                1.935297350808643,
                -1.4392715998326078,
                1.1125756505482176,
                0.16874798996549267
            ]
        },
        {
            "positions": [
                -0.8416152119931508,
                -1.717471097000596,
                1.938428113994326,
                -1.4084883555434062,
                1.0209700566984596,
                -0.02128179736212754
            ]
        },
        {
            "positions": [
                -0.7954065434221853,
                -1.687507523934634,
                1.941558877180009,
                -1.3777051112542047,
                0.9293644628487016,
                -0.21131158468974776
            ]
        },
        {
            "positions": [
                -0.7491978748512198,
                -1.6575439508686718,
                1.944689640365692,
                -1.346921866965003,
                0.8377588689989435,
                -0.4013413720173682
            ]
        },
        {
            "positions": [
                -0.7029892062802543,
                -1.6275803778027096,
                1.9478204035513749,
                -1.3161386226758014,
                0.7461532751491854,
                -0.5913711593449884
            ]
        },
        {
            "positions": [
                -0.6567805377092888,
                -1.5976168047367476,
                1.9509511667370578,
                -1.2853553783865999,
                0.6545476812994273,
                -0.7814009466726086
            ]
        },
        {
            "positions": [
                -0.6105718691383233,
                -1.5676532316707854,
                1.954081929922741,
                -1.2545721340973983,
                0.5629420874496691,
                -0.9714307340002291
            ]
        },
        {
            "positions": [
                -0.5643632005673578,
                -1.5376896586048234,
                1.957212693108424,
                -1.2237888898081968,
                0.47133649359991114,
                -1.161460521327849
            ]
        },
        {
            "positions": [
                -0.5181545319963923,
                -1.5077260855388612,
                1.960343456294107,
                -1.1930056455189952,
                0.37973089975015295,
                -1.3514903086554695
            ]
        },
        {
            "positions": [
                -0.47194586342542677,
                -1.4777625124728992,
                1.9634742194797898,
                -1.1622224012297937,
                0.288125305900395,
                -1.5415200959830895
            ]
        },
        {
            "positions": [
                -0.42573719485446126,
                -1.447798939406937,
                1.9666049826654728,
                -1.1314391569405922,
                0.196519712050637,
                -1.73154988331071
            ]
        },
        {
            "positions": [
                -0.37952852628349576,
                -1.4178353663409748,
                1.9697357458511557,
                -1.1006559126513906,
                0.10491411820087881,
                -1.9215796706383304
            ]
        },
        {
            "positions": [
                -0.33331985771253025,
                -1.3878717932750129,
                1.972866509036839,
                -1.069872668362189,
                0.013308524351120843,
                -2.11160945796595
            ]
        },
        {
            "positions": [
                -0.28711118914156475,
                -1.3579082202090507,
                1.9759972722225219,
                -1.0390894240729875,
                -0.07829706949863735,
                -2.301639245293571
            ]
        },
        {
            "positions": [
                -0.24090252057059924,
                -1.3279446471430885,
                1.9791280354082048,
                -1.0083061797837858,
                -0.16990266334839532,
                -2.491669032621191
            ]
        },
        {
            "positions": [
                -0.1946938519996338,
                -1.2979810740771265,
                1.9822587985938878,
                -0.9775229354945844,
                -0.2615082571981534,
                -2.681698819948811
            ]
        },
        {
            "positions": [
                -0.13104182014895782,
                -1.2662003312581518,
                1.9799188711613194,
                -0.9368858528483676,
                -0.1830086480281448,
                -2.785221585502973
            ]
        },
        {
            "positions": [
                -0.06738978829828185,
                -1.234419588439177,
                1.9775789437287508,
                -0.8962487702021507,
                -0.10450903885813617,
                -2.888744351057136
            ]
        },
        {
            "positions": [
                -0.0037377564476058778,
                -1.2026388456202026,
                1.9752390162961824,
                -0.8556116875559339,
                -0.026009429688127583,
                -2.992267116611298
            ]
        },
        {
            "positions": [
                0.059914275403070094,
                -1.170858102801228,
                1.9728990888636138,
                -0.8149746049097171,
                0.05249017948188106,
                -3.0957898821654606
            ]
        },
        {
            "positions": [
                0.12356630725374605,
                -1.1390773599822532,
                1.9705591614310454,
                -0.7743375222635003,
                0.13098978865188965,
                -3.1993126477196228
            ]
        }
    ]
}