{
    "goal": {
        "global_pose": {
            "orientation": {
                "w": 0.7047431468963623,
                "x": -0.7094548344612122,
                "y": 0.0024358443915843964,
                "z": -0.0022348060738295317
            },
            "position": {
                "x": 0.6094750761985779,
                "y": 0.3671506643295288,
                "z": 0.19426114857196808
            }
        },
        "name": "move_to_magneteinheit_A"
    },
    "id": "LazyPRMstar_move_to_magneteinheit_A_17",
    "joint_names": [
        "shoulder_pan_joint",
        "shoulder_lift_joint",
        "elbow_joint",
        "wrist_1_joint",
        "wrist_2_joint",
        "wrist_3_joint"
    ],
    "metrics": {
        "cart_traj_len": 3.4456827872970757,
        "distance_elbow_joint": 3.9042598774302046,
        "distance_shoulder_lift_joint": 0.618752036140306,
        "distance_shoulder_pan_joint": 2.5761779947408163,
        "distance_wrist_1_joint": 0.7095599529157057,
        "distance_wrist_2_joint": 1.7023584231609772,
        "distance_wrist_3_joint": 2.703748113271307,
        "smoothness": 0.021445251550408027,
        "time": 5.026234577,
        "traj_len": 3.4949758794102315,
        "weighted_distance": 4.475965929302703
    },
    "planner": "LazyPRMstar",
    "start": {
        "state": {
            "elbow_joint": -1.919618573717145,
            "shoulder_lift_joint": -1.2443395971678275,
            "shoulder_pan_joint": 2.6996025300909787,
            "wrist_1_joint": -1.548550951253194,
            "wrist_2_joint": -1.5709469090946802,
            "wrist_3_joint": 0.4420197732051276
        }
    },
    "waypoints": [
        {
            "positions": [
                2.6996025300909787,
                -1.2443395971678275,
                -1.919618573717145,
                -1.548550951253194,
                -1.5709469090946802,
                0.4420197732051276
            ]
        },
        {
            "positions": [
                2.5719535283673136,
                -1.2167656692447777,
                -1.8162800265775816,
                -1.548364098229157,
                -1.522002690647629,
                0.5277757270311948
            ]
        },
        {
            "positions": [
                2.444304526643649,
                -1.189191741321728,
                -1.712941479438018,
                -1.5481772452051203,
                -1.4730584722005775,
                0.613531680857262
            ]
        },
        {
            "positions": [
                2.316655524919984,
                -1.1616178133986779,
                -1.6096029322984546,
                -1.5479903921810834,
                -1.4241142537535263,
                0.6992876346833292
            ]
        },
        {
            "positions": [
                2.189006523196319,
                -1.134043885475628,
                -1.5062643851588913,
                -1.5478035391570464,
                -1.3751700353064749,
                0.7850435885093963
            ]
        },
        {
            "positions": [
                2.061357521472654,
                -1.1064699575525783,
                -1.402925838019328,
                -1.5476166861330096,
                -1.3262258168594236,
                0.8707995423354635
            ]
        },
        {
            "positions": [
                1.933708519748989,
                -1.0788960296295285,
                -1.2995872908797645,
                -1.5474298331089726,
                -1.2772815984123722,
                0.9565554961615308
            ]
        },
        {
            "positions": [
                1.8060595180253243,
                -1.0513221017064787,
                -1.1962487437402012,
                -1.5472429800849357,
                -1.228337379965321,
                1.0423114499875978
            ]
        },
        {
            "positions": [
                1.6784105163016592,
                -1.0237481737834286,
                -1.0929101966006376,
                -1.5470561270608987,
                -1.1793931615182696,
                1.128067403813665
            ]
        },
        {
            "positions": [
                1.5507615145779943,
                -0.9961742458603788,
                -0.9895716494610742,
                -1.546869274036862,
                -1.1304489430712183,
                1.2138233576397321
            ]
        },
        {
            "positions": [
                1.4231125128543292,
                -0.968600317937329,
                -0.8862331023215106,
                -1.546682421012825,
                -1.081504724624167,
                1.2995793114657994
            ]
        },
        {
            "positions": [
                1.2954635111306645,
                -0.9410263900142792,
                -0.7828945551819475,
                -1.546495567988788,
                -1.0325605061771157,
                1.3853352652918665
            ]
        },
        {
            "positions": [
                1.1678145094069994,
                -0.9134524620912293,
                -0.6795560080423839,
                -1.5463087149647512,
                -0.9836162877300644,
                1.471091219117934
            ]
        },
        {
            "positions": [
                1.0401655076833345,
                -0.8858785341681795,
                -0.5762174609028206,
                -1.5461218619407142,
                -0.934672069283013,
                1.556847172944001
            ]
        },
        {
            "positions": [
                0.981093016600808,
                -0.894526063434146,
                -0.44181410361739887,
                -1.5166535404754355,
                -0.8750317088430428,
                1.6348674743047575
            ]
        },
        {
            "positions": [
                0.9220205255182816,
                -0.9031735927001124,
                -0.3074107463319772,
                -1.4871852190101569,
                -0.8153913484030726,
                1.7128877756655139
            ]
        },
        {
            "positions": [
                0.8629480344357552,
                -0.9118211219660789,
                -0.17300738904655544,
                -1.4577168975448784,
                -0.7557509879631025,
                1.7909080770262704
            ]
        },
        {
            "positions": [
                0.8038755433532287,
                -0.9204686512320452,
                -0.038604031761133806,
                -1.4282485760795998,
                -0.6961106275231322,
                1.8689283783870267
            ]
        },
        {
            "positions": [
                0.7448030522707023,
                -0.9291161804980117,
                0.09579932552428794,
                -1.398780254614321,
                -0.6364702670831621,
                1.9469486797477833
            ]
        },
        {
            "positions": [
                0.6857305611881759,
                -0.9377637097639782,
                0.23020268280970968,
                -1.3693119331490424,
                -0.5768299066431919,
                2.0249689811085396
            ]
        },
        {
            "positions": [
                0.6266580701056494,
                -0.9464112390299446,
                0.3646060400951312,
                -1.339843611683764,
                -0.5171895462032217,
                2.102989282469296
            ]
        },
        {
            "positions": [
                0.567585579023123,
                -0.9550587682959111,
                0.49900939738055294,
                -1.3103752902184853,
                -0.45754918576325143,
                2.1810095838300527
            ]
        },
        {
            "positions": [
                0.5085130879405966,
                -0.9637062975618775,
                0.6334127546659747,
                -1.2809069687532066,
                -0.3979088253232813,
                2.259029885190809
            ]
        },
        {
            "positions": [
                0.44944059685807014,
                -0.972353826827844,
                0.7678161119513964,
                -1.251438647287928,
                -0.3382684648833111,
                2.3370501865515654
            ]
        },
        {
            "positions": [
                0.3903681057755437,
                -0.9810013560938103,
                0.902219469236818,
                -1.2219703258226495,
                -0.27862810444334085,
                2.415070487912322
            ]
        },
        {
            "positions": [
                0.33129561469301727,
                -0.9896488853597768,
                1.03662282652224,
                -1.1925020043573709,
                -0.21898774400337062,
                2.4930907892730785
            ]
        },
        {
            "positions": [
                0.27222312361049084,
                -0.9982964146257433,
                1.1710261838076614,
                -1.1630336828920922,
                -0.15934738356340045,
                2.571111090633835
            ]
        },
        {
            "positions": [
                0.24332643156283562,
                -1.0181449904635893,
                1.2997016687471536,
                -1.128133430675867,
                -0.11270362240980919,
                2.6403395001210788
            ]
        },
        {
            "positions": [
                0.21442973951518038,
                -1.0379935663014352,
                1.4283771536866459,
                -1.0932331784596416,
                -0.06605986125621792,
                2.7095679096083227
            ]
        },
        {
            "positions": [
                0.18553304746752516,
                -1.0578421421392812,
                1.557052638626138,
                -1.0583329262434165,
                -0.019416100102626677,
                2.7787963190955667
            ]
        },
        {
            "positions": [
                0.15663635541986992,
                -1.0776907179771273,
                1.6857281235656303,
                -1.0234326740271913,
                0.027227661050964608,
                2.8480247285828106
            ]
        },
        {
            "positions": [
                0.1277396633722147,
                -1.0975392938149733,
                1.8144036085051225,
                -0.988532421810966,
                0.07387142220455586,
                2.9172531380700546
            ]
        },
        {
            "positions": [
                0.1255820993611882,
                -1.1218544005619053,
                1.8995224561090915,
                -0.9137617100742272,
                0.10264146813542642,
                3.0315105122732446
            ]
        },
        {
            "positions": [
                0.12342453535016168,
                -1.1461695073088376,
                1.9846413037130604,
                -0.8389909983374884,
                0.13141151406629697,
                3.1457678864764347
            ]
        }
    ]
}{
    "goal": {
        "global_pose": {
            "orientation": {
                "w": 0.7047431468963623,
                "x": -0.7094548344612122,
                "y": 0.0024358443915843964,
                "z": -0.0022348060738295317
            },
            "position": {
                "x": 0.6094750761985779,
                "y": 0.3671506643295288,
                "z": 0.19426114857196808
            }
        },
        "name": "move_to_magneteinheit_A"
    },
    "id": "LazyPRMstar_move_to_magneteinheit_A_17",
    "joint_names": [
        "shoulder_pan_joint",
        "shoulder_lift_joint",
        "elbow_joint",
        "wrist_1_joint",
        "wrist_2_joint",
        "wrist_3_joint"
    ],
    "metrics": {
        "cart_traj_len": 1.198577812346002,
        "distance_elbow_joint": 0.07227117810231354,
        "distance_shoulder_lift_joint": 0.7482343510360319,
        "distance_shoulder_pan_joint": 1.2408478859076866,
        "distance_wrist_1_joint": 0.7277738893788348,
        "distance_wrist_2_joint": 1.4357939077957012,
        "distance_wrist_3_joint": 4.246703548748586,
        "smoothness": 0.011999501779715246,
        "time": 5.035424127,
        "traj_len": 2.910605566023874,
        "weighted_distance": 4.37362545900319
    },
    "planner": "LazyPRMstar",
    "start": {
        "state": {
            "elbow_joint": 1.919643534880228,
            "shoulder_lift_joint": -1.8972525353963687,
            "shoulder_pan_joint": -1.1188672234189438,
            "wrist_1_joint": -1.5931878212786155,
            "wrist_2_joint": 1.5706036197970081,
            "wrist_3_joint": 1.118896926603594
        }
    },
    "waypoints": [
        {
            "positions": [
                -1.1188672234189438,
                -1.8972525353963687,
                1.919643534880228,
                -1.5931878212786155,
                1.5706036197970081,
                1.118896926603594
            ]
        },
        {
            "positions": [
                -1.0629103838872922,
                -1.8635570615600705,
                1.922596976034584,
                -1.5601878972652647,
                1.5053717448776975,
                0.926614645759157
            ]
        },
        {
            "positions": [
                -1.0069535443556406,
                -1.8298615877237723,
                1.92555041718894,
                -1.527187973251914,
                1.4401398699583867,
                0.73433236491472
            ]
        },
        {
            "positions": [
                -0.9509967048239889,
                -1.796166113887474,
                1.928503858343296,
                -1.4941880492385633,
                1.3749079950390761,
                0.542050084070283
            ]
        },
        {
            "positions": [
                -0.8950398652923373,
                -1.7624706400511758,
                1.931457299497652,
                -1.4611881252252126,
                1.3096761201197653,
                0.3497678032258459
            ]
        },
        {
            "positions": [
                -0.8390830257606856,
                -1.7287751662148776,
                1.934410740652008,
                -1.4281882012118619,
                1.2444442452004547,
                0.1574855223814089
            ]
        },
        {
            "positions": [
                -0.783126186229034,
                -1.6950796923785794,
                1.9373641818063638,
                -1.395188277198511,
                1.1792123702811441,
                -0.03479675846302799
            ]
        },
        {
            "positions": [
                -0.7271693466973823,
                -1.6613842185422811,
                1.94031762296072,
                -1.3621883531851602,
                1.1139804953618333,
                -0.2270790393074651
            ]
        },
        {
            "positions": [
                -0.6712125071657307,
                -1.627688744705983,
                1.9432710641150759,
                -1.3291884291718095,
                1.0487486204425225,
                -0.4193613201519022
            ]
        },
        {
            "positions": [
                -0.615255667634079,
                -1.5939932708696847,
                1.9462245052694318,
                -1.2961885051584587,
                0.9835167455232119,
                -0.6116436009963393
            ]
        },
        {
            "positions": [
                -0.5592988281024274,
                -1.5602977970333867,
                1.9491779464237877,
                -1.263188581145108,
                0.9182848706039013,
                -0.8039258818407762
            ]
        },
        {
            "positions": [
                -0.5033419885707757,
                -1.5266023231970882,
                1.9521313875781439,
                -1.2301886571317573,
                0.8530529956845906,
                -0.9962081626852133
            ]
        },
        {
            "positions": [
                -0.4473851490391241,
                -1.4929068493607902,
                1.9550848287324998,
                -1.1971887331184066,
                0.78782112076528,
                -1.18849044352965
            ]
        },
        {
            "positions": [
                -0.3914283095074724,
                -1.4592113755244918,
                1.9580382698868557,
                -1.1641888091050558,
                0.7225892458459692,
                -1.3807727243740875
            ]
        },
        {
            "positions": [
                -0.3354714699758208,
                -1.4255159016881938,
                1.9609917110412116,
                -1.1311888850917051,
                0.6573573709266586,
                -1.5730550052185241
            ]
        },
        {
            "positions": [
                -0.27951463044416924,
                -1.3918204278518955,
                1.9639451521955675,
                -1.0981889610783544,
                0.5921254960073479,
                -1.7653372860629613
            ]
        },
        {
            "positions": [
                -0.22355779091251748,
                -1.3581249540155973,
                1.9668985933499237,
                -1.0651890370650037,
                0.5268936210880371,
                -1.9576195669073984
            ]
        },
        {
            "positions": [
                -0.16760095138086584,
                -1.324429480179299,
                1.9698520345042796,
                -1.0321891130516527,
                0.46166174616872646,
                -2.1499018477518357
            ]
        },
        {
            "positions": [
                -0.11164411184921419,
                -1.2907340063430008,
                1.9728054756586355,
                -0.999189189038302,
                0.39642987124941564,
                -2.342184128596273
            ]
        },
        {
            "positions": [
                -0.05568727231756254,
                -1.2570385325067026,
                1.9757589168129914,
                -0.9661892650249513,
                0.33119799633010505,
                -2.53446640944071
            ]
        },
        {
            "positions": [
                0.0002695672140891059,
                -1.2233430586704044,
                1.9787123579673476,
                -0.9331893410116007,
                0.26596612141079445,
                -2.726748690285146
            ]
        },
        {
            "positions": [
                0.056226406745740753,
                -1.1896475848341062,
                1.9816657991217035,
                -0.9001894169982498,
                0.20073424649148364,
                -2.919030971129583
            ]
        },
        {
            "positions": [
                0.11218324627739232,
                -1.155952110997808,
                1.9846192402760594,
                -0.8671894929848991,
                0.13550237157217312,
                -3.1113132519740203
            ]
        },
        {
            "positions": [
                0.12198066248874263,
                -1.1490181843603369,
                1.9919147129825416,
                -0.8654139318997807,
                0.13619503114303913,
                -3.127806622144992
            ]
        }
    ]
}