{
    "goal": {
        "global_pose": {
            "orientation": {
                "w": 0.5084816217422485,
                "x": -0.49083608388900757,
                "y": 0.5182115435600281,
                "z": -0.4816462993621826
            },
            "position": {
                "x": 0.5540239810943604,
                "y": 0.030875300988554955,
                "z": 0.16403168439865112
            }
        },
        "name": "move_to_storage_A"
    },
    "id": "LazyPRM_move_to_storage_A_4",
    "joint_names": [
        "shoulder_pan_joint",
        "shoulder_lift_joint",
        "elbow_joint",
        "wrist_1_joint",
        "wrist_2_joint",
        "wrist_3_joint"
    ],
    "metrics": {
        "cart_traj_len": 0.35328698818884646,
        "distance_elbow_joint": 0.45222096484151875,
        "distance_shoulder_lift_joint": 0.23385150889589856,
        "distance_shoulder_pan_joint": 0.46393392580427917,
        "distance_wrist_1_joint": 0.24843242484952188,
        "distance_wrist_2_joint": 1.0911626030545922,
        "distance_wrist_3_joint": 0.0891379041822078,
        "smoothness": 0.0,
        "time": 0.022117468,
        "traj_len": 1.6058453635478163,
        "weighted_distance": 2.024008440668306
    },
    "planner": "LazyPRM",
    "start": {
        "state": {
            "elbow_joint": 1.9715477243005601,
            "shoulder_lift_joint": -1.1394853015351272,
            "shoulder_pan_joint": 0.12281154014795169,
            "wrist_1_joint": -0.7804696478968182,
            "wrist_2_joint": 0.12958648046900423,
            "wrist_3_joint": -3.192491284697111
        }
    },
    "waypoints": [
        {
            "positions": [
                0.12281154014795169,
                -1.1394853015351272,
                1.9715477243005601,
                -0.7804696478968182,
                0.12958648046900423,
                -3.192491284697111
            ]
        },
        {
            "positions": [
                0.05653526503305467,
                -1.172892659948827,
                2.03615071927792,
                -0.8159599943038928,
                0.285466852333946,
                -3.179757298385367
            ]
        },
        {
            "positions": [
                -0.009741010081842347,
                -1.2063000183625268,
                2.10075371425528,
                -0.8514503407109673,
                0.4413472241988877,
                -3.1670233120736233
            ]
        },
        {
            "positions": [
                -0.07601728519673938,
                -1.2397073767762266,
                2.16535670923264,
                -0.8869406871180419,
                0.5972275960638295,
                -3.154289325761879
            ]
        },
        {
            "positions": [
                -0.14229356031163637,
                -1.2731147351899263,
                2.2299597042099992,
                -0.9224310335251164,
                0.7531079679287712,
                -3.1415553394501354
            ]
        },
        {
            "positions": [
                -0.2085698354265334,
                -1.3065220936036261,
                2.294562699187359,
                -0.957921379932191,
                0.908988339793713,
                -3.1288213531383913
            ]
        },
        {
            "positions": [
                -0.27484611054143043,
                -1.339929452017326,
                2.359165694164719,
                -0.9934117263392654,
                1.0648687116586548,
                -3.1160873668266476
            ]
        },
        {
            "positions": [
                -0.34112238565632746,
                -1.3733368104310257,
                2.423768689142079,
                -1.02890207274634,
                1.2207490835235963,
                -3.1033533805149034
            ]
        }
    ]
}