{
    "goal": {
        "global_pose": {
            "orientation": {
                "w": 0.7047431468963623,
                "x": -0.7094548344612122,
                "y": 0.0024358443915843964,
                "z": -0.0022348060738295317
            },
            "position": {
                "x": 0.6094750761985779,
                "y": 0.3671506643295288,
                "z": 0.19426114857196808
            }
        },
        "name": "move_to_magneteinheit_A"
    },
    "id": "LazyPRMstar_move_to_magneteinheit_A_16",
    "joint_names": [
        "shoulder_pan_joint",
        "shoulder_lift_joint",
        "elbow_joint",
        "wrist_1_joint",
        "wrist_2_joint",
        "wrist_3_joint"
    ],
    "metrics": {
        "cart_traj_len": 3.591777558657166,
        "distance_elbow_joint": 3.873540690223911,
        "distance_shoulder_lift_joint": 0.2553147212017084,
        "distance_shoulder_pan_joint": 2.734181235668967,
        "distance_wrist_1_joint": 1.4724200346427616,
        "distance_wrist_2_joint": 1.6999942128527166,
        "distance_wrist_3_joint": 3.689938503769322,
        "smoothness": 0.10303247368753086,
        "time": 5.036108476,
        "traj_len": 3.7047792644581925,
        "weighted_distance": 4.92723864384439
    },
    "planner": "LazyPRMstar",
    "start": {
        "state": {
            "elbow_joint": -1.919618573717145,
            "shoulder_lift_joint": -1.2443395971678275,
            "shoulder_pan_joint": 2.6996025300909787,
            "wrist_1_joint": -1.548550951253194,
            "wrist_2_joint": -1.5709469090946802,
            "wrist_3_joint": 0.4420197732051276
        }
    },
    "waypoints": [
        {
            "positions": [
                2.6996025300909787,
                -1.2443395971678275,
                -1.919618573717145,
                -1.548550951253194,
                -1.5709469090946802,
                0.4420197732051276
            ]
        },
        {
            "positions": [
                2.586055676989705,
                -1.2352627266008531,
                -1.775442981655733,
                -1.5660735665673764,
                -1.5464860386151473,
                0.359382896264436
            ]
        },
        {
            "positions": [
                2.472508823888431,
                -1.2261858560338788,
                -1.631267389594321,
                -1.5835961818815587,
                -1.5220251681356145,
                0.27674601932374443
            ]
        },
        {
            "positions": [
                2.3589619707871576,
                -1.2171089854669042,
                -1.487091797532909,
                -1.601118797195741,
                -1.4975642976560817,
                0.19410914238305282
            ]
        },
        {
            "positions": [
                2.2454151176858836,
                -1.2080321148999298,
                -1.3429162054714971,
                -1.618641412509923,
                -1.4731034271765489,
                0.11147226544236127
            ]
        },
        {
            "positions": [
                2.13186826458461,
                -1.1989552443329554,
                -1.198740613410085,
                -1.6361640278241054,
                -1.448642556697016,
                0.028835388501669612
            ]
        },
        {
            "positions": [
                2.0183214114833365,
                -1.189878373765981,
                -1.0545650213486732,
                -1.6536866431382877,
                -1.4241816862174832,
                -0.05380148843902194
            ]
        },
        {
            "positions": [
                1.9047745583820626,
                -1.1808015031990067,
                -0.9103894292872612,
                -1.67120925845247,
                -1.3997208157379504,
                -0.1364383653797135
            ]
        },
        {
            "positions": [
                1.7912277052807888,
                -1.1717246326320323,
                -0.7662138372258493,
                -1.6887318737666523,
                -1.3752599452584175,
                -0.21907524232040504
            ]
        },
        {
            "positions": [
                1.677680852179515,
                -1.162647762065058,
                -0.6220382451644373,
                -1.7062544890808344,
                -1.3507990747788847,
                -0.3017121192610967
            ]
        },
        {
            "positions": [
                1.5641339990782412,
                -1.1535708914980833,
                -0.4778626531030252,
                -1.7237771043950167,
                -1.326338204299352,
                -0.38434899620178836
            ]
        },
        {
            "positions": [
                1.4505871459769675,
                -1.144494020931109,
                -0.33368706104161316,
                -1.741299719709199,
                -1.301877333819819,
                -0.4669858731424799
            ]
        },
        {
            "positions": [
                1.337040292875694,
                -1.1354171503641346,
                -0.18951146898020155,
                -1.7588223350233814,
                -1.2774164633402862,
                -0.5496227500831714
            ]
        },
        {
            "positions": [
                1.2234934397744202,
                -1.1263402797971602,
                -0.045335876918789486,
                -1.7763449503375637,
                -1.2529555928607534,
                -0.632259627023863
            ]
        },
        {
            "positions": [
                1.1099465866731462,
                -1.1172634092301859,
                0.09883971514262258,
                -1.793867565651746,
                -1.2284947223812206,
                -0.7148965039645545
            ]
        },
        {
            "positions": [
                0.9963997335718724,
                -1.1081865386632113,
                0.24301530720403464,
                -1.8113901809659283,
                -1.2040338519016878,
                -0.7975333809052463
            ]
        },
        {
            "positions": [
                0.8828528804705988,
                -1.099109668096237,
                0.38719089926544625,
                -1.8289127962801104,
                -1.179572981422155,
                -0.8801702578459376
            ]
        },
        {
            "positions": [
                0.7693060273693251,
                -1.0900327975292625,
                0.5313664913268583,
                -1.8464354115942927,
                -1.1551121109426221,
                -0.9628071347866294
            ]
        },
        {
            "positions": [
                0.6557591742680511,
                -1.0809559269622881,
                0.6755420833882704,
                -1.863958026908475,
                -1.1306512404630893,
                -1.045444011727321
            ]
        },
        {
            "positions": [
                0.5654740369358477,
                -1.0908872256943325,
                0.7788173304154611,
                -1.8223169007387838,
                -1.1012177276472452,
                -1.116805741552178
            ]
        },
        {
            "positions": [
                0.4751888996036443,
                -1.1008185244263768,
                0.8820925774426519,
                -1.7806757745690929,
                -1.0717842148314012,
                -1.1881674713770347
            ]
        },
        {
            "positions": [
                0.38490376227144096,
                -1.1107498231584214,
                0.9853678244698427,
                -1.739034648399402,
                -1.0423507020155571,
                -1.2595292012018917
            ]
        },
        {
            "positions": [
                0.29461862493923757,
                -1.1206811218904658,
                1.0886430714970334,
                -1.6973935222297107,
                -1.012917189199713,
                -1.3308909310267487
            ]
        },
        {
            "positions": [
                0.2370542682466831,
                -1.1295503201304977,
                1.1681676037499997,
                -1.6404032171952263,
                -0.9683258732411717,
                -1.4180270757379898
            ]
        },
        {
            "positions": [
                0.17948991155412863,
                -1.1384195183705295,
                1.247692136002966,
                -1.5834129121607416,
                -0.9237345572826304,
                -1.505163220449231
            ]
        },
        {
            "positions": [
                0.1625734856982956,
                -1.140051768464748,
                1.3086564352600525,
                -1.5143611243100874,
                -0.8491053218393744,
                -1.6323023932847753
            ]
        },
        {
            "positions": [
                0.14565705984246255,
                -1.1416840185589663,
                1.369620734517139,
                -1.4453093364594332,
                -0.7744760863961184,
                -1.7594415661203198
            ]
        },
        {
            "positions": [
                0.1287406339866295,
                -1.1433162686531846,
                1.4305850337742256,
                -1.376257548608779,
                -0.6998468509528624,
                -1.8865807389558642
            ]
        },
        {
            "positions": [
                0.11182420813079647,
                -1.144948518747403,
                1.491549333031312,
                -1.3072057607581247,
                -0.6252176155096063,
                -2.0137199117914086
            ]
        },
        {
            "positions": [
                0.09490778227496342,
                -1.1465807688416216,
                1.5525136322883986,
                -1.2381539729074704,
                -0.5505883800663504,
                -2.1408590846269533
            ]
        },
        {
            "positions": [
                0.07799135641913038,
                -1.14821301893584,
                1.6134779315454852,
                -1.1691021850568162,
                -0.4759591446230943,
                -2.2679982574624975
            ]
        },
        {
            "positions": [
                0.06107493056329734,
                -1.1498452690300582,
                1.6744422308025717,
                -1.100050397206162,
                -0.40132990917983835,
                -2.3951374302980417
            ]
        },
        {
            "positions": [
                0.04415850470746428,
                -1.1514775191242768,
                1.7354065300596582,
                -1.0309986093555077,
                -0.3267006737365823,
                -2.5222766031335864
            ]
        },
        {
            "positions": [
                0.05990594676455491,
                -1.1471956273574406,
                1.77910964734908,
                -0.9661879010686051,
                -0.23555107823765858,
                -2.667405028619708
            ]
        },
        {
            "positions": [
                0.07565338882164552,
                -1.1429137355906045,
                1.8228127646385017,
                -0.9013771927817024,
                -0.14440148273873485,
                -2.812533454105829
            ]
        },
        {
            "positions": [
                0.09140083087873616,
                -1.1386318438237686,
                1.8665158819279233,
                -0.8365664844947998,
                -0.05325188723981117,
                -2.9576618795919507
            ]
        },
        {
            "positions": [
                0.10714827293582677,
                -1.1343499520569325,
                1.910218999217345,
                -0.771755776207897,
                0.037897708259112595,
                -3.102790305078072
            ]
        },
        {
            "positions": [
                0.12289571499291739,
                -1.1300680602900963,
                1.9539221165067668,
                -0.7069450679209944,
                0.1290473037580363,
                -3.2479187305641934
            ]
        }
    ]
}{
    "goal": {
        "global_pose": {
            "orientation": {
                "w": 0.7047431468963623,
                "x": -0.7094548344612122,
                "y": 0.0024358443915843964,
                "z": -0.0022348060738295317
            },
            "position": {
                "x": 0.6094750761985779,
                "y": 0.3671506643295288,
                "z": 0.19426114857196808
            }
        },
        "name": "move_to_magneteinheit_A"
    },
    "id": "LazyPRMstar_move_to_magneteinheit_A_16",
    "joint_names": [
        "shoulder_pan_joint",
        "shoulder_lift_joint",
        "elbow_joint",
        "wrist_1_joint",
        "wrist_2_joint",
        "wrist_3_joint"
    ],
    "metrics": {
        "cart_traj_len": 1.4602093331570596,
        "distance_elbow_joint": 0.4815753534897338,
        "distance_shoulder_lift_joint": 0.7606618351526953,
        "distance_shoulder_pan_joint": 1.2414626900064778,
        "distance_wrist_1_joint": 0.9392857439824649,
        "distance_wrist_2_joint": 1.445593480085053,
        "distance_wrist_3_joint": 4.328088082296462,
        "smoothness": 0.07222443834868714,
        "time": 5.052667980000001,
        "traj_len": 3.032600729574021,
        "weighted_distance": 4.498635634686736
    },
    "planner": "LazyPRMstar",
    "start": {
        "state": {
            "elbow_joint": 1.919643534880228,
            "shoulder_lift_joint": -1.8972525353963687,
            "shoulder_pan_joint": -1.1188672234189438,
            "wrist_1_joint": -1.5931878212786155,
            "wrist_2_joint": 1.5706036197970081,
            "wrist_3_joint": 1.118896926603594
        }
    },
    "waypoints": [
        {
            "positions": [
                -1.1188672234189438,
                -1.8972525353963687,
                1.919643534880228,
                -1.5931878212786155,
                1.5706036197970081,
                1.118896926603594
            ]
        },
        {
            "positions": [
                -1.099817060877865,
                -1.8490602352471748,
                1.9372691325053704,
                -1.5970370371658955,
                1.4836473106775565,
                0.9144941409140526
            ]
        },
        {
            "positions": [
                -1.0807668983367862,
                -1.8008679350979806,
                1.9548947301305124,
                -1.6008862530531753,
                1.3966910015581049,
                0.7100913552245112
            ]
        },
        {
            "positions": [
                -1.0617167357957074,
                -1.7526756349487866,
                1.9725203277556547,
                -1.6047354689404554,
                1.309734692438653,
                0.5056885695349697
            ]
        },
        {
            "positions": [
                -1.0426665732546283,
                -1.7044833347995927,
                1.990145925380797,
                -1.6085846848277352,
                1.2227783833192014,
                0.30128578384542826
            ]
        },
        {
            "positions": [
                -1.0236164107135495,
                -1.6562910346503985,
                2.007771523005939,
                -1.6124339007150152,
                1.1358220741997498,
                0.09688299815588697
            ]
        },
        {
            "positions": [
                -1.0045662481724706,
                -1.6080987345012046,
                2.0253971206310815,
                -1.6162831166022953,
                1.048865765080298,
                -0.10751978753365465
            ]
        },
        {
            "positions": [
                -0.9855160856313918,
                -1.5599064343520106,
                2.0430227182562235,
                -1.6201323324895751,
                0.9619094559608463,
                -0.31192257322319605
            ]
        },
        {
            "positions": [
                -0.966465923090313,
                -1.5117141342028164,
                2.0606483158813655,
                -1.6239815483768552,
                0.8749531468413947,
                -0.5163253589127375
            ]
        },
        {
            "positions": [
                -0.9474157605492342,
                -1.4635218340536225,
                2.078273913506508,
                -1.627830764264135,
                0.787996837721943,
                -0.7207281446022789
            ]
        },
        {
            "positions": [
                -0.9283655980081553,
                -1.4153295339044285,
                2.09589951113165,
                -1.631679980151415,
                0.7010405286024913,
                -0.92513093029182
            ]
        },
        {
            "positions": [
                -0.9093154354670764,
                -1.3671372337552343,
                2.113525108756792,
                -1.635529196038695,
                0.6140842194830397,
                -1.1295337159813614
            ]
        },
        {
            "positions": [
                -0.8902652729259976,
                -1.3189449336060404,
                2.1311507063819346,
                -1.6393784119259749,
                0.527127910363588,
                -1.3339365016709033
            ]
        },
        {
            "positions": [
                -0.8712151103849186,
                -1.2707526334568464,
                2.1487763040070766,
                -1.643227627813255,
                0.4401716012441361,
                -1.5383392873604447
            ]
        },
        {
            "positions": [
                -0.8521649478438398,
                -1.2225603333076522,
                2.166401901632219,
                -1.6470768437005348,
                0.3532152921246845,
                -1.742742073049986
            ]
        },
        {
            "positions": [
                -0.833114785302761,
                -1.1743680331584583,
                2.184027499257361,
                -1.6509260595878148,
                0.26625898300523276,
                -1.9471448587395273
            ]
        },
        {
            "positions": [
                -0.7269247573149504,
                -1.1701705517234822,
                2.1598951226892944,
                -1.5529763367352298,
                0.2505646670837575,
                -2.0873722250676763
            ]
        },
        {
            "positions": [
                -0.6207347293271399,
                -1.165973070288506,
                2.1357627461212276,
                -1.4550266138826446,
                0.23487035116228222,
                -2.2275995913958253
            ]
        },
        {
            "positions": [
                -0.5145447013393294,
                -1.16177558885353,
                2.111630369553161,
                -1.3570768910300597,
                0.21917603524080698,
                -2.3678269577239743
            ]
        },
        {
            "positions": [
                -0.4083546733515188,
                -1.1575781074185538,
                2.087497992985094,
                -1.2591271681774745,
                0.2034817193193317,
                -2.5080543240521234
            ]
        },
        {
            "positions": [
                -0.30216464536370824,
                -1.153380625983578,
                2.0633656164170273,
                -1.1611774453248895,
                0.18778740339785643,
                -2.648281690380272
            ]
        },
        {
            "positions": [
                -0.19597461737589772,
                -1.1491831445486018,
                2.0392332398489605,
                -1.0632277224723046,
                0.1720930874763812,
                -2.788509056708421
            ]
        },
        {
            "positions": [
                -0.08978458938808709,
                -1.1449856631136257,
                2.0151008632808938,
                -0.9652779996197194,
                0.1563987715549059,
                -2.92873642303657
            ]
        },
        {
            "positions": [
                0.01640543859972332,
                -1.1407881816786496,
                1.9909684867128272,
                -0.8673282767671343,
                0.14070445563343065,
                -3.068963789364719
            ]
        },
        {
            "positions": [
                0.12259546658753397,
                -1.1365907002436735,
                1.9668361101447605,
                -0.7693785539145492,
                0.12501013971195538,
                -3.209191155692868
            ]
        }
    ]
}