{
    "goal": {
        "global_pose": {
            "orientation": {
                "w": 0.5084816217422485,
                "x": -0.49083608388900757,
                "y": 0.5182115435600281,
                "z": -0.4816462993621826
            },
            "position": {
                "x": 0.5540239810943604,
                "y": 0.030875300988554955,
                "z": 0.16403168439865112
            }
        },
        "name": "move_to_storage_A"
    },
    "id": "LazyPRM_move_to_storage_A_38",
    "joint_names": [
        "shoulder_pan_joint",
        "shoulder_lift_joint",
        "elbow_joint",
        "wrist_1_joint",
        "wrist_2_joint",
        "wrist_3_joint"
    ],
    "metrics": {
        "cart_traj_len": 0.3521775603041016,
        "distance_elbow_joint": 0.45016633552433705,
        "distance_shoulder_lift_joint": 0.23312824402938293,
        "distance_shoulder_pan_joint": 0.45821355586375945,
        "distance_wrist_1_joint": 0.24746528382461463,
        "distance_wrist_2_joint": 1.1063109416113197,
        "distance_wrist_3_joint": 0.1032056652642721,
        "smoothness": 6.661338165333112e-16,
        "time": 0.01205546,
        "traj_len": 1.611983258634433,
        "weighted_distance": 2.0392835953055095
    },
    "planner": "LazyPRM",
    "start": {
        "state": {
            "elbow_joint": 1.9715477243005601,
            "shoulder_lift_joint": -1.1394853015351272,
            "shoulder_pan_joint": 0.12281154014795169,
            "wrist_1_joint": -0.7804696478968182,
            "wrist_2_joint": 0.12958648046900423,
            "wrist_3_joint": -3.192491284697111
        }
    },
    "waypoints": [
        {
            "positions": [
                0.12281154014795169,
                -1.1394853015351272,
                1.9715477243005601,
                -0.7804696478968182,
                0.12958648046900423,
                -3.192491284697111
            ]
        },
        {
            "positions": [
                0.0573524607388432,
                -1.1727893363964677,
                2.035857200804037,
                -0.8158218313003346,
                0.2876309006991927,
                -3.1777476182307867
            ]
        },
        {
            "positions": [
                -0.008106618670265284,
                -1.206093371257808,
                2.1001666773075134,
                -0.8511740147038509,
                0.4456753209293813,
                -3.163003951764462
            ]
        },
        {
            "positions": [
                -0.07356569807937378,
                -1.2393974061191484,
                2.1644761538109902,
                -0.8865261981073673,
                0.6037197411595698,
                -3.1482602852981376
            ]
        },
        {
            "positions": [
                -0.13902477748848224,
                -1.2727014409804889,
                2.228785630314467,
                -0.9218783815108836,
                0.7617641613897583,
                -3.1335166188318127
            ]
        },
        {
            "positions": [
                -0.20448385689759074,
                -1.3060054758418294,
                2.293095106817944,
                -0.9572305649144001,
                0.9198085816199469,
                -3.118772952365488
            ]
        },
        {
            "positions": [
                -0.26994293630669924,
                -1.3393095107031696,
                2.3574045833214203,
                -0.9925827483179164,
                1.0778530018501353,
                -3.1040292858991636
            ]
        },
        {
            "positions": [
                -0.33540201571580774,
                -1.37261354556451,
                2.421714059824897,
                -1.0279349317214328,
                1.2358974220803238,
                -3.089285619432839
            ]
        }
    ]
}