{
    "goal": {
        "global_pose": {
            "orientation": {
                "w": 0.7047431468963623,
                "x": -0.7094548344612122,
                "y": 0.0024358443915843964,
                "z": -0.0022348060738295317
            },
            "position": {
                "x": 0.6094750761985779,
                "y": 0.3671506643295288,
                "z": 0.19426114857196808
            }
        },
        "name": "move_to_magneteinheit_A"
    },
    "id": "LazyPRM_move_to_magneteinheit_A_150",
    "joint_names": [
        "shoulder_pan_joint",
        "shoulder_lift_joint",
        "elbow_joint",
        "wrist_1_joint",
        "wrist_2_joint",
        "wrist_3_joint"
    ],
    "metrics": {
        "cart_traj_len": 3.4832303986833475,
        "distance_elbow_joint": 3.8749165554562706,
        "distance_shoulder_lift_joint": 0.45161954742286214,
        "distance_shoulder_pan_joint": 3.2259738448904507,
        "distance_wrist_1_joint": 0.8865933770690843,
        "distance_wrist_2_joint": 1.696323865726511,
        "distance_wrist_3_joint": 2.5937736766782917,
        "smoothness": 0.1479577003827913,
        "time": 0.164569841,
        "traj_len": 3.567800564387459,
        "weighted_distance": 4.527655625530241
    },
    "planner": "LazyPRM",
    "start": {
        "state": {
            "elbow_joint": -1.919618573717145,
            "shoulder_lift_joint": -1.2443395971678275,
            "shoulder_pan_joint": 2.6996025300909787,
            "wrist_1_joint": -1.548550951253194,
            "wrist_2_joint": -1.5709469090946802,
            "wrist_3_joint": 0.4420197732051276
        }
    },
    "waypoints": [
        {
            "positions": [
                2.6996025300909787,
                -1.2443395971678275,
                -1.919618573717145,
                -1.548550951253194,
                -1.5709469090946802,
                0.4420197732051276
            ]
        },
        {
            "positions": [
                2.588006259778814,
                -1.2508450996432958,
                -1.813531430264702,
                -1.5155700834252592,
                -1.5104061904834625,
                0.5062872447682579
            ]
        },
        {
            "positions": [
                2.4764099894666494,
                -1.2573506021187641,
                -1.7074442868122592,
                -1.4825892155973246,
                -1.4498654718722446,
                0.5705547163313882
            ]
        },
        {
            "positions": [
                2.3648137191544847,
                -1.2638561045942325,
                -1.6013571433598166,
                -1.4496083477693897,
                -1.389324753261027,
                0.6348221878945185
            ]
        },
        {
            "positions": [
                2.25321744884232,
                -1.2703616070697006,
                -1.4952699999073737,
                -1.4166274799414549,
                -1.328784034649809,
                0.6990896594576488
            ]
        },
        {
            "positions": [
                2.1416211785301553,
                -1.276867109545169,
                -1.389182856454931,
                -1.3836466121135202,
                -1.2682433160385913,
                0.7633571310207792
            ]
        },
        {
            "positions": [
                2.0300249082179906,
                -1.2833726120206372,
                -1.283095713002488,
                -1.3506657442855854,
                -1.2077025974273734,
                0.8276246025839095
            ]
        },
        {
            "positions": [
                1.918428637905826,
                -1.2898781144961056,
                -1.1770085695500452,
                -1.3176848764576508,
                -1.1471618788161557,
                0.8918920741470397
            ]
        },
        {
            "positions": [
                1.8068323675936613,
                -1.296383616971574,
                -1.0709214260976023,
                -1.284704008629716,
                -1.0866211602049378,
                0.9561595457101701
            ]
        },
        {
            "positions": [
                1.6952360972814966,
                -1.3028891194470422,
                -0.9648342826451596,
                -1.251723140801781,
                -1.0260804415937201,
                1.0204270172733003
            ]
        },
        {
            "positions": [
                1.583639826969332,
                -1.3093946219225105,
                -0.8587471391927166,
                -1.2187422729738464,
                -0.9655397229825022,
                1.0846944888364307
            ]
        },
        {
            "positions": [
                1.4720435566571672,
                -1.3159001243979787,
                -0.752659995740274,
                -1.1857614051459116,
                -0.9049990043712846,
                1.1489619603995609
            ]
        },
        {
            "positions": [
                1.3604472863450026,
                -1.322405626873447,
                -0.6465728522878311,
                -1.1527805373179767,
                -0.8444582857600668,
                1.2132294319626913
            ]
        },
        {
            "positions": [
                1.2488510160328379,
                -1.3289111293489153,
                -0.5404857088353883,
                -1.119799669490042,
                -0.783917567148849,
                1.2774969035258217
            ]
        },
        {
            "positions": [
                1.1372547457206732,
                -1.3354166318243836,
                -0.4343985653829454,
                -1.0868188016621072,
                -0.7233768485376312,
                1.3417643750889519
            ]
        },
        {
            "positions": [
                1.0256584754085087,
                -1.341922134299852,
                -0.3283114219305028,
                -1.0538379338341723,
                -0.6628361299264135,
                1.4060318466520823
            ]
        },
        {
            "positions": [
                0.9140622050963438,
                -1.3484276367753203,
                -0.2222242784780597,
                -1.0208570660062377,
                -0.6022954113151956,
                1.4702993182152126
            ]
        },
        {
            "positions": [
                0.8024659347841792,
                -1.3549331392507884,
                -0.11613713502561707,
                -0.9878761981783029,
                -0.5417546927039778,
                1.534566789778343
            ]
        },
        {
            "positions": [
                0.6908696644720145,
                -1.3614386417262567,
                -0.01004999157317421,
                -0.9548953303503681,
                -0.4812139740927601,
                1.5988342613414732
            ]
        },
        {
            "positions": [
                0.5792733941598498,
                -1.367944144201725,
                0.09603715187926842,
                -0.9219144625224333,
                -0.42067325548154244,
                1.6631017329046034
            ]
        },
        {
            "positions": [
                0.4676771238476851,
                -1.3744496466771934,
                0.20212429533171172,
                -0.8889335946944985,
                -0.3601325368703243,
                1.727369204467734
            ]
        },
        {
            "positions": [
                0.35608085353552044,
                -1.3809551491526617,
                0.30821143878415413,
                -0.8559527268665637,
                -0.29959181825910663,
                1.7916366760308642
            ]
        },
        {
            "positions": [
                0.24448458322335576,
                -1.38746065162813,
                0.414298582236597,
                -0.8229718590386289,
                -0.23905109964788895,
                1.8559041475939944
            ]
        },
        {
            "positions": [
                0.13288831291119108,
                -1.3939661541035981,
                0.5203857256890398,
                -0.7899909912106942,
                -0.17851038103667127,
                1.9201716191571248
            ]
        },
        {
            "positions": [
                0.021292042599026395,
                -1.4004716565790665,
                0.6264728691414827,
                -0.7570101233827593,
                -0.11796966242545337,
                1.9844390907202551
            ]
        },
        {
            "positions": [
                -0.09030422771313829,
                -1.4069771590545348,
                0.7325600125939256,
                -0.7240292555548246,
                -0.05742894381423547,
                2.0487065622833853
            ]
        },
        {
            "positions": [
                -0.2019004980253031,
                -1.4134826615300031,
                0.8386471560463684,
                -0.6910483877268898,
                0.0031117747969822626,
                2.1129740338465157
            ]
        },
        {
            "positions": [
                -0.15823455494350896,
                -1.3750572441086335,
                0.9904189989310752,
                -0.6947177406835747,
                0.019784682112004716,
                2.2390665386611652
            ]
        },
        {
            "positions": [
                -0.11456861186171481,
                -1.336631826687264,
                1.142190841815782,
                -0.6983870936402595,
                0.03645758942702717,
                2.365159043475815
            ]
        },
        {
            "positions": [
                -0.07090266877992066,
                -1.2982064092658945,
                1.2939626847004888,
                -0.7020564465969444,
                0.05313049674204962,
                2.4912515482904647
            ]
        },
        {
            "positions": [
                -0.027236725698126518,
                -1.259780991844525,
                1.4457345275851958,
                -0.7057257995536294,
                0.06980340405707208,
                2.617344053105114
            ]
        },
        {
            "positions": [
                0.01642921738366765,
                -1.2213555744231555,
                1.5975063704699026,
                -0.7093951525103143,
                0.08647631137209455,
                2.7434365579197637
            ]
        },
        {
            "positions": [
                0.06009516046546179,
                -1.182930157001786,
                1.7492782133546094,
                -0.7130645054669991,
                0.10314921868711699,
                2.869529062734413
            ]
        },
        {
            "positions": [
                0.10376110354725593,
                -1.1445047395804164,
                1.9010500562393162,
                -0.716733858423684,
                0.11982212600213946,
                2.995621567549063
            ]
        },
        {
            "positions": [
                0.12257031874886494,
                -1.1310061784693166,
                1.9552979817391243,
                -0.7133285155776982,
                0.12537695663183074,
                3.0357934498834194
            ]
        }
    ]
}{
    "goal": {
        "global_pose": {
            "orientation": {
                "w": 0.7047431468963623,
                "x": -0.7094548344612122,
                "y": 0.0024358443915843964,
                "z": -0.0022348060738295317
            },
            "position": {
                "x": 0.6094750761985779,
                "y": 0.3671506643295288,
                "z": 0.19426114857196808
            }
        },
        "name": "move_to_magneteinheit_A"
    },
    "id": "LazyPRM_move_to_magneteinheit_A_150",
    "joint_names": [
        "shoulder_pan_joint",
        "shoulder_lift_joint",
        "elbow_joint",
        "wrist_1_joint",
        "wrist_2_joint",
        "wrist_3_joint"
    ],
    "metrics": {
        "cart_traj_len": 1.2547448779229091,
        "distance_elbow_joint": 0.9057773631350314,
        "distance_shoulder_lift_joint": 0.7470484619327671,
        "distance_shoulder_pan_joint": 1.2409997086346671,
        "distance_wrist_1_joint": 0.7325463730524959,
        "distance_wrist_2_joint": 2.4204593662012632,
        "distance_wrist_3_joint": 4.249290086641653,
        "smoothness": 0.26108786410264023,
        "time": 0.080739666,
        "traj_len": 3.2087569804517577,
        "weighted_distance": 4.684838019839633
    },
    "planner": "LazyPRM",
    "start": {
        "state": {
            "elbow_joint": 1.919643534880228,
            "shoulder_lift_joint": -1.8972525353963687,
            "shoulder_pan_joint": -1.1188672234189438,
            "wrist_1_joint": -1.5931878212786155,
            "wrist_2_joint": 1.5706036197970081,
            "wrist_3_joint": 1.118896926603594
        }
    },
    "waypoints": [
        {
            "positions": [
                -1.1188672234189438,
                -1.8972525353963687,
                1.919643534880228,
                -1.5931878212786155,
                1.5706036197970081,
                1.118896926603594
            ]
        },
        {
            "positions": [
                -1.0973684438685243,
                -1.8768328876339746,
                1.8976729180891727,
                -1.5601988462198915,
                1.469171110670572,
                0.9344103239412688
            ]
        },
        {
            "positions": [
                -1.0758696643181047,
                -1.8564132398715807,
                1.875702301298117,
                -1.5272098711611675,
                1.367738601544136,
                0.7499237212789436
            ]
        },
        {
            "positions": [
                -1.0543708847676854,
                -1.8359935921091866,
                1.8537316845070617,
                -1.4942208961024432,
                1.2663060924176999,
                0.5654371186166185
            ]
        },
        {
            "positions": [
                -1.0328721052172658,
                -1.8155739443467924,
                1.8317610677160063,
                -1.4612319210437192,
                1.1648735832912638,
                0.3809505159542933
            ]
        },
        {
            "positions": [
                -1.0113733256668462,
                -1.7951542965843983,
                1.8097904509249507,
                -1.4282429459849952,
                1.0634410741648277,
                0.1964639132919681
            ]
        },
        {
            "positions": [
                -0.9898745461164267,
                -1.7747346488220044,
                1.7878198341338953,
                -1.3952539709262712,
                0.9620085650383917,
                0.011977310629643023
            ]
        },
        {
            "positions": [
                -0.9683757665660072,
                -1.7543150010596102,
                1.76584921734284,
                -1.3622649958675472,
                0.8605760559119556,
                -0.17250929203268228
            ]
        },
        {
            "positions": [
                -0.9468769870155876,
                -1.7338953532972161,
                1.7438786005517843,
                -1.3292760208088232,
                0.7591435467855195,
                -0.35699589469500737
            ]
        },
        {
            "positions": [
                -0.9253782074651682,
                -1.713475705534822,
                1.721907983760729,
                -1.2962870457500992,
                0.6577110376590835,
                -0.5414824973573324
            ]
        },
        {
            "positions": [
                -0.9038794279147486,
                -1.693056057772428,
                1.6999373669696733,
                -1.263298070691375,
                0.5562785285326475,
                -0.7259691000196578
            ]
        },
        {
            "positions": [
                -0.8823806483643291,
                -1.672636410010034,
                1.677966750178618,
                -1.230309095632651,
                0.45484601940621117,
                -0.9104557026819833
            ]
        },
        {
            "positions": [
                -0.8608818688139095,
                -1.6522167622476398,
                1.6559961333875626,
                -1.197320120573927,
                0.3534135102797753,
                -1.094942305344308
            ]
        },
        {
            "positions": [
                -0.8393830892634899,
                -1.631797114485246,
                1.634025516596507,
                -1.1643311455152028,
                0.2519810011533392,
                -1.2794289080066334
            ]
        },
        {
            "positions": [
                -0.8178843097130706,
                -1.6113774667228518,
                1.6120548998054516,
                -1.1313421704564788,
                0.15054849202690312,
                -1.4639155106689585
            ]
        },
        {
            "positions": [
                -0.796385530162651,
                -1.5909578189604576,
                1.590084283014396,
                -1.0983531953977548,
                0.04911598290046704,
                -1.6484021133312836
            ]
        },
        {
            "positions": [
                -0.7748867506122314,
                -1.5705381711980635,
                1.5681136662233406,
                -1.0653642203390308,
                -0.05231652622596905,
                -1.8328887159936087
            ]
        },
        {
            "positions": [
                -0.7533879710618119,
                -1.5501185234356694,
                1.5461430494322852,
                -1.0323752452803068,
                -0.15374903535240514,
                -2.017375318655934
            ]
        },
        {
            "positions": [
                -0.7318891915113924,
                -1.5296988756732754,
                1.5241724326412296,
                -0.9993862702215828,
                -0.2551815444788412,
                -2.201861921318259
            ]
        },
        {
            "positions": [
                -0.7103904119609729,
                -1.5092792279108813,
                1.5022018158501742,
                -0.9663972951628587,
                -0.35661405360527726,
                -2.386348523980584
            ]
        },
        {
            "positions": [
                -0.6063250498138858,
                -1.4643948336049712,
                1.5632437713632963,
                -0.9531778142957663,
                -0.2949588420054051,
                -2.4793541034877684
            ]
        },
        {
            "positions": [
                -0.5022596876667988,
                -1.4195104392990614,
                1.6242857268764186,
                -0.9399583334286739,
                -0.233303630405533,
                -2.5723596829949527
            ]
        },
        {
            "positions": [
                -0.3981943255197118,
                -1.3746260449931516,
                1.685327682389541,
                -0.9267388525615815,
                -0.1716484188056609,
                -2.6653652625021373
            ]
        },
        {
            "positions": [
                -0.2941289633726248,
                -1.3297416506872415,
                1.746369637902663,
                -0.9135193716944892,
                -0.10999320720578876,
                -2.7583708420093216
            ]
        },
        {
            "positions": [
                -0.19006360122553778,
                -1.2848572563813314,
                1.807411593415785,
                -0.9002998908273967,
                -0.04833799560591662,
                -2.851376421516506
            ]
        },
        {
            "positions": [
                -0.08599823907845072,
                -1.2399728620754216,
                1.8684535489289074,
                -0.8870804099603044,
                0.013317215993955467,
                -2.9443820010236905
            ]
        },
        {
            "positions": [
                0.018067123068636226,
                -1.1950884677695117,
                1.9294955044420297,
                -0.8738609290932119,
                0.0749724275938276,
                -3.0373875805308748
            ]
        },
        {
            "positions": [
                0.12213248521572333,
                -1.1502040734636017,
                1.9905374599551517,
                -0.8606414482261195,
                0.13662763919369977,
                -3.130393160038059
            ]
        }
    ]
}