{
    "goal": {
        "global_pose": {
            "orientation": {
                "w": 0.5084816217422485,
                "x": -0.49083608388900757,
                "y": 0.5182115435600281,
                "z": -0.4816462993621826
            },
            "position": {
                "x": 0.5540239810943604,
                "y": 0.030875300988554955,
                "z": 0.16403168439865112
            }
        },
        "name": "move_to_storage_A"
    },
    "id": "LazyPRMstar_move_to_storage_A_25",
    "joint_names": [
        "shoulder_pan_joint",
        "shoulder_lift_joint",
        "elbow_joint",
        "wrist_1_joint",
        "wrist_2_joint",
        "wrist_3_joint"
    ],
    "metrics": {
        "cart_traj_len": 0.35316740015193904,
        "distance_elbow_joint": 0.45504846428006784,
        "distance_shoulder_lift_joint": 0.23414908492686326,
        "distance_shoulder_pan_joint": 0.46224950758318073,
        "distance_wrist_1_joint": 0.26282481722866613,
        "distance_wrist_2_joint": 1.0976891281264103,
        "distance_wrist_3_joint": 0.09756814738096953,
        "smoothness": 8.881784197001252e-16,
        "time": 5.0002040480000005,
        "traj_len": 1.6154037110042052,
        "weighted_distance": 2.040877112822615
    },
    "planner": "LazyPRMstar",
    "start": {
        "state": {
            "elbow_joint": 1.9715477243005601,
            "shoulder_lift_joint": -1.1394853015351272,
            "shoulder_pan_joint": 0.12281154014795169,
            "wrist_1_joint": -0.7804696478968182,
            "wrist_2_joint": 0.12958648046900423,
            "wrist_3_joint": -3.192491284697111
        }
    },
    "waypoints": [
        {
            "positions": [
                0.12281154014795169,
                -1.1394853015351272,
                1.9715477243005601,
                -0.7804696478968182,
                0.12958648046900423,
                -3.192491284697111
            ]
        },
        {
            "positions": [
                0.0567758962074973,
                -1.1729351708103934,
                2.036554647769141,
                -0.8180160503580561,
                0.28639921305849136,
                -3.178552977928401
            ]
        },
        {
            "positions": [
                -0.009259747732957083,
                -1.2063850400856595,
                2.1015615712377222,
                -0.8555624528192942,
                0.44321194564797856,
                -3.164614671159691
            ]
        },
        {
            "positions": [
                -0.07529539167341147,
                -1.2398349093609258,
                2.1665684947063033,
                -0.8931088552805322,
                0.6000246782374657,
                -3.150676364390981
            ]
        },
        {
            "positions": [
                -0.14133103561386584,
                -1.2732847786361918,
                2.2315754181748844,
                -0.9306552577417703,
                0.7568374108269529,
                -3.1367380576222716
            ]
        },
        {
            "positions": [
                -0.20736667955432025,
                -1.306734647911458,
                2.296582341643466,
                -0.9682016602030082,
                0.9136501434164401,
                -3.1227997508535617
            ]
        },
        {
            "positions": [
                -0.2734023234947746,
                -1.3401845171867242,
                2.361589265112047,
                -1.0057480626642463,
                1.0704628760059274,
                -3.1088614440848517
            ]
        },
        {
            "positions": [
                -0.339437967435229,
                -1.3736343864619904,
                2.426596188580628,
                -1.0432944651254843,
                1.2272756085954144,
                -3.0949231373161417
            ]
        }
    ]
}