{
    "goal": {
        "global_pose": {
            "orientation": {
                "w": 0.7047431468963623,
                "x": -0.7094548344612122,
                "y": 0.0024358443915843964,
                "z": -0.0022348060738295317
            },
            "position": {
                "x": 0.6094750761985779,
                "y": 0.3671506643295288,
                "z": 0.19426114857196808
            }
        },
        "name": "move_to_magneteinheit_A"
    },
    "id": "LazyPRMstar_move_to_magneteinheit_A_65",
    "joint_names": [
        "shoulder_pan_joint",
        "shoulder_lift_joint",
        "elbow_joint",
        "wrist_1_joint",
        "wrist_2_joint",
        "wrist_3_joint"
    ],
    "metrics": {
        "cart_traj_len": 3.6992546359436704,
        "distance_elbow_joint": 3.9038532628529397,
        "distance_shoulder_lift_joint": 0.1205721028959097,
        "distance_shoulder_pan_joint": 3.2535358016724327,
        "distance_wrist_1_joint": 0.7180805898551801,
        "distance_wrist_2_joint": 1.7045390029819136,
        "distance_wrist_3_joint": 3.5909137225733017,
        "smoothness": 0.07412514607673162,
        "time": 5.013838669,
        "traj_len": 3.6457501947927917,
        "weighted_distance": 4.784970378258926
    },
    "planner": "LazyPRMstar",
    "start": {
        "state": {
            "elbow_joint": -1.919618573717145,
            "shoulder_lift_joint": -1.2443395971678275,
            "shoulder_pan_joint": 2.6996025300909787,
            "wrist_1_joint": -1.548550951253194,
            "wrist_2_joint": -1.5709469090946802,
            "wrist_3_joint": 0.4420197732051276
        }
    },
    "waypoints": [
        {
            "positions": [
                2.6996025300909787,
                -1.2443395971678275,
                -1.919618573717145,
                -1.548550951253194,
                -1.5709469090946802,
                0.4420197732051276
            ]
        },
        {
            "positions": [
                2.5728705541926002,
                -1.2448146032275653,
                -1.787353964633248,
                -1.5467499227727233,
                -1.5256014138711198,
                0.3576610756802468
            ]
        },
        {
            "positions": [
                2.4461385782942218,
                -1.245289609287303,
                -1.655089355549351,
                -1.5449488942922522,
                -1.4802559186475592,
                0.27330237815536607
            ]
        },
        {
            "positions": [
                2.3194066023958433,
                -1.2457646153470407,
                -1.522824746465454,
                -1.5431478658117814,
                -1.4349104234239989,
                0.18894368063048522
            ]
        },
        {
            "positions": [
                2.192674626497465,
                -1.2462396214067784,
                -1.390560137381557,
                -1.5413468373313106,
                -1.3895649282004383,
                0.10458498310560449
            ]
        },
        {
            "positions": [
                2.0659426505990863,
                -1.2467146274665162,
                -1.2582955282976602,
                -1.5395458088508396,
                -1.344219432976878,
                0.020226285580723702
            ]
        },
        {
            "positions": [
                1.9392106747007076,
                -1.247189633526254,
                -1.1260309192137634,
                -1.5377447803703688,
                -1.2988739377533174,
                -0.06413241194415714
            ]
        },
        {
            "positions": [
                1.812478698802329,
                -1.2476646395859916,
                -0.9937663101298663,
                -1.535943751889898,
                -1.253528442529757,
                -0.14849110946903793
            ]
        },
        {
            "positions": [
                1.6857467229039507,
                -1.2481396456457294,
                -0.8615017010459693,
                -1.534142723409427,
                -1.2081829473061965,
                -0.2328498069939186
            ]
        },
        {
            "positions": [
                1.559014747005572,
                -1.248614651705467,
                -0.7292370919620723,
                -1.532341694928956,
                -1.162837452082636,
                -0.3172085045187995
            ]
        },
        {
            "positions": [
                1.4322827711071935,
                -1.2490896577652049,
                -0.5969724828781755,
                -1.5305406664484853,
                -1.1174919568590755,
                -0.4015672020436802
            ]
        },
        {
            "positions": [
                1.305550795208815,
                -1.2495646638249427,
                -0.46470787379427847,
                -1.5287396379680143,
                -1.0721464616355152,
                -0.4859258995685611
            ]
        },
        {
            "positions": [
                1.1788188193104365,
                -1.2500396698846803,
                -0.33244326471038166,
                -1.5269386094875435,
                -1.0268009664119546,
                -0.5702845970934418
            ]
        },
        {
            "positions": [
                1.052086843412058,
                -1.2505146759444181,
                -0.20017865562648485,
                -1.5251375810070724,
                -0.9814554711883943,
                -0.6546432946183225
            ]
        },
        {
            "positions": [
                0.9253548675136793,
                -1.250989682004156,
                -0.06791404654258759,
                -1.5233365525266016,
                -0.9361099759648337,
                -0.7390019921432034
            ]
        },
        {
            "positions": [
                0.7986228916153009,
                -1.2514646880638935,
                0.06435056254130922,
                -1.5215355240461308,
                -0.8907644807412733,
                -0.8233606896680841
            ]
        },
        {
            "positions": [
                0.6718909157169226,
                -1.2519396941236314,
                0.19661517162520625,
                -1.5197344955656598,
                -0.8454189855177129,
                -0.9077193871929647
            ]
        },
        {
            "positions": [
                0.5451589398185441,
                -1.252414700183369,
                0.32887978070910306,
                -1.517933467085189,
                -0.8000734902941524,
                -0.9920780847178456
            ]
        },
        {
            "positions": [
                0.4184269639201652,
                -1.2528897062431068,
                0.4611443897930003,
                -1.5161324386047181,
                -0.7547279950705919,
                -1.0764367822427265
            ]
        },
        {
            "positions": [
                0.2916949880217867,
                -1.2533647123028446,
                0.5934089988768971,
                -1.514331410124247,
                -0.7093824998470315,
                -1.1607954797676072
            ]
        },
        {
            "positions": [
                0.16496301212340825,
                -1.2538397183625822,
                0.7256736079607939,
                -1.5125303816437763,
                -0.664037004623471,
                -1.245154177292488
            ]
        },
        {
            "positions": [
                0.03823103622503021,
                -1.25431472442232,
                0.8579382170446908,
                -1.5107293531633055,
                -0.6186915093999106,
                -1.3295128748173688
            ]
        },
        {
            "positions": [
                -0.08850093967334871,
                -1.2547897304820577,
                0.990202826128588,
                -1.5089283246828344,
                -0.5733460141763501,
                -1.4138715723422497
            ]
        },
        {
            "positions": [
                -0.21523291557172736,
                -1.2552647365417955,
                1.1224674352124846,
                -1.5071272962023636,
                -0.5280005189527897,
                -1.4982302698671304
            ]
        },
        {
            "positions": [
                -0.18444197411629767,
                -1.2452968307670735,
                1.2008099128418765,
                -1.4456130294019682,
                -0.4678557359673331,
                -1.6482906043672252
            ]
        },
        {
            "positions": [
                -0.153651032660868,
                -1.2353289249923516,
                1.2791523904712683,
                -1.3840987626015728,
                -0.4077109529818765,
                -1.79835093886732
            ]
        },
        {
            "positions": [
                -0.1228600912054383,
                -1.2253610192176296,
                1.3574948681006602,
                -1.3225844958011774,
                -0.3475661699964199,
                -1.948411273367415
            ]
        },
        {
            "positions": [
                -0.0920691497500086,
                -1.2153931134429077,
                1.435837345730052,
                -1.261070229000782,
                -0.2874213870109633,
                -2.09847160786751
            ]
        },
        {
            "positions": [
                -0.06127820829457892,
                -1.2054252076681857,
                1.514179823359444,
                -1.1995559622003866,
                -0.22727660402550676,
                -2.2485319423676047
            ]
        },
        {
            "positions": [
                -0.030487266839149235,
                -1.1954573018934636,
                1.5925223009888356,
                -1.1380416953999912,
                -0.1671318210400502,
                -2.3985922768676997
            ]
        },
        {
            "positions": [
                0.0003036746162804749,
                -1.1854893961187416,
                1.6708647786182276,
                -1.0765274285995958,
                -0.10698703805459364,
                -2.5486526113677943
            ]
        },
        {
            "positions": [
                0.031094616071710157,
                -1.1755214903440196,
                1.7492072562476193,
                -1.0150131617992002,
                -0.04684225506913703,
                -2.6987129458678893
            ]
        },
        {
            "positions": [
                0.06188555752713987,
                -1.1655535845692977,
                1.8275497338770113,
                -0.9534988949988048,
                0.013302527916319584,
                -2.8487732803679844
            ]
        },
        {
            "positions": [
                0.09267649898256952,
                -1.1555856787945757,
                1.9058922115064032,
                -0.8919846281984094,
                0.07344731090177614,
                -2.9988336148680794
            ]
        },
        {
            "positions": [
                0.12346744043799922,
                -1.1456177730198538,
                1.984234689135795,
                -0.830470361398014,
                0.13359209388723267,
                -3.148893949368174
            ]
        }
    ]
}{
    "goal": {
        "global_pose": {
            "orientation": {
                "w": 0.7047431468963623,
                "x": -0.7094548344612122,
                "y": 0.0024358443915843964,
                "z": -0.0022348060738295317
            },
            "position": {
                "x": 0.6094750761985779,
                "y": 0.3671506643295288,
                "z": 0.19426114857196808
            }
        },
        "name": "move_to_magneteinheit_A"
    },
    "id": "LazyPRMstar_move_to_magneteinheit_A_65",
    "joint_names": [
        "shoulder_pan_joint",
        "shoulder_lift_joint",
        "elbow_joint",
        "wrist_1_joint",
        "wrist_2_joint",
        "wrist_3_joint"
    ],
    "metrics": {
        "cart_traj_len": 1.155462012109275,
        "distance_elbow_joint": 0.1889681205361433,
        "distance_shoulder_lift_joint": 0.7556252835042336,
        "distance_shoulder_pan_joint": 1.2414153398168741,
        "distance_wrist_1_joint": 1.4017447534773415,
        "distance_wrist_2_joint": 1.44042417925779,
        "distance_wrist_3_joint": 4.285836501234325,
        "smoothness": 0.11727141884458343,
        "time": 5.0318158639999995,
        "traj_len": 3.0518869864113105,
        "weighted_distance": 4.552785533388377
    },
    "planner": "LazyPRMstar",
    "start": {
        "state": {
            "elbow_joint": 1.919643534880228,
            "shoulder_lift_joint": -1.8972525353963687,
            "shoulder_pan_joint": -1.1188672234189438,
            "wrist_1_joint": -1.5931878212786155,
            "wrist_2_joint": 1.5706036197970081,
            "wrist_3_joint": 1.118896926603594
        }
    },
    "waypoints": [
        {
            "positions": [
                -1.1188672234189438,
                -1.8972525353963687,
                1.919643534880228,
                -1.5931878212786155,
                1.5706036197970081,
                1.118896926603594
            ]
        },
        {
            "positions": [
                -1.0685517410823837,
                -1.8751518271312426,
                1.9152425455875894,
                -1.520132828422944,
                1.489370599608442,
                0.9798674719793012
            ]
        },
        {
            "positions": [
                -1.0182362587458234,
                -1.8530511188661167,
                1.9108415562949506,
                -1.4470778355672727,
                1.4081375794198758,
                0.8408380173550086
            ]
        },
        {
            "positions": [
                -0.9679207764092632,
                -1.8309504106009906,
                1.906440567002312,
                -1.3740228427116012,
                1.3269045592313096,
                0.701808562730716
            ]
        },
        {
            "positions": [
                -0.917605294072703,
                -1.8088497023358645,
                1.9020395777096732,
                -1.30096784985593,
                1.2456715390427435,
                0.5627791081064233
            ]
        },
        {
            "positions": [
                -0.8672898117361428,
                -1.7867489940707384,
                1.8976385884170344,
                -1.2279128570002587,
                1.1644385188541775,
                0.4237496534821307
            ]
        },
        {
            "positions": [
                -0.8169743293995826,
                -1.7646482858056125,
                1.8932375991243957,
                -1.1548578641445872,
                1.0832054986656112,
                0.28472019885783795
            ]
        },
        {
            "positions": [
                -0.7666588470630225,
                -1.7425475775404864,
                1.888836609831757,
                -1.0818028712889158,
                1.001972478477045,
                0.14569074423354533
            ]
        },
        {
            "positions": [
                -0.7163433647264621,
                -1.7204468692753603,
                1.8844356205391182,
                -1.0087478784332444,
                0.920739458288479,
                0.0066612896092526075
            ]
        },
        {
            "positions": [
                -0.666027882389902,
                -1.6983461610102342,
                1.8800346312464795,
                -0.9356928855775731,
                0.8395064380999129,
                -0.1323681650150399
            ]
        },
        {
            "positions": [
                -0.6157124000533418,
                -1.6762454527451083,
                1.8756336419538409,
                -0.8626378927219017,
                0.7582734179113467,
                -0.2713976196393326
            ]
        },
        {
            "positions": [
                -0.5653969177167816,
                -1.6541447444799822,
                1.871232652661202,
                -0.7895828998662303,
                0.6770403977227806,
                -0.41042707426362535
            ]
        },
        {
            "positions": [
                -0.5150814353802213,
                -1.632044036214856,
                1.8668316633685633,
                -0.7165279070105589,
                0.5958073775342143,
                -0.5494565288879181
            ]
        },
        {
            "positions": [
                -0.4647659530436611,
                -1.60994332794973,
                1.8624306740759247,
                -0.6434729141548875,
                0.5145743573456483,
                -0.6884859835122108
            ]
        },
        {
            "positions": [
                -0.41445047070710095,
                -1.587842619684604,
                1.8580296847832858,
                -0.5704179212992162,
                0.433341337157082,
                -0.8275154381365033
            ]
        },
        {
            "positions": [
                -0.36413498837054065,
                -1.565741911419478,
                1.8536286954906471,
                -0.4973629284435447,
                0.352108316968516,
                -0.9665448927607959
            ]
        },
        {
            "positions": [
                -0.31546667789369354,
                -1.5233304454667436,
                1.8659240236053034,
                -0.5279549145077718,
                0.32991542932558626,
                -1.1865843609477895
            ]
        },
        {
            "positions": [
                -0.2667983674168464,
                -1.4809189795140094,
                1.8782193517199597,
                -0.558546900571999,
                0.30772254168265656,
                -1.4066238291347832
            ]
        },
        {
            "positions": [
                -0.21813005693999932,
                -1.438507513561275,
                1.8905146798346157,
                -0.5891388866362262,
                0.28552965403972685,
                -1.6266632973217767
            ]
        },
        {
            "positions": [
                -0.16946174646315218,
                -1.3960960476085407,
                1.902810007949272,
                -0.6197308727004532,
                0.2633367663967971,
                -1.8467027655087704
            ]
        },
        {
            "positions": [
                -0.12079343598630507,
                -1.3536845816558065,
                1.9151053360639283,
                -0.6503228587646803,
                0.24114387875386734,
                -2.066742233695764
            ]
        },
        {
            "positions": [
                -0.07212512550945799,
                -1.3112731157030724,
                1.9274006641785846,
                -0.6809148448289075,
                0.21895099111093763,
                -2.2867817018827576
            ]
        },
        {
            "positions": [
                -0.023456815032610878,
                -1.268861649750338,
                1.9396959922932409,
                -0.7115068308931347,
                0.1967581034680079,
                -2.506821170069751
            ]
        },
        {
            "positions": [
                0.025211495444236287,
                -1.2264501837976036,
                1.951991320407897,
                -0.7420988169573618,
                0.17456521582507814,
                -2.726860638256745
            ]
        },
        {
            "positions": [
                0.0738798059210834,
                -1.1840387178448695,
                1.9642866485225532,
                -0.7726908030215889,
                0.1523723281821484,
                -2.9469001064437386
            ]
        },
        {
            "positions": [
                0.12254811639793049,
                -1.141627251892135,
                1.9765819766372095,
                -0.8032827890858161,
                0.13017944053921868,
                -3.166939574630732
            ]
        }
    ]
}