{
    "goal": {
        "global_pose": {
            "orientation": {
                "w": 0.7047431468963623,
                "x": -0.7094548344612122,
                "y": 0.0024358443915843964,
                "z": -0.0022348060738295317
            },
            "position": {
                "x": 0.6094750761985779,
                "y": 0.3671506643295288,
                "z": 0.19426114857196808
            }
        },
        "name": "move_to_magneteinheit_A"
    },
    "id": "LazyPRMstar_move_to_magneteinheit_A_58",
    "joint_names": [
        "shoulder_pan_joint",
        "shoulder_lift_joint",
        "elbow_joint",
        "wrist_1_joint",
        "wrist_2_joint",
        "wrist_3_joint"
    ],
    "metrics": {
        "cart_traj_len": 3.812489953565149,
        "distance_elbow_joint": 4.078393706224417,
        "distance_shoulder_lift_joint": 0.8600801118166622,
        "distance_shoulder_pan_joint": 3.3947590737620064,
        "distance_wrist_1_joint": 3.53364503410361,
        "distance_wrist_2_joint": 1.8868145635981095,
        "distance_wrist_3_joint": 0.5186079038888406,
        "smoothness": 0.3739472567441955,
        "time": 5.030155748,
        "traj_len": 3.777869822187319,
        "weighted_distance": 4.55301831743219
    },
    "planner": "LazyPRMstar",
    "start": {
        "state": {
            "elbow_joint": -1.919618573717145,
            "shoulder_lift_joint": -1.2443395971678275,
            "shoulder_pan_joint": 2.6996025300909787,
            "wrist_1_joint": -1.548550951253194,
            "wrist_2_joint": -1.5709469090946802,
            "wrist_3_joint": 0.4420197732051276
        }
    },
    "waypoints": [
        {
            "positions": [
                2.6996025300909787,
                -1.2443395971678275,
                -1.919618573717145,
                -1.548550951253194,
                -1.5709469090946802,
                0.4420197732051276
            ]
        },
        {
            "positions": [
                2.588455855161748,
                -1.2411295428354012,
                -1.7989753336602077,
                -1.4765418066497795,
                -1.5102081066442061,
                0.42543075174578904
            ]
        },
        {
            "positions": [
                2.4773091802325173,
                -1.237919488502975,
                -1.6783320936032702,
                -1.4045326620463652,
                -1.4494693041937319,
                0.40884173028645043
            ]
        },
        {
            "positions": [
                2.3661625053032864,
                -1.234709434170549,
                -1.557688853546333,
                -1.3325235174429508,
                -1.3887305017432579,
                0.3922527088271119
            ]
        },
        {
            "positions": [
                2.2550158303740555,
                -1.2314993798381226,
                -1.4370456134893956,
                -1.2605143728395363,
                -1.3279916992927836,
                0.3756636873677733
            ]
        },
        {
            "positions": [
                2.143869155444825,
                -1.2282893255056964,
                -1.3164023734324584,
                -1.1885052282361217,
                -1.2672528968423096,
                0.35907466590843473
            ]
        },
        {
            "positions": [
                2.032722480515594,
                -1.22507927117327,
                -1.1957591333755209,
                -1.1164960836327074,
                -1.2065140943918353,
                0.3424856444490961
            ]
        },
        {
            "positions": [
                1.9215758055863632,
                -1.221869216840844,
                -1.0751158933185834,
                -1.0444869390292928,
                -1.1457752919413613,
                0.3258966229897575
            ]
        },
        {
            "positions": [
                1.8104291306571327,
                -1.2186591625084178,
                -0.9544726532616462,
                -0.9724777944258785,
                -1.085036489490887,
                0.309307601530419
            ]
        },
        {
            "positions": [
                1.6992824557279018,
                -1.2154491081759915,
                -0.8338294132047088,
                -0.9004686498224639,
                -1.0242976870404128,
                0.2927185800710804
            ]
        },
        {
            "positions": [
                1.5881357807986711,
                -1.2122390538435652,
                -0.7131861731477716,
                -0.8284595052190495,
                -0.9635588845899389,
                0.2761295586117418
            ]
        },
        {
            "positions": [
                1.4769891058694402,
                -1.209028999511139,
                -0.5925429330908341,
                -0.756450360615635,
                -0.9028200821394646,
                0.2595405371524032
            ]
        },
        {
            "positions": [
                1.3658424309402097,
                -1.205818945178713,
                -0.4718996930338968,
                -0.6844412160122206,
                -0.8420812796889906,
                0.2429515156930647
            ]
        },
        {
            "positions": [
                1.254695756010979,
                -1.2026088908462866,
                -0.3512564529769595,
                -0.6124320714088062,
                -0.7813424772385165,
                0.22636249423372612
            ]
        },
        {
            "positions": [
                1.143549081081748,
                -1.1993988365138604,
                -0.23061321292002201,
                -0.5404229268053915,
                -0.7206036747880422,
                0.20977347277438751
            ]
        },
        {
            "positions": [
                1.0324024061525172,
                -1.196188782181434,
                -0.10996997286308474,
                -0.46841378220197716,
                -0.6598648723375682,
                0.19318445131504897
            ]
        },
        {
            "positions": [
                0.9212557312232865,
                -1.1929787278490078,
                0.010673267193852531,
                -0.3964046375985628,
                -0.599126069887094,
                0.17659542985571036
            ]
        },
        {
            "positions": [
                0.8101090562940558,
                -1.1897686735165818,
                0.13131650725079003,
                -0.32439549299514825,
                -0.5383872674366199,
                0.1600064083963718
            ]
        },
        {
            "positions": [
                0.6989623813648249,
                -1.1865586191841555,
                0.2519597473077273,
                -0.2523863483917337,
                -0.47764846498614566,
                0.1434173869370332
            ]
        },
        {
            "positions": [
                0.5878157064355944,
                -1.1833485648517292,
                0.3726029873646646,
                -0.18037720378831934,
                -0.41690966253567163,
                0.12682836547769466
            ]
        },
        {
            "positions": [
                0.4766690315063635,
                -1.180138510519303,
                0.49324622742160185,
                -0.108368059184905,
                -0.3561708600851976,
                0.11023934401835611
            ]
        },
        {
            "positions": [
                0.36552235657713306,
                -1.176928456186877,
                0.6138894674785391,
                -0.03635891458149043,
                -0.29543205763472336,
                0.09365032255901751
            ]
        },
        {
            "positions": [
                0.2543756816479017,
                -1.1737184018544506,
                0.7345327075354768,
                0.035650230021924134,
                -0.2346932551842491,
                0.0770613010996789
            ]
        },
        {
            "positions": [
                0.1432290067186713,
                -1.1705083475220244,
                0.8551759475924141,
                0.10765937462533845,
                -0.17395445273377502,
                0.060472279640340326
            ]
        },
        {
            "positions": [
                0.05740372539013519,
                -1.0534079484295065,
                0.8404985293898296,
                0.2172852060718246,
                -0.21836448168638362,
                0.05968134698572965
            ]
        },
        {
            "positions": [
                -0.028421555938400928,
                -0.9363075493369888,
                0.825821111187245,
                0.32691103751831074,
                -0.2627745106389922,
                0.05889041433111896
            ]
        },
        {
            "positions": [
                -0.11424683726693699,
                -0.8192071502444709,
                0.8111436929846605,
                0.4365368689647968,
                -0.30718453959160075,
                0.05809948167650828
            ]
        },
        {
            "positions": [
                -0.20007211859547316,
                -0.7021067511519531,
                0.7964662747820759,
                0.546162700411283,
                -0.35159456854420934,
                0.057308549021897595
            ]
        },
        {
            "positions": [
                -0.2858973999240092,
                -0.5850063520594353,
                0.7817888565794914,
                0.6557885318577692,
                -0.39600459749681793,
                0.056517616367286916
            ]
        },
        {
            "positions": [
                -0.24497148554930745,
                -0.6050810387302623,
                0.9048100659696849,
                0.788719086957034,
                -0.3692274012494018,
                0.04320704166218692
            ]
        },
        {
            "positions": [
                -0.2040455711746057,
                -0.6251557254010893,
                1.0278312753598784,
                0.9216496420562987,
                -0.3424502050019857,
                0.02989646695708692
            ]
        },
        {
            "positions": [
                -0.16311965679990398,
                -0.6452304120719163,
                1.1508524847500718,
                1.0545801971555633,
                -0.31567300875456955,
                0.016585892251986922
            ]
        },
        {
            "positions": [
                -0.1221937424252022,
                -0.6653050987427434,
                1.2738736941402653,
                1.1875107522548283,
                -0.28889581250715346,
                0.0032753175468869244
            ]
        },
        {
            "positions": [
                -0.08126782805050048,
                -0.6853797854135704,
                1.396894903530459,
                1.3204413073540928,
                -0.2621186162597373,
                -0.010035257158213073
            ]
        },
        {
            "positions": [
                -0.04034191367579876,
                -0.7054544720843973,
                1.5199161129206522,
                1.4533718624533574,
                -0.2353414200123212,
                -0.02334583186331307
            ]
        },
        {
            "positions": [
                0.0005840006989029645,
                -0.7255291587552243,
                1.6429373223108459,
                1.5863024175526221,
                -0.20856422376490508,
                -0.03665640656841307
            ]
        },
        {
            "positions": [
                0.0415099150736048,
                -0.7456038454260513,
                1.7659585317010396,
                1.7192329726518871,
                -0.18178702751748893,
                -0.04996698127351307
            ]
        },
        {
            "positions": [
                0.08243582944830652,
                -0.7656785320968783,
                1.8889797410912328,
                1.8521635277511517,
                -0.1550098312700728,
                -0.06327755597861306
            ]
        },
        {
            "positions": [
                0.12336174382300827,
                -0.7857532187677053,
                2.0120009504814265,
                1.9850940828504164,
                -0.12823263502265672,
                -0.07658813068371305
            ]
        }
    ]
}{
    "goal": {
        "global_pose": {
            "orientation": {
                "w": 0.7047431468963623,
                "x": -0.7094548344612122,
                "y": 0.0024358443915843964,
                "z": -0.0022348060738295317
            },
            "position": {
                "x": 0.6094750761985779,
                "y": 0.3671506643295288,
                "z": 0.19426114857196808
            }
        },
        "name": "move_to_magneteinheit_A"
    },
    "id": "LazyPRMstar_move_to_magneteinheit_A_58",
    "joint_names": [
        "shoulder_pan_joint",
        "shoulder_lift_joint",
        "elbow_joint",
        "wrist_1_joint",
        "wrist_2_joint",
        "wrist_3_joint"
    ],
    "metrics": {
        "cart_traj_len": 1.2040088850858297,
        "distance_elbow_joint": 0.06263558354357057,
        "distance_shoulder_lift_joint": 0.7607204248371369,
        "distance_shoulder_pan_joint": 1.2429686954149721,
        "distance_wrist_1_joint": 0.8362659495866663,
        "distance_wrist_2_joint": 1.442159998404777,
        "distance_wrist_3_joint": 4.3222355496925235,
        "smoothness": 0.009657483194099906,
        "time": 5.042913888,
        "traj_len": 2.9439745585652823,
        "weighted_distance": 4.4260460061838645
    },
    "planner": "LazyPRMstar",
    "start": {
        "state": {
            "elbow_joint": 1.919643534880228,
            "shoulder_lift_joint": -1.8972525353963687,
            "shoulder_pan_joint": -1.1188672234189438,
            "wrist_1_joint": -1.5931878212786155,
            "wrist_2_joint": 1.5706036197970081,
            "wrist_3_joint": 1.118896926603594
        }
    },
    "waypoints": [
        {
            "positions": [
                -1.1188672234189438,
                -1.8972525353963687,
                1.919643534880228,
                -1.5931878212786155,
                1.5706036197970081,
                1.118896926603594
            ]
        },
        {
            "positions": [
                -1.063635314464518,
                -1.8633810374390898,
                1.9222260841096102,
                -1.5570867132332302,
                1.5081622887660047,
                0.9131564356853444
            ]
        },
        {
            "positions": [
                -1.0084034055100926,
                -1.8295095394818108,
                1.9248086333389922,
                -1.520985605187845,
                1.445720957735001,
                0.7074159447670949
            ]
        },
        {
            "positions": [
                -0.9531714965556669,
                -1.7956380415245319,
                1.9273911825683745,
                -1.4848844971424597,
                1.3832796267039975,
                0.5016754538488454
            ]
        },
        {
            "positions": [
                -0.8979395876012413,
                -1.761766543567253,
                1.9299737317977566,
                -1.4487833890970745,
                1.3208382956729938,
                0.29593496293059574
            ]
        },
        {
            "positions": [
                -0.8427076786468155,
                -1.727895045609974,
                1.9325562810271386,
                -1.4126822810516892,
                1.2583969646419904,
                0.0901944720123462
            ]
        },
        {
            "positions": [
                -0.78747576969239,
                -1.694023547652695,
                1.9351388302565207,
                -1.376581173006304,
                1.1959556336109867,
                -0.11554601890590321
            ]
        },
        {
            "positions": [
                -0.7322438607379642,
                -1.660152049695416,
                1.937721379485903,
                -1.3404800649609188,
                1.1335143025799832,
                -0.32128650982415285
            ]
        },
        {
            "positions": [
                -0.6770119517835386,
                -1.6262805517381371,
                1.940303928715285,
                -1.3043789569155337,
                1.0710729715489795,
                -0.5270270007424025
            ]
        },
        {
            "positions": [
                -0.6217800428291129,
                -1.5924090537808582,
                1.942886477944667,
                -1.2682778488701483,
                1.008631640517976,
                -0.7327674916606519
            ]
        },
        {
            "positions": [
                -0.5665481338746873,
                -1.558537555823579,
                1.9454690271740491,
                -1.2321767408247633,
                0.9461903094869725,
                -0.9385079825789016
            ]
        },
        {
            "positions": [
                -0.5113162249202615,
                -1.5246660578663,
                1.9480515764034314,
                -1.1960756327793778,
                0.8837489784559688,
                -1.1442484734971512
            ]
        },
        {
            "positions": [
                -0.456084315965836,
                -1.490794559909021,
                1.9506341256328135,
                -1.1599745247339928,
                0.8213076474249653,
                -1.3499889644154004
            ]
        },
        {
            "positions": [
                -0.40085240701141023,
                -1.4569230619517421,
                1.9532166748621955,
                -1.1238734166886073,
                0.7588663163939616,
                -1.5557294553336505
            ]
        },
        {
            "positions": [
                -0.3456204980569846,
                -1.4230515639944632,
                1.9557992240915776,
                -1.0877723086432223,
                0.6964249853629582,
                -1.7614699462518997
            ]
        },
        {
            "positions": [
                -0.29038858910255894,
                -1.3891800660371842,
                1.9583817733209599,
                -1.0516712005978368,
                0.6339836543319546,
                -1.9672104371701493
            ]
        },
        {
            "positions": [
                -0.2351566801481333,
                -1.3553085680799053,
                1.960964322550342,
                -1.0155700925524518,
                0.571542323300951,
                -2.172950928088399
            ]
        },
        {
            "positions": [
                -0.17992477119370753,
                -1.3214370701226263,
                1.963546871779724,
                -0.9794689845070665,
                0.5091009922699474,
                -2.378691419006649
            ]
        },
        {
            "positions": [
                -0.124692862239282,
                -1.2875655721653474,
                1.966129421009106,
                -0.9433678764616813,
                0.44665966123894396,
                -2.5844319099248976
            ]
        },
        {
            "positions": [
                -0.06946095328485624,
                -1.2536940742080684,
                1.9687119702384883,
                -0.907266768416296,
                0.3842183302079403,
                -2.790172400843147
            ]
        },
        {
            "positions": [
                -0.014229044330430707,
                -1.2198225762507895,
                1.9712945194678704,
                -0.8711656603709108,
                0.3217769991769368,
                -2.995912891761397
            ]
        },
        {
            "positions": [
                0.041002864623995036,
                -1.1859510782935105,
                1.9738770686972524,
                -0.8350645523255256,
                0.25933566814593306,
                -3.2016533826796465
            ]
        },
        {
            "positions": [
                0.12410147199602817,
                -1.1365321105592319,
                1.9654750189707062,
                -0.7569218716919491,
                0.12844362139223112,
                -3.2033386230889294
            ]
        }
    ]
}