{
    "goal": {
        "global_pose": {
            "orientation": {
                "w": 0.7047431468963623,
                "x": -0.7094548344612122,
                "y": 0.0024358443915843964,
                "z": -0.0022348060738295317
            },
            "position": {
                "x": 0.6094750761985779,
                "y": 0.3671506643295288,
                "z": 0.19426114857196808
            }
        },
        "name": "move_to_magneteinheit_A"
    },
    "id": "LazyPRM_move_to_magneteinheit_A_39",
    "joint_names": [
        "shoulder_pan_joint",
        "shoulder_lift_joint",
        "elbow_joint",
        "wrist_1_joint",
        "wrist_2_joint",
        "wrist_3_joint"
    ],
    "metrics": {
        "cart_traj_len": 3.3282624310593625,
        "distance_elbow_joint": 3.8784557919862124,
        "distance_shoulder_lift_joint": 1.2958370959640142,
        "distance_shoulder_pan_joint": 2.8318652553947095,
        "distance_wrist_1_joint": 1.3423098980248236,
        "distance_wrist_2_joint": 1.710566840665881,
        "distance_wrist_3_joint": 2.5937396707743567,
        "smoothness": 0.14446384823406958,
        "time": 0.105934972,
        "traj_len": 3.6949661098324023,
        "weighted_distance": 4.679009578217319
    },
    "planner": "LazyPRM",
    "start": {
        "state": {
            "elbow_joint": -1.919618573717145,
            "shoulder_lift_joint": -1.2443395971678275,
            "shoulder_pan_joint": 2.6996025300909787,
            "wrist_1_joint": -1.548550951253194,
            "wrist_2_joint": -1.5709469090946802,
            "wrist_3_joint": 0.4420197732051276
        }
    },
    "waypoints": [
        {
            "positions": [
                2.6996025300909787,
                -1.2443395971678275,
                -1.919618573717145,
                -1.548550951253194,
                -1.5709469090946802,
                0.4420197732051276
            ]
        },
        {
            "positions": [
                2.567429212180977,
                -1.2772019005686208,
                -1.8148657671680006,
                -1.4880507271927232,
                -1.5225488175875572,
                0.4427448659512252
            ]
        },
        {
            "positions": [
                2.435255894270975,
                -1.3100642039694141,
                -1.7101129606188563,
                -1.4275505031322522,
                -1.474150726080434,
                0.44346995869732286
            ]
        },
        {
            "positions": [
                2.3030825763609735,
                -1.3429265073702075,
                -1.605360154069712,
                -1.3670502790717811,
                -1.4257526345733111,
                0.4441950514434205
            ]
        },
        {
            "positions": [
                2.1709092584509717,
                -1.3757888107710006,
                -1.5006073475205677,
                -1.3065500550113103,
                -1.377354543066188,
                0.4449201441895181
            ]
        },
        {
            "positions": [
                2.0387359405409704,
                -1.408651114171794,
                -1.3958545409714234,
                -1.2460498309508394,
                -1.328956451559065,
                0.4456452369356157
            ]
        },
        {
            "positions": [
                1.9065626226309687,
                -1.4415134175725872,
                -1.2911017344222793,
                -1.1855496068903684,
                -1.2805583600519421,
                0.44637032968171336
            ]
        },
        {
            "positions": [
                1.774389304720967,
                -1.4743757209733805,
                -1.186348927873135,
                -1.1250493828298973,
                -1.232160268544819,
                0.447095422427811
            ]
        },
        {
            "positions": [
                1.6422159868109651,
                -1.5072380243741739,
                -1.0815961213239906,
                -1.0645491587694265,
                -1.1837621770376958,
                0.4478205151739086
            ]
        },
        {
            "positions": [
                1.5100426689009634,
                -1.540100327774967,
                -0.9768433147748462,
                -1.0040489347089556,
                -1.1353640855305729,
                0.4485456079200062
            ]
        },
        {
            "positions": [
                1.3778693509909616,
                -1.5729626311757605,
                -0.8720905082257018,
                -0.9435487106484846,
                -1.08696599402345,
                0.44927070066610386
            ]
        },
        {
            "positions": [
                1.2456960330809599,
                -1.6058249345765536,
                -0.7673377016765575,
                -0.8830484865880136,
                -1.0385679025163268,
                0.4499957934122015
            ]
        },
        {
            "positions": [
                1.1135227151709584,
                -1.638687237977347,
                -0.6625848951274134,
                -0.8225482625275427,
                -0.9901698110092039,
                0.4507208861582991
            ]
        },
        {
            "positions": [
                0.9813493972609566,
                -1.6715495413781403,
                -0.557832088578269,
                -0.7620480384670717,
                -0.9417717195020808,
                0.45144597890439675
            ]
        },
        {
            "positions": [
                0.8491760793509548,
                -1.7044118447789336,
                -0.45307928202912473,
                -0.7015478144066007,
                -0.8933736279949577,
                0.45217107165049436
            ]
        },
        {
            "positions": [
                0.7170027614409531,
                -1.737274148179727,
                -0.3483264754799804,
                -0.6410475903461298,
                -0.8449755364878346,
                0.45289616439659197
            ]
        },
        {
            "positions": [
                0.5848294435309516,
                -1.77013645158052,
                -0.2435736689308361,
                -0.5805473662856588,
                -0.7965774449807117,
                0.4536212571426896
            ]
        },
        {
            "positions": [
                0.4526561256209498,
                -1.8029987549813133,
                -0.13882086238169178,
                -0.520047142225188,
                -0.7481793534735887,
                0.45434634988878725
            ]
        },
        {
            "positions": [
                0.32048280771094817,
                -1.8358610583821067,
                -0.03406805583254738,
                -0.45954691816471693,
                -0.6997812619664656,
                0.45507144263488486
            ]
        },
        {
            "positions": [
                0.3001358964274587,
                -1.797071430292558,
                0.08300403956514346,
                -0.4679929529115843,
                -0.6475801839070046,
                0.6018401747309361
            ]
        },
        {
            "positions": [
                0.27978898514396927,
                -1.7582818022030091,
                0.2000761349628343,
                -0.4764389876584517,
                -0.5953791058475436,
                0.7486089068269874
            ]
        },
        {
            "positions": [
                0.2594420738604798,
                -1.7194921741134601,
                0.3171482303605252,
                -0.48488502240531905,
                -0.5431780277880826,
                0.8953776389230387
            ]
        },
        {
            "positions": [
                0.23909516257699034,
                -1.6807025460239113,
                0.434220325758216,
                -0.49333105715218645,
                -0.49097694972862155,
                1.04214637101909
            ]
        },
        {
            "positions": [
                0.2187482512935009,
                -1.6419129179343626,
                0.5512924211559068,
                -0.5017770918990538,
                -0.43877587166916054,
                1.188915103115141
            ]
        },
        {
            "positions": [
                0.19840134001001142,
                -1.6031232898448136,
                0.6683645165535977,
                -0.5102231266459212,
                -0.3865747936096995,
                1.3356838352111926
            ]
        },
        {
            "positions": [
                0.17805442872652197,
                -1.5643336617552648,
                0.7854366119512886,
                -0.5186691613927886,
                -0.3343737155502385,
                1.4824525673072437
            ]
        },
        {
            "positions": [
                0.15770751744303252,
                -1.525544033665716,
                0.9025087073489794,
                -0.527115196139656,
                -0.2821726374907775,
                1.6292212994032949
            ]
        },
        {
            "positions": [
                0.13736060615954307,
                -1.4867544055761672,
                1.0195808027466702,
                -0.5355612308865233,
                -0.22997155943131647,
                1.7759900314993464
            ]
        },
        {
            "positions": [
                0.11701369487605362,
                -1.4479647774866184,
                1.1366528981443609,
                -0.5440072656333907,
                -0.17777048137185547,
                1.9227587635953975
            ]
        },
        {
            "positions": [
                0.09666678359256414,
                -1.4091751493970694,
                1.2537249935420518,
                -0.5524533003802581,
                -0.1255694033123944,
                2.0695274956914487
            ]
        },
        {
            "positions": [
                0.0763198723090747,
                -1.3703855213075207,
                1.3707970889397427,
                -0.5608993351271254,
                -0.07336832525293335,
                2.2162962277875002
            ]
        },
        {
            "positions": [
                0.055972961025585244,
                -1.331595893217972,
                1.4878691843374334,
                -0.5693453698739929,
                -0.021167247193472405,
                2.3630649598835514
            ]
        },
        {
            "positions": [
                0.03562604974209577,
                -1.292806265128423,
                1.6049412797351243,
                -0.5777914046208602,
                0.031033830865988654,
                2.5098336919796025
            ]
        },
        {
            "positions": [
                0.015279138458606345,
                -1.2540166370388741,
                1.722013375132815,
                -0.5862374393677277,
                0.0832349089254496,
                2.656602424075654
            ]
        },
        {
            "positions": [
                -0.00506777282488316,
                -1.2152270089493253,
                1.839085470530506,
                -0.594683474114595,
                0.1354359869849106,
                2.803371156171705
            ]
        },
        {
            "positions": [
                0.05852970341454,
                -1.1733862162908486,
                1.8989613443997864,
                -0.6537681286078294,
                0.13752795927805544,
                2.919565300075595
            ]
        },
        {
            "positions": [
                0.12212717965396316,
                -1.1315454236323716,
                1.9588372182690668,
                -0.7128527831010639,
                0.13961993157120026,
                3.0357594439794844
            ]
        }
    ]
}{
    "goal": {
        "global_pose": {
            "orientation": {
                "w": 0.7047431468963623,
                "x": -0.7094548344612122,
                "y": 0.0024358443915843964,
                "z": -0.0022348060738295317
            },
            "position": {
                "x": 0.6094750761985779,
                "y": 0.3671506643295288,
                "z": 0.19426114857196808
            }
        },
        "name": "move_to_magneteinheit_A"
    },
    "id": "LazyPRM_move_to_magneteinheit_A_39",
    "joint_names": [
        "shoulder_pan_joint",
        "shoulder_lift_joint",
        "elbow_joint",
        "wrist_1_joint",
        "wrist_2_joint",
        "wrist_3_joint"
    ],
    "metrics": {
        "cart_traj_len": 1.6415994827329319,
        "distance_elbow_joint": 1.3614905505373949,
        "distance_shoulder_lift_joint": 1.4506379102627158,
        "distance_shoulder_pan_joint": 1.2405630945458002,
        "distance_wrist_1_joint": 1.3833679053077863,
        "distance_wrist_2_joint": 1.4342005354215526,
        "distance_wrist_3_joint": 4.241048341170245,
        "smoothness": 0.3679425689439654,
        "time": 0.196860554,
        "traj_len": 3.3333629171222112,
        "weighted_distance": 4.734022967869435
    },
    "planner": "LazyPRM",
    "start": {
        "state": {
            "elbow_joint": 1.919643534880228,
            "shoulder_lift_joint": -1.8972525353963687,
            "shoulder_pan_joint": -1.1188672234189438,
            "wrist_1_joint": -1.5931878212786155,
            "wrist_2_joint": 1.5706036197970081,
            "wrist_3_joint": 1.118896926603594
        }
    },
    "waypoints": [
        {
            "positions": [
                -1.1188672234189438,
                -1.8972525353963687,
                1.919643534880228,
                -1.5931878212786155,
                1.5706036197970081,
                1.118896926603594
            ]
        },
        {
            "positions": [
                -1.0832430991566881,
                -1.8494707269884316,
                1.891613636446491,
                -1.5472618195273,
                1.5115142353732058,
                0.946184384690412
            ]
        },
        {
            "positions": [
                -1.0476189748944325,
                -1.8016889185804945,
                1.863583738012754,
                -1.5013358177759848,
                1.4524248509494038,
                0.77347184277723
            ]
        },
        {
            "positions": [
                -1.0119948506321768,
                -1.7539071101725574,
                1.835553839579017,
                -1.4554098160246693,
                1.3933354665256015,
                0.600759300864048
            ]
        },
        {
            "positions": [
                -0.9763707263699212,
                -1.7061253017646203,
                1.8075239411452797,
                -1.409483814273354,
                1.3342460821017994,
                0.4280467589508661
            ]
        },
        {
            "positions": [
                -0.9407466021076655,
                -1.6583434933566832,
                1.7794940427115427,
                -1.3635578125220387,
                1.275156697677997,
                0.2553342170376841
            ]
        },
        {
            "positions": [
                -0.9051224778454099,
                -1.610561684948746,
                1.7514641442778056,
                -1.3176318107707232,
                1.216067313254195,
                0.08262167512450214
            ]
        },
        {
            "positions": [
                -0.8694983535831542,
                -1.5627798765408087,
                1.7234342458440686,
                -1.2717058090194078,
                1.1569779288303927,
                -0.09009086678867995
            ]
        },
        {
            "positions": [
                -0.8338742293208985,
                -1.5149980681328719,
                1.6954043474103315,
                -1.2257798072680925,
                1.0978885444065907,
                -0.2628034087018618
            ]
        },
        {
            "positions": [
                -0.7982501050586428,
                -1.4672162597249345,
                1.6673744489765943,
                -1.179853805516777,
                1.0387991599827884,
                -0.4355159506150439
            ]
        },
        {
            "positions": [
                -0.7626259807963871,
                -1.4194344513169974,
                1.6393445505428572,
                -1.1339278037654617,
                0.9797097755589862,
                -0.6082284925282258
            ]
        },
        {
            "positions": [
                -0.7270018565341315,
                -1.3716526429090603,
                1.6113146521091202,
                -1.0880018020141464,
                0.9206203911351839,
                -0.7809410344414078
            ]
        },
        {
            "positions": [
                -0.6913777322718758,
                -1.3238708345011232,
                1.5832847536753831,
                -1.0420758002628308,
                0.8615310067113818,
                -0.9536535763545897
            ]
        },
        {
            "positions": [
                -0.6557536080096202,
                -1.276089026093186,
                1.555254855241646,
                -0.9961497985115155,
                0.8024416222875796,
                -1.1263661182677718
            ]
        },
        {
            "positions": [
                -0.6201294837473645,
                -1.228307217685249,
                1.5272249568079088,
                -0.9502237967602001,
                0.7433522378637774,
                -1.2990786601809539
            ]
        },
        {
            "positions": [
                -0.5845053594851088,
                -1.1805254092773119,
                1.4991950583741718,
                -0.9042977950088847,
                0.6842628534399752,
                -1.471791202094136
            ]
        },
        {
            "positions": [
                -0.5488812352228531,
                -1.1327436008693748,
                1.4711651599404347,
                -0.8583717932575694,
                0.625173469016173,
                -1.6445037440073176
            ]
        },
        {
            "positions": [
                -0.5132571109605976,
                -1.0849617924614376,
                1.4431352615066977,
                -0.8124457915062541,
                0.5660840845923709,
                -1.8172162859204997
            ]
        },
        {
            "positions": [
                -0.47763298669834175,
                -1.0371799840535005,
                1.4151053630729606,
                -0.7665197897549386,
                0.5069947001685686,
                -1.9899288278336817
            ]
        },
        {
            "positions": [
                -0.44200886243608617,
                -0.9893981756455634,
                1.3870754646392234,
                -0.7205937880036233,
                0.44790531574476633,
                -2.162641369746864
            ]
        },
        {
            "positions": [
                -0.4063847381738305,
                -0.9416163672376263,
                1.3590455662054866,
                -0.6746677862523078,
                0.38881593132096426,
                -2.3353539116600457
            ]
        },
        {
            "positions": [
                -0.3707606139115749,
                -0.8938345588296892,
                1.3310156677717493,
                -0.6287417845009925,
                0.32972654689716197,
                -2.5080664535732273
            ]
        },
        {
            "positions": [
                -0.3351364896493192,
                -0.8460527504217521,
                1.3029857693380122,
                -0.5828157827496772,
                0.27063716247335967,
                -2.68077899548641
            ]
        },
        {
            "positions": [
                -0.29951236538706344,
                -0.798270942013815,
                1.2749558709042752,
                -0.5368897809983616,
                0.2115477780495576,
                -2.8534915373995915
            ]
        },
        {
            "positions": [
                -0.22931099263474344,
                -0.8568803281605087,
                1.3944230186645155,
                -0.591401425169617,
                0.1990236624372072,
                -2.898268183594101
            ]
        },
        {
            "positions": [
                -0.15910961988242345,
                -0.9154897143072024,
                1.513890166424756,
                -0.6459130693408724,
                0.1864995468248568,
                -2.9430448297886107
            ]
        },
        {
            "positions": [
                -0.08890824713010342,
                -0.9740991004538961,
                1.6333573141849962,
                -0.7004247135121279,
                0.17397543121250642,
                -2.9878214759831203
            ]
        },
        {
            "positions": [
                -0.018706874377783456,
                -1.0327084866005898,
                1.7528244619452364,
                -0.7549363576833833,
                0.16145131560015602,
                -3.03259812217763
            ]
        },
        {
            "positions": [
                0.051494498374536624,
                -1.0913178727472836,
                1.872291609705477,
                -0.8094480018546387,
                0.1489271999878056,
                -3.0773747683721395
            ]
        },
        {
            "positions": [
                0.12169587112685658,
                -1.1499272588939773,
                1.9917587574657172,
                -0.8639596460258941,
                0.1364030843754552,
                -3.122151414566649
            ]
        }
    ]
}