{
    "goal": {
        "global_pose": {
            "orientation": {
                "w": 0.5084816217422485,
                "x": -0.49083608388900757,
                "y": 0.5182115435600281,
                "z": -0.4816462993621826
            },
            "position": {
                "x": 0.5540239810943604,
                "y": 0.030875300988554955,
                "z": 0.16403168439865112
            }
        },
        "name": "move_to_storage_A"
    },
    "id": "LazyPRM_move_to_storage_A_45",
    "joint_names": [
        "shoulder_pan_joint",
        "shoulder_lift_joint",
        "elbow_joint",
        "wrist_1_joint",
        "wrist_2_joint",
        "wrist_3_joint"
    ],
    "metrics": {
        "cart_traj_len": 0.352391549544828,
        "distance_elbow_joint": 0.4521864583195234,
        "distance_shoulder_lift_joint": 0.23521393157678938,
        "distance_shoulder_pan_joint": 0.45845214867156264,
        "distance_wrist_1_joint": 0.25129403143065476,
        "distance_wrist_2_joint": 1.108260155781665,
        "distance_wrist_3_joint": 0.10294965507938514,
        "smoothness": 2.2204460668324854e-16,
        "time": 0.022105593,
        "traj_len": 1.6150406746765171,
        "weighted_distance": 2.042990425388888
    },
    "planner": "LazyPRM",
    "start": {
        "state": {
            "elbow_joint": 1.9715477243005601,
            "shoulder_lift_joint": -1.1394853015351272,
            "shoulder_pan_joint": 0.12281154014795169,
            "wrist_1_joint": -0.7804696478968182,
            "wrist_2_joint": 0.12958648046900423,
            "wrist_3_joint": -3.192491284697111
        }
    },
    "waypoints": [
        {
            "positions": [
                0.12281154014795169,
                -1.1394853015351272,
                1.9715477243005601,
                -0.7804696478968182,
                0.12958648046900423,
                -3.192491284697111
            ]
        },
        {
            "positions": [
                0.057318376052014175,
                -1.1730872917603827,
                2.036145789774778,
                -0.8163687952440546,
                0.2879093598663849,
                -3.177784191114342
            ]
        },
        {
            "positions": [
                -0.00817478804392334,
                -1.2066892819856385,
                2.100743855248995,
                -0.8522679425912909,
                0.4462322392637656,
                -3.1630770975315725
            ]
        },
        {
            "positions": [
                -0.07366795213986087,
                -1.240291272210894,
                2.165341920723213,
                -0.8881670899385273,
                0.6045551186611463,
                -3.1483700039488034
            ]
        },
        {
            "positions": [
                -0.13916111623579835,
                -1.2738932624361496,
                2.2299399861974307,
                -0.9240662372857638,
                0.762877998058527,
                -3.133662910366034
            ]
        },
        {
            "positions": [
                -0.20465428033173588,
                -1.3074952526614054,
                2.2945380516716485,
                -0.9599653846330001,
                0.9212008774559077,
                -3.1189558167832647
            ]
        },
        {
            "positions": [
                -0.2701474444276734,
                -1.341097242886661,
                2.359136117145866,
                -0.9958645319802365,
                1.0795237568532885,
                -3.104248723200495
            ]
        },
        {
            "positions": [
                -0.33564060852361094,
                -1.3746992331119166,
                2.4237341826200836,
                -1.031763679327473,
                1.237846636250669,
                -3.089541629617726
            ]
        }
    ]
}