{
    "goal": {
        "global_pose": {
            "orientation": {
                "w": 0.7047431468963623,
                "x": -0.7094548344612122,
                "y": 0.0024358443915843964,
                "z": -0.0022348060738295317
            },
            "position": {
                "x": 0.6094750761985779,
                "y": 0.3671506643295288,
                "z": 0.19426114857196808
            }
        },
        "name": "move_to_magneteinheit_A"
    },
    "id": "LazyPRM_move_to_magneteinheit_A_17",
    "joint_names": [
        "shoulder_pan_joint",
        "shoulder_lift_joint",
        "elbow_joint",
        "wrist_1_joint",
        "wrist_2_joint",
        "wrist_3_joint"
    ],
    "metrics": {
        "cart_traj_len": 3.3246015623824197,
        "distance_elbow_joint": 3.894468928130519,
        "distance_shoulder_lift_joint": 0.7901621297980832,
        "distance_shoulder_pan_joint": 2.796972355968837,
        "distance_wrist_1_joint": 2.8285486944581466,
        "distance_wrist_2_joint": 1.6908480497147287,
        "distance_wrist_3_joint": 3.616185373079308,
        "smoothness": 0.16036828764041935,
        "time": 0.160839477,
        "traj_len": 3.951858490779954,
        "weighted_distance": 5.231534480578439
    },
    "planner": "LazyPRM",
    "start": {
        "state": {
            "elbow_joint": -1.919618573717145,
            "shoulder_lift_joint": -1.2443395971678275,
            "shoulder_pan_joint": 2.6996025300909787,
            "wrist_1_joint": -1.548550951253194,
            "wrist_2_joint": -1.5709469090946802,
            "wrist_3_joint": 0.4420197732051276
        }
    },
    "waypoints": [
        {
            "positions": [
                2.6996025300909787,
                -1.2443395971678275,
                -1.919618573717145,
                -1.548550951253194,
                -1.5709469090946802,
                0.4420197732051276
            ]
        },
        {
            "positions": [
                2.6164966548714297,
                -1.256176925226987,
                -1.8032362385136569,
                -1.584439593971248,
                -1.5346665431608535,
                0.3318905388018925
            ]
        },
        {
            "positions": [
                2.53339077965188,
                -1.2680142532861465,
                -1.6868539033101688,
                -1.620328236689302,
                -1.4983861772270268,
                0.22176130439865746
            ]
        },
        {
            "positions": [
                2.4502849044323307,
                -1.279851581345306,
                -1.5704715681066808,
                -1.6562168794073557,
                -1.4621058112932002,
                0.11163206999542241
            ]
        },
        {
            "positions": [
                2.3671790292127817,
                -1.2916889094044655,
                -1.4540892329031927,
                -1.6921055221254095,
                -1.4258254453593735,
                0.0015028355921873349
            ]
        },
        {
            "positions": [
                2.284073153993232,
                -1.303526237463625,
                -1.3377068976997046,
                -1.7279941648434634,
                -1.3895450794255466,
                -0.1086263988110478
            ]
        },
        {
            "positions": [
                2.200967278773683,
                -1.3153635655227844,
                -1.2213245624962168,
                -1.7638828075615174,
                -1.35326471349172,
                -0.21875563321428276
            ]
        },
        {
            "positions": [
                2.1178614035541337,
                -1.327200893581944,
                -1.1049422272927285,
                -1.7997714502795712,
                -1.3169843475578933,
                -0.32888486761751795
            ]
        },
        {
            "positions": [
                2.0347555283345846,
                -1.3390382216411036,
                -0.9885598920892406,
                -1.835660092997625,
                -1.2807039816240666,
                -0.4390141020207529
            ]
        },
        {
            "positions": [
                1.9516496531150351,
                -1.3508755497002631,
                -0.8721775568857524,
                -1.8715487357156788,
                -1.24442361569024,
                -0.5491433364239879
            ]
        },
        {
            "positions": [
                1.868543777895486,
                -1.3627128777594226,
                -0.7557952216822643,
                -1.9074373784337328,
                -1.2081432497564133,
                -0.6592725708272231
            ]
        },
        {
            "positions": [
                1.7854379026759368,
                -1.3745502058185821,
                -0.6394128864787765,
                -1.9433260211517867,
                -1.1718628838225866,
                -0.7694018052304581
            ]
        },
        {
            "positions": [
                1.7023320274563876,
                -1.3863875338777416,
                -0.5230305512752884,
                -1.9792146638698405,
                -1.13558251788876,
                -0.8795310396336931
            ]
        },
        {
            "positions": [
                1.619226152236838,
                -1.398224861936901,
                -0.40664821607180013,
                -2.0151033065878945,
                -1.0993021519549333,
                -0.9896602740369282
            ]
        },
        {
            "positions": [
                1.5361202770172888,
                -1.4100621899960606,
                -0.29026588086831207,
                -2.0509919493059483,
                -1.0630217860211064,
                -1.0997895084401634
            ]
        },
        {
            "positions": [
                1.4530144017977396,
                -1.42189951805522,
                -0.173883545664824,
                -2.086880592024002,
                -1.02674142008728,
                -1.2099187428433984
            ]
        },
        {
            "positions": [
                1.3699085265781905,
                -1.4337368461143796,
                -0.05750121046133616,
                -2.122769234742056,
                -0.9904610541534532,
                -1.3200479772466334
            ]
        },
        {
            "positions": [
                1.2868026513586412,
                -1.445574174173539,
                0.0588811247421519,
                -2.1586578774601097,
                -0.9541806882196265,
                -1.4301772116498683
            ]
        },
        {
            "positions": [
                1.2036967761390918,
                -1.4574115022326986,
                0.1752634599456402,
                -2.1945465201781635,
                -0.9179003222857998,
                -1.5403064460531035
            ]
        },
        {
            "positions": [
                1.1205909009195427,
                -1.469248830291858,
                0.29164579514912803,
                -2.2304351628962173,
                -0.8816199563519731,
                -1.6504356804563387
            ]
        },
        {
            "positions": [
                1.0374850256999932,
                -1.4810861583510175,
                0.4080281303526163,
                -2.2663238056142716,
                -0.8453395904181463,
                -1.760564914859574
            ]
        },
        {
            "positions": [
                0.954379150480444,
                -1.4929234864101772,
                0.5244104655561042,
                -2.3022124483323254,
                -0.8090592244843198,
                -1.8706941492628086
            ]
        },
        {
            "positions": [
                0.8712732752608949,
                -1.5047608144693365,
                0.640792800759592,
                -2.338101091050379,
                -0.7727788585504931,
                -1.9808233836660438
            ]
        },
        {
            "positions": [
                0.7881674000413454,
                -1.5165981425284962,
                0.7571751359630803,
                -2.373989733768433,
                -0.7364984926166663,
                -2.090952618069279
            ]
        },
        {
            "positions": [
                0.7050615248217962,
                -1.5284354705876557,
                0.8735574711665681,
                -2.409878376486487,
                -0.7002181266828397,
                -2.2010818524725138
            ]
        },
        {
            "positions": [
                0.6219556496022469,
                -1.5402727986468152,
                0.9899398063700564,
                -2.4457670192045406,
                -0.663937760749013,
                -2.311211086875749
            ]
        },
        {
            "positions": [
                0.5388497743826974,
                -1.5521101267059747,
                1.1063221415735447,
                -2.481655661922595,
                -0.6276573948151862,
                -2.421340321278984
            ]
        },
        {
            "positions": [
                0.4557438991631484,
                -1.5639474547651342,
                1.2227044767770325,
                -2.5175443046406487,
                -0.5913770288813597,
                -2.531469555682219
            ]
        },
        {
            "positions": [
                0.3726380239435989,
                -1.5757847828242937,
                1.3390868119805208,
                -2.5534329473587025,
                -0.5550966629475329,
                -2.6415987900854545
            ]
        },
        {
            "positions": [
                0.2895321487240498,
                -1.5876221108834532,
                1.4554691471840084,
                -2.5893215900767563,
                -0.5188162970137064,
                -2.7517280244886893
            ]
        },
        {
            "positions": [
                0.25489941484461437,
                -1.5537094037390546,
                1.5017549359995528,
                -2.44397446997554,
                -0.461174708439935,
                -2.7937123237756447
            ]
        },
        {
            "positions": [
                0.2202666809651789,
                -1.5197966965946563,
                1.5480407248150974,
                -2.2986273498743244,
                -0.4035331198661637,
                -2.8356966230626006
            ]
        },
        {
            "positions": [
                0.18563394708574343,
                -1.485883989450258,
                1.5943265136306417,
                -2.1532802297731086,
                -0.3458915312923923,
                -2.8776809223495565
            ]
        },
        {
            "positions": [
                0.151001213206308,
                -1.4519712823058595,
                1.6406123024461863,
                -2.0079331096718924,
                -0.288249942718621,
                -2.919665221636512
            ]
        },
        {
            "positions": [
                0.11636847932687255,
                -1.418058575161461,
                1.6868980912617306,
                -1.8625859895706764,
                -0.23060835414484965,
                -2.9616495209234674
            ]
        },
        {
            "positions": [
                0.08173574544743709,
                -1.3841458680170626,
                1.733183880077275,
                -1.7172388694694605,
                -0.17296676557107826,
                -3.0036338202104234
            ]
        },
        {
            "positions": [
                0.04710301156800162,
                -1.3502331608726643,
                1.7794696688928195,
                -1.5718917493682445,
                -0.11532517699730693,
                -3.0456181194973793
            ]
        },
        {
            "positions": [
                0.012470277688566187,
                -1.3163204537282658,
                1.825755457708364,
                -1.4265446292670285,
                -0.05768358842353563,
                -3.0876024187843347
            ]
        },
        {
            "positions": [
                0.039930303580172195,
                -1.2724259639964481,
                1.8630291818846163,
                -1.2702943555608144,
                -0.013287406162639667,
                -3.109243214056796
            ]
        },
        {
            "positions": [
                0.0673903294717782,
                -1.2285314742646307,
                1.9003029060608685,
                -1.1140440818546002,
                0.031108776098256297,
                -3.1308840093292574
            ]
        },
        {
            "positions": [
                0.09485035536338421,
                -1.1846369845328133,
                1.937576630237121,
                -0.9577938081483863,
                0.07550495835915225,
                -3.152524804601719
            ]
        },
        {
            "positions": [
                0.12231038125499022,
                -1.1407424948009957,
                1.9748503544133733,
                -0.8015435344421722,
                0.11990114062004821,
                -3.1741655998741805
            ]
        }
    ]
}{
    "goal": {
        "global_pose": {
            "orientation": {
                "w": 0.7047431468963623,
                "x": -0.7094548344612122,
                "y": 0.0024358443915843964,
                "z": -0.0022348060738295317
            },
            "position": {
                "x": 0.6094750761985779,
                "y": 0.3671506643295288,
                "z": 0.19426114857196808
            }
        },
        "name": "move_to_magneteinheit_A"
    },
    "id": "LazyPRM_move_to_magneteinheit_A_17",
    "joint_names": [
        "shoulder_pan_joint",
        "shoulder_lift_joint",
        "elbow_joint",
        "wrist_1_joint",
        "wrist_2_joint",
        "wrist_3_joint"
    ],
    "metrics": {
        "cart_traj_len": 2.201949246792981,
        "distance_elbow_joint": 0.8549586527313222,
        "distance_shoulder_lift_joint": 0.756582104454046,
        "distance_shoulder_pan_joint": 2.5883778365556753,
        "distance_wrist_1_joint": 0.7960589484458052,
        "distance_wrist_2_joint": 1.4493331143888921,
        "distance_wrist_3_joint": 4.499743949673102,
        "smoothness": 0.3774592944929341,
        "time": 0.11513178199999999,
        "traj_len": 3.30833109078412,
        "weighted_distance": 4.7106193402173515
    },
    "planner": "LazyPRM",
    "start": {
        "state": {
            "elbow_joint": 1.919643534880228,
            "shoulder_lift_joint": -1.8972525353963687,
            "shoulder_pan_joint": -1.1188672234189438,
            "wrist_1_joint": -1.5931878212786155,
            "wrist_2_joint": 1.5706036197970081,
            "wrist_3_joint": 1.118896926603594
        }
    },
    "waypoints": [
        {
            "positions": [
                -1.1188672234189438,
                -1.8972525353963687,
                1.919643534880228,
                -1.5931878212786155,
                1.5706036197970081,
                1.118896926603594
            ]
        },
        {
            "positions": [
                -1.215146225171565,
                -1.8600044010655987,
                1.862515816721334,
                -1.5241351621827537,
                1.4957285857430167,
                1.1334456612154535
            ]
        },
        {
            "positions": [
                -1.3114252269241862,
                -1.8227562667348287,
                1.8053880985624398,
                -1.4550825030868917,
                1.420853551689025,
                1.147994395827313
            ]
        },
        {
            "positions": [
                -1.4077042286768071,
                -1.7855081324040587,
                1.7482603804035457,
                -1.38602984399103,
                1.3459785176350336,
                1.1625431304391727
            ]
        },
        {
            "positions": [
                -1.5039832304294283,
                -1.7482599980732887,
                1.6911326622446516,
                -1.316977184895168,
                1.271103483581042,
                1.1770918650510322
            ]
        },
        {
            "positions": [
                -1.6002622321820494,
                -1.7110118637425187,
                1.6340049440857576,
                -1.2479245257993061,
                1.1962284495270505,
                1.1916405996628918
            ]
        },
        {
            "positions": [
                -1.6965412339346706,
                -1.6737637294117487,
                1.5768772259268633,
                -1.1788718667034441,
                1.1213534154730591,
                1.2061893342747514
            ]
        },
        {
            "positions": [
                -1.7928202356872918,
                -1.6365155950809787,
                1.5197495077679692,
                -1.1098192076075823,
                1.0464783814190675,
                1.220738068886611
            ]
        },
        {
            "positions": [
                -1.7058009254924131,
                -1.6139771785292216,
                1.5404342634779267,
                -1.0956060105723655,
                1.0044234779640242,
                1.0208333958234252
            ]
        },
        {
            "positions": [
                -1.6187816152975347,
                -1.5914387619774646,
                1.561119019187884,
                -1.0813928135371484,
                0.962368574508981,
                0.8209287227602395
            ]
        },
        {
            "positions": [
                -1.531762305102656,
                -1.5689003454257073,
                1.5818037748978415,
                -1.0671796165019316,
                0.9203136710539377,
                0.6210240496970538
            ]
        },
        {
            "positions": [
                -1.4447429949077777,
                -1.5463619288739503,
                1.602488530607799,
                -1.0529664194667148,
                0.8782587675988944,
                0.4211193766338681
            ]
        },
        {
            "positions": [
                -1.357723684712899,
                -1.5238235123221933,
                1.6231732863177564,
                -1.0387532224314977,
                0.8362038641438512,
                0.2212147035706824
            ]
        },
        {
            "positions": [
                -1.2707043745180204,
                -1.5012850957704362,
                1.6438580420277138,
                -1.0245400253962809,
                0.7941489606888079,
                0.02131003050749669
            ]
        },
        {
            "positions": [
                -1.183685064323142,
                -1.478746679218679,
                1.6645427977376712,
                -1.010326828361064,
                0.7520940572337647,
                -0.17859464255568902
            ]
        },
        {
            "positions": [
                -1.0966657541282634,
                -1.456208262666922,
                1.6852275534476286,
                -0.9961136313258471,
                0.7100391537787214,
                -0.37849931561887473
            ]
        },
        {
            "positions": [
                -1.0096464439333848,
                -1.433669846115165,
                1.705912309157586,
                -0.9819004342906301,
                0.6679842503236781,
                -0.5784039886820604
            ]
        },
        {
            "positions": [
                -0.9226271337385064,
                -1.4111314295634079,
                1.7265970648675435,
                -0.9676872372554133,
                0.625929346868635,
                -0.7783086617452462
            ]
        },
        {
            "positions": [
                -0.8356078235436277,
                -1.3885930130116506,
                1.747281820577501,
                -0.9534740402201963,
                0.5838744434135917,
                -0.9782133348084319
            ]
        },
        {
            "positions": [
                -0.7485885133487493,
                -1.3660545964598936,
                1.7679665762874583,
                -0.9392608431849794,
                0.5418195399585485,
                -1.1781180078716176
            ]
        },
        {
            "positions": [
                -0.6615692031538705,
                -1.3435161799081365,
                1.7886513319974158,
                -0.9250476461497625,
                0.4997646365035052,
                -1.3780226809348033
            ]
        },
        {
            "positions": [
                -0.5745498929589921,
                -1.3209777633563795,
                1.8093360877073732,
                -0.9108344491145456,
                0.45770973304846196,
                -1.577927353997989
            ]
        },
        {
            "positions": [
                -0.48753058276411365,
                -1.2984393468046225,
                1.8300208434173306,
                -0.8966212520793286,
                0.4156548295934188,
                -1.7778320270611747
            ]
        },
        {
            "positions": [
                -0.400511272569235,
                -1.2759009302528652,
                1.850705599127288,
                -0.8824080550441118,
                0.37359992613837545,
                -1.9777367001243604
            ]
        },
        {
            "positions": [
                -0.3134919623743564,
                -1.2533625137011082,
                1.8713903548372455,
                -0.8681948580088948,
                0.3315450226833323,
                -2.177641373187546
            ]
        },
        {
            "positions": [
                -0.22647265217947776,
                -1.2308240971493511,
                1.892075110547203,
                -0.8539816609736779,
                0.28949011922828893,
                -2.377546046250732
            ]
        },
        {
            "positions": [
                -0.13945334198459935,
                -1.2082856805975941,
                1.9127598662571603,
                -0.839768463938461,
                0.2474352157732458,
                -2.5774507193139176
            ]
        },
        {
            "positions": [
                -0.05243403178972095,
                -1.1857472640458369,
                1.9334446219671177,
                -0.8255552669032442,
                0.20538031231820253,
                -2.7773553923771033
            ]
        },
        {
            "positions": [
                0.034585278405157904,
                -1.1632088474940798,
                1.9541293776770752,
                -0.8113420698680271,
                0.16332540886315927,
                -2.977260065440289
            ]
        },
        {
            "positions": [
                0.12160458860003638,
                -1.1406704309423228,
                1.9748141333870326,
                -0.7971288728328103,
                0.12127050540811601,
                -3.1771647385034747
            ]
        }
    ]
}