{
    "goal": {
        "global_pose": {
            "orientation": {
                "w": 0.5084816217422485,
                "x": -0.49083608388900757,
                "y": 0.5182115435600281,
                "z": -0.4816462993621826
            },
            "position": {
                "x": 0.5540239810943604,
                "y": 0.030875300988554955,
                "z": 0.16403168439865112
            }
        },
        "name": "move_to_storage_A"
    },
    "id": "LazyPRM_move_to_storage_A_17",
    "joint_names": [
        "shoulder_pan_joint",
        "shoulder_lift_joint",
        "elbow_joint",
        "wrist_1_joint",
        "wrist_2_joint",
        "wrist_3_joint"
    ],
    "metrics": {
        "cart_traj_len": 0.35223413245338964,
        "distance_elbow_joint": 0.4527230309481194,
        "distance_shoulder_lift_joint": 0.2339884139904982,
        "distance_shoulder_pan_joint": 0.4592888557650176,
        "distance_wrist_1_joint": 0.2571566829315347,
        "distance_wrist_2_joint": 1.102751064345663,
        "distance_wrist_3_joint": 0.10331020933706991,
        "smoothness": 1.6653345401994183e-15,
        "time": 0.022144188999999998,
        "traj_len": 1.6153074807348298,
        "weighted_distance": 2.043464319059484
    },
    "planner": "LazyPRM",
    "start": {
        "state": {
            "elbow_joint": 1.9715477243005601,
            "shoulder_lift_joint": -1.1394853015351272,
            "shoulder_pan_joint": 0.12281154014795169,
            "wrist_1_joint": -0.7804696478968182,
            "wrist_2_joint": 0.12958648046900423,
            "wrist_3_joint": -3.192491284697111
        }
    },
    "waypoints": [
        {
            "positions": [
                0.12281154014795169,
                -1.1394853015351272,
                1.9715477243005601,
                -0.7804696478968182,
                0.12958648046900423,
                -3.192491284697111
            ]
        },
        {
            "positions": [
                0.05719884646723489,
                -1.172912217819484,
                2.0362224430074343,
                -0.8172063168870374,
                0.287122346804099,
                -3.177732683363244
            ]
        },
        {
            "positions": [
                -0.008413847213481915,
                -1.206339134103841,
                2.1008971617143084,
                -0.8539429858772567,
                0.4446582131391937,
                -3.162974082029377
            ]
        },
        {
            "positions": [
                -0.0740265408941987,
                -1.2397660503881978,
                2.1655718804211825,
                -0.8906796548674759,
                0.6021940794742884,
                -3.1482154806955096
            ]
        },
        {
            "positions": [
                -0.1396392345749155,
                -1.2731929666725548,
                2.2302465991280567,
                -0.9274163238576951,
                0.7597299458093831,
                -3.133456879361643
            ]
        },
        {
            "positions": [
                -0.20525192825563232,
                -1.3066198829569116,
                2.2949213178349313,
                -0.9641529928479144,
                0.9172658121444779,
                -3.1186982780277757
            ]
        },
        {
            "positions": [
                -0.2708646219363491,
                -1.3400467992412683,
                2.3595960365418054,
                -1.0008896618381335,
                1.0748016784795724,
                -3.1039396766939085
            ]
        },
        {
            "positions": [
                -0.3364773156170659,
                -1.3734737155256254,
                2.4242707552486795,
                -1.0376263308283529,
                1.2323375448146672,
                -3.0891810753600413
            ]
        }
    ]
}