{
    "goal": {
        "global_pose": {
            "orientation": {
                "w": 0.7047431468963623,
                "x": -0.7094548344612122,
                "y": 0.0024358443915843964,
                "z": -0.0022348060738295317
            },
            "position": {
                "x": 0.6094750761985779,
                "y": 0.3671506643295288,
                "z": 0.19426114857196808
            }
        },
        "name": "move_to_magneteinheit_A"
    },
    "id": "LazyPRMstar_move_to_magneteinheit_A_59",
    "joint_names": [
        "shoulder_pan_joint",
        "shoulder_lift_joint",
        "elbow_joint",
        "wrist_1_joint",
        "wrist_2_joint",
        "wrist_3_joint"
    ],
    "metrics": {
        "cart_traj_len": 3.207843290759724,
        "distance_elbow_joint": 3.9273019366115305,
        "distance_shoulder_lift_joint": 1.7788090258808287,
        "distance_shoulder_pan_joint": 4.00599051242637,
        "distance_wrist_1_joint": 3.5218510108023295,
        "distance_wrist_2_joint": 4.55293500445741,
        "distance_wrist_3_joint": 2.340943645937946,
        "smoothness": 0.29279587787310096,
        "time": 5.042905007,
        "traj_len": 4.486405146229709,
        "weighted_distance": 5.734501237531653
    },
    "planner": "LazyPRMstar",
    "start": {
        "state": {
            "elbow_joint": -1.919618573717145,
            "shoulder_lift_joint": -1.2443395971678275,
            "shoulder_pan_joint": 2.6996025300909787,
            "wrist_1_joint": -1.548550951253194,
            "wrist_2_joint": -1.5709469090946802,
            "wrist_3_joint": 0.4420197732051276
        }
    },
    "waypoints": [
        {
            "positions": [
                2.6996025300909787,
                -1.2443395971678275,
                -1.919618573717145,
                -1.548550951253194,
                -1.5709469090946802,
                0.4420197732051276
            ]
        },
        {
            "positions": [
                2.6129864322566267,
                -1.2616943822469617,
                -1.8203447601508556,
                -1.4640575596508472,
                -1.4920506412720111,
                0.4662243140297668
            ]
        },
        {
            "positions": [
                2.5263703344222748,
                -1.279049167326096,
                -1.7210709465845664,
                -1.3795641680485,
                -1.4131543734493424,
                0.4904288548544059
            ]
        },
        {
            "positions": [
                2.439754236587923,
                -1.2964039524052302,
                -1.621797133018277,
                -1.295070776446153,
                -1.3342581056266734,
                0.5146333956790451
            ]
        },
        {
            "positions": [
                2.353138138753571,
                -1.3137587374843647,
                -1.5225233194519876,
                -1.210577384843806,
                -1.2553618378040046,
                0.5388379365036843
            ]
        },
        {
            "positions": [
                2.266522040919219,
                -1.331113522563499,
                -1.4232495058856982,
                -1.126083993241459,
                -1.1764655699813356,
                0.5630424773283234
            ]
        },
        {
            "positions": [
                2.179905943084867,
                -1.3484683076426331,
                -1.3239756923194088,
                -1.041590601639112,
                -1.0975693021586665,
                0.5872470181529625
            ]
        },
        {
            "positions": [
                2.093289845250515,
                -1.3658230927217674,
                -1.2247018787531196,
                -0.957097210036765,
                -1.0186730343359978,
                0.6114515589776017
            ]
        },
        {
            "positions": [
                2.006673747416163,
                -1.3831778778009016,
                -1.1254280651868303,
                -0.872603818434418,
                -0.9397767665133288,
                0.6356560998022409
            ]
        },
        {
            "positions": [
                1.920057649581811,
                -1.4005326628800359,
                -1.0261542516205409,
                -0.788110426832071,
                -0.8608804986906599,
                0.6598606406268801
            ]
        },
        {
            "positions": [
                1.833441551747459,
                -1.41788744795917,
                -0.9268804380542516,
                -0.703617035229724,
                -0.781984230867991,
                0.6840651814515192
            ]
        },
        {
            "positions": [
                1.746825453913107,
                -1.4352422330383043,
                -0.8276066244879621,
                -0.6191236436273768,
                -0.703087963045322,
                0.7082697222761585
            ]
        },
        {
            "positions": [
                1.660209356078755,
                -1.4525970181174386,
                -0.7283328109216729,
                -0.5346302520250299,
                -0.624191695222653,
                0.7324742631007976
            ]
        },
        {
            "positions": [
                1.573593258244403,
                -1.469951803196573,
                -0.6290589973553835,
                -0.45013686042268275,
                -0.5452954273999842,
                0.7566788039254367
            ]
        },
        {
            "positions": [
                1.486977160410051,
                -1.4873065882757073,
                -0.5297851837890941,
                -0.3656434688203358,
                -0.46639915957731515,
                0.7808833447500758
            ]
        },
        {
            "positions": [
                1.400361062575699,
                -1.5046613733548415,
                -0.4305113702228047,
                -0.2811500772179889,
                -0.38750289175464614,
                0.805087885574715
            ]
        },
        {
            "positions": [
                1.313744964741347,
                -1.5220161584339758,
                -0.33123755665651555,
                -0.19665668561564198,
                -0.30860662393197735,
                0.8292924263993542
            ]
        },
        {
            "positions": [
                1.227128866906995,
                -1.53937094351311,
                -0.23196374309022616,
                -0.11216329401329483,
                -0.22971035610930834,
                0.8534969672239934
            ]
        },
        {
            "positions": [
                1.140512769072643,
                -1.5567257285922442,
                -0.13268992952393677,
                -0.02766990241094791,
                -0.15081408828663956,
                0.8777015080486326
            ]
        },
        {
            "positions": [
                1.0538966712382911,
                -1.5740805136713787,
                -0.033416115957647374,
                0.056823489191399235,
                -0.07191782046397055,
                0.9019060488732717
            ]
        },
        {
            "positions": [
                0.9672805734039391,
                -1.591435298750513,
                0.0658576976086418,
                0.14131688079374616,
                0.0069784473586982365,
                0.9261105896979108
            ]
        },
        {
            "positions": [
                0.8806644755695869,
                -1.6087900838296472,
                0.16513151117493163,
                0.22581027239609353,
                0.08587471518136747,
                0.9503151305225501
            ]
        },
        {
            "positions": [
                0.7940483777352352,
                -1.6261448689087814,
                0.2644053247412208,
                0.31030366399844045,
                0.16477098300403625,
                0.9745196713471893
            ]
        },
        {
            "positions": [
                0.7074322799008832,
                -1.6434996539879156,
                0.36367913830751,
                0.39479705560078737,
                0.24366725082670504,
                0.9987242121718283
            ]
        },
        {
            "positions": [
                0.6208161820665312,
                -1.6608544390670499,
                0.46295295187379915,
                0.4792904472031343,
                0.32256351864937405,
                1.0229287529964675
            ]
        },
        {
            "positions": [
                0.5342000842321792,
                -1.6782092241461841,
                0.5622267654400888,
                0.5637838388054814,
                0.40145978647204306,
                1.0471332938211066
            ]
        },
        {
            "positions": [
                0.44758398639782726,
                -1.6955640092253184,
                0.6615005790063779,
                0.6482772304078286,
                0.48035605429471184,
                1.0713378346457458
            ]
        },
        {
            "positions": [
                0.3609678885634753,
                -1.7129187943044526,
                0.7607743925726675,
                0.7327706220101753,
                0.5592523221173806,
                1.095542375470385
            ]
        },
        {
            "positions": [
                0.2743517907291233,
                -1.7302735793835868,
                0.8600482061389567,
                0.8172640136125224,
                0.6381485899400499,
                1.1197469162950242
            ]
        },
        {
            "positions": [
                0.18773569289477132,
                -1.7476283644627213,
                0.9593220197052463,
                0.9017574052148696,
                0.7170448577627186,
                1.1439514571196634
            ]
        },
        {
            "positions": [
                0.10111959506041934,
                -1.7649831495418555,
                1.0585958332715355,
                0.9862507968172163,
                0.7959411255853879,
                1.1681559979443026
            ]
        },
        {
            "positions": [
                0.014503497226067363,
                -1.7823379346209898,
                1.1578696468378247,
                1.0707441884195634,
                0.8748373934080567,
                1.1923605387689415
            ]
        },
        {
            "positions": [
                -0.07211260060828462,
                -1.799692719700124,
                1.2571434604041138,
                1.1552375800219101,
                0.9537336612307254,
                1.2165650795935807
            ]
        },
        {
            "positions": [
                -0.1587286984426366,
                -1.8170475047792585,
                1.3564172739704035,
                1.2397309716242577,
                1.0326299290533947,
                1.24076962041822
            ]
        },
        {
            "positions": [
                -0.24534479627698857,
                -1.8344022898583927,
                1.4556910875366926,
                1.3242243632266044,
                1.1115261968760635,
                1.264974161242859
            ]
        },
        {
            "positions": [
                -0.33196089411134055,
                -1.851757074937527,
                1.5549649011029822,
                1.4087177548289516,
                1.1904224646987323,
                1.2891787020674983
            ]
        },
        {
            "positions": [
                -0.41857699194569253,
                -1.8691118600166612,
                1.6542387146692714,
                1.4932111464312983,
                1.269318732521401,
                1.3133832428921375
            ]
        },
        {
            "positions": [
                -0.5051930897800445,
                -1.8864666450957954,
                1.753512528235561,
                1.5777045380336459,
                1.3482150003440703,
                1.3375877837167767
            ]
        },
        {
            "positions": [
                -0.5918091876143967,
                -1.9038214301749297,
                1.8527863418018502,
                1.6621979296359926,
                1.4271112681667393,
                1.3617923245414159
            ]
        },
        {
            "positions": [
                -0.5407678451343255,
                -1.8238694878268062,
                1.8638504147370312,
                1.684419510344074,
                1.3160486376527398,
                1.2602801034984403
            ]
        },
        {
            "positions": [
                -0.4897265026542543,
                -1.743917545478683,
                1.8749144876722124,
                1.7066410910521557,
                1.2049860071387406,
                1.1587678824554648
            ]
        },
        {
            "positions": [
                -0.43868516017418313,
                -1.6639656031305596,
                1.8859785606073933,
                1.7288626717602371,
                1.0939233766247412,
                1.0572556614124893
            ]
        },
        {
            "positions": [
                -0.38764381769411194,
                -1.5840136607824364,
                1.8970426335425743,
                1.7510842524683186,
                0.9828607461107418,
                0.9557434403695135
            ]
        },
        {
            "positions": [
                -0.33660247521404074,
                -1.504061718434313,
                1.9081067064777555,
                1.7733058331764002,
                0.8717981155967424,
                0.854231219326538
            ]
        },
        {
            "positions": [
                -0.28556113273396955,
                -1.4241097760861896,
                1.9191707794129365,
                1.7955274138844817,
                0.7607354850827431,
                0.7527189982835625
            ]
        },
        {
            "positions": [
                -0.23451979025389835,
                -1.3441578337380662,
                1.9302348523481174,
                1.8177489945925633,
                0.6496728545687437,
                0.6512067772405868
            ]
        },
        {
            "positions": [
                -0.18347844777382716,
                -1.264205891389943,
                1.9412989252832986,
                1.8399705753006448,
                0.5386102240547443,
                0.5496945561976113
            ]
        },
        {
            "positions": [
                -0.1324371052937559,
                -1.1842539490418196,
                1.9523629982184796,
                1.8621921560087262,
                0.4275475935407449,
                0.4481823351546357
            ]
        },
        {
            "positions": [
                -0.08139576281368477,
                -1.1043020066936964,
                1.9634270711536608,
                1.884413736716808,
                0.31648496302674545,
                0.34667011411166015
            ]
        },
        {
            "positions": [
                -0.030354420333613574,
                -1.024350064345573,
                1.9744911440888417,
                1.9066353174248893,
                0.20542233251274622,
                0.24515789306868463
            ]
        },
        {
            "positions": [
                0.02068692214645762,
                -0.9443981219974497,
                1.9855552170240227,
                1.9288568981329708,
                0.09435970199874699,
                0.1436456720257091
            ]
        },
        {
            "positions": [
                0.07172826462652881,
                -0.8644461796493261,
                1.996619289959204,
                1.9510784788410525,
                -0.01670292851525268,
                0.042133450982733356
            ]
        },
        {
            "positions": [
                0.12276960710660002,
                -0.7844942373012029,
                2.007683362894385,
                1.973300059549134,
                -0.1277655590292519,
                -0.05937877006024212
            ]
        }
    ]
}{
    "goal": {
        "global_pose": {
            "orientation": {
                "w": 0.7047431468963623,
                "x": -0.7094548344612122,
                "y": 0.0024358443915843964,
                "z": -0.0022348060738295317
            },
            "position": {
                "x": 0.6094750761985779,
                "y": 0.3671506643295288,
                "z": 0.19426114857196808
            }
        },
        "name": "move_to_magneteinheit_A"
    },
    "id": "LazyPRMstar_move_to_magneteinheit_A_59",
    "joint_names": [
        "shoulder_pan_joint",
        "shoulder_lift_joint",
        "elbow_joint",
        "wrist_1_joint",
        "wrist_2_joint",
        "wrist_3_joint"
    ],
    "metrics": {
        "cart_traj_len": 1.3476478589589107,
        "distance_elbow_joint": 0.6855958685041088,
        "distance_shoulder_lift_joint": 0.7604193393776386,
        "distance_shoulder_pan_joint": 1.2422274954285033,
        "distance_wrist_1_joint": 0.8314782736173145,
        "distance_wrist_2_joint": 1.4359434392631074,
        "distance_wrist_3_joint": 4.320840343788813,
        "smoothness": 0.06251022146390096,
        "time": 5.016082098,
        "traj_len": 3.0457355039430922,
        "weighted_distance": 4.492839543143905
    },
    "planner": "LazyPRMstar",
    "start": {
        "state": {
            "elbow_joint": 1.919643534880228,
            "shoulder_lift_joint": -1.8972525353963687,
            "shoulder_pan_joint": -1.1188672234189438,
            "wrist_1_joint": -1.5931878212786155,
            "wrist_2_joint": 1.5706036197970081,
            "wrist_3_joint": 1.118896926603594
        }
    },
    "waypoints": [
        {
            "positions": [
                -1.1188672234189438,
                -1.8972525353963687,
                1.919643534880228,
                -1.5931878212786155,
                1.5706036197970081,
                1.118896926603594
            ]
        },
        {
            "positions": [
                -1.0730578037315852,
                -1.8652526897186912,
                1.900884794949537,
                -1.561838757560644,
                1.5250116549947528,
                0.9069284905232744
            ]
        },
        {
            "positions": [
                -1.0272483840442268,
                -1.8332528440410134,
                1.8821260550188463,
                -1.5304896938426726,
                1.4794196901924972,
                0.6949600544429548
            ]
        },
        {
            "positions": [
                -0.9814389643568682,
                -1.8012529983633359,
                1.8633673150881553,
                -1.4991406301247012,
                1.4338277253902416,
                0.48299161836263516
            ]
        },
        {
            "positions": [
                -0.9356295446695096,
                -1.769253152685658,
                1.8446085751574646,
                -1.46779156640673,
                1.3882357605879863,
                0.2710231822823156
            ]
        },
        {
            "positions": [
                -0.8898201249821511,
                -1.7372533070079805,
                1.8258498352267736,
                -1.4364425026887586,
                1.342643795785731,
                0.05905474620199591
            ]
        },
        {
            "positions": [
                -0.8440107052947925,
                -1.7052534613303028,
                1.8070910952960828,
                -1.4050934389707872,
                1.2970518309834753,
                -0.15291368987832366
            ]
        },
        {
            "positions": [
                -0.7982012856074341,
                -1.6732536156526252,
                1.7883323553653918,
                -1.3737443752528158,
                1.25145986618122,
                -0.3648821259586432
            ]
        },
        {
            "positions": [
                -0.7523918659200755,
                -1.6412537699749474,
                1.769573615434701,
                -1.3423953115348444,
                1.2058679013789644,
                -0.5768505620389628
            ]
        },
        {
            "positions": [
                -0.7065824462327169,
                -1.6092539242972699,
                1.75081487550401,
                -1.311046247816873,
                1.160275936576709,
                -0.7888189981192824
            ]
        },
        {
            "positions": [
                -0.6607730265453584,
                -1.577254078619592,
                1.7320561355733193,
                -1.2796971840989015,
                1.1146839717744534,
                -1.0007874341996021
            ]
        },
        {
            "positions": [
                -0.6149636068579998,
                -1.5452542329419146,
                1.7132973956426283,
                -1.2483481203809301,
                1.0690920069721979,
                -1.2127558702799217
            ]
        },
        {
            "positions": [
                -0.5691541871706413,
                -1.5132543872642368,
                1.6945386557119375,
                -1.2169990566629587,
                1.0235000421699425,
                -1.4247243063602413
            ]
        },
        {
            "positions": [
                -0.5233447674832827,
                -1.4812545415865592,
                1.6757799157812465,
                -1.1856499929449875,
                0.9779080773676871,
                -1.6366927424405604
            ]
        },
        {
            "positions": [
                -0.4775353477959242,
                -1.4492546959088815,
                1.6570211758505557,
                -1.154300929227016,
                0.9323161125654317,
                -1.8486611785208804
            ]
        },
        {
            "positions": [
                -0.4317259281085657,
                -1.417254850231204,
                1.6382624359198648,
                -1.1229518655090447,
                0.8867241477631762,
                -2.0606296146011998
            ]
        },
        {
            "positions": [
                -0.38591650842120706,
                -1.3852550045535263,
                1.6195036959891738,
                -1.0916028017910733,
                0.8411321829609207,
                -2.2725980506815198
            ]
        },
        {
            "positions": [
                -0.34010708873384854,
                -1.3532551588758486,
                1.600744956058483,
                -1.0602537380731019,
                0.7955402181586653,
                -2.4845664867618393
            ]
        },
        {
            "positions": [
                -0.27389746577050456,
                -1.322337735610546,
                1.6531302831559636,
                -1.0176045680142731,
                0.7011287842122703,
                -2.5870489053937504
            ]
        },
        {
            "positions": [
                -0.20768784280716054,
                -1.2914203123452432,
                1.7055156102534441,
                -0.9749553979554445,
                0.6067173502658754,
                -2.6895313240256615
            ]
        },
        {
            "positions": [
                -0.14147821984381656,
                -1.2605028890799406,
                1.7579009373509247,
                -0.9323062278966158,
                0.5123059163194805,
                -2.7920137426575726
            ]
        },
        {
            "positions": [
                -0.07526859688047255,
                -1.2295854658146381,
                1.810286264448405,
                -0.889657057837787,
                0.4178944823730856,
                -2.894496161289484
            ]
        },
        {
            "positions": [
                -0.00905897391712851,
                -1.1986680425493355,
                1.8626715915458856,
                -0.8470078877789584,
                0.32348304842669057,
                -2.9969785799213953
            ]
        },
        {
            "positions": [
                0.05715064904621542,
                -1.1677506192840328,
                1.9150569186433661,
                -0.8043587177201297,
                0.22907161448029567,
                -3.0994609985533064
            ]
        },
        {
            "positions": [
                0.12336027200955944,
                -1.1368331960187301,
                1.9674422457408467,
                -0.761709547661301,
                0.13466018053390078,
                -3.2019434171852175
            ]
        }
    ]
}