{
    "goal": {
        "global_pose": {
            "orientation": {
                "w": 0.7047431468963623,
                "x": -0.7094548344612122,
                "y": 0.0024358443915843964,
                "z": -0.0022348060738295317
            },
            "position": {
                "x": 0.6094750761985779,
                "y": 0.3671506643295288,
                "z": 0.19426114857196808
            }
        },
        "name": "move_to_magneteinheit_A"
    },
    "id": "LazyPRMstar_move_to_magneteinheit_A_32",
    "joint_names": [
        "shoulder_pan_joint",
        "shoulder_lift_joint",
        "elbow_joint",
        "wrist_1_joint",
        "wrist_2_joint",
        "wrist_3_joint"
    ],
    "metrics": {
        "cart_traj_len": 3.412108164747872,
        "distance_elbow_joint": 3.868373181018367,
        "distance_shoulder_lift_joint": 0.43351705660592166,
        "distance_shoulder_pan_joint": 2.6318549773624786,
        "distance_wrist_1_joint": 0.8631416926734715,
        "distance_wrist_2_joint": 1.692309109343357,
        "distance_wrist_3_joint": 3.711087131450994,
        "smoothness": 0.031621307084399426,
        "time": 5.0308283110000005,
        "traj_len": 3.633219391731608,
        "weighted_distance": 4.814344006546832
    },
    "planner": "LazyPRMstar",
    "start": {
        "state": {
            "elbow_joint": -1.919618573717145,
            "shoulder_lift_joint": -1.2443395971678275,
            "shoulder_pan_joint": 2.6996025300909787,
            "wrist_1_joint": -1.548550951253194,
            "wrist_2_joint": -1.5709469090946802,
            "wrist_3_joint": 0.4420197732051276
        }
    },
    "waypoints": [
        {
            "positions": [
                2.6996025300909787,
                -1.2443395971678275,
                -1.919618573717145,
                -1.548550951253194,
                -1.5709469090946802,
                0.4420197732051276
            ]
        },
        {
            "positions": [
                2.593713835562542,
                -1.2339739998417882,
                -1.8265683974830709,
                -1.5108505158831909,
                -1.5312555450739118,
                0.3473309233931002
            ]
        },
        {
            "positions": [
                2.4878251410341052,
                -1.223608402515749,
                -1.7335182212489966,
                -1.4731500805131876,
                -1.4915641810531435,
                0.2526420735810727
            ]
        },
        {
            "positions": [
                2.3819364465056685,
                -1.2132428051897097,
                -1.6404680450149225,
                -1.4354496451431844,
                -1.451872817032375,
                0.1579532237690453
            ]
        },
        {
            "positions": [
                2.2760477519772317,
                -1.2028772078636705,
                -1.5474178687808484,
                -1.3977492097731814,
                -1.4121814530116066,
                0.0632643739570179
            ]
        },
        {
            "positions": [
                2.170159057448795,
                -1.1925116105376312,
                -1.4543676925467743,
                -1.3600487744031782,
                -1.3724900889908382,
                -0.031424475855009515
            ]
        },
        {
            "positions": [
                2.0642703629203583,
                -1.1821460132115917,
                -1.3613175163127003,
                -1.322348339033175,
                -1.33279872497007,
                -0.12611332566703698
            ]
        },
        {
            "positions": [
                1.958381668391921,
                -1.1717804158855525,
                -1.268267340078626,
                -1.2846479036631717,
                -1.2931073609493016,
                -0.2208021754790644
            ]
        },
        {
            "positions": [
                1.8524929738634843,
                -1.1614148185595132,
                -1.1752171638445519,
                -1.2469474682931685,
                -1.253415996928533,
                -0.3154910252910918
            ]
        },
        {
            "positions": [
                1.7466042793350476,
                -1.151049221233474,
                -1.0821669876104778,
                -1.2092470329231655,
                -1.2137246329077647,
                -0.4101798751031192
            ]
        },
        {
            "positions": [
                1.6407155848066108,
                -1.1406836239074347,
                -0.9891168113764036,
                -1.1715465975531623,
                -1.1740332688869963,
                -0.5048687249151467
            ]
        },
        {
            "positions": [
                1.5348268902781739,
                -1.1303180265813955,
                -0.8960666351423294,
                -1.133846162183159,
                -1.1343419048662278,
                -0.5995575747271742
            ]
        },
        {
            "positions": [
                1.4289381957497373,
                -1.1199524292553562,
                -0.8030164589082553,
                -1.0961457268131558,
                -1.0946505408454597,
                -0.6942464245392015
            ]
        },
        {
            "positions": [
                1.3230495012213004,
                -1.109586831929317,
                -0.709966282674181,
                -1.0584452914431526,
                -1.054959176824691,
                -0.788935274351229
            ]
        },
        {
            "positions": [
                1.2171608066928636,
                -1.0992212346032777,
                -0.6169161064401072,
                -1.0207448560731494,
                -1.0152678128039228,
                -0.8836241241632563
            ]
        },
        {
            "positions": [
                1.111272112164427,
                -1.0888556372772382,
                -0.5238659302060329,
                -0.9830444207031462,
                -0.9755764487831544,
                -0.9783129739752838
            ]
        },
        {
            "positions": [
                1.0053834176359902,
                -1.078490039951199,
                -0.4308157539719588,
                -0.945343985333143,
                -0.9358850847623861,
                -1.0730018237873111
            ]
        },
        {
            "positions": [
                0.8994947231075532,
                -1.0681244426251597,
                -0.3377655777378845,
                -0.9076435499631398,
                -0.8961937207416176,
                -1.1676906735993386
            ]
        },
        {
            "positions": [
                0.7936060285791167,
                -1.0577588452991205,
                -0.24471540150381066,
                -0.8699431145931367,
                -0.8565023567208493,
                -1.262379523411366
            ]
        },
        {
            "positions": [
                0.6877173340506797,
                -1.0473932479730812,
                -0.15166522526973636,
                -0.8322426792231334,
                -0.8168109927000808,
                -1.3570683732233935
            ]
        },
        {
            "positions": [
                0.634324817606103,
                -1.0391486298788097,
                -0.03840818999629203,
                -0.8302097006986505,
                -0.7624210647922883,
                -1.4844658583729555
            ]
        },
        {
            "positions": [
                0.5809323011615264,
                -1.0309040117845383,
                0.0748488452771523,
                -0.8281767221741677,
                -0.7080311368844958,
                -1.6118633435225176
            ]
        },
        {
            "positions": [
                0.5275397847169496,
                -1.0226593936902668,
                0.18810588055059663,
                -0.8261437436496848,
                -0.6536412089767032,
                -1.7392608286720799
            ]
        },
        {
            "positions": [
                0.474147268272373,
                -1.0144147755959954,
                0.30136291582404096,
                -0.824110765125202,
                -0.5992512810689108,
                -1.866658313821642
            ]
        },
        {
            "positions": [
                0.42075475182779637,
                -1.0061701575017241,
                0.4146199510974853,
                -0.8220777866007191,
                -0.5448613531611182,
                -1.994055798971204
            ]
        },
        {
            "positions": [
                0.36736223538321966,
                -0.9979255394074527,
                0.5278769863709296,
                -0.8200448080762361,
                -0.49047142525332565,
                -2.1214532841207663
            ]
        },
        {
            "positions": [
                0.313969718938643,
                -0.9896809213131812,
                0.6411340216443739,
                -0.8180118295517533,
                -0.43608149734553314,
                -2.2488507692703283
            ]
        },
        {
            "positions": [
                0.26057720249406635,
                -0.9814363032189097,
                0.7543910569178183,
                -0.8159788510272704,
                -0.38169156943774063,
                -2.3762482544198904
            ]
        },
        {
            "positions": [
                0.2286162310665989,
                -0.9771658212312819,
                0.8652475669765521,
                -0.8126594616944305,
                -0.3340209367174841,
                -2.4741861251841732
            ]
        },
        {
            "positions": [
                0.19665525963913144,
                -0.9728953392436542,
                0.976104077035286,
                -0.8093400723615907,
                -0.28635030399722755,
                -2.5721239959484565
            ]
        },
        {
            "positions": [
                0.16469428821166399,
                -0.9686248572560264,
                1.08696058709402,
                -0.8060206830287507,
                -0.238679671276971,
                -2.6700618667127394
            ]
        },
        {
            "positions": [
                0.142149016240863,
                -0.9745233731837717,
                1.239754335834673,
                -0.7937654390247044,
                -0.17798191686221213,
                -2.7764803637360513
            ]
        },
        {
            "positions": [
                0.11960374427006207,
                -0.9804218891115168,
                1.392548084575326,
                -0.7815101950206582,
                -0.11728416244745324,
                -2.8828988607593633
            ]
        },
        {
            "positions": [
                0.1114609927531983,
                -1.0077268999606355,
                1.548408956011779,
                -0.7601073446839326,
                -0.05252271024636623,
                -2.9904888052565424
            ]
        },
        {
            "positions": [
                0.10331824123633455,
                -1.035031910809754,
                1.704269827448232,
                -0.7387044943472069,
                0.012238741954720772,
                -3.098078749753721
            ]
        },
        {
            "positions": [
                0.09517548971947079,
                -1.0623369216588727,
                1.860130698884685,
                -0.7173016440104812,
                0.0770001941558078,
                -3.2056686942509
            ]
        },
        {
            "positions": [
                0.12260342671044197,
                -1.126427173950147,
                1.9487546073012205,
                -0.6854092585797226,
                0.12136220024867705,
                -3.269067358245866
            ]
        }
    ]
}{
    "goal": {
        "global_pose": {
            "orientation": {
                "w": 0.7047431468963623,
                "x": -0.7094548344612122,
                "y": 0.0024358443915843964,
                "z": -0.0022348060738295317
            },
            "position": {
                "x": 0.6094750761985779,
                "y": 0.3671506643295288,
                "z": 0.19426114857196808
            }
        },
        "name": "move_to_magneteinheit_A"
    },
    "id": "LazyPRMstar_move_to_magneteinheit_A_32",
    "joint_names": [
        "shoulder_pan_joint",
        "shoulder_lift_joint",
        "elbow_joint",
        "wrist_1_joint",
        "wrist_2_joint",
        "wrist_3_joint"
    ],
    "metrics": {
        "cart_traj_len": 1.45577484267415,
        "distance_elbow_joint": 0.16587041133115932,
        "distance_shoulder_lift_joint": 1.1878244104869669,
        "distance_shoulder_pan_joint": 1.2419225020434332,
        "distance_wrist_1_joint": 0.7569163651686838,
        "distance_wrist_2_joint": 2.071050736205329,
        "distance_wrist_3_joint": 4.266038240742905,
        "smoothness": 0.4444623472393482,
        "time": 5.018765484,
        "traj_len": 3.112815874088681,
        "weighted_distance": 4.5879915266746405
    },
    "planner": "LazyPRMstar",
    "start": {
        "state": {
            "elbow_joint": 1.919643534880228,
            "shoulder_lift_joint": -1.8972525353963687,
            "shoulder_pan_joint": -1.1188672234189438,
            "wrist_1_joint": -1.5931878212786155,
            "wrist_2_joint": 1.5706036197970081,
            "wrist_3_joint": 1.118896926603594
        }
    },
    "waypoints": [
        {
            "positions": [
                -1.1188672234189438,
                -1.8972525353963687,
                1.919643534880228,
                -1.5931878212786155,
                1.5706036197970081,
                1.118896926603594
            ]
        },
        {
            "positions": [
                -1.0836485085570864,
                -1.8510859128927613,
                1.9172060476054604,
                -1.5593654998350948,
                1.4870891676512943,
                0.9275451503980016
            ]
        },
        {
            "positions": [
                -1.0484297936952287,
                -1.8049192903891538,
                1.9147685603306925,
                -1.525543178391574,
                1.4035747155055804,
                0.7361933741924092
            ]
        },
        {
            "positions": [
                -1.013211078833371,
                -1.758752667885546,
                1.9123310730559249,
                -1.4917208569480536,
                1.3200602633598668,
                0.5448415979868168
            ]
        },
        {
            "positions": [
                -0.9779923639715136,
                -1.7125860453819386,
                1.909893585781157,
                -1.4578985355045329,
                1.236545811214153,
                0.35348982178122434
            ]
        },
        {
            "positions": [
                -0.942773649109656,
                -1.6664194228783311,
                1.9074560985063893,
                -1.4240762140610121,
                1.1530313590684391,
                0.16213804557563194
            ]
        },
        {
            "positions": [
                -0.9075549342477984,
                -1.6202528003747236,
                1.9050186112316214,
                -1.3902538926174914,
                1.0695169069227255,
                -0.029213730629960466
            ]
        },
        {
            "positions": [
                -0.8723362193859409,
                -1.574086177871116,
                1.9025811239568537,
                -1.3564315711739707,
                0.9860024547770116,
                -0.22056550683555298
            ]
        },
        {
            "positions": [
                -0.8371175045240833,
                -1.5279195553675085,
                1.900143636682086,
                -1.32260924973045,
                0.9024880026312978,
                -0.4119172830411453
            ]
        },
        {
            "positions": [
                -0.8018987896622257,
                -1.481752932863901,
                1.8977061494073182,
                -1.2887869282869295,
                0.8189735504855841,
                -0.6032690592467378
            ]
        },
        {
            "positions": [
                -0.7666800748003681,
                -1.4355863103602935,
                1.8952686621325505,
                -1.2549646068434088,
                0.7354590983398702,
                -0.7946208354523301
            ]
        },
        {
            "positions": [
                -0.7314613599385106,
                -1.389419687856686,
                1.8928311748577826,
                -1.2211422853998881,
                0.6519446461941564,
                -0.9859726116579226
            ]
        },
        {
            "positions": [
                -0.696242645076653,
                -1.3432530653530783,
                1.890393687583015,
                -1.1873199639563676,
                0.5684301940484426,
                -1.177324387863515
            ]
        },
        {
            "positions": [
                -0.6610239302147954,
                -1.2970864428494708,
                1.887956200308247,
                -1.1534976425128467,
                0.4849157419027288,
                -1.3686761640691076
            ]
        },
        {
            "positions": [
                -0.6258052153529379,
                -1.2509198203458634,
                1.8855187130334794,
                -1.1196753210693262,
                0.40140128975701517,
                -1.5600279402747
            ]
        },
        {
            "positions": [
                -0.5905865004910803,
                -1.2047531978422557,
                1.8830812257587117,
                -1.0858529996258055,
                0.3178868376113011,
                -1.7513797164802922
            ]
        },
        {
            "positions": [
                -0.5553677856292227,
                -1.1585865753386484,
                1.8806437384839438,
                -1.0520306781822848,
                0.23437238546558747,
                -1.9427314926858845
            ]
        },
        {
            "positions": [
                -0.5201490707673652,
                -1.1124199528350407,
                1.8782062512091762,
                -1.018208356738764,
                0.15085793331987363,
                -2.1340832688914775
            ]
        },
        {
            "positions": [
                -0.4849303559055076,
                -1.0662533303314332,
                1.8757687639344083,
                -0.9843860352952435,
                0.06734348117416,
                -2.3254350450970698
            ]
        },
        {
            "positions": [
                -0.44971164104365,
                -1.0200867078278257,
                1.8733312766596406,
                -0.9505637138517228,
                -0.016170970971554066,
                -2.516786821302662
            ]
        },
        {
            "positions": [
                -0.41449292618179245,
                -0.9739200853242181,
                1.8708937893848727,
                -0.9167413924082022,
                -0.09968542311726769,
                -2.7081385975082544
            ]
        },
        {
            "positions": [
                -0.3792742113199349,
                -0.9277534628206106,
                1.868456302110105,
                -0.8829190709646815,
                -0.18319987526298157,
                -2.8994903737138467
            ]
        },
        {
            "positions": [
                -0.25369183883382884,
                -0.9823347972984128,
                1.8971270967503642,
                -0.871257167250994,
                -0.10388806497664665,
                -2.9614031088202126
            ]
        },
        {
            "positions": [
                -0.1281094663477228,
                -1.036916131776215,
                1.9257978913906233,
                -0.8595952635373065,
                -0.024576254690311744,
                -3.0233158439265786
            ]
        },
        {
            "positions": [
                -0.002527093861616758,
                -1.0914974662540171,
                1.9544686860308822,
                -0.8479333598236192,
                0.05473555559602317,
                -3.085228579032944
            ]
        },
        {
            "positions": [
                0.12305527862448934,
                -1.1460788007318194,
                1.9831394806711413,
                -0.8362714561099317,
                0.13404736588235805,
                -3.14714131413931
            ]
        }
    ]
}