{
    "goal": {
        "global_pose": {
            "orientation": {
                "w": 0.5084816217422485,
                "x": -0.49083608388900757,
                "y": 0.5182115435600281,
                "z": -0.4816462993621826
            },
            "position": {
                "x": 0.5540239810943604,
                "y": 0.030875300988554955,
                "z": 0.16403168439865112
            }
        },
        "name": "move_to_storage_A"
    },
    "id": "LazyPRM_move_to_storage_A_109",
    "joint_names": [
        "shoulder_pan_joint",
        "shoulder_lift_joint",
        "elbow_joint",
        "wrist_1_joint",
        "wrist_2_joint",
        "wrist_3_joint"
    ],
    "metrics": {
        "cart_traj_len": 0.3531254917588005,
        "distance_elbow_joint": 0.4536499882486438,
        "distance_shoulder_lift_joint": 0.23171088510901594,
        "distance_shoulder_pan_joint": 0.46180835691924554,
        "distance_wrist_1_joint": 0.26402385377661697,
        "distance_wrist_2_joint": 1.0975845767587598,
        "distance_wrist_3_joint": 0.10505366978100161,
        "smoothness": 1.3322676330666223e-15,
        "time": 0.02207812,
        "traj_len": 1.6167347743502283,
        "weighted_distance": 2.0458609680744835
    },
    "planner": "LazyPRM",
    "start": {
        "state": {
            "elbow_joint": 1.9715477243005601,
            "shoulder_lift_joint": -1.1394853015351272,
            "shoulder_pan_joint": 0.12281154014795169,
            "wrist_1_joint": -0.7804696478968182,
            "wrist_2_joint": 0.12958648046900423,
            "wrist_3_joint": -3.192491284697111
        }
    },
    "waypoints": [
        {
            "positions": [
                0.12281154014795169,
                -1.1394853015351272,
                1.9715477243005601,
                -0.7804696478968182,
                0.12958648046900423,
                -3.192491284697111
            ]
        },
        {
            "positions": [
                0.05683891773091662,
                -1.172586856550701,
                2.0363548654789376,
                -0.8181873412934777,
                0.2863842771488271,
                -3.1774836175855397
            ]
        },
        {
            "positions": [
                -0.009133704686118446,
                -1.2056884115662745,
                2.1011620066573156,
                -0.8559050346901373,
                0.4431820738286499,
                -3.1624759504739677
            ]
        },
        {
            "positions": [
                -0.07510632710315353,
                -1.2387899665818483,
                2.165969147835693,
                -0.8936227280867969,
                0.5999798705084727,
                -3.147468283362396
            ]
        },
        {
            "positions": [
                -0.14107894952018857,
                -1.271891521597422,
                2.230776289014071,
                -0.9313404214834564,
                0.7567776671882955,
                -3.1324606162508246
            ]
        },
        {
            "positions": [
                -0.20705157193722368,
                -1.3049930766129958,
                2.2955834301924485,
                -0.9690581148801161,
                0.9135754638681184,
                -3.117452949139253
            ]
        },
        {
            "positions": [
                -0.27302419435425873,
                -1.3380946316285693,
                2.360390571370826,
                -1.0067758082767755,
                1.070373260547941,
                -3.102445282027681
            ]
        },
        {
            "positions": [
                -0.33899681677129384,
                -1.3711961866441431,
                2.425197712549204,
                -1.0444935016734351,
                1.2271710572277639,
                -3.0874376149161096
            ]
        }
    ]
}