{
    "goal": {
        "global_pose": {
            "orientation": {
                "w": 0.7047431468963623,
                "x": -0.7094548344612122,
                "y": 0.0024358443915843964,
                "z": -0.0022348060738295317
            },
            "position": {
                "x": 0.6094750761985779,
                "y": 0.3671506643295288,
                "z": 0.19426114857196808
            }
        },
        "name": "move_to_magneteinheit_A"
    },
    "id": "LazyPRM_move_to_magneteinheit_A_134",
    "joint_names": [
        "shoulder_pan_joint",
        "shoulder_lift_joint",
        "elbow_joint",
        "wrist_1_joint",
        "wrist_2_joint",
        "wrist_3_joint"
    ],
    "metrics": {
        "cart_traj_len": 3.414081116207199,
        "distance_elbow_joint": 3.9074292453100887,
        "distance_shoulder_lift_joint": 0.7370286582142558,
        "distance_shoulder_pan_joint": 2.970914593807339,
        "distance_wrist_1_joint": 0.7022803542039414,
        "distance_wrist_2_joint": 2.4885310410193435,
        "distance_wrist_3_joint": 3.656004433668375,
        "smoothness": 0.3536182639492971,
        "time": 0.09681663400000001,
        "traj_len": 3.8029183959458486,
        "weighted_distance": 4.99649963362186
    },
    "planner": "LazyPRM",
    "start": {
        "state": {
            "elbow_joint": -1.919618573717145,
            "shoulder_lift_joint": -1.2443395971678275,
            "shoulder_pan_joint": 2.6996025300909787,
            "wrist_1_joint": -1.548550951253194,
            "wrist_2_joint": -1.5709469090946802,
            "wrist_3_joint": 0.4420197732051276
        }
    },
    "waypoints": [
        {
            "positions": [
                2.6996025300909787,
                -1.2443395971678275,
                -1.919618573717145,
                -1.548550951253194,
                -1.5709469090946802,
                0.4420197732051276
            ]
        },
        {
            "positions": [
                2.615558464194341,
                -1.2540350813131,
                -1.8082153288083747,
                -1.5348570928567824,
                -1.507460658504007,
                0.3375013121168198
            ]
        },
        {
            "positions": [
                2.5315143982977033,
                -1.2637305654583726,
                -1.6968120838996044,
                -1.521163234460371,
                -1.4439744079133339,
                0.23298285102851202
            ]
        },
        {
            "positions": [
                2.4474703324010654,
                -1.2734260496036454,
                -1.585408838990834,
                -1.5074693760639593,
                -1.3804881573226606,
                0.12846438994020426
            ]
        },
        {
            "positions": [
                2.363426266504428,
                -1.283121533748918,
                -1.4740055940820638,
                -1.4937755176675478,
                -1.3170019067319876,
                0.023945928851896447
            ]
        },
        {
            "positions": [
                2.27938220060779,
                -1.2928170178941905,
                -1.3626023491732933,
                -1.480081659271136,
                -1.2535156561413143,
                -0.08057253223641131
            ]
        },
        {
            "positions": [
                2.195338134711152,
                -1.302512502039463,
                -1.251199104264523,
                -1.4663878008747246,
                -1.190029405550641,
                -0.18509099332471907
            ]
        },
        {
            "positions": [
                2.1112940688145145,
                -1.3122079861847356,
                -1.1397958593557527,
                -1.452693942478313,
                -1.126543154959968,
                -0.28960945441302693
            ]
        },
        {
            "positions": [
                2.0272500029178766,
                -1.321903470330008,
                -1.0283926144469824,
                -1.4390000840819013,
                -1.063056904369295,
                -0.3941279155013347
            ]
        },
        {
            "positions": [
                1.9432059370212391,
                -1.3315989544752809,
                -0.9169893695382123,
                -1.4253062256854898,
                -0.9995706537786218,
                -0.49864637658964234
            ]
        },
        {
            "positions": [
                1.8591618711246012,
                -1.3412944386205534,
                -0.8055861246294418,
                -1.4116123672890781,
                -0.9360844031879485,
                -0.6031648376779501
            ]
        },
        {
            "positions": [
                1.7751178052279637,
                -1.350989922765826,
                -0.6941828797206717,
                -1.3979185088926667,
                -0.8725981525972755,
                -0.7076832987662578
            ]
        },
        {
            "positions": [
                1.6910737393313258,
                -1.3606854069110985,
                -0.5827796348119012,
                -1.384224650496255,
                -0.8091119020066022,
                -0.8122017598545657
            ]
        },
        {
            "positions": [
                1.607029673434688,
                -1.370380891056371,
                -0.4713763899031309,
                -1.3705307920998435,
                -0.7456256514159291,
                -0.9167202209428735
            ]
        },
        {
            "positions": [
                1.5229856075380503,
                -1.3800763752016438,
                -0.3599731449943606,
                -1.3568369337034318,
                -0.6821394008252559,
                -1.0212386820311814
            ]
        },
        {
            "positions": [
                1.4389415416414126,
                -1.3897718593469164,
                -0.24856990008559032,
                -1.3431430753070202,
                -0.6186531502345828,
                -1.125757143119489
            ]
        },
        {
            "positions": [
                1.3548974757447747,
                -1.399467343492189,
                -0.13716665517682003,
                -1.3294492169106087,
                -0.5551668996439096,
                -1.230275604207797
            ]
        },
        {
            "positions": [
                1.2708534098481372,
                -1.4091628276374615,
                -0.025763410268049736,
                -1.315755358514197,
                -0.4916806490532364,
                -1.3347940652961046
            ]
        },
        {
            "positions": [
                1.1868093439514995,
                -1.418858311782734,
                0.08563983464072034,
                -1.3020615001177855,
                -0.42819439846256335,
                -1.4393125263844122
            ]
        },
        {
            "positions": [
                1.1027652780548616,
                -1.4285537959280066,
                0.19704307954949107,
                -1.2883676417213739,
                -0.3647081478718901,
                -1.5438309874727203
            ]
        },
        {
            "positions": [
                1.0187212121582239,
                -1.4382492800732793,
                0.30844632445826137,
                -1.2746737833249622,
                -0.30122189728121684,
                -1.648349448561028
            ]
        },
        {
            "positions": [
                0.9346771462615862,
                -1.447944764218552,
                0.41984956936703166,
                -1.2609799249285507,
                -0.2377356466905438,
                -1.7528679096493356
            ]
        },
        {
            "positions": [
                0.8506330803649484,
                -1.4576402483638244,
                0.5312528142758015,
                -1.2472860665321392,
                -0.17424939609987078,
                -1.8573863707376432
            ]
        },
        {
            "positions": [
                0.7665890144683105,
                -1.467335732509097,
                0.6426560591845722,
                -1.2335922081357276,
                -0.1107631455091973,
                -1.9619048318259513
            ]
        },
        {
            "positions": [
                0.6825449485716728,
                -1.4770312166543695,
                0.7540593040933425,
                -1.2198983497393159,
                -0.04727689491852427,
                -2.066423292914259
            ]
        },
        {
            "positions": [
                0.5985008826750353,
                -1.4867267007996423,
                0.8654625490021128,
                -1.2062044913429042,
                0.016209355672148762,
                -2.170941754002567
            ]
        },
        {
            "positions": [
                0.5144568167783974,
                -1.4964221849449149,
                0.9768657939108831,
                -1.1925106329464927,
                0.07969560626282202,
                -2.2754602150908747
            ]
        },
        {
            "positions": [
                0.43041275088175945,
                -1.5061176690901874,
                1.0882690388196534,
                -1.178816774550081,
                0.14318185685349527,
                -2.379978676179183
            ]
        },
        {
            "positions": [
                0.34636868498512197,
                -1.51581315323546,
                1.1996722837284237,
                -1.1651229161536696,
                0.2066681074441683,
                -2.4844971372674904
            ]
        },
        {
            "positions": [
                0.26232461908848403,
                -1.5255086373807325,
                1.311075528637194,
                -1.151429057757258,
                0.27015435803484156,
                -2.589015598355798
            ]
        },
        {
            "positions": [
                0.17828055319184655,
                -1.535204121526005,
                1.4224787735459643,
                -1.1377351993608464,
                0.3336406086255146,
                -2.6935340594441057
            ]
        },
        {
            "positions": [
                0.09423648729520862,
                -1.5448996056712778,
                1.5338820184547346,
                -1.1240413409644348,
                0.39712685921618784,
                -2.798052520532414
            ]
        },
        {
            "positions": [
                0.010192421398570684,
                -1.5545950898165504,
                1.645285263363505,
                -1.1103474825680233,
                0.4606131098068609,
                -2.9025709816207215
            ]
        },
        {
            "positions": [
                -0.07385164449806669,
                -1.564290573961823,
                1.7566885082722754,
                -1.0966536241716116,
                0.5240993603975341,
                -3.007089442709029
            ]
        },
        {
            "positions": [
                -0.04723528247950977,
                -1.4849154953264478,
                1.7981292686570893,
                -1.0355826510476687,
                0.4458860033324785,
                -3.0477256619144177
            ]
        },
        {
            "positions": [
                -0.020618920460952837,
                -1.405540416691073,
                1.8395700290419033,
                -0.9745116779237256,
                0.36767264626742296,
                -3.0883618811198064
            ]
        },
        {
            "positions": [
                0.005997441557604094,
                -1.3261653380556981,
                1.881010789426717,
                -0.9134407047997826,
                0.2894592892023674,
                -3.1289981003251945
            ]
        },
        {
            "positions": [
                0.03261380357616102,
                -1.246790259420323,
                1.9224515498115309,
                -0.8523697316758396,
                0.2112459321373118,
                -3.169634319530583
            ]
        },
        {
            "positions": [
                0.12360877472022604,
                -1.1472128925415626,
                1.9878106715929442,
                -0.8584688663024266,
                0.13061458887040492,
                -3.125283978597919
            ]
        }
    ]
}{
    "goal": {
        "global_pose": {
            "orientation": {
                "w": 0.7047431468963623,
                "x": -0.7094548344612122,
                "y": 0.0024358443915843964,
                "z": -0.0022348060738295317
            },
            "position": {
                "x": 0.6094750761985779,
                "y": 0.3671506643295288,
                "z": 0.19426114857196808
            }
        },
        "name": "move_to_magneteinheit_A"
    },
    "id": "LazyPRM_move_to_magneteinheit_A_134",
    "joint_names": [
        "shoulder_pan_joint",
        "shoulder_lift_joint",
        "elbow_joint",
        "wrist_1_joint",
        "wrist_2_joint",
        "wrist_3_joint"
    ],
    "metrics": {
        "cart_traj_len": 2.927734678319692,
        "distance_elbow_joint": 0.7162606759963972,
        "distance_shoulder_lift_joint": 3.0195571770805083,
        "distance_shoulder_pan_joint": 3.876698557659019,
        "distance_wrist_1_joint": 0.8434455710192729,
        "distance_wrist_2_joint": 1.4448353810099295,
        "distance_wrist_3_joint": 4.340591574225369,
        "smoothness": 0.4686190952117408,
        "time": 0.107857938,
        "traj_len": 3.7737764821184756,
        "weighted_distance": 5.021041031247448
    },
    "planner": "LazyPRM",
    "start": {
        "state": {
            "elbow_joint": 1.919643534880228,
            "shoulder_lift_joint": -1.8972525353963687,
            "shoulder_pan_joint": -1.1188672234189438,
            "wrist_1_joint": -1.5931878212786155,
            "wrist_2_joint": 1.5706036197970081,
            "wrist_3_joint": 1.118896926603594
        }
    },
    "waypoints": [
        {
            "positions": [
                -1.1188672234189438,
                -1.8972525353963687,
                1.919643534880228,
                -1.5931878212786155,
                1.5706036197970081,
                1.118896926603594
            ]
        },
        {
            "positions": [
                -1.2202167615951298,
                -1.9840753792061918,
                1.893769251870674,
                -1.5549747484294227,
                1.555366286673891,
                0.9928546899193761
            ]
        },
        {
            "positions": [
                -1.3215662997713156,
                -2.0708982230160147,
                1.86789496886112,
                -1.51676167558023,
                1.540128953550774,
                0.8668124532351582
            ]
        },
        {
            "positions": [
                -1.4229158379475015,
                -2.1577210668258378,
                1.8420206858515658,
                -1.4785486027310373,
                1.524891620427657,
                0.7407702165509402
            ]
        },
        {
            "positions": [
                -1.5242653761236875,
                -2.244543910635661,
                1.8161464028420116,
                -1.4403355298818445,
                1.5096542873045398,
                0.6147279798667223
            ]
        },
        {
            "positions": [
                -1.6256149142998733,
                -2.331366754445484,
                1.7902721198324576,
                -1.4021224570326518,
                1.4944169541814227,
                0.48868574318250446
            ]
        },
        {
            "positions": [
                -1.7269644524760595,
                -2.418189598255307,
                1.7643978368229034,
                -1.363909384183459,
                1.4791796210583057,
                0.36264350649828647
            ]
        },
        {
            "positions": [
                -1.8283139906522452,
                -2.50501244206513,
                1.7385235538133492,
                -1.3256963113342666,
                1.4639422879351887,
                0.2366012698140687
            ]
        },
        {
            "positions": [
                -1.929663528828431,
                -2.591835285874953,
                1.712649270803795,
                -1.2874832384850738,
                1.4487049548120716,
                0.11055903312985071
            ]
        },
        {
            "positions": [
                -2.0310130670046167,
                -2.6786581296847762,
                1.686774987794241,
                -1.2492701656358811,
                1.4334676216889546,
                -0.015483203554367053
            ]
        },
        {
            "positions": [
                -2.132362605180803,
                -2.7654809734945993,
                1.6609007047846869,
                -1.2110570927866884,
                1.4182302885658373,
                -0.14152544023858504
            ]
        },
        {
            "positions": [
                -2.233712143356989,
                -2.8523038173044224,
                1.635026421775133,
                -1.1728440199374957,
                1.4029929554427203,
                -0.26756767692280303
            ]
        },
        {
            "positions": [
                -2.335061681533175,
                -2.9391266611142455,
                1.6091521387655785,
                -1.134630947088303,
                1.3877556223196033,
                -0.393609913607021
            ]
        },
        {
            "positions": [
                -2.4364112197093606,
                -3.0259495049240686,
                1.5832778557560245,
                -1.0964178742391102,
                1.3725182891964862,
                -0.5196521502912388
            ]
        },
        {
            "positions": [
                -2.3297797796523354,
                -2.9471636629427014,
                1.5991068139590325,
                -1.0819730565732866,
                1.3205703704294276,
                -0.6322372543466778
            ]
        },
        {
            "positions": [
                -2.22314833959531,
                -2.8683778209613346,
                1.6149357721620408,
                -1.067528238907463,
                1.268622451662369,
                -0.7448223584021167
            ]
        },
        {
            "positions": [
                -2.1165168995382855,
                -2.7895919789799675,
                1.6307647303650488,
                -1.0530834212416393,
                1.2166745328953104,
                -0.8574074624575558
            ]
        },
        {
            "positions": [
                -2.0098854594812603,
                -2.7108061369986007,
                1.6465936885680568,
                -1.0386386035758155,
                1.1647266141282517,
                -0.9699925665129948
            ]
        },
        {
            "positions": [
                -1.903254019424235,
                -2.6320202950172336,
                1.662422646771065,
                -1.0241937859099919,
                1.112778695361193,
                -1.0825776705684338
            ]
        },
        {
            "positions": [
                -1.79662257936721,
                -2.5532344530358664,
                1.678251604974073,
                -1.0097489682441683,
                1.0608307765941343,
                -1.1951627746238729
            ]
        },
        {
            "positions": [
                -1.6899911393101847,
                -2.4744486110544996,
                1.694080563177081,
                -0.9953041505783446,
                1.0088828578270757,
                -1.307747878679312
            ]
        },
        {
            "positions": [
                -1.5833596992531598,
                -2.395662769073133,
                1.709909521380089,
                -0.980859332912521,
                0.956934939060017,
                -1.4203329827347508
            ]
        },
        {
            "positions": [
                -1.4767282591961346,
                -2.3168769270917657,
                1.7257384795830972,
                -0.9664145152466974,
                0.9049870202929584,
                -1.53291808679019
            ]
        },
        {
            "positions": [
                -1.3700968191391094,
                -2.2380910851103986,
                1.7415674377861052,
                -0.9519696975808737,
                0.8530391015258997,
                -1.645503190845629
            ]
        },
        {
            "positions": [
                -1.2634653790820844,
                -2.159305243129032,
                1.7573963959891132,
                -0.9375248799150501,
                0.8010911827588411,
                -1.7580882949010679
            ]
        },
        {
            "positions": [
                -1.1568339390250593,
                -2.0805194011476646,
                1.7732253541921215,
                -0.9230800622492263,
                0.7491432639917824,
                -1.870673398956507
            ]
        },
        {
            "positions": [
                -1.0502024989680343,
                -2.001733559166298,
                1.7890543123951295,
                -0.9086352445834027,
                0.6971953452247238,
                -1.9832585030119458
            ]
        },
        {
            "positions": [
                -0.9435710589110089,
                -1.9229477171849305,
                1.8048832705981375,
                -0.8941904269175791,
                0.6452474264576651,
                -2.095843607067385
            ]
        },
        {
            "positions": [
                -0.8369396188539839,
                -1.8441618752035636,
                1.8207122288011455,
                -0.8797456092517555,
                0.5932995076906065,
                -2.2084287111228242
            ]
        },
        {
            "positions": [
                -0.730308178796959,
                -1.7653760332221968,
                1.8365411870041535,
                -0.8653007915859319,
                0.5413515889235478,
                -2.321013815178263
            ]
        },
        {
            "positions": [
                -0.6236767387399336,
                -1.6865901912408297,
                1.8523701452071617,
                -0.8508559739201081,
                0.4894036701564891,
                -2.4335989192337024
            ]
        },
        {
            "positions": [
                -0.5170452986829086,
                -1.6078043492594627,
                1.8681991034101697,
                -0.8364111562542845,
                0.4374557513894306,
                -2.546184023289141
            ]
        },
        {
            "positions": [
                -0.4104138586258834,
                -1.5290185072780957,
                1.884028061613178,
                -0.8219663385884608,
                0.385507832622372,
                -2.65876912734458
            ]
        },
        {
            "positions": [
                -0.30378241856885824,
                -1.4502326652967286,
                1.899857019816186,
                -0.8075215209226372,
                0.33355991385531314,
                -2.7713542314000192
            ]
        },
        {
            "positions": [
                -0.19715097851183305,
                -1.3714468233153618,
                1.915685978019194,
                -0.7930767032568136,
                0.2816119950882545,
                -2.883939335455458
            ]
        },
        {
            "positions": [
                -0.09051953845480831,
                -1.2926609813339949,
                1.931514936222202,
                -0.77863188559099,
                0.2296640763211959,
                -2.996524439510897
            ]
        },
        {
            "positions": [
                0.01611190160221687,
                -1.2138751393526277,
                1.9473438944252102,
                -0.7641870679251662,
                0.17771615755413728,
                -3.109109543566336
            ]
        },
        {
            "positions": [
                0.12274334165924199,
                -1.1350892973712607,
                1.9631728526282182,
                -0.7497422502593426,
                0.12576823878707866,
                -3.221694647621775
            ]
        }
    ]
}