{
    "goal": {
        "global_pose": {
            "orientation": {
                "w": 0.5084816217422485,
                "x": -0.49083608388900757,
                "y": 0.5182115435600281,
                "z": -0.4816462993621826
            },
            "position": {
                "x": 0.5540239810943604,
                "y": 0.030875300988554955,
                "z": 0.16403168439865112
            }
        },
        "name": "move_to_storage_A"
    },
    "id": "LazyPRM_move_to_storage_A_62",
    "joint_names": [
        "shoulder_pan_joint",
        "shoulder_lift_joint",
        "elbow_joint",
        "wrist_1_joint",
        "wrist_2_joint",
        "wrist_3_joint"
    ],
    "metrics": {
        "cart_traj_len": 0.35282847721405625,
        "distance_elbow_joint": 0.45037200705537694,
        "distance_shoulder_lift_joint": 0.23319282839972177,
        "distance_shoulder_pan_joint": 0.4605519346939505,
        "distance_wrist_1_joint": 0.25149095660091836,
        "distance_wrist_2_joint": 1.1008300978897783,
        "distance_wrist_3_joint": 0.10281028071484632,
        "smoothness": 4.440892098500626e-16,
        "time": 0.011923747,
        "traj_len": 1.6122183801689498,
        "weighted_distance": 2.038918762794384
    },
    "planner": "LazyPRM",
    "start": {
        "state": {
            "elbow_joint": 1.9715477243005601,
            "shoulder_lift_joint": -1.1394853015351272,
            "shoulder_pan_joint": 0.12281154014795169,
            "wrist_1_joint": -0.7804696478968182,
            "wrist_2_joint": 0.12958648046900423,
            "wrist_3_joint": -3.192491284697111
        }
    },
    "waypoints": [
        {
            "positions": [
                0.12281154014795169,
                -1.1394853015351272,
                1.9715477243005601,
                -0.7804696478968182,
                0.12958648046900423,
                -3.192491284697111
            ]
        },
        {
            "positions": [
                0.057018406620244474,
                -1.1727985627350874,
                2.035886582451328,
                -0.816396927411235,
                0.28684792302468687,
                -3.1778041017378476
            ]
        },
        {
            "positions": [
                -0.00877472690746274,
                -1.2061118239350477,
                2.1002254406020966,
                -0.852324206925652,
                0.44410936558036945,
                -3.1631169187785835
            ]
        },
        {
            "positions": [
                -0.07456786043516996,
                -1.239425085135008,
                2.1645642987528646,
                -0.8882514864400689,
                0.601370808136052,
                -3.14842973581932
            ]
        },
        {
            "positions": [
                -0.14036099396287716,
                -1.2727383463349682,
                2.2289031569036326,
                -0.9241787659544858,
                0.7586322506917347,
                -3.133742552860056
            ]
        },
        {
            "positions": [
                -0.20615412749058437,
                -1.3060516075349284,
                2.2932420150544006,
                -0.9601060454689028,
                0.9158936932474173,
                -3.1190553699007926
            ]
        },
        {
            "positions": [
                -0.2719472610182916,
                -1.3393648687348887,
                2.357580873205169,
                -0.9960333249833195,
                1.0731551358030997,
                -3.1043681869415285
            ]
        },
        {
            "positions": [
                -0.3377403945459988,
                -1.372678129934849,
                2.421919731355937,
                -1.0319606044977365,
                1.2304165783587824,
                -3.089681003982265
            ]
        }
    ]
}