{
    "goal": {
        "global_pose": {
            "orientation": {
                "w": 0.5084816217422485,
                "x": -0.49083608388900757,
                "y": 0.5182115435600281,
                "z": -0.4816462993621826
            },
            "position": {
                "x": 0.5540239810943604,
                "y": 0.030875300988554955,
                "z": 0.16403168439865112
            }
        },
        "name": "move_to_storage_A"
    },
    "id": "LazyPRMstar_move_to_storage_A_143",
    "joint_names": [
        "shoulder_pan_joint",
        "shoulder_lift_joint",
        "elbow_joint",
        "wrist_1_joint",
        "wrist_2_joint",
        "wrist_3_joint"
    ],
    "metrics": {
        "cart_traj_len": 0.353394836095803,
        "distance_elbow_joint": 0.4531236501240352,
        "distance_shoulder_lift_joint": 0.23426566373281754,
        "distance_shoulder_pan_joint": 0.45999207476684073,
        "distance_wrist_1_joint": 0.2535696368611794,
        "distance_wrist_2_joint": 1.1090933406508765,
        "distance_wrist_3_joint": 0.09771503404813142,
        "smoothness": 0.0,
        "time": 5.0002205680000005,
        "traj_len": 1.6148558450164772,
        "weighted_distance": 2.0410420000069083
    },
    "planner": "LazyPRMstar",
    "start": {
        "state": {
            "elbow_joint": 1.9715477243005601,
            "shoulder_lift_joint": -1.1394853015351272,
            "shoulder_pan_joint": 0.12281154014795169,
            "wrist_1_joint": -0.7804696478968182,
            "wrist_2_joint": 0.12958648046900423,
            "wrist_3_joint": -3.192491284697111
        }
    },
    "waypoints": [
        {
            "positions": [
                0.12281154014795169,
                -1.1394853015351272,
                1.9715477243005601,
                -0.7804696478968182,
                0.12958648046900423,
                -3.192491284697111
            ]
        },
        {
            "positions": [
                0.05709838660983159,
                -1.1729518249255297,
                2.0362796743182794,
                -0.8166938817341295,
                0.28802838627627225,
                -3.178531994118807
            ]
        },
        {
            "positions": [
                -0.008614766928288511,
                -1.206418348315932,
                2.1010116243359986,
                -0.8529181155714408,
                0.44647029208354033,
                -3.164572703540502
            ]
        },
        {
            "positions": [
                -0.07432792046640861,
                -1.2398848717063347,
                2.165743574353718,
                -0.8891423494087521,
                0.6049121978908084,
                -3.1506134129621977
            ]
        },
        {
            "positions": [
                -0.1400410740045287,
                -1.2733513950967372,
                2.230475524371437,
                -0.9253665832460636,
                0.7633541036980764,
                -3.1366541223838933
            ]
        },
        {
            "positions": [
                -0.20575422754264883,
                -1.3068179184871398,
                2.295207474389157,
                -0.9615908170833749,
                0.9217960095053446,
                -3.122694831805589
            ]
        },
        {
            "positions": [
                -0.2714673810807689,
                -1.3402844418775421,
                2.359939424406876,
                -0.9978150509206862,
                1.0802379153126127,
                -3.108735541227284
            ]
        },
        {
            "positions": [
                -0.337180534618889,
                -1.3737509652679447,
                2.4246713744245953,
                -1.0340392847579976,
                1.2386798211198806,
                -3.0947762506489798
            ]
        }
    ]
}