{
    "goal": {
        "global_pose": {
            "orientation": {
                "w": 0.7047431468963623,
                "x": -0.7094548344612122,
                "y": 0.0024358443915843964,
                "z": -0.0022348060738295317
            },
            "position": {
                "x": 0.6094750761985779,
                "y": 0.3671506643295288,
                "z": 0.19426114857196808
            }
        },
        "name": "move_to_magneteinheit_A"
    },
    "id": "LazyPRMstar_move_to_magneteinheit_A_97",
    "joint_names": [
        "shoulder_pan_joint",
        "shoulder_lift_joint",
        "elbow_joint",
        "wrist_1_joint",
        "wrist_2_joint",
        "wrist_3_joint"
    ],
    "metrics": {
        "cart_traj_len": 5.33178246030617,
        "distance_elbow_joint": 4.395908282073425,
        "distance_shoulder_lift_joint": 0.5169060593663319,
        "distance_shoulder_pan_joint": 7.514005506547696,
        "distance_wrist_1_joint": 0.6963630504439637,
        "distance_wrist_2_joint": 1.7047290063911715,
        "distance_wrist_3_joint": 4.693382404049352,
        "smoothness": 0.25977075003334577,
        "time": 5.050979671,
        "traj_len": 4.41829088097105,
        "weighted_distance": 5.5954580843578645
    },
    "planner": "LazyPRMstar",
    "start": {
        "state": {
            "elbow_joint": -1.919618573717145,
            "shoulder_lift_joint": -1.2443395971678275,
            "shoulder_pan_joint": 2.6996025300909787,
            "wrist_1_joint": -1.548550951253194,
            "wrist_2_joint": -1.5709469090946802,
            "wrist_3_joint": 0.4420197732051276
        }
    },
    "waypoints": [
        {
            "positions": [
                2.6996025300909787,
                -1.2443395971678275,
                -1.919618573717145,
                -1.548550951253194,
                -1.5709469090946802,
                0.4420197732051276
            ]
        },
        {
            "positions": [
                2.459341212232163,
                -1.2297606374589458,
                -1.9312282165001917,
                -1.5291639412589462,
                -1.5082026175495564,
                0.39497706076746064
            ]
        },
        {
            "positions": [
                2.219079894373347,
                -1.2151816777500641,
                -1.9428378592832385,
                -1.509776931264698,
                -1.4454583260044327,
                0.34793434832979375
            ]
        },
        {
            "positions": [
                1.9788185765145316,
                -1.2006027180411825,
                -1.9544475020662853,
                -1.4903899212704501,
                -1.382714034459309,
                0.3008916358921268
            ]
        },
        {
            "positions": [
                1.738557258655716,
                -1.1860237583323008,
                -1.966057144849332,
                -1.471002911276202,
                -1.3199697429141852,
                0.25384892345445986
            ]
        },
        {
            "positions": [
                1.4982959407969003,
                -1.171444798623419,
                -1.9776667876323788,
                -1.451615901281954,
                -1.2572254513690613,
                0.20680621101679295
            ]
        },
        {
            "positions": [
                1.2580346229380845,
                -1.1568658389145374,
                -1.9892764304154256,
                -1.432228891287706,
                -1.1944811598239375,
                0.15976349857912603
            ]
        },
        {
            "positions": [
                1.017773305079269,
                -1.1422868792056557,
                -2.000886073198472,
                -1.412841881293458,
                -1.1317368682788138,
                0.11272078614145908
            ]
        },
        {
            "positions": [
                0.7775119872204532,
                -1.127707919496774,
                -2.012495715981519,
                -1.39345487129921,
                -1.06899257673369,
                0.06567807370379214
            ]
        },
        {
            "positions": [
                0.5372506693616375,
                -1.1131289597878924,
                -2.0241053587645657,
                -1.374067861304962,
                -1.0062482851885663,
                0.01863536126612525
            ]
        },
        {
            "positions": [
                0.2969893515028219,
                -1.0985500000790107,
                -2.0357150015476124,
                -1.354680851310714,
                -0.9435039936434425,
                -0.028407351171541695
            ]
        },
        {
            "positions": [
                0.056728033644005915,
                -1.083971040370129,
                -2.047324644330659,
                -1.335293841316466,
                -0.8807597020983188,
                -0.07545006360920864
            ]
        },
        {
            "positions": [
                -0.18353328421480963,
                -1.0693920806612474,
                -2.058934287113706,
                -1.315906831322218,
                -0.818015410553195,
                -0.12249277604687553
            ]
        },
        {
            "positions": [
                -0.4237946020736256,
                -1.0548131209523657,
                -2.0705439298967527,
                -1.29651982132797,
                -0.7552711190080712,
                -0.16953548848454253
            ]
        },
        {
            "positions": [
                -0.6640559199324407,
                -1.040234161243484,
                -2.0821535726797995,
                -1.277132811333722,
                -0.6925268274629475,
                -0.21657820092220942
            ]
        },
        {
            "positions": [
                -0.9043172377912567,
                -1.0256552015346023,
                -2.0937632154628463,
                -1.2577458013394738,
                -0.6297825359178237,
                -0.2636209133598764
            ]
        },
        {
            "positions": [
                -1.1445785556500723,
                -1.0110762418257206,
                -2.105372858245893,
                -1.2383587913452259,
                -0.5670382443727,
                -0.3106636257975433
            ]
        },
        {
            "positions": [
                -1.3848398735088878,
                -0.996497282116839,
                -2.11698250102894,
                -1.218971781350978,
                -0.5042939528275763,
                -0.3577063382352103
            ]
        },
        {
            "positions": [
                -1.6251011913677038,
                -0.9819183224079573,
                -2.1285921438119866,
                -1.1995847713567298,
                -0.44154966128245254,
                -0.4047490506728771
            ]
        },
        {
            "positions": [
                -1.8653625092265198,
                -0.9673393626990756,
                -2.1402017865950334,
                -1.180197761362482,
                -0.3788053697373286,
                -0.4517917631105441
            ]
        },
        {
            "positions": [
                -2.105623827085335,
                -0.9527604029901939,
                -2.15181142937808,
                -1.160810751368234,
                -0.31606107819220486,
                -0.498834475548211
            ]
        },
        {
            "positions": [
                -2.3458851449441513,
                -0.9381814432813123,
                -2.163421072161127,
                -1.1414237413739858,
                -0.2533167866470811,
                -0.5458771879858779
            ]
        },
        {
            "positions": [
                -2.2607638404092354,
                -0.9454486124357887,
                -2.020245010656663,
                -1.131450091699339,
                -0.23996854926971659,
                -0.41810182788731437
            ]
        },
        {
            "positions": [
                -2.175642535874319,
                -0.9527157815902652,
                -1.8770689491521997,
                -1.1214764420246923,
                -0.22662031189235204,
                -0.2903264677887508
            ]
        },
        {
            "positions": [
                -2.090521231339403,
                -0.9599829507447416,
                -1.7338928876477362,
                -1.1115027923500456,
                -0.2132720745149875,
                -0.16255110769018727
            ]
        },
        {
            "positions": [
                -2.005399926804487,
                -0.967250119899218,
                -1.5907168261432725,
                -1.1015291426753988,
                -0.19992383713762296,
                -0.03477574759162372
            ]
        },
        {
            "positions": [
                -1.920278622269571,
                -0.9745172890536944,
                -1.447540764638809,
                -1.091555493000752,
                -0.1865755997602584,
                0.09299961250693989
            ]
        },
        {
            "positions": [
                -1.8351573177346547,
                -0.9817844582081708,
                -1.3043647031343455,
                -1.0815818433261053,
                -0.17322736238289388,
                0.22077497260550338
            ]
        },
        {
            "positions": [
                -1.7500360131997388,
                -0.9890516273626473,
                -1.1611886416298818,
                -1.0716081936514588,
                -0.1598791250055293,
                0.348550332704067
            ]
        },
        {
            "positions": [
                -1.6649147086648226,
                -0.9963187965171237,
                -1.0180125801254183,
                -1.061634543976812,
                -0.1465308876281648,
                0.4763256928026305
            ]
        },
        {
            "positions": [
                -1.5797934041299064,
                -1.0035859656716002,
                -0.8748365186209546,
                -1.0516608943021653,
                -0.13318265025080023,
                0.6041010529011941
            ]
        },
        {
            "positions": [
                -1.4946720995949905,
                -1.0108531348260765,
                -0.7316604571164911,
                -1.0416872446275185,
                -0.11983441287343569,
                0.7318764129997577
            ]
        },
        {
            "positions": [
                -1.4095507950600745,
                -1.018120303980553,
                -0.5884843956120276,
                -1.0317135949528717,
                -0.10648617549607117,
                0.8596517730983211
            ]
        },
        {
            "positions": [
                -1.3244294905251583,
                -1.0253874731350294,
                -0.4453083341075641,
                -1.021739945278225,
                -0.09313793811870663,
                0.9874271331968847
            ]
        },
        {
            "positions": [
                -1.2393081859902422,
                -1.032654642289506,
                -0.3021322726031004,
                -1.0117662956035782,
                -0.07978970074134206,
                1.1152024932954483
            ]
        },
        {
            "positions": [
                -1.154186881455326,
                -1.0399218114439823,
                -0.15895621109863667,
                -1.0017926459289315,
                -0.06644146336397752,
                1.242977853394012
            ]
        },
        {
            "positions": [
                -1.0690655769204098,
                -1.0471889805984589,
                -0.015780149594172954,
                -0.9918189962542847,
                -0.05309322598661298,
                1.3707532134925755
            ]
        },
        {
            "positions": [
                -0.9839442723854939,
                -1.0544561497529352,
                0.12739591191029032,
                -0.981845346579638,
                -0.039744988609248466,
                1.498528573591139
            ]
        },
        {
            "positions": [
                -0.8988229678505779,
                -1.0617233189074118,
                0.2705719734147536,
                -0.9718716969049912,
                -0.026396751231883925,
                1.6263039336897025
            ]
        },
        {
            "positions": [
                -0.8137016633156617,
                -1.0689904880618881,
                0.41374803491921774,
                -0.9618980472303444,
                -0.013048513854519356,
                1.754079293788266
            ]
        },
        {
            "positions": [
                -0.7285803587807456,
                -1.0762576572163645,
                0.556924096423681,
                -0.9519243975556978,
                0.00029972352284518555,
                1.8818546538868297
            ]
        },
        {
            "positions": [
                -0.6434590542458294,
                -1.083524826370841,
                0.7001001579281447,
                -0.941950747881051,
                0.013647960900209755,
                2.0096300139853933
            ]
        },
        {
            "positions": [
                -0.5583377497109134,
                -1.0907919955253174,
                0.8432762194326084,
                -0.9319770982064043,
                0.026996198277574268,
                2.137405374083957
            ]
        },
        {
            "positions": [
                -0.4732164451759975,
                -1.098059164679794,
                0.9864522809370717,
                -0.9220034485317575,
                0.04034443565493878,
                2.26518073418252
            ]
        },
        {
            "positions": [
                -0.3880951406410811,
                -1.1053263338342703,
                1.1296283424415354,
                -0.9120297988571108,
                0.05369267303230335,
                2.392956094281084
            ]
        },
        {
            "positions": [
                -0.30297383610616535,
                -1.1125935029887468,
                1.2728044039459987,
                -0.902056149182464,
                0.06704091040966786,
                2.5207314543796473
            ]
        },
        {
            "positions": [
                -0.2178525315712494,
                -1.1198606721432232,
                1.4159804654504624,
                -0.8920824995078174,
                0.08038914778703243,
                2.648506814478211
            ]
        },
        {
            "positions": [
                -0.132731227036333,
                -1.1271278412976997,
                1.5591565269549261,
                -0.8821088498331706,
                0.093737385164397,
                2.7762821745767745
            ]
        },
        {
            "positions": [
                -0.047609922501417046,
                -1.134395010452176,
                1.7023325884593894,
                -0.8721352001585239,
                0.10708562254176152,
                2.904057534675338
            ]
        },
        {
            "positions": [
                0.03751138203349935,
                -1.1416621796066526,
                1.8455086499638536,
                -0.8621615504838771,
                0.12043385991912609,
                3.0318328947739017
            ]
        },
        {
            "positions": [
                0.12263268656841514,
                -1.148929348761129,
                1.988684711468317,
                -0.8521879008092303,
                0.13378209729649063,
                3.1596082548724653
            ]
        }
    ]
}{
    "goal": {
        "global_pose": {
            "orientation": {
                "w": 0.7047431468963623,
                "x": -0.7094548344612122,
                "y": 0.0024358443915843964,
                "z": -0.0022348060738295317
            },
            "position": {
                "x": 0.6094750761985779,
                "y": 0.3671506643295288,
                "z": 0.19426114857196808
            }
        },
        "name": "move_to_magneteinheit_A"
    },
    "id": "LazyPRMstar_move_to_magneteinheit_A_97",
    "joint_names": [
        "shoulder_pan_joint",
        "shoulder_lift_joint",
        "elbow_joint",
        "wrist_1_joint",
        "wrist_2_joint",
        "wrist_3_joint"
    ],
    "metrics": {
        "cart_traj_len": 1.132608278413938,
        "distance_elbow_joint": 0.21979007651083426,
        "distance_shoulder_lift_joint": 0.7610390225527786,
        "distance_shoulder_pan_joint": 1.2409888520859431,
        "distance_wrist_1_joint": 0.8402354530545245,
        "distance_wrist_2_joint": 1.4449168523179048,
        "distance_wrist_3_joint": 4.34476675225299,
        "smoothness": 0.02533635809702187,
        "time": 5.024823228,
        "traj_len": 2.9751868863610866,
        "weighted_distance": 4.452687145831535
    },
    "planner": "LazyPRMstar",
    "start": {
        "state": {
            "elbow_joint": 1.919643534880228,
            "shoulder_lift_joint": -1.8972525353963687,
            "shoulder_pan_joint": -1.1188672234189438,
            "wrist_1_joint": -1.5931878212786155,
            "wrist_2_joint": 1.5706036197970081,
            "wrist_3_joint": 1.118896926603594
        }
    },
    "waypoints": [
        {
            "positions": [
                -1.1188672234189438,
                -1.8972525353963687,
                1.919643534880228,
                -1.5931878212786155,
                1.5706036197970081,
                1.118896926603594
            ]
        },
        {
            "positions": [
                -1.040809281722443,
                -1.8756541269824305,
                1.9316682647329833,
                -1.5655467603520812,
                1.4880419465784953,
                0.9447366495290357
            ]
        },
        {
            "positions": [
                -0.9627513400259422,
                -1.8540557185684923,
                1.9436929945857384,
                -1.537905699425547,
                1.4054802733599827,
                0.7705763724544774
            ]
        },
        {
            "positions": [
                -0.8846933983294413,
                -1.832457310154554,
                1.9557177244384933,
                -1.5102646384990126,
                1.32291860014147,
                0.5964160953799192
            ]
        },
        {
            "positions": [
                -0.8066354566329405,
                -1.8108589017406158,
                1.9677424542912485,
                -1.482623577572478,
                1.2403569269229573,
                0.42225581830536096
            ]
        },
        {
            "positions": [
                -0.7285775149364396,
                -1.7892604933266778,
                1.9797671841440037,
                -1.4549825166459438,
                1.1577952537044445,
                0.2480955412308028
            ]
        },
        {
            "positions": [
                -0.6505195732399387,
                -1.7676620849127396,
                1.9917919139967588,
                -1.4273414557194095,
                1.0752335804859319,
                0.07393526415624452
            ]
        },
        {
            "positions": [
                -0.5724616315434379,
                -1.7460636764988013,
                2.0038166438495137,
                -1.3997003947928752,
                0.992671907267419,
                -0.10022501291831376
            ]
        },
        {
            "positions": [
                -0.49440368984693706,
                -1.7244652680848631,
                2.015841373702269,
                -1.372059333866341,
                0.9101102340489063,
                -0.27438528999287204
            ]
        },
        {
            "positions": [
                -0.4163457481504361,
                -1.7028668596709249,
                2.027866103555024,
                -1.3444182729398064,
                0.8275485608303936,
                -0.4485455670674303
            ]
        },
        {
            "positions": [
                -0.3382878064539354,
                -1.6812684512569867,
                2.0398908334077794,
                -1.3167772120132721,
                0.7449868876118809,
                -0.6227058441419884
            ]
        },
        {
            "positions": [
                -0.2602298647574345,
                -1.6596700428430484,
                2.0519155632605344,
                -1.2891361510867378,
                0.6624252143933682,
                -0.7968661212165467
            ]
        },
        {
            "positions": [
                -0.22836724030539834,
                -1.6160486653430937,
                2.0446223925829905,
                -1.2444541691815172,
                0.6176970104838462,
                -0.9992830965859507
            ]
        },
        {
            "positions": [
                -0.1965046158533622,
                -1.5724272878431387,
                2.037329221905446,
                -1.1997721872762968,
                0.572968806574324,
                -1.2017000719553548
            ]
        },
        {
            "positions": [
                -0.16464199140132604,
                -1.528805910343184,
                2.0300360512279023,
                -1.155090205371076,
                0.5282406026648019,
                -1.404117047324759
            ]
        },
        {
            "positions": [
                -0.1327793669492899,
                -1.485184532843229,
                2.0227428805503584,
                -1.1104082234658557,
                0.48351239875527985,
                -1.606534022694163
            ]
        },
        {
            "positions": [
                -0.10091674249725374,
                -1.4415631553432742,
                2.0154497098728146,
                -1.065726241560635,
                0.43878419484575776,
                -1.8089509980635672
            ]
        },
        {
            "positions": [
                -0.0690541180452176,
                -1.3979417778433194,
                2.0081565391952703,
                -1.0210442596554143,
                0.39405599093623567,
                -2.0113679734329715
            ]
        },
        {
            "positions": [
                -0.03719149359318144,
                -1.3543204003433644,
                2.0008633685177264,
                -0.9763622777501938,
                0.3493277870267136,
                -2.2137849488023758
            ]
        },
        {
            "positions": [
                -0.0053288691411453315,
                -1.3106990228434097,
                1.9935701978401823,
                -0.9316802958449732,
                0.3045995831171915,
                -2.416201924171779
            ]
        },
        {
            "positions": [
                0.02653375531089086,
                -1.2670776453434547,
                1.9862770271626384,
                -0.8869983139397527,
                0.2598713792076694,
                -2.6186188995411834
            ]
        },
        {
            "positions": [
                0.058396379762927,
                -1.2234562678435,
                1.9789838564850943,
                -0.8423163320345322,
                0.2151431752981473,
                -2.8210358749105877
            ]
        },
        {
            "positions": [
                0.09025900421496313,
                -1.1798348903435452,
                1.9716906858075505,
                -0.7976343501293115,
                0.1704149713886252,
                -3.0234528502799916
            ]
        },
        {
            "positions": [
                0.12212162866699924,
                -1.1362135128435902,
                1.9643975151300064,
                -0.752952368224091,
                0.12568676747910307,
                -3.225869825649396
            ]
        }
    ]
}