{
    "goal": {
        "global_pose": {
            "orientation": {
                "w": 0.5084816217422485,
                "x": -0.49083608388900757,
                "y": 0.5182115435600281,
                "z": -0.4816462993621826
            },
            "position": {
                "x": 0.5540239810943604,
                "y": 0.030875300988554955,
                "z": 0.16403168439865112
            }
        },
        "name": "move_to_storage_A"
    },
    "id": "LazyPRM_move_to_storage_A_125",
    "joint_names": [
        "shoulder_pan_joint",
        "shoulder_lift_joint",
        "elbow_joint",
        "wrist_1_joint",
        "wrist_2_joint",
        "wrist_3_joint"
    ],
    "metrics": {
        "cart_traj_len": 0.3524662301400776,
        "distance_elbow_joint": 0.4529132839464043,
        "distance_shoulder_lift_joint": 0.23519725167693806,
        "distance_shoulder_pan_joint": 0.46180268696861504,
        "distance_wrist_1_joint": 0.2571785381578936,
        "distance_wrist_2_joint": 1.0941370998869475,
        "distance_wrist_3_joint": 0.10481177681484688,
        "smoothness": 1.3322676295501878e-15,
        "time": 0.022245477,
        "traj_len": 1.6143235851128626,
        "weighted_distance": 2.0413181597012704
    },
    "planner": "LazyPRM",
    "start": {
        "state": {
            "elbow_joint": 1.9715477243005601,
            "shoulder_lift_joint": -1.1394853015351272,
            "shoulder_pan_joint": 0.12281154014795169,
            "wrist_1_joint": -0.7804696478968182,
            "wrist_2_joint": 0.12958648046900423,
            "wrist_3_joint": -3.192491284697111
        }
    },
    "waypoints": [
        {
            "positions": [
                0.12281154014795169,
                -1.1394853015351272,
                1.9715477243005601,
                -0.7804696478968182,
                0.12958648046900423,
                -3.192491284697111
            ]
        },
        {
            "positions": [
                0.05683972772386384,
                -1.1730849089175468,
                2.0362496220071895,
                -0.8172094390622315,
                0.2858917804528539,
                -3.177518173723562
            ]
        },
        {
            "positions": [
                -0.009132084700224016,
                -1.2066845162999666,
                2.1009515197138184,
                -0.8539492302276449,
                0.4421970804367035,
                -3.162545062750012
            ]
        },
        {
            "positions": [
                -0.07510389712431188,
                -1.2402841236823863,
                2.165653417420448,
                -0.8906890213930583,
                0.5985023804205531,
                -3.1475719517764627
            ]
        },
        {
            "positions": [
                -0.1410757095483997,
                -1.2738837310648061,
                2.2303553151270767,
                -0.9274288125584716,
                0.7548076804044028,
                -3.132598840802913
            ]
        },
        {
            "positions": [
                -0.2070475219724876,
                -1.3074833384472258,
                2.295057212833706,
                -0.964168603723885,
                0.9111129803882525,
                -3.1176257298293635
            ]
        },
        {
            "positions": [
                -0.27301933439657544,
                -1.3410829458296454,
                2.359759110540335,
                -1.0009083948892985,
                1.067418280372102,
                -3.1026526188558137
            ]
        },
        {
            "positions": [
                -0.33899114682066334,
                -1.3746825532120652,
                2.4244610082469644,
                -1.0376481860547118,
                1.2237235803559519,
                -3.0876795078822643
            ]
        }
    ]
}