{
    "goal": {
        "global_pose": {
            "orientation": {
                "w": 0.5084816217422485,
                "x": -0.49083608388900757,
                "y": 0.5182115435600281,
                "z": -0.4816462993621826
            },
            "position": {
                "x": 0.5540239810943604,
                "y": 0.030875300988554955,
                "z": 0.16403168439865112
            }
        },
        "name": "move_to_storage_A"
    },
    "id": "LazyPRMstar_move_to_storage_A_10",
    "joint_names": [
        "shoulder_pan_joint",
        "shoulder_lift_joint",
        "elbow_joint",
        "wrist_1_joint",
        "wrist_2_joint",
        "wrist_3_joint"
    ],
    "metrics": {
        "cart_traj_len": 0.3526600845278218,
        "distance_elbow_joint": 0.4516176877127216,
        "distance_shoulder_lift_joint": 0.23507586944464243,
        "distance_shoulder_pan_joint": 0.45968819154281376,
        "distance_wrist_1_joint": 0.2461106609865965,
        "distance_wrist_2_joint": 1.1051170154443848,
        "distance_wrist_3_joint": 0.1044343841121056,
        "smoothness": 6.661338165333112e-16,
        "time": 5.000232332,
        "traj_len": 1.6130851835049704,
        "weighted_distance": 2.0401324108739747
    },
    "planner": "LazyPRMstar",
    "start": {
        "state": {
            "elbow_joint": 1.9715477243005601,
            "shoulder_lift_joint": -1.1394853015351272,
            "shoulder_pan_joint": 0.12281154014795169,
            "wrist_1_joint": -0.7804696478968182,
            "wrist_2_joint": 0.12958648046900423,
            "wrist_3_joint": -3.192491284697111
        }
    },
    "waypoints": [
        {
            "positions": [
                0.12281154014795169,
                -1.1394853015351272,
                1.9715477243005601,
                -0.7804696478968182,
                0.12958648046900423,
                -3.192491284697111
            ]
        },
        {
            "positions": [
                0.0571417984989783,
                -1.1730675685986476,
                2.036064536830949,
                -0.8156283137520463,
                0.28746033981820207,
                -3.1775720869668103
            ]
        },
        {
            "positions": [
                -0.008527943149995096,
                -1.2066498356621678,
                2.1005813493613377,
                -0.8507869796072743,
                0.44533419916739986,
                -3.16265288923651
            ]
        },
        {
            "positions": [
                -0.07419768479896847,
                -1.2402321027256882,
                2.1650981618917267,
                -0.8859456454625023,
                0.6032080585165978,
                -3.147733691506209
            ]
        },
        {
            "positions": [
                -0.13986742644794187,
                -1.2738143697892086,
                2.229614974422115,
                -0.9211043113177304,
                0.7610819178657955,
                -3.132814493775908
            ]
        },
        {
            "positions": [
                -0.2055371680969153,
                -1.307396636852729,
                2.294131786952504,
                -0.9562629771729585,
                0.9189557772149933,
                -3.117895296045607
            ]
        },
        {
            "positions": [
                -0.2712069097458886,
                -1.3409789039162492,
                2.3586485994828927,
                -0.9914216430281866,
                1.0768296365641912,
                -3.1029760983153065
            ]
        },
        {
            "positions": [
                -0.33687665139486206,
                -1.3745611709797696,
                2.4231654120132817,
                -1.0265803088834147,
                1.234703495913389,
                -3.0880569005850056
            ]
        }
    ]
}