{
    "goal": {
        "global_pose": {
            "orientation": {
                "w": 0.5084816217422485,
                "x": -0.49083608388900757,
                "y": 0.5182115435600281,
                "z": -0.4816462993621826
            },
            "position": {
                "x": 0.5540239810943604,
                "y": 0.030875300988554955,
                "z": 0.16403168439865112
            }
        },
        "name": "move_to_storage_A"
    },
    "id": "LazyPRMstar_move_to_storage_A_109",
    "joint_names": [
        "shoulder_pan_joint",
        "shoulder_lift_joint",
        "elbow_joint",
        "wrist_1_joint",
        "wrist_2_joint",
        "wrist_3_joint"
    ],
    "metrics": {
        "cart_traj_len": 0.35295367006003825,
        "distance_elbow_joint": 0.4514218459739885,
        "distance_shoulder_lift_joint": 0.23631442174796158,
        "distance_shoulder_pan_joint": 0.4606191329437973,
        "distance_wrist_1_joint": 0.24439853762987707,
        "distance_wrist_2_joint": 1.1037985741555794,
        "distance_wrist_3_joint": 0.10090485371295754,
        "smoothness": 8.881784197001252e-16,
        "time": 5.0016229590000005,
        "traj_len": 1.6116629195226158,
        "weighted_distance": 2.0365323924199026
    },
    "planner": "LazyPRMstar",
    "start": {
        "state": {
            "elbow_joint": 1.9715477243005601,
            "shoulder_lift_joint": -1.1394853015351272,
            "shoulder_pan_joint": 0.12281154014795169,
            "wrist_1_joint": -0.7804696478968182,
            "wrist_2_joint": 0.12958648046900423,
            "wrist_3_joint": -3.192491284697111
        }
    },
    "waypoints": [
        {
            "positions": [
                0.12281154014795169,
                -1.1394853015351272,
                1.9715477243005601,
                -0.7804696478968182,
                0.12958648046900423,
                -3.192491284697111
            ]
        },
        {
            "positions": [
                0.05700880687026637,
                -1.1732445046419788,
                2.0360365594397014,
                -0.8153837247010863,
                0.28727199106265844,
                -3.17807630559526
            ]
        },
        {
            "positions": [
                -0.008793926407418953,
                -1.2070037077488305,
                2.1005253945788427,
                -0.8502978015053545,
                0.4449575016563126,
                -3.163661326493409
            ]
        },
        {
            "positions": [
                -0.07459665968510427,
                -1.2407629108556821,
                2.165014229717984,
                -0.8852118783096226,
                0.6026430122499669,
                -3.149246347391558
            ]
        },
        {
            "positions": [
                -0.14039939296278958,
                -1.2745221139625338,
                2.229503064857125,
                -0.9201259551138907,
                0.760328522843621,
                -3.134831368289707
            ]
        },
        {
            "positions": [
                -0.20620212624047496,
                -1.3082813170693854,
                2.293991899996266,
                -0.9550400319181589,
                0.9180140334372752,
                -3.120416389187856
            ]
        },
        {
            "positions": [
                -0.2720048595181602,
                -1.342040520176237,
                2.3584807351354073,
                -0.9899541087224271,
                1.0756995440309294,
                -3.1060014100860047
            ]
        },
        {
            "positions": [
                -0.3378075927958456,
                -1.3757997232830887,
                2.4229695702745486,
                -1.0248681855266952,
                1.2333850546245837,
                -3.0915864309841536
            ]
        }
    ]
}