{
    "goal": {
        "global_pose": {
            "orientation": {
                "w": 0.5084816217422485,
                "x": -0.49083608388900757,
                "y": 0.5182115435600281,
                "z": -0.4816462993621826
            },
            "position": {
                "x": 0.5540239810943604,
                "y": 0.030875300988554955,
                "z": 0.16403168439865112
            }
        },
        "name": "move_to_storage_A"
    },
    "id": "LazyPRMstar_move_to_storage_A_74",
    "joint_names": [
        "shoulder_pan_joint",
        "shoulder_lift_joint",
        "elbow_joint",
        "wrist_1_joint",
        "wrist_2_joint",
        "wrist_3_joint"
    ],
    "metrics": {
        "cart_traj_len": 0.35379384366637245,
        "distance_elbow_joint": 0.4514379179844612,
        "distance_shoulder_lift_joint": 0.2322963139543308,
        "distance_shoulder_pan_joint": 0.45969139259985337,
        "distance_wrist_1_joint": 0.2568398156284787,
        "distance_wrist_2_joint": 1.1115123182667719,
        "distance_wrist_3_joint": 0.09566939214724313,
        "smoothness": 0.0,
        "time": 5.000216647999999,
        "traj_len": 1.614759161788884,
        "weighted_distance": 2.0413569185154454
    },
    "planner": "LazyPRMstar",
    "start": {
        "state": {
            "elbow_joint": 1.9715477243005601,
            "shoulder_lift_joint": -1.1394853015351272,
            "shoulder_pan_joint": 0.12281154014795169,
            "wrist_1_joint": -0.7804696478968182,
            "wrist_2_joint": 0.12958648046900423,
            "wrist_3_joint": -3.192491284697111
        }
    },
    "waypoints": [
        {
            "positions": [
                0.12281154014795169,
                -1.1394853015351272,
                1.9715477243005601,
                -0.7804696478968182,
                0.12958648046900423,
                -3.192491284697111
            ]
        },
        {
            "positions": [
                0.05714134120511549,
                -1.1726704892428887,
                2.0360388554411974,
                -0.8171610501294579,
                0.28837395450711445,
                -3.1788242286760764
            ]
        },
        {
            "positions": [
                -0.008528857737720705,
                -1.2058556769506503,
                2.1005299865818348,
                -0.8538524523620978,
                0.4471614285452247,
                -3.1651571726550416
            ]
        },
        {
            "positions": [
                -0.07419905668055689,
                -1.239040864658412,
                2.165021117722472,
                -0.8905438545947376,
                0.605948902583335,
                -3.151490116634007
            ]
        },
        {
            "positions": [
                -0.13986925562339309,
                -1.2722260523661733,
                2.2295122488631094,
                -0.9272352568273774,
                0.7647363766214452,
                -3.1378230606129724
            ]
        },
        {
            "positions": [
                -0.2055394545662293,
                -1.3054112400739348,
                2.2940033800037467,
                -0.9639266590600173,
                0.9235238506595556,
                -3.1241560045919377
            ]
        },
        {
            "positions": [
                -0.27120965350906545,
                -1.3385964277816964,
                2.358494511144384,
                -1.000618061292657,
                1.0823113246976659,
                -3.110488948570903
            ]
        },
        {
            "positions": [
                -0.33687985245190166,
                -1.371781615489458,
                2.4229856422850213,
                -1.0373094635252968,
                1.241098798735776,
                -3.096821892549868
            ]
        }
    ]
}