{
    "goal": {
        "global_pose": {
            "orientation": {
                "w": 0.7047431468963623,
                "x": -0.7094548344612122,
                "y": 0.0024358443915843964,
                "z": -0.0022348060738295317
            },
            "position": {
                "x": 0.6094750761985779,
                "y": 0.3671506643295288,
                "z": 0.19426114857196808
            }
        },
        "name": "move_to_magneteinheit_A"
    },
    "id": "LazyPRMstar_move_to_magneteinheit_A_71",
    "joint_names": [
        "shoulder_pan_joint",
        "shoulder_lift_joint",
        "elbow_joint",
        "wrist_1_joint",
        "wrist_2_joint",
        "wrist_3_joint"
    ],
    "metrics": {
        "cart_traj_len": 3.4520534190252277,
        "distance_elbow_joint": 3.8898476238091764,
        "distance_shoulder_lift_joint": 0.38923874001263203,
        "distance_shoulder_pan_joint": 2.704280734986594,
        "distance_wrist_1_joint": 0.8404493599256991,
        "distance_wrist_2_joint": 1.705650852108863,
        "distance_wrist_3_joint": 3.6342119813034186,
        "smoothness": 0.04564889548124355,
        "time": 5.0229612790000004,
        "traj_len": 3.628178508859008,
        "weighted_distance": 4.793558538996659
    },
    "planner": "LazyPRMstar",
    "start": {
        "state": {
            "elbow_joint": -1.919618573717145,
            "shoulder_lift_joint": -1.2443395971678275,
            "shoulder_pan_joint": 2.6996025300909787,
            "wrist_1_joint": -1.548550951253194,
            "wrist_2_joint": -1.5709469090946802,
            "wrist_3_joint": 0.4420197732051276
        }
    },
    "waypoints": [
        {
            "positions": [
                2.6996025300909787,
                -1.2443395971678275,
                -1.919618573717145,
                -1.548550951253194,
                -1.5709469090946802,
                0.4420197732051276
            ]
        },
        {
            "positions": [
                2.581594454945368,
                -1.2331185859358855,
                -1.8041488830735957,
                -1.5118460852567317,
                -1.5425536399163766,
                0.3598331791468766
            ]
        },
        {
            "positions": [
                2.4635863797997573,
                -1.2218975747039438,
                -1.6886791924300462,
                -1.4751412192602695,
                -1.5141603707380729,
                0.2776465850886257
            ]
        },
        {
            "positions": [
                2.345578304654147,
                -1.2106765634720018,
                -1.5732095017864969,
                -1.4384363532638074,
                -1.4857671015597693,
                0.19545999103037476
            ]
        },
        {
            "positions": [
                2.227570229508536,
                -1.19945555224006,
                -1.4577398111429476,
                -1.401731487267345,
                -1.4573738323814656,
                0.1132733969721238
            ]
        },
        {
            "positions": [
                2.1095621543629255,
                -1.188234541008118,
                -1.342270120499398,
                -1.3650266212708826,
                -1.428980563203162,
                0.03108680291387289
            ]
        },
        {
            "positions": [
                1.9915540792173148,
                -1.1770135297761763,
                -1.2268004298558488,
                -1.3283217552744204,
                -1.4005872940248585,
                -0.05109979114437807
            ]
        },
        {
            "positions": [
                1.873546004071704,
                -1.1657925185442344,
                -1.1113307392122995,
                -1.2916168892779583,
                -1.3721940248465547,
                -0.13328638520262898
            ]
        },
        {
            "positions": [
                1.7555379289260933,
                -1.1545715073122924,
                -0.99586104856875,
                -1.2549120232814959,
                -1.3438007556682512,
                -0.21547297926088
            ]
        },
        {
            "positions": [
                1.6375298537804825,
                -1.1433504960803507,
                -0.8803913579252005,
                -1.2182071572850335,
                -1.3154074864899474,
                -0.297659573319131
            ]
        },
        {
            "positions": [
                1.519521778634872,
                -1.1321294848484087,
                -0.7649216672816515,
                -1.1815022912885713,
                -1.287014217311644,
                -0.3798461673773818
            ]
        },
        {
            "positions": [
                1.4015137034892613,
                -1.120908473616467,
                -0.649451976638102,
                -1.1447974252921091,
                -1.2586209481333404,
                -0.4620327614356328
            ]
        },
        {
            "positions": [
                1.2835056283436508,
                -1.109687462384525,
                -0.5339822859945527,
                -1.1080925592956468,
                -1.2302276789550366,
                -0.5442193554938837
            ]
        },
        {
            "positions": [
                1.1654975531980398,
                -1.098466451152583,
                -0.41851259535100316,
                -1.0713876932991844,
                -1.2018344097767328,
                -0.6264059495521348
            ]
        },
        {
            "positions": [
                1.0474894780524293,
                -1.0872454399206413,
                -0.3030429047074539,
                -1.0346828273027222,
                -1.1734411405984293,
                -0.7085925436103855
            ]
        },
        {
            "positions": [
                0.9294814029068188,
                -1.0760244286886993,
                -0.1875732140639046,
                -0.9979779613062599,
                -1.1450478714201258,
                -0.7907791376686364
            ]
        },
        {
            "positions": [
                0.8114733277612078,
                -1.0648034174567576,
                -0.07210352342035509,
                -0.9612730953097977,
                -1.1166546022418222,
                -0.8729657317268875
            ]
        },
        {
            "positions": [
                0.6934652526155971,
                -1.0535824062248156,
                0.043366167223194196,
                -0.9245682293133354,
                -1.0882613330635185,
                -0.9551523257851384
            ]
        },
        {
            "positions": [
                0.5754571774699864,
                -1.0423613949928736,
                0.15883585786674392,
                -0.8878633633168731,
                -1.0598680638852147,
                -1.0373389198433896
            ]
        },
        {
            "positions": [
                0.4574491023243761,
                -1.0311403837609319,
                0.274305548510293,
                -0.8511584973204108,
                -1.0314747947069112,
                -1.1195255139016405
            ]
        },
        {
            "positions": [
                0.33944102717876534,
                -1.01991937252899,
                0.38977523915384205,
                -0.8144536313239485,
                -1.0030815255286076,
                -1.2017121079598911
            ]
        },
        {
            "positions": [
                0.2214329520331546,
                -1.0086983612970482,
                0.505244929797392,
                -0.7777487653274863,
                -0.974688256350304,
                -1.2838987020181423
            ]
        },
        {
            "positions": [
                0.10342487688754384,
                -0.9974773500651062,
                0.620714620440941,
                -0.741043899331024,
                -0.9462949871720003,
                -1.3660852960763932
            ]
        },
        {
            "positions": [
                0.09904149908101063,
                -1.009066133930408,
                0.7445781826747918,
                -0.7443346578635471,
                -0.8539965505485093,
                -1.5224442203612139
            ]
        },
        {
            "positions": [
                0.09465812127447742,
                -1.0206549177957096,
                0.8684417449086426,
                -0.7476254163960702,
                -0.7616981139250183,
                -1.6788031446460345
            ]
        },
        {
            "positions": [
                0.09027474346794422,
                -1.032243701661011,
                0.9923053071424934,
                -0.7509161749285933,
                -0.6693996773015272,
                -1.835162068930855
            ]
        },
        {
            "positions": [
                0.085891365661411,
                -1.0438324855263128,
                1.1161688693763443,
                -0.7542069334611163,
                -0.5771012406780361,
                -1.9915209932156759
            ]
        },
        {
            "positions": [
                0.0815079878548778,
                -1.0554212693916145,
                1.240032431610195,
                -0.7574976919936395,
                -0.4848028040545451,
                -2.1478799175004966
            ]
        },
        {
            "positions": [
                0.07712461004834459,
                -1.0670100532569162,
                1.3638959938440458,
                -0.7607884505261626,
                -0.3925043674310541,
                -2.304238841785317
            ]
        },
        {
            "positions": [
                0.0727412322418114,
                -1.078598837122218,
                1.4877595560778967,
                -0.7640792090586856,
                -0.3002059308075631,
                -2.4605977660701375
            ]
        },
        {
            "positions": [
                0.06835785443527817,
                -1.0901876209875194,
                1.6116231183117475,
                -0.7673699675912088,
                -0.20790749418407195,
                -2.616956690354958
            ]
        },
        {
            "positions": [
                0.06397447662874498,
                -1.1017764048528211,
                1.7354866805455984,
                -0.7706607261237318,
                -0.11560905756058093,
                -2.773315614639779
            ]
        },
        {
            "positions": [
                0.05959109882221176,
                -1.1133651887181228,
                1.859350242779449,
                -0.773951484656255,
                -0.023310620937089854,
                -2.9296745389245995
            ]
        },
        {
            "positions": [
                0.0917257506811246,
                -1.1266095158465699,
                1.9147896464357408,
                -0.7739688459954039,
                0.05569666103854641,
                -3.0609333735114452
            ]
        },
        {
            "positions": [
                0.12386040254003744,
                -1.139853842975017,
                1.9702290500920325,
                -0.773986207334553,
                0.13470394301418268,
                -3.1921922080982905
            ]
        }
    ]
}{
    "goal": {
        "global_pose": {
            "orientation": {
                "w": 0.7047431468963623,
                "x": -0.7094548344612122,
                "y": 0.0024358443915843964,
                "z": -0.0022348060738295317
            },
            "position": {
                "x": 0.6094750761985779,
                "y": 0.3671506643295288,
                "z": 0.19426114857196808
            }
        },
        "name": "move_to_magneteinheit_A"
    },
    "id": "LazyPRMstar_move_to_magneteinheit_A_71",
    "joint_names": [
        "shoulder_pan_joint",
        "shoulder_lift_joint",
        "elbow_joint",
        "wrist_1_joint",
        "wrist_2_joint",
        "wrist_3_joint"
    ],
    "metrics": {
        "cart_traj_len": 1.2622258090830005,
        "distance_elbow_joint": 0.5169329328187184,
        "distance_shoulder_lift_joint": 0.7561335235778965,
        "distance_shoulder_pan_joint": 1.2425146090999233,
        "distance_wrist_1_joint": 1.1428850996487538,
        "distance_wrist_2_joint": 1.4390132817784356,
        "distance_wrist_3_joint": 4.295941115902704,
        "smoothness": 0.13736897849594118,
        "time": 5.0171047909999995,
        "traj_len": 3.064868767635318,
        "weighted_distance": 4.5351076256312846
    },
    "planner": "LazyPRMstar",
    "start": {
        "state": {
            "elbow_joint": 1.919643534880228,
            "shoulder_lift_joint": -1.8972525353963687,
            "shoulder_pan_joint": -1.1188672234189438,
            "wrist_1_joint": -1.5931878212786155,
            "wrist_2_joint": 1.5706036197970081,
            "wrist_3_joint": 1.118896926603594
        }
    },
    "waypoints": [
        {
            "positions": [
                -1.1188672234189438,
                -1.8972525353963687,
                1.919643534880228,
                -1.5931878212786155,
                1.5706036197970081,
                1.118896926603594
            ]
        },
        {
            "positions": [
                -1.0999404490108136,
                -1.8805080839538746,
                1.8866240281189808,
                -1.617353167408938,
                1.3734211482774048,
                1.026262102955122
            ]
        },
        {
            "positions": [
                -1.0810136746026833,
                -1.8637636325113802,
                1.8536045213577337,
                -1.6415185135392607,
                1.1762386767578015,
                0.93362727930665
            ]
        },
        {
            "positions": [
                -1.062086900194553,
                -1.847019181068886,
                1.8205850145964864,
                -1.6656838596695833,
                0.9790562052381983,
                0.840992455658178
            ]
        },
        {
            "positions": [
                -1.0431601257864227,
                -1.8302747296263917,
                1.787565507835239,
                -1.6898492057999062,
                0.781873733718595,
                0.748357632009706
            ]
        },
        {
            "positions": [
                -1.0242333513782924,
                -1.8135302781838976,
                1.7545460010739917,
                -1.7140145519302288,
                0.5846912621989916,
                0.6557228083612339
            ]
        },
        {
            "positions": [
                -1.0053065769701621,
                -1.7967858267414032,
                1.7215264943127446,
                -1.7381798980605514,
                0.38750879067938837,
                0.563087984712762
            ]
        },
        {
            "positions": [
                -0.986379802562032,
                -1.780041375298909,
                1.6885069875514973,
                -1.762345244190874,
                0.19032631915978493,
                0.47045316106428986
            ]
        },
        {
            "positions": [
                -0.9210840856065607,
                -1.7424577068588833,
                1.7053185396391437,
                -1.7050671455593154,
                0.18687126144559593,
                0.25589449339585457
            ]
        },
        {
            "positions": [
                -0.8557883686510894,
                -1.7048740384188577,
                1.7221300917267899,
                -1.647789046927757,
                0.18341620373140693,
                0.04133582572741934
            ]
        },
        {
            "positions": [
                -0.7904926516956182,
                -1.667290369978832,
                1.7389416438144363,
                -1.5905109482961983,
                0.17996114601721794,
                -0.17322284194101595
            ]
        },
        {
            "positions": [
                -0.725196934740147,
                -1.6297067015388063,
                1.7557531959020827,
                -1.53323284966464,
                0.17650608830302894,
                -0.3877815096094512
            ]
        },
        {
            "positions": [
                -0.6599012177846757,
                -1.5921230330987806,
                1.772564747989729,
                -1.4759547510330813,
                0.17305103058883994,
                -0.6023401772778865
            ]
        },
        {
            "positions": [
                -0.5946055008292045,
                -1.5545393646587549,
                1.7893763000773752,
                -1.4186766524015226,
                0.16959597287465095,
                -0.8168988449463217
            ]
        },
        {
            "positions": [
                -0.5293097838737333,
                -1.5169556962187292,
                1.8061878521650216,
                -1.3613985537699642,
                0.16614091516046198,
                -1.031457512614757
            ]
        },
        {
            "positions": [
                -0.4640140669182621,
                -1.4793720277787035,
                1.822999404252668,
                -1.3041204551384058,
                0.16268585744627295,
                -1.2460161802831922
            ]
        },
        {
            "positions": [
                -0.39871834996279076,
                -1.4417883593386778,
                1.8398109563403142,
                -1.2468423565068472,
                0.15923079973208398,
                -1.4605748479516276
            ]
        },
        {
            "positions": [
                -0.33342263300731956,
                -1.404204690898652,
                1.8566225084279606,
                -1.1895642578752885,
                0.15577574201789496,
                -1.6751335156200629
            ]
        },
        {
            "positions": [
                -0.26812691605184824,
                -1.3666210224586264,
                1.873434060515607,
                -1.1322861592437299,
                0.152320684303706,
                -1.8896921832884983
            ]
        },
        {
            "positions": [
                -0.20283119909637704,
                -1.3290373540186007,
                1.8902456126032532,
                -1.0750080606121715,
                0.14886562658951696,
                -2.1042508509569333
            ]
        },
        {
            "positions": [
                -0.13753548214090594,
                -1.291453685578575,
                1.9070571646908996,
                -1.017729961980613,
                0.145410568875328,
                -2.3188095186253683
            ]
        },
        {
            "positions": [
                -0.07223976518543462,
                -1.2538700171385493,
                1.923868716778546,
                -0.9604518633490545,
                0.141955511161139,
                -2.533368186293804
            ]
        },
        {
            "positions": [
                -0.006944048229963418,
                -1.2162863486985236,
                1.9406802688661924,
                -0.9031737647174959,
                0.13850045344695,
                -2.7479268539622392
            ]
        },
        {
            "positions": [
                0.05835166872550779,
                -1.178702680258498,
                1.9574918209538386,
                -0.8458956660859374,
                0.135045395732761,
                -2.9624855216306742
            ]
        },
        {
            "positions": [
                0.12364738568097922,
                -1.1411190118184722,
                1.974303373041485,
                -0.7886175674543788,
                0.131590338018572,
                -3.1770441892991097
            ]
        }
    ]
}