{
    "goal": {
        "global_pose": {
            "orientation": {
                "w": 0.7047431468963623,
                "x": -0.7094548344612122,
                "y": 0.0024358443915843964,
                "z": -0.0022348060738295317
            },
            "position": {
                "x": 0.6094750761985779,
                "y": 0.3671506643295288,
                "z": 0.19426114857196808
            }
        },
        "name": "move_to_magneteinheit_A"
    },
    "id": "LazyPRMstar_move_to_magneteinheit_A_13",
    "joint_names": [
        "shoulder_pan_joint",
        "shoulder_lift_joint",
        "elbow_joint",
        "wrist_1_joint",
        "wrist_2_joint",
        "wrist_3_joint"
    ],
    "metrics": {
        "cart_traj_len": 3.578636060134762,
        "distance_elbow_joint": 3.9225638235441767,
        "distance_shoulder_lift_joint": 0.4627019606846924,
        "distance_shoulder_pan_joint": 3.4110786619429905,
        "distance_wrist_1_joint": 3.503007053336362,
        "distance_wrist_2_joint": 1.4390379647167229,
        "distance_wrist_3_joint": 0.47483738296280875,
        "smoothness": 0.11987323982000249,
        "time": 5.033341726,
        "traj_len": 3.6350002540835886,
        "weighted_distance": 4.370920570219328
    },
    "planner": "LazyPRMstar",
    "start": {
        "state": {
            "elbow_joint": -1.919618573717145,
            "shoulder_lift_joint": -1.2443395971678275,
            "shoulder_pan_joint": 2.6996025300909787,
            "wrist_1_joint": -1.548550951253194,
            "wrist_2_joint": -1.5709469090946802,
            "wrist_3_joint": 0.4420197732051276
        }
    },
    "waypoints": [
        {
            "positions": [
                2.6996025300909787,
                -1.2443395971678275,
                -1.919618573717145,
                -1.548550951253194,
                -1.5709469090946802,
                0.4420197732051276
            ]
        },
        {
            "positions": [
                2.588696556711439,
                -1.2290174451197642,
                -1.8146991182728163,
                -1.4465071373054528,
                -1.5273502878963308,
                0.43327055314180174
            ]
        },
        {
            "positions": [
                2.4777905833318985,
                -1.213695293071701,
                -1.7097796628284876,
                -1.3444633233577115,
                -1.4837536666979814,
                0.4245213330784759
            ]
        },
        {
            "positions": [
                2.3668846099523586,
                -1.1983731410236378,
                -1.6048602073841591,
                -1.2424195094099701,
                -1.440157045499632,
                0.41577211301515005
            ]
        },
        {
            "positions": [
                2.2559786365728183,
                -1.1830509889755747,
                -1.4999407519398305,
                -1.140375695462229,
                -1.3965604243012826,
                0.4070228929518242
            ]
        },
        {
            "positions": [
                2.1450726631932784,
                -1.1677288369275114,
                -1.3950212964955018,
                -1.0383318815144877,
                -1.3529638031029332,
                0.39827367288849835
            ]
        },
        {
            "positions": [
                2.0341666898137385,
                -1.1524066848794483,
                -1.290101841051173,
                -0.9362880675667464,
                -1.3093671819045838,
                0.38952445282517245
            ]
        },
        {
            "positions": [
                1.9232607164341982,
                -1.137084532831385,
                -1.1851823856068444,
                -0.8342442536190051,
                -1.2657705607062344,
                0.3807752327618466
            ]
        },
        {
            "positions": [
                1.8123547430546583,
                -1.121762380783322,
                -1.0802629301625157,
                -0.7322004396712639,
                -1.222173939507885,
                0.37202601269852076
            ]
        },
        {
            "positions": [
                1.7014487696751182,
                -1.1064402287352586,
                -0.9753434747181872,
                -0.6301566257235226,
                -1.1785773183095356,
                0.3632767926351949
            ]
        },
        {
            "positions": [
                1.590542796295578,
                -1.0911180766871955,
                -0.8704240192738586,
                -0.5281128117757814,
                -1.1349806971111862,
                0.35452757257186907
            ]
        },
        {
            "positions": [
                1.479636822916038,
                -1.0757959246391322,
                -0.7655045638295299,
                -0.4260689978280401,
                -1.0913840759128368,
                0.3457783525085432
            ]
        },
        {
            "positions": [
                1.368730849536498,
                -1.0604737725910691,
                -0.6605851083852012,
                -0.3240251838802988,
                -1.0477874547144874,
                0.33702913244521737
            ]
        },
        {
            "positions": [
                1.257824876156958,
                -1.0451516205430058,
                -0.5556656529408726,
                -0.22198136993255746,
                -1.0041908335161378,
                0.3282799123818915
            ]
        },
        {
            "positions": [
                1.1469189027774178,
                -1.0298294684949427,
                -0.4507461974965439,
                -0.11993755598481615,
                -0.9605942123177885,
                0.3195306923185657
            ]
        },
        {
            "positions": [
                1.0360129293978775,
                -1.0145073164468794,
                -0.3458267420522152,
                -0.017893742037074833,
                -0.9169975911194391,
                0.3107814722552398
            ]
        },
        {
            "positions": [
                0.9251069560183376,
                -0.9991851643988162,
                -0.24090728660788674,
                0.08415007191066626,
                -0.8734009699210897,
                0.302032252191914
            ]
        },
        {
            "positions": [
                0.8142009826387975,
                -0.983863012350753,
                -0.13598783116355784,
                0.1861938858584078,
                -0.8298043487227403,
                0.2932830321285881
            ]
        },
        {
            "positions": [
                0.7032950092592576,
                -0.9685408603026898,
                -0.03106837571922938,
                0.2882376998061489,
                -0.7862077275243909,
                0.28453381206526224
            ]
        },
        {
            "positions": [
                0.5923890358797173,
                -0.9532187082546266,
                0.0738510797250993,
                0.3902815137538902,
                -0.7426111063260414,
                0.2757845920019364
            ]
        },
        {
            "positions": [
                0.48148306250017736,
                -0.9378965562065633,
                0.17877053516942776,
                0.4923253277016313,
                -0.6990144851276922,
                0.26703537193861054
            ]
        },
        {
            "positions": [
                0.370577089120637,
                -0.9225744041585002,
                0.2836899906137569,
                0.594369141649373,
                -0.6554178639293426,
                0.2582861518752847
            ]
        },
        {
            "positions": [
                0.25967111574109714,
                -0.9072522521104369,
                0.3886094460580851,
                0.6964129555971139,
                -0.6118212427309934,
                0.24953693181195882
            ]
        },
        {
            "positions": [
                0.14876514236155725,
                -0.8919301000623738,
                0.4935289015024138,
                0.7984567695448552,
                -0.5682246215326439,
                0.24078771174863298
            ]
        },
        {
            "positions": [
                0.037859168982017355,
                -0.8766079480143105,
                0.5984483569467425,
                0.9005005834925965,
                -0.5246280003342945,
                0.23203849168530713
            ]
        },
        {
            "positions": [
                -0.07304680439752298,
                -0.8612857959662473,
                0.7033678123910712,
                1.0025443974403379,
                -0.48103137913594507,
                0.22328927162198126
            ]
        },
        {
            "positions": [
                -0.18395277777706287,
                -0.8459636439181841,
                0.8082872678353998,
                1.1045882113880792,
                -0.4374347579375957,
                0.21454005155865544
            ]
        },
        {
            "positions": [
                -0.2948587511566032,
                -0.8306414918701209,
                0.9132067232797284,
                1.2066320253358205,
                -0.39383813673924617,
                0.20579083149532956
            ]
        },
        {
            "positions": [
                -0.2449526933137205,
                -0.8240420633473945,
                1.0560535643798319,
                1.3100235140264116,
                -0.3573517257645987,
                0.17329435911689128
            ]
        },
        {
            "positions": [
                -0.1950466354708378,
                -0.8174426348246681,
                1.1989004054799353,
                1.4134150027170025,
                -0.32086531478995134,
                0.140797886738453
            ]
        },
        {
            "positions": [
                -0.1451405776279551,
                -0.8108432063019416,
                1.3417472465800386,
                1.5168064914075936,
                -0.28437890381530395,
                0.10830141436001474
            ]
        },
        {
            "positions": [
                -0.09523451978507241,
                -0.8042437777792153,
                1.484594087680142,
                1.6201979800981847,
                -0.2478924928406565,
                0.07580494198157647
            ]
        },
        {
            "positions": [
                -0.045328461942189674,
                -0.7976443492564889,
                1.6274409287802456,
                1.7235894687887758,
                -0.21140608186600907,
                0.043308469603138194
            ]
        },
        {
            "positions": [
                0.00457759590069301,
                -0.7910449207337624,
                1.770287769880349,
                1.8269809574793667,
                -0.17491967089136168,
                0.010811997224699915
            ]
        },
        {
            "positions": [
                0.05448365374357571,
                -0.784445492211036,
                1.9131346109804523,
                1.9303724461699578,
                -0.13843325991671424,
                -0.021684475153738364
            ]
        },
        {
            "positions": [
                0.12175862953880642,
                -0.7816376364831351,
                2.002945249827032,
                1.9544561020831677,
                -0.1319089443779574,
                -0.03281760975768114
            ]
        }
    ]
}{
    "goal": {
        "global_pose": {
            "orientation": {
                "w": 0.7047431468963623,
                "x": -0.7094548344612122,
                "y": 0.0024358443915843964,
                "z": -0.0022348060738295317
            },
            "position": {
                "x": 0.6094750761985779,
                "y": 0.3671506643295288,
                "z": 0.19426114857196808
            }
        },
        "name": "move_to_magneteinheit_A"
    },
    "id": "LazyPRMstar_move_to_magneteinheit_A_13",
    "joint_names": [
        "shoulder_pan_joint",
        "shoulder_lift_joint",
        "elbow_joint",
        "wrist_1_joint",
        "wrist_2_joint",
        "wrist_3_joint"
    ],
    "metrics": {
        "cart_traj_len": 1.1930064986733133,
        "distance_elbow_joint": 0.1239670798404866,
        "distance_shoulder_lift_joint": 0.7516303235561328,
        "distance_shoulder_pan_joint": 1.2411077290346575,
        "distance_wrist_1_joint": 0.7601187932794884,
        "distance_wrist_2_joint": 1.4373336995463366,
        "distance_wrist_3_joint": 4.273790539463099,
        "smoothness": 0.008987960857331428,
        "time": 5.03855934,
        "traj_len": 2.9305201184636496,
        "weighted_distance": 4.39692867084198
    },
    "planner": "LazyPRMstar",
    "start": {
        "state": {
            "elbow_joint": 1.919643534880228,
            "shoulder_lift_joint": -1.8972525353963687,
            "shoulder_pan_joint": -1.1188672234189438,
            "wrist_1_joint": -1.5931878212786155,
            "wrist_2_joint": 1.5706036197970081,
            "wrist_3_joint": 1.118896926603594
        }
    },
    "waypoints": [
        {
            "positions": [
                -1.1188672234189438,
                -1.8972525353963687,
                1.919643534880228,
                -1.5931878212786155,
                1.5706036197970081,
                1.118896926603594
            ]
        },
        {
            "positions": [
                -1.1089402328192133,
                -1.886266113040171,
                1.9290160524753919,
                -1.5290163169940767,
                1.4856214439267792,
                0.9058060900456402
            ]
        },
        {
            "positions": [
                -1.0990132422194827,
                -1.875279690683973,
                1.9383885700705559,
                -1.4648448127095377,
                1.4006392680565505,
                0.6927152534876864
            ]
        },
        {
            "positions": [
                -1.0890862516197521,
                -1.8642932683277753,
                1.9477610876657199,
                -1.400673308424999,
                1.3156570921863215,
                0.47962441692973257
            ]
        },
        {
            "positions": [
                -1.0791592610200216,
                -1.8533068459715776,
                1.9571336052608836,
                -1.3365018041404602,
                1.2306749163160928,
                0.26653358037177877
            ]
        },
        {
            "positions": [
                -1.069232270420291,
                -1.8423204236153796,
                1.9665061228560474,
                -1.2723302998559212,
                1.1456927404458639,
                0.05344274381382497
            ]
        },
        {
            "positions": [
                -1.0593052798205602,
                -1.8313340012591819,
                1.9758786404512114,
                -1.2081587955713824,
                1.0607105645756352,
                -0.15964809274412883
            ]
        },
        {
            "positions": [
                -1.0493782892208297,
                -1.8203475789029842,
                1.9852511580463754,
                -1.1439872912868436,
                0.9757283887054063,
                -0.37273892930208263
            ]
        },
        {
            "positions": [
                -1.039451298621099,
                -1.8093611565467864,
                1.9946236756415392,
                -1.0798157870023046,
                0.8907462128351774,
                -0.5858297658600364
            ]
        },
        {
            "positions": [
                -1.0295243080213685,
                -1.7983747341905885,
                2.003996193236703,
                -1.0156442827177659,
                0.8057640369649486,
                -0.7989206024179902
            ]
        },
        {
            "positions": [
                -1.019597317421638,
                -1.7873883118343907,
                2.013368710831867,
                -0.951472778433227,
                0.7207818610947198,
                -1.0120114389759438
            ]
        },
        {
            "positions": [
                -0.9244441655018587,
                -1.7339078035015445,
                2.010848552174463,
                -0.9416057992303853,
                0.6718225326910491,
                -1.1905849534662405
            ]
        },
        {
            "positions": [
                -0.8292910135820794,
                -1.6804272951686983,
                2.008328393517059,
                -0.9317388200275436,
                0.6228632042873784,
                -1.3691584679565372
            ]
        },
        {
            "positions": [
                -0.7341378616623,
                -1.626946786835852,
                2.005808234859655,
                -0.921871840824702,
                0.5739038758837076,
                -1.547731982446834
            ]
        },
        {
            "positions": [
                -0.6389847097425208,
                -1.5734662785030058,
                2.003288076202251,
                -0.9120048616218603,
                0.5249445474800369,
                -1.7263054969371308
            ]
        },
        {
            "positions": [
                -0.5438315578227415,
                -1.5199857701701596,
                2.000767917544847,
                -0.9021378824190187,
                0.47598521907636626,
                -1.9048790114274277
            ]
        },
        {
            "positions": [
                -0.44867840590296215,
                -1.4665052618373133,
                1.9982477588874432,
                -0.8922709032161771,
                0.4270258906726956,
                -2.0834525259177243
            ]
        },
        {
            "positions": [
                -0.3535252539831828,
                -1.413024753504467,
                1.995727600230039,
                -0.8824039240133353,
                0.37806656226902485,
                -2.2620260404080215
            ]
        },
        {
            "positions": [
                -0.25837210206340355,
                -1.3595442451716209,
                1.993207441572635,
                -0.8725369448104937,
                0.32910723386535423,
                -2.4405995548983177
            ]
        },
        {
            "positions": [
                -0.1632189501436243,
                -1.3060637368387746,
                1.9906872829152311,
                -0.8626699656076521,
                0.2801479054616835,
                -2.619173069388615
            ]
        },
        {
            "positions": [
                -0.06806579822384495,
                -1.2525832285059284,
                1.9881671242578272,
                -0.8528029864048103,
                0.23118857705801277,
                -2.7977465838789115
            ]
        },
        {
            "positions": [
                0.027087353695934402,
                -1.1991027201730822,
                1.9856469656004232,
                -0.8429360072019687,
                0.1822292486543421,
                -2.976320098369208
            ]
        },
        {
            "positions": [
                0.12224050561571365,
                -1.145622211840236,
                1.9831268069430192,
                -0.8330690279991271,
                0.13326992025067144,
                -3.154893612859505
            ]
        }
    ]
}