{
    "goal": {
        "global_pose": {
            "orientation": {
                "w": 0.7047431468963623,
                "x": -0.7094548344612122,
                "y": 0.0024358443915843964,
                "z": -0.0022348060738295317
            },
            "position": {
                "x": 0.6094750761985779,
                "y": 0.3671506643295288,
                "z": 0.19426114857196808
            }
        },
        "name": "move_to_magneteinheit_A"
    },
    "id": "LazyPRMstar_move_to_magneteinheit_A_148",
    "joint_names": [
        "shoulder_pan_joint",
        "shoulder_lift_joint",
        "elbow_joint",
        "wrist_1_joint",
        "wrist_2_joint",
        "wrist_3_joint"
    ],
    "metrics": {
        "cart_traj_len": 3.5604112955706992,
        "distance_elbow_joint": 3.8877207577747352,
        "distance_shoulder_lift_joint": 0.4105059764100396,
        "distance_shoulder_pan_joint": 3.1455299280048847,
        "distance_wrist_1_joint": 0.7879903026608029,
        "distance_wrist_2_joint": 2.0795255859708397,
        "distance_wrist_3_joint": 2.635012284576958,
        "smoothness": 0.32693971759632007,
        "time": 5.02679831,
        "traj_len": 3.598094611790838,
        "weighted_distance": 4.591712675373299
    },
    "planner": "LazyPRMstar",
    "start": {
        "state": {
            "elbow_joint": -1.919618573717145,
            "shoulder_lift_joint": -1.2443395971678275,
            "shoulder_pan_joint": 2.6996025300909787,
            "wrist_1_joint": -1.548550951253194,
            "wrist_2_joint": -1.5709469090946802,
            "wrist_3_joint": 0.4420197732051276
        }
    },
    "waypoints": [
        {
            "positions": [
                2.6996025300909787,
                -1.2443395971678275,
                -1.919618573717145,
                -1.548550951253194,
                -1.5709469090946802,
                0.4420197732051276
            ]
        },
        {
            "positions": [
                2.6042486409055003,
                -1.2494046638869931,
                -1.8013072679564552,
                -1.5291723351135489,
                -1.507883930921236,
                0.5258768382355825
            ]
        },
        {
            "positions": [
                2.508894751720022,
                -1.2544697306061587,
                -1.6829959621957657,
                -1.5097937189739037,
                -1.444820952747792,
                0.6097339032660374
            ]
        },
        {
            "positions": [
                2.4135408625345436,
                -1.2595347973253244,
                -1.564684656435076,
                -1.4904151028342585,
                -1.3817579745743478,
                0.6935909682964922
            ]
        },
        {
            "positions": [
                2.318186973349065,
                -1.2645998640444902,
                -1.4463733506743863,
                -1.4710364866946133,
                -1.3186949964009036,
                0.7774480333269471
            ]
        },
        {
            "positions": [
                2.222833084163587,
                -1.2696649307636558,
                -1.3280620449136968,
                -1.451657870554968,
                -1.2556320182274594,
                0.861305098357402
            ]
        },
        {
            "positions": [
                2.1274791949781084,
                -1.2747299974828215,
                -1.2097507391530071,
                -1.4322792544153229,
                -1.1925690400540154,
                0.9451621633878569
            ]
        },
        {
            "positions": [
                2.03212530579263,
                -1.279795064201987,
                -1.0914394333923174,
                -1.4129006382756777,
                -1.1295060618805712,
                1.0290192284183117
            ]
        },
        {
            "positions": [
                1.9367714166071517,
                -1.2848601309211527,
                -0.9731281276316278,
                -1.3935220221360325,
                -1.066443083707127,
                1.1128762934487666
            ]
        },
        {
            "positions": [
                1.8414175274216733,
                -1.2899251976403185,
                -0.8548168218709382,
                -1.3741434059963875,
                -1.003380105533683,
                1.1967333584792215
            ]
        },
        {
            "positions": [
                1.7460636382361951,
                -1.2949902643594842,
                -0.7365055161102487,
                -1.3547647898567423,
                -0.9403171273602389,
                1.2805904235096763
            ]
        },
        {
            "positions": [
                1.6507097490507168,
                -1.3000553310786498,
                -0.618194210349559,
                -1.3353861737170971,
                -0.8772541491867948,
                1.364447488540131
            ]
        },
        {
            "positions": [
                1.5553558598652384,
                -1.3051203977978154,
                -0.4998829045888693,
                -1.316007557577452,
                -0.8141911710133506,
                1.448304553570586
            ]
        },
        {
            "positions": [
                1.46000197067976,
                -1.310185464516981,
                -0.3815715988281796,
                -1.2966289414378067,
                -0.7511281928399065,
                1.532161618601041
            ]
        },
        {
            "positions": [
                1.3646480814942816,
                -1.3152505312361467,
                -0.2632602930674901,
                -1.2772503252981615,
                -0.6880652146664623,
                1.6160186836314958
            ]
        },
        {
            "positions": [
                1.2692941923088032,
                -1.3203155979553123,
                -0.1449489873068004,
                -1.2578717091585163,
                -0.6250022364930182,
                1.6998757486619507
            ]
        },
        {
            "positions": [
                1.1739403031233249,
                -1.3253806646744781,
                -0.02663768154611068,
                -1.2384930930188711,
                -0.5619392583195741,
                1.7837328136924055
            ]
        },
        {
            "positions": [
                1.0785864139378465,
                -1.3304457313936437,
                0.09167362421457903,
                -1.219114476879226,
                -0.49887628014612995,
                1.8675898787228604
            ]
        },
        {
            "positions": [
                0.9832325247523681,
                -1.3355107981128094,
                0.20998492997526852,
                -1.1997358607395807,
                -0.435813301972686,
                1.9514469437533153
            ]
        },
        {
            "positions": [
                0.88787863556689,
                -1.340575864831975,
                0.328296235735958,
                -1.1803572445999355,
                -0.3727503237992418,
                2.03530400878377
            ]
        },
        {
            "positions": [
                0.7925247463814116,
                -1.3456409315511406,
                0.4466075414966475,
                -1.1609786284602905,
                -0.3096873456257976,
                2.119161073814225
            ]
        },
        {
            "positions": [
                0.6971708571959332,
                -1.3507059982703065,
                0.5649188472573374,
                -1.1416000123206453,
                -0.2466243674523536,
                2.2030181388446795
            ]
        },
        {
            "positions": [
                0.6018169680104548,
                -1.355771064989472,
                0.6832301530180269,
                -1.1222213961810001,
                -0.18356138927890941,
                2.2868752038751343
            ]
        },
        {
            "positions": [
                0.506463078824976,
                -1.3608361317086377,
                0.8015414587787169,
                -1.102842780041355,
                -0.120498411105465,
                2.3707322689055896
            ]
        },
        {
            "positions": [
                0.41110918963949805,
                -1.3659011984278033,
                0.9198527645394063,
                -1.0834641639017097,
                -0.057435432932021024,
                2.4545893339360445
            ]
        },
        {
            "positions": [
                0.31575530045401967,
                -1.370966265146969,
                1.0381640703000963,
                -1.0640855477620645,
                0.005627545241423171,
                2.5384463989664994
            ]
        },
        {
            "positions": [
                0.2204014112685413,
                -1.3760313318661346,
                1.1564753760607858,
                -1.0447069316224193,
                0.06869052341486714,
                2.6223034639969542
            ]
        },
        {
            "positions": [
                0.1250475220830629,
                -1.3810963985853002,
                1.2747866818214753,
                -1.0253283154827741,
                0.13175350158831134,
                2.706160529027409
            ]
        },
        {
            "positions": [
                0.029693632897584532,
                -1.386161465304466,
                1.3930979875821647,
                -1.005949699343129,
                0.19481647976175553,
                2.790017594057864
            ]
        },
        {
            "positions": [
                -0.06566025628789385,
                -1.3912265320236317,
                1.5114092933428547,
                -0.9865710832034837,
                0.2578794579351995,
                2.873874659088319
            ]
        },
        {
            "positions": [
                -0.16101414547337237,
                -1.3962915987427973,
                1.6297205991035444,
                -0.9671924670638385,
                0.32094243610864365,
                2.9577317241187737
            ]
        },
        {
            "positions": [
                -0.08978583236323902,
                -1.33165310503403,
                1.714315995342056,
                -0.9155345124459767,
                0.2740333759167647,
                2.9875568075346015
            ]
        },
        {
            "positions": [
                -0.01855751925310567,
                -1.2670146113252625,
                1.7989113915805677,
                -0.8638765578281149,
                0.22712431572488578,
                3.0173818909504297
            ]
        },
        {
            "positions": [
                0.05267079385702769,
                -1.2023761176164949,
                1.8835067878190794,
                -0.812218603210253,
                0.18021525553300682,
                3.047206974366258
            ]
        },
        {
            "positions": [
                0.12389910696716103,
                -1.1377376239077275,
                1.968102184057591,
                -0.7605606485923911,
                0.1333061953411279,
                3.0770320577820858
            ]
        }
    ]
}{
    "goal": {
        "global_pose": {
            "orientation": {
                "w": 0.7047431468963623,
                "x": -0.7094548344612122,
                "y": 0.0024358443915843964,
                "z": -0.0022348060738295317
            },
            "position": {
                "x": 0.6094750761985779,
                "y": 0.3671506643295288,
                "z": 0.19426114857196808
            }
        },
        "name": "move_to_magneteinheit_A"
    },
    "id": "LazyPRMstar_move_to_magneteinheit_A_148",
    "joint_names": [
        "shoulder_pan_joint",
        "shoulder_lift_joint",
        "elbow_joint",
        "wrist_1_joint",
        "wrist_2_joint",
        "wrist_3_joint"
    ],
    "metrics": {
        "cart_traj_len": 1.1817669319533015,
        "distance_elbow_joint": 0.1592822925622146,
        "distance_shoulder_lift_joint": 0.7482525835670271,
        "distance_shoulder_pan_joint": 1.2423444254110305,
        "distance_wrist_1_joint": 0.7296574440074279,
        "distance_wrist_2_joint": 1.4382334330512592,
        "distance_wrist_3_joint": 4.246835537591764,
        "smoothness": 0.02249110361872697,
        "time": 5.066570234,
        "traj_len": 2.926534762511924,
        "weighted_distance": 4.384765406316846
    },
    "planner": "LazyPRMstar",
    "start": {
        "state": {
            "elbow_joint": 1.919643534880228,
            "shoulder_lift_joint": -1.8972525353963687,
            "shoulder_pan_joint": -1.1188672234189438,
            "wrist_1_joint": -1.5931878212786155,
            "wrist_2_joint": 1.5706036197970081,
            "wrist_3_joint": 1.118896926603594
        }
    },
    "waypoints": [
        {
            "positions": [
                -1.1188672234189438,
                -1.8972525353963687,
                1.919643534880228,
                -1.5931878212786155,
                1.5706036197970081,
                1.118896926603594
            ]
        },
        {
            "positions": [
                -1.063396164557332,
                -1.8650571483020348,
                1.9253804844128546,
                -1.559653278073988,
                1.5097283225065865,
                0.9107993791825857
            ]
        },
        {
            "positions": [
                -1.0079251056957201,
                -1.8328617612077012,
                1.9311174339454809,
                -1.5261187348693606,
                1.448853025216165,
                0.7027018317615774
            ]
        },
        {
            "positions": [
                -0.9524540468341084,
                -1.8006663741133673,
                1.9368543834781073,
                -1.4925841916647329,
                1.3879777279257435,
                0.49460428434056913
            ]
        },
        {
            "positions": [
                -0.8969829879724965,
                -1.7684709870190334,
                1.9425913330107338,
                -1.4590496484601054,
                1.327102430635322,
                0.28650673691956086
            ]
        },
        {
            "positions": [
                -0.8415119291108847,
                -1.7362755999246997,
                1.94832828254336,
                -1.425515105255478,
                1.2662271333449004,
                0.07840918949855258
            ]
        },
        {
            "positions": [
                -0.7860408702492729,
                -1.7040802128303658,
                1.9540652320759866,
                -1.3919805620508505,
                1.2053518360544788,
                -0.1296883579224557
            ]
        },
        {
            "positions": [
                -0.7305698113876611,
                -1.671884825736032,
                1.959802181608613,
                -1.358446018846223,
                1.1444765387640574,
                -0.337785905343464
            ]
        },
        {
            "positions": [
                -0.6750987525260492,
                -1.6396894386416982,
                1.9655391311412393,
                -1.3249114756415954,
                1.0836012414736358,
                -0.5458834527644723
            ]
        },
        {
            "positions": [
                -0.6196276936644374,
                -1.6074940515473644,
                1.9712760806738658,
                -1.291376932436968,
                1.0227259441832142,
                -0.7539810001854805
            ]
        },
        {
            "positions": [
                -0.5641566348028255,
                -1.5752986644530305,
                1.9770130302064923,
                -1.2578423892323405,
                0.9618506468927928,
                -0.9620785476064888
            ]
        },
        {
            "positions": [
                -0.5086855759412137,
                -1.5431032773586968,
                1.9827499797391186,
                -1.2243078460277128,
                0.9009753496023711,
                -1.1701760950274973
            ]
        },
        {
            "positions": [
                -0.4532145170796019,
                -1.510907890264363,
                1.988486929271745,
                -1.1907733028230854,
                0.8401000523119497,
                -1.3782736424485054
            ]
        },
        {
            "positions": [
                -0.39774345821798995,
                -1.478712503170029,
                1.9942238788043714,
                -1.157238759618458,
                0.7792247550215281,
                -1.5863711898695139
            ]
        },
        {
            "positions": [
                -0.3422723993563782,
                -1.4465171160756953,
                1.9999608283369978,
                -1.1237042164138304,
                0.7183494577311067,
                -1.794468737290522
            ]
        },
        {
            "positions": [
                -0.28680134049476635,
                -1.4143217289813614,
                2.0056977778696243,
                -1.090169673209203,
                0.6574741604406851,
                -2.0025662847115298
            ]
        },
        {
            "positions": [
                -0.2313302816331545,
                -1.3821263418870275,
                2.011434727402251,
                -1.0566351300045755,
                0.5965988631502634,
                -2.2106638321325383
            ]
        },
        {
            "positions": [
                -0.17585922277154276,
                -1.3499309547926939,
                2.0171716769348773,
                -1.0231005867999479,
                0.535723565859842,
                -2.4187613795535468
            ]
        },
        {
            "positions": [
                -0.12038816390993079,
                -1.31773556769836,
                2.0229086264675034,
                -0.9895660435953204,
                0.4748482685694204,
                -2.6268589269745553
            ]
        },
        {
            "positions": [
                -0.06491710504831905,
                -1.2855401806040263,
                2.02864557600013,
                -0.956031500390693,
                0.413972971278999,
                -2.834956474395563
            ]
        },
        {
            "positions": [
                -0.009446046186707267,
                -1.2533447935096924,
                2.0343825255327563,
                -0.9224969571860654,
                0.3530976739885773,
                -3.043054021816572
            ]
        },
        {
            "positions": [
                0.05701557790268969,
                -1.2011723726695172,
                2.012110874577913,
                -0.8930136672286264,
                0.24273393036716306,
                -3.0854963164023705
            ]
        },
        {
            "positions": [
                0.12347720199208664,
                -1.1489999518293417,
                1.98983922362307,
                -0.8635303772711875,
                0.13237018674574888,
                -3.1279386109881693
            ]
        }
    ]
}