{
    "goal": {
        "global_pose": {
            "orientation": {
                "w": 0.5084816217422485,
                "x": -0.49083608388900757,
                "y": 0.5182115435600281,
                "z": -0.4816462993621826
            },
            "position": {
                "x": 0.5540239810943604,
                "y": 0.030875300988554955,
                "z": 0.16403168439865112
            }
        },
        "name": "move_to_storage_A"
    },
    "id": "LazyPRM_move_to_storage_A_108",
    "joint_names": [
        "shoulder_pan_joint",
        "shoulder_lift_joint",
        "elbow_joint",
        "wrist_1_joint",
        "wrist_2_joint",
        "wrist_3_joint"
    ],
    "metrics": {
        "cart_traj_len": 0.3534809326491951,
        "distance_elbow_joint": 0.4544019619304156,
        "distance_shoulder_lift_joint": 0.23349014803647639,
        "distance_shoulder_pan_joint": 0.4596173944079634,
        "distance_wrist_1_joint": 0.25962019905122313,
        "distance_wrist_2_joint": 1.1111479569736464,
        "distance_wrist_3_joint": 0.10002117682003897,
        "smoothness": 0.0,
        "time": 0.012001576,
        "traj_len": 1.6181158293582583,
        "weighted_distance": 2.046731381223416
    },
    "planner": "LazyPRM",
    "start": {
        "state": {
            "elbow_joint": 1.9715477243005601,
            "shoulder_lift_joint": -1.1394853015351272,
            "shoulder_pan_joint": 0.12281154014795169,
            "wrist_1_joint": -0.7804696478968182,
            "wrist_2_joint": 0.12958648046900423,
            "wrist_3_joint": -3.192491284697111
        }
    },
    "waypoints": [
        {
            "positions": [
                0.12281154014795169,
                -1.1394853015351272,
                1.9715477243005601,
                -0.7804696478968182,
                0.12958648046900423,
                -3.192491284697111
            ]
        },
        {
            "positions": [
                0.0571519123753855,
                -1.1728410369689095,
                2.0364622902906193,
                -0.8175582477612786,
                0.2883219028938109,
                -3.1782025451513913
            ]
        },
        {
            "positions": [
                -0.00850771539718069,
                -1.2061967724026919,
                2.101376856280679,
                -0.8546468476257391,
                0.44705732531861747,
                -3.1639138056056715
            ]
        },
        {
            "positions": [
                -0.0741673431697469,
                -1.2395525078364742,
                2.166291422270738,
                -0.8917354474901995,
                0.6057927477434242,
                -3.1496250660599516
            ]
        },
        {
            "positions": [
                -0.13982697094231306,
                -1.2729082432702565,
                2.2312059882607977,
                -0.92882404735466,
                0.7645281701682307,
                -3.1353363265142318
            ]
        },
        {
            "positions": [
                -0.2054865987148793,
                -1.3062639787040389,
                2.296120554250857,
                -0.9659126472191204,
                0.9232635925930374,
                -3.121047586968512
            ]
        },
        {
            "positions": [
                -0.27114622648744546,
                -1.3396197141378212,
                2.361035120240916,
                -1.003001247083581,
                1.081999015017844,
                -3.106758847422792
            ]
        },
        {
            "positions": [
                -0.3368058542600117,
                -1.3729754495716036,
                2.4259496862309757,
                -1.0400898469480413,
                1.2407344374426506,
                -3.092470107877072
            ]
        }
    ]
}