{
    "goal": {
        "global_pose": {
            "orientation": {
                "w": 0.7047431468963623,
                "x": -0.7094548344612122,
                "y": 0.0024358443915843964,
                "z": -0.0022348060738295317
            },
            "position": {
                "x": 0.6094750761985779,
                "y": 0.3671506643295288,
                "z": 0.19426114857196808
            }
        },
        "name": "move_to_magneteinheit_A"
    },
    "id": "LazyPRMstar_move_to_magneteinheit_A_135",
    "joint_names": [
        "shoulder_pan_joint",
        "shoulder_lift_joint",
        "elbow_joint",
        "wrist_1_joint",
        "wrist_2_joint",
        "wrist_3_joint"
    ],
    "metrics": {
        "cart_traj_len": 4.004897827745038,
        "distance_elbow_joint": 3.8901199334134224,
        "distance_shoulder_lift_joint": 0.6049762512064618,
        "distance_shoulder_pan_joint": 3.156716546806406,
        "distance_wrist_1_joint": 0.7804660551957281,
        "distance_wrist_2_joint": 1.7072507432948354,
        "distance_wrist_3_joint": 2.638809123637633,
        "smoothness": 0.11047049681860277,
        "time": 5.014175662,
        "traj_len": 3.5746802169640968,
        "weighted_distance": 4.532512956332317
    },
    "planner": "LazyPRMstar",
    "start": {
        "state": {
            "elbow_joint": -1.919618573717145,
            "shoulder_lift_joint": -1.2443395971678275,
            "shoulder_pan_joint": 2.6996025300909787,
            "wrist_1_joint": -1.548550951253194,
            "wrist_2_joint": -1.5709469090946802,
            "wrist_3_joint": 0.4420197732051276
        }
    },
    "waypoints": [
        {
            "positions": [
                2.6996025300909787,
                -1.2443395971678275,
                -1.919618573717145,
                -1.548550951253194,
                -1.5709469090946802,
                0.4420197732051276
            ]
        },
        {
            "positions": [
                2.5801790638931115,
                -1.2295565668695292,
                -1.7917821387771111,
                -1.5392593330020627,
                -1.5284926340969684,
                0.5114442731676974
            ]
        },
        {
            "positions": [
                2.4607555976952438,
                -1.2147735365712309,
                -1.663945703837077,
                -1.5299677147509314,
                -1.4860383590992565,
                0.5808687731302671
            ]
        },
        {
            "positions": [
                2.3413321314973765,
                -1.1999905062729326,
                -1.5361092688970432,
                -1.5206760964998,
                -1.4435840841015448,
                0.6502932730928368
            ]
        },
        {
            "positions": [
                2.221908665299509,
                -1.1852074759746343,
                -1.4082728339570094,
                -1.511384478248669,
                -1.4011298091038331,
                0.7197177730554065
            ]
        },
        {
            "positions": [
                2.1024851991016416,
                -1.170424445676336,
                -1.2804363990169754,
                -1.5020928599975376,
                -1.3586755341061212,
                0.7891422730179762
            ]
        },
        {
            "positions": [
                1.9830617329037743,
                -1.1556414153780379,
                -1.1525999640769415,
                -1.4928012417464063,
                -1.3162212591084095,
                0.858566772980546
            ]
        },
        {
            "positions": [
                1.8636382667059066,
                -1.1408583850797396,
                -1.0247635291369077,
                -1.483509623495275,
                -1.2737669841106976,
                0.9279912729431157
            ]
        },
        {
            "positions": [
                1.7442148005080393,
                -1.1260753547814413,
                -0.8969270941968739,
                -1.4742180052441436,
                -1.231312709112986,
                0.9974157729056854
            ]
        },
        {
            "positions": [
                1.6247913343101719,
                -1.111292324483143,
                -0.7690906592568398,
                -1.4649263869930125,
                -1.1888584341152741,
                1.0668402728682551
            ]
        },
        {
            "positions": [
                1.5053678681123044,
                -1.0965092941848447,
                -0.6412542243168058,
                -1.4556347687418811,
                -1.1464041591175622,
                1.1362647728308248
            ]
        },
        {
            "positions": [
                1.3859444019144371,
                -1.0817262638865464,
                -0.5134177893767722,
                -1.4463431504907498,
                -1.1039498841198507,
                1.2056892727933946
            ]
        },
        {
            "positions": [
                1.2665209357165697,
                -1.066943233588248,
                -0.38558135443673813,
                -1.4370515322396185,
                -1.0614956091221388,
                1.2751137727559643
            ]
        },
        {
            "positions": [
                1.1470974695187024,
                -1.0521602032899497,
                -0.2577449194967043,
                -1.4277599139884871,
                -1.019041334124427,
                1.3445382727185338
            ]
        },
        {
            "positions": [
                1.0276740033208347,
                -1.0373771729916514,
                -0.12990848455667026,
                -1.4184682957373558,
                -0.9765870591267152,
                1.4139627726811037
            ]
        },
        {
            "positions": [
                0.9082505371229674,
                -1.0225941426933534,
                -0.002072049616636429,
                -1.4091766774862244,
                -0.9341327841290035,
                1.4833872726436734
            ]
        },
        {
            "positions": [
                0.7888270709251,
                -1.007811112395055,
                0.12576438532339718,
                -1.3998850592350933,
                -0.8916785091312918,
                1.5528117726062431
            ]
        },
        {
            "positions": [
                0.6694036047272323,
                -0.9930280820967567,
                0.25360082026343167,
                -1.390593440983962,
                -0.8492242341335798,
                1.6222362725688129
            ]
        },
        {
            "positions": [
                0.549980138529365,
                -0.9782450517984584,
                0.3814372552034653,
                -1.3813018227328306,
                -0.8067699591358681,
                1.6916607725313826
            ]
        },
        {
            "positions": [
                0.43055667233149775,
                -0.9634620215001601,
                0.5092736901434989,
                -1.3720102044816993,
                -0.7643156841381564,
                1.7610852724939523
            ]
        },
        {
            "positions": [
                0.31113320613363005,
                -0.9486789912018618,
                0.6371101250835334,
                -1.362718586230568,
                -0.7218614091404445,
                1.830509772456522
            ]
        },
        {
            "positions": [
                0.1917097399357628,
                -0.9338959609035635,
                0.764946560023567,
                -1.3534269679794368,
                -0.6794071341427328,
                1.8999342724190917
            ]
        },
        {
            "positions": [
                0.07228627373789553,
                -0.9191129306052652,
                0.8927829949636006,
                -1.3441353497283055,
                -0.6369528591450211,
                1.9693587723816615
            ]
        },
        {
            "positions": [
                -0.047137192459972166,
                -0.9043299003069669,
                1.020619429903635,
                -1.3348437314771742,
                -0.5944985841473092,
                2.038783272344231
            ]
        },
        {
            "positions": [
                -0.16656065865783942,
                -0.8895468700086687,
                1.148455864843669,
                -1.3255521132260428,
                -0.5520443091495975,
                2.108207772306801
            ]
        },
        {
            "positions": [
                -0.13750532285208084,
                -0.914565222413399,
                1.23066041432893,
                -1.2698053915091851,
                -0.4832094948146222,
                2.205469884760397
            ]
        },
        {
            "positions": [
                -0.10844998704632222,
                -0.9395835748181294,
                1.312864963814191,
                -1.2140586697923275,
                -0.414374680479647,
                2.302731997213993
            ]
        },
        {
            "positions": [
                -0.07939465124056364,
                -0.9646019272228596,
                1.395069513299452,
                -1.1583119480754698,
                -0.3455398661446718,
                2.3999941096675887
            ]
        },
        {
            "positions": [
                -0.05033931543480502,
                -0.9896202796275899,
                1.477274062784713,
                -1.102565226358612,
                -0.27670505180969657,
                2.4972562221211847
            ]
        },
        {
            "positions": [
                -0.021283979629046434,
                -1.0146386320323202,
                1.5594786122699742,
                -1.0468185046417544,
                -0.20787023747472133,
                2.594518334574781
            ]
        },
        {
            "positions": [
                0.007771356176712152,
                -1.0396569844370505,
                1.641683161755235,
                -0.9910717829248967,
                -0.1390354231397461,
                2.6917804470283766
            ]
        },
        {
            "positions": [
                0.03682669198247074,
                -1.064675336841781,
                1.7238877112404962,
                -0.935325061208039,
                -0.07020060880477091,
                2.789042559481973
            ]
        },
        {
            "positions": [
                0.06588202778822938,
                -1.0896936892465112,
                1.8060922607257572,
                -0.8795783394911814,
                -0.001365794469795678,
                2.886304671935569
            ]
        },
        {
            "positions": [
                0.09493736359398797,
                -1.1147120416512415,
                1.8882968102110183,
                -0.8238316177743237,
                0.06746901986517961,
                2.983566784389165
            ]
        },
        {
            "positions": [
                0.12399269939974657,
                -1.1397303940559718,
                1.9705013596962793,
                -0.768084896057466,
                0.13630383420015477,
                3.080828896842761
            ]
        }
    ]
}{
    "goal": {
        "global_pose": {
            "orientation": {
                "w": 0.7047431468963623,
                "x": -0.7094548344612122,
                "y": 0.0024358443915843964,
                "z": -0.0022348060738295317
            },
            "position": {
                "x": 0.6094750761985779,
                "y": 0.3671506643295288,
                "z": 0.19426114857196808
            }
        },
        "name": "move_to_magneteinheit_A"
    },
    "id": "LazyPRMstar_move_to_magneteinheit_A_135",
    "joint_names": [
        "shoulder_pan_joint",
        "shoulder_lift_joint",
        "elbow_joint",
        "wrist_1_joint",
        "wrist_2_joint",
        "wrist_3_joint"
    ],
    "metrics": {
        "cart_traj_len": 1.2133406970743918,
        "distance_elbow_joint": 0.06878484967780407,
        "distance_shoulder_lift_joint": 0.7486058746547695,
        "distance_shoulder_pan_joint": 1.2425771380664363,
        "distance_wrist_1_joint": 0.7414721092132913,
        "distance_wrist_2_joint": 1.4336058912406413,
        "distance_wrist_3_joint": 4.244305026640475,
        "smoothness": 7.401486889441618e-17,
        "time": 5.041164524,
        "traj_len": 2.911932500847748,
        "weighted_distance": 4.375275870528429
    },
    "planner": "LazyPRMstar",
    "start": {
        "state": {
            "elbow_joint": 1.919643534880228,
            "shoulder_lift_joint": -1.8972525353963687,
            "shoulder_pan_joint": -1.1188672234189438,
            "wrist_1_joint": -1.5931878212786155,
            "wrist_2_joint": 1.5706036197970081,
            "wrist_3_joint": 1.118896926603594
        }
    },
    "waypoints": [
        {
            "positions": [
                -1.1188672234189438,
                -1.8972525353963687,
                1.919643534880228,
                -1.5931878212786155,
                1.5706036197970081,
                1.118896926603594
            ]
        },
        {
            "positions": [
                -1.0661654875878663,
                -1.8638496357211236,
                1.9217689429854536,
                -1.558808622709978,
                1.5105006384218966,
                0.9189189349414698
            ]
        },
        {
            "positions": [
                -1.0134637517567888,
                -1.8304467360458785,
                1.9238943510906794,
                -1.5244294241413407,
                1.4503976570467854,
                0.7189409432793457
            ]
        },
        {
            "positions": [
                -0.9607620159257112,
                -1.7970438363706334,
                1.926019759195905,
                -1.4900502255727033,
                1.3902946756716739,
                0.5189629516172215
            ]
        },
        {
            "positions": [
                -0.9080602800946336,
                -1.7636409366953885,
                1.9281451673011307,
                -1.4556710270040658,
                1.3301916942965624,
                0.31898495995509746
            ]
        },
        {
            "positions": [
                -0.8553585442635561,
                -1.7302380370201433,
                1.9302705754063563,
                -1.4212918284354286,
                1.270088712921451,
                0.1190069682929733
            ]
        },
        {
            "positions": [
                -0.8026568084324786,
                -1.6968351373448982,
                1.932395983511582,
                -1.386912629866791,
                1.2099857315463396,
                -0.08097102336915096
            ]
        },
        {
            "positions": [
                -0.7499550726014009,
                -1.663432237669653,
                1.9345213916168076,
                -1.3525334312981536,
                1.149882750171228,
                -0.280949015031275
            ]
        },
        {
            "positions": [
                -0.6972533367703233,
                -1.630029337994408,
                1.9366467997220334,
                -1.3181542327295164,
                1.0897797687961166,
                -0.48092700669339905
            ]
        },
        {
            "positions": [
                -0.6445516009392458,
                -1.5966264383191628,
                1.938772207827259,
                -1.283775034160879,
                1.029676787421005,
                -0.6809049983555233
            ]
        },
        {
            "positions": [
                -0.5918498651081683,
                -1.5632235386439177,
                1.9408976159324847,
                -1.2493958355922414,
                0.9695738060458938,
                -0.8808829900176474
            ]
        },
        {
            "positions": [
                -0.5391481292770905,
                -1.5298206389686726,
                1.9430230240377102,
                -1.215016637023604,
                0.9094708246707823,
                -1.0808609816797718
            ]
        },
        {
            "positions": [
                -0.48644639344601315,
                -1.4964177392934277,
                1.945148432142936,
                -1.1806374384549667,
                0.8493678432956709,
                -1.280838973341896
            ]
        },
        {
            "positions": [
                -0.4337446576149355,
                -1.4630148396181826,
                1.9472738402481615,
                -1.1462582398863292,
                0.7892648619205594,
                -1.48081696500402
            ]
        },
        {
            "positions": [
                -0.381042921783858,
                -1.4296119399429374,
                1.9493992483533873,
                -1.111879041317692,
                0.7291618805454481,
                -1.680794956666144
            ]
        },
        {
            "positions": [
                -0.3283411859527804,
                -1.3962090402676923,
                1.9515246564586128,
                -1.0774998427490545,
                0.6690588991703366,
                -1.8807729483282685
            ]
        },
        {
            "positions": [
                -0.2756394501217029,
                -1.3628061405924474,
                1.9536500645638386,
                -1.043120644180417,
                0.6089559177952253,
                -2.0807509399903923
            ]
        },
        {
            "positions": [
                -0.22293771429062526,
                -1.3294032409172023,
                1.9557754726690642,
                -1.0087414456117796,
                0.5488529364201138,
                -2.2807289316525168
            ]
        },
        {
            "positions": [
                -0.17023597845954774,
                -1.2960003412419572,
                1.95790088077429,
                -0.9743622470431422,
                0.4887499550450023,
                -2.4807069233146404
            ]
        },
        {
            "positions": [
                -0.11753424262847001,
                -1.262597441566712,
                1.9600262888795155,
                -0.9399830484745049,
                0.4286469736698908,
                -2.680684914976765
            ]
        },
        {
            "positions": [
                -0.06483250679739272,
                -1.229194541891467,
                1.962151696984741,
                -0.9056038499058675,
                0.3685439922947795,
                -2.8806629066388885
            ]
        },
        {
            "positions": [
                -0.012130770966314958,
                -1.1957916422162218,
                1.9642771050899668,
                -0.87122465133723,
                0.3084410109196679,
                -3.080640898301013
            ]
        },
        {
            "positions": [
                0.055789571840588886,
                -1.1722191514789104,
                1.9763527448239995,
                -0.8614701817012771,
                0.22271936973801731,
                -3.1030244991689466
            ]
        },
        {
            "positions": [
                0.12370991464749273,
                -1.1486466607415993,
                1.9884283845580322,
                -0.8517157120653241,
                0.13699772855636674,
                -3.1254081000368807
            ]
        }
    ]
}