{
    "goal": {
        "global_pose": {
            "orientation": {
                "w": 0.5084816217422485,
                "x": -0.49083608388900757,
                "y": 0.5182115435600281,
                "z": -0.4816462993621826
            },
            "position": {
                "x": 0.5540239810943604,
                "y": 0.030875300988554955,
                "z": 0.16403168439865112
            }
        },
        "name": "move_to_storage_A"
    },
    "id": "LazyPRM_move_to_storage_A_13",
    "joint_names": [
        "shoulder_pan_joint",
        "shoulder_lift_joint",
        "elbow_joint",
        "wrist_1_joint",
        "wrist_2_joint",
        "wrist_3_joint"
    ],
    "metrics": {
        "cart_traj_len": 0.3534414818883428,
        "distance_elbow_joint": 0.45035636622446695,
        "distance_shoulder_lift_joint": 0.23262449581796685,
        "distance_shoulder_pan_joint": 0.4602261087053679,
        "distance_wrist_1_joint": 0.2529976823590804,
        "distance_wrist_2_joint": 1.1064903530221333,
        "distance_wrist_3_joint": 0.1026349739763388,
        "smoothness": 8.881784197001252e-16,
        "time": 0.011967949,
        "traj_len": 1.6141034601615083,
        "weighted_distance": 2.042079323493396
    },
    "planner": "LazyPRM",
    "start": {
        "state": {
            "elbow_joint": 1.9715477243005601,
            "shoulder_lift_joint": -1.1394853015351272,
            "shoulder_pan_joint": 0.12281154014795169,
            "wrist_1_joint": -0.7804696478968182,
            "wrist_2_joint": 0.12958648046900423,
            "wrist_3_joint": -3.192491284697111
        }
    },
    "waypoints": [
        {
            "positions": [
                0.12281154014795169,
                -1.1394853015351272,
                1.9715477243005601,
                -0.7804696478968182,
                0.12958648046900423,
                -3.192491284697111
            ]
        },
        {
            "positions": [
                0.057064953190042,
                -1.1727173723662654,
                2.0358843480469124,
                -0.8166121739481154,
                0.2876565309007375,
                -3.1778291455576344
            ]
        },
        {
            "positions": [
                -0.008681633767867694,
                -1.2059494431974034,
                2.100220971793265,
                -0.8527546999994126,
                0.44572658133247084,
                -3.163167006418157
            ]
        },
        {
            "positions": [
                -0.07442822072577739,
                -1.2391815140285416,
                2.1645575955396175,
                -0.8888972260507098,
                0.6037966317642042,
                -3.1485048672786804
            ]
        },
        {
            "positions": [
                -0.14017480768368706,
                -1.2724135848596796,
                2.2288942192859698,
                -0.925039752102007,
                0.7618666821959375,
                -3.133842728139203
            ]
        },
        {
            "positions": [
                -0.2059213946415968,
                -1.3056456556908178,
                2.2932308430323225,
                -0.9611822781533041,
                0.9199367326276708,
                -3.1191805889997264
            ]
        },
        {
            "positions": [
                -0.27166798159950645,
                -1.3388777265219558,
                2.357567466778675,
                -0.9973248042046013,
                1.0780067830594042,
                -3.104518449860249
            ]
        },
        {
            "positions": [
                -0.3374145685574162,
                -1.372109797353094,
                2.421904090525027,
                -1.0334673302558985,
                1.2360768334911374,
                -3.0898563107207724
            ]
        }
    ]
}