{
    "goal": {
        "global_pose": {
            "orientation": {
                "w": 0.5084816217422485,
                "x": -0.49083608388900757,
                "y": 0.5182115435600281,
                "z": -0.4816462993621826
            },
            "position": {
                "x": 0.5540239810943604,
                "y": 0.030875300988554955,
                "z": 0.16403168439865112
            }
        },
        "name": "move_to_storage_A"
    },
    "id": "LazyPRMstar_move_to_storage_A_123",
    "joint_names": [
        "shoulder_pan_joint",
        "shoulder_lift_joint",
        "elbow_joint",
        "wrist_1_joint",
        "wrist_2_joint",
        "wrist_3_joint"
    ],
    "metrics": {
        "cart_traj_len": 0.3531387972054778,
        "distance_elbow_joint": 0.4475060306846985,
        "distance_shoulder_lift_joint": 0.23388925996881094,
        "distance_shoulder_pan_joint": 0.45931715186949273,
        "distance_wrist_1_joint": 0.2354965782032884,
        "distance_wrist_2_joint": 1.1088389308794362,
        "distance_wrist_3_joint": 0.08727448282752448,
        "smoothness": 4.440892098500626e-16,
        "time": 5.000138005,
        "traj_len": 1.6038461380173756,
        "weighted_distance": 2.022673208694629
    },
    "planner": "LazyPRMstar",
    "start": {
        "state": {
            "elbow_joint": 1.9715477243005601,
            "shoulder_lift_joint": -1.1394853015351272,
            "shoulder_pan_joint": 0.12281154014795169,
            "wrist_1_joint": -0.7804696478968182,
            "wrist_2_joint": 0.12958648046900423,
            "wrist_3_joint": -3.192491284697111
        }
    },
    "waypoints": [
        {
            "positions": [
                0.12281154014795169,
                -1.1394853015351272,
                1.9715477243005601,
                -0.7804696478968182,
                0.12958648046900423,
                -3.192491284697111
            ]
        },
        {
            "positions": [
                0.057194804166595586,
                -1.172898052959243,
                2.0354771572555173,
                -0.8141120162115737,
                0.2879920420232094,
                -3.180023501436036
            ]
        },
        {
            "positions": [
                -0.008421931814760517,
                -1.2063108043833588,
                2.099406590210474,
                -0.8477543845263291,
                0.44639760357741454,
                -3.1675557181749614
            ]
        },
        {
            "positions": [
                -0.0740386677961166,
                -1.2397235558074746,
                2.163336023165431,
                -0.8813967528410847,
                0.6048031651316197,
                -3.1550879349138863
            ]
        },
        {
            "positions": [
                -0.1396554037774727,
                -1.2731363072315904,
                2.2272654561203877,
                -0.9150391211558401,
                0.7632087266858248,
                -3.1426201516528116
            ]
        },
        {
            "positions": [
                -0.20527213975882885,
                -1.3065490586557065,
                2.291194889075345,
                -0.9486814894705956,
                0.9216142882400301,
                -3.1301523683917365
            ]
        },
        {
            "positions": [
                -0.2708888757401849,
                -1.3399618100798223,
                2.3551243220303015,
                -0.982323857785351,
                1.080019849794235,
                -3.117684585130662
            ]
        },
        {
            "positions": [
                -0.33650561172154103,
                -1.373374561503938,
                2.4190537549852587,
                -1.0159662261001066,
                1.2384254113484405,
                -3.1052168018695867
            ]
        }
    ]
}