{
    "goal": {
        "global_pose": {
            "orientation": {
                "w": 0.7047431468963623,
                "x": -0.7094548344612122,
                "y": 0.0024358443915843964,
                "z": -0.0022348060738295317
            },
            "position": {
                "x": 0.6094750761985779,
                "y": 0.3671506643295288,
                "z": 0.19426114857196808
            }
        },
        "name": "move_to_magneteinheit_A"
    },
    "id": "LazyPRMstar_move_to_magneteinheit_A_29",
    "joint_names": [
        "shoulder_pan_joint",
        "shoulder_lift_joint",
        "elbow_joint",
        "wrist_1_joint",
        "wrist_2_joint",
        "wrist_3_joint"
    ],
    "metrics": {
        "cart_traj_len": 3.2007169039231926,
        "distance_elbow_joint": 3.932185464149628,
        "distance_shoulder_lift_joint": 0.4574950138813789,
        "distance_shoulder_pan_joint": 2.739296500046864,
        "distance_wrist_1_joint": 3.537160318248195,
        "distance_wrist_2_joint": 1.441308957844801,
        "distance_wrist_3_joint": 0.6255824624133589,
        "smoothness": 0.10096784436597676,
        "time": 5.03501813,
        "traj_len": 3.568336967914358,
        "weighted_distance": 4.354613980309155
    },
    "planner": "LazyPRMstar",
    "start": {
        "state": {
            "elbow_joint": -1.919618573717145,
            "shoulder_lift_joint": -1.2443395971678275,
            "shoulder_pan_joint": 2.6996025300909787,
            "wrist_1_joint": -1.548550951253194,
            "wrist_2_joint": -1.5709469090946802,
            "wrist_3_joint": 0.4420197732051276
        }
    },
    "waypoints": [
        {
            "positions": [
                2.6996025300909787,
                -1.2443395971678275,
                -1.919618573717145,
                -1.548550951253194,
                -1.5709469090946802,
                0.4420197732051276
            ]
        },
        {
            "positions": [
                2.5840378561805566,
                -1.23405795243303,
                -1.8119556231643155,
                -1.449345055819401,
                -1.5199888370238959,
                0.43208146046983675
            ]
        },
        {
            "positions": [
                2.468473182270135,
                -1.2237763076982322,
                -1.7042926726114862,
                -1.3501391603856079,
                -1.4690307649531116,
                0.422143147734546
            ]
        },
        {
            "positions": [
                2.3529085083597128,
                -1.2134946629634347,
                -1.5966297220586567,
                -1.2509332649518148,
                -1.4180726928823275,
                0.41220483499925514
            ]
        },
        {
            "positions": [
                2.237343834449291,
                -1.203213018228637,
                -1.4889667715058272,
                -1.1517273695180217,
                -1.3671146208115432,
                0.40226652226396437
            ]
        },
        {
            "positions": [
                2.121779160538869,
                -1.1929313734938394,
                -1.381303820952998,
                -1.0525214740842286,
                -1.316156548740759,
                0.39232820952867353
            ]
        },
        {
            "positions": [
                2.006214486628447,
                -1.1826497287590418,
                -1.2736408704001685,
                -0.9533155786504356,
                -1.2651984766699746,
                0.38238989679338276
            ]
        },
        {
            "positions": [
                1.890649812718025,
                -1.172368084024244,
                -1.165977919847339,
                -0.8541096832166424,
                -1.2142404045991904,
                0.3724515840580919
            ]
        },
        {
            "positions": [
                1.775085138807603,
                -1.1620864392894465,
                -1.0583149692945097,
                -0.7549037877828494,
                -1.1632823325284063,
                0.36251327132280114
            ]
        },
        {
            "positions": [
                1.659520464897181,
                -1.1518047945546488,
                -0.9506520187416801,
                -0.6556978923490562,
                -1.112324260457622,
                0.3525749585875103
            ]
        },
        {
            "positions": [
                1.5439557909867592,
                -1.1415231498198513,
                -0.8429890681888508,
                -0.5564919969152632,
                -1.0613661883868377,
                0.34263664585221953
            ]
        },
        {
            "positions": [
                1.428391117076337,
                -1.1312415050850537,
                -0.7353261176360213,
                -0.45728610148147,
                -1.0104081163160537,
                0.3326983331169287
            ]
        },
        {
            "positions": [
                1.3128264431659153,
                -1.120959860350256,
                -0.627663167083192,
                -0.3580802060476771,
                -0.9594500442452693,
                0.3227600203816379
            ]
        },
        {
            "positions": [
                1.1972617692554934,
                -1.1106782156154584,
                -0.5200002165303625,
                -0.258874310613884,
                -0.9084919721744851,
                0.3128217076463471
            ]
        },
        {
            "positions": [
                1.081697095345071,
                -1.100396570880661,
                -0.41233726597753306,
                -0.15966841518009067,
                -0.8575339001037008,
                0.3028833949110563
            ]
        },
        {
            "positions": [
                0.9661324214346494,
                -1.0901149261458631,
                -0.3046743154247036,
                -0.060462519746297794,
                -0.8065758280329165,
                0.2929450821757655
            ]
        },
        {
            "positions": [
                0.8505677475242275,
                -1.0798332814110656,
                -0.19701136487187432,
                0.03874337568749531,
                -0.7556177559621323,
                0.28300676944047465
            ]
        },
        {
            "positions": [
                0.7350030736138056,
                -1.0695516366762678,
                -0.08934841431904506,
                0.1379492711212884,
                -0.7046596838913481,
                0.27306845670518387
            ]
        },
        {
            "positions": [
                0.6194383997033834,
                -1.0592699919414703,
                0.01831453623378465,
                0.23715516655508173,
                -0.6537016118205637,
                0.2631301439698931
            ]
        },
        {
            "positions": [
                0.5038737257929613,
                -1.0489883472066728,
                0.12597748678661413,
                0.3363610619888746,
                -0.6027435397497796,
                0.25319183123460226
            ]
        },
        {
            "positions": [
                0.3883090518825396,
                -1.038706702471875,
                0.2336404373394434,
                0.4355669574226677,
                -0.5517854676789953,
                0.24325351849931146
            ]
        },
        {
            "positions": [
                0.2727443779721179,
                -1.0284250577370775,
                0.34130338789227266,
                0.5347728528564608,
                -0.5008273956082112,
                0.23331520576402068
            ]
        },
        {
            "positions": [
                0.15717970406169535,
                -1.0181434130022797,
                0.44896633844510236,
                0.6339787482902541,
                -0.4498693235374269,
                0.22337689302872984
            ]
        },
        {
            "positions": [
                0.04161503015127379,
                -1.0078617682674822,
                0.5566292889979315,
                0.733184643724047,
                -0.3989112514666425,
                0.21343858029343904
            ]
        },
        {
            "positions": [
                0.043522604829047885,
                -0.986015399329815,
                0.7054855486179766,
                0.858182457564934,
                -0.36922196355956194,
                0.1754229863023374
            ]
        },
        {
            "positions": [
                0.04543017950682198,
                -0.9641690303921477,
                0.8543418082380219,
                0.9831802714058211,
                -0.33953267565248135,
                0.13740739231123578
            ]
        },
        {
            "positions": [
                0.04733775418459608,
                -0.9423226614544805,
                1.003198067858067,
                1.1081780852467082,
                -0.30984338774540077,
                0.09939179832013414
            ]
        },
        {
            "positions": [
                0.04924532886237017,
                -0.9204762925168133,
                1.152054327478112,
                1.2331758990875952,
                -0.2801540998383202,
                0.06137620432903251
            ]
        },
        {
            "positions": [
                0.051152903540144276,
                -0.8986299235791461,
                1.3009105870981572,
                1.3581737129284823,
                -0.2504648119312396,
                0.023360610337930854
            ]
        },
        {
            "positions": [
                0.05306047821791837,
                -0.8767835546414788,
                1.4497668467182023,
                1.4831715267693695,
                -0.22077552402415898,
                -0.01465498365317075
            ]
        },
        {
            "positions": [
                0.05496805289569247,
                -0.8549371857038116,
                1.5986231063382474,
                1.6081693406102566,
                -0.19108623611707837,
                -0.05267057764427241
            ]
        },
        {
            "positions": [
                0.056875627573466564,
                -0.8330908167661444,
                1.7474793659582928,
                1.7331671544511436,
                -0.1613969482099978,
                -0.09068617163537401
            ]
        },
        {
            "positions": [
                0.05878320225124066,
                -0.8112444478284772,
                1.8963356255783377,
                1.8581649682920307,
                -0.1317076603029172,
                -0.12870176562647567
            ]
        },
        {
            "positions": [
                0.12292403025843401,
                -0.7868445832864486,
                2.0125668904324834,
                1.9886093669950002,
                -0.12963795124987976,
                -0.0738408420447201
            ]
        }
    ]
}{
    "goal": {
        "global_pose": {
            "orientation": {
                "w": 0.7047431468963623,
                "x": -0.7094548344612122,
                "y": 0.0024358443915843964,
                "z": -0.0022348060738295317
            },
            "position": {
                "x": 0.6094750761985779,
                "y": 0.3671506643295288,
                "z": 0.19426114857196808
            }
        },
        "name": "move_to_magneteinheit_A"
    },
    "id": "LazyPRMstar_move_to_magneteinheit_A_29",
    "joint_names": [
        "shoulder_pan_joint",
        "shoulder_lift_joint",
        "elbow_joint",
        "wrist_1_joint",
        "wrist_2_joint",
        "wrist_3_joint"
    ],
    "metrics": {
        "cart_traj_len": 1.2023796799328197,
        "distance_elbow_joint": 0.0499685829317873,
        "distance_shoulder_lift_joint": 0.7584898748456694,
        "distance_shoulder_pan_joint": 1.241576372667248,
        "distance_wrist_1_joint": 0.8197543345992764,
        "distance_wrist_2_joint": 1.4410129817089412,
        "distance_wrist_3_joint": 4.310373669185347,
        "smoothness": 0.02260178389920237,
        "time": 5.035556666,
        "traj_len": 2.936183886601496,
        "weighted_distance": 4.416185058465868
    },
    "planner": "LazyPRMstar",
    "start": {
        "state": {
            "elbow_joint": 1.919643534880228,
            "shoulder_lift_joint": -1.8972525353963687,
            "shoulder_pan_joint": -1.1188672234189438,
            "wrist_1_joint": -1.5931878212786155,
            "wrist_2_joint": 1.5706036197970081,
            "wrist_3_joint": 1.118896926603594
        }
    },
    "waypoints": [
        {
            "positions": [
                -1.1188672234189438,
                -1.8972525353963687,
                1.919643534880228,
                -1.5931878212786155,
                1.5706036197970081,
                1.118896926603594
            ]
        },
        {
            "positions": [
                -1.0634948607877515,
                -1.8632966518409593,
                1.9215246178183576,
                -1.5559882685955653,
                1.5052210610774184,
                0.9251880960033885
            ]
        },
        {
            "positions": [
                -1.008122498156559,
                -1.8293407682855496,
                1.9234057007564869,
                -1.5187887159125149,
                1.4398385023578288,
                0.731479265403183
            ]
        },
        {
            "positions": [
                -0.9527501355253666,
                -1.7953848847301401,
                1.9252867836946164,
                -1.4815891632294647,
                1.374455943638239,
                0.5377704348029775
            ]
        },
        {
            "positions": [
                -0.8973777728941741,
                -1.7614290011747307,
                1.9271678666327459,
                -1.4443896105464145,
                1.3090733849186496,
                0.344061604202772
            ]
        },
        {
            "positions": [
                -0.8420054102629817,
                -1.727473117619321,
                1.9290489495708751,
                -1.407190057863364,
                1.2436908261990598,
                0.1503527736025665
            ]
        },
        {
            "positions": [
                -0.7866330476317893,
                -1.6935172340639115,
                1.9309300325090046,
                -1.3699905051803138,
                1.1783082674794703,
                -0.043356056997639
            ]
        },
        {
            "positions": [
                -0.7312606850005968,
                -1.659561350508502,
                1.9328111154471341,
                -1.3327909524972634,
                1.1129257087598805,
                -0.2370648875978445
            ]
        },
        {
            "positions": [
                -0.6758883223694043,
                -1.6256054669530924,
                1.9346921983852634,
                -1.2955913998142132,
                1.047543150040291,
                -0.43077371819805
            ]
        },
        {
            "positions": [
                -0.6205159597382119,
                -1.591649583397683,
                1.936573281323393,
                -1.258391847131163,
                0.9821605913207012,
                -0.6244825487982555
            ]
        },
        {
            "positions": [
                -0.5651435971070196,
                -1.5576936998422735,
                1.9384543642615224,
                -1.2211922944481128,
                0.9167780326011116,
                -0.818191379398461
            ]
        },
        {
            "positions": [
                -0.5097712344758271,
                -1.523737816286864,
                1.9403354471996517,
                -1.1839927417650624,
                0.8513954738815219,
                -1.0119002099986665
            ]
        },
        {
            "positions": [
                -0.4543988718446347,
                -1.4897819327314543,
                1.9422165301377812,
                -1.1467931890820122,
                0.7860129151619323,
                -1.205609040598872
            ]
        },
        {
            "positions": [
                -0.3990265092134422,
                -1.4558260491760449,
                1.9440976130759107,
                -1.1095936363989618,
                0.7206303564423425,
                -1.3993178711990775
            ]
        },
        {
            "positions": [
                -0.3436541465822498,
                -1.4218701656206352,
                1.9459786960140402,
                -1.0723940837159116,
                0.655247797722753,
                -1.593026701799283
            ]
        },
        {
            "positions": [
                -0.2882817839510574,
                -1.3879142820652257,
                1.9478597789521694,
                -1.0351945310328614,
                0.5898652390031633,
                -1.7867355323994885
            ]
        },
        {
            "positions": [
                -0.23290942131986492,
                -1.3539583985098163,
                1.949740861890299,
                -0.997994978349811,
                0.5244826802835736,
                -1.980444362999694
            ]
        },
        {
            "positions": [
                -0.17753705868867242,
                -1.3200025149544068,
                1.9516219448284284,
                -0.9607954256667608,
                0.45910012156398405,
                -2.1741531935998992
            ]
        },
        {
            "positions": [
                -0.12216469605747993,
                -1.286046631398997,
                1.9535030277665577,
                -0.9235958729837105,
                0.3937175628443943,
                -2.3678620242001047
            ]
        },
        {
            "positions": [
                -0.06679233342628765,
                -1.2520907478435876,
                1.9553841107046872,
                -0.8863963203006602,
                0.32833500412480476,
                -2.56157085480031
            ]
        },
        {
            "positions": [
                -0.011419970795095269,
                -1.218134864288178,
                1.9572651936428167,
                -0.84919676761761,
                0.262952445405215,
                -2.7552796854005157
            ]
        },
        {
            "positions": [
                0.04395239183609734,
                -1.1841789807327685,
                1.959146276580946,
                -0.8119972149345596,
                0.19756988668562525,
                -2.948988516000721
            ]
        },
        {
            "positions": [
                0.09932475446728971,
                -1.150223097177359,
                1.9610273595190755,
                -0.7747976622515094,
                0.13218732796603566,
                -3.1426973466009267
            ]
        },
        {
            "positions": [
                0.1227091492483041,
                -1.1387626605506993,
                1.9696121178120154,
                -0.7734334866793391,
                0.1347840178440045,
                -3.191476742581753
            ]
        }
    ]
}