{
    "goal": {
        "global_pose": {
            "orientation": {
                "w": 0.5084816217422485,
                "x": -0.49083608388900757,
                "y": 0.5182115435600281,
                "z": -0.4816462993621826
            },
            "position": {
                "x": 0.5540239810943604,
                "y": 0.030875300988554955,
                "z": 0.16403168439865112
            }
        },
        "name": "move_to_storage_A"
    },
    "id": "LazyPRM_move_to_storage_A_29",
    "joint_names": [
        "shoulder_pan_joint",
        "shoulder_lift_joint",
        "elbow_joint",
        "wrist_1_joint",
        "wrist_2_joint",
        "wrist_3_joint"
    ],
    "metrics": {
        "cart_traj_len": 0.3530853491182492,
        "distance_elbow_joint": 0.4521005559315401,
        "distance_shoulder_lift_joint": 0.23336091813907722,
        "distance_shoulder_pan_joint": 0.46313561084536486,
        "distance_wrist_1_joint": 0.2580668432443468,
        "distance_wrist_2_joint": 1.0918850353537328,
        "distance_wrist_3_joint": 0.10364735866088104,
        "smoothness": 1.1102230263833737e-15,
        "time": 0.02207133,
        "traj_len": 1.6131324564879794,
        "weighted_distance": 2.03947123492703
    },
    "planner": "LazyPRM",
    "start": {
        "state": {
            "elbow_joint": 1.9715477243005601,
            "shoulder_lift_joint": -1.1394853015351272,
            "shoulder_pan_joint": 0.12281154014795169,
            "wrist_1_joint": -0.7804696478968182,
            "wrist_2_joint": 0.12958648046900423,
            "wrist_3_joint": -3.192491284697111
        }
    },
    "waypoints": [
        {
            "positions": [
                0.12281154014795169,
                -1.1394853015351272,
                1.9715477243005601,
                -0.7804696478968182,
                0.12958648046900423,
                -3.192491284697111
            ]
        },
        {
            "positions": [
                0.05664931002718529,
                -1.1728225755549953,
                2.036133518005066,
                -0.8173363397888677,
                0.2855700569481089,
                -3.1776845191741283
            ]
        },
        {
            "positions": [
                -0.00951292009358111,
                -1.2061598495748636,
                2.1007193117095717,
                -0.8542030316809173,
                0.4415536334272136,
                -3.162877753651145
            ]
        },
        {
            "positions": [
                -0.07567515021434752,
                -1.2394971235947316,
                2.1653051054140775,
                -0.8910697235729668,
                0.5975372099063183,
                -3.148070988128162
            ]
        },
        {
            "positions": [
                -0.1418373803351139,
                -1.2728343976146,
                2.229890899118583,
                -0.9279364154650164,
                0.753520786385423,
                -3.1332642226051792
            ]
        },
        {
            "positions": [
                -0.20799961045588033,
                -1.306171671634468,
                2.2944766928230886,
                -0.9648031073570659,
                0.9095043628645277,
                -3.1184574570821963
            ]
        },
        {
            "positions": [
                -0.2741618405766467,
                -1.339508945654336,
                2.3590624865275944,
                -1.0016697992491155,
                1.0654879393436323,
                -3.103650691559213
            ]
        },
        {
            "positions": [
                -0.34032407069741316,
                -1.3728462196742044,
                2.4236482802321,
                -1.038536491141165,
                1.221471515822737,
                -3.08884392603623
            ]
        }
    ]
}