{
    "goal": {
        "global_pose": {
            "orientation": {
                "w": 0.5084816217422485,
                "x": -0.49083608388900757,
                "y": 0.5182115435600281,
                "z": -0.4816462993621826
            },
            "position": {
                "x": 0.5540239810943604,
                "y": 0.030875300988554955,
                "z": 0.16403168439865112
            }
        },
        "name": "move_to_storage_A"
    },
    "id": "LazyPRMstar_move_to_storage_A_106",
    "joint_names": [
        "shoulder_pan_joint",
        "shoulder_lift_joint",
        "elbow_joint",
        "wrist_1_joint",
        "wrist_2_joint",
        "wrist_3_joint"
    ],
    "metrics": {
        "cart_traj_len": 0.35318326849226894,
        "distance_elbow_joint": 0.449838380571578,
        "distance_shoulder_lift_joint": 0.2332326937812046,
        "distance_shoulder_pan_joint": 0.4628874170943447,
        "distance_wrist_1_joint": 0.24751697951074625,
        "distance_wrist_2_joint": 1.093524737571053,
        "distance_wrist_3_joint": 0.10292417313886526,
        "smoothness": 1.1102230298998083e-15,
        "time": 5.000107826000001,
        "traj_len": 1.6093242002989303,
        "weighted_distance": 2.033916036867629
    },
    "planner": "LazyPRMstar",
    "start": {
        "state": {
            "elbow_joint": 1.9715477243005601,
            "shoulder_lift_joint": -1.1394853015351272,
            "shoulder_pan_joint": 0.12281154014795169,
            "wrist_1_joint": -0.7804696478968182,
            "wrist_2_joint": 0.12958648046900423,
            "wrist_3_joint": -3.192491284697111
        }
    },
    "waypoints": [
        {
            "positions": [
                0.12281154014795169,
                -1.1394853015351272,
                1.9715477243005601,
                -0.7804696478968182,
                0.12958648046900423,
                -3.192491284697111
            ]
        },
        {
            "positions": [
                0.05668476627733102,
                -1.172804257789585,
                2.0358103500965,
                -0.8158292163983534,
                0.2858043001220118,
                -3.177787831391559
            ]
        },
        {
            "positions": [
                -0.009442007593289656,
                -1.2061232140440428,
                2.1000729758924397,
                -0.8511887848998885,
                0.4420221197750194,
                -3.163084378086007
            ]
        },
        {
            "positions": [
                -0.07556878146391031,
                -1.2394421702985006,
                2.1643356016883795,
                -0.8865483534014237,
                0.5982399394280269,
                -3.148380924780455
            ]
        },
        {
            "positions": [
                -0.141695555334531,
                -1.2727611265529584,
                2.228598227484319,
                -0.9219079219029589,
                0.7544577590810345,
                -3.1336774714749023
            ]
        },
        {
            "positions": [
                -0.2078223292051517,
                -1.3060800828074162,
                2.2928608532802586,
                -0.957267490404494,
                0.9106755787340421,
                -3.11897401816935
            ]
        },
        {
            "positions": [
                -0.2739491030757723,
                -1.339399039061874,
                2.3571234790761983,
                -0.9926270589060292,
                1.0668933983870497,
                -3.104270564863798
            ]
        },
        {
            "positions": [
                -0.340075876946393,
                -1.3727179953163318,
                2.421386104872138,
                -1.0279866274075644,
                1.2231112180400574,
                -3.089567111558246
            ]
        }
    ]
}