{
    "goal": {
        "global_pose": {
            "orientation": {
                "w": 0.7047431468963623,
                "x": -0.7094548344612122,
                "y": 0.0024358443915843964,
                "z": -0.0022348060738295317
            },
            "position": {
                "x": 0.6094750761985779,
                "y": 0.3671506643295288,
                "z": 0.19426114857196808
            }
        },
        "name": "move_to_magneteinheit_A"
    },
    "id": "LazyPRMstar_move_to_magneteinheit_A_20",
    "joint_names": [
        "shoulder_pan_joint",
        "shoulder_lift_joint",
        "elbow_joint",
        "wrist_1_joint",
        "wrist_2_joint",
        "wrist_3_joint"
    ],
    "metrics": {
        "cart_traj_len": 3.4998538415317624,
        "distance_elbow_joint": 3.89171309834419,
        "distance_shoulder_lift_joint": 0.13340831671054065,
        "distance_shoulder_pan_joint": 3.0061767219117845,
        "distance_wrist_1_joint": 0.7597883782413509,
        "distance_wrist_2_joint": 1.6955966583053428,
        "distance_wrist_3_joint": 3.6359381610472967,
        "smoothness": 0.10275894876747645,
        "time": 5.033068378,
        "traj_len": 3.6225158846526138,
        "weighted_distance": 4.780155090915126
    },
    "planner": "LazyPRMstar",
    "start": {
        "state": {
            "elbow_joint": -1.919618573717145,
            "shoulder_lift_joint": -1.2443395971678275,
            "shoulder_pan_joint": 2.6996025300909787,
            "wrist_1_joint": -1.548550951253194,
            "wrist_2_joint": -1.5709469090946802,
            "wrist_3_joint": 0.4420197732051276
        }
    },
    "waypoints": [
        {
            "positions": [
                2.6996025300909787,
                -1.2443395971678275,
                -1.919618573717145,
                -1.548550951253194,
                -1.5709469090946802,
                0.4420197732051276
            ]
        },
        {
            "positions": [
                2.5953977514555007,
                -1.2421078063531672,
                -1.8029606036414,
                -1.5221087499783859,
                -1.537091887856017,
                0.3340551483826697
            ]
        },
        {
            "positions": [
                2.491192972820022,
                -1.2398760155385071,
                -1.6863026335656552,
                -1.4956665487035776,
                -1.503236866617354,
                0.22609052356021178
            ]
        },
        {
            "positions": [
                2.386988194184544,
                -1.2376442247238468,
                -1.5696446634899104,
                -1.4692243474287694,
                -1.4693818453786907,
                0.11812589873775386
            ]
        },
        {
            "positions": [
                2.282783415549066,
                -1.2354124339091865,
                -1.4529866934141655,
                -1.4427821461539612,
                -1.4355268241400274,
                0.010161273915295976
            ]
        },
        {
            "positions": [
                2.1785786369135876,
                -1.2331806430945265,
                -1.3363287233384207,
                -1.416339944879153,
                -1.4016718029013642,
                -0.09780335090716202
            ]
        },
        {
            "positions": [
                2.0743738582781095,
                -1.2309488522798662,
                -1.2196707532626758,
                -1.3898977436043447,
                -1.3678167816627012,
                -0.20576797572961986
            ]
        },
        {
            "positions": [
                1.9701690796426314,
                -1.228717061465206,
                -1.103012783186931,
                -1.3634555423295365,
                -1.333961760424038,
                -0.3137326005520778
            ]
        },
        {
            "positions": [
                1.8659643010071534,
                -1.2264852706505458,
                -0.9863548131111861,
                -1.3370133410547282,
                -1.3001067391853747,
                -0.42169722537453563
            ]
        },
        {
            "positions": [
                1.761759522371675,
                -1.2242534798358855,
                -0.8696968430354413,
                -1.31057113977992,
                -1.2662517179467114,
                -0.5296618501969936
            ]
        },
        {
            "positions": [
                1.6575547437361968,
                -1.2220216890212254,
                -0.7530388729596964,
                -1.2841289385051118,
                -1.2323966967080484,
                -0.6376264750194516
            ]
        },
        {
            "positions": [
                1.5533499651007188,
                -1.2197898982065651,
                -0.6363809028839515,
                -1.2576867372303036,
                -1.1985416754693852,
                -0.7455910998419093
            ]
        },
        {
            "positions": [
                1.4491451864652405,
                -1.217558107391905,
                -0.5197229328082067,
                -1.2312445359554953,
                -1.164686654230722,
                -0.8535557246643672
            ]
        },
        {
            "positions": [
                1.3449404078297624,
                -1.2153263165772448,
                -0.40306496273246184,
                -1.2048023346806873,
                -1.130831632992059,
                -0.961520349486825
            ]
        },
        {
            "positions": [
                1.240735629194284,
                -1.2130945257625845,
                -0.286406992656717,
                -1.1783601334058789,
                -1.0969766117533957,
                -1.0694849743092831
            ]
        },
        {
            "positions": [
                1.1365308505588059,
                -1.2108627349479244,
                -0.16974902258097213,
                -1.1519179321310706,
                -1.0631215905147324,
                -1.1774495991317409
            ]
        },
        {
            "positions": [
                1.0323260719233278,
                -1.208630944133264,
                -0.053091052505227276,
                -1.1254757308562626,
                -1.0292665692760692,
                -1.2854142239541988
            ]
        },
        {
            "positions": [
                0.9281212932878495,
                -1.2063991533186038,
                0.06356691757051758,
                -1.0990335295814542,
                -0.9954115480374061,
                -1.393378848776657
            ]
        },
        {
            "positions": [
                0.8239165146523715,
                -1.2041673625039437,
                0.18022488764626243,
                -1.0725913283066462,
                -0.9615565267987429,
                -1.5013434735991147
            ]
        },
        {
            "positions": [
                0.7197117360168932,
                -1.2019355716892834,
                0.29688285772200707,
                -1.046149127031838,
                -0.9277015055600798,
                -1.6093080984215726
            ]
        },
        {
            "positions": [
                0.6155069573814149,
                -1.1997037808746231,
                0.41354082779775214,
                -1.0197069257570295,
                -0.8938464843214166,
                -1.7172727232440308
            ]
        },
        {
            "positions": [
                0.5113021787459369,
                -1.197471990059963,
                0.5301987978734972,
                -0.9932647244822215,
                -0.8599914630827533,
                -1.8252373480664885
            ]
        },
        {
            "positions": [
                0.4070974001104588,
                -1.1952401992453028,
                0.6468567679492419,
                -0.9668225232074132,
                -0.8261364418440902,
                -1.9332019728889462
            ]
        },
        {
            "positions": [
                0.3028926214749803,
                -1.1930084084306427,
                0.7635147380249869,
                -0.940380321932605,
                -0.792281420605427,
                -2.0411665977114044
            ]
        },
        {
            "positions": [
                0.19868784283950225,
                -1.1907766176159824,
                0.8801727081007316,
                -0.9139381206577968,
                -0.7584263993667638,
                -2.149131222533862
            ]
        },
        {
            "positions": [
                0.14044771369307463,
                -1.1777225123823736,
                0.9738048700999951,
                -0.8986821927627061,
                -0.7027897960841727,
                -2.2307610921182133
            ]
        },
        {
            "positions": [
                0.082207584546647,
                -1.164668407148765,
                1.0674370320992586,
                -0.8834262648676154,
                -0.6471531928015816,
                -2.3123909617025644
            ]
        },
        {
            "positions": [
                0.023967455400219384,
                -1.1516143019151561,
                1.161069194098522,
                -0.8681703369725247,
                -0.5915165895189906,
                -2.394020831286915
            ]
        },
        {
            "positions": [
                -0.03427267374620824,
                -1.1385601966815475,
                1.2547013560977855,
                -0.852914409077434,
                -0.5358799862363994,
                -2.4756507008712663
            ]
        },
        {
            "positions": [
                -0.09251280289263585,
                -1.1255060914479387,
                1.348333518097049,
                -0.8376584811823433,
                -0.4802433829538083,
                -2.5572805704556174
            ]
        },
        {
            "positions": [
                -0.056835904737940764,
                -1.1279352266130473,
                1.4522936858520485,
                -0.8295091631539266,
                -0.37942786092639647,
                -2.663386873353376
            ]
        },
        {
            "positions": [
                -0.021159006583245682,
                -1.130364361778156,
                1.556253853607048,
                -0.82135984512551,
                -0.2786123388989847,
                -2.769493176251135
            ]
        },
        {
            "positions": [
                0.014517891571449407,
                -1.1327934969432647,
                1.6602140213620475,
                -0.8132105270970933,
                -0.17779681687157284,
                -2.8755994791488932
            ]
        },
        {
            "positions": [
                0.05019478972614448,
                -1.1352226321083732,
                1.7641741891170468,
                -0.8050612090686765,
                -0.07698129484416105,
                -2.9817057820466517
            ]
        },
        {
            "positions": [
                0.08587168788083958,
                -1.1376517672734818,
                1.8681343568720465,
                -0.7969118910402598,
                0.02383422718325079,
                -3.0878120849444106
            ]
        },
        {
            "positions": [
                0.12154858603553464,
                -1.1400809024385905,
                1.9720945246270458,
                -0.7887625730118432,
                0.12464974921066259,
                -3.193918387842169
            ]
        }
    ]
}{
    "goal": {
        "global_pose": {
            "orientation": {
                "w": 0.7047431468963623,
                "x": -0.7094548344612122,
                "y": 0.0024358443915843964,
                "z": -0.0022348060738295317
            },
            "position": {
                "x": 0.6094750761985779,
                "y": 0.3671506643295288,
                "z": 0.19426114857196808
            }
        },
        "name": "move_to_magneteinheit_A"
    },
    "id": "LazyPRMstar_move_to_magneteinheit_A_20",
    "joint_names": [
        "shoulder_pan_joint",
        "shoulder_lift_joint",
        "elbow_joint",
        "wrist_1_joint",
        "wrist_2_joint",
        "wrist_3_joint"
    ],
    "metrics": {
        "cart_traj_len": 1.2415246439972307,
        "distance_elbow_joint": 0.29418750081946854,
        "distance_shoulder_lift_joint": 0.7479618756210118,
        "distance_shoulder_pan_joint": 1.2427129465341467,
        "distance_wrist_1_joint": 0.7560929960833868,
        "distance_wrist_2_joint": 1.432253544919158,
        "distance_wrist_3_joint": 4.260373957166059,
        "smoothness": 0.027317018972596988,
        "time": 5.030515676,
        "traj_len": 2.9552635789626667,
        "weighted_distance": 4.409385135875284
    },
    "planner": "LazyPRMstar",
    "start": {
        "state": {
            "elbow_joint": 1.919643534880228,
            "shoulder_lift_joint": -1.8972525353963687,
            "shoulder_pan_joint": -1.1188672234189438,
            "wrist_1_joint": -1.5931878212786155,
            "wrist_2_joint": 1.5706036197970081,
            "wrist_3_joint": 1.118896926603594
        }
    },
    "waypoints": [
        {
            "positions": [
                -1.1188672234189438,
                -1.8972525353963687,
                1.919643534880228,
                -1.5931878212786155,
                1.5706036197970081,
                1.118896926603594
            ]
        },
        {
            "positions": [
                -1.0694123804251732,
                -1.86763265344801,
                1.9137329603627289,
                -1.5537095948286699,
                1.51677862391243,
                0.9093629215630792
            ]
        },
        {
            "positions": [
                -1.0199575374314027,
                -1.8380127714996515,
                1.9078223858452297,
                -1.5142313683787243,
                1.4629536280278517,
                0.6998289165225643
            ]
        },
        {
            "positions": [
                -0.970502694437632,
                -1.8083928895512926,
                1.9019118113277307,
                -1.4747531419287787,
                1.4091286321432737,
                0.4902949114820494
            ]
        },
        {
            "positions": [
                -0.9210478514438615,
                -1.778773007602934,
                1.8960012368102315,
                -1.435274915478833,
                1.3553036362586954,
                0.2807609064415346
            ]
        },
        {
            "positions": [
                -0.8715930084500908,
                -1.7491531256545754,
                1.8900906622927323,
                -1.3957966890288873,
                1.3014786403741172,
                0.07122690140101984
            ]
        },
        {
            "positions": [
                -0.8221381654563202,
                -1.7195332437062167,
                1.884180087775233,
                -1.3563184625789417,
                1.247653644489539,
                -0.13830710363949517
            ]
        },
        {
            "positions": [
                -0.7726833224625496,
                -1.6899133617578581,
                1.8782695132577338,
                -1.3168402361289961,
                1.1938286486049607,
                -0.34784110868000995
            ]
        },
        {
            "positions": [
                -0.7232284794687791,
                -1.6602934798094993,
                1.8723589387402348,
                -1.2773620096790506,
                1.1400036527203825,
                -0.5573751137205247
            ]
        },
        {
            "positions": [
                -0.6737736364750084,
                -1.6306735978611406,
                1.8664483642227356,
                -1.237883783229105,
                1.0861786568358043,
                -0.7669091187610395
            ]
        },
        {
            "positions": [
                -0.6243187934812378,
                -1.601053715912782,
                1.8605377897052364,
                -1.1984055567791594,
                1.0323536609512263,
                -0.9764431238015543
            ]
        },
        {
            "positions": [
                -0.5748639504874672,
                -1.5714338339644232,
                1.8546272151877372,
                -1.1589273303292136,
                0.9785286650666479,
                -1.1859771288420695
            ]
        },
        {
            "positions": [
                -0.5254091074936966,
                -1.5418139520160645,
                1.8487166406702382,
                -1.1194491038792682,
                0.9247036691820698,
                -1.3955111338825843
            ]
        },
        {
            "positions": [
                -0.47595426449992595,
                -1.512194070067706,
                1.842806066152739,
                -1.0799708774293224,
                0.8708786732974916,
                -1.605045138923099
            ]
        },
        {
            "positions": [
                -0.4264994215061554,
                -1.4825741881193473,
                1.8368954916352398,
                -1.040492650979377,
                0.8170536774129135,
                -1.8145791439636139
            ]
        },
        {
            "positions": [
                -0.3770445785123847,
                -1.4529543061709886,
                1.8309849171177406,
                -1.0010144245294312,
                0.7632286815283352,
                -2.024113149004129
            ]
        },
        {
            "positions": [
                -0.32758973551861426,
                -1.42333442422263,
                1.8250743426002414,
                -0.9615361980794856,
                0.709403685643757,
                -2.233647154044643
            ]
        },
        {
            "positions": [
                -0.2781348925248436,
                -1.3937145422742714,
                1.8191637680827424,
                -0.92205797162954,
                0.6555786897591788,
                -2.4431811590851584
            ]
        },
        {
            "positions": [
                -0.22868004953107302,
                -1.3640946603259128,
                1.8132531935652432,
                -0.8825797451795945,
                0.6017536938746006,
                -2.6527151641256728
            ]
        },
        {
            "positions": [
                -0.1792252065373024,
                -1.334474778377554,
                1.807342619047744,
                -0.8431015187296488,
                0.5479286979900223,
                -2.862249169166188
            ]
        },
        {
            "positions": [
                -0.10345747412417604,
                -1.2881787487270047,
                1.8528142652944901,
                -0.8446031921132537,
                0.44553404221197923,
                -2.932056134515257
            ]
        },
        {
            "positions": [
                -0.02768974171104968,
                -1.2418827190764554,
                1.8982859115412363,
                -0.8461048654968588,
                0.3431393864339361,
                -3.001863099864326
            ]
        },
        {
            "positions": [
                0.04807799070207669,
                -1.1955866894259062,
                1.9437575577879822,
                -0.8476065388804639,
                0.24074473065589297,
                -3.0716700652133953
            ]
        },
        {
            "positions": [
                0.12384572311520302,
                -1.149290659775357,
                1.9892292040347284,
                -0.8491082122640689,
                0.13835007487784992,
                -3.141477030562464
            ]
        }
    ]
}