{
    "goal": {
        "global_pose": {
            "orientation": {
                "w": 0.5084816217422485,
                "x": -0.49083608388900757,
                "y": 0.5182115435600281,
                "z": -0.4816462993621826
            },
            "position": {
                "x": 0.5540239810943604,
                "y": 0.030875300988554955,
                "z": 0.16403168439865112
            }
        },
        "name": "move_to_storage_A"
    },
    "id": "LazyPRMstar_move_to_storage_A_48",
    "joint_names": [
        "shoulder_pan_joint",
        "shoulder_lift_joint",
        "elbow_joint",
        "wrist_1_joint",
        "wrist_2_joint",
        "wrist_3_joint"
    ],
    "metrics": {
        "cart_traj_len": 0.353141896012106,
        "distance_elbow_joint": 0.45130898463136226,
        "distance_shoulder_lift_joint": 0.23558413091363084,
        "distance_shoulder_pan_joint": 0.46205270813667354,
        "distance_wrist_1_joint": 0.2449223301326825,
        "distance_wrist_2_joint": 1.0986708404798242,
        "distance_wrist_3_joint": 0.08899184488041811,
        "smoothness": 2.331468343584128e-15,
        "time": 5.000723387000001,
        "traj_len": 1.6067142991753671,
        "weighted_distance": 2.025612919475963
    },
    "planner": "LazyPRMstar",
    "start": {
        "state": {
            "elbow_joint": 1.9715477243005601,
            "shoulder_lift_joint": -1.1394853015351272,
            "shoulder_pan_joint": 0.12281154014795169,
            "wrist_1_joint": -0.7804696478968182,
            "wrist_2_joint": 0.12958648046900423,
            "wrist_3_joint": -3.192491284697111
        }
    },
    "waypoints": [
        {
            "positions": [
                0.12281154014795169,
                -1.1394853015351272,
                1.9715477243005601,
                -0.7804696478968182,
                0.12958648046900423,
                -3.192491284697111
            ]
        },
        {
            "positions": [
                0.05680401041414118,
                -1.1731401773799315,
                2.036020436390755,
                -0.8154585522014871,
                0.28653945768040767,
                -3.1797781639999085
            ]
        },
        {
            "positions": [
                -0.009203519319669326,
                -1.206795053224736,
                2.1004931484809495,
                -0.850447456506156,
                0.4434924348918111,
                -3.167065043302706
            ]
        },
        {
            "positions": [
                -0.07521104905347982,
                -1.2404499290695403,
                2.164965860571144,
                -0.8854363608108249,
                0.6004454121032146,
                -3.1543519226055032
            ]
        },
        {
            "positions": [
                -0.14121857878729033,
                -1.2741048049143449,
                2.2294385726613384,
                -0.9204252651154938,
                0.757398389314618,
                -3.141638801908301
            ]
        },
        {
            "positions": [
                -0.20722610852110085,
                -1.3077596807591492,
                2.293911284751533,
                -0.9554141694201628,
                0.9143513665260216,
                -3.1289256812110984
            ]
        },
        {
            "positions": [
                -0.2732336382549113,
                -1.3414145566039535,
                2.3583839968417277,
                -0.9904030737248317,
                1.0713043437374248,
                -3.1162125605138957
            ]
        },
        {
            "positions": [
                -0.33924116798872184,
                -1.375069432448758,
                2.4228567089319224,
                -1.0253919780295007,
                1.2282573209488283,
                -3.103499439816693
            ]
        }
    ]
}