{
    "goal": {
        "global_pose": {
            "orientation": {
                "w": 0.7047431468963623,
                "x": -0.7094548344612122,
                "y": 0.0024358443915843964,
                "z": -0.0022348060738295317
            },
            "position": {
                "x": 0.6094750761985779,
                "y": 0.3671506643295288,
                "z": 0.19426114857196808
            }
        },
        "name": "move_to_magneteinheit_A"
    },
    "id": "LazyPRM_move_to_magneteinheit_A_121",
    "joint_names": [
        "shoulder_pan_joint",
        "shoulder_lift_joint",
        "elbow_joint",
        "wrist_1_joint",
        "wrist_2_joint",
        "wrist_3_joint"
    ],
    "metrics": {
        "cart_traj_len": 3.1250525006687733,
        "distance_elbow_joint": 3.9257999941666823,
        "distance_shoulder_lift_joint": 0.4619398086461579,
        "distance_shoulder_pan_joint": 2.7352804417788588,
        "distance_wrist_1_joint": 3.7103166091615183,
        "distance_wrist_2_joint": 1.4346411057761292,
        "distance_wrist_3_joint": 0.47978721211690634,
        "smoothness": 0.02372176591158502,
        "time": 0.123948872,
        "traj_len": 3.570401261993706,
        "weighted_distance": 4.341923227190655
    },
    "planner": "LazyPRM",
    "start": {
        "state": {
            "elbow_joint": -1.919618573717145,
            "shoulder_lift_joint": -1.2443395971678275,
            "shoulder_pan_joint": 2.6996025300909787,
            "wrist_1_joint": -1.548550951253194,
            "wrist_2_joint": -1.5709469090946802,
            "wrist_3_joint": 0.4420197732051276
        }
    },
    "waypoints": [
        {
            "positions": [
                2.6996025300909787,
                -1.2443395971678275,
                -1.919618573717145,
                -1.548550951253194,
                -1.5709469090946802,
                0.4420197732051276
            ]
        },
        {
            "positions": [
                2.6059341044786644,
                -1.2378092229221986,
                -1.8124136322236566,
                -1.4195926588858971,
                -1.533080120740442,
                0.4295971996907362
            ]
        },
        {
            "positions": [
                2.5122656788663504,
                -1.2312788486765698,
                -1.7052086907301682,
                -1.2906343665186002,
                -1.495213332386204,
                0.41717462617634476
            ]
        },
        {
            "positions": [
                2.418597253254036,
                -1.224748474430941,
                -1.5980037492366799,
                -1.1616760741513033,
                -1.4573465440319657,
                0.40475205266195335
            ]
        },
        {
            "positions": [
                2.324928827641722,
                -1.218218100185312,
                -1.4907988077431913,
                -1.0327177817840063,
                -1.4194797556777277,
                0.39232947914756194
            ]
        },
        {
            "positions": [
                2.231260402029408,
                -1.211687725939683,
                -1.383593866249703,
                -0.9037594894167095,
                -1.3816129673234896,
                0.37990690563317053
            ]
        },
        {
            "positions": [
                2.1375919764170934,
                -1.2051573516940541,
                -1.2763889247562146,
                -0.7748011970494125,
                -1.3437461789692515,
                0.3674843321187791
            ]
        },
        {
            "positions": [
                2.043923550804779,
                -1.1986269774484253,
                -1.1691839832627262,
                -0.6458429046821156,
                -1.3058793906150132,
                0.3550617586043877
            ]
        },
        {
            "positions": [
                1.9502551251924651,
                -1.1920966032027964,
                -1.0619790417692379,
                -0.5168846123148187,
                -1.2680126022607752,
                0.34263918508999636
            ]
        },
        {
            "positions": [
                1.8565866995801508,
                -1.1855662289571676,
                -0.9547741002757494,
                -0.3879263199475216,
                -1.230145813906537,
                0.3302166115756049
            ]
        },
        {
            "positions": [
                1.7629182739678366,
                -1.1790358547115387,
                -0.8475691587822609,
                -0.25896802758022486,
                -1.192279025552299,
                0.3177940380612135
            ]
        },
        {
            "positions": [
                1.6692498483555225,
                -1.1725054804659099,
                -0.7403642172887728,
                -0.1300097352129279,
                -1.154412237198061,
                0.30537146454682207
            ]
        },
        {
            "positions": [
                1.5755814227432083,
                -1.165975106220281,
                -0.6331592757952844,
                -0.0010514428456309677,
                -1.116545448843823,
                0.2929488910324307
            ]
        },
        {
            "positions": [
                1.481912997130894,
                -1.1594447319746521,
                -0.5259543343017958,
                0.12790684952166598,
                -1.0786786604895846,
                0.28052631751803925
            ]
        },
        {
            "positions": [
                1.3882445715185798,
                -1.1529143577290233,
                -0.4187493928083075,
                0.2568651418889629,
                -1.0408118721353465,
                0.2681037440036479
            ]
        },
        {
            "positions": [
                1.2945761459062657,
                -1.1463839834833942,
                -0.3115444513148191,
                0.38582343425625987,
                -1.0029450837811085,
                0.2556811704892564
            ]
        },
        {
            "positions": [
                1.2009077202939515,
                -1.1398536092377654,
                -0.20433950982133076,
                0.5147817266235566,
                -0.9650782954268703,
                0.24325859697486507
            ]
        },
        {
            "positions": [
                1.1072392946816374,
                -1.1333232349921365,
                -0.0971345683278424,
                0.6437400189908535,
                -0.9272115070726322,
                0.23083602346047366
            ]
        },
        {
            "positions": [
                1.0135708690693228,
                -1.1267928607465076,
                0.010070373165646185,
                0.7726983113581509,
                -0.889344718718394,
                0.21841344994608222
            ]
        },
        {
            "positions": [
                0.9199024434570087,
                -1.1202624865008788,
                0.11727531465913477,
                0.9016566037254479,
                -0.851477930364156,
                0.2059908764316908
            ]
        },
        {
            "positions": [
                0.8262340178446945,
                -1.11373211225525,
                0.22448025615262313,
                1.0306148960927444,
                -0.8136111420099178,
                0.1935683029172994
            ]
        },
        {
            "positions": [
                0.7325655922323804,
                -1.107201738009621,
                0.33168519764611104,
                1.1595731884600413,
                -0.7757443536556797,
                0.18114572940290802
            ]
        },
        {
            "positions": [
                0.6388971666200662,
                -1.1006713637639922,
                0.4388901391395994,
                1.2885314808273383,
                -0.7378775653014417,
                0.1687231558885166
            ]
        },
        {
            "positions": [
                0.5452287410077519,
                -1.0941409895183631,
                0.5460950806330878,
                1.4174897731946352,
                -0.7000107769472035,
                0.1563005823741252
            ]
        },
        {
            "positions": [
                0.45156031539543795,
                -1.0876106152727343,
                0.6533000221265761,
                1.5464480655619322,
                -0.6621439885929654,
                0.14387800885973379
            ]
        },
        {
            "positions": [
                0.3578918897831236,
                -1.0810802410271054,
                0.7605049636200649,
                1.675406357929229,
                -0.6242772002387272,
                0.13145543534534238
            ]
        },
        {
            "positions": [
                0.2642234641708092,
                -1.0745498667814766,
                0.8677099051135533,
                1.804364650296526,
                -0.5864104118844892,
                0.11903286183095096
            ]
        },
        {
            "positions": [
                0.1705550385584953,
                -1.0680194925358477,
                0.9749148466070416,
                1.933322942663823,
                -0.548543623530251,
                0.10661028831655955
            ]
        },
        {
            "positions": [
                0.07688661294618082,
                -1.0614891182902189,
                1.0821197881005298,
                2.06228123503112,
                -0.5106768351760129,
                0.09418771480216814
            ]
        },
        {
            "positions": [
                0.06874808847716926,
                -1.016176896268711,
                1.3090011515377442,
                2.0608728960356624,
                -0.4183098307962065,
                0.08042493304633459
            ]
        },
        {
            "positions": [
                0.060609564008157715,
                -0.9708646742472034,
                1.5358825149749586,
                2.0594645570402044,
                -0.32594282641640004,
                0.06666215129050104
            ]
        },
        {
            "positions": [
                0.05247103953914616,
                -0.9255524522256956,
                1.762763878412173,
                2.058056218044747,
                -0.2335758220365936,
                0.05289936953466749
            ]
        },
        {
            "positions": [
                0.04433251507013461,
                -0.8802402302041878,
                1.9896452418493875,
                2.0566478790492893,
                -0.14120881765678717,
                0.03913658777883394
            ]
        },
        {
            "positions": [
                0.12434294182814941,
                -0.7823997885216696,
                2.006181420449538,
                1.9627968121539159,
                -0.13630580331855072,
                -0.0377674389117787
            ]
        }
    ]
}{
    "goal": {
        "global_pose": {
            "orientation": {
                "w": 0.7047431468963623,
                "x": -0.7094548344612122,
                "y": 0.0024358443915843964,
                "z": -0.0022348060738295317
            },
            "position": {
                "x": 0.6094750761985779,
                "y": 0.3671506643295288,
                "z": 0.19426114857196808
            }
        },
        "name": "move_to_magneteinheit_A"
    },
    "id": "LazyPRM_move_to_magneteinheit_A_121",
    "joint_names": [
        "shoulder_pan_joint",
        "shoulder_lift_joint",
        "elbow_joint",
        "wrist_1_joint",
        "wrist_2_joint",
        "wrist_3_joint"
    ],
    "metrics": {
        "cart_traj_len": 1.160996723751738,
        "distance_elbow_joint": 0.3758545793237089,
        "distance_shoulder_lift_joint": 0.7502203400317486,
        "distance_shoulder_pan_joint": 1.2419639883630271,
        "distance_wrist_1_joint": 0.7462591987503665,
        "distance_wrist_2_joint": 1.441697635390868,
        "distance_wrist_3_joint": 4.249679494879983,
        "smoothness": 0.04283910839600152,
        "time": 0.135280022,
        "traj_len": 2.9674358016206024,
        "weighted_distance": 4.415086755732089
    },
    "planner": "LazyPRM",
    "start": {
        "state": {
            "elbow_joint": 1.919643534880228,
            "shoulder_lift_joint": -1.8972525353963687,
            "shoulder_pan_joint": -1.1188672234189438,
            "wrist_1_joint": -1.5931878212786155,
            "wrist_2_joint": 1.5706036197970081,
            "wrist_3_joint": 1.118896926603594
        }
    },
    "waypoints": [
        {
            "positions": [
                -1.1188672234189438,
                -1.8972525353963687,
                1.919643534880228,
                -1.5931878212786155,
                1.5706036197970081,
                1.118896926603594
            ]
        },
        {
            "positions": [
                -1.060270736877116,
                -1.8847964483384925,
                1.9312801624349252,
                -1.573371547310241,
                1.5017078830235957,
                0.8984450766523817
            ]
        },
        {
            "positions": [
                -1.0016742503352882,
                -1.8723403612806164,
                1.942916789989622,
                -1.5535552733418663,
                1.432812146250183,
                0.6779932267011695
            ]
        },
        {
            "positions": [
                -0.9430777637934603,
                -1.8598842742227402,
                1.954553417544319,
                -1.5337389993734918,
                1.3639164094767706,
                0.4575413767499572
            ]
        },
        {
            "positions": [
                -0.8844812772516324,
                -1.847428187164864,
                1.9661900450990162,
                -1.5139227254051173,
                1.295020672703358,
                0.23708952679874495
            ]
        },
        {
            "positions": [
                -0.8258847907098046,
                -1.8349721001069876,
                1.977826672653713,
                -1.4941064514367426,
                1.2261249359299455,
                0.0166376768475327
            ]
        },
        {
            "positions": [
                -0.7672883041679768,
                -1.8225160130491116,
                1.9894633002084101,
                -1.474290177468368,
                1.157229199156533,
                -0.20381417310367955
            ]
        },
        {
            "positions": [
                -0.708691817626149,
                -1.8100599259912353,
                2.001099927763107,
                -1.4544739034999936,
                1.0883334623831207,
                -0.4242660230548918
            ]
        },
        {
            "positions": [
                -0.650095331084321,
                -1.797603838933359,
                2.012736555317804,
                -1.434657629531619,
                1.019437725609708,
                -0.6447178730061041
            ]
        },
        {
            "positions": [
                -0.5914988445424931,
                -1.7851477518754828,
                2.0243731828725013,
                -1.4148413555632444,
                0.9505419888362956,
                -0.8651697229573163
            ]
        },
        {
            "positions": [
                -0.5329023580006653,
                -1.7726916648176068,
                2.036009810427198,
                -1.3950250815948697,
                0.881646252062883,
                -1.0856215729085286
            ]
        },
        {
            "positions": [
                -0.4743058714588374,
                -1.7602355777597305,
                2.047646437981895,
                -1.3752088076264952,
                0.8127505152894705,
                -1.3060734228597408
            ]
        },
        {
            "positions": [
                -0.4157093849170096,
                -1.7477794907018542,
                2.0592830655365923,
                -1.3553925336581207,
                0.7438547785160581,
                -1.526525272810953
            ]
        },
        {
            "positions": [
                -0.3571128983751817,
                -1.735323403643978,
                2.070919693091289,
                -1.335576259689746,
                0.6749590417426454,
                -1.7469771227621653
            ]
        },
        {
            "positions": [
                -0.298516411833354,
                -1.722867316586102,
                2.082556320645986,
                -1.3157599857213715,
                0.606063304969233,
                -1.9674289727133776
            ]
        },
        {
            "positions": [
                -0.23991992529152606,
                -1.7104112295282257,
                2.0941929482006834,
                -1.2959437117529968,
                0.5371675681958203,
                -2.1878808226645896
            ]
        },
        {
            "positions": [
                -0.18132343874969825,
                -1.6979551424703494,
                2.10582957575538,
                -1.2761274377846223,
                0.4682718314224079,
                -2.408332672615802
            ]
        },
        {
            "positions": [
                -0.12272695220787033,
                -1.6854990554124734,
                2.117466203310077,
                -1.2563111638162479,
                0.3993760946489955,
                -2.628784522567014
            ]
        },
        {
            "positions": [
                -0.06413046566604241,
                -1.673042968354597,
                2.1291028308647744,
                -1.2364948898478731,
                0.33048035787558305,
                -2.8492363725182264
            ]
        },
        {
            "positions": [
                -0.005533979124214536,
                -1.6605868812967208,
                2.140739458419471,
                -1.2166786158794987,
                0.26158462110217034,
                -3.069688222469439
            ]
        },
        {
            "positions": [
                0.026623706892860047,
                -1.5321982098136957,
                2.1020497944733547,
                -1.1242411175416862,
                0.22841496192816285,
                -3.084961808921177
            ]
        },
        {
            "positions": [
                0.05878139290993463,
                -1.4038095383306706,
                2.063360130527238,
                -1.0318036192038738,
                0.19524530275415533,
                -3.100235395372915
            ]
        },
        {
            "positions": [
                0.09093907892700921,
                -1.2754208668476452,
                2.0246704665811217,
                -0.9393661208660614,
                0.1620756435801478,
                -3.115508981824653
            ]
        },
        {
            "positions": [
                0.12309676494408378,
                -1.14703219536462,
                1.9859808026350054,
                -0.846928622528249,
                0.12890598440614032,
                -3.130782568276391
            ]
        }
    ]
}