{
    "goal": {
        "global_pose": {
            "orientation": {
                "w": 0.5084816217422485,
                "x": -0.49083608388900757,
                "y": 0.5182115435600281,
                "z": -0.4816462993621826
            },
            "position": {
                "x": 0.5540239810943604,
                "y": 0.030875300988554955,
                "z": 0.16403168439865112
            }
        },
        "name": "move_to_storage_A"
    },
    "id": "LazyPRM_move_to_storage_A_117",
    "joint_names": [
        "shoulder_pan_joint",
        "shoulder_lift_joint",
        "elbow_joint",
        "wrist_1_joint",
        "wrist_2_joint",
        "wrist_3_joint"
    ],
    "metrics": {
        "cart_traj_len": 0.35255441351376116,
        "distance_elbow_joint": 0.4505416606532071,
        "distance_shoulder_lift_joint": 0.23592100307477404,
        "distance_shoulder_pan_joint": 0.4625011670961454,
        "distance_wrist_1_joint": 0.2439881091004289,
        "distance_wrist_2_joint": 1.092105477039473,
        "distance_wrist_3_joint": 0.10044999047736036,
        "smoothness": 2.2204460668324854e-16,
        "time": 0.022123242,
        "traj_len": 1.6079513075467766,
        "weighted_distance": 2.030394290411597
    },
    "planner": "LazyPRM",
    "start": {
        "state": {
            "elbow_joint": 1.9715477243005601,
            "shoulder_lift_joint": -1.1394853015351272,
            "shoulder_pan_joint": 0.12281154014795169,
            "wrist_1_joint": -0.7804696478968182,
            "wrist_2_joint": 0.12958648046900423,
            "wrist_3_joint": -3.192491284697111
        }
    },
    "waypoints": [
        {
            "positions": [
                0.12281154014795169,
                -1.1394853015351272,
                1.9715477243005601,
                -0.7804696478968182,
                0.12958648046900423,
                -3.192491284697111
            ]
        },
        {
            "positions": [
                0.05673994484850235,
                -1.1731883019743805,
                2.03591081867959,
                -0.8153250920540223,
                0.2856015486175003,
                -3.1781412860574885
            ]
        },
        {
            "positions": [
                -0.009331650450946985,
                -1.206891302413634,
                2.1002739130586194,
                -0.8501805362112265,
                0.44161661676599645,
                -3.1637912874178653
            ]
        },
        {
            "positions": [
                -0.07540324575039632,
                -1.2405943028528874,
                2.164637007437649,
                -0.8850359803684306,
                0.5976316849144926,
                -3.1494412887782426
            ]
        },
        {
            "positions": [
                -0.14147484104984565,
                -1.274297303292141,
                2.2290001018166783,
                -0.9198914245256347,
                0.7536467530629887,
                -3.1350912901386194
            ]
        },
        {
            "positions": [
                -0.20754643634929504,
                -1.3080003037313943,
                2.293363196195708,
                -0.9547468686828389,
                0.9096618212114849,
                -3.1207412914989967
            ]
        },
        {
            "positions": [
                -0.2736180316487443,
                -1.3417033041706476,
                2.3577262905747376,
                -0.9896023128400429,
                1.065676889359981,
                -3.1063912928593735
            ]
        },
        {
            "positions": [
                -0.3396896269481937,
                -1.3754063046099012,
                2.4220893849537672,
                -1.024457756997247,
                1.2216919575084773,
                -3.092041294219751
            ]
        }
    ]
}