{
    "goal": {
        "global_pose": {
            "orientation": {
                "w": 0.7047431468963623,
                "x": -0.7094548344612122,
                "y": 0.0024358443915843964,
                "z": -0.0022348060738295317
            },
            "position": {
                "x": 0.6094750761985779,
                "y": 0.3671506643295288,
                "z": 0.19426114857196808
            }
        },
        "name": "move_to_magneteinheit_A"
    },
    "id": "LazyPRMstar_move_to_magneteinheit_A_42",
    "joint_names": [
        "shoulder_pan_joint",
        "shoulder_lift_joint",
        "elbow_joint",
        "wrist_1_joint",
        "wrist_2_joint",
        "wrist_3_joint"
    ],
    "metrics": {
        "cart_traj_len": 3.5635994897594965,
        "distance_elbow_joint": 3.910243046129443,
        "distance_shoulder_lift_joint": 0.467300122980422,
        "distance_shoulder_pan_joint": 3.2051073555345972,
        "distance_wrist_1_joint": 3.464952541491945,
        "distance_wrist_2_joint": 1.6800742777754372,
        "distance_wrist_3_joint": 0.6375314011584177,
        "smoothness": 0.13320374395730503,
        "time": 5.014127457,
        "traj_len": 3.655845831687964,
        "weighted_distance": 4.448066812296604
    },
    "planner": "LazyPRMstar",
    "start": {
        "state": {
            "elbow_joint": -1.919618573717145,
            "shoulder_lift_joint": -1.2443395971678275,
            "shoulder_pan_joint": 2.6996025300909787,
            "wrist_1_joint": -1.548550951253194,
            "wrist_2_joint": -1.5709469090946802,
            "wrist_3_joint": 0.4420197732051276
        }
    },
    "waypoints": [
        {
            "positions": [
                2.6996025300909787,
                -1.2443395971678275,
                -1.919618573717145,
                -1.548550951253194,
                -1.5709469090946802,
                0.4420197732051276
            ]
        },
        {
            "positions": [
                2.549997522986215,
                -1.2391550287454183,
                -1.7379841580255266,
                -1.5275978113169246,
                -1.5789556147033876,
                0.4124625574974785
            ]
        },
        {
            "positions": [
                2.4003925158814514,
                -1.2339704603230093,
                -1.5563497423339085,
                -1.5066446713806554,
                -1.586964320312095,
                0.3829053417898295
            ]
        },
        {
            "positions": [
                2.2507875087766878,
                -1.2287858919006,
                -1.3747153266422902,
                -1.485691531444386,
                -1.5949730259208024,
                0.3533481260821804
            ]
        },
        {
            "positions": [
                2.101182501671924,
                -1.2236013234781908,
                -1.193080910950672,
                -1.4647383915081165,
                -1.6029817315295096,
                0.32379091037453134
            ]
        },
        {
            "positions": [
                1.9515774945671607,
                -1.2184167550557818,
                -1.0114464952590538,
                -1.4437852515718472,
                -1.610990437138217,
                0.2942336946668823
            ]
        },
        {
            "positions": [
                1.8019724874623968,
                -1.2132321866333726,
                -0.8298120795674355,
                -1.4228321116355778,
                -1.6189991427469246,
                0.26467647895923324
            ]
        },
        {
            "positions": [
                1.6523674803576334,
                -1.2080476182109634,
                -0.6481776638758174,
                -1.4018789716993083,
                -1.6270078483556318,
                0.2351192632515842
            ]
        },
        {
            "positions": [
                1.5027624732528697,
                -1.2028630497885544,
                -0.4665432481841991,
                -1.380925831763039,
                -1.6350165539643393,
                0.20556204754393512
            ]
        },
        {
            "positions": [
                1.353157466148106,
                -1.1976784813661452,
                -0.28490883249258103,
                -1.3599726918267696,
                -1.6430252595730466,
                0.17600483183628607
            ]
        },
        {
            "positions": [
                1.2035524590433426,
                -1.192493912943736,
                -0.10327441680096272,
                -1.3390195518905001,
                -1.651033965181754,
                0.14644761612863705
            ]
        },
        {
            "positions": [
                1.053947451938579,
                -1.187309344521327,
                0.07835999889065537,
                -1.318066411954231,
                -1.6590426707904615,
                0.11689040042098797
            ]
        },
        {
            "positions": [
                0.9043424448338151,
                -1.1821247760989178,
                0.2599944145822739,
                -1.2971132720179614,
                -1.6670513763991688,
                0.0873331847133389
            ]
        },
        {
            "positions": [
                0.7547374377290514,
                -1.1769402076765085,
                0.4416288302738922,
                -1.276160132081692,
                -1.6750600820078763,
                0.05777596900568982
            ]
        },
        {
            "positions": [
                0.605132430624288,
                -1.1717556392540995,
                0.6232632459655101,
                -1.2552069921454228,
                -1.6830687876165835,
                0.0282187532980408
            ]
        },
        {
            "positions": [
                0.45552742351952435,
                -1.1665710708316903,
                0.8048976616571285,
                -1.2342538522091533,
                -1.691077493225291,
                -0.0013384624096082903
            ]
        },
        {
            "positions": [
                0.39675278663075003,
                -1.1484251798259595,
                0.9096065133870929,
                -1.0937427404761224,
                -1.6269915803964328,
                -0.010016197234513758
            ]
        },
        {
            "positions": [
                0.33797814974197576,
                -1.1302792888202289,
                1.014315365117057,
                -0.9532316287430918,
                -1.5629056675675743,
                -0.018693932059419226
            ]
        },
        {
            "positions": [
                0.27920351285320144,
                -1.112133397814498,
                1.1190242168470215,
                -0.812720517010061,
                -1.498819754738716,
                -0.027371666884324693
            ]
        },
        {
            "positions": [
                0.22042887596442715,
                -1.0939875068087672,
                1.2237330685769858,
                -0.6722094052770301,
                -1.4347338419098579,
                -0.03604940170923016
            ]
        },
        {
            "positions": [
                0.16165423907565285,
                -1.0758416158030364,
                1.32844192030695,
                -0.5316982935439994,
                -1.3706479290809996,
                -0.04472713653413563
            ]
        },
        {
            "positions": [
                0.10287960218687858,
                -1.0576957247973058,
                1.4331507720369143,
                -0.3911871818109687,
                -1.3065620162521414,
                -0.053404871359041095
            ]
        },
        {
            "positions": [
                0.04410496529810426,
                -1.039549833791575,
                1.5378596237668787,
                -0.2506760700779379,
                -1.2424761034232832,
                -0.06208260618394657
            ]
        },
        {
            "positions": [
                -0.014669671590670064,
                -1.0214039427858441,
                1.642568475496843,
                -0.11016495834490692,
                -1.1783901905944247,
                -0.07076034100885203
            ]
        },
        {
            "positions": [
                -0.07344430847944439,
                -1.0032580517801133,
                1.7472773272268074,
                0.030346153388123742,
                -1.1143042777655665,
                -0.07943807583375752
            ]
        },
        {
            "positions": [
                -0.13221894536821865,
                -0.9851121607743827,
                1.8519861789567718,
                0.1708572651211544,
                -1.0502183649367083,
                -0.08811581065866297
            ]
        },
        {
            "positions": [
                -0.19099358225699292,
                -0.9669662697686519,
                1.956695030686736,
                0.3113683768541852,
                -0.9861324521078499,
                -0.09679354548356844
            ]
        },
        {
            "positions": [
                -0.15167967685866468,
                -0.9432254203209961,
                1.9609362109024309,
                0.5119975285272558,
                -0.8792576205419268,
                -0.0844537851748532
            ]
        },
        {
            "positions": [
                -0.11236577146033647,
                -0.9194845708733402,
                1.965177391118126,
                0.7126266802003264,
                -0.7723827889760037,
                -0.07211402486613797
            ]
        },
        {
            "positions": [
                -0.07305186606200824,
                -0.8957437214256845,
                1.9694185713338213,
                0.913255831873397,
                -0.6655079574100806,
                -0.059774264557422734
            ]
        },
        {
            "positions": [
                -0.03373796066368001,
                -0.8720028719780286,
                1.9736597515495162,
                1.1138849835464675,
                -0.5586331258441575,
                -0.047434504248707494
            ]
        },
        {
            "positions": [
                0.0055759447346482305,
                -0.8482620225303729,
                1.9779009317652112,
                1.3145141352195382,
                -0.45175829427823433,
                -0.035094743939992255
            ]
        },
        {
            "positions": [
                0.044889850132976444,
                -0.8245211730827171,
                1.9821421119809064,
                1.5151432868926087,
                -0.3448834627123112,
                -0.022754983631277023
            ]
        },
        {
            "positions": [
                0.08420375553130466,
                -0.8007803236350612,
                1.9863832921966016,
                1.7157724385656794,
                -0.23800863114638804,
                -0.010415223322561784
            ]
        },
        {
            "positions": [
                0.12351766092963289,
                -0.7770394741874055,
                1.9906244724122966,
                1.91640159023875,
                -0.1311337995804649,
                0.0019245369861534483
            ]
        }
    ]
}{
    "goal": {
        "global_pose": {
            "orientation": {
                "w": 0.7047431468963623,
                "x": -0.7094548344612122,
                "y": 0.0024358443915843964,
                "z": -0.0022348060738295317
            },
            "position": {
                "x": 0.6094750761985779,
                "y": 0.3671506643295288,
                "z": 0.19426114857196808
            }
        },
        "name": "move_to_magneteinheit_A"
    },
    "id": "LazyPRMstar_move_to_magneteinheit_A_42",
    "joint_names": [
        "shoulder_pan_joint",
        "shoulder_lift_joint",
        "elbow_joint",
        "wrist_1_joint",
        "wrist_2_joint",
        "wrist_3_joint"
    ],
    "metrics": {
        "cart_traj_len": 1.1909970584377287,
        "distance_elbow_joint": 0.07256924570383294,
        "distance_shoulder_lift_joint": 0.810888534308805,
        "distance_shoulder_pan_joint": 1.240934675383878,
        "distance_wrist_1_joint": 0.8007253840329955,
        "distance_wrist_2_joint": 1.4450633982594903,
        "distance_wrist_3_joint": 4.297739987443581,
        "smoothness": 0.05987415750520498,
        "time": 5.023511797,
        "traj_len": 2.9441333572262964,
        "weighted_distance": 4.416920871185291
    },
    "planner": "LazyPRMstar",
    "start": {
        "state": {
            "elbow_joint": 1.919643534880228,
            "shoulder_lift_joint": -1.8972525353963687,
            "shoulder_pan_joint": -1.1188672234189438,
            "wrist_1_joint": -1.5931878212786155,
            "wrist_2_joint": 1.5706036197970081,
            "wrist_3_joint": 1.118896926603594
        }
    },
    "waypoints": [
        {
            "positions": [
                -1.1188672234189438,
                -1.8972525353963687,
                1.919643534880228,
                -1.5931878212786155,
                1.5706036197970081,
                1.118896926603594
            ]
        },
        {
            "positions": [
                -1.1123157819282454,
                -1.9108659907338552,
                1.9148725758088285,
                -1.5043369978493408,
                1.5517634586028874,
                0.8611129650937903
            ]
        },
        {
            "positions": [
                -1.1057643404375472,
                -1.924479446071342,
                1.9101016167374287,
                -1.415486174420066,
                1.5329232974087668,
                0.6033290035839866
            ]
        },
        {
            "positions": [
                -1.0443727508174232,
                -1.8852963648896504,
                1.9132529831154803,
                -1.3843349875613438,
                1.4625541436152043,
                0.41422040036278784
            ]
        },
        {
            "positions": [
                -0.9829811611972991,
                -1.8461132837079588,
                1.9164043494935321,
                -1.3531838007026213,
                1.3921849898216418,
                0.22511179714158913
            ]
        },
        {
            "positions": [
                -0.921589571577175,
                -1.8069302025262672,
                1.9195557158715837,
                -1.3220326138438991,
                1.3218158360280794,
                0.03600319392039042
            ]
        },
        {
            "positions": [
                -0.8601979819570509,
                -1.7677471213445755,
                1.9227070822496355,
                -1.2908814269851767,
                1.251446682234517,
                -0.1531054093008083
            ]
        },
        {
            "positions": [
                -0.7988063923369269,
                -1.728564040162884,
                1.925858448627687,
                -1.2597302401264545,
                1.1810775284409545,
                -0.342214012522007
            ]
        },
        {
            "positions": [
                -0.7374148027168028,
                -1.6893809589811923,
                1.9290098150057389,
                -1.228579053267732,
                1.110708374647392,
                -0.5313226157432057
            ]
        },
        {
            "positions": [
                -0.6760232130966788,
                -1.6501978777995008,
                1.9321611813837904,
                -1.1974278664090099,
                1.0403392208538298,
                -0.7204312189644043
            ]
        },
        {
            "positions": [
                -0.6146316234765545,
                -1.6110147966178092,
                1.9353125477618423,
                -1.1662766795502875,
                0.9699700670602672,
                -0.9095398221856031
            ]
        },
        {
            "positions": [
                -0.5532400338564305,
                -1.5718317154361174,
                1.9384639141398938,
                -1.1351254926915653,
                0.8996009132667048,
                -1.098648425406802
            ]
        },
        {
            "positions": [
                -0.49184844423630647,
                -1.5326486342544259,
                1.9416152805179454,
                -1.103974305832843,
                0.8292317594731423,
                -1.2877570286280005
            ]
        },
        {
            "positions": [
                -0.4304568546161823,
                -1.4934655530727343,
                1.9447666468959972,
                -1.0728231189741206,
                0.7588626056795799,
                -1.4768656318491997
            ]
        },
        {
            "positions": [
                -0.3690652649960583,
                -1.4542824718910428,
                1.9479180132740488,
                -1.0416719321153984,
                0.6884934518860174,
                -1.665974235070398
            ]
        },
        {
            "positions": [
                -0.30767367537593426,
                -1.4150993907093512,
                1.9510693796521006,
                -1.010520745256676,
                0.618124298092455,
                -1.855082838291597
            ]
        },
        {
            "positions": [
                -0.24628208575581023,
                -1.3759163095276596,
                1.9542207460301522,
                -0.9793695583979538,
                0.5477551442988926,
                -2.0441914415127953
            ]
        },
        {
            "positions": [
                -0.1848904961356861,
                -1.336733228345968,
                1.957372112408204,
                -0.9482183715392314,
                0.47738599050533015,
                -2.233300044733994
            ]
        },
        {
            "positions": [
                -0.12349890651556195,
                -1.2975501471642765,
                1.9605234787862555,
                -0.9170671846805092,
                0.4070168367117677,
                -2.422408647955193
            ]
        },
        {
            "positions": [
                -0.062107316895438025,
                -1.258367065982585,
                1.9636748451643073,
                -0.8859159978217869,
                0.33664768291820524,
                -2.6115172511763918
            ]
        },
        {
            "positions": [
                -0.0007157272753137711,
                -1.2191839848008932,
                1.966826211542359,
                -0.8547648109630646,
                0.2662785291246428,
                -2.8006258543975906
            ]
        },
        {
            "positions": [
                0.06067586234481026,
                -1.1800009036192018,
                1.9699775779204107,
                -0.8236136241043422,
                0.19590937533108033,
                -2.989734457618789
            ]
        },
        {
            "positions": [
                0.12206745196493418,
                -1.14081782243751,
                1.9731289442984623,
                -0.7924624372456199,
                0.12554022153751793,
                -3.178843060839988
            ]
        }
    ]
}