{
    "goal": {
        "global_pose": {
            "orientation": {
                "w": 0.7047431468963623,
                "x": -0.7094548344612122,
                "y": 0.0024358443915843964,
                "z": -0.0022348060738295317
            },
            "position": {
                "x": 0.6094750761985779,
                "y": 0.3671506643295288,
                "z": 0.19426114857196808
            }
        },
        "name": "move_to_magneteinheit_A"
    },
    "id": "LazyPRM_move_to_magneteinheit_A_7",
    "joint_names": [
        "shoulder_pan_joint",
        "shoulder_lift_joint",
        "elbow_joint",
        "wrist_1_joint",
        "wrist_2_joint",
        "wrist_3_joint"
    ],
    "metrics": {
        "cart_traj_len": 5.150818552906941,
        "distance_elbow_joint": 3.8787675567388797,
        "distance_shoulder_lift_joint": 0.37398127769879563,
        "distance_shoulder_pan_joint": 7.642875558899817,
        "distance_wrist_1_joint": 3.410459815130168,
        "distance_wrist_2_joint": 2.666964753943299,
        "distance_wrist_3_joint": 6.3468296098973775,
        "smoothness": 0.3026951435479531,
        "time": 0.11981476399999999,
        "traj_len": 4.931518891001872,
        "weighted_distance": 6.564370675181025
    },
    "planner": "LazyPRM",
    "start": {
        "state": {
            "elbow_joint": -1.919618573717145,
            "shoulder_lift_joint": -1.2443395971678275,
            "shoulder_pan_joint": 2.6996025300909787,
            "wrist_1_joint": -1.548550951253194,
            "wrist_2_joint": -1.5709469090946802,
            "wrist_3_joint": 0.4420197732051276
        }
    },
    "waypoints": [
        {
            "positions": [
                2.6996025300909787,
                -1.2443395971678275,
                -1.919618573717145,
                -1.548550951253194,
                -1.5709469090946802,
                0.4420197732051276
            ]
        },
        {
            "positions": [
                2.553604326772153,
                -1.2480964533258136,
                -1.8606109291277608,
                -1.4879224327485554,
                -1.5084290534818898,
                0.3882807143926665
            ]
        },
        {
            "positions": [
                2.4076061234533266,
                -1.2518533094838,
                -1.8016032845383765,
                -1.4272939142439167,
                -1.4459111978690995,
                0.3345416555802054
            ]
        },
        {
            "positions": [
                2.2616079201345007,
                -1.2556101656417862,
                -1.7425956399489924,
                -1.366665395739278,
                -1.3833933422563094,
                0.2808025967677442
            ]
        },
        {
            "positions": [
                2.1156097168156744,
                -1.2593670217997726,
                -1.6835879953596082,
                -1.3060368772346393,
                -1.320875486643519,
                0.22706353795528314
            ]
        },
        {
            "positions": [
                1.9696115134968486,
                -1.2631238779577587,
                -1.6245803507702241,
                -1.2454083587300007,
                -1.2583576310307287,
                0.17332447914282206
            ]
        },
        {
            "positions": [
                1.8236133101780225,
                -1.266880734115745,
                -1.56557270618084,
                -1.184779840225362,
                -1.1958397754179386,
                0.1195854203303609
            ]
        },
        {
            "positions": [
                1.6776151068591965,
                -1.2706375902737312,
                -1.5065650615914556,
                -1.1241513217207233,
                -1.1333219198051483,
                0.0658463615178998
            ]
        },
        {
            "positions": [
                1.5316169035403704,
                -1.2743944464317176,
                -1.4475574170020715,
                -1.0635228032160846,
                -1.070804064192358,
                0.012107302705438694
            ]
        },
        {
            "positions": [
                1.3856187002215445,
                -1.2781513025897038,
                -1.3885497724126874,
                -1.002894284711446,
                -1.0082862085795679,
                -0.041631756107022355
            ]
        },
        {
            "positions": [
                1.2396204969027185,
                -1.2819081587476902,
                -1.329542127823303,
                -0.9422657662068071,
                -0.9457683529667774,
                -0.09537081491948346
            ]
        },
        {
            "positions": [
                1.0936222935838924,
                -1.2856650149056763,
                -1.270534483233919,
                -0.8816372477021684,
                -0.8832504973539872,
                -0.14910987373194468
            ]
        },
        {
            "positions": [
                0.9476240902650663,
                -1.2894218710636625,
                -1.2115268386445348,
                -0.8210087291975298,
                -0.8207326417411969,
                -0.20284893254440578
            ]
        },
        {
            "positions": [
                0.8016258869462403,
                -1.2931787272216488,
                -1.1525191940551505,
                -0.760380210692891,
                -0.7582147861284065,
                -0.2565879913568669
            ]
        },
        {
            "positions": [
                0.6556276836274142,
                -1.296935583379635,
                -1.0935115494657663,
                -0.6997516921882523,
                -0.6956969305156163,
                -0.310327050169328
            ]
        },
        {
            "positions": [
                0.5096294803085883,
                -1.3006924395376214,
                -1.0345039048763822,
                -0.6391231736836137,
                -0.6331790749028261,
                -0.364066108981789
            ]
        },
        {
            "positions": [
                0.36363127698976205,
                -1.3044492956956075,
                -0.9754962602869981,
                -0.5784946551789749,
                -0.5706612192900358,
                -0.4178051677942502
            ]
        },
        {
            "positions": [
                0.2176330736709362,
                -1.308206151853594,
                -0.916488615697614,
                -0.5178661366743362,
                -0.5081433636772454,
                -0.4715442266067113
            ]
        },
        {
            "positions": [
                0.07163487035211036,
                -1.31196300801158,
                -0.8574809711082299,
                -0.45723761816969755,
                -0.44562550806445533,
                -0.5252832854191722
            ]
        },
        {
            "positions": [
                -0.07436333296671593,
                -1.3157198641695664,
                -0.7984733265188455,
                -0.39660909966505886,
                -0.383107652451665,
                -0.5790223442316333
            ]
        },
        {
            "positions": [
                -0.22036153628554178,
                -1.3194767203275526,
                -0.7394656819294614,
                -0.3359805811604202,
                -0.3205897968388747,
                -0.6327614030440945
            ]
        },
        {
            "positions": [
                -0.3663597396043681,
                -1.323233576485539,
                -0.6804580373400773,
                -0.2753520626557815,
                -0.25807194122608457,
                -0.6865004618565556
            ]
        },
        {
            "positions": [
                -0.5123579429231939,
                -1.3269904326435251,
                -0.6214503927506929,
                -0.2147235441511428,
                -0.19555408561329424,
                -0.7402395206690169
            ]
        },
        {
            "positions": [
                -0.6583561462420202,
                -1.3307472888015113,
                -0.5624427481613088,
                -0.15409502564650412,
                -0.1330362300005039,
                -0.793978579481478
            ]
        },
        {
            "positions": [
                -0.8043543495608461,
                -1.3345041449594977,
                -0.5034351035719247,
                -0.09346650714186544,
                -0.07051837438771358,
                -0.8477176382939391
            ]
        },
        {
            "positions": [
                -0.9503525528796724,
                -1.3382610011174838,
                -0.4444274589825403,
                -0.032837988637226534,
                -0.008000518774923249,
                -0.9014566971064002
            ]
        },
        {
            "positions": [
                -1.0963507561984982,
                -1.3420178572754702,
                -0.3854198143931562,
                0.02779052986741215,
                0.05451733683786708,
                -0.9551957559188613
            ]
        },
        {
            "positions": [
                -1.2423489595173245,
                -1.3457747134334563,
                -0.3264121698037721,
                0.08841904837205083,
                0.11703519245065719,
                -1.0089348147313224
            ]
        },
        {
            "positions": [
                -1.3883471628361503,
                -1.3495315695914427,
                -0.26740452521438773,
                0.14904756687668952,
                0.17955304806344752,
                -1.0626738735437835
            ]
        },
        {
            "positions": [
                -1.5343453661549766,
                -1.3532884257494289,
                -0.2083968806250036,
                0.2096760853813282,
                0.24207090367623785,
                -1.1164129323562446
            ]
        },
        {
            "positions": [
                -1.680343569473802,
                -1.3570452819074152,
                -0.1493892360356197,
                0.27030460388596667,
                0.30458875928902795,
                -1.1701519911687055
            ]
        },
        {
            "positions": [
                -1.8263417727926283,
                -1.3608021380654014,
                -0.09038159144623537,
                0.33093312239060535,
                0.3671066149018183,
                -1.2238910499811668
            ]
        },
        {
            "positions": [
                -1.9723399761114546,
                -1.3645589942233878,
                -0.03137394685685124,
                0.39156164089524426,
                0.4296244705146086,
                -1.277630108793628
            ]
        },
        {
            "positions": [
                -2.11833817943028,
                -1.368315850381374,
                0.02763369773253288,
                0.45219015939988294,
                0.4921423261273987,
                -1.331369167606089
            ]
        },
        {
            "positions": [
                -2.2643363827491063,
                -1.37207270653936,
                0.086641342321917,
                0.5128186779045216,
                0.5546601817401893,
                -1.3851082264185501
            ]
        },
        {
            "positions": [
                -2.4103345860679326,
                -1.3758295626973465,
                0.14564898691130113,
                0.5734471964091603,
                0.6171780373529794,
                -1.4388472852310112
            ]
        },
        {
            "positions": [
                -2.3198724988271864,
                -1.3671691586913008,
                0.21041684391524518,
                0.5274307082853099,
                0.6000766156567064,
                -1.279348622678824
            ]
        },
        {
            "positions": [
                -2.22941041158644,
                -1.3585087546852552,
                0.27518470091918923,
                0.4814142201614594,
                0.5829751939604335,
                -1.119849960126637
            ]
        },
        {
            "positions": [
                -2.1389483243456935,
                -1.3498483506792096,
                0.33995255792313334,
                0.435397732037609,
                0.5658737722641605,
                -0.9603512975744497
            ]
        },
        {
            "positions": [
                -2.0484862371049473,
                -1.341187946673164,
                0.4047204149270774,
                0.38938124391375856,
                0.5487723505678875,
                -0.8008526350222626
            ]
        },
        {
            "positions": [
                -1.958024149864201,
                -1.3325275426671186,
                0.4694882719310215,
                0.3433647557899081,
                0.5316709288716146,
                -0.6413539724700753
            ]
        },
        {
            "positions": [
                -1.8675620626234548,
                -1.323867138661073,
                0.5342561289349655,
                0.29734826766605765,
                0.5145695071753416,
                -0.48185530991788816
            ]
        },
        {
            "positions": [
                -1.7770999753827084,
                -1.3152067346550274,
                0.5990239859389097,
                0.2513317795422072,
                0.4974680854790686,
                -0.3223566473657009
            ]
        },
        {
            "positions": [
                -1.6866378881419621,
                -1.3065463306489817,
                0.6637918429428536,
                0.2053152914183568,
                0.4803666637827957,
                -0.16285798481351388
            ]
        },
        {
            "positions": [
                -1.5961758009012157,
                -1.2978859266429361,
                0.7285596999467978,
                0.1592988032945063,
                0.46326524208652275,
                -0.003359322261326403
            ]
        },
        {
            "positions": [
                -1.5057137136604695,
                -1.2892255226368905,
                0.7933275569507419,
                0.11328231517065585,
                0.44616382039024977,
                0.15613934029086063
            ]
        },
        {
            "positions": [
                -1.4152516264197232,
                -1.2805651186308449,
                0.8580954139546859,
                0.0672658270468054,
                0.4290623986939768,
                0.3156380028430479
            ]
        },
        {
            "positions": [
                -1.3247895391789768,
                -1.2719047146247993,
                0.92286327095863,
                0.021249338922954997,
                0.41196097699770384,
                0.4751366653952349
            ]
        },
        {
            "positions": [
                -1.2343274519382303,
                -1.2632443106187536,
                0.9876311279625741,
                -0.02476714920089551,
                0.3948595553014309,
                0.6346353279474224
            ]
        },
        {
            "positions": [
                -1.1438653646974841,
                -1.2545839066127082,
                1.0523989849665183,
                -0.07078363732474591,
                0.3777581336051579,
                0.7941339904996094
            ]
        },
        {
            "positions": [
                -1.053403277456738,
                -1.2459235026066626,
                1.1171668419704623,
                -0.1168001254485963,
                0.360656711908885,
                0.9536326530517965
            ]
        },
        {
            "positions": [
                -0.9629411902159917,
                -1.237263098600617,
                1.1819346989744062,
                -0.1628166135724467,
                0.343555290212612,
                1.1131313156039835
            ]
        },
        {
            "positions": [
                -0.8724791029752452,
                -1.2286026945945714,
                1.2467025559783502,
                -0.2088331016962972,
                0.32645386851633906,
                1.272629978156171
            ]
        },
        {
            "positions": [
                -0.7820170157344988,
                -1.2199422905885258,
                1.3114704129822945,
                -0.2548495898201477,
                0.3093524468200661,
                1.4321286407083584
            ]
        },
        {
            "positions": [
                -0.6915549284937523,
                -1.2112818865824801,
                1.3762382699862385,
                -0.3008660779439982,
                0.2922510251237931,
                1.5916273032605455
            ]
        },
        {
            "positions": [
                -0.6010928412530061,
                -1.2026214825764345,
                1.4410061269901826,
                -0.3468825660678486,
                0.27514960342752015,
                1.7511259658127325
            ]
        },
        {
            "positions": [
                -0.5106307540122599,
                -1.193961078570389,
                1.5057739839941267,
                -0.392899054191699,
                0.2580481817312472,
                1.9106246283649195
            ]
        },
        {
            "positions": [
                -0.42016866677151365,
                -1.1853006745643433,
                1.5705418409980707,
                -0.4389155423155495,
                0.24094676003497423,
                2.070123290917107
            ]
        },
        {
            "positions": [
                -0.3297065795307672,
                -1.176640270558298,
                1.6353096980020148,
                -0.4849320304393998,
                0.2238453383387013,
                2.229621953469294
            ]
        },
        {
            "positions": [
                -0.23924449229002098,
                -1.1679798665522523,
                1.7000775550059588,
                -0.5309485185632503,
                0.2067439166424283,
                2.389120616021481
            ]
        },
        {
            "positions": [
                -0.1487824050492743,
                -1.1593194625462067,
                1.764845412009903,
                -0.5769650066871008,
                0.18964249494615532,
                2.5486192785736685
            ]
        },
        {
            "positions": [
                -0.05832031780852809,
                -1.150659058540161,
                1.8296132690138471,
                -0.6229814948109513,
                0.17254107324988238,
                2.708117941125856
            ]
        },
        {
            "positions": [
                0.03214176943221814,
                -1.1419986545341154,
                1.8943811260177912,
                -0.6689979829348016,
                0.1554396515536094,
                2.8676166036780426
            ]
        },
        {
            "positions": [
                0.12260385667296442,
                -1.1333382505280698,
                1.9591489830217352,
                -0.7150144710586522,
                0.13833822985733643,
                3.02711526623023
            ]
        }
    ]
}{
    "goal": {
        "global_pose": {
            "orientation": {
                "w": 0.7047431468963623,
                "x": -0.7094548344612122,
                "y": 0.0024358443915843964,
                "z": -0.0022348060738295317
            },
            "position": {
                "x": 0.6094750761985779,
                "y": 0.3671506643295288,
                "z": 0.19426114857196808
            }
        },
        "name": "move_to_magneteinheit_A"
    },
    "id": "LazyPRM_move_to_magneteinheit_A_7",
    "joint_names": [
        "shoulder_pan_joint",
        "shoulder_lift_joint",
        "elbow_joint",
        "wrist_1_joint",
        "wrist_2_joint",
        "wrist_3_joint"
    ],
    "metrics": {
        "cart_traj_len": 1.2814794508836442,
        "distance_elbow_joint": 0.07218643812876513,
        "distance_shoulder_lift_joint": 0.7527626951758066,
        "distance_shoulder_pan_joint": 1.2421066838699484,
        "distance_wrist_1_joint": 0.774806309646077,
        "distance_wrist_2_joint": 1.5344325173074331,
        "distance_wrist_3_joint": 4.749986118034553,
        "smoothness": 0.20748217019432996,
        "time": 0.117401083,
        "traj_len": 3.020973479221985,
        "weighted_distance": 4.57553186254726
    },
    "planner": "LazyPRM",
    "start": {
        "state": {
            "elbow_joint": 1.919643534880228,
            "shoulder_lift_joint": -1.8972525353963687,
            "shoulder_pan_joint": -1.1188672234189438,
            "wrist_1_joint": -1.5931878212786155,
            "wrist_2_joint": 1.5706036197970081,
            "wrist_3_joint": 1.118896926603594
        }
    },
    "waypoints": [
        {
            "positions": [
                -1.1188672234189438,
                -1.8972525353963687,
                1.919643534880228,
                -1.5931878212786155,
                1.5706036197970081,
                1.118896926603594
            ]
        },
        {
            "positions": [
                -1.089694146731109,
                -1.8659688602821096,
                1.923162114072169,
                -1.58655290906756,
                1.4923161174801547,
                0.8815597759905169
            ]
        },
        {
            "positions": [
                -1.0605210700432741,
                -1.8346851851678503,
                1.92668069326411,
                -1.579917996856505,
                1.4140286151633013,
                0.6442226253774398
            ]
        },
        {
            "positions": [
                -1.031347993355439,
                -1.8034015100535912,
                1.930199272456051,
                -1.5732830846454495,
                1.3357411128464478,
                0.40688547476436276
            ]
        },
        {
            "positions": [
                -1.0021749166676042,
                -1.7721178349393318,
                1.933717851647992,
                -1.5666481724343944,
                1.2574536105295944,
                0.16954832415128562
            ]
        },
        {
            "positions": [
                -0.9730018399797693,
                -1.7408341598250727,
                1.937236430839933,
                -1.560013260223339,
                1.179166108212741,
                -0.06778882646179141
            ]
        },
        {
            "positions": [
                -0.9438287632919344,
                -1.7095504847108134,
                1.940755010031874,
                -1.5533783480122838,
                1.1008786058958875,
                -0.30512597707486844
            ]
        },
        {
            "positions": [
                -0.9146556866040995,
                -1.6782668095965543,
                1.944273589223815,
                -1.5467434358012284,
                1.022591103579034,
                -0.5424631276879455
            ]
        },
        {
            "positions": [
                -0.8854826099162646,
                -1.6469831344822952,
                1.947792168415756,
                -1.540108523590173,
                0.9443036012621805,
                -0.7798002783010227
            ]
        },
        {
            "positions": [
                -0.8563095332284296,
                -1.6156994593680358,
                1.951310747607697,
                -1.5334736113791179,
                0.866016098945327,
                -1.0171374289140995
            ]
        },
        {
            "positions": [
                -0.8271364565405948,
                -1.5844157842537767,
                1.954829326799638,
                -1.5268386991680625,
                0.7877285966284736,
                -1.2544745795271768
            ]
        },
        {
            "positions": [
                -0.7979633798527599,
                -1.5531321091395174,
                1.958347905991579,
                -1.5202037869570073,
                0.7094410943116202,
                -1.491811730140254
            ]
        },
        {
            "positions": [
                -0.7687903031649249,
                -1.5218484340252583,
                1.96186648518352,
                -1.513568874745952,
                0.6311535919947667,
                -1.7291488807533308
            ]
        },
        {
            "positions": [
                -0.7396172264770899,
                -1.490564758910999,
                1.965385064375461,
                -1.5069339625348965,
                0.5528660896779132,
                -1.966486031366408
            ]
        },
        {
            "positions": [
                -0.7104441497892551,
                -1.4592810837967398,
                1.9689036435674019,
                -1.5002990503238414,
                0.47457858736105996,
                -2.2038231819794847
            ]
        },
        {
            "positions": [
                -0.6812710731014202,
                -1.4279974086824807,
                1.9724222227593429,
                -1.493664138112786,
                0.3962910850442063,
                -2.4411603325925624
            ]
        },
        {
            "positions": [
                -0.6520979964135853,
                -1.3967137335682214,
                1.9759408019512839,
                -1.4870292259017308,
                0.31800358272735285,
                -2.678497483205639
            ]
        },
        {
            "positions": [
                -0.6229249197257504,
                -1.3654300584539623,
                1.9794593811432248,
                -1.4803943136906754,
                0.2397160804104994,
                -2.915834633818716
            ]
        },
        {
            "positions": [
                -0.5937518430379155,
                -1.3341463833397031,
                1.9829779603351658,
                -1.4737594014796203,
                0.16142857809364597,
                -3.153171784431793
            ]
        },
        {
            "positions": [
                -0.5645787663500805,
                -1.3028627082254438,
                1.9864965395271068,
                -1.4671244892685649,
                0.08314107577679253,
                -3.390508935044871
            ]
        },
        {
            "positions": [
                -0.4270151209898635,
                -1.2711881346244676,
                1.9854298528307295,
                -1.3373758937413596,
                0.09253507043423612,
                -3.342392883767653
            ]
        },
        {
            "positions": [
                -0.2894514756296465,
                -1.239513561023491,
                1.9843631661343522,
                -1.2076272982141543,
                0.10192906509167972,
                -3.2942768324904357
            ]
        },
        {
            "positions": [
                -0.1518878302694296,
                -1.2078389874225148,
                1.983296479437975,
                -1.077878702686949,
                0.11132305974912331,
                -3.246160781213218
            ]
        },
        {
            "positions": [
                -0.0143241849092125,
                -1.1761644138215384,
                1.9822297927415977,
                -0.9481301071597438,
                0.12071705440656691,
                -3.1980447299360004
            ]
        },
        {
            "positions": [
                0.12323946045100445,
                -1.144489840220562,
                1.9811631060452204,
                -0.8183815116325385,
                0.1301110490640105,
                -3.1499286786587826
            ]
        }
    ]
}