{
    "goal": {
        "global_pose": {
            "orientation": {
                "w": 0.5084816217422485,
                "x": -0.49083608388900757,
                "y": 0.5182115435600281,
                "z": -0.4816462993621826
            },
            "position": {
                "x": 0.5540239810943604,
                "y": 0.030875300988554955,
                "z": 0.16403168439865112
            }
        },
        "name": "move_to_storage_A"
    },
    "id": "LazyPRM_move_to_storage_A_92",
    "joint_names": [
        "shoulder_pan_joint",
        "shoulder_lift_joint",
        "elbow_joint",
        "wrist_1_joint",
        "wrist_2_joint",
        "wrist_3_joint"
    ],
    "metrics": {
        "cart_traj_len": 0.35382402309403443,
        "distance_elbow_joint": 0.4490040263577302,
        "distance_shoulder_lift_joint": 0.2327568368205628,
        "distance_shoulder_pan_joint": 0.4599044090381586,
        "distance_wrist_1_joint": 0.24335360598060418,
        "distance_wrist_2_joint": 1.1110535579935958,
        "distance_wrist_3_joint": 0.08958500794519875,
        "smoothness": 2.1094237388036135e-15,
        "time": 0.012201574,
        "traj_len": 1.6079979614837359,
        "weighted_distance": 2.029589767416176
    },
    "planner": "LazyPRM",
    "start": {
        "state": {
            "elbow_joint": 1.9715477243005601,
            "shoulder_lift_joint": -1.1394853015351272,
            "shoulder_pan_joint": 0.12281154014795169,
            "wrist_1_joint": -0.7804696478968182,
            "wrist_2_joint": 0.12958648046900423,
            "wrist_3_joint": -3.192491284697111
        }
    },
    "waypoints": [
        {
            "positions": [
                0.12281154014795169,
                -1.1394853015351272,
                1.9715477243005601,
                -0.7804696478968182,
                0.12958648046900423,
                -3.192491284697111
            ]
        },
        {
            "positions": [
                0.05711091028535761,
                -1.172736278223779,
                2.0356911566373785,
                -0.8152344487511902,
                0.28830841732523216,
                -3.1796934264192256
            ]
        },
        {
            "positions": [
                -0.008589719577236463,
                -1.2059872549124309,
                2.0998345889741974,
                -0.8499992496055622,
                0.44703035418146014,
                -3.16689556814134
            ]
        },
        {
            "positions": [
                -0.07429034943983055,
                -1.2392382316010826,
                2.163978021311016,
                -0.8847640504599342,
                0.6057522910376881,
                -3.1540977098634544
            ]
        },
        {
            "positions": [
                -0.1399909793024246,
                -1.2724892082897346,
                2.2281214536478346,
                -0.9195288513143063,
                0.7644742278939161,
                -3.1412998515855692
            ]
        },
        {
            "positions": [
                -0.20569160916501872,
                -1.3057401849783863,
                2.292264885984653,
                -0.9542936521686782,
                0.9231961647501441,
                -3.1285019933076836
            ]
        },
        {
            "positions": [
                -0.2713922390276128,
                -1.338991161667038,
                2.3564083183214715,
                -0.9890584530230503,
                1.0819181016063721,
                -3.115704135029798
            ]
        },
        {
            "positions": [
                -0.3370928688902069,
                -1.37224213835569,
                2.4205517506582903,
                -1.0238232538774223,
                1.2406400384626,
                -3.1029062767519124
            ]
        }
    ]
}