{
    "goal": {
        "global_pose": {
            "orientation": {
                "w": 0.7047431468963623,
                "x": -0.7094548344612122,
                "y": 0.0024358443915843964,
                "z": -0.0022348060738295317
            },
            "position": {
                "x": 0.6094750761985779,
                "y": 0.3671506643295288,
                "z": 0.19426114857196808
            }
        },
        "name": "move_to_magneteinheit_A"
    },
    "id": "LazyPRM_move_to_magneteinheit_A_62",
    "joint_names": [
        "shoulder_pan_joint",
        "shoulder_lift_joint",
        "elbow_joint",
        "wrist_1_joint",
        "wrist_2_joint",
        "wrist_3_joint"
    ],
    "metrics": {
        "cart_traj_len": 3.10097554935919,
        "distance_elbow_joint": 3.8858941514879946,
        "distance_shoulder_lift_joint": 1.179153988171689,
        "distance_shoulder_pan_joint": 2.751179740461176,
        "distance_wrist_1_joint": 2.1684262938951684,
        "distance_wrist_2_joint": 2.299620166286734,
        "distance_wrist_3_joint": 2.9942513163055917,
        "smoothness": 0.615247136253961,
        "time": 0.134294673,
        "traj_len": 3.9087754676635424,
        "weighted_distance": 5.072974940742507
    },
    "planner": "LazyPRM",
    "start": {
        "state": {
            "elbow_joint": -1.919618573717145,
            "shoulder_lift_joint": -1.2443395971678275,
            "shoulder_pan_joint": 2.6996025300909787,
            "wrist_1_joint": -1.548550951253194,
            "wrist_2_joint": -1.5709469090946802,
            "wrist_3_joint": 0.4420197732051276
        }
    },
    "waypoints": [
        {
            "positions": [
                2.6996025300909787,
                -1.2443395971678275,
                -1.919618573717145,
                -1.548550951253194,
                -1.5709469090946802,
                0.4420197732051276
            ]
        },
        {
            "positions": [
                2.617480849776739,
                -1.2615606365339325,
                -1.8179008182580811,
                -1.5037667662409586,
                -1.5157636165624806,
                0.5250941507722482
            ]
        },
        {
            "positions": [
                2.5353591694624993,
                -1.2787816759000372,
                -1.7161830627990173,
                -1.4589825812287232,
                -1.460580324030281,
                0.608168528339369
            ]
        },
        {
            "positions": [
                2.4532374891482593,
                -1.2960027152661422,
                -1.6144653073399535,
                -1.4141983962164877,
                -1.4053970314980815,
                0.6912429059064895
            ]
        },
        {
            "positions": [
                2.3711158088340194,
                -1.313223754632247,
                -1.5127475518808897,
                -1.3694142112042522,
                -1.350213738965882,
                0.7743172834736103
            ]
        },
        {
            "positions": [
                2.28899412851978,
                -1.330444793998352,
                -1.411029796421826,
                -1.324630026192017,
                -1.2950304464336826,
                0.8573916610407308
            ]
        },
        {
            "positions": [
                2.20687244820554,
                -1.3476658333644567,
                -1.3093120409627619,
                -1.2798458411797813,
                -1.2398471539014828,
                0.9404660386078516
            ]
        },
        {
            "positions": [
                2.1247507678913,
                -1.3648868727305616,
                -1.2075942855036983,
                -1.235061656167546,
                -1.1846638613692835,
                1.0235404161749722
            ]
        },
        {
            "positions": [
                2.04262908757706,
                -1.3821079120966664,
                -1.1058765300446343,
                -1.1902774711553106,
                -1.129480568837084,
                1.106614793742093
            ]
        },
        {
            "positions": [
                1.9605074072628206,
                -1.3993289514627714,
                -1.0041587745855705,
                -1.145493286143075,
                -1.0742972763048844,
                1.1896891713092137
            ]
        },
        {
            "positions": [
                1.8783857269485806,
                -1.4165499908288761,
                -0.9024410191265066,
                -1.1007091011308396,
                -1.0191139837726848,
                1.2727635488763342
            ]
        },
        {
            "positions": [
                1.796264046634341,
                -1.433771030194981,
                -0.8007232636674428,
                -1.0559249161186042,
                -0.9639306912404852,
                1.355837926443455
            ]
        },
        {
            "positions": [
                1.7141423663201012,
                -1.450992069561086,
                -0.699005508208379,
                -1.0111407311063687,
                -0.9087473987082857,
                1.4389123040105756
            ]
        },
        {
            "positions": [
                1.6320206860058613,
                -1.4682131089271908,
                -0.5972877527493152,
                -0.9663565460941332,
                -0.8535641061760861,
                1.5219866815776963
            ]
        },
        {
            "positions": [
                1.5498990056916215,
                -1.4854341482932958,
                -0.4955699972902514,
                -0.9215723610818979,
                -0.7983808136438867,
                1.605061059144817
            ]
        },
        {
            "positions": [
                1.4677773253773818,
                -1.5026551876594005,
                -0.3938522418311874,
                -0.8767881760696624,
                -0.7431975211116871,
                1.6881354367119377
            ]
        },
        {
            "positions": [
                1.3856556450631419,
                -1.5198762270255055,
                -0.2921344863721238,
                -0.832003991057427,
                -0.6880142285794876,
                1.7712098142790582
            ]
        },
        {
            "positions": [
                1.3035339647489022,
                -1.5370972663916103,
                -0.19041673091306,
                -0.7872198060451916,
                -0.6328309360472881,
                1.8542841918461788
            ]
        },
        {
            "positions": [
                1.2214122844346622,
                -1.5543183057577152,
                -0.08869897545399597,
                -0.742435621032956,
                -0.5776476435150885,
                1.9373585694132998
            ]
        },
        {
            "positions": [
                1.1392906041204225,
                -1.5715393451238202,
                0.013018780005067843,
                -0.6976514360207207,
                -0.522464350982889,
                2.0204329469804203
            ]
        },
        {
            "positions": [
                1.0571689238061828,
                -1.588760384489925,
                0.11473653546413165,
                -0.6528672510084852,
                -0.46728105845068946,
                2.103507324547541
            ]
        },
        {
            "positions": [
                0.975047243491943,
                -1.6059814238560297,
                0.21645429092319524,
                -0.6080830659962498,
                -0.4120977659184899,
                2.1865817021146614
            ]
        },
        {
            "positions": [
                0.8929255631777031,
                -1.6232024632221347,
                0.31817204638225927,
                -0.5632988809840143,
                -0.35691447338629034,
                2.2696560796817824
            ]
        },
        {
            "positions": [
                0.8108038828634634,
                -1.6404235025882397,
                0.4198898018413233,
                -0.5185146959717788,
                -0.3017311808540908,
                2.352730457248903
            ]
        },
        {
            "positions": [
                0.7286822025492237,
                -1.6576445419543444,
                0.5216075573003869,
                -0.4737305109595433,
                -0.24654788832189123,
                2.4358048348160235
            ]
        },
        {
            "positions": [
                0.6465605222349837,
                -1.6748655813204492,
                0.6233253127594505,
                -0.4289463259473081,
                -0.1913645957896919,
                2.518879212383144
            ]
        },
        {
            "positions": [
                0.5644388419207438,
                -1.6920866206865541,
                0.7250430682185145,
                -0.3841621409350724,
                -0.13618130325749211,
                2.601953589950265
            ]
        },
        {
            "positions": [
                0.4823171616065043,
                -1.709307660052659,
                0.8267608236775785,
                -0.33937795592283715,
                -0.08099801072529278,
                2.6850279675173856
            ]
        },
        {
            "positions": [
                0.40019548129226434,
                -1.7265286994187639,
                0.9284785791366421,
                -0.2945937709106017,
                -0.025814718193093222,
                2.768102345084506
            ]
        },
        {
            "positions": [
                0.31807380097802485,
                -1.7437497387848688,
                1.0301963345957061,
                -0.24980958589836622,
                0.029368574339106335,
                2.8511767226516267
            ]
        },
        {
            "positions": [
                0.2359521206637849,
                -1.7609707781509738,
                1.1319140900547702,
                -0.20502540088613075,
                0.08455186687130589,
                2.9342511002187477
            ]
        },
        {
            "positions": [
                0.153830440349545,
                -1.7781918175170786,
                1.2336318455138335,
                -0.16024121587389523,
                0.1397351594035054,
                3.0173254777858682
            ]
        },
        {
            "positions": [
                0.13536342975962715,
                -1.6958355240265093,
                1.3376807425815804,
                -0.23148775837542068,
                0.19861991394089895,
                3.0531968336169184
            ]
        },
        {
            "positions": [
                0.11689641916970928,
                -1.61347923053594,
                1.4417296396493273,
                -0.30273430087694614,
                0.2575046684782925,
                3.0890681894479686
            ]
        },
        {
            "positions": [
                0.09842940857979143,
                -1.531122937045371,
                1.5457785367170742,
                -0.3739808433784716,
                0.31638942301568607,
                3.124939545279019
            ]
        },
        {
            "positions": [
                0.07996239798987358,
                -1.4487666435548017,
                1.649827433784821,
                -0.44522738587999705,
                0.3752741775530796,
                3.1608109011100693
            ]
        },
        {
            "positions": [
                0.06149538739995573,
                -1.3664103500642324,
                1.753876330852568,
                -0.5164739283815225,
                0.4341589320904732,
                3.1966822569411195
            ]
        },
        {
            "positions": [
                0.09056909518159169,
                -1.2892083315878213,
                1.8073902310020014,
                -0.625175056065389,
                0.39412659766531943,
                3.1347517706255412
            ]
        },
        {
            "positions": [
                0.11964280296322766,
                -1.21200631311141,
                1.860904131151435,
                -0.7338761837492556,
                0.3540942632401657,
                3.072821284309963
            ]
        },
        {
            "positions": [
                0.1487165107448636,
                -1.134804294634999,
                1.9144180313008683,
                -0.8425773114331221,
                0.31406192881501194,
                3.0108907979943846
            ]
        },
        {
            "positions": [
                0.13579077353224128,
                -1.1357614171051782,
                1.9403468045358587,
                -0.7936870799548007,
                0.22685326790195237,
                3.037789484805817
            ]
        },
        {
            "positions": [
                0.12286503631961898,
                -1.1367185395753574,
                1.9662755777708494,
                -0.7447968484764793,
                0.13964460698889283,
                3.0646881716172496
            ]
        }
    ]
}{
    "goal": {
        "global_pose": {
            "orientation": {
                "w": 0.7047431468963623,
                "x": -0.7094548344612122,
                "y": 0.0024358443915843964,
                "z": -0.0022348060738295317
            },
            "position": {
                "x": 0.6094750761985779,
                "y": 0.3671506643295288,
                "z": 0.19426114857196808
            }
        },
        "name": "move_to_magneteinheit_A"
    },
    "id": "LazyPRM_move_to_magneteinheit_A_62",
    "joint_names": [
        "shoulder_pan_joint",
        "shoulder_lift_joint",
        "elbow_joint",
        "wrist_1_joint",
        "wrist_2_joint",
        "wrist_3_joint"
    ],
    "metrics": {
        "cart_traj_len": 1.2016788490951065,
        "distance_elbow_joint": 0.06543687319162927,
        "distance_shoulder_lift_joint": 0.7517586718615736,
        "distance_shoulder_pan_joint": 1.2406641212995126,
        "distance_wrist_1_joint": 0.7415392875311172,
        "distance_wrist_2_joint": 1.4874763864408707,
        "distance_wrist_3_joint": 4.240952970827848,
        "smoothness": 0.19992047865238247,
        "time": 0.7089014,
        "traj_len": 2.9202445635858223,
        "weighted_distance": 4.386199941496082
    },
    "planner": "LazyPRM",
    "start": {
        "state": {
            "elbow_joint": 1.919643534880228,
            "shoulder_lift_joint": -1.8972525353963687,
            "shoulder_pan_joint": -1.1188672234189438,
            "wrist_1_joint": -1.5931878212786155,
            "wrist_2_joint": 1.5706036197970081,
            "wrist_3_joint": 1.118896926603594
        }
    },
    "waypoints": [
        {
            "positions": [
                -1.1188672234189438,
                -1.8972525353963687,
                1.919643534880228,
                -1.5931878212786155,
                1.5706036197970081,
                1.118896926603594
            ]
        },
        {
            "positions": [
                -1.0628804632732325,
                -1.8633856267001596,
                1.9219424145385906,
                -1.5596097725655302,
                1.5038497176175436,
                0.9274324437917458
            ]
        },
        {
            "positions": [
                -1.0068937031275211,
                -1.8295187180039505,
                1.9242412941969531,
                -1.5260317238524448,
                1.437095815438079,
                0.7359679609798976
            ]
        },
        {
            "positions": [
                -0.9509069429818099,
                -1.7956518093077414,
                1.9265401738553154,
                -1.4924536751393596,
                1.3703419132586145,
                0.5445034781680494
            ]
        },
        {
            "positions": [
                -0.8949201828360985,
                -1.7617849006115323,
                1.928839053513678,
                -1.458875626426274,
                1.30358801107915,
                0.3530389953562012
            ]
        },
        {
            "positions": [
                -0.8389334226903873,
                -1.7279179919153231,
                1.9311379331720404,
                -1.4252975777131889,
                1.2368341088996855,
                0.16157451254435307
            ]
        },
        {
            "positions": [
                -0.7829466625446759,
                -1.694051083219114,
                1.933436812830403,
                -1.3917195290001034,
                1.170080206720221,
                -0.02988997026749507
            ]
        },
        {
            "positions": [
                -0.7269599023989646,
                -1.660184174522905,
                1.9357356924887652,
                -1.358141480287018,
                1.1033263045407564,
                -0.2213544530793432
            ]
        },
        {
            "positions": [
                -0.6709731422532532,
                -1.6263172658266956,
                1.9380345721471277,
                -1.3245634315739327,
                1.0365724023612919,
                -0.41281893589119156
            ]
        },
        {
            "positions": [
                -0.6149863821075419,
                -1.5924503571304864,
                1.9403334518054902,
                -1.2909853828608475,
                0.9698185001818272,
                -0.6042834187030397
            ]
        },
        {
            "positions": [
                -0.5589996219618306,
                -1.5585834484342773,
                1.9426323314638527,
                -1.257407334147762,
                0.9030645980023627,
                -0.7957479015148878
            ]
        },
        {
            "positions": [
                -0.5030128618161193,
                -1.5247165397380682,
                1.9449312111222152,
                -1.2238292854346766,
                0.8363106958228982,
                -0.987212384326736
            ]
        },
        {
            "positions": [
                -0.447026101670408,
                -1.490849631041859,
                1.9472300907805775,
                -1.1902512367215914,
                0.7695567936434337,
                -1.178676867138584
            ]
        },
        {
            "positions": [
                -0.39103934152469655,
                -1.45698272234565,
                1.94952897043894,
                -1.1566731880085062,
                0.702802891463969,
                -1.3701413499504322
            ]
        },
        {
            "positions": [
                -0.3350525813789853,
                -1.4231158136494408,
                1.9518278500973025,
                -1.1230951392954207,
                0.6360489892845046,
                -1.5616058327622804
            ]
        },
        {
            "positions": [
                -0.27906582123327406,
                -1.3892489049532317,
                1.954126729755665,
                -1.0895170905823353,
                0.5692950871050402,
                -1.7530703155741285
            ]
        },
        {
            "positions": [
                -0.2230790610875626,
                -1.3553819962570226,
                1.9564256094140273,
                -1.05593904186925,
                0.5025411849255754,
                -1.944534798385977
            ]
        },
        {
            "positions": [
                -0.16709230094185135,
                -1.3215150875608135,
                1.9587244890723898,
                -1.0223609931561648,
                0.4357872827461109,
                -2.135999281197825
            ]
        },
        {
            "positions": [
                -0.11110554079613988,
                -1.2876481788646044,
                1.9610233687307523,
                -0.9887829444430793,
                0.36903338056664636,
                -2.327463764009673
            ]
        },
        {
            "positions": [
                -0.055118780650428745,
                -1.2537812701683952,
                1.9633222483891148,
                -0.955204895729994,
                0.30227947838718183,
                -2.5189282468215213
            ]
        },
        {
            "positions": [
                0.0008679794952826114,
                -1.2199143614721861,
                1.9656211280474771,
                -0.9216268470169087,
                0.2355255762077173,
                -2.7103927296333694
            ]
        },
        {
            "positions": [
                0.05685473964099397,
                -1.186047452775977,
                1.9679200077058396,
                -0.8880487983038233,
                0.16877167402825277,
                -2.9018572124452175
            ]
        },
        {
            "positions": [
                0.11284149978670541,
                -1.1521805440797679,
                1.9702188873642021,
                -0.854470749590738,
                0.10201777184878824,
                -3.0933216952570657
            ]
        },
        {
            "positions": [
                0.12179689788056883,
                -1.145493863534795,
                1.9850804080718574,
                -0.8516485337474983,
                0.1209083103414391,
                -3.122056044224254
            ]
        }
    ]
}