{
    "goal": {
        "global_pose": {
            "orientation": {
                "w": 0.5084816217422485,
                "x": -0.49083608388900757,
                "y": 0.5182115435600281,
                "z": -0.4816462993621826
            },
            "position": {
                "x": 0.5540239810943604,
                "y": 0.030875300988554955,
                "z": 0.16403168439865112
            }
        },
        "name": "move_to_storage_A"
    },
    "id": "LazyPRMstar_move_to_storage_A_124",
    "joint_names": [
        "shoulder_pan_joint",
        "shoulder_lift_joint",
        "elbow_joint",
        "wrist_1_joint",
        "wrist_2_joint",
        "wrist_3_joint"
    ],
    "metrics": {
        "cart_traj_len": 0.3534114717575559,
        "distance_elbow_joint": 0.44949814258497867,
        "distance_shoulder_lift_joint": 0.2339244306352639,
        "distance_shoulder_pan_joint": 0.45962924855807363,
        "distance_wrist_1_joint": 0.24010738506653018,
        "distance_wrist_2_joint": 1.1101243613217124,
        "distance_wrist_3_joint": 0.08761743035068426,
        "smoothness": 2.2204460668324854e-16,
        "time": 5.000084979,
        "traj_len": 1.6065182845262744,
        "weighted_distance": 2.0264174312334697
    },
    "planner": "LazyPRMstar",
    "start": {
        "state": {
            "elbow_joint": 1.9715477243005601,
            "shoulder_lift_joint": -1.1394853015351272,
            "shoulder_pan_joint": 0.12281154014795169,
            "wrist_1_joint": -0.7804696478968182,
            "wrist_2_joint": 0.12958648046900423,
            "wrist_3_joint": -3.192491284697111
        }
    },
    "waypoints": [
        {
            "positions": [
                0.12281154014795169,
                -1.1394853015351272,
                1.9715477243005601,
                -0.7804696478968182,
                0.12958648046900423,
                -3.192491284697111
            ]
        },
        {
            "positions": [
                0.05715021892536974,
                -1.172903077340165,
                2.0357617446698426,
                -0.8147707029063225,
                0.2881756749435346,
                -3.1799745089327276
            ]
        },
        {
            "positions": [
                -0.008511102297212206,
                -1.2063208531452025,
                2.0999757650391255,
                -0.8490717579158268,
                0.4467648694180649,
                -3.1674577331683444
            ]
        },
        {
            "positions": [
                -0.07417242351979415,
                -1.2397386289502403,
                2.164189785408408,
                -0.8833728129253311,
                0.6053540638925953,
                -3.154940957403961
            ]
        },
        {
            "positions": [
                -0.1398337447423761,
                -1.273156404755278,
                2.228403805777691,
                -0.9176738679348354,
                0.7639432583671256,
                -3.1424241816395773
            ]
        },
        {
            "positions": [
                -0.20549506596495803,
                -1.3065741805603157,
                2.2926178261469734,
                -0.9519749229443397,
                0.922532452841656,
                -3.1299074058751937
            ]
        },
        {
            "positions": [
                -0.27115638718754,
                -1.3399919563653533,
                2.356831846516256,
                -0.986275977953844,
                1.0811216473161864,
                -3.1173906301108105
            ]
        },
        {
            "positions": [
                -0.33681770841012193,
                -1.373409732170391,
                2.421045866885539,
                -1.0205770329633483,
                1.2397108417907168,
                -3.104873854346427
            ]
        }
    ]
}