{
    "goal": {
        "global_pose": {
            "orientation": {
                "w": 0.5084816217422485,
                "x": -0.49083608388900757,
                "y": 0.5182115435600281,
                "z": -0.4816462993621826
            },
            "position": {
                "x": 0.5540239810943604,
                "y": 0.030875300988554955,
                "z": 0.16403168439865112
            }
        },
        "name": "move_to_storage_A"
    },
    "id": "LazyPRMstar_move_to_storage_A_72",
    "joint_names": [
        "shoulder_pan_joint",
        "shoulder_lift_joint",
        "elbow_joint",
        "wrist_1_joint",
        "wrist_2_joint",
        "wrist_3_joint"
    ],
    "metrics": {
        "cart_traj_len": 0.35353830288931837,
        "distance_elbow_joint": 0.4509565449123474,
        "distance_shoulder_lift_joint": 0.23553190712029326,
        "distance_shoulder_pan_joint": 0.4632717214598404,
        "distance_wrist_1_joint": 0.24392512535800692,
        "distance_wrist_2_joint": 1.0962869168352345,
        "distance_wrist_3_joint": 0.0899450500192196,
        "smoothness": 1.5543122343307022e-15,
        "time": 5.000166601999999,
        "traj_len": 1.606212086153302,
        "weighted_distance": 2.0248504655743402
    },
    "planner": "LazyPRMstar",
    "start": {
        "state": {
            "elbow_joint": 1.9715477243005601,
            "shoulder_lift_joint": -1.1394853015351272,
            "shoulder_pan_joint": 0.12281154014795169,
            "wrist_1_joint": -0.7804696478968182,
            "wrist_2_joint": 0.12958648046900423,
            "wrist_3_joint": -3.192491284697111
        }
    },
    "waypoints": [
        {
            "positions": [
                0.12281154014795169,
                -1.1394853015351272,
                1.9715477243005601,
                -0.7804696478968182,
                0.12958648046900423,
                -3.192491284697111
            ]
        },
        {
            "positions": [
                0.05662986565368877,
                -1.1731327168380261,
                2.035970087859467,
                -0.8153160943765334,
                0.286198897159752,
                -3.1796419918372227
            ]
        },
        {
            "positions": [
                -0.009551808840574147,
                -1.2067801321409253,
                2.1003924514183736,
                -0.8501625408562488,
                0.44281131385049977,
                -3.1667926989773343
            ]
        },
        {
            "positions": [
                -0.07573348333483705,
                -1.2404275474438242,
                2.1648148149772806,
                -0.885008987335964,
                0.5994237305412475,
                -3.153943406117446
            ]
        },
        {
            "positions": [
                -0.14191515782909997,
                -1.2740749627467234,
                2.229237178536187,
                -0.9198554338156792,
                0.7560361472319953,
                -3.141094113257557
            ]
        },
        {
            "positions": [
                -0.2080968323233629,
                -1.3077223780496223,
                2.293659542095094,
                -0.9547018802953946,
                0.9126485639227432,
                -3.1282448203976685
            ]
        },
        {
            "positions": [
                -0.2742785068176258,
                -1.3413697933525213,
                2.3580819056540006,
                -0.9895483267751097,
                1.0692609806134907,
                -3.11539552753778
            ]
        },
        {
            "positions": [
                -0.3404601813118887,
                -1.3750172086554204,
                2.4225042692129075,
                -1.024394773254825,
                1.2258733973042388,
                -3.1025462346778916
            ]
        }
    ]
}