{
    "goal": {
        "global_pose": {
            "orientation": {
                "w": 0.5084816217422485,
                "x": -0.49083608388900757,
                "y": 0.5182115435600281,
                "z": -0.4816462993621826
            },
            "position": {
                "x": 0.5540239810943604,
                "y": 0.030875300988554955,
                "z": 0.16403168439865112
            }
        },
        "name": "move_to_storage_A"
    },
    "id": "LazyPRMstar_move_to_storage_A_67",
    "joint_names": [
        "shoulder_pan_joint",
        "shoulder_lift_joint",
        "elbow_joint",
        "wrist_1_joint",
        "wrist_2_joint",
        "wrist_3_joint"
    ],
    "metrics": {
        "cart_traj_len": 0.353305801298594,
        "distance_elbow_joint": 0.4512465097426057,
        "distance_shoulder_lift_joint": 0.23630804596460897,
        "distance_shoulder_pan_joint": 0.45929596646356935,
        "distance_wrist_1_joint": 0.2415200945596544,
        "distance_wrist_2_joint": 1.1123313120086498,
        "distance_wrist_3_joint": 0.10557133646376649,
        "smoothness": 1.3322676295501878e-15,
        "time": 5.000133996,
        "traj_len": 1.6143956346580148,
        "weighted_distance": 2.0423680727769646
    },
    "planner": "LazyPRMstar",
    "start": {
        "state": {
            "elbow_joint": 1.9715477243005601,
            "shoulder_lift_joint": -1.1394853015351272,
            "shoulder_pan_joint": 0.12281154014795169,
            "wrist_1_joint": -0.7804696478968182,
            "wrist_2_joint": 0.12958648046900423,
            "wrist_3_joint": -3.192491284697111
        }
    },
    "waypoints": [
        {
            "positions": [
                0.12281154014795169,
                -1.1394853015351272,
                1.9715477243005601,
                -0.7804696478968182,
                0.12958648046900423,
                -3.192491284697111
            ]
        },
        {
            "positions": [
                0.057197830653156076,
                -1.1732435938157857,
                2.0360115114066466,
                -0.8149725185481974,
                0.28849095361309707,
                -3.1774096652022874
            ]
        },
        {
            "positions": [
                -0.008415878841639537,
                -1.207001886096444,
                2.100475298512733,
                -0.8494753891995765,
                0.44739542675718985,
                -3.1623280457074636
            ]
        },
        {
            "positions": [
                -0.07402958833643515,
                -1.2407601783771025,
                2.1649390856188195,
                -0.8839782598509558,
                0.6062998999012827,
                -3.14724642621264
            ]
        },
        {
            "positions": [
                -0.13964329783123075,
                -1.2745184706577608,
                2.229402872724906,
                -0.9184811305023349,
                0.7652043730453755,
                -3.132164806717816
            ]
        },
        {
            "positions": [
                -0.20525700732602642,
                -1.3082767629384193,
                2.293866659830993,
                -0.9529840011537142,
                0.9241088461894683,
                -3.1170831872229923
            ]
        },
        {
            "positions": [
                -0.270870716820822,
                -1.3420350552190776,
                2.3583304469370794,
                -0.9874868718050933,
                1.0830133193335612,
                -3.1020015677281685
            ]
        },
        {
            "positions": [
                -0.33648442631561765,
                -1.3757933474997361,
                2.422794234043166,
                -1.0219897424564726,
                1.241917792477654,
                -3.0869199482333447
            ]
        }
    ]
}