{
    "goal": {
        "global_pose": {
            "orientation": {
                "w": 0.5084816217422485,
                "x": -0.49083608388900757,
                "y": 0.5182115435600281,
                "z": -0.4816462993621826
            },
            "position": {
                "x": 0.5540239810943604,
                "y": 0.030875300988554955,
                "z": 0.16403168439865112
            }
        },
        "name": "move_to_storage_A"
    },
    "id": "LazyPRM_move_to_storage_A_69",
    "joint_names": [
        "shoulder_pan_joint",
        "shoulder_lift_joint",
        "elbow_joint",
        "wrist_1_joint",
        "wrist_2_joint",
        "wrist_3_joint"
    ],
    "metrics": {
        "cart_traj_len": 0.35275682704507755,
        "distance_elbow_joint": 0.4531558172253072,
        "distance_shoulder_lift_joint": 0.234410390209006,
        "distance_shoulder_pan_joint": 0.4568179126234467,
        "distance_wrist_1_joint": 0.25905992505221487,
        "distance_wrist_2_joint": 1.117504720874642,
        "distance_wrist_3_joint": 0.10193442995852964,
        "smoothness": 0.0,
        "time": 0.022058523,
        "traj_len": 1.6195317829370148,
        "weighted_distance": 2.050199185880987
    },
    "planner": "LazyPRM",
    "start": {
        "state": {
            "elbow_joint": 1.9715477243005601,
            "shoulder_lift_joint": -1.1394853015351272,
            "shoulder_pan_joint": 0.12281154014795169,
            "wrist_1_joint": -0.7804696478968182,
            "wrist_2_joint": 0.12958648046900423,
            "wrist_3_joint": -3.192491284697111
        }
    },
    "waypoints": [
        {
            "positions": [
                0.12281154014795169,
                -1.1394853015351272,
                1.9715477243005601,
                -0.7804696478968182,
                0.12958648046900423,
                -3.192491284697111
            ]
        },
        {
            "positions": [
                0.057551838344602174,
                -1.1729725001364137,
                2.036284269618461,
                -0.8174782086185631,
                0.2892300120225245,
                -3.177929223274464
            ]
        },
        {
            "positions": [
                -0.007707863458747341,
                -1.2064596987377003,
                2.101020814936362,
                -0.8544867693403081,
                0.4488735435760448,
                -3.163367161851817
            ]
        },
        {
            "positions": [
                -0.07296756526209687,
                -1.2399468973389869,
                2.165757360254263,
                -0.8914953300620531,
                0.6085170751295651,
                -3.1488051004291697
            ]
        },
        {
            "positions": [
                -0.13822726706544636,
                -1.2734340959402735,
                2.230493905572164,
                -0.9285038907837981,
                0.7681606066830854,
                -3.134243039006523
            ]
        },
        {
            "positions": [
                -0.20348696886879591,
                -1.30692129454156,
                2.2952304508900654,
                -0.9655124515055431,
                0.9278041382366057,
                -3.119680977583876
            ]
        },
        {
            "positions": [
                -0.2687466706721454,
                -1.3404084931428466,
                2.3599669962079663,
                -1.002521012227288,
                1.087447669790126,
                -3.1051189161612287
            ]
        },
        {
            "positions": [
                -0.334006372475495,
                -1.3738956917441332,
                2.4247035415258673,
                -1.039529572949033,
                1.2470912013436464,
                -3.0905568547385815
            ]
        }
    ]
}