{
    "goal": {
        "global_pose": {
            "orientation": {
                "w": 0.7047431468963623,
                "x": -0.7094548344612122,
                "y": 0.0024358443915843964,
                "z": -0.0022348060738295317
            },
            "position": {
                "x": 0.6094750761985779,
                "y": 0.3671506643295288,
                "z": 0.19426114857196808
            }
        },
        "name": "move_to_magneteinheit_A"
    },
    "id": "LazyPRM_move_to_magneteinheit_A_128",
    "joint_names": [
        "shoulder_pan_joint",
        "shoulder_lift_joint",
        "elbow_joint",
        "wrist_1_joint",
        "wrist_2_joint",
        "wrist_3_joint"
    ],
    "metrics": {
        "cart_traj_len": 3.789300875786033,
        "distance_elbow_joint": 3.9089143295010285,
        "distance_shoulder_lift_joint": 0.1320733159938341,
        "distance_shoulder_pan_joint": 3.2597963345633625,
        "distance_wrist_1_joint": 0.8430205213774773,
        "distance_wrist_2_joint": 3.9178656004171155,
        "distance_wrist_3_joint": 3.573297128792377,
        "smoothness": 0.4213479058487695,
        "time": 0.11631565699999999,
        "traj_len": 3.954107640245166,
        "weighted_distance": 5.248089901099688
    },
    "planner": "LazyPRM",
    "start": {
        "state": {
            "elbow_joint": -1.919618573717145,
            "shoulder_lift_joint": -1.2443395971678275,
            "shoulder_pan_joint": 2.6996025300909787,
            "wrist_1_joint": -1.548550951253194,
            "wrist_2_joint": -1.5709469090946802,
            "wrist_3_joint": 0.4420197732051276
        }
    },
    "waypoints": [
        {
            "positions": [
                2.6996025300909787,
                -1.2443395971678275,
                -1.919618573717145,
                -1.548550951253194,
                -1.5709469090946802,
                0.4420197732051276
            ]
        },
        {
            "positions": [
                2.578791091852647,
                -1.2450989215619395,
                -1.8263213500676565,
                -1.5251559078346542,
                -1.4543381041203536,
                0.40744257592008687
            ]
        },
        {
            "positions": [
                2.457979653614315,
                -1.2458582459560514,
                -1.733024126418168,
                -1.5017608644161142,
                -1.337729299146027,
                0.3728653786350461
            ]
        },
        {
            "positions": [
                2.3371682153759834,
                -1.2466175703501634,
                -1.6397269027686796,
                -1.478365820997574,
                -1.2211204941717007,
                0.3382881813500054
            ]
        },
        {
            "positions": [
                2.216356777137652,
                -1.2473768947442754,
                -1.5464296791191912,
                -1.4549707775790341,
                -1.104511689197374,
                0.30371098406496466
            ]
        },
        {
            "positions": [
                2.0955453388993197,
                -1.2481362191383873,
                -1.4531324554697027,
                -1.4315757341604942,
                -0.9879028842230475,
                0.2691337867799239
            ]
        },
        {
            "positions": [
                1.974733900660988,
                -1.2488955435324993,
                -1.3598352318202143,
                -1.408180690741954,
                -0.871294079248721,
                0.23455658949488317
            ]
        },
        {
            "positions": [
                1.8539224624226562,
                -1.2496548679266113,
                -1.2665380081707258,
                -1.3847856473234141,
                -0.7546852742743945,
                0.19997939220984243
            ]
        },
        {
            "positions": [
                1.7331110241843246,
                -1.2504141923207233,
                -1.1732407845212374,
                -1.3613906039048742,
                -0.638076469300068,
                0.16540219492480174
            ]
        },
        {
            "positions": [
                1.6122995859459928,
                -1.2511735167148352,
                -1.079943560871749,
                -1.3379955604863343,
                -0.5214676643257414,
                0.13082499763976096
            ]
        },
        {
            "positions": [
                1.491488147707661,
                -1.2519328411089472,
                -0.9866463372222605,
                -1.3146005170677943,
                -0.40485885935141486,
                0.09624780035472019
            ]
        },
        {
            "positions": [
                1.3706767094693293,
                -1.2526921655030592,
                -0.893349113572772,
                -1.2912054736492542,
                -0.2882500543770885,
                0.06167060306967953
            ]
        },
        {
            "positions": [
                1.2498652712309974,
                -1.253451489897171,
                -0.8000518899232836,
                -1.2678104302307143,
                -0.17164124940276193,
                0.027093405784638758
            ]
        },
        {
            "positions": [
                1.1290538329926658,
                -1.254210814291283,
                -0.7067546662737951,
                -1.2444153868121743,
                -0.05503244442843558,
                -0.0074837915004019595
            ]
        },
        {
            "positions": [
                1.0082423947543337,
                -1.2549701386853949,
                -0.6134574426243067,
                -1.2210203433936342,
                0.06157636054589122,
                -0.04206098878544273
            ]
        },
        {
            "positions": [
                0.8874309565160021,
                -1.2557294630795068,
                -0.5201602189748182,
                -1.1976252999750943,
                0.17818516552021757,
                -0.0766381860704835
            ]
        },
        {
            "positions": [
                0.7666195182776705,
                -1.2564887874736188,
                -0.4268629953253298,
                -1.1742302565565543,
                0.29479397049454414,
                -0.11121538335552411
            ]
        },
        {
            "positions": [
                0.6458080800393384,
                -1.2572481118677308,
                -0.33356577167584134,
                -1.1508352131380144,
                0.4114027754688707,
                -0.14579258064056494
            ]
        },
        {
            "positions": [
                0.5249966418010068,
                -1.2580074362618427,
                -0.2402685480263529,
                -1.1274401697194745,
                0.5280115804431973,
                -0.18036977792560566
            ]
        },
        {
            "positions": [
                0.4041852035626752,
                -1.2587667606559547,
                -0.14697132437686444,
                -1.1040451263009343,
                0.6446203854175234,
                -0.21494697521064637
            ]
        },
        {
            "positions": [
                0.2833737653243431,
                -1.2595260850500667,
                -0.053674100727375995,
                -1.0806500828823944,
                0.7612291903918504,
                -0.2495241724956872
            ]
        },
        {
            "positions": [
                0.16256232708601148,
                -1.2602854094441787,
                0.03962312292211245,
                -1.0572550394638545,
                0.8778379953661766,
                -0.2841013697807278
            ]
        },
        {
            "positions": [
                0.04175088884767986,
                -1.2610447338382906,
                0.1329203465716009,
                -1.0338599960453143,
                0.9944468003405031,
                -0.3186785670657685
            ]
        },
        {
            "positions": [
                -0.07906054939065221,
                -1.2618040582324026,
                0.22621757022108935,
                -1.0104649526267744,
                1.1110556053148297,
                -0.35325576435080935
            ]
        },
        {
            "positions": [
                -0.19987198762898362,
                -1.2625633826265146,
                0.3195147938705778,
                -0.9870699092082345,
                1.2276644102891563,
                -0.3878329616358501
            ]
        },
        {
            "positions": [
                -0.1799625794240222,
                -1.2546301333493406,
                0.43094359582839364,
                -0.9810514390876305,
                1.1613652287595768,
                -0.5692888921816865
            ]
        },
        {
            "positions": [
                -0.16005317121906076,
                -1.2466968840721666,
                0.5423723977862095,
                -0.9750329689670264,
                1.0950660472299971,
                -0.7507448227275229
            ]
        },
        {
            "positions": [
                -0.14014376301409937,
                -1.2387636347949926,
                0.6538011997440254,
                -0.9690144988464224,
                1.0287668657004176,
                -0.9322007532733592
            ]
        },
        {
            "positions": [
                -0.12023435480913792,
                -1.2308303855178186,
                0.7652300017018412,
                -0.9629960287258185,
                0.962467684170838,
                -1.1136566838191957
            ]
        },
        {
            "positions": [
                -0.1003249466041765,
                -1.2228971362406447,
                0.8766588036596572,
                -0.9569775586052144,
                0.8961685026412585,
                -1.295112614365032
            ]
        },
        {
            "positions": [
                -0.08041553839921509,
                -1.2149638869634707,
                0.988087605617473,
                -0.9509590884846104,
                0.8298693211116789,
                -1.4765685449108683
            ]
        },
        {
            "positions": [
                -0.06050613019425366,
                -1.2070306376862967,
                1.099516407575289,
                -0.9449406183640063,
                0.7635701395820993,
                -1.6580244754567048
            ]
        },
        {
            "positions": [
                -0.040596721989292234,
                -1.1990973884091227,
                1.2109452095331048,
                -0.9389221482434024,
                0.6972709580525197,
                -1.839480406002541
            ]
        },
        {
            "positions": [
                -0.020687313784330807,
                -1.1911641391319487,
                1.3223740114909208,
                -0.9329036781227984,
                0.6309717765229401,
                -2.0209363365483775
            ]
        },
        {
            "positions": [
                -0.0007779055793693812,
                -1.1832308898547748,
                1.4338028134487366,
                -0.9268852080021943,
                0.5646725949933605,
                -2.202392267094214
            ]
        },
        {
            "positions": [
                0.019131502625592017,
                -1.1752976405776008,
                1.5452316154065524,
                -0.9208667378815903,
                0.49837341346378106,
                -2.38384819764005
            ]
        },
        {
            "positions": [
                0.039040910830553444,
                -1.1673643913004268,
                1.6566604173643682,
                -0.9148482677609864,
                0.43207423193420147,
                -2.565304128185886
            ]
        },
        {
            "positions": [
                0.0589503190355149,
                -1.1594311420232528,
                1.7680892193221842,
                -0.9088297976403823,
                0.3657750504046219,
                -2.746760058731723
            ]
        },
        {
            "positions": [
                0.07885972724047631,
                -1.1514978927460788,
                1.87951802128,
                -0.9028113275197783,
                0.29947586887504224,
                -2.928215989277559
            ]
        },
        {
            "positions": [
                0.14213227259148206,
                -1.150910960184311,
                1.9577577912998003,
                -0.9770971851061436,
                0.12239153682011722,
                -2.92656078953652
            ]
        },
        {
            "positions": [
                0.1238147159685499,
                -1.1487138520913676,
                1.9892957557838844,
                -0.8541021450484474,
                0.13637294438435568,
                -3.127966956105171
            ]
        }
    ]
}{
    "goal": {
        "global_pose": {
            "orientation": {
                "w": 0.7047431468963623,
                "x": -0.7094548344612122,
                "y": 0.0024358443915843964,
                "z": -0.0022348060738295317
            },
            "position": {
                "x": 0.6094750761985779,
                "y": 0.3671506643295288,
                "z": 0.19426114857196808
            }
        },
        "name": "move_to_magneteinheit_A"
    },
    "id": "LazyPRM_move_to_magneteinheit_A_128",
    "joint_names": [
        "shoulder_pan_joint",
        "shoulder_lift_joint",
        "elbow_joint",
        "wrist_1_joint",
        "wrist_2_joint",
        "wrist_3_joint"
    ],
    "metrics": {
        "cart_traj_len": 1.2149099115125979,
        "distance_elbow_joint": 0.037390204234818425,
        "distance_shoulder_lift_joint": 0.7735549902638095,
        "distance_shoulder_pan_joint": 1.241994617073219,
        "distance_wrist_1_joint": 0.8893394572769084,
        "distance_wrist_2_joint": 1.4360672445941365,
        "distance_wrist_3_joint": 4.367336378854162,
        "smoothness": 0.08380764881504361,
        "time": 0.08744906399999999,
        "traj_len": 2.9573100771304066,
        "weighted_distance": 4.45036654129482
    },
    "planner": "LazyPRM",
    "start": {
        "state": {
            "elbow_joint": 1.919643534880228,
            "shoulder_lift_joint": -1.8972525353963687,
            "shoulder_pan_joint": -1.1188672234189438,
            "wrist_1_joint": -1.5931878212786155,
            "wrist_2_joint": 1.5706036197970081,
            "wrist_3_joint": 1.118896926603594
        }
    },
    "waypoints": [
        {
            "positions": [
                -1.1188672234189438,
                -1.8972525353963687,
                1.919643534880228,
                -1.5931878212786155,
                1.5706036197970081,
                1.118896926603594
            ]
        },
        {
            "positions": [
                -1.0629260399975515,
                -1.8622505117967552,
                1.9203916726555244,
                -1.5529610142911459,
                1.5057695629640426,
                0.9215993026461008
            ]
        },
        {
            "positions": [
                -1.0069848565761592,
                -1.8272484881971418,
                1.9211398104308206,
                -1.5127342073036765,
                1.4409355061310771,
                0.7243016786886076
            ]
        },
        {
            "positions": [
                -0.9510436731547669,
                -1.7922464645975285,
                1.921887948206117,
                -1.4725074003162069,
                1.3761014492981116,
                0.5270040547311144
            ]
        },
        {
            "positions": [
                -0.8951024897333745,
                -1.7572444409979149,
                1.9226360859814133,
                -1.4322805933287375,
                1.3112673924651461,
                0.32970643077362116
            ]
        },
        {
            "positions": [
                -0.8391613063119822,
                -1.7222424173983013,
                1.9233842237567096,
                -1.3920537863412679,
                1.2464333356321804,
                0.1324088068161281
            ]
        },
        {
            "positions": [
                -0.7832201228905898,
                -1.687240393798688,
                1.9241323615320058,
                -1.3518269793537985,
                1.1815992787992151,
                -0.06488881714136507
            ]
        },
        {
            "positions": [
                -0.7272789394691975,
                -1.6522383701990746,
                1.9248804993073023,
                -1.3116001723663289,
                1.1167652219662494,
                -0.26218644109885836
            ]
        },
        {
            "positions": [
                -0.6713377560478051,
                -1.617236346599461,
                1.9256286370825986,
                -1.2713733653788593,
                1.0519311651332839,
                -0.45948406505635164
            ]
        },
        {
            "positions": [
                -0.6153965726264128,
                -1.5822343229998475,
                1.9263767748578948,
                -1.2311465583913899,
                0.9870971083003184,
                -0.6567816890138447
            ]
        },
        {
            "positions": [
                -0.5594553892050205,
                -1.547232299400234,
                1.927124912633191,
                -1.1909197514039203,
                0.9222630514673529,
                -0.8540793129713378
            ]
        },
        {
            "positions": [
                -0.5035142057836282,
                -1.5122302758006207,
                1.9278730504084876,
                -1.1506929444164506,
                0.8574289946343874,
                -1.051376936928831
            ]
        },
        {
            "positions": [
                -0.44757302236223584,
                -1.4772282522010072,
                1.9286211881837838,
                -1.1104661374289813,
                0.7925949378014219,
                -1.2486745608863241
            ]
        },
        {
            "positions": [
                -0.3916318389408434,
                -1.4422262286013936,
                1.92936932595908,
                -1.0702393304415116,
                0.7277608809684563,
                -1.4459721848438176
            ]
        },
        {
            "positions": [
                -0.3356906555194512,
                -1.4072242050017802,
                1.9301174637343763,
                -1.0300125234540423,
                0.6629268241354909,
                -1.6432698088013107
            ]
        },
        {
            "positions": [
                -0.2797494720980589,
                -1.372222181402167,
                1.9308656015096726,
                -0.9897857164665728,
                0.5980927673025254,
                -1.8405674327588037
            ]
        },
        {
            "positions": [
                -0.22380828867666647,
                -1.3372201578025533,
                1.931613739284969,
                -0.9495589094791032,
                0.5332587104695596,
                -2.0378650567162975
            ]
        },
        {
            "positions": [
                -0.16786710525527415,
                -1.3022181342029397,
                1.9323618770602653,
                -0.9093321024916337,
                0.46842465363659436,
                -2.23516268067379
            ]
        },
        {
            "positions": [
                -0.11192592183388173,
                -1.2672161106033264,
                1.9331100148355616,
                -0.869105295504164,
                0.40359059680362863,
                -2.4324603046312836
            ]
        },
        {
            "positions": [
                -0.05598473841248941,
                -1.232214087003713,
                1.9338581526108578,
                -0.8288784885166945,
                0.33875653997066313,
                -2.629757928588776
            ]
        },
        {
            "positions": [
                -4.3554991097094486e-05,
                -1.1972120634040995,
                1.9346062903861543,
                -0.7886516815292252,
                0.2739224831376976,
                -2.8270555525462697
            ]
        },
        {
            "positions": [
                0.05589762843029522,
                -1.162210039804486,
                1.9353544281614505,
                -0.7484248745417555,
                0.20908842630473212,
                -3.0243531765037632
            ]
        },
        {
            "positions": [
                0.11183881185168762,
                -1.1272080162048725,
                1.9361025659367468,
                -0.708198067554286,
                0.14425436947176662,
                -3.221650800461256
            ]
        },
        {
            "positions": [
                0.12312739365427525,
                -1.1307184872771858,
                1.9570337391150465,
                -0.7125477711068651,
                0.13453637520287157,
                -3.2484394522505684
            ]
        }
    ]
}