{
    "goal": {
        "global_pose": {
            "orientation": {
                "w": 0.5084816217422485,
                "x": -0.49083608388900757,
                "y": 0.5182115435600281,
                "z": -0.4816462993621826
            },
            "position": {
                "x": 0.5540239810943604,
                "y": 0.030875300988554955,
                "z": 0.16403168439865112
            }
        },
        "name": "move_to_storage_A"
    },
    "id": "LazyPRMstar_move_to_storage_A_132",
    "joint_names": [
        "shoulder_pan_joint",
        "shoulder_lift_joint",
        "elbow_joint",
        "wrist_1_joint",
        "wrist_2_joint",
        "wrist_3_joint"
    ],
    "metrics": {
        "cart_traj_len": 0.3524503415437023,
        "distance_elbow_joint": 0.45323442576861694,
        "distance_shoulder_lift_joint": 0.23432509533965562,
        "distance_shoulder_pan_joint": 0.45723309170825593,
        "distance_wrist_1_joint": 0.25609908414543725,
        "distance_wrist_2_joint": 1.1137137035803666,
        "distance_wrist_3_joint": 0.10790952400574305,
        "smoothness": 8.881784197001252e-16,
        "time": 5.000082945,
        "traj_len": 1.6194180820739514,
        "weighted_distance": 2.051376796272534
    },
    "planner": "LazyPRMstar",
    "start": {
        "state": {
            "elbow_joint": 1.9715477243005601,
            "shoulder_lift_joint": -1.1394853015351272,
            "shoulder_pan_joint": 0.12281154014795169,
            "wrist_1_joint": -0.7804696478968182,
            "wrist_2_joint": 0.12958648046900423,
            "wrist_3_joint": -3.192491284697111
        }
    },
    "waypoints": [
        {
            "positions": [
                0.12281154014795169,
                -1.1394853015351272,
                1.9715477243005601,
                -0.7804696478968182,
                0.12958648046900423,
                -3.192491284697111
            ]
        },
        {
            "positions": [
                0.05749252704677227,
                -1.172960315155078,
                2.0362954994103624,
                -0.8170552313461663,
                0.28868843812334233,
                -3.1770756384105763
            ]
        },
        {
            "positions": [
                -0.007826486054407153,
                -1.2064353287750287,
                2.101043274520165,
                -0.8536408147955146,
                0.44779039577768037,
                -3.161659992124042
            ]
        },
        {
            "positions": [
                -0.07314549915558656,
                -1.2399103423949795,
                2.1657910496299673,
                -0.8902263982448627,
                0.6068923534320185,
                -3.146244345837507
            ]
        },
        {
            "positions": [
                -0.13846451225676598,
                -1.2733853560149304,
                2.23053882473977,
                -0.9268119816942109,
                0.7659943110863565,
                -3.1308286995509724
            ]
        },
        {
            "positions": [
                -0.20378352535794542,
                -1.3068603696348813,
                2.295286599849572,
                -0.9633975651435591,
                0.9250962687406946,
                -3.1154130532644375
            ]
        },
        {
            "positions": [
                -0.2691025384591248,
                -1.340335383254832,
                2.3600343749593744,
                -0.9999831485929072,
                1.0841982263950327,
                -3.099997406977903
            ]
        },
        {
            "positions": [
                -0.33442155156030423,
                -1.3738103968747828,
                2.424782150069177,
                -1.0365687320422554,
                1.2433001840493707,
                -3.084581760691368
            ]
        }
    ]
}