{
    "goal": {
        "global_pose": {
            "orientation": {
                "w": 0.5084816217422485,
                "x": -0.49083608388900757,
                "y": 0.5182115435600281,
                "z": -0.4816462993621826
            },
            "position": {
                "x": 0.5540239810943604,
                "y": 0.030875300988554955,
                "z": 0.16403168439865112
            }
        },
        "name": "move_to_storage_A"
    },
    "id": "LazyPRMstar_move_to_storage_A_3",
    "joint_names": [
        "shoulder_pan_joint",
        "shoulder_lift_joint",
        "elbow_joint",
        "wrist_1_joint",
        "wrist_2_joint",
        "wrist_3_joint"
    ],
    "metrics": {
        "cart_traj_len": 0.3531664992483459,
        "distance_elbow_joint": 0.4519148765296843,
        "distance_shoulder_lift_joint": 0.2347226282458923,
        "distance_shoulder_pan_joint": 0.4630064068467167,
        "distance_wrist_1_joint": 0.25280484520394186,
        "distance_wrist_2_joint": 1.0939622566490836,
        "distance_wrist_3_joint": 0.08986321699462829,
        "smoothness": 6.661338200497456e-16,
        "time": 5.000447929,
        "traj_len": 1.6081897370863758,
        "weighted_distance": 2.0279959976075466
    },
    "planner": "LazyPRMstar",
    "start": {
        "state": {
            "elbow_joint": 1.9715477243005601,
            "shoulder_lift_joint": -1.1394853015351272,
            "shoulder_pan_joint": 0.12281154014795169,
            "wrist_1_joint": -0.7804696478968182,
            "wrist_2_joint": 0.12958648046900423,
            "wrist_3_joint": -3.192491284697111
        }
    },
    "waypoints": [
        {
            "positions": [
                0.12281154014795169,
                -1.1394853015351272,
                1.9715477243005601,
                -0.7804696478968182,
                0.12958648046900423,
                -3.192491284697111
            ]
        },
        {
            "positions": [
                0.05666776774127788,
                -1.1730171055702547,
                2.0361069923762294,
                -0.8165846257830955,
                0.2858668028474447,
                -3.1796536822693073
            ]
        },
        {
            "positions": [
                -0.009476004665395929,
                -1.206548909605382,
                2.1006662604518986,
                -0.852699603669373,
                0.44214712522588523,
                -3.166816079841503
            ]
        },
        {
            "positions": [
                -0.07561977707206972,
                -1.2400807136405096,
                2.165225528527568,
                -0.8888145815556504,
                0.5984274476043258,
                -3.153978477413699
            ]
        },
        {
            "positions": [
                -0.14176354947874353,
                -1.273612517675637,
                2.2297847966032367,
                -0.9249295594419278,
                0.7547077699827662,
                -3.141140874985895
            ]
        },
        {
            "positions": [
                -0.20790732188541738,
                -1.3071443217107646,
                2.294344064678906,
                -0.9610445373282053,
                0.9109880923612068,
                -3.128303272558091
            ]
        },
        {
            "positions": [
                -0.2740510942920911,
                -1.340676125745892,
                2.358903332754575,
                -0.9971595152144825,
                1.0672684147396474,
                -3.1154656701302867
            ]
        },
        {
            "positions": [
                -0.340194866698765,
                -1.3742079297810195,
                2.4234626008302445,
                -1.03327449310076,
                1.2235487371180878,
                -3.102628067702483
            ]
        }
    ]
}