{
    "goal": {
        "global_pose": {
            "orientation": {
                "w": 0.5084816217422485,
                "x": -0.49083608388900757,
                "y": 0.5182115435600281,
                "z": -0.4816462993621826
            },
            "position": {
                "x": 0.5540239810943604,
                "y": 0.030875300988554955,
                "z": 0.16403168439865112
            }
        },
        "name": "move_to_storage_A"
    },
    "id": "LazyPRM_move_to_storage_A_8",
    "joint_names": [
        "shoulder_pan_joint",
        "shoulder_lift_joint",
        "elbow_joint",
        "wrist_1_joint",
        "wrist_2_joint",
        "wrist_3_joint"
    ],
    "metrics": {
        "cart_traj_len": 0.3537798083475878,
        "distance_elbow_joint": 0.44903510050317097,
        "distance_shoulder_lift_joint": 0.23540006114034662,
        "distance_shoulder_pan_joint": 0.46315661304702505,
        "distance_wrist_1_joint": 0.2363711471207105,
        "distance_wrist_2_joint": 1.0983070738399503,
        "distance_wrist_3_joint": 0.09519232090446472,
        "smoothness": 2.2204460668324854e-16,
        "time": 0.022113805,
        "traj_len": 1.605447699726051,
        "weighted_distance": 2.0254691257398267
    },
    "planner": "LazyPRM",
    "start": {
        "state": {
            "elbow_joint": 1.9715477243005601,
            "shoulder_lift_joint": -1.1394853015351272,
            "shoulder_pan_joint": 0.12281154014795169,
            "wrist_1_joint": -0.7804696478968182,
            "wrist_2_joint": 0.12958648046900423,
            "wrist_3_joint": -3.192491284697111
        }
    },
    "waypoints": [
        {
            "positions": [
                0.12281154014795169,
                -1.1394853015351272,
                1.9715477243005601,
                -0.7804696478968182,
                0.12958648046900423,
                -3.192491284697111
            ]
        },
        {
            "positions": [
                0.05664630971266241,
                -1.1731138816980338,
                2.035695595801013,
                -0.8142369546283482,
                0.28648749101756854,
                -3.1788923817107593
            ]
        },
        {
            "positions": [
                -0.009518920722626875,
                -1.2067424618609406,
                2.0998434673014663,
                -0.8480042613598783,
                0.44338850156613285,
                -3.165293478724407
            ]
        },
        {
            "positions": [
                -0.07568415115791617,
                -1.2403710420238472,
                2.163991338801919,
                -0.8817715680914083,
                0.6002895121146972,
                -3.151694575738055
            ]
        },
        {
            "positions": [
                -0.14184938159320543,
                -1.2739996221867538,
                2.228139210302372,
                -0.9155388748229385,
                0.7571905226632615,
                -3.1380956727517026
            ]
        },
        {
            "positions": [
                -0.20801461202849475,
                -1.3076282023496604,
                2.292287081802825,
                -0.9493061815544686,
                0.9140915332118259,
                -3.1244967697653507
            ]
        },
        {
            "positions": [
                -0.274179842463784,
                -1.3412567825125672,
                2.3564349533032782,
                -0.9830734882859986,
                1.07099254376039,
                -3.1108978667789984
            ]
        },
        {
            "positions": [
                -0.34034507289907334,
                -1.3748853626754738,
                2.420582824803731,
                -1.0168407950175287,
                1.2278935543089544,
                -3.0972989637926465
            ]
        }
    ]
}