{
    "goal": {
        "global_pose": {
            "orientation": {
                "w": 0.5084816217422485,
                "x": -0.49083608388900757,
                "y": 0.5182115435600281,
                "z": -0.4816462993621826
            },
            "position": {
                "x": 0.5540239810943604,
                "y": 0.030875300988554955,
                "z": 0.16403168439865112
            }
        },
        "name": "move_to_storage_A"
    },
    "id": "LazyPRM_move_to_storage_A_68",
    "joint_names": [
        "shoulder_pan_joint",
        "shoulder_lift_joint",
        "elbow_joint",
        "wrist_1_joint",
        "wrist_2_joint",
        "wrist_3_joint"
    ],
    "metrics": {
        "cart_traj_len": 0.35284100775576727,
        "distance_elbow_joint": 0.45037348892180074,
        "distance_shoulder_lift_joint": 0.23416019910017072,
        "distance_shoulder_pan_joint": 0.4581631453599366,
        "distance_wrist_1_joint": 0.24652539687128183,
        "distance_wrist_2_joint": 1.1120634280174264,
        "distance_wrist_3_joint": 0.09499946633222622,
        "smoothness": 9.992007271825419e-16,
        "time": 0.012001821000000001,
        "traj_len": 1.6112992039353966,
        "weighted_distance": 2.0358960882510684
    },
    "planner": "LazyPRM",
    "start": {
        "state": {
            "elbow_joint": 1.9715477243005601,
            "shoulder_lift_joint": -1.1394853015351272,
            "shoulder_pan_joint": 0.12281154014795169,
            "wrist_1_joint": -0.7804696478968182,
            "wrist_2_joint": 0.12958648046900423,
            "wrist_3_joint": -3.192491284697111
        }
    },
    "waypoints": [
        {
            "positions": [
                0.12281154014795169,
                -1.1394853015351272,
                1.9715477243005601,
                -0.7804696478968182,
                0.12958648046900423,
                -3.192491284697111
            ]
        },
        {
            "positions": [
                0.05735966223938932,
                -1.1729367585494372,
                2.0358867941465317,
                -0.8156875617355727,
                0.28845268447149375,
                -3.178919932363936
            ]
        },
        {
            "positions": [
                -0.00809221566917305,
                -1.2063882155637473,
                2.1002258639925033,
                -0.8509054755743273,
                0.4473188884739832,
                -3.165348580030761
            ]
        },
        {
            "positions": [
                -0.0735440935777354,
                -1.2398396725780574,
                2.164564933838475,
                -0.8861233894130818,
                0.6061850924764727,
                -3.1517772276975857
            ]
        },
        {
            "positions": [
                -0.13899597148629778,
                -1.2732911295923675,
                2.228904003684446,
                -0.9213413032518364,
                0.7650512964789622,
                -3.1382058753644104
            ]
        },
        {
            "positions": [
                -0.20444784939486016,
                -1.3067425866066777,
                2.2932430735304177,
                -0.9565592170905909,
                0.9239175004814517,
                -3.124634523031235
            ]
        },
        {
            "positions": [
                -0.2698997273034225,
                -1.3401940436209878,
                2.3575821433763893,
                -0.9917771309293455,
                1.082783704483941,
                -3.1110631706980603
            ]
        },
        {
            "positions": [
                -0.33535160521198487,
                -1.3736455006352979,
                2.421921213222361,
                -1.0269950447681,
                1.2416499084864308,
                -3.097491818364885
            ]
        }
    ]
}