{
    "goal": {
        "global_pose": {
            "orientation": {
                "w": 0.7047431468963623,
                "x": -0.7094548344612122,
                "y": 0.0024358443915843964,
                "z": -0.0022348060738295317
            },
            "position": {
                "x": 0.6094750761985779,
                "y": 0.3671506643295288,
                "z": 0.19426114857196808
            }
        },
        "name": "move_to_magneteinheit_A"
    },
    "id": "LazyPRM_move_to_magneteinheit_A_10",
    "joint_names": [
        "shoulder_pan_joint",
        "shoulder_lift_joint",
        "elbow_joint",
        "wrist_1_joint",
        "wrist_2_joint",
        "wrist_3_joint"
    ],
    "metrics": {
        "cart_traj_len": 3.2754401791950207,
        "distance_elbow_joint": 3.8709490863005565,
        "distance_shoulder_lift_joint": 0.47873321600786745,
        "distance_shoulder_pan_joint": 2.7421226244596393,
        "distance_wrist_1_joint": 2.8178963337009577,
        "distance_wrist_2_joint": 2.828777995611792,
        "distance_wrist_3_joint": 2.5784258171256242,
        "smoothness": 0.31318179875469576,
        "time": 0.10855308,
        "traj_len": 3.913681779757577,
        "weighted_distance": 5.110815104929001
    },
    "planner": "LazyPRM",
    "start": {
        "state": {
            "elbow_joint": -1.919618573717145,
            "shoulder_lift_joint": -1.2443395971678275,
            "shoulder_pan_joint": 2.6996025300909787,
            "wrist_1_joint": -1.548550951253194,
            "wrist_2_joint": -1.5709469090946802,
            "wrist_3_joint": 0.4420197732051276
        }
    },
    "waypoints": [
        {
            "positions": [
                2.6996025300909787,
                -1.2443395971678275,
                -1.919618573717145,
                -1.548550951253194,
                -1.5709469090946802,
                0.4420197732051276
            ]
        },
        {
            "positions": [
                2.6187916094599353,
                -1.2499967495717637,
                -1.8195144636714937,
                -1.491196499061128,
                -1.5001863858586653,
                0.5118459842440615
            ]
        },
        {
            "positions": [
                2.5379806888288914,
                -1.2556539019756996,
                -1.7194103536258423,
                -1.4338420468690618,
                -1.4294258626226501,
                0.5816721952829953
            ]
        },
        {
            "positions": [
                2.457169768197848,
                -1.2613110543796358,
                -1.619306243580191,
                -1.3764875946769957,
                -1.3586653393866353,
                0.6514984063219292
            ]
        },
        {
            "positions": [
                2.3763588475668045,
                -1.266968206783572,
                -1.5192021335345396,
                -1.3191331424849295,
                -1.2879048161506201,
                0.7213246173608632
            ]
        },
        {
            "positions": [
                2.295547926935761,
                -1.2726253591875079,
                -1.4190980234888884,
                -1.2617786902928634,
                -1.2171442929146052,
                0.791150828399797
            ]
        },
        {
            "positions": [
                2.214737006304717,
                -1.278282511591444,
                -1.318993913443237,
                -1.2044242381007972,
                -1.1463837696785903,
                0.8609770394387308
            ]
        },
        {
            "positions": [
                2.1339260856736737,
                -1.2839396639953802,
                -1.2188898033975857,
                -1.147069785908731,
                -1.0756232464425755,
                0.9308032504776648
            ]
        },
        {
            "positions": [
                2.0531151650426303,
                -1.2895968163993161,
                -1.1187856933519345,
                -1.089715333716665,
                -1.0048627232065603,
                1.0006294615165987
            ]
        },
        {
            "positions": [
                1.9723042444115866,
                -1.2952539688032523,
                -1.018681583306283,
                -1.0323608815245988,
                -0.9341021999705453,
                1.0704556725555325
            ]
        },
        {
            "positions": [
                1.891493323780543,
                -1.3009111212071884,
                -0.9185774732606318,
                -0.9750064293325328,
                -0.8633416767345303,
                1.1402818835944664
            ]
        },
        {
            "positions": [
                1.8106824031494995,
                -1.3065682736111244,
                -0.8184733632149803,
                -0.9176519771404666,
                -0.7925811534985154,
                1.2101080946334004
            ]
        },
        {
            "positions": [
                1.7298714825184558,
                -1.3122254260150605,
                -0.7183692531693291,
                -0.8602975249484005,
                -0.7218206302625004,
                1.2799343056723342
            ]
        },
        {
            "positions": [
                1.6490605618874123,
                -1.3178825784189967,
                -0.6182651431236776,
                -0.8029430727563344,
                -0.6510601070264854,
                1.349760516711268
            ]
        },
        {
            "positions": [
                1.5682496412563687,
                -1.3235397308229326,
                -0.5181610330780264,
                -0.7455886205642682,
                -0.5802995837904705,
                1.419586727750202
            ]
        },
        {
            "positions": [
                1.4874387206253252,
                -1.3291968832268688,
                -0.41805692303237496,
                -0.6882341683722021,
                -0.5095390605544554,
                1.489412938789136
            ]
        },
        {
            "positions": [
                1.4066277999942816,
                -1.334854035630805,
                -0.31795281298672373,
                -0.6308797161801359,
                -0.4387785373184405,
                1.5592391498280698
            ]
        },
        {
            "positions": [
                1.3258168793632379,
                -1.340511188034741,
                -0.2178487029410725,
                -0.5735252639880698,
                -0.3680180140824256,
                1.6290653608670036
            ]
        },
        {
            "positions": [
                1.2450059587321944,
                -1.346168340438677,
                -0.11774459289542105,
                -0.5161708117960038,
                -0.2972574908464105,
                1.6988915719059374
            ]
        },
        {
            "positions": [
                1.1641950381011508,
                -1.3518254928426132,
                -0.017640482849769823,
                -0.45881635960393763,
                -0.22649696761039562,
                1.7687177829448715
            ]
        },
        {
            "positions": [
                1.0833841174701073,
                -1.3574826452465492,
                0.0824636271958814,
                -0.4014619074118715,
                -0.1557364443743805,
                1.8385439939838053
            ]
        },
        {
            "positions": [
                1.0025731968390637,
                -1.3631397976504853,
                0.18256773724153308,
                -0.34410745521980535,
                -0.0849759211383656,
                1.9083702050227391
            ]
        },
        {
            "positions": [
                0.9217622762080202,
                -1.3687969500544213,
                0.2826718472871843,
                -0.2867530030277392,
                -0.014215397902350713,
                1.9781964160616732
            ]
        },
        {
            "positions": [
                0.8409513555769765,
                -1.3744541024583574,
                0.38277595733283554,
                -0.22939855083567307,
                0.0565451253336644,
                2.048022627100607
            ]
        },
        {
            "positions": [
                0.7601404349459329,
                -1.3801112548622936,
                0.48288006737848677,
                -0.17204409864360692,
                0.1273056485696793,
                2.117848838139541
            ]
        },
        {
            "positions": [
                0.6793295143148894,
                -1.3857684072662295,
                0.582984177424138,
                -0.11468964645154078,
                0.1980661718056942,
                2.1876750491784747
            ]
        },
        {
            "positions": [
                0.598518593683846,
                -1.3914255596701657,
                0.6830882874697897,
                -0.05733519425947464,
                0.2688266950417093,
                2.2575012602174085
            ]
        },
        {
            "positions": [
                0.5177076730528021,
                -1.3970827120741018,
                0.7831923975154409,
                1.9257932591498772e-05,
                0.3395872182777242,
                2.3273274712563423
            ]
        },
        {
            "positions": [
                0.4368967524217586,
                -1.4027398644780378,
                0.8832965075610921,
                0.05737371012465764,
                0.4103477415137391,
                2.397153682295276
            ]
        },
        {
            "positions": [
                0.3560858317907152,
                -1.408397016881974,
                0.9834006176067434,
                0.11472816231672378,
                0.481108264749754,
                2.4669798933342104
            ]
        },
        {
            "positions": [
                0.27527491115967173,
                -1.41405416928591,
                1.083504727652395,
                0.17208261450878992,
                0.5518687879857693,
                2.5368061043731442
            ]
        },
        {
            "positions": [
                0.19446399052862784,
                -1.419711321689846,
                1.1836088376980463,
                0.22943706670085606,
                0.6226293112217842,
                2.606632315412078
            ]
        },
        {
            "positions": [
                0.11365306989758446,
                -1.4253684740937822,
                1.2837129477436975,
                0.28679151889292215,
                0.6933898344577993,
                2.676458526451012
            ]
        },
        {
            "positions": [
                0.1031216629016099,
                -1.3909999070808146,
                1.3684988292136817,
                0.15538866239256627,
                0.6168203972928792,
                2.7195906365107976
            ]
        },
        {
            "positions": [
                0.09259025590563533,
                -1.3566313400678467,
                1.453284710683666,
                0.023985805892210388,
                0.540250960127959,
                2.7627227465705833
            ]
        },
        {
            "positions": [
                0.08205884890966075,
                -1.322262773054879,
                1.53807059215365,
                -0.10741705060814549,
                0.4636815229630389,
                2.805854856630369
            ]
        },
        {
            "positions": [
                0.0715274419136862,
                -1.2878942060419112,
                1.6228564736236342,
                -0.23881990710850137,
                0.38711208579811873,
                2.848986966690155
            ]
        },
        {
            "positions": [
                0.06099603491771162,
                -1.2535256390289435,
                1.7076423550936184,
                -0.37022276360885736,
                0.3105426486331986,
                2.8921190767499407
            ]
        },
        {
            "positions": [
                0.05046462792173706,
                -1.219157072015976,
                1.7924282365636026,
                -0.5016256201092131,
                0.23397321146827843,
                2.9352511868097264
            ]
        },
        {
            "positions": [
                0.039933220925762486,
                -1.184788505003008,
                1.8772141180335868,
                -0.6330284766095692,
                0.15740377430335833,
                2.978383296869512
            ]
        },
        {
            "positions": [
                0.12238653622018558,
                -1.1276641350118695,
                1.9513305125834117,
                -0.6957623446619191,
                0.1289485823984877,
                3.020445590330752
            ]
        }
    ]
}{
    "goal": {
        "global_pose": {
            "orientation": {
                "w": 0.7047431468963623,
                "x": -0.7094548344612122,
                "y": 0.0024358443915843964,
                "z": -0.0022348060738295317
            },
            "position": {
                "x": 0.6094750761985779,
                "y": 0.3671506643295288,
                "z": 0.19426114857196808
            }
        },
        "name": "move_to_magneteinheit_A"
    },
    "id": "LazyPRM_move_to_magneteinheit_A_10",
    "joint_names": [
        "shoulder_pan_joint",
        "shoulder_lift_joint",
        "elbow_joint",
        "wrist_1_joint",
        "wrist_2_joint",
        "wrist_3_joint"
    ],
    "metrics": {
        "cart_traj_len": 1.2264932061291454,
        "distance_elbow_joint": 0.08337238913854983,
        "distance_shoulder_lift_joint": 0.7571650193914641,
        "distance_shoulder_pan_joint": 1.2420015386770538,
        "distance_wrist_1_joint": 0.7998212699606778,
        "distance_wrist_2_joint": 1.5573122481887365,
        "distance_wrist_3_joint": 4.296742570886331,
        "smoothness": 0.28698791022831804,
        "time": 0.145350661,
        "traj_len": 2.9557427215917853,
        "weighted_distance": 4.437007290524199
    },
    "planner": "LazyPRM",
    "start": {
        "state": {
            "elbow_joint": 1.919643534880228,
            "shoulder_lift_joint": -1.8972525353963687,
            "shoulder_pan_joint": -1.1188672234189438,
            "wrist_1_joint": -1.5931878212786155,
            "wrist_2_joint": 1.5706036197970081,
            "wrist_3_joint": 1.118896926603594
        }
    },
    "waypoints": [
        {
            "positions": [
                -1.1188672234189438,
                -1.8972525353963687,
                1.919643534880228,
                -1.5931878212786155,
                1.5706036197970081,
                1.118896926603594
            ]
        },
        {
            "positions": [
                -1.063260272902296,
                -1.863112335214157,
                1.9189738683729385,
                -1.558731962937028,
                1.5022772256298054,
                0.9242519039803279
            ]
        },
        {
            "positions": [
                -1.0076533223856479,
                -1.8289721350319454,
                1.918304201865649,
                -1.5242761045954403,
                1.4339508314626024,
                0.7296068813570616
            ]
        },
        {
            "positions": [
                -0.952046371869,
                -1.7948319348497337,
                1.9176345353583595,
                -1.4898202462538528,
                1.3656244372953996,
                0.5349618587337955
            ]
        },
        {
            "positions": [
                -0.8964394213523519,
                -1.760691734667522,
                1.9169648688510699,
                -1.455364387912265,
                1.2972980431281966,
                0.3403168361105293
            ]
        },
        {
            "positions": [
                -0.840832470835704,
                -1.7265515344853104,
                1.9162952023437805,
                -1.4209085295706776,
                1.2289716489609939,
                0.1456718134872632
            ]
        },
        {
            "positions": [
                -0.785225520319056,
                -1.6924113343030986,
                1.9156255358364909,
                -1.3864526712290899,
                1.160645254793791,
                -0.04897320913600289
            ]
        },
        {
            "positions": [
                -0.729618569802408,
                -1.658271134120887,
                1.9149558693292013,
                -1.3519968128875024,
                1.0923188606265881,
                -0.24361823175926922
            ]
        },
        {
            "positions": [
                -0.6740116192857599,
                -1.6241309339386754,
                1.9142862028219119,
                -1.3175409545459147,
                1.0239924664593851,
                -0.43826325438253533
            ]
        },
        {
            "positions": [
                -0.618404668769112,
                -1.5899907337564636,
                1.9136165363146223,
                -1.2830850962043272,
                0.9556660722921824,
                -0.6329082770058017
            ]
        },
        {
            "positions": [
                -0.562797718252464,
                -1.5558505335742518,
                1.9129468698073326,
                -1.2486292378627395,
                0.8873396781249796,
                -0.8275532996290675
            ]
        },
        {
            "positions": [
                -0.5071907677358161,
                -1.5217103333920403,
                1.912277203300043,
                -1.214173379521152,
                0.8190132839577767,
                -1.0221983222523339
            ]
        },
        {
            "positions": [
                -0.4515838172191682,
                -1.4875701332098286,
                1.9116075367927536,
                -1.1797175211795645,
                0.750686889790574,
                -1.2168433448755998
            ]
        },
        {
            "positions": [
                -0.3959768667025201,
                -1.4534299330276168,
                1.910937870285464,
                -1.1452616628379768,
                0.682360495623371,
                -1.4114883674988665
            ]
        },
        {
            "positions": [
                -0.3403699161858721,
                -1.4192897328454053,
                1.9102682037781744,
                -1.1108058044963893,
                0.6140341014561682,
                -1.6061333901221324
            ]
        },
        {
            "positions": [
                -0.2847629656692242,
                -1.3851495326631935,
                1.909598537270885,
                -1.0763499461548016,
                0.5457077072889653,
                -1.8007784127453983
            ]
        },
        {
            "positions": [
                -0.2291560151525761,
                -1.3510093324809818,
                1.9089288707635954,
                -1.0418940878132141,
                0.47738131312176235,
                -1.9954234353686646
            ]
        },
        {
            "positions": [
                -0.17354906463592823,
                -1.3168691322987702,
                1.9082592042563058,
                -1.0074382294716266,
                0.4090549189545596,
                -2.1900684579919307
            ]
        },
        {
            "positions": [
                -0.11794211411928024,
                -1.2827289321165583,
                1.9075895377490164,
                -0.9729823711300388,
                0.3407285247873566,
                -2.384713480615197
            ]
        },
        {
            "positions": [
                -0.06233516360263214,
                -1.2485887319343467,
                1.9069198712417268,
                -0.9385265127884513,
                0.27240213062015384,
                -2.5793585032384634
            ]
        },
        {
            "positions": [
                -0.006728213085984258,
                -1.2144485317521352,
                1.9062502047344372,
                -0.9040706544468637,
                0.20407573645295107,
                -2.774003525861729
            ]
        },
        {
            "positions": [
                0.04887873743066384,
                -1.1803083315699232,
                1.9055805382271478,
                -0.8696147961052761,
                0.1357493422857481,
                -2.968648548484995
            ]
        },
        {
            "positions": [
                0.10448568794731175,
                -1.1461681313877117,
                1.9049108717198582,
                -0.8351589377636885,
                0.06742294811854535,
                -3.1632935711082615
            ]
        },
        {
            "positions": [
                0.12313431525811006,
                -1.1400875160049047,
                1.973550597698038,
                -0.7933665513179377,
                0.12155452462881901,
                -3.177845644282737
            ]
        }
    ]
}