{
    "goal": {
        "global_pose": {
            "orientation": {
                "w": 0.7047431468963623,
                "x": -0.7094548344612122,
                "y": 0.0024358443915843964,
                "z": -0.0022348060738295317
            },
            "position": {
                "x": 0.6094750761985779,
                "y": 0.3671506643295288,
                "z": 0.19426114857196808
            }
        },
        "name": "move_to_magneteinheit_A"
    },
    "id": "LazyPRMstar_move_to_magneteinheit_A_38",
    "joint_names": [
        "shoulder_pan_joint",
        "shoulder_lift_joint",
        "elbow_joint",
        "wrist_1_joint",
        "wrist_2_joint",
        "wrist_3_joint"
    ],
    "metrics": {
        "cart_traj_len": 3.485155206415723,
        "distance_elbow_joint": 3.883632136035903,
        "distance_shoulder_lift_joint": 0.10993995289797853,
        "distance_shoulder_pan_joint": 2.6513238055442527,
        "distance_wrist_1_joint": 0.7992811182979728,
        "distance_wrist_2_joint": 1.9393420551082834,
        "distance_wrist_3_joint": 2.628532807565334,
        "smoothness": 0.056008261413972894,
        "time": 5.031275020000001,
        "traj_len": 3.465840716976145,
        "weighted_distance": 4.473001303821255
    },
    "planner": "LazyPRMstar",
    "start": {
        "state": {
            "elbow_joint": -1.919618573717145,
            "shoulder_lift_joint": -1.2443395971678275,
            "shoulder_pan_joint": 2.6996025300909787,
            "wrist_1_joint": -1.548550951253194,
            "wrist_2_joint": -1.5709469090946802,
            "wrist_3_joint": 0.4420197732051276
        }
    },
    "waypoints": [
        {
            "positions": [
                2.6996025300909787,
                -1.2443395971678275,
                -1.919618573717145,
                -1.548550951253194,
                -1.5709469090946802,
                0.4420197732051276
            ]
        },
        {
            "positions": [
                2.5987997362471784,
                -1.2430811336940188,
                -1.7901196288311898,
                -1.5251855855151015,
                -1.4892040655120768,
                0.4912492762803471
            ]
        },
        {
            "positions": [
                2.4979969424033777,
                -1.24182267022021,
                -1.6606206839452347,
                -1.5018202197770087,
                -1.4074612219294735,
                0.5404787793555667
            ]
        },
        {
            "positions": [
                2.3971941485595774,
                -1.2405642067464013,
                -1.5311217390592797,
                -1.4784548540389162,
                -1.3257183783468705,
                0.5897082824307862
            ]
        },
        {
            "positions": [
                2.2963913547157766,
                -1.2393057432725927,
                -1.4016227941733246,
                -1.4550894883008236,
                -1.2439755347642671,
                0.6389377855060057
            ]
        },
        {
            "positions": [
                2.1955885608719763,
                -1.2380472797987838,
                -1.2721238492873694,
                -1.4317241225627308,
                -1.1622326911816638,
                0.6881672885812252
            ]
        },
        {
            "positions": [
                2.094785767028176,
                -1.2367888163249752,
                -1.1426249044014143,
                -1.4083587568246383,
                -1.0804898475990607,
                0.7373967916564448
            ]
        },
        {
            "positions": [
                1.9939829731843755,
                -1.2355303528511663,
                -1.0131259595154591,
                -1.3849933910865457,
                -0.9987470040164573,
                0.7866262947316642
            ]
        },
        {
            "positions": [
                1.893180179340575,
                -1.2342718893773577,
                -0.883627014629504,
                -1.361628025348453,
                -0.917004160433854,
                0.8358557978068839
            ]
        },
        {
            "positions": [
                1.7923773854967744,
                -1.233013425903549,
                -0.7541280697435486,
                -1.3382626596103604,
                -0.8352613168512508,
                0.8850853008821034
            ]
        },
        {
            "positions": [
                1.691574591652974,
                -1.2317549624297401,
                -0.6246291248575937,
                -1.3148972938722678,
                -0.7535184732686476,
                0.9343148039573228
            ]
        },
        {
            "positions": [
                1.5907717978091735,
                -1.2304964989559315,
                -0.49513017997163855,
                -1.2915319281341753,
                -0.6717756296860443,
                0.9835443070325425
            ]
        },
        {
            "positions": [
                1.4899690039653732,
                -1.2292380354821228,
                -0.3656312350856836,
                -1.2681665623960825,
                -0.5900327861034411,
                1.032773810107762
            ]
        },
        {
            "positions": [
                1.3891662101215725,
                -1.227979572008314,
                -0.23613229019972826,
                -1.24480119665799,
                -0.5082899425208378,
                1.0820033131829816
            ]
        },
        {
            "positions": [
                1.2883634162777722,
                -1.2267211085345053,
                -0.10663334531377311,
                -1.2214358309198974,
                -0.4265470989382345,
                1.131232816258201
            ]
        },
        {
            "positions": [
                1.1875606224339719,
                -1.2254626450606967,
                0.022865599572181816,
                -1.1980704651818046,
                -0.3448042553556314,
                1.1804623193334205
            ]
        },
        {
            "positions": [
                1.0867578285901711,
                -1.2242041815868878,
                0.15236454445813696,
                -1.174705099443712,
                -0.2630614117730279,
                1.2296918224086402
            ]
        },
        {
            "positions": [
                0.9859550347463708,
                -1.2229457181130792,
                0.2818634893440921,
                -1.1513397337056195,
                -0.1813185681904248,
                1.2789213254838596
            ]
        },
        {
            "positions": [
                0.88515224090257,
                -1.2216872546392703,
                0.4113624342300477,
                -1.1279743679675267,
                -0.09957572460782149,
                1.3281508285590793
            ]
        },
        {
            "positions": [
                0.7843494470587697,
                -1.2204287911654617,
                0.5408613791160024,
                -1.1046090022294341,
                -0.017832881025218184,
                1.3773803316342987
            ]
        },
        {
            "positions": [
                0.6835466532149694,
                -1.219170327691653,
                0.6703603240019576,
                -1.0812436364913416,
                0.0639099625573849,
                1.4266098347095182
            ]
        },
        {
            "positions": [
                0.5827438593711687,
                -1.2179118642178441,
                0.7998592688879127,
                -1.0578782707532488,
                0.14565280613998843,
                1.4758393377847379
            ]
        },
        {
            "positions": [
                0.48194106552736815,
                -1.2166534007440355,
                0.9293582137738678,
                -1.0345129050151562,
                0.22739564972259155,
                1.5250688408599573
            ]
        },
        {
            "positions": [
                0.40612523083703755,
                -1.209026690428175,
                1.0749193148335634,
                -1.023383650629374,
                0.23486562531571362,
                1.6326961387212762
            ]
        },
        {
            "positions": [
                0.33030939614670696,
                -1.2013999801123147,
                1.2204804158932587,
                -1.012254396243592,
                0.2423356009088357,
                1.740323436582595
            ]
        },
        {
            "positions": [
                0.25449356145637636,
                -1.1937732697964543,
                1.3660415169529543,
                -1.0011251418578098,
                0.24980557650195778,
                1.847950734443914
            ]
        },
        {
            "positions": [
                0.21231950225805135,
                -1.1868593610125284,
                1.4761951426331192,
                -0.9818009463128687,
                0.23764494508476408,
                1.9823681074065993
            ]
        },
        {
            "positions": [
                0.17014544305972631,
                -1.1799454522286026,
                1.5863487683132842,
                -0.9624767507679278,
                0.2254843136675704,
                2.1167854803692845
            ]
        },
        {
            "positions": [
                0.12797138386140128,
                -1.1730315434446765,
                1.696502393993449,
                -0.9431525552229869,
                0.21332368225037673,
                2.25120285333197
            ]
        },
        {
            "positions": [
                0.08579732466307627,
                -1.1661176346607507,
                1.8066560196736139,
                -0.9238283596780459,
                0.20116305083318303,
                2.3856202262946553
            ]
        },
        {
            "positions": [
                0.09830352470185977,
                -1.1555449711971169,
                1.859108533888662,
                -0.865642184103771,
                0.17784736955222616,
                2.613931011119924
            ]
        },
        {
            "positions": [
                0.11080972474064325,
                -1.1449723077334828,
                1.9115610481037097,
                -0.8074560085294962,
                0.15453168827126929,
                2.842241795945193
            ]
        },
        {
            "positions": [
                0.12331592477942675,
                -1.134399644269849,
                1.9640135623187578,
                -0.7492698329552213,
                0.1312160069903124,
                3.0705525807704617
            ]
        }
    ]
}{
    "goal": {
        "global_pose": {
            "orientation": {
                "w": 0.7047431468963623,
                "x": -0.7094548344612122,
                "y": 0.0024358443915843964,
                "z": -0.0022348060738295317
            },
            "position": {
                "x": 0.6094750761985779,
                "y": 0.3671506643295288,
                "z": 0.19426114857196808
            }
        },
        "name": "move_to_magneteinheit_A"
    },
    "id": "LazyPRMstar_move_to_magneteinheit_A_38",
    "joint_names": [
        "shoulder_pan_joint",
        "shoulder_lift_joint",
        "elbow_joint",
        "wrist_1_joint",
        "wrist_2_joint",
        "wrist_3_joint"
    ],
    "metrics": {
        "cart_traj_len": 1.2025085009961929,
        "distance_elbow_joint": 0.04957969462620704,
        "distance_shoulder_lift_joint": 0.7600411034398225,
        "distance_shoulder_pan_joint": 1.2416627885354559,
        "distance_wrist_1_joint": 0.8307107791397031,
        "distance_wrist_2_joint": 1.431267024620607,
        "distance_wrist_3_joint": 1.9455377358080794,
        "smoothness": 0.0,
        "time": 5.000337517,
        "traj_len": 2.501759206272633,
        "weighted_distance": 3.5230458983025392
    },
    "planner": "LazyPRMstar",
    "start": {
        "state": {
            "elbow_joint": 1.919643534880228,
            "shoulder_lift_joint": -1.8972525353963687,
            "shoulder_pan_joint": -1.1188672234189438,
            "wrist_1_joint": -1.5931878212786155,
            "wrist_2_joint": 1.5706036197970081,
            "wrist_3_joint": 1.118896926603594
        }
    },
    "waypoints": [
        {
            "positions": [
                -1.1188672234189438,
                -1.8972525353963687,
                1.919643534880228,
                -1.5931878212786155,
                1.5706036197970081,
                1.118896926603594
            ]
        },
        {
            "positions": [
                -1.0412632991354778,
                -1.84974996643138,
                1.922742265794366,
                -1.541268397582384,
                1.4811494307582203,
                1.240493035091599
            ]
        },
        {
            "positions": [
                -0.9636593748520119,
                -1.8022473974663908,
                1.925840996708504,
                -1.4893489738861525,
                1.3916952417194324,
                1.3620891435796039
            ]
        },
        {
            "positions": [
                -0.8860554505685458,
                -1.754744828501402,
                1.9289397276226419,
                -1.437429550189921,
                1.3022410526806443,
                1.483685252067609
            ]
        },
        {
            "positions": [
                -0.8084515262850799,
                -1.7072422595364132,
                1.9320384585367798,
                -1.3855101264936898,
                1.2127868636418564,
                1.6052813605556138
            ]
        },
        {
            "positions": [
                -0.7308476020016139,
                -1.6597396905714241,
                1.9351371894509177,
                -1.3335907027974583,
                1.1233326746030685,
                1.7268774690436188
            ]
        },
        {
            "positions": [
                -0.6532436777181478,
                -1.6122371216064353,
                1.9382359203650557,
                -1.2816712791012268,
                1.0338784855642804,
                1.8484735775316237
            ]
        },
        {
            "positions": [
                -0.5756397534346819,
                -1.5647345526414465,
                1.9413346512791936,
                -1.2297518554049953,
                0.9444242965254925,
                1.9700696860196287
            ]
        },
        {
            "positions": [
                -0.4980358291512159,
                -1.5172319836764574,
                1.9444333821933317,
                -1.1778324317087638,
                0.8549701074867047,
                2.091665794507634
            ]
        },
        {
            "positions": [
                -0.42043190486774995,
                -1.4697294147114686,
                1.9475321131074697,
                -1.1259130080125326,
                0.7655159184479168,
                2.2132619029956384
            ]
        },
        {
            "positions": [
                -0.342827980584284,
                -1.4222268457464797,
                1.9506308440216076,
                -1.0739935843163009,
                0.6760617294091288,
                2.334858011483644
            ]
        },
        {
            "positions": [
                -0.2652240563008179,
                -1.3747242767814907,
                1.9537295749357455,
                -1.0220741606200696,
                0.5866075403703408,
                2.4564541199716485
            ]
        },
        {
            "positions": [
                -0.18762013201735195,
                -1.3272217078165018,
                1.9568283058498834,
                -0.9701547369238381,
                0.4971533513315529,
                2.5780502284596536
            ]
        },
        {
            "positions": [
                -0.11001620773388598,
                -1.279719138851513,
                1.9599270367640214,
                -0.9182353132276067,
                0.40769916229276504,
                2.6996463369476587
            ]
        },
        {
            "positions": [
                -0.03241228345041991,
                -1.232216569886524,
                1.9630257676781593,
                -0.8663158895313752,
                0.31824497325397694,
                2.8212424454356633
            ]
        },
        {
            "positions": [
                0.04519164083304594,
                -1.1847140009215353,
                1.9661244985922972,
                -0.8143964658351438,
                0.22879078421518906,
                2.9428385539236683
            ]
        },
        {
            "positions": [
                0.12279556511651198,
                -1.1372114319565463,
                1.9692232295064351,
                -0.7624770421389123,
                0.13933659517640115,
                3.0644346624116734
            ]
        }
    ]
}