{
    "goal": {
        "global_pose": {
            "orientation": {
                "w": 0.5084816217422485,
                "x": -0.49083608388900757,
                "y": 0.5182115435600281,
                "z": -0.4816462993621826
            },
            "position": {
                "x": 0.5540239810943604,
                "y": 0.030875300988554955,
                "z": 0.16403168439865112
            }
        },
        "name": "move_to_storage_A"
    },
    "id": "LazyPRMstar_move_to_storage_A_114",
    "joint_names": [
        "shoulder_pan_joint",
        "shoulder_lift_joint",
        "elbow_joint",
        "wrist_1_joint",
        "wrist_2_joint",
        "wrist_3_joint"
    ],
    "metrics": {
        "cart_traj_len": 0.352734351042587,
        "distance_elbow_joint": 0.4503071305215456,
        "distance_shoulder_lift_joint": 0.23250889402616393,
        "distance_shoulder_pan_joint": 0.4586657277271594,
        "distance_wrist_1_joint": 0.24893595044481598,
        "distance_wrist_2_joint": 1.1082565876242483,
        "distance_wrist_3_joint": 0.09457077449726592,
        "smoothness": 2.2204460668324854e-16,
        "time": 5.000093937,
        "traj_len": 1.6103555709349406,
        "weighted_distance": 2.0345955745319007
    },
    "planner": "LazyPRMstar",
    "start": {
        "state": {
            "elbow_joint": 1.9715477243005601,
            "shoulder_lift_joint": -1.1394853015351272,
            "shoulder_pan_joint": 0.12281154014795169,
            "wrist_1_joint": -0.7804696478968182,
            "wrist_2_joint": 0.12958648046900423,
            "wrist_3_joint": -3.192491284697111
        }
    },
    "waypoints": [
        {
            "positions": [
                0.12281154014795169,
                -1.1394853015351272,
                1.9715477243005601,
                -0.7804696478968182,
                0.12958648046900423,
                -3.192491284697111
            ]
        },
        {
            "positions": [
                0.057287864758357496,
                -1.1727008578245792,
                2.0358773143750666,
                -0.8160319265317919,
                0.2879088501296111,
                -3.1789811740546448
            ]
        },
        {
            "positions": [
                -0.008235810631236698,
                -1.205916414114031,
                2.100206904449573,
                -0.8515942051667655,
                0.446231219790218,
                -3.165471063412178
            ]
        },
        {
            "positions": [
                -0.07375948602083089,
                -1.239131970403483,
                2.1645364945240795,
                -0.8871564838017393,
                0.6045535894508249,
                -3.1519609527697114
            ]
        },
        {
            "positions": [
                -0.13928316141042507,
                -1.2723475266929352,
                2.228866084598586,
                -0.922718762436713,
                0.7628759591114318,
                -3.138450842127245
            ]
        },
        {
            "positions": [
                -0.20480683680001932,
                -1.3055630829823872,
                2.293195674673093,
                -0.9582810410716867,
                0.9211983287720388,
                -3.1249407314847786
            ]
        },
        {
            "positions": [
                -0.27033051218961346,
                -1.338778639271839,
                2.3575252647475993,
                -0.9938433197066604,
                1.0795206984326455,
                -3.1114306208423117
            ]
        },
        {
            "positions": [
                -0.3358541875792077,
                -1.371994195561291,
                2.4218548548221057,
                -1.0294055983416341,
                1.2378430680932524,
                -3.0979205101998453
            ]
        }
    ]
}