{
    "goal": {
        "global_pose": {
            "orientation": {
                "w": 0.7047431468963623,
                "x": -0.7094548344612122,
                "y": 0.0024358443915843964,
                "z": -0.0022348060738295317
            },
            "position": {
                "x": 0.6094750761985779,
                "y": 0.3671506643295288,
                "z": 0.19426114857196808
            }
        },
        "name": "move_to_magneteinheit_A"
    },
    "id": "LazyPRM_move_to_magneteinheit_A_116",
    "joint_names": [
        "shoulder_pan_joint",
        "shoulder_lift_joint",
        "elbow_joint",
        "wrist_1_joint",
        "wrist_2_joint",
        "wrist_3_joint"
    ],
    "metrics": {
        "cart_traj_len": 3.8762398065029906,
        "distance_elbow_joint": 3.885890066067436,
        "distance_shoulder_lift_joint": 0.5938792935684896,
        "distance_shoulder_pan_joint": 4.307218180406843,
        "distance_wrist_1_joint": 0.8011505167644847,
        "distance_wrist_2_joint": 1.9510599935407789,
        "distance_wrist_3_joint": 2.611541347592369,
        "smoothness": 0.2777216092982582,
        "time": 0.09540406600000001,
        "traj_len": 3.7617468545797177,
        "weighted_distance": 4.70383169378225
    },
    "planner": "LazyPRM",
    "start": {
        "state": {
            "elbow_joint": -1.919618573717145,
            "shoulder_lift_joint": -1.2443395971678275,
            "shoulder_pan_joint": 2.6996025300909787,
            "wrist_1_joint": -1.548550951253194,
            "wrist_2_joint": -1.5709469090946802,
            "wrist_3_joint": 0.4420197732051276
        }
    },
    "waypoints": [
        {
            "positions": [
                2.6996025300909787,
                -1.2443395971678275,
                -1.919618573717145,
                -1.548550951253194,
                -1.5709469090946802,
                0.4420197732051276
            ]
        },
        {
            "positions": [
                2.576655192243609,
                -1.2530129203893687,
                -1.8268327514389362,
                -1.5319346563540595,
                -1.5056060090393197,
                0.5213050044379091
            ]
        },
        {
            "positions": [
                2.4537078543962396,
                -1.26168624361091,
                -1.7340469291607272,
                -1.5153183614549248,
                -1.440265108983959,
                0.6005902356706905
            ]
        },
        {
            "positions": [
                2.33076051654887,
                -1.2703595668324512,
                -1.6412611068825185,
                -1.4987020665557902,
                -1.3749242089285987,
                0.679875466903472
            ]
        },
        {
            "positions": [
                2.2078131787015005,
                -1.2790328900539925,
                -1.5484752846043097,
                -1.4820857716566558,
                -1.3095833088732383,
                0.7591606981362535
            ]
        },
        {
            "positions": [
                2.084865840854131,
                -1.2877062132755335,
                -1.455689462326101,
                -1.4654694767575212,
                -1.2442424088178776,
                0.838445929369035
            ]
        },
        {
            "positions": [
                1.9619185030067614,
                -1.2963795364970747,
                -1.3629036400478922,
                -1.4488531818583865,
                -1.1789015087625172,
                0.9177311606018164
            ]
        },
        {
            "positions": [
                1.8389711651593919,
                -1.305052859718616,
                -1.2701178177696832,
                -1.4322368869592519,
                -1.1135606087071568,
                0.997016391834598
            ]
        },
        {
            "positions": [
                1.7160238273120223,
                -1.3137261829401572,
                -1.1773319954914745,
                -1.4156205920601173,
                -1.0482197086517964,
                1.0763016230673794
            ]
        },
        {
            "positions": [
                1.5930764894646527,
                -1.3223995061616984,
                -1.0845461732132655,
                -1.3990042971609826,
                -0.9828788085964356,
                1.155586854300161
            ]
        },
        {
            "positions": [
                1.4701291516172832,
                -1.3310728293832397,
                -0.9917603509350568,
                -1.382388002261848,
                -0.9175379085410752,
                1.2348720855329425
            ]
        },
        {
            "positions": [
                1.3471818137699136,
                -1.339746152604781,
                -0.898974528656848,
                -1.3657717073627136,
                -0.8521970084857147,
                1.314157316765724
            ]
        },
        {
            "positions": [
                1.224234475922544,
                -1.3484194758263222,
                -0.8061887063786393,
                -1.349155412463579,
                -0.7868561084303543,
                1.3934425479985053
            ]
        },
        {
            "positions": [
                1.1012871380751745,
                -1.3570927990478634,
                -0.7134028841004303,
                -1.3325391175644443,
                -0.7215152083749936,
                1.472727779231287
            ]
        },
        {
            "positions": [
                0.978339800227805,
                -1.3657661222694046,
                -0.6206170618222215,
                -1.3159228226653097,
                -0.6561743083196332,
                1.5520130104640684
            ]
        },
        {
            "positions": [
                0.8553924623804354,
                -1.3744394454909457,
                -0.5278312395440128,
                -1.299306527766175,
                -0.5908334082642728,
                1.6312982416968498
            ]
        },
        {
            "positions": [
                0.7324451245330659,
                -1.383112768712487,
                -0.43504541726580404,
                -1.2826902328670404,
                -0.5254925082089124,
                1.7105834729296312
            ]
        },
        {
            "positions": [
                0.6094977866856963,
                -1.3917860919340281,
                -0.3422595949875953,
                -1.266073937967906,
                -0.4601516081535517,
                1.7898687041624126
            ]
        },
        {
            "positions": [
                0.48655044883832677,
                -1.4004594151555694,
                -0.2494737727093861,
                -1.2494576430687712,
                -0.3948107080981911,
                1.8691539353951945
            ]
        },
        {
            "positions": [
                0.3636031109909572,
                -1.4091327383771106,
                -0.15668795043117734,
                -1.2328413481696368,
                -0.32946980804283066,
                1.948439166627976
            ]
        },
        {
            "positions": [
                0.24065577314358766,
                -1.4178060615986519,
                -0.06390212815296858,
                -1.2162250532705021,
                -0.26412890798747024,
                2.0277243978607573
            ]
        },
        {
            "positions": [
                0.1177084352962181,
                -1.426479384820193,
                0.028883694125240167,
                -1.1996087583713675,
                -0.1987880079321096,
                2.1070096290935387
            ]
        },
        {
            "positions": [
                -0.0052389025511514475,
                -1.4351527080417343,
                0.12166951640344892,
                -1.1829924634722329,
                -0.13344710787674918,
                2.18629486032632
            ]
        },
        {
            "positions": [
                -0.128186240398521,
                -1.4438260312632756,
                0.21445533868165767,
                -1.1663761685730982,
                -0.06810620782138876,
                2.2655800915591016
            ]
        },
        {
            "positions": [
                -0.25113357824589055,
                -1.4524993544848166,
                0.3072411609598664,
                -1.1497598736739638,
                -0.0027653077660283465,
                2.344865322791883
            ]
        },
        {
            "positions": [
                -0.3740809160932601,
                -1.4611726777063578,
                0.4000269832380756,
                -1.133143578774829,
                0.0625755922893323,
                2.424150554024665
            ]
        },
        {
            "positions": [
                -0.49702825394062966,
                -1.469846000927899,
                0.49281280551628437,
                -1.1165272838756946,
                0.12791649234469293,
                2.5034357852574463
            ]
        },
        {
            "positions": [
                -0.6199755917879992,
                -1.4785193241494403,
                0.5855986277944931,
                -1.09991098897656,
                0.19325739240005335,
                2.5827210164902277
            ]
        },
        {
            "positions": [
                -0.7429229296353685,
                -1.4871926473709816,
                0.6783844500727017,
                -1.0832946940774253,
                0.25859829245541377,
                2.662006247723009
            ]
        },
        {
            "positions": [
                -0.6468459606708691,
                -1.4481897314414998,
                0.8214830103257671,
                -1.045973109678679,
                0.24509664890089317,
                2.7055123447312854
            ]
        },
        {
            "positions": [
                -0.5507689917063696,
                -1.4091868155120182,
                0.9645815705788326,
                -1.0086515252799328,
                0.23159500534637256,
                2.749018441739562
            ]
        },
        {
            "positions": [
                -0.4546920227418702,
                -1.3701838995825364,
                1.1076801308318982,
                -0.9713299408811866,
                0.21809336179185196,
                2.792524538747838
            ]
        },
        {
            "positions": [
                -0.35861505377737074,
                -1.3311809836530546,
                1.2507786910849636,
                -0.9340083564824404,
                0.20459171823733135,
                2.8360306357561145
            ]
        },
        {
            "positions": [
                -0.2625380848128713,
                -1.292178067723573,
                1.3938772513380293,
                -0.8966867720836942,
                0.19109007468281075,
                2.8795367327643913
            ]
        },
        {
            "positions": [
                -0.16646111584837187,
                -1.2531751517940912,
                1.5369758115910948,
                -0.8593651876849481,
                0.17758843112829015,
                2.9230428297726676
            ]
        },
        {
            "positions": [
                -0.0703841468838724,
                -1.2141722358646094,
                1.6800743718441602,
                -0.8220436032862017,
                0.16408678757376954,
                2.966548926780944
            ]
        },
        {
            "positions": [
                0.025692822080627065,
                -1.1751693199351279,
                1.8231729320972256,
                -0.7847220188874556,
                0.15058514401924894,
                3.0100550237892203
            ]
        },
        {
            "positions": [
                0.12176979104512653,
                -1.136166404005646,
                1.9662714923502913,
                -0.7474004344887094,
                0.13708350046472834,
                3.0535611207974966
            ]
        }
    ]
}{
    "goal": {
        "global_pose": {
            "orientation": {
                "w": 0.7047431468963623,
                "x": -0.7094548344612122,
                "y": 0.0024358443915843964,
                "z": -0.0022348060738295317
            },
            "position": {
                "x": 0.6094750761985779,
                "y": 0.3671506643295288,
                "z": 0.19426114857196808
            }
        },
        "name": "move_to_magneteinheit_A"
    },
    "id": "LazyPRM_move_to_magneteinheit_A_116",
    "joint_names": [
        "shoulder_pan_joint",
        "shoulder_lift_joint",
        "elbow_joint",
        "wrist_1_joint",
        "wrist_2_joint",
        "wrist_3_joint"
    ],
    "metrics": {
        "cart_traj_len": 2.915058020609932,
        "distance_elbow_joint": 4.250595937047446,
        "distance_shoulder_lift_joint": 0.7676452138019025,
        "distance_shoulder_pan_joint": 1.241369326044064,
        "distance_wrist_1_joint": 1.3971250281544454,
        "distance_wrist_2_joint": 1.4442116509764096,
        "distance_wrist_3_joint": 4.381023216530002,
        "smoothness": 0.2799322208498703,
        "time": 0.116312786,
        "traj_len": 3.6717802729131637,
        "weighted_distance": 5.008528075667053
    },
    "planner": "LazyPRM",
    "start": {
        "state": {
            "elbow_joint": 1.919643534880228,
            "shoulder_lift_joint": -1.8972525353963687,
            "shoulder_pan_joint": -1.1188672234189438,
            "wrist_1_joint": -1.5931878212786155,
            "wrist_2_joint": 1.5706036197970081,
            "wrist_3_joint": 1.118896926603594
        }
    },
    "waypoints": [
        {
            "positions": [
                -1.1188672234189438,
                -1.8972525353963687,
                1.919643534880228,
                -1.5931878212786155,
                1.5706036197970081,
                1.118896926603594
            ]
        },
        {
            "positions": [
                -1.0839922200092638,
                -1.879941032502233,
                1.823816849543397,
                -1.5413409235433466,
                1.5262587516565853,
                0.9830060553672303
            ]
        },
        {
            "positions": [
                -1.0491172165995837,
                -1.862629529608097,
                1.7279901642065663,
                -1.4894940258080778,
                1.4819138835161625,
                0.8471151841308666
            ]
        },
        {
            "positions": [
                -1.0142422131899036,
                -1.8453180267139613,
                1.6321634788697352,
                -1.437647128072809,
                1.4375690153757397,
                0.711224312894503
            ]
        },
        {
            "positions": [
                -0.9793672097802236,
                -1.8280065238198255,
                1.5363367935329042,
                -1.38580023033754,
                1.3932241472353168,
                0.5753334416581393
            ]
        },
        {
            "positions": [
                -0.9444922063705437,
                -1.8106950209256896,
                1.4405101081960734,
                -1.3339533326022712,
                1.3488792790948942,
                0.4394425704217757
            ]
        },
        {
            "positions": [
                -0.9096172029608636,
                -1.7933835180315538,
                1.3446834228592426,
                -1.2821064348670026,
                1.3045344109544714,
                0.303551699185412
            ]
        },
        {
            "positions": [
                -0.8747421995511835,
                -1.776072015137418,
                1.2488567375224116,
                -1.2302595371317337,
                1.2601895428140486,
                0.16766082794904835
            ]
        },
        {
            "positions": [
                -0.8398671961415034,
                -1.7587605122432821,
                1.1530300521855805,
                -1.178412639396465,
                1.2158446746736258,
                0.031769956712684566
            ]
        },
        {
            "positions": [
                -0.8049921927318233,
                -1.7414490093491464,
                1.0572033668487495,
                -1.126565741661196,
                1.171499806533203,
                -0.104120914523679
            ]
        },
        {
            "positions": [
                -0.7701171893221433,
                -1.7241375064550106,
                0.9613766815119187,
                -1.0747188439259272,
                1.1271549383927804,
                -0.24001178576004256
            ]
        },
        {
            "positions": [
                -0.7352421859124633,
                -1.7068260035608747,
                0.8655499961750877,
                -1.0228719461906584,
                1.0828100702523575,
                -0.37590265699640635
            ]
        },
        {
            "positions": [
                -0.7003671825027833,
                -1.689514500666739,
                0.7697233108382568,
                -0.9710250484553896,
                1.0384652021119347,
                -0.5117935282327699
            ]
        },
        {
            "positions": [
                -0.6654921790931032,
                -1.6722029977726032,
                0.6738966255014256,
                -0.9191781507201207,
                0.9941203339715118,
                -0.6476843994691337
            ]
        },
        {
            "positions": [
                -0.6306171756834231,
                -1.6548914948784674,
                0.5780699401645948,
                -0.8673312529848519,
                0.9497754658310891,
                -0.7835752707054973
            ]
        },
        {
            "positions": [
                -0.595742172273743,
                -1.6375799919843315,
                0.482243254827764,
                -0.8154843552495831,
                0.9054305976906664,
                -0.919466141941861
            ]
        },
        {
            "positions": [
                -0.560867168864063,
                -1.6202684890901957,
                0.38641656949093295,
                -0.7636374575143142,
                0.8610857295502434,
                -1.0553570131782248
            ]
        },
        {
            "positions": [
                -0.525992165454383,
                -1.60295698619606,
                0.2905898841541019,
                -0.7117905597790454,
                0.8167408614098207,
                -1.1912478844145882
            ]
        },
        {
            "positions": [
                -0.4911171620447029,
                -1.585645483301924,
                0.1947631988172709,
                -0.6599436620437765,
                0.7723959932693978,
                -1.327138755650952
            ]
        },
        {
            "positions": [
                -0.4562421586350228,
                -1.5683339804077883,
                0.09893651348044008,
                -0.6080967643085077,
                0.7280511251289751,
                -1.4630296268873157
            ]
        },
        {
            "positions": [
                -0.42136715522534285,
                -1.5510224775136525,
                0.0031098281436092723,
                -0.5562498665732389,
                0.6837062569885524,
                -1.598920498123679
            ]
        },
        {
            "positions": [
                -0.38649215181566265,
                -1.5337109746195166,
                -0.09271685719322176,
                -0.5044029688379701,
                0.6393613888481294,
                -1.7348113693600433
            ]
        },
        {
            "positions": [
                -0.35161714840598274,
                -1.5163994717253808,
                -0.18854354253005257,
                -0.45255607110270113,
                0.5950165207077067,
                -1.8707022405964064
            ]
        },
        {
            "positions": [
                -0.31514643678820564,
                -1.4866462294076181,
                -0.02374286101950132,
                -0.47228632325489583,
                0.5589684782548522,
                -1.9777348597756372
            ]
        },
        {
            "positions": [
                -0.2786757251704285,
                -1.4568929870898555,
                0.14105782049104992,
                -0.4920165754070906,
                0.5229204358019977,
                -2.084767478954868
            ]
        },
        {
            "positions": [
                -0.2422050135526514,
                -1.4271397447720928,
                0.30585850200160114,
                -0.5117468275592854,
                0.4868723933491432,
                -2.191800098134099
            ]
        },
        {
            "positions": [
                -0.2057343019348743,
                -1.3973865024543302,
                0.4706591835121524,
                -0.5314770797114801,
                0.4508243508962887,
                -2.2988327173133296
            ]
        },
        {
            "positions": [
                -0.16926359031709717,
                -1.3676332601365675,
                0.6354598650227036,
                -0.5512073318636748,
                0.41477630844343416,
                -2.4058653364925604
            ]
        },
        {
            "positions": [
                -0.13279287869932008,
                -1.3378800178188048,
                0.8002605465332548,
                -0.5709375840158695,
                0.3787282659905796,
                -2.512897955671791
            ]
        },
        {
            "positions": [
                -0.09632216708154301,
                -1.3081267755010422,
                0.965061228043806,
                -0.5906678361680642,
                0.34268022353772515,
                -2.619930574851022
            ]
        },
        {
            "positions": [
                -0.05985145546376586,
                -1.2783735331832795,
                1.1298619095543574,
                -0.6103980883202589,
                0.3066321810848706,
                -2.7269631940302532
            ]
        },
        {
            "positions": [
                -0.02338074384598876,
                -1.2486202908655168,
                1.2946625910649086,
                -0.6301283404724536,
                0.27058413863201614,
                -2.833995813209484
            ]
        },
        {
            "positions": [
                0.013089967771788391,
                -1.2188670485477542,
                1.4594632725754597,
                -0.6498585926246484,
                0.2345360961791616,
                -2.941028432388715
            ]
        },
        {
            "positions": [
                0.04956067938956543,
                -1.1891138062299915,
                1.6242639540860109,
                -0.6695888447768431,
                0.19848805372630712,
                -3.0480610515679456
            ]
        },
        {
            "positions": [
                0.08603139100734258,
                -1.1593605639122289,
                1.7890646355965623,
                -0.6893190969290378,
                0.1624400112734526,
                -3.1550936707471764
            ]
        },
        {
            "positions": [
                0.12250210262511971,
                -1.1296073215944662,
                1.9538653171071134,
                -0.7090493490812325,
                0.12639196882059814,
                -3.262126289926407
            ]
        }
    ]
}