{
    "goal": {
        "global_pose": {
            "orientation": {
                "w": 0.7047431468963623,
                "x": -0.7094548344612122,
                "y": 0.0024358443915843964,
                "z": -0.0022348060738295317
            },
            "position": {
                "x": 0.6094750761985779,
                "y": 0.3671506643295288,
                "z": 0.19426114857196808
            }
        },
        "name": "move_to_magneteinheit_A"
    },
    "id": "LazyPRM_move_to_magneteinheit_A_142",
    "joint_names": [
        "shoulder_pan_joint",
        "shoulder_lift_joint",
        "elbow_joint",
        "wrist_1_joint",
        "wrist_2_joint",
        "wrist_3_joint"
    ],
    "metrics": {
        "cart_traj_len": 3.644049647697359,
        "distance_elbow_joint": 3.907370728096538,
        "distance_shoulder_lift_joint": 0.18944817857568697,
        "distance_shoulder_pan_joint": 2.5763312534833043,
        "distance_wrist_1_joint": 0.7486683367040949,
        "distance_wrist_2_joint": 2.9446501418497384,
        "distance_wrist_3_joint": 3.5720424093294048,
        "smoothness": 0.14594332017236775,
        "time": 0.101211074,
        "traj_len": 3.7334315378802336,
        "weighted_distance": 4.977540993829323
    },
    "planner": "LazyPRM",
    "start": {
        "state": {
            "elbow_joint": -1.919618573717145,
            "shoulder_lift_joint": -1.2443395971678275,
            "shoulder_pan_joint": 2.6996025300909787,
            "wrist_1_joint": -1.548550951253194,
            "wrist_2_joint": -1.5709469090946802,
            "wrist_3_joint": 0.4420197732051276
        }
    },
    "waypoints": [
        {
            "positions": [
                2.6996025300909787,
                -1.2443395971678275,
                -1.919618573717145,
                -1.548550951253194,
                -1.5709469090946802,
                0.4420197732051276
            ]
        },
        {
            "positions": [
                2.623415367337953,
                -1.2400650593967504,
                -1.8204590530617561,
                -1.5274021105781856,
                -1.4908201061614765,
                0.33188283816557046
            ]
        },
        {
            "positions": [
                2.5472282045849273,
                -1.2357905216256733,
                -1.7212995324063673,
                -1.5062532699031774,
                -1.410693303228273,
                0.22174590312601336
            ]
        },
        {
            "positions": [
                2.4710410418319015,
                -1.2315159838545964,
                -1.6221400117509785,
                -1.485104429228169,
                -1.3305665002950693,
                0.11160896808645626
            ]
        },
        {
            "positions": [
                2.394853879078876,
                -1.2272414460835193,
                -1.5229804910955898,
                -1.4639555885531605,
                -1.2504396973618657,
                0.001472033046899135
            ]
        },
        {
            "positions": [
                2.3186667163258496,
                -1.2229669083124421,
                -1.423820970440201,
                -1.4428067478781523,
                -1.1703128944286618,
                -0.10866490199265805
            ]
        },
        {
            "positions": [
                2.242479553572824,
                -1.218692370541365,
                -1.3246614497848124,
                -1.4216579072031439,
                -1.0901860914954584,
                -0.21880183703221506
            ]
        },
        {
            "positions": [
                2.166292390819798,
                -1.2144178327702881,
                -1.2255019291294236,
                -1.4005090665281354,
                -1.0100592885622546,
                -0.3289387720717722
            ]
        },
        {
            "positions": [
                2.0901052280667725,
                -1.210143294999211,
                -1.1263424084740348,
                -1.3793602258531272,
                -0.929932485629051,
                -0.4390757071113293
            ]
        },
        {
            "positions": [
                2.0139180653137467,
                -1.205868757228134,
                -1.027182887818646,
                -1.3582113851781188,
                -0.8498056826958473,
                -0.5492126421508865
            ]
        },
        {
            "positions": [
                1.937730902560721,
                -1.2015942194570568,
                -0.9280233671632571,
                -1.3370625445031104,
                -0.7696788797626436,
                -0.6593495771904436
            ]
        },
        {
            "positions": [
                1.8615437398076953,
                -1.19731968168598,
                -0.8288638465078684,
                -1.3159137038281021,
                -0.6895520768294401,
                -0.7694865122300005
            ]
        },
        {
            "positions": [
                1.7853565770546695,
                -1.1930451439149028,
                -0.7297043258524796,
                -1.2947648631530937,
                -0.6094252738962365,
                -0.8796234472695577
            ]
        },
        {
            "positions": [
                1.7091694143016436,
                -1.1887706061438257,
                -0.6305448051970908,
                -1.2736160224780853,
                -0.5292984709630328,
                -0.9897603823091148
            ]
        },
        {
            "positions": [
                1.6329822515486179,
                -1.1844960683727486,
                -0.531385284541702,
                -1.2524671818030768,
                -0.449171668029829,
                -1.099897317348672
            ]
        },
        {
            "positions": [
                1.5567950887955921,
                -1.1802215306016717,
                -0.4322257638863132,
                -1.2313183411280686,
                -0.3690448650966254,
                -1.210034252388229
            ]
        },
        {
            "positions": [
                1.4806079260425664,
                -1.1759469928305946,
                -0.3330662432309244,
                -1.2101695004530602,
                -0.28891806216342175,
                -1.3201711874277862
            ]
        },
        {
            "positions": [
                1.4044207632895407,
                -1.1716724550595174,
                -0.2339067225755358,
                -1.189020659778052,
                -0.20879125923021835,
                -1.430308122467343
            ]
        },
        {
            "positions": [
                1.3282336005365147,
                -1.1673979172884403,
                -0.13474720192014678,
                -1.1678718191030435,
                -0.1286644562970145,
                -1.5404450575069004
            ]
        },
        {
            "positions": [
                1.252046437783489,
                -1.1631233795173634,
                -0.0355876812647582,
                -1.146722978428035,
                -0.048537653363810884,
                -1.6505819925464573
            ]
        },
        {
            "positions": [
                1.175859275030463,
                -1.1588488417462863,
                0.06357183939063082,
                -1.1255741377530266,
                0.03158914956939296,
                -1.760718927586015
            ]
        },
        {
            "positions": [
                1.0996721122774376,
                -1.1545743039752092,
                0.1627313600460194,
                -1.1044252970780184,
                0.11171595250259636,
                -1.8708558626255716
            ]
        },
        {
            "positions": [
                1.0234849495244118,
                -1.150299766204132,
                0.2618908807014082,
                -1.08327645640301,
                0.19184275543579998,
                -1.9809927976651287
            ]
        },
        {
            "positions": [
                0.9472977867713859,
                -1.1460252284330552,
                0.361050401356797,
                -1.0621276157280017,
                0.2719695583690038,
                -2.091129732704686
            ]
        },
        {
            "positions": [
                0.8711106240183601,
                -1.141750690661978,
                0.4602099220121858,
                -1.0409787750529933,
                0.35209636130220723,
                -2.201266667744243
            ]
        },
        {
            "positions": [
                0.7949234612653344,
                -1.137476152890901,
                0.5593694426675746,
                -1.0198299343779849,
                0.4322231642354111,
                -2.3114036027838
            ]
        },
        {
            "positions": [
                0.7187362985123085,
                -1.1332016151198239,
                0.6585289633229634,
                -0.9986810937029765,
                0.5123499671686145,
                -2.421540537823357
            ]
        },
        {
            "positions": [
                0.6425491357592827,
                -1.128927077348747,
                0.7576884839783522,
                -0.9775322530279682,
                0.5924767701018183,
                -2.5316774728629143
            ]
        },
        {
            "positions": [
                0.566361973006257,
                -1.1246525395776699,
                0.856848004633741,
                -0.9563834123529598,
                0.6726035730350222,
                -2.6418144079024715
            ]
        },
        {
            "positions": [
                0.4901748102532313,
                -1.1203780018065927,
                0.9560075252891297,
                -0.9352345716779514,
                0.7527303759682258,
                -2.7519513429420286
            ]
        },
        {
            "positions": [
                0.4041453432717656,
                -1.1156490655999964,
                1.090434271143413,
                -0.9081736565957982,
                0.7040167022490832,
                -2.84535371499243
            ]
        },
        {
            "positions": [
                0.3181158762902999,
                -1.1109201293934003,
                1.2248610169976963,
                -0.8811127415136448,
                0.6553030285299406,
                -2.9387560870428313
            ]
        },
        {
            "positions": [
                0.23208640930883428,
                -1.1061911931868043,
                1.3592877628519797,
                -0.8540518264314916,
                0.6065893548107979,
                -3.0321584590932322
            ]
        },
        {
            "positions": [
                0.1460569423273686,
                -1.101462256980208,
                1.493714508706263,
                -0.8269909113493383,
                0.5578756810916553,
                -3.1255608311436336
            ]
        },
        {
            "positions": [
                0.13846172042080418,
                -1.1169858697762305,
                1.6583937239306399,
                -0.8360270102827514,
                0.4158362937882346,
                -3.1240735628167524
            ]
        },
        {
            "positions": [
                0.1308664985142398,
                -1.1325094825722528,
                1.8230729391550164,
                -0.8450631092161645,
                0.27379690648481386,
                -3.1225862944898712
            ]
        },
        {
            "positions": [
                0.12327127660767537,
                -1.1480330953682754,
                1.9877521543793932,
                -0.8540992081495775,
                0.13175751918139314,
                -3.12109902616299
            ]
        }
    ]
}{
    "goal": {
        "global_pose": {
            "orientation": {
                "w": 0.7047431468963623,
                "x": -0.7094548344612122,
                "y": 0.0024358443915843964,
                "z": -0.0022348060738295317
            },
            "position": {
                "x": 0.6094750761985779,
                "y": 0.3671506643295288,
                "z": 0.19426114857196808
            }
        },
        "name": "move_to_magneteinheit_A"
    },
    "id": "LazyPRM_move_to_magneteinheit_A_142",
    "joint_names": [
        "shoulder_pan_joint",
        "shoulder_lift_joint",
        "elbow_joint",
        "wrist_1_joint",
        "wrist_2_joint",
        "wrist_3_joint"
    ],
    "metrics": {
        "cart_traj_len": 1.202581286191452,
        "distance_elbow_joint": 0.05285794423177914,
        "distance_shoulder_lift_joint": 0.7578638799942112,
        "distance_shoulder_pan_joint": 1.242189683652872,
        "distance_wrist_1_joint": 0.9295495490995601,
        "distance_wrist_2_joint": 1.6021864221413578,
        "distance_wrist_3_joint": 4.2904849163833045,
        "smoothness": 0.3566053127230074,
        "time": 0.10209188699999999,
        "traj_len": 2.9791160426379975,
        "weighted_distance": 4.470776017595895
    },
    "planner": "LazyPRM",
    "start": {
        "state": {
            "elbow_joint": 1.919643534880228,
            "shoulder_lift_joint": -1.8972525353963687,
            "shoulder_pan_joint": -1.1188672234189438,
            "wrist_1_joint": -1.5931878212786155,
            "wrist_2_joint": 1.5706036197970081,
            "wrist_3_joint": 1.118896926603594
        }
    },
    "waypoints": [
        {
            "positions": [
                -1.1188672234189438,
                -1.8972525353963687,
                1.919643534880228,
                -1.5931878212786155,
                1.5706036197970081,
                1.118896926603594
            ]
        },
        {
            "positions": [
                -1.063153206889636,
                -1.8634918133624079,
                1.9212098761172076,
                -1.5540295937030686,
                1.5012622114460255,
                0.9346111071635759
            ]
        },
        {
            "positions": [
                -1.0074391903603284,
                -1.8297310913284468,
                1.922776217354187,
                -1.5148713661275217,
                1.4319208030950428,
                0.7503252877235578
            ]
        },
        {
            "positions": [
                -0.9517251738310206,
                -1.795970369294486,
                1.9243425585911664,
                -1.4757131385519748,
                1.3625793947440603,
                0.5660394682835397
            ]
        },
        {
            "positions": [
                -0.8960111573017129,
                -1.7622096472605249,
                1.9259088998281457,
                -1.436554910976428,
                1.2932379863930776,
                0.3817536488435216
            ]
        },
        {
            "positions": [
                -0.8402971407724051,
                -1.728448925226564,
                1.9274752410651252,
                -1.397396683400881,
                1.223896578042095,
                0.1974678294035035
            ]
        },
        {
            "positions": [
                -0.7845831242430975,
                -1.694688203192603,
                1.9290415823021048,
                -1.3582384558253342,
                1.1545551696911125,
                0.013182009963485397
            ]
        },
        {
            "positions": [
                -0.7288691077137897,
                -1.6609274811586419,
                1.930607923539084,
                -1.3190802282497873,
                1.0852137613401298,
                -0.1711038094765327
            ]
        },
        {
            "positions": [
                -0.6731550911844819,
                -1.627166759124681,
                1.9321742647760636,
                -1.2799220006742404,
                1.0158723529891471,
                -0.3553896289165508
            ]
        },
        {
            "positions": [
                -0.6174410746551743,
                -1.5934060370907202,
                1.9337406060130429,
                -1.2407637730986936,
                0.9465309446381645,
                -0.5396754483565689
            ]
        },
        {
            "positions": [
                -0.5617270581258665,
                -1.559645315056759,
                1.9353069472500224,
                -1.201605545523147,
                0.8771895362871819,
                -0.723961267796587
            ]
        },
        {
            "positions": [
                -0.5060130415965588,
                -1.525884593022798,
                1.9368732884870017,
                -1.1624473179476,
                0.8078481279361992,
                -0.9082470872366051
            ]
        },
        {
            "positions": [
                -0.45029902506725117,
                -1.4921238709888371,
                1.9384396297239812,
                -1.1232890903720532,
                0.7385067195852166,
                -1.0925329066766232
            ]
        },
        {
            "positions": [
                -0.3945850085379433,
                -1.4583631489548763,
                1.9400059709609607,
                -1.0841308627965063,
                0.6691653112342338,
                -1.2768187261166413
            ]
        },
        {
            "positions": [
                -0.3388709920086356,
                -1.4246024269209152,
                1.94157231219794,
                -1.0449726352209594,
                0.5998239028832514,
                -1.4611045455566594
            ]
        },
        {
            "positions": [
                -0.28315697547932794,
                -1.3908417048869541,
                1.9431386534349195,
                -1.0058144076454125,
                0.5304824945322688,
                -1.6453903649966775
            ]
        },
        {
            "positions": [
                -0.2274429589500201,
                -1.3570809828529933,
                1.9447049946718988,
                -0.9666561800698655,
                0.4611410861812859,
                -1.8296761844366956
            ]
        },
        {
            "positions": [
                -0.17172894242071246,
                -1.3233202608190324,
                1.9462713359088784,
                -0.9274979524943188,
                0.39179967783030345,
                -2.0139620038767134
            ]
        },
        {
            "positions": [
                -0.11601492589140472,
                -1.2895595387850713,
                1.9478376771458579,
                -0.8883397249187718,
                0.32245826947932077,
                -2.1982478233167315
            ]
        },
        {
            "positions": [
                -0.06030090936209698,
                -1.2557988167511103,
                1.9494040183828372,
                -0.849181497343225,
                0.2531168611283381,
                -2.3825336427567496
            ]
        },
        {
            "positions": [
                -0.0045868928327892355,
                -1.2220380947171494,
                1.9509703596198167,
                -0.8100232697676781,
                0.18377545277735563,
                -2.5668194621967677
            ]
        },
        {
            "positions": [
                0.051127123696518506,
                -1.1882773726831886,
                1.952536700856796,
                -0.7708650421921313,
                0.11443404442637273,
                -2.751105281636786
            ]
        },
        {
            "positions": [
                0.10684114022582619,
                -1.1545166506492275,
                1.9541030420937755,
                -0.7317068146165844,
                0.045092636075390324,
                -2.935391101076804
            ]
        },
        {
            "positions": [
                0.1150818002298771,
                -1.1469526530256924,
                1.9633022606028914,
                -0.7657410858353488,
                0.08343035528526027,
                -3.053489545428257
            ]
        },
        {
            "positions": [
                0.12332246023392802,
                -1.1393886554021575,
                1.9725014791120072,
                -0.7997753570541134,
                0.12176807449513023,
                -3.17158798977971
            ]
        }
    ]
}