{
    "goal": {
        "global_pose": {
            "orientation": {
                "w": 0.7047431468963623,
                "x": -0.7094548344612122,
                "y": 0.0024358443915843964,
                "z": -0.0022348060738295317
            },
            "position": {
                "x": 0.6094750761985779,
                "y": 0.3671506643295288,
                "z": 0.19426114857196808
            }
        },
        "name": "move_to_magneteinheit_A"
    },
    "id": "LazyPRMstar_move_to_magneteinheit_A_112",
    "joint_names": [
        "shoulder_pan_joint",
        "shoulder_lift_joint",
        "elbow_joint",
        "wrist_1_joint",
        "wrist_2_joint",
        "wrist_3_joint"
    ],
    "metrics": {
        "cart_traj_len": 3.6287220156199487,
        "distance_elbow_joint": 3.8831740972760436,
        "distance_shoulder_lift_joint": 0.25594398883641234,
        "distance_shoulder_pan_joint": 2.873498603399071,
        "distance_wrist_1_joint": 0.8147224142197659,
        "distance_wrist_2_joint": 1.710428749897587,
        "distance_wrist_3_joint": 3.6759267351597664,
        "smoothness": 0.13825504245696413,
        "time": 5.029915255,
        "traj_len": 3.63506459210681,
        "weighted_distance": 4.805278266991989
    },
    "planner": "LazyPRMstar",
    "start": {
        "state": {
            "elbow_joint": -1.919618573717145,
            "shoulder_lift_joint": -1.2443395971678275,
            "shoulder_pan_joint": 2.6996025300909787,
            "wrist_1_joint": -1.548550951253194,
            "wrist_2_joint": -1.5709469090946802,
            "wrist_3_joint": 0.4420197732051276
        }
    },
    "waypoints": [
        {
            "positions": [
                2.6996025300909787,
                -1.2443395971678275,
                -1.919618573717145,
                -1.548550951253194,
                -1.5709469090946802,
                0.4420197732051276
            ]
        },
        {
            "positions": [
                2.606896486683721,
                -1.2400888869727047,
                -1.820573391279229,
                -1.5267962308973755,
                -1.5219108735097142,
                0.3243934803887748
            ]
        },
        {
            "positions": [
                2.514190443276464,
                -1.235838176777582,
                -1.7215282088413133,
                -1.505041510541557,
                -1.4728748379247483,
                0.206767187572422
            ]
        },
        {
            "positions": [
                2.4214843998692066,
                -1.231587466582459,
                -1.6224830264033974,
                -1.4832867901857385,
                -1.4238388023397823,
                0.08914089475606918
            ]
        },
        {
            "positions": [
                2.3287783564619495,
                -1.2273367563873363,
                -1.5234378439654814,
                -1.46153206982992,
                -1.3748027667548164,
                -0.028485398060283607
            ]
        },
        {
            "positions": [
                2.236072313054692,
                -1.2230860461922133,
                -1.4243926615275657,
                -1.4397773494741015,
                -1.3257667311698504,
                -0.1461116908766364
            ]
        },
        {
            "positions": [
                2.1433662696474345,
                -1.2188353359970905,
                -1.3253474790896496,
                -1.418022629118283,
                -1.2767306955848845,
                -0.26373798369298923
            ]
        },
        {
            "positions": [
                2.0506602262401774,
                -1.2145846258019677,
                -1.2263022966517338,
                -1.3962679087624643,
                -1.2276946599999186,
                -0.38136427650934196
            ]
        },
        {
            "positions": [
                1.9579541828329199,
                -1.210333915606845,
                -1.1272571142138181,
                -1.374513188406646,
                -1.1786586244149526,
                -0.4989905693256948
            ]
        },
        {
            "positions": [
                1.8652481394256628,
                -1.206083205411722,
                -1.028211931775902,
                -1.3527584680508273,
                -1.1296225888299867,
                -0.6166168621420476
            ]
        },
        {
            "positions": [
                1.7725420960184053,
                -1.2018324952165993,
                -0.9291667493379863,
                -1.3310037476950087,
                -1.0805865532450207,
                -0.7342431549584003
            ]
        },
        {
            "positions": [
                1.679836052611148,
                -1.1975817850214765,
                -0.8301215669000703,
                -1.3092490273391904,
                -1.0315505176600548,
                -0.851869447774753
            ]
        },
        {
            "positions": [
                1.5871300092038907,
                -1.1933310748263537,
                -0.7310763844621544,
                -1.2874943069833718,
                -0.9825144820750888,
                -0.969495740591106
            ]
        },
        {
            "positions": [
                1.4944239657966334,
                -1.189080364631231,
                -0.6320312020242387,
                -1.2657395866275531,
                -0.9334784464901229,
                -1.0871220334074587
            ]
        },
        {
            "positions": [
                1.401717922389376,
                -1.1848296544361079,
                -0.5329860195863227,
                -1.2439848662717348,
                -0.884442410905157,
                -1.2047483262238114
            ]
        },
        {
            "positions": [
                1.3090118789821186,
                -1.180578944240985,
                -0.4339408371484068,
                -1.2222301459159162,
                -0.835406375320191,
                -1.3223746190401644
            ]
        },
        {
            "positions": [
                1.2163058355748613,
                -1.1763282340458623,
                -0.3348956547104911,
                -1.2004754255600978,
                -0.7863703397352251,
                -1.4400009118565171
            ]
        },
        {
            "positions": [
                1.123599792167604,
                -1.1720775238507395,
                -0.23585047227257494,
                -1.1787207052042792,
                -0.7373343041502591,
                -1.55762720467287
            ]
        },
        {
            "positions": [
                1.0308937487603467,
                -1.1678268136556167,
                -0.13680528983465923,
                -1.1569659848484606,
                -0.6882982685652932,
                -1.6752534974892228
            ]
        },
        {
            "positions": [
                0.9381877053530892,
                -1.163576103460494,
                -0.03776010739674329,
                -1.135211264492642,
                -0.6392622329803272,
                -1.7928797903055758
            ]
        },
        {
            "positions": [
                0.8454816619458321,
                -1.159325393265371,
                0.06128507504117242,
                -1.1134565441368236,
                -0.5902261973953613,
                -1.9105060831219283
            ]
        },
        {
            "positions": [
                0.7527756185385746,
                -1.1550746830702483,
                0.16033025747908858,
                -1.091701823781005,
                -0.5411901618103954,
                -2.028132375938281
            ]
        },
        {
            "positions": [
                0.6600695751313173,
                -1.1508239728751255,
                0.2593754399170043,
                -1.0699471034251866,
                -0.4921541262254294,
                -2.1457586687546337
            ]
        },
        {
            "positions": [
                0.5673635317240597,
                -1.1465732626800025,
                0.35842062235492045,
                -1.048192383069368,
                -0.4431180906404635,
                -2.2633849615709867
            ]
        },
        {
            "positions": [
                0.47465748831680266,
                -1.1423225524848797,
                0.45746580479283616,
                -1.0264376627135494,
                -0.39408205505549754,
                -2.3810112543873396
            ]
        },
        {
            "positions": [
                0.38195144490954513,
                -1.1380718422897569,
                0.5565109872307519,
                -1.0046829423577308,
                -0.3450460194705316,
                -2.4986375472036926
            ]
        },
        {
            "positions": [
                0.28924540150228806,
                -1.133821132094634,
                0.6555561696686676,
                -0.9829282220019124,
                -0.29600998388556565,
                -2.616263840020045
            ]
        },
        {
            "positions": [
                0.19653935809503037,
                -1.1295704218995113,
                0.7546013521065835,
                -0.9611735016460938,
                -0.24697394830059977,
                -2.733890132836398
            ]
        },
        {
            "positions": [
                0.16484897758025124,
                -1.1199925192591642,
                0.9230903938454614,
                -0.938259338417568,
                -0.19798207734205595,
                -2.7948996563643194
            ]
        },
        {
            "positions": [
                0.13315859706547212,
                -1.1104146166188171,
                1.0915794355843393,
                -0.9153451751890422,
                -0.14899020638351212,
                -2.8559091798922402
            ]
        },
        {
            "positions": [
                0.10146821655069298,
                -1.10083671397847,
                1.2600684773232174,
                -0.8924310119605166,
                -0.09999833542496828,
                -2.9169187034201616
            ]
        },
        {
            "positions": [
                0.06977783603591384,
                -1.091258811338123,
                1.4285575190620952,
                -0.8695168487319908,
                -0.051006464466424456,
                -2.977928226948083
            ]
        },
        {
            "positions": [
                0.03808745552113468,
                -1.0816809086977759,
                1.5970465608009732,
                -0.846602685503465,
                -0.0020145935078806076,
                -3.0389377504760042
            ]
        },
        {
            "positions": [
                0.006397075006355585,
                -1.0721030060574288,
                1.765535602539851,
                -0.8236885222749392,
                0.04697727745066321,
                -3.099947274003925
            ]
        },
        {
            "positions": [
                -0.02529330550842356,
                -1.0625251034170817,
                1.934024644278729,
                -0.8007743590464134,
                0.09596914840920703,
                -3.1609567975318464
            ]
        },
        {
            "positions": [
                0.04900807839141115,
                -1.099589850959915,
                1.9487900839188137,
                -0.7673014480399207,
                0.11772549460605725,
                -3.1974318797432426
            ]
        },
        {
            "positions": [
                0.12330946229124584,
                -1.1366545985027483,
                1.9635555235588984,
                -0.7338285370334282,
                0.13948184080290746,
                -3.233906961954639
            ]
        }
    ]
}{
    "goal": {
        "global_pose": {
            "orientation": {
                "w": 0.7047431468963623,
                "x": -0.7094548344612122,
                "y": 0.0024358443915843964,
                "z": -0.0022348060738295317
            },
            "position": {
                "x": 0.6094750761985779,
                "y": 0.3671506643295288,
                "z": 0.19426114857196808
            }
        },
        "name": "move_to_magneteinheit_A"
    },
    "id": "LazyPRMstar_move_to_magneteinheit_A_112",
    "joint_names": [
        "shoulder_pan_joint",
        "shoulder_lift_joint",
        "elbow_joint",
        "wrist_1_joint",
        "wrist_2_joint",
        "wrist_3_joint"
    ],
    "metrics": {
        "cart_traj_len": 1.336941681363313,
        "distance_elbow_joint": 0.28287196083240085,
        "distance_shoulder_lift_joint": 0.7581878495149514,
        "distance_shoulder_pan_joint": 1.2413813965424259,
        "distance_wrist_1_joint": 0.8152822668133751,
        "distance_wrist_2_joint": 1.4372473249949589,
        "distance_wrist_3_joint": 4.318927041813448,
        "smoothness": 0.03658488219810499,
        "time": 5.01725352,
        "traj_len": 2.9755500063873166,
        "weighted_distance": 4.443453782357457
    },
    "planner": "LazyPRMstar",
    "start": {
        "state": {
            "elbow_joint": 1.919643534880228,
            "shoulder_lift_joint": -1.8972525353963687,
            "shoulder_pan_joint": -1.1188672234189438,
            "wrist_1_joint": -1.5931878212786155,
            "wrist_2_joint": 1.5706036197970081,
            "wrist_3_joint": 1.118896926603594
        }
    },
    "waypoints": [
        {
            "positions": [
                -1.1188672234189438,
                -1.8972525353963687,
                1.919643534880228,
                -1.5931878212786155,
                1.5706036197970081,
                1.118896926603594
            ]
        },
        {
            "positions": [
                -1.0993040762653228,
                -1.8567209052599702,
                1.9335969313402124,
                -1.5554539958879445,
                1.4625863757693998,
                0.9436307300837955
            ]
        },
        {
            "positions": [
                -1.0797409291117017,
                -1.8161892751235715,
                1.9475503278001967,
                -1.5177201704972738,
                1.3545691317417914,
                0.768364533563997
            ]
        },
        {
            "positions": [
                -1.0601777819580804,
                -1.775657644987173,
                1.961503724260181,
                -1.4799863451066029,
                1.246551887714183,
                0.5930983370441985
            ]
        },
        {
            "positions": [
                -1.0406146348044594,
                -1.7351260148507743,
                1.9754571207201652,
                -1.4422525197159322,
                1.1385346436865746,
                0.4178321405244
            ]
        },
        {
            "positions": [
                -1.0210514876508383,
                -1.6945943847143758,
                1.9894105171801495,
                -1.4045186943252612,
                1.0305173996589663,
                0.2425659440046014
            ]
        },
        {
            "positions": [
                -1.0014883404972172,
                -1.6540627545779771,
                2.0033639136401336,
                -1.3667848689345905,
                0.9225001556313579,
                0.06729974748480294
            ]
        },
        {
            "positions": [
                -0.9819251933435961,
                -1.6135311244415786,
                2.017317310100118,
                -1.3290510435439196,
                0.8144829116037495,
                -0.10796644903499564
            ]
        },
        {
            "positions": [
                -0.962362046189975,
                -1.5729994943051802,
                2.031270706560102,
                -1.2913172181532486,
                0.7064656675761412,
                -0.283232645554794
            ]
        },
        {
            "positions": [
                -0.9427988990363538,
                -1.5324678641687814,
                2.0452241030200864,
                -1.253583392762578,
                0.5984484235485328,
                -0.45849884207459257
            ]
        },
        {
            "positions": [
                -0.9232357518827328,
                -1.491936234032383,
                2.0591774994800707,
                -1.215849567371907,
                0.4904311795209244,
                -0.6337650385943912
            ]
        },
        {
            "positions": [
                -0.9036726047291117,
                -1.4514046038959845,
                2.073130895940055,
                -1.1781157419812363,
                0.38241393549331604,
                -0.8090312351141895
            ]
        },
        {
            "positions": [
                -0.8841094575754905,
                -1.4108729737595858,
                2.0870842924000392,
                -1.1403819165905653,
                0.2743966914657078,
                -0.9842974316339883
            ]
        },
        {
            "positions": [
                -0.7925982184210385,
                -1.386163129407025,
                2.0765905466443493,
                -1.1074295200337176,
                0.261574837223557,
                -1.1857276755954307
            ]
        },
        {
            "positions": [
                -0.7010869792665864,
                -1.3614532850544643,
                2.0660968008886593,
                -1.07447712347687,
                0.24875298298140625,
                -1.387157919556873
            ]
        },
        {
            "positions": [
                -0.6095757401121344,
                -1.3367434407019034,
                2.0556030551329694,
                -1.041524726920022,
                0.23593112873925548,
                -1.5885881635183154
            ]
        },
        {
            "positions": [
                -0.5180645009576823,
                -1.3120335963493426,
                2.0451093093772794,
                -1.0085723303631744,
                0.22310927449710471,
                -1.7900184074797578
            ]
        },
        {
            "positions": [
                -0.4265532618032303,
                -1.287323751996782,
                2.0346155636215895,
                -0.9756199338063267,
                0.21028742025495395,
                -1.9914486514412
            ]
        },
        {
            "positions": [
                -0.33504202264877825,
                -1.262613907644221,
                2.0241218178658995,
                -0.942667537249479,
                0.19746556601280318,
                -2.192878895402642
            ]
        },
        {
            "positions": [
                -0.2435307834943261,
                -1.2379040632916603,
                2.0136280721102096,
                -0.9097151406926313,
                0.18464371177065242,
                -2.3943091393640845
            ]
        },
        {
            "positions": [
                -0.15201954433987408,
                -1.2131942189390996,
                2.0031343263545196,
                -0.8767627441357835,
                0.17182185752850165,
                -2.595739383325527
            ]
        },
        {
            "positions": [
                -0.06050830518542194,
                -1.1884843745865388,
                1.9926405805988294,
                -0.8438103475789358,
                0.1590000032863509,
                -2.7971696272869693
            ]
        },
        {
            "positions": [
                0.031002933969029978,
                -1.1637745302339781,
                1.9821468348431395,
                -0.8108579510220881,
                0.14617814904420012,
                -2.9985998712484117
            ]
        },
        {
            "positions": [
                0.12251417312348212,
                -1.1390646858814173,
                1.9716530890874495,
                -0.7779055544652403,
                0.13335629480204936,
                -3.200030115209854
            ]
        }
    ]
}