{
    "goal": {
        "global_pose": {
            "orientation": {
                "w": 0.5084816217422485,
                "x": -0.49083608388900757,
                "y": 0.5182115435600281,
                "z": -0.4816462993621826
            },
            "position": {
                "x": 0.5540239810943604,
                "y": 0.030875300988554955,
                "z": 0.16403168439865112
            }
        },
        "name": "move_to_storage_A"
    },
    "id": "LazyPRM_move_to_storage_A_132",
    "joint_names": [
        "shoulder_pan_joint",
        "shoulder_lift_joint",
        "elbow_joint",
        "wrist_1_joint",
        "wrist_2_joint",
        "wrist_3_joint"
    ],
    "metrics": {
        "cart_traj_len": 0.3534437982606712,
        "distance_elbow_joint": 0.45065351862615444,
        "distance_shoulder_lift_joint": 0.23419295127644268,
        "distance_shoulder_pan_joint": 0.4639943864714923,
        "distance_wrist_1_joint": 0.24736504887304156,
        "distance_wrist_2_joint": 1.0914770809321155,
        "distance_wrist_3_joint": 0.10522389477524241,
        "smoothness": 4.440892098500626e-16,
        "time": 0.01197516,
        "traj_len": 1.6102505646496414,
        "weighted_distance": 2.0352387575687847
    },
    "planner": "LazyPRM",
    "start": {
        "state": {
            "elbow_joint": 1.9715477243005601,
            "shoulder_lift_joint": -1.1394853015351272,
            "shoulder_pan_joint": 0.12281154014795169,
            "wrist_1_joint": -0.7804696478968182,
            "wrist_2_joint": 0.12958648046900423,
            "wrist_3_joint": -3.192491284697111
        }
    },
    "waypoints": [
        {
            "positions": [
                0.12281154014795169,
                -1.1394853015351272,
                1.9715477243005601,
                -0.7804696478968182,
                0.12958648046900423,
                -3.192491284697111
            ]
        },
        {
            "positions": [
                0.056526627794881365,
                -1.172941437431762,
                2.035926798390011,
                -0.8158075120215383,
                0.2855117777450207,
                -3.1774592997292195
            ]
        },
        {
            "positions": [
                -0.00975828455818896,
                -1.2063975733283965,
                2.100305872479461,
                -0.8511453761462586,
                0.4414370750210372,
                -3.1624273147613278
            ]
        },
        {
            "positions": [
                -0.07604319691125928,
                -1.2398537092250312,
                2.164684946568912,
                -0.8864832402709788,
                0.5973623722970537,
                -3.147395329793436
            ]
        },
        {
            "positions": [
                -0.1423281092643296,
                -1.2733098451216658,
                2.2290640206583627,
                -0.9218211043956991,
                0.7532876695730701,
                -3.132363344825544
            ]
        },
        {
            "positions": [
                -0.20861302161739997,
                -1.3067659810183005,
                2.2934430947478135,
                -0.9571589685204193,
                0.9092129668490867,
                -3.117331359857652
            ]
        },
        {
            "positions": [
                -0.27489793397047024,
                -1.340222116914935,
                2.357822168837264,
                -0.9924968326451395,
                1.0651382641251033,
                -3.1022993748897605
            ]
        },
        {
            "positions": [
                -0.3411828463235406,
                -1.3736782528115699,
                2.4222012429267146,
                -1.0278346967698597,
                1.2210635614011198,
                -3.0872673899218688
            ]
        }
    ]
}