{
    "goal": {
        "global_pose": {
            "orientation": {
                "w": 0.5084816217422485,
                "x": -0.49083608388900757,
                "y": 0.5182115435600281,
                "z": -0.4816462993621826
            },
            "position": {
                "x": 0.5540239810943604,
                "y": 0.030875300988554955,
                "z": 0.16403168439865112
            }
        },
        "name": "move_to_storage_A"
    },
    "id": "LazyPRMstar_move_to_storage_A_19",
    "joint_names": [
        "shoulder_pan_joint",
        "shoulder_lift_joint",
        "elbow_joint",
        "wrist_1_joint",
        "wrist_2_joint",
        "wrist_3_joint"
    ],
    "metrics": {
        "cart_traj_len": 0.3530979033138246,
        "distance_elbow_joint": 0.4512852180782252,
        "distance_shoulder_lift_joint": 0.23470533851647746,
        "distance_shoulder_pan_joint": 0.4601319390346252,
        "distance_wrist_1_joint": 0.24643435332935437,
        "distance_wrist_2_joint": 1.106167770186747,
        "distance_wrist_3_joint": 0.10426018225253353,
        "smoothness": 2.2204460668324854e-16,
        "time": 5.000082268,
        "traj_len": 1.613376831802776,
        "weighted_distance": 2.040614439187161
    },
    "planner": "LazyPRMstar",
    "start": {
        "state": {
            "elbow_joint": 1.9715477243005601,
            "shoulder_lift_joint": -1.1394853015351272,
            "shoulder_pan_joint": 0.12281154014795169,
            "wrist_1_joint": -0.7804696478968182,
            "wrist_2_joint": 0.12958648046900423,
            "wrist_3_joint": -3.192491284697111
        }
    },
    "waypoints": [
        {
            "positions": [
                0.12281154014795169,
                -1.1394853015351272,
                1.9715477243005601,
                -0.7804696478968182,
                0.12958648046900423,
                -3.192491284697111
            ]
        },
        {
            "positions": [
                0.0570784060001481,
                -1.1730146356089097,
                2.036017041168878,
                -0.8156745555152973,
                0.2876104476385395,
                -3.1775969729467493
            ]
        },
        {
            "positions": [
                -0.008654728147655485,
                -1.206543969682692,
                2.100486358037196,
                -0.8508794631337766,
                0.44563441480807475,
                -3.1627026611963873
            ]
        },
        {
            "positions": [
                -0.07438786229545909,
                -1.2400733037564746,
                2.1649556749055137,
                -0.8860843707522558,
                0.60365838197761,
                -3.1478083494460254
            ]
        },
        {
            "positions": [
                -0.14012099644326265,
                -1.2736026378302572,
                2.229424991773832,
                -0.9212892783707349,
                0.7616823491471453,
                -3.1329140376956635
            ]
        },
        {
            "positions": [
                -0.20585413059106628,
                -1.3071319719040397,
                2.2938943086421495,
                -0.9564941859892142,
                0.9197063163166806,
                -3.1180197259453015
            ]
        },
        {
            "positions": [
                -0.27158726473886985,
                -1.340661305977822,
                2.358363625510467,
                -0.9916990936076933,
                1.0777302834862157,
                -3.1031254141949396
            ]
        },
        {
            "positions": [
                -0.3373203988866735,
                -1.3741906400516046,
                2.4228329423787853,
                -1.0269040012261725,
                1.235754250655751,
                -3.0882311024445777
            ]
        }
    ]
}