{
    "goal": {
        "global_pose": {
            "orientation": {
                "w": 0.5084816217422485,
                "x": -0.49083608388900757,
                "y": 0.5182115435600281,
                "z": -0.4816462993621826
            },
            "position": {
                "x": 0.5540239810943604,
                "y": 0.030875300988554955,
                "z": 0.16403168439865112
            }
        },
        "name": "move_to_storage_A"
    },
    "id": "LazyPRM_move_to_storage_A_71",
    "joint_names": [
        "shoulder_pan_joint",
        "shoulder_lift_joint",
        "elbow_joint",
        "wrist_1_joint",
        "wrist_2_joint",
        "wrist_3_joint"
    ],
    "metrics": {
        "cart_traj_len": 0.3522937036631547,
        "distance_elbow_joint": 0.4492228776512248,
        "distance_shoulder_lift_joint": 0.23504343862751864,
        "distance_shoulder_pan_joint": 0.4609786122652775,
        "distance_wrist_1_joint": 0.23582995821730945,
        "distance_wrist_2_joint": 1.0965549324543042,
        "distance_wrist_3_joint": 0.08891665782549962,
        "smoothness": 4.440892098500626e-16,
        "time": 0.022260765,
        "traj_len": 1.602044467872579,
        "weighted_distance": 2.0190999686404205
    },
    "planner": "LazyPRM",
    "start": {
        "state": {
            "elbow_joint": 1.9715477243005601,
            "shoulder_lift_joint": -1.1394853015351272,
            "shoulder_pan_joint": 0.12281154014795169,
            "wrist_1_joint": -0.7804696478968182,
            "wrist_2_joint": 0.12958648046900423,
            "wrist_3_joint": -3.192491284697111
        }
    },
    "waypoints": [
        {
            "positions": [
                0.12281154014795169,
                -1.1394853015351272,
                1.9715477243005601,
                -0.7804696478968182,
                0.12958648046900423,
                -3.192491284697111
            ]
        },
        {
            "positions": [
                0.056957452681483486,
                -1.1730629356247726,
                2.035722421107878,
                -0.8141596419278624,
                0.28623718510533336,
                -3.179788905007754
            ]
        },
        {
            "positions": [
                -0.008896634784984717,
                -1.2066405697144182,
                2.0998971179151957,
                -0.8478496359589066,
                0.44288788974166254,
                -3.167086525318397
            ]
        },
        {
            "positions": [
                -0.07475072225145292,
                -1.2402182038040637,
                2.1640718147225138,
                -0.8815396299899507,
                0.5995385943779917,
                -3.15438414562904
            ]
        },
        {
            "positions": [
                -0.1406048097179211,
                -1.2737958378937093,
                2.2282465115298313,
                -0.915229624020995,
                0.7561892990143209,
                -3.141681765939683
            ]
        },
        {
            "positions": [
                -0.20645889718438937,
                -1.3073734719833547,
                2.2924212083371494,
                -0.9489196180520392,
                0.9128400036506501,
                -3.1289793862503257
            ]
        },
        {
            "positions": [
                -0.2723129846508575,
                -1.3409511060730002,
                2.356595905144467,
                -0.9826096120830834,
                1.0694907082869793,
                -3.116277006560969
            ]
        },
        {
            "positions": [
                -0.3381670721173258,
                -1.3745287401626458,
                2.420770601951785,
                -1.0162996061141276,
                1.2261414129233084,
                -3.1035746268716116
            ]
        }
    ]
}