{
    "goal": {
        "global_pose": {
            "orientation": {
                "w": 0.7047431468963623,
                "x": -0.7094548344612122,
                "y": 0.0024358443915843964,
                "z": -0.0022348060738295317
            },
            "position": {
                "x": 0.6094750761985779,
                "y": 0.3671506643295288,
                "z": 0.19426114857196808
            }
        },
        "name": "move_to_magneteinheit_A"
    },
    "id": "LazyPRM_move_to_magneteinheit_A_16",
    "joint_names": [
        "shoulder_pan_joint",
        "shoulder_lift_joint",
        "elbow_joint",
        "wrist_1_joint",
        "wrist_2_joint",
        "wrist_3_joint"
    ],
    "metrics": {
        "cart_traj_len": 3.342185727172404,
        "distance_elbow_joint": 3.9013193992928237,
        "distance_shoulder_lift_joint": 0.8637514413490317,
        "distance_shoulder_pan_joint": 3.4222630244798022,
        "distance_wrist_1_joint": 1.6258681808221755,
        "distance_wrist_2_joint": 1.9846381642650779,
        "distance_wrist_3_joint": 3.5895949622051266,
        "smoothness": 0.368968064082065,
        "time": 0.194394254,
        "traj_len": 3.9226821401196954,
        "weighted_distance": 5.116359197897617
    },
    "planner": "LazyPRM",
    "start": {
        "state": {
            "elbow_joint": -1.919618573717145,
            "shoulder_lift_joint": -1.2443395971678275,
            "shoulder_pan_joint": 2.6996025300909787,
            "wrist_1_joint": -1.548550951253194,
            "wrist_2_joint": -1.5709469090946802,
            "wrist_3_joint": 0.4420197732051276
        }
    },
    "waypoints": [
        {
            "positions": [
                2.6996025300909787,
                -1.2443395971678275,
                -1.919618573717145,
                -1.548550951253194,
                -1.5709469090946802,
                0.4420197732051276
            ]
        },
        {
            "positions": [
                2.6138852614752452,
                -1.2552571444942062,
                -1.8084209576014034,
                -1.5150494730325423,
                -1.5183114708620113,
                0.3398781085670249
            ]
        },
        {
            "positions": [
                2.5281679928595118,
                -1.266174691820585,
                -1.697223341485662,
                -1.4815479948118904,
                -1.4656760326293425,
                0.23773644392892215
            ]
        },
        {
            "positions": [
                2.4424507242437787,
                -1.2770922391469637,
                -1.5860257253699204,
                -1.4480465165912386,
                -1.4130405943966735,
                0.13559477929081942
            ]
        },
        {
            "positions": [
                2.3567334556280453,
                -1.2880097864733422,
                -1.474828109254179,
                -1.4145450383705869,
                -1.3604051561640047,
                0.03345311465271672
            ]
        },
        {
            "positions": [
                2.271016187012312,
                -1.298927333799721,
                -1.3636304931384375,
                -1.381043560149935,
                -1.307769717931336,
                -0.06868854998538604
            ]
        },
        {
            "positions": [
                2.1852989183965783,
                -1.3098448811260996,
                -1.252432877022696,
                -1.3475420819292832,
                -1.255134279698667,
                -0.17083021462348874
            ]
        },
        {
            "positions": [
                2.099581649780845,
                -1.3207624284524784,
                -1.1412352609069545,
                -1.3140406037086314,
                -1.202498841465998,
                -0.27297187926159155
            ]
        },
        {
            "positions": [
                2.013864381165112,
                -1.331679975778857,
                -1.030037644791213,
                -1.2805391254879794,
                -1.1498634032333293,
                -0.37511354389969415
            ]
        },
        {
            "positions": [
                1.9281471125493783,
                -1.3425975231052356,
                -0.9188400286754717,
                -1.2470376472673277,
                -1.0972279650006604,
                -0.47725520853779685
            ]
        },
        {
            "positions": [
                1.8424298439336448,
                -1.3535150704316143,
                -0.8076424125597301,
                -1.213536169046676,
                -1.0445925267679916,
                -0.5793968731758996
            ]
        },
        {
            "positions": [
                1.7567125753179114,
                -1.364432617757993,
                -0.6964447964439886,
                -1.180034690826024,
                -0.9919570885353228,
                -0.6815385378140022
            ]
        },
        {
            "positions": [
                1.670995306702178,
                -1.3753501650843718,
                -0.5852471803282471,
                -1.1465332126053722,
                -0.9393216503026539,
                -0.783680202452105
            ]
        },
        {
            "positions": [
                1.5852780380864446,
                -1.3862677124107505,
                -0.47404956421250555,
                -1.1130317343847205,
                -0.8866862120699851,
                -0.8858218670902078
            ]
        },
        {
            "positions": [
                1.4995607694707112,
                -1.3971852597371293,
                -0.362851948096764,
                -1.0795302561640685,
                -0.8340507738373162,
                -0.9879635317283106
            ]
        },
        {
            "positions": [
                1.413843500854978,
                -1.4081028070635078,
                -0.2516543319810227,
                -1.0460287779434168,
                -0.7814153356046474,
                -1.0901051963664132
            ]
        },
        {
            "positions": [
                1.3281262322392446,
                -1.4190203543898865,
                -0.1404567158652812,
                -1.0125272997227648,
                -0.7287798973719786,
                -1.1922468610045158
            ]
        },
        {
            "positions": [
                1.2424089636235112,
                -1.4299379017162652,
                -0.029259099749539663,
                -0.979025821502113,
                -0.6761444591393097,
                -1.2943885256426186
            ]
        },
        {
            "positions": [
                1.156691695007778,
                -1.440855449042644,
                0.08193851636620164,
                -0.9455243432814613,
                -0.623509020906641,
                -1.3965301902807212
            ]
        },
        {
            "positions": [
                1.0709744263920444,
                -1.4517729963690227,
                0.19313613248194295,
                -0.9120228650608094,
                -0.5708735826739721,
                -1.498671854918824
            ]
        },
        {
            "positions": [
                0.985257157776311,
                -1.4626905436954014,
                0.3043337485976847,
                -0.8785213868401577,
                -0.5182381444413031,
                -1.6008135195569269
            ]
        },
        {
            "positions": [
                0.8995398891605777,
                -1.47360809102178,
                0.415531364713426,
                -0.8450199086195058,
                -0.4656027062086343,
                -1.7029551841950297
            ]
        },
        {
            "positions": [
                0.8138226205448442,
                -1.4845256383481586,
                0.5267289808291677,
                -0.811518430398854,
                -0.4129672679759655,
                -1.805096848833132
            ]
        },
        {
            "positions": [
                0.7281053519291107,
                -1.4954431856745374,
                0.637926596944909,
                -0.7780169521782021,
                -0.3603318297432965,
                -1.9072385134712349
            ]
        },
        {
            "positions": [
                0.6423880833133775,
                -1.506360733000916,
                0.7491242130606508,
                -0.7445154739575502,
                -0.30769639151062766,
                -2.0093801781093377
            ]
        },
        {
            "positions": [
                0.556670814697644,
                -1.5172782803272948,
                0.8603218291763921,
                -0.7110139957368985,
                -0.25506095327795886,
                -2.1115218427474405
            ]
        },
        {
            "positions": [
                0.47095354608191053,
                -1.5281958276536733,
                0.9715194452921339,
                -0.6775125175162466,
                -0.20242551504529005,
                -2.2136635073855433
            ]
        },
        {
            "positions": [
                0.38523627746617706,
                -1.5391133749800523,
                1.0827170614078752,
                -0.6440110392955948,
                -0.14979007681262102,
                -2.315805172023646
            ]
        },
        {
            "positions": [
                0.2995190088504436,
                -1.5500309223064308,
                1.193914677523617,
                -0.6105095610749429,
                -0.09715463857995221,
                -2.417946836661749
            ]
        },
        {
            "positions": [
                0.2138017402347101,
                -1.5609484696328095,
                1.3051122936393582,
                -0.5770080828542912,
                -0.044519200347283405,
                -2.5200885012998517
            ]
        },
        {
            "positions": [
                0.12808447161897707,
                -1.5718660169591883,
                1.4163099097550995,
                -0.5435066046336394,
                0.008116237885385402,
                -2.622230165937954
            ]
        },
        {
            "positions": [
                0.04236720300324359,
                -1.5827835642855668,
                1.5275075258708408,
                -0.5100051264129877,
                0.06075167611805421,
                -2.7243718305760565
            ]
        },
        {
            "positions": [
                -0.04335006561248944,
                -1.5937011116119457,
                1.6387051419865826,
                -0.4765036481923357,
                0.11338711435072302,
                -2.8265134952141593
            ]
        },
        {
            "positions": [
                -0.12906733422822292,
                -1.6046186589383242,
                1.7499027581023239,
                -0.44300216997168396,
                0.16602255258339182,
                -2.928655159852262
            ]
        },
        {
            "positions": [
                -0.2147846028439564,
                -1.615536206264703,
                1.8611003742180656,
                -0.409500691751032,
                0.21865799081606085,
                -3.030796824490365
            ]
        },
        {
            "positions": [
                -0.3005018714596897,
                -1.6264537535910817,
                1.972297990333807,
                -0.37599921353038024,
                0.2712934290487296,
                -3.1329384891284677
            ]
        },
        {
            "positions": [
                -0.19496221572740646,
                -1.5060444323596374,
                1.9746486991442747,
                -0.48932832430522066,
                0.23569397251831253,
                -3.1365976640963504
            ]
        },
        {
            "positions": [
                -0.08942255999512322,
                -1.385635111128193,
                1.9769994079547426,
                -0.6026574350800611,
                0.20009451598789546,
                -3.140256839064233
            ]
        },
        {
            "positions": [
                0.016117095737160025,
                -1.2652257898967485,
                1.9793501167652103,
                -0.7159865458549015,
                0.16449505945747842,
                -3.1439160140321163
            ]
        },
        {
            "positions": [
                0.12165675146944326,
                -1.1448164686653042,
                1.981700825575678,
                -0.8293156566297419,
                0.12889560292706134,
                -3.147575188999999
            ]
        }
    ]
}{
    "goal": {
        "global_pose": {
            "orientation": {
                "w": 0.7047431468963623,
                "x": -0.7094548344612122,
                "y": 0.0024358443915843964,
                "z": -0.0022348060738295317
            },
            "position": {
                "x": 0.6094750761985779,
                "y": 0.3671506643295288,
                "z": 0.19426114857196808
            }
        },
        "name": "move_to_magneteinheit_A"
    },
    "id": "LazyPRM_move_to_magneteinheit_A_16",
    "joint_names": [
        "shoulder_pan_joint",
        "shoulder_lift_joint",
        "elbow_joint",
        "wrist_1_joint",
        "wrist_2_joint",
        "wrist_3_joint"
    ],
    "metrics": {
        "cart_traj_len": 1.2053176882775283,
        "distance_elbow_joint": 0.03457140781525303,
        "distance_shoulder_lift_joint": 0.7686448866315141,
        "distance_shoulder_pan_joint": 1.2409295845806687,
        "distance_wrist_1_joint": 0.8889649008167195,
        "distance_wrist_2_joint": 1.4428890934720977,
        "distance_wrist_3_joint": 1.9103655419301984,
        "smoothness": 2.0898315923129273e-16,
        "time": 0.078178267,
        "traj_len": 2.5072625341687798,
        "weighted_distance": 3.526889634422328
    },
    "planner": "LazyPRM",
    "start": {
        "state": {
            "elbow_joint": 1.919643534880228,
            "shoulder_lift_joint": -1.8972525353963687,
            "shoulder_pan_joint": -1.1188672234189438,
            "wrist_1_joint": -1.5931878212786155,
            "wrist_2_joint": 1.5706036197970081,
            "wrist_3_joint": 1.118896926603594
        }
    },
    "waypoints": [
        {
            "positions": [
                -1.1188672234189438,
                -1.8972525353963687,
                1.919643534880228,
                -1.5931878212786155,
                1.5706036197970081,
                1.118896926603594
            ]
        },
        {
            "positions": [
                -1.041309124382652,
                -1.8492122299818992,
                1.9218042478686814,
                -1.5376275149775704,
                1.480423051455002,
                1.2382947729742313
            ]
        },
        {
            "positions": [
                -0.9637510253463603,
                -1.8011719245674294,
                1.9239649608571348,
                -1.4820672086765256,
                1.390242483112996,
                1.3576926193448688
            ]
        },
        {
            "positions": [
                -0.8861929263100685,
                -1.7531316191529598,
                1.926125673845588,
                -1.4265069023754806,
                1.3000619147709898,
                1.4770904657155062
            ]
        },
        {
            "positions": [
                -0.8086348272737767,
                -1.7050913137384902,
                1.9282863868340414,
                -1.3709465960744356,
                1.2098813464289837,
                1.5964883120861435
            ]
        },
        {
            "positions": [
                -0.7310767282374848,
                -1.6570510083240206,
                1.9304470998224947,
                -1.3153862897733906,
                1.1197007780869777,
                1.7158861584567808
            ]
        },
        {
            "positions": [
                -0.6535186292011931,
                -1.609010702909551,
                1.932607812810948,
                -1.2598259834723455,
                1.0295202097449714,
                1.8352840048274184
            ]
        },
        {
            "positions": [
                -0.5759605301649013,
                -1.5609703974950813,
                1.9347685257994014,
                -1.2042656771713007,
                0.9393396414029653,
                1.9546818511980557
            ]
        },
        {
            "positions": [
                -0.4984024311286095,
                -1.5129300920806117,
                1.9369292387878545,
                -1.1487053708702557,
                0.8491590730609593,
                2.0740796975686933
            ]
        },
        {
            "positions": [
                -0.42084433209231764,
                -1.4648897866661421,
                1.9390899517763078,
                -1.0931450645692107,
                0.7589785047189532,
                2.1934775439393306
            ]
        },
        {
            "positions": [
                -0.3432862330560259,
                -1.4168494812516723,
                1.9412506647647612,
                -1.0375847582681659,
                0.6687979363769471,
                2.312875390309968
            ]
        },
        {
            "positions": [
                -0.26572813401973416,
                -1.3688091758372027,
                1.9434113777532145,
                -0.9820244519671208,
                0.5786173680349409,
                2.4322732366806052
            ]
        },
        {
            "positions": [
                -0.1881700349834423,
                -1.3207688704227332,
                1.9455720907416678,
                -0.9264641456660758,
                0.48843679969293485,
                2.551671083051243
            ]
        },
        {
            "positions": [
                -0.11061193594715046,
                -1.2727285650082636,
                1.9477328037301211,
                -0.8709038393650308,
                0.3982562313509288,
                2.67106892942188
            ]
        },
        {
            "positions": [
                -0.033053836910858836,
                -1.224688259593794,
                1.9498935167185745,
                -0.8153435330639859,
                0.30807566300892253,
                2.7904667757925177
            ]
        },
        {
            "positions": [
                0.044504262125433014,
                -1.1766479541793242,
                1.9520542297070278,
                -0.759783226762941,
                0.21789509466691648,
                2.909864622163155
            ]
        },
        {
            "positions": [
                0.12206236116172485,
                -1.1286076487648546,
                1.9542149426954811,
                -0.7042229204618959,
                0.12771452632491037,
                3.0292624685337923
            ]
        }
    ]
}