{
    "goal": {
        "global_pose": {
            "orientation": {
                "w": 0.5084816217422485,
                "x": -0.49083608388900757,
                "y": 0.5182115435600281,
                "z": -0.4816462993621826
            },
            "position": {
                "x": 0.5540239810943604,
                "y": 0.030875300988554955,
                "z": 0.16403168439865112
            }
        },
        "name": "move_to_storage_A"
    },
    "id": "LazyPRM_move_to_storage_A_41",
    "joint_names": [
        "shoulder_pan_joint",
        "shoulder_lift_joint",
        "elbow_joint",
        "wrist_1_joint",
        "wrist_2_joint",
        "wrist_3_joint"
    ],
    "metrics": {
        "cart_traj_len": 0.35344279838412535,
        "distance_elbow_joint": 0.45273103948521776,
        "distance_shoulder_lift_joint": 0.2336802489170826,
        "distance_shoulder_pan_joint": 0.4640816505780347,
        "distance_wrist_1_joint": 0.2595983943856338,
        "distance_wrist_2_joint": 1.0907722808989502,
        "distance_wrist_3_joint": 0.09152720711231321,
        "smoothness": 8.881784232165597e-16,
        "time": 0.022033671999999997,
        "traj_len": 1.6100903146647496,
        "weighted_distance": 2.0312104546024874
    },
    "planner": "LazyPRM",
    "start": {
        "state": {
            "elbow_joint": 1.9715477243005601,
            "shoulder_lift_joint": -1.1394853015351272,
            "shoulder_pan_joint": 0.12281154014795169,
            "wrist_1_joint": -0.7804696478968182,
            "wrist_2_joint": 0.12958648046900423,
            "wrist_3_joint": -3.192491284697111
        }
    },
    "waypoints": [
        {
            "positions": [
                0.12281154014795169,
                -1.1394853015351272,
                1.9715477243005601,
                -0.7804696478968182,
                0.12958648046900423,
                -3.192491284697111
            ]
        },
        {
            "positions": [
                0.05651416149394674,
                -1.1728681942375676,
                2.0362235870841627,
                -0.8175551328090516,
                0.2854110920259971,
                -3.179415969395352
            ]
        },
        {
            "positions": [
                -0.009783217160058214,
                -1.2062510869400078,
                2.1008994498677653,
                -0.854640617721285,
                0.44123570358298997,
                -3.166340654093593
            ]
        },
        {
            "positions": [
                -0.07608059581406316,
                -1.2396339796424483,
                2.165575312651368,
                -0.8917261026335184,
                0.5970603151399829,
                -3.153265338791834
            ]
        },
        {
            "positions": [
                -0.1423779744680681,
                -1.2730168723448887,
                2.23025117543497,
                -0.9288115875457518,
                0.7528849266969757,
                -3.1401900234900753
            ]
        },
        {
            "positions": [
                -0.20867535312207308,
                -1.3063997650473291,
                2.2949270382185727,
                -0.9658970724579852,
                0.9087095382539686,
                -3.127114708188316
            ]
        },
        {
            "positions": [
                -0.274972731776078,
                -1.3397826577497693,
                2.3596029010021753,
                -1.0029825573702187,
                1.0645341498109615,
                -3.114039392886557
            ]
        },
        {
            "positions": [
                -0.341270110430083,
                -1.3731655504522098,
                2.424278763785778,
                -1.040068042282452,
                1.2203587613679545,
                -3.100964077584798
            ]
        }
    ]
}