{
    "goal": {
        "global_pose": {
            "orientation": {
                "w": 0.5084816217422485,
                "x": -0.49083608388900757,
                "y": 0.5182115435600281,
                "z": -0.4816462993621826
            },
            "position": {
                "x": 0.5540239810943604,
                "y": 0.030875300988554955,
                "z": 0.16403168439865112
            }
        },
        "name": "move_to_storage_A"
    },
    "id": "LazyPRMstar_move_to_storage_A_85",
    "joint_names": [
        "shoulder_pan_joint",
        "shoulder_lift_joint",
        "elbow_joint",
        "wrist_1_joint",
        "wrist_2_joint",
        "wrist_3_joint"
    ],
    "metrics": {
        "cart_traj_len": 0.3526519680638449,
        "distance_elbow_joint": 0.4484001190754059,
        "distance_shoulder_lift_joint": 0.23482385941058004,
        "distance_shoulder_pan_joint": 0.45682309671696897,
        "distance_wrist_1_joint": 0.23588839765826586,
        "distance_wrist_2_joint": 1.116673015037425,
        "distance_wrist_3_joint": 0.10319762521506659,
        "smoothness": 6.661338165333112e-16,
        "time": 5.000217805,
        "traj_len": 1.6111505556941947,
        "weighted_distance": 2.0383235209945294
    },
    "planner": "LazyPRMstar",
    "start": {
        "state": {
            "elbow_joint": 1.9715477243005601,
            "shoulder_lift_joint": -1.1394853015351272,
            "shoulder_pan_joint": 0.12281154014795169,
            "wrist_1_joint": -0.7804696478968182,
            "wrist_2_joint": 0.12958648046900423,
            "wrist_3_joint": -3.192491284697111
        }
    },
    "waypoints": [
        {
            "positions": [
                0.12281154014795169,
                -1.1394853015351272,
                1.9715477243005601,
                -0.7804696478968182,
                0.12958648046900423,
                -3.192491284697111
            ]
        },
        {
            "positions": [
                0.05755109775981326,
                -1.17303156716521,
                2.035604884168475,
                -0.8141679904194276,
                0.2891111969029221,
                -3.1777487668092443
            ]
        },
        {
            "positions": [
                -0.007709344628325163,
                -1.206577832795293,
                2.0996620440363905,
                -0.847866332942037,
                0.44863591333683994,
                -3.163006248921378
            ]
        },
        {
            "positions": [
                -0.07296978701646357,
                -1.2401240984253759,
                2.1637192039043054,
                -0.8815646754646463,
                0.6081606297707578,
                -3.148263731033511
            ]
        },
        {
            "positions": [
                -0.138230229404602,
                -1.2736703640554585,
                2.2277763637722208,
                -0.9152630179872558,
                0.7676853462046757,
                -3.1335212131456447
            ]
        },
        {
            "positions": [
                -0.20349067179274044,
                -1.3072166296855414,
                2.2918335236401357,
                -0.9489613605098652,
                0.9272100626385936,
                -3.118778695257778
            ]
        },
        {
            "positions": [
                -0.2687511141808788,
                -1.3407628953156243,
                2.3558906835080506,
                -0.9826597030324746,
                1.0867347790725113,
                -3.1040361773699114
            ]
        },
        {
            "positions": [
                -0.33401155656901726,
                -1.3743091609457072,
                2.419947843375966,
                -1.016358045555084,
                1.2462594955064292,
                -3.0892936594820446
            ]
        }
    ]
}