{
    "goal": {
        "global_pose": {
            "orientation": {
                "w": 0.7047431468963623,
                "x": -0.7094548344612122,
                "y": 0.0024358443915843964,
                "z": -0.0022348060738295317
            },
            "position": {
                "x": 0.6094750761985779,
                "y": 0.3671506643295288,
                "z": 0.19426114857196808
            }
        },
        "name": "move_to_magneteinheit_A"
    },
    "id": "LazyPRMstar_move_to_magneteinheit_A_70",
    "joint_names": [
        "shoulder_pan_joint",
        "shoulder_lift_joint",
        "elbow_joint",
        "wrist_1_joint",
        "wrist_2_joint",
        "wrist_3_joint"
    ],
    "metrics": {
        "cart_traj_len": 3.4572315898259323,
        "distance_elbow_joint": 3.877589999007,
        "distance_shoulder_lift_joint": 0.6979077199546522,
        "distance_shoulder_pan_joint": 2.575528945039628,
        "distance_wrist_1_joint": 1.1083401553159633,
        "distance_wrist_2_joint": 1.7026401783443312,
        "distance_wrist_3_joint": 3.6948263009586695,
        "smoothness": 0.07704720745820277,
        "time": 5.014408806,
        "traj_len": 3.6955152954114867,
        "weighted_distance": 4.884410530882707
    },
    "planner": "LazyPRMstar",
    "start": {
        "state": {
            "elbow_joint": -1.919618573717145,
            "shoulder_lift_joint": -1.2443395971678275,
            "shoulder_pan_joint": 2.6996025300909787,
            "wrist_1_joint": -1.548550951253194,
            "wrist_2_joint": -1.5709469090946802,
            "wrist_3_joint": 0.4420197732051276
        }
    },
    "waypoints": [
        {
            "positions": [
                2.6996025300909787,
                -1.2443395971678275,
                -1.919618573717145,
                -1.548550951253194,
                -1.5709469090946802,
                0.4420197732051276
            ]
        },
        {
            "positions": [
                2.578799446008652,
                -1.2211947035454804,
                -1.8243516826825497,
                -1.5187406737501747,
                -1.5518885130109399,
                0.3357718510381437
            ]
        },
        {
            "positions": [
                2.4579963619263245,
                -1.1980498099231336,
                -1.7290847916479541,
                -1.4889303962471556,
                -1.5328301169271996,
                0.22952392887115983
            ]
        },
        {
            "positions": [
                2.3371932778439977,
                -1.1749049163007865,
                -1.6338179006133589,
                -1.4591201187441363,
                -1.5137717208434593,
                0.12327600670417593
            ]
        },
        {
            "positions": [
                2.216390193761671,
                -1.1517600226784395,
                -1.5385510095787636,
                -1.4293098412411172,
                -1.494713324759719,
                0.017028084537192067
            ]
        },
        {
            "positions": [
                2.095587109679344,
                -1.1286151290560926,
                -1.443284118544168,
                -1.3994995637380978,
                -1.4756549286759786,
                -0.08921983762979174
            ]
        },
        {
            "positions": [
                1.9747840255970166,
                -1.1054702354337456,
                -1.3480172275095728,
                -1.3696892862350785,
                -1.4565965325922383,
                -0.19546775979677572
            ]
        },
        {
            "positions": [
                1.8539809415146897,
                -1.0823253418113985,
                -1.2527503364749775,
                -1.3398790087320593,
                -1.437538136508498,
                -0.3017156819637596
            ]
        },
        {
            "positions": [
                1.7331778574323624,
                -1.0591804481890517,
                -1.157483445440382,
                -1.31006873122904,
                -1.4184797404247578,
                -0.40796360413074345
            ]
        },
        {
            "positions": [
                1.6123747733500355,
                -1.0360355545667046,
                -1.0622165544057867,
                -1.2802584537260209,
                -1.3994213443410175,
                -0.5142115262977274
            ]
        },
        {
            "positions": [
                1.4915716892677087,
                -1.0128906609443575,
                -0.9669496633711914,
                -1.2504481762230015,
                -1.3803629482572772,
                -0.620459448464711
            ]
        },
        {
            "positions": [
                1.3707686051853816,
                -0.9897457673220107,
                -0.8716827723365961,
                -1.2206378987199824,
                -1.361304552173537,
                -0.7267073706316949
            ]
        },
        {
            "positions": [
                1.2499655211030545,
                -0.9666008736996636,
                -0.7764158813020006,
                -1.190827621216963,
                -1.3422461560897965,
                -0.832955292798679
            ]
        },
        {
            "positions": [
                1.1291624370207274,
                -0.9434559800773166,
                -0.681148990267405,
                -1.1610173437139437,
                -1.3231877600060562,
                -0.9392032149656628
            ]
        },
        {
            "positions": [
                1.0083593529384005,
                -0.9203110864549697,
                -0.5858820992328098,
                -1.1312070662109246,
                -1.304129363922316,
                -1.0454511371326467
            ]
        },
        {
            "positions": [
                0.8875562688560734,
                -0.8971661928326227,
                -0.4906152081982146,
                -1.1013967887079052,
                -1.2850709678385757,
                -1.1516990592996306
            ]
        },
        {
            "positions": [
                0.8205540464904085,
                -0.8913349457482049,
                -0.3547784981513741,
                -1.1152172131904936,
                -1.2675162820440988,
                -1.2828911790118493
            ]
        },
        {
            "positions": [
                0.7535518241247436,
                -0.8855036986637873,
                -0.21894178810453357,
                -1.1290376376730817,
                -1.249961596249622,
                -1.4140832987240681
            ]
        },
        {
            "positions": [
                0.6865496017590789,
                -0.8796724515793696,
                -0.08310507805769307,
                -1.14285806215567,
                -1.2324069104551454,
                -1.545275418436287
            ]
        },
        {
            "positions": [
                0.619547379393414,
                -0.873841204494952,
                0.05273163198914743,
                -1.1566784866382585,
                -1.2148522246606686,
                -1.676467538148506
            ]
        },
        {
            "positions": [
                0.5525451570277491,
                -0.8680099574105342,
                0.18856834203598793,
                -1.1704989111208466,
                -1.1972975388661917,
                -1.8076596578607247
            ]
        },
        {
            "positions": [
                0.4855429346620843,
                -0.8621787103261165,
                0.32440505208282844,
                -1.184319335603435,
                -1.179742853071715,
                -1.9388517775729435
            ]
        },
        {
            "positions": [
                0.4185407122964195,
                -0.8563474632416989,
                0.46024176212966883,
                -1.1981397600860233,
                -1.162188167277238,
                -2.0700438972851622
            ]
        },
        {
            "positions": [
                0.35153848993075454,
                -0.8505162161572811,
                0.5960784721765094,
                -1.2119601845686117,
                -1.1446334814827615,
                -2.201236016997381
            ]
        },
        {
            "positions": [
                0.28453626756508976,
                -0.8446849690728635,
                0.73191518222335,
                -1.2257806090511998,
                -1.1270787956882846,
                -2.3324281367096
            ]
        },
        {
            "positions": [
                0.21753404519942485,
                -0.8388537219884458,
                0.8677518922701906,
                -1.2396010335337881,
                -1.1095241098938078,
                -2.4636202564218186
            ]
        },
        {
            "positions": [
                0.20186282785464407,
                -0.8630159975553281,
                0.9821165477786465,
                -1.2023363230151265,
                -1.004318547440602,
                -2.547830770887525
            ]
        },
        {
            "positions": [
                0.18619161050986327,
                -0.8871782731222104,
                1.0964812032871025,
                -1.165071612496465,
                -0.8991129849873963,
                -2.632041285353232
            ]
        },
        {
            "positions": [
                0.1705203931650825,
                -0.9113405486890928,
                1.2108458587955584,
                -1.1278069019778034,
                -0.7939074225341907,
                -2.716251799818938
            ]
        },
        {
            "positions": [
                0.15484917582030172,
                -0.9355028242559751,
                1.3252105143040145,
                -1.090542191459142,
                -0.6887018600809849,
                -2.8004623142846445
            ]
        },
        {
            "positions": [
                0.13917795847552095,
                -0.9596650998228574,
                1.4395751698124704,
                -1.0532774809404803,
                -0.5834962976277791,
                -2.884672828750351
            ]
        },
        {
            "positions": [
                0.13666056290482592,
                -0.9882668443130005,
                1.5259745457253677,
                -0.997167781715233,
                -0.4642980364815407,
                -2.946028445250883
            ]
        },
        {
            "positions": [
                0.1341431673341309,
                -1.0168685888031437,
                1.6123739216382653,
                -0.9410580824899857,
                -0.34509977533530234,
                -3.0073840617514147
            ]
        },
        {
            "positions": [
                0.13162577176343587,
                -1.0454703332932869,
                1.698773297551163,
                -0.8849483832647383,
                -0.2259015141890639,
                -3.0687396782519465
            ]
        },
        {
            "positions": [
                0.12910837619274088,
                -1.07407207778343,
                1.7851726734640603,
                -0.828838684039491,
                -0.10670325304282552,
                -3.1300952947524783
            ]
        },
        {
            "positions": [
                0.12659098062204585,
                -1.102673822273573,
                1.8715720493769576,
                -0.7727289848142437,
                0.012495008103412975,
                -3.19145091125301
            ]
        },
        {
            "positions": [
                0.12407358505135083,
                -1.1312755667637162,
                1.9579714252898552,
                -0.7166192855889963,
                0.13169326924965125,
                -3.252806527753542
            ]
        }
    ]
}{
    "goal": {
        "global_pose": {
            "orientation": {
                "w": 0.7047431468963623,
                "x": -0.7094548344612122,
                "y": 0.0024358443915843964,
                "z": -0.0022348060738295317
            },
            "position": {
                "x": 0.6094750761985779,
                "y": 0.3671506643295288,
                "z": 0.19426114857196808
            }
        },
        "name": "move_to_magneteinheit_A"
    },
    "id": "LazyPRMstar_move_to_magneteinheit_A_70",
    "joint_names": [
        "shoulder_pan_joint",
        "shoulder_lift_joint",
        "elbow_joint",
        "wrist_1_joint",
        "wrist_2_joint",
        "wrist_3_joint"
    ],
    "metrics": {
        "cart_traj_len": 1.1985959160469726,
        "distance_elbow_joint": 0.0530581072397498,
        "distance_shoulder_lift_joint": 0.7566924143032923,
        "distance_shoulder_pan_joint": 1.2407860820603689,
        "distance_wrist_1_joint": 0.8145985431109121,
        "distance_wrist_2_joint": 1.4498234772290386,
        "distance_wrist_3_joint": 4.294634393207938,
        "smoothness": 0.05034545923868005,
        "time": 5.0303671759999995,
        "traj_len": 2.9342107997128117,
        "weighted_distance": 4.4117211861026675
    },
    "planner": "LazyPRMstar",
    "start": {
        "state": {
            "elbow_joint": 1.919643534880228,
            "shoulder_lift_joint": -1.8972525353963687,
            "shoulder_pan_joint": -1.1188672234189438,
            "wrist_1_joint": -1.5931878212786155,
            "wrist_2_joint": 1.5706036197970081,
            "wrist_3_joint": 1.118896926603594
        }
    },
    "waypoints": [
        {
            "positions": [
                -1.1188672234189438,
                -1.8972525353963687,
                1.919643534880228,
                -1.5931878212786155,
                1.5706036197970081,
                1.118896926603594
            ]
        },
        {
            "positions": [
                -1.0632676783394153,
                -1.8637138564131164,
                1.9219275577425947,
                -1.5565718694630286,
                1.5055724392940595,
                0.9286468372036004
            ]
        },
        {
            "positions": [
                -1.007668133259887,
                -1.830175177429864,
                1.9242115806049613,
                -1.5199559176474415,
                1.4405412587911108,
                0.7383967478036069
            ]
        },
        {
            "positions": [
                -0.9520685881803584,
                -1.7966364984466119,
                1.926495603467328,
                -1.4833399658318547,
                1.3755100782881624,
                0.5481466584036133
            ]
        },
        {
            "positions": [
                -0.89646904310083,
                -1.7630978194633595,
                1.9287796263296946,
                -1.4467240140162678,
                1.3104788977852138,
                0.35789656900361966
            ]
        },
        {
            "positions": [
                -0.8408694980213014,
                -1.7295591404801072,
                1.9310636491920612,
                -1.4101080622006807,
                1.245447717282265,
                0.16764647960362622
            ]
        },
        {
            "positions": [
                -0.785269952941773,
                -1.6960204614968548,
                1.9333476720544276,
                -1.373492110385094,
                1.1804165367793167,
                -0.02260360979636733
            ]
        },
        {
            "positions": [
                -0.7296704078622445,
                -1.6624817825136027,
                1.9356316949167942,
                -1.336876158569507,
                1.1153853562763678,
                -0.212853699196361
            ]
        },
        {
            "positions": [
                -0.674070862782716,
                -1.6289431035303503,
                1.9379157177791608,
                -1.30026020675392,
                1.0503541757734194,
                -0.40310378859635465
            ]
        },
        {
            "positions": [
                -0.6184713177031875,
                -1.595404424547098,
                1.9401997406415274,
                -1.263644254938333,
                0.9853229952704707,
                -0.5933538779963481
            ]
        },
        {
            "positions": [
                -0.5628717726236591,
                -1.5618657455638456,
                1.942483763503894,
                -1.2270283031227462,
                0.9202918147675222,
                -0.7836039673963415
            ]
        },
        {
            "positions": [
                -0.5072722275441306,
                -1.5283270665805935,
                1.9447677863662607,
                -1.1904123513071592,
                0.8552606342645735,
                -0.9738540567963352
            ]
        },
        {
            "positions": [
                -0.4516726824646021,
                -1.4947883875973411,
                1.9470518092286273,
                -1.1537963994915723,
                0.790229453761625,
                -1.1641041461963286
            ]
        },
        {
            "positions": [
                -0.39607313738507355,
                -1.4612497086140888,
                1.949335832090994,
                -1.1171804476759852,
                0.7251982732586764,
                -1.3543542355963225
            ]
        },
        {
            "positions": [
                -0.3404735923055452,
                -1.4277110296308364,
                1.9516198549533605,
                -1.0805644958603984,
                0.6601670927557277,
                -1.544604324996316
            ]
        },
        {
            "positions": [
                -0.2848740472260167,
                -1.394172350647584,
                1.9539038778157272,
                -1.0439485440448113,
                0.5951359122527792,
                -1.7348544143963094
            ]
        },
        {
            "positions": [
                -0.22927450214648815,
                -1.3606336716643317,
                1.9561879006780938,
                -1.0073325922292244,
                0.5301047317498306,
                -1.9251045037963033
            ]
        },
        {
            "positions": [
                -0.1736749570669598,
                -1.3270949926810796,
                1.9584719235404602,
                -0.9707166404136376,
                0.465073551246882,
                -2.1153545931962965
            ]
        },
        {
            "positions": [
                -0.11807541198743121,
                -1.2935563136978272,
                1.9607559464028268,
                -0.9341006885980506,
                0.40004237074393334,
                -2.3056046825962904
            ]
        },
        {
            "positions": [
                -0.062475866907902855,
                -1.260017634714575,
                1.9630399692651934,
                -0.8974847367824637,
                0.3350111902409847,
                -2.4958547719962834
            ]
        },
        {
            "positions": [
                -0.006876321828374277,
                -1.2264789557313227,
                1.96532399212756,
                -0.8608687849668768,
                0.26998000973803626,
                -2.6861048613962772
            ]
        },
        {
            "positions": [
                0.0487232232511543,
                -1.1929402767480703,
                1.9676080149899267,
                -0.8242528331512897,
                0.20494882923508762,
                -2.876354950796271
            ]
        },
        {
            "positions": [
                0.10432276833068269,
                -1.159401597764818,
                1.9698920378522933,
                -0.7876368813357029,
                0.13991764873213897,
                -3.066605040196264
            ]
        },
        {
            "positions": [
                0.121918858641425,
                -1.1405601210930765,
                1.972701642119978,
                -0.7966844845037023,
                0.12078014256796947,
                -3.175737466604343
            ]
        }
    ]
}