{
    "goal": {
        "global_pose": {
            "orientation": {
                "w": 0.7047431468963623,
                "x": -0.7094548344612122,
                "y": 0.0024358443915843964,
                "z": -0.0022348060738295317
            },
            "position": {
                "x": 0.6094750761985779,
                "y": 0.3671506643295288,
                "z": 0.19426114857196808
            }
        },
        "name": "move_to_magneteinheit_A"
    },
    "id": "LazyPRMstar_move_to_magneteinheit_A_40",
    "joint_names": [
        "shoulder_pan_joint",
        "shoulder_lift_joint",
        "elbow_joint",
        "wrist_1_joint",
        "wrist_2_joint",
        "wrist_3_joint"
    ],
    "metrics": {
        "cart_traj_len": 5.738577081818768,
        "distance_elbow_joint": 4.6836680320531485,
        "distance_shoulder_lift_joint": 1.013552717805747,
        "distance_shoulder_pan_joint": 8.897866380403848,
        "distance_wrist_1_joint": 3.3635849031780793,
        "distance_wrist_2_joint": 6.165579835934405,
        "distance_wrist_3_joint": 5.025878064331765,
        "smoothness": 0.2759692333395548,
        "time": 5.0403944,
        "traj_len": 5.399086027626062,
        "weighted_distance": 6.980762909702849
    },
    "planner": "LazyPRMstar",
    "start": {
        "state": {
            "elbow_joint": -1.919618573717145,
            "shoulder_lift_joint": -1.2443395971678275,
            "shoulder_pan_joint": 2.6996025300909787,
            "wrist_1_joint": -1.548550951253194,
            "wrist_2_joint": -1.5709469090946802,
            "wrist_3_joint": 0.4420197732051276
        }
    },
    "waypoints": [
        {
            "positions": [
                2.6996025300909787,
                -1.2443395971678275,
                -1.919618573717145,
                -1.548550951253194,
                -1.5709469090946802,
                0.4420197732051276
            ]
        },
        {
            "positions": [
                2.535695698235975,
                -1.228449206097586,
                -1.9307479905889107,
                -1.4904742444113845,
                -1.458615620963558,
                0.4088421143774136
            ]
        },
        {
            "positions": [
                2.371788866380971,
                -1.2125588150273445,
                -1.9418774074606766,
                -1.4323975375695748,
                -1.3462843328324359,
                0.3756644555496996
            ]
        },
        {
            "positions": [
                2.2078820345259675,
                -1.196668423957103,
                -1.9530068243324423,
                -1.3743208307277652,
                -1.2339530447013136,
                0.3424867967219856
            ]
        },
        {
            "positions": [
                2.0439752026709637,
                -1.1807780328868618,
                -1.9641362412042083,
                -1.3162441238859555,
                -1.1216217565701916,
                0.3093091378942716
            ]
        },
        {
            "positions": [
                1.8800683708159598,
                -1.1648876418166203,
                -1.975265658075974,
                -1.258167417044146,
                -1.0092904684390693,
                0.27613147906655766
            ]
        },
        {
            "positions": [
                1.716161538960956,
                -1.1489972507463788,
                -1.9863950749477397,
                -1.2000907102023362,
                -0.8969591803079472,
                0.24295382023884365
            ]
        },
        {
            "positions": [
                1.5522547071059523,
                -1.1331068596761373,
                -1.9975244918195056,
                -1.1420140033605266,
                -0.7846278921768249,
                0.20977616141112965
            ]
        },
        {
            "positions": [
                1.3883478752509484,
                -1.1172164686058959,
                -2.0086539086912714,
                -1.0839372965187168,
                -0.6722966040457029,
                0.1765985025834157
            ]
        },
        {
            "positions": [
                1.2244410433959447,
                -1.1013260775356546,
                -2.0197833255630373,
                -1.0258605896769073,
                -0.5599653159145808,
                0.1434208437557017
            ]
        },
        {
            "positions": [
                1.0605342115409409,
                -1.085435686465413,
                -2.0309127424348032,
                -0.9677838828350976,
                -0.4476340277834585,
                0.11024318492798768
            ]
        },
        {
            "positions": [
                0.8966273796859372,
                -1.0695452953951716,
                -2.0420421593065687,
                -0.9097071759932879,
                -0.3353027396523365,
                0.07706552610027373
            ]
        },
        {
            "positions": [
                0.7327205478309333,
                -1.0536549043249301,
                -2.0531715761783347,
                -0.8516304691514782,
                -0.22297145152121423,
                0.04388786727255972
            ]
        },
        {
            "positions": [
                0.5688137159759292,
                -1.0377645132546887,
                -2.0643009930501006,
                -0.7935537623096686,
                -0.11064016339009197,
                0.010710208444845715
            ]
        },
        {
            "positions": [
                0.4049068841209258,
                -1.0218741221844472,
                -2.075430409921866,
                -0.7354770554678589,
                0.001691124741030281,
                -0.022467450382868293
            ]
        },
        {
            "positions": [
                0.24100005226592192,
                -1.005983731114206,
                -2.086559826793632,
                -0.6774003486260494,
                0.11402241287215231,
                -0.055645109210582244
            ]
        },
        {
            "positions": [
                0.07709322041091804,
                -0.9900933400439644,
                -2.097689243665398,
                -0.6193236417842397,
                0.22635370100327434,
                -0.0888227680382962
            ]
        },
        {
            "positions": [
                -0.08681361144408584,
                -0.974202948973723,
                -2.1088186605371635,
                -0.56124693494243,
                0.3386849891343966,
                -0.12200042686601026
            ]
        },
        {
            "positions": [
                -0.25072044329908927,
                -0.9583125579034815,
                -2.1199480774089294,
                -0.5031702281006205,
                0.45101627726551863,
                -0.1551780856937242
            ]
        },
        {
            "positions": [
                -0.41462727515409314,
                -0.94242216683324,
                -2.1310774942806954,
                -0.44509352125881074,
                0.5633475653966409,
                -0.18835574452143816
            ]
        },
        {
            "positions": [
                -0.578534107009097,
                -0.9265317757629986,
                -2.142206911152461,
                -0.3870168144170012,
                0.6756788535277631,
                -0.22153340334915222
            ]
        },
        {
            "positions": [
                -0.7424409388641009,
                -0.9106413846927572,
                -2.153336328024227,
                -0.32894010757519143,
                0.7880101416588854,
                -0.2547110621768662
            ]
        },
        {
            "positions": [
                -0.9063477707191043,
                -0.8947509936225158,
                -2.1644657448959927,
                -0.27086340073338167,
                0.9003414297900072,
                -0.28788872100458013
            ]
        },
        {
            "positions": [
                -1.0702546025741082,
                -0.8788606025522743,
                -2.1755951617677587,
                -0.21278669389157212,
                1.0126727179211295,
                -0.3210663798322942
            ]
        },
        {
            "positions": [
                -1.234161434429112,
                -0.8629702114820328,
                -2.186724578639524,
                -0.15470998704976235,
                1.1250040060522517,
                -0.35424403866000814
            ]
        },
        {
            "positions": [
                -1.398068266284116,
                -0.8470798204117913,
                -2.19785399551129,
                -0.09663328020795281,
                1.237335294183374,
                -0.3874216974877222
            ]
        },
        {
            "positions": [
                -1.5619750981391203,
                -0.8311894293415499,
                -2.208983412383056,
                -0.03855657336614304,
                1.3496665823144962,
                -0.42059935631543616
            ]
        },
        {
            "positions": [
                -1.7258819299941237,
                -0.8152990382713085,
                -2.2201128292548216,
                0.0195201334756665,
                1.4619978704456185,
                -0.4537770151431502
            ]
        },
        {
            "positions": [
                -1.8897887618491271,
                -0.7994086472010671,
                -2.2312422461265875,
                0.07759684031747627,
                1.5743291585767407,
                -0.48695467397086417
            ]
        },
        {
            "positions": [
                -2.0536955937041315,
                -0.7835182561308256,
                -2.2423716629983534,
                0.13567354715928603,
                1.686660446707863,
                -0.5201323327985783
            ]
        },
        {
            "positions": [
                -2.217602425559135,
                -0.7676278650605841,
                -2.2535010798701194,
                0.19375025400109536,
                1.7989917348389848,
                -0.553309991626292
            ]
        },
        {
            "positions": [
                -2.3815092574141383,
                -0.7517374739903427,
                -2.264630496741885,
                0.2518269608429051,
                1.9113230229701066,
                -0.586487650454006
            ]
        },
        {
            "positions": [
                -2.5454160892691426,
                -0.7358470829201013,
                -2.275759913613651,
                0.30990366768471467,
                2.023654311101229,
                -0.6196653092817199
            ]
        },
        {
            "positions": [
                -2.709322921124146,
                -0.7199566918498598,
                -2.2868893304854168,
                0.36798037452652443,
                2.135985599232351,
                -0.6528429681094341
            ]
        },
        {
            "positions": [
                -2.8732297529791504,
                -0.7040663007796184,
                -2.2980187473571823,
                0.426057081368334,
                2.2483168873634733,
                -0.686020626937148
            ]
        },
        {
            "positions": [
                -3.037136584834154,
                -0.6881759097093769,
                -2.309148164228948,
                0.48413378821014375,
                2.3606481754945956,
                -0.719198285764862
            ]
        },
        {
            "positions": [
                -2.956082039565469,
                -0.6999038335644358,
                -2.1990420503432726,
                0.45000814298668884,
                2.303366515203695,
                -0.6201044394735344
            ]
        },
        {
            "positions": [
                -2.875027494296784,
                -0.7116317574194947,
                -2.088935936457597,
                0.41588249776323394,
                2.2460848549127936,
                -0.5210105931822069
            ]
        },
        {
            "positions": [
                -2.7939729490281,
                -0.7233596812745535,
                -1.9788298225719216,
                0.3817568525397791,
                2.188803194621893,
                -0.4219167468908792
            ]
        },
        {
            "positions": [
                -2.712918403759415,
                -0.7350876051296125,
                -1.8687237086862463,
                0.3476312073163242,
                2.131521534330992,
                -0.3228229005995517
            ]
        },
        {
            "positions": [
                -2.63186385849073,
                -0.7468155289846713,
                -1.7586175948005707,
                0.3135055620928693,
                2.0742398740400914,
                -0.22372905430822415
            ]
        },
        {
            "positions": [
                -2.5508093132220453,
                -0.7585434528397302,
                -1.648511480914895,
                0.2793799168694144,
                2.01695821374919,
                -0.12463520801689643
            ]
        },
        {
            "positions": [
                -2.4697547679533605,
                -0.7702713766947891,
                -1.5384053670292197,
                0.24525427164595948,
                1.9596765534582894,
                -0.02554136172556898
            ]
        },
        {
            "positions": [
                -2.388700222684676,
                -0.781999300549848,
                -1.4282992531435443,
                0.21112862642250463,
                1.9023948931673886,
                0.07355248456575858
            ]
        },
        {
            "positions": [
                -2.3076456774159912,
                -0.7937272244049068,
                -1.3181931392578687,
                0.17700298119904967,
                1.8451132328764877,
                0.17264633085708625
            ]
        },
        {
            "positions": [
                -2.2265911321473064,
                -0.8054551482599658,
                -1.2080870253721934,
                0.14287733597559482,
                1.7878315725855867,
                0.2717401771484137
            ]
        },
        {
            "positions": [
                -2.1455365868786216,
                -0.8171830721150246,
                -1.0979809114865178,
                0.10875169075213992,
                1.730549912294686,
                0.37083402343974137
            ]
        },
        {
            "positions": [
                -2.0644820416099368,
                -0.8289109959700836,
                -0.9878747976008422,
                0.07462604552868501,
                1.673268252003785,
                0.46992786973106915
            ]
        },
        {
            "positions": [
                -1.9834274963412524,
                -0.8406389198251424,
                -0.8777686837151668,
                0.040500400305230166,
                1.6159865917128842,
                0.5690217160223965
            ]
        },
        {
            "positions": [
                -1.9023729510725675,
                -0.8523668436802013,
                -0.7676625698294912,
                0.0063747550817752074,
                1.5587049314219832,
                0.668115562313724
            ]
        },
        {
            "positions": [
                -1.8213184058038827,
                -0.8640947675352602,
                -0.6575564559438158,
                -0.02775089014167964,
                1.5014232711310824,
                0.7672094086050518
            ]
        },
        {
            "positions": [
                -1.740263860535198,
                -0.8758226913903191,
                -0.5474503420581405,
                -0.06187653536513449,
                1.4441416108401814,
                0.8663032548963792
            ]
        },
        {
            "positions": [
                -1.6592093152665133,
                -0.8875506152453779,
                -0.4373442281724649,
                -0.09600218058858945,
                1.3868599505492805,
                0.9653971011877069
            ]
        },
        {
            "positions": [
                -1.5781547699978284,
                -0.8992785391004369,
                -0.3272381142867893,
                -0.1301278258120444,
                1.3295782902583797,
                1.0644909474790345
            ]
        },
        {
            "positions": [
                -1.4971002247291438,
                -0.9110064629554957,
                -0.2171320004011137,
                -0.16425347103549925,
                1.2722966299674787,
                1.163584793770362
            ]
        },
        {
            "positions": [
                -1.4160456794604592,
                -0.9227343868105546,
                -0.10702588651543854,
                -0.1983791162589541,
                1.215014969676578,
                1.2626786400616894
            ]
        },
        {
            "positions": [
                -1.3349911341917744,
                -0.9344623106656135,
                0.003080227370237054,
                -0.23250476148240895,
                1.157733309385677,
                1.3617724863530172
            ]
        },
        {
            "positions": [
                -1.2539365889230896,
                -0.9461902345206723,
                0.11318634125591265,
                -0.2666304067058639,
                1.1004516490947762,
                1.4608663326443447
            ]
        },
        {
            "positions": [
                -1.1728820436544047,
                -0.9579181583757312,
                0.22329245514158824,
                -0.30075605192931887,
                1.0431699888038752,
                1.5599601789356723
            ]
        },
        {
            "positions": [
                -1.09182749838572,
                -0.9696460822307902,
                0.33339856902726384,
                -0.3348816971527737,
                0.9858883285129743,
                1.6590540252270003
            ]
        },
        {
            "positions": [
                -1.0107729531170353,
                -0.9813740060858491,
                0.44350468291293943,
                -0.3690073423762287,
                0.9286066682220733,
                1.7581478715183279
            ]
        },
        {
            "positions": [
                -0.9297184078483509,
                -0.9931019299409078,
                0.5536107967986146,
                -0.4031329875996834,
                0.8713250079311727,
                1.857241717809655
            ]
        },
        {
            "positions": [
                -0.8486638625796661,
                -1.0048298537959668,
                0.6637169106842902,
                -0.43725863282313837,
                0.8140433476402718,
                1.9563355641009825
            ]
        },
        {
            "positions": [
                -0.7676093173109813,
                -1.0165577776510257,
                0.7738230245699658,
                -0.47138427804659333,
                0.7567616873493708,
                2.05542941039231
            ]
        },
        {
            "positions": [
                -0.6865547720422964,
                -1.0282857015060847,
                0.8839291384556414,
                -0.5055099232700482,
                0.6994800270584698,
                2.154523256683638
            ]
        },
        {
            "positions": [
                -0.6055002267736116,
                -1.0400136253611434,
                0.9940352523413165,
                -0.539635568493503,
                0.642198366767569,
                2.2536171029749656
            ]
        },
        {
            "positions": [
                -0.5244456815049272,
                -1.0517415492162023,
                1.1041413662269917,
                -0.5737612137169579,
                0.5849167064766683,
                2.3527109492662928
            ]
        },
        {
            "positions": [
                -0.4433911362362424,
                -1.0634694730712613,
                1.2142474801126673,
                -0.6078868589404127,
                0.5276350461857673,
                2.4518047955576203
            ]
        },
        {
            "positions": [
                -0.36233659096755755,
                -1.07519739692632,
                1.3243535939983428,
                -0.6420125041638678,
                0.4703533858948663,
                2.5508986418489483
            ]
        },
        {
            "positions": [
                -0.2812820456988727,
                -1.086925320781379,
                1.4344597078840184,
                -0.6761381493873226,
                0.41307172560396554,
                2.649992488140276
            ]
        },
        {
            "positions": [
                -0.2002275004301879,
                -1.0986532446364379,
                1.544565821769694,
                -0.7102637946107775,
                0.35579006531306456,
                2.7490863344316034
            ]
        },
        {
            "positions": [
                -0.11917295516150306,
                -1.1103811684914968,
                1.6546719356553696,
                -0.7443894398342326,
                0.2985084050221638,
                2.848180180722931
            ]
        },
        {
            "positions": [
                -0.03811840989281867,
                -1.1221090923465558,
                1.7647780495410448,
                -0.7785150850576872,
                0.24122674473126304,
                2.9472740270142586
            ]
        },
        {
            "positions": [
                0.04293613537586616,
                -1.1338370162016145,
                1.8748841634267208,
                -0.8126407302811423,
                0.18394508444036184,
                3.046367873305586
            ]
        },
        {
            "positions": [
                0.12399068064455111,
                -1.1455649400566734,
                1.984990277312396,
                -0.8467663755045971,
                0.1266634241494612,
                3.1454617195969137
            ]
        }
    ]
}{
    "goal": {
        "global_pose": {
            "orientation": {
                "w": 0.7047431468963623,
                "x": -0.7094548344612122,
                "y": 0.0024358443915843964,
                "z": -0.0022348060738295317
            },
            "position": {
                "x": 0.6094750761985779,
                "y": 0.3671506643295288,
                "z": 0.19426114857196808
            }
        },
        "name": "move_to_magneteinheit_A"
    },
    "id": "LazyPRMstar_move_to_magneteinheit_A_40",
    "joint_names": [
        "shoulder_pan_joint",
        "shoulder_lift_joint",
        "elbow_joint",
        "wrist_1_joint",
        "wrist_2_joint",
        "wrist_3_joint"
    ],
    "metrics": {
        "cart_traj_len": 1.1687141660095122,
        "distance_elbow_joint": 0.125739822454638,
        "distance_shoulder_lift_joint": 0.7489688190578716,
        "distance_shoulder_pan_joint": 1.24131518682373,
        "distance_wrist_1_joint": 0.7413946304297809,
        "distance_wrist_2_joint": 1.466639301286476,
        "distance_wrist_3_joint": 4.250155545824555,
        "smoothness": 0.03580449174353577,
        "time": 5.030330236,
        "traj_len": 2.9281757641707657,
        "weighted_distance": 4.391190992116195
    },
    "planner": "LazyPRMstar",
    "start": {
        "state": {
            "elbow_joint": 1.919643534880228,
            "shoulder_lift_joint": -1.8972525353963687,
            "shoulder_pan_joint": -1.1188672234189438,
            "wrist_1_joint": -1.5931878212786155,
            "wrist_2_joint": 1.5706036197970081,
            "wrist_3_joint": 1.118896926603594
        }
    },
    "waypoints": [
        {
            "positions": [
                -1.1188672234189438,
                -1.8972525353963687,
                1.919643534880228,
                -1.5931878212786155,
                1.5706036197970081,
                1.118896926603594
            ]
        },
        {
            "positions": [
                -1.0606049881562891,
                -1.8739515413296042,
                1.9247612658414377,
                -1.577643434411277,
                1.494156729374133,
                0.9056578441090875
            ]
        },
        {
            "positions": [
                -1.0023427528936342,
                -1.8506505472628396,
                1.9298789968026475,
                -1.5620990475439387,
                1.4177098389512575,
                0.6924187616145809
            ]
        },
        {
            "positions": [
                -0.9440805176309794,
                -1.827349553196075,
                1.9349967277638571,
                -1.5465546606766003,
                1.3412629485283822,
                0.4791796791200744
            ]
        },
        {
            "positions": [
                -0.8858182823683246,
                -1.8040485591293105,
                1.9401144587250667,
                -1.531010273809262,
                1.264816058105507,
                0.2659405966255679
            ]
        },
        {
            "positions": [
                -0.8275560471056698,
                -1.7807475650625462,
                1.9452321896862763,
                -1.5154658869419233,
                1.1883691676826316,
                0.05270151413106139
            ]
        },
        {
            "positions": [
                -0.7692938118430149,
                -1.7574465709957816,
                1.9503499206474861,
                -1.499921500074585,
                1.1119222772597563,
                -0.16053756836344513
            ]
        },
        {
            "positions": [
                -0.7110315765803601,
                -1.734145576929017,
                1.9554676516086957,
                -1.4843771132072465,
                1.0354753868368811,
                -0.37377665085795164
            ]
        },
        {
            "positions": [
                -0.6527693413177054,
                -1.7108445828622525,
                1.9605853825699053,
                -1.4688327263399081,
                0.9590284964140058,
                -0.5870157333524582
            ]
        },
        {
            "positions": [
                -0.5945071060550505,
                -1.687543588795488,
                1.965703113531115,
                -1.4532883394725697,
                0.8825816059911306,
                -0.8002548158469647
            ]
        },
        {
            "positions": [
                -0.5362448707923957,
                -1.6642425947287234,
                1.9708208444923248,
                -1.4377439526052314,
                0.8061347155682552,
                -1.0134938983414712
            ]
        },
        {
            "positions": [
                -0.47798263552974085,
                -1.6409416006619588,
                1.9759385754535344,
                -1.422199565737893,
                0.7296878251453799,
                -1.2267329808359781
            ]
        },
        {
            "positions": [
                -0.419720400267086,
                -1.6176406065951943,
                1.981056306414744,
                -1.4066551788705546,
                0.6532409347225047,
                -1.4399720633304842
            ]
        },
        {
            "positions": [
                -0.3614581650044312,
                -1.5943396125284297,
                1.9861740373759535,
                -1.3911107920032162,
                0.5767940442996293,
                -1.6532111458249912
            ]
        },
        {
            "positions": [
                -0.30319592974177645,
                -1.5710386184616651,
                1.9912917683371634,
                -1.3755664051358778,
                0.5003471538767541,
                -1.8664502283194973
            ]
        },
        {
            "positions": [
                -0.2449336944791215,
                -1.5477376243949008,
                1.996409499298373,
                -1.3600220182685392,
                0.42390026345387866,
                -2.079689310814004
            ]
        },
        {
            "positions": [
                -0.18667145921646677,
                -1.5244366303281363,
                2.001527230259583,
                -1.3444776314012008,
                0.34745337303100343,
                -2.29292839330851
            ]
        },
        {
            "positions": [
                -0.12840922395381194,
                -1.5011356362613717,
                2.0066449612207924,
                -1.3289332445338624,
                0.2710064826081282,
                -2.506167475803017
            ]
        },
        {
            "positions": [
                -0.07014698869115721,
                -1.4778346421946071,
                2.011762692182002,
                -1.313388857666524,
                0.19455959218525298,
                -2.719406558297523
            ]
        },
        {
            "positions": [
                -0.011884753428502315,
                -1.4545336481278426,
                2.0168804231432116,
                -1.2978444707991856,
                0.11811270176237759,
                -2.9326456407920305
            ]
        },
        {
            "positions": [
                0.032892818849260375,
                -1.352450337531394,
                2.0073794450793265,
                -1.1491607108157353,
                0.12282882951299265,
                -2.9988499669350066
            ]
        },
        {
            "positions": [
                0.07767039112702306,
                -1.2503670269349456,
                1.997878467015442,
                -1.0004769508322848,
                0.1275449572636077,
                -3.065054293077983
            ]
        },
        {
            "positions": [
                0.12244796340478575,
                -1.1482837163384971,
                1.988377488951557,
                -0.8517931908488345,
                0.13226108501422276,
                -3.1312586192209593
            ]
        }
    ]
}