{
    "goal": {
        "global_pose": {
            "orientation": {
                "w": 0.7047431468963623,
                "x": -0.7094548344612122,
                "y": 0.0024358443915843964,
                "z": -0.0022348060738295317
            },
            "position": {
                "x": 0.6094750761985779,
                "y": 0.3671506643295288,
                "z": 0.19426114857196808
            }
        },
        "name": "move_to_magneteinheit_A"
    },
    "id": "LazyPRMstar_move_to_magneteinheit_A_125",
    "joint_names": [
        "shoulder_pan_joint",
        "shoulder_lift_joint",
        "elbow_joint",
        "wrist_1_joint",
        "wrist_2_joint",
        "wrist_3_joint"
    ],
    "metrics": {
        "cart_traj_len": 3.270268030411033,
        "distance_elbow_joint": 3.907685278493065,
        "distance_shoulder_lift_joint": 0.6074397121030675,
        "distance_shoulder_pan_joint": 2.764224420517735,
        "distance_wrist_1_joint": 4.424790491030501,
        "distance_wrist_2_joint": 2.318898977803698,
        "distance_wrist_3_joint": 1.416198387288137,
        "smoothness": 0.7433907711151015,
        "time": 5.0409991110000005,
        "traj_len": 3.92927948449028,
        "weighted_distance": 5.001532116326624
    },
    "planner": "LazyPRMstar",
    "start": {
        "state": {
            "elbow_joint": -1.919618573717145,
            "shoulder_lift_joint": -1.2443395971678275,
            "shoulder_pan_joint": 2.6996025300909787,
            "wrist_1_joint": -1.548550951253194,
            "wrist_2_joint": -1.5709469090946802,
            "wrist_3_joint": 0.4420197732051276
        }
    },
    "waypoints": [
        {
            "positions": [
                2.6996025300909787,
                -1.2443395971678275,
                -1.919618573717145,
                -1.548550951253194,
                -1.5709469090946802,
                0.4420197732051276
            ]
        },
        {
            "positions": [
                2.6124448137796072,
                -1.229926437320626,
                -1.826842634590839,
                -1.420511120750997,
                -1.5209694971256877,
                0.42678278774419526
            ]
        },
        {
            "positions": [
                2.5252870974682353,
                -1.2155132774734245,
                -1.7340666954645332,
                -1.2924712902488,
                -1.470992085156695,
                0.4115458022832629
            ]
        },
        {
            "positions": [
                2.438129381156864,
                -1.2011001176262228,
                -1.6412907563382275,
                -1.164431459746603,
                -1.4210146731877027,
                0.39630881682233055
            ]
        },
        {
            "positions": [
                2.350971664845492,
                -1.1866869577790213,
                -1.5485148172119216,
                -1.036391629244406,
                -1.37103726121871,
                0.38107183136139816
            ]
        },
        {
            "positions": [
                2.2638139485341204,
                -1.1722737979318198,
                -1.4557388780856158,
                -0.9083517987422088,
                -1.3210598492497176,
                0.36583484590046583
            ]
        },
        {
            "positions": [
                2.176656232222749,
                -1.1578606380846184,
                -1.3629629389593099,
                -0.7803119682400118,
                -1.2710824372807252,
                0.35059786043953345
            ]
        },
        {
            "positions": [
                2.089498515911377,
                -1.1434474782374169,
                -1.2701869998330042,
                -0.6522721377378147,
                -1.2211050253117326,
                0.3353608749786011
            ]
        },
        {
            "positions": [
                2.0023407996000055,
                -1.1290343183902154,
                -1.177411060706698,
                -0.5242323072356176,
                -1.17112761334274,
                0.32012388951766874
            ]
        },
        {
            "positions": [
                1.9151830832886338,
                -1.114621158543014,
                -1.0846351215803924,
                -0.3961924767334206,
                -1.1211502013737475,
                0.3048869040567364
            ]
        },
        {
            "positions": [
                1.8280253669772621,
                -1.1002079986958122,
                -0.9918591824540866,
                -0.2681526462312236,
                -1.0711727894047551,
                0.289649918595804
            ]
        },
        {
            "positions": [
                1.7408676506658907,
                -1.0857948388486107,
                -0.8990832433277807,
                -0.14011281572902656,
                -1.0211953774357625,
                0.2744129331348717
            ]
        },
        {
            "positions": [
                1.6537099343545187,
                -1.0713816790014092,
                -0.806307304201475,
                -0.012072985226829536,
                -0.9712179654667701,
                0.25917594767393937
            ]
        },
        {
            "positions": [
                1.5665522180431473,
                -1.0569685191542078,
                -0.7135313650751691,
                0.11596684527536771,
                -0.9212405534977776,
                0.24393896221300698
            ]
        },
        {
            "positions": [
                1.4793945017317756,
                -1.0425553593070063,
                -0.6207554259488632,
                0.24400667577756474,
                -0.871263141528785,
                0.22870197675207463
            ]
        },
        {
            "positions": [
                1.3922367854204039,
                -1.0281421994598046,
                -0.5279794868225571,
                0.372046506279762,
                -0.8212857295597924,
                0.21346499129114224
            ]
        },
        {
            "positions": [
                1.3050790691090322,
                -1.013729039612603,
                -0.43520354769625147,
                0.5000863367819588,
                -0.7713083175908,
                0.1982280058302099
            ]
        },
        {
            "positions": [
                1.2179213527976605,
                -0.9993158797654016,
                -0.3424276085699456,
                0.6281261672841558,
                -0.7213309056218075,
                0.18299102036927756
            ]
        },
        {
            "positions": [
                1.130763636486289,
                -0.9849027199182001,
                -0.24965166944363992,
                0.7561659977863529,
                -0.6713534936528149,
                0.16775403490834523
            ]
        },
        {
            "positions": [
                1.043605920174917,
                -0.9704895600709986,
                -0.15687573031733382,
                0.8842058282885503,
                -0.6213760816838224,
                0.15251704944741284
            ]
        },
        {
            "positions": [
                0.9564482038635456,
                -0.9560764002237971,
                -0.06409979119102815,
                1.012245658790747,
                -0.57139866971483,
                0.13728006398648052
            ]
        },
        {
            "positions": [
                0.8692904875521739,
                -0.9416632403765955,
                0.02867614793527773,
                1.1402854892929444,
                -0.5214212577458375,
                0.12204307852554813
            ]
        },
        {
            "positions": [
                0.7821327712408024,
                -0.9272500805293941,
                0.12145208706158361,
                1.268325319795141,
                -0.47144384577684484,
                0.1068060930646158
            ]
        },
        {
            "positions": [
                0.6949750549294307,
                -0.9128369206821925,
                0.21422802618788928,
                1.3963651502973384,
                -0.4214664338078524,
                0.09156910760368342
            ]
        },
        {
            "positions": [
                0.6078173386180588,
                -0.898423760834991,
                0.30700396531419494,
                1.524404980799535,
                -0.37148902183886,
                0.07633212214275109
            ]
        },
        {
            "positions": [
                0.5206596223066873,
                -0.8840106009877895,
                0.39977990444050104,
                1.6524448113017325,
                -0.3215116098698674,
                0.06109513668181871
            ]
        },
        {
            "positions": [
                0.4335019059953158,
                -0.869597441140588,
                0.4925558435668067,
                1.7804846418039295,
                -0.27153419790087496,
                0.04585815122088638
            ]
        },
        {
            "positions": [
                0.34634418968394387,
                -0.8551842812933864,
                0.5853317826931128,
                1.9085244723061263,
                -0.2215567859318823,
                0.030621165759954015
            ]
        },
        {
            "positions": [
                0.2566190509650476,
                -0.8540459746856897,
                0.7492074401400592,
                1.9502631719155736,
                -0.18699769050743636,
                0.03284212756738428
            ]
        },
        {
            "positions": [
                0.16689391224615135,
                -0.852907668077993,
                0.9130830975870057,
                1.992001871525021,
                -0.1524385950829904,
                0.035063089374814546
            ]
        },
        {
            "positions": [
                0.14712390239827042,
                -0.831895382966315,
                1.0206071358991788,
                1.9225261734109556,
                -0.2145240601133067,
                0.10552546412939988
            ]
        },
        {
            "positions": [
                0.12735389255038948,
                -0.8108830978546371,
                1.1281311742113518,
                1.85305047529689,
                -0.276609525143623,
                0.17598783888398523
            ]
        },
        {
            "positions": [
                0.10758388270250854,
                -0.7898708127429592,
                1.235655212523525,
                1.7835747771828245,
                -0.33869499017393934,
                0.24645021363857056
            ]
        },
        {
            "positions": [
                0.08781387285462759,
                -0.7688585276312813,
                1.3431792508356981,
                1.7140990790687591,
                -0.40078045520425565,
                0.3169125883931559
            ]
        },
        {
            "positions": [
                0.06804386300674664,
                -0.7478462425196033,
                1.4507032891478713,
                1.6446233809546937,
                -0.46286592023457196,
                0.3873749631477412
            ]
        },
        {
            "positions": [
                0.04827385315886572,
                -0.7268339574079253,
                1.5582273274600442,
                1.5751476828406283,
                -0.5249513852648883,
                0.45783733790232656
            ]
        },
        {
            "positions": [
                0.028503843310984767,
                -0.7058216722962474,
                1.6657513657722174,
                1.5056719847265627,
                -0.5870368502952046,
                0.5282997126569119
            ]
        },
        {
            "positions": [
                0.04712899005853283,
                -0.7196060297425448,
                1.730214433572958,
                1.5852535410173285,
                -0.4938783685792455,
                0.4268754660677108
            ]
        },
        {
            "positions": [
                0.06575413680608089,
                -0.7333903871888423,
                1.7946775013736982,
                1.6648350973080945,
                -0.40071988686328647,
                0.32545121947850975
            ]
        },
        {
            "positions": [
                0.08437928355362895,
                -0.7471747446351398,
                1.8591405691744387,
                1.7444166535988601,
                -0.30756140514732744,
                0.22402697288930873
            ]
        },
        {
            "positions": [
                0.10300443030117701,
                -0.7609591020814372,
                1.9236036369751792,
                1.8239982098896261,
                -0.21440292343136835,
                0.1226027263001076
            ]
        },
        {
            "positions": [
                0.12162957704872507,
                -0.7747434595277347,
                1.9880667047759195,
                1.903579766180392,
                -0.12124444171540931,
                0.02117847971090662
            ]
        }
    ]
}{
    "goal": {
        "global_pose": {
            "orientation": {
                "w": 0.7047431468963623,
                "x": -0.7094548344612122,
                "y": 0.0024358443915843964,
                "z": -0.0022348060738295317
            },
            "position": {
                "x": 0.6094750761985779,
                "y": 0.3671506643295288,
                "z": 0.19426114857196808
            }
        },
        "name": "move_to_magneteinheit_A"
    },
    "id": "LazyPRMstar_move_to_magneteinheit_A_125",
    "joint_names": [
        "shoulder_pan_joint",
        "shoulder_lift_joint",
        "elbow_joint",
        "wrist_1_joint",
        "wrist_2_joint",
        "wrist_3_joint"
    ],
    "metrics": {
        "cart_traj_len": 1.2508440519595145,
        "distance_elbow_joint": 0.21955505747670578,
        "distance_shoulder_lift_joint": 0.7668825508170773,
        "distance_shoulder_pan_joint": 1.2424472438430383,
        "distance_wrist_1_joint": 0.8823868866946476,
        "distance_wrist_2_joint": 1.4465192002244929,
        "distance_wrist_3_joint": 4.36659308105601,
        "smoothness": 0.015061181067787997,
        "time": 5.036124904,
        "traj_len": 2.9873707537083463,
        "weighted_distance": 4.470623700239502
    },
    "planner": "LazyPRMstar",
    "start": {
        "state": {
            "elbow_joint": 1.919643534880228,
            "shoulder_lift_joint": -1.8972525353963687,
            "shoulder_pan_joint": -1.1188672234189438,
            "wrist_1_joint": -1.5931878212786155,
            "wrist_2_joint": 1.5706036197970081,
            "wrist_3_joint": 1.118896926603594
        }
    },
    "waypoints": [
        {
            "positions": [
                -1.1188672234189438,
                -1.8972525353963687,
                1.919643534880228,
                -1.5931878212786155,
                1.5706036197970081,
                1.118896926603594
            ]
        },
        {
            "positions": [
                -1.0644916206142556,
                -1.864437864315825,
                1.915463542801701,
                -1.554267253377024,
                1.5069136548180553,
                0.9232990732311912
            ]
        },
        {
            "positions": [
                -1.0101160178095672,
                -1.8316231932352813,
                1.911283550723174,
                -1.5153466854754325,
                1.4432236898391027,
                0.7277012198587883
            ]
        },
        {
            "positions": [
                -0.9557404150048789,
                -1.7988085221547376,
                1.907103558644647,
                -1.4764261175738411,
                1.3795337248601498,
                0.5321033664863856
            ]
        },
        {
            "positions": [
                -0.9013648122001907,
                -1.765993851074194,
                1.9029235665661202,
                -1.4375055496722495,
                1.3158437598811972,
                0.3365055131139827
            ]
        },
        {
            "positions": [
                -0.8469892093955024,
                -1.7331791799936502,
                1.8987435744875931,
                -1.3985849817706582,
                1.2521537949022443,
                0.14090765974157993
            ]
        },
        {
            "positions": [
                -0.792613606590814,
                -1.7003645089131065,
                1.894563582409066,
                -1.3596644138690666,
                1.1884638299232917,
                -0.054690193630822836
            ]
        },
        {
            "positions": [
                -0.7382380037861258,
                -1.6675498378325628,
                1.890383590330539,
                -1.320743845967475,
                1.1247738649443388,
                -0.2502880470032256
            ]
        },
        {
            "positions": [
                -0.6838624009814375,
                -1.6347351667520191,
                1.886203598252012,
                -1.2818232780658836,
                1.0610838999653862,
                -0.4458859003756286
            ]
        },
        {
            "positions": [
                -0.6294867981767491,
                -1.6019204956714754,
                1.882023606173485,
                -1.2429027101642922,
                0.9973939349864334,
                -0.6414837537480313
            ]
        },
        {
            "positions": [
                -0.5751111953720609,
                -1.569105824590932,
                1.877843614094958,
                -1.2039821422627006,
                0.9337039700074806,
                -0.8370816071204341
            ]
        },
        {
            "positions": [
                -0.5207355925673726,
                -1.5362911535103883,
                1.8736636220164309,
                -1.165061574361109,
                0.8700140050285279,
                -1.0326794604928369
            ]
        },
        {
            "positions": [
                -0.46635998976268433,
                -1.5034764824298446,
                1.869483629937904,
                -1.1261410064595176,
                0.8063240400495751,
                -1.2282773138652396
            ]
        },
        {
            "positions": [
                -0.4119843869579959,
                -1.4706618113493009,
                1.865303637859377,
                -1.0872204385579263,
                0.7426340750706223,
                -1.4238751672376424
            ]
        },
        {
            "positions": [
                -0.35760878415330766,
                -1.4378471402687572,
                1.86112364578085,
                -1.0482998706563347,
                0.6789441100916697,
                -1.6194730206100452
            ]
        },
        {
            "positions": [
                -0.30323318134861943,
                -1.4050324691882135,
                1.856943653702323,
                -1.009379302754743,
                0.6152541451127169,
                -1.815070873982448
            ]
        },
        {
            "positions": [
                -0.2488575785439311,
                -1.3722177981076698,
                1.852763661623796,
                -0.9704587348531517,
                0.5515641801337641,
                -2.010668727354851
            ]
        },
        {
            "positions": [
                -0.19448197573924275,
                -1.339403127027126,
                1.8485836695452689,
                -0.9315381669515602,
                0.48787421515481144,
                -2.2062665807272532
            ]
        },
        {
            "positions": [
                -0.1401063729345544,
                -1.3065884559465824,
                1.8444036774667418,
                -0.8926175990499687,
                0.4241842501758586,
                -2.4018644340996564
            ]
        },
        {
            "positions": [
                -0.08573077012986619,
                -1.2737737848660386,
                1.840223685388215,
                -0.8536970311483772,
                0.36049428519690596,
                -2.5974622874720596
            ]
        },
        {
            "positions": [
                -0.03135516732517796,
                -1.240959113785495,
                1.836043693309688,
                -0.8147764632467858,
                0.2968043202179531,
                -2.793060140844462
            ]
        },
        {
            "positions": [
                0.023020435479510493,
                -1.2081444427049512,
                1.831863701231161,
                -0.7758558953451943,
                0.23311435523900026,
                -2.988657994216865
            ]
        },
        {
            "positions": [
                0.07739603828419873,
                -1.1753297716244075,
                1.827683709152634,
                -0.7369353274436028,
                0.16942439026004752,
                -3.1842558475892675
            ]
        },
        {
            "positions": [
                0.12358002042409452,
                -1.1303699845792914,
                1.9552789409017455,
                -0.7108009345839679,
                0.12408441957251522,
                -3.2476961544524157
            ]
        }
    ]
}