{
    "goal": {
        "global_pose": {
            "orientation": {
                "w": 0.5084816217422485,
                "x": -0.49083608388900757,
                "y": 0.5182115435600281,
                "z": -0.4816462993621826
            },
            "position": {
                "x": 0.5540239810943604,
                "y": 0.030875300988554955,
                "z": 0.16403168439865112
            }
        },
        "name": "move_to_storage_A"
    },
    "id": "LazyPRM_move_to_storage_A_55",
    "joint_names": [
        "shoulder_pan_joint",
        "shoulder_lift_joint",
        "elbow_joint",
        "wrist_1_joint",
        "wrist_2_joint",
        "wrist_3_joint"
    ],
    "metrics": {
        "cart_traj_len": 0.3534253276622503,
        "distance_elbow_joint": 0.4494800654893414,
        "distance_shoulder_lift_joint": 0.23465690668159578,
        "distance_shoulder_pan_joint": 0.4621342209956164,
        "distance_wrist_1_joint": 0.2372367745391596,
        "distance_wrist_2_joint": 1.0999488752137307,
        "distance_wrist_3_joint": 0.09112646319533857,
        "smoothness": 0.0,
        "time": 0.012290153,
        "traj_len": 1.6045508113222162,
        "weighted_distance": 2.02336894368238
    },
    "planner": "LazyPRM",
    "start": {
        "state": {
            "elbow_joint": 1.9715477243005601,
            "shoulder_lift_joint": -1.1394853015351272,
            "shoulder_pan_joint": 0.12281154014795169,
            "wrist_1_joint": -0.7804696478968182,
            "wrist_2_joint": 0.12958648046900423,
            "wrist_3_joint": -3.192491284697111
        }
    },
    "waypoints": [
        {
            "positions": [
                0.12281154014795169,
                -1.1394853015351272,
                1.9715477243005601,
                -0.7804696478968182,
                0.12958648046900423,
                -3.192491284697111
            ]
        },
        {
            "positions": [
                0.056792365720006496,
                -1.1730077167753552,
                2.0357591622276088,
                -0.8143606156881267,
                0.28672203407096575,
                -3.1794732185263483
            ]
        },
        {
            "positions": [
                -0.009226808707938697,
                -1.206530132015583,
                2.099970600154658,
                -0.8482515834794352,
                0.44385758767292727,
                -3.166455152355586
            ]
        },
        {
            "positions": [
                -0.07524598313588389,
                -1.240052547255811,
                2.1641820380817065,
                -0.8821425512707437,
                0.6009931412748888,
                -3.153437086184823
            ]
        },
        {
            "positions": [
                -0.14126515756382907,
                -1.273574962496039,
                2.228393476008755,
                -0.9160335190620522,
                0.7581286948768503,
                -3.1404190200140607
            ]
        },
        {
            "positions": [
                -0.20728433199177432,
                -1.307097377736267,
                2.2926049139358042,
                -0.9499244868533607,
                0.9152642484788119,
                -3.127400953843298
            ]
        },
        {
            "positions": [
                -0.27330350641971946,
                -1.340619792976495,
                2.356816351862853,
                -0.9838154546446692,
                1.0723998020807732,
                -3.1143828876725355
            ]
        },
        {
            "positions": [
                -0.3393226808476647,
                -1.374142208216723,
                2.4210277897899015,
                -1.0177064224359778,
                1.229535355682735,
                -3.1013648215017726
            ]
        }
    ]
}