{
    "goal": {
        "global_pose": {
            "orientation": {
                "w": 0.7047431468963623,
                "x": -0.7094548344612122,
                "y": 0.0024358443915843964,
                "z": -0.0022348060738295317
            },
            "position": {
                "x": 0.6094750761985779,
                "y": 0.3671506643295288,
                "z": 0.19426114857196808
            }
        },
        "name": "move_to_magneteinheit_A"
    },
    "id": "LazyPRMstar_move_to_magneteinheit_A_150",
    "joint_names": [
        "shoulder_pan_joint",
        "shoulder_lift_joint",
        "elbow_joint",
        "wrist_1_joint",
        "wrist_2_joint",
        "wrist_3_joint"
    ],
    "metrics": {
        "cart_traj_len": 4.147995909182378,
        "distance_elbow_joint": 4.622997687772458,
        "distance_shoulder_lift_joint": 0.2556596907222981,
        "distance_shoulder_pan_joint": 3.602856840359201,
        "distance_wrist_1_joint": 0.9362058375760308,
        "distance_wrist_2_joint": 2.139711831998723,
        "distance_wrist_3_joint": 3.3677603568863055,
        "smoothness": 0.5706874124203839,
        "time": 5.028057167999999,
        "traj_len": 3.863313635380257,
        "weighted_distance": 4.973593331652918
    },
    "planner": "LazyPRMstar",
    "start": {
        "state": {
            "elbow_joint": -1.919618573717145,
            "shoulder_lift_joint": -1.2443395971678275,
            "shoulder_pan_joint": 2.6996025300909787,
            "wrist_1_joint": -1.548550951253194,
            "wrist_2_joint": -1.5709469090946802,
            "wrist_3_joint": 0.4420197732051276
        }
    },
    "waypoints": [
        {
            "positions": [
                2.6996025300909787,
                -1.2443395971678275,
                -1.919618573717145,
                -1.548550951253194,
                -1.5709469090946802,
                0.4420197732051276
            ]
        },
        {
            "positions": [
                2.5933368526496228,
                -1.2347449349061128,
                -1.8137313702039752,
                -1.5518960556133674,
                -1.4995059248855742,
                0.5285519459423158
            ]
        },
        {
            "positions": [
                2.487071175208267,
                -1.2251502726443981,
                -1.7078441666908053,
                -1.5552411599735407,
                -1.428064940676468,
                0.615084118679504
            ]
        },
        {
            "positions": [
                2.380805497766911,
                -1.2155556103826834,
                -1.6019569631776356,
                -1.558586264333714,
                -1.3566239564673621,
                0.7016162914166921
            ]
        },
        {
            "positions": [
                2.274539820325555,
                -1.2059609481209688,
                -1.4960697596644659,
                -1.5619313686938872,
                -1.285182972258256,
                0.7881484641538803
            ]
        },
        {
            "positions": [
                2.168274142884199,
                -1.196366285859254,
                -1.390182556151296,
                -1.5652764730540605,
                -1.21374198804915,
                0.8746806368910685
            ]
        },
        {
            "positions": [
                2.062008465442843,
                -1.1867716235975394,
                -1.2842953526381262,
                -1.5686215774142338,
                -1.142301003840044,
                0.9612128096282566
            ]
        },
        {
            "positions": [
                1.9557427880014866,
                -1.1771769613358247,
                -1.1784081491249565,
                -1.5719666817744071,
                -1.070860019630938,
                1.0477449823654448
            ]
        },
        {
            "positions": [
                1.8494771105601306,
                -1.16758229907411,
                -1.0725209456117866,
                -1.5753117861345804,
                -0.999419035421832,
                1.134277155102633
            ]
        },
        {
            "positions": [
                1.7432114331187747,
                -1.1579876368123956,
                -0.9666337420986169,
                -1.5786568904947538,
                -0.9279780512127259,
                1.220809327839821
            ]
        },
        {
            "positions": [
                1.6369457556774187,
                -1.148392974550681,
                -0.8607465385854471,
                -1.5820019948549269,
                -0.8565370670036199,
                1.3073415005770093
            ]
        },
        {
            "positions": [
                1.5306800782360626,
                -1.1387983122889662,
                -0.7548593350722772,
                -1.5853470992151002,
                -0.7850960827945137,
                1.3938736733141974
            ]
        },
        {
            "positions": [
                1.4244144007947068,
                -1.1292036500272515,
                -0.6489721315591075,
                -1.5886922035752735,
                -0.7136550985854078,
                1.4804058460513856
            ]
        },
        {
            "positions": [
                1.3181487233533506,
                -1.1196089877655369,
                -0.5430849280459376,
                -1.5920373079354468,
                -0.6422141143763017,
                1.5669380187885737
            ]
        },
        {
            "positions": [
                1.2118830459119947,
                -1.1100143255038222,
                -0.43719772453276784,
                -1.5953824122956202,
                -0.5707731301671957,
                1.653470191525762
            ]
        },
        {
            "positions": [
                1.1056173684706387,
                -1.1004196632421075,
                -0.3313105210195979,
                -1.5987275166557935,
                -0.4993321459580897,
                1.74000236426295
            ]
        },
        {
            "positions": [
                0.9993516910292828,
                -1.0908250009803928,
                -0.2254233175064284,
                -1.6020726210159666,
                -0.4278911617489838,
                1.8265345370001382
            ]
        },
        {
            "positions": [
                0.8930860135879266,
                -1.0812303387186781,
                -0.11953611399325847,
                -1.60541772537614,
                -0.3564501775398776,
                1.9130667097373264
            ]
        },
        {
            "positions": [
                0.7868203361465709,
                -1.0716356764569634,
                -0.01364891048008876,
                -1.6087628297363132,
                -0.2850091933307717,
                1.9995988824745146
            ]
        },
        {
            "positions": [
                0.6805546587052145,
                -1.0620410141952488,
                0.09223829303308127,
                -1.6121079340964866,
                -0.21356820912166555,
                2.0861310552117027
            ]
        },
        {
            "positions": [
                0.604095410154724,
                -1.0637238976903864,
                0.252387358585952,
                -1.6035702621081542,
                -0.1730823671846148,
                2.1819593878026904
            ]
        },
        {
            "positions": [
                0.5276361616042335,
                -1.0654067811855241,
                0.4125364241388228,
                -1.5950325901198217,
                -0.13259652524756405,
                2.2777877203936785
            ]
        },
        {
            "positions": [
                0.45117691305374297,
                -1.067089664680662,
                0.5726854896916935,
                -1.5864949181314894,
                -0.09211068331051332,
                2.3736160529846666
            ]
        },
        {
            "positions": [
                0.3747176645032525,
                -1.0687725481757997,
                0.7328345552445643,
                -1.5779572461431568,
                -0.05162484137346257,
                2.4694443855756543
            ]
        },
        {
            "positions": [
                0.298258415952762,
                -1.0704554316709374,
                0.8929836207974351,
                -1.5694195741548245,
                -0.011138999436411806,
                2.565272718166642
            ]
        },
        {
            "positions": [
                0.2217991674022715,
                -1.072138315166075,
                1.0531326863503057,
                -1.560881902166492,
                0.029346842500638903,
                2.66110105075763
            ]
        },
        {
            "positions": [
                0.145339918851781,
                -1.073821198661213,
                1.2132817519031764,
                -1.5523442301781596,
                0.06983268443768967,
                2.756929383348618
            ]
        },
        {
            "positions": [
                0.06888067030129053,
                -1.0755040821563506,
                1.3734308174560472,
                -1.5438065581898273,
                0.1103185263747404,
                2.852757715939606
            ]
        },
        {
            "positions": [
                -0.007578578249200052,
                -1.0771869656514883,
                1.533579883008918,
                -1.5352688862014947,
                0.1508043683117912,
                2.948586048530594
            ]
        },
        {
            "positions": [
                -0.08403782679969052,
                -1.078869849146626,
                1.6937289485617888,
                -1.5267312142131624,
                0.19129021024884194,
                3.0444143811215816
            ]
        },
        {
            "positions": [
                -0.16049707535018098,
                -1.0805527326417637,
                1.8538780141146594,
                -1.5181935422248298,
                0.23177605218589262,
                3.1402427137125697
            ]
        },
        {
            "positions": [
                -0.23695632390067145,
                -1.0822356161369016,
                2.0140270796675304,
                -1.5096558702364975,
                0.2722618941229433,
                3.2360710463035574
            ]
        },
        {
            "positions": [
                -0.31341557245116203,
                -1.0839184996320392,
                2.174176145220401,
                -1.501118198248165,
                0.3127477360599942,
                3.331899378894545
            ]
        },
        {
            "positions": [
                -0.3898748210016525,
                -1.085601383127177,
                2.334325210773272,
                -1.4925805262598326,
                0.3532335779970449,
                3.427727711485533
            ]
        },
        {
            "positions": [
                -0.30431157279055776,
                -1.0939015062634754,
                2.2728162268929317,
                -1.3670602851104852,
                0.31731168717921193,
                3.36405230838455
            ]
        },
        {
            "positions": [
                -0.218748324579463,
                -1.102201629399774,
                2.211307243012592,
                -1.241540043961138,
                0.28138979636137895,
                3.3003769052835663
            ]
        },
        {
            "positions": [
                -0.13318507636836824,
                -1.1105017525360725,
                2.1497982591322518,
                -1.1160198028117905,
                0.24546790554354603,
                3.236701502182583
            ]
        },
        {
            "positions": [
                -0.047621828157273505,
                -1.118801875672371,
                2.0882892752519115,
                -0.990499561662443,
                0.20954601472571305,
                3.1730260990816
            ]
        },
        {
            "positions": [
                0.037941420053821284,
                -1.1271019988086697,
                2.0267802913715713,
                -0.8649793205130956,
                0.17362412390788007,
                3.1093506959806163
            ]
        },
        {
            "positions": [
                0.12350466826491599,
                -1.1354021219449681,
                1.9652713074912314,
                -0.7394590793637482,
                0.13770223309004712,
                3.045675292879633
            ]
        }
    ]
}{
    "goal": {
        "global_pose": {
            "orientation": {
                "w": 0.7047431468963623,
                "x": -0.7094548344612122,
                "y": 0.0024358443915843964,
                "z": -0.0022348060738295317
            },
            "position": {
                "x": 0.6094750761985779,
                "y": 0.3671506643295288,
                "z": 0.19426114857196808
            }
        },
        "name": "move_to_magneteinheit_A"
    },
    "id": "LazyPRMstar_move_to_magneteinheit_A_150",
    "joint_names": [
        "shoulder_pan_joint",
        "shoulder_lift_joint",
        "elbow_joint",
        "wrist_1_joint",
        "wrist_2_joint",
        "wrist_3_joint"
    ],
    "metrics": {
        "cart_traj_len": 1.2902901437444299,
        "distance_elbow_joint": 0.4460705191417176,
        "distance_shoulder_lift_joint": 0.7503849879141804,
        "distance_shoulder_pan_joint": 1.2408577187413137,
        "distance_wrist_1_joint": 0.7640230799541246,
        "distance_wrist_2_joint": 1.4381590279891368,
        "distance_wrist_3_joint": 4.2591325468659065,
        "smoothness": 0.04429608176090407,
        "time": 5.021469998,
        "traj_len": 2.983056801438145,
        "weighted_distance": 4.429342511285557
    },
    "planner": "LazyPRMstar",
    "start": {
        "state": {
            "elbow_joint": 1.919643534880228,
            "shoulder_lift_joint": -1.8972525353963687,
            "shoulder_pan_joint": -1.1188672234189438,
            "wrist_1_joint": -1.5931878212786155,
            "wrist_2_joint": 1.5706036197970081,
            "wrist_3_joint": 1.118896926603594
        }
    },
    "waypoints": [
        {
            "positions": [
                -1.1188672234189438,
                -1.8972525353963687,
                1.919643534880228,
                -1.5931878212786155,
                1.5706036197970081,
                1.118896926603594
            ]
        },
        {
            "positions": [
                -1.0742254008996157,
                -1.8732140699889166,
                1.9068980101236097,
                -1.592425223910776,
                1.5465617386118298,
                0.8533342757601767
            ]
        },
        {
            "positions": [
                -1.0295835783802878,
                -1.8491756045814645,
                1.8941524853669913,
                -1.5916626265429363,
                1.5225198574266512,
                0.5877716249167594
            ]
        },
        {
            "positions": [
                -0.9849417558609597,
                -1.8251371391740123,
                1.881406960610373,
                -1.590900029175097,
                1.4984779762414728,
                0.32220897407334204
            ]
        },
        {
            "positions": [
                -0.9402999333416316,
                -1.8010986737665602,
                1.8686614358537545,
                -1.5901374318072574,
                1.4744360950562945,
                0.0566463232299248
            ]
        },
        {
            "positions": [
                -0.8956581108223036,
                -1.777060208359108,
                1.8559159110971362,
                -1.5893748344394178,
                1.450394213871116,
                -0.20891632761349244
            ]
        },
        {
            "positions": [
                -0.8510162883029755,
                -1.753021742951656,
                1.8431703863405178,
                -1.5886122370715783,
                1.4263523326859375,
                -0.4744789784569099
            ]
        },
        {
            "positions": [
                -0.8063744657836476,
                -1.7289832775442036,
                1.8304248615838994,
                -1.5878496397037387,
                1.4023104515007592,
                -0.7400416293003271
            ]
        },
        {
            "positions": [
                -0.7617326432643194,
                -1.7049448121367514,
                1.8176793368272812,
                -1.5870870423358994,
                1.3782685703155806,
                -1.0056042801437444
            ]
        },
        {
            "positions": [
                -0.7170908207449915,
                -1.6809063467292993,
                1.8049338120706628,
                -1.5863244449680598,
                1.3542266891304022,
                -1.2711669309871614
            ]
        },
        {
            "positions": [
                -0.6724489982256634,
                -1.6568678813218471,
                1.7921882873140444,
                -1.5855618476002202,
                1.3301848079452239,
                -1.5367295818305788
            ]
        },
        {
            "positions": [
                -0.6278071757063354,
                -1.632829415914395,
                1.779442762557426,
                -1.5847992502323807,
                1.3061429267600455,
                -1.8022922326739959
            ]
        },
        {
            "positions": [
                -0.5831653531870072,
                -1.6087909505069429,
                1.7666972378008077,
                -1.584036652864541,
                1.282101045574867,
                -2.0678548835174135
            ]
        },
        {
            "positions": [
                -0.5385235306676792,
                -1.5847524850994907,
                1.7539517130441893,
                -1.5832740554967017,
                1.2580591643896883,
                -2.333417534360831
            ]
        },
        {
            "positions": [
                -0.4938817081483512,
                -1.5607140196920386,
                1.741206188287571,
                -1.5825114581288622,
                1.23401728320451,
                -2.5989801852042484
            ]
        },
        {
            "positions": [
                -0.44923988562902323,
                -1.5366755542845865,
                1.7284606635309525,
                -1.5817488607610226,
                1.2099754020193316,
                -2.864542836047665
            ]
        },
        {
            "positions": [
                -0.38576984330109065,
                -1.4933635535287644,
                1.7567815132856683,
                -1.4981284030458524,
                1.0902497564402804,
                -2.89517536762707
            ]
        },
        {
            "positions": [
                -0.32229980097315813,
                -1.4500515527729425,
                1.7851023630403842,
                -1.4145079453306821,
                0.9705241108612294,
                -2.9258078992064753
            ]
        },
        {
            "positions": [
                -0.2588297586452256,
                -1.4067395520171204,
                1.8134232127950998,
                -1.3308874876155121,
                0.8507984652821783,
                -2.9564404307858805
            ]
        },
        {
            "positions": [
                -0.19535971631729304,
                -1.3634275512612983,
                1.8417440625498156,
                -1.2472670299003419,
                0.7310728197031271,
                -2.9870729623652856
            ]
        },
        {
            "positions": [
                -0.13188967398936052,
                -1.3201155505054765,
                1.8700649123045314,
                -1.1636465721851716,
                0.6113471741240759,
                -3.0177054939446912
            ]
        },
        {
            "positions": [
                -0.068419631661428,
                -1.2768035497496544,
                1.8983857620592473,
                -1.0800261144700016,
                0.49162152854502483,
                -3.0483380255240964
            ]
        },
        {
            "positions": [
                -0.00494958933349543,
                -1.2334915489938323,
                1.9267066118139629,
                -0.9964056567548313,
                0.37189588296597365,
                -3.0789705571035015
            ]
        },
        {
            "positions": [
                0.058520452994437144,
                -1.1901795482380104,
                1.9550274615686787,
                -0.9127851990396612,
                0.25217023738692257,
                -3.1096030886829067
            ]
        },
        {
            "positions": [
                0.12199049532236965,
                -1.1468675474821883,
                1.9833483113233945,
                -0.8291647413244909,
                0.13244459180787133,
                -3.140235620262312
            ]
        }
    ]
}