{
    "goal": {
        "global_pose": {
            "orientation": {
                "w": 0.7047431468963623,
                "x": -0.7094548344612122,
                "y": 0.0024358443915843964,
                "z": -0.0022348060738295317
            },
            "position": {
                "x": 0.6094750761985779,
                "y": 0.3671506643295288,
                "z": 0.19426114857196808
            }
        },
        "name": "move_to_magneteinheit_A"
    },
    "id": "LazyPRM_move_to_magneteinheit_A_98",
    "joint_names": [
        "shoulder_pan_joint",
        "shoulder_lift_joint",
        "elbow_joint",
        "wrist_1_joint",
        "wrist_2_joint",
        "wrist_3_joint"
    ],
    "metrics": {
        "cart_traj_len": 3.5681698178013597,
        "distance_elbow_joint": 3.9101939528892737,
        "distance_shoulder_lift_joint": 0.09562654393644676,
        "distance_shoulder_pan_joint": 2.8910667301324042,
        "distance_wrist_1_joint": 0.6826934524179569,
        "distance_wrist_2_joint": 1.699519934830372,
        "distance_wrist_3_joint": 3.554396840774978,
        "smoothness": 0.10252322134349379,
        "time": 0.111279095,
        "traj_len": 3.5823871168511965,
        "weighted_distance": 4.7248814296000825
    },
    "planner": "LazyPRM",
    "start": {
        "state": {
            "elbow_joint": -1.919618573717145,
            "shoulder_lift_joint": -1.2443395971678275,
            "shoulder_pan_joint": 2.6996025300909787,
            "wrist_1_joint": -1.548550951253194,
            "wrist_2_joint": -1.5709469090946802,
            "wrist_3_joint": 0.4420197732051276
        }
    },
    "waypoints": [
        {
            "positions": [
                2.6996025300909787,
                -1.2443395971678275,
                -1.919618573717145,
                -1.548550951253194,
                -1.5709469090946802,
                0.4420197732051276
            ]
        },
        {
            "positions": [
                2.6053409179467244,
                -1.2442355303196435,
                -1.8113487093868545,
                -1.530159082525171,
                -1.5162984747319597,
                0.3227119488077021
            ]
        },
        {
            "positions": [
                2.51107930580247,
                -1.2441314634714595,
                -1.7030788450565642,
                -1.5117672137971478,
                -1.4616500403692394,
                0.20340412441027658
            ]
        },
        {
            "positions": [
                2.4168176936582157,
                -1.2440273966232753,
                -1.5948089807262735,
                -1.4933753450691247,
                -1.407001606006519,
                0.08409630001285107
            ]
        },
        {
            "positions": [
                2.322556081513962,
                -1.2439233297750913,
                -1.4865391163959831,
                -1.4749834763411016,
                -1.3523531716437986,
                -0.03521152438457442
            ]
        },
        {
            "positions": [
                2.2282944693697075,
                -1.2438192629269074,
                -1.3782692520656927,
                -1.4565916076130785,
                -1.2977047372810782,
                -0.15451934878199997
            ]
        },
        {
            "positions": [
                2.134032857225453,
                -1.2437151960787234,
                -1.2699993877354023,
                -1.4381997388850554,
                -1.2430563029183577,
                -0.27382717317942545
            ]
        },
        {
            "positions": [
                2.039771245081199,
                -1.2436111292305394,
                -1.161729523405112,
                -1.4198078701570322,
                -1.1884078685556374,
                -0.39313499757685094
            ]
        },
        {
            "positions": [
                1.9455096329369446,
                -1.2435070623823554,
                -1.0534596590748215,
                -1.4014160014290091,
                -1.133759434192917,
                -0.5124428219742765
            ]
        },
        {
            "positions": [
                1.8512480207926902,
                -1.2434029955341712,
                -0.9451897947445309,
                -1.3830241327009862,
                -1.0791109998301966,
                -0.631750646371702
            ]
        },
        {
            "positions": [
                1.756986408648436,
                -1.2432989286859872,
                -0.8369199304142405,
                -1.3646322639729631,
                -1.0244625654674762,
                -0.7510584707691275
            ]
        },
        {
            "positions": [
                1.6627247965041818,
                -1.2431948618378033,
                -0.7286500660839501,
                -1.34624039524494,
                -0.9698141311047558,
                -0.8703662951665527
            ]
        },
        {
            "positions": [
                1.5684631843599275,
                -1.2430907949896193,
                -0.6203802017536597,
                -1.3278485265169169,
                -0.9151656967420354,
                -0.9896741195639784
            ]
        },
        {
            "positions": [
                1.4742015722156732,
                -1.2429867281414353,
                -0.5121103374233691,
                -1.3094566577888938,
                -0.860517262379315,
                -1.108981943961404
            ]
        },
        {
            "positions": [
                1.379939960071419,
                -1.2428826612932513,
                -0.4038404730930787,
                -1.2910647890608706,
                -0.8058688280165945,
                -1.2282897683588294
            ]
        },
        {
            "positions": [
                1.2856783479271647,
                -1.242778594445067,
                -0.29557060876278807,
                -1.2726729203328475,
                -0.7512203936538742,
                -1.3475975927562551
            ]
        },
        {
            "positions": [
                1.1914167357829106,
                -1.2426745275968831,
                -0.1873007444324979,
                -1.2542810516048244,
                -0.6965719592911538,
                -1.4669054171536804
            ]
        },
        {
            "positions": [
                1.0971551236386563,
                -1.2425704607486991,
                -0.07903088010220749,
                -1.2358891828768013,
                -0.6419235249284335,
                -1.5862132415511057
            ]
        },
        {
            "positions": [
                1.002893511494402,
                -1.2424663939005152,
                0.02923898422808313,
                -1.2174973141487782,
                -0.587275090565713,
                -1.7055210659485316
            ]
        },
        {
            "positions": [
                0.9086318993501479,
                -1.2423623270523312,
                0.13750884855837353,
                -1.199105445420755,
                -0.5326266562029927,
                -1.8248288903459566
            ]
        },
        {
            "positions": [
                0.8143702872058933,
                -1.2422582602041472,
                0.24577871288866393,
                -1.180713576692732,
                -0.47797822184027217,
                -1.9441367147433826
            ]
        },
        {
            "positions": [
                0.7201086750616392,
                -1.242154193355963,
                0.35404857721895433,
                -1.162321707964709,
                -0.4233297874775519,
                -2.063444539140808
            ]
        },
        {
            "positions": [
                0.6258470629173849,
                -1.242050126507779,
                0.46231844154924473,
                -1.143929839236686,
                -0.3686813531148314,
                -2.182752363538233
            ]
        },
        {
            "positions": [
                0.5315854507731306,
                -1.241946059659595,
                0.5705883058795356,
                -1.1255379705086628,
                -0.3140329187521109,
                -2.302060187935659
            ]
        },
        {
            "positions": [
                0.43732383862887625,
                -1.241841992811411,
                0.6788581702098255,
                -1.1071461017806397,
                -0.25938448438939066,
                -2.4213680123330845
            ]
        },
        {
            "positions": [
                0.34306222648462237,
                -1.241737925963227,
                0.7871280345401159,
                -1.0887542330526165,
                -0.2047360500266704,
                -2.5406758367305096
            ]
        },
        {
            "positions": [
                0.2488006143403676,
                -1.241633859115043,
                0.8953978988704068,
                -1.0703623643245934,
                -0.1500876156639499,
                -2.6599836611279355
            ]
        },
        {
            "positions": [
                0.15453900219611372,
                -1.241529792266859,
                1.0036677632006972,
                -1.0519704955965703,
                -0.09543918130122941,
                -2.779291485525361
            ]
        },
        {
            "positions": [
                0.06027739005185939,
                -1.241425725418675,
                1.1119376275309876,
                -1.0335786268685472,
                -0.040790746938508926,
                -2.8985993099227865
            ]
        },
        {
            "positions": [
                -0.03398422209239488,
                -1.241321658570491,
                1.2202074918612777,
                -1.015186758140524,
                0.013857687424211326,
                -3.017907134320212
            ]
        },
        {
            "positions": [
                0.00538577239486282,
                -1.2181695072357135,
                1.4127994636889905,
                -0.9778544433142023,
                0.042536522002081384,
                -3.0415246176326214
            ]
        },
        {
            "positions": [
                0.04475576688212052,
                -1.1950173559009358,
                1.605391435516703,
                -0.9405221284878806,
                0.07121535657995143,
                -3.0651421009450313
            ]
        },
        {
            "positions": [
                0.08412576136937822,
                -1.1718652045661582,
                1.7979834073444154,
                -0.9031898136615589,
                0.09989419115782149,
                -3.088759584257441
            ]
        },
        {
            "positions": [
                0.1234957558566359,
                -1.1487130532313807,
                1.9905753791721281,
                -0.8658574988352372,
                0.12857302573569154,
                -3.1123770675698506
            ]
        }
    ]
}{
    "goal": {
        "global_pose": {
            "orientation": {
                "w": 0.7047431468963623,
                "x": -0.7094548344612122,
                "y": 0.0024358443915843964,
                "z": -0.0022348060738295317
            },
            "position": {
                "x": 0.6094750761985779,
                "y": 0.3671506643295288,
                "z": 0.19426114857196808
            }
        },
        "name": "move_to_magneteinheit_A"
    },
    "id": "LazyPRM_move_to_magneteinheit_A_98",
    "joint_names": [
        "shoulder_pan_joint",
        "shoulder_lift_joint",
        "elbow_joint",
        "wrist_1_joint",
        "wrist_2_joint",
        "wrist_3_joint"
    ],
    "metrics": {
        "cart_traj_len": 2.0449802911457517,
        "distance_elbow_joint": 2.1135533299486626,
        "distance_shoulder_lift_joint": 0.7626912050562098,
        "distance_shoulder_pan_joint": 1.4781836024351835,
        "distance_wrist_1_joint": 1.063276417660124,
        "distance_wrist_2_joint": 1.4468395276448403,
        "distance_wrist_3_joint": 4.346191884999115,
        "smoothness": 0.2212430162995002,
        "time": 0.103742012,
        "traj_len": 3.348243713910941,
        "weighted_distance": 4.734261894218288
    },
    "planner": "LazyPRM",
    "start": {
        "state": {
            "elbow_joint": 1.919643534880228,
            "shoulder_lift_joint": -1.8972525353963687,
            "shoulder_pan_joint": -1.1188672234189438,
            "wrist_1_joint": -1.5931878212786155,
            "wrist_2_joint": 1.5706036197970081,
            "wrist_3_joint": 1.118896926603594
        }
    },
    "waypoints": [
        {
            "positions": [
                -1.1188672234189438,
                -1.8972525353963687,
                1.919643534880228,
                -1.5931878212786155,
                1.5706036197970081,
                1.118896926603594
            ]
        },
        {
            "positions": [
                -1.12957845443929,
                -1.8441307736994168,
                1.8254568716010022,
                -1.602711578755116,
                1.506001807395726,
                0.9844126899632855
            ]
        },
        {
            "positions": [
                -1.1402896854596363,
                -1.7910090120024649,
                1.7312702083217764,
                -1.6122353362316164,
                1.4413999949944438,
                0.8499284533229771
            ]
        },
        {
            "positions": [
                -1.1510009164799824,
                -1.737887250305513,
                1.6370835450425507,
                -1.621759093708117,
                1.376798182593162,
                0.7154442166826687
            ]
        },
        {
            "positions": [
                -1.1617121475003287,
                -1.684765488608561,
                1.5428968817633248,
                -1.6312828511846176,
                1.3121963701918797,
                0.5809599800423602
            ]
        },
        {
            "positions": [
                -1.1724233785206748,
                -1.631643726911609,
                1.448710218484099,
                -1.640806608661118,
                1.2475945577905976,
                0.44647574340205176
            ]
        },
        {
            "positions": [
                -1.1831346095410211,
                -1.5785219652146572,
                1.354523555204873,
                -1.6503303661376185,
                1.1829927453893156,
                0.31199150676174336
            ]
        },
        {
            "positions": [
                -1.1938458405613672,
                -1.5254002035177052,
                1.2603368919256472,
                -1.6598541236141189,
                1.1183909329880335,
                0.17750727012143486
            ]
        },
        {
            "positions": [
                -1.2045570715817135,
                -1.4722784418207533,
                1.1661502286464214,
                -1.6693778810906195,
                1.0537891205867513,
                0.04302303348112635
            ]
        },
        {
            "positions": [
                -1.2152683026020596,
                -1.4191566801238014,
                1.0719635653671955,
                -1.67890163856712,
                0.9891873081854693,
                -0.09146120315918216
            ]
        },
        {
            "positions": [
                -1.225979533622406,
                -1.3660349184268494,
                0.9777769020879699,
                -1.6884253960436204,
                0.9245854957841873,
                -0.22594543979949044
            ]
        },
        {
            "positions": [
                -1.236690764642752,
                -1.3129131567298975,
                0.883590238808744,
                -1.697949153520121,
                0.8599836833829051,
                -0.36042967643979884
            ]
        },
        {
            "positions": [
                -1.1650928666842586,
                -1.3035262184988585,
                0.9403007669075428,
                -1.6475009911296674,
                0.8212352838444452,
                -0.511317322858521
            ]
        },
        {
            "positions": [
                -1.0934949687257651,
                -1.2941392802678198,
                0.9970112950063417,
                -1.5970528287392138,
                0.7824868843059855,
                -0.6622049692772434
            ]
        },
        {
            "positions": [
                -1.0218970707672717,
                -1.2847523420367808,
                1.0537218231051406,
                -1.5466046663487603,
                0.7437384847675256,
                -0.8130926156959656
            ]
        },
        {
            "positions": [
                -0.9502991728087784,
                -1.275365403805742,
                1.1104323512039396,
                -1.4961565039583067,
                0.7049900852290657,
                -0.9639802621146879
            ]
        },
        {
            "positions": [
                -0.8787012748502849,
                -1.265978465574703,
                1.1671428793027383,
                -1.445708341567853,
                0.6662416856906059,
                -1.1148679085334101
            ]
        },
        {
            "positions": [
                -0.8071033768917915,
                -1.2565915273436643,
                1.2238534074015373,
                -1.3952601791773995,
                0.6274932861521461,
                -1.2657555549521322
            ]
        },
        {
            "positions": [
                -0.735505478933298,
                -1.2472045891126253,
                1.280563935500336,
                -1.344812016786946,
                0.5887448866136862,
                -1.4166432013708548
            ]
        },
        {
            "positions": [
                -0.6639075809748046,
                -1.2378176508815866,
                1.337274463599135,
                -1.2943638543964924,
                0.5499964870752263,
                -1.5675308477895769
            ]
        },
        {
            "positions": [
                -0.5923096830163112,
                -1.2284307126505476,
                1.3939849916979337,
                -1.2439156920060388,
                0.5112480875367665,
                -1.718418494208299
            ]
        },
        {
            "positions": [
                -0.5207117850578178,
                -1.2190437744195088,
                1.4506955197967326,
                -1.1934675296155852,
                0.4724996879983067,
                -1.8693061406270215
            ]
        },
        {
            "positions": [
                -0.4491138870993242,
                -1.2096568361884699,
                1.5074060478955316,
                -1.1430193672251314,
                0.43375128845984684,
                -2.0201937870457436
            ]
        },
        {
            "positions": [
                -0.37751598914083084,
                -1.200269897957431,
                1.5641165759943303,
                -1.092571204834678,
                0.395002888921387,
                -2.1710814334644657
            ]
        },
        {
            "positions": [
                -0.30591809118233737,
                -1.1908829597263921,
                1.6208271040931295,
                -1.0421230424442243,
                0.35625448938292714,
                -2.3219690798831882
            ]
        },
        {
            "positions": [
                -0.2343201932238439,
                -1.1814960214953534,
                1.6775376321919282,
                -0.9916748800537708,
                0.3175060898444674,
                -2.4728567263019103
            ]
        },
        {
            "positions": [
                -0.16272229526535043,
                -1.1721090832643144,
                1.734248160290727,
                -0.9412267176633171,
                0.2787576903060075,
                -2.623744372720633
            ]
        },
        {
            "positions": [
                -0.09112439730685717,
                -1.1627221450332756,
                1.7909586883895259,
                -0.8907785552728636,
                0.24000929076754762,
                -2.774632019139355
            ]
        },
        {
            "positions": [
                -0.0195264993483637,
                -1.1533352068022367,
                1.8476692164883248,
                -0.84033039288241,
                0.20126089122908775,
                -2.925519665558077
            ]
        },
        {
            "positions": [
                0.05207139861012977,
                -1.143948268571198,
                1.9043797445871236,
                -0.7898822304919565,
                0.16251249169062798,
                -3.076407311976799
            ]
        },
        {
            "positions": [
                0.12366929656862315,
                -1.134561330340159,
                1.9610902726859225,
                -0.7394340681015028,
                0.12376409215216806,
                -3.2272949583955217
            ]
        }
    ]
}