{
    "goal": {
        "global_pose": {
            "orientation": {
                "w": 0.5084816217422485,
                "x": -0.49083608388900757,
                "y": 0.5182115435600281,
                "z": -0.4816462993621826
            },
            "position": {
                "x": 0.5540239810943604,
                "y": 0.030875300988554955,
                "z": 0.16403168439865112
            }
        },
        "name": "move_to_storage_A"
    },
    "id": "LazyPRM_move_to_storage_A_20",
    "joint_names": [
        "shoulder_pan_joint",
        "shoulder_lift_joint",
        "elbow_joint",
        "wrist_1_joint",
        "wrist_2_joint",
        "wrist_3_joint"
    ],
    "metrics": {
        "cart_traj_len": 0.35261740111850876,
        "distance_elbow_joint": 0.4503000845587257,
        "distance_shoulder_lift_joint": 0.23382679816779728,
        "distance_shoulder_pan_joint": 0.4599330040639372,
        "distance_wrist_1_joint": 0.24252671940748505,
        "distance_wrist_2_joint": 1.1029865957487472,
        "distance_wrist_3_joint": 0.09336778048022998,
        "smoothness": 4.440892098500626e-16,
        "time": 0.012089220999999999,
        "traj_len": 1.6071530675162593,
        "weighted_distance": 2.028593073670423
    },
    "planner": "LazyPRM",
    "start": {
        "state": {
            "elbow_joint": 1.9715477243005601,
            "shoulder_lift_joint": -1.1394853015351272,
            "shoulder_pan_joint": 0.12281154014795169,
            "wrist_1_joint": -0.7804696478968182,
            "wrist_2_joint": 0.12958648046900423,
            "wrist_3_joint": -3.192491284697111
        }
    },
    "waypoints": [
        {
            "positions": [
                0.12281154014795169,
                -1.1394853015351272,
                1.9715477243005601,
                -0.7804696478968182,
                0.12958648046900423,
                -3.192491284697111
            ]
        },
        {
            "positions": [
                0.05710682528167495,
                -1.1728891298448125,
                2.0358763078089495,
                -0.8151163220978874,
                0.2871559941473967,
                -3.1791530303427926
            ]
        },
        {
            "positions": [
                -0.008597889584601795,
                -1.2062929581544979,
                2.100204891317339,
                -0.8497629962989568,
                0.4447255078257891,
                -3.165814775988474
            ]
        },
        {
            "positions": [
                -0.07430260445087854,
                -1.2396967864641832,
                2.164533474825728,
                -0.8844096705000261,
                0.6022950215041816,
                -3.1524765216341555
            ]
        },
        {
            "positions": [
                -0.14000731931715527,
                -1.2731006147738684,
                2.2288620583341174,
                -0.9190563447010953,
                0.759864535182574,
                -3.139138267279837
            ]
        },
        {
            "positions": [
                -0.20571203418343204,
                -1.3065044430835537,
                2.293190641842507,
                -0.9537030189021647,
                0.9174340488609666,
                -3.1258000129255183
            ]
        },
        {
            "positions": [
                -0.27141674904970875,
                -1.339908271393239,
                2.3575192253508965,
                -0.9883496931032338,
                1.0750035625393588,
                -3.1124617585711998
            ]
        },
        {
            "positions": [
                -0.3371214639159855,
                -1.3733120997029244,
                2.421847808859286,
                -1.0229963673043032,
                1.2325730762177516,
                -3.099123504216881
            ]
        }
    ]
}