{
    "goal": {
        "global_pose": {
            "orientation": {
                "w": 0.5084816217422485,
                "x": -0.49083608388900757,
                "y": 0.5182115435600281,
                "z": -0.4816462993621826
            },
            "position": {
                "x": 0.5540239810943604,
                "y": 0.030875300988554955,
                "z": 0.16403168439865112
            }
        },
        "name": "move_to_storage_A"
    },
    "id": "LazyPRM_move_to_storage_A_126",
    "joint_names": [
        "shoulder_pan_joint",
        "shoulder_lift_joint",
        "elbow_joint",
        "wrist_1_joint",
        "wrist_2_joint",
        "wrist_3_joint"
    ],
    "metrics": {
        "cart_traj_len": 0.3525357532206457,
        "distance_elbow_joint": 0.44758056319173756,
        "distance_shoulder_lift_joint": 0.23482807831774677,
        "distance_shoulder_pan_joint": 0.4613435686445221,
        "distance_wrist_1_joint": 0.2354690199458983,
        "distance_wrist_2_joint": 1.0959043695382427,
        "distance_wrist_3_joint": 0.09602886240148978,
        "smoothness": 1.1102230244806396e-15,
        "time": 0.011986624,
        "traj_len": 1.6034819805784029,
        "weighted_distance": 2.0235082348057687
    },
    "planner": "LazyPRM",
    "start": {
        "state": {
            "elbow_joint": 1.9715477243005601,
            "shoulder_lift_joint": -1.1394853015351272,
            "shoulder_pan_joint": 0.12281154014795169,
            "wrist_1_joint": -0.7804696478968182,
            "wrist_2_joint": 0.12958648046900423,
            "wrist_3_joint": -3.192491284697111
        }
    },
    "waypoints": [
        {
            "positions": [
                0.12281154014795169,
                -1.1394853015351272,
                1.9715477243005601,
                -0.7804696478968182,
                0.12958648046900423,
                -3.192491284697111
            ]
        },
        {
            "positions": [
                0.056905316055877106,
                -1.1730321698662338,
                2.0354878047565226,
                -0.8141080793176608,
                0.28614424754589607,
                -3.1787728757826126
            ]
        },
        {
            "positions": [
                -0.009000908036197477,
                -1.2065790381973405,
                2.099427885212485,
                -0.8477465107385034,
                0.44270201462278785,
                -3.165054466868114
            ]
        },
        {
            "positions": [
                -0.07490713212827206,
                -1.2401259065284471,
                2.1633679656684475,
                -0.881384942159346,
                0.5992597816996796,
                -3.1513360579536154
            ]
        },
        {
            "positions": [
                -0.14081335622034663,
                -1.2736727748595538,
                2.22730804612441,
                -0.9150233735801886,
                0.7558175487765715,
                -3.137617649039117
            ]
        },
        {
            "positions": [
                -0.20671958031242121,
                -1.3072196431906606,
                2.291248126580373,
                -0.9486618050010313,
                0.9123753158534633,
                -3.1238992401246186
            ]
        },
        {
            "positions": [
                -0.2726258044044958,
                -1.3407665115217673,
                2.3551882070363352,
                -0.9823002364218738,
                1.068933082930355,
                -3.11018083121012
            ]
        },
        {
            "positions": [
                -0.3385320284965704,
                -1.374313379852874,
                2.4191282874922977,
                -1.0159386678427165,
                1.225490850007247,
                -3.0964624222956214
            ]
        }
    ]
}