{
    "goal": {
        "global_pose": {
            "orientation": {
                "w": 0.5084816217422485,
                "x": -0.49083608388900757,
                "y": 0.5182115435600281,
                "z": -0.4816462993621826
            },
            "position": {
                "x": 0.5540239810943604,
                "y": 0.030875300988554955,
                "z": 0.16403168439865112
            }
        },
        "name": "move_to_storage_A"
    },
    "id": "LazyPRM_move_to_storage_A_51",
    "joint_names": [
        "shoulder_pan_joint",
        "shoulder_lift_joint",
        "elbow_joint",
        "wrist_1_joint",
        "wrist_2_joint",
        "wrist_3_joint"
    ],
    "metrics": {
        "cart_traj_len": 0.3537290444885053,
        "distance_elbow_joint": 0.4520224063386049,
        "distance_shoulder_lift_joint": 0.23563518555446072,
        "distance_shoulder_pan_joint": 0.4642719759604963,
        "distance_wrist_1_joint": 0.24998202738073927,
        "distance_wrist_2_joint": 1.0933822951720082,
        "distance_wrist_3_joint": 0.0944245556865777,
        "smoothness": 4.440892133664971e-16,
        "time": 0.022550876,
        "traj_len": 1.6092602170229917,
        "weighted_distance": 2.030254141731717
    },
    "planner": "LazyPRM",
    "start": {
        "state": {
            "elbow_joint": 1.9715477243005601,
            "shoulder_lift_joint": -1.1394853015351272,
            "shoulder_pan_joint": 0.12281154014795169,
            "wrist_1_joint": -0.7804696478968182,
            "wrist_2_joint": 0.12958648046900423,
            "wrist_3_joint": -3.192491284697111
        }
    },
    "waypoints": [
        {
            "positions": [
                0.12281154014795169,
                -1.1394853015351272,
                1.9715477243005601,
                -0.7804696478968182,
                0.12958648046900423,
                -3.192491284697111
            ]
        },
        {
            "positions": [
                0.05648697215359508,
                -1.1731474709000502,
                2.0361223537775035,
                -0.8161813660940667,
                0.28578395120786254,
                -3.1790020624561715
            ]
        },
        {
            "positions": [
                -0.009837595840761534,
                -1.206809640264973,
                2.1006969832544473,
                -0.851893084291315,
                0.44198142194672085,
                -3.1655128402152317
            ]
        },
        {
            "positions": [
                -0.07616216383511813,
                -1.2404718096298961,
                2.1652716127313907,
                -0.8876048024885635,
                0.5981788926855791,
                -3.152023617974292
            ]
        },
        {
            "positions": [
                -0.14248673182947474,
                -1.274133978994819,
                2.2298462422083345,
                -0.923316520685812,
                0.7543763634244375,
                -3.1385343957333527
            ]
        },
        {
            "positions": [
                -0.2088112998238314,
                -1.307796148359742,
                2.294420871685278,
                -0.9590282388830604,
                0.9105738341632958,
                -3.125045173492413
            ]
        },
        {
            "positions": [
                -0.27513586781818794,
                -1.3414583177246648,
                2.3589955011622212,
                -0.9947399570803089,
                1.066771304902154,
                -3.111555951251473
            ]
        },
        {
            "positions": [
                -0.3414604358125446,
                -1.375120487089588,
                2.423570130639165,
                -1.0304516752775574,
                1.2229687756410124,
                -3.0980667290105335
            ]
        }
    ]
}