{
    "goal": {
        "global_pose": {
            "orientation": {
                "w": 0.7047431468963623,
                "x": -0.7094548344612122,
                "y": 0.0024358443915843964,
                "z": -0.0022348060738295317
            },
            "position": {
                "x": 0.6094750761985779,
                "y": 0.3671506643295288,
                "z": 0.19426114857196808
            }
        },
        "name": "move_to_magneteinheit_A"
    },
    "id": "LazyPRM_move_to_magneteinheit_A_29",
    "joint_names": [
        "shoulder_pan_joint",
        "shoulder_lift_joint",
        "elbow_joint",
        "wrist_1_joint",
        "wrist_2_joint",
        "wrist_3_joint"
    ],
    "metrics": {
        "cart_traj_len": 3.3283081788815383,
        "distance_elbow_joint": 3.8869993947672086,
        "distance_shoulder_lift_joint": 0.3465206650462489,
        "distance_shoulder_pan_joint": 2.7946685472290933,
        "distance_wrist_1_joint": 2.564290420783113,
        "distance_wrist_2_joint": 1.709625465988426,
        "distance_wrist_3_joint": 2.6326590263602125,
        "smoothness": 0.18090384745784008,
        "time": 0.129105859,
        "traj_len": 3.7329296162899057,
        "weighted_distance": 4.844997157859463
    },
    "planner": "LazyPRM",
    "start": {
        "state": {
            "elbow_joint": -1.919618573717145,
            "shoulder_lift_joint": -1.2443395971678275,
            "shoulder_pan_joint": 2.6996025300909787,
            "wrist_1_joint": -1.548550951253194,
            "wrist_2_joint": -1.5709469090946802,
            "wrist_3_joint": 0.4420197732051276
        }
    },
    "waypoints": [
        {
            "positions": [
                2.6996025300909787,
                -1.2443395971678275,
                -1.919618573717145,
                -1.548550951253194,
                -1.5709469090946802,
                0.4420197732051276
            ]
        },
        {
            "positions": [
                2.60012498674062,
                -1.2359534283667541,
                -1.8366701432813797,
                -1.4863618847887554,
                -1.5281391383954839,
                0.5289501444955397
            ]
        },
        {
            "positions": [
                2.5006474433902612,
                -1.2275672595656808,
                -1.7537217128456142,
                -1.4241728183243167,
                -1.4853313676962876,
                0.6158805157859518
            ]
        },
        {
            "positions": [
                2.401169900039902,
                -1.2191810907646075,
                -1.670773282409849,
                -1.361983751859878,
                -1.4425235969970913,
                0.7028108870763639
            ]
        },
        {
            "positions": [
                2.3016923566895433,
                -1.210794921963534,
                -1.5878248519740834,
                -1.2997946853954394,
                -1.399715826297895,
                0.789741258366776
            ]
        },
        {
            "positions": [
                2.2022148133391846,
                -1.2024087531624608,
                -1.5048764215383181,
                -1.2376056189310007,
                -1.3569080555986988,
                0.8766716296571881
            ]
        },
        {
            "positions": [
                2.102737269988826,
                -1.1940225843613874,
                -1.4219279911025526,
                -1.175416552466562,
                -1.3141002848995025,
                0.9636020009476003
            ]
        },
        {
            "positions": [
                2.0032597266384666,
                -1.185636415560314,
                -1.3389795606667874,
                -1.1132274860021232,
                -1.2712925142003062,
                1.0505323722380124
            ]
        },
        {
            "positions": [
                1.9037821832881079,
                -1.1772502467592407,
                -1.256031130231022,
                -1.0510384195376847,
                -1.2284847435011101,
                1.1374627435284246
            ]
        },
        {
            "positions": [
                1.8043046399377491,
                -1.1688640779581674,
                -1.1730826997952566,
                -0.988849353073246,
                -1.1856769728019139,
                1.2243931148188367
            ]
        },
        {
            "positions": [
                1.7048270965873904,
                -1.160477909157094,
                -1.0901342693594913,
                -0.9266602866088073,
                -1.1428692021027176,
                1.3113234861092486
            ]
        },
        {
            "positions": [
                1.6053495532370314,
                -1.1520917403560207,
                -1.0071858389237258,
                -0.8644712201443686,
                -1.1000614314035213,
                1.3982538573996608
            ]
        },
        {
            "positions": [
                1.5058720098866727,
                -1.1437055715549473,
                -0.9242374084879605,
                -0.8022821536799299,
                -1.057253660704325,
                1.485184228690073
            ]
        },
        {
            "positions": [
                1.406394466536314,
                -1.135319402753874,
                -0.841288978052195,
                -0.7400930872154912,
                -1.0144458900051287,
                1.572114599980485
            ]
        },
        {
            "positions": [
                1.306916923185955,
                -1.1269332339528004,
                -0.7583405476164298,
                -0.6779040207510525,
                -0.9716381193059325,
                1.6590449712708972
            ]
        },
        {
            "positions": [
                1.207439379835596,
                -1.118547065151727,
                -0.6753921171806643,
                -0.6157149542866137,
                -0.9288303486067362,
                1.7459753425613096
            ]
        },
        {
            "positions": [
                1.1079618364852373,
                -1.1101608963506537,
                -0.592443686744899,
                -0.5535258878221752,
                -0.88602257790754,
                1.8329057138517215
            ]
        },
        {
            "positions": [
                1.0084842931348783,
                -1.1017747275495804,
                -0.5094952563091335,
                -0.4913368213577365,
                -0.8432148072083436,
                1.9198360851421337
            ]
        },
        {
            "positions": [
                0.9090067497845196,
                -1.093388558748507,
                -0.42654682587336823,
                -0.4291477548932978,
                -0.8004070365091475,
                2.006766456432546
            ]
        },
        {
            "positions": [
                0.8095292064341606,
                -1.0850023899474337,
                -0.34359839543760273,
                -0.3669586884288589,
                -0.7575992658099512,
                2.0936968277229577
            ]
        },
        {
            "positions": [
                0.7100516630838021,
                -1.0766162211463604,
                -0.2606499650018377,
                -0.3047696219644205,
                -0.7147914951107549,
                2.1806271990133697
            ]
        },
        {
            "positions": [
                0.6105741197334429,
                -1.068230052345287,
                -0.17770153456607218,
                -0.2425805554999816,
                -0.6719837244115586,
                2.267557570303782
            ]
        },
        {
            "positions": [
                0.5110965763830841,
                -1.0598438835442137,
                -0.09475310413030691,
                -0.18039148903554314,
                -0.6291759537123625,
                2.354487941594194
            ]
        },
        {
            "positions": [
                0.4116190330327254,
                -1.0514577147431403,
                -0.011804673694541412,
                -0.11820242257110425,
                -0.5863681830131661,
                2.4414183128846063
            ]
        },
        {
            "positions": [
                0.31214148968236666,
                -1.043071545942067,
                0.07114375674122386,
                -0.0560133561066658,
                -0.5435604123139699,
                2.5283486841750182
            ]
        },
        {
            "positions": [
                0.21266394633200747,
                -1.0346853771409936,
                0.15409218717698958,
                0.00617571035777309,
                -0.5007526416147736,
                2.6152790554654306
            ]
        },
        {
            "positions": [
                0.11318640298164917,
                -1.0262992083399203,
                0.23704061761275486,
                0.06836477682221176,
                -0.45794487091557734,
                2.7022094267558425
            ]
        },
        {
            "positions": [
                0.013708859631290017,
                -1.017913039538847,
                0.31998904804852024,
                0.13055384328665048,
                -0.41513710021638095,
                2.789139798046255
            ]
        },
        {
            "positions": [
                0.02130674177832794,
                -1.0295370091048675,
                0.49429851719402224,
                0.03938369427198393,
                -0.3588195497028679,
                2.819975975973692
            ]
        },
        {
            "positions": [
                0.028904623925365865,
                -1.041160978670888,
                0.6686079863395242,
                -0.05178645474268262,
                -0.30250199918935483,
                2.850812153901129
            ]
        },
        {
            "positions": [
                0.036502506072403795,
                -1.0527849482369087,
                0.8429174554850262,
                -0.14295660375734914,
                -0.24618444867584174,
                2.8816483318285657
            ]
        },
        {
            "positions": [
                0.04410038821944172,
                -1.0644089178029292,
                1.017226924630528,
                -0.23412675277201572,
                -0.18986689816232868,
                2.912484509756003
            ]
        },
        {
            "positions": [
                0.05169827036647964,
                -1.0760328873689498,
                1.1915363937760302,
                -0.3252969017866823,
                -0.1335493476488156,
                2.94332068768344
            ]
        },
        {
            "positions": [
                0.05929615251351757,
                -1.0876568569349703,
                1.3658458629215322,
                -0.41646705080134877,
                -0.07723179713530254,
                2.974156865610877
            ]
        },
        {
            "positions": [
                0.06689403466055549,
                -1.099280826500991,
                1.5401553320670343,
                -0.5076371998160154,
                -0.020914246621789423,
                3.0049930435383136
            ]
        },
        {
            "positions": [
                0.07449191680759341,
                -1.1109047960670115,
                1.7144648012125363,
                -0.598807348830682,
                0.03540330389172358,
                3.0358292214657507
            ]
        },
        {
            "positions": [
                0.08208979895463134,
                -1.122528765633032,
                1.8887742703580384,
                -0.6899774978453486,
                0.09172085440523667,
                3.066665399393188
            ]
        },
        {
            "positions": [
                0.12248373640069644,
                -1.1380071469561153,
                1.9673808210500632,
                -0.7546317829566183,
                0.13867855689374567,
                3.07467879956534
            ]
        }
    ]
}{
    "goal": {
        "global_pose": {
            "orientation": {
                "w": 0.7047431468963623,
                "x": -0.7094548344612122,
                "y": 0.0024358443915843964,
                "z": -0.0022348060738295317
            },
            "position": {
                "x": 0.6094750761985779,
                "y": 0.3671506643295288,
                "z": 0.19426114857196808
            }
        },
        "name": "move_to_magneteinheit_A"
    },
    "id": "LazyPRM_move_to_magneteinheit_A_29",
    "joint_names": [
        "shoulder_pan_joint",
        "shoulder_lift_joint",
        "elbow_joint",
        "wrist_1_joint",
        "wrist_2_joint",
        "wrist_3_joint"
    ],
    "metrics": {
        "cart_traj_len": 1.2088091717774394,
        "distance_elbow_joint": 0.0672850538265517,
        "distance_shoulder_lift_joint": 0.7506298954539841,
        "distance_shoulder_pan_joint": 1.2405118555760688,
        "distance_wrist_1_joint": 0.7437274473335292,
        "distance_wrist_2_joint": 1.469237704055921,
        "distance_wrist_3_joint": 4.2489848955816,
        "smoothness": 0.050092439041117175,
        "time": 0.07615302700000001,
        "traj_len": 2.9189684568058722,
        "weighted_distance": 4.38535195786841
    },
    "planner": "LazyPRM",
    "start": {
        "state": {
            "elbow_joint": 1.919643534880228,
            "shoulder_lift_joint": -1.8972525353963687,
            "shoulder_pan_joint": -1.1188672234189438,
            "wrist_1_joint": -1.5931878212786155,
            "wrist_2_joint": 1.5706036197970081,
            "wrist_3_joint": 1.118896926603594
        }
    },
    "waypoints": [
        {
            "positions": [
                -1.1188672234189438,
                -1.8972525353963687,
                1.919643534880228,
                -1.5931878212786155,
                1.5706036197970081,
                1.118896926603594
            ]
        },
        {
            "positions": [
                -1.0615909149340572,
                -1.8624404038385083,
                1.9211591979776577,
                -1.56071505789304,
                1.5012331803772105,
                0.9235630938981635
            ]
        },
        {
            "positions": [
                -1.0043146064491706,
                -1.8276282722806478,
                1.9226748610750872,
                -1.5282422945074643,
                1.431862740957413,
                0.728229261192733
            ]
        },
        {
            "positions": [
                -0.9470382979642838,
                -1.7928161407227874,
                1.9241905241725168,
                -1.4957695311218888,
                1.3624923015376154,
                0.5328954284873026
            ]
        },
        {
            "positions": [
                -0.8897619894793971,
                -1.758004009164927,
                1.9257061872699464,
                -1.4632967677363131,
                1.2931218621178175,
                0.33756159578187217
            ]
        },
        {
            "positions": [
                -0.8324856809945105,
                -1.7231918776070665,
                1.927221850367376,
                -1.4308240043507376,
                1.22375142269802,
                0.1422277630764417
            ]
        },
        {
            "positions": [
                -0.7752093725096239,
                -1.6883797460492063,
                1.9287375134648055,
                -1.398351240965162,
                1.1543809832782224,
                -0.05310606962898867
            ]
        },
        {
            "positions": [
                -0.7179330640247371,
                -1.6535676144913458,
                1.930253176562235,
                -1.3658784775795865,
                1.0850105438584248,
                -0.24843990233441926
            ]
        },
        {
            "positions": [
                -0.6606567555398504,
                -1.6187554829334854,
                1.9317688396596646,
                -1.3334057141940108,
                1.015640104438627,
                -0.4437737350398496
            ]
        },
        {
            "positions": [
                -0.6033804470549637,
                -1.583943351375625,
                1.9332845027570942,
                -1.3009329508084353,
                0.9462696650188295,
                -0.63910756774528
            ]
        },
        {
            "positions": [
                -0.5461041385700771,
                -1.5491312198177645,
                1.9348001658545237,
                -1.2684601874228596,
                0.8768992255990319,
                -0.8344414004507106
            ]
        },
        {
            "positions": [
                -0.48882783008519026,
                -1.514319088259904,
                1.9363158289519533,
                -1.2359874240372841,
                0.8075287861792341,
                -1.0297752331561412
            ]
        },
        {
            "positions": [
                -0.43155152160030374,
                -1.4795069567020436,
                1.9378314920493829,
                -1.2035146606517086,
                0.7381583467594366,
                -1.2251090658615713
            ]
        },
        {
            "positions": [
                -0.374275213115417,
                -1.4446948251441831,
                1.9393471551468124,
                -1.171041897266133,
                0.6687879073396389,
                -1.420442898567002
            ]
        },
        {
            "positions": [
                -0.3169989046305304,
                -1.4098826935863227,
                1.940862818244242,
                -1.1385691338805572,
                0.5994174679198413,
                -1.6157767312724325
            ]
        },
        {
            "positions": [
                -0.25972259614564364,
                -1.3750705620284625,
                1.9423784813416716,
                -1.1060963704949818,
                0.5300470285000436,
                -1.811110563977863
            ]
        },
        {
            "positions": [
                -0.202446287660757,
                -1.3402584304706018,
                1.9438941444391011,
                -1.0736236071094063,
                0.460676589080246,
                -2.0064443966832934
            ]
        },
        {
            "positions": [
                -0.14516997917587027,
                -1.3054462989127416,
                1.9454098075365307,
                -1.0411508437238306,
                0.3913061496604484,
                -2.201778229388724
            ]
        },
        {
            "positions": [
                -0.08789367069098364,
                -1.270634167354881,
                1.9469254706339603,
                -1.008678080338255,
                0.3219357102406508,
                -2.3971120620941537
            ]
        },
        {
            "positions": [
                -0.030617362206096788,
                -1.2358220357970207,
                1.9484411337313898,
                -0.9762053169526794,
                0.252565270820853,
                -2.592445894799585
            ]
        },
        {
            "positions": [
                0.02665894627878962,
                -1.2010099042391602,
                1.9499567968288194,
                -0.9437325535671038,
                0.18319483140105564,
                -2.787779727505015
            ]
        },
        {
            "positions": [
                0.0839352547636765,
                -1.1661977726812998,
                1.951472459926249,
                -0.9112597901815283,
                0.11382439198125774,
                -2.983113560210446
            ]
        },
        {
            "positions": [
                0.12164463215712487,
                -1.1466226399423847,
                1.9869285887067798,
                -0.8494603739450862,
                0.12628286822142845,
                -3.130087968978006
            ]
        }
    ]
}