{
    "goal": {
        "global_pose": {
            "orientation": {
                "w": 0.5084816217422485,
                "x": -0.49083608388900757,
                "y": 0.5182115435600281,
                "z": -0.4816462993621826
            },
            "position": {
                "x": 0.5540239810943604,
                "y": 0.030875300988554955,
                "z": 0.16403168439865112
            }
        },
        "name": "move_to_storage_A"
    },
    "id": "LBKPIECE_move_to_storage_A_110",
    "joint_names": [
        "shoulder_pan_joint",
        "shoulder_lift_joint",
        "elbow_joint",
        "wrist_1_joint",
        "wrist_2_joint",
        "wrist_3_joint"
    ],
    "metrics": {
        "cart_traj_len": 0.3522198158104134,
        "distance_elbow_joint": 0.44701519004913015,
        "distance_shoulder_lift_joint": 0.23433738412575167,
        "distance_shoulder_pan_joint": 0.4614716869523425,
        "distance_wrist_1_joint": 0.23472938563565882,
        "distance_wrist_2_joint": 1.0925738968405518,
        "distance_wrist_3_joint": 0.10043002753268082,
        "smoothness": 4.440892133664971e-16,
        "time": 0.676281913,
        "traj_len": 1.603295846416411,
        "weighted_distance": 2.024529799404713
    },
    "planner": "LBKPIECE",
    "start": {
        "state": {
            "elbow_joint": 1.9715477243005601,
            "shoulder_lift_joint": -1.1394853015351272,
            "shoulder_pan_joint": 0.12281154014795169,
            "wrist_1_joint": -0.7804696478968182,
            "wrist_2_joint": 0.12958648046900423,
            "wrist_3_joint": -3.192491284697111
        }
    },
    "waypoints": [
        {
            "positions": [
                0.12281154014795169,
                -1.1394853015351272,
                1.9715477243005601,
                -0.7804696478968182,
                0.12958648046900423,
                -3.192491284697111
            ]
        },
        {
            "positions": [
                0.0568870134404742,
                -1.172962070695949,
                2.0354070371647217,
                -0.8140024172733409,
                0.28566846573194016,
                -3.1781441379067283
            ]
        },
        {
            "positions": [
                -0.009037513267003291,
                -1.2064388398567705,
                2.099266350028883,
                -0.8475351866498635,
                0.44175045099487614,
                -3.163796991116345
            ]
        },
        {
            "positions": [
                -0.0749620399744808,
                -1.2399156090175922,
                2.1631256628930444,
                -0.8810679560263862,
                0.5978324362578121,
                -3.149449844325962
            ]
        },
        {
            "positions": [
                -0.14088656668195826,
                -1.2733923781784138,
                2.226984975757206,
                -0.9146007254029089,
                0.7539144215207481,
                -3.1351026975355794
            ]
        },
        {
            "positions": [
                -0.20681109338943576,
                -1.3068691473392355,
                2.2908442886213676,
                -0.9481334947794315,
                0.9099964067836841,
                -3.1207555507451965
            ]
        },
        {
            "positions": [
                -0.27273562009691327,
                -1.340345916500057,
                2.3547036014855287,
                -0.9816662641559543,
                1.0660783920466201,
                -3.106408403954813
            ]
        },
        {
            "positions": [
                -0.33866014680439077,
                -1.3738226856608788,
                2.4185629143496903,
                -1.015199033532477,
                1.2221603773095562,
                -3.0920612571644304
            ]
        }
    ]
}