{
    "goal": {
        "global_pose": {
            "orientation": {
                "w": 0.5084816217422485,
                "x": -0.49083608388900757,
                "y": 0.5182115435600281,
                "z": -0.4816462993621826
            },
            "position": {
                "x": 0.5540239810943604,
                "y": 0.030875300988554955,
                "z": 0.16403168439865112
            }
        },
        "name": "move_to_storage_A"
    },
    "id": "LBKPIECE_move_to_storage_A_74",
    "joint_names": [
        "shoulder_pan_joint",
        "shoulder_lift_joint",
        "elbow_joint",
        "wrist_1_joint",
        "wrist_2_joint",
        "wrist_3_joint"
    ],
    "metrics": {
        "cart_traj_len": 0.35359657623201846,
        "distance_elbow_joint": 0.45005080748771453,
        "distance_shoulder_lift_joint": 0.23586665767925408,
        "distance_shoulder_pan_joint": 0.4616080849869616,
        "distance_wrist_1_joint": 0.23517246708943496,
        "distance_wrist_2_joint": 1.1044204437572347,
        "distance_wrist_3_joint": 0.1031507964361249,
        "smoothness": 6.661338165333112e-16,
        "time": 0.284010164,
        "traj_len": 1.6094313459842655,
        "weighted_distance": 2.033756072186545
    },
    "planner": "LBKPIECE",
    "start": {
        "state": {
            "elbow_joint": 1.9715477243005601,
            "shoulder_lift_joint": -1.1394853015351272,
            "shoulder_pan_joint": 0.12281154014795169,
            "wrist_1_joint": -0.7804696478968182,
            "wrist_2_joint": 0.12958648046900423,
            "wrist_3_joint": -3.192491284697111
        }
    },
    "waypoints": [
        {
            "positions": [
                0.12281154014795169,
                -1.1394853015351272,
                1.9715477243005601,
                -0.7804696478968182,
                0.12958648046900423,
                -3.192491284697111
            ]
        },
        {
            "positions": [
                0.056867528006957185,
                -1.173180538346449,
                2.035840696798805,
                -0.8140657146238803,
                0.28736082957718057,
                -3.1777554566348076
            ]
        },
        {
            "positions": [
                -0.009076484134037319,
                -1.2068757751577712,
                2.10013366929705,
                -0.8476617813509424,
                0.44513517868535696,
                -3.163019628572504
            ]
        },
        {
            "positions": [
                -0.07502049627503184,
                -1.2405710119690931,
                2.164426641795295,
                -0.8812578480780046,
                0.6029095277935334,
                -3.1482838005102005
            ]
        },
        {
            "positions": [
                -0.1409645084160263,
                -1.2742662487804153,
                2.22871961429354,
                -0.9148539148050667,
                0.7606838769017097,
                -3.133547972447897
            ]
        },
        {
            "positions": [
                -0.20690852055702086,
                -1.3079614855917372,
                2.293012586791785,
                -0.9484499815321288,
                0.9184582260098861,
                -3.1188121443855934
            ]
        },
        {
            "positions": [
                -0.27285253269801535,
                -1.341656722403059,
                2.3573055592900296,
                -0.982046048259191,
                1.0762325751180626,
                -3.10407631632329
            ]
        },
        {
            "positions": [
                -0.3387965448390099,
                -1.3753519592143812,
                2.4215985317882747,
                -1.0156421149862531,
                1.234006924226239,
                -3.0893404882609863
            ]
        }
    ]
}