{
    "goal": {
        "global_pose": {
            "orientation": {
                "w": 0.7047431468963623,
                "x": -0.7094548344612122,
                "y": 0.0024358443915843964,
                "z": -0.0022348060738295317
            },
            "position": {
                "x": 0.6094750761985779,
                "y": 0.3671506643295288,
                "z": 0.19426114857196808
            }
        },
        "name": "move_to_magneteinheit_A"
    },
    "id": "LBKPIECE_move_to_magneteinheit_A_22",
    "joint_names": [
        "shoulder_pan_joint",
        "shoulder_lift_joint",
        "elbow_joint",
        "wrist_1_joint",
        "wrist_2_joint",
        "wrist_3_joint"
    ],
    "metrics": {
        "cart_traj_len": 3.2772741594479573,
        "distance_elbow_joint": 3.9092770863376867,
        "distance_shoulder_lift_joint": 0.5900052924524812,
        "distance_shoulder_pan_joint": 2.781736055380436,
        "distance_wrist_1_joint": 3.481286142248525,
        "distance_wrist_2_joint": 1.5856768432187975,
        "distance_wrist_3_joint": 0.5001385101142202,
        "smoothness": 0.17699315772408297,
        "time": 0.45881066,
        "traj_len": 3.584427420070345,
        "weighted_distance": 4.349179225491622
    },
    "planner": "LBKPIECE",
    "start": {
        "state": {
            "elbow_joint": -1.919618573717145,
            "shoulder_lift_joint": -1.2443395971678275,
            "shoulder_pan_joint": 2.6996025300909787,
            "wrist_1_joint": -1.548550951253194,
            "wrist_2_joint": -1.5709469090946802,
            "wrist_3_joint": 0.4420197732051276
        }
    },
    "waypoints": [
        {
            "positions": [
                2.6996025300909787,
                -1.2443395971678275,
                -1.919618573717145,
                -1.548550951253194,
                -1.5709469090946802,
                0.4420197732051276
            ]
        },
        {
            "positions": [
                2.5924973705779855,
                -1.2263228035262823,
                -1.8278319181240523,
                -1.4539405425362213,
                -1.5098259645600125,
                0.42982497326936536
            ]
        },
        {
            "positions": [
                2.4853922110649918,
                -1.2083060098847371,
                -1.73604526253096,
                -1.3593301338192485,
                -1.448705020025345,
                0.41763017333360314
            ]
        },
        {
            "positions": [
                2.3782870515519985,
                -1.190289216243192,
                -1.6442586069378673,
                -1.2647197251022757,
                -1.3875840754906774,
                0.4054353733978409
            ]
        },
        {
            "positions": [
                2.271181892039005,
                -1.1722724226016468,
                -1.5524719513447747,
                -1.170109316385303,
                -1.3264631309560098,
                0.3932405734620787
            ]
        },
        {
            "positions": [
                2.1640767325260115,
                -1.1542556289601016,
                -1.460685295751682,
                -1.0754989076683301,
                -1.2653421864213423,
                0.38104577352631647
            ]
        },
        {
            "positions": [
                2.0569715730130183,
                -1.1362388353185564,
                -1.3688986401585894,
                -0.9808884989513573,
                -1.2042212418866747,
                0.36885097359055424
            ]
        },
        {
            "positions": [
                1.9498664135000245,
                -1.1182220416770112,
                -1.2771119845654968,
                -0.8862780902343844,
                -1.143100297352007,
                0.356656173654792
            ]
        },
        {
            "positions": [
                1.8427612539870313,
                -1.100205248035466,
                -1.1853253289724044,
                -0.7916676815174116,
                -1.0819793528173394,
                0.34446137371902985
            ]
        },
        {
            "positions": [
                1.7356560944740378,
                -1.0821884543939209,
                -1.0935386733793118,
                -0.6970572728004388,
                -1.0208584082826717,
                0.33226657378326757
            ]
        },
        {
            "positions": [
                1.6285509349610443,
                -1.0641716607523757,
                -1.0017520177862194,
                -0.602446864083466,
                -0.9597374637480043,
                0.3200717738475054
            ]
        },
        {
            "positions": [
                1.5214457754480508,
                -1.0461548671108305,
                -0.9099653621931267,
                -0.5078364553664931,
                -0.8986165192133367,
                0.3078769739117432
            ]
        },
        {
            "positions": [
                1.4143406159350576,
                -1.0281380734692853,
                -0.8181787066000341,
                -0.41322604664952056,
                -0.8374955746786691,
                0.29568217397598096
            ]
        },
        {
            "positions": [
                1.307235456422064,
                -1.0101212798277401,
                -0.7263920510069417,
                -0.31861563793254777,
                -0.7763746301440015,
                0.28348737404021873
            ]
        },
        {
            "positions": [
                1.2001302969090706,
                -0.992104486186195,
                -0.6346053954138489,
                -0.22400522921557475,
                -0.7152536856093339,
                0.2712925741044565
            ]
        },
        {
            "positions": [
                1.093025137396077,
                -0.9740876925446498,
                -0.5428187398207565,
                -0.12939482049860196,
                -0.6541327410746663,
                0.2590977741686943
            ]
        },
        {
            "positions": [
                0.9859199778830838,
                -0.9560708989031046,
                -0.45103208422766383,
                -0.034784411781629165,
                -0.5930117965399988,
                0.24690297423293206
            ]
        },
        {
            "positions": [
                0.8788148183700903,
                -0.9380541052615594,
                -0.35924542863457143,
                0.059825996935343406,
                -0.5318908520053311,
                0.23470817429716984
            ]
        },
        {
            "positions": [
                0.7717096588570969,
                -0.9200373116200142,
                -0.2674587730414786,
                0.15443640565231642,
                -0.4707699074706635,
                0.22251337436140758
            ]
        },
        {
            "positions": [
                0.6646044993441036,
                -0.902020517978469,
                -0.17567211744838618,
                0.24904681436928922,
                -0.40964896293599606,
                0.2103185744256454
            ]
        },
        {
            "positions": [
                0.5574993398311099,
                -0.8840037243369239,
                -0.08388546185529355,
                0.343657223086262,
                -0.3485280184013284,
                0.19812377448988316
            ]
        },
        {
            "positions": [
                0.4503941803181166,
                -0.8659869306953787,
                0.00790119373779885,
                0.4382676318032346,
                -0.287407073866661,
                0.18592897455412094
            ]
        },
        {
            "positions": [
                0.3432890208051229,
                -0.8479701370538335,
                0.09968784933089148,
                0.5328780405202078,
                -0.22628612933199332,
                0.17373417461835872
            ]
        },
        {
            "positions": [
                0.23618386129212945,
                -0.8299533434122883,
                0.191474504923984,
                0.6274884492371804,
                -0.16516518479732561,
                0.1615393746825965
            ]
        },
        {
            "positions": [
                0.1940857609731751,
                -0.8262372732989439,
                0.36298400836689704,
                0.7528779639989513,
                -0.14561585559985216,
                0.15095477505692567
            ]
        },
        {
            "positions": [
                0.1519876606542207,
                -0.8225212031855995,
                0.5344935118098101,
                0.8782674787607224,
                -0.1260665264023787,
                0.14037017543125482
            ]
        },
        {
            "positions": [
                0.10988956033526631,
                -0.8188051330722551,
                0.7060030152527231,
                1.0036569935224935,
                -0.10651719720490521,
                0.129785575805584
            ]
        },
        {
            "positions": [
                0.09701979756594706,
                -0.8274954406713766,
                0.8731267808277269,
                1.13545913177382,
                -0.09884602658553064,
                0.10739684700950951
            ]
        },
        {
            "positions": [
                0.08415003479662779,
                -0.8361857482704982,
                1.0402505464027307,
                1.2672612700251467,
                -0.09117485596615606,
                0.08500811821343501
            ]
        },
        {
            "positions": [
                0.07128027202730854,
                -0.8448760558696197,
                1.2073743119777345,
                1.399063408276473,
                -0.08350368534678149,
                0.06261938941736052
            ]
        },
        {
            "positions": [
                0.058410509257989275,
                -0.8535663634687413,
                1.3744980775527382,
                1.5308655465277998,
                -0.0758325147274069,
                0.040230660621286024
            ]
        },
        {
            "positions": [
                0.045540746488670014,
                -0.8622566710678627,
                1.541621843127742,
                1.6626676847791262,
                -0.06816134410803233,
                0.017841931825211516
            ]
        },
        {
            "positions": [
                0.03267098371935076,
                -0.8709469786669843,
                1.708745608702746,
                1.7944698230304528,
                -0.060490173488657754,
                -0.004546796970862965
            ]
        },
        {
            "positions": [
                0.019801220950031492,
                -0.8796372862661058,
                1.8758693742777497,
                1.9262719612817794,
                -0.05281900286928318,
                -0.026935525766937474
            ]
        },
        {
            "positions": [
                0.07076859406977665,
                -0.8278179486845767,
                1.9327639434491455,
                1.9230403464250039,
                -0.08659347136598317,
                -0.01134392019585998
            ]
        },
        {
            "positions": [
                0.1217359671895218,
                -0.7759986111030477,
                1.9896585126205415,
                1.9198087315682284,
                -0.12036793986268315,
                0.004247685375217514
            ]
        }
    ]
}{
    "goal": {
        "global_pose": {
            "orientation": {
                "w": 0.7047431468963623,
                "x": -0.7094548344612122,
                "y": 0.0024358443915843964,
                "z": -0.0022348060738295317
            },
            "position": {
                "x": 0.6094750761985779,
                "y": 0.3671506643295288,
                "z": 0.19426114857196808
            }
        },
        "name": "move_to_magneteinheit_A"
    },
    "id": "LBKPIECE_move_to_magneteinheit_A_22",
    "joint_names": [
        "shoulder_pan_joint",
        "shoulder_lift_joint",
        "elbow_joint",
        "wrist_1_joint",
        "wrist_2_joint",
        "wrist_3_joint"
    ],
    "metrics": {
        "cart_traj_len": 1.395240497125631,
        "distance_elbow_joint": 0.7975807167970659,
        "distance_shoulder_lift_joint": 0.7500827308062377,
        "distance_shoulder_pan_joint": 1.2414758544524296,
        "distance_wrist_1_joint": 2.469808790265016,
        "distance_wrist_2_joint": 4.028537809754322,
        "distance_wrist_3_joint": 4.723978779405368,
        "smoothness": 0.49811184374854856,
        "time": 0.544572141,
        "traj_len": 3.743189105760012,
        "weighted_distance": 5.4733690575650495
    },
    "planner": "LBKPIECE",
    "start": {
        "state": {
            "elbow_joint": 1.919643534880228,
            "shoulder_lift_joint": -1.8972525353963687,
            "shoulder_pan_joint": -1.1188672234189438,
            "wrist_1_joint": -1.5931878212786155,
            "wrist_2_joint": 1.5706036197970081,
            "wrist_3_joint": 1.118896926603594
        }
    },
    "waypoints": [
        {
            "positions": [
                -1.1188672234189438,
                -1.8972525353963687,
                1.919643534880228,
                -1.5931878212786155,
                1.5706036197970081,
                1.118896926603594
            ]
        },
        {
            "positions": [
                -1.0886211020989023,
                -1.8947372142849088,
                1.9055476540048628,
                -1.5310604221569404,
                1.465421215274459,
                0.9460212073744544
            ]
        },
        {
            "positions": [
                -1.058374980778861,
                -1.892221893173449,
                1.8914517731294975,
                -1.4689330230352653,
                1.3602388107519097,
                0.7731454881453148
            ]
        },
        {
            "positions": [
                -1.0281288594588194,
                -1.889706572061989,
                1.8773558922541322,
                -1.4068056239135902,
                1.2550564062293605,
                0.6002697689161752
            ]
        },
        {
            "positions": [
                -0.997882738138778,
                -1.887191250950529,
                1.863260011378767,
                -1.3446782247919151,
                1.1498740017068112,
                0.42739404968703576
            ]
        },
        {
            "positions": [
                -0.9676366168187365,
                -1.8846759298390692,
                1.8491641305034017,
                -1.28255082567024,
                1.044691597184262,
                0.2545183304578962
            ]
        },
        {
            "positions": [
                -0.9373904954986951,
                -1.8821606087276093,
                1.8350682496280364,
                -1.220423426548565,
                0.9395091926617128,
                0.08164261122875649
            ]
        },
        {
            "positions": [
                -0.9071443741786536,
                -1.8796452876161496,
                1.8209723687526713,
                -1.1582960274268899,
                0.8343267881391637,
                -0.09123310800038276
            ]
        },
        {
            "positions": [
                -0.8768982528586121,
                -1.8771299665046897,
                1.806876487877306,
                -1.0961686283052148,
                0.7291443836166144,
                -0.26410882722952245
            ]
        },
        {
            "positions": [
                -0.8466521315385707,
                -1.8746146453932298,
                1.7927806070019408,
                -1.03404122918354,
                0.6239619790940653,
                -0.4369845464586619
            ]
        },
        {
            "positions": [
                -0.8164060102185292,
                -1.8720993242817698,
                1.7786847261265755,
                -0.9719138300618646,
                0.518779574571516,
                -0.6098602656878016
            ]
        },
        {
            "positions": [
                -0.7861598888984878,
                -1.86958400317031,
                1.7645888452512102,
                -0.9097864309401896,
                0.4135971700489669,
                -0.7827359849169411
            ]
        },
        {
            "positions": [
                -0.7559137675784463,
                -1.86706868205885,
                1.750492964375845,
                -0.8476590318185145,
                0.30841476552641756,
                -0.955611704146081
            ]
        },
        {
            "positions": [
                -0.7256676462584049,
                -1.86455336094739,
                1.7363970835004796,
                -0.7855316326968395,
                0.20323236100386843,
                -1.1284874233752202
            ]
        },
        {
            "positions": [
                -0.6954215249383634,
                -1.8620380398359302,
                1.7223012026251143,
                -0.7234042335751644,
                0.09804995648131931,
                -1.3013631426043595
            ]
        },
        {
            "positions": [
                -0.665175403618322,
                -1.8595227187244703,
                1.708205321749749,
                -0.6612768344534894,
                -0.007132448041229811,
                -1.4742388618334992
            ]
        },
        {
            "positions": [
                -0.6349292822982804,
                -1.8570073976130104,
                1.6941094408743838,
                -0.5991494353318142,
                -0.11231485256377938,
                -1.6471145810626389
            ]
        },
        {
            "positions": [
                -0.604683160978239,
                -1.8544920765015505,
                1.6800135599990185,
                -0.5370220362101392,
                -0.2174972570863285,
                -1.8199903002917786
            ]
        },
        {
            "positions": [
                -0.5744370396581976,
                -1.8519767553900905,
                1.6659176791236532,
                -0.47489463708846413,
                -0.3226796616088776,
                -1.9928660195209178
            ]
        },
        {
            "positions": [
                -0.5441909183381561,
                -1.8494614342786306,
                1.651821798248288,
                -0.41276723796678905,
                -0.42786206613142674,
                -2.1657417387500573
            ]
        },
        {
            "positions": [
                -0.5139447970181146,
                -1.846946113167171,
                1.6377259173729226,
                -0.35063983884511374,
                -0.5330444706539761,
                -2.338617457979197
            ]
        },
        {
            "positions": [
                -0.4836986756980731,
                -1.844430792055711,
                1.6236300364975573,
                -0.2885124397234389,
                -0.6382268751765254,
                -2.5114931772083366
            ]
        },
        {
            "positions": [
                -0.45345255437803167,
                -1.8419154709442511,
                1.6095341556221923,
                -0.2263850406017638,
                -0.7434092796990743,
                -2.6843688964374763
            ]
        },
        {
            "positions": [
                -0.4232064330579902,
                -1.8394001498327912,
                1.595438274746827,
                -0.1642576414800887,
                -0.8485916842216237,
                -2.857244615666616
            ]
        },
        {
            "positions": [
                -0.39296031173794876,
                -1.8368848287213313,
                1.5813423938714617,
                -0.10213024235841361,
                -0.953774088744173,
                -3.0301203348957557
            ]
        },
        {
            "positions": [
                -0.3627141904179073,
                -1.8343695076098714,
                1.5672465129960964,
                -0.04000284323673853,
                -1.058956493266722,
                -3.2029960541248945
            ]
        },
        {
            "positions": [
                -0.33246806909786586,
                -1.8318541864984115,
                1.5531506321207311,
                0.02212455588493656,
                -1.1641388977892715,
                -3.375871773354034
            ]
        },
        {
            "positions": [
                -0.28696039908473064,
                -1.7633857483075834,
                1.596259413524488,
                -0.06332508542520988,
                -1.0347593685724672,
                -3.3529507654092603
            ]
        },
        {
            "positions": [
                -0.24145272907159546,
                -1.6949173101167554,
                1.6393681949282448,
                -0.14877472673535633,
                -0.9053798393556629,
                -3.330029757464486
            ]
        },
        {
            "positions": [
                -0.19594505905846027,
                -1.6264488719259274,
                1.6824769763320018,
                -0.23422436804550273,
                -0.7760003101388588,
                -3.307108749519712
            ]
        },
        {
            "positions": [
                -0.15043738904532505,
                -1.5579804337350993,
                1.7255857577357587,
                -0.3196740093556492,
                -0.6466207809220544,
                -3.284187741574938
            ]
        },
        {
            "positions": [
                -0.10492971903218987,
                -1.4895119955442713,
                1.7686945391395157,
                -0.40512365066579564,
                -0.5172412517052503,
                -3.2612667336301637
            ]
        },
        {
            "positions": [
                -0.05942204901905468,
                -1.4210435573534432,
                1.8118033205432724,
                -0.490573291975942,
                -0.3878617224884461,
                -3.23834572568539
            ]
        },
        {
            "positions": [
                -0.013914379005919464,
                -1.3525751191626152,
                1.8549121019470294,
                -0.5760229332860884,
                -0.2584821932716418,
                -3.215424717740616
            ]
        },
        {
            "positions": [
                0.03159329100721575,
                -1.2841066809717872,
                1.8980208833507863,
                -0.661472574596235,
                -0.1291026640548374,
                -3.192503709795842
            ]
        },
        {
            "positions": [
                0.07710096102035091,
                -1.215638242780959,
                1.941129664754543,
                -0.7469222159063814,
                0.0002768651619666773,
                -3.1695827018510676
            ]
        },
        {
            "positions": [
                0.12260863103348613,
                -1.147169804590131,
                1.9842384461583,
                -0.8323718572165278,
                0.12965639437877105,
                -3.1466616939062937
            ]
        }
    ]
}