{
    "goal": {
        "global_pose": {
            "orientation": {
                "w": 0.7047431468963623,
                "x": -0.7094548344612122,
                "y": 0.0024358443915843964,
                "z": -0.0022348060738295317
            },
            "position": {
                "x": 0.6094750761985779,
                "y": 0.3671506643295288,
                "z": 0.19426114857196808
            }
        },
        "name": "move_to_magneteinheit_A"
    },
    "id": "LBKPIECE_move_to_magneteinheit_A_71",
    "joint_names": [
        "shoulder_pan_joint",
        "shoulder_lift_joint",
        "elbow_joint",
        "wrist_1_joint",
        "wrist_2_joint",
        "wrist_3_joint"
    ],
    "metrics": {
        "cart_traj_len": 3.4619788371870395,
        "distance_elbow_joint": 3.874295045761879,
        "distance_shoulder_lift_joint": 0.11410230910804686,
        "distance_shoulder_pan_joint": 2.8276157803684243,
        "distance_wrist_1_joint": 0.8298710238364624,
        "distance_wrist_2_joint": 1.6918440178150946,
        "distance_wrist_3_joint": 2.6011926700647416,
        "smoothness": 0.10253877757862578,
        "time": 0.392794366,
        "traj_len": 3.4552743519082028,
        "weighted_distance": 4.434300534327336
    },
    "planner": "LBKPIECE",
    "start": {
        "state": {
            "elbow_joint": -1.919618573717145,
            "shoulder_lift_joint": -1.2443395971678275,
            "shoulder_pan_joint": 2.6996025300909787,
            "wrist_1_joint": -1.548550951253194,
            "wrist_2_joint": -1.5709469090946802,
            "wrist_3_joint": 0.4420197732051276
        }
    },
    "waypoints": [
        {
            "positions": [
                2.6996025300909787,
                -1.2443395971678275,
                -1.919618573717145,
                -1.548550951253194,
                -1.5709469090946802,
                0.4420197732051276
            ]
        },
        {
            "positions": [
                2.5894527164091965,
                -1.2422340750687544,
                -1.809217511627645,
                -1.5204526214284066,
                -1.5069487455698232,
                0.5098542202610429
            ]
        },
        {
            "positions": [
                2.4793029027274147,
                -1.2401285529696813,
                -1.6988164495381448,
                -1.4923542916036194,
                -1.4429505820449664,
                0.5776886673169581
            ]
        },
        {
            "positions": [
                2.3691530890456325,
                -1.238023030870608,
                -1.5884153874486449,
                -1.464255961778832,
                -1.3789524185201096,
                0.6455231143728735
            ]
        },
        {
            "positions": [
                2.2590032753638507,
                -1.2359175087715348,
                -1.478014325359145,
                -1.4361576319540446,
                -1.3149542549952526,
                0.7133575614287888
            ]
        },
        {
            "positions": [
                2.1488534616820685,
                -1.2338119866724617,
                -1.3676132632696447,
                -1.4080593021292571,
                -1.2509560914703957,
                0.781192008484704
            ]
        },
        {
            "positions": [
                2.0387036480002863,
                -1.2317064645733886,
                -1.257212201180145,
                -1.37996097230447,
                -1.186957927945539,
                0.8490264555406193
            ]
        },
        {
            "positions": [
                1.9285538343185045,
                -1.2296009424743153,
                -1.1468111390906448,
                -1.3518626424796825,
                -1.1229597644206821,
                0.9168609025965346
            ]
        },
        {
            "positions": [
                1.8184040206367222,
                -1.2274954203752422,
                -1.0364100770011446,
                -1.323764312654895,
                -1.0589616008958251,
                0.98469534965245
            ]
        },
        {
            "positions": [
                1.7082542069549402,
                -1.225389898276169,
                -0.9260090149116448,
                -1.2956659828301076,
                -0.9949634373709683,
                1.0525297967083653
            ]
        },
        {
            "positions": [
                1.5981043932731582,
                -1.223284376177096,
                -0.8156079528221447,
                -1.2675676530053204,
                -0.9309652738461114,
                1.1203642437642805
            ]
        },
        {
            "positions": [
                1.4879545795913762,
                -1.2211788540780226,
                -0.7052068907326448,
                -1.239469323180533,
                -0.8669671103212545,
                1.1881986908201958
            ]
        },
        {
            "positions": [
                1.3778047659095942,
                -1.2190733319789495,
                -0.5948058286431448,
                -1.2113709933557457,
                -0.8029689467963977,
                1.2560331378761111
            ]
        },
        {
            "positions": [
                1.267654952227812,
                -1.2169678098798764,
                -0.4844047665536446,
                -1.1832726635309583,
                -0.7389707832715408,
                1.3238675849320265
            ]
        },
        {
            "positions": [
                1.1575051385460302,
                -1.2148622877808033,
                -0.37400370446414466,
                -1.1551743337061708,
                -0.6749726197466839,
                1.3917020319879418
            ]
        },
        {
            "positions": [
                1.0473553248642482,
                -1.2127567656817302,
                -0.2636026423746447,
                -1.1270760038813834,
                -0.6109744562218271,
                1.459536479043857
            ]
        },
        {
            "positions": [
                0.937205511182466,
                -1.2106512435826569,
                -0.15320158028514452,
                -1.098977674056596,
                -0.5469762926969701,
                1.5273709260997723
            ]
        },
        {
            "positions": [
                0.827055697500684,
                -1.2085457214835837,
                -0.04280051819564479,
                -1.0708793442318087,
                -0.48297812917211336,
                1.5952053731556877
            ]
        },
        {
            "positions": [
                0.7169058838189017,
                -1.2064401993845106,
                0.06760054389385539,
                -1.0427810144070213,
                -0.41897996564725637,
                1.663039820211603
            ]
        },
        {
            "positions": [
                0.60675607013712,
                -1.2043346772854375,
                0.17800160598335535,
                -1.0146826845822339,
                -0.3549818021223994,
                1.7308742672675184
            ]
        },
        {
            "positions": [
                0.49660625645533774,
                -1.2022291551863642,
                0.28840266807285553,
                -0.9865843547574465,
                -0.2909836385975426,
                1.7987087143234335
            ]
        },
        {
            "positions": [
                0.3864564427735555,
                -1.200123633087291,
                0.3988037301623557,
                -0.9584860249326591,
                -0.22698547507268563,
                1.8665431613793488
            ]
        },
        {
            "positions": [
                0.2763066290917739,
                -1.198018110988218,
                0.5092047922518557,
                -0.9303876951078718,
                -0.1629873115478289,
                1.9343776084352642
            ]
        },
        {
            "positions": [
                0.2414240399926916,
                -1.1944076003035846,
                0.6822484367357712,
                -0.9182100413262306,
                -0.1406526246445332,
                2.0502558357502174
            ]
        },
        {
            "positions": [
                0.2065414508936093,
                -1.1907970896189513,
                0.8552920812196867,
                -0.9060323875445895,
                -0.11831793774123754,
                2.1661340630651704
            ]
        },
        {
            "positions": [
                0.171658861794527,
                -1.1871865789343181,
                1.028335725703602,
                -0.8938547337629484,
                -0.09598325083794187,
                2.2820122903801234
            ]
        },
        {
            "positions": [
                0.1367762726954447,
                -1.1835760682496848,
                1.2013793701875177,
                -0.8816770799813073,
                -0.0736485639346462,
                2.3978905176950764
            ]
        },
        {
            "positions": [
                0.10189368359636242,
                -1.1799655575650514,
                1.3744230146714331,
                -0.8694994261996661,
                -0.05131387703135051,
                2.5137687450100294
            ]
        },
        {
            "positions": [
                0.0670110944972801,
                -1.1763550468804183,
                1.5474666591553485,
                -0.8573217724180251,
                -0.02897919012805486,
                2.6296469723249825
            ]
        },
        {
            "positions": [
                0.03212850539819781,
                -1.172744536195785,
                1.7205103036392642,
                -0.845144118636384,
                -0.0066445032247591795,
                2.7455251996399355
            ]
        },
        {
            "positions": [
                -0.0027540837008844937,
                -1.1691340255111515,
                1.8935539481231796,
                -0.8329664648547428,
                0.015690183678536487,
                2.8614034269548885
            ]
        },
        {
            "positions": [
                0.05987549958739534,
                -1.149685656785466,
                1.9241152100839571,
                -0.7758231961357372,
                0.0682936461994755,
                2.952307935112379
            ]
        },
        {
            "positions": [
                0.12250508287567517,
                -1.1302372880597806,
                1.9546764720447347,
                -0.7186799274167317,
                0.12089710872041454,
                3.0432124432698693
            ]
        }
    ]
}{
    "goal": {
        "global_pose": {
            "orientation": {
                "w": 0.7047431468963623,
                "x": -0.7094548344612122,
                "y": 0.0024358443915843964,
                "z": -0.0022348060738295317
            },
            "position": {
                "x": 0.6094750761985779,
                "y": 0.3671506643295288,
                "z": 0.19426114857196808
            }
        },
        "name": "move_to_magneteinheit_A"
    },
    "id": "LBKPIECE_move_to_magneteinheit_A_71",
    "joint_names": [
        "shoulder_pan_joint",
        "shoulder_lift_joint",
        "elbow_joint",
        "wrist_1_joint",
        "wrist_2_joint",
        "wrist_3_joint"
    ],
    "metrics": {
        "cart_traj_len": 1.396836097301974,
        "distance_elbow_joint": 0.069457066878162,
        "distance_shoulder_lift_joint": 1.0956942802468006,
        "distance_shoulder_pan_joint": 1.2413664481464846,
        "distance_wrist_1_joint": 0.9335129898518966,
        "distance_wrist_2_joint": 1.4318056026900785,
        "distance_wrist_3_joint": 4.468528942622857,
        "smoothness": 0.31474357389469987,
        "time": 0.356234075,
        "traj_len": 3.0397969225651047,
        "weighted_distance": 4.532410154456895
    },
    "planner": "LBKPIECE",
    "start": {
        "state": {
            "elbow_joint": 1.919643534880228,
            "shoulder_lift_joint": -1.8972525353963687,
            "shoulder_pan_joint": -1.1188672234189438,
            "wrist_1_joint": -1.5931878212786155,
            "wrist_2_joint": 1.5706036197970081,
            "wrist_3_joint": 1.118896926603594
        }
    },
    "waypoints": [
        {
            "positions": [
                -1.1188672234189438,
                -1.8972525353963687,
                1.919643534880228,
                -1.5931878212786155,
                1.5706036197970081,
                1.118896926603594
            ]
        },
        {
            "positions": [
                -1.0712104424882596,
                -1.854979567814131,
                1.922119100869681,
                -1.5520948718387995,
                1.5167979916735004,
                0.918305174286091
            ]
        },
        {
            "positions": [
                -1.023553661557575,
                -1.8127066002318932,
                1.9245946668591338,
                -1.5110019223989832,
                1.4629923635499928,
                0.7177134219685881
            ]
        },
        {
            "positions": [
                -0.9758968806268908,
                -1.7704336326496555,
                1.9270702328485867,
                -1.4699089729591672,
                1.409186735426485,
                0.5171216696510852
            ]
        },
        {
            "positions": [
                -0.9282400996962065,
                -1.728160665067418,
                1.9295457988380396,
                -1.428816023519351,
                1.3553811073029773,
                0.31652991733358216
            ]
        },
        {
            "positions": [
                -0.8805833187655221,
                -1.6858876974851802,
                1.9320213648274924,
                -1.387723074079535,
                1.3015754791794698,
                0.11593816501607934
            ]
        },
        {
            "positions": [
                -0.8329265378348378,
                -1.6436147299029424,
                1.9344969308169453,
                -1.3466301246397188,
                1.247769851055962,
                -0.08465358730142358
            ]
        },
        {
            "positions": [
                -0.7852697569041535,
                -1.6013417623207047,
                1.9369724968063982,
                -1.3055371751999028,
                1.1939642229324543,
                -0.28524533961892673
            ]
        },
        {
            "positions": [
                -0.7376129759734691,
                -1.559068794738467,
                1.939448062795851,
                -1.2644442257600865,
                1.1401585948089465,
                -0.48583709193642965
            ]
        },
        {
            "positions": [
                -0.6899561950427847,
                -1.5167958271562292,
                1.941923628785304,
                -1.2233512763202705,
                1.086352966685439,
                -0.6864288442539326
            ]
        },
        {
            "positions": [
                -0.6422994141121005,
                -1.4745228595739914,
                1.9443991947747568,
                -1.1822583268804543,
                1.0325473385619315,
                -0.8870205965714353
            ]
        },
        {
            "positions": [
                -0.5946426331814161,
                -1.432249891991754,
                1.9468747607642096,
                -1.1411653774406383,
                0.9787417104384236,
                -1.0876123488889384
            ]
        },
        {
            "positions": [
                -0.5469858522507318,
                -1.3899769244095161,
                1.9493503267536627,
                -1.1000724280008223,
                0.924936082314916,
                -1.2882041012064411
            ]
        },
        {
            "positions": [
                -0.49932907132004734,
                -1.3477039568272784,
                1.9518258927431156,
                -1.058979478561006,
                0.8711304541914082,
                -1.4887958535239443
            ]
        },
        {
            "positions": [
                -0.4516722903893631,
                -1.3054309892450406,
                1.9543014587325684,
                -1.0178865291211898,
                0.8173248260679006,
                -1.6893876058414474
            ]
        },
        {
            "positions": [
                -0.4040155094586788,
                -1.2631580216628029,
                1.9567770247220213,
                -0.9767935796813739,
                0.7635191979443929,
                -1.8899793581589501
            ]
        },
        {
            "positions": [
                -0.35635872852799433,
                -1.2208850540805651,
                1.9592525907114742,
                -0.9357006302415577,
                0.7097135698208852,
                -2.0905711104764535
            ]
        },
        {
            "positions": [
                -0.30870194759731007,
                -1.1786120864983274,
                1.961728156700927,
                -0.8946076808017417,
                0.6559079416973775,
                -2.291162862793956
            ]
        },
        {
            "positions": [
                -0.2610451666666256,
                -1.1363391189160896,
                1.96420372269038,
                -0.8535147313619255,
                0.6021023135738698,
                -2.491754615111459
            ]
        },
        {
            "positions": [
                -0.21338838573594132,
                -1.0940661513338519,
                1.9666792886798328,
                -0.8124217819221095,
                0.5482966854503621,
                -2.6923463674289616
            ]
        },
        {
            "positions": [
                -0.16573160480525706,
                -1.0517931837516143,
                1.9691548546692856,
                -0.7713288324822933,
                0.4944910573268546,
                -2.8929381197464643
            ]
        },
        {
            "positions": [
                -0.11807482387457258,
                -1.0095202161693764,
                1.9716304206587385,
                -0.7302358830424772,
                0.44068542920334663,
                -3.093529872063968
            ]
        },
        {
            "positions": [
                -0.07041804294388837,
                -0.9672472485871388,
                1.9741059866481914,
                -0.6891429336026611,
                0.3868798010798391,
                -3.2941216243814706
            ]
        },
        {
            "positions": [
                0.02604059089182617,
                -1.0500917453059242,
                1.966608679093092,
                -0.7038769846906322,
                0.26283890909338437,
                -3.2663664285625744
            ]
        },
        {
            "positions": [
                0.1224992247275407,
                -1.1329362420247095,
                1.9591113715379926,
                -0.7186110357786033,
                0.13879801710692963,
                -3.238611232743678
            ]
        }
    ]
}