{
    "goal": {
        "global_pose": {
            "orientation": {
                "w": 0.7047431468963623,
                "x": -0.7094548344612122,
                "y": 0.0024358443915843964,
                "z": -0.0022348060738295317
            },
            "position": {
                "x": 0.6094750761985779,
                "y": 0.3671506643295288,
                "z": 0.19426114857196808
            }
        },
        "name": "move_to_magneteinheit_A"
    },
    "id": "LBKPIECE_move_to_magneteinheit_A_137",
    "joint_names": [
        "shoulder_pan_joint",
        "shoulder_lift_joint",
        "elbow_joint",
        "wrist_1_joint",
        "wrist_2_joint",
        "wrist_3_joint"
    ],
    "metrics": {
        "cart_traj_len": 2.9794524940883456,
        "distance_elbow_joint": 3.912124743873809,
        "distance_shoulder_lift_joint": 0.4669398911978411,
        "distance_shoulder_pan_joint": 2.754897782953983,
        "distance_wrist_1_joint": 3.4653197596772305,
        "distance_wrist_2_joint": 1.4344804609231991,
        "distance_wrist_3_joint": 2.386724233873322,
        "smoothness": 0.1955065885874169,
        "time": 0.394795075,
        "traj_len": 3.7974316152498897,
        "weighted_distance": 4.908537008197702
    },
    "planner": "LBKPIECE",
    "start": {
        "state": {
            "elbow_joint": -1.919618573717145,
            "shoulder_lift_joint": -1.2443395971678275,
            "shoulder_pan_joint": 2.6996025300909787,
            "wrist_1_joint": -1.548550951253194,
            "wrist_2_joint": -1.5709469090946802,
            "wrist_3_joint": 0.4420197732051276
        }
    },
    "waypoints": [
        {
            "positions": [
                2.6996025300909787,
                -1.2443395971678275,
                -1.919618573717145,
                -1.548550951253194,
                -1.5709469090946802,
                0.4420197732051276
            ]
        },
        {
            "positions": [
                2.5914535568497192,
                -1.2411958636586071,
                -1.8125092118539843,
                -1.467339002156796,
                -1.5537394845437542,
                0.377862500534
            ]
        },
        {
            "positions": [
                2.4833045836084597,
                -1.2380521301493868,
                -1.7053998499908236,
                -1.386127053060398,
                -1.5365320599928283,
                0.3137052278628724
            ]
        },
        {
            "positions": [
                2.3751556103672002,
                -1.2349083966401666,
                -1.5982904881276627,
                -1.304915103964,
                -1.5193246354419023,
                0.24954795519174486
            ]
        },
        {
            "positions": [
                2.2670066371259407,
                -1.2317646631309462,
                -1.491181126264502,
                -1.2237031548676018,
                -1.5021172108909764,
                0.18539068252061724
            ]
        },
        {
            "positions": [
                2.1588576638846813,
                -1.2286209296217259,
                -1.3840717644013414,
                -1.1424912057712038,
                -1.4849097863400504,
                0.12123340984948966
            ]
        },
        {
            "positions": [
                2.0507086906434218,
                -1.2254771961125055,
                -1.2769624025381807,
                -1.0612792566748057,
                -1.4677023617891245,
                0.05707613717836213
            ]
        },
        {
            "positions": [
                1.9425597174021623,
                -1.2223334626032853,
                -1.16985304067502,
                -0.9800673075784075,
                -1.4504949372381983,
                -0.007081135492765511
            ]
        },
        {
            "positions": [
                1.8344107441609028,
                -1.219189729094065,
                -1.0627436788118594,
                -0.8988553584820095,
                -1.4332875126872724,
                -0.0712384081638931
            ]
        },
        {
            "positions": [
                1.7262617709196433,
                -1.2160459955848446,
                -0.9556343169486985,
                -0.8176434093856114,
                -1.4160800881363464,
                -0.13539568083502068
            ]
        },
        {
            "positions": [
                1.6181127976783838,
                -1.2129022620756242,
                -0.8485249550855378,
                -0.7364314602892134,
                -1.3988726635854205,
                -0.19955295350614827
            ]
        },
        {
            "positions": [
                1.5099638244371243,
                -1.2097585285664039,
                -0.7414155932223772,
                -0.6552195111928153,
                -1.3816652390344946,
                -0.26371022617727585
            ]
        },
        {
            "positions": [
                1.4018148511958648,
                -1.2066147950571837,
                -0.6343062313592165,
                -0.5740075620964173,
                -1.3644578144835686,
                -0.3278674988484033
            ]
        },
        {
            "positions": [
                1.2936658779546053,
                -1.2034710615479633,
                -0.5271968694960556,
                -0.49279561300001906,
                -1.3472503899326427,
                -0.392024771519531
            ]
        },
        {
            "positions": [
                1.1855169047133458,
                -1.200327328038743,
                -0.42008750763289515,
                -0.411583663903621,
                -1.3300429653817167,
                -0.4561820441906586
            ]
        },
        {
            "positions": [
                1.0773679314720865,
                -1.1971835945295226,
                -0.3129781457697345,
                -0.33037171480722316,
                -1.3128355408307908,
                -0.520339316861786
            ]
        },
        {
            "positions": [
                0.9692189582308268,
                -1.1940398610203025,
                -0.2058687839065736,
                -0.24915976571082488,
                -1.2956281162798646,
                -0.5844965895329137
            ]
        },
        {
            "positions": [
                0.8610699849895673,
                -1.190896127511082,
                -0.09875942204341293,
                -0.16794781661442681,
                -1.2784206917289387,
                -0.6486538622040412
            ]
        },
        {
            "positions": [
                0.7529210117483076,
                -1.1877523940018617,
                0.008349939819747965,
                -0.08673586751802875,
                -1.2612132671780127,
                -0.7128111348751689
            ]
        },
        {
            "positions": [
                0.6447720385070483,
                -1.1846086604926414,
                0.11545930168290863,
                -0.005523918421630691,
                -1.2440058426270868,
                -0.7769684075462966
            ]
        },
        {
            "positions": [
                0.5366230652657888,
                -1.1814649269834212,
                0.2225686635460693,
                0.07568803067476737,
                -1.2267984180761609,
                -0.8411256802174241
            ]
        },
        {
            "positions": [
                0.42847409202452935,
                -1.1783211934742008,
                0.32967802540922997,
                0.15689997977116543,
                -1.209590993525235,
                -0.9052829528885518
            ]
        },
        {
            "positions": [
                0.3203251187832701,
                -1.1751774599649805,
                0.43678738727239086,
                0.23811192886756347,
                -1.192383568974309,
                -0.9694402255596793
            ]
        },
        {
            "positions": [
                0.2999037742642967,
                -1.150413272270958,
                0.5328257576744486,
                0.3470200859130339,
                -1.1203006888469624,
                -0.9019485712355394
            ]
        },
        {
            "positions": [
                0.27948242974532334,
                -1.1256490845769351,
                0.6288641280765064,
                0.4559282429585043,
                -1.048217808719616,
                -0.8344569169113993
            ]
        },
        {
            "positions": [
                0.2590610852263499,
                -1.1008848968829126,
                0.7249024984785641,
                0.5648364000039747,
                -0.9761349285922692,
                -0.7669652625872594
            ]
        },
        {
            "positions": [
                0.23863974070737654,
                -1.07612070918889,
                0.8209408688806218,
                0.6737445570494451,
                -0.9040520484649226,
                -0.6994736082631194
            ]
        },
        {
            "positions": [
                0.21821839618840314,
                -1.0513565214948675,
                0.9169792392826797,
                0.7826527140949157,
                -0.8319691683375761,
                -0.6319819539389794
            ]
        },
        {
            "positions": [
                0.19779705166942976,
                -1.0265923338008447,
                1.0130176096847374,
                0.8915608711403861,
                -0.7598862882102295,
                -0.5644902996148393
            ]
        },
        {
            "positions": [
                0.17737570715045636,
                -1.0018281461068221,
                1.109055980086795,
                1.0004690281858564,
                -0.6878034080828829,
                -0.49699864529069937
            ]
        },
        {
            "positions": [
                0.156954362631483,
                -0.9770639584127996,
                1.2050943504888527,
                1.1093771852313268,
                -0.6157205279555363,
                -0.4295069909665594
            ]
        },
        {
            "positions": [
                0.13653301811250956,
                -0.9522997707187769,
                1.3011327208909105,
                1.2182853422767974,
                -0.5436376478281897,
                -0.36201533664241936
            ]
        },
        {
            "positions": [
                0.11611167359353619,
                -0.9275355830247543,
                1.3971710912929685,
                1.3271934993222678,
                -0.47155476770084315,
                -0.2945236823182794
            ]
        },
        {
            "positions": [
                0.09569032907456282,
                -0.9027713953307317,
                1.493209461695026,
                1.4361016563677382,
                -0.3994718875734965,
                -0.22703202799413935
            ]
        },
        {
            "positions": [
                0.07526898455558945,
                -0.8780072076367091,
                1.5892478320970838,
                1.5450098134132086,
                -0.32738900744614996,
                -0.1595403736699994
            ]
        },
        {
            "positions": [
                0.05484764003661602,
                -0.8532430199426864,
                1.6852862024991415,
                1.653917970458679,
                -0.2553061273188033,
                -0.09204871934585934
            ]
        },
        {
            "positions": [
                0.034426295517642674,
                -0.8284788322486638,
                1.7813245729011993,
                1.7628261275041495,
                -0.1832232471914567,
                -0.024557065021719445
            ]
        },
        {
            "positions": [
                0.06127718962385692,
                -0.8075542396674975,
                1.8648279885279466,
                1.8328261761582156,
                -0.15307849652444455,
                9.384990347672574e-05
            ]
        },
        {
            "positions": [
                0.12414784389828876,
                -0.7773997059699864,
                1.9925061701566653,
                1.9167688084240369,
                -0.13646644817148068,
                0.005824009548834833
            ]
        }
    ]
}{
    "goal": {
        "global_pose": {
            "orientation": {
                "w": 0.7047431468963623,
                "x": -0.7094548344612122,
                "y": 0.0024358443915843964,
                "z": -0.0022348060738295317
            },
            "position": {
                "x": 0.6094750761985779,
                "y": 0.3671506643295288,
                "z": 0.19426114857196808
            }
        },
        "name": "move_to_magneteinheit_A"
    },
    "id": "LBKPIECE_move_to_magneteinheit_A_137",
    "joint_names": [
        "shoulder_pan_joint",
        "shoulder_lift_joint",
        "elbow_joint",
        "wrist_1_joint",
        "wrist_2_joint",
        "wrist_3_joint"
    ],
    "metrics": {
        "cart_traj_len": 1.2067299233119995,
        "distance_elbow_joint": 0.04244479255499001,
        "distance_shoulder_lift_joint": 0.7668812497011499,
        "distance_shoulder_pan_joint": 1.241653689818501,
        "distance_wrist_1_joint": 1.128608033739933,
        "distance_wrist_2_joint": 1.4640196740906646,
        "distance_wrist_3_joint": 4.373275691008777,
        "smoothness": 0.24409197148188466,
        "time": 0.224382866,
        "traj_len": 3.0028125367584995,
        "weighted_distance": 4.511769300480929
    },
    "planner": "LBKPIECE",
    "start": {
        "state": {
            "elbow_joint": 1.919643534880228,
            "shoulder_lift_joint": -1.8972525353963687,
            "shoulder_pan_joint": -1.1188672234189438,
            "wrist_1_joint": -1.5931878212786155,
            "wrist_2_joint": 1.5706036197970081,
            "wrist_3_joint": 1.118896926603594
        }
    },
    "waypoints": [
        {
            "positions": [
                -1.1188672234189438,
                -1.8972525353963687,
                1.919643534880228,
                -1.5931878212786155,
                1.5706036197970081,
                1.118896926603594
            ]
        },
        {
            "positions": [
                -1.063983563745213,
                -1.864616538614269,
                1.9195158301446085,
                -1.5475762362651007,
                1.504393810112052,
                0.9273049704779115
            ]
        },
        {
            "positions": [
                -1.009099904071482,
                -1.8319805418321693,
                1.9193881254089888,
                -1.5019646512515858,
                1.4381840004270958,
                0.735713014352229
            ]
        },
        {
            "positions": [
                -0.9542162443977513,
                -1.7993445450500696,
                1.9192604206733692,
                -1.4563530662380713,
                1.3719741907421397,
                0.5441210582265467
            ]
        },
        {
            "positions": [
                -0.8993325847240206,
                -1.7667085482679696,
                1.9191327159377496,
                -1.4107414812245564,
                1.3057643810571835,
                0.3525291021008642
            ]
        },
        {
            "positions": [
                -0.8444489250502897,
                -1.73407255148587,
                1.91900501120213,
                -1.3651298962110416,
                1.2395545713722274,
                0.16093714597518183
            ]
        },
        {
            "positions": [
                -0.7895652653765588,
                -1.7014365547037702,
                1.9188773064665106,
                -1.3195183111975268,
                1.1733447616872712,
                -0.030654810150500644
            ]
        },
        {
            "positions": [
                -0.734681605702828,
                -1.6688005579216705,
                1.918749601730891,
                -1.273906726184012,
                1.107134952002315,
                -0.22224676627618312
            ]
        },
        {
            "positions": [
                -0.6797979460290972,
                -1.6361645611395708,
                1.9186218969952713,
                -1.2282951411704972,
                1.0409251423173589,
                -0.4138387224018656
            ]
        },
        {
            "positions": [
                -0.6249142863553663,
                -1.603528564357471,
                1.9184941922596517,
                -1.1826835561569826,
                0.9747153326324027,
                -0.6054306785275481
            ]
        },
        {
            "positions": [
                -0.5700306266816355,
                -1.5708925675753713,
                1.918366487524032,
                -1.1370719711434678,
                0.9085055229474466,
                -0.7970226346532303
            ]
        },
        {
            "positions": [
                -0.5151469670079046,
                -1.5382565707932714,
                1.9182387827884124,
                -1.091460386129953,
                0.8422957132624904,
                -0.9886145907789128
            ]
        },
        {
            "positions": [
                -0.46026330733417387,
                -1.5056205740111719,
                1.9181110780527928,
                -1.0458488011164384,
                0.7760859035775344,
                -1.1802065469045953
            ]
        },
        {
            "positions": [
                -0.4053796476604429,
                -1.472984577229072,
                1.9179833733171732,
                -1.0002372161029234,
                0.7098760938925781,
                -1.3717985030302777
            ]
        },
        {
            "positions": [
                -0.3504959879867121,
                -1.4403485804469722,
                1.9178556685815535,
                -0.9546256310894087,
                0.643666284207622,
                -1.5633904591559602
            ]
        },
        {
            "positions": [
                -0.29561232831298134,
                -1.4077125836648725,
                1.917727963845934,
                -0.909014046075894,
                0.5774564745226659,
                -1.7549824152816422
            ]
        },
        {
            "positions": [
                -0.24072866863925046,
                -1.3750765868827728,
                1.9176002591103143,
                -0.8634024610623792,
                0.5112466648377096,
                -1.9465743714073251
            ]
        },
        {
            "positions": [
                -0.1858450089655196,
                -1.342440590100673,
                1.9174725543746949,
                -0.8177908760488644,
                0.4450368551527535,
                -2.138166327533007
            ]
        },
        {
            "positions": [
                -0.1309613492917887,
                -1.3098045933185731,
                1.9173448496390753,
                -0.7721792910353495,
                0.37882704546779733,
                -2.3297582836586903
            ]
        },
        {
            "positions": [
                -0.07607768961805794,
                -1.2771685965364736,
                1.9172171449034556,
                -0.7265677060218348,
                0.3126172357828412,
                -2.521350239784372
            ]
        },
        {
            "positions": [
                -0.021194029944327175,
                -1.2445325997543737,
                1.917089440167836,
                -0.6809561210083201,
                0.24640742609788502,
                -2.7129421959100544
            ]
        },
        {
            "positions": [
                0.033689629729403814,
                -1.211896602972274,
                1.9169617354322164,
                -0.6353445359948052,
                0.18019761641292886,
                -2.904534152035737
            ]
        },
        {
            "positions": [
                0.0885732894031345,
                -1.1792606061901743,
                1.9168340306965967,
                -0.5897329509812906,
                0.11398780672797272,
                -3.0961261081614193
            ]
        },
        {
            "positions": [
                0.10567987790134573,
                -1.1548159459426965,
                1.9366516748822762,
                -0.6523095327025947,
                0.11768973723878731,
                -3.1752524362833014
            ]
        },
        {
            "positions": [
                0.12278646639955697,
                -1.1303712856952188,
                1.9564693190679554,
                -0.7148861144238987,
                0.12139166774960192,
                -3.254378764405183
            ]
        }
    ]
}