{
    "goal": {
        "global_pose": {
            "orientation": {
                "w": 0.5084816217422485,
                "x": -0.49083608388900757,
                "y": 0.5182115435600281,
                "z": -0.4816462993621826
            },
            "position": {
                "x": 0.5540239810943604,
                "y": 0.030875300988554955,
                "z": 0.16403168439865112
            }
        },
        "name": "move_to_storage_A"
    },
    "id": "LBKPIECE_move_to_storage_A_94",
    "joint_names": [
        "shoulder_pan_joint",
        "shoulder_lift_joint",
        "elbow_joint",
        "wrist_1_joint",
        "wrist_2_joint",
        "wrist_3_joint"
    ],
    "metrics": {
        "cart_traj_len": 0.35301384602876706,
        "distance_elbow_joint": 0.44780383169610394,
        "distance_shoulder_lift_joint": 0.2364261743678786,
        "distance_shoulder_pan_joint": 0.459170597688026,
        "distance_wrist_1_joint": 0.23249403724762263,
        "distance_wrist_2_joint": 1.1098442179639894,
        "distance_wrist_3_joint": 0.10264708762659636,
        "smoothness": 1.1102230263833737e-15,
        "time": 0.385984238,
        "traj_len": 1.6088461537978753,
        "weighted_distance": 2.0337203291148516
    },
    "planner": "LBKPIECE",
    "start": {
        "state": {
            "elbow_joint": 1.9715477243005601,
            "shoulder_lift_joint": -1.1394853015351272,
            "shoulder_pan_joint": 0.12281154014795169,
            "wrist_1_joint": -0.7804696478968182,
            "wrist_2_joint": 0.12958648046900423,
            "wrist_3_joint": -3.192491284697111
        }
    },
    "waypoints": [
        {
            "positions": [
                0.12281154014795169,
                -1.1394853015351272,
                1.9715477243005601,
                -0.7804696478968182,
                0.12958648046900423,
                -3.192491284697111
            ]
        },
        {
            "positions": [
                0.05721574047823369,
                -1.173260469301967,
                2.0355197002571463,
                -0.8136830817893357,
                0.2881356544638598,
                -3.1778274150361687
            ]
        },
        {
            "positions": [
                -0.00838005919148431,
                -1.2070356370688067,
                2.0994916762137326,
                -0.8468965156818532,
                0.44668482845871543,
                -3.1631635453752267
            ]
        },
        {
            "positions": [
                -0.0739758588612023,
                -1.2408108048356465,
                2.1634636521703188,
                -0.8801099495743707,
                0.6052340024535711,
                -3.1484996757142842
            ]
        },
        {
            "positions": [
                -0.1395716585309203,
                -1.2745859726024864,
                2.227435628126905,
                -0.9133233834668882,
                0.7637831764484266,
                -3.1338358060533418
            ]
        },
        {
            "positions": [
                -0.2051674582006383,
                -1.3083611403693263,
                2.2914076040834916,
                -0.9465368173594058,
                0.9223323504432823,
                -3.1191719363923993
            ]
        },
        {
            "positions": [
                -0.27076325787035627,
                -1.342136308136166,
                2.355379580040078,
                -0.9797502512519233,
                1.080881524438138,
                -3.1045080667314573
            ]
        },
        {
            "positions": [
                -0.3363590575400743,
                -1.3759114759030058,
                2.419351555996664,
                -1.0129636851444408,
                1.2394306984329935,
                -3.089844197070515
            ]
        }
    ]
}