{
    "goal": {
        "global_pose": {
            "orientation": {
                "w": 0.5084816217422485,
                "x": -0.49083608388900757,
                "y": 0.5182115435600281,
                "z": -0.4816462993621826
            },
            "position": {
                "x": 0.5540239810943604,
                "y": 0.030875300988554955,
                "z": 0.16403168439865112
            }
        },
        "name": "move_to_storage_A"
    },
    "id": "LBKPIECE_move_to_storage_A_142",
    "joint_names": [
        "shoulder_pan_joint",
        "shoulder_lift_joint",
        "elbow_joint",
        "wrist_1_joint",
        "wrist_2_joint",
        "wrist_3_joint"
    ],
    "metrics": {
        "cart_traj_len": 0.35402862038989336,
        "distance_elbow_joint": 0.4503406521945408,
        "distance_shoulder_lift_joint": 0.2335195497207354,
        "distance_shoulder_pan_joint": 0.4625757696867947,
        "distance_wrist_1_joint": 0.24438666208662385,
        "distance_wrist_2_joint": 1.101923290425145,
        "distance_wrist_3_joint": 0.10694453332264953,
        "smoothness": 1.2212453191034883e-15,
        "time": 0.429968385,
        "traj_len": 1.6123555617283953,
        "weighted_distance": 2.039580710978008
    },
    "planner": "LBKPIECE",
    "start": {
        "state": {
            "elbow_joint": 1.9715477243005601,
            "shoulder_lift_joint": -1.1394853015351272,
            "shoulder_pan_joint": 0.12281154014795169,
            "wrist_1_joint": -0.7804696478968182,
            "wrist_2_joint": 0.12958648046900423,
            "wrist_3_joint": -3.192491284697111
        }
    },
    "waypoints": [
        {
            "positions": [
                0.12281154014795169,
                -1.1394853015351272,
                1.9715477243005601,
                -0.7804696478968182,
                0.12958648046900423,
                -3.192491284697111
            ]
        },
        {
            "positions": [
                0.05672928733555245,
                -1.172845237209518,
                2.0358821031854943,
                -0.8153820281949072,
                0.28700409338688204,
                -3.177213494222447
            ]
        },
        {
            "positions": [
                -0.009352965476846789,
                -1.2062051728839087,
                2.100216482070429,
                -0.8502944084929964,
                0.4444217063047599,
                -3.161935703747783
            ]
        },
        {
            "positions": [
                -0.07543521828924603,
                -1.2395651085582995,
                2.164550860955363,
                -0.8852067887910855,
                0.6018393192226378,
                -3.1466579132731187
            ]
        },
        {
            "positions": [
                -0.14151747110164525,
                -1.2729250442326903,
                2.228885239840298,
                -0.9201191690891747,
                0.7592569321405156,
                -3.131380122798454
            ]
        },
        {
            "positions": [
                -0.20759972391404452,
                -1.306284979907081,
                2.293219618725232,
                -0.9550315493872638,
                0.9166745450583935,
                -3.11610233232379
            ]
        },
        {
            "positions": [
                -0.27368197672644373,
                -1.3396449155814718,
                2.3575539976101663,
                -0.9899439296853529,
                1.0740921579762714,
                -3.100824541849126
            ]
        },
        {
            "positions": [
                -0.339764229538843,
                -1.3730048512558626,
                2.421888376495101,
                -1.024856309983442,
                1.2315097708941494,
                -3.0855467513744617
            ]
        }
    ]
}