{
    "goal": {
        "global_pose": {
            "orientation": {
                "w": 0.5084816217422485,
                "x": -0.49083608388900757,
                "y": 0.5182115435600281,
                "z": -0.4816462993621826
            },
            "position": {
                "x": 0.5540239810943604,
                "y": 0.030875300988554955,
                "z": 0.16403168439865112
            }
        },
        "name": "move_to_storage_A"
    },
    "id": "LBKPIECE_move_to_storage_A_39",
    "joint_names": [
        "shoulder_pan_joint",
        "shoulder_lift_joint",
        "elbow_joint",
        "wrist_1_joint",
        "wrist_2_joint",
        "wrist_3_joint"
    ],
    "metrics": {
        "cart_traj_len": 0.35329632956824925,
        "distance_elbow_joint": 0.4488802404302894,
        "distance_shoulder_lift_joint": 0.23359834080002573,
        "distance_shoulder_pan_joint": 0.4632935453123073,
        "distance_wrist_1_joint": 0.24429549888142443,
        "distance_wrist_2_joint": 1.092556900634801,
        "distance_wrist_3_joint": 0.10065436824733975,
        "smoothness": 2.2204460668324854e-16,
        "time": 0.426758186,
        "traj_len": 1.6072581915505013,
        "weighted_distance": 2.03013300803595
    },
    "planner": "LBKPIECE",
    "start": {
        "state": {
            "elbow_joint": 1.9715477243005601,
            "shoulder_lift_joint": -1.1394853015351272,
            "shoulder_pan_joint": 0.12281154014795169,
            "wrist_1_joint": -0.7804696478968182,
            "wrist_2_joint": 0.12958648046900423,
            "wrist_3_joint": -3.192491284697111
        }
    },
    "waypoints": [
        {
            "positions": [
                0.12281154014795169,
                -1.1394853015351272,
                1.9715477243005601,
                -0.7804696478968182,
                0.12958648046900423,
                -3.192491284697111
            ]
        },
        {
            "positions": [
                0.056626747960479215,
                -1.172856493077988,
                2.0356734729334587,
                -0.8153690048798788,
                0.2856660377025472,
                -3.1781120892332053
            ]
        },
        {
            "positions": [
                -0.00955804422699326,
                -1.2062276846208488,
                2.0997992215663572,
                -0.8502683618629394,
                0.4417455949360902,
                -3.1637328937693
            ]
        },
        {
            "positions": [
                -0.07574283641446573,
                -1.2395988761637096,
                2.163924970199256,
                -0.8851677188460001,
                0.5978251521696332,
                -3.149353698305394
            ]
        },
        {
            "positions": [
                -0.1419276286019382,
                -1.2729700677065705,
                2.228050718832154,
                -0.9200670758290607,
                0.7539047094031762,
                -3.1349745028414886
            ]
        },
        {
            "positions": [
                -0.20811242078941067,
                -1.3063412592494312,
                2.2921764674650524,
                -0.9549664328121213,
                0.9099842666367193,
                -3.1205953073775827
            ]
        },
        {
            "positions": [
                -0.27429721297688314,
                -1.339712450792292,
                2.356302216097951,
                -0.9898657897951819,
                1.0660638238702622,
                -3.1062161119136773
            ]
        },
        {
            "positions": [
                -0.3404820051643556,
                -1.373083642335153,
                2.4204279647308495,
                -1.0247651467782426,
                1.2221433811038054,
                -3.0918369164497714
            ]
        }
    ]
}