{
    "goal": {
        "global_pose": {
            "orientation": {
                "w": 0.7047431468963623,
                "x": -0.7094548344612122,
                "y": 0.0024358443915843964,
                "z": -0.0022348060738295317
            },
            "position": {
                "x": 0.6094750761985779,
                "y": 0.3671506643295288,
                "z": 0.19426114857196808
            }
        },
        "name": "move_to_magneteinheit_A"
    },
    "id": "LBKPIECE_move_to_magneteinheit_A_23",
    "joint_names": [
        "shoulder_pan_joint",
        "shoulder_lift_joint",
        "elbow_joint",
        "wrist_1_joint",
        "wrist_2_joint",
        "wrist_3_joint"
    ],
    "metrics": {
        "cart_traj_len": 3.908921911685216,
        "distance_elbow_joint": 3.8778529762187066,
        "distance_shoulder_lift_joint": 0.39479445959119763,
        "distance_shoulder_pan_joint": 4.751311539036421,
        "distance_wrist_1_joint": 1.7068918302136233,
        "distance_wrist_2_joint": 1.7067488672706954,
        "distance_wrist_3_joint": 5.755522856971172,
        "smoothness": 0.25595843363328524,
        "time": 0.348892674,
        "traj_len": 4.265339673379111,
        "weighted_distance": 5.7548074633934085
    },
    "planner": "LBKPIECE",
    "start": {
        "state": {
            "elbow_joint": -1.919618573717145,
            "shoulder_lift_joint": -1.2443395971678275,
            "shoulder_pan_joint": 2.6996025300909787,
            "wrist_1_joint": -1.548550951253194,
            "wrist_2_joint": -1.5709469090946802,
            "wrist_3_joint": 0.4420197732051276
        }
    },
    "waypoints": [
        {
            "positions": [
                2.6996025300909787,
                -1.2443395971678275,
                -1.919618573717145,
                -1.548550951253194,
                -1.5709469090946802,
                0.4420197732051276
            ]
        },
        {
            "positions": [
                2.558680552096524,
                -1.2497517732687782,
                -1.7867682946428067,
                -1.4997501449167736,
                -1.5673051654589107,
                0.3810069055223235
            ]
        },
        {
            "positions": [
                2.417758574102069,
                -1.2551639493697286,
                -1.6539180155684685,
                -1.4509493385803534,
                -1.563663421823141,
                0.31999403783951946
            ]
        },
        {
            "positions": [
                2.2768365961076142,
                -1.2605761254706793,
                -1.5210677364941303,
                -1.4021485322439329,
                -1.5600216781873715,
                0.2589811701567154
            ]
        },
        {
            "positions": [
                2.1359146181131594,
                -1.2659883015716298,
                -1.3882174574197923,
                -1.3533477259075126,
                -1.556379934551602,
                0.19796830247391137
            ]
        },
        {
            "positions": [
                1.9949926401187046,
                -1.2714004776725805,
                -1.255367178345454,
                -1.3045469195710921,
                -1.5527381909158327,
                0.13695543479110733
            ]
        },
        {
            "positions": [
                1.8540706621242498,
                -1.276812653773531,
                -1.1225168992711159,
                -1.2557461132346717,
                -1.549096447280063,
                0.07594256710830327
            ]
        },
        {
            "positions": [
                1.713148684129795,
                -1.2822248298744816,
                -0.9896666201967778,
                -1.2069453068982514,
                -1.5454547036442934,
                0.014929699425499265
            ]
        },
        {
            "positions": [
                1.57222670613534,
                -1.2876370059754323,
                -0.8568163411224394,
                -1.158144500561831,
                -1.541812960008524,
                -0.04608316825730485
            ]
        },
        {
            "positions": [
                1.4313047281408855,
                -1.2930491820763828,
                -0.7239660620481014,
                -1.1093436942254105,
                -1.5381712163727546,
                -0.1070960359401088
            ]
        },
        {
            "positions": [
                1.2903827501464304,
                -1.2984613581773334,
                -0.591115782973763,
                -1.0605428878889902,
                -1.534529472736985,
                -0.16810890362291292
            ]
        },
        {
            "positions": [
                1.1494607721519758,
                -1.303873534278284,
                -0.458265503899425,
                -1.01174208155257,
                -1.5308877291012153,
                -0.22912177130571693
            ]
        },
        {
            "positions": [
                1.008538794157521,
                -1.3092857103792346,
                -0.32541522482508656,
                -0.9629412752161494,
                -1.5272459854654459,
                -0.29013463898852104
            ]
        },
        {
            "positions": [
                0.8676168161630662,
                -1.314697886480185,
                -0.19256494575074856,
                -0.914140468879729,
                -1.5236042418296765,
                -0.35114750667132505
            ]
        },
        {
            "positions": [
                0.7266948381686114,
                -1.3201100625811357,
                -0.059714666676410566,
                -0.8653396625433086,
                -1.5199624981939068,
                -0.41216037435412906
            ]
        },
        {
            "positions": [
                0.5857728601741568,
                -1.3255222386820864,
                0.07313561239792765,
                -0.8165388562068883,
                -1.5163207545581374,
                -0.47317324203693306
            ]
        },
        {
            "positions": [
                0.4448508821797015,
                -1.3309344147830369,
                0.2059858914722661,
                -0.7677380498704678,
                -1.5126790109223678,
                -0.5341861097197373
            ]
        },
        {
            "positions": [
                0.3039289041852471,
                -1.3363465908839876,
                0.3388361705466043,
                -0.7189372435340474,
                -1.5090372672865984,
                -0.5951989774025412
            ]
        },
        {
            "positions": [
                0.16300692619079227,
                -1.341758766984938,
                0.4716864496209421,
                -0.670136437197627,
                -1.5053955236508287,
                -0.6562118450853451
            ]
        },
        {
            "positions": [
                0.02208494819633744,
                -1.3471709430858887,
                0.6045367286952803,
                -0.6213356308612067,
                -1.501753780015059,
                -0.7172247127681493
            ]
        },
        {
            "positions": [
                -0.11883702979811783,
                -1.3525831191868394,
                0.737387007769619,
                -0.5725348245247862,
                -1.4981120363792897,
                -0.7782375804509534
            ]
        },
        {
            "positions": [
                -0.2597590077925722,
                -1.3579952952877898,
                0.8702372868439572,
                -0.5237340181883658,
                -1.4944702927435203,
                -0.8392504481337575
            ]
        },
        {
            "positions": [
                -0.40068098578702704,
                -1.3634074713887405,
                1.003087565918295,
                -0.4749332118519456,
                -1.4908285491077506,
                -0.9002633158165614
            ]
        },
        {
            "positions": [
                -0.5416029637814819,
                -1.368819647489691,
                1.1359378449926332,
                -0.4261324055155251,
                -1.487186805471981,
                -0.9612761834993655
            ]
        },
        {
            "positions": [
                -0.6825249417759367,
                -1.3742318235906417,
                1.2687881240669718,
                -0.37733159917910464,
                -1.4835450618362116,
                -1.0222890511821696
            ]
        },
        {
            "positions": [
                -0.8234469197703915,
                -1.3796439996915923,
                1.4016384031413096,
                -0.32853079284268416,
                -1.4799033182004422,
                -1.0833019188649735
            ]
        },
        {
            "positions": [
                -0.9643688977648464,
                -1.3850561757925428,
                1.534488682215648,
                -0.2797299865062639,
                -1.4762615745646726,
                -1.1443147865477776
            ]
        },
        {
            "positions": [
                -0.9125907972324372,
                -1.372957229079853,
                1.5546670498483106,
                -0.30059050390943975,
                -1.3994966444341637,
                -0.9457820104897647
            ]
        },
        {
            "positions": [
                -0.860812696700028,
                -1.3608582823671636,
                1.5748454174809732,
                -0.32145102131261566,
                -1.3227317143036545,
                -0.747249234431752
            ]
        },
        {
            "positions": [
                -0.8090345961676189,
                -1.3487593356544738,
                1.5950237851136357,
                -0.3423115387157915,
                -1.2459667841731457,
                -0.5487164583737392
            ]
        },
        {
            "positions": [
                -0.7572564956352097,
                -1.3366603889417843,
                1.6152021527462983,
                -0.3631720561189674,
                -1.1692018540426368,
                -0.3501836823157263
            ]
        },
        {
            "positions": [
                -0.7054783951028005,
                -1.3245614422290946,
                1.6353805203789609,
                -0.38403257352214326,
                -1.0924369239121279,
                -0.1516509062577135
            ]
        },
        {
            "positions": [
                -0.6537002945703914,
                -1.312462495516405,
                1.6555588880116232,
                -0.4048930909253191,
                -1.015671993781619,
                0.04688186980029929
            ]
        },
        {
            "positions": [
                -0.6019221940379823,
                -1.3003635488037153,
                1.6757372556442858,
                -0.42575360832849496,
                -0.93890706365111,
                0.24541464585831219
            ]
        },
        {
            "positions": [
                -0.5501440935055731,
                -1.2882646020910258,
                1.6959156232769483,
                -0.44661412573167086,
                -0.862142133520601,
                0.4439474219163251
            ]
        },
        {
            "positions": [
                -0.498365992973164,
                -1.276165655378336,
                1.716093990909611,
                -0.4674746431348467,
                -0.7853772033900921,
                0.6424801979743378
            ]
        },
        {
            "positions": [
                -0.4465878924407548,
                -1.2640667086656465,
                1.7362723585422735,
                -0.4883351605380226,
                -0.7086122732595832,
                0.8410129740323506
            ]
        },
        {
            "positions": [
                -0.39480979190834564,
                -1.2519677619529568,
                1.756450726174936,
                -0.5091956779411985,
                -0.6318473431290741,
                1.0395457500903635
            ]
        },
        {
            "positions": [
                -0.3430316913759365,
                -1.2398688152402673,
                1.7766290938075986,
                -0.5300561953443743,
                -0.5550824129985653,
                1.2380785261483762
            ]
        },
        {
            "positions": [
                -0.2912535908435273,
                -1.2277698685275775,
                1.7968074614402612,
                -0.5509167127475503,
                -0.4783174828680563,
                1.4366113022063893
            ]
        },
        {
            "positions": [
                -0.23947549031111826,
                -1.215670921814888,
                1.8169858290729235,
                -0.571777230150726,
                -0.4015525527375474,
                1.635144078264402
            ]
        },
        {
            "positions": [
                -0.18769738977870898,
                -1.2035719751021983,
                1.837164196705586,
                -0.592637747553902,
                -0.3247876226070383,
                1.8336768543224151
            ]
        },
        {
            "positions": [
                -0.13591928924629992,
                -1.1914730283895087,
                1.8573425643382486,
                -0.6134982649570778,
                -0.24802269247652942,
                2.032209630380428
            ]
        },
        {
            "positions": [
                -0.08414118871389076,
                -1.179374081676819,
                1.8775209319709112,
                -0.6343587823602537,
                -0.17125776234602053,
                2.230742406438441
            ]
        },
        {
            "positions": [
                -0.03236308818148159,
                -1.1672751349641295,
                1.8976992996035738,
                -0.6552192997634295,
                -0.09449283221551164,
                2.429275182496453
            ]
        },
        {
            "positions": [
                0.019415012350927574,
                -1.1551761882514398,
                1.9178776672362363,
                -0.6760798171666054,
                -0.017727902085002523,
                2.6278079585544662
            ]
        },
        {
            "positions": [
                0.07119311288333674,
                -1.1430772415387502,
                1.9380560348688989,
                -0.6969403345697813,
                0.059037028045506146,
                2.826340734612479
            ]
        },
        {
            "positions": [
                0.12297121341574589,
                -1.1309782948260605,
                1.9582344025015614,
                -0.7178008519729572,
                0.13580195817601529,
                3.024873510670492
            ]
        }
    ]
}{
    "goal": {
        "global_pose": {
            "orientation": {
                "w": 0.7047431468963623,
                "x": -0.7094548344612122,
                "y": 0.0024358443915843964,
                "z": -0.0022348060738295317
            },
            "position": {
                "x": 0.6094750761985779,
                "y": 0.3671506643295288,
                "z": 0.19426114857196808
            }
        },
        "name": "move_to_magneteinheit_A"
    },
    "id": "LBKPIECE_move_to_magneteinheit_A_23",
    "joint_names": [
        "shoulder_pan_joint",
        "shoulder_lift_joint",
        "elbow_joint",
        "wrist_1_joint",
        "wrist_2_joint",
        "wrist_3_joint"
    ],
    "metrics": {
        "cart_traj_len": 1.2090215734162135,
        "distance_elbow_joint": 0.049425828054939336,
        "distance_shoulder_lift_joint": 0.7592295229268586,
        "distance_shoulder_pan_joint": 1.2403577506783872,
        "distance_wrist_1_joint": 0.844386532886564,
        "distance_wrist_2_joint": 1.4908837908805632,
        "distance_wrist_3_joint": 4.320306933867396,
        "smoothness": 0.16448453253582448,
        "time": 0.178996932,
        "traj_len": 2.950354276912301,
        "weighted_distance": 4.436268088246767
    },
    "planner": "LBKPIECE",
    "start": {
        "state": {
            "elbow_joint": 1.919643534880228,
            "shoulder_lift_joint": -1.8972525353963687,
            "shoulder_pan_joint": -1.1188672234189438,
            "wrist_1_joint": -1.5931878212786155,
            "wrist_2_joint": 1.5706036197970081,
            "wrist_3_joint": 1.118896926603594
        }
    },
    "waypoints": [
        {
            "positions": [
                -1.1188672234189438,
                -1.8972525353963687,
                1.919643534880228,
                -1.5931878212786155,
                1.5706036197970081,
                1.118896926603594
            ]
        },
        {
            "positions": [
                -1.063332510237543,
                -1.8633989937795854,
                1.9203409143556276,
                -1.555241117444038,
                1.503843966954302,
                0.9271559550551878
            ]
        },
        {
            "positions": [
                -1.0077977970561423,
                -1.8295454521628023,
                1.9210382938310269,
                -1.5172944136094604,
                1.4370843141115959,
                0.7354149835067817
            ]
        },
        {
            "positions": [
                -0.9522630838747416,
                -1.795691910546019,
                1.9217356733064264,
                -1.4793477097748826,
                1.3703246612688895,
                0.5436740119583756
            ]
        },
        {
            "positions": [
                -0.8967283706933408,
                -1.7618383689292356,
                1.9224330527818256,
                -1.441401005940305,
                1.3035650084261834,
                0.3519330404099694
            ]
        },
        {
            "positions": [
                -0.8411936575119401,
                -1.7279848273124525,
                1.9231304322572251,
                -1.4034543021057275,
                1.2368053555834773,
                0.16019206886156334
            ]
        },
        {
            "positions": [
                -0.7856589443305393,
                -1.6941312856956692,
                1.9238278117326246,
                -1.36550759827115,
                1.1700457027407711,
                -0.03154890268684274
            ]
        },
        {
            "positions": [
                -0.7301242311491385,
                -1.6602777440788858,
                1.924525191208024,
                -1.3275608944365724,
                1.103286049898065,
                -0.22328987423524893
            ]
        },
        {
            "positions": [
                -0.6745895179677377,
                -1.6264242024621027,
                1.9252225706834234,
                -1.2896141906019947,
                1.0365263970553587,
                -0.4150308457836551
            ]
        },
        {
            "positions": [
                -0.6190548047863369,
                -1.5925706608453194,
                1.9259199501588227,
                -1.2516674867674171,
                0.9697667442126525,
                -0.6067718173320613
            ]
        },
        {
            "positions": [
                -0.5635200916049362,
                -1.558717119228536,
                1.9266173296342222,
                -1.2137207829328396,
                0.9030070913699464,
                -0.7985127888804673
            ]
        },
        {
            "positions": [
                -0.5079853784235354,
                -1.524863577611753,
                1.9273147091096217,
                -1.1757740790982618,
                0.8362474385272402,
                -0.9902537604288735
            ]
        },
        {
            "positions": [
                -0.45245066524213473,
                -1.4910100359949696,
                1.928012088585021,
                -1.1378273752636843,
                0.769487785684534,
                -1.1819947319772794
            ]
        },
        {
            "positions": [
                -0.3969159520607338,
                -1.4571564943781863,
                1.9287094680604204,
                -1.0998806714291067,
                0.7027281328418278,
                -1.3737357035256859
            ]
        },
        {
            "positions": [
                -0.34138123887933314,
                -1.4233029527614032,
                1.9294068475358197,
                -1.0619339675945292,
                0.6359684799991216,
                -1.5654766750740918
            ]
        },
        {
            "positions": [
                -0.28584652569793245,
                -1.3894494111446198,
                1.9301042270112192,
                -1.0239872637599516,
                0.5692088271564155,
                -1.7572176466224978
            ]
        },
        {
            "positions": [
                -0.23031181251653154,
                -1.3555958695278365,
                1.9308016064866185,
                -0.986040559925374,
                0.5024491743137092,
                -1.9489586181709042
            ]
        },
        {
            "positions": [
                -0.17477709933513086,
                -1.3217423279110534,
                1.931498985962018,
                -0.9480938560907963,
                0.43568952147100304,
                -2.1406995897193104
            ]
        },
        {
            "positions": [
                -0.11924238615372995,
                -1.2878887862942698,
                1.9321963654374175,
                -0.9101471522562187,
                0.3689298686282969,
                -2.332440561267717
            ]
        },
        {
            "positions": [
                -0.06370767297232938,
                -1.2540352446774867,
                1.9328937449128167,
                -0.8722004484216411,
                0.3021702157855908,
                -2.5241815328161223
            ]
        },
        {
            "positions": [
                -0.00817295979092858,
                -1.2201817030607036,
                1.9335911243882162,
                -0.8342537445870636,
                0.23541056294288465,
                -2.7159225043645288
            ]
        },
        {
            "positions": [
                0.04736175339047222,
                -1.18632816144392,
                1.9342885038636155,
                -0.7963070407524859,
                0.1686509101001783,
                -2.907663475912935
            ]
        },
        {
            "positions": [
                0.10289646657187299,
                -1.152474619827137,
                1.934985883339015,
                -0.7583603369179084,
                0.1018912572574722,
                -3.099404447461341
            ]
        },
        {
            "positions": [
                0.12149052725944338,
                -1.13802301246951,
                1.9690693629351674,
                -0.7679193854437653,
                0.12406268559849937,
                -3.2014100072638016
            ]
        }
    ]
}