{
    "goal": {
        "global_pose": {
            "orientation": {
                "w": 0.7047431468963623,
                "x": -0.7094548344612122,
                "y": 0.0024358443915843964,
                "z": -0.0022348060738295317
            },
            "position": {
                "x": 0.6094750761985779,
                "y": 0.3671506643295288,
                "z": 0.19426114857196808
            }
        },
        "name": "move_to_magneteinheit_A"
    },
    "id": "LBKPIECE_move_to_magneteinheit_A_43",
    "joint_names": [
        "shoulder_pan_joint",
        "shoulder_lift_joint",
        "elbow_joint",
        "wrist_1_joint",
        "wrist_2_joint",
        "wrist_3_joint"
    ],
    "metrics": {
        "cart_traj_len": 5.902960750594948,
        "distance_elbow_joint": 3.897050683495608,
        "distance_shoulder_lift_joint": 2.8971436803786936,
        "distance_shoulder_pan_joint": 7.66228788923725,
        "distance_wrist_1_joint": 0.9166604283102563,
        "distance_wrist_2_joint": 5.131245341742561,
        "distance_wrist_3_joint": 2.6583605173851415,
        "smoothness": 0.3847291001008072,
        "time": 0.546494318,
        "traj_len": 4.812769321352262,
        "weighted_distance": 5.875999944296511
    },
    "planner": "LBKPIECE",
    "start": {
        "state": {
            "elbow_joint": -1.919618573717145,
            "shoulder_lift_joint": -1.2443395971678275,
            "shoulder_pan_joint": 2.6996025300909787,
            "wrist_1_joint": -1.548550951253194,
            "wrist_2_joint": -1.5709469090946802,
            "wrist_3_joint": 0.4420197732051276
        }
    },
    "waypoints": [
        {
            "positions": [
                2.6996025300909787,
                -1.2443395971678275,
                -1.919618573717145,
                -1.548550951253194,
                -1.5709469090946802,
                0.4420197732051276
            ]
        },
        {
            "positions": [
                2.5683339769425837,
                -1.2801647863355021,
                -1.840834402524526,
                -1.550748837706886,
                -1.4832361770268359,
                0.49901231132849017
            ]
        },
        {
            "positions": [
                2.4370654237941882,
                -1.3159899755031768,
                -1.762050231331907,
                -1.552946724160578,
                -1.3955254449589918,
                0.5560048494518528
            ]
        },
        {
            "positions": [
                2.3057968706457928,
                -1.3518151646708516,
                -1.6832660601392881,
                -1.5551446106142701,
                -1.3078147128911475,
                0.6129973875752154
            ]
        },
        {
            "positions": [
                2.1745283174973977,
                -1.3876403538385262,
                -1.6044818889466692,
                -1.557342497067962,
                -1.2201039808233032,
                0.669989925698578
            ]
        },
        {
            "positions": [
                2.0432597643490027,
                -1.4234655430062009,
                -1.5256977177540503,
                -1.559540383521654,
                -1.1323932487554589,
                0.7269824638219406
            ]
        },
        {
            "positions": [
                1.9119912112006072,
                -1.4592907321738755,
                -1.4469135465614311,
                -1.561738269975346,
                -1.0446825166876148,
                0.7839750019453032
            ]
        },
        {
            "positions": [
                1.780722658052212,
                -1.4951159213415504,
                -1.3681293753688122,
                -1.563936156429038,
                -0.9569717846197705,
                0.8409675400686658
            ]
        },
        {
            "positions": [
                1.6494541049038167,
                -1.5309411105092248,
                -1.2893452041761932,
                -1.56613404288273,
                -0.8692610525519263,
                0.8979600781920284
            ]
        },
        {
            "positions": [
                1.5181855517554212,
                -1.5667662996768996,
                -1.2105610329835743,
                -1.568331929336422,
                -0.781550320484082,
                0.954952616315391
            ]
        },
        {
            "positions": [
                1.3869169986070262,
                -1.6025914888445743,
                -1.1317768617909554,
                -1.570529815790114,
                -0.6938395884162378,
                1.0119451544387537
            ]
        },
        {
            "positions": [
                1.255648445458631,
                -1.6384166780122489,
                -1.0529926905983364,
                -1.572727702243806,
                -0.6061288563483935,
                1.0689376925621161
            ]
        },
        {
            "positions": [
                1.1243798923102355,
                -1.6742418671799237,
                -0.9742085194057174,
                -1.5749255886974978,
                -0.5184181242805492,
                1.1259302306854788
            ]
        },
        {
            "positions": [
                0.9931113391618405,
                -1.7100670563475981,
                -0.8954243482130986,
                -1.5771234751511898,
                -0.43070739221270515,
                1.1829227688088415
            ]
        },
        {
            "positions": [
                0.8618427860134452,
                -1.745892245515273,
                -0.8166401770204796,
                -1.5793213616048818,
                -0.34299666014486085,
                1.239915306932204
            ]
        },
        {
            "positions": [
                0.7305742328650497,
                -1.7817174346829476,
                -0.7378560058278605,
                -1.5815192480585738,
                -0.25528592807701656,
                1.2969078450555667
            ]
        },
        {
            "positions": [
                0.5993056797166547,
                -1.8175426238506223,
                -0.6590718346352418,
                -1.5837171345122658,
                -0.16757519600917248,
                1.3539003831789291
            ]
        },
        {
            "positions": [
                0.46803712656825924,
                -1.8533678130182971,
                -0.5802876634426226,
                -1.5859150209659578,
                -0.07986446394132818,
                1.4108929213022918
            ]
        },
        {
            "positions": [
                0.33676857341986377,
                -1.8891930021859717,
                -0.5015034922500037,
                -1.5881129074196498,
                0.00784626812651612,
                1.4678854594256545
            ]
        },
        {
            "positions": [
                0.20550002027146874,
                -1.9250181913536464,
                -0.42271932105738474,
                -1.5903107938733418,
                0.0955570001943602,
                1.5248779975490172
            ]
        },
        {
            "positions": [
                0.07423146712307371,
                -1.960843380521321,
                -0.34393514986476603,
                -1.5925086803270336,
                0.1832677322622045,
                1.5818705356723797
            ]
        },
        {
            "positions": [
                -0.057037086025321315,
                -1.9966685696889956,
                -0.2651509786721469,
                -1.5947065667807256,
                0.2709784643300488,
                1.6388630737957424
            ]
        },
        {
            "positions": [
                -0.1883056391737168,
                -2.0324937588566705,
                -0.18636680747952794,
                -1.5969044532344177,
                0.3586891963978931,
                1.6958556119191048
            ]
        },
        {
            "positions": [
                -0.31957419232211226,
                -2.068318948024345,
                -0.10758263628690878,
                -1.5991023396881097,
                0.4463999284657372,
                1.7528481500424675
            ]
        },
        {
            "positions": [
                -0.45084274547050773,
                -2.1041441371920198,
                -0.02879846509428985,
                -1.6013002261418017,
                0.5341106605335817,
                1.8098406881658302
            ]
        },
        {
            "positions": [
                -0.5821112986189028,
                -2.1399693263596946,
                0.049985706098329086,
                -1.6034981125954937,
                0.6218213926014258,
                1.866833226289193
            ]
        },
        {
            "positions": [
                -0.7133798517672978,
                -2.175794515527369,
                0.1287698772909478,
                -1.6056959990491857,
                0.7095321246692698,
                1.9238257644125554
            ]
        },
        {
            "positions": [
                -0.8446484049156933,
                -2.211619704695044,
                0.20755404848356673,
                -1.6078938855028777,
                0.7972428567371144,
                1.9808183025359178
            ]
        },
        {
            "positions": [
                -0.9759169580640883,
                -2.2474448938627187,
                0.28633821967618567,
                -1.6100917719565695,
                0.8849535888049584,
                2.0378108406592803
            ]
        },
        {
            "positions": [
                -1.1071855112124838,
                -2.283270083030393,
                0.36512239086880505,
                -1.6122896584102615,
                0.972664320872803,
                2.0948033787826432
            ]
        },
        {
            "positions": [
                -1.2384540643608792,
                -2.3190952721980675,
                0.443906562061424,
                -1.6144875448639535,
                1.060375052940647,
                2.1517959169060057
            ]
        },
        {
            "positions": [
                -1.3697226175092743,
                -2.3549204613657424,
                0.5226907332540425,
                -1.6166854313176455,
                1.1480857850084911,
                2.208788455029368
            ]
        },
        {
            "positions": [
                -1.5009911706576693,
                -2.3907456505334173,
                0.6014749044466614,
                -1.6188833177713375,
                1.2357965170763352,
                2.2657809931527306
            ]
        },
        {
            "positions": [
                -1.6322597238060643,
                -2.4265708397010917,
                0.6802590756392808,
                -1.6210812042250295,
                1.3235072491441797,
                2.3227735312760935
            ]
        },
        {
            "positions": [
                -1.7635282769544602,
                -2.4623960288687665,
                0.7590432468318997,
                -1.6232790906787216,
                1.4112179812120238,
                2.379766069399456
            ]
        },
        {
            "positions": [
                -1.8947968301028553,
                -2.4982212180364414,
                0.8378274180245187,
                -1.6254769771324136,
                1.4989287132798683,
                2.436758607522819
            ]
        },
        {
            "positions": [
                -2.026065383251251,
                -2.534046407204116,
                0.9166115892171376,
                -1.6276748635861054,
                1.5866394453477124,
                2.4937511456461814
            ]
        },
        {
            "positions": [
                -2.1573339363996453,
                -2.56987159637179,
                0.9953957604097565,
                -1.6298727500397974,
                1.6743501774155565,
                2.550743683769544
            ]
        },
        {
            "positions": [
                -2.2886024895480412,
                -2.6056967855394655,
                1.0741799316023755,
                -1.6320706364934894,
                1.7620609094834006,
                2.6077362218929068
            ]
        },
        {
            "positions": [
                -2.4198710426964367,
                -2.64152197470714,
                1.1529641027949946,
                -1.6342685229471814,
                1.849771641551245,
                2.6647287600162692
            ]
        },
        {
            "positions": [
                -2.292730326873945,
                -2.566523909565171,
                1.194187503144168,
                -1.592721380116368,
                1.7642453019964135,
                2.686511336544969
            ]
        },
        {
            "positions": [
                -2.165589611051453,
                -2.491525844423202,
                1.2354109034933416,
                -1.5511742372855544,
                1.678718962441582,
                2.7082939130736694
            ]
        },
        {
            "positions": [
                -2.038448895228962,
                -2.4165277792812327,
                1.276634303842515,
                -1.509627094454741,
                1.5931926228867503,
                2.7300764896023693
            ]
        },
        {
            "positions": [
                -1.91130817940647,
                -2.3415297141392637,
                1.3178577041916886,
                -1.4680799516239276,
                1.5076662833319188,
                2.751859066131069
            ]
        },
        {
            "positions": [
                -1.7841674635839784,
                -2.2665316489972946,
                1.359081104540862,
                -1.4265328087931142,
                1.4221399437770872,
                2.7736416426597694
            ]
        },
        {
            "positions": [
                -1.6570267477614866,
                -2.1915335838553256,
                1.4003045048900353,
                -1.3849856659623008,
                1.3366136042222556,
                2.7954242191884693
            ]
        },
        {
            "positions": [
                -1.5298860319389949,
                -2.1165355187133565,
                1.4415279052392087,
                -1.3434385231314874,
                1.251087264667424,
                2.817206795717169
            ]
        },
        {
            "positions": [
                -1.402745316116503,
                -2.0415374535713875,
                1.4827513055883823,
                -1.3018913803006738,
                1.1655609251125922,
                2.838989372245869
            ]
        },
        {
            "positions": [
                -1.2756046002940116,
                -1.9665393884294184,
                1.5239747059375557,
                -1.2603442374698604,
                1.0800345855577607,
                2.8607719487745693
            ]
        },
        {
            "positions": [
                -1.1484638844715198,
                -1.8915413232874494,
                1.5651981062867293,
                -1.218797094639047,
                0.9945082460029291,
                2.882554525303269
            ]
        },
        {
            "positions": [
                -1.021323168649028,
                -1.8165432581454803,
                1.6064215066359027,
                -1.1772499518082333,
                0.9089819064480974,
                2.904337101831969
            ]
        },
        {
            "positions": [
                -0.8941824528265365,
                -1.7415451930035113,
                1.647644906985076,
                -1.13570280897742,
                0.8234555668932659,
                2.9261196783606693
            ]
        },
        {
            "positions": [
                -0.7670417370040448,
                -1.6665471278615422,
                1.6888683073342494,
                -1.0941556661466065,
                0.7379292273384344,
                2.947902254889369
            ]
        },
        {
            "positions": [
                -0.6399010211815532,
                -1.5915490627195734,
                1.7300917076834228,
                -1.0526085233157931,
                0.6524028877836028,
                2.969684831418069
            ]
        },
        {
            "positions": [
                -0.5127603053590613,
                -1.5165509975776044,
                1.7713151080325964,
                -1.0110613804849797,
                0.566876548228771,
                2.991467407946769
            ]
        },
        {
            "positions": [
                -0.3856195895365695,
                -1.4415529324356353,
                1.81253850838177,
                -0.9695142376541661,
                0.4813502086739394,
                3.013249984475469
            ]
        },
        {
            "positions": [
                -0.2584788737140782,
                -1.3665548672936663,
                1.8537619087309434,
                -0.9279670948233528,
                0.39582386911910783,
                3.035032561004169
            ]
        },
        {
            "positions": [
                -0.13133815789158643,
                -1.2915568021516972,
                1.8949853090801168,
                -0.8864199519925393,
                0.31029752956427625,
                3.056815137532869
            ]
        },
        {
            "positions": [
                -0.00419744206909467,
                -1.2165587370097282,
                1.9362087094292901,
                -0.8448728091617259,
                0.22477119000944468,
                3.0785977140615692
            ]
        },
        {
            "positions": [
                0.12294327375339696,
                -1.1415606718677591,
                1.9774321097784637,
                -0.8033256663309124,
                0.13924485045461302,
                3.100380290590269
            ]
        }
    ]
}{
    "goal": {
        "global_pose": {
            "orientation": {
                "w": 0.7047431468963623,
                "x": -0.7094548344612122,
                "y": 0.0024358443915843964,
                "z": -0.0022348060738295317
            },
            "position": {
                "x": 0.6094750761985779,
                "y": 0.3671506643295288,
                "z": 0.19426114857196808
            }
        },
        "name": "move_to_magneteinheit_A"
    },
    "id": "LBKPIECE_move_to_magneteinheit_A_43",
    "joint_names": [
        "shoulder_pan_joint",
        "shoulder_lift_joint",
        "elbow_joint",
        "wrist_1_joint",
        "wrist_2_joint",
        "wrist_3_joint"
    ],
    "metrics": {
        "cart_traj_len": 1.2501413110856492,
        "distance_elbow_joint": 0.06995651567265249,
        "distance_shoulder_lift_joint": 1.1204332732174658,
        "distance_shoulder_pan_joint": 1.242582192615148,
        "distance_wrist_1_joint": 3.505842679301055,
        "distance_wrist_2_joint": 1.6987532835181,
        "distance_wrist_3_joint": 1.093592853009044,
        "smoothness": 2.2204460668324854e-16,
        "time": 0.5582544389999999,
        "traj_len": 2.9548537691962804,
        "weighted_distance": 4.015338399957183
    },
    "planner": "LBKPIECE",
    "start": {
        "state": {
            "elbow_joint": 1.919643534880228,
            "shoulder_lift_joint": -1.8972525353963687,
            "shoulder_pan_joint": -1.1188672234189438,
            "wrist_1_joint": -1.5931878212786155,
            "wrist_2_joint": 1.5706036197970081,
            "wrist_3_joint": 1.118896926603594
        }
    },
    "waypoints": [
        {
            "positions": [
                -1.1188672234189438,
                -1.8972525353963687,
                1.919643534880228,
                -1.5931878212786155,
                1.5706036197970081,
                1.118896926603594
            ]
        },
        {
            "positions": [
                -1.064841910696546,
                -1.848538045256479,
                1.9226851225181696,
                -1.4407598787003089,
                1.4967447813831778,
                1.0713494112553748
            ]
        },
        {
            "positions": [
                -1.0108165979741484,
                -1.799823555116589,
                1.9257267101561109,
                -1.288331936122002,
                1.4228859429693472,
                1.0238018959071553
            ]
        },
        {
            "positions": [
                -0.9567912852517506,
                -1.7511090649766994,
                1.9287682977940523,
                -1.1359039935436952,
                1.3490271045555169,
                0.9762543805589361
            ]
        },
        {
            "positions": [
                -0.9027659725293529,
                -1.7023945748368094,
                1.9318098854319938,
                -0.9834760509653886,
                1.2751682661416863,
                0.9287068652107168
            ]
        },
        {
            "positions": [
                -0.8487406598069551,
                -1.6536800846969197,
                1.934851473069935,
                -0.8310481083870819,
                1.201309427727856,
                0.8811593498624974
            ]
        },
        {
            "positions": [
                -0.7947153470845574,
                -1.6049655945570298,
                1.9378930607078766,
                -0.678620165808775,
                1.1274505893140256,
                0.8336118345142782
            ]
        },
        {
            "positions": [
                -0.7406900343621596,
                -1.5562511044171399,
                1.940934648345818,
                -0.5261922232304683,
                1.053591750900195,
                0.7860643191660588
            ]
        },
        {
            "positions": [
                -0.686664721639762,
                -1.5075366142772502,
                1.9439762359837593,
                -0.3737642806521617,
                0.9797329124863646,
                0.7385168038178396
            ]
        },
        {
            "positions": [
                -0.6326394089173641,
                -1.4588221241373605,
                1.9470178236217008,
                -0.2213363380738549,
                0.9058740740725342,
                0.6909692884696202
            ]
        },
        {
            "positions": [
                -0.5786140961949665,
                -1.4101076339974705,
                1.9500594112596423,
                -0.06890839549554828,
                0.8320152356587037,
                0.6434217731214009
            ]
        },
        {
            "positions": [
                -0.5245887834725688,
                -1.3613931438575806,
                1.9531009988975836,
                0.08351954708275855,
                0.7581563972448733,
                0.5958742577731816
            ]
        },
        {
            "positions": [
                -0.470563470750171,
                -1.312678653717691,
                1.956142586535525,
                0.23594748966106538,
                0.6842975588310429,
                0.5483267424249624
            ]
        },
        {
            "positions": [
                -0.4165381580277734,
                -1.2639641635778012,
                1.9591841741734664,
                0.388375432239372,
                0.6104387204172125,
                0.500779227076743
            ]
        },
        {
            "positions": [
                -0.36251284530537553,
                -1.2152496734379112,
                1.9622257618114078,
                0.5408033748176788,
                0.536579882003382,
                0.4532317117285237
            ]
        },
        {
            "positions": [
                -0.3084875325829778,
                -1.1665351832980215,
                1.9652673494493493,
                0.6932313173959856,
                0.46272104358955146,
                0.4056841963803044
            ]
        },
        {
            "positions": [
                -0.25446221986058015,
                -1.1178206931581318,
                1.9683089370872906,
                0.845659259974292,
                0.3888622051757211,
                0.3581366810320852
            ]
        },
        {
            "positions": [
                -0.2004369071381824,
                -1.0691062030182419,
                1.971350524725232,
                0.9980872025525989,
                0.3150033667618908,
                0.31058916568386585
            ]
        },
        {
            "positions": [
                -0.14641159441578455,
                -1.020391712878352,
                1.9743921123631736,
                1.1505151451309057,
                0.24114452834806022,
                0.2630416503356465
            ]
        },
        {
            "positions": [
                -0.09238628169338692,
                -0.9716772227384622,
                1.9774337000011148,
                1.3029430877092125,
                0.16728568993422988,
                0.2154941349874272
            ]
        },
        {
            "positions": [
                -0.03836096897098917,
                -0.9229627325985724,
                1.9804752876390563,
                1.455371030287519,
                0.09342685152039931,
                0.16794661963920798
            ]
        },
        {
            "positions": [
                0.01566434375140857,
                -0.8742482424586826,
                1.9835168752769978,
                1.6077989728658257,
                0.01956801310656897,
                0.12039910429098866
            ]
        },
        {
            "positions": [
                0.06968965647380632,
                -0.8255337523187927,
                1.986558462914939,
                1.7602269154441326,
                -0.05429082530726159,
                0.07285158894276922
            ]
        },
        {
            "positions": [
                0.12371496919620406,
                -0.7768192621789028,
                1.9896000505528806,
                1.9126548580224396,
                -0.12814966372109193,
                0.02530407359455003
            ]
        }
    ]
}