{
    "goal": {
        "global_pose": {
            "orientation": {
                "w": 0.5084816217422485,
                "x": -0.49083608388900757,
                "y": 0.5182115435600281,
                "z": -0.4816462993621826
            },
            "position": {
                "x": 0.5540239810943604,
                "y": 0.030875300988554955,
                "z": 0.16403168439865112
            }
        },
        "name": "move_to_storage_A"
    },
    "id": "LBKPIECE_move_to_storage_A_115",
    "joint_names": [
        "shoulder_pan_joint",
        "shoulder_lift_joint",
        "elbow_joint",
        "wrist_1_joint",
        "wrist_2_joint",
        "wrist_3_joint"
    ],
    "metrics": {
        "cart_traj_len": 0.35294401355670374,
        "distance_elbow_joint": 0.45308438218207847,
        "distance_shoulder_lift_joint": 0.23266076512894962,
        "distance_shoulder_pan_joint": 0.4586696475720127,
        "distance_wrist_1_joint": 0.2562136187826848,
        "distance_wrist_2_joint": 1.1105716771329712,
        "distance_wrist_3_joint": 0.0925344760295137,
        "smoothness": 1.3322676295501878e-15,
        "time": 0.435404951,
        "traj_len": 1.6136091741274312,
        "weighted_distance": 2.0385261378758166
    },
    "planner": "LBKPIECE",
    "start": {
        "state": {
            "elbow_joint": 1.9715477243005601,
            "shoulder_lift_joint": -1.1394853015351272,
            "shoulder_pan_joint": 0.12281154014795169,
            "wrist_1_joint": -0.7804696478968182,
            "wrist_2_joint": 0.12958648046900423,
            "wrist_3_joint": -3.192491284697111
        }
    },
    "waypoints": [
        {
            "positions": [
                0.12281154014795169,
                -1.1394853015351272,
                1.9715477243005601,
                -0.7804696478968182,
                0.12958648046900423,
                -3.192491284697111
            ]
        },
        {
            "positions": [
                0.05728730478052131,
                -1.1727225536964057,
                2.0362740646122854,
                -0.8170715934372017,
                0.2882395772022858,
                -3.1792720738357523
            ]
        },
        {
            "positions": [
                -0.008236930586909066,
                -1.2059598058576841,
                2.101000404924011,
                -0.8536735389775852,
                0.4468926739355674,
                -3.166052862974393
            ]
        },
        {
            "positions": [
                -0.07376116595433944,
                -1.2391970580189626,
                2.1657267452357365,
                -0.8902754845179688,
                0.605545770668849,
                -3.152833652113034
            ]
        },
        {
            "positions": [
                -0.1392854013217698,
                -1.2724343101802411,
                2.2304530855474622,
                -0.9268774300583523,
                0.7641988674021306,
                -3.1396144412516747
            ]
        },
        {
            "positions": [
                -0.20480963668920021,
                -1.3056715623415198,
                2.2951794258591875,
                -0.9634793755987359,
                0.9228519641354123,
                -3.1263952303903157
            ]
        },
        {
            "positions": [
                -0.27033387205663056,
                -1.3389088145027983,
                2.359905766170913,
                -1.0000813211391195,
                1.0815050608686938,
                -3.1131760195289564
            ]
        },
        {
            "positions": [
                -0.33585810742406097,
                -1.3721460666640768,
                2.4246321064826386,
                -1.036683266679503,
                1.2401581576019753,
                -3.0999568086675975
            ]
        }
    ]
}