{
    "goal": {
        "global_pose": {
            "orientation": {
                "w": 0.5084816217422485,
                "x": -0.49083608388900757,
                "y": 0.5182115435600281,
                "z": -0.4816462993621826
            },
            "position": {
                "x": 0.5540239810943604,
                "y": 0.030875300988554955,
                "z": 0.16403168439865112
            }
        },
        "name": "move_to_storage_A"
    },
    "id": "LBKPIECE_move_to_storage_A_18",
    "joint_names": [
        "shoulder_pan_joint",
        "shoulder_lift_joint",
        "elbow_joint",
        "wrist_1_joint",
        "wrist_2_joint",
        "wrist_3_joint"
    ],
    "metrics": {
        "cart_traj_len": 0.3533864177029682,
        "distance_elbow_joint": 0.44852753593346106,
        "distance_shoulder_lift_joint": 0.23610362845113664,
        "distance_shoulder_pan_joint": 0.4587080109311436,
        "distance_wrist_1_joint": 0.2371202018434454,
        "distance_wrist_2_joint": 1.1144384289834237,
        "distance_wrist_3_joint": 0.10290354466705498,
        "smoothness": 8.881784197001252e-16,
        "time": 0.47103976700000005,
        "traj_len": 1.6117696332943072,
        "weighted_distance": 2.0384226919288957
    },
    "planner": "LBKPIECE",
    "start": {
        "state": {
            "elbow_joint": 1.9715477243005601,
            "shoulder_lift_joint": -1.1394853015351272,
            "shoulder_pan_joint": 0.12281154014795169,
            "wrist_1_joint": -0.7804696478968182,
            "wrist_2_joint": 0.12958648046900423,
            "wrist_3_joint": -3.192491284697111
        }
    },
    "waypoints": [
        {
            "positions": [
                0.12281154014795169,
                -1.1394853015351272,
                1.9715477243005601,
                -0.7804696478968182,
                0.12958648046900423,
                -3.192491284697111
            ]
        },
        {
            "positions": [
                0.05728182430064546,
                -1.173214391313861,
                2.035623086576769,
                -0.8143439624458818,
                0.288791970323779,
                -3.1777907783161035
            ]
        },
        {
            "positions": [
                -0.008247891546660766,
                -1.2069434810925947,
                2.0996984488529775,
                -0.8482182769949455,
                0.44799746017855385,
                -3.1630902719350953
            ]
        },
        {
            "positions": [
                -0.07377760739396698,
                -1.2406725708713287,
                2.1637738111291864,
                -0.882092591544009,
                0.6072029500333287,
                -3.1483897655540876
            ]
        },
        {
            "positions": [
                -0.1393073232412732,
                -1.2744016606500623,
                2.227849173405395,
                -0.9159669060930726,
                0.7664084398881035,
                -3.13368925917308
            ]
        },
        {
            "positions": [
                -0.20483703908857948,
                -1.3081307504287962,
                2.291924535681604,
                -0.9498412206421363,
                0.9256139297428784,
                -3.118988752792072
            ]
        },
        {
            "positions": [
                -0.27036675493588563,
                -1.34185984020753,
                2.3559998979578123,
                -0.9837155351911999,
                1.084819419597653,
                -3.104288246411064
            ]
        },
        {
            "positions": [
                -0.3358964707831919,
                -1.3755889299862638,
                2.420075260234021,
                -1.0175898497402636,
                1.244024909452428,
                -3.089587740030056
            ]
        }
    ]
}