{
    "goal": {
        "global_pose": {
            "orientation": {
                "w": 0.7047431468963623,
                "x": -0.7094548344612122,
                "y": 0.0024358443915843964,
                "z": -0.0022348060738295317
            },
            "position": {
                "x": 0.6094750761985779,
                "y": 0.3671506643295288,
                "z": 0.19426114857196808
            }
        },
        "name": "move_to_magneteinheit_A"
    },
    "id": "LBKPIECE_move_to_magneteinheit_A_79",
    "joint_names": [
        "shoulder_pan_joint",
        "shoulder_lift_joint",
        "elbow_joint",
        "wrist_1_joint",
        "wrist_2_joint",
        "wrist_3_joint"
    ],
    "metrics": {
        "cart_traj_len": 3.725287868010284,
        "distance_elbow_joint": 3.884972682130166,
        "distance_shoulder_lift_joint": 0.5741105580745787,
        "distance_shoulder_pan_joint": 3.537926021667054,
        "distance_wrist_1_joint": 2.426577251767589,
        "distance_wrist_2_joint": 2.4164155359615305,
        "distance_wrist_3_joint": 3.670206377678222,
        "smoothness": 0.634333845582278,
        "time": 0.304740052,
        "traj_len": 4.063275578554713,
        "weighted_distance": 5.3566420423960315
    },
    "planner": "LBKPIECE",
    "start": {
        "state": {
            "elbow_joint": -1.919618573717145,
            "shoulder_lift_joint": -1.2443395971678275,
            "shoulder_pan_joint": 2.6996025300909787,
            "wrist_1_joint": -1.548550951253194,
            "wrist_2_joint": -1.5709469090946802,
            "wrist_3_joint": 0.4420197732051276
        }
    },
    "waypoints": [
        {
            "positions": [
                2.6996025300909787,
                -1.2443395971678275,
                -1.919618573717145,
                -1.548550951253194,
                -1.5709469090946802,
                0.4420197732051276
            ]
        },
        {
            "positions": [
                2.6141871565931813,
                -1.2465879255866852,
                -1.8095833859128339,
                -1.5114635221657258,
                -1.5081524882042947,
                0.3521935329891893
            ]
        },
        {
            "positions": [
                2.5287717830953835,
                -1.248836254005543,
                -1.699548198108523,
                -1.4743760930782575,
                -1.445358067313909,
                0.2623672927732511
            ]
        },
        {
            "positions": [
                2.443356409597586,
                -1.2510845824244008,
                -1.5895130103042119,
                -1.4372886639907894,
                -1.3825636464235236,
                0.17254105255731284
            ]
        },
        {
            "positions": [
                2.3579410360997883,
                -1.2533329108432587,
                -1.4794778224999008,
                -1.400201234903321,
                -1.319769225533138,
                0.08271481234137462
            ]
        },
        {
            "positions": [
                2.272525662601991,
                -1.2555812392621164,
                -1.3694426346955897,
                -1.3631138058158527,
                -1.2569748046427525,
                -0.007111427874563592
            ]
        },
        {
            "positions": [
                2.187110289104193,
                -1.257829567680974,
                -1.2594074468912786,
                -1.3260263767283844,
                -1.194180383752367,
                -0.09693766809050192
            ]
        },
        {
            "positions": [
                2.1016949156063958,
                -1.260077896099832,
                -1.1493722590869677,
                -1.2889389476409163,
                -1.1313859628619813,
                -0.18676390830644013
            ]
        },
        {
            "positions": [
                2.016279542108598,
                -1.2623262245186897,
                -1.0393370712826566,
                -1.251851518553448,
                -1.068591541971596,
                -0.27659014852237834
            ]
        },
        {
            "positions": [
                1.9308641686108006,
                -1.2645745529375476,
                -0.9293018834783456,
                -1.2147640894659797,
                -1.0057971210812102,
                -0.36641638873831656
            ]
        },
        {
            "positions": [
                1.8454487951130032,
                -1.2668228813564053,
                -0.8192666956740347,
                -1.1776766603785114,
                -0.9430027001908248,
                -0.45624262895425477
            ]
        },
        {
            "positions": [
                1.7600334216152056,
                -1.269071209775263,
                -0.7092315078697236,
                -1.1405892312910433,
                -0.8802082793004393,
                -0.5460688691701929
            ]
        },
        {
            "positions": [
                1.6746180481174078,
                -1.271319538194121,
                -0.5991963200654125,
                -1.103501802203575,
                -0.8174138584100537,
                -0.6358951093861314
            ]
        },
        {
            "positions": [
                1.5892026746196104,
                -1.2735678666129786,
                -0.48916113226110136,
                -1.0664143731161067,
                -0.7546194375196681,
                -0.7257213496020696
            ]
        },
        {
            "positions": [
                1.5037873011218128,
                -1.2758161950318365,
                -0.3791259444567905,
                -1.0293269440286383,
                -0.6918250166292826,
                -0.8155475898180078
            ]
        },
        {
            "positions": [
                1.4183719276240152,
                -1.2780645234506942,
                -0.2690907566524794,
                -0.9922395149411701,
                -0.6290305957388971,
                -0.905373830033946
            ]
        },
        {
            "positions": [
                1.3329565541262176,
                -1.280312851869552,
                -0.1590555688481683,
                -0.9551520858537019,
                -0.5662361748485116,
                -0.9952000702498842
            ]
        },
        {
            "positions": [
                1.24754118062842,
                -1.2825611802884098,
                -0.04902038104385742,
                -0.9180646567662336,
                -0.503441753958126,
                -1.0850263104658224
            ]
        },
        {
            "positions": [
                1.1621258071306226,
                -1.2848095087072675,
                0.06101480676045368,
                -0.8809772276787654,
                -0.4406473330677405,
                -1.1748525506817606
            ]
        },
        {
            "positions": [
                1.076710433632825,
                -1.2870578371261254,
                0.17104999456476455,
                -0.8438897985912971,
                -0.37785291217735506,
                -1.2646787908976989
            ]
        },
        {
            "positions": [
                0.9912950601350274,
                -1.2893061655449831,
                0.28108518236907565,
                -0.8068023695038289,
                -0.3150584912869694,
                -1.354505031113637
            ]
        },
        {
            "positions": [
                0.9058796866372298,
                -1.2915544939638408,
                0.39112037017338674,
                -0.7697149404163606,
                -0.25226407039658394,
                -1.4443312713295753
            ]
        },
        {
            "positions": [
                0.8204643131394325,
                -1.2938028223826987,
                0.5011555579776978,
                -0.7326275113288924,
                -0.1894696495061985,
                -1.5341575115455135
            ]
        },
        {
            "positions": [
                0.7350489396416344,
                -1.2960511508015564,
                0.6111907457820089,
                -0.6955400822414239,
                -0.1266752286158126,
                -1.6239837517614522
            ]
        },
        {
            "positions": [
                0.6496335661438368,
                -1.2982994792204143,
                0.72122593358632,
                -0.6584526531539557,
                -0.06388080772542715,
                -1.7138099919773904
            ]
        },
        {
            "positions": [
                0.5642181926460395,
                -1.300547807639272,
                0.8312611213906311,
                -0.6213652240664874,
                -0.0010863868350416972,
                -1.8036362321933286
            ]
        },
        {
            "positions": [
                0.4788028191482421,
                -1.3027961360581297,
                0.9412963091949422,
                -0.5842777949790192,
                0.061708034055343974,
                -1.8934624724092668
            ]
        },
        {
            "positions": [
                0.39338744565044426,
                -1.3050444644769876,
                1.0513314969992533,
                -0.5471903658915509,
                0.12450245494572942,
                -1.983288712625205
            ]
        },
        {
            "positions": [
                0.3079720721526469,
                -1.3072927928958453,
                1.161366684803564,
                -0.5101029368040826,
                0.18729687583611487,
                -2.073114952841143
            ]
        },
        {
            "positions": [
                0.22255669865484906,
                -1.3095411213147032,
                1.271401872607875,
                -0.4730155077166145,
                0.25009129672650054,
                -2.1629411930570814
            ]
        },
        {
            "positions": [
                0.1371413251570518,
                -1.311789449733561,
                1.3814370604121862,
                -0.4359280786291462,
                0.3128857176168861,
                -2.2527674332730196
            ]
        },
        {
            "positions": [
                0.07527959370954172,
                -1.3324651160117265,
                1.4469894125448217,
                -0.5372500702984384,
                0.2686067202492959,
                -2.33941321936232
            ]
        },
        {
            "positions": [
                0.013417862262031649,
                -1.3531407822898922,
                1.512541764677457,
                -0.6385720619677305,
                0.22432772288170572,
                -2.42605900545162
            ]
        },
        {
            "positions": [
                -0.04844386918547844,
                -1.373816448568058,
                1.5780941168100926,
                -0.7398940536370227,
                0.18004872551411552,
                -2.5127047915409206
            ]
        },
        {
            "positions": [
                -0.1103056006329885,
                -1.3944921148462235,
                1.6436464689427281,
                -0.8412160453063149,
                0.13576972814652533,
                -2.599350577630221
            ]
        },
        {
            "positions": [
                -0.17216733208049856,
                -1.415167781124389,
                1.7091988210753637,
                -0.9425380369756071,
                0.09149073077893513,
                -2.685996363719521
            ]
        },
        {
            "positions": [
                -0.23402906352800867,
                -1.4358434474025548,
                1.7747511732079992,
                -1.0438600286448994,
                0.047211733411344936,
                -2.7726421498088216
            ]
        },
        {
            "positions": [
                -0.29589079497551873,
                -1.4565191136807205,
                1.8403035253406346,
                -1.1451820203141914,
                0.002932736043754769,
                -2.859287935898122
            ]
        },
        {
            "positions": [
                -0.3577525264230288,
                -1.477194779958886,
                1.9058558774732701,
                -1.2465040119834836,
                -0.041346261323835454,
                -2.945933721987422
            ]
        },
        {
            "positions": [
                -0.2616383333924193,
                -1.408943704902182,
                1.9177555236612205,
                -1.145828322825643,
                -0.005676075261986692,
                -3.0023842984845563
            ]
        },
        {
            "positions": [
                -0.16552414036180987,
                -1.340692629845478,
                1.9296551698491708,
                -1.045152633667802,
                0.02999411079986207,
                -3.0588348749816907
            ]
        },
        {
            "positions": [
                -0.06940994733120043,
                -1.272441554788774,
                1.9415548160371214,
                -0.9444769445099613,
                0.06566429686171081,
                -3.1152854514788255
            ]
        },
        {
            "positions": [
                0.026704245699409046,
                -1.20419047973207,
                1.9534544622250718,
                -0.8438012553521206,
                0.1013344829235596,
                -3.17173602797596
            ]
        },
        {
            "positions": [
                0.12281843873001848,
                -1.135939404675366,
                1.9653541084130222,
                -0.7431255661942798,
                0.13700466898540833,
                -3.2281866044730942
            ]
        }
    ]
}{
    "goal": {
        "global_pose": {
            "orientation": {
                "w": 0.7047431468963623,
                "x": -0.7094548344612122,
                "y": 0.0024358443915843964,
                "z": -0.0022348060738295317
            },
            "position": {
                "x": 0.6094750761985779,
                "y": 0.3671506643295288,
                "z": 0.19426114857196808
            }
        },
        "name": "move_to_magneteinheit_A"
    },
    "id": "LBKPIECE_move_to_magneteinheit_A_79",
    "joint_names": [
        "shoulder_pan_joint",
        "shoulder_lift_joint",
        "elbow_joint",
        "wrist_1_joint",
        "wrist_2_joint",
        "wrist_3_joint"
    ],
    "metrics": {
        "cart_traj_len": 1.3099968193568006,
        "distance_elbow_joint": 0.6217783450993832,
        "distance_shoulder_lift_joint": 0.7527509314875125,
        "distance_shoulder_pan_joint": 1.2407325911424105,
        "distance_wrist_1_joint": 0.8554732398603194,
        "distance_wrist_2_joint": 1.4493773275530855,
        "distance_wrist_3_joint": 4.275702228825493,
        "smoothness": 0.09151760434772654,
        "time": 0.325534948,
        "traj_len": 3.032460166921934,
        "weighted_distance": 4.477953739045614
    },
    "planner": "LBKPIECE",
    "start": {
        "state": {
            "elbow_joint": 1.919643534880228,
            "shoulder_lift_joint": -1.8972525353963687,
            "shoulder_pan_joint": -1.1188672234189438,
            "wrist_1_joint": -1.5931878212786155,
            "wrist_2_joint": 1.5706036197970081,
            "wrist_3_joint": 1.118896926603594
        }
    },
    "waypoints": [
        {
            "positions": [
                -1.1188672234189438,
                -1.8972525353963687,
                1.919643534880228,
                -1.5931878212786155,
                1.5706036197970081,
                1.118896926603594
            ]
        },
        {
            "positions": [
                -1.0691100666396949,
                -1.8649615462198799,
                1.9062904405416172,
                -1.554463800672738,
                1.5059875290421383,
                0.9362829163089472
            ]
        },
        {
            "positions": [
                -1.0193529098604457,
                -1.8326705570433908,
                1.8929373462030064,
                -1.5157397800668604,
                1.4413714382872682,
                0.7536689060143006
            ]
        },
        {
            "positions": [
                -0.9695957530811967,
                -1.800379567866902,
                1.8795842518643955,
                -1.477015759460983,
                1.3767553475323984,
                0.5710548957196538
            ]
        },
        {
            "positions": [
                -0.9198385963019476,
                -1.768088578690413,
                1.8662311575257846,
                -1.4382917388551055,
                1.3121392567775283,
                0.3884408854250072
            ]
        },
        {
            "positions": [
                -0.8700814395226986,
                -1.735797589513924,
                1.8528780631871737,
                -1.399567718249228,
                1.2475231660226584,
                0.20582687513036046
            ]
        },
        {
            "positions": [
                -0.8203242827434496,
                -1.703506600337435,
                1.8395249688485626,
                -1.3608436976433504,
                1.1829070752677886,
                0.02321286483571372
            ]
        },
        {
            "positions": [
                -0.7705671259642005,
                -1.671215611160946,
                1.8261718745099518,
                -1.322119677037473,
                1.1182909845129188,
                -0.15940114545893302
            ]
        },
        {
            "positions": [
                -0.7208099691849514,
                -1.638924621984457,
                1.812818780171341,
                -1.2833956564315956,
                1.0536748937580487,
                -0.34201515575357955
            ]
        },
        {
            "positions": [
                -0.6710528124057025,
                -1.6066336328079682,
                1.79946568583273,
                -1.2446716358257182,
                0.9890588030031787,
                -0.5246291660482263
            ]
        },
        {
            "positions": [
                -0.6212956556264533,
                -1.5743426436314791,
                1.7861125914941192,
                -1.2059476152198405,
                0.9244427122483089,
                -0.707243176342873
            ]
        },
        {
            "positions": [
                -0.5715384988472042,
                -1.5420516544549903,
                1.7727594971555083,
                -1.167223594613963,
                0.8598266214934388,
                -0.88985718663752
            ]
        },
        {
            "positions": [
                -0.5217813420679552,
                -1.5097606652785012,
                1.7594064028168974,
                -1.1284995740080856,
                0.795210530738569,
                -1.0724711969321665
            ]
        },
        {
            "positions": [
                -0.47202418528870616,
                -1.4774696761020123,
                1.7460533084782865,
                -1.089775553402208,
                0.730594439983699,
                -1.2550852072268135
            ]
        },
        {
            "positions": [
                -0.4222670285094572,
                -1.4451786869255234,
                1.7327002141396757,
                -1.0510515327963306,
                0.6659783492288291,
                -1.43769921752146
            ]
        },
        {
            "positions": [
                -0.372509871730208,
                -1.4128876977490343,
                1.7193471198010646,
                -1.0123275121904531,
                0.6013622584739591,
                -1.620313227816107
            ]
        },
        {
            "positions": [
                -0.32275271495095903,
                -1.3805967085725455,
                1.705994025462454,
                -0.9736034915845756,
                0.5367461677190892,
                -1.802927238110753
            ]
        },
        {
            "positions": [
                -0.27299555817170995,
                -1.3483057193960564,
                1.6926409311238428,
                -0.9348794709786981,
                0.47213007696421916,
                -1.9855412484054
            ]
        },
        {
            "positions": [
                -0.22323840139246098,
                -1.3160147302195675,
                1.679287836785232,
                -0.8961554503728206,
                0.4075139862093493,
                -2.1681552587000468
            ]
        },
        {
            "positions": [
                -0.1734812446132118,
                -1.2837237410430786,
                1.665934742446621,
                -0.8574314297669431,
                0.34289789545447946,
                -2.3507692689946937
            ]
        },
        {
            "positions": [
                -0.12372408783396283,
                -1.2514327518665898,
                1.6525816481080102,
                -0.8187074091610657,
                0.2782818046996096,
                -2.53338327928934
            ]
        },
        {
            "positions": [
                -0.0739669310547138,
                -1.2191417626901007,
                1.6392285537693994,
                -0.7799833885551881,
                0.21366571394473946,
                -2.7159972895839872
            ]
        },
        {
            "positions": [
                -0.008689498128653647,
                -1.1942617097630193,
                1.7530163417655842,
                -0.7940729909341522,
                0.18285257337780042,
                -2.8629332937966243
            ]
        },
        {
            "positions": [
                0.05658793479740651,
                -1.1693816568359376,
                1.866804129761769,
                -0.8081625933131161,
                0.1520394328108614,
                -3.009869298009262
            ]
        },
        {
            "positions": [
                0.12186536772346668,
                -1.1445016039088562,
                1.9805919177579538,
                -0.8222521956920802,
                0.12122629224392235,
                -3.156805302221899
            ]
        }
    ]
}