{
    "goal": {
        "global_pose": {
            "orientation": {
                "w": 0.7047431468963623,
                "x": -0.7094548344612122,
                "y": 0.0024358443915843964,
                "z": -0.0022348060738295317
            },
            "position": {
                "x": 0.6094750761985779,
                "y": 0.3671506643295288,
                "z": 0.19426114857196808
            }
        },
        "name": "move_to_magneteinheit_A"
    },
    "id": "LBKPIECE_move_to_magneteinheit_A_31",
    "joint_names": [
        "shoulder_pan_joint",
        "shoulder_lift_joint",
        "elbow_joint",
        "wrist_1_joint",
        "wrist_2_joint",
        "wrist_3_joint"
    ],
    "metrics": {
        "cart_traj_len": 3.52095119036771,
        "distance_elbow_joint": 3.9112428259060046,
        "distance_shoulder_lift_joint": 0.9684430752556744,
        "distance_shoulder_pan_joint": 4.482144805359309,
        "distance_wrist_1_joint": 4.617868829316718,
        "distance_wrist_2_joint": 1.458684229017526,
        "distance_wrist_3_joint": 6.531086611410285,
        "smoothness": 0.2878751399827093,
        "time": 0.5437941749999999,
        "traj_len": 4.687160161149341,
        "weighted_distance": 6.411567410346734
    },
    "planner": "LBKPIECE",
    "start": {
        "state": {
            "elbow_joint": -1.919618573717145,
            "shoulder_lift_joint": -1.2443395971678275,
            "shoulder_pan_joint": 2.6996025300909787,
            "wrist_1_joint": -1.548550951253194,
            "wrist_2_joint": -1.5709469090946802,
            "wrist_3_joint": 0.4420197732051276
        }
    },
    "waypoints": [
        {
            "positions": [
                2.6996025300909787,
                -1.2443395971678275,
                -1.919618573717145,
                -1.548550951253194,
                -1.5709469090946802,
                0.4420197732051276
            ]
        },
        {
            "positions": [
                2.6015559872161313,
                -1.251283462964287,
                -1.878280233577898,
                -1.4362110935373722,
                -1.5342257771522474,
                0.34528372537587654
            ]
        },
        {
            "positions": [
                2.503509444341284,
                -1.2582273287607466,
                -1.8369418934386512,
                -1.32387123582155,
                -1.4975046452098144,
                0.24854767754662546
            ]
        },
        {
            "positions": [
                2.4054629014664366,
                -1.265171194557206,
                -1.7956035532994041,
                -1.2115313781057282,
                -1.4607835132673817,
                0.15181162971737439
            ]
        },
        {
            "positions": [
                2.3074163585915892,
                -1.2721150603536655,
                -1.7542652131601573,
                -1.099191520389906,
                -1.4240623813249487,
                0.05507558188812334
            ]
        },
        {
            "positions": [
                2.209369815716742,
                -1.279058926150125,
                -1.7129268730209104,
                -0.9868516626740841,
                -1.387341249382516,
                -0.04166046594112782
            ]
        },
        {
            "positions": [
                2.1113232728418945,
                -1.2860027919465846,
                -1.6715885328816635,
                -0.8745118049582622,
                -1.3506201174400831,
                -0.13839651377037882
            ]
        },
        {
            "positions": [
                2.013276729967047,
                -1.2929466577430442,
                -1.6302501927424164,
                -0.7621719472424402,
                -1.3138989854976502,
                -0.23513256159962997
            ]
        },
        {
            "positions": [
                1.9152301870921997,
                -1.2998905235395037,
                -1.5889118526031698,
                -0.6498320895266182,
                -1.2771778535552174,
                -0.3318686094288809
            ]
        },
        {
            "positions": [
                1.8171836442173523,
                -1.3068343893359633,
                -1.5475735124639227,
                -0.5374922318107962,
                -1.2404567216127846,
                -0.42860465725813207
            ]
        },
        {
            "positions": [
                1.719137101342505,
                -1.3137782551324226,
                -1.5062351723246759,
                -0.4251523740949741,
                -1.2037355896703517,
                -0.5253407050873833
            ]
        },
        {
            "positions": [
                1.6210905584676576,
                -1.3207221209288822,
                -1.464896832185429,
                -0.3128125163791522,
                -1.1670144577279187,
                -0.6220767529166342
            ]
        },
        {
            "positions": [
                1.5230440155928102,
                -1.3276659867253418,
                -1.4235584920461821,
                -0.2004726586633303,
                -1.1302933257854861,
                -0.7188128007458852
            ]
        },
        {
            "positions": [
                1.4249974727179628,
                -1.3346098525218013,
                -1.3822201519069353,
                -0.0881328009475082,
                -1.0935721938430532,
                -0.8155488485751363
            ]
        },
        {
            "positions": [
                1.3269509298431155,
                -1.3415537183182609,
                -1.3408818117676882,
                0.024207056768313695,
                -1.0568510619006202,
                -0.9122848964043875
            ]
        },
        {
            "positions": [
                1.228904386968268,
                -1.3484975841147202,
                -1.2995434716284413,
                0.1365469144841358,
                -1.0201299299581874,
                -1.0090209442336384
            ]
        },
        {
            "positions": [
                1.1308578440934207,
                -1.3554414499111798,
                -1.2582051314891944,
                0.2488867721999577,
                -0.9834087980157546,
                -1.1057569920628894
            ]
        },
        {
            "positions": [
                1.0328113012185733,
                -1.3623853157076393,
                -1.2168667913499476,
                0.3612266299157796,
                -0.9466876660733218,
                -1.2024930398921405
            ]
        },
        {
            "positions": [
                0.934764758343726,
                -1.3693291815040989,
                -1.1755284512107007,
                0.4735664876316017,
                -0.9099665341308889,
                -1.2992290877213917
            ]
        },
        {
            "positions": [
                0.8367182154688786,
                -1.3762730473005584,
                -1.1341901110714536,
                0.5859063453474236,
                -0.873245402188456,
                -1.3959651355506428
            ]
        },
        {
            "positions": [
                0.7386716725940312,
                -1.383216913097018,
                -1.0928517709322068,
                0.6982462030632459,
                -0.8365242702460232,
                -1.492701183379894
            ]
        },
        {
            "positions": [
                0.6406251297191838,
                -1.3901607788934776,
                -1.05151343079296,
                0.8105860607790678,
                -0.7998031383035903,
                -1.589437231209145
            ]
        },
        {
            "positions": [
                0.5425785868443365,
                -1.397104644689937,
                -1.0101750906537128,
                0.9229259184948897,
                -0.7630820063611574,
                -1.686173279038396
            ]
        },
        {
            "positions": [
                0.4445320439694891,
                -1.4040485104863965,
                -0.9688367505144662,
                1.0352657762107116,
                -0.7263608744187248,
                -1.7829093268676468
            ]
        },
        {
            "positions": [
                0.3464855010946417,
                -1.410992376282856,
                -0.9274984103752192,
                1.1476056339265335,
                -0.6896397424762919,
                -1.879645374696898
            ]
        },
        {
            "positions": [
                0.24843895821979434,
                -1.4179362420793156,
                -0.8861600702359722,
                1.2599454916423554,
                -0.652918610533859,
                -1.9763814225261491
            ]
        },
        {
            "positions": [
                0.15039241534494696,
                -1.4248801078757751,
                -0.8448217300967253,
                1.3722853493581777,
                -0.6161974785914262,
                -2.0731174703554003
            ]
        },
        {
            "positions": [
                0.052345872470099586,
                -1.4318239736722345,
                -0.8034833899574785,
                1.4846252070739996,
                -0.5794763466489933,
                -2.1698535181846514
            ]
        },
        {
            "positions": [
                -0.04570067040474779,
                -1.438767839468694,
                -0.7621450498182314,
                1.5969650647898215,
                -0.5427552147065604,
                -2.2665895660139026
            ]
        },
        {
            "positions": [
                -0.14374721327959517,
                -1.4457117052651536,
                -0.7208067096789845,
                1.7093049225056438,
                -0.5060340827641276,
                -2.3633256138431538
            ]
        },
        {
            "positions": [
                -0.24179375615444254,
                -1.4526555710616131,
                -0.6794683695397377,
                1.8216447802214657,
                -0.46931295082169466,
                -2.4600616616724045
            ]
        },
        {
            "positions": [
                -0.3398402990292899,
                -1.4595994368580727,
                -0.6381300294004908,
                1.9339846379372876,
                -0.4325918188792619,
                -2.5567977095016556
            ]
        },
        {
            "positions": [
                -0.4378868419041373,
                -1.4665433026545323,
                -0.5967916892612439,
                2.0463244956531095,
                -0.39587068693682914,
                -2.6535337573309064
            ]
        },
        {
            "positions": [
                -0.5359333847789847,
                -1.4734871684509918,
                -0.5554533491219971,
                2.1586643533689314,
                -0.35914955499439616,
                -2.7502698051601575
            ]
        },
        {
            "positions": [
                -0.633979927653832,
                -1.4804310342474511,
                -0.5141150089827502,
                2.2710042110847533,
                -0.3224284230519634,
                -2.8470058529894087
            ]
        },
        {
            "positions": [
                -0.7320264705286794,
                -1.4873749000439107,
                -0.4727766688435031,
                2.3833440688005756,
                -0.2857072911095304,
                -2.94374190081866
            ]
        },
        {
            "positions": [
                -0.8300730134035268,
                -1.4943187658403703,
                -0.43143832870425625,
                2.495683926516398,
                -0.24898615916709765,
                -3.040477948647911
            ]
        },
        {
            "positions": [
                -0.7833140454473347,
                -1.4592483062418256,
                -0.3130856865828362,
                2.4670612118758752,
                -0.24233524983744242,
                -2.8887354961170955
            ]
        },
        {
            "positions": [
                -0.7365550774911426,
                -1.424177846643281,
                -0.1947330444614161,
                2.438438497235352,
                -0.2356843405077872,
                -2.7369930435862795
            ]
        },
        {
            "positions": [
                -0.6897961095349505,
                -1.3891073870447364,
                -0.07638040233999605,
                2.4098157825948294,
                -0.22903343117813196,
                -2.585250591055464
            ]
        },
        {
            "positions": [
                -0.6430371415787584,
                -1.3540369274461916,
                0.04197223978142406,
                2.3811930679543063,
                -0.22238252184847673,
                -2.4335081385246484
            ]
        },
        {
            "positions": [
                -0.5962781736225663,
                -1.3189664678476472,
                0.1603248819028441,
                2.3525703533137836,
                -0.2157316125188215,
                -2.2817656859938324
            ]
        },
        {
            "positions": [
                -0.5495192056663742,
                -1.2838960082491024,
                0.27867752402426416,
                2.3239476386732605,
                -0.20908070318916627,
                -2.130023233463017
            ]
        },
        {
            "positions": [
                -0.5027602377101821,
                -1.2488255486505577,
                0.3970301661456842,
                2.295324924032738,
                -0.20242979385951104,
                -1.9782807809322014
            ]
        },
        {
            "positions": [
                -0.45600126975398997,
                -1.2137550890520132,
                0.5153828082671044,
                2.2667022093922147,
                -0.1957788845298558,
                -1.8265383284013856
            ]
        },
        {
            "positions": [
                -0.4092423017977979,
                -1.1786846294534685,
                0.6337354503885244,
                2.238079494751692,
                -0.18912797520020058,
                -1.6747958758705699
            ]
        },
        {
            "positions": [
                -0.3624833338416058,
                -1.1436141698549238,
                0.7520880925099445,
                2.209456780111169,
                -0.18247706587054535,
                -1.5230534233397544
            ]
        },
        {
            "positions": [
                -0.31572436588541364,
                -1.108543710256379,
                0.8704407346313647,
                2.180834065470646,
                -0.17582615654089012,
                -1.3713109708089386
            ]
        },
        {
            "positions": [
                -0.2689653979292216,
                -1.0734732506578346,
                0.9887933767527846,
                2.1522113508301235,
                -0.1691752472112349,
                -1.219568518278123
            ]
        },
        {
            "positions": [
                -0.22220642997302953,
                -1.03840279105929,
                1.1071460188742048,
                2.1235886361896004,
                -0.16252433788157966,
                -1.0678260657473073
            ]
        },
        {
            "positions": [
                -0.17544746201683747,
                -1.0033323314607454,
                1.2254986609956247,
                2.0949659215490777,
                -0.15587342855192443,
                -0.9160836132164918
            ]
        },
        {
            "positions": [
                -0.1286884940606453,
                -0.9682618718622007,
                1.3438513031170447,
                2.0663432069085546,
                -0.1492225192222692,
                -0.7643411606856758
            ]
        },
        {
            "positions": [
                -0.08192952610445314,
                -0.933191412263656,
                1.462203945238465,
                2.037720492268032,
                -0.14257160989261397,
                -0.6125987081548603
            ]
        },
        {
            "positions": [
                -0.03517055814826109,
                -0.8981209526651114,
                1.5805565873598848,
                2.0090977776275087,
                -0.13592070056295874,
                -0.46085625562404475
            ]
        },
        {
            "positions": [
                0.011588409807930966,
                -0.8630504930665668,
                1.698909229481305,
                1.980475062986986,
                -0.1292697912333035,
                -0.3091138030932288
            ]
        },
        {
            "positions": [
                0.05834737776412302,
                -0.8279800334680222,
                1.817261871602725,
                1.9518523483464632,
                -0.12261888190364828,
                -0.1573713505624137
            ]
        },
        {
            "positions": [
                0.10510634572031516,
                -0.7929095738694775,
                1.9356145137241452,
                1.9232296337059402,
                -0.11596797257399304,
                -0.005628898031597711
            ]
        },
        {
            "positions": [
                0.12239624846127484,
                -0.7758548592572386,
                1.9916242521888605,
                1.9220499749692763,
                -0.1196732650708329,
                0.008110940909334976
            ]
        }
    ]
}{
    "goal": {
        "global_pose": {
            "orientation": {
                "w": 0.7047431468963623,
                "x": -0.7094548344612122,
                "y": 0.0024358443915843964,
                "z": -0.0022348060738295317
            },
            "position": {
                "x": 0.6094750761985779,
                "y": 0.3671506643295288,
                "z": 0.19426114857196808
            }
        },
        "name": "move_to_magneteinheit_A"
    },
    "id": "LBKPIECE_move_to_magneteinheit_A_31",
    "joint_names": [
        "shoulder_pan_joint",
        "shoulder_lift_joint",
        "elbow_joint",
        "wrist_1_joint",
        "wrist_2_joint",
        "wrist_3_joint"
    ],
    "metrics": {
        "cart_traj_len": 1.2398811527517701,
        "distance_elbow_joint": 0.16412040062028166,
        "distance_shoulder_lift_joint": 0.747606094282564,
        "distance_shoulder_pan_joint": 1.241519106386818,
        "distance_wrist_1_joint": 0.7256320843782388,
        "distance_wrist_2_joint": 1.532438911436398,
        "distance_wrist_3_joint": 4.23551639304941,
        "smoothness": 0.1976594950151382,
        "time": 0.535212161,
        "traj_len": 2.9405497768535924,
        "weighted_distance": 4.401810624284871
    },
    "planner": "LBKPIECE",
    "start": {
        "state": {
            "elbow_joint": 1.919643534880228,
            "shoulder_lift_joint": -1.8972525353963687,
            "shoulder_pan_joint": -1.1188672234189438,
            "wrist_1_joint": -1.5931878212786155,
            "wrist_2_joint": 1.5706036197970081,
            "wrist_3_joint": 1.118896926603594
        }
    },
    "waypoints": [
        {
            "positions": [
                -1.1188672234189438,
                -1.8972525353963687,
                1.919643534880228,
                -1.5931878212786155,
                1.5706036197970081,
                1.118896926603594
            ]
        },
        {
            "positions": [
                -1.0613603391687376,
                -1.8619227049577314,
                1.9174760811472196,
                -1.558813574178991,
                1.4999671951006532,
                0.923675034099462
            ]
        },
        {
            "positions": [
                -1.0038534549185314,
                -1.8265928745190942,
                1.915308627414211,
                -1.5244393270793664,
                1.4293307704042983,
                0.72845314159533
            ]
        },
        {
            "positions": [
                -0.9463465706683252,
                -1.791263044080457,
                1.9131411736812027,
                -1.490065079979742,
                1.3586943457079435,
                0.533231249091198
            ]
        },
        {
            "positions": [
                -0.888839686418119,
                -1.7559332136418198,
                1.9109737199481942,
                -1.4556908328801175,
                1.2880579210115888,
                0.3380093565870661
            ]
        },
        {
            "positions": [
                -0.8313328021679127,
                -1.7206033832031824,
                1.9088062662151857,
                -1.4213165857804928,
                1.2174214963152339,
                0.14278746408293408
            ]
        },
        {
            "positions": [
                -0.7738259179177065,
                -1.6852735527645453,
                1.9066388124821771,
                -1.3869423386808684,
                1.146785071618879,
                -0.05243442842119794
            ]
        },
        {
            "positions": [
                -0.7163190336675004,
                -1.649943722325908,
                1.9044713587491688,
                -1.3525680915812437,
                1.076148646922524,
                -0.24765632092532974
            ]
        },
        {
            "positions": [
                -0.6588121494172942,
                -1.6146138918872706,
                1.9023039050161603,
                -1.3181938444816192,
                1.0055122222261694,
                -0.44287821342946176
            ]
        },
        {
            "positions": [
                -0.6013052651670879,
                -1.5792840614486334,
                1.9001364512831518,
                -1.2838195973819948,
                0.9348757975298144,
                -0.6381001059335938
            ]
        },
        {
            "positions": [
                -0.5437983809168817,
                -1.543954231009996,
                1.8979689975501433,
                -1.2494453502823704,
                0.8642393728334595,
                -0.8333219984377258
            ]
        },
        {
            "positions": [
                -0.4862914966666755,
                -1.508624400571359,
                1.895801543817135,
                -1.2150711031827457,
                0.7936029481371046,
                -1.0285438909418578
            ]
        },
        {
            "positions": [
                -0.42878461241646926,
                -1.4732945701327216,
                1.8936340900841264,
                -1.1806968560831212,
                0.7229665234407499,
                -1.2237657834459899
            ]
        },
        {
            "positions": [
                -0.37127772816626303,
                -1.4379647396940842,
                1.891466636351118,
                -1.1463226089834966,
                0.6523300987443948,
                -1.4189876759501219
            ]
        },
        {
            "positions": [
                -0.3137708439160569,
                -1.402634909255447,
                1.8892991826181094,
                -1.1119483618838721,
                0.5816936740480401,
                -1.6142095684542535
            ]
        },
        {
            "positions": [
                -0.2562639596658506,
                -1.36730507881681,
                1.887131728885101,
                -1.0775741147842477,
                0.5110572493516852,
                -1.809431460958386
            ]
        },
        {
            "positions": [
                -0.19875707541564447,
                -1.3319752483781726,
                1.8849642751520925,
                -1.0431998676846232,
                0.4404208246553305,
                -2.0046533534625173
            ]
        },
        {
            "positions": [
                -0.14125019116543824,
                -1.2966454179395352,
                1.882796821419084,
                -1.0088256205849986,
                0.3697843999589754,
                -2.1998752459666493
            ]
        },
        {
            "positions": [
                -0.08374330691523202,
                -1.2613155875008981,
                1.8806293676860755,
                -0.974451373485374,
                0.2991479752626207,
                -2.3950971384707813
            ]
        },
        {
            "positions": [
                -0.026236422665025794,
                -1.2259857570622608,
                1.8784619139530672,
                -0.9400771263857495,
                0.22851155056626582,
                -2.5903190309749133
            ]
        },
        {
            "positions": [
                0.03127046158518043,
                -1.1906559266236236,
                1.8762944602200586,
                -0.905702879286125,
                0.15787512586991093,
                -2.7855409234790454
            ]
        },
        {
            "positions": [
                0.08877734583538675,
                -1.1553260961849863,
                1.87412700648705,
                -0.8713286321865005,
                0.08723870117355599,
                -2.9807628159831774
            ]
        },
        {
            "positions": [
                0.1226518829678743,
                -1.1496464411138048,
                1.9927308787141538,
                -0.8675557369003767,
                0.1363126939865019,
                -3.1166194664458158
            ]
        }
    ]
}