{
    "goal": {
        "global_pose": {
            "orientation": {
                "w": 0.7047431468963623,
                "x": -0.7094548344612122,
                "y": 0.0024358443915843964,
                "z": -0.0022348060738295317
            },
            "position": {
                "x": 0.6094750761985779,
                "y": 0.3671506643295288,
                "z": 0.19426114857196808
            }
        },
        "name": "move_to_magneteinheit_A"
    },
    "id": "LBKPIECE_move_to_magneteinheit_A_42",
    "joint_names": [
        "shoulder_pan_joint",
        "shoulder_lift_joint",
        "elbow_joint",
        "wrist_1_joint",
        "wrist_2_joint",
        "wrist_3_joint"
    ],
    "metrics": {
        "cart_traj_len": 5.960648146852629,
        "distance_elbow_joint": 3.96776745385435,
        "distance_shoulder_lift_joint": 2.0336603702081018,
        "distance_shoulder_pan_joint": 7.647723065348718,
        "distance_wrist_1_joint": 6.122682604921289,
        "distance_wrist_2_joint": 1.7704896835205008,
        "distance_wrist_3_joint": 3.007688173040318,
        "smoothness": 0.4995305578666542,
        "time": 0.781635262,
        "traj_len": 4.954796802180015,
        "weighted_distance": 6.201496592389269
    },
    "planner": "LBKPIECE",
    "start": {
        "state": {
            "elbow_joint": -1.919618573717145,
            "shoulder_lift_joint": -1.2443395971678275,
            "shoulder_pan_joint": 2.6996025300909787,
            "wrist_1_joint": -1.548550951253194,
            "wrist_2_joint": -1.5709469090946802,
            "wrist_3_joint": 0.4420197732051276
        }
    },
    "waypoints": [
        {
            "positions": [
                2.6996025300909787,
                -1.2443395971678275,
                -1.919618573717145,
                -1.548550951253194,
                -1.5709469090946802,
                0.4420197732051276
            ]
        },
        {
            "positions": [
                2.6038602389023793,
                -1.2330244359524944,
                -1.8144515982318963,
                -1.4343228784668725,
                -1.5309876994051217,
                0.4273153337611813
            ]
        },
        {
            "positions": [
                2.50811794771378,
                -1.2217092747371612,
                -1.7092846227466474,
                -1.3200948056805508,
                -1.4910284897155635,
                0.4126108943172351
            ]
        },
        {
            "positions": [
                2.4123756565251804,
                -1.2103941135218281,
                -1.6041176472613987,
                -1.2058667328942292,
                -1.451069280026005,
                0.3979064548732888
            ]
        },
        {
            "positions": [
                2.316633365336581,
                -1.199078952306495,
                -1.49895067177615,
                -1.0916386601079076,
                -1.4111100703364468,
                0.38320201542934257
            ]
        },
        {
            "positions": [
                2.2208910741479815,
                -1.187763791091162,
                -1.3937836962909014,
                -0.9774105873215859,
                -1.3711508606468883,
                0.3684975759853963
            ]
        },
        {
            "positions": [
                2.125148782959382,
                -1.1764486298758288,
                -1.2886167208056525,
                -0.8631825145352643,
                -1.3311916509573298,
                0.35379313654145006
            ]
        },
        {
            "positions": [
                2.029406491770783,
                -1.1651334686604957,
                -1.1834497453204036,
                -0.7489544417489425,
                -1.2912324412677716,
                0.3390886970975038
            ]
        },
        {
            "positions": [
                1.9336642005821834,
                -1.1538183074451627,
                -1.078282769835155,
                -0.634726368962621,
                -1.2512732315782131,
                0.3243842576535575
            ]
        },
        {
            "positions": [
                1.8379219093935841,
                -1.1425031462298296,
                -0.9731157943499064,
                -0.5204982961762994,
                -1.211314021888655,
                0.3096798182096112
            ]
        },
        {
            "positions": [
                1.7421796182049847,
                -1.1311879850144964,
                -0.8679488188646576,
                -0.40627022338997776,
                -1.1713548121990964,
                0.294975378765665
            ]
        },
        {
            "positions": [
                1.6464373270163852,
                -1.1198728237991633,
                -0.7627818433794087,
                -0.2920421506036561,
                -1.1313956025095382,
                0.28027093932171876
            ]
        },
        {
            "positions": [
                1.5506950358277858,
                -1.1085576625838303,
                -0.65761486789416,
                -0.1778140778173345,
                -1.0914363928199797,
                0.2655664998777725
            ]
        },
        {
            "positions": [
                1.4549527446391863,
                -1.0972425013684972,
                -0.5524478924089113,
                -0.06358600503101286,
                -1.0514771831304213,
                0.2508620604338262
            ]
        },
        {
            "positions": [
                1.3592104534505869,
                -1.085927340153164,
                -0.44728091692366245,
                0.050642067755308995,
                -1.011517973440863,
                0.2361576209898799
            ]
        },
        {
            "positions": [
                1.2634681622619877,
                -1.074612178937831,
                -0.3421139414384138,
                0.1648701405416304,
                -0.9715587637513046,
                0.22145318154593369
            ]
        },
        {
            "positions": [
                1.167725871073388,
                -1.0632970177224979,
                -0.2369469659531651,
                0.27909821332795204,
                -0.9315995540617462,
                0.20674874210198743
            ]
        },
        {
            "positions": [
                1.0719835798847885,
                -1.0519818565071648,
                -0.13177999046791622,
                0.3933262861142739,
                -0.8916403443721878,
                0.19204430265804115
            ]
        },
        {
            "positions": [
                0.9762412886961893,
                -1.0406666952918315,
                -0.02661301498266777,
                0.5075543589005953,
                -0.8516811346826295,
                0.1773398632140949
            ]
        },
        {
            "positions": [
                0.8804989975075899,
                -1.0293515340764985,
                0.07855396050258112,
                0.6217824316869169,
                -0.811721924993071,
                0.16263542377014867
            ]
        },
        {
            "positions": [
                0.7847567063189904,
                -1.0180363728611654,
                0.1837209359878298,
                0.7360105044732386,
                -0.7717627153035127,
                0.14793098432620239
            ]
        },
        {
            "positions": [
                0.6890144151303912,
                -1.0067212116458324,
                0.28888791147307846,
                0.8502385772595602,
                -0.7318035056139544,
                0.13322654488225616
            ]
        },
        {
            "positions": [
                0.5932721239417917,
                -0.9954060504304991,
                0.3940548869583276,
                0.9644666500458818,
                -0.691844295924396,
                0.11852210543830988
            ]
        },
        {
            "positions": [
                0.4975298327531923,
                -0.9840908892151661,
                0.49922186244357625,
                1.0786947228322035,
                -0.6518850862348375,
                0.1038176659943636
            ]
        },
        {
            "positions": [
                0.40178754156459284,
                -0.972775727999833,
                0.6043888379288249,
                1.192922795618525,
                -0.6119258765452793,
                0.08911322655041737
            ]
        },
        {
            "positions": [
                0.3060452503759932,
                -0.9614605667844999,
                0.7095558134140738,
                1.3071508684048465,
                -0.5719666668557208,
                0.07440878710647106
            ]
        },
        {
            "positions": [
                0.1549970101127822,
                -1.0049465010185863,
                0.7078630234382165,
                1.4145886883349303,
                -0.5809735578530575,
                0.14635665429756745
            ]
        },
        {
            "positions": [
                0.003948769849571154,
                -1.0484324352526728,
                0.7061702334623591,
                1.522026508265014,
                -0.589980448850394,
                0.2183045214886638
            ]
        },
        {
            "positions": [
                -0.1470994704136399,
                -1.0919183694867591,
                0.7044774434865018,
                1.6294643281950978,
                -0.5989873398477307,
                0.29025238867976016
            ]
        },
        {
            "positions": [
                -0.2981477106768509,
                -1.1354043037208457,
                0.7027846535106445,
                1.7369021481251816,
                -0.6079942308450673,
                0.3622002558708566
            ]
        },
        {
            "positions": [
                -0.4491959509400621,
                -1.1788902379549322,
                0.701091863534787,
                1.8443399680552655,
                -0.6170011218424039,
                0.43414812306195294
            ]
        },
        {
            "positions": [
                -0.600244191203273,
                -1.2223761721890185,
                0.6993990735589297,
                1.951777787985349,
                -0.6260080128397405,
                0.5060959902530493
            ]
        },
        {
            "positions": [
                -0.7512924314664842,
                -1.265862106423105,
                0.6977062835830724,
                2.0592156079154327,
                -0.6350149038370771,
                0.5780438574441457
            ]
        },
        {
            "positions": [
                -0.9023406717296951,
                -1.3093480406571913,
                0.696013493607215,
                2.1666534278455165,
                -0.6440217948344137,
                0.649991724635242
            ]
        },
        {
            "positions": [
                -1.0533889119929063,
                -1.3528339748912779,
                0.6943207036313577,
                2.2740912477756003,
                -0.6530286858317503,
                0.7219395918263384
            ]
        },
        {
            "positions": [
                -1.2044371522561175,
                -1.3963199091253644,
                0.6926279136555004,
                2.381529067705684,
                -0.662035576829087,
                0.7938874590174347
            ]
        },
        {
            "positions": [
                -1.3554853925193284,
                -1.439805843359451,
                0.6909351236796429,
                2.488966887635768,
                -0.6710424678264235,
                0.8658353262085312
            ]
        },
        {
            "positions": [
                -1.5065336327825394,
                -1.4832917775935373,
                0.6892423337037856,
                2.596404707565852,
                -0.6800493588237602,
                0.9377831933996275
            ]
        },
        {
            "positions": [
                -1.6575818730457506,
                -1.5267777118276238,
                0.6875495437279283,
                2.7038425274959357,
                -0.6890562498210968,
                1.009731060590724
            ]
        },
        {
            "positions": [
                -1.8086301133089615,
                -1.57026364606171,
                0.6858567537520709,
                2.8112803474260195,
                -0.6980631408184333,
                1.0816789277818204
            ]
        },
        {
            "positions": [
                -1.959678353572173,
                -1.6137495802957966,
                0.6841639637762136,
                2.9187181673561033,
                -0.70707003181577,
                1.1536267949729169
            ]
        },
        {
            "positions": [
                -2.110726593835383,
                -1.6572355145298832,
                0.6824711738003563,
                3.0261559872861867,
                -0.7160769228131065,
                1.2255746621640131
            ]
        },
        {
            "positions": [
                -2.2617748340985946,
                -1.7007214487639697,
                0.6807783838244988,
                3.1335938072162706,
                -0.7250838138104432,
                1.2975225293551094
            ]
        },
        {
            "positions": [
                -2.4128230743618055,
                -1.744207382998056,
                0.6790855938486415,
                3.2410316271463544,
                -0.7340907048077798,
                1.3694703965462058
            ]
        },
        {
            "positions": [
                -2.292094623842951,
                -1.6981105009213313,
                0.7413771579990082,
                3.177550673502462,
                -0.7050723522682807,
                1.3054220357127806
            ]
        },
        {
            "positions": [
                -2.171366173324097,
                -1.6520136188446066,
                0.8036687221493749,
                3.11406971985857,
                -0.6760539997287814,
                1.2413736748793553
            ]
        },
        {
            "positions": [
                -2.050637722805243,
                -1.605916736767882,
                0.8659602862997415,
                3.0505887662146773,
                -0.6470356471892823,
                1.17732531404593
            ]
        },
        {
            "positions": [
                -1.9299092722863884,
                -1.5598198546911575,
                0.9282518504501082,
                2.987107812570785,
                -0.6180172946497832,
                1.1132769532125049
            ]
        },
        {
            "positions": [
                -1.8091808217675343,
                -1.5137229726144328,
                0.9905434146004748,
                2.923626858926893,
                -0.5889989421102839,
                1.0492285923790796
            ]
        },
        {
            "positions": [
                -1.68845237124868,
                -1.467626090537708,
                1.0528349787508415,
                2.8601459052830003,
                -0.5599805895707848,
                0.9851802315456544
            ]
        },
        {
            "positions": [
                -1.5677239207298257,
                -1.4215292084609834,
                1.115126542901208,
                2.7966649516391078,
                -0.5309622370312856,
                0.9211318707122291
            ]
        },
        {
            "positions": [
                -1.4469954702109715,
                -1.3754323263842587,
                1.1774181070515748,
                2.7331839979952157,
                -0.5019438844917865,
                0.8570835098788039
            ]
        },
        {
            "positions": [
                -1.3262670196921171,
                -1.329335444307534,
                1.2397096712019415,
                2.669703044351323,
                -0.47292553195228726,
                0.7930351490453786
            ]
        },
        {
            "positions": [
                -1.205538569173263,
                -1.2832385622308093,
                1.302001235352308,
                2.6062220907074307,
                -0.4439071794127881,
                0.7289867882119534
            ]
        },
        {
            "positions": [
                -1.0848101186544086,
                -1.2371416801540847,
                1.364292799502675,
                2.5427411370635387,
                -0.4148888268732889,
                0.6649384273785282
            ]
        },
        {
            "positions": [
                -0.9640816681355544,
                -1.19104479807736,
                1.4265843636530415,
                2.479260183419646,
                -0.38587047433378974,
                0.6008900665451029
            ]
        },
        {
            "positions": [
                -0.8433532176167,
                -1.1449479160006355,
                1.4888759278034083,
                2.4157792297757537,
                -0.35685212179429054,
                0.5368417057116777
            ]
        },
        {
            "positions": [
                -0.7226247670978458,
                -1.0988510339239108,
                1.5511674919537748,
                2.3522982761318616,
                -0.3278337692547914,
                0.4727933448782524
            ]
        },
        {
            "positions": [
                -0.6018963165789915,
                -1.0527541518471861,
                1.6134590561041415,
                2.288817322487969,
                -0.2988154167152922,
                0.4087449840448272
            ]
        },
        {
            "positions": [
                -0.4811678660601375,
                -1.0066572697704614,
                1.675750620254508,
                2.2253363688440766,
                -0.2697970641757931,
                0.34469662321140193
            ]
        },
        {
            "positions": [
                -0.3604394155412831,
                -0.9605603876937368,
                1.7380421844048748,
                2.1618554152001845,
                -0.24077871163629389,
                0.2806482623779767
            ]
        },
        {
            "positions": [
                -0.23971096502242872,
                -0.9144635056170122,
                1.8003337485552415,
                2.098374461556292,
                -0.2117603590967947,
                0.21659990154455144
            ]
        },
        {
            "positions": [
                -0.11898251450357433,
                -0.8683666235402874,
                1.8626253127056083,
                2.0348935079123995,
                -0.18274200655729556,
                0.1525515407111262
            ]
        },
        {
            "positions": [
                0.0017459360152796144,
                -0.8222697414635628,
                1.9249168768559748,
                1.9714125542685075,
                -0.15372365401779642,
                0.08850317987770095
            ]
        },
        {
            "positions": [
                0.12247438653413385,
                -0.7761728593868381,
                1.9872084410063415,
                1.907931600624615,
                -0.12470530147829716,
                0.02445481904427581
            ]
        }
    ]
}{
    "goal": {
        "global_pose": {
            "orientation": {
                "w": 0.7047431468963623,
                "x": -0.7094548344612122,
                "y": 0.0024358443915843964,
                "z": -0.0022348060738295317
            },
            "position": {
                "x": 0.6094750761985779,
                "y": 0.3671506643295288,
                "z": 0.19426114857196808
            }
        },
        "name": "move_to_magneteinheit_A"
    },
    "id": "LBKPIECE_move_to_magneteinheit_A_42",
    "joint_names": [
        "shoulder_pan_joint",
        "shoulder_lift_joint",
        "elbow_joint",
        "wrist_1_joint",
        "wrist_2_joint",
        "wrist_3_joint"
    ],
    "metrics": {
        "cart_traj_len": 1.7045447972984717,
        "distance_elbow_joint": 0.9202289533267565,
        "distance_shoulder_lift_joint": 1.2192868704999542,
        "distance_shoulder_pan_joint": 1.2405612292668262,
        "distance_wrist_1_joint": 0.7488663961380798,
        "distance_wrist_2_joint": 1.4454854543572844,
        "distance_wrist_3_joint": 4.253997551513427,
        "smoothness": 0.1966220061301388,
        "time": 0.6041104740000001,
        "traj_len": 3.1350321298357255,
        "weighted_distance": 4.531089649148926
    },
    "planner": "LBKPIECE",
    "start": {
        "state": {
            "elbow_joint": 1.919643534880228,
            "shoulder_lift_joint": -1.8972525353963687,
            "shoulder_pan_joint": -1.1188672234189438,
            "wrist_1_joint": -1.5931878212786155,
            "wrist_2_joint": 1.5706036197970081,
            "wrist_3_joint": 1.118896926603594
        }
    },
    "waypoints": [
        {
            "positions": [
                -1.1188672234189438,
                -1.8972525353963687,
                1.919643534880228,
                -1.5931878212786155,
                1.5706036197970081,
                1.118896926603594
            ]
        },
        {
            "positions": [
                -1.0944376965988427,
                -1.8480337719490953,
                1.8982986258319348,
                -1.5658816972083789,
                1.5227028279030204,
                0.9084975162521249
            ]
        },
        {
            "positions": [
                -1.0700081697787416,
                -1.798815008501822,
                1.8769537167836414,
                -1.5385755731381425,
                1.4748020360090326,
                0.6980981059006559
            ]
        },
        {
            "positions": [
                -1.0455786429586404,
                -1.7495962450545486,
                1.8556088077353479,
                -1.511269449067906,
                1.426901244115045,
                0.487698695549187
            ]
        },
        {
            "positions": [
                -1.0211491161385393,
                -1.700377481607275,
                1.8342638986870545,
                -1.4839633249976696,
                1.3790004522210573,
                0.27729928519771796
            ]
        },
        {
            "positions": [
                -0.9967195893184382,
                -1.6511587181600016,
                1.8129189896387612,
                -1.456657200927433,
                1.3310996603270695,
                0.06689987484624904
            ]
        },
        {
            "positions": [
                -0.972290062498337,
                -1.6019399547127282,
                1.7915740805904679,
                -1.4293510768571966,
                1.283198868433082,
                -0.14349953550522
            ]
        },
        {
            "positions": [
                -0.9478605356782359,
                -1.5527211912654548,
                1.7702291715421745,
                -1.40204495278696,
                1.2352980765390942,
                -0.3538989458566888
            ]
        },
        {
            "positions": [
                -0.9234310088581347,
                -1.5035024278181814,
                1.748884262493881,
                -1.3747388287167235,
                1.1873972846451064,
                -0.564298356208158
            ]
        },
        {
            "positions": [
                -0.8990014820380335,
                -1.4542836643709078,
                1.7275393534455876,
                -1.3474327046464871,
                1.1394964927511189,
                -0.7746977665596269
            ]
        },
        {
            "positions": [
                -0.8745719552179324,
                -1.4050649009236347,
                1.7061944443972943,
                -1.3201265805762508,
                1.091595700857131,
                -0.9850971769110959
            ]
        },
        {
            "positions": [
                -0.8501424283978312,
                -1.355846137476361,
                1.684849535349001,
                -1.2928204565060142,
                1.0436949089631433,
                -1.195496587262565
            ]
        },
        {
            "positions": [
                -0.8257129015777301,
                -1.306627374029088,
                1.6635046263007076,
                -1.2655143324357776,
                0.9957941170691557,
                -1.405895997614034
            ]
        },
        {
            "positions": [
                -0.8012833747576289,
                -1.2574086105818143,
                1.642159717252414,
                -1.2382082083655412,
                0.9478933251751679,
                -1.616295407965503
            ]
        },
        {
            "positions": [
                -0.7768538479375279,
                -1.208189847134541,
                1.6208148082041207,
                -1.2109020842953049,
                0.8999925332811802,
                -1.8266948183169716
            ]
        },
        {
            "positions": [
                -0.7524243211174266,
                -1.1589710836872675,
                1.5994698991558274,
                -1.1835959602250683,
                0.8520917413871925,
                -2.0370942286684404
            ]
        },
        {
            "positions": [
                -0.7279947942973255,
                -1.109752320239994,
                1.578124990107534,
                -1.1562898361548317,
                0.8041909494932047,
                -2.2474936390199103
            ]
        },
        {
            "positions": [
                -0.7035652674772244,
                -1.0605335567927208,
                1.5567800810592407,
                -1.1289837120845954,
                0.7562901575992171,
                -2.4578930493713784
            ]
        },
        {
            "positions": [
                -0.6791357406571232,
                -1.0113147933454472,
                1.5354351720109471,
                -1.1016775880143588,
                0.7083893657052294,
                -2.6682924597228475
            ]
        },
        {
            "positions": [
                -0.6547062138370221,
                -0.9620960298981739,
                1.5140902629626538,
                -1.0743714639441224,
                0.6604885738112417,
                -2.8786918700743165
            ]
        },
        {
            "positions": [
                -0.630276687016921,
                -0.9128772664509004,
                1.4927453539143605,
                -1.0470653398738858,
                0.6125877819172539,
                -3.0890912804257855
            ]
        },
        {
            "positions": [
                -0.5049482382061203,
                -0.9520292000433147,
                1.5749671493078419,
                -1.0132746874183274,
                0.5313428458376657,
                -3.09675950450646
            ]
        },
        {
            "positions": [
                -0.3796197893953198,
                -0.991181133635729,
                1.6571889447013235,
                -0.9794840349627691,
                0.4500979097580773,
                -3.1044277285871344
            ]
        },
        {
            "positions": [
                -0.25429134058451924,
                -1.0303330672281432,
                1.739410740094805,
                -0.9456933825072107,
                0.368852973678489,
                -3.1120959526678087
            ]
        },
        {
            "positions": [
                -0.12896289177371867,
                -1.0694850008205576,
                1.8216325354882863,
                -0.9119027300516525,
                0.2876080375989007,
                -3.1197641767484834
            ]
        },
        {
            "positions": [
                -0.0036344429629180386,
                -1.108636934412972,
                1.903854330881768,
                -0.878112077596094,
                0.20636310151931236,
                -3.127432400829158
            ]
        },
        {
            "positions": [
                0.12169400584788245,
                -1.1477888680053863,
                1.9860761262752493,
                -0.8443214251405357,
                0.12511816543972404,
                -3.1351006249098323
            ]
        }
    ]
}