{
    "goal": {
        "global_pose": {
            "orientation": {
                "w": 0.7047431468963623,
                "x": -0.7094548344612122,
                "y": 0.0024358443915843964,
                "z": -0.0022348060738295317
            },
            "position": {
                "x": 0.6094750761985779,
                "y": 0.3671506643295288,
                "z": 0.19426114857196808
            }
        },
        "name": "move_to_magneteinheit_A"
    },
    "id": "LBKPIECE_move_to_magneteinheit_A_120",
    "joint_names": [
        "shoulder_pan_joint",
        "shoulder_lift_joint",
        "elbow_joint",
        "wrist_1_joint",
        "wrist_2_joint",
        "wrist_3_joint"
    ],
    "metrics": {
        "cart_traj_len": 3.1345939216524754,
        "distance_elbow_joint": 3.9241983850851314,
        "distance_shoulder_lift_joint": 0.4613839634968271,
        "distance_shoulder_pan_joint": 2.7597275661925798,
        "distance_wrist_1_joint": 3.517293751949752,
        "distance_wrist_2_joint": 1.4512815748870815,
        "distance_wrist_3_joint": 0.9242599679543909,
        "smoothness": 0.0725916757453054,
        "time": 0.5137325159999999,
        "traj_len": 3.6108371895677833,
        "weighted_distance": 4.455921955365845
    },
    "planner": "LBKPIECE",
    "start": {
        "state": {
            "elbow_joint": -1.919618573717145,
            "shoulder_lift_joint": -1.2443395971678275,
            "shoulder_pan_joint": 2.6996025300909787,
            "wrist_1_joint": -1.548550951253194,
            "wrist_2_joint": -1.5709469090946802,
            "wrist_3_joint": 0.4420197732051276
        }
    },
    "waypoints": [
        {
            "positions": [
                2.6996025300909787,
                -1.2443395971678275,
                -1.919618573717145,
                -1.548550951253194,
                -1.5709469090946802,
                0.4420197732051276
            ]
        },
        {
            "positions": [
                2.6011854629352036,
                -1.2414695328743086,
                -1.8072561493893537,
                -1.4561092386134777,
                -1.51846759477465,
                0.41588212485284287
            ]
        },
        {
            "positions": [
                2.502768395779428,
                -1.2385994685807897,
                -1.6948937250615626,
                -1.3636675259737614,
                -1.46598828045462,
                0.38974447650055816
            ]
        },
        {
            "positions": [
                2.404351328623653,
                -1.235729404287271,
                -1.5825313007337711,
                -1.2712258133340453,
                -1.4135089661345899,
                0.3636068281482734
            ]
        },
        {
            "positions": [
                2.3059342614678773,
                -1.2328593399937522,
                -1.47016887640598,
                -1.178784100694329,
                -1.3610296518145597,
                0.33746917979598867
            ]
        },
        {
            "positions": [
                2.207517194312102,
                -1.2299892757002333,
                -1.3578064520781887,
                -1.0863423880546126,
                -1.3085503374945298,
                0.31133153144370396
            ]
        },
        {
            "positions": [
                2.109100127156327,
                -1.2271192114067144,
                -1.2454440277503975,
                -0.9939006754148962,
                -1.2560710231744996,
                0.28519388309141924
            ]
        },
        {
            "positions": [
                2.0106830600005514,
                -1.2242491471131955,
                -1.1330816034226063,
                -0.90145896277518,
                -1.2035917088544696,
                0.2590562347391345
            ]
        },
        {
            "positions": [
                1.912265992844776,
                -1.2213790828196767,
                -1.0207191790948151,
                -0.8090172501354637,
                -1.1511123945344395,
                0.23291858638684979
            ]
        },
        {
            "positions": [
                1.8138489256890007,
                -1.218509018526158,
                -0.9083567547670237,
                -0.7165755374957474,
                -1.0986330802144093,
                0.20678093803456504
            ]
        },
        {
            "positions": [
                1.7154318585332256,
                -1.2156389542326391,
                -0.7959943304392325,
                -0.6241338248560311,
                -1.0461537658943794,
                0.18064328968228033
            ]
        },
        {
            "positions": [
                1.61701479137745,
                -1.2127688899391202,
                -0.6836319061114413,
                -0.5316921122163147,
                -0.9936744515743492,
                0.1545056413299956
            ]
        },
        {
            "positions": [
                1.5185977242216748,
                -1.2098988256456014,
                -0.5712694817836501,
                -0.4392503995765984,
                -0.941195137254319,
                0.1283679929777109
            ]
        },
        {
            "positions": [
                1.4201806570658995,
                -1.2070287613520825,
                -0.4589070574558587,
                -0.34680868693688227,
                -0.888715822934289,
                0.10223034462542613
            ]
        },
        {
            "positions": [
                1.321763589910124,
                -1.2041586970585638,
                -0.3465446331280675,
                -0.2543669742971659,
                -0.8362365086142589,
                0.07609269627314141
            ]
        },
        {
            "positions": [
                1.2233465227543485,
                -1.201288632765045,
                -0.23418220880027607,
                -0.16192526165744958,
                -0.7837571942942287,
                0.04995504792085664
            ]
        },
        {
            "positions": [
                1.1249294555985734,
                -1.198418568471526,
                -0.1218197844724851,
                -0.06948354901773324,
                -0.7312778799741987,
                0.023817399568571984
            ]
        },
        {
            "positions": [
                1.026512388442798,
                -1.1955485041780072,
                -0.009457360144693672,
                0.022958163621983108,
                -0.6787985656541685,
                -0.002320248783712786
            ]
        },
        {
            "positions": [
                0.9280953212870227,
                -1.1926784398844883,
                0.10290506418309753,
                0.11539987626169923,
                -0.6263192513341385,
                -0.0284578971359975
            ]
        },
        {
            "positions": [
                0.8296782541312473,
                -1.1898083755909696,
                0.21526748851088873,
                0.2078415889014158,
                -0.5738399370141083,
                -0.054595545488282216
            ]
        },
        {
            "positions": [
                0.7312611869754722,
                -1.1869383112974508,
                0.3276299128386799,
                0.3002833015411319,
                -0.5213606226940783,
                -0.08073319384056693
            ]
        },
        {
            "positions": [
                0.6328441198196968,
                -1.1840682470039319,
                0.4399923371664711,
                0.39272501418084826,
                -0.4688813083740482,
                -0.10687084219285164
            ]
        },
        {
            "positions": [
                0.5344270526639212,
                -1.181198182710413,
                0.5523547614942623,
                0.4851667268205646,
                -0.41640199405401823,
                -0.13300849054513636
            ]
        },
        {
            "positions": [
                0.43600998550814607,
                -1.178328118416894,
                0.664717185822054,
                0.5776084394602807,
                -0.36392267973398806,
                -0.15914613889742119
            ]
        },
        {
            "positions": [
                0.33759291835237093,
                -1.1754580541233752,
                0.7770796101498447,
                0.6700501520999973,
                -0.3114433654139579,
                -0.1852837872497058
            ]
        },
        {
            "positions": [
                0.23917585119659535,
                -1.1725879898298566,
                0.8894420344776364,
                0.7624918647397134,
                -0.2589640510939277,
                -0.21142143560199061
            ]
        },
        {
            "positions": [
                0.1407587840408202,
                -1.1697179255363377,
                1.0018044588054276,
                0.8549335773794295,
                -0.20648473677389778,
                -0.23755908395427533
            ]
        },
        {
            "positions": [
                0.04234171688504449,
                -1.1668478612428188,
                1.114166883133219,
                0.947375290019146,
                -0.15400542245386753,
                -0.26369673230656
            ]
        },
        {
            "positions": [
                0.04011992422837165,
                -1.115367257630965,
                1.2343575440427552,
                1.0885240137315684,
                -0.14792783664363066,
                -0.23380932832926876
            ]
        },
        {
            "positions": [
                0.03789813157169881,
                -1.0638866540191114,
                1.3545482049522914,
                1.2296727374439906,
                -0.14185025083339378,
                -0.20392192435197753
            ]
        },
        {
            "positions": [
                0.035676338915025974,
                -1.0124060504072576,
                1.4747388658618275,
                1.3708214611564131,
                -0.1357726650231569,
                -0.1740345203746863
            ]
        },
        {
            "positions": [
                0.03345454625835313,
                -0.9609254467954039,
                1.5949295267713637,
                1.5119701848688356,
                -0.12969507921292003,
                -0.14414711639739508
            ]
        },
        {
            "positions": [
                0.03123275360168029,
                -0.9094448431835502,
                1.7151201876809,
                1.6531189085812579,
                -0.12361749340268316,
                -0.11425971242010388
            ]
        },
        {
            "positions": [
                0.054703572053744515,
                -0.8550440497846266,
                1.84045846370757,
                1.7938092240892716,
                -0.12179848763552334,
                -0.08370204913623891
            ]
        },
        {
            "positions": [
                0.08864705767935344,
                -0.8189998417278135,
                1.922519137537779,
                1.8812760123929149,
                -0.1228650643494858,
                -0.06442765950004774
            ]
        },
        {
            "positions": [
                0.12259054330496234,
                -0.7829556336710004,
                2.004579811367988,
                1.968742800696558,
                -0.12393164106344827,
                -0.04515326986385657
            ]
        }
    ]
}{
    "goal": {
        "global_pose": {
            "orientation": {
                "w": 0.7047431468963623,
                "x": -0.7094548344612122,
                "y": 0.0024358443915843964,
                "z": -0.0022348060738295317
            },
            "position": {
                "x": 0.6094750761985779,
                "y": 0.3671506643295288,
                "z": 0.19426114857196808
            }
        },
        "name": "move_to_magneteinheit_A"
    },
    "id": "LBKPIECE_move_to_magneteinheit_A_120",
    "joint_names": [
        "shoulder_pan_joint",
        "shoulder_lift_joint",
        "elbow_joint",
        "wrist_1_joint",
        "wrist_2_joint",
        "wrist_3_joint"
    ],
    "metrics": {
        "cart_traj_len": 1.220674211266286,
        "distance_elbow_joint": 0.1354357907460424,
        "distance_shoulder_lift_joint": 0.7507166201731423,
        "distance_shoulder_pan_joint": 1.2409144666904568,
        "distance_wrist_1_joint": 0.9799696678778943,
        "distance_wrist_2_joint": 1.4747664971013417,
        "distance_wrist_3_joint": 4.270050869404667,
        "smoothness": 0.21226699660179624,
        "time": 0.56957072,
        "traj_len": 2.9752065326618156,
        "weighted_distance": 4.454962605430276
    },
    "planner": "LBKPIECE",
    "start": {
        "state": {
            "elbow_joint": 1.919643534880228,
            "shoulder_lift_joint": -1.8972525353963687,
            "shoulder_pan_joint": -1.1188672234189438,
            "wrist_1_joint": -1.5931878212786155,
            "wrist_2_joint": 1.5706036197970081,
            "wrist_3_joint": 1.118896926603594
        }
    },
    "waypoints": [
        {
            "positions": [
                -1.1188672234189438,
                -1.8972525353963687,
                1.919643534880228,
                -1.5931878212786155,
                1.5706036197970081,
                1.118896926603594
            ]
        },
        {
            "positions": [
                -1.0628969121539933,
                -1.862456364218101,
                1.9179560256588406,
                -1.5517700664630054,
                1.5013037775207494,
                0.9293045503248083
            ]
        },
        {
            "positions": [
                -1.006926600889043,
                -1.8276601930398328,
                1.916268516437453,
                -1.5103523116473954,
                1.4320039352444907,
                0.7397121740460225
            ]
        },
        {
            "positions": [
                -0.9509562896240925,
                -1.792864021861565,
                1.9145810072160656,
                -1.468934556831785,
                1.362704092968232,
                0.5501197977672369
            ]
        },
        {
            "positions": [
                -0.8949859783591421,
                -1.7580678506832972,
                1.9128934979946781,
                -1.427516802016175,
                1.2934042506919732,
                0.36052742148845107
            ]
        },
        {
            "positions": [
                -0.8390156670941915,
                -1.7232716795050291,
                1.9112059887732906,
                -1.386099047200565,
                1.2241044084157144,
                0.1709350452096654
            ]
        },
        {
            "positions": [
                -0.7830453558292412,
                -1.6884755083267613,
                1.909518479551903,
                -1.344681292384955,
                1.1548045661394557,
                -0.018657331069120264
            ]
        },
        {
            "positions": [
                -0.7270750445642906,
                -1.6536793371484932,
                1.9078309703305154,
                -1.3032635375693449,
                1.085504723863197,
                -0.20824970734790615
            ]
        },
        {
            "positions": [
                -0.6711047332993402,
                -1.6188831659702254,
                1.906143461109128,
                -1.2618457827537348,
                1.0162048815869382,
                -0.3978420836266918
            ]
        },
        {
            "positions": [
                -0.6151344220343897,
                -1.5840869947919576,
                1.9044559518877404,
                -1.2204280279381248,
                0.9469050393106794,
                -0.5874344599054775
            ]
        },
        {
            "positions": [
                -0.5591641107694393,
                -1.5492908236136895,
                1.902768442666353,
                -1.1790102731225147,
                0.8776051970344206,
                -0.7770268361842632
            ]
        },
        {
            "positions": [
                -0.5031937995044887,
                -1.5144946524354217,
                1.9010809334449654,
                -1.1375925183069044,
                0.8083053547581619,
                -0.9666192124630493
            ]
        },
        {
            "positions": [
                -0.4472234882395384,
                -1.4796984812571536,
                1.899393424223578,
                -1.0961747634912944,
                0.7390055124819032,
                -1.1562115887418345
            ]
        },
        {
            "positions": [
                -0.39125317697458784,
                -1.4449023100788858,
                1.8977059150021904,
                -1.0547570086756843,
                0.6697056702056443,
                -1.3458039650206206
            ]
        },
        {
            "positions": [
                -0.3352828657096374,
                -1.410106138900618,
                1.896018405780803,
                -1.0133392538600743,
                0.6004058279293857,
                -1.5353963412994063
            ]
        },
        {
            "positions": [
                -0.27931255444468694,
                -1.37530996772235,
                1.8943308965594154,
                -0.9719214990444641,
                0.5311059856531268,
                -1.724988717578192
            ]
        },
        {
            "positions": [
                -0.2233422431797365,
                -1.340513796544082,
                1.8926433873380277,
                -0.9305037442288541,
                0.4618061433768683,
                -1.9145810938569776
            ]
        },
        {
            "positions": [
                -0.16737193191478594,
                -1.3057176253658143,
                1.8909558781166402,
                -0.8890859894132439,
                0.39250630110060936,
                -2.1041734701357635
            ]
        },
        {
            "positions": [
                -0.11140162064983561,
                -1.2709214541875462,
                1.8892683688952527,
                -0.8476682345976339,
                0.3232064588243506,
                -2.2937658464145487
            ]
        },
        {
            "positions": [
                -0.05543130938488505,
                -1.2361252830092782,
                1.8875808596738652,
                -0.8062504797820238,
                0.2539066165480919,
                -2.483358222693335
            ]
        },
        {
            "positions": [
                0.0005390018800652818,
                -1.2013291118310105,
                1.8858933504524777,
                -0.7648327249664137,
                0.18460677427183314,
                -2.67295059897212
            ]
        },
        {
            "positions": [
                0.056509313145015935,
                -1.1665329406527425,
                1.8842058412310903,
                -0.7234149701508036,
                0.11530693199557446,
                -2.862542975250906
            ]
        },
        {
            "positions": [
                0.0892782782082645,
                -1.1565344279379843,
                1.9342048897795425,
                -0.7785133785258448,
                0.12504183664552837,
                -3.0068484590259894
            ]
        },
        {
            "positions": [
                0.12204724327151309,
                -1.1465359152232264,
                1.9842039383279948,
                -0.833611786900886,
                0.1347767412954823,
                -3.151153942801072
            ]
        }
    ]
}