{
    "goal": {
        "global_pose": {
            "orientation": {
                "w": 0.7047431468963623,
                "x": -0.7094548344612122,
                "y": 0.0024358443915843964,
                "z": -0.0022348060738295317
            },
            "position": {
                "x": 0.6094750761985779,
                "y": 0.3671506643295288,
                "z": 0.19426114857196808
            }
        },
        "name": "move_to_magneteinheit_A"
    },
    "id": "LBKPIECE_move_to_magneteinheit_A_99",
    "joint_names": [
        "shoulder_pan_joint",
        "shoulder_lift_joint",
        "elbow_joint",
        "wrist_1_joint",
        "wrist_2_joint",
        "wrist_3_joint"
    ],
    "metrics": {
        "cart_traj_len": 4.227936729959308,
        "distance_elbow_joint": 3.878752557906072,
        "distance_shoulder_lift_joint": 0.18268957283267917,
        "distance_shoulder_pan_joint": 4.835255236008315,
        "distance_wrist_1_joint": 1.87661076907886,
        "distance_wrist_2_joint": 2.9010909100657654,
        "distance_wrist_3_joint": 2.605166481677323,
        "smoothness": 0.3158954194101473,
        "time": 0.295330133,
        "traj_len": 4.034794360010062,
        "weighted_distance": 5.125192695896251
    },
    "planner": "LBKPIECE",
    "start": {
        "state": {
            "elbow_joint": -1.919618573717145,
            "shoulder_lift_joint": -1.2443395971678275,
            "shoulder_pan_joint": 2.6996025300909787,
            "wrist_1_joint": -1.548550951253194,
            "wrist_2_joint": -1.5709469090946802,
            "wrist_3_joint": 0.4420197732051276
        }
    },
    "waypoints": [
        {
            "positions": [
                2.6996025300909787,
                -1.2443395971678275,
                -1.919618573717145,
                -1.548550951253194,
                -1.5709469090946802,
                0.4420197732051276
            ]
        },
        {
            "positions": [
                2.5623294179427067,
                -1.245650504252272,
                -1.8375195498325803,
                -1.4987359495361012,
                -1.485919644629523,
                0.4790693492025603
            ]
        },
        {
            "positions": [
                2.4250563057944348,
                -1.246961411336717,
                -1.7554205259480158,
                -1.4489209478190082,
                -1.400892380164366,
                0.516118925199993
            ]
        },
        {
            "positions": [
                2.2877831936461632,
                -1.2482723184211615,
                -1.673321502063451,
                -1.3991059461019153,
                -1.315865115699209,
                0.5531685011974257
            ]
        },
        {
            "positions": [
                2.1505100814978912,
                -1.249583225505606,
                -1.5912224781788864,
                -1.3492909443848222,
                -1.230837851234052,
                0.5902180771948584
            ]
        },
        {
            "positions": [
                2.0132369693496193,
                -1.2508941325900507,
                -1.509123454294322,
                -1.2994759426677294,
                -1.145810586768895,
                0.6272676531922912
            ]
        },
        {
            "positions": [
                1.8759638572013475,
                -1.2522050396744955,
                -1.4270244304097572,
                -1.2496609409506365,
                -1.060783322303738,
                0.6643172291897239
            ]
        },
        {
            "positions": [
                1.7386907450530757,
                -1.25351594675894,
                -1.3449254065251925,
                -1.1998459392335434,
                -0.9757560578385809,
                0.7013668051871567
            ]
        },
        {
            "positions": [
                1.6014176329048038,
                -1.2548268538433847,
                -1.262826382640628,
                -1.1500309375164504,
                -0.8907287933734239,
                0.7384163811845893
            ]
        },
        {
            "positions": [
                1.4641445207565318,
                -1.2561377609278295,
                -1.1807273587560634,
                -1.1002159357993575,
                -0.8057015289082669,
                0.7754659571820219
            ]
        },
        {
            "positions": [
                1.32687140860826,
                -1.257448668012274,
                -1.0986283348714987,
                -1.0504009340822646,
                -0.7206742644431098,
                0.8125155331794547
            ]
        },
        {
            "positions": [
                1.189598296459988,
                -1.2587595750967187,
                -1.0165293109869342,
                -1.0005859323651716,
                -0.6356469999779528,
                0.8495651091768874
            ]
        },
        {
            "positions": [
                1.0523251843117163,
                -1.2600704821811635,
                -0.9344302871023695,
                -0.9507709306480787,
                -0.5506197355127957,
                0.8866146851743202
            ]
        },
        {
            "positions": [
                0.9150520721634443,
                -1.261381389265608,
                -0.8523312632178051,
                -0.9009559289309857,
                -0.4655924710476387,
                0.9236642611717529
            ]
        },
        {
            "positions": [
                0.7777789600151725,
                -1.2626922963500526,
                -0.7702322393332404,
                -0.8511409272138928,
                -0.3805652065824816,
                0.9607138371691857
            ]
        },
        {
            "positions": [
                0.6405058478669003,
                -1.2640032034344972,
                -0.6881332154486757,
                -0.8013259254967997,
                -0.29553794211732454,
                0.9977634131666184
            ]
        },
        {
            "positions": [
                0.5032327357186288,
                -1.265314110518942,
                -0.6060341915641112,
                -0.7515109237797069,
                -0.2105106776521677,
                1.034812989164051
            ]
        },
        {
            "positions": [
                0.36595962357035683,
                -1.2666250176033866,
                -0.5239351676795463,
                -0.7016959220626139,
                -0.1254834131870104,
                1.0718625651614837
            ]
        },
        {
            "positions": [
                0.22868651142208485,
                -1.2679359246878312,
                -0.4418361437949818,
                -0.6518809203455209,
                -0.040456148721853546,
                1.1089121411589165
            ]
        },
        {
            "positions": [
                0.09141339927381287,
                -1.269246831772276,
                -0.3597371199104171,
                -0.602065918628428,
                0.044571115743303524,
                1.1459617171563492
            ]
        },
        {
            "positions": [
                -0.04585971287445867,
                -1.2705577388567206,
                -0.27763809602585265,
                -0.5522509169113351,
                0.1295983802084606,
                1.183011293153782
            ]
        },
        {
            "positions": [
                -0.18313282502273065,
                -1.2718686459411652,
                -0.19553907214128796,
                -0.5024359151942421,
                0.21462564467361767,
                1.2200608691512147
            ]
        },
        {
            "positions": [
                -0.32040593717100263,
                -1.27317955302561,
                -0.11344004825672349,
                -0.45262091347714906,
                0.2996529091387745,
                1.2571104451486472
            ]
        },
        {
            "positions": [
                -0.4576790493192746,
                -1.2744904601100546,
                -0.0313410243721588,
                -0.4028059117600562,
                0.3846801736039318,
                1.29416002114608
            ]
        },
        {
            "positions": [
                -0.5949521614675461,
                -1.2758013671944992,
                0.050757999512405894,
                -0.35299091004296335,
                0.46970743806908866,
                1.3312095971435127
            ]
        },
        {
            "positions": [
                -0.7322252736158181,
                -1.2771122742789438,
                0.13285702339697036,
                -0.30317590832587027,
                0.5547347025342457,
                1.3682591731409455
            ]
        },
        {
            "positions": [
                -0.8694983857640901,
                -1.2784231813633886,
                0.21495604728153483,
                -0.2533609066087774,
                0.6397619669994028,
                1.4053087491383782
            ]
        },
        {
            "positions": [
                -1.006771497912362,
                -1.2797340884478332,
                0.2970550711660999,
                -0.20354590489168445,
                0.7247892314645599,
                1.442358325135811
            ]
        },
        {
            "positions": [
                -0.9315127507120307,
                -1.2699144163443217,
                0.40786033203428845,
                -0.23898628640617448,
                0.6844322468307916,
                1.549346853785587
            ]
        },
        {
            "positions": [
                -0.8562540035116992,
                -1.2600947442408101,
                0.518665592902477,
                -0.2744266679206645,
                0.6440752621970234,
                1.6563353824353628
            ]
        },
        {
            "positions": [
                -0.7809952563113677,
                -1.2502750721372986,
                0.6294708537706656,
                -0.3098670494351545,
                0.603718277563255,
                1.7633239110851389
            ]
        },
        {
            "positions": [
                -0.7057365091110362,
                -1.2404554000337868,
                0.7402761146388541,
                -0.3453074309496445,
                0.5633612929294868,
                1.870312439734915
            ]
        },
        {
            "positions": [
                -0.6304777619107048,
                -1.2306357279302753,
                0.8510813755070425,
                -0.38074781246413447,
                0.5230043082957185,
                1.9773009683846907
            ]
        },
        {
            "positions": [
                -0.5552190147103733,
                -1.2208160558267638,
                0.9618866363752312,
                -0.4161881939786245,
                0.4826473236619503,
                2.084289497034467
            ]
        },
        {
            "positions": [
                -0.47996026751004184,
                -1.2109963837232522,
                1.0726918972434198,
                -0.4516285754931145,
                0.442290339028182,
                2.191278025684243
            ]
        },
        {
            "positions": [
                -0.4047015203097104,
                -1.2011767116197407,
                1.1834971581116083,
                -0.48706895700760455,
                0.40193335439441374,
                2.2982665543340186
            ]
        },
        {
            "positions": [
                -0.329442773109379,
                -1.1913570395162292,
                1.2943024189797967,
                -0.5225093385220945,
                0.3615763697606455,
                2.405255082983795
            ]
        },
        {
            "positions": [
                -0.25418402590904754,
                -1.1815373674127176,
                1.4051076798479853,
                -0.5579497200365846,
                0.3212193851268772,
                2.5122436116335707
            ]
        },
        {
            "positions": [
                -0.1789252787087161,
                -1.171717695309206,
                1.5159129407161738,
                -0.5933901015510745,
                0.28086240049310895,
                2.619232140283347
            ]
        },
        {
            "positions": [
                -0.10366653150838445,
                -1.1618980232056944,
                1.6267182015843626,
                -0.6288304830655647,
                0.24050541585934065,
                2.7262206689331228
            ]
        },
        {
            "positions": [
                -0.02840778430805302,
                -1.1520783511021828,
                1.737523462452551,
                -0.6642708645800546,
                0.20014843122557235,
                2.8332091975828986
            ]
        },
        {
            "positions": [
                0.046850962892278414,
                -1.1422586789986713,
                1.8483287233207397,
                -0.6997112460945446,
                0.1597914465918041,
                2.9401977262326744
            ]
        },
        {
            "positions": [
                0.1221097100926099,
                -1.1324390068951597,
                1.9591339841889281,
                -0.7351516276090346,
                0.11943446195803582,
                3.0471862548824507
            ]
        }
    ]
}{
    "goal": {
        "global_pose": {
            "orientation": {
                "w": 0.7047431468963623,
                "x": -0.7094548344612122,
                "y": 0.0024358443915843964,
                "z": -0.0022348060738295317
            },
            "position": {
                "x": 0.6094750761985779,
                "y": 0.3671506643295288,
                "z": 0.19426114857196808
            }
        },
        "name": "move_to_magneteinheit_A"
    },
    "id": "LBKPIECE_move_to_magneteinheit_A_99",
    "joint_names": [
        "shoulder_pan_joint",
        "shoulder_lift_joint",
        "elbow_joint",
        "wrist_1_joint",
        "wrist_2_joint",
        "wrist_3_joint"
    ],
    "metrics": {
        "cart_traj_len": 1.2964018485426607,
        "distance_elbow_joint": 0.6221020654363185,
        "distance_shoulder_lift_joint": 0.7662623669108803,
        "distance_shoulder_pan_joint": 1.2417396436084018,
        "distance_wrist_1_joint": 1.0791913439085354,
        "distance_wrist_2_joint": 1.4407579851762542,
        "distance_wrist_3_joint": 4.369816014052695,
        "smoothness": 0.10569124103811212,
        "time": 0.385858127,
        "traj_len": 3.085428563278217,
        "weighted_distance": 4.558448286016116
    },
    "planner": "LBKPIECE",
    "start": {
        "state": {
            "elbow_joint": 1.919643534880228,
            "shoulder_lift_joint": -1.8972525353963687,
            "shoulder_pan_joint": -1.1188672234189438,
            "wrist_1_joint": -1.5931878212786155,
            "wrist_2_joint": 1.5706036197970081,
            "wrist_3_joint": 1.118896926603594
        }
    },
    "waypoints": [
        {
            "positions": [
                -1.1188672234189438,
                -1.8972525353963687,
                1.919643534880228,
                -1.5931878212786155,
                1.5706036197970081,
                1.118896926603594
            ]
        },
        {
            "positions": [
                -1.0814599667015075,
                -1.865769018193923,
                1.904270056021179,
                -1.5415301350277573,
                1.505257291044912,
                0.9334488963762739
            ]
        },
        {
            "positions": [
                -1.0440527099840708,
                -1.8342855009914774,
                1.88889657716213,
                -1.4898724487768993,
                1.4399109622928161,
                0.7480008661489539
            ]
        },
        {
            "positions": [
                -1.0066454532666345,
                -1.8028019837890317,
                1.8735230983030808,
                -1.438214762526041,
                1.37456463354072,
                0.562552835921634
            ]
        },
        {
            "positions": [
                -0.9692381965491979,
                -1.771318466586586,
                1.8581496194440317,
                -1.3865570762751829,
                1.309218304788624,
                0.3771048056943139
            ]
        },
        {
            "positions": [
                -0.9318309398317615,
                -1.7398349493841403,
                1.8427761405849825,
                -1.3348993900243247,
                1.243871976036528,
                0.1916567754669939
            ]
        },
        {
            "positions": [
                -0.894423683114325,
                -1.7083514321816946,
                1.8274026617259336,
                -1.2832417037734665,
                1.1785256472844319,
                0.006208745239673963
            ]
        },
        {
            "positions": [
                -0.8570164263968885,
                -1.676867914979249,
                1.8120291828668844,
                -1.2315840175226085,
                1.113179318532336,
                -0.17923928498764607
            ]
        },
        {
            "positions": [
                -0.819609169679452,
                -1.6453843977768032,
                1.7966557040078353,
                -1.1799263312717503,
                1.0478329897802399,
                -0.3646873152149661
            ]
        },
        {
            "positions": [
                -0.7822019129620155,
                -1.6139008805743575,
                1.781282225148786,
                -1.128268645020892,
                0.9824866610281439,
                -0.5501353454422861
            ]
        },
        {
            "positions": [
                -0.744794656244579,
                -1.5824173633719119,
                1.7659087462897372,
                -1.076610958770034,
                0.9171403322760479,
                -0.7355833756696062
            ]
        },
        {
            "positions": [
                -0.7073873995271425,
                -1.5509338461694662,
                1.750535267430688,
                -1.0249532725191757,
                0.8517940035239517,
                -0.9210314058969262
            ]
        },
        {
            "positions": [
                -0.6699801428097061,
                -1.5194503289670205,
                1.7351617885716388,
                -0.9732955862683177,
                0.7864476747718557,
                -1.106479436124246
            ]
        },
        {
            "positions": [
                -0.6325728860922695,
                -1.4879668117645748,
                1.7197883097125897,
                -0.9216379000174595,
                0.7211013460197596,
                -1.2919274663515663
            ]
        },
        {
            "positions": [
                -0.5951656293748331,
                -1.456483294562129,
                1.7044148308535407,
                -0.8699802137666014,
                0.6557550172676637,
                -1.4773754965788861
            ]
        },
        {
            "positions": [
                -0.5577583726573966,
                -1.4249997773596834,
                1.6890413519944916,
                -0.8183225275157432,
                0.5904086885155676,
                -1.6628235268062064
            ]
        },
        {
            "positions": [
                -0.5203511159399601,
                -1.3935162601572377,
                1.6736678731354424,
                -0.7666648412648851,
                0.5250623597634716,
                -1.8482715570335262
            ]
        },
        {
            "positions": [
                -0.4829438592225236,
                -1.362032742954792,
                1.6582943942763935,
                -0.7150071550140269,
                0.4597160310113755,
                -2.0337195872608467
            ]
        },
        {
            "positions": [
                -0.4455366025050871,
                -1.3305492257523464,
                1.6429209154173443,
                -0.6633494687631688,
                0.3943697022592796,
                -2.219167617488166
            ]
        },
        {
            "positions": [
                -0.4081293457876506,
                -1.2990657085499007,
                1.6275474365582951,
                -0.6116917825123106,
                0.32902337350718347,
                -2.4046156477154863
            ]
        },
        {
            "positions": [
                -0.3196290514581325,
                -1.2710531185391654,
                1.6825484310773593,
                -0.627974333369349,
                0.29582708369277855,
                -2.545666221004422
            ]
        },
        {
            "positions": [
                -0.23112875712861441,
                -1.2430405285284298,
                1.7375494255964237,
                -0.6442568842263874,
                0.2626307938783737,
                -2.686716794293358
            ]
        },
        {
            "positions": [
                -0.1426284627990963,
                -1.2150279385176945,
                1.792550420115488,
                -0.6605394350834257,
                0.22943450406396879,
                -2.827767367582294
            ]
        },
        {
            "positions": [
                -0.05412816846957824,
                -1.1870153485069592,
                1.8475514146345522,
                -0.6768219859404642,
                0.1962382142495639,
                -2.9688179408712294
            ]
        },
        {
            "positions": [
                0.03437212585993993,
                -1.1590027584962237,
                1.9025524091536163,
                -0.6931045367975026,
                0.163041924435159,
                -3.1098685141601656
            ]
        },
        {
            "positions": [
                0.12287242018945801,
                -1.1309901684854884,
                1.9575534036726807,
                -0.709387087654541,
                0.1298456346207541,
                -3.2509190874491014
            ]
        }
    ]
}