{
    "goal": {
        "global_pose": {
            "orientation": {
                "w": 0.5084816217422485,
                "x": -0.49083608388900757,
                "y": 0.5182115435600281,
                "z": -0.4816462993621826
            },
            "position": {
                "x": 0.5540239810943604,
                "y": 0.030875300988554955,
                "z": 0.16403168439865112
            }
        },
        "name": "move_to_storage_A"
    },
    "id": "LBKPIECE_move_to_storage_A_96",
    "joint_names": [
        "shoulder_pan_joint",
        "shoulder_lift_joint",
        "elbow_joint",
        "wrist_1_joint",
        "wrist_2_joint",
        "wrist_3_joint"
    ],
    "metrics": {
        "cart_traj_len": 0.3527042005463439,
        "distance_elbow_joint": 0.45317918397479184,
        "distance_shoulder_lift_joint": 0.2349354004773918,
        "distance_shoulder_pan_joint": 0.4582340015815761,
        "distance_wrist_1_joint": 0.2583674055095798,
        "distance_wrist_2_joint": 1.1112706731976294,
        "distance_wrist_3_joint": 0.09714330750387257,
        "smoothness": 2.2204460668324854e-16,
        "time": 0.627988713,
        "traj_len": 1.6165178539827025,
        "weighted_distance": 2.043784398110475
    },
    "planner": "LBKPIECE",
    "start": {
        "state": {
            "elbow_joint": 1.9715477243005601,
            "shoulder_lift_joint": -1.1394853015351272,
            "shoulder_pan_joint": 0.12281154014795169,
            "wrist_1_joint": -0.7804696478968182,
            "wrist_2_joint": 0.12958648046900423,
            "wrist_3_joint": -3.192491284697111
        }
    },
    "waypoints": [
        {
            "positions": [
                0.12281154014795169,
                -1.1394853015351272,
                1.9715477243005601,
                -0.7804696478968182,
                0.12958648046900423,
                -3.192491284697111
            ]
        },
        {
            "positions": [
                0.05734953992201225,
                -1.173047501603326,
                2.0362876077255305,
                -0.8173792772553296,
                0.28833943378295124,
                -3.178613669339415
            ]
        },
        {
            "positions": [
                -0.00811246030392719,
                -1.206609701671525,
                2.1010274911505005,
                -0.8542889066138409,
                0.4470923870968983,
                -3.164736053981719
            ]
        },
        {
            "positions": [
                -0.07357446052986664,
                -1.2401719017397237,
                2.165767374575471,
                -0.8911985359723523,
                0.6058453404108454,
                -3.150858438624023
            ]
        },
        {
            "positions": [
                -0.13903646075580606,
                -1.2737341018079225,
                2.2305072580004413,
                -0.9281081653308638,
                0.7645982937247924,
                -3.136980823266327
            ]
        },
        {
            "positions": [
                -0.2044984609817455,
                -1.3072963018761214,
                2.2952471414254116,
                -0.9650177946893752,
                0.9233512470387395,
                -3.1231032079086307
            ]
        },
        {
            "positions": [
                -0.26996046120768497,
                -1.3408585019443202,
                2.3599870248503816,
                -1.0019274240478866,
                1.0821042003526866,
                -3.109225592550935
            ]
        },
        {
            "positions": [
                -0.3354224614336244,
                -1.374420702012519,
                2.424726908275352,
                -1.038837053406398,
                1.2408571536666337,
                -3.0953479771932386
            ]
        }
    ]
}