{
    "goal": {
        "global_pose": {
            "orientation": {
                "w": 0.5084816217422485,
                "x": -0.49083608388900757,
                "y": 0.5182115435600281,
                "z": -0.4816462993621826
            },
            "position": {
                "x": 0.5540239810943604,
                "y": 0.030875300988554955,
                "z": 0.16403168439865112
            }
        },
        "name": "move_to_storage_A"
    },
    "id": "LBKPIECE_move_to_storage_A_41",
    "joint_names": [
        "shoulder_pan_joint",
        "shoulder_lift_joint",
        "elbow_joint",
        "wrist_1_joint",
        "wrist_2_joint",
        "wrist_3_joint"
    ],
    "metrics": {
        "cart_traj_len": 0.35374779419013,
        "distance_elbow_joint": 0.45111483724936585,
        "distance_shoulder_lift_joint": 0.23454466178027267,
        "distance_shoulder_pan_joint": 0.4637218581006342,
        "distance_wrist_1_joint": 0.24675915606114718,
        "distance_wrist_2_joint": 1.0953788216115825,
        "distance_wrist_3_joint": 0.09051839256646588,
        "smoothness": 4.440892098500626e-16,
        "time": 0.731253615,
        "traj_len": 1.6068720320453238,
        "weighted_distance": 2.026132397000534
    },
    "planner": "LBKPIECE",
    "start": {
        "state": {
            "elbow_joint": 1.9715477243005601,
            "shoulder_lift_joint": -1.1394853015351272,
            "shoulder_pan_joint": 0.12281154014795169,
            "wrist_1_joint": -0.7804696478968182,
            "wrist_2_joint": 0.12958648046900423,
            "wrist_3_joint": -3.192491284697111
        }
    },
    "waypoints": [
        {
            "positions": [
                0.12281154014795169,
                -1.1394853015351272,
                1.9715477243005601,
                -0.7804696478968182,
                0.12958648046900423,
                -3.192491284697111
            ]
        },
        {
            "positions": [
                0.05656556041928966,
                -1.172991681789452,
                2.0359927010504695,
                -0.8157209559055535,
                0.28606916927065884,
                -3.1795600857590447
            ]
        },
        {
            "positions": [
                -0.00968041930937237,
                -1.2064980620437764,
                2.100437677800379,
                -0.8509722639142888,
                0.4425518580723135,
                -3.166628886820978
            ]
        },
        {
            "positions": [
                -0.0759263990380344,
                -1.2400044422981011,
                2.164882654550288,
                -0.886223571923024,
                0.5990345468739682,
                -3.1536976878829117
            ]
        },
        {
            "positions": [
                -0.14217237876669642,
                -1.2735108225524259,
                2.2293276313001975,
                -0.9214748799317594,
                0.7555172356756228,
                -3.140766488944845
            ]
        },
        {
            "positions": [
                -0.20841835849535845,
                -1.3070172028067506,
                2.2937726080501073,
                -0.9567261879404947,
                0.9119999244772775,
                -3.1278352900067783
            ]
        },
        {
            "positions": [
                -0.2746643382240205,
                -1.340523583061075,
                2.3582175848000166,
                -0.99197749594923,
                1.068482613278932,
                -3.114904091068712
            ]
        },
        {
            "positions": [
                -0.3409103179526825,
                -1.3740299633153998,
                2.422662561549926,
                -1.0272288039579653,
                1.2249653020805866,
                -3.1019728921306453
            ]
        }
    ]
}