{
    "goal": {
        "global_pose": {
            "orientation": {
                "w": 0.5084816217422485,
                "x": -0.49083608388900757,
                "y": 0.5182115435600281,
                "z": -0.4816462993621826
            },
            "position": {
                "x": 0.5540239810943604,
                "y": 0.030875300988554955,
                "z": 0.16403168439865112
            }
        },
        "name": "move_to_storage_A"
    },
    "id": "LBKPIECE_move_to_storage_A_149",
    "joint_names": [
        "shoulder_pan_joint",
        "shoulder_lift_joint",
        "elbow_joint",
        "wrist_1_joint",
        "wrist_2_joint",
        "wrist_3_joint"
    ],
    "metrics": {
        "cart_traj_len": 0.3530380085847885,
        "distance_elbow_joint": 0.45077459987468815,
        "distance_shoulder_lift_joint": 0.23478699078564658,
        "distance_shoulder_pan_joint": 0.4613045895981749,
        "distance_wrist_1_joint": 0.24858459353025142,
        "distance_wrist_2_joint": 1.1002019287840774,
        "distance_wrist_3_joint": 0.10669875547398266,
        "smoothness": 2.2204460668324854e-16,
        "time": 0.375918749,
        "traj_len": 1.6131805410575784,
        "weighted_distance": 2.0407193563322505
    },
    "planner": "LBKPIECE",
    "start": {
        "state": {
            "elbow_joint": 1.9715477243005601,
            "shoulder_lift_joint": -1.1394853015351272,
            "shoulder_pan_joint": 0.12281154014795169,
            "wrist_1_joint": -0.7804696478968182,
            "wrist_2_joint": 0.12958648046900423,
            "wrist_3_joint": -3.192491284697111
        }
    },
    "waypoints": [
        {
            "positions": [
                0.12281154014795169,
                -1.1394853015351272,
                1.9715477243005601,
                -0.7804696478968182,
                0.12958648046900423,
                -3.192491284697111
            ]
        },
        {
            "positions": [
                0.05691088449106957,
                -1.173026300218791,
                2.03594409571123,
                -0.815981732686854,
                0.2867581845810153,
                -3.177248605343685
            ]
        },
        {
            "positions": [
                -0.008989771165812552,
                -1.2065672989024547,
                2.1003404671218995,
                -0.85149381747689,
                0.44392988869302635,
                -3.162005925990259
            ]
        },
        {
            "positions": [
                -0.07489042682269469,
                -1.2401082975861186,
                2.164736838532569,
                -0.8870059022669259,
                0.6011015928050374,
                -3.1467632466368327
            ]
        },
        {
            "positions": [
                -0.14079108247957678,
                -1.2736492962697823,
                2.229133209943239,
                -0.9225179870569619,
                0.7582732969170485,
                -3.131520567283407
            ]
        },
        {
            "positions": [
                -0.2066917381364589,
                -1.3071902949534462,
                2.293529581353909,
                -0.9580300718469977,
                0.9154450010290596,
                -3.116277887929981
            ]
        },
        {
            "positions": [
                -0.27259239379334105,
                -1.3407312936371099,
                2.3579259527645786,
                -0.9935421566370337,
                1.0726167051410704,
                -3.1010352085765547
            ]
        },
        {
            "positions": [
                -0.3384930494502232,
                -1.3742722923207737,
                2.4223223241752483,
                -1.0290542414270696,
                1.2297884092530817,
                -3.0857925292231285
            ]
        }
    ]
}