{
    "goal": {
        "global_pose": {
            "orientation": {
                "w": 0.5084816217422485,
                "x": -0.49083608388900757,
                "y": 0.5182115435600281,
                "z": -0.4816462993621826
            },
            "position": {
                "x": 0.5540239810943604,
                "y": 0.030875300988554955,
                "z": 0.16403168439865112
            }
        },
        "name": "move_to_storage_A"
    },
    "id": "LBKPIECE_move_to_storage_A_104",
    "joint_names": [
        "shoulder_pan_joint",
        "shoulder_lift_joint",
        "elbow_joint",
        "wrist_1_joint",
        "wrist_2_joint",
        "wrist_3_joint"
    ],
    "metrics": {
        "cart_traj_len": 0.3534355789610971,
        "distance_elbow_joint": 0.4482062127475639,
        "distance_shoulder_lift_joint": 0.23407548480130647,
        "distance_shoulder_pan_joint": 0.4599786200958388,
        "distance_wrist_1_joint": 0.23629211447750909,
        "distance_wrist_2_joint": 1.1085612835302179,
        "distance_wrist_3_joint": 0.10069616519228441,
        "smoothness": 9.992007271825419e-16,
        "time": 0.212642463,
        "traj_len": 1.6086671131233834,
        "weighted_distance": 2.033237715870187
    },
    "planner": "LBKPIECE",
    "start": {
        "state": {
            "elbow_joint": 1.9715477243005601,
            "shoulder_lift_joint": -1.1394853015351272,
            "shoulder_pan_joint": 0.12281154014795169,
            "wrist_1_joint": -0.7804696478968182,
            "wrist_2_joint": 0.12958648046900423,
            "wrist_3_joint": -3.192491284697111
        }
    },
    "waypoints": [
        {
            "positions": [
                0.12281154014795169,
                -1.1394853015351272,
                1.9715477243005601,
                -0.7804696478968182,
                0.12958648046900423,
                -3.192491284697111
            ]
        },
        {
            "positions": [
                0.05710030870568901,
                -1.1729246565067424,
                2.0355771832644978,
                -0.814225664250748,
                0.28795237811617824,
                -3.1781061182410704
            ]
        },
        {
            "positions": [
                -0.00861092273657367,
                -1.2063640114783576,
                2.0996066422284354,
                -0.8479816806046779,
                0.4463182757633522,
                -3.16372095178503
            ]
        },
        {
            "positions": [
                -0.07432215417883635,
                -1.2398033664499728,
                2.163636101192373,
                -0.8817376969586077,
                0.6046841734105262,
                -3.149335785328989
            ]
        },
        {
            "positions": [
                -0.14003338562109902,
                -1.273242721421588,
                2.2276655601563107,
                -0.9154937133125376,
                0.7630500710577002,
                -3.134950618872949
            ]
        },
        {
            "positions": [
                -0.20574461706336172,
                -1.3066820763932032,
                2.2916950191202488,
                -0.9492497296664675,
                0.9214159687048742,
                -3.120565452416908
            ]
        },
        {
            "positions": [
                -0.2714558485056244,
                -1.3401214313648184,
                2.3557244780841864,
                -0.9830057460203974,
                1.079781866352048,
                -3.1061802859608676
            ]
        },
        {
            "positions": [
                -0.3371670799478871,
                -1.3735607863364336,
                2.419753937048124,
                -1.0167617623743272,
                1.238147763999222,
                -3.0917951195048268
            ]
        }
    ]
}