{
    "goal": {
        "global_pose": {
            "orientation": {
                "w": 0.7047431468963623,
                "x": -0.7094548344612122,
                "y": 0.0024358443915843964,
                "z": -0.0022348060738295317
            },
            "position": {
                "x": 0.6094750761985779,
                "y": 0.3671506643295288,
                "z": 0.19426114857196808
            }
        },
        "name": "move_to_magneteinheit_A"
    },
    "id": "LBKPIECE_move_to_magneteinheit_A_142",
    "joint_names": [
        "shoulder_pan_joint",
        "shoulder_lift_joint",
        "elbow_joint",
        "wrist_1_joint",
        "wrist_2_joint",
        "wrist_3_joint"
    ],
    "metrics": {
        "cart_traj_len": 4.310743566945909,
        "distance_elbow_joint": 3.888408497197331,
        "distance_shoulder_lift_joint": 0.7973887411484049,
        "distance_shoulder_pan_joint": 3.4047794622847882,
        "distance_wrist_1_joint": 3.0327063980031377,
        "distance_wrist_2_joint": 4.625198417619068,
        "distance_wrist_3_joint": 3.9262834108217874,
        "smoothness": 0.2474575637052643,
        "time": 0.410398515,
        "traj_len": 4.435624525033032,
        "weighted_distance": 5.931714470904706
    },
    "planner": "LBKPIECE",
    "start": {
        "state": {
            "elbow_joint": -1.919618573717145,
            "shoulder_lift_joint": -1.2443395971678275,
            "shoulder_pan_joint": 2.6996025300909787,
            "wrist_1_joint": -1.548550951253194,
            "wrist_2_joint": -1.5709469090946802,
            "wrist_3_joint": 0.4420197732051276
        }
    },
    "waypoints": [
        {
            "positions": [
                2.6996025300909787,
                -1.2443395971678275,
                -1.919618573717145,
                -1.548550951253194,
                -1.5709469090946802,
                0.4420197732051276
            ]
        },
        {
            "positions": [
                2.596489313395108,
                -1.2287421964531409,
                -1.8053105361890451,
                -1.5875094849884674,
                -1.461923375381778,
                0.447089331136871
            ]
        },
        {
            "positions": [
                2.4933760966992375,
                -1.2131447957384545,
                -1.6910024986609455,
                -1.6264680187237408,
                -1.3528998416688758,
                0.45215888906861434
            ]
        },
        {
            "positions": [
                2.3902628800033674,
                -1.1975473950237678,
                -1.576694461132846,
                -1.6654265524590144,
                -1.2438763079559734,
                0.45722844700035775
            ]
        },
        {
            "positions": [
                2.287149663307497,
                -1.1819499943090812,
                -1.4623864236047461,
                -1.7043850861942877,
                -1.1348527742430712,
                0.4622980049321011
            ]
        },
        {
            "positions": [
                2.184036446611626,
                -1.1663525935943946,
                -1.3480783860766463,
                -1.743343619929561,
                -1.025829240530169,
                0.4673675628638445
            ]
        },
        {
            "positions": [
                2.080923229915756,
                -1.1507551928797082,
                -1.2337703485485467,
                -1.7823021536648345,
                -0.9168057068172667,
                0.47243712079558786
            ]
        },
        {
            "positions": [
                1.9778100132198853,
                -1.1351577921650216,
                -1.1194623110204471,
                -1.821260687400108,
                -0.8077821731043644,
                0.47750667872733127
            ]
        },
        {
            "positions": [
                1.8746967965240149,
                -1.119560391450335,
                -1.0051542734923473,
                -1.8602192211353814,
                -0.6987586393914622,
                0.4825762366590746
            ]
        },
        {
            "positions": [
                1.7715835798281443,
                -1.1039629907356483,
                -0.8908462359642477,
                -1.8991777548706548,
                -0.5897351056785599,
                0.487645794590818
            ]
        },
        {
            "positions": [
                1.668470363132274,
                -1.088365590020962,
                -0.7765381984361479,
                -1.9381362886059281,
                -0.4807115719656576,
                0.4927153525225614
            ]
        },
        {
            "positions": [
                1.5653571464364036,
                -1.0727681893062753,
                -0.6622301609080483,
                -1.9770948223412015,
                -0.37168803825275565,
                0.4977849104543048
            ]
        },
        {
            "positions": [
                1.462243929740533,
                -1.0571707885915886,
                -0.5479221233799485,
                -2.016053356076475,
                -0.26266450453985324,
                0.5028544683860482
            ]
        },
        {
            "positions": [
                1.3591307130446624,
                -1.0415733878769022,
                -0.4336140858518489,
                -2.055011889811748,
                -0.15364097082695105,
                0.5079240263177915
            ]
        },
        {
            "positions": [
                1.2560174963487918,
                -1.0259759871622156,
                -0.3193060483237491,
                -2.093970423547022,
                -0.04461743711404864,
                0.5129935842495349
            ]
        },
        {
            "positions": [
                1.1529042796529214,
                -1.010378586447529,
                -0.20499801079564928,
                -2.1329289572822954,
                0.06440609659885355,
                0.5180631421812782
            ]
        },
        {
            "positions": [
                1.049791062957051,
                -0.9947811857328425,
                -0.09068997326754968,
                -2.1718874910175687,
                0.17342963031175573,
                0.5231327001130217
            ]
        },
        {
            "positions": [
                0.9466778462611807,
                -0.979183785018156,
                0.023618064260549687,
                -2.210846024752842,
                0.2824531640246577,
                0.5282022580447651
            ]
        },
        {
            "positions": [
                0.8435646295653099,
                -0.9635863843034693,
                0.1379261017886495,
                -2.2498045584881154,
                0.39147669773756033,
                0.5332718159765084
            ]
        },
        {
            "positions": [
                0.7404514128694395,
                -0.9479889835887827,
                0.2522341393167491,
                -2.288763092223389,
                0.5005002314504625,
                0.5383413739082518
            ]
        },
        {
            "positions": [
                0.6373381961735691,
                -0.9323915828740962,
                0.36654217684484913,
                -2.327721625958662,
                0.6095237651633649,
                0.5434109318399952
            ]
        },
        {
            "positions": [
                0.5342249794776985,
                -0.9167941821594097,
                0.4808502143729487,
                -2.3666801596939355,
                0.7185472988762669,
                0.5484804897717386
            ]
        },
        {
            "positions": [
                0.4311117627818284,
                -0.901196781444723,
                0.5951582519010483,
                -2.405638693429209,
                0.8275708325891689,
                0.5535500477034819
            ]
        },
        {
            "positions": [
                0.32799854608595735,
                -0.8855993807300364,
                0.7094662894291484,
                -2.4445972271644827,
                0.9365943663020713,
                0.5586196056352253
            ]
        },
        {
            "positions": [
                0.2248853293900872,
                -0.87000198001535,
                0.823774326957248,
                -2.4835557608997556,
                1.0456179000149737,
                0.5636891635669687
            ]
        },
        {
            "positions": [
                0.12177211269421662,
                -0.8544045793006634,
                0.9380823644853475,
                -2.5225142946350294,
                1.1546414337278756,
                0.5687587214987121
            ]
        },
        {
            "positions": [
                0.018658895998346026,
                -0.8388071785859768,
                1.0523904020134471,
                -2.5614728283703023,
                1.263664967440778,
                0.5738282794304554
            ]
        },
        {
            "positions": [
                -0.08445432069752412,
                -0.8232097778712902,
                1.1666984395415467,
                -2.600431362105576,
                1.3726885011536805,
                0.5788978373621989
            ]
        },
        {
            "positions": [
                -0.18756753739339516,
                -0.8076123771566037,
                1.2810064770696468,
                -2.6393898958408495,
                1.4817120348665829,
                0.5839673952939423
            ]
        },
        {
            "positions": [
                -0.2906807540892653,
                -0.7920149764419171,
                1.3953145145977466,
                -2.678348429576123,
                1.5907355685794848,
                0.5890369532256856
            ]
        },
        {
            "positions": [
                -0.271840018720877,
                -0.8076997091883941,
                1.4213815786378574,
                -2.591852569590659,
                1.5242121167638074,
                0.41725212455290245
            ]
        },
        {
            "positions": [
                -0.2529992833524887,
                -0.8233844419348711,
                1.4474486426779682,
                -2.505356709605195,
                1.45768866494813,
                0.24546729588011929
            ]
        },
        {
            "positions": [
                -0.2341585479841004,
                -0.8390691746813481,
                1.4735157067180793,
                -2.4188608496197306,
                1.3911652131324526,
                0.07368246720733618
            ]
        },
        {
            "positions": [
                -0.2153178126157121,
                -0.8547539074278252,
                1.4995827707581901,
                -2.3323649896342666,
                1.3246417613167751,
                -0.09810236146544704
            ]
        },
        {
            "positions": [
                -0.19647707724732383,
                -0.8704386401743022,
                1.525649834798301,
                -2.2458691296488027,
                1.2581183095010977,
                -0.26988719013823015
            ]
        },
        {
            "positions": [
                -0.1776363418789355,
                -0.8861233729207793,
                1.5517168988384118,
                -2.1593732696633388,
                1.1915948576854203,
                -0.44167201881101326
            ]
        },
        {
            "positions": [
                -0.15879560651054722,
                -0.9018081056672562,
                1.5777839628785228,
                -2.072877409677875,
                1.1250714058697429,
                -0.6134568474837965
            ]
        },
        {
            "positions": [
                -0.1399548711421589,
                -0.9174928384137333,
                1.6038510269186337,
                -1.9863815496924104,
                1.0585479540540652,
                -0.7852416761565797
            ]
        },
        {
            "positions": [
                -0.12111413577377059,
                -0.9331775711602103,
                1.6299180909587445,
                -1.8998856897069465,
                0.9920245022383878,
                -0.9570265048293629
            ]
        },
        {
            "positions": [
                -0.10227340040538233,
                -0.9488623039066872,
                1.6559851549988553,
                -1.8133898297214825,
                0.9255010504227104,
                -1.128811333502146
            ]
        },
        {
            "positions": [
                -0.08343266503699401,
                -0.9645470366531643,
                1.6820522190389662,
                -1.7268939697360186,
                0.8589775986070329,
                -1.3005961621749291
            ]
        },
        {
            "positions": [
                -0.06459192966860572,
                -0.9802317693996413,
                1.708119283079077,
                -1.6403981097505544,
                0.7924541467913555,
                -1.4723809908477121
            ]
        },
        {
            "positions": [
                -0.0457511943002174,
                -0.9959165021461184,
                1.734186347119188,
                -1.5539022497650903,
                0.725930694975678,
                -1.6441658195204956
            ]
        },
        {
            "positions": [
                -0.02691045893182914,
                -1.0116012348925953,
                1.760253411159299,
                -1.4674063897796263,
                0.6594072431600007,
                -1.8159506481932786
            ]
        },
        {
            "positions": [
                -0.008069723563440823,
                -1.0272859676390724,
                1.7863204751994097,
                -1.3809105297941624,
                0.5928837913443232,
                -1.9877354768660616
            ]
        },
        {
            "positions": [
                0.010771011804947495,
                -1.0429707003855495,
                1.8123875392395208,
                -1.2944146698086982,
                0.5263603395286456,
                -2.159520305538845
            ]
        },
        {
            "positions": [
                0.029611747173335756,
                -1.0586554331320264,
                1.8384546032796316,
                -1.2079188098232343,
                0.4598368877129684,
                -2.331305134211628
            ]
        },
        {
            "positions": [
                0.04845248254172413,
                -1.0743401658785035,
                1.8645216673197424,
                -1.1214229498377701,
                0.39331343589729073,
                -2.5030899628844114
            ]
        },
        {
            "positions": [
                0.06729321791011239,
                -1.0900248986249805,
                1.8905887313598533,
                -1.0349270898523062,
                0.3267899840816133,
                -2.6748747915571944
            ]
        },
        {
            "positions": [
                0.08613395327850065,
                -1.1057096313714574,
                1.9166557953999641,
                -0.9484312298668423,
                0.2602665322659359,
                -2.8466596202299774
            ]
        },
        {
            "positions": [
                0.10497468864688903,
                -1.1213943641179345,
                1.9427228594400752,
                -0.8619353698813781,
                0.19374308045025845,
                -3.018444448902761
            ]
        },
        {
            "positions": [
                0.1238154240152773,
                -1.1370790968644116,
                1.968789923480186,
                -0.7754395098959141,
                0.12721962863458097,
                -3.190229277575544
            ]
        }
    ]
}{
    "goal": {
        "global_pose": {
            "orientation": {
                "w": 0.7047431468963623,
                "x": -0.7094548344612122,
                "y": 0.0024358443915843964,
                "z": -0.0022348060738295317
            },
            "position": {
                "x": 0.6094750761985779,
                "y": 0.3671506643295288,
                "z": 0.19426114857196808
            }
        },
        "name": "move_to_magneteinheit_A"
    },
    "id": "LBKPIECE_move_to_magneteinheit_A_142",
    "joint_names": [
        "shoulder_pan_joint",
        "shoulder_lift_joint",
        "elbow_joint",
        "wrist_1_joint",
        "wrist_2_joint",
        "wrist_3_joint"
    ],
    "metrics": {
        "cart_traj_len": 1.1661375180900408,
        "distance_elbow_joint": 0.23673480973478367,
        "distance_shoulder_lift_joint": 0.7591034611723051,
        "distance_shoulder_pan_joint": 1.2422462270342187,
        "distance_wrist_1_joint": 0.987312199265036,
        "distance_wrist_2_joint": 1.4440892666765943,
        "distance_wrist_3_joint": 4.314708485759741,
        "smoothness": 0.11067149327196718,
        "time": 0.677171972,
        "traj_len": 2.9973645840375642,
        "weighted_distance": 4.477165720308307
    },
    "planner": "LBKPIECE",
    "start": {
        "state": {
            "elbow_joint": 1.919643534880228,
            "shoulder_lift_joint": -1.8972525353963687,
            "shoulder_pan_joint": -1.1188672234189438,
            "wrist_1_joint": -1.5931878212786155,
            "wrist_2_joint": 1.5706036197970081,
            "wrist_3_joint": 1.118896926603594
        }
    },
    "waypoints": [
        {
            "positions": [
                -1.1188672234189438,
                -1.8972525353963687,
                1.919643534880228,
                -1.5931878212786155,
                1.5706036197970081,
                1.118896926603594
            ]
        },
        {
            "positions": [
                -1.0671921126581334,
                -1.8685301469863924,
                1.9268371308189356,
                -1.548174862763007,
                1.5089952981430435,
                0.9243263284597798
            ]
        },
        {
            "positions": [
                -1.0155170018973227,
                -1.8398077585764163,
                1.9340307267576429,
                -1.5031619042473985,
                1.4473869764890788,
                0.7297557303159656
            ]
        },
        {
            "positions": [
                -0.9638418911365123,
                -1.81108537016644,
                1.9412243226963504,
                -1.45814894573179,
                1.385778654835114,
                0.5351851321721516
            ]
        },
        {
            "positions": [
                -0.9121667803757018,
                -1.782362981756464,
                1.9484179186350579,
                -1.4131359872161815,
                1.3241703331811492,
                0.3406145340283374
            ]
        },
        {
            "positions": [
                -0.8604916696148912,
                -1.7536405933464876,
                1.9556115145737654,
                -1.368123028700573,
                1.2625620115271845,
                0.14604393588452336
            ]
        },
        {
            "positions": [
                -0.8088165588540808,
                -1.7249182049365115,
                1.9628051105124729,
                -1.3231100701849645,
                1.2009536898732198,
                -0.04852666225929081
            ]
        },
        {
            "positions": [
                -0.7571414480932701,
                -1.6961958165265352,
                1.9699987064511801,
                -1.278097111669356,
                1.1393453682192551,
                -0.24309726040310475
            ]
        },
        {
            "positions": [
                -0.7054663373324597,
                -1.6674734281165589,
                1.9771923023898876,
                -1.2330841531537475,
                1.0777370465652905,
                -0.43766785854691914
            ]
        },
        {
            "positions": [
                -0.653791226571649,
                -1.6387510397065828,
                1.9843858983285951,
                -1.188071194638139,
                1.0161287249113258,
                -0.6322384566907331
            ]
        },
        {
            "positions": [
                -0.6021161158108386,
                -1.6100286512966067,
                1.9915794942673024,
                -1.1430582361225305,
                0.954520403257361,
                -0.8268090548345473
            ]
        },
        {
            "positions": [
                -0.550441005050028,
                -1.5813062628866303,
                1.99877309020601,
                -1.0980452776069218,
                0.8929120816033962,
                -1.0213796529783614
            ]
        },
        {
            "positions": [
                -0.4987658942892176,
                -1.552583874476654,
                2.0059666861447174,
                -1.0530323190913136,
                0.8313037599494316,
                -1.2159502511221756
            ]
        },
        {
            "positions": [
                -0.4470907835284069,
                -1.523861486066678,
                2.0131602820834247,
                -1.0080193605757048,
                0.7696954382954668,
                -1.4105208492659898
            ]
        },
        {
            "positions": [
                -0.3954156727675965,
                -1.4951390976567018,
                2.0203538780221324,
                -0.9630064020600966,
                0.7080871166415021,
                -1.6050914474098035
            ]
        },
        {
            "positions": [
                -0.34374056200678593,
                -1.4664167092467255,
                2.0275474739608397,
                -0.917993443544488,
                0.6464787949875375,
                -1.7996620455536176
            ]
        },
        {
            "positions": [
                -0.2920654512459754,
                -1.4376943208367492,
                2.034741069899547,
                -0.8729804850288795,
                0.5848704733335727,
                -1.9942326436974323
            ]
        },
        {
            "positions": [
                -0.24039034048516494,
                -1.408971932426773,
                2.0419346658382547,
                -0.827967526513271,
                0.5232621516796081,
                -2.1888032418412458
            ]
        },
        {
            "positions": [
                -0.18871522972435428,
                -1.3802495440167968,
                2.049128261776962,
                -0.7829545679976625,
                0.4616538300256432,
                -2.38337383998506
            ]
        },
        {
            "positions": [
                -0.13704011896354384,
                -1.3515271556068207,
                2.0563218577156697,
                -0.737941609482054,
                0.4000455083716785,
                -2.577944438128874
            ]
        },
        {
            "positions": [
                -0.08536500820273324,
                -1.3228047671968444,
                2.063515453654377,
                -0.6929286509664455,
                0.33843718671771383,
                -2.7725150362726882
            ]
        },
        {
            "positions": [
                -0.033179005248231266,
                -1.2766408439536492,
                2.040299730914218,
                -0.714691908204662,
                0.28545647831838883,
                -2.878339166993553
            ]
        },
        {
            "positions": [
                0.019006997706270706,
                -1.230476920710454,
                2.0170840081740593,
                -0.7364551654428786,
                0.23247576991906385,
                -2.984163297714418
            ]
        },
        {
            "positions": [
                0.07119300066077267,
                -1.1843129974672588,
                1.993868285433901,
                -0.7582184226810951,
                0.17949506151973887,
                -3.0899874284352826
            ]
        },
        {
            "positions": [
                0.12337900361527467,
                -1.1381490742240636,
                1.9706525626937421,
                -0.7799816799193116,
                0.12651435312041387,
                -3.1958115591561476
            ]
        }
    ]
}