{
    "goal": {
        "global_pose": {
            "orientation": {
                "w": 0.7047431468963623,
                "x": -0.7094548344612122,
                "y": 0.0024358443915843964,
                "z": -0.0022348060738295317
            },
            "position": {
                "x": 0.6094750761985779,
                "y": 0.3671506643295288,
                "z": 0.19426114857196808
            }
        },
        "name": "move_to_magneteinheit_A"
    },
    "id": "LBKPIECE_move_to_magneteinheit_A_138",
    "joint_names": [
        "shoulder_pan_joint",
        "shoulder_lift_joint",
        "elbow_joint",
        "wrist_1_joint",
        "wrist_2_joint",
        "wrist_3_joint"
    ],
    "metrics": {
        "cart_traj_len": 3.8141831506108392,
        "distance_elbow_joint": 3.9073040490312447,
        "distance_shoulder_lift_joint": 0.3745054525381344,
        "distance_shoulder_pan_joint": 3.0688950510945667,
        "distance_wrist_1_joint": 0.7285303643042731,
        "distance_wrist_2_joint": 1.7025296037245767,
        "distance_wrist_3_joint": 3.577819746984199,
        "smoothness": 0.13064536204749633,
        "time": 0.28600017,
        "traj_len": 3.65507650640544,
        "weighted_distance": 4.790227941306576
    },
    "planner": "LBKPIECE",
    "start": {
        "state": {
            "elbow_joint": -1.919618573717145,
            "shoulder_lift_joint": -1.2443395971678275,
            "shoulder_pan_joint": 2.6996025300909787,
            "wrist_1_joint": -1.548550951253194,
            "wrist_2_joint": -1.5709469090946802,
            "wrist_3_joint": 0.4420197732051276
        }
    },
    "waypoints": [
        {
            "positions": [
                2.6996025300909787,
                -1.2443395971678275,
                -1.919618573717145,
                -1.548550951253194,
                -1.5709469090946802,
                0.4420197732051276
            ]
        },
        {
            "positions": [
                2.5987665850245607,
                -1.2359259368721551,
                -1.8037839421044775,
                -1.5243201906627786,
                -1.5159520341839772,
                0.3524530914823685
            ]
        },
        {
            "positions": [
                2.497930639958143,
                -1.2275122765764825,
                -1.6879493104918102,
                -1.500089430072363,
                -1.460957159273274,
                0.26288640975960936
            ]
        },
        {
            "positions": [
                2.397094694891725,
                -1.2190986162808102,
                -1.5721146788791427,
                -1.4758586694819475,
                -1.405962284362571,
                0.17331972803685025
            ]
        },
        {
            "positions": [
                2.2962587498253075,
                -1.2106849559851378,
                -1.4562800472664754,
                -1.451627908891532,
                -1.350967409451868,
                0.08375304631409114
            ]
        },
        {
            "positions": [
                2.1954228047588895,
                -1.2022712956894654,
                -1.340445415653808,
                -1.4273971483011165,
                -1.295972534541165,
                -0.0058136354086680275
            ]
        },
        {
            "positions": [
                2.0945868596924715,
                -1.1938576353937929,
                -1.2246107840411407,
                -1.403166387710701,
                -1.2409776596304618,
                -0.09538031713142708
            ]
        },
        {
            "positions": [
                1.993750914626054,
                -1.1854439750981205,
                -1.1087761524284732,
                -1.3789356271202857,
                -1.1859827847197588,
                -0.18494699885418625
            ]
        },
        {
            "positions": [
                1.892914969559636,
                -1.1770303148024481,
                -0.9929415208158058,
                -1.3547048665298702,
                -1.1309879098090558,
                -0.2745136805769453
            ]
        },
        {
            "positions": [
                1.792079024493218,
                -1.1686166545067755,
                -0.8771068892031384,
                -1.3304741059394547,
                -1.0759930348983526,
                -0.3640803622997046
            ]
        },
        {
            "positions": [
                1.6912430794268003,
                -1.1602029942111032,
                -0.7612722575904709,
                -1.3062433453490392,
                -1.0209981599876496,
                -0.45364704402246364
            ]
        },
        {
            "positions": [
                1.5904071343603825,
                -1.1517893339154308,
                -0.6454376259778036,
                -1.2820125847586237,
                -0.9660032850769467,
                -0.5432137257452228
            ]
        },
        {
            "positions": [
                1.4895711892939647,
                -1.1433756736197584,
                -0.5296029943651361,
                -1.2577818241682082,
                -0.9110084101662436,
                -0.6327804074679817
            ]
        },
        {
            "positions": [
                1.3887352442275467,
                -1.1349620133240859,
                -0.41376836275246864,
                -1.2335510635777927,
                -0.8560135352555405,
                -0.7223470891907409
            ]
        },
        {
            "positions": [
                1.2878992991611289,
                -1.1265483530284135,
                -0.29793373113980137,
                -1.2093203029873771,
                -0.8010186603448375,
                -0.8119137709135
            ]
        },
        {
            "positions": [
                1.187063354094711,
                -1.1181346927327411,
                -0.1820990995271341,
                -1.1850895423969616,
                -0.7460237854341345,
                -0.9014804526362592
            ]
        },
        {
            "positions": [
                1.0862274090282933,
                -1.1097210324370685,
                -0.06626446791446661,
                -1.1608587818065461,
                -0.6910289105234314,
                -0.9910471343590181
            ]
        },
        {
            "positions": [
                0.9853914639618755,
                -1.1013073721413962,
                0.049570163698200664,
                -1.1366280212161306,
                -0.6360340356127284,
                -1.0806138160817773
            ]
        },
        {
            "positions": [
                0.8845555188954575,
                -1.0928937118457238,
                0.16540479531086816,
                -1.112397260625715,
                -0.5810391607020252,
                -1.1701804978045367
            ]
        },
        {
            "positions": [
                0.7837195738290397,
                -1.0844800515500514,
                0.28123942692353565,
                -1.0881665000352996,
                -0.5260442857913221,
                -1.2597471795272956
            ]
        },
        {
            "positions": [
                0.6828836287626219,
                -1.0760663912543789,
                0.39707405853620314,
                -1.0639357394448843,
                -0.47104941088061913,
                -1.3493138612500548
            ]
        },
        {
            "positions": [
                0.5820476836962039,
                -1.0676527309587065,
                0.5129086901488706,
                -1.0397049788544686,
                -0.41605453596991615,
                -1.438880542972814
            ]
        },
        {
            "positions": [
                0.4812117386297863,
                -1.0592390706630341,
                0.6287433217615377,
                -1.0154742182640533,
                -0.36105966105921317,
                -1.528447224695573
            ]
        },
        {
            "positions": [
                0.38037579356336826,
                -1.0508254103673615,
                0.7445779533742052,
                -0.9912434576736376,
                -0.3060647861485102,
                -1.6180139064183319
            ]
        },
        {
            "positions": [
                0.2795398484969507,
                -1.0424117500716892,
                0.8604125849868727,
                -0.9670126970832222,
                -0.251069911237807,
                -1.707580588141091
            ]
        },
        {
            "positions": [
                0.17870390343053266,
                -1.0339980897760168,
                0.9762472165995402,
                -0.9427819364928066,
                -0.196075036327104,
                -1.7971472698638506
            ]
        },
        {
            "positions": [
                0.07786795836411464,
                -1.0255844294803445,
                1.0920818482122077,
                -0.9185511759023912,
                -0.14108016141640078,
                -1.8867139515866094
            ]
        },
        {
            "positions": [
                -0.022967986702302934,
                -1.0171707691846719,
                1.2079164798248747,
                -0.8943204153119757,
                -0.0860852865056978,
                -1.9762806333093685
            ]
        },
        {
            "positions": [
                -0.12380393176872106,
                -1.0087571088889995,
                1.323751111437542,
                -0.8700896547215602,
                -0.031090411594994816,
                -2.0658473150321277
            ]
        },
        {
            "positions": [
                -0.08688534627479154,
                -1.0314087110486323,
                1.4237384712222825,
                -0.8639196399110461,
                -0.0078031536909402704,
                -2.225095660216324
            ]
        },
        {
            "positions": [
                -0.04996676078086201,
                -1.0540603132082653,
                1.523725831007023,
                -0.857749625100532,
                0.015484104213114275,
                -2.3843440054005205
            ]
        },
        {
            "positions": [
                -0.013048175286932473,
                -1.0767119153678983,
                1.6237131907917635,
                -0.8515796102900179,
                0.03877136211716882,
                -2.543592350584717
            ]
        },
        {
            "positions": [
                0.02387041020699704,
                -1.0993635175275311,
                1.723700550576504,
                -0.8454095954795039,
                0.062058620021223365,
                -2.7028406957689133
            ]
        },
        {
            "positions": [
                0.06078899570092661,
                -1.122015119687164,
                1.8236879103612444,
                -0.8392395806689897,
                0.08534587792527791,
                -2.8620890409531095
            ]
        },
        {
            "positions": [
                0.0977075811948561,
                -1.144666721846797,
                1.923675270145985,
                -0.8330695658584757,
                0.10863313582933246,
                -3.021337386137306
            ]
        },
        {
            "positions": [
                0.12168465746614725,
                -1.147680073148306,
                1.9876854753141007,
                -0.8461185447680304,
                0.13158269462989616,
                -3.135799973779071
            ]
        }
    ]
}{
    "goal": {
        "global_pose": {
            "orientation": {
                "w": 0.7047431468963623,
                "x": -0.7094548344612122,
                "y": 0.0024358443915843964,
                "z": -0.0022348060738295317
            },
            "position": {
                "x": 0.6094750761985779,
                "y": 0.3671506643295288,
                "z": 0.19426114857196808
            }
        },
        "name": "move_to_magneteinheit_A"
    },
    "id": "LBKPIECE_move_to_magneteinheit_A_138",
    "joint_names": [
        "shoulder_pan_joint",
        "shoulder_lift_joint",
        "elbow_joint",
        "wrist_1_joint",
        "wrist_2_joint",
        "wrist_3_joint"
    ],
    "metrics": {
        "cart_traj_len": 1.2058980033414162,
        "distance_elbow_joint": 0.06735523930870269,
        "distance_shoulder_lift_joint": 0.7493664029832852,
        "distance_shoulder_pan_joint": 1.241153872631713,
        "distance_wrist_1_joint": 0.7346027289010035,
        "distance_wrist_2_joint": 1.4506970773529666,
        "distance_wrist_3_joint": 4.237608585674932,
        "smoothness": 7.401486889441618e-17,
        "time": 0.33321624,
        "traj_len": 2.9121785499609403,
        "weighted_distance": 4.375077243255991
    },
    "planner": "LBKPIECE",
    "start": {
        "state": {
            "elbow_joint": 1.919643534880228,
            "shoulder_lift_joint": -1.8972525353963687,
            "shoulder_pan_joint": -1.1188672234189438,
            "wrist_1_joint": -1.5931878212786155,
            "wrist_2_joint": 1.5706036197970081,
            "wrist_3_joint": 1.118896926603594
        }
    },
    "waypoints": [
        {
            "positions": [
                -1.1188672234189438,
                -1.8972525353963687,
                1.919643534880228,
                -1.5931878212786155,
                1.5706036197970081,
                1.118896926603594
            ]
        },
        {
            "positions": [
                -1.0628575717611055,
                -1.8635291036401445,
                1.9216458817377247,
                -1.5600919706584269,
                1.504802781702405,
                0.9278402962682659
            ]
        },
        {
            "positions": [
                -1.0068479201032674,
                -1.8298056718839204,
                1.923648228595221,
                -1.5269961200382385,
                1.439001943607802,
                0.7367836659329378
            ]
        },
        {
            "positions": [
                -0.9508382684454291,
                -1.7960822401276961,
                1.9256505754527176,
                -1.4939002694180499,
                1.373201105513199,
                0.5457270355976097
            ]
        },
        {
            "positions": [
                -0.8948286167875907,
                -1.7623588083714719,
                1.9276529223102141,
                -1.4608044187978613,
                1.307400267418596,
                0.35467040526228155
            ]
        },
        {
            "positions": [
                -0.8388189651297526,
                -1.7286353766152478,
                1.9296552691677107,
                -1.4277085681776729,
                1.241599429323993,
                0.1636137749269535
            ]
        },
        {
            "positions": [
                -0.7828093134719143,
                -1.6949119448590235,
                1.931657616025207,
                -1.3946127175574843,
                1.1757985912293898,
                -0.027442855408374545
            ]
        },
        {
            "positions": [
                -0.726799661814076,
                -1.6611885131027992,
                1.9336599628827036,
                -1.3615168669372957,
                1.1099977531347869,
                -0.2184994857437026
            ]
        },
        {
            "positions": [
                -0.6707900101562377,
                -1.6274650813465752,
                1.9356623097402001,
                -1.3284210163171073,
                1.0441969150401837,
                -0.40955611607903086
            ]
        },
        {
            "positions": [
                -0.6147803584983994,
                -1.593741649590351,
                1.9376646565976967,
                -1.2953251656969187,
                0.9783960769455806,
                -0.6006127464143589
            ]
        },
        {
            "positions": [
                -0.5587707068405613,
                -1.5600182178341266,
                1.939667003455193,
                -1.26222931507673,
                0.9125952388509776,
                -0.791669376749687
            ]
        },
        {
            "positions": [
                -0.502761055182723,
                -1.5262947860779024,
                1.9416693503126896,
                -1.2291334644565417,
                0.8467944007563746,
                -0.982726007085015
            ]
        },
        {
            "positions": [
                -0.44675140352488474,
                -1.4925713543216783,
                1.9436716971701862,
                -1.196037613836353,
                0.7809935626617716,
                -1.173782637420343
            ]
        },
        {
            "positions": [
                -0.3907417518670464,
                -1.458847922565454,
                1.9456740440276825,
                -1.1629417632161645,
                0.7151927245671684,
                -1.364839267755671
            ]
        },
        {
            "positions": [
                -0.3347321002092082,
                -1.42512449080923,
                1.947676390885179,
                -1.129845912595976,
                0.6493918864725654,
                -1.5558958980909992
            ]
        },
        {
            "positions": [
                -0.27872244855136996,
                -1.3914010590530057,
                1.9496787377426756,
                -1.0967500619757875,
                0.5835910483779625,
                -1.7469525284263272
            ]
        },
        {
            "positions": [
                -0.22271279689353163,
                -1.3576776272967814,
                1.9516810846001722,
                -1.063654211355599,
                0.5177902102833594,
                -1.9380091587616557
            ]
        },
        {
            "positions": [
                -0.1667031452356934,
                -1.3239541955405572,
                1.9536834314576685,
                -1.0305583607354105,
                0.45198937218875623,
                -2.129065789096983
            ]
        },
        {
            "positions": [
                -0.11069349357785496,
                -1.2902307637843329,
                1.955685778315165,
                -0.9974625101152219,
                0.3861885340941531,
                -2.3201224194323116
            ]
        },
        {
            "positions": [
                -0.05468384192001685,
                -1.2565073320281088,
                1.9576881251726617,
                -0.9643666594950334,
                0.3203876959995502,
                -2.51117904976764
            ]
        },
        {
            "positions": [
                0.0013258097378212597,
                -1.2227839002718848,
                1.9596904720301582,
                -0.9312708088748449,
                0.25458685790494706,
                -2.7022356801029677
            ]
        },
        {
            "positions": [
                0.057335461395659815,
                -1.1890604685156605,
                1.9616928188876546,
                -0.8981749582546563,
                0.18878601981034393,
                -2.893292310438296
            ]
        },
        {
            "positions": [
                0.11334511305349795,
                -1.1553370367594362,
                1.9636951657451511,
                -0.8650791076344678,
                0.12298518171574101,
                -3.0843489407736238
            ]
        },
        {
            "positions": [
                0.12228664921276927,
                -1.1478861324130836,
                1.9869987741889308,
                -0.8585850923776119,
                0.11990654244404159,
                -3.118711659071338
            ]
        }
    ]
}