{
    "goal": {
        "global_pose": {
            "orientation": {
                "w": 0.5084816217422485,
                "x": -0.49083608388900757,
                "y": 0.5182115435600281,
                "z": -0.4816462993621826
            },
            "position": {
                "x": 0.5540239810943604,
                "y": 0.030875300988554955,
                "z": 0.16403168439865112
            }
        },
        "name": "move_to_storage_A"
    },
    "id": "LBKPIECE_move_to_storage_A_65",
    "joint_names": [
        "shoulder_pan_joint",
        "shoulder_lift_joint",
        "elbow_joint",
        "wrist_1_joint",
        "wrist_2_joint",
        "wrist_3_joint"
    ],
    "metrics": {
        "cart_traj_len": 0.35278510630711446,
        "distance_elbow_joint": 0.4545609198268421,
        "distance_shoulder_lift_joint": 0.23370230347254783,
        "distance_shoulder_pan_joint": 0.46066968858564633,
        "distance_wrist_1_joint": 0.26273707259698365,
        "distance_wrist_2_joint": 1.1012347993102272,
        "distance_wrist_3_joint": 0.10476944365525576,
        "smoothness": 0.0,
        "time": 0.38207621399999997,
        "traj_len": 1.617922812574043,
        "weighted_distance": 2.0472383805178196
    },
    "planner": "LBKPIECE",
    "start": {
        "state": {
            "elbow_joint": 1.9715477243005601,
            "shoulder_lift_joint": -1.1394853015351272,
            "shoulder_pan_joint": 0.12281154014795169,
            "wrist_1_joint": -0.7804696478968182,
            "wrist_2_joint": 0.12958648046900423,
            "wrist_3_joint": -3.192491284697111
        }
    },
    "waypoints": [
        {
            "positions": [
                0.12281154014795169,
                -1.1394853015351272,
                1.9715477243005601,
                -0.7804696478968182,
                0.12958648046900423,
                -3.192491284697111
            ]
        },
        {
            "positions": [
                0.0570015846357165,
                -1.1728713448883483,
                2.0364849985615376,
                -0.818003515410673,
                0.2869057375133224,
                -3.177524221317789
            ]
        },
        {
            "positions": [
                -0.008808370876518687,
                -1.2062573882415695,
                2.101422272822515,
                -0.8555373829245277,
                0.44422499455764053,
                -3.162557157938467
            ]
        },
        {
            "positions": [
                -0.07461832638875386,
                -1.2396434315947906,
                2.1663595470834927,
                -0.8930712504383825,
                0.6015442516019587,
                -3.1475900945591446
            ]
        },
        {
            "positions": [
                -0.14042828190098905,
                -1.2730294749480116,
                2.2312968213444697,
                -0.9306051179522374,
                0.7588635086462768,
                -3.132623031179822
            ]
        },
        {
            "positions": [
                -0.20623823741322428,
                -1.3064155183012327,
                2.2962340956054472,
                -0.9681389854660922,
                0.9161827656905951,
                -3.1176559678005
            ]
        },
        {
            "positions": [
                -0.2720481929254594,
                -1.3398015616544539,
                2.3611713698664247,
                -1.005672852979947,
                1.073502022734913,
                -3.1026889044211776
            ]
        },
        {
            "positions": [
                -0.3378581484376946,
                -1.373187605007675,
                2.4261086441274022,
                -1.0432067204938018,
                1.2308212797792313,
                -3.0877218410418554
            ]
        }
    ]
}