{
    "goal": {
        "global_pose": {
            "orientation": {
                "w": 0.7047431468963623,
                "x": -0.7094548344612122,
                "y": 0.0024358443915843964,
                "z": -0.0022348060738295317
            },
            "position": {
                "x": 0.6094750761985779,
                "y": 0.3671506643295288,
                "z": 0.19426114857196808
            }
        },
        "name": "move_to_magneteinheit_A"
    },
    "id": "LBKPIECE_move_to_magneteinheit_A_3",
    "joint_names": [
        "shoulder_pan_joint",
        "shoulder_lift_joint",
        "elbow_joint",
        "wrist_1_joint",
        "wrist_2_joint",
        "wrist_3_joint"
    ],
    "metrics": {
        "cart_traj_len": 3.3125706787982736,
        "distance_elbow_joint": 3.9283116359303545,
        "distance_shoulder_lift_joint": 0.6427527155314663,
        "distance_shoulder_pan_joint": 2.880068315078137,
        "distance_wrist_1_joint": 3.5210362762438274,
        "distance_wrist_2_joint": 2.0954002373224965,
        "distance_wrist_3_joint": 0.7726996599729176,
        "smoothness": 0.16470453215606604,
        "time": 0.089746675,
        "traj_len": 3.7202511797026814,
        "weighted_distance": 4.582805327917755
    },
    "planner": "LBKPIECE",
    "start": {
        "state": {
            "elbow_joint": -1.919618573717145,
            "shoulder_lift_joint": -1.2443395971678275,
            "shoulder_pan_joint": 2.6996025300909787,
            "wrist_1_joint": -1.548550951253194,
            "wrist_2_joint": -1.5709469090946802,
            "wrist_3_joint": 0.4420197732051276
        }
    },
    "waypoints": [
        {
            "positions": [
                2.6996025300909787,
                -1.2443395971678275,
                -1.919618573717145,
                -1.548550951253194,
                -1.5709469090946802,
                0.4420197732051276
            ]
        },
        {
            "positions": [
                2.573656826520054,
                -1.248878088649557,
                -1.80632158458512,
                -1.4982045745284829,
                -1.4937642632282366,
                0.42639309624888017
            ]
        },
        {
            "positions": [
                2.4477111229491295,
                -1.2534165801312862,
                -1.6930245954530947,
                -1.4478581978037715,
                -1.416581617361793,
                0.4107664192926327
            ]
        },
        {
            "positions": [
                2.3217654193782047,
                -1.2579550716130157,
                -1.5797276063210697,
                -1.3975118210790602,
                -1.3393989714953498,
                0.39513974233638527
            ]
        },
        {
            "positions": [
                2.19581971580728,
                -1.2624935630947451,
                -1.4664306171890444,
                -1.347165444354349,
                -1.2622163256289063,
                0.3795130653801378
            ]
        },
        {
            "positions": [
                2.0698740122363555,
                -1.2670320545764746,
                -1.3531336280570194,
                -1.2968190676296376,
                -1.1850336797624628,
                0.3638863884238904
            ]
        },
        {
            "positions": [
                1.9439283086654306,
                -1.271570546058204,
                -1.2398366389249942,
                -1.2464726909049264,
                -1.1078510338960195,
                0.34825971146764295
            ]
        },
        {
            "positions": [
                1.817982605094506,
                -1.2761090375399333,
                -1.1265396497929694,
                -1.1961263141802152,
                -1.030668388029576,
                0.3326330345113955
            ]
        },
        {
            "positions": [
                1.6920369015235812,
                -1.2806475290216628,
                -1.0132426606609441,
                -1.145779937455504,
                -0.9534857421631324,
                0.31700635755514806
            ]
        },
        {
            "positions": [
                1.5660911979526566,
                -1.2851860205033923,
                -0.8999456715289189,
                -1.0954335607307926,
                -0.8763030962966889,
                0.30137968059890063
            ]
        },
        {
            "positions": [
                1.440145494381732,
                -1.2897245119851215,
                -0.7866486823968939,
                -1.0450871840060814,
                -0.7991204504302455,
                0.28575300364265316
            ]
        },
        {
            "positions": [
                1.3141997908108072,
                -1.294263003466851,
                -0.6733516932648687,
                -0.99474080728137,
                -0.721937804563802,
                0.2701263266864057
            ]
        },
        {
            "positions": [
                1.1882540872398828,
                -1.2988014949485804,
                -0.5600547041328436,
                -0.9443944305566588,
                -0.6447551586973586,
                0.25449964973015826
            ]
        },
        {
            "positions": [
                1.062308383668958,
                -1.30333998643031,
                -0.4467577150008186,
                -0.8940480538319475,
                -0.567572512830915,
                0.2388729727739108
            ]
        },
        {
            "positions": [
                0.9363626800980334,
                -1.3078784779120394,
                -0.3334607258687936,
                -0.8437016771072363,
                -0.49038986696447173,
                0.2232462958176634
            ]
        },
        {
            "positions": [
                0.8104169765271085,
                -1.3124169693937686,
                -0.22016373673676837,
                -0.793355300382525,
                -0.4132072210980282,
                0.20761961886141594
            ]
        },
        {
            "positions": [
                0.6844712729561837,
                -1.316955460875498,
                -0.10686674760474313,
                -0.7430089236578137,
                -0.3360245752315847,
                0.19199294190516847
            ]
        },
        {
            "positions": [
                0.5585255693852593,
                -1.3214939523572276,
                0.006430241527281888,
                -0.6926625469331025,
                -0.25884192936514117,
                0.17636626494892105
            ]
        },
        {
            "positions": [
                0.4325798658143345,
                -1.3260324438389568,
                0.11972723065930713,
                -0.6423161702083912,
                -0.18165928349869764,
                0.16073958799267363
            ]
        },
        {
            "positions": [
                0.3066341622434101,
                -1.3305709353206863,
                0.23302421979133192,
                -0.59196979348368,
                -0.10447663763225434,
                0.1451129110364262
            ]
        },
        {
            "positions": [
                0.18068845867248512,
                -1.3351094268024157,
                0.34632120892335727,
                -0.5416234167589686,
                -0.027293991765810863,
                0.12948623408017873
            ]
        },
        {
            "positions": [
                0.16159750934797265,
                -1.307317514879228,
                0.4738414077108082,
                -0.38299976616274567,
                -0.007122678828612606,
                0.09978335326616254
            ]
        },
        {
            "positions": [
                0.14250656002346018,
                -1.2795256029560402,
                0.6013616064982592,
                -0.22437611556652265,
                0.01304863410858565,
                0.07008047245214635
            ]
        },
        {
            "positions": [
                0.12341561069894771,
                -1.2517336910328527,
                0.72888180528571,
                -0.06575246497029968,
                0.0332199470457839,
                0.04037759163813018
            ]
        },
        {
            "positions": [
                0.10432466137443525,
                -1.223941779109665,
                0.856402004073161,
                0.09287118562592334,
                0.053391259982982164,
                0.01067471082411399
            ]
        },
        {
            "positions": [
                0.08523371204992278,
                -1.1961498671864772,
                0.9839222028606119,
                0.2514948362221463,
                0.07356257292018041,
                -0.0190281699899022
            ]
        },
        {
            "positions": [
                0.06614276272541032,
                -1.1683579552632894,
                1.1114424016480628,
                0.41011848681836927,
                0.09373388585737866,
                -0.048731050803918374
            ]
        },
        {
            "positions": [
                0.04705181340089784,
                -1.1405660433401017,
                1.2389626004355139,
                0.5687421374145922,
                0.11390519879457693,
                -0.07843393161793455
            ]
        },
        {
            "positions": [
                0.027960864076385372,
                -1.112774131416914,
                1.3664827992229647,
                0.7273657880108153,
                0.1340765117317752,
                -0.10813681243195075
            ]
        },
        {
            "positions": [
                0.008869914751872904,
                -1.0849822194937264,
                1.4940029980104157,
                0.8859894386070384,
                0.15424782466897347,
                -0.13783969324596695
            ]
        },
        {
            "positions": [
                -0.010221034572639565,
                -1.0571903075705387,
                1.6215231967978667,
                1.0446130892032612,
                0.17441913760617167,
                -0.16754257405998313
            ]
        },
        {
            "positions": [
                -0.029311983897152026,
                -1.029398395647351,
                1.7490433955853177,
                1.2032367397994843,
                0.19459045054336993,
                -0.19724545487399933
            ]
        },
        {
            "positions": [
                0.0009187763208489338,
                -0.9801440246989883,
                1.800973328910896,
                1.3570864568377141,
                0.1286178750064808,
                -0.17055856849524115
            ]
        },
        {
            "positions": [
                0.031149536538849894,
                -0.9308896537506256,
                1.8529032622364743,
                1.5109361738759437,
                0.06264529946959166,
                -0.143871682116483
            ]
        },
        {
            "positions": [
                0.06138029675685084,
                -0.881635282802263,
                1.9048331955620528,
                1.6647858909141735,
                -0.0033272760672974633,
                -0.11718479573772483
            ]
        },
        {
            "positions": [
                0.0916110569748518,
                -0.8323809118539003,
                1.956763128887631,
                1.818635607952403,
                -0.06929985160418661,
                -0.09049790935896665
            ]
        },
        {
            "positions": [
                0.12184181719285277,
                -0.7831265409055377,
                2.0086930622132093,
                1.972485324990633,
                -0.13527242714107576,
                -0.06381102298020848
            ]
        }
    ]
}{
    "goal": {
        "global_pose": {
            "orientation": {
                "w": 0.7047431468963623,
                "x": -0.7094548344612122,
                "y": 0.0024358443915843964,
                "z": -0.0022348060738295317
            },
            "position": {
                "x": 0.6094750761985779,
                "y": 0.3671506643295288,
                "z": 0.19426114857196808
            }
        },
        "name": "move_to_magneteinheit_A"
    },
    "id": "LBKPIECE_move_to_magneteinheit_A_3",
    "joint_names": [
        "shoulder_pan_joint",
        "shoulder_lift_joint",
        "elbow_joint",
        "wrist_1_joint",
        "wrist_2_joint",
        "wrist_3_joint"
    ],
    "metrics": {
        "cart_traj_len": 1.2033843999871077,
        "distance_elbow_joint": 0.04340892529641227,
        "distance_shoulder_lift_joint": 0.7614162024954629,
        "distance_shoulder_pan_joint": 1.242368972739772,
        "distance_wrist_1_joint": 0.8667705796187001,
        "distance_wrist_2_joint": 1.4435998217027972,
        "distance_wrist_3_joint": 4.340662043277166,
        "smoothness": 0.04816299635655538,
        "time": 0.7269075,
        "traj_len": 2.949275596672903,
        "weighted_distance": 4.437332648450659
    },
    "planner": "LBKPIECE",
    "start": {
        "state": {
            "elbow_joint": 1.919643534880228,
            "shoulder_lift_joint": -1.8972525353963687,
            "shoulder_pan_joint": -1.1188672234189438,
            "wrist_1_joint": -1.5931878212786155,
            "wrist_2_joint": 1.5706036197970081,
            "wrist_3_joint": 1.118896926603594
        }
    },
    "waypoints": [
        {
            "positions": [
                -1.1188672234189438,
                -1.8972525353963687,
                1.919643534880228,
                -1.5931878212786155,
                1.5706036197970081,
                1.118896926603594
            ]
        },
        {
            "positions": [
                -1.063382763191616,
                -1.8632731243105085,
                1.921291351285294,
                -1.554154981225615,
                1.5056945496565919,
                0.9257717963716348
            ]
        },
        {
            "positions": [
                -1.0078983029642883,
                -1.8292937132246485,
                1.92293916769036,
                -1.5151221411726146,
                1.4407854795161759,
                0.7326466661396756
            ]
        },
        {
            "positions": [
                -0.9524138427369604,
                -1.7953143021387883,
                1.9245869840954257,
                -1.4760893011196143,
                1.3758764093757596,
                0.5395215359077163
            ]
        },
        {
            "positions": [
                -0.8969293825096326,
                -1.7613348910529283,
                1.9262348005004917,
                -1.4370564610666139,
                1.3109673392353436,
                0.34639640567575714
            ]
        },
        {
            "positions": [
                -0.8414449222823048,
                -1.727355479967068,
                1.9278826169055576,
                -1.3980236210136134,
                1.2460582690949273,
                0.15327127544379793
            ]
        },
        {
            "positions": [
                -0.7859604620549769,
                -1.693376068881208,
                1.9295304333106236,
                -1.358990780960613,
                1.181149198954511,
                -0.03985385478816128
            ]
        },
        {
            "positions": [
                -0.7304760018276492,
                -1.6593966577953478,
                1.9311782497156893,
                -1.3199579409076125,
                1.116240128814095,
                -0.2329789850201205
            ]
        },
        {
            "positions": [
                -0.6749915416003214,
                -1.6254172467094876,
                1.9328260661207552,
                -1.280925100854612,
                1.0513310586736788,
                -0.4261041152520797
            ]
        },
        {
            "positions": [
                -0.6195070813729935,
                -1.5914378356236276,
                1.9344738825258212,
                -1.2418922608016119,
                0.9864219885332627,
                -0.6192292454840389
            ]
        },
        {
            "positions": [
                -0.5640226211456657,
                -1.5574584245377674,
                1.9361216989308871,
                -1.2028594207486114,
                0.9215129183928465,
                -0.8123543757159981
            ]
        },
        {
            "positions": [
                -0.5085381609183379,
                -1.5234790134519072,
                1.9377695153359529,
                -1.163826580695611,
                0.8566038482524304,
                -1.0054795059479573
            ]
        },
        {
            "positions": [
                -0.45305370069101014,
                -1.4894996023660472,
                1.9394173317410188,
                -1.1247937406426105,
                0.7916947781120143,
                -1.1986046361799165
            ]
        },
        {
            "positions": [
                -0.39756924046368225,
                -1.455520191280187,
                1.9410651481460848,
                -1.08576090058961,
                0.726785707971598,
                -1.3917297664118757
            ]
        },
        {
            "positions": [
                -0.34208478023635447,
                -1.421540780194327,
                1.9427129645511507,
                -1.0467280605366098,
                0.661876637831182,
                -1.584854896643835
            ]
        },
        {
            "positions": [
                -0.2866003200090267,
                -1.3875613691084667,
                1.9443607809562167,
                -1.0076952204836094,
                0.5969675676907659,
                -1.7779800268757942
            ]
        },
        {
            "positions": [
                -0.2311158597816988,
                -1.3535819580226067,
                1.9460085973612824,
                -0.9686623804306089,
                0.5320584975503495,
                -1.9711051571077534
            ]
        },
        {
            "positions": [
                -0.17563139955437113,
                -1.3196025469367465,
                1.9476564137663483,
                -0.9296295403776085,
                0.4671494274099335,
                -2.164230287339713
            ]
        },
        {
            "positions": [
                -0.12014693932704323,
                -1.2856231358508863,
                1.9493042301714143,
                -0.890596700324608,
                0.40224035726951723,
                -2.3573554175716716
            ]
        },
        {
            "positions": [
                -0.06466247909971545,
                -1.2516437247650263,
                1.9509520465764802,
                -0.8515638602716077,
                0.3373312871291012,
                -2.550480547803631
            ]
        },
        {
            "positions": [
                -0.009178018872387561,
                -1.2176643136791663,
                1.952599862981546,
                -0.8125310202186073,
                0.27242221698868496,
                -2.74360567803559
            ]
        },
        {
            "positions": [
                0.04630644135494033,
                -1.1836849025933058,
                1.954247679386612,
                -0.7734981801656068,
                0.20751314684826871,
                -2.9367308082675496
            ]
        },
        {
            "positions": [
                0.10179090158226793,
                -1.1497054915074458,
                1.9558954957916779,
                -0.7344653401126064,
                0.1426040767078526,
                -3.1298559384995084
            ]
        },
        {
            "positions": [
                0.12350174932082805,
                -1.1358363329009058,
                1.9630524601766404,
                -0.7425134385652975,
                0.12700379809421092,
                -3.2217651166735717
            ]
        }
    ]
}