{
    "goal": {
        "global_pose": {
            "orientation": {
                "w": 0.5084816217422485,
                "x": -0.49083608388900757,
                "y": 0.5182115435600281,
                "z": -0.4816462993621826
            },
            "position": {
                "x": 0.5540239810943604,
                "y": 0.030875300988554955,
                "z": 0.16403168439865112
            }
        },
        "name": "move_to_storage_A"
    },
    "id": "LBKPIECE_move_to_storage_A_22",
    "joint_names": [
        "shoulder_pan_joint",
        "shoulder_lift_joint",
        "elbow_joint",
        "wrist_1_joint",
        "wrist_2_joint",
        "wrist_3_joint"
    ],
    "metrics": {
        "cart_traj_len": 0.3528130931325691,
        "distance_elbow_joint": 0.4485602416027681,
        "distance_shoulder_lift_joint": 0.2345031738967498,
        "distance_shoulder_pan_joint": 0.45875522855491013,
        "distance_wrist_1_joint": 0.23940907508787246,
        "distance_wrist_2_joint": 1.1091862078766725,
        "distance_wrist_3_joint": 0.10388102060647153,
        "smoothness": 0.0,
        "time": 0.480962032,
        "traj_len": 1.6106815165095316,
        "weighted_distance": 2.0373149662737307
    },
    "planner": "LBKPIECE",
    "start": {
        "state": {
            "elbow_joint": 1.9715477243005601,
            "shoulder_lift_joint": -1.1394853015351272,
            "shoulder_pan_joint": 0.12281154014795169,
            "wrist_1_joint": -0.7804696478968182,
            "wrist_2_joint": 0.12958648046900423,
            "wrist_3_joint": -3.192491284697111
        }
    },
    "waypoints": [
        {
            "positions": [
                0.12281154014795169,
                -1.1394853015351272,
                1.9715477243005601,
                -0.7804696478968182,
                0.12958648046900423,
                -3.192491284697111
            ]
        },
        {
            "positions": [
                0.057275078925821676,
                -1.1729857549489486,
                2.035627758815241,
                -0.8146709443379428,
                0.2880416530228146,
                -3.1776511388961866
            ]
        },
        {
            "positions": [
                -0.008261382296308337,
                -1.2064862083627699,
                2.0997077933299226,
                -0.8488722407790674,
                0.44649682557662496,
                -3.1628109930952624
            ]
        },
        {
            "positions": [
                -0.07379784351843836,
                -1.2399866617765913,
                2.1637878278446037,
                -0.8830735372201921,
                0.6049519981304353,
                -3.1479708472943377
            ]
        },
        {
            "positions": [
                -0.13933430474056835,
                -1.2734871151904128,
                2.2278678623592847,
                -0.9172748336613167,
                0.7634071706842457,
                -3.133130701493413
            ]
        },
        {
            "positions": [
                -0.20487076596269838,
                -1.3069875686042343,
                2.2919478968739657,
                -0.9514761301024414,
                0.921862343238056,
                -3.1182905556924885
            ]
        },
        {
            "positions": [
                -0.2704072271848284,
                -1.3404880220180555,
                2.356027931388647,
                -0.9856774265435659,
                1.0803175157918665,
                -3.1034504098915643
            ]
        },
        {
            "positions": [
                -0.33594368840695843,
                -1.373988475431877,
                2.420107965903328,
                -1.0198787229846906,
                1.2387726883456769,
                -3.0886102640906397
            ]
        }
    ]
}