{
    "goal": {
        "global_pose": {
            "orientation": {
                "w": 0.5084816217422485,
                "x": -0.49083608388900757,
                "y": 0.5182115435600281,
                "z": -0.4816462993621826
            },
            "position": {
                "x": 0.5540239810943604,
                "y": 0.030875300988554955,
                "z": 0.16403168439865112
            }
        },
        "name": "move_to_storage_A"
    },
    "id": "LBKPIECE_move_to_storage_A_53",
    "joint_names": [
        "shoulder_pan_joint",
        "shoulder_lift_joint",
        "elbow_joint",
        "wrist_1_joint",
        "wrist_2_joint",
        "wrist_3_joint"
    ],
    "metrics": {
        "cart_traj_len": 0.35303486229775194,
        "distance_elbow_joint": 0.45033461085539983,
        "distance_shoulder_lift_joint": 0.23371895554109146,
        "distance_shoulder_pan_joint": 0.4635346004934545,
        "distance_wrist_1_joint": 0.24232404307217192,
        "distance_wrist_2_joint": 1.0905626996227755,
        "distance_wrist_3_joint": 0.10361103640850411,
        "smoothness": 0.0,
        "time": 0.410035361,
        "traj_len": 1.6075092366743642,
        "weighted_distance": 2.0308113554698655
    },
    "planner": "LBKPIECE",
    "start": {
        "state": {
            "elbow_joint": 1.9715477243005601,
            "shoulder_lift_joint": -1.1394853015351272,
            "shoulder_pan_joint": 0.12281154014795169,
            "wrist_1_joint": -0.7804696478968182,
            "wrist_2_joint": 0.12958648046900423,
            "wrist_3_joint": -3.192491284697111
        }
    },
    "waypoints": [
        {
            "positions": [
                0.12281154014795169,
                -1.1394853015351272,
                1.9715477243005601,
                -0.7804696478968182,
                0.12958648046900423,
                -3.192491284697111
            ]
        },
        {
            "positions": [
                0.05659231150602961,
                -1.172873723755283,
                2.0358812401370456,
                -0.8150873683356998,
                0.2853811518436864,
                -3.1776897080673248
            ]
        },
        {
            "positions": [
                -0.009626917135892463,
                -1.206262145975439,
                2.1002147559735316,
                -0.8497050887745816,
                0.4411758232183686,
                -3.1628881314375388
            ]
        },
        {
            "positions": [
                -0.07584614577781452,
                -1.239650568195595,
                2.164548271810017,
                -0.8843228092134633,
                0.5969704945930508,
                -3.1480865548077523
            ]
        },
        {
            "positions": [
                -0.1420653744197366,
                -1.2730389904157509,
                2.228881787646503,
                -0.918940529652345,
                0.752765165967733,
                -3.133284978177966
            ]
        },
        {
            "positions": [
                -0.2082846030616587,
                -1.3064274126359068,
                2.2932153034829885,
                -0.9535582500912267,
                0.9085598373424153,
                -3.1184834015481795
            ]
        },
        {
            "positions": [
                -0.2745038317035807,
                -1.3398158348560627,
                2.357548819319474,
                -0.9881759705301083,
                1.0643545087170976,
                -3.1036818249183935
            ]
        },
        {
            "positions": [
                -0.3407230603455028,
                -1.3732042570762186,
                2.42188233515596,
                -1.02279369096899,
                1.2201491800917799,
                -3.088880248288607
            ]
        }
    ]
}