{
    "goal": {
        "global_pose": {
            "orientation": {
                "w": 0.5084816217422485,
                "x": -0.49083608388900757,
                "y": 0.5182115435600281,
                "z": -0.4816462993621826
            },
            "position": {
                "x": 0.5540239810943604,
                "y": 0.030875300988554955,
                "z": 0.16403168439865112
            }
        },
        "name": "move_to_storage_A"
    },
    "id": "LBKPIECE_move_to_storage_A_25",
    "joint_names": [
        "shoulder_pan_joint",
        "shoulder_lift_joint",
        "elbow_joint",
        "wrist_1_joint",
        "wrist_2_joint",
        "wrist_3_joint"
    ],
    "metrics": {
        "cart_traj_len": 0.35304109167950426,
        "distance_elbow_joint": 0.45222191091999164,
        "distance_shoulder_lift_joint": 0.23248594038152115,
        "distance_shoulder_pan_joint": 0.45868109636197224,
        "distance_wrist_1_joint": 0.2589439992910064,
        "distance_wrist_2_joint": 1.110488262041621,
        "distance_wrist_3_joint": 0.09727434383528166,
        "smoothness": 8.881784197001252e-16,
        "time": 0.280967414,
        "traj_len": 1.6155790147285876,
        "weighted_distance": 2.043055677614926
    },
    "planner": "LBKPIECE",
    "start": {
        "state": {
            "elbow_joint": 1.9715477243005601,
            "shoulder_lift_joint": -1.1394853015351272,
            "shoulder_pan_joint": 0.12281154014795169,
            "wrist_1_joint": -0.7804696478968182,
            "wrist_2_joint": 0.12958648046900423,
            "wrist_3_joint": -3.192491284697111
        }
    },
    "waypoints": [
        {
            "positions": [
                0.12281154014795169,
                -1.1394853015351272,
                1.9715477243005601,
                -0.7804696478968182,
                0.12958648046900423,
                -3.192491284697111
            ]
        },
        {
            "positions": [
                0.057285669239098516,
                -1.1726975787324874,
                2.0361508544319875,
                -0.8174616477955333,
                0.28822766076066436,
                -3.1785949498634993
            ]
        },
        {
            "positions": [
                -0.008240201669754657,
                -1.2059098559298476,
                2.100753984563415,
                -0.8544536476942486,
                0.4468688410523245,
                -3.164698615029888
            ]
        },
        {
            "positions": [
                -0.07376607257860783,
                -1.2391221331272078,
                2.1653571146948423,
                -0.8914456475929637,
                0.6055100213439846,
                -3.150802280196276
            ]
        },
        {
            "positions": [
                -0.139291943487461,
                -1.2723344103245677,
                2.2299602448262696,
                -0.928437647491679,
                0.7641512016356448,
                -3.1369059453626646
            ]
        },
        {
            "positions": [
                -0.2048178143963142,
                -1.305546687521928,
                2.294563374957697,
                -0.9654296473903942,
                0.922792381927305,
                -3.123009610529053
            ]
        },
        {
            "positions": [
                -0.27034368530516734,
                -1.3387589647192881,
                2.3591665050891244,
                -1.0024216472891094,
                1.081433562218965,
                -3.1091132756954414
            ]
        },
        {
            "positions": [
                -0.33586955621402054,
                -1.3719712419166483,
                2.4237696352205518,
                -1.0394136471878246,
                1.240074742510625,
                -3.0952169408618295
            ]
        }
    ]
}