{
    "goal": {
        "global_pose": {
            "orientation": {
                "w": 0.7047431468963623,
                "x": -0.7094548344612122,
                "y": 0.0024358443915843964,
                "z": -0.0022348060738295317
            },
            "position": {
                "x": 0.6094750761985779,
                "y": 0.3671506643295288,
                "z": 0.19426114857196808
            }
        },
        "name": "move_to_magneteinheit_A"
    },
    "id": "LBKPIECE_move_to_magneteinheit_A_91",
    "joint_names": [
        "shoulder_pan_joint",
        "shoulder_lift_joint",
        "elbow_joint",
        "wrist_1_joint",
        "wrist_2_joint",
        "wrist_3_joint"
    ],
    "metrics": {
        "cart_traj_len": 3.3819792275360068,
        "distance_elbow_joint": 4.587796175446892,
        "distance_shoulder_lift_joint": 1.158622363670866,
        "distance_shoulder_pan_joint": 3.2297488861277155,
        "distance_wrist_1_joint": 4.215893964030367,
        "distance_wrist_2_joint": 1.5148905107466824,
        "distance_wrist_3_joint": 1.1663244109846165,
        "smoothness": 0.6413258850195219,
        "time": 0.588149982,
        "traj_len": 3.9841280490224125,
        "weighted_distance": 4.892515672714133
    },
    "planner": "LBKPIECE",
    "start": {
        "state": {
            "elbow_joint": -1.919618573717145,
            "shoulder_lift_joint": -1.2443395971678275,
            "shoulder_pan_joint": 2.6996025300909787,
            "wrist_1_joint": -1.548550951253194,
            "wrist_2_joint": -1.5709469090946802,
            "wrist_3_joint": 0.4420197732051276
        }
    },
    "waypoints": [
        {
            "positions": [
                2.6996025300909787,
                -1.2443395971678275,
                -1.919618573717145,
                -1.548550951253194,
                -1.5709469090946802,
                0.4420197732051276
            ]
        },
        {
            "positions": [
                2.6096025106232004,
                -1.2286925638094581,
                -1.8173494868724078,
                -1.4146804424173152,
                -1.5255499617034445,
                0.43453122798258376
            ]
        },
        {
            "positions": [
                2.5196024911554216,
                -1.2130455304510888,
                -1.7150804000276707,
                -1.280809933581436,
                -1.4801530143122088,
                0.42704268276003987
            ]
        },
        {
            "positions": [
                2.429602471687643,
                -1.1973984970927196,
                -1.6128113131829336,
                -1.146939424745557,
                -1.4347560669209731,
                0.41955413753749604
            ]
        },
        {
            "positions": [
                2.3396024522198644,
                -1.1817514637343502,
                -1.5105422263381962,
                -1.013068915909678,
                -1.3893591195297377,
                0.41206559231495216
            ]
        },
        {
            "positions": [
                2.249602432752086,
                -1.1661044303759809,
                -1.4082731394934591,
                -0.879198407073799,
                -1.343962172138502,
                0.4045770470924083
            ]
        },
        {
            "positions": [
                2.1596024132843077,
                -1.1504573970176115,
                -1.306004052648722,
                -0.74532789823792,
                -1.2985652247472663,
                0.39708850186986444
            ]
        },
        {
            "positions": [
                2.0696023938165293,
                -1.1348103636592424,
                -1.2037349658039849,
                -0.6114573894020411,
                -1.2531682773560306,
                0.3895999566473206
            ]
        },
        {
            "positions": [
                1.9796023743487505,
                -1.119163330300873,
                -1.1014658789592477,
                -0.47758688056616205,
                -1.207771329964795,
                0.3821114114247768
            ]
        },
        {
            "positions": [
                1.889602354880972,
                -1.1035162969425036,
                -0.9991967921145105,
                -0.34371637173028313,
                -1.1623743825735593,
                0.3746228662022329
            ]
        },
        {
            "positions": [
                1.7996023354131934,
                -1.0878692635841343,
                -0.8969277052697733,
                -0.209845862894404,
                -1.1169774351823238,
                0.36713432097968907
            ]
        },
        {
            "positions": [
                1.709602315945415,
                -1.0722222302257651,
                -0.7946586184250362,
                -0.07597535405852507,
                -1.0715804877910882,
                0.3596457757571452
            ]
        },
        {
            "positions": [
                1.6196022964776362,
                -1.0565751968673958,
                -0.692389531580299,
                0.057895154777354074,
                -1.0261835403998525,
                0.35215723053460135
            ]
        },
        {
            "positions": [
                1.5296022770098578,
                -1.0409281635090264,
                -0.5901204447355619,
                0.191765663613233,
                -0.9807865930086168,
                0.3446686853120575
            ]
        },
        {
            "positions": [
                1.4396022575420795,
                -1.025281130150657,
                -0.4878513578908248,
                0.3256361724491119,
                -0.9353896456173812,
                0.33718014008951364
            ]
        },
        {
            "positions": [
                1.349602238074301,
                -1.0096340967922877,
                -0.38558227104608767,
                0.45950668128499084,
                -0.8899926982261456,
                0.3296915948669698
            ]
        },
        {
            "positions": [
                1.259602218606522,
                -0.9939870634339185,
                -0.2833131842013503,
                0.59337719012087,
                -0.8445957508349099,
                0.3222030496444259
            ]
        },
        {
            "positions": [
                1.1696021991387437,
                -0.9783400300755491,
                -0.1810440973566132,
                0.7272476989567491,
                -0.7991988034436742,
                0.3147145044218821
            ]
        },
        {
            "positions": [
                1.0796021796709652,
                -0.9626929967171798,
                -0.07877501051187608,
                0.8611182077926278,
                -0.7538018560524387,
                0.30722595919933826
            ]
        },
        {
            "positions": [
                0.9896021602031868,
                -0.9470459633588105,
                0.023494076332860825,
                0.994988716628507,
                -0.708404908661203,
                0.2997374139767944
            ]
        },
        {
            "positions": [
                0.899602140735408,
                -0.9313989300004412,
                0.1257631631775984,
                1.128859225464386,
                -0.6630079612699673,
                0.2922488687542505
            ]
        },
        {
            "positions": [
                0.8096021212676296,
                -0.9157518966420719,
                0.2280322500223353,
                1.2627297343002652,
                -0.6176110138787316,
                0.28476032353170666
            ]
        },
        {
            "positions": [
                0.7196021017998511,
                -0.9001048632837025,
                0.33030133686707264,
                1.396600243136144,
                -0.5722140664874961,
                0.27727177830916283
            ]
        },
        {
            "positions": [
                0.6296020823320725,
                -0.8844578299253332,
                0.43257042371180954,
                1.530470751972023,
                -0.5268171190962605,
                0.269783233086619
            ]
        },
        {
            "positions": [
                0.5396020628642937,
                -0.8688107965669639,
                0.5348395105565469,
                1.6643412608079022,
                -0.4814201717050246,
                0.26229468786407506
            ]
        },
        {
            "positions": [
                0.4496020433965153,
                -0.8531637632085947,
                0.6371085974012842,
                1.7982117696437814,
                -0.43602322431378915,
                0.25480614264153123
            ]
        },
        {
            "positions": [
                0.35960202392873686,
                -0.8375167298502253,
                0.7393776842460212,
                1.9320822784796599,
                -0.3906262769225536,
                0.2473175974189874
            ]
        },
        {
            "positions": [
                0.29697944474557714,
                -0.8758861759118463,
                0.9160543063415567,
                1.9719027428760034,
                -0.3949278898229401,
                0.18043804255959286
            ]
        },
        {
            "positions": [
                0.23435686556241744,
                -0.9142556219734672,
                1.092730928437092,
                2.0117232072723468,
                -0.3992295027233266,
                0.11355848770019833
            ]
        },
        {
            "positions": [
                0.17173428637925775,
                -0.9526250680350882,
                1.2694075505326277,
                2.05154367166869,
                -0.4035311156237131,
                0.046678932840803794
            ]
        },
        {
            "positions": [
                0.10911170719609803,
                -0.9909945140967091,
                1.4460841726281628,
                2.091364136065034,
                -0.4078327285240996,
                -0.02020062201859074
            ]
        },
        {
            "positions": [
                0.04648912801293831,
                -1.0293639601583302,
                1.6227607947236984,
                2.1311846004613773,
                -0.4121343414244861,
                -0.0870801768779853
            ]
        },
        {
            "positions": [
                -0.016133451170221358,
                -1.067733406219951,
                1.799437416819234,
                2.1710050648577206,
                -0.41643595432487257,
                -0.1539597317373798
            ]
        },
        {
            "positions": [
                -0.07875603035338113,
                -1.1061028522815721,
                1.9761140389147691,
                2.2108255292540644,
                -0.42073756722525907,
                -0.22083928659677438
            ]
        },
        {
            "positions": [
                -0.1413786095365408,
                -1.144472298343193,
                2.1527906610103047,
                2.2506459936504077,
                -0.42503918012564557,
                -0.2877188414561689
            ]
        },
        {
            "positions": [
                -0.2040011887197005,
                -1.182841744404814,
                2.3294672831058403,
                2.290466458046751,
                -0.42934079302603206,
                -0.35459839631556345
            ]
        },
        {
            "positions": [
                -0.1496436608335281,
                -1.1150959974383683,
                2.273015563335189,
                2.227653698925014,
                -0.38003156594751925,
                -0.29298068940490923
            ]
        },
        {
            "positions": [
                -0.09528613294735569,
                -1.0473502504719223,
                2.2165638435645385,
                2.1648409398032773,
                -0.3307223388690065,
                -0.23136298249425508
            ]
        },
        {
            "positions": [
                -0.04092860506118329,
                -0.9796045035054766,
                2.1601121237938874,
                2.1020281806815406,
                -0.28141311179049366,
                -0.16974527558360086
            ]
        },
        {
            "positions": [
                0.013428922824989115,
                -0.9118587565390308,
                2.1036604040232363,
                2.0392154215598035,
                -0.23210388471198085,
                -0.10812756867294668
            ]
        },
        {
            "positions": [
                0.06778645071116154,
                -0.8441130095725848,
                2.0472086842525856,
                1.9764026624380666,
                -0.182794657633468,
                -0.04650986176229244
            ]
        },
        {
            "positions": [
                0.12214397859733392,
                -0.7763672626061391,
                1.9907569644819345,
                1.9135899033163297,
                -0.1334854305549552,
                0.015107845148361726
            ]
        }
    ]
}{
    "goal": {
        "global_pose": {
            "orientation": {
                "w": 0.7047431468963623,
                "x": -0.7094548344612122,
                "y": 0.0024358443915843964,
                "z": -0.0022348060738295317
            },
            "position": {
                "x": 0.6094750761985779,
                "y": 0.3671506643295288,
                "z": 0.19426114857196808
            }
        },
        "name": "move_to_magneteinheit_A"
    },
    "id": "LBKPIECE_move_to_magneteinheit_A_91",
    "joint_names": [
        "shoulder_pan_joint",
        "shoulder_lift_joint",
        "elbow_joint",
        "wrist_1_joint",
        "wrist_2_joint",
        "wrist_3_joint"
    ],
    "metrics": {
        "cart_traj_len": 1.2021202701572042,
        "distance_elbow_joint": 0.04704238980411546,
        "distance_shoulder_lift_joint": 0.7591673082526673,
        "distance_shoulder_pan_joint": 1.2424728400566363,
        "distance_wrist_1_joint": 0.8373182660112207,
        "distance_wrist_2_joint": 1.4360176763262578,
        "distance_wrist_3_joint": 1.946109221919113,
        "smoothness": 5.224578980782318e-16,
        "time": 0.300592407,
        "traj_len": 2.5036229153708454,
        "weighted_distance": 3.526142664236051
    },
    "planner": "LBKPIECE",
    "start": {
        "state": {
            "elbow_joint": 1.919643534880228,
            "shoulder_lift_joint": -1.8972525353963687,
            "shoulder_pan_joint": -1.1188672234189438,
            "wrist_1_joint": -1.5931878212786155,
            "wrist_2_joint": 1.5706036197970081,
            "wrist_3_joint": 1.118896926603594
        }
    },
    "waypoints": [
        {
            "positions": [
                -1.1188672234189438,
                -1.8972525353963687,
                1.919643534880228,
                -1.5931878212786155,
                1.5706036197970081,
                1.118896926603594
            ]
        },
        {
            "positions": [
                -1.0412126709154041,
                -1.849804578630577,
                1.9225836842429853,
                -1.5408554296529142,
                1.480852515026617,
                1.2405287529735385
            ]
        },
        {
            "positions": [
                -0.9635581184118643,
                -1.8023566218647853,
                1.9255238336057425,
                -1.488523038027213,
                1.3911014102562258,
                1.362160579343483
            ]
        },
        {
            "positions": [
                -0.8859035659083245,
                -1.7549086650989936,
                1.9284639829684997,
                -1.4361906464015115,
                1.3013503054858349,
                1.4837924057134275
            ]
        },
        {
            "positions": [
                -0.8082490134047848,
                -1.7074607083332018,
                1.931404132331257,
                -1.3838582547758103,
                1.2115992007154437,
                1.6054242320833723
            ]
        },
        {
            "positions": [
                -0.730594460901245,
                -1.6600127515674101,
                1.9343442816940142,
                -1.331525863150109,
                1.1218480959450525,
                1.7270560584533168
            ]
        },
        {
            "positions": [
                -0.6529399083977052,
                -1.6125647948016186,
                1.9372844310567714,
                -1.2791934715244078,
                1.0320969911746616,
                1.8486878848232613
            ]
        },
        {
            "positions": [
                -0.5752853558941655,
                -1.5651168380358267,
                1.9402245804195286,
                -1.2268610798987063,
                0.9423458864042704,
                1.970319711193206
            ]
        },
        {
            "positions": [
                -0.4976308033906257,
                -1.5176688812700352,
                1.9431647297822858,
                -1.174528688273005,
                0.8525947816338793,
                2.0919515375631503
            ]
        },
        {
            "positions": [
                -0.4199762508870859,
                -1.4702209245042432,
                1.946104879145043,
                -1.1221962966473038,
                0.7628436768634881,
                2.213583363933095
            ]
        },
        {
            "positions": [
                -0.3423216983835462,
                -1.4227729677384517,
                1.9490450285078003,
                -1.0698639050216026,
                0.673092572093097,
                2.33521519030304
            ]
        },
        {
            "positions": [
                -0.2646671458800064,
                -1.3753250109726598,
                1.9519851778705575,
                -1.0175315133959013,
                0.583341467322706,
                2.456847016672984
            ]
        },
        {
            "positions": [
                -0.18701259337646658,
                -1.3278770542068683,
                1.9549253272333147,
                -0.9651991217702,
                0.4935903625523148,
                2.5784788430429284
            ]
        },
        {
            "positions": [
                -0.10935804087292689,
                -1.2804290974410766,
                1.957865476596072,
                -0.9128667301444986,
                0.40383925778192364,
                2.700110669412873
            ]
        },
        {
            "positions": [
                -0.03170348836938719,
                -1.2329811406752849,
                1.9608056259588291,
                -0.8605343385187973,
                0.3140881530115327,
                2.821742495782818
            ]
        },
        {
            "positions": [
                0.04595106413415273,
                -1.1855331839094931,
                1.9637457753215863,
                -0.808201946893096,
                0.22433704824114153,
                2.9433743221527626
            ]
        },
        {
            "positions": [
                0.12360561663769244,
                -1.1380852271437014,
                1.9666859246843436,
                -0.7558695552673947,
                0.13458594347075029,
                3.065006148522707
            ]
        }
    ]
}