{
    "goal": {
        "global_pose": {
            "orientation": {
                "w": 0.7047431468963623,
                "x": -0.7094548344612122,
                "y": 0.0024358443915843964,
                "z": -0.0022348060738295317
            },
            "position": {
                "x": 0.6094750761985779,
                "y": 0.3671506643295288,
                "z": 0.19426114857196808
            }
        },
        "name": "move_to_magneteinheit_A"
    },
    "id": "LBKPIECE_move_to_magneteinheit_A_130",
    "joint_names": [
        "shoulder_pan_joint",
        "shoulder_lift_joint",
        "elbow_joint",
        "wrist_1_joint",
        "wrist_2_joint",
        "wrist_3_joint"
    ],
    "metrics": {
        "cart_traj_len": 3.4199075267191077,
        "distance_elbow_joint": 3.8942052155769034,
        "distance_shoulder_lift_joint": 0.11530063282812764,
        "distance_shoulder_pan_joint": 2.642158199388782,
        "distance_wrist_1_joint": 0.7540585938371822,
        "distance_wrist_2_joint": 1.693118594531979,
        "distance_wrist_3_joint": 3.619112634039344,
        "smoothness": 0.04394529088536385,
        "time": 0.7198187979999999,
        "traj_len": 3.5662240353351775,
        "weighted_distance": 4.733218389917179
    },
    "planner": "LBKPIECE",
    "start": {
        "state": {
            "elbow_joint": -1.919618573717145,
            "shoulder_lift_joint": -1.2443395971678275,
            "shoulder_pan_joint": 2.6996025300909787,
            "wrist_1_joint": -1.548550951253194,
            "wrist_2_joint": -1.5709469090946802,
            "wrist_3_joint": 0.4420197732051276
        }
    },
    "waypoints": [
        {
            "positions": [
                2.6996025300909787,
                -1.2443395971678275,
                -1.919618573717145,
                -1.548550951253194,
                -1.5709469090946802,
                0.4420197732051276
            ]
        },
        {
            "positions": [
                2.6061750277551394,
                -1.244560984469896,
                -1.8014879207682633,
                -1.5234552403944748,
                -1.5125370022871638,
                0.3501701197748349
            ]
        },
        {
            "positions": [
                2.5127475254192997,
                -1.2447823717719642,
                -1.6833572678193816,
                -1.4983595295357555,
                -1.4541270954796477,
                0.2583204663445422
            ]
        },
        {
            "positions": [
                2.4193200230834604,
                -1.2450037590740326,
                -1.5652266148704999,
                -1.473263818677036,
                -1.3957171886721313,
                0.16647081291424953
            ]
        },
        {
            "positions": [
                2.3258925207476207,
                -1.2452251463761008,
                -1.447095961921618,
                -1.4481681078183166,
                -1.337307281864615,
                0.07462115948395687
            ]
        },
        {
            "positions": [
                2.2324650184117814,
                -1.2454465336781693,
                -1.3289653089727362,
                -1.4230723969595973,
                -1.2788973750570987,
                -0.0172284939463358
            ]
        },
        {
            "positions": [
                2.139037516075942,
                -1.2456679209802377,
                -1.2108346560238545,
                -1.3979766861008778,
                -1.2204874682495825,
                -0.10907814737662852
            ]
        },
        {
            "positions": [
                2.0456100137401023,
                -1.245889308282306,
                -1.0927040030749728,
                -1.3728809752421585,
                -1.1620775614420662,
                -0.20092780080692113
            ]
        },
        {
            "positions": [
                1.952182511404263,
                -1.2461106955843744,
                -0.9745733501260911,
                -1.3477852643834392,
                -1.1036676546345499,
                -0.29277745423721385
            ]
        },
        {
            "positions": [
                1.8587550090684235,
                -1.2463320828864426,
                -0.8564426971772094,
                -1.3226895535247198,
                -1.0452577478270335,
                -0.3846271076675066
            ]
        },
        {
            "positions": [
                1.765327506732584,
                -1.246553470188511,
                -0.7383120442283275,
                -1.2975938426660005,
                -0.9868478410195173,
                -0.4764767610977992
            ]
        },
        {
            "positions": [
                1.6719000043967445,
                -1.2467748574905795,
                -0.6201813912794458,
                -1.272498131807281,
                -0.928437934212001,
                -0.5683264145280917
            ]
        },
        {
            "positions": [
                1.5784725020609052,
                -1.2469962447926477,
                -0.5020507383305641,
                -1.2474024209485617,
                -0.8700280274044848,
                -0.6601760679583846
            ]
        },
        {
            "positions": [
                1.4850449997250657,
                -1.2472176320947161,
                -0.38392008538168243,
                -1.2223067100898424,
                -0.8116181205969685,
                -0.7520257213886772
            ]
        },
        {
            "positions": [
                1.3916174973892261,
                -1.2474390193967844,
                -0.26578943243280073,
                -1.1972109992311228,
                -0.7532082137894522,
                -0.8438753748189698
            ]
        },
        {
            "positions": [
                1.2981899950533864,
                -1.2476604066988528,
                -0.1476587794839188,
                -1.1721152883724035,
                -0.6947983069819358,
                -0.9357250282492626
            ]
        },
        {
            "positions": [
                1.204762492717547,
                -1.247881794000921,
                -0.029528126535037336,
                -1.1470195775136842,
                -0.6363884001744197,
                -1.0275746816795552
            ]
        },
        {
            "positions": [
                1.1113349903817076,
                -1.2481031813029895,
                0.08860252641384458,
                -1.121923866654965,
                -0.5779784933669033,
                -1.119424335109848
            ]
        },
        {
            "positions": [
                1.0179074880458683,
                -1.248324568605058,
                0.20673317936272606,
                -1.0968281557962456,
                -0.5195685865593871,
                -1.2112739885401407
            ]
        },
        {
            "positions": [
                0.9244799857100285,
                -1.2485459559071261,
                0.324863832311608,
                -1.071732444937526,
                -0.46115867975187075,
                -1.3031236419704335
            ]
        },
        {
            "positions": [
                0.8310524833741892,
                -1.2487673432091946,
                0.4429944852604899,
                -1.0466367340788068,
                -0.4027487729443544,
                -1.394973295400726
            ]
        },
        {
            "positions": [
                0.7376249810383497,
                -1.2489887305112628,
                0.5611251382093718,
                -1.0215410232200872,
                -0.34433886613683806,
                -1.4868229488310187
            ]
        },
        {
            "positions": [
                0.6441974787025102,
                -1.2492101178133312,
                0.6792557911582533,
                -0.996445312361368,
                -0.28592895932932194,
                -1.5786726022613111
            ]
        },
        {
            "positions": [
                0.5507699763666709,
                -1.2494315051153997,
                0.7973864441071352,
                -0.9713496015026486,
                -0.2275190525218056,
                -1.670522255691604
            ]
        },
        {
            "positions": [
                0.4573424740308316,
                -1.249652892417468,
                0.9155170970560167,
                -0.9462538906439293,
                -0.16910914571428948,
                -1.7623719091218968
            ]
        },
        {
            "positions": [
                0.3639149716949919,
                -1.2498742797195364,
                1.0336477500048986,
                -0.9211581797852099,
                -0.11069923890677291,
                -1.8542215625521896
            ]
        },
        {
            "positions": [
                0.2704874693591526,
                -1.2500956670216046,
                1.15177840295378,
                -0.8960624689264906,
                -0.05228933209925679,
                -1.946071215982482
            ]
        },
        {
            "positions": [
                0.1770599670233129,
                -1.250317054323673,
                1.269909055902662,
                -0.8709667580677711,
                0.006120574708259522,
                -2.037920869412775
            ]
        },
        {
            "positions": [
                0.1553680697868409,
                -1.2323208740827427,
                1.3869880229280966,
                -0.8521385684096245,
                0.03158676024894939,
                -2.225022334566546
            ]
        },
        {
            "positions": [
                0.1336761725503689,
                -1.2143246938418124,
                1.504066989953531,
                -0.833310378751478,
                0.05705294578963925,
                -2.4121237997203178
            ]
        },
        {
            "positions": [
                0.11198427531389693,
                -1.1963285136008823,
                1.6211459569789657,
                -0.8144821890933315,
                0.08251913133032912,
                -2.5992252648740894
            ]
        },
        {
            "positions": [
                0.09029237807742493,
                -1.178332333359952,
                1.7382249240044003,
                -0.7956539994351849,
                0.10798531687101898,
                -2.7863267300278607
            ]
        },
        {
            "positions": [
                0.10671640176503913,
                -1.1596631060056715,
                1.856405782932079,
                -0.7962348204447713,
                0.11507850115415877,
                -2.9817097954310388
            ]
        },
        {
            "positions": [
                0.12314042545265332,
                -1.140993878651391,
                1.9745866418597577,
                -0.7968156414543579,
                0.12217168543729856,
                -3.1770928608342164
            ]
        }
    ]
}{
    "goal": {
        "global_pose": {
            "orientation": {
                "w": 0.7047431468963623,
                "x": -0.7094548344612122,
                "y": 0.0024358443915843964,
                "z": -0.0022348060738295317
            },
            "position": {
                "x": 0.6094750761985779,
                "y": 0.3671506643295288,
                "z": 0.19426114857196808
            }
        },
        "name": "move_to_magneteinheit_A"
    },
    "id": "LBKPIECE_move_to_magneteinheit_A_130",
    "joint_names": [
        "shoulder_pan_joint",
        "shoulder_lift_joint",
        "elbow_joint",
        "wrist_1_joint",
        "wrist_2_joint",
        "wrist_3_joint"
    ],
    "metrics": {
        "cart_traj_len": 1.2397778748012203,
        "distance_elbow_joint": 0.2386298474804811,
        "distance_shoulder_lift_joint": 0.7667671643286391,
        "distance_shoulder_pan_joint": 1.2424762337087203,
        "distance_wrist_1_joint": 0.8874067935054148,
        "distance_wrist_2_joint": 1.5719341980204153,
        "distance_wrist_3_joint": 4.383406988444175,
        "smoothness": 0.10507172187137322,
        "time": 0.6215489909999999,
        "traj_len": 3.0150657083201096,
        "weighted_distance": 4.507413470484156
    },
    "planner": "LBKPIECE",
    "start": {
        "state": {
            "elbow_joint": 1.919643534880228,
            "shoulder_lift_joint": -1.8972525353963687,
            "shoulder_pan_joint": -1.1188672234189438,
            "wrist_1_joint": -1.5931878212786155,
            "wrist_2_joint": 1.5706036197970081,
            "wrist_3_joint": 1.118896926603594
        }
    },
    "waypoints": [
        {
            "positions": [
                -1.1188672234189438,
                -1.8972525353963687,
                1.919643534880228,
                -1.5931878212786155,
                1.5706036197970081,
                1.118896926603594
            ]
        },
        {
            "positions": [
                -1.0669348962921552,
                -1.8625187945490609,
                1.91482066800278,
                -1.5509963623272645,
                1.4988135910028573,
                0.9310108404001673
            ]
        },
        {
            "positions": [
                -1.0150025691653664,
                -1.8277850537017533,
                1.909997801125332,
                -1.5088049033759132,
                1.4270235622087064,
                0.7431247541967407
            ]
        },
        {
            "positions": [
                -0.9630702420385777,
                -1.7930513128544454,
                1.9051749342478839,
                -1.4666134444245622,
                1.3552335334145555,
                0.555238667993314
            ]
        },
        {
            "positions": [
                -0.9111379149117891,
                -1.7583175720071376,
                1.900352067370436,
                -1.4244219854732112,
                1.2834435046204047,
                0.3673525817898874
            ]
        },
        {
            "positions": [
                -0.8592055877850003,
                -1.72358383115983,
                1.8955292004929878,
                -1.38223052652186,
                1.2116534758262536,
                0.17946649558646077
            ]
        },
        {
            "positions": [
                -0.8072732606582116,
                -1.688850090312522,
                1.8907063336155396,
                -1.340039067570509,
                1.139863447032103,
                -0.008419590616965955
            ]
        },
        {
            "positions": [
                -0.755340933531423,
                -1.6541163494652145,
                1.8858834667380917,
                -1.297847608619158,
                1.0680734182379519,
                -0.19630567682039257
            ]
        },
        {
            "positions": [
                -0.7034086064046342,
                -1.6193826086179066,
                1.8810605998606436,
                -1.2556561496678067,
                0.9962833894438011,
                -0.3841917630238192
            ]
        },
        {
            "positions": [
                -0.6514762792778455,
                -1.584648867770599,
                1.8762377329831954,
                -1.2134646907164557,
                0.9244933606496503,
                -0.5720778492272458
            ]
        },
        {
            "positions": [
                -0.5995439521510568,
                -1.5499151269232911,
                1.8714148661057475,
                -1.1712732317651047,
                0.8527033318554993,
                -0.7599639354306724
            ]
        },
        {
            "positions": [
                -0.547611625024268,
                -1.5151813860759833,
                1.8665919992282993,
                -1.1290817728137534,
                0.7809133030613484,
                -0.9478500216340995
            ]
        },
        {
            "positions": [
                -0.49567929789747933,
                -1.4804476452286757,
                1.8617691323508514,
                -1.0868903138624024,
                0.7091232742671976,
                -1.1357361078375259
            ]
        },
        {
            "positions": [
                -0.4437469707706906,
                -1.4457139043813678,
                1.8569462654734032,
                -1.0446988549110512,
                0.6373332454730466,
                -1.3236221940409527
            ]
        },
        {
            "positions": [
                -0.39181464364390195,
                -1.41098016353406,
                1.852123398595955,
                -1.0025073959597002,
                0.5655432166788958,
                -1.511508280244379
            ]
        },
        {
            "positions": [
                -0.3398823165171132,
                -1.3762464226867523,
                1.8473005317185072,
                -0.9603159370083492,
                0.49375318788474476,
                -1.699394366447806
            ]
        },
        {
            "positions": [
                -0.28794998939032457,
                -1.3415126818394445,
                1.842477664841059,
                -0.9181244780569982,
                0.4219631590905941,
                -1.8872804526512323
            ]
        },
        {
            "positions": [
                -0.23601766226353582,
                -1.3067789409921367,
                1.8376547979636109,
                -0.875933019105647,
                0.35017313029644304,
                -2.075166538854659
            ]
        },
        {
            "positions": [
                -0.18408533513674707,
                -1.272045200144829,
                1.832831931086163,
                -0.8337415601542959,
                0.2783831015022924,
                -2.2630526250580854
            ]
        },
        {
            "positions": [
                -0.13215300800995833,
                -1.2373114592975212,
                1.8280090642087148,
                -0.7915501012029448,
                0.2065930727081413,
                -2.4509387112615126
            ]
        },
        {
            "positions": [
                -0.0802206808831698,
                -1.2025777184502136,
                1.8231861973312669,
                -0.7493586422515938,
                0.13480304391399045,
                -2.638824797464939
            ]
        },
        {
            "positions": [
                -0.028288353756380863,
                -1.1678439776029057,
                1.8183633304538187,
                -0.7071671833002426,
                0.06301301511983969,
                -2.8267108836683654
            ]
        },
        {
            "positions": [
                0.022344100925671614,
                -1.155391108757847,
                1.864146544805176,
                -0.7067051314578953,
                0.08446087956758867,
                -2.972643943059104
            ]
        },
        {
            "positions": [
                0.07297655560772409,
                -1.1429382399127883,
                1.9099297591565332,
                -0.706243079615548,
                0.10590874401533767,
                -3.1185770024498423
            ]
        },
        {
            "positions": [
                0.12360901028977657,
                -1.1304853710677296,
                1.9557129735078904,
                -0.7057810277732006,
                0.12735660846308666,
                -3.2645100618405807
            ]
        }
    ]
}