{
    "goal": {
        "global_pose": {
            "orientation": {
                "w": 0.5084816217422485,
                "x": -0.49083608388900757,
                "y": 0.5182115435600281,
                "z": -0.4816462993621826
            },
            "position": {
                "x": 0.5540239810943604,
                "y": 0.030875300988554955,
                "z": 0.16403168439865112
            }
        },
        "name": "move_to_storage_A"
    },
    "id": "LBKPIECE_move_to_storage_A_42",
    "joint_names": [
        "shoulder_pan_joint",
        "shoulder_lift_joint",
        "elbow_joint",
        "wrist_1_joint",
        "wrist_2_joint",
        "wrist_3_joint"
    ],
    "metrics": {
        "cart_traj_len": 0.35348796087641654,
        "distance_elbow_joint": 0.45075540984737694,
        "distance_shoulder_lift_joint": 0.23351548207961925,
        "distance_shoulder_pan_joint": 0.46035196984568133,
        "distance_wrist_1_joint": 0.2533531859805852,
        "distance_wrist_2_joint": 1.1067751170764062,
        "distance_wrist_3_joint": 0.09108700045317697,
        "smoothness": 8.881784197001252e-16,
        "time": 0.461247907,
        "traj_len": 1.6111605026448628,
        "weighted_distance": 2.0342419888612544
    },
    "planner": "LBKPIECE",
    "start": {
        "state": {
            "elbow_joint": 1.9715477243005601,
            "shoulder_lift_joint": -1.1394853015351272,
            "shoulder_pan_joint": 0.12281154014795169,
            "wrist_1_joint": -0.7804696478968182,
            "wrist_2_joint": 0.12958648046900423,
            "wrist_3_joint": -3.192491284697111
        }
    },
    "waypoints": [
        {
            "positions": [
                0.12281154014795169,
                -1.1394853015351272,
                1.9715477243005601,
                -0.7804696478968182,
                0.12958648046900423,
                -3.192491284697111
            ]
        },
        {
            "positions": [
                0.05704697302714007,
                -1.17284465611793,
                2.0359413542787568,
                -0.8166629601797589,
                0.2876972114799194,
                -3.179478856060943
            ]
        },
        {
            "positions": [
                -0.008717594093671552,
                -1.2062040107007326,
                2.1003349842569534,
                -0.8528562724626997,
                0.44580794249083455,
                -3.166466427424775
            ]
        },
        {
            "positions": [
                -0.07448216121448316,
                -1.2395633652835354,
                2.16472861423515,
                -0.8890495847456403,
                0.6039186735017497,
                -3.1534539987886068
            ]
        },
        {
            "positions": [
                -0.14024672833529478,
                -1.2729227198663382,
                2.2291222442133467,
                -0.9252428970285811,
                0.7620294045126649,
                -3.1404415701524386
            ]
        },
        {
            "positions": [
                -0.2060112954561064,
                -1.306282074449141,
                2.293515874191544,
                -0.9614362093115218,
                0.9201401355235801,
                -3.1274291415162705
            ]
        },
        {
            "positions": [
                -0.271775862576918,
                -1.3396414290319436,
                2.3579095041697404,
                -0.9976295215944626,
                1.0782508665344952,
                -3.1144167128801024
            ]
        },
        {
            "positions": [
                -0.3375404296977296,
                -1.3730007836147464,
                2.422303134147937,
                -1.0338228338774034,
                1.2363615975454105,
                -3.101404284243934
            ]
        }
    ]
}