{
    "goal": {
        "global_pose": {
            "orientation": {
                "w": 0.5084816217422485,
                "x": -0.49083608388900757,
                "y": 0.5182115435600281,
                "z": -0.4816462993621826
            },
            "position": {
                "x": 0.5540239810943604,
                "y": 0.030875300988554955,
                "z": 0.16403168439865112
            }
        },
        "name": "move_to_storage_A"
    },
    "id": "LBKPIECE_move_to_storage_A_141",
    "joint_names": [
        "shoulder_pan_joint",
        "shoulder_lift_joint",
        "elbow_joint",
        "wrist_1_joint",
        "wrist_2_joint",
        "wrist_3_joint"
    ],
    "metrics": {
        "cart_traj_len": 0.3538444295271208,
        "distance_elbow_joint": 0.4481980902808429,
        "distance_shoulder_lift_joint": 0.23353640836850387,
        "distance_shoulder_pan_joint": 0.4617901843301752,
        "distance_wrist_1_joint": 0.23562015194399744,
        "distance_wrist_2_joint": 1.1036909535387078,
        "distance_wrist_3_joint": 0.09897049846494976,
        "smoothness": 2.2204460668324854e-16,
        "time": 0.13618248900000002,
        "traj_len": 1.6068000146026815,
        "weighted_distance": 2.029546350626115
    },
    "planner": "LBKPIECE",
    "start": {
        "state": {
            "elbow_joint": 1.9715477243005601,
            "shoulder_lift_joint": -1.1394853015351272,
            "shoulder_pan_joint": 0.12281154014795169,
            "wrist_1_joint": -0.7804696478968182,
            "wrist_2_joint": 0.12958648046900423,
            "wrist_3_joint": -3.192491284697111
        }
    },
    "waypoints": [
        {
            "positions": [
                0.12281154014795169,
                -1.1394853015351272,
                1.9715477243005601,
                -0.7804696478968182,
                0.12958648046900423,
                -3.192491284697111
            ]
        },
        {
            "positions": [
                0.05684151381506952,
                -1.1728476455877705,
                2.035576022912109,
                -0.8141296696031035,
                0.28725661668881963,
                -3.178352642059261
            ]
        },
        {
            "positions": [
                -0.009128512517812645,
                -1.206209989640414,
                2.099604321523658,
                -0.8477896913093889,
                0.44492675290863504,
                -3.164213999421411
            ]
        },
        {
            "positions": [
                -0.07509853885069483,
                -1.2395723336930573,
                2.163632620135207,
                -0.8814497130156742,
                0.6025968891284504,
                -3.150075356783561
            ]
        },
        {
            "positions": [
                -0.14106856518357697,
                -1.2729346777457007,
                2.227660918746756,
                -0.9151097347219596,
                0.7602670253482658,
                -3.1359367141457115
            ]
        },
        {
            "positions": [
                -0.20703859151645915,
                -1.3062970217983443,
                2.291689217358305,
                -0.9487697564282449,
                0.9179371615680813,
                -3.1217980715078615
            ]
        },
        {
            "positions": [
                -0.27300861784934133,
                -1.3396593658509877,
                2.355717515969854,
                -0.9824297781345303,
                1.0756072977878968,
                -3.1076594288700115
            ]
        },
        {
            "positions": [
                -0.3389786441822235,
                -1.373021709903631,
                2.419745814581403,
                -1.0160897998408156,
                1.2332774340077122,
                -3.0935207862321614
            ]
        }
    ]
}