{
    "goal": {
        "global_pose": {
            "orientation": {
                "w": 0.5084816217422485,
                "x": -0.49083608388900757,
                "y": 0.5182115435600281,
                "z": -0.4816462993621826
            },
            "position": {
                "x": 0.5540239810943604,
                "y": 0.030875300988554955,
                "z": 0.16403168439865112
            }
        },
        "name": "move_to_storage_A"
    },
    "id": "LBKPIECE_move_to_storage_A_119",
    "joint_names": [
        "shoulder_pan_joint",
        "shoulder_lift_joint",
        "elbow_joint",
        "wrist_1_joint",
        "wrist_2_joint",
        "wrist_3_joint"
    ],
    "metrics": {
        "cart_traj_len": 0.3528485884692474,
        "distance_elbow_joint": 0.4480569712285334,
        "distance_shoulder_lift_joint": 0.2354276065102594,
        "distance_shoulder_pan_joint": 0.4629069220784638,
        "distance_wrist_1_joint": 0.23748545483105843,
        "distance_wrist_2_joint": 1.09173842626736,
        "distance_wrist_3_joint": 0.09888114705059348,
        "smoothness": 1.1102230298998083e-15,
        "time": 0.5498217990000001,
        "traj_len": 1.6045237698352333,
        "weighted_distance": 2.02521176748652
    },
    "planner": "LBKPIECE",
    "start": {
        "state": {
            "elbow_joint": 1.9715477243005601,
            "shoulder_lift_joint": -1.1394853015351272,
            "shoulder_pan_joint": 0.12281154014795169,
            "wrist_1_joint": -0.7804696478968182,
            "wrist_2_joint": 0.12958648046900423,
            "wrist_3_joint": -3.192491284697111
        }
    },
    "waypoints": [
        {
            "positions": [
                0.12281154014795169,
                -1.1394853015351272,
                1.9715477243005601,
                -0.7804696478968182,
                0.12958648046900423,
                -3.192491284697111
            ]
        },
        {
            "positions": [
                0.0566819798510283,
                -1.1731178167508785,
                2.0355558630474935,
                -0.8143961414441122,
                0.2855491127929128,
                -3.1783654065470266
            ]
        },
        {
            "positions": [
                -0.009447580445895096,
                -1.20675033196663,
                2.099564001794427,
                -0.8483226349914063,
                0.44151174511682134,
                -3.1642395283969416
            ]
        },
        {
            "positions": [
                -0.0755771407428185,
                -1.2403828471823812,
                2.16357214054136,
                -0.8822491285387003,
                0.5974743774407298,
                -3.150113650246857
            ]
        },
        {
            "positions": [
                -0.14170670103974187,
                -1.2740153623981325,
                2.2275802792882935,
                -0.9161756220859945,
                0.7534370097646385,
                -3.135987772096772
            ]
        },
        {
            "positions": [
                -0.20783626133666527,
                -1.307647877613884,
                2.291588418035227,
                -0.9501021156332885,
                0.9093996420885471,
                -3.1218618939466873
            ]
        },
        {
            "positions": [
                -0.2739658216335887,
                -1.3412803928296353,
                2.35559655678216,
                -0.9840286091805825,
                1.0653622744124556,
                -3.1077360157966023
            ]
        },
        {
            "positions": [
                -0.3400953819305121,
                -1.3749129080453866,
                2.4196046955290935,
                -1.0179551027278766,
                1.2213249067363643,
                -3.0936101376465177
            ]
        }
    ]
}