{
    "goal": {
        "global_pose": {
            "orientation": {
                "w": 0.5084816217422485,
                "x": -0.49083608388900757,
                "y": 0.5182115435600281,
                "z": -0.4816462993621826
            },
            "position": {
                "x": 0.5540239810943604,
                "y": 0.030875300988554955,
                "z": 0.16403168439865112
            }
        },
        "name": "move_to_storage_A"
    },
    "id": "LBKPIECE_move_to_storage_A_66",
    "joint_names": [
        "shoulder_pan_joint",
        "shoulder_lift_joint",
        "elbow_joint",
        "wrist_1_joint",
        "wrist_2_joint",
        "wrist_3_joint"
    ],
    "metrics": {
        "cart_traj_len": 0.35219007901106897,
        "distance_elbow_joint": 0.44983303574966715,
        "distance_shoulder_lift_joint": 0.23282728183138812,
        "distance_shoulder_pan_joint": 0.46072576057170156,
        "distance_wrist_1_joint": 0.2477592814631736,
        "distance_wrist_2_joint": 1.0952346822005974,
        "distance_wrist_3_joint": 0.09630672035049725,
        "smoothness": 1.665334528953551e-15,
        "time": 0.40601071899999996,
        "traj_len": 1.6070739753250392,
        "weighted_distance": 2.0293580675996514
    },
    "planner": "LBKPIECE",
    "start": {
        "state": {
            "elbow_joint": 1.9715477243005601,
            "shoulder_lift_joint": -1.1394853015351272,
            "shoulder_pan_joint": 0.12281154014795169,
            "wrist_1_joint": -0.7804696478968182,
            "wrist_2_joint": 0.12958648046900423,
            "wrist_3_joint": -3.192491284697111
        }
    },
    "waypoints": [
        {
            "positions": [
                0.12281154014795169,
                -1.1394853015351272,
                1.9715477243005601,
                -0.7804696478968182,
                0.12958648046900423,
                -3.192491284697111
            ]
        },
        {
            "positions": [
                0.05699357435199433,
                -1.172746341796754,
                2.0358095865505126,
                -0.8158638309629859,
                0.2860485779262324,
                -3.178733181789897
            ]
        },
        {
            "positions": [
                -0.008824391443963034,
                -1.206007382058381,
                2.100071448800465,
                -0.8512580140291535,
                0.4425106753834606,
                -3.1649750788826836
            ]
        },
        {
            "positions": [
                -0.0746423572399204,
                -1.239268422320008,
                2.1643333110504175,
                -0.8866521970953212,
                0.5989727728406888,
                -3.1512169759754696
            ]
        },
        {
            "positions": [
                -0.14046032303587774,
                -1.2725294625816346,
                2.22859517330037,
                -0.9220463801614888,
                0.755434870297917,
                -3.1374588730682555
            ]
        },
        {
            "positions": [
                -0.20627828883183513,
                -1.3057905028432615,
                2.2928570355503224,
                -0.9574405632276565,
                0.9118969677551453,
                -3.1237007701610415
            ]
        },
        {
            "positions": [
                -0.27209625462779247,
                -1.3390515431048884,
                2.357118897800275,
                -0.9928347462938241,
                1.0683590652123733,
                -3.109942667253828
            ]
        },
        {
            "positions": [
                -0.33791422042374986,
                -1.3723125833665153,
                2.4213807600502273,
                -1.0282289293599918,
                1.2248211626696015,
                -3.096184564346614
            ]
        }
    ]
}