{
    "goal": {
        "global_pose": {
            "orientation": {
                "w": 0.5084816217422485,
                "x": -0.49083608388900757,
                "y": 0.5182115435600281,
                "z": -0.4816462993621826
            },
            "position": {
                "x": 0.5540239810943604,
                "y": 0.030875300988554955,
                "z": 0.16403168439865112
            }
        },
        "name": "move_to_storage_A"
    },
    "id": "LBKPIECE_move_to_storage_A_134",
    "joint_names": [
        "shoulder_pan_joint",
        "shoulder_lift_joint",
        "elbow_joint",
        "wrist_1_joint",
        "wrist_2_joint",
        "wrist_3_joint"
    ],
    "metrics": {
        "cart_traj_len": 0.35351825848054913,
        "distance_elbow_joint": 0.4479726239307049,
        "distance_shoulder_lift_joint": 0.23361553454641304,
        "distance_shoulder_pan_joint": 0.4625409762846361,
        "distance_wrist_1_joint": 0.23718526628154335,
        "distance_wrist_2_joint": 1.097741134395244,
        "distance_wrist_3_joint": 0.09262107644540807,
        "smoothness": 8.881784232165597e-16,
        "time": 0.451093935,
        "traj_len": 1.6036447898097475,
        "weighted_distance": 2.022830977974075
    },
    "planner": "LBKPIECE",
    "start": {
        "state": {
            "elbow_joint": 1.9715477243005601,
            "shoulder_lift_joint": -1.1394853015351272,
            "shoulder_pan_joint": 0.12281154014795169,
            "wrist_1_joint": -0.7804696478968182,
            "wrist_2_joint": 0.12958648046900423,
            "wrist_3_joint": -3.192491284697111
        }
    },
    "waypoints": [
        {
            "positions": [
                0.12281154014795169,
                -1.1394853015351272,
                1.9715477243005601,
                -0.7804696478968182,
                0.12958648046900423,
                -3.192491284697111
            ]
        },
        {
            "positions": [
                0.05673425782157511,
                -1.172858949327472,
                2.035543813433518,
                -0.81435325736561,
                0.28640664252546766,
                -3.179259702347767
            ]
        },
        {
            "positions": [
                -0.00934302450480147,
                -1.2062325971198167,
                2.099539902566476,
                -0.848236866834402,
                0.44322680458193103,
                -3.166028119998423
            ]
        },
        {
            "positions": [
                -0.07542030683117805,
                -1.2396062449121614,
                2.1635359916994337,
                -0.8821204763031939,
                0.6000469666383945,
                -3.152796537649079
            ]
        },
        {
            "positions": [
                -0.14149758915755462,
                -1.272979892704506,
                2.2275320808323915,
                -0.9160040857719858,
                0.7568671286948578,
                -3.1395649552997353
            ]
        },
        {
            "positions": [
                -0.20757487148393122,
                -1.3063535404968507,
                2.2915281699653494,
                -0.9498876952407778,
                0.9136872907513213,
                -3.1263333729503913
            ]
        },
        {
            "positions": [
                -0.2736521538103078,
                -1.3397271882891955,
                2.355524259098307,
                -0.9837713047095695,
                1.0705074528077847,
                -3.113101790601047
            ]
        },
        {
            "positions": [
                -0.3397294361366844,
                -1.3731008360815402,
                2.419520348231265,
                -1.0176549141783615,
                1.227327614864248,
                -3.099870208251703
            ]
        }
    ]
}