{
    "goal": {
        "global_pose": {
            "orientation": {
                "w": 0.7047431468963623,
                "x": -0.7094548344612122,
                "y": 0.0024358443915843964,
                "z": -0.0022348060738295317
            },
            "position": {
                "x": 0.6094750761985779,
                "y": 0.3671506643295288,
                "z": 0.19426114857196808
            }
        },
        "name": "move_to_magneteinheit_A"
    },
    "id": "LBKPIECE_move_to_magneteinheit_A_131",
    "joint_names": [
        "shoulder_pan_joint",
        "shoulder_lift_joint",
        "elbow_joint",
        "wrist_1_joint",
        "wrist_2_joint",
        "wrist_3_joint"
    ],
    "metrics": {
        "cart_traj_len": 3.110460263043275,
        "distance_elbow_joint": 3.874218554569641,
        "distance_shoulder_lift_joint": 1.0473519170939003,
        "distance_shoulder_pan_joint": 2.8266900960887336,
        "distance_wrist_1_joint": 2.256071427321166,
        "distance_wrist_2_joint": 2.430998977710421,
        "distance_wrist_3_joint": 2.740879967879919,
        "smoothness": 0.20766217122552416,
        "time": 0.176323229,
        "traj_len": 3.895665660790692,
        "weighted_distance": 5.03438588920786
    },
    "planner": "LBKPIECE",
    "start": {
        "state": {
            "elbow_joint": -1.919618573717145,
            "shoulder_lift_joint": -1.2443395971678275,
            "shoulder_pan_joint": 2.6996025300909787,
            "wrist_1_joint": -1.548550951253194,
            "wrist_2_joint": -1.5709469090946802,
            "wrist_3_joint": 0.4420197732051276
        }
    },
    "waypoints": [
        {
            "positions": [
                2.6996025300909787,
                -1.2443395971678275,
                -1.919618573717145,
                -1.548550951253194,
                -1.5709469090946802,
                0.4420197732051276
            ]
        },
        {
            "positions": [
                2.6033910647303187,
                -1.262278320544686,
                -1.784208500959274,
                -1.4889145574837666,
                -1.4919975248102502,
                0.43900092126052837
            ]
        },
        {
            "positions": [
                2.507179599369658,
                -1.2802170439215443,
                -1.6487984282014034,
                -1.429278163714339,
                -1.4130481405258202,
                0.43598206931592914
            ]
        },
        {
            "positions": [
                2.410968134008998,
                -1.2981557672984028,
                -1.5133883554435326,
                -1.3696417699449115,
                -1.3340987562413902,
                0.4329632173713299
            ]
        },
        {
            "positions": [
                2.314756668648338,
                -1.3160944906752612,
                -1.3779782826856617,
                -1.3100053761754837,
                -1.2551493719569602,
                0.4299443654267307
            ]
        },
        {
            "positions": [
                2.2185452032876776,
                -1.3340332140521196,
                -1.242568209927791,
                -1.2503689824060562,
                -1.1761999876725302,
                0.4269255134821315
            ]
        },
        {
            "positions": [
                2.1223337379270175,
                -1.3519719374289783,
                -1.10715813716992,
                -1.1907325886366287,
                -1.0972506033881002,
                0.42390666153753226
            ]
        },
        {
            "positions": [
                2.0261222725663575,
                -1.3699106608058367,
                -0.9717480644120494,
                -1.1310961948672011,
                -1.0183012191036704,
                0.42088780959293304
            ]
        },
        {
            "positions": [
                1.9299108072056972,
                -1.387849384182695,
                -0.8363379916541784,
                -1.0714598010977736,
                -0.9393518348192403,
                0.4178689576483338
            ]
        },
        {
            "positions": [
                1.833699341845037,
                -1.4057881075595535,
                -0.7009279188963078,
                -1.0118234073283459,
                -0.8604024505348105,
                0.4148501057037346
            ]
        },
        {
            "positions": [
                1.7374878764843769,
                -1.423726830936412,
                -0.5655178461384369,
                -0.9521870135589184,
                -0.7814530662503804,
                0.4118312537591354
            ]
        },
        {
            "positions": [
                1.6412764111237166,
                -1.4416655543132704,
                -0.43010777338056605,
                -0.8925506197894909,
                -0.7025036819659505,
                0.40881240181453615
            ]
        },
        {
            "positions": [
                1.5450649457630563,
                -1.4596042776901288,
                -0.2946977006226952,
                -0.8329142260200633,
                -0.6235542976815204,
                0.40579354986993693
            ]
        },
        {
            "positions": [
                1.4488534804023963,
                -1.4775430010669872,
                -0.15928762786482453,
                -0.7732778322506357,
                -0.5446049133970905,
                0.4027746979253377
            ]
        },
        {
            "positions": [
                1.3526420150417362,
                -1.4954817244438456,
                -0.023877555106953885,
                -0.7136414384812082,
                -0.4656555291126605,
                0.3997558459807385
            ]
        },
        {
            "positions": [
                1.256430549681076,
                -1.513420447820704,
                0.11153251765091698,
                -0.6540050447117807,
                -0.38670614482823074,
                0.39673699403613927
            ]
        },
        {
            "positions": [
                1.1602190843204157,
                -1.5313591711975625,
                0.24694259040878808,
                -0.594368650942353,
                -0.3077567605438005,
                0.39371814209154005
            ]
        },
        {
            "positions": [
                1.0640076189597554,
                -1.549297894574421,
                0.3823526631666587,
                -0.5347322571729254,
                -0.22880737625937053,
                0.3906992901469408
            ]
        },
        {
            "positions": [
                0.9677961535990953,
                -1.5672366179512793,
                0.5177627359245294,
                -0.47509586340349785,
                -0.14985799197494076,
                0.3876804382023416
            ]
        },
        {
            "positions": [
                0.8715846882384353,
                -1.5851753413281378,
                0.6531728086824,
                -0.4154594696340703,
                -0.07090860769051077,
                0.3846615862577424
            ]
        },
        {
            "positions": [
                0.7753732228777748,
                -1.6031140647049964,
                0.7885828814402711,
                -0.3558230758646428,
                0.008040776593919441,
                0.38164273431314316
            ]
        },
        {
            "positions": [
                0.6791617575171145,
                -1.6210527880818548,
                0.9239929541981418,
                -0.29618668209521526,
                0.08699016087834943,
                0.37862388236854394
            ]
        },
        {
            "positions": [
                0.5829502921564544,
                -1.6389915114587132,
                1.0594030269560128,
                -0.23655028832578773,
                0.1659395451627792,
                0.3756050304239447
            ]
        },
        {
            "positions": [
                0.4867388267957944,
                -1.6569302348355717,
                1.1948130997138835,
                -0.1769138945563602,
                0.2448889294472092,
                0.3725861784793455
            ]
        },
        {
            "positions": [
                0.3905273614351339,
                -1.67486895821243,
                1.3302231724717546,
                -0.11727750078693244,
                0.3238383137316394,
                0.3695673265347463
            ]
        },
        {
            "positions": [
                0.29431589607447384,
                -1.6928076815892885,
                1.4656332452296252,
                -0.05764110701750491,
                0.4027876980160692,
                0.36654847459014706
            ]
        },
        {
            "positions": [
                0.19810443071381356,
                -1.710746404966147,
                1.6010433179874959,
                0.001995286751922676,
                0.48173708230049916,
                0.36352962264554783
            ]
        },
        {
            "positions": [
                0.12298460242631462,
                -1.6981351574849204,
                1.6665930784596612,
                -0.05711700594614236,
                0.4887069869926751,
                0.4468027074439891
            ]
        },
        {
            "positions": [
                0.04786477413881568,
                -1.6855239100036936,
                1.7321428389318263,
                -0.11622929864420739,
                0.495676891684851,
                0.5300757922424304
            ]
        },
        {
            "positions": [
                0.04168186653997509,
                -1.6407906593361665,
                1.7598272776499853,
                -0.17107226766654293,
                0.4689682473707734,
                0.7356900687472114
            ]
        },
        {
            "positions": [
                0.0354989589411345,
                -1.5960574086686394,
                1.7875117163681442,
                -0.22591523668887847,
                0.44225960305669587,
                0.9413043452519925
            ]
        },
        {
            "positions": [
                0.029316051342293918,
                -1.5513241580011121,
                1.8151961550863032,
                -0.280758205711214,
                0.41555095874261827,
                1.1469186217567735
            ]
        },
        {
            "positions": [
                0.02313314374345333,
                -1.506590907333585,
                1.8428805938044621,
                -0.33560117473354956,
                0.38884231442854067,
                1.3525328982615545
            ]
        },
        {
            "positions": [
                0.01695023614461274,
                -1.461857656666058,
                1.8705650325226213,
                -0.3904441437558851,
                0.3621336701144631,
                1.5581471747663356
            ]
        },
        {
            "positions": [
                0.010767328545772156,
                -1.4171244059985306,
                1.8982494712407803,
                -0.44528711277822064,
                0.3354250258003855,
                1.7637614512711166
            ]
        },
        {
            "positions": [
                0.004584420946931567,
                -1.3723911553310035,
                1.9259339099589392,
                -0.5001300818005562,
                0.308716381486308,
                1.9693757277758976
            ]
        },
        {
            "positions": [
                -0.001598486651909023,
                -1.3276579046634764,
                1.9536183486770982,
                -0.5549730508228917,
                0.2820077371722304,
                2.1749900042806787
            ]
        },
        {
            "positions": [
                0.029773783184552954,
                -1.278193752415249,
                1.9538637567209474,
                -0.5921122637582004,
                0.24433123156766312,
                2.3877223632019806
            ]
        },
        {
            "positions": [
                0.06114605302101493,
                -1.2287296001670214,
                1.9541091647647968,
                -0.6292514766935091,
                0.20665472596309586,
                2.600454722123283
            ]
        },
        {
            "positions": [
                0.09251832285747691,
                -1.1792654479187936,
                1.954354572808646,
                -0.6663906896288178,
                0.16897822035852858,
                2.813187081044585
            ]
        },
        {
            "positions": [
                0.1238905926939389,
                -1.129801295670566,
                1.9545999808524952,
                -0.7035299025641264,
                0.13130171475396132,
                3.025919439965887
            ]
        }
    ]
}{
    "goal": {
        "global_pose": {
            "orientation": {
                "w": 0.7047431468963623,
                "x": -0.7094548344612122,
                "y": 0.0024358443915843964,
                "z": -0.0022348060738295317
            },
            "position": {
                "x": 0.6094750761985779,
                "y": 0.3671506643295288,
                "z": 0.19426114857196808
            }
        },
        "name": "move_to_magneteinheit_A"
    },
    "id": "LBKPIECE_move_to_magneteinheit_A_131",
    "joint_names": [
        "shoulder_pan_joint",
        "shoulder_lift_joint",
        "elbow_joint",
        "wrist_1_joint",
        "wrist_2_joint",
        "wrist_3_joint"
    ],
    "metrics": {
        "cart_traj_len": 5.0879422002104,
        "distance_elbow_joint": 4.802491431124745,
        "distance_shoulder_lift_joint": 1.819153795288928,
        "distance_shoulder_pan_joint": 4.2175366333382165,
        "distance_wrist_1_joint": 0.7756364182440101,
        "distance_wrist_2_joint": 1.6380922172267272,
        "distance_wrist_3_joint": 4.274681703469376,
        "smoothness": 0.337587035108062,
        "time": 0.795070333,
        "traj_len": 4.186596732274557,
        "weighted_distance": 5.337666553944848
    },
    "planner": "LBKPIECE",
    "start": {
        "state": {
            "elbow_joint": 1.919643534880228,
            "shoulder_lift_joint": -1.8972525353963687,
            "shoulder_pan_joint": -1.1188672234189438,
            "wrist_1_joint": -1.5931878212786155,
            "wrist_2_joint": 1.5706036197970081,
            "wrist_3_joint": 1.118896926603594
        }
    },
    "waypoints": [
        {
            "positions": [
                -1.1188672234189438,
                -1.8972525353963687,
                1.919643534880228,
                -1.5931878212786155,
                1.5706036197970081,
                1.118896926603594
            ]
        },
        {
            "positions": [
                -1.1760889846178133,
                -1.9177797136808457,
                1.8284886750638203,
                -1.568053674348687,
                1.5115234242327829,
                0.9832086763280741
            ]
        },
        {
            "positions": [
                -1.2333107458166825,
                -1.9383068919653224,
                1.7373338152474125,
                -1.5429195274187586,
                1.4524432286685574,
                0.8475204260525542
            ]
        },
        {
            "positions": [
                -1.290532507015552,
                -1.9588340702497993,
                1.6461789554310047,
                -1.5177853804888302,
                1.393363033104332,
                0.7118321757770343
            ]
        },
        {
            "positions": [
                -1.3477542682144212,
                -1.979361248534276,
                1.5550240956145969,
                -1.4926512335589015,
                1.3342828375401068,
                0.5761439255015145
            ]
        },
        {
            "positions": [
                -1.4049760294132907,
                -1.999888426818753,
                1.463869235798189,
                -1.467517086628973,
                1.2752026419758815,
                0.4404556752259946
            ]
        },
        {
            "positions": [
                -1.46219779061216,
                -2.0204156051032296,
                1.3727143759817813,
                -1.4423829396990446,
                1.216122446411656,
                0.3047674249504747
            ]
        },
        {
            "positions": [
                -1.5194195518110294,
                -2.0409427833877065,
                1.2815595161653734,
                -1.4172487927691162,
                1.1570422508474307,
                0.16907917467495504
            ]
        },
        {
            "positions": [
                -1.5766413130098988,
                -2.0614699616721834,
                1.1904046563489656,
                -1.3921146458391878,
                1.0979620552832055,
                0.03339092439943503
            ]
        },
        {
            "positions": [
                -1.633863074208768,
                -2.0819971399566604,
                1.0992497965325578,
                -1.3669804989092593,
                1.03888185971898,
                -0.10229732587608464
            ]
        },
        {
            "positions": [
                -1.6910848354076375,
                -2.102524318241137,
                1.00809493671615,
                -1.3418463519793309,
                0.9798016641547547,
                -0.23798557615160476
            ]
        },
        {
            "positions": [
                -1.7483065966065068,
                -2.1230514965256138,
                0.9169400768997422,
                -1.3167122050494025,
                0.9207214685905293,
                -0.37367382642712443
            ]
        },
        {
            "positions": [
                -1.8055283578053762,
                -2.1435786748100907,
                0.8257852170833344,
                -1.291578058119474,
                0.8616412730263039,
                -0.5093620767026446
            ]
        },
        {
            "positions": [
                -1.8627501190042457,
                -2.1641058530945676,
                0.7346303572669266,
                -1.2664439111895454,
                0.8025610774620786,
                -0.6450503269781642
            ]
        },
        {
            "positions": [
                -1.919971880203115,
                -2.184633031379044,
                0.6434754974505188,
                -1.2413097642596171,
                0.7434808818978533,
                -0.7807385772536839
            ]
        },
        {
            "positions": [
                -1.9771936414019842,
                -2.205160209663521,
                0.5523206376341112,
                -1.2161756173296885,
                0.6844006863336279,
                -0.9164268275292036
            ]
        },
        {
            "positions": [
                -2.0344154026008536,
                -2.225687387947998,
                0.4611657778177032,
                -1.19104147039976,
                0.6253204907694025,
                -1.052115077804724
            ]
        },
        {
            "positions": [
                -2.091637163799723,
                -2.246214566232475,
                0.3700109180012954,
                -1.1659073234698316,
                0.5662402952051773,
                -1.1878033280802438
            ]
        },
        {
            "positions": [
                -2.148858924998592,
                -2.2667417445169518,
                0.27885605818488757,
                -1.1407731765399032,
                0.507160099640952,
                -1.3234915783557633
            ]
        },
        {
            "positions": [
                -2.2060806861974616,
                -2.2872689228014282,
                0.18770119836847976,
                -1.1156390296099747,
                0.4480799040767265,
                -1.4591798286312831
            ]
        },
        {
            "positions": [
                -2.263302447396331,
                -2.307796101085905,
                0.09654633855207195,
                -1.090504882680046,
                0.3889997085125012,
                -1.5948680789068035
            ]
        },
        {
            "positions": [
                -2.3205242085952005,
                -2.328323279370382,
                0.005391478735664146,
                -1.0653707357501179,
                0.3299195129482757,
                -1.7305563291823234
            ]
        },
        {
            "positions": [
                -2.37774596979407,
                -2.348850457654859,
                -0.08576338108074366,
                -1.0402365888201892,
                0.2708393173840504,
                -1.8662445794578428
            ]
        },
        {
            "positions": [
                -2.4349677309929394,
                -2.369377635939336,
                -0.17691824089715147,
                -1.015102441890261,
                0.21175912181982515,
                -2.001932829733363
            ]
        },
        {
            "positions": [
                -2.492189492191809,
                -2.3899048142238124,
                -0.2680731007135593,
                -0.9899682949603323,
                0.15267892625559965,
                -2.1376210800088833
            ]
        },
        {
            "positions": [
                -2.5494112533906783,
                -2.4104319925082893,
                -0.3592279605299671,
                -0.9648341480304039,
                0.09359873069137437,
                -2.2733093302844027
            ]
        },
        {
            "positions": [
                -2.6066330145895473,
                -2.4309591707927662,
                -0.45038282034637467,
                -0.9397000011004755,
                0.034518535127149086,
                -2.408997580559922
            ]
        },
        {
            "positions": [
                -2.4629608650017785,
                -2.363304057114212,
                -0.32235834266752506,
                -0.9332711275180613,
                0.03988733157751064,
                -2.448302169839178
            ]
        },
        {
            "positions": [
                -2.319288715414009,
                -2.295648943435658,
                -0.19433386498867544,
                -0.926842253935647,
                0.045256128027872204,
                -2.4876067591184334
            ]
        },
        {
            "positions": [
                -2.1756165658262403,
                -2.2279938297571036,
                -0.06630938730982588,
                -0.9204133803532328,
                0.05062492447823376,
                -2.526911348397689
            ]
        },
        {
            "positions": [
                -2.031944416238471,
                -2.160338716078549,
                0.061715090369023784,
                -0.9139845067708187,
                0.05599372092859532,
                -2.5662159376769447
            ]
        },
        {
            "positions": [
                -1.8882722666507021,
                -2.092683602399995,
                0.18973956804787329,
                -0.9075556331884044,
                0.06136251737895687,
                -2.6055205269562003
            ]
        },
        {
            "positions": [
                -1.7446001170629328,
                -2.025028488721441,
                0.3177640457267229,
                -0.9011267596059902,
                0.06673131382931843,
                -2.644825116235456
            ]
        },
        {
            "positions": [
                -1.600927967475164,
                -1.9573733750428866,
                0.4457885234055725,
                -0.8946978860235759,
                0.07210011027968,
                -2.6841297055147115
            ]
        },
        {
            "positions": [
                -1.4572558178873949,
                -1.8897182613643324,
                0.5738130010844222,
                -0.8882690124411617,
                0.07746890673004156,
                -2.723434294793967
            ]
        },
        {
            "positions": [
                -1.3135836682996258,
                -1.8220631476857783,
                0.7018374787632717,
                -0.8818401388587476,
                0.08283770318040311,
                -2.7627388840732228
            ]
        },
        {
            "positions": [
                -1.1699115187118567,
                -1.754408034007224,
                0.8298619564421212,
                -0.8754112652763333,
                0.08820649963076466,
                -2.8020434733524784
            ]
        },
        {
            "positions": [
                -1.0262393691240874,
                -1.6867529203286695,
                0.957886434120971,
                -0.8689823916939191,
                0.09357529608112622,
                -2.8413480626317345
            ]
        },
        {
            "positions": [
                -0.8825672195363186,
                -1.6190978066501154,
                1.0859109117998205,
                -0.8625535181115049,
                0.09894409253148778,
                -2.88065265191099
            ]
        },
        {
            "positions": [
                -0.7388950699485493,
                -1.5514426929715612,
                1.2139353894786702,
                -0.8561246445290907,
                0.10431288898184934,
                -2.9199572411902457
            ]
        },
        {
            "positions": [
                -0.5952229203607806,
                -1.4837875792930069,
                1.3419598671575197,
                -0.8496957709466765,
                0.10968168543221089,
                -2.9592618304695013
            ]
        },
        {
            "positions": [
                -0.4515507707730113,
                -1.4161324656144527,
                1.4699843448363694,
                -0.8432668973642623,
                0.11505048188257246,
                -2.998566419748757
            ]
        },
        {
            "positions": [
                -0.30787862118524245,
                -1.3484773519358986,
                1.5980088225152191,
                -0.836838023781848,
                0.12041927833293402,
                -3.0378710090280125
            ]
        },
        {
            "positions": [
                -0.16420647159747315,
                -1.2808222382573442,
                1.7260333001940689,
                -0.8304091501994338,
                0.12578807478329557,
                -3.077175598307268
            ]
        },
        {
            "positions": [
                -0.020534322009704287,
                -1.21316712457879,
                1.8540577778729181,
                -0.8239802766170196,
                0.13115687123365713,
                -3.116480187586524
            ]
        },
        {
            "positions": [
                0.12313782757806509,
                -1.1455120109002357,
                1.9820822555517676,
                -0.8175514030346054,
                0.1365256676840187,
                -3.1557847768657794
            ]
        }
    ]
}