{
    "goal": {
        "global_pose": {
            "orientation": {
                "w": 0.7047431468963623,
                "x": -0.7094548344612122,
                "y": 0.0024358443915843964,
                "z": -0.0022348060738295317
            },
            "position": {
                "x": 0.6094750761985779,
                "y": 0.3671506643295288,
                "z": 0.19426114857196808
            }
        },
        "name": "move_to_magneteinheit_A"
    },
    "id": "LBKPIECE_move_to_magneteinheit_A_34",
    "joint_names": [
        "shoulder_pan_joint",
        "shoulder_lift_joint",
        "elbow_joint",
        "wrist_1_joint",
        "wrist_2_joint",
        "wrist_3_joint"
    ],
    "metrics": {
        "cart_traj_len": 3.4061260211316995,
        "distance_elbow_joint": 3.8824295621703904,
        "distance_shoulder_lift_joint": 0.1104416709524556,
        "distance_shoulder_pan_joint": 2.7205564559289708,
        "distance_wrist_1_joint": 1.426309775844362,
        "distance_wrist_2_joint": 1.7380318332777775,
        "distance_wrist_3_joint": 3.655652871608281,
        "smoothness": 0.14395163275742615,
        "time": 0.819513086,
        "traj_len": 3.6787799838781114,
        "weighted_distance": 4.899905052357743
    },
    "planner": "LBKPIECE",
    "start": {
        "state": {
            "elbow_joint": -1.919618573717145,
            "shoulder_lift_joint": -1.2443395971678275,
            "shoulder_pan_joint": 2.6996025300909787,
            "wrist_1_joint": -1.548550951253194,
            "wrist_2_joint": -1.5709469090946802,
            "wrist_3_joint": 0.4420197732051276
        }
    },
    "waypoints": [
        {
            "positions": [
                2.6996025300909787,
                -1.2443395971678275,
                -1.919618573717145,
                -1.548550951253194,
                -1.5709469090946802,
                0.4420197732051276
            ]
        },
        {
            "positions": [
                2.613862276493583,
                -1.242091291727761,
                -1.8124889956229626,
                -1.508824736340705,
                -1.5116164887229382,
                0.3533207966183303
            ]
        },
        {
            "positions": [
                2.5281220228961874,
                -1.2398429862876945,
                -1.7053594175287803,
                -1.469098521428216,
                -1.452286068351196,
                0.2646218200315331
            ]
        },
        {
            "positions": [
                2.442381769298792,
                -1.237594680847628,
                -1.598229839434598,
                -1.4293723065157269,
                -1.392955647979454,
                0.17592284344473585
            ]
        },
        {
            "positions": [
                2.356641515701396,
                -1.2353463754075613,
                -1.4911002613404154,
                -1.3896460916032378,
                -1.3336252276077118,
                0.08722386685793859
            ]
        },
        {
            "positions": [
                2.270901262104,
                -1.2330980699674947,
                -1.383970683246233,
                -1.3499198766907488,
                -1.2742948072359699,
                -0.00147510972885867
            ]
        },
        {
            "positions": [
                2.1851610085066047,
                -1.2308497645274281,
                -1.2768411051520507,
                -1.3101936617782597,
                -1.214964386864228,
                -0.09017408631565588
            ]
        },
        {
            "positions": [
                2.099420754909209,
                -1.2286014590873617,
                -1.1697115270578684,
                -1.2704674468657706,
                -1.1556339664924857,
                -0.17887306290245314
            ]
        },
        {
            "positions": [
                2.0136805013118133,
                -1.2263531536472951,
                -1.062581948963686,
                -1.2307412319532816,
                -1.0963035461207438,
                -0.2675720394892504
            ]
        },
        {
            "positions": [
                1.9279402477144174,
                -1.2241048482072285,
                -0.9554523708695036,
                -1.1910150170407923,
                -1.0369731257490016,
                -0.35627101607604766
            ]
        },
        {
            "positions": [
                1.842199994117022,
                -1.2218565427671622,
                -0.8483227927753212,
                -1.1512888021283032,
                -0.9776427053772595,
                -0.4449699926628449
            ]
        },
        {
            "positions": [
                1.7564597405196263,
                -1.2196082373270956,
                -0.7411932146811391,
                -1.1115625872158141,
                -0.9183122850055175,
                -0.5336689692496421
            ]
        },
        {
            "positions": [
                1.6707194869222306,
                -1.217359931887029,
                -0.6340636365869567,
                -1.071836372303325,
                -0.8589818646337755,
                -0.6223679458364393
            ]
        },
        {
            "positions": [
                1.584979233324835,
                -1.2151116264469624,
                -0.5269340584927742,
                -1.032110157390836,
                -0.7996514442620334,
                -0.7110669224232367
            ]
        },
        {
            "positions": [
                1.4992389797274392,
                -1.2128633210068958,
                -0.41980448039859186,
                -0.9923839424783469,
                -0.7403210238902913,
                -0.7997658990100338
            ]
        },
        {
            "positions": [
                1.4134987261300436,
                -1.2106150155668294,
                -0.31267490230440953,
                -0.9526577275658579,
                -0.6809906035185492,
                -0.888464875596831
            ]
        },
        {
            "positions": [
                1.327758472532648,
                -1.2083667101267628,
                -0.2055453242102272,
                -0.9129315126533688,
                -0.6216601831468073,
                -0.9771638521836283
            ]
        },
        {
            "positions": [
                1.2420182189352524,
                -1.2061184046866962,
                -0.09841574611604487,
                -0.8732052977408797,
                -0.5623297627750652,
                -1.0658628287704255
            ]
        },
        {
            "positions": [
                1.1562779653378563,
                -1.2038700992466298,
                0.008713831978137687,
                -0.8334790828283906,
                -0.502999342403323,
                -1.1545618053572229
            ]
        },
        {
            "positions": [
                1.0705377117404609,
                -1.2016217938065632,
                0.11584341007232024,
                -0.7937528679159015,
                -0.44366892203158104,
                -1.24326078194402
            ]
        },
        {
            "positions": [
                0.9847974581430652,
                -1.1993734883664966,
                0.22297298816650257,
                -0.7540266530034124,
                -0.38433850165983885,
                -1.3319597585308174
            ]
        },
        {
            "positions": [
                0.8990572045456695,
                -1.19712518292643,
                0.33010256626068446,
                -0.7143004380909234,
                -0.3250080812880969,
                -1.4206587351176145
            ]
        },
        {
            "positions": [
                0.8133169509482738,
                -1.1948768774863634,
                0.4372321443548668,
                -0.6745742231784343,
                -0.2656776609163549,
                -1.5093577117044117
            ]
        },
        {
            "positions": [
                0.7275766973508782,
                -1.192628572046297,
                0.5443617224490491,
                -0.6348480082659452,
                -0.20634724054461273,
                -1.598056688291209
            ]
        },
        {
            "positions": [
                0.6418364437534825,
                -1.1903802666062304,
                0.6514913005432315,
                -0.5951217933534562,
                -0.14701682017287077,
                -1.6867556648780062
            ]
        },
        {
            "positions": [
                0.5560961901560866,
                -1.1881319611661638,
                0.7586208786374142,
                -0.555395578440967,
                -0.08768639980112858,
                -1.7754546414648038
            ]
        },
        {
            "positions": [
                0.4703559365586911,
                -1.1858836557260974,
                0.8657504567315966,
                -0.5156693635284779,
                -0.028355979429386613,
                -1.864153618051601
            ]
        },
        {
            "positions": [
                0.3846156829612952,
                -1.1836353502860308,
                0.9728800348257789,
                -0.47594314861598885,
                0.030974440942355574,
                -1.952852594638398
            ]
        },
        {
            "positions": [
                0.29887542936389955,
                -1.1813870448459642,
                1.080009612919961,
                -0.4362169337034999,
                0.09030486131409754,
                -2.0415515712251953
            ]
        },
        {
            "positions": [
                0.2415417688938653,
                -1.1788511211063795,
                1.1957833705229417,
                -0.4522736689419792,
                0.10340968482343423,
                -2.1718411535089484
            ]
        },
        {
            "positions": [
                0.1842081084238311,
                -1.1763151973667947,
                1.3115571281259224,
                -0.4683304041804584,
                0.11651450833277091,
                -2.302130735792701
            ]
        },
        {
            "positions": [
                0.15088941153046642,
                -1.1723583833943503,
                1.4355852503634412,
                -0.5265623015020571,
                0.11113911577020147,
                -2.447769639450033
            ]
        },
        {
            "positions": [
                0.11757071463710175,
                -1.1684015694219059,
                1.5596133726009598,
                -0.5847941988236558,
                0.10576372320763201,
                -2.5934085431073655
            ]
        },
        {
            "positions": [
                0.08425201774373708,
                -1.1644447554494615,
                1.6836414948384784,
                -0.6430260961452545,
                0.10038833064506256,
                -2.7390474467646975
            ]
        },
        {
            "positions": [
                0.0509333208503724,
                -1.160487941477017,
                1.8076696170759972,
                -0.7012579934668532,
                0.09501293808249311,
                -2.8846863504220295
            ]
        },
        {
            "positions": [
                0.08888878848293325,
                -1.1464617560110457,
                1.8984378540504068,
                -0.7353672172160512,
                0.11077816911166885,
                -3.0656152979565685
            ]
        },
        {
            "positions": [
                0.1228205675387371,
                -1.1338979262153719,
                1.9628109884532448,
                -0.7501926919981674,
                0.12408178368254154,
                -3.2136330984031534
            ]
        }
    ]
}{
    "goal": {
        "global_pose": {
            "orientation": {
                "w": 0.7047431468963623,
                "x": -0.7094548344612122,
                "y": 0.0024358443915843964,
                "z": -0.0022348060738295317
            },
            "position": {
                "x": 0.6094750761985779,
                "y": 0.3671506643295288,
                "z": 0.19426114857196808
            }
        },
        "name": "move_to_magneteinheit_A"
    },
    "id": "LBKPIECE_move_to_magneteinheit_A_34",
    "joint_names": [
        "shoulder_pan_joint",
        "shoulder_lift_joint",
        "elbow_joint",
        "wrist_1_joint",
        "wrist_2_joint",
        "wrist_3_joint"
    ],
    "metrics": {
        "cart_traj_len": 1.325876450254622,
        "distance_elbow_joint": 0.13223560248450994,
        "distance_shoulder_lift_joint": 0.7573007855596265,
        "distance_shoulder_pan_joint": 1.241735993657012,
        "distance_wrist_1_joint": 0.9134109918157082,
        "distance_wrist_2_joint": 1.433881695122748,
        "distance_wrist_3_joint": 4.609820241766777,
        "smoothness": 0.30426795344684265,
        "time": 0.629090696,
        "traj_len": 3.014694895077507,
        "weighted_distance": 4.544812260245564
    },
    "planner": "LBKPIECE",
    "start": {
        "state": {
            "elbow_joint": 1.919643534880228,
            "shoulder_lift_joint": -1.8972525353963687,
            "shoulder_pan_joint": -1.1188672234189438,
            "wrist_1_joint": -1.5931878212786155,
            "wrist_2_joint": 1.5706036197970081,
            "wrist_3_joint": 1.118896926603594
        }
    },
    "waypoints": [
        {
            "positions": [
                -1.1188672234189438,
                -1.8972525353963687,
                1.919643534880228,
                -1.5931878212786155,
                1.5706036197970081,
                1.118896926603594
            ]
        },
        {
            "positions": [
                -1.0832273957038558,
                -1.8613049596840492,
                1.9242660202233801,
                -1.5529663977981327,
                1.5155413297655813,
                0.9072180038965255
            ]
        },
        {
            "positions": [
                -1.047587567988768,
                -1.8253573839717296,
                1.9288885055665321,
                -1.51274497431765,
                1.4604790397341545,
                0.6955390811894571
            ]
        },
        {
            "positions": [
                -1.01194774027368,
                -1.78940980825941,
                1.9335109909096841,
                -1.4725235508371672,
                1.4054167497027275,
                0.4838601584823885
            ]
        },
        {
            "positions": [
                -0.9763079125585921,
                -1.7534622325470905,
                1.9381334762528362,
                -1.4323021273566845,
                1.3503544596713006,
                0.27218123577532005
            ]
        },
        {
            "positions": [
                -0.9406680848435042,
                -1.717514656834771,
                1.9427559615959882,
                -1.3920807038762018,
                1.2952921696398738,
                0.0605023130682516
            ]
        },
        {
            "positions": [
                -0.9050282571284163,
                -1.6815670811224515,
                1.94737844693914,
                -1.3518592803957188,
                1.240229879608447,
                -0.15117660963881696
            ]
        },
        {
            "positions": [
                -0.8693884294133283,
                -1.645619505410132,
                1.952000932282292,
                -1.311637856915236,
                1.18516758957702,
                -0.3628555323458855
            ]
        },
        {
            "positions": [
                -0.8337486016982404,
                -1.6096719296978124,
                1.956623417625444,
                -1.2714164334347533,
                1.1301052995455931,
                -0.5745344550529539
            ]
        },
        {
            "positions": [
                -0.7981087739831525,
                -1.5737243539854928,
                1.961245902968596,
                -1.2311950099542706,
                1.0750430095141663,
                -0.7862133777600224
            ]
        },
        {
            "positions": [
                -0.7624689462680645,
                -1.537776778273173,
                1.965868388311748,
                -1.1909735864737878,
                1.0199807194827395,
                -0.9978923004670908
            ]
        },
        {
            "positions": [
                -0.7268291185529765,
                -1.5018292025608537,
                1.9704908736549,
                -1.1507521629933049,
                0.9649184294513125,
                -1.2095712231741598
            ]
        },
        {
            "positions": [
                -0.6911892908378887,
                -1.465881626848534,
                1.975113358998052,
                -1.1105307395128223,
                0.9098561394198857,
                -1.4212501458812279
            ]
        },
        {
            "positions": [
                -0.6555494631228007,
                -1.4299340511362144,
                1.979735844341204,
                -1.0703093160323394,
                0.8547938493884588,
                -1.6329290685882965
            ]
        },
        {
            "positions": [
                -0.6199096354077128,
                -1.3939864754238949,
                1.984358329684356,
                -1.0300878925518568,
                0.799731559357032,
                -1.844607991295365
            ]
        },
        {
            "positions": [
                -0.5842698076926248,
                -1.3580388997115753,
                1.9889808150275081,
                -0.9898664690713739,
                0.7446692693256051,
                -2.056286914002434
            ]
        },
        {
            "positions": [
                -0.5486299799775369,
                -1.3220913239992558,
                1.99360330037066,
                -0.9496450455908912,
                0.6896069792941782,
                -2.267965836709502
            ]
        },
        {
            "positions": [
                -0.5129901522624489,
                -1.2861437482869362,
                1.998225785713812,
                -0.9094236221104084,
                0.6345446892627513,
                -2.479644759416571
            ]
        },
        {
            "positions": [
                -0.47735032454736104,
                -1.2501961725746167,
                2.002848271056964,
                -0.8692021986299256,
                0.5794823992313245,
                -2.691323682123639
            ]
        },
        {
            "positions": [
                -0.44171049683227315,
                -1.2142485968622971,
                2.007470756400116,
                -0.8289807751494428,
                0.5244201091998975,
                -2.903002604830707
            ]
        },
        {
            "positions": [
                -0.40607066911718526,
                -1.1783010211499776,
                2.012093241743268,
                -0.7887593516689602,
                0.46935781916847086,
                -3.1146815275377753
            ]
        },
        {
            "positions": [
                -0.37043084140209726,
                -1.142353445437658,
                2.01671572708642,
                -0.7485379281884773,
                0.4142955291370438,
                -3.3263604502448447
            ]
        },
        {
            "positions": [
                -0.2059976375220421,
                -1.1431540106379634,
                2.0049945903269806,
                -0.771458294430334,
                0.3217709943161159,
                -3.271506161938732
            ]
        },
        {
            "positions": [
                -0.04156443364198692,
                -1.1439545758382685,
                1.9932734535675414,
                -0.7943786606721907,
                0.22924645949518796,
                -3.2166518736326184
            ]
        },
        {
            "positions": [
                0.12286877023806826,
                -1.144755141038574,
                1.981552316808102,
                -0.8172990269140473,
                0.13672192467426006,
                -3.1617975853265055
            ]
        }
    ]
}