{
    "goal": {
        "global_pose": {
            "orientation": {
                "w": 0.7047431468963623,
                "x": -0.7094548344612122,
                "y": 0.0024358443915843964,
                "z": -0.0022348060738295317
            },
            "position": {
                "x": 0.6094750761985779,
                "y": 0.3671506643295288,
                "z": 0.19426114857196808
            }
        },
        "name": "move_to_magneteinheit_A"
    },
    "id": "LBKPIECE_move_to_magneteinheit_A_94",
    "joint_names": [
        "shoulder_pan_joint",
        "shoulder_lift_joint",
        "elbow_joint",
        "wrist_1_joint",
        "wrist_2_joint",
        "wrist_3_joint"
    ],
    "metrics": {
        "cart_traj_len": 4.331000819568884,
        "distance_elbow_joint": 4.6425889126622355,
        "distance_shoulder_lift_joint": 1.3845643933298846,
        "distance_shoulder_pan_joint": 3.5297349279906958,
        "distance_wrist_1_joint": 1.89438905884301,
        "distance_wrist_2_joint": 2.5160837547063095,
        "distance_wrist_3_joint": 3.6257630091889115,
        "smoothness": 0.7012667146107088,
        "time": 0.568341848,
        "traj_len": 4.194415818289962,
        "weighted_distance": 5.408800503683621
    },
    "planner": "LBKPIECE",
    "start": {
        "state": {
            "elbow_joint": -1.919618573717145,
            "shoulder_lift_joint": -1.2443395971678275,
            "shoulder_pan_joint": 2.6996025300909787,
            "wrist_1_joint": -1.548550951253194,
            "wrist_2_joint": -1.5709469090946802,
            "wrist_3_joint": 0.4420197732051276
        }
    },
    "waypoints": [
        {
            "positions": [
                2.6996025300909787,
                -1.2443395971678275,
                -1.919618573717145,
                -1.548550951253194,
                -1.5709469090946802,
                0.4420197732051276
            ]
        },
        {
            "positions": [
                2.6069754884541227,
                -1.244085378257641,
                -1.8048512318843057,
                -1.517605821610839,
                -1.5109901203917446,
                0.3463963856069211
            ]
        },
        {
            "positions": [
                2.5143484468172668,
                -1.2438311593474547,
                -1.6900838900514665,
                -1.486660691968484,
                -1.4510333316888093,
                0.25077299800871455
            ]
        },
        {
            "positions": [
                2.4217214051804103,
                -1.2435769404372685,
                -1.5753165482186273,
                -1.4557155623261289,
                -1.3910765429858738,
                0.15514961041050807
            ]
        },
        {
            "positions": [
                2.3290943635435544,
                -1.2433227215270821,
                -1.4605492063857883,
                -1.4247704326837738,
                -1.3311197542829383,
                0.05952622281230158
            ]
        },
        {
            "positions": [
                2.2364673219066984,
                -1.2430685026168957,
                -1.345781864552949,
                -1.3938253030414187,
                -1.271162965580003,
                -0.03609716478590491
            ]
        },
        {
            "positions": [
                2.1438402802698424,
                -1.2428142837067093,
                -1.23101452272011,
                -1.3628801733990636,
                -1.2112061768770674,
                -0.13172055238411146
            ]
        },
        {
            "positions": [
                2.051213238632986,
                -1.242560064796523,
                -1.1162471808872707,
                -1.3319350437567086,
                -1.151249388174132,
                -0.2273439399823179
            ]
        },
        {
            "positions": [
                1.95858619699613,
                -1.2423058458863365,
                -1.0014798390544315,
                -1.3009899141143535,
                -1.0912925994711966,
                -0.32296732758052443
            ]
        },
        {
            "positions": [
                1.865959155359274,
                -1.2420516269761503,
                -0.8867124972215923,
                -1.2700447844719984,
                -1.031335810768261,
                -0.418590715178731
            ]
        },
        {
            "positions": [
                1.773332113722418,
                -1.241797408065964,
                -0.7719451553887531,
                -1.2390996548296431,
                -0.9713790220653257,
                -0.5142141027769374
            ]
        },
        {
            "positions": [
                1.6807050720855619,
                -1.2415431891557775,
                -0.6571778135559141,
                -1.208154525187288,
                -0.9114222333623903,
                -0.6098374903751438
            ]
        },
        {
            "positions": [
                1.5880780304487059,
                -1.2412889702455912,
                -0.5424104717230749,
                -1.177209395544933,
                -0.8514654446594547,
                -0.7054608779733504
            ]
        },
        {
            "positions": [
                1.49545098881185,
                -1.2410347513354048,
                -0.4276431298902357,
                -1.146264265902578,
                -0.7915086559565193,
                -0.8010842655715569
            ]
        },
        {
            "positions": [
                1.4028239471749937,
                -1.2407805324252186,
                -0.31287578805739646,
                -1.1153191362602228,
                -0.7315518672535839,
                -0.8967076531697633
            ]
        },
        {
            "positions": [
                1.3101969055381375,
                -1.2405263135150322,
                -0.19810844622455703,
                -1.0843740066178678,
                -0.6715950785506484,
                -0.99233104076797
            ]
        },
        {
            "positions": [
                1.2175698639012815,
                -1.2402720946048458,
                -0.08334110439171805,
                -1.0534288769755127,
                -0.611638289847713,
                -1.0879544283661764
            ]
        },
        {
            "positions": [
                1.1249428222644253,
                -1.2400178756946594,
                0.03142623744112116,
                -1.0224837473331574,
                -0.5516815011447775,
                -1.183577815964383
            ]
        },
        {
            "positions": [
                1.0323157806275693,
                -1.239763656784473,
                0.14619357927396037,
                -0.9915386176908025,
                -0.491724712441842,
                -1.2792012035625895
            ]
        },
        {
            "positions": [
                0.9396887389907131,
                -1.2395094378742868,
                0.2609609211067998,
                -0.9605934880484474,
                -0.4317679237389065,
                -1.3748245911607961
            ]
        },
        {
            "positions": [
                0.8470616973538574,
                -1.2392552189641004,
                0.3757282629396388,
                -0.9296483584060923,
                -0.3718111350359712,
                -1.4704479787590023
            ]
        },
        {
            "positions": [
                0.7544346557170012,
                -1.239001000053914,
                0.4904956047724778,
                -0.8987032287637372,
                -0.31185434633303566,
                -1.566071366357209
            ]
        },
        {
            "positions": [
                0.661807614080145,
                -1.2387467811437276,
                0.6052629466053168,
                -0.8677580991213821,
                -0.25189755763010035,
                -1.6616947539554152
            ]
        },
        {
            "positions": [
                0.569180572443289,
                -1.2384925622335412,
                0.7200302884381562,
                -0.8368129694790271,
                -0.19194076892716483,
                -1.7573181415536219
            ]
        },
        {
            "positions": [
                0.47655353080643303,
                -1.2382383433233548,
                0.8347976302709952,
                -0.805867839836672,
                -0.1319839802242293,
                -1.8529415291518285
            ]
        },
        {
            "positions": [
                0.3839264891695766,
                -1.2379841244131686,
                0.9495649721038346,
                -0.7749227101943168,
                -0.07202719152129378,
                -1.9485649167500352
            ]
        },
        {
            "positions": [
                0.2912994475327211,
                -1.2377299055029822,
                1.0643323139366736,
                -0.7439775805519618,
                -0.012070402818358472,
                -2.0441883043482414
            ]
        },
        {
            "positions": [
                0.19867240589586477,
                -1.2374756865927958,
                1.1790996557695133,
                -0.7130324509096067,
                0.04788638588457714,
                -2.139811691946448
            ]
        },
        {
            "positions": [
                0.13725351115707074,
                -1.1556975646292278,
                1.1376613072890727,
                -0.6586844080299123,
                0.0030342013186638525,
                -2.213302854901359
            ]
        },
        {
            "positions": [
                0.07583461641827671,
                -1.0739194426656598,
                1.0962229588086323,
                -0.6043363651502182,
                -0.04181798324724943,
                -2.28679401785627
            ]
        },
        {
            "positions": [
                0.014415721679482685,
                -0.9921413207020919,
                1.0547846103281917,
                -0.549988322270524,
                -0.0866701678131627,
                -2.360285180811181
            ]
        },
        {
            "positions": [
                -0.04700317305931134,
                -0.9103631987385239,
                1.0133462618477513,
                -0.49564027939082966,
                -0.131522352379076,
                -2.4337763437660915
            ]
        },
        {
            "positions": [
                -0.10842206779810537,
                -0.8285850767749559,
                0.9719079133673107,
                -0.44129223651113536,
                -0.17637453694498928,
                -2.5072675067210026
            ]
        },
        {
            "positions": [
                -0.1698409625368994,
                -0.7468069548113879,
                0.9304695648868704,
                -0.38694419363144117,
                -0.22122672151090253,
                -2.5807586696759133
            ]
        },
        {
            "positions": [
                -0.23125985727569343,
                -0.6650288328478199,
                0.8890312164064298,
                -0.33259615075174687,
                -0.26607890607681584,
                -2.6542498326308244
            ]
        },
        {
            "positions": [
                -0.29267875201448745,
                -0.583250710884252,
                0.8475928679259894,
                -0.2782481078720527,
                -0.31093109064272917,
                -2.727740995585735
            ]
        },
        {
            "positions": [
                -0.3540976467532815,
                -0.5014725889206839,
                0.8061545194455488,
                -0.22390006499235837,
                -0.3557832752086424,
                -2.801232158540646
            ]
        },
        {
            "positions": [
                -0.30649417163863796,
                -0.565642327428958,
                0.9232470741307104,
                -0.2808738822505758,
                -0.30642519534525897,
                -2.83948326628496
            ]
        },
        {
            "positions": [
                -0.25889069652399443,
                -0.6298120659372322,
                1.0403396288158722,
                -0.33784769950879323,
                -0.2570671154818756,
                -2.8777343740292736
            ]
        },
        {
            "positions": [
                -0.21128722140935094,
                -0.6939818044455062,
                1.1574321835010335,
                -0.39482151676701066,
                -0.20770903561849222,
                -2.9159854817735873
            ]
        },
        {
            "positions": [
                -0.1636837462947074,
                -0.7581515429537804,
                1.2745247381861953,
                -0.4517953340252281,
                -0.1583509557551088,
                -2.954236589517901
            ]
        },
        {
            "positions": [
                -0.1160802711800639,
                -0.8223212814620544,
                1.3916172928713568,
                -0.5087691512834456,
                -0.1089928758917254,
                -2.9924876972622148
            ]
        },
        {
            "positions": [
                -0.0684767960654204,
                -0.8864910199703284,
                1.5087098475565184,
                -0.565742968541663,
                -0.05963479602834204,
                -3.030738805006529
            ]
        },
        {
            "positions": [
                -0.020873320950776875,
                -0.9506607584786027,
                1.62580240224168,
                -0.6227167857998803,
                -0.010276716164958621,
                -3.0689899127508427
            ]
        },
        {
            "positions": [
                0.026730154163866704,
                -1.0148304969868769,
                1.7428949569268417,
                -0.6796906030580978,
                0.0390813636984248,
                -3.1072410204951564
            ]
        },
        {
            "positions": [
                0.07433362927851017,
                -1.0790002354951507,
                1.8599875116120033,
                -0.7366644203163153,
                0.08843944356180822,
                -3.14549212823947
            ]
        },
        {
            "positions": [
                0.12193710439315371,
                -1.143169974003425,
                1.9770800662971648,
                -0.7936382375745327,
                0.13779752342519158,
                -3.183743235983784
            ]
        }
    ]
}{
    "goal": {
        "global_pose": {
            "orientation": {
                "w": 0.7047431468963623,
                "x": -0.7094548344612122,
                "y": 0.0024358443915843964,
                "z": -0.0022348060738295317
            },
            "position": {
                "x": 0.6094750761985779,
                "y": 0.3671506643295288,
                "z": 0.19426114857196808
            }
        },
        "name": "move_to_magneteinheit_A"
    },
    "id": "LBKPIECE_move_to_magneteinheit_A_94",
    "joint_names": [
        "shoulder_pan_joint",
        "shoulder_lift_joint",
        "elbow_joint",
        "wrist_1_joint",
        "wrist_2_joint",
        "wrist_3_joint"
    ],
    "metrics": {
        "cart_traj_len": 1.2222607583403047,
        "distance_elbow_joint": 0.1158084989757735,
        "distance_shoulder_lift_joint": 0.7491006960013709,
        "distance_shoulder_pan_joint": 1.2408095383621804,
        "distance_wrist_1_joint": 0.7271263896584923,
        "distance_wrist_2_joint": 1.5435594668089827,
        "distance_wrist_3_joint": 4.23546142905343,
        "smoothness": 0.07090657397232945,
        "time": 0.354663443,
        "traj_len": 2.934598101761164,
        "weighted_distance": 4.399258429944138
    },
    "planner": "LBKPIECE",
    "start": {
        "state": {
            "elbow_joint": 1.919643534880228,
            "shoulder_lift_joint": -1.8972525353963687,
            "shoulder_pan_joint": -1.1188672234189438,
            "wrist_1_joint": -1.5931878212786155,
            "wrist_2_joint": 1.5706036197970081,
            "wrist_3_joint": 1.118896926603594
        }
    },
    "waypoints": [
        {
            "positions": [
                -1.1188672234189438,
                -1.8972525353963687,
                1.919643534880228,
                -1.5931878212786155,
                1.5706036197970081,
                1.118896926603594
            ]
        },
        {
            "positions": [
                -1.0655635717037255,
                -1.861785550100595,
                1.9184484906888322,
                -1.5576867607095999,
                1.495783133123619,
                0.9295552709858812
            ]
        },
        {
            "positions": [
                -1.012259919988507,
                -1.8263185648048215,
                1.9172534464974362,
                -1.522185700140584,
                1.4209626464502298,
                0.7402136153681683
            ]
        },
        {
            "positions": [
                -0.9589562682732886,
                -1.7908515795090478,
                1.9160584023060403,
                -1.4866846395715685,
                1.3461421597768408,
                0.5508719597504556
            ]
        },
        {
            "positions": [
                -0.9056526165580703,
                -1.7553845942132742,
                1.9148633581146446,
                -1.451183579002553,
                1.2713216731034516,
                0.3615303041327427
            ]
        },
        {
            "positions": [
                -0.8523489648428519,
                -1.7199176089175006,
                1.9136683139232487,
                -1.415682518433537,
                1.1965011864300625,
                0.1721886485150299
            ]
        },
        {
            "positions": [
                -0.7990453131276335,
                -1.684450623621727,
                1.9124732697318527,
                -1.3801814578645215,
                1.1216806997566733,
                -0.01715300710268286
            ]
        },
        {
            "positions": [
                -0.745741661412415,
                -1.6489836383259533,
                1.9112782255404568,
                -1.344680397295506,
                1.0468602130832843,
                -0.20649466272039563
            ]
        },
        {
            "positions": [
                -0.6924380096971967,
                -1.6135166530301797,
                1.9100831813490609,
                -1.3091793367264901,
                0.9720397264098951,
                -0.3958363183381086
            ]
        },
        {
            "positions": [
                -0.6391343579819784,
                -1.578049667734406,
                1.908888137157665,
                -1.2736782761574745,
                0.897219239736506,
                -0.5851779739558214
            ]
        },
        {
            "positions": [
                -0.5858307062667599,
                -1.5425826824386326,
                1.907693092966269,
                -1.238177215588459,
                0.8223987530631168,
                -0.7745196295735342
            ]
        },
        {
            "positions": [
                -0.5325270545515415,
                -1.5071156971428588,
                1.9064980487748733,
                -1.2026761550194431,
                0.7475782663897277,
                -0.9638612851912469
            ]
        },
        {
            "positions": [
                -0.47922340283632314,
                -1.4716487118470853,
                1.9053030045834773,
                -1.1671750944504276,
                0.6727577797163385,
                -1.1532029408089597
            ]
        },
        {
            "positions": [
                -0.4259197511211047,
                -1.4361817265513115,
                1.9041079603920814,
                -1.1316740338814117,
                0.5979372930429494,
                -1.3425445964266725
            ]
        },
        {
            "positions": [
                -0.37261609940588636,
                -1.400714741255538,
                1.9029129162006855,
                -1.0961729733123962,
                0.5231168063695604,
                -1.5318862520443852
            ]
        },
        {
            "positions": [
                -0.3193124476906679,
                -1.3652477559597644,
                1.9017178720092895,
                -1.0606719127433806,
                0.4482963196961711,
                -1.7212279076620984
            ]
        },
        {
            "positions": [
                -0.2660087959754496,
                -1.3297807706639908,
                1.9005228278178936,
                -1.025170852174365,
                0.3734758330227821,
                -1.9105695632798112
            ]
        },
        {
            "positions": [
                -0.21270514426023124,
                -1.2943137853682172,
                1.899327783626498,
                -0.9896697916053492,
                0.29865534634939284,
                -2.0999112188975237
            ]
        },
        {
            "positions": [
                -0.1594014925450128,
                -1.2588468000724435,
                1.898132739435102,
                -0.9541687310363335,
                0.2238348596760038,
                -2.2892528745152365
            ]
        },
        {
            "positions": [
                -0.10609784082979434,
                -1.22337981477667,
                1.896937695243706,
                -0.9186676704673179,
                0.14901437300261478,
                -2.4785945301329493
            ]
        },
        {
            "positions": [
                -0.052794189114576034,
                -1.1879128294808963,
                1.89574265105231,
                -0.8831666098983022,
                0.07419388632922555,
                -2.667936185750662
            ]
        },
        {
            "positions": [
                0.005451312238028069,
                -1.17465916611893,
                1.926378522768262,
                -0.8774648838055759,
                0.0899104641096255,
                -2.81747895798372
            ]
        },
        {
            "positions": [
                0.06369681359063217,
                -1.161405502756964,
                1.9570143944842138,
                -0.8717631577128495,
                0.10562704189002543,
                -2.967021730216777
            ]
        },
        {
            "positions": [
                0.12194231494323628,
                -1.1481518393949979,
                1.9876502662001656,
                -0.8660614316201232,
                0.12134361967042538,
                -3.116564502449835
            ]
        }
    ]
}