{
    "goal": {
        "global_pose": {
            "orientation": {
                "w": 0.5084816217422485,
                "x": -0.49083608388900757,
                "y": 0.5182115435600281,
                "z": -0.4816462993621826
            },
            "position": {
                "x": 0.5540239810943604,
                "y": 0.030875300988554955,
                "z": 0.16403168439865112
            }
        },
        "name": "move_to_storage_A"
    },
    "id": "LBKPIECE_move_to_storage_A_58",
    "joint_names": [
        "shoulder_pan_joint",
        "shoulder_lift_joint",
        "elbow_joint",
        "wrist_1_joint",
        "wrist_2_joint",
        "wrist_3_joint"
    ],
    "metrics": {
        "cart_traj_len": 0.35257730024645484,
        "distance_elbow_joint": 0.4478504256412279,
        "distance_shoulder_lift_joint": 0.23401311191981478,
        "distance_shoulder_pan_joint": 0.4610263172546929,
        "distance_wrist_1_joint": 0.23923372537731813,
        "distance_wrist_2_joint": 1.0970735720834135,
        "distance_wrist_3_joint": 0.10432637107442222,
        "smoothness": 8.881784232165597e-16,
        "time": 0.36772431699999997,
        "traj_len": 1.6073342911015398,
        "weighted_distance": 2.0318670140933106
    },
    "planner": "LBKPIECE",
    "start": {
        "state": {
            "elbow_joint": 1.9715477243005601,
            "shoulder_lift_joint": -1.1394853015351272,
            "shoulder_pan_joint": 0.12281154014795169,
            "wrist_1_joint": -0.7804696478968182,
            "wrist_2_joint": 0.12958648046900423,
            "wrist_3_joint": -3.192491284697111
        }
    },
    "waypoints": [
        {
            "positions": [
                0.12281154014795169,
                -1.1394853015351272,
                1.9715477243005601,
                -0.7804696478968182,
                0.12958648046900423,
                -3.192491284697111
            ]
        },
        {
            "positions": [
                0.05695063768299556,
                -1.1729157460951007,
                2.0355263565350215,
                -0.8146458943792921,
                0.2863112764809205,
                -3.1775875174007653
            ]
        },
        {
            "positions": [
                -0.008910264781960567,
                -1.2063461906550743,
                2.0995049887694823,
                -0.8488221408617662,
                0.44303607249283666,
                -3.162683750104419
            ]
        },
        {
            "positions": [
                -0.0747711672469167,
                -1.2397766352150479,
                2.1634836210039436,
                -0.8829983873442402,
                0.5997608685047529,
                -3.147779982808073
            ]
        },
        {
            "positions": [
                -0.1406320697118728,
                -1.2732070797750212,
                2.2274622532384045,
                -0.9171746338267143,
                0.7564856645166691,
                -3.132876215511727
            ]
        },
        {
            "positions": [
                -0.20649297217682894,
                -1.3066375243349948,
                2.291440885472866,
                -0.9513508803091882,
                0.9132104605285853,
                -3.117972448215381
            ]
        },
        {
            "positions": [
                -0.27235387464178507,
                -1.3400679688949684,
                2.3554195177073267,
                -0.9855271267916623,
                1.0699352565405014,
                -3.103068680919035
            ]
        },
        {
            "positions": [
                -0.3382147771067412,
                -1.373498413454942,
                2.419398149941788,
                -1.0197033732741363,
                1.2266600525524178,
                -3.088164913622689
            ]
        }
    ]
}