{
    "goal": {
        "global_pose": {
            "orientation": {
                "w": 0.5084816217422485,
                "x": -0.49083608388900757,
                "y": 0.5182115435600281,
                "z": -0.4816462993621826
            },
            "position": {
                "x": 0.5540239810943604,
                "y": 0.030875300988554955,
                "z": 0.16403168439865112
            }
        },
        "name": "move_to_storage_A"
    },
    "id": "LBKPIECE_move_to_storage_A_10",
    "joint_names": [
        "shoulder_pan_joint",
        "shoulder_lift_joint",
        "elbow_joint",
        "wrist_1_joint",
        "wrist_2_joint",
        "wrist_3_joint"
    ],
    "metrics": {
        "cart_traj_len": 0.35365320955629487,
        "distance_elbow_joint": 0.44977659350021915,
        "distance_shoulder_lift_joint": 0.23634038391190537,
        "distance_shoulder_pan_joint": 0.46487181570240754,
        "distance_wrist_1_joint": 0.23539004968352406,
        "distance_wrist_2_joint": 1.0907492686266127,
        "distance_wrist_3_joint": 0.10491179786806315,
        "smoothness": 0.0,
        "time": 0.183054199,
        "traj_len": 1.6068727109801608,
        "weighted_distance": 2.029286284223839
    },
    "planner": "LBKPIECE",
    "start": {
        "state": {
            "elbow_joint": 1.9715477243005601,
            "shoulder_lift_joint": -1.1394853015351272,
            "shoulder_pan_joint": 0.12281154014795169,
            "wrist_1_joint": -0.7804696478968182,
            "wrist_2_joint": 0.12958648046900423,
            "wrist_3_joint": -3.192491284697111
        }
    },
    "waypoints": [
        {
            "positions": [
                0.12281154014795169,
                -1.1394853015351272,
                1.9715477243005601,
                -0.7804696478968182,
                0.12958648046900423,
                -3.192491284697111
            ]
        },
        {
            "positions": [
                0.05640128076189348,
                -1.1732482135225422,
                2.03580152337202,
                -0.8140967978516073,
                0.28540780455852033,
                -3.1775038850016735
            ]
        },
        {
            "positions": [
                -0.010008978624164735,
                -1.2070111255099574,
                2.1000553224434797,
                -0.8477239478063965,
                0.44122912864803643,
                -3.162516485306236
            ]
        },
        {
            "positions": [
                -0.07641923801022295,
                -1.2407740374973724,
                2.1643091215149397,
                -0.8813510977611856,
                0.5970504527375525,
                -3.1475290856107985
            ]
        },
        {
            "positions": [
                -0.14282949739628115,
                -1.2745369494847874,
                2.2285629205863997,
                -0.9149782477159748,
                0.7528717768270686,
                -3.1325416859153608
            ]
        },
        {
            "positions": [
                -0.20923975678233941,
                -1.3082998614722023,
                2.2928167196578597,
                -0.9486053976707639,
                0.9086931009165847,
                -3.117554286219923
            ]
        },
        {
            "positions": [
                -0.27565001616839757,
                -1.3420627734596176,
                2.3570705187293193,
                -0.9822325476255531,
                1.064514425006101,
                -3.1025668865244858
            ]
        },
        {
            "positions": [
                -0.34206027555445584,
                -1.3758256854470325,
                2.4213243178007793,
                -1.0158596975803422,
                1.220335749095617,
                -3.087579486829048
            ]
        }
    ]
}