{
    "goal": {
        "global_pose": {
            "orientation": {
                "w": 0.5084816217422485,
                "x": -0.49083608388900757,
                "y": 0.5182115435600281,
                "z": -0.4816462993621826
            },
            "position": {
                "x": 0.5540239810943604,
                "y": 0.030875300988554955,
                "z": 0.16403168439865112
            }
        },
        "name": "move_to_storage_A"
    },
    "id": "LBKPIECE_move_to_storage_A_90",
    "joint_names": [
        "shoulder_pan_joint",
        "shoulder_lift_joint",
        "elbow_joint",
        "wrist_1_joint",
        "wrist_2_joint",
        "wrist_3_joint"
    ],
    "metrics": {
        "cart_traj_len": 0.35310549048308354,
        "distance_elbow_joint": 0.4488683203475352,
        "distance_shoulder_lift_joint": 0.2355215874043135,
        "distance_shoulder_pan_joint": 0.4617869203756077,
        "distance_wrist_1_joint": 0.23900785851406126,
        "distance_wrist_2_joint": 1.098835120375226,
        "distance_wrist_3_joint": 0.10370289375880537,
        "smoothness": 4.440892133664971e-16,
        "time": 0.349926181,
        "traj_len": 1.608640015906464,
        "weighted_distance": 2.032971093543252
    },
    "planner": "LBKPIECE",
    "start": {
        "state": {
            "elbow_joint": 1.9715477243005601,
            "shoulder_lift_joint": -1.1394853015351272,
            "shoulder_pan_joint": 0.12281154014795169,
            "wrist_1_joint": -0.7804696478968182,
            "wrist_2_joint": 0.12958648046900423,
            "wrist_3_joint": -3.192491284697111
        }
    },
    "waypoints": [
        {
            "positions": [
                0.12281154014795169,
                -1.1394853015351272,
                1.9715477243005601,
                -0.7804696478968182,
                0.12958648046900423,
                -3.192491284697111
            ]
        },
        {
            "positions": [
                0.05684198009429345,
                -1.1731312425928861,
                2.0356717700644937,
                -0.8146136276845412,
                0.2865629262368936,
                -3.1776765855887104
            ]
        },
        {
            "positions": [
                -0.009127579959364793,
                -1.2067771836506453,
                2.0997958158284273,
                -0.8487576074722643,
                0.44353937200478305,
                -3.1628618864803095
            ]
        },
        {
            "positions": [
                -0.07509714001302302,
                -1.2404231247084043,
                2.163919861592361,
                -0.8829015872599872,
                0.6005158177726725,
                -3.1480471873719087
            ]
        },
        {
            "positions": [
                -0.14106670006668126,
                -1.2740690657661635,
                2.2280439073562945,
                -0.9170455670477103,
                0.7574922635405619,
                -3.1332324882635083
            ]
        },
        {
            "positions": [
                -0.20703626012033954,
                -1.3077150068239225,
                2.292167953120228,
                -0.9511895468354333,
                0.9144687093084514,
                -3.1184177891551075
            ]
        },
        {
            "positions": [
                -0.2730058201739977,
                -1.3413609478816815,
                2.3562919988841617,
                -0.9853335266231564,
                1.0714451550763409,
                -3.1036030900467066
            ]
        },
        {
            "positions": [
                -0.338975380227656,
                -1.3750068889394407,
                2.4204160446480953,
                -1.0194775064108794,
                1.2284216008442301,
                -3.088788390938306
            ]
        }
    ]
}