{
    "goal": {
        "global_pose": {
            "orientation": {
                "w": 0.7047431468963623,
                "x": -0.7094548344612122,
                "y": 0.0024358443915843964,
                "z": -0.0022348060738295317
            },
            "position": {
                "x": 0.6094750761985779,
                "y": 0.3671506643295288,
                "z": 0.19426114857196808
            }
        },
        "name": "move_to_magneteinheit_A"
    },
    "id": "LBKPIECE_move_to_magneteinheit_A_104",
    "joint_names": [
        "shoulder_pan_joint",
        "shoulder_lift_joint",
        "elbow_joint",
        "wrist_1_joint",
        "wrist_2_joint",
        "wrist_3_joint"
    ],
    "metrics": {
        "cart_traj_len": 3.4149572321433586,
        "distance_elbow_joint": 4.082482991583351,
        "distance_shoulder_lift_joint": 0.425745675062168,
        "distance_shoulder_pan_joint": 2.952975320763872,
        "distance_wrist_1_joint": 1.1247072739457435,
        "distance_wrist_2_joint": 1.8805060416527957,
        "distance_wrist_3_joint": 2.697660820990641,
        "smoothness": 0.5324598586236771,
        "time": 0.6439634790000001,
        "traj_len": 3.628233471539362,
        "weighted_distance": 4.643771428653481
    },
    "planner": "LBKPIECE",
    "start": {
        "state": {
            "elbow_joint": -1.919618573717145,
            "shoulder_lift_joint": -1.2443395971678275,
            "shoulder_pan_joint": 2.6996025300909787,
            "wrist_1_joint": -1.548550951253194,
            "wrist_2_joint": -1.5709469090946802,
            "wrist_3_joint": 0.4420197732051276
        }
    },
    "waypoints": [
        {
            "positions": [
                2.6996025300909787,
                -1.2443395971678275,
                -1.919618573717145,
                -1.548550951253194,
                -1.5709469090946802,
                0.4420197732051276
            ]
        },
        {
            "positions": [
                2.5937801145537702,
                -1.2497057082420762,
                -1.788136934539691,
                -1.5197992516331158,
                -1.5164447077041725,
                0.4989419344484147
            ]
        },
        {
            "positions": [
                2.4879576990165617,
                -1.2550718193163246,
                -1.6566552953622367,
                -1.4910475520130375,
                -1.4619425063136648,
                0.5558640956917019
            ]
        },
        {
            "positions": [
                2.3821352834793537,
                -1.2604379303905733,
                -1.5251736561847826,
                -1.4622958523929592,
                -1.4074403049231572,
                0.612786256934989
            ]
        },
        {
            "positions": [
                2.276312867942145,
                -1.265804041464822,
                -1.3936920170073286,
                -1.433544152772881,
                -1.3529381035326495,
                0.6697084181782762
            ]
        },
        {
            "positions": [
                2.1704904524049367,
                -1.2711701525390706,
                -1.2622103778298743,
                -1.4047924531528027,
                -1.2984359021421419,
                0.7266305794215633
            ]
        },
        {
            "positions": [
                2.0646680368677286,
                -1.2765362636133193,
                -1.1307287386524203,
                -1.3760407535327244,
                -1.2439337007516342,
                0.7835527406648505
            ]
        },
        {
            "positions": [
                1.95884562133052,
                -1.2819023746875677,
                -0.9992470994749661,
                -1.3472890539126459,
                -1.1894314993611264,
                0.8404749019081377
            ]
        },
        {
            "positions": [
                1.8530232057933116,
                -1.2872684857618164,
                -0.8677654602975122,
                -1.3185373542925678,
                -1.134929297970619,
                0.8973970631514248
            ]
        },
        {
            "positions": [
                1.747200790256103,
                -1.292634596836065,
                -0.736283821120058,
                -1.2897856546724893,
                -1.080427096580111,
                0.9543192243947118
            ]
        },
        {
            "positions": [
                1.6413783747188948,
                -1.2980007079103135,
                -0.6048021819426037,
                -1.261033955052411,
                -1.0259248951896034,
                1.0112413856379991
            ]
        },
        {
            "positions": [
                1.5355559591816865,
                -1.3033668189845622,
                -0.4733205427651499,
                -1.2322822554323327,
                -0.9714226937990957,
                1.0681635468812862
            ]
        },
        {
            "positions": [
                1.429733543644478,
                -1.3087329300588109,
                -0.34183890358769564,
                -1.2035305558122544,
                -0.9169204924085881,
                1.1250857081245733
            ]
        },
        {
            "positions": [
                1.3239111281072697,
                -1.3140990411330595,
                -0.2103572644102416,
                -1.1747788561921761,
                -0.8624182910180804,
                1.1820078693678604
            ]
        },
        {
            "positions": [
                1.2180887125700612,
                -1.3194651522073082,
                -0.07887562523278735,
                -1.1460271565720979,
                -0.8079160896275727,
                1.2389300306111477
            ]
        },
        {
            "positions": [
                1.112266297032853,
                -1.3248312632815566,
                0.052606013944666685,
                -1.1172754569520196,
                -0.7534138882370651,
                1.2958521918544348
            ]
        },
        {
            "positions": [
                1.0064438814956445,
                -1.3301973743558053,
                0.1840876531221205,
                -1.0885237573319413,
                -0.6989116868465575,
                1.3527743530977219
            ]
        },
        {
            "positions": [
                0.900621465958436,
                -1.335563485430054,
                0.315569292299575,
                -1.059772057711863,
                -0.6444094854560497,
                1.4096965143410092
            ]
        },
        {
            "positions": [
                0.7947990504212277,
                -1.3409295965043024,
                0.447050931477029,
                -1.0310203580917847,
                -0.589907284065542,
                1.4666186755842963
            ]
        },
        {
            "positions": [
                0.6889766348840194,
                -1.346295707578551,
                0.578532570654483,
                -1.0022686584717064,
                -0.5354050826750345,
                1.5235408368275833
            ]
        },
        {
            "positions": [
                0.5831542193468109,
                -1.3516618186527998,
                0.7100142098319375,
                -0.973516958851628,
                -0.48090288128452663,
                1.5804629980708707
            ]
        },
        {
            "positions": [
                0.4773318038096024,
                -1.3570279297270484,
                0.8414958490093916,
                -0.9447652592315497,
                -0.426400679894019,
                1.6373851593141577
            ]
        },
        {
            "positions": [
                0.3715093882723943,
                -1.3623940408012971,
                0.9729774881868452,
                -0.9160135596114715,
                -0.3718984785035113,
                1.6943073205574448
            ]
        },
        {
            "positions": [
                0.2656869727351858,
                -1.3677601518755456,
                1.1044591273642996,
                -0.8872618599913932,
                -0.31739627711300367,
                1.7512294818007321
            ]
        },
        {
            "positions": [
                0.15986455719797749,
                -1.3731262629497942,
                1.2359407665417534,
                -0.8585101603713149,
                -0.262894075722496,
                1.8081516430440192
            ]
        },
        {
            "positions": [
                0.14339582942420978,
                -1.3606087811625756,
                1.278774374630621,
                -0.8512216055663744,
                -0.22248053538184043,
                1.8971738871110064
            ]
        },
        {
            "positions": [
                0.1276945595341598,
                -1.3311862208071261,
                1.3623548852807585,
                -0.8518772191589679,
                -0.1707921437436611,
                2.0635886001755708
            ]
        },
        {
            "positions": [
                0.11199328964410982,
                -1.3017636604516765,
                1.445935395930896,
                -0.8525328327515613,
                -0.11910375210548181,
                2.230003313240135
            ]
        },
        {
            "positions": [
                0.09629201975405983,
                -1.2723411000962268,
                1.5295159065810338,
                -0.8531884463441548,
                -0.06741536046730251,
                2.3964180263046995
            ]
        },
        {
            "positions": [
                0.08059074986400985,
                -1.2429185397407774,
                1.6130964172311713,
                -0.8538440599367483,
                -0.015726968829123195,
                2.562832739369264
            ]
        },
        {
            "positions": [
                0.0440550586266734,
                -1.251502996555438,
                1.7279672341532202,
                -0.9050008881806813,
                -0.03955960404424588,
                2.7046108851417596
            ]
        },
        {
            "positions": [
                0.007519367389336951,
                -1.2600874533700988,
                1.8428380510752693,
                -0.9561577164246142,
                -0.06339223925936857,
                2.8463890309142554
            ]
        },
        {
            "positions": [
                -0.0290163238479995,
                -1.2686719101847594,
                1.9577088679973182,
                -1.0073145446685472,
                -0.08722487447449126,
                2.988167176686751
            ]
        },
        {
            "positions": [
                -0.06555201508533595,
                -1.2772563669994201,
                2.072579684919367,
                -1.0584713729124802,
                -0.11105750968961395,
                3.1299453224592466
            ]
        },
        {
            "positions": [
                -0.0029450898894836097,
                -1.2331185473952395,
                2.0424847739370873,
                -0.9850953192748741,
                -0.0344056561806982,
                3.133190413038087
            ]
        },
        {
            "positions": [
                0.05966183530636873,
                -1.1889807277910591,
                2.012389862954808,
                -0.9117192656372681,
                0.04224619732821755,
                3.1364355036169282
            ]
        },
        {
            "positions": [
                0.12226876050222109,
                -1.1448429081868785,
                1.982294951972528,
                -0.8383432119996621,
                0.11889805083713333,
                3.139680594195769
            ]
        }
    ]
}{
    "goal": {
        "global_pose": {
            "orientation": {
                "w": 0.7047431468963623,
                "x": -0.7094548344612122,
                "y": 0.0024358443915843964,
                "z": -0.0022348060738295317
            },
            "position": {
                "x": 0.6094750761985779,
                "y": 0.3671506643295288,
                "z": 0.19426114857196808
            }
        },
        "name": "move_to_magneteinheit_A"
    },
    "id": "LBKPIECE_move_to_magneteinheit_A_104",
    "joint_names": [
        "shoulder_pan_joint",
        "shoulder_lift_joint",
        "elbow_joint",
        "wrist_1_joint",
        "wrist_2_joint",
        "wrist_3_joint"
    ],
    "metrics": {
        "cart_traj_len": 1.2114754439457214,
        "distance_elbow_joint": 0.03852550074118599,
        "distance_shoulder_lift_joint": 0.7696477323823574,
        "distance_shoulder_pan_joint": 1.242248097696572,
        "distance_wrist_1_joint": 0.8826642670701219,
        "distance_wrist_2_joint": 1.4416346704735372,
        "distance_wrist_3_joint": 4.368750685466354,
        "smoothness": 0.04996500068482659,
        "time": 0.456221965,
        "traj_len": 2.956936075370945,
        "weighted_distance": 4.450311366894062
    },
    "planner": "LBKPIECE",
    "start": {
        "state": {
            "elbow_joint": 1.919643534880228,
            "shoulder_lift_joint": -1.8972525353963687,
            "shoulder_pan_joint": -1.1188672234189438,
            "wrist_1_joint": -1.5931878212786155,
            "wrist_2_joint": 1.5706036197970081,
            "wrist_3_joint": 1.118896926603594
        }
    },
    "waypoints": [
        {
            "positions": [
                -1.1188672234189438,
                -1.8972525353963687,
                1.919643534880228,
                -1.5931878212786155,
                1.5706036197970081,
                1.118896926603594
            ]
        },
        {
            "positions": [
                -1.0629153327774186,
                -1.8623860356695048,
                1.920776023897219,
                -1.5531885031284565,
                1.505646387856494,
                0.922327131965939
            ]
        },
        {
            "positions": [
                -1.0069634421358933,
                -1.8275195359426406,
                1.9219085129142095,
                -1.5131891849782975,
                1.44068915591598,
                0.7257573373282838
            ]
        },
        {
            "positions": [
                -0.9510115514943679,
                -1.7926530362157767,
                1.9230410019312003,
                -1.4731898668281385,
                1.375731923975466,
                0.5291875426906288
            ]
        },
        {
            "positions": [
                -0.8950596608528425,
                -1.7577865364889127,
                1.924173490948191,
                -1.4331905486779795,
                1.310774692034952,
                0.3326177480529737
            ]
        },
        {
            "positions": [
                -0.8391077702113172,
                -1.7229200367620485,
                1.9253059799651817,
                -1.3931912305278205,
                1.2458174600944378,
                0.13604795341531872
            ]
        },
        {
            "positions": [
                -0.7831558795697919,
                -1.6880535370351846,
                1.9264384689821723,
                -1.3531919123776615,
                1.1808602281539238,
                -0.06052184122233628
            ]
        },
        {
            "positions": [
                -0.7272039889282665,
                -1.6531870373083206,
                1.9275709579991631,
                -1.3131925942275022,
                1.1159029962134097,
                -0.2570916358599913
            ]
        },
        {
            "positions": [
                -0.6712520982867412,
                -1.6183205375814564,
                1.9287034470161537,
                -1.2731932760773432,
                1.0509457642728957,
                -0.4536614304976465
            ]
        },
        {
            "positions": [
                -0.6153002076452159,
                -1.5834540378545925,
                1.9298359360331445,
                -1.2331939579271842,
                0.9859885323323815,
                -0.6502312251353015
            ]
        },
        {
            "positions": [
                -0.5593483170036906,
                -1.5485875381277285,
                1.930968425050135,
                -1.1931946397770252,
                0.9210313003918674,
                -0.8468010197729565
            ]
        },
        {
            "positions": [
                -0.5033964263621652,
                -1.5137210384008646,
                1.932100914067126,
                -1.1531953216268662,
                0.8560740684513534,
                -1.0433708144106115
            ]
        },
        {
            "positions": [
                -0.4474445357206399,
                -1.4788545386740004,
                1.9332334030841167,
                -1.1131960034767072,
                0.7911168365108393,
                -1.2399406090482665
            ]
        },
        {
            "positions": [
                -0.3914926450791145,
                -1.4439880389471365,
                1.9343658921011073,
                -1.0731966853265482,
                0.7261596045703251,
                -1.4365104036859215
            ]
        },
        {
            "positions": [
                -0.33554075443758924,
                -1.4091215392202723,
                1.9354983811180981,
                -1.0331973671763892,
                0.6612023726298112,
                -1.6330801983235765
            ]
        },
        {
            "positions": [
                -0.27958886379606396,
                -1.3742550394934083,
                1.9366308701350887,
                -0.9931980490262302,
                0.5962451406892971,
                -1.8296499929612315
            ]
        },
        {
            "positions": [
                -0.22363697315453857,
                -1.3393885397665444,
                1.9377633591520795,
                -0.9531987308760712,
                0.531287908748783,
                -2.0262197875988868
            ]
        },
        {
            "positions": [
                -0.16768508251301317,
                -1.3045220400396804,
                1.9388958481690701,
                -0.9131994127259122,
                0.4663306768082689,
                -2.2227895822365413
            ]
        },
        {
            "positions": [
                -0.11173319187148789,
                -1.2696555403128162,
                1.940028337186061,
                -0.8732000945757531,
                0.40137344486775484,
                -2.4193593768741968
            ]
        },
        {
            "positions": [
                -0.05578130122996261,
                -1.2347890405859523,
                1.9411608262030515,
                -0.8332007764255941,
                0.3364162129272408,
                -2.6159291715118522
            ]
        },
        {
            "positions": [
                0.0001705894115626716,
                -1.1999225408590881,
                1.9422933152200423,
                -0.7932014582754352,
                0.2714589809867267,
                -2.812498966149507
            ]
        },
        {
            "positions": [
                0.056122480053088175,
                -1.1650560411322242,
                1.943425804237033,
                -0.7532021401252761,
                0.20650174904621266,
                -3.0090687607871622
            ]
        },
        {
            "positions": [
                0.11207437069461337,
                -1.1301895414053602,
                1.9445582932540237,
                -0.7132028219751171,
                0.1415445171056986,
                -3.205638555424817
            ]
        },
        {
            "positions": [
                0.12338087427762806,
                -1.132774279796709,
                1.958169035621414,
                -0.7158820897417406,
                0.12896894932347094,
                -3.2498537588627596
            ]
        }
    ]
}