{
    "goal": {
        "global_pose": {
            "orientation": {
                "w": 0.7047431468963623,
                "x": -0.7094548344612122,
                "y": 0.0024358443915843964,
                "z": -0.0022348060738295317
            },
            "position": {
                "x": 0.6094750761985779,
                "y": 0.3671506643295288,
                "z": 0.19426114857196808
            }
        },
        "name": "move_to_magneteinheit_A"
    },
    "id": "LBKPIECE_move_to_magneteinheit_A_8",
    "joint_names": [
        "shoulder_pan_joint",
        "shoulder_lift_joint",
        "elbow_joint",
        "wrist_1_joint",
        "wrist_2_joint",
        "wrist_3_joint"
    ],
    "metrics": {
        "cart_traj_len": 3.4903119744612114,
        "distance_elbow_joint": 4.6648805912445646,
        "distance_shoulder_lift_joint": 1.08410306888594,
        "distance_shoulder_pan_joint": 4.280187980566558,
        "distance_wrist_1_joint": 1.4653020769723673,
        "distance_wrist_2_joint": 1.6973027713518312,
        "distance_wrist_3_joint": 3.5900105915115215,
        "smoothness": 0.3481100897893295,
        "time": 0.474198093,
        "traj_len": 4.096557955226897,
        "weighted_distance": 5.208110320632621
    },
    "planner": "LBKPIECE",
    "start": {
        "state": {
            "elbow_joint": -1.919618573717145,
            "shoulder_lift_joint": -1.2443395971678275,
            "shoulder_pan_joint": 2.6996025300909787,
            "wrist_1_joint": -1.548550951253194,
            "wrist_2_joint": -1.5709469090946802,
            "wrist_3_joint": 0.4420197732051276
        }
    },
    "waypoints": [
        {
            "positions": [
                2.6996025300909787,
                -1.2443395971678275,
                -1.919618573717145,
                -1.548550951253194,
                -1.5709469090946802,
                0.4420197732051276
            ]
        },
        {
            "positions": [
                2.5987646737190753,
                -1.2588185844612334,
                -1.7936330010106125,
                -1.5165244690643818,
                -1.5372495897945688,
                0.3638790522996974
            ]
        },
        {
            "positions": [
                2.4979268173471714,
                -1.273297571754639,
                -1.6676474283040803,
                -1.4844979868755694,
                -1.5035522704944577,
                0.2857383313942672
            ]
        },
        {
            "positions": [
                2.397088960975268,
                -1.287776559048045,
                -1.5416618555975479,
                -1.4524715046867573,
                -1.4698549511943464,
                0.20759761048883701
            ]
        },
        {
            "positions": [
                2.296251104603364,
                -1.3022555463414507,
                -1.4156762828910154,
                -1.420445022497945,
                -1.4361576318942353,
                0.12945688958340684
            ]
        },
        {
            "positions": [
                2.1954132482314606,
                -1.3167345336348566,
                -1.289690710184483,
                -1.3884185403091327,
                -1.402460312594124,
                0.05131616867797667
            ]
        },
        {
            "positions": [
                2.0945753918595567,
                -1.3312135209282625,
                -1.1637051374779506,
                -1.3563920581203204,
                -1.3687629932940129,
                -0.026824552227453557
            ]
        },
        {
            "positions": [
                1.9937375354876532,
                -1.3456925082216682,
                -1.0377195647714184,
                -1.324365575931508,
                -1.3350656739939015,
                -0.10496527313288367
            ]
        },
        {
            "positions": [
                1.8928996791157495,
                -1.360171495515074,
                -0.9117339920648859,
                -1.292339093742696,
                -1.3013683546937904,
                -0.1831059940383139
            ]
        },
        {
            "positions": [
                1.7920618227438458,
                -1.37465048280848,
                -0.7857484193583535,
                -1.2603126115538834,
                -1.267671035393679,
                -0.261246714943744
            ]
        },
        {
            "positions": [
                1.6912239663719422,
                -1.3891294701018857,
                -0.6597628466518211,
                -1.2282861293650713,
                -1.233973716093568,
                -0.33938743584917425
            ]
        },
        {
            "positions": [
                1.5903861100000385,
                -1.4036084573952916,
                -0.5337772739452886,
                -1.196259647176259,
                -1.2002763967934567,
                -0.4175281567546045
            ]
        },
        {
            "positions": [
                1.4895482536281348,
                -1.4180874446886973,
                -0.4077917012387562,
                -1.1642331649874467,
                -1.1665790774933456,
                -0.4956688776600347
            ]
        },
        {
            "positions": [
                1.3887103972562314,
                -1.4325664319821032,
                -0.2818061285322242,
                -1.1322066827986346,
                -1.1328817581932342,
                -0.5738095985654648
            ]
        },
        {
            "positions": [
                1.2878725408843277,
                -1.4470454192755091,
                -0.15582055582569176,
                -1.100180200609822,
                -1.0991844388931231,
                -0.6519503194708949
            ]
        },
        {
            "positions": [
                1.187034684512424,
                -1.4615244065689148,
                -0.02983498311915933,
                -1.06815371842101,
                -1.0654871195930118,
                -0.730091040376325
            ]
        },
        {
            "positions": [
                1.0861968281405203,
                -1.4760033938623207,
                0.0961505895873731,
                -1.0361272362321976,
                -1.0317898002929007,
                -0.8082317612817553
            ]
        },
        {
            "positions": [
                0.9853589717686166,
                -1.4904823811557266,
                0.22213616229390554,
                -1.0041007540433853,
                -0.9980924809927894,
                -0.8863724821871855
            ]
        },
        {
            "positions": [
                0.884521115396713,
                -1.5049613684491323,
                0.34812173500043797,
                -0.972074271854573,
                -0.9643951616926781,
                -0.9645132030926156
            ]
        },
        {
            "positions": [
                0.7836832590248093,
                -1.5194403557425382,
                0.4741073077069704,
                -0.9400477896657607,
                -0.9306978423925669,
                -1.042653923998046
            ]
        },
        {
            "positions": [
                0.6828454026529056,
                -1.5339193430359441,
                0.6000928804135028,
                -0.9080213074769484,
                -0.8970005230924557,
                -1.120794644903476
            ]
        },
        {
            "positions": [
                0.5820075462810022,
                -1.5483983303293498,
                0.7260784531200353,
                -0.8759948252881361,
                -0.8633032037923444,
                -1.1989353658089061
            ]
        },
        {
            "positions": [
                0.48116968990909825,
                -1.5628773176227557,
                0.8520640258265677,
                -0.8439683430993238,
                -0.8296058844922332,
                -1.2770760867143365
            ]
        },
        {
            "positions": [
                0.3803318335371948,
                -1.5773563049161614,
                0.9780495985331001,
                -0.8119418609105116,
                -0.7959085651921219,
                -1.3552168076197666
            ]
        },
        {
            "positions": [
                0.2794939771652909,
                -1.5918352922095673,
                1.1040351712396326,
                -0.7799153787216992,
                -0.7622112458920107,
                -1.433357528525197
            ]
        },
        {
            "positions": [
                0.17865612079338744,
                -1.606314279502973,
                1.230020743946165,
                -0.7478888965328869,
                -0.7285139265918995,
                -1.511498249430627
            ]
        },
        {
            "positions": [
                0.07781826442148398,
                -1.620793266796379,
                1.3560063166526966,
                -0.7158624143440748,
                -0.6948166072917884,
                -1.5896389703360572
            ]
        },
        {
            "positions": [
                -0.023019591950419915,
                -1.6352722540897848,
                1.481991889359229,
                -0.6838359321552625,
                -0.6611192879916772,
                -1.667779691241487
            ]
        },
        {
            "positions": [
                -0.12385744832232337,
                -1.6497512413831905,
                1.6079774620657614,
                -0.6518094499664502,
                -0.627421968691566,
                -1.7459204121469174
            ]
        },
        {
            "positions": [
                -0.22469530469422727,
                -1.6642302286765964,
                1.7339630347722939,
                -0.619782967777638,
                -0.5937246493914548,
                -1.8240611330523477
            ]
        },
        {
            "positions": [
                -0.3255331610661307,
                -1.6787092159700023,
                1.8599486074788263,
                -0.5877564855888257,
                -0.5600273300913434,
                -1.9022018539577776
            ]
        },
        {
            "positions": [
                -0.4263710174380346,
                -1.693188203263408,
                1.9859341801853587,
                -0.5557300034000133,
                -0.5263300107912323,
                -1.980342574863208
            ]
        },
        {
            "positions": [
                -0.5272088738099381,
                -1.707667190556814,
                2.1119197528918914,
                -0.5237035212112011,
                -0.492632691491121,
                -2.0584832957686383
            ]
        },
        {
            "positions": [
                -0.628046730181842,
                -1.7221461778502196,
                2.2379053255984243,
                -0.4916770390223888,
                -0.4589353721910099,
                -2.136624016674068
            ]
        },
        {
            "positions": [
                -0.7288845865537456,
                -1.7366251651436255,
                2.363890898304956,
                -0.4596505568335765,
                -0.42523805289089844,
                -2.2147647375794985
            ]
        },
        {
            "positions": [
                -0.6437145001615622,
                -1.6774434150526114,
                2.3257537863827094,
                -0.49729072508885147,
                -0.3700786613760935,
                -2.308087345652188
            ]
        },
        {
            "positions": [
                -0.5585444137693789,
                -1.618261664961597,
                2.2876166744604625,
                -0.5349308933441265,
                -0.3149192698612886,
                -2.4014099537248774
            ]
        },
        {
            "positions": [
                -0.4733743273771956,
                -1.559079914870583,
                2.249479562538216,
                -0.5725710615994014,
                -0.25975987834648373,
                -2.494732561797567
            ]
        },
        {
            "positions": [
                -0.3882042409850122,
                -1.4998981647795686,
                2.2113424506159696,
                -0.6102112298546764,
                -0.20460048683167878,
                -2.5880551698702567
            ]
        },
        {
            "positions": [
                -0.3030341545928289,
                -1.4407164146885545,
                2.173205338693723,
                -0.6478513981099514,
                -0.14944109531687388,
                -2.681377777942946
            ]
        },
        {
            "positions": [
                -0.21786406820064563,
                -1.3815346645975404,
                2.1350682267714767,
                -0.6854915663652263,
                -0.09428170380206896,
                -2.7747003860156356
            ]
        },
        {
            "positions": [
                -0.13269398180846226,
                -1.322352914506526,
                2.09693111484923,
                -0.7231317346205013,
                -0.039122312287264094,
                -2.8680229940883253
            ]
        },
        {
            "positions": [
                -0.04752389541627888,
                -1.263171164415512,
                2.0587940029269833,
                -0.7607719028757762,
                0.016037079227540885,
                -2.961345602161015
            ]
        },
        {
            "positions": [
                0.03764619097590449,
                -1.2039894143244978,
                2.020656891004737,
                -0.7984120711310513,
                0.07119647074234575,
                -3.054668210233704
            ]
        },
        {
            "positions": [
                0.12281627736808773,
                -1.1448076642334835,
                1.9825197790824902,
                -0.8360522393863262,
                0.12635586225715073,
                -3.147990818306394
            ]
        }
    ]
}{
    "goal": {
        "global_pose": {
            "orientation": {
                "w": 0.7047431468963623,
                "x": -0.7094548344612122,
                "y": 0.0024358443915843964,
                "z": -0.0022348060738295317
            },
            "position": {
                "x": 0.6094750761985779,
                "y": 0.3671506643295288,
                "z": 0.19426114857196808
            }
        },
        "name": "move_to_magneteinheit_A"
    },
    "id": "LBKPIECE_move_to_magneteinheit_A_8",
    "joint_names": [
        "shoulder_pan_joint",
        "shoulder_lift_joint",
        "elbow_joint",
        "wrist_1_joint",
        "wrist_2_joint",
        "wrist_3_joint"
    ],
    "metrics": {
        "cart_traj_len": 1.2045089968969795,
        "distance_elbow_joint": 0.035714003487537394,
        "distance_shoulder_lift_joint": 0.7660436439442149,
        "distance_shoulder_pan_joint": 1.2417610341779086,
        "distance_wrist_1_joint": 0.891551354460539,
        "distance_wrist_2_joint": 1.4394048653650828,
        "distance_wrist_3_joint": 1.894260087118815,
        "smoothness": 2.0898315923129273e-16,
        "time": 0.22322135899999998,
        "traj_len": 2.503744193913208,
        "weighted_distance": 3.5196891031193864
    },
    "planner": "LBKPIECE",
    "start": {
        "state": {
            "elbow_joint": 1.919643534880228,
            "shoulder_lift_joint": -1.8972525353963687,
            "shoulder_pan_joint": -1.1188672234189438,
            "wrist_1_joint": -1.5931878212786155,
            "wrist_2_joint": 1.5706036197970081,
            "wrist_3_joint": 1.118896926603594
        }
    },
    "waypoints": [
        {
            "positions": [
                -1.1188672234189438,
                -1.8972525353963687,
                1.919643534880228,
                -1.5931878212786155,
                1.5706036197970081,
                1.118896926603594
            ]
        },
        {
            "positions": [
                -1.0412571587828245,
                -1.8493748076498553,
                1.9218756600981992,
                -1.5374658616248318,
                1.4806408157116904,
                1.23728818204852
            ]
        },
        {
            "positions": [
                -0.9636470941467052,
                -1.8014970799033418,
                1.9241077853161703,
                -1.481743901971048,
                1.3906780116263728,
                1.3556794374934458
            ]
        },
        {
            "positions": [
                -0.8860370295105859,
                -1.7536193521568284,
                1.9263399105341414,
                -1.4260219423172644,
                1.300715207541055,
                1.4740706929383718
            ]
        },
        {
            "positions": [
                -0.8084269648744666,
                -1.705741624410315,
                1.9285720357521123,
                -1.3702999826634807,
                1.2107524034557375,
                1.5924619483832978
            ]
        },
        {
            "positions": [
                -0.7308169002383473,
                -1.6578638966638015,
                1.9308041609700834,
                -1.314578023009697,
                1.1207895993704198,
                1.7108532038282238
            ]
        },
        {
            "positions": [
                -0.6532068356022281,
                -1.6099861689172883,
                1.9330362861880546,
                -1.2588560633559134,
                1.030826795285102,
                1.8292444592731496
            ]
        },
        {
            "positions": [
                -0.5755967709661088,
                -1.5621084411707749,
                1.9352684114060257,
                -1.2031341037021297,
                0.9408639911997844,
                1.9476357147180756
            ]
        },
        {
            "positions": [
                -0.49798670632998954,
                -1.5142307134242614,
                1.9375005366239968,
                -1.147412144048346,
                0.8509011871144667,
                2.0660269701630014
            ]
        },
        {
            "positions": [
                -0.42037664169387023,
                -1.466352985677748,
                1.939732661841968,
                -1.0916901843945621,
                0.7609383830291491,
                2.1844182256079274
            ]
        },
        {
            "positions": [
                -0.34276657705775093,
                -1.4184752579312345,
                1.941964787059939,
                -1.0359682247407784,
                0.6709755789438314,
                2.3028094810528534
            ]
        },
        {
            "positions": [
                -0.26515651242163163,
                -1.370597530184721,
                1.9441969122779101,
                -0.9802462650869949,
                0.5810127748585137,
                2.4212007364977794
            ]
        },
        {
            "positions": [
                -0.18754644778551244,
                -1.3227198024382076,
                1.9464290374958813,
                -0.9245243054332112,
                0.4910499707731959,
                2.5395919919427055
            ]
        },
        {
            "positions": [
                -0.10993638314939314,
                -1.2748420746916942,
                1.9486611627138521,
                -0.8688023457794275,
                0.40108716668787836,
                2.657983247387631
            ]
        },
        {
            "positions": [
                -0.03232631851327383,
                -1.2269643469451808,
                1.9508932879318233,
                -0.8130803861256438,
                0.3111243626025606,
                2.7763745028325575
            ]
        },
        {
            "positions": [
                0.04528374612284547,
                -1.1790866191986673,
                1.9531254131497944,
                -0.7573584264718601,
                0.22116155851724306,
                2.894765758277483
            ]
        },
        {
            "positions": [
                0.12289381075896483,
                -1.1312088914521539,
                1.9553575383677655,
                -0.7016364668180765,
                0.1311987544319254,
                3.013157013722409
            ]
        }
    ]
}