{
    "goal": {
        "global_pose": {
            "orientation": {
                "w": 0.5084816217422485,
                "x": -0.49083608388900757,
                "y": 0.5182115435600281,
                "z": -0.4816462993621826
            },
            "position": {
                "x": 0.5540239810943604,
                "y": 0.030875300988554955,
                "z": 0.16403168439865112
            }
        },
        "name": "move_to_storage_A"
    },
    "id": "LBKPIECE_move_to_storage_A_145",
    "joint_names": [
        "shoulder_pan_joint",
        "shoulder_lift_joint",
        "elbow_joint",
        "wrist_1_joint",
        "wrist_2_joint",
        "wrist_3_joint"
    ],
    "metrics": {
        "cart_traj_len": 0.3522389065379008,
        "distance_elbow_joint": 0.4477390184577623,
        "distance_shoulder_lift_joint": 0.23514237210558786,
        "distance_shoulder_pan_joint": 0.4607896409157219,
        "distance_wrist_1_joint": 0.23650753805914693,
        "distance_wrist_2_joint": 1.0961503163906507,
        "distance_wrist_3_joint": 0.1038289649945745,
        "smoothness": 1.5543122362334363e-15,
        "time": 0.598129018,
        "traj_len": 1.606286976515543,
        "weighted_distance": 2.0298949813629252
    },
    "planner": "LBKPIECE",
    "start": {
        "state": {
            "elbow_joint": 1.9715477243005601,
            "shoulder_lift_joint": -1.1394853015351272,
            "shoulder_pan_joint": 0.12281154014795169,
            "wrist_1_joint": -0.7804696478968182,
            "wrist_2_joint": 0.12958648046900423,
            "wrist_3_joint": -3.192491284697111
        }
    },
    "waypoints": [
        {
            "positions": [
                0.12281154014795169,
                -1.1394853015351272,
                1.9715477243005601,
                -0.7804696478968182,
                0.12958648046900423,
                -3.192491284697111
            ]
        },
        {
            "positions": [
                0.05698444858856286,
                -1.1730770689787826,
                2.0355104412230975,
                -0.8142564390481248,
                0.2861793828105258,
                -3.177658575412172
            ]
        },
        {
            "positions": [
                -0.008842642970825973,
                -1.206668836422438,
                2.099473158145635,
                -0.8480432301994316,
                0.4427722851520473,
                -3.162825866127233
            ]
        },
        {
            "positions": [
                -0.07466973453021482,
                -1.2402606038660935,
                2.1634358750681724,
                -0.8818300213507383,
                0.5993651874935688,
                -3.1479931568422934
            ]
        },
        {
            "positions": [
                -0.14049682608960362,
                -1.2738523713097487,
                2.2273985919907098,
                -0.915616812502045,
                0.7559580898350904,
                -3.1331604475573545
            ]
        },
        {
            "positions": [
                -0.2063239176489925,
                -1.3074441387534042,
                2.2913613089132476,
                -0.9494036036533517,
                0.912550992176612,
                -3.118327738272415
            ]
        },
        {
            "positions": [
                -0.2721510092083813,
                -1.3410359061970596,
                2.355324025835785,
                -0.9831903948046583,
                1.0691438945181333,
                -3.103495028987476
            ]
        },
        {
            "positions": [
                -0.3379781007677702,
                -1.374627673640715,
                2.4192867427583225,
                -1.016977185955965,
                1.225736796859655,
                -3.0886623197025367
            ]
        }
    ]
}