{
    "goal": {
        "global_pose": {
            "orientation": {
                "w": 0.5084816217422485,
                "x": -0.49083608388900757,
                "y": 0.5182115435600281,
                "z": -0.4816462993621826
            },
            "position": {
                "x": 0.5540239810943604,
                "y": 0.030875300988554955,
                "z": 0.16403168439865112
            }
        },
        "name": "move_to_storage_A"
    },
    "id": "LBKPIECE_move_to_storage_A_63",
    "joint_names": [
        "shoulder_pan_joint",
        "shoulder_lift_joint",
        "elbow_joint",
        "wrist_1_joint",
        "wrist_2_joint",
        "wrist_3_joint"
    ],
    "metrics": {
        "cart_traj_len": 0.3531418979628495,
        "distance_elbow_joint": 0.45319484089215356,
        "distance_shoulder_lift_joint": 0.2351682000244406,
        "distance_shoulder_pan_joint": 0.46188063697654813,
        "distance_wrist_1_joint": 0.25110151651259127,
        "distance_wrist_2_joint": 1.0996371067223345,
        "distance_wrist_3_joint": 0.10710771433704958,
        "smoothness": 0.0,
        "time": 0.410503167,
        "traj_len": 1.6149582085816083,
        "weighted_distance": 2.0428029927954734
    },
    "planner": "LBKPIECE",
    "start": {
        "state": {
            "elbow_joint": 1.9715477243005601,
            "shoulder_lift_joint": -1.1394853015351272,
            "shoulder_pan_joint": 0.12281154014795169,
            "wrist_1_joint": -0.7804696478968182,
            "wrist_2_joint": 0.12958648046900423,
            "wrist_3_joint": -3.192491284697111
        }
    },
    "waypoints": [
        {
            "positions": [
                0.12281154014795169,
                -1.1394853015351272,
                1.9715477243005601,
                -0.7804696478968182,
                0.12958648046900423,
                -3.192491284697111
            ]
        },
        {
            "positions": [
                0.05682859200844481,
                -1.1730807586814758,
                2.0362898444280106,
                -0.8163412931129026,
                0.28667749571505197,
                -3.1771901826489612
            ]
        },
        {
            "positions": [
                -0.009154356131062066,
                -1.2066762158278246,
                2.101031964555461,
                -0.8522129383289871,
                0.44376851096109976,
                -3.1618890806008113
            ]
        },
        {
            "positions": [
                -0.07513730427056893,
                -1.2402716729741732,
                2.1657740846829117,
                -0.8880845835450716,
                0.6008595262071476,
                -3.1465879785526614
            ]
        },
        {
            "positions": [
                -0.1411202524100758,
                -1.2738671301205218,
                2.230516204810362,
                -0.923956228761156,
                0.7579505414531953,
                -3.1312868765045114
            ]
        },
        {
            "positions": [
                -0.2071032005495827,
                -1.3074625872668704,
                2.2952583249378127,
                -0.9598278739772406,
                0.9150415566992431,
                -3.1159857744563615
            ]
        },
        {
            "positions": [
                -0.27308614868908954,
                -1.3410580444132192,
                2.360000445065263,
                -0.9956995191933249,
                1.072132571945291,
                -3.1006846724082116
            ]
        },
        {
            "positions": [
                -0.33906909682859643,
                -1.3746535015595678,
                2.4247425651927137,
                -1.0315711644094094,
                1.2292235871913388,
                -3.0853835703600616
            ]
        }
    ]
}