{
    "goal": {
        "global_pose": {
            "orientation": {
                "w": 0.7047431468963623,
                "x": -0.7094548344612122,
                "y": 0.0024358443915843964,
                "z": -0.0022348060738295317
            },
            "position": {
                "x": 0.6094750761985779,
                "y": 0.3671506643295288,
                "z": 0.19426114857196808
            }
        },
        "name": "move_to_magneteinheit_A"
    },
    "id": "LBKPIECE_move_to_magneteinheit_A_118",
    "joint_names": [
        "shoulder_pan_joint",
        "shoulder_lift_joint",
        "elbow_joint",
        "wrist_1_joint",
        "wrist_2_joint",
        "wrist_3_joint"
    ],
    "metrics": {
        "cart_traj_len": 3.297718492976667,
        "distance_elbow_joint": 3.9340995094780316,
        "distance_shoulder_lift_joint": 0.5293532343055708,
        "distance_shoulder_pan_joint": 2.594682246301635,
        "distance_wrist_1_joint": 3.5375230463100933,
        "distance_wrist_2_joint": 1.4324897567839554,
        "distance_wrist_3_joint": 1.8183771854421036,
        "smoothness": 0.07813175476685187,
        "time": 0.47035926100000003,
        "traj_len": 3.7210919067689523,
        "weighted_distance": 4.738490493036749
    },
    "planner": "LBKPIECE",
    "start": {
        "state": {
            "elbow_joint": -1.919618573717145,
            "shoulder_lift_joint": -1.2443395971678275,
            "shoulder_pan_joint": 2.6996025300909787,
            "wrist_1_joint": -1.548550951253194,
            "wrist_2_joint": -1.5709469090946802,
            "wrist_3_joint": 0.4420197732051276
        }
    },
    "waypoints": [
        {
            "positions": [
                2.6996025300909787,
                -1.2443395971678275,
                -1.919618573717145,
                -1.548550951253194,
                -1.5709469090946802,
                0.4420197732051276
            ]
        },
        {
            "positions": [
                2.601079317402839,
                -1.2335683066079899,
                -1.8265352423076162,
                -1.471990900943654,
                -1.516295329874332,
                0.38435380868951985
            ]
        },
        {
            "positions": [
                2.5025561047147,
                -1.222797016048152,
                -1.7334519108980877,
                -1.3954308506341142,
                -1.4616437506539839,
                0.3266878441739121
            ]
        },
        {
            "positions": [
                2.40403289202656,
                -1.2120257254883144,
                -1.640368579488559,
                -1.3188708003245742,
                -1.4069921714336358,
                0.2690218796583044
            ]
        },
        {
            "positions": [
                2.3055096793384204,
                -1.2012544349284766,
                -1.5472852480790302,
                -1.2423107500150343,
                -1.3523405922132876,
                0.21135591514269667
            ]
        },
        {
            "positions": [
                2.2069864666502808,
                -1.190483144368639,
                -1.4542019166695015,
                -1.1657506997054943,
                -1.2976890129929393,
                0.1536899506270889
            ]
        },
        {
            "positions": [
                2.1084632539621415,
                -1.1797118538088014,
                -1.361118585259973,
                -1.0891906493959542,
                -1.2430374337725913,
                0.09602398611148122
            ]
        },
        {
            "positions": [
                2.009940041274002,
                -1.1689405632489636,
                -1.2680352538504445,
                -1.0126305990864144,
                -1.188385854552243,
                0.03835802159587348
            ]
        },
        {
            "positions": [
                1.9114168285858621,
                -1.158169272689126,
                -1.1749519224409157,
                -0.9360705487768745,
                -1.1337342753318949,
                -0.019307942919734256
            ]
        },
        {
            "positions": [
                1.8128936158977227,
                -1.1473979821292883,
                -1.081868591031387,
                -0.8595104984673344,
                -1.0790826961115467,
                -0.07697390743534199
            ]
        },
        {
            "positions": [
                1.7143704032095832,
                -1.1366266915694505,
                -0.9887852596218583,
                -0.7829504481577944,
                -1.0244311168911986,
                -0.13463987195094979
            ]
        },
        {
            "positions": [
                1.6158471905214435,
                -1.125855401009613,
                -0.8957019282123295,
                -0.7063903978482544,
                -0.9697795376708503,
                -0.19230583646655747
            ]
        },
        {
            "positions": [
                1.517323977833304,
                -1.115084110449775,
                -0.802618596802801,
                -0.6298303475387146,
                -0.9151279584505023,
                -0.24997180098216515
            ]
        },
        {
            "positions": [
                1.4188007651451644,
                -1.1043128198899375,
                -0.7095352653932723,
                -0.5532702972291745,
                -0.8604763792301541,
                -0.30763776549777294
            ]
        },
        {
            "positions": [
                1.320277552457025,
                -1.0935415293300998,
                -0.6164519339837438,
                -0.4767102469196345,
                -0.8058248000098059,
                -0.3653037300133806
            ]
        },
        {
            "positions": [
                1.2217543397688853,
                -1.082770238770262,
                -0.523368602574215,
                -0.40015019661009466,
                -0.7511732207894577,
                -0.4229696945289884
            ]
        },
        {
            "positions": [
                1.1232311270807458,
                -1.0719989482104244,
                -0.4302852711646865,
                -0.3235901463005548,
                -0.6965216415691097,
                -0.4806356590445961
            ]
        },
        {
            "positions": [
                1.0247079143926063,
                -1.0612276576505866,
                -0.3372019397551578,
                -0.24703009599101478,
                -0.6418700623487614,
                -0.5383016235602038
            ]
        },
        {
            "positions": [
                0.9261847017044668,
                -1.050456367090749,
                -0.24411860834562898,
                -0.17047004568147467,
                -0.5872184831284133,
                -0.5959675880758115
            ]
        },
        {
            "positions": [
                0.8192485219959191,
                -1.0209444842503268,
                -0.1458310436433782,
                -0.08176389137019104,
                -0.5340164336998185,
                -0.6150154350218187
            ]
        },
        {
            "positions": [
                0.7123123422873715,
                -0.9914326014099047,
                -0.047543478941127426,
                0.006942262941092597,
                -0.4808143842712237,
                -0.6340632819678258
            ]
        },
        {
            "positions": [
                0.6053761625788239,
                -0.9619207185694827,
                0.050744085761123325,
                0.09564841725237622,
                -0.42761233484262895,
                -0.6531111289138329
            ]
        },
        {
            "positions": [
                0.4984399828702762,
                -0.9324088357290605,
                0.14903165046337413,
                0.18435457156365986,
                -0.37441028541403415,
                -0.6721589758598401
            ]
        },
        {
            "positions": [
                0.3915038031617285,
                -0.9028969528886385,
                0.24731921516562494,
                0.2730607258749435,
                -0.32120823598543935,
                -0.6912068228058473
            ]
        },
        {
            "positions": [
                0.2845676234531809,
                -0.8733850700482164,
                0.34560677986787564,
                0.3617668801862271,
                -0.26800618655684455,
                -0.7102546697518545
            ]
        },
        {
            "positions": [
                0.1776314437446332,
                -0.8438731872077943,
                0.44389434457012655,
                0.45047303449751086,
                -0.21480413712824978,
                -0.7293025166978616
            ]
        },
        {
            "positions": [
                0.16871369281817378,
                -0.8298747382606729,
                0.5413469222386874,
                0.5641939477836042,
                -0.2114272781223303,
                -0.6931459985692625
            ]
        },
        {
            "positions": [
                0.15979594189171437,
                -0.8158762893135515,
                0.6387994999072483,
                0.6779148610696977,
                -0.20805041911641084,
                -0.6569894804406635
            ]
        },
        {
            "positions": [
                0.15087819096525495,
                -0.8018778403664302,
                0.7362520775758091,
                0.791635774355791,
                -0.20467356011049137,
                -0.6208329623120644
            ]
        },
        {
            "positions": [
                0.14476502418880605,
                -0.7932766263684913,
                0.8787088705378114,
                0.9384173942268292,
                -0.1987451464819801,
                -0.567350870498196
            ]
        },
        {
            "positions": [
                0.13865185741235714,
                -0.7846754123705525,
                1.0211656634998136,
                1.0851990140978676,
                -0.19281673285346887,
                -0.5138687786843275
            ]
        },
        {
            "positions": [
                0.13253869063590823,
                -0.7760741983726136,
                1.163622456461816,
                1.2319806339689057,
                -0.1868883192249576,
                -0.460386686870459
            ]
        },
        {
            "positions": [
                0.12642552385945935,
                -0.7674729843746747,
                1.3060792494238183,
                1.3787622538399438,
                -0.18095990559644634,
                -0.40690459505659055
            ]
        },
        {
            "positions": [
                0.12031235708301044,
                -0.7588717703767359,
                1.4485360423858205,
                1.525543873710982,
                -0.1750314919679351,
                -0.35342250324272206
            ]
        },
        {
            "positions": [
                0.11419919030656153,
                -0.750270556378797,
                1.5909928353478229,
                1.6723254935820204,
                -0.16910307833942384,
                -0.2999404114288536
            ]
        },
        {
            "positions": [
                0.11729215914563422,
                -0.7620319542176438,
                1.732155535485511,
                1.7778743607403134,
                -0.15888776966319085,
                -0.2273761480054849
            ]
        },
        {
            "positions": [
                0.12038512798470692,
                -0.7737933520564906,
                1.873318235623199,
                1.8834232278986063,
                -0.14867246098695783,
                -0.15481188458211617
            ]
        },
        {
            "positions": [
                0.12347809682377961,
                -0.7855547498953374,
                2.0144809357608873,
                1.9889720950568992,
                -0.13845715231072483,
                -0.08224762115874747
            ]
        }
    ]
}{
    "goal": {
        "global_pose": {
            "orientation": {
                "w": 0.7047431468963623,
                "x": -0.7094548344612122,
                "y": 0.0024358443915843964,
                "z": -0.0022348060738295317
            },
            "position": {
                "x": 0.6094750761985779,
                "y": 0.3671506643295288,
                "z": 0.19426114857196808
            }
        },
        "name": "move_to_magneteinheit_A"
    },
    "id": "LBKPIECE_move_to_magneteinheit_A_118",
    "joint_names": [
        "shoulder_pan_joint",
        "shoulder_lift_joint",
        "elbow_joint",
        "wrist_1_joint",
        "wrist_2_joint",
        "wrist_3_joint"
    ],
    "metrics": {
        "cart_traj_len": 1.5341069612875247,
        "distance_elbow_joint": 1.549408102801946,
        "distance_shoulder_lift_joint": 0.7469115855559767,
        "distance_shoulder_pan_joint": 1.240692771176219,
        "distance_wrist_1_joint": 0.7256817721842884,
        "distance_wrist_2_joint": 2.537424159217022,
        "distance_wrist_3_joint": 4.226001554536955,
        "smoothness": 0.22108118996136356,
        "time": 0.260470174,
        "traj_len": 3.3205601854916607,
        "weighted_distance": 4.768776466343085
    },
    "planner": "LBKPIECE",
    "start": {
        "state": {
            "elbow_joint": 1.919643534880228,
            "shoulder_lift_joint": -1.8972525353963687,
            "shoulder_pan_joint": -1.1188672234189438,
            "wrist_1_joint": -1.5931878212786155,
            "wrist_2_joint": 1.5706036197970081,
            "wrist_3_joint": 1.118896926603594
        }
    },
    "waypoints": [
        {
            "positions": [
                -1.1188672234189438,
                -1.8972525353963687,
                1.919643534880228,
                -1.5931878212786155,
                1.5706036197970081,
                1.118896926603594
            ]
        },
        {
            "positions": [
                -1.108494115286178,
                -1.87986643688117,
                1.8524926829325594,
                -1.5814634714812623,
                1.389648241644065,
                1.0417131551905203
            ]
        },
        {
            "positions": [
                -1.098121007153412,
                -1.8624803383659712,
                1.7853418309848905,
                -1.5697391216839092,
                1.208692863491122,
                0.9645293837774468
            ]
        },
        {
            "positions": [
                -1.0877478990206462,
                -1.8450942398507724,
                1.7181909790372218,
                -1.5580147718865562,
                1.027737485338179,
                0.8873456123643733
            ]
        },
        {
            "positions": [
                -1.0773747908878801,
                -1.8277081413355736,
                1.651040127089553,
                -1.546290422089203,
                0.8467821071852359,
                0.8101618409512996
            ]
        },
        {
            "positions": [
                -1.0670016827551143,
                -1.8103220428203748,
                1.5838892751418843,
                -1.53456607229185,
                0.665826729032293,
                0.732978069538226
            ]
        },
        {
            "positions": [
                -1.0566285746223483,
                -1.792935944305176,
                1.5167384231942154,
                -1.5228417224944968,
                0.48487135087935007,
                0.6557942981251524
            ]
        },
        {
            "positions": [
                -1.0462554664895825,
                -1.7755498457899772,
                1.4495875712465467,
                -1.5111173726971436,
                0.3039159727264069,
                0.5786105267120788
            ]
        },
        {
            "positions": [
                -1.0358823583568164,
                -1.7581637472747784,
                1.382436719298878,
                -1.4993930228997905,
                0.12296059457346376,
                0.5014267552990052
            ]
        },
        {
            "positions": [
                -1.0255092502240506,
                -1.7407776487595796,
                1.315285867351209,
                -1.4876686731024376,
                -0.0579947835794794,
                0.4242429838859316
            ]
        },
        {
            "positions": [
                -1.0151361420912846,
                -1.7233915502443808,
                1.2481350154035402,
                -1.4759443233050844,
                -0.23895016173242212,
                0.3470592124728581
            ]
        },
        {
            "positions": [
                -1.0047630339585187,
                -1.706005451729182,
                1.1809841634558715,
                -1.4642199735077313,
                -0.4199055398853653,
                0.26987544105978445
            ]
        },
        {
            "positions": [
                -0.9421747794187524,
                -1.6751352016242493,
                1.2260257596435153,
                -1.431069199929209,
                -0.38952137324455127,
                0.08226543722683191
            ]
        },
        {
            "positions": [
                -0.8795865248789861,
                -1.6442649515193164,
                1.2710673558311592,
                -1.3979184263506863,
                -0.35913720660373727,
                -0.10534456660612063
            ]
        },
        {
            "positions": [
                -0.8169982703392198,
                -1.6133947014143837,
                1.3161089520188032,
                -1.364767652772164,
                -0.32875303996292327,
                -0.29295457043907314
            ]
        },
        {
            "positions": [
                -0.7544100157994535,
                -1.582524451309451,
                1.361150548206447,
                -1.3316168791936414,
                -0.29836887332210926,
                -0.4805645742720257
            ]
        },
        {
            "positions": [
                -0.6918217612596871,
                -1.5516542012045182,
                1.4061921443940908,
                -1.298466105615119,
                -0.26798470668129526,
                -0.6681745781049784
            ]
        },
        {
            "positions": [
                -0.6292335067199208,
                -1.5207839510995853,
                1.4512337405817346,
                -1.2653153320365966,
                -0.23760054004048126,
                -0.8557845819379307
            ]
        },
        {
            "positions": [
                -0.5666452521801546,
                -1.4899137009946526,
                1.4962753367693784,
                -1.232164558458074,
                -0.20721637339966725,
                -1.0433945857708835
            ]
        },
        {
            "positions": [
                -0.5040569976403882,
                -1.4590434508897199,
                1.5413169329570224,
                -1.1990137848795517,
                -0.17683220675885325,
                -1.231004589603836
            ]
        },
        {
            "positions": [
                -0.4414687431006219,
                -1.4281732007847872,
                1.5863585291446662,
                -1.165863011301029,
                -0.14644804011803925,
                -1.4186145934367884
            ]
        },
        {
            "positions": [
                -0.37888048856085554,
                -1.3973029506798542,
                1.63140012533231,
                -1.1327122377225067,
                -0.11606387347722524,
                -1.6062245972697413
            ]
        },
        {
            "positions": [
                -0.3162922340210892,
                -1.3664327005749215,
                1.676441721519954,
                -1.0995614641439841,
                -0.08567970683641124,
                -1.7938346011026938
            ]
        },
        {
            "positions": [
                -0.25370397948132295,
                -1.3355624504699888,
                1.7214833177075977,
                -1.0664106905654618,
                -0.05529554019559724,
                -1.9814446049356458
            ]
        },
        {
            "positions": [
                -0.1911157249415566,
                -1.3046922003650558,
                1.7665249138952417,
                -1.0332599169869394,
                -0.024911373554783234,
                -2.1690546087685987
            ]
        },
        {
            "positions": [
                -0.12852747040179036,
                -1.2738219502601231,
                1.8115665100828855,
                -1.0001091434084168,
                0.005472793086030769,
                -2.356664612601551
            ]
        },
        {
            "positions": [
                -0.065939215862024,
                -1.2429517001551904,
                1.8566081062705293,
                -0.9669583698298945,
                0.03585695972684477,
                -2.544274616434504
            ]
        },
        {
            "positions": [
                -0.0033509613222577617,
                -1.2120814500502577,
                1.9016497024581733,
                -0.933807596251372,
                0.06624112636765878,
                -2.731884620267456
            ]
        },
        {
            "positions": [
                0.0592372932175087,
                -1.181211199945325,
                1.946691298645817,
                -0.9006568226728495,
                0.09662529300847278,
                -2.919494624100409
            ]
        },
        {
            "positions": [
                0.12182554775727505,
                -1.150340949840392,
                1.991732894833461,
                -0.867506049094327,
                0.12700945964928684,
                -3.1071046279333614
            ]
        }
    ]
}