{
    "goal": {
        "global_pose": {
            "orientation": {
                "w": 0.7047431468963623,
                "x": -0.7094548344612122,
                "y": 0.0024358443915843964,
                "z": -0.0022348060738295317
            },
            "position": {
                "x": 0.6094750761985779,
                "y": 0.3671506643295288,
                "z": 0.19426114857196808
            }
        },
        "name": "move_to_magneteinheit_A"
    },
    "id": "LBKPIECE_move_to_magneteinheit_A_85",
    "joint_names": [
        "shoulder_pan_joint",
        "shoulder_lift_joint",
        "elbow_joint",
        "wrist_1_joint",
        "wrist_2_joint",
        "wrist_3_joint"
    ],
    "metrics": {
        "cart_traj_len": 3.4572260566381536,
        "distance_elbow_joint": 3.901338421233872,
        "distance_shoulder_lift_joint": 0.6934242748616057,
        "distance_shoulder_pan_joint": 2.9622477163235343,
        "distance_wrist_1_joint": 0.9376667802974185,
        "distance_wrist_2_joint": 1.6985671403596219,
        "distance_wrist_3_joint": 2.68774385231478,
        "smoothness": 0.06599689169120401,
        "time": 0.8320332989999999,
        "traj_len": 3.5890093598917843,
        "weighted_distance": 4.570854385197306
    },
    "planner": "LBKPIECE",
    "start": {
        "state": {
            "elbow_joint": -1.919618573717145,
            "shoulder_lift_joint": -1.2443395971678275,
            "shoulder_pan_joint": 2.6996025300909787,
            "wrist_1_joint": -1.548550951253194,
            "wrist_2_joint": -1.5709469090946802,
            "wrist_3_joint": 0.4420197732051276
        }
    },
    "waypoints": [
        {
            "positions": [
                2.6996025300909787,
                -1.2443395971678275,
                -1.919618573717145,
                -1.548550951253194,
                -1.5709469090946802,
                0.4420197732051276
            ]
        },
        {
            "positions": [
                2.588824453524961,
                -1.2561969750460762,
                -1.785350928359293,
                -1.553007434320461,
                -1.5184361960357886,
                0.5178118909197593
            ]
        },
        {
            "positions": [
                2.478046376958943,
                -1.268054352924325,
                -1.651083283001441,
                -1.5574639173877278,
                -1.465925482976897,
                0.5936040086343911
            ]
        },
        {
            "positions": [
                2.367268300392925,
                -1.2799117308025738,
                -1.5168156376435888,
                -1.5619204004549947,
                -1.4134147699180057,
                0.6693961263490228
            ]
        },
        {
            "positions": [
                2.256490223826907,
                -1.2917691086808225,
                -1.3825479922857369,
                -1.5663768835222616,
                -1.3609040568591142,
                0.7451882440636546
            ]
        },
        {
            "positions": [
                2.1457121472608893,
                -1.3036264865590712,
                -1.248280346927885,
                -1.5708333665895284,
                -1.3083933438002227,
                0.8209803617782864
            ]
        },
        {
            "positions": [
                2.0349340706948715,
                -1.31548386443732,
                -1.114012701570033,
                -1.5752898496567953,
                -1.255882630741331,
                0.896772479492918
            ]
        },
        {
            "positions": [
                1.9241559941288537,
                -1.3273412423155686,
                -0.9797450562121809,
                -1.5797463327240622,
                -1.2033719176824396,
                0.9725645972075498
            ]
        },
        {
            "positions": [
                1.813377917562836,
                -1.3391986201938175,
                -0.845477410854329,
                -1.584202815791329,
                -1.1508612046235482,
                1.0483567149221815
            ]
        },
        {
            "positions": [
                1.7025998409968182,
                -1.3510559980720662,
                -0.7112097654964771,
                -1.588659298858596,
                -1.0983504915646567,
                1.1241488326368134
            ]
        },
        {
            "positions": [
                1.5918217644308001,
                -1.362913375950315,
                -0.5769421201386249,
                -1.5931157819258628,
                -1.0458397785057651,
                1.199940950351445
            ]
        },
        {
            "positions": [
                1.4810436878647821,
                -1.3747707538285636,
                -0.44267447478077293,
                -1.5975722649931297,
                -0.9933290654468736,
                1.2757330680660768
            ]
        },
        {
            "positions": [
                1.3702656112987643,
                -1.3866281317068123,
                -0.30840682942292097,
                -1.6020287480603965,
                -0.9408183523879822,
                1.3515251857807085
            ]
        },
        {
            "positions": [
                1.2594875347327465,
                -1.3984855095850612,
                -0.174139184065069,
                -1.6064852311276634,
                -0.8883076393290906,
                1.4273173034953404
            ]
        },
        {
            "positions": [
                1.1487094581667285,
                -1.41034288746331,
                -0.039871538707216825,
                -1.61094171419493,
                -0.8357969262701991,
                1.5031094212099723
            ]
        },
        {
            "positions": [
                1.0379313816007107,
                -1.4222002653415586,
                0.09439610665063491,
                -1.615398197262197,
                -0.7832862132113076,
                1.578901538924604
            ]
        },
        {
            "positions": [
                0.927153305034693,
                -1.4340576432198073,
                0.22866375200848688,
                -1.6198546803294638,
                -0.7307755001524161,
                1.6546936566392356
            ]
        },
        {
            "positions": [
                0.8163752284686749,
                -1.445915021098056,
                0.3629313973663393,
                -1.6243111633967307,
                -0.6782647870935246,
                1.7304857743538675
            ]
        },
        {
            "positions": [
                0.7055971519026574,
                -1.457772398976305,
                0.4971990427241908,
                -1.6287676464639975,
                -0.6257540740346332,
                1.8062778920684992
            ]
        },
        {
            "positions": [
                0.5948190753366394,
                -1.4696297768545536,
                0.6314666880820432,
                -1.6332241295312644,
                -0.5732433609757416,
                1.8820700097831309
            ]
        },
        {
            "positions": [
                0.48404099877062157,
                -1.4814871547328023,
                0.7657343334398952,
                -1.6376806125985313,
                -0.5207326479168501,
                1.9578621274977628
            ]
        },
        {
            "positions": [
                0.3732629222046038,
                -1.493344532611051,
                0.9000019787977467,
                -1.6421370956657981,
                -0.4682219348579586,
                2.0336542452123942
            ]
        },
        {
            "positions": [
                0.26248484563858554,
                -1.5052019104893,
                1.034269624155599,
                -1.646593578733065,
                -0.41571122179906705,
                2.109446362927026
            ]
        },
        {
            "positions": [
                0.15170676907256775,
                -1.5170592883675487,
                1.168537269513451,
                -1.6510500618003319,
                -0.3632005087401755,
                2.185238480641658
            ]
        },
        {
            "positions": [
                0.04092869250654996,
                -1.5289166662457974,
                1.302804914871303,
                -1.6555065448675987,
                -0.3106897956812842,
                2.2610305983562893
            ]
        },
        {
            "positions": [
                -0.06984938405946783,
                -1.540774044124046,
                1.4370725602291552,
                -1.6599630279348656,
                -0.25817908262239253,
                2.3368227160709214
            ]
        },
        {
            "positions": [
                -0.05849771256213814,
                -1.4484154200765724,
                1.5164822884503661,
                -1.5167736447632472,
                -0.2437270685431836,
                2.3822310451973907
            ]
        },
        {
            "positions": [
                -0.04714604106480845,
                -1.3560567960290988,
                1.595892016671577,
                -1.3735842615916287,
                -0.2292750544639747,
                2.42763937432386
            ]
        },
        {
            "positions": [
                -0.03579436956747876,
                -1.2636981719816254,
                1.675301744892788,
                -1.2303948784200103,
                -0.2148230403847658,
                2.4730477034503298
            ]
        },
        {
            "positions": [
                -0.024442698070149066,
                -1.1713395479341517,
                1.754711473113999,
                -1.0872054952483918,
                -0.20037102630555687,
                2.518456032576799
            ]
        },
        {
            "positions": [
                0.005035125166604943,
                -1.1658284815910531,
                1.8001131479945447,
                -1.0365060610625372,
                -0.1347727747914571,
                2.640717551165421
            ]
        },
        {
            "positions": [
                0.03451294840335895,
                -1.1603174152479545,
                1.8455148228750904,
                -0.9858066268766825,
                -0.06917452327735737,
                2.7629790697540426
            ]
        },
        {
            "positions": [
                0.06399077164011295,
                -1.1548063489048561,
                1.890916497755636,
                -0.935107192690828,
                -0.0035762717632576158,
                2.885240588342664
            ]
        },
        {
            "positions": [
                0.09346859487686697,
                -1.1492952825617575,
                1.9363181726361818,
                -0.8844077585049733,
                0.062021979750842116,
                3.0075021069312857
            ]
        },
        {
            "positions": [
                0.12294641811362099,
                -1.1437842162186589,
                1.9817198475167275,
                -0.8337083243191187,
                0.1276202312649419,
                3.1297636255199075
            ]
        }
    ]
}{
    "goal": {
        "global_pose": {
            "orientation": {
                "w": 0.7047431468963623,
                "x": -0.7094548344612122,
                "y": 0.0024358443915843964,
                "z": -0.0022348060738295317
            },
            "position": {
                "x": 0.6094750761985779,
                "y": 0.3671506643295288,
                "z": 0.19426114857196808
            }
        },
        "name": "move_to_magneteinheit_A"
    },
    "id": "LBKPIECE_move_to_magneteinheit_A_85",
    "joint_names": [
        "shoulder_pan_joint",
        "shoulder_lift_joint",
        "elbow_joint",
        "wrist_1_joint",
        "wrist_2_joint",
        "wrist_3_joint"
    ],
    "metrics": {
        "cart_traj_len": 1.2304445488023052,
        "distance_elbow_joint": 0.30622858176599443,
        "distance_shoulder_lift_joint": 0.7629239219865533,
        "distance_shoulder_pan_joint": 1.2428975098283146,
        "distance_wrist_1_joint": 1.3726802280068369,
        "distance_wrist_2_joint": 1.4372366633250413,
        "distance_wrist_3_joint": 4.339328184304275,
        "smoothness": 0.0994055863197027,
        "time": 0.576136225,
        "traj_len": 3.0759218275530045,
        "weighted_distance": 4.577102615100238
    },
    "planner": "LBKPIECE",
    "start": {
        "state": {
            "elbow_joint": 1.919643534880228,
            "shoulder_lift_joint": -1.8972525353963687,
            "shoulder_pan_joint": -1.1188672234189438,
            "wrist_1_joint": -1.5931878212786155,
            "wrist_2_joint": 1.5706036197970081,
            "wrist_3_joint": 1.118896926603594
        }
    },
    "waypoints": [
        {
            "positions": [
                -1.1188672234189438,
                -1.8972525353963687,
                1.919643534880228,
                -1.5931878212786155,
                1.5706036197970081,
                1.118896926603594
            ]
        },
        {
            "positions": [
                -1.096508327287126,
                -1.868788215666923,
                1.9355464186973095,
                -1.4921798912479112,
                1.462475836823487,
                1.0003499878420037
            ]
        },
        {
            "positions": [
                -1.0741494311553084,
                -1.8403238959374777,
                1.951449302514391,
                -1.391171961217207,
                1.354348053849966,
                0.8818030490804134
            ]
        },
        {
            "positions": [
                -1.0517905350234908,
                -1.811859576208032,
                1.9673521863314725,
                -1.2901640311865028,
                1.246220270876445,
                0.7632561103188231
            ]
        },
        {
            "positions": [
                -1.029431638891673,
                -1.7833952564785867,
                1.983255070148554,
                -1.1891561011557985,
                1.1380924879029237,
                0.6447091715572328
            ]
        },
        {
            "positions": [
                -1.0070727427598554,
                -1.754930936749141,
                1.9991579539656354,
                -1.0881481711250944,
                1.0299647049294025,
                0.5261622327956426
            ]
        },
        {
            "positions": [
                -0.9847138466280376,
                -1.7264666170196956,
                2.015060837782717,
                -0.9871402410943901,
                0.9218369219558815,
                0.4076152940340523
            ]
        },
        {
            "positions": [
                -0.9623549504962199,
                -1.69800229729025,
                2.0309637215997984,
                -0.8861323110636858,
                0.8137091389823603,
                0.289068355272462
            ]
        },
        {
            "positions": [
                -0.9399960543644023,
                -1.6695379775608046,
                2.04686660541688,
                -0.7851243810329815,
                0.7055813560088392,
                0.17052141651087172
            ]
        },
        {
            "positions": [
                -0.9176371582325845,
                -1.641073657831359,
                2.0627694892339616,
                -0.6841164510022772,
                0.5974535730353181,
                0.051974477749281434
            ]
        },
        {
            "positions": [
                -0.8952782621007669,
                -1.6126093381019135,
                2.078672373051043,
                -0.5831085209715732,
                0.4893257900617971,
                -0.06657246101230885
            ]
        },
        {
            "positions": [
                -0.8729193659689491,
                -1.584145018372468,
                2.0945752568681244,
                -0.4821005909408688,
                0.3811980070882759,
                -0.18511939977389913
            ]
        },
        {
            "positions": [
                -0.7962309311706168,
                -1.5495437564522638,
                2.0844754984236555,
                -0.5022231292231066,
                0.36213408011779064,
                -0.4186049273067285
            ]
        },
        {
            "positions": [
                -0.7195424963722845,
                -1.5149424945320598,
                2.0743757399791862,
                -0.5223456675053444,
                0.3430701531473054,
                -0.6520904548395579
            ]
        },
        {
            "positions": [
                -0.6428540615739522,
                -1.4803412326118557,
                2.064275981534717,
                -0.5424682057875821,
                0.32400622617682007,
                -0.8855759823723871
            ]
        },
        {
            "positions": [
                -0.5661656267756199,
                -1.4457399706916518,
                2.054176223090248,
                -0.5625907440698199,
                0.3049422992063348,
                -1.1190615099052166
            ]
        },
        {
            "positions": [
                -0.4894771919772876,
                -1.4111387087714478,
                2.044076464645779,
                -0.5827132823520577,
                0.28587837223584955,
                -1.352547037438046
            ]
        },
        {
            "positions": [
                -0.4127887571789553,
                -1.3765374468512437,
                2.03397670620131,
                -0.6028358206342954,
                0.2668144452653643,
                -1.586032564970875
            ]
        },
        {
            "positions": [
                -0.33610032238062304,
                -1.3419361849310396,
                2.0238769477568406,
                -0.6229583589165332,
                0.24775051829487904,
                -1.8195180925037044
            ]
        },
        {
            "positions": [
                -0.2594118875822907,
                -1.3073349230108355,
                2.0137771893123717,
                -0.6430808971987709,
                0.22868659132439376,
                -2.0530036200365336
            ]
        },
        {
            "positions": [
                -0.18272345278395852,
                -1.2727336610906317,
                2.003677430867903,
                -0.6632034354810088,
                0.2096226643539085,
                -2.286489147569363
            ]
        },
        {
            "positions": [
                -0.10603501798562609,
                -1.2381323991704276,
                1.9935776724234335,
                -0.6833259737632466,
                0.19055873738342324,
                -2.5199746751021928
            ]
        },
        {
            "positions": [
                -0.029346583187293884,
                -1.2035311372502235,
                1.9834779139789644,
                -0.7034485120454843,
                0.171494810412938,
                -2.7534602026350217
            ]
        },
        {
            "positions": [
                0.04734185161103854,
                -1.1689298753300195,
                1.9733781555344954,
                -0.7235710503277221,
                0.1524308834424527,
                -2.986945730167851
            ]
        },
        {
            "positions": [
                0.1240302864093707,
                -1.1343286134098154,
                1.9632783970900263,
                -0.7436935886099598,
                0.13336695647196745,
                -3.2204312577006804
            ]
        }
    ]
}