{
    "goal": {
        "global_pose": {
            "orientation": {
                "w": 0.5084816217422485,
                "x": -0.49083608388900757,
                "y": 0.5182115435600281,
                "z": -0.4816462993621826
            },
            "position": {
                "x": 0.5540239810943604,
                "y": 0.030875300988554955,
                "z": 0.16403168439865112
            }
        },
        "name": "move_to_storage_A"
    },
    "id": "LBKPIECE_move_to_storage_A_136",
    "joint_names": [
        "shoulder_pan_joint",
        "shoulder_lift_joint",
        "elbow_joint",
        "wrist_1_joint",
        "wrist_2_joint",
        "wrist_3_joint"
    ],
    "metrics": {
        "cart_traj_len": 0.35218469487456183,
        "distance_elbow_joint": 0.44725764726484485,
        "distance_shoulder_lift_joint": 0.2341641832847463,
        "distance_shoulder_pan_joint": 0.4614615858884429,
        "distance_wrist_1_joint": 0.23530770971528703,
        "distance_wrist_2_joint": 1.0923637412845428,
        "distance_wrist_3_joint": 0.09987259189733644,
        "smoothness": 2.2204460668324854e-16,
        "time": 0.575847828,
        "traj_len": 1.603255269548552,
        "weighted_distance": 2.0243132401211286
    },
    "planner": "LBKPIECE",
    "start": {
        "state": {
            "elbow_joint": 1.9715477243005601,
            "shoulder_lift_joint": -1.1394853015351272,
            "shoulder_pan_joint": 0.12281154014795169,
            "wrist_1_joint": -0.7804696478968182,
            "wrist_2_joint": 0.12958648046900423,
            "wrist_3_joint": -3.192491284697111
        }
    },
    "waypoints": [
        {
            "positions": [
                0.12281154014795169,
                -1.1394853015351272,
                1.9715477243005601,
                -0.7804696478968182,
                0.12958648046900423,
                -3.192491284697111
            ]
        },
        {
            "positions": [
                0.056888456449602706,
                -1.1729373277186623,
                2.0354416739098236,
                -0.814085034999002,
                0.2856384435096532,
                -3.1782237715689203
            ]
        },
        {
            "positions": [
                -0.009034627248746277,
                -1.2063893539021975,
                2.0993356235190874,
                -0.8477004221011859,
                0.4416904065503022,
                -3.1639562584407295
            ]
        },
        {
            "positions": [
                -0.07495771094709526,
                -1.2398413800857326,
                2.163229573128351,
                -0.8813158092033697,
                0.5977423695909512,
                -3.1496887453125386
            ]
        },
        {
            "positions": [
                -0.14088079464544423,
                -1.2732934062692678,
                2.2271235227376143,
                -0.9149311963055536,
                0.7537943326316001,
                -3.1354212321843473
            ]
        },
        {
            "positions": [
                -0.2068038783437932,
                -1.3067454324528032,
                2.291017472346878,
                -0.9485465834077375,
                0.9098462956722492,
                -3.1211537190561565
            ]
        },
        {
            "positions": [
                -0.2727269620421422,
                -1.3401974586363383,
                2.3549114219561416,
                -0.9821619705099214,
                1.065898258712898,
                -3.1068862059279656
            ]
        },
        {
            "positions": [
                -0.3386500457404912,
                -1.3736494848198735,
                2.418805371565405,
                -1.0157773576121052,
                1.221950221753547,
                -3.0926186927997747
            ]
        }
    ]
}