{
    "goal": {
        "global_pose": {
            "orientation": {
                "w": 0.7047431468963623,
                "x": -0.7094548344612122,
                "y": 0.0024358443915843964,
                "z": -0.0022348060738295317
            },
            "position": {
                "x": 0.6094750761985779,
                "y": 0.3671506643295288,
                "z": 0.19426114857196808
            }
        },
        "name": "move_to_magneteinheit_A"
    },
    "id": "LBKPIECE_move_to_magneteinheit_A_75",
    "joint_names": [
        "shoulder_pan_joint",
        "shoulder_lift_joint",
        "elbow_joint",
        "wrist_1_joint",
        "wrist_2_joint",
        "wrist_3_joint"
    ],
    "metrics": {
        "cart_traj_len": 3.3338008942656265,
        "distance_elbow_joint": 3.9088414349321914,
        "distance_shoulder_lift_joint": 0.6403722398317477,
        "distance_shoulder_pan_joint": 3.0098151557081456,
        "distance_wrist_1_joint": 3.4563135426075333,
        "distance_wrist_2_joint": 1.6632872081524699,
        "distance_wrist_3_joint": 0.7124591746220259,
        "smoothness": 0.26997195347823844,
        "time": 0.37595751600000005,
        "traj_len": 3.659383657920294,
        "weighted_distance": 4.464930890378727
    },
    "planner": "LBKPIECE",
    "start": {
        "state": {
            "elbow_joint": -1.919618573717145,
            "shoulder_lift_joint": -1.2443395971678275,
            "shoulder_pan_joint": 2.6996025300909787,
            "wrist_1_joint": -1.548550951253194,
            "wrist_2_joint": -1.5709469090946802,
            "wrist_3_joint": 0.4420197732051276
        }
    },
    "waypoints": [
        {
            "positions": [
                2.6996025300909787,
                -1.2443395971678275,
                -1.919618573717145,
                -1.548550951253194,
                -1.5709469090946802,
                0.4420197732051276
            ]
        },
        {
            "positions": [
                2.598162240986445,
                -1.2319328784203984,
                -1.816478811447843,
                -1.4480198223912006,
                -1.5259973175069892,
                0.4209680624574065
            ]
        },
        {
            "positions": [
                2.496721951881911,
                -1.2195261596729694,
                -1.713339049178541,
                -1.3474886935292072,
                -1.481047725919298,
                0.3999163517096854
            ]
        },
        {
            "positions": [
                2.395281662777377,
                -1.2071194409255404,
                -1.6101992869092392,
                -1.246957564667214,
                -1.436098134331607,
                0.37886464096196437
            ]
        },
        {
            "positions": [
                2.2938413736728434,
                -1.1947127221781113,
                -1.5070595246399372,
                -1.1464264358052205,
                -1.391148542743916,
                0.35781293021424326
            ]
        },
        {
            "positions": [
                2.1924010845683095,
                -1.1823060034306823,
                -1.4039197623706352,
                -1.045895306943227,
                -1.346198951156225,
                0.33676121946652215
            ]
        },
        {
            "positions": [
                2.0909607954637757,
                -1.1698992846832534,
                -1.3007800001013332,
                -0.9453641780812336,
                -1.301249359568534,
                0.3157095087188011
            ]
        },
        {
            "positions": [
                1.989520506359242,
                -1.1574925659358244,
                -1.1976402378320312,
                -0.8448330492192402,
                -1.2562997679808428,
                0.29465779797108005
            ]
        },
        {
            "positions": [
                1.8880802172547084,
                -1.1450858471883953,
                -1.0945004755627292,
                -0.7443019203572468,
                -1.211350176393152,
                0.27360608722335894
            ]
        },
        {
            "positions": [
                1.7866399281501746,
                -1.1326791284409663,
                -0.9913607132934273,
                -0.6437707914952534,
                -1.1664005848054608,
                0.25255437647563783
            ]
        },
        {
            "positions": [
                1.6851996390456405,
                -1.1202724096935373,
                -0.8882209510241252,
                -0.5432396626332598,
                -1.1214509932177696,
                0.23150266572791678
            ]
        },
        {
            "positions": [
                1.583759349941107,
                -1.1078656909461082,
                -0.7850811887548235,
                -0.4427085337712666,
                -1.076501401630079,
                0.2104509549801957
            ]
        },
        {
            "positions": [
                1.482319060836573,
                -1.0954589721986792,
                -0.6819414264855215,
                -0.3421774049092732,
                -1.0315518100423877,
                0.18939924423247462
            ]
        },
        {
            "positions": [
                1.3808787717320394,
                -1.0830522534512501,
                -0.5788016642162197,
                -0.24164627604727995,
                -0.9866022184546968,
                0.16834753348475356
            ]
        },
        {
            "positions": [
                1.2794384826275054,
                -1.070645534703821,
                -0.4756619019469175,
                -0.14111514718528628,
                -0.9416526268670056,
                0.14729582273703246
            ]
        },
        {
            "positions": [
                1.1779981935229715,
                -1.058238815956392,
                -0.3725221396776155,
                -0.04058401832329306,
                -0.8967030352793146,
                0.12624411198931135
            ]
        },
        {
            "positions": [
                1.076557904418438,
                -1.045832097208963,
                -0.2693823774083137,
                0.05994711053870039,
                -0.8517534436916236,
                0.1051924012415903
            ]
        },
        {
            "positions": [
                0.9751176153139038,
                -1.033425378461534,
                -0.1662426151390115,
                0.16047823940069406,
                -0.8068038521039325,
                0.08414069049386919
            ]
        },
        {
            "positions": [
                0.8736773262093702,
                -1.0210186597141049,
                -0.06310285286970974,
                0.2610093682626873,
                -0.7618542605162415,
                0.06308897974614813
            ]
        },
        {
            "positions": [
                0.7722370371048366,
                -1.008611940966676,
                0.040036909399592036,
                0.3615404971246805,
                -0.7169046689285505,
                0.04203726899842708
            ]
        },
        {
            "positions": [
                0.6707967480003023,
                -0.9962052222192469,
                0.14317667166889447,
                0.4620716259866744,
                -0.6719550773408594,
                0.02098555825070597
            ]
        },
        {
            "positions": [
                0.5693564588957689,
                -0.983798503471818,
                0.24631643393819602,
                0.5626027548486676,
                -0.6270054857531684,
                -6.615249701508175e-05
            ]
        },
        {
            "positions": [
                0.46791616979123507,
                -0.9713917847243889,
                0.349456196207498,
                0.6631338837106608,
                -0.5820558941654774,
                -0.02111786324473619
            ]
        },
        {
            "positions": [
                0.3664758806867012,
                -0.9589850659769599,
                0.4525959584768,
                0.7636650125726545,
                -0.5371063025777862,
                -0.0421695739924573
            ]
        },
        {
            "positions": [
                0.2650355915821673,
                -0.9465783472295308,
                0.5557357207461018,
                0.864196141434648,
                -0.4921567109900954,
                -0.06322128474017835
            ]
        },
        {
            "positions": [
                0.2202036343289024,
                -0.9144678831322696,
                0.690834066308564,
                0.9400107600876486,
                -0.43331503990270515,
                -0.07097684172205447
            ]
        },
        {
            "positions": [
                0.17537167707563753,
                -0.8823574190350084,
                0.8259324118710263,
                1.0158253787406495,
                -0.3744733688153149,
                -0.07873239870393059
            ]
        },
        {
            "positions": [
                0.13053971982237267,
                -0.8502469549377472,
                0.9610307574334885,
                1.0916399973936501,
                -0.31563169772792465,
                -0.08648795568580671
            ]
        },
        {
            "positions": [
                0.08570776256910778,
                -0.818136490840486,
                1.0961291029959508,
                1.1674546160466508,
                -0.2567900266405344,
                -0.09424351266768283
            ]
        },
        {
            "positions": [
                0.040875805315842895,
                -0.7860260267432247,
                1.2312274485584132,
                1.2432692346996514,
                -0.19794835555314416,
                -0.10199906964955895
            ]
        },
        {
            "positions": [
                -0.003956151937421937,
                -0.7539155626459635,
                1.3663257941208753,
                1.319083853352652,
                -0.13910668446575392,
                -0.10975462663143506
            ]
        },
        {
            "positions": [
                -0.048788109190686824,
                -0.7218050985487023,
                1.5014241396833374,
                1.394898472005653,
                -0.08026501337836367,
                -0.11751018361331118
            ]
        },
        {
            "positions": [
                -0.09362006644395171,
                -0.6896946344514411,
                1.6365224852457998,
                1.4707130906586536,
                -0.021423342290973424,
                -0.1252657405951873
            ]
        },
        {
            "positions": [
                -0.03947192665064816,
                -0.7111264537302814,
                1.7246975792381112,
                1.579975465832575,
                -0.04986425262816415,
                -0.08897232538975958
            ]
        },
        {
            "positions": [
                0.014676213142655395,
                -0.7325582730091218,
                1.8128726732304226,
                1.6892378410064965,
                -0.07830516296535488,
                -0.052678910184331865
            ]
        },
        {
            "positions": [
                0.06882435293595895,
                -0.7539900922879621,
                1.9010477672227342,
                1.798500216180418,
                -0.1067460733025456,
                -0.016385494978904153
            ]
        },
        {
            "positions": [
                0.1229724927292625,
                -0.7754219115668024,
                1.9892228612150455,
                1.9077625913543395,
                -0.13518698363973633,
                0.019907920226523577
            ]
        }
    ]
}{
    "goal": {
        "global_pose": {
            "orientation": {
                "w": 0.7047431468963623,
                "x": -0.7094548344612122,
                "y": 0.0024358443915843964,
                "z": -0.0022348060738295317
            },
            "position": {
                "x": 0.6094750761985779,
                "y": 0.3671506643295288,
                "z": 0.19426114857196808
            }
        },
        "name": "move_to_magneteinheit_A"
    },
    "id": "LBKPIECE_move_to_magneteinheit_A_75",
    "joint_names": [
        "shoulder_pan_joint",
        "shoulder_lift_joint",
        "elbow_joint",
        "wrist_1_joint",
        "wrist_2_joint",
        "wrist_3_joint"
    ],
    "metrics": {
        "cart_traj_len": 1.3044547657764396,
        "distance_elbow_joint": 0.6134096104711162,
        "distance_shoulder_lift_joint": 0.7503305382333443,
        "distance_shoulder_pan_joint": 1.242628459139208,
        "distance_wrist_1_joint": 0.7272650976537831,
        "distance_wrist_2_joint": 1.4497108085317034,
        "distance_wrist_3_joint": 4.236691267194679,
        "smoothness": 0.05181074365797536,
        "time": 0.457235332,
        "traj_len": 3.00333744045251,
        "weighted_distance": 4.435131815605787
    },
    "planner": "LBKPIECE",
    "start": {
        "state": {
            "elbow_joint": 1.919643534880228,
            "shoulder_lift_joint": -1.8972525353963687,
            "shoulder_pan_joint": -1.1188672234189438,
            "wrist_1_joint": -1.5931878212786155,
            "wrist_2_joint": 1.5706036197970081,
            "wrist_3_joint": 1.118896926603594
        }
    },
    "waypoints": [
        {
            "positions": [
                -1.1188672234189438,
                -1.8972525353963687,
                1.919643534880228,
                -1.5931878212786155,
                1.5706036197970081,
                1.118896926603594
            ]
        },
        {
            "positions": [
                -1.0699717994447508,
                -1.8638121895138233,
                1.9044977939879217,
                -1.5631190598379656,
                1.4973753772898812,
                0.927599754840104
            ]
        },
        {
            "positions": [
                -1.021076375470558,
                -1.8303718436312781,
                1.8893520530956154,
                -1.5330502983973158,
                1.4241471347827543,
                0.7363025830766141
            ]
        },
        {
            "positions": [
                -0.9721809514963652,
                -1.7969314977487327,
                1.874206312203309,
                -1.502981536956666,
                1.3509188922756274,
                0.5450054113131242
            ]
        },
        {
            "positions": [
                -0.9232855275221723,
                -1.7634911518661873,
                1.8590605713110024,
                -1.4729127755160163,
                1.2776906497685006,
                0.35370823954963415
            ]
        },
        {
            "positions": [
                -0.8743901035479793,
                -1.730050805983642,
                1.843914830418696,
                -1.4428440140753662,
                1.2044624072613737,
                0.16241106778614423
            ]
        },
        {
            "positions": [
                -0.8254946795737865,
                -1.6966104601010967,
                1.8287690895263897,
                -1.4127752526347166,
                1.1312341647542468,
                -0.02888610397734559
            ]
        },
        {
            "positions": [
                -0.7765992555995935,
                -1.6631701142185513,
                1.8136233486340834,
                -1.3827064911940667,
                1.0580059222471199,
                -0.22018327574083574
            ]
        },
        {
            "positions": [
                -0.7277038316254008,
                -1.629729768336006,
                1.798477607741777,
                -1.352637729753417,
                0.984777679739993,
                -0.41148044750432566
            ]
        },
        {
            "positions": [
                -0.6788084076512078,
                -1.5962894224534607,
                1.7833318668494704,
                -1.322568968312767,
                0.9115494372328661,
                -0.6027776192678156
            ]
        },
        {
            "positions": [
                -0.6299129836770148,
                -1.5628490765709153,
                1.768186125957164,
                -1.2925002068721172,
                0.8383211947257392,
                -0.7940747910313055
            ]
        },
        {
            "positions": [
                -0.5810175597028219,
                -1.52940873068837,
                1.7530403850648577,
                -1.2624314454314673,
                0.7650929522186122,
                -0.9853719627947954
            ]
        },
        {
            "positions": [
                -0.5321221357286291,
                -1.4959683848058245,
                1.7378946441725514,
                -1.2323626839908175,
                0.6918647097114854,
                -1.1766691345582851
            ]
        },
        {
            "positions": [
                -0.4832267117544362,
                -1.4625280389232793,
                1.722748903280245,
                -1.2022939225501679,
                0.6186364672043585,
                -1.3679663063217753
            ]
        },
        {
            "positions": [
                -0.4343312877802432,
                -1.429087693040734,
                1.7076031623879386,
                -1.1722251611095178,
                0.5454082246972316,
                -1.5592634780852654
            ]
        },
        {
            "positions": [
                -0.3854358638060503,
                -1.3956473471581885,
                1.6924574214956323,
                -1.1421563996688682,
                0.4721799821901047,
                -1.7505606498487556
            ]
        },
        {
            "positions": [
                -0.33654043983185755,
                -1.3622070012756433,
                1.6773116806033257,
                -1.1120876382282183,
                0.3989517396829778,
                -1.9418578216122453
            ]
        },
        {
            "positions": [
                -0.28764501585766455,
                -1.328766655393098,
                1.6621659397110193,
                -1.0820188767875685,
                0.3257234971758509,
                -2.1331549933757348
            ]
        },
        {
            "positions": [
                -0.2387495918834716,
                -1.2953263095105525,
                1.647020198818713,
                -1.0519501153469186,
                0.25249525466872413,
                -2.324452165139225
            ]
        },
        {
            "positions": [
                -0.1662474263627245,
                -1.265645447041047,
                1.7151774537006332,
                -1.0147446370025013,
                0.22617476598804023,
                -2.483120600229597
            ]
        },
        {
            "positions": [
                -0.0937452608419774,
                -1.2359645845715412,
                1.7833347085825535,
                -0.9775391586580842,
                0.19985427730735633,
                -2.641789035319969
            ]
        },
        {
            "positions": [
                -0.021243095321230282,
                -1.2062837221020357,
                1.8514919634644735,
                -0.9403336803136668,
                0.1735337886266724,
                -2.800457470410341
            ]
        },
        {
            "positions": [
                0.05125907019951681,
                -1.17660285963253,
                1.9196492183463938,
                -0.9031282019692496,
                0.1472132999459885,
                -2.959125905500713
            ]
        },
        {
            "positions": [
                0.1237612357202639,
                -1.1469219971630245,
                1.987806473228314,
                -0.8659227236248324,
                0.12089281126530461,
                -3.117794340591085
            ]
        }
    ]
}