{
    "goal": {
        "global_pose": {
            "orientation": {
                "w": 0.5084816217422485,
                "x": -0.49083608388900757,
                "y": 0.5182115435600281,
                "z": -0.4816462993621826
            },
            "position": {
                "x": 0.5540239810943604,
                "y": 0.030875300988554955,
                "z": 0.16403168439865112
            }
        },
        "name": "move_to_storage_A"
    },
    "id": "LBKPIECE_move_to_storage_A_24",
    "joint_names": [
        "shoulder_pan_joint",
        "shoulder_lift_joint",
        "elbow_joint",
        "wrist_1_joint",
        "wrist_2_joint",
        "wrist_3_joint"
    ],
    "metrics": {
        "cart_traj_len": 0.35253325180598444,
        "distance_elbow_joint": 0.44801529828741193,
        "distance_shoulder_lift_joint": 0.2367532674103887,
        "distance_shoulder_pan_joint": 0.4621986065511321,
        "distance_wrist_1_joint": 0.23272735978913717,
        "distance_wrist_2_joint": 1.0933411427728248,
        "distance_wrist_3_joint": 0.10030314338267665,
        "smoothness": 1.3322676295501878e-15,
        "time": 0.32677504399999996,
        "traj_len": 1.6041629649738118,
        "weighted_distance": 2.0248490332666496
    },
    "planner": "LBKPIECE",
    "start": {
        "state": {
            "elbow_joint": 1.9715477243005601,
            "shoulder_lift_joint": -1.1394853015351272,
            "shoulder_pan_joint": 0.12281154014795169,
            "wrist_1_joint": -0.7804696478968182,
            "wrist_2_joint": 0.12958648046900423,
            "wrist_3_joint": -3.192491284697111
        }
    },
    "waypoints": [
        {
            "positions": [
                0.12281154014795169,
                -1.1394853015351272,
                1.9715477243005601,
                -0.7804696478968182,
                0.12958648046900423,
                -3.192491284697111
            ]
        },
        {
            "positions": [
                0.05678316778350426,
                -1.1733071968794684,
                2.0355499097701903,
                -0.8137164135809806,
                0.28577807229369345,
                -3.1781622642138716
            ]
        },
        {
            "positions": [
                -0.009245204580943175,
                -1.2071290922238096,
                2.0995520952398206,
                -0.8469631792651431,
                0.44196966411838273,
                -3.163833243730632
            ]
        },
        {
            "positions": [
                -0.07527357694539062,
                -1.2409509875681508,
                2.1635542807094508,
                -0.8802099449493055,
                0.598161255943072,
                -3.1495042232473924
            ]
        },
        {
            "positions": [
                -0.14130194930983803,
                -1.274772882912492,
                2.227556466179081,
                -0.913456710633468,
                0.7543528477677612,
                -3.1351752027641533
            ]
        },
        {
            "positions": [
                -0.2073303216742855,
                -1.3085947782568335,
                2.2915586516487116,
                -0.9467034763176304,
                0.9105444395924506,
                -3.1208461822809137
            ]
        },
        {
            "positions": [
                -0.2733586940387329,
                -1.3424166736011747,
                2.355560837118342,
                -0.9799502420017929,
                1.0667360314171397,
                -3.106517161797674
            ]
        },
        {
            "positions": [
                -0.3393870664031804,
                -1.3762385689455159,
                2.419563022587972,
                -1.0131970076859553,
                1.222927623241829,
                -3.0921881413144345
            ]
        }
    ]
}