{
    "goal": {
        "global_pose": {
            "orientation": {
                "w": 0.5084816217422485,
                "x": -0.49083608388900757,
                "y": 0.5182115435600281,
                "z": -0.4816462993621826
            },
            "position": {
                "x": 0.5540239810943604,
                "y": 0.030875300988554955,
                "z": 0.16403168439865112
            }
        },
        "name": "move_to_storage_A"
    },
    "id": "LBKPIECE_move_to_storage_A_31",
    "joint_names": [
        "shoulder_pan_joint",
        "shoulder_lift_joint",
        "elbow_joint",
        "wrist_1_joint",
        "wrist_2_joint",
        "wrist_3_joint"
    ],
    "metrics": {
        "cart_traj_len": 0.353221038426529,
        "distance_elbow_joint": 0.4532945495160412,
        "distance_shoulder_lift_joint": 0.2333212186331035,
        "distance_shoulder_pan_joint": 0.4617643309920825,
        "distance_wrist_1_joint": 0.26076359044127206,
        "distance_wrist_2_joint": 1.0991930850518208,
        "distance_wrist_3_joint": 0.10501741684464605,
        "smoothness": 8.881784232165597e-16,
        "time": 0.140097178,
        "traj_len": 1.6165872050337917,
        "weighted_distance": 2.045322884207125
    },
    "planner": "LBKPIECE",
    "start": {
        "state": {
            "elbow_joint": 1.9715477243005601,
            "shoulder_lift_joint": -1.1394853015351272,
            "shoulder_pan_joint": 0.12281154014795169,
            "wrist_1_joint": -0.7804696478968182,
            "wrist_2_joint": 0.12958648046900423,
            "wrist_3_joint": -3.192491284697111
        }
    },
    "waypoints": [
        {
            "positions": [
                0.12281154014795169,
                -1.1394853015351272,
                1.9715477243005601,
                -0.7804696478968182,
                0.12958648046900423,
                -3.192491284697111
            ]
        },
        {
            "positions": [
                0.05684520714908277,
                -1.1728169041969991,
                2.0363040885171375,
                -0.8177215893884284,
                0.28661406404783574,
                -3.1774887965764473
            ]
        },
        {
            "positions": [
                -0.009121125849786152,
                -1.206148506858871,
                2.101060452733715,
                -0.8549735308800388,
                0.4436416476266673,
                -3.162486308455784
            ]
        },
        {
            "positions": [
                -0.07508745884865507,
                -1.239480109520743,
                2.1658168169502923,
                -0.8922254723716491,
                0.6006692312054989,
                -3.14748382033512
            ]
        },
        {
            "positions": [
                -0.14105379184752398,
                -1.2728117121826148,
                2.230573181166869,
                -0.9294774138632593,
                0.7576968147843304,
                -3.1324813322144562
            ]
        },
        {
            "positions": [
                -0.20702012484639293,
                -1.3061433148444868,
                2.2953295453834466,
                -0.9667293553548697,
                0.914724398363162,
                -3.1174788440937924
            ]
        },
        {
            "positions": [
                -0.2729864578452618,
                -1.3394749175063587,
                2.360085909600024,
                -1.0039812968464799,
                1.0717519819419934,
                -3.102476355973129
            ]
        },
        {
            "positions": [
                -0.33895279084413077,
                -1.3728065201682307,
                2.4248422738166013,
                -1.0412332383380902,
                1.2287795655208251,
                -3.087473867852465
            ]
        }
    ]
}