{
    "goal": {
        "global_pose": {
            "orientation": {
                "w": 0.7047431468963623,
                "x": -0.7094548344612122,
                "y": 0.0024358443915843964,
                "z": -0.0022348060738295317
            },
            "position": {
                "x": 0.6094750761985779,
                "y": 0.3671506643295288,
                "z": 0.19426114857196808
            }
        },
        "name": "move_to_magneteinheit_A"
    },
    "id": "LBKPIECE_move_to_magneteinheit_A_111",
    "joint_names": [
        "shoulder_pan_joint",
        "shoulder_lift_joint",
        "elbow_joint",
        "wrist_1_joint",
        "wrist_2_joint",
        "wrist_3_joint"
    ],
    "metrics": {
        "cart_traj_len": 2.9907095147001166,
        "distance_elbow_joint": 3.9437257572585063,
        "distance_shoulder_lift_joint": 0.45246423100504873,
        "distance_shoulder_pan_joint": 2.740541836076867,
        "distance_wrist_1_joint": 3.8321737462291052,
        "distance_wrist_2_joint": 1.5168469693248148,
        "distance_wrist_3_joint": 1.1216071142686515,
        "smoothness": 0.14484341793525377,
        "time": 0.36795353199999997,
        "traj_len": 3.6888154811759013,
        "weighted_distance": 4.604301749261685
    },
    "planner": "LBKPIECE",
    "start": {
        "state": {
            "elbow_joint": -1.919618573717145,
            "shoulder_lift_joint": -1.2443395971678275,
            "shoulder_pan_joint": 2.6996025300909787,
            "wrist_1_joint": -1.548550951253194,
            "wrist_2_joint": -1.5709469090946802,
            "wrist_3_joint": 0.4420197732051276
        }
    },
    "waypoints": [
        {
            "positions": [
                2.6996025300909787,
                -1.2443395971678275,
                -1.919618573717145,
                -1.548550951253194,
                -1.5709469090946802,
                0.4420197732051276
            ]
        },
        {
            "positions": [
                2.6054853566661222,
                -1.2395351127816896,
                -1.836138091891764,
                -1.4314060438796836,
                -1.5272840063804007,
                0.4041451203691797
            ]
        },
        {
            "positions": [
                2.511368183241266,
                -1.2347306283955517,
                -1.7526576100663829,
                -1.3142611365061732,
                -1.4836211036661213,
                0.3662704675332319
            ]
        },
        {
            "positions": [
                2.4172510098164097,
                -1.2299261440094138,
                -1.669177128241002,
                -1.1971162291326625,
                -1.439958200951842,
                0.328395814697284
            ]
        },
        {
            "positions": [
                2.3231338363915537,
                -1.225121659623276,
                -1.585696646415621,
                -1.079971321759152,
                -1.3962952982375625,
                0.29052116186133614
            ]
        },
        {
            "positions": [
                2.229016662966697,
                -1.220317175237138,
                -1.50221616459024,
                -0.9628264143856415,
                -1.352632395523283,
                0.2526465090253883
            ]
        },
        {
            "positions": [
                2.1348994895418407,
                -1.215512690851,
                -1.4187356827648592,
                -0.845681507012131,
                -1.3089694928090037,
                0.21477185618944045
            ]
        },
        {
            "positions": [
                2.0407823161169847,
                -1.2107082064648622,
                -1.335255200939478,
                -0.7285365996386205,
                -1.2653065900947242,
                0.17689720335349257
            ]
        },
        {
            "positions": [
                1.9466651426921282,
                -1.2059037220787243,
                -1.251774719114097,
                -0.6113916922651099,
                -1.2216436873804448,
                0.1390225505175447
            ]
        },
        {
            "positions": [
                1.8525479692672722,
                -1.2010992376925866,
                -1.1682942372887162,
                -0.49424678489159946,
                -1.1779807846661652,
                0.10114789768159688
            ]
        },
        {
            "positions": [
                1.7584307958424157,
                -1.1962947533064487,
                -1.084813755463335,
                -0.377101877518089,
                -1.134317881951886,
                0.063273244845649
            ]
        },
        {
            "positions": [
                1.6643136224175592,
                -1.1914902689203108,
                -1.001333273637954,
                -0.2599569701445783,
                -1.0906549792376063,
                0.025398592009701126
            ]
        },
        {
            "positions": [
                1.5701964489927032,
                -1.186685784534173,
                -0.9178527918125732,
                -0.14281206277106784,
                -1.0469920765233272,
                -0.012476060826246693
            ]
        },
        {
            "positions": [
                1.4760792755678467,
                -1.181881300148035,
                -0.834372309987192,
                -0.02566715539755715,
                -1.0033291738090475,
                -0.050350713662194624
            ]
        },
        {
            "positions": [
                1.3819621021429904,
                -1.1770768157618972,
                -0.7508918281618113,
                0.09147775197595309,
                -0.9596662710947682,
                -0.08822536649814244
            ]
        },
        {
            "positions": [
                1.2878449287181342,
                -1.1722723313757593,
                -0.6674113463364302,
                0.20862265934946378,
                -0.9160033683804887,
                -0.12610001933409037
            ]
        },
        {
            "positions": [
                1.193727755293278,
                -1.1674678469896214,
                -0.5839308645110493,
                0.32576756672297424,
                -0.8723404656662094,
                -0.1639746721700382
            ]
        },
        {
            "positions": [
                1.0996105818684214,
                -1.1626633626034835,
                -0.5004503826856681,
                0.44291247409648493,
                -0.8286775629519298,
                -0.201849325005986
            ]
        },
        {
            "positions": [
                1.0054934084435654,
                -1.1578588782173456,
                -0.4169699008602874,
                0.5600573814699952,
                -0.7850146602376504,
                -0.23972397784193383
            ]
        },
        {
            "positions": [
                0.9113762350187089,
                -1.1530543938312077,
                -0.33348941903490625,
                0.6772022888435061,
                -0.741351757523371,
                -0.27759863067788176
            ]
        },
        {
            "positions": [
                0.8438590778955246,
                -1.1409161650368738,
                -0.19966038819299498,
                0.7940741876610352,
                -0.6905176184507639,
                -0.288824954784841
            ]
        },
        {
            "positions": [
                0.7763419207723402,
                -1.1287779362425399,
                -0.0658313573510837,
                0.9109460864785643,
                -0.6396834793781566,
                -0.3000512788918002
            ]
        },
        {
            "positions": [
                0.7088247636491558,
                -1.1166397074482062,
                0.06799767349082758,
                1.0278179852960934,
                -0.5888493403055495,
                -0.3112776029987594
            ]
        },
        {
            "positions": [
                0.6413076065259715,
                -1.1045014786538723,
                0.20182670433273886,
                1.1446898841136226,
                -0.5380152012329423,
                -0.3225039271057186
            ]
        },
        {
            "positions": [
                0.5737904494027872,
                -1.0923632498595384,
                0.3356557351746502,
                1.2615617829311518,
                -0.48718106216033513,
                -0.33373025121267785
            ]
        },
        {
            "positions": [
                0.5062732922796028,
                -1.0802250210652045,
                0.4694847660165614,
                1.3784336817486809,
                -0.436346923087728,
                -0.3449565753196371
            ]
        },
        {
            "positions": [
                0.4387561351564184,
                -1.0680867922708706,
                0.6033137968584728,
                1.49530558056621,
                -0.3855127840151208,
                -0.3561828994265963
            ]
        },
        {
            "positions": [
                0.37123897803323413,
                -1.0559485634765367,
                0.737142827700384,
                1.6121774793837393,
                -0.3346786449425136,
                -0.36740922353355554
            ]
        },
        {
            "positions": [
                0.30372182091004973,
                -1.043810334682203,
                0.8709718585422954,
                1.7290493782012684,
                -0.28384450586990645,
                -0.37863554764051477
            ]
        },
        {
            "positions": [
                0.23620466378686544,
                -1.031672105887869,
                1.0048008893842066,
                1.8459212770187974,
                -0.23301036679729925,
                -0.38986187174747394
            ]
        },
        {
            "positions": [
                0.16868750666368104,
                -1.0195338770935352,
                1.1386299202261179,
                1.9627931758363266,
                -0.18217622772469214,
                -0.40108819585443317
            ]
        },
        {
            "positions": [
                0.10453947919977505,
                -1.0015697505085814,
                1.2817253203071468,
                2.0621548900996007,
                -0.13493780057307278,
                -0.4043766764396546
            ]
        },
        {
            "positions": [
                0.04039145173586905,
                -0.9836056239236279,
                1.424820720388176,
                2.161516604362875,
                -0.08769937342145342,
                -0.40766515702487605
            ]
        },
        {
            "positions": [
                0.05741988838741107,
                -0.9249901430805866,
                1.6056994649230438,
                2.125064924267534,
                -0.09213143749882546,
                -0.3285559608099894
            ]
        },
        {
            "positions": [
                0.0744483250389531,
                -0.8663746622375453,
                1.7865782094579115,
                2.0886132441721927,
                -0.0965635015761975,
                -0.24944676459510268
            ]
        },
        {
            "positions": [
                0.09147676169049512,
                -0.807759181394504,
                1.9674569539927793,
                2.052161564076852,
                -0.10099556565356954,
                -0.17033756838021596
            ]
        },
        {
            "positions": [
                0.12172220945762742,
                -0.7918753661627788,
                2.024107183541362,
                2.039410413749839,
                -0.12129880707304123,
                -0.13574297298622834
            ]
        }
    ]
}{
    "goal": {
        "global_pose": {
            "orientation": {
                "w": 0.7047431468963623,
                "x": -0.7094548344612122,
                "y": 0.0024358443915843964,
                "z": -0.0022348060738295317
            },
            "position": {
                "x": 0.6094750761985779,
                "y": 0.3671506643295288,
                "z": 0.19426114857196808
            }
        },
        "name": "move_to_magneteinheit_A"
    },
    "id": "LBKPIECE_move_to_magneteinheit_A_111",
    "joint_names": [
        "shoulder_pan_joint",
        "shoulder_lift_joint",
        "elbow_joint",
        "wrist_1_joint",
        "wrist_2_joint",
        "wrist_3_joint"
    ],
    "metrics": {
        "cart_traj_len": 1.5120800821792038,
        "distance_elbow_joint": 0.4638342652195897,
        "distance_shoulder_lift_joint": 1.1896693459395455,
        "distance_shoulder_pan_joint": 1.3467014459831192,
        "distance_wrist_1_joint": 7.54511663709794,
        "distance_wrist_2_joint": 1.431013449206615,
        "distance_wrist_3_joint": 4.230439988837029,
        "smoothness": 0.32303252789123554,
        "time": 0.707514074,
        "traj_len": 4.02576391909459,
        "weighted_distance": 5.800326300843984
    },
    "planner": "LBKPIECE",
    "start": {
        "state": {
            "elbow_joint": 1.919643534880228,
            "shoulder_lift_joint": -1.8972525353963687,
            "shoulder_pan_joint": -1.1188672234189438,
            "wrist_1_joint": -1.5931878212786155,
            "wrist_2_joint": 1.5706036197970081,
            "wrist_3_joint": 1.118896926603594
        }
    },
    "waypoints": [
        {
            "positions": [
                -1.1188672234189438,
                -1.8972525353963687,
                1.919643534880228,
                -1.5931878212786155,
                1.5706036197970081,
                1.118896926603594
            ]
        },
        {
            "positions": [
                -1.1221182133220697,
                -1.9110615724361852,
                1.9363220455914139,
                -1.334505932934333,
                1.5100823944984891,
                1.0870108228685904
            ]
        },
        {
            "positions": [
                -1.1253692032251954,
                -1.924870609476002,
                1.9530005563025998,
                -1.0758240445900504,
                1.4495611691999701,
                1.0551247191335869
            ]
        },
        {
            "positions": [
                -1.1286201931283213,
                -1.9386796465158185,
                1.9696790670137856,
                -0.8171421562457679,
                1.3890399439014514,
                1.0232386153985833
            ]
        },
        {
            "positions": [
                -1.1318711830314472,
                -1.952488683555635,
                1.9863575777249716,
                -0.5584602679014854,
                1.3285187186029324,
                0.9913525116635797
            ]
        },
        {
            "positions": [
                -1.1351221729345728,
                -1.9662977205954517,
                2.0030360884361573,
                -0.2997783795572029,
                1.2679974933044134,
                0.9594664079285762
            ]
        },
        {
            "positions": [
                -1.1383731628376987,
                -1.9801067576352682,
                2.0197145991473433,
                -0.04109649121292036,
                1.2074762680058946,
                0.9275803041935725
            ]
        },
        {
            "positions": [
                -1.1416241527408246,
                -1.9939157946750847,
                2.0363931098585293,
                0.21758539713136216,
                1.1469550427073756,
                0.895694200458569
            ]
        },
        {
            "positions": [
                -1.1448751426439503,
                -2.0077248317149015,
                2.053071620569715,
                0.4762672854756447,
                1.0864338174088566,
                0.8638080967235654
            ]
        },
        {
            "positions": [
                -1.1481261325470762,
                -2.0215338687547177,
                2.069750131280901,
                0.7349491738199274,
                1.0259125921103376,
                0.8319219929885618
            ]
        },
        {
            "positions": [
                -1.151377122450202,
                -2.0353429057945345,
                2.0864286419920868,
                0.9936310621642097,
                0.9653913668118187,
                0.8000358892535583
            ]
        },
        {
            "positions": [
                -1.154628112353328,
                -2.049151942834351,
                2.1031071527032723,
                1.252312950508492,
                0.9048701415132998,
                0.7681497855185546
            ]
        },
        {
            "positions": [
                -1.1578791022564536,
                -2.0629609798741675,
                2.1197856634144583,
                1.5109948388527747,
                0.8443489162147808,
                0.7362636817835511
            ]
        },
        {
            "positions": [
                -1.1611300921595795,
                -2.076770016913984,
                2.1364641741256443,
                1.7696767271970575,
                0.7838276909162618,
                0.7043775780485475
            ]
        },
        {
            "positions": [
                -1.1643810820627054,
                -2.090579053953801,
                2.1531426848368302,
                2.0283586155413396,
                0.7233064656177429,
                0.672491474313544
            ]
        },
        {
            "positions": [
                -1.167632071965831,
                -2.1043880909936172,
                2.169821195548016,
                2.2870405038856223,
                0.662785240319224,
                0.6406053705785404
            ]
        },
        {
            "positions": [
                -1.170883061868957,
                -2.118197128033434,
                2.1864997062592018,
                2.5457223922299046,
                0.602264015020705,
                0.6087192668435368
            ]
        },
        {
            "positions": [
                -1.1210874615792221,
                -2.0809384836756464,
                2.1789236257268705,
                2.4147144528610807,
                0.5844688671580007,
                0.46563225418673027
            ]
        },
        {
            "positions": [
                -1.0712918612894873,
                -2.0436798393178583,
                2.171347545194539,
                2.2837065134922567,
                0.5666737192952964,
                0.32254524152992364
            ]
        },
        {
            "positions": [
                -1.0214962609997524,
                -2.0064211949600708,
                2.1637714646622075,
                2.152698574123433,
                0.5488785714325921,
                0.17945822887311702
            ]
        },
        {
            "positions": [
                -0.9717006607100176,
                -1.9691625506022832,
                2.156195384129876,
                2.021690634754609,
                0.5310834235698878,
                0.036371216216310454
            ]
        },
        {
            "positions": [
                -0.9219050604202828,
                -1.9319039062444954,
                2.148619303597545,
                1.890682695385785,
                0.5132882757071835,
                -0.10671579644049622
            ]
        },
        {
            "positions": [
                -0.8721094601305479,
                -1.8946452618867078,
                2.141043223065213,
                1.759674756016961,
                0.49549312784447913,
                -0.2498028090973028
            ]
        },
        {
            "positions": [
                -0.8223138598408131,
                -1.85738661752892,
                2.133467142532882,
                1.6286668166481375,
                0.4776979799817748,
                -0.39288982175410925
            ]
        },
        {
            "positions": [
                -0.7725182595510781,
                -1.8201279731711324,
                2.1258910620005507,
                1.4976588772793133,
                0.45990283211907046,
                -0.5359768344109159
            ]
        },
        {
            "positions": [
                -0.7227226592613434,
                -1.7828693288133446,
                2.1183149814682194,
                1.3666509379104896,
                0.44210768425636615,
                -0.6790638470677224
            ]
        },
        {
            "positions": [
                -0.6729270589716084,
                -1.7456106844555568,
                2.110738900935888,
                1.2356429985416655,
                0.42431253639366184,
                -0.8221508597245293
            ]
        },
        {
            "positions": [
                -0.6231314586818736,
                -1.7083520400977692,
                2.1031628204035564,
                1.1046350591728418,
                0.40651738853095754,
                -0.9652378723813357
            ]
        },
        {
            "positions": [
                -0.5733358583921387,
                -1.6710933957399816,
                2.095586739871225,
                0.9736271198040176,
                0.3887222406682532,
                -1.1083248850381424
            ]
        },
        {
            "positions": [
                -0.5235402581024039,
                -1.6338347513821938,
                2.088010659338894,
                0.8426191804351939,
                0.3709270928055489,
                -1.2514118976949489
            ]
        },
        {
            "positions": [
                -0.47374465781266906,
                -1.596576107024406,
                2.080434578806562,
                0.7116112410663702,
                0.3531319449428446,
                -1.3944989103517553
            ]
        },
        {
            "positions": [
                -0.4239490575229342,
                -1.5593174626666184,
                2.072858498274231,
                0.5806033016975463,
                0.3353367970801403,
                -1.537585923008562
            ]
        },
        {
            "positions": [
                -0.37415345723319926,
                -1.5220588183088306,
                2.0652824177418996,
                0.4495953623287221,
                0.31754164921743594,
                -1.6806729356653687
            ]
        },
        {
            "positions": [
                -0.32435785694346453,
                -1.484800173951043,
                2.0577063372095683,
                0.31858742295989817,
                0.29974650135473163,
                -1.8237599483221754
            ]
        },
        {
            "positions": [
                -0.2745622566537297,
                -1.4475415295932552,
                2.050130256677237,
                0.18757948359107468,
                0.2819513534920273,
                -1.9668469609789816
            ]
        },
        {
            "positions": [
                -0.22476665636399484,
                -1.4102828852354676,
                2.0425541761449053,
                0.05657154422225075,
                0.264156205629323,
                -2.1099339736357883
            ]
        },
        {
            "positions": [
                -0.1749710560742599,
                -1.3730242408776798,
                2.034978095612574,
                -0.07443639514657363,
                0.2463610577666187,
                -2.2530209862925954
            ]
        },
        {
            "positions": [
                -0.12517545578452505,
                -1.335765596519892,
                2.0274020150802428,
                -0.20544433451539756,
                0.2285659099039144,
                -2.3961079989494016
            ]
        },
        {
            "positions": [
                -0.0753798554947902,
                -1.2985069521621044,
                2.019825934547911,
                -0.33645227388422105,
                0.2107707620412101,
                -2.5391950116062083
            ]
        },
        {
            "positions": [
                -0.025584255205055362,
                -1.2612483078043168,
                2.0122498540155798,
                -0.467460213253045,
                0.19297561417850578,
                -2.6822820242630145
            ]
        },
        {
            "positions": [
                0.02421134508467948,
                -1.223989663446529,
                2.0046737734832485,
                -0.5984681526218694,
                0.17518046631580142,
                -2.8253690369198217
            ]
        },
        {
            "positions": [
                0.07400694537441432,
                -1.1867310190887412,
                1.9970976929509172,
                -0.7294760919906929,
                0.1573853184530971,
                -2.968456049576628
            ]
        },
        {
            "positions": [
                0.12380254566414915,
                -1.1494723747309536,
                1.9895216124185857,
                -0.8604840313595168,
                0.1395901705903928,
                -3.1115430622334346
            ]
        }
    ]
}