{
    "goal": {
        "global_pose": {
            "orientation": {
                "w": 0.5084816217422485,
                "x": -0.49083608388900757,
                "y": 0.5182115435600281,
                "z": -0.4816462993621826
            },
            "position": {
                "x": 0.5540239810943604,
                "y": 0.030875300988554955,
                "z": 0.16403168439865112
            }
        },
        "name": "move_to_storage_A"
    },
    "id": "LBKPIECE_move_to_storage_A_129",
    "joint_names": [
        "shoulder_pan_joint",
        "shoulder_lift_joint",
        "elbow_joint",
        "wrist_1_joint",
        "wrist_2_joint",
        "wrist_3_joint"
    ],
    "metrics": {
        "cart_traj_len": 0.3527344965921859,
        "distance_elbow_joint": 0.450639346922149,
        "distance_shoulder_lift_joint": 0.23614191848471533,
        "distance_shoulder_pan_joint": 0.4616944664965148,
        "distance_wrist_1_joint": 0.24472813748972266,
        "distance_wrist_2_joint": 1.0970052258592249,
        "distance_wrist_3_joint": 0.10571646855746053,
        "smoothness": 1.3322676295501878e-15,
        "time": 0.714621699,
        "traj_len": 1.6111876252658432,
        "weighted_distance": 2.036931973403544
    },
    "planner": "LBKPIECE",
    "start": {
        "state": {
            "elbow_joint": 1.9715477243005601,
            "shoulder_lift_joint": -1.1394853015351272,
            "shoulder_pan_joint": 0.12281154014795169,
            "wrist_1_joint": -0.7804696478968182,
            "wrist_2_joint": 0.12958648046900423,
            "wrist_3_joint": -3.192491284697111
        }
    },
    "waypoints": [
        {
            "positions": [
                0.12281154014795169,
                -1.1394853015351272,
                1.9715477243005601,
                -0.7804696478968182,
                0.12958648046900423,
                -3.192491284697111
            ]
        },
        {
            "positions": [
                0.056855187791306716,
                -1.173219861318658,
                2.035924773860867,
                -0.8154308103953499,
                0.2863015127346078,
                -3.1773889320460453
            ]
        },
        {
            "positions": [
                -0.009101164565338257,
                -1.2069544211021888,
                2.1003018234211743,
                -0.8503919728938818,
                0.4430165450002113,
                -3.1622865793949795
            ]
        },
        {
            "positions": [
                -0.07505751692198322,
                -1.2406889808857196,
                2.164678872981481,
                -0.8853531353924136,
                0.5997315772658149,
                -3.1471842267439136
            ]
        },
        {
            "positions": [
                -0.1410138692786282,
                -1.2744235406692501,
                2.229055922541788,
                -0.9203142978909454,
                0.7564466095314184,
                -3.132081874092848
            ]
        },
        {
            "positions": [
                -0.20697022163527318,
                -1.308158100452781,
                2.293432972102095,
                -0.9552754603894772,
                0.913161641797022,
                -3.1169795214417824
            ]
        },
        {
            "positions": [
                -0.2729265739919181,
                -1.3418926602363117,
                2.3578100216624023,
                -0.9902366228880091,
                1.0698766740626255,
                -3.1018771687907165
            ]
        },
        {
            "positions": [
                -0.3388829263485631,
                -1.3756272200198425,
                2.422187071222709,
                -1.0251977853865408,
                1.226591706328229,
                -3.0867748161396507
            ]
        }
    ]
}