{
    "goal": {
        "global_pose": {
            "orientation": {
                "w": 0.7047431468963623,
                "x": -0.7094548344612122,
                "y": 0.0024358443915843964,
                "z": -0.0022348060738295317
            },
            "position": {
                "x": 0.6094750761985779,
                "y": 0.3671506643295288,
                "z": 0.19426114857196808
            }
        },
        "name": "move_to_magneteinheit_A"
    },
    "id": "LBKPIECE_move_to_magneteinheit_A_20",
    "joint_names": [
        "shoulder_pan_joint",
        "shoulder_lift_joint",
        "elbow_joint",
        "wrist_1_joint",
        "wrist_2_joint",
        "wrist_3_joint"
    ],
    "metrics": {
        "cart_traj_len": 6.4688059308148365,
        "distance_elbow_joint": 5.428697029776664,
        "distance_shoulder_lift_joint": 6.935100939769462,
        "distance_shoulder_pan_joint": 6.141769710076899,
        "distance_wrist_1_joint": 10.53401319276282,
        "distance_wrist_2_joint": 6.3773478887859385,
        "distance_wrist_3_joint": 9.261150346174981,
        "smoothness": 0.4576215712582168,
        "time": 0.8009843409999999,
        "traj_len": 6.6841662986005,
        "weighted_distance": 8.9505162354607
    },
    "planner": "LBKPIECE",
    "start": {
        "state": {
            "elbow_joint": -1.919618573717145,
            "shoulder_lift_joint": -1.2443395971678275,
            "shoulder_pan_joint": 2.6996025300909787,
            "wrist_1_joint": -1.548550951253194,
            "wrist_2_joint": -1.5709469090946802,
            "wrist_3_joint": 0.4420197732051276
        }
    },
    "waypoints": [
        {
            "positions": [
                2.6996025300909787,
                -1.2443395971678275,
                -1.919618573717145,
                -1.548550951253194,
                -1.5709469090946802,
                0.4420197732051276
            ]
        },
        {
            "positions": [
                2.665101542230219,
                -1.276237261135011,
                -1.8411581394654515,
                -1.4891357835652361,
                -1.46784122610609,
                0.5273489100709035
            ]
        },
        {
            "positions": [
                2.6306005543694595,
                -1.3081349251021948,
                -1.762697705213758,
                -1.4297206158772782,
                -1.3647355431175001,
                0.6126780469366793
            ]
        },
        {
            "positions": [
                2.5960995665086997,
                -1.3400325890693783,
                -1.6842372709620645,
                -1.3703054481893202,
                -1.26162986012891,
                0.6980071838024551
            ]
        },
        {
            "positions": [
                2.56159857864794,
                -1.371930253036562,
                -1.605776836710371,
                -1.3108902805013622,
                -1.15852417714032,
                0.7833363206682309
            ]
        },
        {
            "positions": [
                2.52709759078718,
                -1.4038279170037455,
                -1.5273164024586778,
                -1.2514751128134045,
                -1.05541849415173,
                0.8686654575340067
            ]
        },
        {
            "positions": [
                2.4925966029264206,
                -1.435725580970929,
                -1.4488559682069841,
                -1.1920599451254463,
                -0.9523128111631398,
                0.9539945943997825
            ]
        },
        {
            "positions": [
                2.4580956150656608,
                -1.4676232449381128,
                -1.370395533955291,
                -1.1326447774374886,
                -0.8492071281745498,
                1.0393237312655583
            ]
        },
        {
            "positions": [
                2.423594627204901,
                -1.4995209089052963,
                -1.2919350997035974,
                -1.0732296097495306,
                -0.7461014451859598,
                1.1246528681313341
            ]
        },
        {
            "positions": [
                2.3890936393441415,
                -1.53141857287248,
                -1.213474665451904,
                -1.0138144420615727,
                -0.6429957621973699,
                1.2099820049971097
            ]
        },
        {
            "positions": [
                2.3545926514833817,
                -1.5633162368396636,
                -1.1350142312002105,
                -0.9543992743736147,
                -0.5398900792087797,
                1.2953111418628858
            ]
        },
        {
            "positions": [
                2.320091663622622,
                -1.595213900806847,
                -1.056553796948517,
                -0.8949841066856568,
                -0.4367843962201896,
                1.3806402787286616
            ]
        },
        {
            "positions": [
                2.285590675761862,
                -1.6271115647740308,
                -0.9780933626968235,
                -0.8355689389976988,
                -0.3336787132315995,
                1.4659694155944374
            ]
        },
        {
            "positions": [
                2.2510896879011026,
                -1.6590092287412144,
                -0.8996329284451301,
                -0.7761537713097408,
                -0.23057303024300957,
                1.5512985524602132
            ]
        },
        {
            "positions": [
                2.216588700040343,
                -1.6909068927083981,
                -0.8211724941934366,
                -0.7167386036217829,
                -0.12746734725441944,
                1.636627689325989
            ]
        },
        {
            "positions": [
                2.182087712179583,
                -1.7228045566755816,
                -0.7427120599417432,
                -0.657323435933825,
                -0.02436166426582953,
                1.7219568261917648
            ]
        },
        {
            "positions": [
                2.147586724318823,
                -1.7547022206427654,
                -0.6642516256900497,
                -0.5979082682458671,
                0.0787440187227606,
                1.8072859630575406
            ]
        },
        {
            "positions": [
                2.1130857364580637,
                -1.786599884609949,
                -0.5857911914383562,
                -0.5384931005579092,
                0.18184970171135073,
                1.8926150999233164
            ]
        },
        {
            "positions": [
                2.078584748597304,
                -1.8184975485771324,
                -0.507330757186663,
                -0.47907793286995126,
                0.2849553846999404,
                1.977944236789092
            ]
        },
        {
            "positions": [
                2.0440837607365445,
                -1.8503952125443162,
                -0.4288703229349695,
                -0.4196627651819933,
                0.38806106768853055,
                2.0632733736548676
            ]
        },
        {
            "positions": [
                2.0095827728757847,
                -1.8822928765114997,
                -0.35040988868327605,
                -0.36024759749403534,
                0.4911667506771207,
                2.148602510520644
            ]
        },
        {
            "positions": [
                1.9750817850150248,
                -1.9141905404786832,
                -0.27194945443158236,
                -0.3008324298060774,
                0.5942724336657106,
                2.2339316473864197
            ]
        },
        {
            "positions": [
                1.940580797154265,
                -1.946088204445867,
                -0.1934890201798889,
                -0.24141726211811942,
                0.6973781166543009,
                2.3192607842521955
            ]
        },
        {
            "positions": [
                1.9060798092935054,
                -1.9779858684130505,
                -0.11502858592819543,
                -0.18200209443016147,
                0.8004837996428908,
                2.4045899211179713
            ]
        },
        {
            "positions": [
                1.8715788214327458,
                -2.009883532380234,
                -0.03656815167650196,
                -0.1225869267422035,
                0.9035894826314812,
                2.489919057983747
            ]
        },
        {
            "positions": [
                1.837077833571986,
                -2.0417811963474177,
                0.04189228257519151,
                -0.06317175905424555,
                1.006695165620071,
                2.575248194849523
            ]
        },
        {
            "positions": [
                1.8025768457112261,
                -2.0736788603146015,
                0.12035271682688475,
                -0.003756591366287587,
                1.109800848608661,
                2.6605773317152988
            ]
        },
        {
            "positions": [
                1.7680758578504665,
                -2.105576524281785,
                0.19881315107857822,
                0.05565857632167037,
                1.2129065315972514,
                2.7459064685810746
            ]
        },
        {
            "positions": [
                1.733574869989707,
                -2.1374741882489685,
                0.2772735853302717,
                0.11507374400962833,
                1.3160122145858413,
                2.8312356054468504
            ]
        },
        {
            "positions": [
                1.699073882128947,
                -2.1693718522161523,
                0.3557340195819656,
                0.1744889116975863,
                1.4191178975744316,
                2.916564742312626
            ]
        },
        {
            "positions": [
                1.6645728942681874,
                -2.201269516183336,
                0.4341944538336586,
                0.23390407938554403,
                1.522223580563021,
                3.001893879178402
            ]
        },
        {
            "positions": [
                1.6300719064074278,
                -2.2331671801505193,
                0.5126548880853521,
                0.293319247073502,
                1.625329263551611,
                3.087223016044178
            ]
        },
        {
            "positions": [
                1.595570918546668,
                -2.265064844117703,
                0.5911153223370456,
                0.35273441476145995,
                1.7284349465402014,
                3.1725521529099536
            ]
        },
        {
            "positions": [
                1.5610699306859084,
                -2.2969625080848868,
                0.669575756588739,
                0.4121495824494179,
                1.8315406295287913,
                3.2578812897757294
            ]
        },
        {
            "positions": [
                1.5265689428251485,
                -2.32886017205207,
                0.7480361908404325,
                0.47156475013737564,
                1.9346463125173816,
                3.3432104266415053
            ]
        },
        {
            "positions": [
                1.492067954964389,
                -2.360757836019254,
                0.8264966250921262,
                0.5309799178253338,
                2.0377519955059715,
                3.428539563507281
            ]
        },
        {
            "positions": [
                1.506524154588755,
                -2.288993759585724,
                0.7968107685526057,
                0.4402296783120916,
                2.048573562848132,
                3.2642922889098123
            ]
        },
        {
            "positions": [
                1.5209803542131215,
                -2.217229683152194,
                0.7671249120130851,
                0.3494794387988493,
                2.0593951301902926,
                3.100045014312343
            ]
        },
        {
            "positions": [
                1.5354365538374877,
                -2.1454656067186644,
                0.7374390554735646,
                0.25872919928560706,
                2.070216697532453,
                2.9357977397148742
            ]
        },
        {
            "positions": [
                1.5498927534618538,
                -2.0737015302851343,
                0.7077531989340441,
                0.16797895977236477,
                2.0810382648746137,
                2.771550465117405
            ]
        },
        {
            "positions": [
                1.56434895308622,
                -2.001937453851604,
                0.6780673423945236,
                0.07722872025912247,
                2.091859832216774,
                2.607303190519936
            ]
        },
        {
            "positions": [
                1.5788051527105864,
                -1.9301733774180745,
                0.648381485855003,
                -0.013521519254119707,
                2.102681399558935,
                2.4430559159224674
            ]
        },
        {
            "positions": [
                1.5932613523349526,
                -1.8584093009845446,
                0.6186956293154825,
                -0.10427175876736205,
                2.113502966901095,
                2.278808641324998
            ]
        },
        {
            "positions": [
                1.6077175519593188,
                -1.7866452245510147,
                0.589009772775962,
                -0.1950219982806043,
                2.124324534243256,
                2.1145613667275294
            ]
        },
        {
            "positions": [
                1.6221737515836852,
                -1.714881148117485,
                0.5593239162364414,
                -0.28577223779384653,
                2.1351461015854163,
                1.9503140921300604
            ]
        },
        {
            "positions": [
                1.6366299512080513,
                -1.643117071683955,
                0.5296380596969209,
                -0.3765224773070889,
                2.1459676689275766,
                1.7860668175325913
            ]
        },
        {
            "positions": [
                1.6510861508324175,
                -1.5713529952504253,
                0.4999522031574004,
                -0.4672727168203311,
                2.1567892362697374,
                1.6218195429351223
            ]
        },
        {
            "positions": [
                1.6655423504567837,
                -1.4995889188168952,
                0.4702663466178799,
                -0.5580229563335732,
                2.1676108036118977,
                1.4575722683376535
            ]
        },
        {
            "positions": [
                1.67999855008115,
                -1.4278248423833655,
                0.4405804900783593,
                -0.6487731958468157,
                2.1784323709540585,
                1.2933249937401845
            ]
        },
        {
            "positions": [
                1.6944547497055162,
                -1.3560607659498354,
                0.41089463353883876,
                -0.7395234353600579,
                2.189253938296219,
                1.1290777191427153
            ]
        },
        {
            "positions": [
                1.7089109493298824,
                -1.2842966895163057,
                0.3812087769993183,
                -0.8302736748733002,
                2.2000755056383796,
                0.9648304445452465
            ]
        },
        {
            "positions": [
                1.7233671489542486,
                -1.2125326130827758,
                0.35152292045979777,
                -0.9210239143865424,
                2.21089707298054,
                0.8005831699477772
            ]
        },
        {
            "positions": [
                1.737823348578615,
                -1.1407685366492457,
                0.3218370639202772,
                -1.0117741538997849,
                2.2217186403227007,
                0.6363358953503084
            ]
        },
        {
            "positions": [
                1.7522795482029812,
                -1.069004460215716,
                0.29215120738075673,
                -1.1025243934130269,
                2.232540207664861,
                0.47208862075283964
            ]
        },
        {
            "positions": [
                1.7667357478273473,
                -0.9972403837821862,
                0.26246535084123623,
                -1.1932746329262691,
                2.2433617750070214,
                0.3078413461553704
            ]
        },
        {
            "positions": [
                1.7811919474517137,
                -0.925476307348656,
                0.23277949430171563,
                -1.2840248724395116,
                2.254183342349182,
                0.1435940715579016
            ]
        },
        {
            "positions": [
                1.79564814707608,
                -0.8537122309151264,
                0.20309363776219513,
                -1.3747751119527536,
                2.2650049096913425,
                -0.02065320303956719
            ]
        },
        {
            "positions": [
                1.810104346700446,
                -0.7819481544815965,
                0.17340778122267464,
                -1.465525351465996,
                2.2758264770335033,
                -0.18490047763703643
            ]
        },
        {
            "positions": [
                1.8245605463248125,
                -0.7101840780480666,
                0.14372192468315403,
                -1.5562755909792383,
                2.2866480443756636,
                -0.34914775223450567
            ]
        },
        {
            "positions": [
                1.8390167459491786,
                -0.6384200016145367,
                0.11403606814363365,
                -1.6470258304924803,
                2.2974696117178244,
                -0.513395026831974
            ]
        },
        {
            "positions": [
                1.8534729455735448,
                -0.5666559251810068,
                0.08435021160411305,
                -1.7377760700057225,
                2.3082911790599847,
                -0.6776423014294437
            ]
        },
        {
            "positions": [
                1.7322749479224395,
                -0.6480525018666792,
                0.1582952774367969,
                -1.7866257441136175,
                2.3094696016583103,
                -0.6226039882261671
            ]
        },
        {
            "positions": [
                1.6110769502713345,
                -0.7294490785523514,
                0.23224034326948076,
                -1.8354754182215127,
                2.3106480242566363,
                -0.5675656750228906
            ]
        },
        {
            "positions": [
                1.4898789526202292,
                -0.8108456552380238,
                0.30618540910216463,
                -1.8843250923294077,
                2.311826446854962,
                -0.512527361819614
            ]
        },
        {
            "positions": [
                1.3686809549691241,
                -0.892242231923696,
                0.3801304749348485,
                -1.9331747664373027,
                2.313004869453288,
                -0.45748904861633743
            ]
        },
        {
            "positions": [
                1.2474829573180188,
                -0.9736388086093684,
                0.4540755407675323,
                -1.9820244405451977,
                2.3141832920516134,
                -0.40245073541306087
            ]
        },
        {
            "positions": [
                1.1262849596669136,
                -1.0550353852950407,
                0.5280206066002162,
                -2.0308741146530926,
                2.3153617146499395,
                -0.3474124222097843
            ]
        },
        {
            "positions": [
                1.0050869620158087,
                -1.1364319619807128,
                0.6019656724329,
                -2.0797237887609876,
                2.316540137248265,
                -0.29237410900650773
            ]
        },
        {
            "positions": [
                0.8838889643647033,
                -1.2178285386663852,
                0.6759107382655839,
                -2.128573462868883,
                2.317718559846591,
                -0.23733579580323116
            ]
        },
        {
            "positions": [
                0.7626909667135982,
                -1.2992251153520575,
                0.7498558040982677,
                -2.177423136976778,
                2.3188969824449166,
                -0.1822974825999546
            ]
        },
        {
            "positions": [
                0.6414929690624929,
                -1.3806216920377299,
                0.8238008699309516,
                -2.226272811084673,
                2.3200754050432426,
                -0.12725916939667803
            ]
        },
        {
            "positions": [
                0.5202949714113878,
                -1.4620182687234022,
                0.8977459357636354,
                -2.275122485192568,
                2.321253827641568,
                -0.07222085619340146
            ]
        },
        {
            "positions": [
                0.3990969737602825,
                -1.5434148454090746,
                0.9716910015963193,
                -2.323972159300463,
                2.322432250239894,
                -0.017182542990124894
            ]
        },
        {
            "positions": [
                0.27789897610917746,
                -1.6248114220947467,
                1.045636067429003,
                -2.372821833408358,
                2.3236106728382198,
                0.037855770213151674
            ]
        },
        {
            "positions": [
                0.1567009784580724,
                -1.706207998780419,
                1.119581133261687,
                -2.421671507516253,
                2.3247890954365453,
                0.09289408341642824
            ]
        },
        {
            "positions": [
                0.035502980806967344,
                -1.7876045754660912,
                1.1935261990943706,
                -2.470521181624148,
                2.3259675180348713,
                0.1479323966197047
            ]
        },
        {
            "positions": [
                -0.08569501684413816,
                -1.8690011521517638,
                1.2674712649270548,
                -2.5193708557320433,
                2.327145940633197,
                0.20297070982298138
            ]
        },
        {
            "positions": [
                -0.20689301449524322,
                -1.950397728837436,
                1.3414163307597384,
                -2.5682205298399383,
                2.328324363231523,
                0.25800902302625794
            ]
        },
        {
            "positions": [
                -0.3280910121463485,
                -2.0317943055231082,
                1.4153613965924223,
                -2.6170702039478333,
                2.3295027858298485,
                0.3130473362295345
            ]
        },
        {
            "positions": [
                -0.44928900979745334,
                -2.11319088220878,
                1.489306462425106,
                -2.6659198780557283,
                2.3306812084281745,
                0.3680856494328111
            ]
        },
        {
            "positions": [
                -0.5704870074485591,
                -2.194587458894453,
                1.5632515282577901,
                -2.7147695521636233,
                2.3318596310265,
                0.42312396263608765
            ]
        },
        {
            "positions": [
                -0.6916850050996639,
                -2.275984035580125,
                1.6371965940904738,
                -2.7636192262715182,
                2.333038053624826,
                0.4781622758393642
            ]
        },
        {
            "positions": [
                -0.8128830027507692,
                -2.357380612265797,
                1.7111416599231577,
                -2.8124689003794137,
                2.3342164762231516,
                0.5332005890426408
            ]
        },
        {
            "positions": [
                -0.934081000401874,
                -2.4387771889514696,
                1.7850867257558414,
                -2.861318574487308,
                2.3353948988214777,
                0.5882389022459173
            ]
        },
        {
            "positions": [
                -1.0552789980529798,
                -2.520173765637142,
                1.8590317915885255,
                -2.9101682485952036,
                2.3365733214198032,
                0.6432772154491939
            ]
        },
        {
            "positions": [
                -1.1764769957040846,
                -2.6015703423228143,
                1.9329768574212092,
                -2.9590179227030986,
                2.3377517440181292,
                0.6983155286524705
            ]
        },
        {
            "positions": [
                -1.2976749933551899,
                -2.6829669190084866,
                2.006921923253893,
                -3.0078675968109936,
                2.338930166616455,
                0.753353841855747
            ]
        },
        {
            "positions": [
                -1.2486514690306234,
                -2.6171645122411658,
                2.0063059333977,
                -2.838362948223133,
                2.2538449661655995,
                0.7279244436608874
            ]
        },
        {
            "positions": [
                -1.1996279447060572,
                -2.5513621054738445,
                2.005689943541507,
                -2.6688582996352723,
                2.1687597657147446,
                0.7024950454660276
            ]
        },
        {
            "positions": [
                -1.1506044203814907,
                -2.4855596987065236,
                2.0050739536853137,
                -2.499353651047412,
                2.0836745652638893,
                0.6770656472711678
            ]
        },
        {
            "positions": [
                -1.1015808960569244,
                -2.4197572919392027,
                2.0044579638291204,
                -2.3298490024595515,
                1.9985893648130342,
                0.6516362490763081
            ]
        },
        {
            "positions": [
                -1.052557371732358,
                -2.3539548851718815,
                2.0038419739729276,
                -2.160344353871691,
                1.9135041643621788,
                0.6262068508814483
            ]
        },
        {
            "positions": [
                -1.0035338474077915,
                -2.2881524784045606,
                2.0032259841167344,
                -1.9908397052838305,
                1.8284189639113237,
                0.6007774526865887
            ]
        },
        {
            "positions": [
                -0.9545103230832251,
                -2.2223500716372397,
                2.002609994260541,
                -1.82133505669597,
                1.7433337634604684,
                0.5753480544917289
            ]
        },
        {
            "positions": [
                -0.9054867987586588,
                -2.1565476648699184,
                2.001994004404348,
                -1.6518304081081094,
                1.6582485630096135,
                0.5499186562968692
            ]
        },
        {
            "positions": [
                -0.8564632744340923,
                -2.0907452581025976,
                2.001378014548155,
                -1.482325759520249,
                1.5731633625587582,
                0.5244892581020094
            ]
        },
        {
            "positions": [
                -0.8074397501095261,
                -2.0249428513352763,
                2.0007620246919617,
                -1.3128211109323884,
                1.488078162107903,
                0.4990598599071497
            ]
        },
        {
            "positions": [
                -0.7584162257849597,
                -1.9591404445679554,
                2.0001460348357685,
                -1.143316462344528,
                1.402992961657048,
                0.47363046171229
            ]
        },
        {
            "positions": [
                -0.7093927014603932,
                -1.8933380378006346,
                1.9995300449795754,
                -0.9738118137566674,
                1.3179077612061927,
                0.4482010635174303
            ]
        },
        {
            "positions": [
                -0.6603691771358269,
                -1.8275356310333135,
                1.9989140551233824,
                -0.8043071651688072,
                1.2328225607553376,
                0.4227716653225705
            ]
        },
        {
            "positions": [
                -0.6113456528112604,
                -1.7617332242659924,
                1.9982980652671893,
                -0.6348025165809466,
                1.1477373603044823,
                0.39734226712771076
            ]
        },
        {
            "positions": [
                -0.562322128486694,
                -1.6959308174986716,
                1.997682075410996,
                -0.4652978679930859,
                1.0626521598536272,
                0.371912868932851
            ]
        },
        {
            "positions": [
                -0.5132986041621277,
                -1.6301284107313505,
                1.997066085554803,
                -0.2957932194052253,
                0.977566959402772,
                0.34648347073799135
            ]
        },
        {
            "positions": [
                -0.46427507983756144,
                -1.5643260039640297,
                1.99645009569861,
                -0.1262885708173651,
                0.892481758951917,
                0.3210540725431316
            ]
        },
        {
            "positions": [
                -0.41525155551299486,
                -1.4985235971967084,
                1.9958341058424167,
                0.04321607777049552,
                0.8073965585010616,
                0.29562467434827183
            ]
        },
        {
            "positions": [
                -0.3662280311884286,
                -1.4327211904293875,
                1.9952181159862237,
                0.21272072635835615,
                0.7223113580502065,
                0.27019527615341216
            ]
        },
        {
            "positions": [
                -0.31720450686386215,
                -1.3669187836620664,
                1.9946021261300304,
                0.3822253749462168,
                0.6372261575993512,
                0.2447658779585523
            ]
        },
        {
            "positions": [
                -0.2681809825392958,
                -1.3011163768947454,
                1.9939861362738374,
                0.551730023534077,
                0.5521409571484961,
                0.21933647976369264
            ]
        },
        {
            "positions": [
                -0.21915745821472954,
                -1.2353139701274245,
                1.9933701464176443,
                0.7212346721219376,
                0.4670557566976412,
                0.19390708156883296
            ]
        },
        {
            "positions": [
                -0.17013393389016307,
                -1.1695115633601034,
                1.992754156561451,
                0.8907393207097982,
                0.3819705562467859,
                0.16847768337397317
            ]
        },
        {
            "positions": [
                -0.1211104095655966,
                -1.1037091565927826,
                1.992138166705258,
                1.0602439692976589,
                0.29688535579593056,
                0.1430482851791135
            ]
        },
        {
            "positions": [
                -0.07208688524103035,
                -1.0379067498254615,
                1.991522176849065,
                1.2297486178855186,
                0.21180015534507568,
                0.11761888698425371
            ]
        },
        {
            "positions": [
                -0.023063360916463882,
                -0.9721043430581404,
                1.9909061869928717,
                1.3992532664733792,
                0.12671495489422036,
                0.09218948878939393
            ]
        },
        {
            "positions": [
                0.025960163408102588,
                -0.9063019362908196,
                1.9902901971366787,
                1.5687579150612398,
                0.04162975444336503,
                0.06676009059453425
            ]
        },
        {
            "positions": [
                0.07498368773266906,
                -0.8404995295234983,
                1.9896742072804854,
                1.7382625636491005,
                -0.043455446007490295,
                0.04133069239967446
            ]
        },
        {
            "positions": [
                0.12400721205723524,
                -0.7746971227561775,
                1.9890582174242923,
                1.9077672122369616,
                -0.12854064645834495,
                0.015901294204814835
            ]
        }
    ]
}{
    "goal": {
        "global_pose": {
            "orientation": {
                "w": 0.7047431468963623,
                "x": -0.7094548344612122,
                "y": 0.0024358443915843964,
                "z": -0.0022348060738295317
            },
            "position": {
                "x": 0.6094750761985779,
                "y": 0.3671506643295288,
                "z": 0.19426114857196808
            }
        },
        "name": "move_to_magneteinheit_A"
    },
    "id": "LBKPIECE_move_to_magneteinheit_A_20",
    "joint_names": [
        "shoulder_pan_joint",
        "shoulder_lift_joint",
        "elbow_joint",
        "wrist_1_joint",
        "wrist_2_joint",
        "wrist_3_joint"
    ],
    "metrics": {
        "cart_traj_len": 1.2967556032824734,
        "distance_elbow_joint": 0.22774071689608943,
        "distance_shoulder_lift_joint": 0.8171174585072898,
        "distance_shoulder_pan_joint": 1.2420404742299105,
        "distance_wrist_1_joint": 1.2935690605172874,
        "distance_wrist_2_joint": 2.417457032094993,
        "distance_wrist_3_joint": 4.378581934756377,
        "smoothness": 0.4804714211314288,
        "time": 0.427067276,
        "traj_len": 3.221258554820141,
        "weighted_distance": 4.779612603457206
    },
    "planner": "LBKPIECE",
    "start": {
        "state": {
            "elbow_joint": 1.919643534880228,
            "shoulder_lift_joint": -1.8972525353963687,
            "shoulder_pan_joint": -1.1188672234189438,
            "wrist_1_joint": -1.5931878212786155,
            "wrist_2_joint": 1.5706036197970081,
            "wrist_3_joint": 1.118896926603594
        }
    },
    "waypoints": [
        {
            "positions": [
                -1.1188672234189438,
                -1.8972525353963687,
                1.919643534880228,
                -1.5931878212786155,
                1.5706036197970081,
                1.118896926603594
            ]
        },
        {
            "positions": [
                -1.0700923637260586,
                -1.8627711848988742,
                1.9252864275725934,
                -1.545672560227154,
                1.4865638100668055,
                0.9479887824305178
            ]
        },
        {
            "positions": [
                -1.0213175040331735,
                -1.8282898344013796,
                1.9309293202649587,
                -1.4981572991756924,
                1.4025240003366026,
                0.7770806382574416
            ]
        },
        {
            "positions": [
                -0.9725426443402881,
                -1.793808483903885,
                1.936572212957324,
                -1.450642038124231,
                1.3184841906064,
                0.6061724940843655
            ]
        },
        {
            "positions": [
                -0.9237677846474028,
                -1.7593271334063905,
                1.9422151056496892,
                -1.4031267770727696,
                1.2344443808761973,
                0.43526434991128926
            ]
        },
        {
            "positions": [
                -0.8749929249545176,
                -1.7248457829088961,
                1.9478579983420545,
                -1.355611516021308,
                1.1504045711459945,
                0.26435620573821317
            ]
        },
        {
            "positions": [
                -0.8262180652616324,
                -1.6903644324114016,
                1.9535008910344198,
                -1.3080962549698465,
                1.0663647614157918,
                0.09344806156513696
            ]
        },
        {
            "positions": [
                -0.7774432055687471,
                -1.655883081913907,
                1.959143783726785,
                -1.260580993918385,
                0.9823249516855891,
                -0.07746008260793924
            ]
        },
        {
            "positions": [
                -0.7286683458758618,
                -1.6214017314164124,
                1.9647866764191504,
                -1.2130657328669234,
                0.8982851419553864,
                -0.24836822678101544
            ]
        },
        {
            "positions": [
                -0.6798934861829766,
                -1.5869203809189179,
                1.9704295691115157,
                -1.165550471815462,
                0.8142453322251836,
                -0.41927637095409165
            ]
        },
        {
            "positions": [
                -0.6311186264900914,
                -1.5524390304214233,
                1.976072461803881,
                -1.1180352107640006,
                0.7302055224949809,
                -0.5901845151271676
            ]
        },
        {
            "positions": [
                -0.5823437667972061,
                -1.5179576799239287,
                1.9817153544962463,
                -1.070519949712539,
                0.6461657127647782,
                -0.7610926593002441
            ]
        },
        {
            "positions": [
                -0.5335689071043209,
                -1.4834763294264341,
                1.9873582471886113,
                -1.0230046886610775,
                0.5621259030345755,
                -0.93200080347332
            ]
        },
        {
            "positions": [
                -0.4847940474114357,
                -1.4489949789289396,
                1.9930011398809766,
                -0.9754894276096161,
                0.4780860933043729,
                -1.102908947646396
            ]
        },
        {
            "positions": [
                -0.4360191877185504,
                -1.414513628431445,
                1.9986440325733419,
                -0.9279741665581545,
                0.39404628357417004,
                -1.2738170918194724
            ]
        },
        {
            "positions": [
                -0.3872443280256651,
                -1.3800322779339504,
                2.004286925265707,
                -0.880458905506693,
                0.3100064738439674,
                -1.4447252359925489
            ]
        },
        {
            "positions": [
                -0.3384694683327799,
                -1.3455509274364559,
                2.0099298179580725,
                -0.8329436444552316,
                0.22596666411376476,
                -1.6156333801656249
            ]
        },
        {
            "positions": [
                -0.2896946086398947,
                -1.3110695769389613,
                2.0155727106504377,
                -0.7854283834037701,
                0.14192685438356212,
                -1.7865415243387008
            ]
        },
        {
            "positions": [
                -0.2409197489470094,
                -1.2765882264414667,
                2.021215603342803,
                -0.7379131223523085,
                0.05788704465335903,
                -1.9574496685117773
            ]
        },
        {
            "positions": [
                -0.1921448892541242,
                -1.2421068759439722,
                2.0268584960351683,
                -0.6903978613008471,
                -0.02615276507684361,
                -2.128357812684853
            ]
        },
        {
            "positions": [
                -0.143370029561239,
                -1.2076255254464778,
                2.0325013887275336,
                -0.6428826002493856,
                -0.11019257480704625,
                -2.299265956857929
            ]
        },
        {
            "positions": [
                -0.09459516986835381,
                -1.1731441749489833,
                2.038144281419899,
                -0.5953673391979242,
                -0.1942323845372489,
                -2.470174101031006
            ]
        },
        {
            "positions": [
                -0.04582031017546839,
                -1.1386628244514887,
                2.043787174112264,
                -0.5478520781464626,
                -0.27827219426745176,
                -2.641082245204082
            ]
        },
        {
            "positions": [
                0.00295454951741686,
                -1.1041814739539941,
                2.0494300668046295,
                -0.5003368170950012,
                -0.36231200399765434,
                -2.811990389377158
            ]
        },
        {
            "positions": [
                0.033009224840804326,
                -1.110193073220223,
                2.0249415205617076,
                -0.5505163311784195,
                -0.24117665192257154,
                -2.923914044071064
            ]
        },
        {
            "positions": [
                0.06306390016419179,
                -1.1162046724864516,
                2.0004529743187853,
                -0.6006958452618377,
                -0.12004129984748874,
                -3.0358376987649702
            ]
        },
        {
            "positions": [
                0.09311857548757926,
                -1.1222162717526805,
                1.9759644280758635,
                -0.650875359345256,
                0.0010940522275940667,
                -3.147761353458876
            ]
        },
        {
            "positions": [
                0.12317325081096672,
                -1.1282278710189093,
                1.9514758818329414,
                -0.7010548734286742,
                0.12222940430267686,
                -3.259685008152782
            ]
        }
    ]
}