{
    "goal": {
        "global_pose": {
            "orientation": {
                "w": 0.7047431468963623,
                "x": -0.7094548344612122,
                "y": 0.0024358443915843964,
                "z": -0.0022348060738295317
            },
            "position": {
                "x": 0.6094750761985779,
                "y": 0.3671506643295288,
                "z": 0.19426114857196808
            }
        },
        "name": "move_to_magneteinheit_A"
    },
    "id": "LBTRRT_move_to_magneteinheit_A_82",
    "joint_names": [
        "shoulder_pan_joint",
        "shoulder_lift_joint",
        "elbow_joint",
        "wrist_1_joint",
        "wrist_2_joint",
        "wrist_3_joint"
    ],
    "metrics": {
        "cart_traj_len": 3.1612788792979947,
        "distance_elbow_joint": 3.9368435083203517,
        "distance_shoulder_lift_joint": 0.4553054232078484,
        "distance_shoulder_pan_joint": 2.991194765760704,
        "distance_wrist_1_joint": 3.5677358840652555,
        "distance_wrist_2_joint": 1.4824937398902691,
        "distance_wrist_3_joint": 0.5397677973643975,
        "smoothness": 0.10186063619564747,
        "time": 5.030021247,
        "traj_len": 3.6018524565296715,
        "weighted_distance": 4.370710049556381
    },
    "planner": "LBTRRT",
    "start": {
        "state": {
            "elbow_joint": -1.919618573717145,
            "shoulder_lift_joint": -1.2443395971678275,
            "shoulder_pan_joint": 2.6996025300909787,
            "wrist_1_joint": -1.548550951253194,
            "wrist_2_joint": -1.5709469090946802,
            "wrist_3_joint": 0.4420197732051276
        }
    },
    "waypoints": [
        {
            "positions": [
                2.6996025300909787,
                -1.2443395971678275,
                -1.919618573717145,
                -1.548550951253194,
                -1.5709469090946802,
                0.4420197732051276
            ]
        },
        {
            "positions": [
                2.5981907204402304,
                -1.2412976535682743,
                -1.8072601661231051,
                -1.4438414326394615,
                -1.5165207293075758,
                0.4227725729877458
            ]
        },
        {
            "positions": [
                2.496778910789482,
                -1.2382557099687208,
                -1.694901758529065,
                -1.3391319140257292,
                -1.4620945495204714,
                0.40352537277036404
            ]
        },
        {
            "positions": [
                2.3953671011387336,
                -1.2352137663691676,
                -1.5825433509350253,
                -1.2344223954119966,
                -1.4076683697333672,
                0.38427817255298224
            ]
        },
        {
            "positions": [
                2.2939552914879853,
                -1.2321718227696143,
                -1.4701849433409855,
                -1.1297128767982643,
                -1.3532421899462628,
                0.3650309723356005
            ]
        },
        {
            "positions": [
                2.192543481837237,
                -1.2291298791700611,
                -1.3578265357469457,
                -1.0250033581845317,
                -1.2988160101591584,
                0.3457837721182187
            ]
        },
        {
            "positions": [
                2.0911316721864885,
                -1.2260879355705077,
                -1.2454681281529056,
                -0.9202938395707991,
                -1.244389830372054,
                0.32653657190083696
            ]
        },
        {
            "positions": [
                1.9897198625357402,
                -1.2230459919709544,
                -1.1331097205588658,
                -0.8155843209570668,
                -1.1899636505849496,
                0.30728937168345516
            ]
        },
        {
            "positions": [
                1.8883080528849916,
                -1.2200040483714012,
                -1.0207513129648258,
                -0.7108748023433342,
                -1.1355374707978454,
                0.28804217146607336
            ]
        },
        {
            "positions": [
                1.7868962432342435,
                -1.216962104771848,
                -0.908392905370786,
                -0.6061652837296018,
                -1.081111291010741,
                0.2687949712486916
            ]
        },
        {
            "positions": [
                1.6854844335834949,
                -1.2139201611722945,
                -0.7960344977767462,
                -0.5014557651158693,
                -1.0266851112236366,
                0.24954777103130985
            ]
        },
        {
            "positions": [
                1.5840726239327465,
                -1.2108782175727413,
                -0.6836760901827064,
                -0.39674624650213675,
                -0.9722589314365322,
                0.23030057081392807
            ]
        },
        {
            "positions": [
                1.4826608142819981,
                -1.207836273973188,
                -0.5713176825886663,
                -0.2920367278884042,
                -0.9178327516494278,
                0.2110533705965463
            ]
        },
        {
            "positions": [
                1.3812490046312498,
                -1.2047943303736348,
                -0.4589592749946265,
                -0.18732720927467184,
                -0.8634065718623235,
                0.19180617037916453
            ]
        },
        {
            "positions": [
                1.2798371949805014,
                -1.2017523867740814,
                -0.3466008674005867,
                -0.08261769066093949,
                -0.8089803920752192,
                0.1725589701617828
            ]
        },
        {
            "positions": [
                1.178425385329753,
                -1.1987104431745281,
                -0.2342424598065469,
                0.022091827952793075,
                -0.7545542122881148,
                0.153311769944401
            ]
        },
        {
            "positions": [
                1.0770135756790045,
                -1.195668499574975,
                -0.12188405221250687,
                0.12680134656652564,
                -0.7001280325010104,
                0.1340645697270192
            ]
        },
        {
            "positions": [
                0.9756017660282563,
                -1.1926265559754214,
                -0.009525644618467055,
                0.2315108651802582,
                -0.645701852713906,
                0.11481736950963745
            ]
        },
        {
            "positions": [
                0.874189956377508,
                -1.1895846123758682,
                0.10283276297557298,
                0.33622038379399055,
                -0.5912756729268017,
                0.09557016929225565
            ]
        },
        {
            "positions": [
                0.7727781467267596,
                -1.186542668776315,
                0.2151911705696128,
                0.4409299024077229,
                -0.5368494931396974,
                0.0763229690748739
            ]
        },
        {
            "positions": [
                0.671366337076011,
                -1.1835007251767617,
                0.3275495781636526,
                0.5456394210214555,
                -0.48242331335259303,
                0.057075768857492104
            ]
        },
        {
            "positions": [
                0.5699545274252626,
                -1.1804587815772083,
                0.4399079857576924,
                0.650348939635188,
                -0.42799713356548863,
                0.03782856864011036
            ]
        },
        {
            "positions": [
                0.4685427177745143,
                -1.177416837977655,
                0.5522663933517322,
                0.7550584582489206,
                -0.37357095377838423,
                0.01858136842272856
            ]
        },
        {
            "positions": [
                0.3671309081237659,
                -1.1743748943781018,
                0.664624800945772,
                0.8597679768626527,
                -0.31914477399128005,
                -0.0006658317946531822
            ]
        },
        {
            "positions": [
                0.26571909847301756,
                -1.1713329507785484,
                0.7769832085398123,
                0.9644774954763857,
                -0.26471859420417543,
                -0.01991303201203498
            ]
        },
        {
            "positions": [
                0.1643072888222692,
                -1.1682910071789951,
                0.8893416161338521,
                1.0691870140901178,
                -0.21029241441707125,
                -0.03916023222941678
            ]
        },
        {
            "positions": [
                0.06289547917152097,
                -1.165249063579442,
                1.0017000237278921,
                1.1738965327038504,
                -0.15586623462996685,
                -0.05840743244679851
            ]
        },
        {
            "positions": [
                0.033470235045068256,
                -1.1175136877972005,
                1.1508168950764357,
                1.2930851864579647,
                -0.145782913782337,
                -0.0660174395694556
            ]
        },
        {
            "positions": [
                0.004044990918615543,
                -1.0697783120149589,
                1.2999337664249793,
                1.4122738402120791,
                -0.13569959293470713,
                -0.07362744669211271
            ]
        },
        {
            "positions": [
                -0.025380253207837156,
                -1.0220429362327175,
                1.4490506377735226,
                1.5314624939661934,
                -0.12561627208707726,
                -0.08123745381476981
            ]
        },
        {
            "positions": [
                -0.05480549733428988,
                -0.9743075604504761,
                1.5981675091220664,
                1.6506511477203079,
                -0.11553295123944739,
                -0.08884746093742692
            ]
        },
        {
            "positions": [
                -0.08423074146074258,
                -0.9265721846682345,
                1.7472843804706097,
                1.769839801474422,
                -0.10544963039181753,
                -0.09645746806008401
            ]
        },
        {
            "positions": [
                -0.01511024339108158,
                -0.8807261810988161,
                1.8372645651814754,
                1.8529548452536353,
                -0.11111511745428637,
                -0.09602728269368879
            ]
        },
        {
            "positions": [
                0.05401025467857942,
                -0.8348801775293976,
                1.9272447498923408,
                1.9360698890328483,
                -0.1167806045167552,
                -0.09559709732729357
            ]
        },
        {
            "positions": [
                0.12313075274824042,
                -0.7890341739599791,
                2.0172249346032065,
                2.0191849328120615,
                -0.12244609157922405,
                -0.09516691196089835
            ]
        }
    ]
}{
    "goal": {
        "global_pose": {
            "orientation": {
                "w": 0.7047431468963623,
                "x": -0.7094548344612122,
                "y": 0.0024358443915843964,
                "z": -0.0022348060738295317
            },
            "position": {
                "x": 0.6094750761985779,
                "y": 0.3671506643295288,
                "z": 0.19426114857196808
            }
        },
        "name": "move_to_magneteinheit_A"
    },
    "id": "LBTRRT_move_to_magneteinheit_A_82",
    "joint_names": [
        "shoulder_pan_joint",
        "shoulder_lift_joint",
        "elbow_joint",
        "wrist_1_joint",
        "wrist_2_joint",
        "wrist_3_joint"
    ],
    "metrics": {
        "cart_traj_len": 1.3230582603459122,
        "distance_elbow_joint": 0.09956992272558751,
        "distance_shoulder_lift_joint": 0.7637591249308895,
        "distance_shoulder_pan_joint": 1.4912861351217819,
        "distance_wrist_1_joint": 0.8325098217063255,
        "distance_wrist_2_joint": 1.4386871416878597,
        "distance_wrist_3_joint": 4.292759554212797,
        "smoothness": 0.2985998210737761,
        "time": 5.0371642219999995,
        "traj_len": 2.9863977799993826,
        "weighted_distance": 4.44694139518445
    },
    "planner": "LBTRRT",
    "start": {
        "state": {
            "elbow_joint": 1.919643534880228,
            "shoulder_lift_joint": -1.8972525353963687,
            "shoulder_pan_joint": -1.1188672234189438,
            "wrist_1_joint": -1.5931878212786155,
            "wrist_2_joint": 1.5706036197970081,
            "wrist_3_joint": 1.118896926603594
        }
    },
    "waypoints": [
        {
            "positions": [
                -1.1188672234189438,
                -1.8972525353963687,
                1.919643534880228,
                -1.5931878212786155,
                1.5706036197970081,
                1.118896926603594
            ]
        },
        {
            "positions": [
                -1.1813211380168682,
                -1.8993918270771735,
                1.9091751680095124,
                -1.6052963549313972,
                1.5185839906683236,
                0.9011948291480483
            ]
        },
        {
            "positions": [
                -1.2437750526147928,
                -1.9015311187579782,
                1.8987068011387964,
                -1.6174048885841787,
                1.466564361539639,
                0.6834927316925027
            ]
        },
        {
            "positions": [
                -1.1787094189992722,
                -1.8653653786832507,
                1.9024512387094705,
                -1.5789147574222377,
                1.4030097004239015,
                0.49980914315432623
            ]
        },
        {
            "positions": [
                -1.1136437853837515,
                -1.829199638608523,
                1.9061956762801446,
                -1.5404246262602967,
                1.339455039308164,
                0.3161255546161497
            ]
        },
        {
            "positions": [
                -1.0485781517682309,
                -1.7930338985337952,
                1.9099401138508187,
                -1.5019344950983555,
                1.275900378192426,
                0.1324419660779732
            ]
        },
        {
            "positions": [
                -0.9835125181527105,
                -1.7568681584590677,
                1.9136845514214929,
                -1.4634443639364145,
                1.2123457170766885,
                -0.05124162246020325
            ]
        },
        {
            "positions": [
                -0.9184468845371898,
                -1.72070241838434,
                1.917428988992167,
                -1.4249542327744735,
                1.1487910559609509,
                -0.2349252109983797
            ]
        },
        {
            "positions": [
                -0.8533812509216692,
                -1.6845366783096125,
                1.9211734265628408,
                -1.3864641016125323,
                1.0852363948452133,
                -0.4186087995365563
            ]
        },
        {
            "positions": [
                -0.7883156173061485,
                -1.6483709382348848,
                1.924917864133515,
                -1.3479739704505913,
                1.0216817337294755,
                -0.6022923880747327
            ]
        },
        {
            "positions": [
                -0.723249983690628,
                -1.6122051981601573,
                1.928662301704189,
                -1.3094838392886503,
                0.9581270726137379,
                -0.7859759766129092
            ]
        },
        {
            "positions": [
                -0.6581843500751073,
                -1.5760394580854296,
                1.9324067392748632,
                -1.2709937081267093,
                0.8945724114980003,
                -0.9696595651510856
            ]
        },
        {
            "positions": [
                -0.5931187164595867,
                -1.539873718010702,
                1.9361511768455373,
                -1.2325035769647683,
                0.8310177503822627,
                -1.1533431536892622
            ]
        },
        {
            "positions": [
                -0.528053082844066,
                -1.5037079779359743,
                1.9398956144162114,
                -1.194013445802827,
                0.7674630892665248,
                -1.337026742227439
            ]
        },
        {
            "positions": [
                -0.4629874492285455,
                -1.4675422378612468,
                1.9436400519868855,
                -1.155523314640886,
                0.7039084281507874,
                -1.5207103307656151
            ]
        },
        {
            "positions": [
                -0.39792181561302475,
                -1.431376497786519,
                1.9473844895575596,
                -1.117033183478945,
                0.6403537670350496,
                -1.7043939193037918
            ]
        },
        {
            "positions": [
                -0.3328561819975042,
                -1.3952107577117916,
                1.9511289271282337,
                -1.0785430523170039,
                0.576799105919312,
                -1.888077507841968
            ]
        },
        {
            "positions": [
                -0.2677905483819836,
                -1.3590450176370639,
                1.9548733646989078,
                -1.0400529211550629,
                0.5132444448035743,
                -2.0717610963801447
            ]
        },
        {
            "positions": [
                -0.20272491476646315,
                -1.3228792775623364,
                1.9586178022695817,
                -1.0015627899931219,
                0.44968978368783663,
                -2.255444684918321
            ]
        },
        {
            "positions": [
                -0.13765928115094228,
                -1.2867135374876086,
                1.9623622398402558,
                -0.9630726588311808,
                0.38613512257209903,
                -2.4391282734564976
            ]
        },
        {
            "positions": [
                -0.07259364753542186,
                -1.2505477974128811,
                1.96610667741093,
                -0.9245825276692398,
                0.32258046145636143,
                -2.622811861994674
            ]
        },
        {
            "positions": [
                -0.007528013919901211,
                -1.2143820573381534,
                1.969851114981604,
                -0.8860923965072987,
                0.2590258003406236,
                -2.8064954505328505
            ]
        },
        {
            "positions": [
                0.057537619695619435,
                -1.1782163172634257,
                1.9735955525522781,
                -0.8476022653453577,
                0.19547113922488624,
                -2.990179039071027
            ]
        },
        {
            "positions": [
                0.12260325331114008,
                -1.1420505771886982,
                1.9773399901229523,
                -0.8091121341834165,
                0.13191647810914844,
                -3.1738626276092035
            ]
        }
    ]
}