{
    "goal": {
        "global_pose": {
            "orientation": {
                "w": 0.7047431468963623,
                "x": -0.7094548344612122,
                "y": 0.0024358443915843964,
                "z": -0.0022348060738295317
            },
            "position": {
                "x": 0.6094750761985779,
                "y": 0.3671506643295288,
                "z": 0.19426114857196808
            }
        },
        "name": "move_to_magneteinheit_A"
    },
    "id": "LBTRRT_move_to_magneteinheit_A_55",
    "joint_names": [
        "shoulder_pan_joint",
        "shoulder_lift_joint",
        "elbow_joint",
        "wrist_1_joint",
        "wrist_2_joint",
        "wrist_3_joint"
    ],
    "metrics": {
        "cart_traj_len": 3.209086632607332,
        "distance_elbow_joint": 3.936382465549105,
        "distance_shoulder_lift_joint": 0.8144909721325905,
        "distance_shoulder_pan_joint": 2.612892865126173,
        "distance_wrist_1_joint": 3.5517407380954538,
        "distance_wrist_2_joint": 1.6706576949913012,
        "distance_wrist_3_joint": 0.5341182315627288,
        "smoothness": 0.07647652109717192,
        "time": 5.046355985,
        "traj_len": 3.622193115704538,
        "weighted_distance": 4.405782321412347
    },
    "planner": "LBTRRT",
    "start": {
        "state": {
            "elbow_joint": -1.919618573717145,
            "shoulder_lift_joint": -1.2443395971678275,
            "shoulder_pan_joint": 2.6996025300909787,
            "wrist_1_joint": -1.548550951253194,
            "wrist_2_joint": -1.5709469090946802,
            "wrist_3_joint": 0.4420197732051276
        }
    },
    "waypoints": [
        {
            "positions": [
                2.6996025300909787,
                -1.2443395971678275,
                -1.919618573717145,
                -1.548550951253194,
                -1.5709469090946802,
                0.4420197732051276
            ]
        },
        {
            "positions": [
                2.600951532553982,
                -1.2178752877335464,
                -1.8475537860281526,
                -1.4282060818963007,
                -1.5062423366220608,
                0.43162655167001157
            ]
        },
        {
            "positions": [
                2.5023005350169854,
                -1.1914109782992655,
                -1.77548899833916,
                -1.3078612125394073,
                -1.4415377641494416,
                0.4212333301348955
            ]
        },
        {
            "positions": [
                2.4036495374799887,
                -1.1649466688649843,
                -1.7034242106501676,
                -1.1875163431825138,
                -1.3768331916768222,
                0.4108401085997795
            ]
        },
        {
            "positions": [
                2.304998539942992,
                -1.1384823594307032,
                -1.6313594229611752,
                -1.0671714738256204,
                -1.312128619204203,
                0.40044688706466347
            ]
        },
        {
            "positions": [
                2.206347542405995,
                -1.1120180499964223,
                -1.5592946352721826,
                -0.9468266044687269,
                -1.2474240467315836,
                0.3900536655295474
            ]
        },
        {
            "positions": [
                2.107696544868998,
                -1.0855537405621412,
                -1.48722984758319,
                -0.8264817351118335,
                -1.1827194742589642,
                0.3796604439944314
            ]
        },
        {
            "positions": [
                2.0090455473320015,
                -1.0590894311278602,
                -1.4151650598941976,
                -0.7061368657549401,
                -1.118014901786345,
                0.3692672224593153
            ]
        },
        {
            "positions": [
                1.9103945497950048,
                -1.0326251216935791,
                -1.3431002722052052,
                -0.5857919963980467,
                -1.0533103293137258,
                0.3588740009241993
            ]
        },
        {
            "positions": [
                1.811743552258008,
                -1.006160812259298,
                -1.2710354845162126,
                -0.4654471270411533,
                -0.9886057568411064,
                0.3484807793890833
            ]
        },
        {
            "positions": [
                1.7130925547210114,
                -0.9796965028250171,
                -1.19897069682722,
                -0.34510225768425973,
                -0.923901184368487,
                0.3380875578539672
            ]
        },
        {
            "positions": [
                1.6144415571840145,
                -0.953232193390736,
                -1.1269059091382276,
                -0.22475738832736636,
                -0.8591966118958677,
                0.3276943363188512
            ]
        },
        {
            "positions": [
                1.5157905596470178,
                -0.9267678839564549,
                -1.0548411214492353,
                -0.10441251897047299,
                -0.7944920394232484,
                0.3173011147837351
            ]
        },
        {
            "positions": [
                1.4171395621100211,
                -0.9003035745221739,
                -0.9827763337602429,
                0.01593235038642038,
                -0.7297874669506291,
                0.3069078932486191
            ]
        },
        {
            "positions": [
                1.3184885645730242,
                -0.8738392650878928,
                -0.9107115460712503,
                0.13627721974331397,
                -0.6650828944780097,
                0.2965146717135031
            ]
        },
        {
            "positions": [
                1.2198375670360275,
                -0.8473749556536118,
                -0.8386467583822579,
                0.25662208910020734,
                -0.6003783220053904,
                0.2861214501783871
            ]
        },
        {
            "positions": [
                1.1211865694990308,
                -0.8209106462193307,
                -0.7665819706932655,
                0.3769669584571007,
                -0.5356737495327712,
                0.275728228643271
            ]
        },
        {
            "positions": [
                1.022535571962034,
                -0.7944463367850496,
                -0.6945171830042729,
                0.4973118278139941,
                -0.47096917706015184,
                0.26533500710815494
            ]
        },
        {
            "positions": [
                0.9238845744250375,
                -0.7679820273507687,
                -0.6224523953152803,
                0.6176566971708874,
                -0.40626460458753266,
                0.2549417855730389
            ]
        },
        {
            "positions": [
                0.8252335768880408,
                -0.7415177179164876,
                -0.5503876076262879,
                0.7380015665277808,
                -0.34156003211491326,
                0.2445485640379229
            ]
        },
        {
            "positions": [
                0.7265825793510439,
                -0.7150534084822066,
                -0.4783228199372953,
                0.8583464358846746,
                -0.27685545964229386,
                0.23415534250280687
            ]
        },
        {
            "positions": [
                0.627931581814047,
                -0.6885890990479255,
                -0.4062580322483029,
                0.978691305241568,
                -0.21215088716967467,
                0.22376212096769083
            ]
        },
        {
            "positions": [
                0.5292805842770503,
                -0.6621247896136445,
                -0.33419324455931054,
                1.0990361745984614,
                -0.14744631469705527,
                0.2133688994325748
            ]
        },
        {
            "positions": [
                0.4306295867400536,
                -0.6356604801793634,
                -0.26212845687031794,
                1.2193810439553547,
                -0.08274174222443587,
                0.20297567789745874
            ]
        },
        {
            "positions": [
                0.3319785892030569,
                -0.6091961707450824,
                -0.19006366918132545,
                1.339725913312248,
                -0.018037169751816684,
                0.19258245636234272
            ]
        },
        {
            "positions": [
                0.29685289155167144,
                -0.6247673793891096,
                0.026834638758562013,
                1.4154247061199623,
                -0.027374904854913944,
                0.15377533192529041
            ]
        },
        {
            "positions": [
                0.26172719390028604,
                -0.6403385880331369,
                0.24373294669844947,
                1.4911234989276765,
                -0.0367126399580112,
                0.11496820748823808
            ]
        },
        {
            "positions": [
                0.22660149624890058,
                -0.6559097966771642,
                0.460631254638337,
                1.5668222917353907,
                -0.04605037506110846,
                0.07616108305118574
            ]
        },
        {
            "positions": [
                0.19147579859751515,
                -0.6714810053211915,
                0.6775295625782244,
                1.6425210845431049,
                -0.05538811016420572,
                0.03735395861413343
            ]
        },
        {
            "positions": [
                0.1563501009461297,
                -0.6870522139652188,
                0.894427870518112,
                1.7182198773508193,
                -0.06472584526730299,
                -0.0014531658229189337
            ]
        },
        {
            "positions": [
                0.12122440329474428,
                -0.702623422609246,
                1.1113261784579995,
                1.7939186701585335,
                -0.07406358037040024,
                -0.04026029025997123
            ]
        },
        {
            "positions": [
                0.11574190385967179,
                -0.7252720397493637,
                1.373632058965742,
                1.8530969501238603,
                -0.0879564259877886,
                -0.050235891514353016
            ]
        },
        {
            "positions": [
                0.1102594044245993,
                -0.7479206568894813,
                1.6359379394734845,
                1.9122752300891872,
                -0.10184927160517697,
                -0.0602114927687348
            ]
        },
        {
            "positions": [
                0.10477690498952681,
                -0.770569274029599,
                1.898243819981227,
                1.971453510054514,
                -0.11574211722256533,
                -0.0701870940231166
            ]
        },
        {
            "positions": [
                0.12284414501424773,
                -0.7885437164549277,
                2.0167638918319595,
                2.00318978684226,
                -0.13578512540025484,
                -0.09209845835760107
            ]
        }
    ]
}