{
    "goal": {
        "global_pose": {
            "orientation": {
                "w": 0.5084816217422485,
                "x": -0.49083608388900757,
                "y": 0.5182115435600281,
                "z": -0.4816462993621826
            },
            "position": {
                "x": 0.5540239810943604,
                "y": 0.030875300988554955,
                "z": 0.16403168439865112
            }
        },
        "name": "move_to_storage_A"
    },
    "id": "LBTRRT_move_to_storage_A_97",
    "joint_names": [
        "shoulder_pan_joint",
        "shoulder_lift_joint",
        "elbow_joint",
        "wrist_1_joint",
        "wrist_2_joint",
        "wrist_3_joint"
    ],
    "metrics": {
        "cart_traj_len": 0.352754586303532,
        "distance_elbow_joint": 0.45226533895745735,
        "distance_shoulder_lift_joint": 0.23307278750066396,
        "distance_shoulder_pan_joint": 0.4571340797180827,
        "distance_wrist_1_joint": 0.2586286741487648,
        "distance_wrist_2_joint": 1.115262346474938,
        "distance_wrist_3_joint": 0.09162330579128142,
        "smoothness": 1.3322676295501878e-15,
        "time": 5.003907969,
        "traj_len": 1.61492616939326,
        "weighted_distance": 2.040863583093553
    },
    "planner": "LBTRRT",
    "start": {
        "state": {
            "elbow_joint": 1.9715477243005601,
            "shoulder_lift_joint": -1.1394853015351272,
            "shoulder_pan_joint": 0.12281154014795169,
            "wrist_1_joint": -0.7804696478968182,
            "wrist_2_joint": 0.12958648046900423,
            "wrist_3_joint": -3.192491284697111
        }
    },
    "waypoints": [
        {
            "positions": [
                0.12281154014795169,
                -1.1394853015351272,
                1.9715477243005601,
                -0.7804696478968182,
                0.12958648046900423,
                -3.192491284697111
            ]
        },
        {
            "positions": [
                0.057506671616797025,
                -1.172781414035222,
                2.0361570584373396,
                -0.8174166013466417,
                0.2889096728225668,
                -3.1794022410126423
            ]
        },
        {
            "positions": [
                -0.0077981969143576385,
                -1.206077526535317,
                2.1007663925741196,
                -0.8543635547964652,
                0.44823286517612937,
                -3.1663131973281735
            ]
        },
        {
            "positions": [
                -0.0731030654455123,
                -1.2393736390354118,
                2.165375726710899,
                -0.8913105082462888,
                0.6075560575296919,
                -3.1532241536437047
            ]
        },
        {
            "positions": [
                -0.13840793397666695,
                -1.2726697515355065,
                2.2299850608476786,
                -0.9282574616961123,
                0.7668792498832545,
                -3.1401351099592363
            ]
        },
        {
            "positions": [
                -0.20371280250782164,
                -1.3059658640356013,
                2.2945943949844585,
                -0.9652044151459358,
                0.9262024422368171,
                -3.1270460662747674
            ]
        },
        {
            "positions": [
                -0.2690176710389763,
                -1.3392619765356963,
                2.359203729121238,
                -1.0021513685957595,
                1.0855256345903797,
                -3.1139570225902986
            ]
        },
        {
            "positions": [
                -0.33432253957013097,
                -1.3725580890357911,
                2.4238130632580175,
                -1.039098322045583,
                1.2448488269439424,
                -3.1008679789058298
            ]
        }
    ]
}