{
    "goal": {
        "global_pose": {
            "orientation": {
                "w": 0.5084816217422485,
                "x": -0.49083608388900757,
                "y": 0.5182115435600281,
                "z": -0.4816462993621826
            },
            "position": {
                "x": 0.5540239810943604,
                "y": 0.030875300988554955,
                "z": 0.16403168439865112
            }
        },
        "name": "move_to_storage_A"
    },
    "id": "LBTRRT_move_to_storage_A_82",
    "joint_names": [
        "shoulder_pan_joint",
        "shoulder_lift_joint",
        "elbow_joint",
        "wrist_1_joint",
        "wrist_2_joint",
        "wrist_3_joint"
    ],
    "metrics": {
        "cart_traj_len": 0.3534229236451615,
        "distance_elbow_joint": 0.4528562013767665,
        "distance_shoulder_lift_joint": 0.23391151791357778,
        "distance_shoulder_pan_joint": 0.4633956876073643,
        "distance_wrist_1_joint": 0.25905015533486553,
        "distance_wrist_2_joint": 1.0937978314668784,
        "distance_wrist_3_joint": 0.10010334986461578,
        "smoothness": 6.661338165333112e-16,
        "time": 5.003972763,
        "traj_len": 1.613417101546921,
        "weighted_distance": 2.0386685434604233
    },
    "planner": "LBTRRT",
    "start": {
        "state": {
            "elbow_joint": 1.9715477243005601,
            "shoulder_lift_joint": -1.1394853015351272,
            "shoulder_pan_joint": 0.12281154014795169,
            "wrist_1_joint": -0.7804696478968182,
            "wrist_2_joint": 0.12958648046900423,
            "wrist_3_joint": -3.192491284697111
        }
    },
    "waypoints": [
        {
            "positions": [
                0.12281154014795169,
                -1.1394853015351272,
                1.9715477243005601,
                -0.7804696478968182,
                0.12958648046900423,
                -3.192491284697111
            ]
        },
        {
            "positions": [
                0.0566121562040425,
                -1.1729012326656383,
                2.036241467354384,
                -0.8174768129446561,
                0.28584331353570114,
                -3.178190806145023
            ]
        },
        {
            "positions": [
                -0.009587227739866686,
                -1.2063171637961494,
                2.1009352104082075,
                -0.854483977992494,
                0.44210014660239805,
                -3.1638903275929353
            ]
        },
        {
            "positions": [
                -0.07578661168377586,
                -1.2397330949266605,
                2.1656289534620314,
                -0.891491143040332,
                0.598356979669095,
                -3.149589849040847
            ]
        },
        {
            "positions": [
                -0.14198599562768505,
                -1.2731490260571716,
                2.2303226965158554,
                -0.9284983080881699,
                0.7546138127357919,
                -3.1352893704887594
            ]
        },
        {
            "positions": [
                -0.20818537957159428,
                -1.3065649571876827,
                2.2950164395696793,
                -0.9655054731360078,
                0.9108706458024888,
                -3.1209888919366713
            ]
        },
        {
            "positions": [
                -0.2743847635155034,
                -1.3399808883181938,
                2.3597101826235027,
                -1.0025126381838458,
                1.0671274788691858,
                -3.1066884133845836
            ]
        },
        {
            "positions": [
                -0.3405841474594126,
                -1.373396819448705,
                2.4244039256773267,
                -1.0395198032316837,
                1.2233843119358825,
                -3.0923879348324954
            ]
        }
    ]
}