{
    "goal": {
        "global_pose": {
            "orientation": {
                "w": 0.7047431468963623,
                "x": -0.7094548344612122,
                "y": 0.0024358443915843964,
                "z": -0.0022348060738295317
            },
            "position": {
                "x": 0.6094750761985779,
                "y": 0.3671506643295288,
                "z": 0.19426114857196808
            }
        },
        "name": "move_to_magneteinheit_A"
    },
    "id": "LBTRRT_move_to_magneteinheit_A_133",
    "joint_names": [
        "shoulder_pan_joint",
        "shoulder_lift_joint",
        "elbow_joint",
        "wrist_1_joint",
        "wrist_2_joint",
        "wrist_3_joint"
    ],
    "metrics": {
        "cart_traj_len": 3.5653055586444244,
        "distance_elbow_joint": 3.9078707118621905,
        "distance_shoulder_lift_joint": 0.09900474404344473,
        "distance_shoulder_pan_joint": 2.72007618017968,
        "distance_wrist_1_joint": 0.6999708727306889,
        "distance_wrist_2_joint": 1.7002871715431984,
        "distance_wrist_3_joint": 3.5722856158254612,
        "smoothness": 0.06426075688339832,
        "time": 5.039136638,
        "traj_len": 3.563635123884691,
        "weighted_distance": 4.71638893350723
    },
    "planner": "LBTRRT",
    "start": {
        "state": {
            "elbow_joint": -1.919618573717145,
            "shoulder_lift_joint": -1.2443395971678275,
            "shoulder_pan_joint": 2.6996025300909787,
            "wrist_1_joint": -1.548550951253194,
            "wrist_2_joint": -1.5709469090946802,
            "wrist_3_joint": 0.4420197732051276
        }
    },
    "waypoints": [
        {
            "positions": [
                2.6996025300909787,
                -1.2443395971678275,
                -1.919618573717145,
                -1.548550951253194,
                -1.5709469090946802,
                0.4420197732051276
            ]
        },
        {
            "positions": [
                2.60829215204345,
                -1.2417435378772437,
                -1.81240319438777,
                -1.5281864256336688,
                -1.5150574807077033,
                0.33088449918225293
            ]
        },
        {
            "positions": [
                2.5169817739959206,
                -1.2391474785866599,
                -1.7051878150583955,
                -1.5078219000141433,
                -1.4591680523207264,
                0.21974922515937828
            ]
        },
        {
            "positions": [
                2.4256713959483918,
                -1.2365514192960763,
                -1.5979724357290206,
                -1.487457374394618,
                -1.4032786239337496,
                0.10861395113650363
            ]
        },
        {
            "positions": [
                2.3343610179008625,
                -1.2339553600054924,
                -1.4907570563996457,
                -1.4670928487750927,
                -1.3473891955467727,
                -0.0025213228863710246
            ]
        },
        {
            "positions": [
                2.2430506398533336,
                -1.2313593007149086,
                -1.3835416770702709,
                -1.4467283231555674,
                -1.2914997671597959,
                -0.11365659690924573
            ]
        },
        {
            "positions": [
                2.1517402618058044,
                -1.2287632414243248,
                -1.276326297740896,
                -1.426363797536042,
                -1.235610338772819,
                -0.22479187093212033
            ]
        },
        {
            "positions": [
                2.0604298837582755,
                -1.226167182133741,
                -1.1691109184115214,
                -1.4059992719165166,
                -1.1797209103858421,
                -0.33592714495499504
            ]
        },
        {
            "positions": [
                1.9691195057107465,
                -1.2235711228431572,
                -1.0618955390821465,
                -1.3856347462969913,
                -1.1238314819988653,
                -0.44706241897786964
            ]
        },
        {
            "positions": [
                1.8778091276632174,
                -1.2209750635525736,
                -0.9546801597527717,
                -1.3652702206774658,
                -1.0679420536118882,
                -0.5581976930007444
            ]
        },
        {
            "positions": [
                1.7864987496156883,
                -1.2183790042619898,
                -0.8474647804233968,
                -1.3449056950579406,
                -1.0120526252249116,
                -0.669332967023619
            ]
        },
        {
            "positions": [
                1.6951883715681593,
                -1.215782944971406,
                -0.7402494010940222,
                -1.3245411694384153,
                -0.9561631968379347,
                -0.7804682410464936
            ]
        },
        {
            "positions": [
                1.6038779935206302,
                -1.2131868856808221,
                -0.6330340217646473,
                -1.30417664381889,
                -0.9002737684509577,
                -0.8916035150693682
            ]
        },
        {
            "positions": [
                1.5125676154731011,
                -1.2105908263902383,
                -0.5258186424352724,
                -1.2838121181993647,
                -0.8443843400639809,
                -1.002738789092243
            ]
        },
        {
            "positions": [
                1.421257237425572,
                -1.2079947670996545,
                -0.41860326310589757,
                -1.2634475925798392,
                -0.788494911677004,
                -1.1138740631151176
            ]
        },
        {
            "positions": [
                1.329946859378043,
                -1.2053987078090709,
                -0.3113878837765227,
                -1.243083066960314,
                -0.7326054832900271,
                -1.2250093371379924
            ]
        },
        {
            "positions": [
                1.2386364813305142,
                -1.202802648518487,
                -0.20417250444714807,
                -1.2227185413407886,
                -0.6767160549030503,
                -1.3361446111608668
            ]
        },
        {
            "positions": [
                1.1473261032829851,
                -1.2002065892279032,
                -0.09695712511777344,
                -1.202354015721263,
                -0.6208266265160736,
                -1.4472798851837414
            ]
        },
        {
            "positions": [
                1.056015725235456,
                -1.1976105299373194,
                0.010258254211601647,
                -1.1819894901017378,
                -0.5649371981290965,
                -1.5584151592066164
            ]
        },
        {
            "positions": [
                0.964705347187927,
                -1.1950144706467356,
                0.11747363354097629,
                -1.1616249644822125,
                -0.5090477697421198,
                -1.6695504332294906
            ]
        },
        {
            "positions": [
                0.8733949691403979,
                -1.1924184113561518,
                0.22468901287035137,
                -1.141260438862687,
                -0.45315834135514277,
                -1.7806857072523656
            ]
        },
        {
            "positions": [
                0.7820845910928689,
                -1.1898223520655682,
                0.331904392199726,
                -1.1208959132431617,
                -0.3972689129681659,
                -1.8918209812752402
            ]
        },
        {
            "positions": [
                0.6907742130453398,
                -1.1872262927749844,
                0.43911977152910064,
                -1.1005313876236364,
                -0.3413794845811893,
                -2.002956255298115
            ]
        },
        {
            "positions": [
                0.599463834997811,
                -1.1846302334844006,
                0.5463351508584757,
                -1.080166862004111,
                -0.2854900561942122,
                -2.1140915293209894
            ]
        },
        {
            "positions": [
                0.5081534569502817,
                -1.1820341741938167,
                0.6535505301878504,
                -1.0598023363845859,
                -0.22960062780723534,
                -2.225226803343864
            ]
        },
        {
            "positions": [
                0.41684307890275285,
                -1.179438114903233,
                0.760765909517225,
                -1.0394378107650604,
                -0.1737111994202587,
                -2.3363620773667386
            ]
        },
        {
            "positions": [
                0.32553270085522357,
                -1.1768420556126493,
                0.8679812888466001,
                -1.019073285145535,
                -0.11782177103328162,
                -2.4474973513896137
            ]
        },
        {
            "positions": [
                0.23422232280769473,
                -1.1742459963220655,
                0.9751966681759747,
                -0.9987087595260097,
                -0.06193234264630476,
                -2.5586326254124883
            ]
        },
        {
            "positions": [
                0.14291194476016544,
                -1.1716499370314817,
                1.0824120475053498,
                -0.9783442339064843,
                -0.006042914259327903,
                -2.669767899435363
            ]
        },
        {
            "positions": [
                0.051601566712636694,
                -1.1690538777408979,
                1.1896274268347242,
                -0.957979708286959,
                0.04984651412764893,
                -2.7809031734582375
            ]
        },
        {
            "positions": [
                0.06696331129185387,
                -1.163587434759083,
                1.3693456761697922,
                -0.9313900451116127,
                0.0681945485730208,
                -2.861258207886415
            ]
        },
        {
            "positions": [
                0.08232505587107104,
                -1.1581209917772686,
                1.5490639255048602,
                -0.9048003819362664,
                0.08654258301839268,
                -2.941613242314593
            ]
        },
        {
            "positions": [
                0.09768680045028821,
                -1.1526545487954538,
                1.7287821748399284,
                -0.87821071876092,
                0.10489061746376456,
                -3.021968276742771
            ]
        },
        {
            "positions": [
                0.11304854502950538,
                -1.147188105813639,
                1.9085004241749963,
                -0.8516210555855738,
                0.12323865190913644,
                -3.1023233111709487
            ]
        },
        {
            "positions": [
                0.12367678351397354,
                -1.1490413585028953,
                1.9882521381450453,
                -0.8546620326486424,
                0.12934026244851798,
                -3.1302658426203336
            ]
        }
    ]
}{
    "goal": {
        "global_pose": {
            "orientation": {
                "w": 0.7047431468963623,
                "x": -0.7094548344612122,
                "y": 0.0024358443915843964,
                "z": -0.0022348060738295317
            },
            "position": {
                "x": 0.6094750761985779,
                "y": 0.3671506643295288,
                "z": 0.19426114857196808
            }
        },
        "name": "move_to_magneteinheit_A"
    },
    "id": "LBTRRT_move_to_magneteinheit_A_133",
    "joint_names": [
        "shoulder_pan_joint",
        "shoulder_lift_joint",
        "elbow_joint",
        "wrist_1_joint",
        "wrist_2_joint",
        "wrist_3_joint"
    ],
    "metrics": {
        "cart_traj_len": 1.1936448264153017,
        "distance_elbow_joint": 0.20035518937976238,
        "distance_shoulder_lift_joint": 0.7558963324468335,
        "distance_shoulder_pan_joint": 1.2413217387843334,
        "distance_wrist_1_joint": 0.784426561727883,
        "distance_wrist_2_joint": 1.441463489387328,
        "distance_wrist_3_joint": 4.283610138947537,
        "smoothness": 0.013103465796223415,
        "time": 5.053986641000001,
        "traj_len": 2.9507750593147013,
        "weighted_distance": 4.415901242066444
    },
    "planner": "LBTRRT",
    "start": {
        "state": {
            "elbow_joint": 1.919643534880228,
            "shoulder_lift_joint": -1.8972525353963687,
            "shoulder_pan_joint": -1.1188672234189438,
            "wrist_1_joint": -1.5931878212786155,
            "wrist_2_joint": 1.5706036197970081,
            "wrist_3_joint": 1.118896926603594
        }
    },
    "waypoints": [
        {
            "positions": [
                -1.1188672234189438,
                -1.8972525353963687,
                1.919643534880228,
                -1.5931878212786155,
                1.5706036197970081,
                1.118896926603594
            ]
        },
        {
            "positions": [
                -1.1041181407423728,
                -1.8930215649547153,
                1.962477281335871,
                -1.559070442518151,
                1.5200457185468113,
                0.9143689221333628
            ]
        },
        {
            "positions": [
                -1.089369058065802,
                -1.8887905945130616,
                2.005311027791514,
                -1.5249530637576862,
                1.4694878172966146,
                0.7098409176631318
            ]
        },
        {
            "positions": [
                -1.074619975389231,
                -1.8845596240714082,
                2.048144774247157,
                -1.4908356849972217,
                1.4189299160464177,
                0.5053129131929007
            ]
        },
        {
            "positions": [
                -1.0147662508514999,
                -1.8473994530153146,
                2.0445520767465153,
                -1.4567319637248972,
                1.3544404267645809,
                0.32181160691605853
            ]
        },
        {
            "positions": [
                -0.9549125263137689,
                -1.810239281959221,
                2.0409593792458733,
                -1.422628242452573,
                1.289950937482744,
                0.13831030063921634
            ]
        },
        {
            "positions": [
                -0.8950588017760379,
                -1.7730791109031272,
                2.037366681745232,
                -1.3885245211802484,
                1.2254614482009072,
                -0.04519100563762579
            ]
        },
        {
            "positions": [
                -0.8352050772383068,
                -1.7359189398470336,
                2.03377398424459,
                -1.3544207999079239,
                1.1609719589190701,
                -0.22869231191446804
            ]
        },
        {
            "positions": [
                -0.7753513527005758,
                -1.69875876879094,
                2.0301812867439484,
                -1.3203170786355993,
                1.0964824696372333,
                -0.4121936181913102
            ]
        },
        {
            "positions": [
                -0.7154976281628448,
                -1.6615985977348462,
                2.026588589243307,
                -1.286213357363275,
                1.0319929803553964,
                -0.5956949244681523
            ]
        },
        {
            "positions": [
                -0.6556439036251138,
                -1.6244384266787526,
                2.022995891742665,
                -1.2521096360909505,
                0.9675034910735596,
                -0.7791962307449946
            ]
        },
        {
            "positions": [
                -0.5957901790873827,
                -1.587278255622659,
                2.0194031942420234,
                -1.218005914818626,
                0.9030140017917226,
                -0.9626975370218368
            ]
        },
        {
            "positions": [
                -0.5359364545496517,
                -1.5501180845665654,
                2.0158104967413815,
                -1.1839021935463014,
                0.8385245125098858,
                -1.146198843298679
            ]
        },
        {
            "positions": [
                -0.4760827300119207,
                -1.5129579135104718,
                2.01221779924074,
                -1.1497984722739771,
                0.774035023228049,
                -1.3297001495755212
            ]
        },
        {
            "positions": [
                -0.4162290054741896,
                -1.475797742454378,
                2.0086251017400985,
                -1.1156947510016526,
                0.709545533946212,
                -1.5132014558523634
            ]
        },
        {
            "positions": [
                -0.35637528093645865,
                -1.4386375713982844,
                2.0050324042394565,
                -1.081591029729328,
                0.6450560446643753,
                -1.6967027621292052
            ]
        },
        {
            "positions": [
                -0.29652155639872757,
                -1.4014774003421908,
                2.001439706738815,
                -1.0474873084570038,
                0.5805665553825383,
                -1.8802040684060475
            ]
        },
        {
            "positions": [
                -0.2366678318609966,
                -1.364317229286097,
                1.9978470092381733,
                -1.0133835871846792,
                0.5160770661007015,
                -2.0637053746828897
            ]
        },
        {
            "positions": [
                -0.17681410732326563,
                -1.3271570582300034,
                1.9942543117375315,
                -0.9792798659123547,
                0.45158757681886463,
                -2.247206680959732
            ]
        },
        {
            "positions": [
                -0.11696038278553456,
                -1.2899968871739098,
                1.9906616142368898,
                -0.9451761446400303,
                0.38709808753702757,
                -2.430707987236574
            ]
        },
        {
            "positions": [
                -0.05710665824780348,
                -1.2528367161178162,
                1.987068916736248,
                -0.9110724233677058,
                0.32260859825519095,
                -2.614209293513416
            ]
        },
        {
            "positions": [
                0.002747066289927602,
                -1.2156765450617226,
                1.9834762192356066,
                -0.8769687020953814,
                0.2581191089733539,
                -2.7977105997902583
            ]
        },
        {
            "positions": [
                0.06260079082765846,
                -1.1785163740056288,
                1.9798835217349648,
                -0.8428649808230569,
                0.19362961969151704,
                -2.9812119060671005
            ]
        },
        {
            "positions": [
                0.12245451536538945,
                -1.1413562029495352,
                1.9762908242343231,
                -0.8087612595507324,
                0.12914013040968012,
                -3.1647132123439428
            ]
        }
    ]
}