{
    "goal": {
        "global_pose": {
            "orientation": {
                "w": 0.7047431468963623,
                "x": -0.7094548344612122,
                "y": 0.0024358443915843964,
                "z": -0.0022348060738295317
            },
            "position": {
                "x": 0.6094750761985779,
                "y": 0.3671506643295288,
                "z": 0.19426114857196808
            }
        },
        "name": "move_to_magneteinheit_A"
    },
    "id": "LBTRRT_move_to_magneteinheit_A_1",
    "joint_names": [
        "shoulder_pan_joint",
        "shoulder_lift_joint",
        "elbow_joint",
        "wrist_1_joint",
        "wrist_2_joint",
        "wrist_3_joint"
    ],
    "metrics": {
        "cart_traj_len": 3.621730901556169,
        "distance_elbow_joint": 3.88932827034205,
        "distance_shoulder_lift_joint": 0.34943528618461395,
        "distance_shoulder_pan_joint": 2.6791473819107035,
        "distance_wrist_1_joint": 1.090499921957103,
        "distance_wrist_2_joint": 2.163965313745371,
        "distance_wrist_3_joint": 2.606147645876908,
        "smoothness": 0.3633213320256307,
        "time": 5.030122242,
        "traj_len": 3.574706116594306,
        "weighted_distance": 4.609260715936236
    },
    "planner": "LBTRRT",
    "start": {
        "state": {
            "elbow_joint": -1.919618573717145,
            "shoulder_lift_joint": -1.2443395971678275,
            "shoulder_pan_joint": 2.6996025300909787,
            "wrist_1_joint": -1.548550951253194,
            "wrist_2_joint": -1.5709469090946802,
            "wrist_3_joint": 0.4420197732051276
        }
    },
    "waypoints": [
        {
            "positions": [
                2.6996025300909787,
                -1.2443395971678275,
                -1.919618573717145,
                -1.548550951253194,
                -1.5709469090946802,
                0.4420197732051276
            ]
        },
        {
            "positions": [
                2.598538593592846,
                -1.2405882413534293,
                -1.802681500105852,
                -1.5118096679338329,
                -1.5165190598976401,
                0.5207036691273168
            ]
        },
        {
            "positions": [
                2.4974746570947137,
                -1.236836885539031,
                -1.685744426494559,
                -1.4750683846144717,
                -1.4620912107006,
                0.599387565049506
            ]
        },
        {
            "positions": [
                2.396410720596581,
                -1.2330855297246328,
                -1.5688073528832658,
                -1.4383271012951104,
                -1.40766336150356,
                0.6780714609716951
            ]
        },
        {
            "positions": [
                2.2953467840984487,
                -1.2293341739102346,
                -1.4518702792719729,
                -1.4015858179757492,
                -1.35323551230652,
                0.7567553568938843
            ]
        },
        {
            "positions": [
                2.194282847600316,
                -1.2255828180958364,
                -1.33493320566068,
                -1.3648445346563882,
                -1.2988076631094798,
                0.8354392528160735
            ]
        },
        {
            "positions": [
                2.0932189111021833,
                -1.2218314622814381,
                -1.2179961320493868,
                -1.328103251337027,
                -1.2443798139124398,
                0.9141231487382626
            ]
        },
        {
            "positions": [
                1.992154974604051,
                -1.21808010646704,
                -1.101059058438094,
                -1.2913619680176658,
                -1.1899519647153998,
                0.9928070446604518
            ]
        },
        {
            "positions": [
                1.8910910381059183,
                -1.2143287506526417,
                -0.9841219848268008,
                -1.2546206846983046,
                -1.1355241155183597,
                1.0714909405826412
            ]
        },
        {
            "positions": [
                1.7900271016077858,
                -1.2105773948382434,
                -0.8671849112155079,
                -1.2178794013789433,
                -1.0810962663213197,
                1.15017483650483
            ]
        },
        {
            "positions": [
                1.688963165109653,
                -1.2068260390238452,
                -0.7502478376042148,
                -1.1811381180595821,
                -1.0266684171242795,
                1.2288587324270195
            ]
        },
        {
            "positions": [
                1.5878992286115208,
                -1.203074683209447,
                -0.6333107639929219,
                -1.144396834740221,
                -0.9722405679272397,
                1.3075426283492086
            ]
        },
        {
            "positions": [
                1.486835292113388,
                -1.1993233273950488,
                -0.5163736903816287,
                -1.10765555142086,
                -0.9178127187301995,
                1.3862265242713978
            ]
        },
        {
            "positions": [
                1.3857713556152556,
                -1.1955719715806503,
                -0.3994366167703358,
                -1.0709142681014987,
                -0.8633848695331595,
                1.464910420193587
            ]
        },
        {
            "positions": [
                1.284707419117123,
                -1.191820615766252,
                -0.2824995431590429,
                -1.0341729847821375,
                -0.8089570203361195,
                1.5435943161157761
            ]
        },
        {
            "positions": [
                1.1836434826189906,
                -1.1880692599518539,
                -0.16556246954775,
                -0.9974317014627763,
                -0.7545291711390795,
                1.6222782120379653
            ]
        },
        {
            "positions": [
                1.0825795461208578,
                -1.1843179041374556,
                -0.04862539593645665,
                -0.960690418143415,
                -0.7001013219420393,
                1.7009621079601547
            ]
        },
        {
            "positions": [
                0.9815156096227253,
                -1.1805665483230574,
                0.06831167767483626,
                -0.9239491348240539,
                -0.6456734727449993,
                1.7796460038823436
            ]
        },
        {
            "positions": [
                0.8804516731245928,
                -1.1768151925086592,
                0.18524875128612917,
                -0.8872078515046927,
                -0.5912456235479593,
                1.8583298998045328
            ]
        },
        {
            "positions": [
                0.7793877366264603,
                -1.173063836694261,
                0.3021858248974223,
                -0.8504665681853315,
                -0.5368177743509193,
                1.937013795726722
            ]
        },
        {
            "positions": [
                0.6783238001283274,
                -1.1693124808798627,
                0.4191228985087154,
                -0.8137252848659703,
                -0.482389925153879,
                2.0156976916489113
            ]
        },
        {
            "positions": [
                0.5772598636301951,
                -1.1655611250654645,
                0.5360599721200081,
                -0.7769840015466092,
                -0.427962075956839,
                2.0943815875711005
            ]
        },
        {
            "positions": [
                0.4761959271320628,
                -1.1618097692510663,
                0.6529970457313012,
                -0.740242718227248,
                -0.3735342267597992,
                2.1730654834932897
            ]
        },
        {
            "positions": [
                0.3751319906339301,
                -1.158058413436668,
                0.7699341193425944,
                -0.7035014349078867,
                -0.31910637756275917,
                2.2517493794154784
            ]
        },
        {
            "positions": [
                0.2740680541357974,
                -1.1543070576222698,
                0.8868711929538875,
                -0.6667601515885255,
                -0.2646785283657189,
                2.330433275337668
            ]
        },
        {
            "positions": [
                0.17300411763766466,
                -1.1505557018078716,
                1.0038082665651802,
                -0.6300188682691644,
                -0.2102506791686789,
                2.409117171259857
            ]
        },
        {
            "positions": [
                0.07194018113953252,
                -1.1468043459934734,
                1.1207453401764733,
                -0.5932775849498032,
                -0.1558228299716389,
                2.4878010671820463
            ]
        },
        {
            "positions": [
                0.07726901800407932,
                -1.1246403679008392,
                1.2612918828577202,
                -0.5952166699752132,
                -0.07004476696650624,
                2.566699979694379
            ]
        },
        {
            "positions": [
                0.0825978548686261,
                -1.102476389808205,
                1.4018384255389673,
                -0.5971557550006231,
                0.015733296038626415,
                2.6455988922067117
            ]
        },
        {
            "positions": [
                0.0879266917331729,
                -1.080312411715571,
                1.5423849682202144,
                -0.5990948400260332,
                0.1015113590437591,
                2.7244978047190447
            ]
        },
        {
            "positions": [
                0.09325552859771968,
                -1.0581484336229368,
                1.6829315109014613,
                -0.6010339250514432,
                0.18728942204889173,
                2.803396717231377
            ]
        },
        {
            "positions": [
                0.09858436546226648,
                -1.0359844555303026,
                1.8234780535827082,
                -0.6029730100768531,
                0.27306748505402445,
                2.8822956297437097
            ]
        },
        {
            "positions": [
                0.10391320232681328,
                -1.0138204774376685,
                1.9640245962639553,
                -0.6049120951022631,
                0.35884554805915714,
                2.9611945422560426
            ]
        },
        {
            "positions": [
                0.11366920821280069,
                -1.073278560664896,
                1.9611820460834806,
                -0.6667081178528892,
                0.24175911976339018,
                3.004680980669039
            ]
        },
        {
            "positions": [
                0.1234252140987881,
                -1.1327366438921234,
                1.958339495903006,
                -0.7285041406035153,
                0.12467269146762323,
                3.0481674190820356
            ]
        }
    ]
}{
    "goal": {
        "global_pose": {
            "orientation": {
                "w": 0.7047431468963623,
                "x": -0.7094548344612122,
                "y": 0.0024358443915843964,
                "z": -0.0022348060738295317
            },
            "position": {
                "x": 0.6094750761985779,
                "y": 0.3671506643295288,
                "z": 0.19426114857196808
            }
        },
        "name": "move_to_magneteinheit_A"
    },
    "id": "LBTRRT_move_to_magneteinheit_A_1",
    "joint_names": [
        "shoulder_pan_joint",
        "shoulder_lift_joint",
        "elbow_joint",
        "wrist_1_joint",
        "wrist_2_joint",
        "wrist_3_joint"
    ],
    "metrics": {
        "cart_traj_len": 1.2014086993705073,
        "distance_elbow_joint": 0.06682388420686625,
        "distance_shoulder_lift_joint": 0.7506663677865375,
        "distance_shoulder_pan_joint": 1.2413133153830127,
        "distance_wrist_1_joint": 0.8002355132755798,
        "distance_wrist_2_joint": 1.4474638135008324,
        "distance_wrist_3_joint": 4.274598145925296,
        "smoothness": 0.4791296182740153,
        "time": 5.037482895,
        "traj_len": 2.9293516415886507,
        "weighted_distance": 4.402044599808722
    },
    "planner": "LBTRRT",
    "start": {
        "state": {
            "elbow_joint": 1.919643534880228,
            "shoulder_lift_joint": -1.8972525353963687,
            "shoulder_pan_joint": -1.1188672234189438,
            "wrist_1_joint": -1.5931878212786155,
            "wrist_2_joint": 1.5706036197970081,
            "wrist_3_joint": 1.118896926603594
        }
    },
    "waypoints": [
        {
            "positions": [
                -1.1188672234189438,
                -1.8972525353963687,
                1.919643534880228,
                -1.5931878212786155,
                1.5706036197970081,
                1.118896926603594
            ]
        },
        {
            "positions": [
                -1.062729926779466,
                -1.8634074944858907,
                1.9221204283705442,
                -1.5581088304242616,
                1.5054817864766636,
                0.9251702033388752
            ]
        },
        {
            "positions": [
                -1.0065926301399881,
                -1.829562453575413,
                1.9245973218608605,
                -1.5230298395699076,
                1.4403599531563192,
                0.7314434800741565
            ]
        },
        {
            "positions": [
                -0.9504553335005104,
                -1.795717412664935,
                1.9270742153511766,
                -1.4879508487155537,
                1.3752381198359747,
                0.5377167568094378
            ]
        },
        {
            "positions": [
                -0.8943180368610326,
                -1.7618723717544569,
                1.9295511088414927,
                -1.4528718578611999,
                1.3101162865156302,
                0.3439900335447189
            ]
        },
        {
            "positions": [
                -0.8381807402215548,
                -1.728027330843979,
                1.932028002331809,
                -1.4177928670068458,
                1.2449944531952855,
                0.15026331028000028
            ]
        },
        {
            "positions": [
                -0.7820434435820769,
                -1.694182289933501,
                1.9345048958221251,
                -1.382713876152492,
                1.179872619874941,
                -0.04346341298471845
            ]
        },
        {
            "positions": [
                -0.7259061469425991,
                -1.660337249023023,
                1.9369817893124412,
                -1.3476348852981381,
                1.1147507865545965,
                -0.2371901362494373
            ]
        },
        {
            "positions": [
                -0.6697688503031213,
                -1.6264922081125452,
                1.9394586828027576,
                -1.312555894443784,
                1.049628953234252,
                -0.43091685951415615
            ]
        },
        {
            "positions": [
                -0.6136315536636434,
                -1.5926471672020672,
                1.9419355762930737,
                -1.2774769035894302,
                0.9845071199139074,
                -0.6246435827788748
            ]
        },
        {
            "positions": [
                -0.5574942570241657,
                -1.5588021262915892,
                1.9444124697833898,
                -1.2423979127350764,
                0.9193852865935629,
                -0.8183703060435934
            ]
        },
        {
            "positions": [
                -0.5013569603846878,
                -1.5249570853811112,
                1.9468893632737059,
                -1.2073189218807223,
                0.8542634532732184,
                -1.0120970293083122
            ]
        },
        {
            "positions": [
                -0.44521966374521005,
                -1.4911120444706334,
                1.9493662567640222,
                -1.1722399310263685,
                0.7891416199528739,
                -1.2058237525730309
            ]
        },
        {
            "positions": [
                -0.3890823671057321,
                -1.4572670035601554,
                1.9518431502543383,
                -1.1371609401720144,
                0.7240197866325293,
                -1.39955047583775
            ]
        },
        {
            "positions": [
                -0.3329450704662543,
                -1.4234219626496776,
                1.9543200437446544,
                -1.1020819493176606,
                0.6588979533121848,
                -1.5932771991024686
            ]
        },
        {
            "positions": [
                -0.27680777382677657,
                -1.3895769217391996,
                1.9567969372349707,
                -1.0670029584633065,
                0.5937761199918404,
                -1.7870039223671872
            ]
        },
        {
            "positions": [
                -0.2206704771872987,
                -1.3557318808287215,
                1.9592738307252868,
                -1.0319239676089527,
                0.5286542866714958,
                -1.9807306456319063
            ]
        },
        {
            "positions": [
                -0.16453318054782085,
                -1.3218868399182435,
                1.961750724215603,
                -0.9968449767545988,
                0.46353245335115134,
                -2.1744573688966247
            ]
        },
        {
            "positions": [
                -0.10839588390834298,
                -1.2880417990077655,
                1.9642276177059192,
                -0.9617659859002449,
                0.39841062003080663,
                -2.3681840921613437
            ]
        },
        {
            "positions": [
                -0.05225858726886523,
                -1.2541967580972877,
                1.9667045111962353,
                -0.9266869950458909,
                0.33328878671046214,
                -2.561910815426062
            ]
        },
        {
            "positions": [
                0.003878709370612521,
                -1.22035171718681,
                1.9691814046865515,
                -0.8916080041915371,
                0.26816695339011765,
                -2.755637538690781
            ]
        },
        {
            "positions": [
                0.060016006010090495,
                -1.1865066762763319,
                1.9716582981768678,
                -0.856529013337183,
                0.20304512006977316,
                -2.9493642619555
            ]
        },
        {
            "positions": [
                0.11615330264956823,
                -1.1526616353658539,
                1.9741351916671839,
                -0.8214500224828292,
                0.1379232867494287,
                -3.1430909852202182
            ]
        },
        {
            "positions": [
                0.12244609196406882,
                -1.1465861676098312,
                1.9864674190870943,
                -0.8499477369626227,
                0.12313980629617573,
                -3.130480751118735
            ]
        }
    ]
}