{
    "goal": {
        "global_pose": {
            "orientation": {
                "w": 0.5084816217422485,
                "x": -0.49083608388900757,
                "y": 0.5182115435600281,
                "z": -0.4816462993621826
            },
            "position": {
                "x": 0.5540239810943604,
                "y": 0.030875300988554955,
                "z": 0.16403168439865112
            }
        },
        "name": "move_to_storage_A"
    },
    "id": "LBTRRT_move_to_storage_A_87",
    "joint_names": [
        "shoulder_pan_joint",
        "shoulder_lift_joint",
        "elbow_joint",
        "wrist_1_joint",
        "wrist_2_joint",
        "wrist_3_joint"
    ],
    "metrics": {
        "cart_traj_len": 0.3536490045571241,
        "distance_elbow_joint": 0.4531178389843893,
        "distance_shoulder_lift_joint": 0.2322132309938969,
        "distance_shoulder_pan_joint": 0.4589128035278364,
        "distance_wrist_1_joint": 0.26053632778611846,
        "distance_wrist_2_joint": 1.1142576888888387,
        "distance_wrist_3_joint": 0.09584075098328704,
        "smoothness": 2.2204460668324854e-16,
        "time": 5.004473343,
        "traj_len": 1.617058638752586,
        "weighted_distance": 2.0448359738145006
    },
    "planner": "LBTRRT",
    "start": {
        "state": {
            "elbow_joint": 1.9715477243005601,
            "shoulder_lift_joint": -1.1394853015351272,
            "shoulder_pan_joint": 0.12281154014795169,
            "wrist_1_joint": -0.7804696478968182,
            "wrist_2_joint": 0.12958648046900423,
            "wrist_3_joint": -3.192491284697111
        }
    },
    "waypoints": [
        {
            "positions": [
                0.12281154014795169,
                -1.1394853015351272,
                1.9715477243005601,
                -0.7804696478968182,
                0.12958648046900423,
                -3.192491284697111
            ]
        },
        {
            "positions": [
                0.05725256821540363,
                -1.172658620248541,
                2.036278844155473,
                -0.8176891232948351,
                0.28876615031026687,
                -3.178799748842356
            ]
        },
        {
            "positions": [
                -0.008306403717144431,
                -1.205831938961955,
                2.1010099640103856,
                -0.854908598692852,
                0.44794582015152956,
                -3.1651082129876005
            ]
        },
        {
            "positions": [
                -0.07386537564969249,
                -1.2390052576753687,
                2.1657410838652984,
                -0.8921280740908689,
                0.6071254899927923,
                -3.151416677132845
            ]
        },
        {
            "positions": [
                -0.13942434758224054,
                -1.2721785763887825,
                2.230472203720211,
                -0.9293475494888859,
                0.7663051598340549,
                -3.13772514127809
            ]
        },
        {
            "positions": [
                -0.2049833195147886,
                -1.3053518951021963,
                2.295203323575124,
                -0.9665670248869027,
                0.9254848296753176,
                -3.124033605423335
            ]
        },
        {
            "positions": [
                -0.27054229144733666,
                -1.3385252138156103,
                2.3599344434300367,
                -1.0037865002849198,
                1.0846644995165802,
                -3.1103420695685795
            ]
        },
        {
            "positions": [
                -0.3361012633798847,
                -1.371698532529024,
                2.4246655632849494,
                -1.0410059756829366,
                1.2438441693578428,
                -3.096650533713824
            ]
        }
    ]
}