{
    "goal": {
        "global_pose": {
            "orientation": {
                "w": 0.7047431468963623,
                "x": -0.7094548344612122,
                "y": 0.0024358443915843964,
                "z": -0.0022348060738295317
            },
            "position": {
                "x": 0.6094750761985779,
                "y": 0.3671506643295288,
                "z": 0.19426114857196808
            }
        },
        "name": "move_to_magneteinheit_A"
    },
    "id": "LBTRRT_move_to_magneteinheit_A_33",
    "joint_names": [
        "shoulder_pan_joint",
        "shoulder_lift_joint",
        "elbow_joint",
        "wrist_1_joint",
        "wrist_2_joint",
        "wrist_3_joint"
    ],
    "metrics": {
        "cart_traj_len": 3.0827363669121475,
        "distance_elbow_joint": 3.8752908987761563,
        "distance_shoulder_lift_joint": 1.1880733874794782,
        "distance_shoulder_pan_joint": 3.4054167996117437,
        "distance_wrist_1_joint": 0.9607336027401241,
        "distance_wrist_2_joint": 1.6962255261758787,
        "distance_wrist_3_joint": 2.593620810084512,
        "smoothness": 0.153666824330708,
        "time": 5.019071135,
        "traj_len": 3.703965580950759,
        "weighted_distance": 4.6436582318203525
    },
    "planner": "LBTRRT",
    "start": {
        "state": {
            "elbow_joint": -1.919618573717145,
            "shoulder_lift_joint": -1.2443395971678275,
            "shoulder_pan_joint": 2.6996025300909787,
            "wrist_1_joint": -1.548550951253194,
            "wrist_2_joint": -1.5709469090946802,
            "wrist_3_joint": 0.4420197732051276
        }
    },
    "waypoints": [
        {
            "positions": [
                2.6996025300909787,
                -1.2443395971678275,
                -1.919618573717145,
                -1.548550951253194,
                -1.5709469090946802,
                0.4420197732051276
            ]
        },
        {
            "positions": [
                2.5799634165582837,
                -1.265815000573118,
                -1.7946113567705564,
                -1.512732033865007,
                -1.5487615222467968,
                0.5044959706766873
            ]
        },
        {
            "positions": [
                2.460324303025588,
                -1.2872904039784083,
                -1.6696041398239676,
                -1.47691311647682,
                -1.5265761353989136,
                0.566972168148247
            ]
        },
        {
            "positions": [
                2.340685189492893,
                -1.3087658073836987,
                -1.544596922877379,
                -1.441094199088633,
                -1.5043907485510302,
                0.6294483656198068
            ]
        },
        {
            "positions": [
                2.2210460759601975,
                -1.3302412107889892,
                -1.4195897059307905,
                -1.4052752817004461,
                -1.4822053617031468,
                0.6919245630913665
            ]
        },
        {
            "positions": [
                2.1014069624275025,
                -1.3517166141942796,
                -1.2945824889842017,
                -1.369456364312259,
                -1.4600199748552634,
                0.7544007605629263
            ]
        },
        {
            "positions": [
                1.9817678488948072,
                -1.3731920175995702,
                -1.1695752720376131,
                -1.333637446924072,
                -1.4378345880073802,
                0.8168769580344859
            ]
        },
        {
            "positions": [
                1.8621287353621119,
                -1.3946674210048606,
                -1.0445680550910244,
                -1.2978185295358848,
                -1.4156492011594968,
                0.8793531555060458
            ]
        },
        {
            "positions": [
                1.7424896218294166,
                -1.416142824410151,
                -0.9195608381444358,
                -1.261999612147698,
                -1.3934638143116134,
                0.9418293529776054
            ]
        },
        {
            "positions": [
                1.6228505082967213,
                -1.4376182278154415,
                -0.7945536211978472,
                -1.226180694759511,
                -1.37127842746373,
                1.0043055504491651
            ]
        },
        {
            "positions": [
                1.503211394764026,
                -1.4590936312207319,
                -0.6695464042512584,
                -1.190361777371324,
                -1.3490930406158468,
                1.0667817479207249
            ]
        },
        {
            "positions": [
                1.3835722812313307,
                -1.4805690346260223,
                -0.5445391873046699,
                -1.1545428599831369,
                -1.3269076537679634,
                1.1292579453922846
            ]
        },
        {
            "positions": [
                1.2639331676986356,
                -1.5020444380313127,
                -0.4195319703580813,
                -1.11872394259495,
                -1.3047222669200802,
                1.1917341428638444
            ]
        },
        {
            "positions": [
                1.14429405416594,
                -1.5235198414366031,
                -0.29452475341149253,
                -1.082905025206763,
                -1.2825368800721968,
                1.2542103403354041
            ]
        },
        {
            "positions": [
                1.0246549406332448,
                -1.5449952448418935,
                -0.16951753646490375,
                -1.0470861078185758,
                -1.2603514932243134,
                1.3166865378069639
            ]
        },
        {
            "positions": [
                0.9050158271005497,
                -1.566470648247184,
                -0.04451031951831541,
                -1.011267190430389,
                -1.23816610637643,
                1.3791627352785234
            ]
        },
        {
            "positions": [
                0.7853767135678544,
                -1.5879460516524744,
                0.08049689742827337,
                -0.9754482730422018,
                -1.2159807195285466,
                1.4416389327500834
            ]
        },
        {
            "positions": [
                0.6657376000351589,
                -1.609421455057765,
                0.20550411437486216,
                -0.9396293556540148,
                -1.1937953326806634,
                1.5041151302216431
            ]
        },
        {
            "positions": [
                0.5460984865024638,
                -1.6308968584630552,
                0.3305113313214505,
                -0.9038104382658279,
                -1.17160994583278,
                1.5665913276932026
            ]
        },
        {
            "positions": [
                0.42645937296976877,
                -1.6523722618683458,
                0.4555185482680393,
                -0.8679915208776408,
                -1.1494245589848966,
                1.6290675251647626
            ]
        },
        {
            "positions": [
                0.30682025943707325,
                -1.6738476652736363,
                0.5805257652146281,
                -0.8321726034894538,
                -1.1272391721370134,
                1.6915437226363224
            ]
        },
        {
            "positions": [
                0.18718114590437818,
                -1.6953230686789267,
                0.7055329821612164,
                -0.7963536861012668,
                -1.10505378528913,
                1.7540199201078819
            ]
        },
        {
            "positions": [
                0.06754203237168266,
                -1.716798472084217,
                0.8305401991078052,
                -0.7605347687130798,
                -1.0828683984412466,
                1.8164961175794416
            ]
        },
        {
            "positions": [
                -0.052097081161012415,
                -1.7382738754895075,
                0.955547416054394,
                -0.7247158513248927,
                -1.0606830115933632,
                1.8789723150510014
            ]
        },
        {
            "positions": [
                -0.1717361946937075,
                -1.759749278894798,
                1.0805546330009823,
                -0.6888969339367058,
                -1.03849762474548,
                1.9414485125225611
            ]
        },
        {
            "positions": [
                -0.291375308226403,
                -1.7812246823000883,
                1.2055618499475709,
                -0.6530780165485187,
                -1.0163122378975966,
                2.003924709994121
            ]
        },
        {
            "positions": [
                -0.2536990390178248,
                -1.7220257457230685,
                1.2737537113213382,
                -0.6590108045517413,
                -0.9125312510813425,
                2.0977170621118955
            ]
        },
        {
            "positions": [
                -0.21602276980924665,
                -1.6628268091460487,
                1.3419455726951055,
                -0.6649435925549639,
                -0.8087502642650883,
                2.1915094142296696
            ]
        },
        {
            "positions": [
                -0.17834650060066848,
                -1.6036278725690292,
                1.4101374340688726,
                -0.6708763805581865,
                -0.7049692774488343,
                2.285301766347444
            ]
        },
        {
            "positions": [
                -0.14067023139209028,
                -1.5444289359920094,
                1.47832929544264,
                -0.6768091685614092,
                -0.6011882906325801,
                2.379094118465219
            ]
        },
        {
            "positions": [
                -0.10299396218351212,
                -1.4852299994149896,
                1.5465211568164072,
                -0.6827419565646318,
                -0.49740730381632603,
                2.472886470582993
            ]
        },
        {
            "positions": [
                -0.06531769297493395,
                -1.4260310628379698,
                1.6147130181901743,
                -0.6886747445678544,
                -0.3936263170000719,
                2.5666788227007675
            ]
        },
        {
            "positions": [
                -0.027641423766355755,
                -1.36683212626095,
                1.6829048795639416,
                -0.694607532571077,
                -0.28984533018381775,
                2.660471174818542
            ]
        },
        {
            "positions": [
                0.01003484544222244,
                -1.3076331896839304,
                1.751096740937709,
                -0.7005403205742996,
                -0.1860643433675636,
                2.7542635269363163
            ]
        },
        {
            "positions": [
                0.047711114650800635,
                -1.2484342531069106,
                1.819288602311476,
                -0.7064731085775222,
                -0.08228335655130936,
                2.848055879054091
            ]
        },
        {
            "positions": [
                0.08538738385937877,
                -1.1892353165298908,
                1.8874804636852434,
                -0.7124058965807448,
                0.021497630264944556,
                2.941848231171865
            ]
        },
        {
            "positions": [
                0.123063653067957,
                -1.130036379952871,
                1.9556723250590107,
                -0.7183386845839674,
                0.12527861708119875,
                3.0356405832896396
            ]
        }
    ]
}{
    "goal": {
        "global_pose": {
            "orientation": {
                "w": 0.7047431468963623,
                "x": -0.7094548344612122,
                "y": 0.0024358443915843964,
                "z": -0.0022348060738295317
            },
            "position": {
                "x": 0.6094750761985779,
                "y": 0.3671506643295288,
                "z": 0.19426114857196808
            }
        },
        "name": "move_to_magneteinheit_A"
    },
    "id": "LBTRRT_move_to_magneteinheit_A_33",
    "joint_names": [
        "shoulder_pan_joint",
        "shoulder_lift_joint",
        "elbow_joint",
        "wrist_1_joint",
        "wrist_2_joint",
        "wrist_3_joint"
    ],
    "metrics": {
        "cart_traj_len": 1.3795205986734573,
        "distance_elbow_joint": 0.06647769949485705,
        "distance_shoulder_lift_joint": 0.7485710152927465,
        "distance_shoulder_pan_joint": 1.674896557368316,
        "distance_wrist_1_joint": 0.7534830150958922,
        "distance_wrist_2_joint": 1.435380416365618,
        "distance_wrist_3_joint": 4.252008014111725,
        "smoothness": 0.2610112930792713,
        "time": 5.032484242,
        "traj_len": 2.9884472084561162,
        "weighted_distance": 4.429864126292602
    },
    "planner": "LBTRRT",
    "start": {
        "state": {
            "elbow_joint": 1.919643534880228,
            "shoulder_lift_joint": -1.8972525353963687,
            "shoulder_pan_joint": -1.1188672234189438,
            "wrist_1_joint": -1.5931878212786155,
            "wrist_2_joint": 1.5706036197970081,
            "wrist_3_joint": 1.118896926603594
        }
    },
    "waypoints": [
        {
            "positions": [
                -1.1188672234189438,
                -1.8972525353963687,
                1.919643534880228,
                -1.5931878212786155,
                1.5706036197970081,
                1.118896926603594
            ]
        },
        {
            "positions": [
                -1.1911325919446158,
                -1.886436965553255,
                1.9397529903771835,
                -1.5613660798950297,
                1.4857184948027455,
                1.0086360631548503
            ]
        },
        {
            "positions": [
                -1.263397960470288,
                -1.875621395710141,
                1.9598624458741387,
                -1.529544338511444,
                1.4008333698084827,
                0.8983751997061066
            ]
        },
        {
            "positions": [
                -1.33566332899596,
                -1.8648058258670273,
                1.9799719013710941,
                -1.4977225971278583,
                1.3159482448142201,
                0.7881143362573628
            ]
        },
        {
            "positions": [
                -1.2662299741487553,
                -1.8307046684497223,
                1.9802647267522366,
                -1.4663884166066614,
                1.2597232428436091,
                0.6013893160780536
            ]
        },
        {
            "positions": [
                -1.1967966193015507,
                -1.7966035110324172,
                1.980557552133379,
                -1.4350542360854646,
                1.2034982408729982,
                0.4146642958987443
            ]
        },
        {
            "positions": [
                -1.1273632644543459,
                -1.7625023536151123,
                1.9808503775145214,
                -1.4037200555642675,
                1.1472732389023872,
                0.22793927571943506
            ]
        },
        {
            "positions": [
                -1.057929909607141,
                -1.7284011961978072,
                1.981143202895664,
                -1.3723858750430706,
                1.0910482369317762,
                0.04121425554012581
            ]
        },
        {
            "positions": [
                -0.9884965547599364,
                -1.6943000387805023,
                1.9814360282768062,
                -1.3410516945218738,
                1.0348232349611655,
                -0.14551076463918344
            ]
        },
        {
            "positions": [
                -0.9190631999127317,
                -1.6601988813631974,
                1.9817288536579487,
                -1.309717514000677,
                0.9785982329905545,
                -0.3322357848184927
            ]
        },
        {
            "positions": [
                -0.8496298450655269,
                -1.6260977239458922,
                1.9820216790390912,
                -1.2783833334794799,
                0.9223732310199435,
                -0.5189608049978018
            ]
        },
        {
            "positions": [
                -0.7801964902183222,
                -1.5919965665285873,
                1.9823145044202335,
                -1.247049152958283,
                0.8661482290493325,
                -0.7056858251771112
            ]
        },
        {
            "positions": [
                -0.7107631353711173,
                -1.5578954091112822,
                1.982607329801376,
                -1.2157149724370861,
                0.8099232270787216,
                -0.8924108453564203
            ]
        },
        {
            "positions": [
                -0.6413297805239127,
                -1.5237942516939773,
                1.9829001551825185,
                -1.1843807919158893,
                0.7536982251081106,
                -1.0791358655357297
            ]
        },
        {
            "positions": [
                -0.5718964256767078,
                -1.4896930942766722,
                1.9831929805636608,
                -1.1530466113946922,
                0.6974732231374996,
                -1.2658608857150393
            ]
        },
        {
            "positions": [
                -0.5024630708295031,
                -1.4555919368593673,
                1.9834858059448033,
                -1.1217124308734954,
                0.6412482211668887,
                -1.4525859058943482
            ]
        },
        {
            "positions": [
                -0.43302971598229834,
                -1.4214907794420621,
                1.9837786313259458,
                -1.0903782503522985,
                0.5850232191962776,
                -1.6393109260736576
            ]
        },
        {
            "positions": [
                -0.36359636113509364,
                -1.3873896220247572,
                1.984071456707088,
                -1.0590440698311017,
                0.5287982172256668,
                -1.8260359462529665
            ]
        },
        {
            "positions": [
                -0.29416300628788883,
                -1.3532884646074521,
                1.9843642820882306,
                -1.0277098893099046,
                0.4725732152550558,
                -2.0127609664322765
            ]
        },
        {
            "positions": [
                -0.22472965144068424,
                -1.3191873071901474,
                1.984657107469373,
                -0.9963757087887078,
                0.4163482132844448,
                -2.1994859866115855
            ]
        },
        {
            "positions": [
                -0.15529629659347943,
                -1.2850861497728423,
                1.9849499328505154,
                -0.9650415282675109,
                0.36012321131383385,
                -2.3862110067908944
            ]
        },
        {
            "positions": [
                -0.08586294174627462,
                -1.2509849923555372,
                1.9852427582316579,
                -0.933707347746314,
                0.303898209343223,
                -2.5729360269702033
            ]
        },
        {
            "positions": [
                -0.016429586899069815,
                -1.2168838349382323,
                1.9855355836128004,
                -0.9023731672251171,
                0.247673207372612,
                -2.759661047149513
            ]
        },
        {
            "positions": [
                0.05300376794813477,
                -1.1827826775209274,
                1.9858284089939426,
                -0.8710389867039202,
                0.19144820540200103,
                -2.946386067328822
            ]
        },
        {
            "positions": [
                0.12243712279533953,
                -1.1486815201036222,
                1.9861212343750851,
                -0.8397048061827233,
                0.13522320343139,
                -3.1331110875081314
            ]
        }
    ]
}