{
    "goal": {
        "global_pose": {
            "orientation": {
                "w": 0.7047431468963623,
                "x": -0.7094548344612122,
                "y": 0.0024358443915843964,
                "z": -0.0022348060738295317
            },
            "position": {
                "x": 0.6094750761985779,
                "y": 0.3671506643295288,
                "z": 0.19426114857196808
            }
        },
        "name": "move_to_magneteinheit_A"
    },
    "id": "LBTRRT_move_to_magneteinheit_A_116",
    "joint_names": [
        "shoulder_pan_joint",
        "shoulder_lift_joint",
        "elbow_joint",
        "wrist_1_joint",
        "wrist_2_joint",
        "wrist_3_joint"
    ],
    "metrics": {
        "cart_traj_len": 3.541539782707577,
        "distance_elbow_joint": 3.9034230676507207,
        "distance_shoulder_lift_joint": 0.610250906932156,
        "distance_shoulder_pan_joint": 2.6617264599850476,
        "distance_wrist_1_joint": 0.7251157773873964,
        "distance_wrist_2_joint": 1.7092476548711546,
        "distance_wrist_3_joint": 3.5965684061687857,
        "smoothness": 0.07130302273670718,
        "time": 5.030435528,
        "traj_len": 3.634051770819351,
        "weighted_distance": 4.778475961809517
    },
    "planner": "LBTRRT",
    "start": {
        "state": {
            "elbow_joint": -1.919618573717145,
            "shoulder_lift_joint": -1.2443395971678275,
            "shoulder_pan_joint": 2.6996025300909787,
            "wrist_1_joint": -1.548550951253194,
            "wrist_2_joint": -1.5709469090946802,
            "wrist_3_joint": 0.4420197732051276
        }
    },
    "waypoints": [
        {
            "positions": [
                2.6996025300909787,
                -1.2443395971678275,
                -1.919618573717145,
                -1.548550951253194,
                -1.5709469090946802,
                0.4420197732051276
            ]
        },
        {
            "positions": [
                2.581198307059082,
                -1.227500075137322,
                -1.804881405177095,
                -1.5313157951533345,
                -1.5554123616898683,
                0.3386728257251148
            ]
        },
        {
            "positions": [
                2.462794084027185,
                -1.2106605531068164,
                -1.690144236637045,
                -1.514080639053475,
                -1.5398778142850564,
                0.235325878245102
            ]
        },
        {
            "positions": [
                2.344389860995288,
                -1.193821031076311,
                -1.575407068096995,
                -1.496845482953615,
                -1.5243432668802446,
                0.13197893076508926
            ]
        },
        {
            "positions": [
                2.2259856379633916,
                -1.1769815090458056,
                -1.4606698995569447,
                -1.4796103268537555,
                -1.5088087194754327,
                0.028631983285076434
            ]
        },
        {
            "positions": [
                2.1075814149314946,
                -1.1601419870153,
                -1.345932731016895,
                -1.462375170753896,
                -1.4932741720706209,
                -0.07471496419493634
            ]
        },
        {
            "positions": [
                1.9891771918995977,
                -1.1433024649847945,
                -1.2311955624768447,
                -1.4451400146540363,
                -1.4777396246658092,
                -0.17806191167494906
            ]
        },
        {
            "positions": [
                1.8707729688677008,
                -1.126462942954289,
                -1.1164583939367947,
                -1.4279048585541765,
                -1.4622050772609974,
                -0.2814088591549619
            ]
        },
        {
            "positions": [
                1.752368745835804,
                -1.1096234209237834,
                -1.0017212253967447,
                -1.4106697024543169,
                -1.4466705298561855,
                -0.3847558066349747
            ]
        },
        {
            "positions": [
                1.6339645228039072,
                -1.092783898893278,
                -0.8869840568566947,
                -1.3934345463544573,
                -1.4311359824513736,
                -0.48810275411498744
            ]
        },
        {
            "positions": [
                1.5155602997720103,
                -1.0759443768627726,
                -0.7722468883166447,
                -1.3761993902545977,
                -1.4156014350465618,
                -0.5914497015950002
            ]
        },
        {
            "positions": [
                1.3971560767401134,
                -1.059104854832267,
                -0.6575097197765944,
                -1.3589642341547379,
                -1.40006688764175,
                -0.694796649075013
            ]
        },
        {
            "positions": [
                1.2787518537082168,
                -1.0422653328017615,
                -0.5427725512365447,
                -1.3417290780548783,
                -1.384532340236938,
                -0.7981435965550256
            ]
        },
        {
            "positions": [
                1.1603476306763196,
                -1.0254258107712562,
                -0.42803538269649444,
                -1.3244939219550187,
                -1.3689977928321262,
                -0.9014905440350387
            ]
        },
        {
            "positions": [
                1.041943407644423,
                -1.0085862887407506,
                -0.31329821415644443,
                -1.307258765855159,
                -1.3534632454273143,
                -1.0048374915150513
            ]
        },
        {
            "positions": [
                0.923539184612526,
                -0.9917467667102451,
                -0.19856104561639443,
                -1.2900236097552993,
                -1.3379286980225025,
                -1.1081844389950641
            ]
        },
        {
            "positions": [
                0.8051349615806294,
                -0.9749072446797395,
                -0.08382387707634442,
                -1.2727884536554397,
                -1.3223941506176908,
                -1.211531386475077
            ]
        },
        {
            "positions": [
                0.6867307385487322,
                -0.958067722649234,
                0.030913291463705805,
                -1.25555329755558,
                -1.306859603212879,
                -1.3148783339550898
            ]
        },
        {
            "positions": [
                0.5683265155168358,
                -0.9412282006187286,
                0.1456504600037556,
                -1.2383181414557205,
                -1.2913250558080671,
                -1.4182252814351024
            ]
        },
        {
            "positions": [
                0.44992229248493887,
                -0.924388678588223,
                0.2603876285438058,
                -1.221082985355861,
                -1.2757905084032553,
                -1.5215722289151152
            ]
        },
        {
            "positions": [
                0.33151806945304196,
                -0.9075491565577176,
                0.3751247970838556,
                -1.203847829256001,
                -1.2602559609984434,
                -1.624919176395128
            ]
        },
        {
            "positions": [
                0.21311384642114523,
                -0.8907096345272121,
                0.48986196562390566,
                -1.1866126731561415,
                -1.2447214135936315,
                -1.7282661238751411
            ]
        },
        {
            "positions": [
                0.20102723449938642,
                -0.9072976879360765,
                0.6074445241975568,
                -1.1630493339922672,
                -1.1493140845562648,
                -1.847690201954042
            ]
        },
        {
            "positions": [
                0.18894062257762761,
                -0.923885741344941,
                0.7250270827712079,
                -1.1394859948283929,
                -1.0539067555188981,
                -1.9671142800329429
            ]
        },
        {
            "positions": [
                0.17685401065586884,
                -0.9404737947538053,
                0.8426096413448589,
                -1.1159226556645185,
                -0.9584994264815314,
                -2.0865383581118437
            ]
        },
        {
            "positions": [
                0.16476739873411003,
                -0.9570618481626698,
                0.9601921999185101,
                -1.0923593165006442,
                -0.8630920974441647,
                -2.2059624361907444
            ]
        },
        {
            "positions": [
                0.15268078681235123,
                -0.9736499015715342,
                1.077774758492161,
                -1.06879597733677,
                -0.7676847684067981,
                -2.3253865142696455
            ]
        },
        {
            "positions": [
                0.14059417489059245,
                -0.9902379549803987,
                1.1953573170658123,
                -1.0452326381728956,
                -0.6722774393694314,
                -2.444810592348546
            ]
        },
        {
            "positions": [
                0.12850756296883364,
                -1.006826008389263,
                1.3129398756394635,
                -1.0216692990090213,
                -0.5768701103320647,
                -2.564234670427447
            ]
        },
        {
            "positions": [
                0.11642095104707482,
                -1.0234140617981276,
                1.4305224342131144,
                -0.9981059598451469,
                -0.481462781294698,
                -2.683658748506348
            ]
        },
        {
            "positions": [
                0.10433433912531602,
                -1.040002115206992,
                1.5481049927867656,
                -0.9745426206812726,
                -0.3860554522573313,
                -2.803082826585249
            ]
        },
        {
            "positions": [
                0.09224772720355723,
                -1.0565901686158563,
                1.6656875513604166,
                -0.9509792815173983,
                -0.2906481232199647,
                -2.922506904664149
            ]
        },
        {
            "positions": [
                0.08016111528179844,
                -1.0731782220247208,
                1.7832701099340678,
                -0.927415942353524,
                -0.1952407941825981,
                -3.0419309827430503
            ]
        },
        {
            "positions": [
                0.09425613034042128,
                -1.0978956742893982,
                1.850114904600571,
                -0.8927556861909486,
                -0.08406028086290733,
                -3.0794701994832527
            ]
        },
        {
            "positions": [
                0.10835114539904411,
                -1.1226131265540753,
                1.916959699267074,
                -0.8580954300283731,
                0.02712023245678344,
                -3.117009416223455
            ]
        },
        {
            "positions": [
                0.12244616045766696,
                -1.1473305788187527,
                1.9838044939335773,
                -0.8234351738657977,
                0.13830074577647425,
                -3.1545486329636576
            ]
        }
    ]
}{
    "goal": {
        "global_pose": {
            "orientation": {
                "w": 0.7047431468963623,
                "x": -0.7094548344612122,
                "y": 0.0024358443915843964,
                "z": -0.0022348060738295317
            },
            "position": {
                "x": 0.6094750761985779,
                "y": 0.3671506643295288,
                "z": 0.19426114857196808
            }
        },
        "name": "move_to_magneteinheit_A"
    },
    "id": "LBTRRT_move_to_magneteinheit_A_116",
    "joint_names": [
        "shoulder_pan_joint",
        "shoulder_lift_joint",
        "elbow_joint",
        "wrist_1_joint",
        "wrist_2_joint",
        "wrist_3_joint"
    ],
    "metrics": {
        "cart_traj_len": 1.5067516863569463,
        "distance_elbow_joint": 0.7676430532289509,
        "distance_shoulder_lift_joint": 1.5261207471952172,
        "distance_shoulder_pan_joint": 1.2404181394499783,
        "distance_wrist_1_joint": 1.8064554336585341,
        "distance_wrist_2_joint": 2.0872049647681266,
        "distance_wrist_3_joint": 4.288404238861992,
        "smoothness": 0.3201547124268542,
        "time": 5.03218065,
        "traj_len": 3.422900316568217,
        "weighted_distance": 4.917999131080997
    },
    "planner": "LBTRRT",
    "start": {
        "state": {
            "elbow_joint": 1.919643534880228,
            "shoulder_lift_joint": -1.8972525353963687,
            "shoulder_pan_joint": -1.1188672234189438,
            "wrist_1_joint": -1.5931878212786155,
            "wrist_2_joint": 1.5706036197970081,
            "wrist_3_joint": 1.118896926603594
        }
    },
    "waypoints": [
        {
            "positions": [
                -1.1188672234189438,
                -1.8972525353963687,
                1.919643534880228,
                -1.5931878212786155,
                1.5706036197970081,
                1.118896926603594
            ]
        },
        {
            "positions": [
                -1.1125662008119515,
                -1.9175408242112835,
                1.9009723805110204,
                -1.525157672121672,
                1.4775936388816424,
                0.9326213023592845
            ]
        },
        {
            "positions": [
                -1.1062651782049588,
                -1.9378291130261982,
                1.8823012261418126,
                -1.4571275229647287,
                1.3845836579662765,
                0.7463456781149751
            ]
        },
        {
            "positions": [
                -1.0999641555979665,
                -1.958117401841113,
                1.8636300717726049,
                -1.3890973738077852,
                1.2915736770509108,
                0.5600700538706657
            ]
        },
        {
            "positions": [
                -1.093663132990974,
                -1.9784056906560277,
                1.8449589174033973,
                -1.3210672246508417,
                1.1985636961355448,
                0.37379442962635623
            ]
        },
        {
            "positions": [
                -1.0873621103839817,
                -1.9986939794709424,
                1.8262877630341896,
                -1.2530370754938982,
                1.105553715220179,
                0.1875188053820468
            ]
        },
        {
            "positions": [
                -1.081061087776989,
                -2.018982268285857,
                1.8076166086649819,
                -1.1850069263369547,
                1.0125437343048134,
                0.0012431811377373592
            ]
        },
        {
            "positions": [
                -1.0747600651699967,
                -2.039270557100772,
                1.7889454542957741,
                -1.1169767771800112,
                0.9195337533894474,
                -0.18503244310657196
            ]
        },
        {
            "positions": [
                -1.0684590425630043,
                -2.059558845915687,
                1.7702742999265664,
                -1.048946628023068,
                0.8265237724740817,
                -0.3713080673508815
            ]
        },
        {
            "positions": [
                -1.0621580199560117,
                -2.0798471347306013,
                1.7516031455573589,
                -0.9809164788661244,
                0.7335137915587159,
                -0.5575836915951908
            ]
        },
        {
            "positions": [
                -1.0558569973490193,
                -2.100135423545516,
                1.732931991188151,
                -0.912886329709181,
                0.64050381064335,
                -0.7438593158395004
            ]
        },
        {
            "positions": [
                -1.0495559747420269,
                -2.120423712360431,
                1.7142608368189434,
                -0.8448561805522374,
                0.5474938297279841,
                -0.9301349400838099
            ]
        },
        {
            "positions": [
                -1.0432549521350345,
                -2.1407120011753458,
                1.6955896824497356,
                -0.776826031395294,
                0.4544838488126184,
                -1.1164105643281192
            ]
        },
        {
            "positions": [
                -1.0369539295280419,
                -2.1610002899902603,
                1.6769185280805279,
                -0.7087958822383505,
                0.36147386789725244,
                -1.302686188572429
            ]
        },
        {
            "positions": [
                -1.0306529069210495,
                -2.181288578805175,
                1.6582473737113201,
                -0.6407657330814072,
                0.2684638869818867,
                -1.488961812816738
            ]
        },
        {
            "positions": [
                -1.024351884314057,
                -2.2015768676200898,
                1.6395762193421124,
                -0.5727355839244637,
                0.175453906066521,
                -1.6752374370610477
            ]
        },
        {
            "positions": [
                -1.0180508617070645,
                -2.2218651564350047,
                1.6209050649729049,
                -0.5047054347675204,
                0.08244392515115528,
                -1.861513061305357
            ]
        },
        {
            "positions": [
                -1.011749839100072,
                -2.242153445249919,
                1.6022339106036971,
                -0.4366752856105769,
                -0.010566055764210658,
                -2.0477886855496665
            ]
        },
        {
            "positions": [
                -1.0054488164930797,
                -2.2624417340648337,
                1.5835627562344894,
                -0.3686451364536334,
                -0.10357603667957638,
                -2.2340643097939754
            ]
        },
        {
            "positions": [
                -0.9991477938860872,
                -2.2827300228797487,
                1.5648916018652816,
                -0.3006149872966898,
                -0.19658601759494237,
                -2.420339934038285
            ]
        },
        {
            "positions": [
                -0.8972660929845307,
                -2.1790351810877633,
                1.602427158248373,
                -0.3473315872672906,
                -0.16749371510619906,
                -2.488446059331023
            ]
        },
        {
            "positions": [
                -0.7953843920829742,
                -2.0753403392957783,
                1.6399627146314644,
                -0.39404818723789137,
                -0.13840141261745575,
                -2.55655218462376
            ]
        },
        {
            "positions": [
                -0.6935026911814177,
                -1.9716454975037931,
                1.6774982710145556,
                -0.4407647872084922,
                -0.10930911012871246,
                -2.624658309916498
            ]
        },
        {
            "positions": [
                -0.5916209902798613,
                -1.867950655711808,
                1.7150338273976469,
                -0.487481387179093,
                -0.08021680763996913,
                -2.6927644352092353
            ]
        },
        {
            "positions": [
                -0.4897392893783047,
                -1.7642558139198226,
                1.7525693837807381,
                -0.5341979871496938,
                -0.05112450515122585,
                -2.760870560501973
            ]
        },
        {
            "positions": [
                -0.3878575884767482,
                -1.6605609721278376,
                1.7901049401638294,
                -0.5809145871202945,
                -0.022032202662482542,
                -2.8289766857947103
            ]
        },
        {
            "positions": [
                -0.28597588757519177,
                -1.5568661303358522,
                1.8276404965469208,
                -0.6276311870908955,
                0.007060099826260768,
                -2.897082811087448
            ]
        },
        {
            "positions": [
                -0.1840941866736352,
                -1.453171288543867,
                1.865176052930012,
                -0.6743477870614962,
                0.036152402315004106,
                -2.9651889363801853
            ]
        },
        {
            "positions": [
                -0.08221248577207863,
                -1.3494764467518818,
                1.9027116093131036,
                -0.7210643870320971,
                0.06524470480374739,
                -3.033295061672923
            ]
        },
        {
            "positions": [
                0.019669215129477835,
                -1.2457816049598966,
                1.9402471656961948,
                -0.7677809870026978,
                0.09433700729249067,
                -3.101401186965661
            ]
        },
        {
            "positions": [
                0.12155091603103434,
                -1.1420867631679115,
                1.977782722079286,
                -0.8144975869732987,
                0.12342930978123402,
                -3.169507312258398
            ]
        }
    ]
}