{
    "goal": {
        "global_pose": {
            "orientation": {
                "w": 0.7047431468963623,
                "x": -0.7094548344612122,
                "y": 0.0024358443915843964,
                "z": -0.0022348060738295317
            },
            "position": {
                "x": 0.6094750761985779,
                "y": 0.3671506643295288,
                "z": 0.19426114857196808
            }
        },
        "name": "move_to_magneteinheit_A"
    },
    "id": "LBTRRT_move_to_magneteinheit_A_22",
    "joint_names": [
        "shoulder_pan_joint",
        "shoulder_lift_joint",
        "elbow_joint",
        "wrist_1_joint",
        "wrist_2_joint",
        "wrist_3_joint"
    ],
    "metrics": {
        "cart_traj_len": 3.193805785469613,
        "distance_elbow_joint": 3.9423789090528807,
        "distance_shoulder_lift_joint": 0.5422271673923131,
        "distance_shoulder_pan_joint": 3.464085386556425,
        "distance_wrist_1_joint": 3.5768584894178668,
        "distance_wrist_2_joint": 1.4392443246491817,
        "distance_wrist_3_joint": 0.5515406156735263,
        "smoothness": 0.13007062767511618,
        "time": 5.0440709649999995,
        "traj_len": 3.6764568395048776,
        "weighted_distance": 4.431198363666007
    },
    "planner": "LBTRRT",
    "start": {
        "state": {
            "elbow_joint": -1.919618573717145,
            "shoulder_lift_joint": -1.2443395971678275,
            "shoulder_pan_joint": 2.6996025300909787,
            "wrist_1_joint": -1.548550951253194,
            "wrist_2_joint": -1.5709469090946802,
            "wrist_3_joint": 0.4420197732051276
        }
    },
    "waypoints": [
        {
            "positions": [
                2.6996025300909787,
                -1.2443395971678275,
                -1.919618573717145,
                -1.548550951253194,
                -1.5709469090946802,
                0.4420197732051276
            ]
        },
        {
            "positions": [
                2.5440300493565107,
                -1.2475173053948092,
                -1.8116883136216284,
                -1.48737197731808,
                -1.5578222425195323,
                0.411776015141455
            ]
        },
        {
            "positions": [
                2.388457568622043,
                -1.2506950136217907,
                -1.703758053526112,
                -1.426193003382966,
                -1.5446975759443844,
                0.3815322570777825
            ]
        },
        {
            "positions": [
                2.232885087887575,
                -1.2538727218487722,
                -1.5958277934305958,
                -1.3650140294478517,
                -1.5315729093692365,
                0.3512884990141099
            ]
        },
        {
            "positions": [
                2.0773126071531074,
                -1.257050430075754,
                -1.4878975333350792,
                -1.3038350555127376,
                -1.5184482427940886,
                0.32104474095043734
            ]
        },
        {
            "positions": [
                1.9217401264186393,
                -1.2602281383027356,
                -1.3799672732395627,
                -1.2426560815776235,
                -1.5053235762189408,
                0.2908009828867648
            ]
        },
        {
            "positions": [
                1.7661676456841717,
                -1.263405846529717,
                -1.2720370131440464,
                -1.1814771076425092,
                -1.4921989096437929,
                0.26055722482309224
            ]
        },
        {
            "positions": [
                1.6105951649497037,
                -1.2665835547566986,
                -1.16410675304853,
                -1.1202981337073952,
                -1.479074243068645,
                0.23031346675941966
            ]
        },
        {
            "positions": [
                1.4550226842152358,
                -1.2697612629836803,
                -1.0561764929530135,
                -1.059119159772281,
                -1.465949576493497,
                0.2000697086957471
            ]
        },
        {
            "positions": [
                1.2994502034807678,
                -1.272938971210662,
                -0.948246232857497,
                -0.9979401858371669,
                -1.4528249099183492,
                0.1698259506320745
            ]
        },
        {
            "positions": [
                1.1438777227463,
                -1.2761166794376435,
                -0.8403159727619807,
                -0.9367612119020529,
                -1.4397002433432013,
                0.13958219256840199
            ]
        },
        {
            "positions": [
                0.9883052420118323,
                -1.279294387664625,
                -0.7323857126664644,
                -0.8755822379669388,
                -1.4265755767680535,
                0.10933843450472941
            ]
        },
        {
            "positions": [
                0.8327327612773645,
                -1.2824720958916067,
                -0.6244554525709478,
                -0.8144032640318246,
                -1.4134509101929056,
                0.07909467644105689
            ]
        },
        {
            "positions": [
                0.6771602805428962,
                -1.2856498041185884,
                -0.5165251924754313,
                -0.7532242900967104,
                -1.4003262436177577,
                0.048850918377384256
            ]
        },
        {
            "positions": [
                0.5215877998084286,
                -1.28882751234557,
                -0.40859493237991495,
                -0.6920453161615964,
                -1.3872015770426098,
                0.018607160313711735
            ]
        },
        {
            "positions": [
                0.46895930832462396,
                -1.2698954963084472,
                -0.28022105115220297,
                -0.5750331570347471,
                -1.3348310966473085,
                0.011869792246396355
            ]
        },
        {
            "positions": [
                0.41633081684081924,
                -1.2509634802713245,
                -0.151847169924491,
                -0.4580209979078978,
                -1.2824606162520071,
                0.0051324241790809775
            ]
        },
        {
            "positions": [
                0.3637023253570145,
                -1.232031464234202,
                -0.023473288696779004,
                -0.3410088387810485,
                -1.2300901358567056,
                -0.0016049438882344003
            ]
        },
        {
            "positions": [
                0.31107383387320986,
                -1.2130994481970794,
                0.10490059253093298,
                -0.22399667965419923,
                -1.1777196554614042,
                -0.00834231195554978
            ]
        },
        {
            "positions": [
                0.2584453423894052,
                -1.1941674321599567,
                0.23327447375864496,
                -0.10698452052734997,
                -1.1253491750661029,
                -0.01507968002286516
            ]
        },
        {
            "positions": [
                0.20581685090560048,
                -1.175235416122834,
                0.36164835498635695,
                0.0100276385994994,
                -1.0729786946708015,
                -0.021817048090180535
            ]
        },
        {
            "positions": [
                0.15318835942179576,
                -1.1563034000857113,
                0.49002223621406893,
                0.12703979772634866,
                -1.0206082142755002,
                -0.028554416157495918
            ]
        },
        {
            "positions": [
                0.1005598679379911,
                -1.1373713840485888,
                0.6183961174417809,
                0.24405195685319792,
                -0.9682377338801987,
                -0.035291784224811294
            ]
        },
        {
            "positions": [
                0.047931376454186436,
                -1.1184393680114662,
                0.7467699986694929,
                0.3610641159800473,
                -0.9158672534848973,
                -0.04202915229212667
            ]
        },
        {
            "positions": [
                -0.004697115029618226,
                -1.0995073519743435,
                0.8751438798972049,
                0.47807627510689643,
                -0.8634967730895959,
                -0.04876652035944205
            ]
        },
        {
            "positions": [
                -0.057325606513423,
                -1.0805753359372208,
                1.0035177611249169,
                0.5950884342337458,
                -0.8111262926942946,
                -0.055503888426757436
            ]
        },
        {
            "positions": [
                -0.10995409799722766,
                -1.061643319900098,
                1.1318916423526288,
                0.7121005933605952,
                -0.7587558122989932,
                -0.062241256494072805
            ]
        },
        {
            "positions": [
                -0.16258258948103232,
                -1.0427113038629754,
                1.2602655235803408,
                0.8291127524874443,
                -0.7063853319036918,
                -0.06897862456138819
            ]
        },
        {
            "positions": [
                -0.2152110809648371,
                -1.0237792878258527,
                1.3886394048080528,
                0.9461249116142937,
                -0.6540148515083904,
                -0.07571599262870357
            ]
        },
        {
            "positions": [
                -0.26783957244864176,
                -1.0048472717887302,
                1.5170132860357648,
                1.063137070741143,
                -0.601644371113089,
                -0.08245336069601894
            ]
        },
        {
            "positions": [
                -0.3204680639324464,
                -0.9859152557516075,
                1.6453871672634768,
                1.1801492298679923,
                -0.5492738907177876,
                -0.08919072876333432
            ]
        },
        {
            "positions": [
                -0.24646559851027955,
                -0.9534440898148395,
                1.70828269527552,
                1.321508947917439,
                -0.4796786730057395,
                -0.0925790810475117
            ]
        },
        {
            "positions": [
                -0.1724631330881127,
                -0.9209729238780714,
                1.771178223287563,
                1.4628686659668855,
                -0.4100834552936914,
                -0.09596743333168908
            ]
        },
        {
            "positions": [
                -0.09846066766594583,
                -0.8885017579413034,
                1.8340737512996061,
                1.604228384016332,
                -0.3404882375816432,
                -0.09935578561586646
            ]
        },
        {
            "positions": [
                -0.02445820224377898,
                -0.8560305920045354,
                1.8969692793116493,
                1.7455881020657786,
                -0.2708930198695951,
                -0.10274413790004383
            ]
        },
        {
            "positions": [
                0.04954426317838789,
                -0.8235594260677672,
                1.9598648073236924,
                1.8869478201152252,
                -0.2012978021575469,
                -0.10613249018422122
            ]
        },
        {
            "positions": [
                0.12354672860055475,
                -0.7910882601309992,
                2.0227603353357355,
                2.028307538164672,
                -0.13170258444549873,
                -0.10952084246839859
            ]
        }
    ]
}{
    "goal": {
        "global_pose": {
            "orientation": {
                "w": 0.7047431468963623,
                "x": -0.7094548344612122,
                "y": 0.0024358443915843964,
                "z": -0.0022348060738295317
            },
            "position": {
                "x": 0.6094750761985779,
                "y": 0.3671506643295288,
                "z": 0.19426114857196808
            }
        },
        "name": "move_to_magneteinheit_A"
    },
    "id": "LBTRRT_move_to_magneteinheit_A_22",
    "joint_names": [
        "shoulder_pan_joint",
        "shoulder_lift_joint",
        "elbow_joint",
        "wrist_1_joint",
        "wrist_2_joint",
        "wrist_3_joint"
    ],
    "metrics": {
        "cart_traj_len": 1.3848967403820476,
        "distance_elbow_joint": 0.19360516290514562,
        "distance_shoulder_lift_joint": 0.7576965412305614,
        "distance_shoulder_pan_joint": 1.2491819257364585,
        "distance_wrist_1_joint": 1.4155802895701577,
        "distance_wrist_2_joint": 1.4517377521371868,
        "distance_wrist_3_joint": 4.287742163975201,
        "smoothness": 0.17934600099214099,
        "time": 5.0251863949999995,
        "traj_len": 3.058683349997955,
        "weighted_distance": 4.560520387544876
    },
    "planner": "LBTRRT",
    "start": {
        "state": {
            "elbow_joint": 1.919643534880228,
            "shoulder_lift_joint": -1.8972525353963687,
            "shoulder_pan_joint": -1.1188672234189438,
            "wrist_1_joint": -1.5931878212786155,
            "wrist_2_joint": 1.5706036197970081,
            "wrist_3_joint": 1.118896926603594
        }
    },
    "waypoints": [
        {
            "positions": [
                -1.1188672234189438,
                -1.8972525353963687,
                1.919643534880228,
                -1.5931878212786155,
                1.5706036197970081,
                1.118896926603594
            ]
        },
        {
            "positions": [
                -1.1194536631128411,
                -1.847814005550683,
                1.9097171608669046,
                -1.6378387618502133,
                1.4373272241058872,
                1.0051771379999177
            ]
        },
        {
            "positions": [
                -1.1200401028067386,
                -1.7983754757049975,
                1.8997907868535813,
                -1.682489702421811,
                1.3040508284147665,
                0.8914573493962417
            ]
        },
        {
            "positions": [
                -1.1206265425006359,
                -1.7489369458593118,
                1.8898644128402577,
                -1.7271406429934086,
                1.1707744327236456,
                0.7777375607925654
            ]
        },
        {
            "positions": [
                -1.1212129821945334,
                -1.6994984160136262,
                1.8799380388269344,
                -1.7717915835650064,
                1.0374980370325249,
                0.6640177721888894
            ]
        },
        {
            "positions": [
                -1.1217994218884306,
                -1.6500598861679405,
                1.870011664813611,
                -1.8164425241366042,
                0.9042216413414038,
                0.5502979835852131
            ]
        },
        {
            "positions": [
                -1.1223858615823281,
                -1.6006213563222549,
                1.8600852908002876,
                -1.861093464708202,
                0.770945245650283,
                0.43657819498153694
            ]
        },
        {
            "positions": [
                -1.1229723012762254,
                -1.5511828264765692,
                1.850158916786964,
                -1.9057444052797998,
                0.6376688499591621,
                0.3228584063778608
            ]
        },
        {
            "positions": [
                -1.0538013652829377,
                -1.5283146691259715,
                1.8570545026098464,
                -1.844465310525968,
                0.6088464620536431,
                0.12887487061400146
            ]
        },
        {
            "positions": [
                -0.9846304292896502,
                -1.5054465117753735,
                1.8639500884327287,
                -1.783186215772136,
                0.5800240741481243,
                -0.06510866514985786
            ]
        },
        {
            "positions": [
                -0.9154594932963626,
                -1.4825783544247755,
                1.870845674255611,
                -1.7219071210183041,
                0.5512016862426053,
                -0.2590922009137171
            ]
        },
        {
            "positions": [
                -0.846288557303075,
                -1.4597101970741777,
                1.8777412600784933,
                -1.6606280262644724,
                0.5223792983370865,
                -0.4530757366775765
            ]
        },
        {
            "positions": [
                -0.7771176213097873,
                -1.43684203972358,
                1.8846368459013756,
                -1.5993489315106406,
                0.4935569104315676,
                -0.6470592724414358
            ]
        },
        {
            "positions": [
                -0.7079466853164997,
                -1.413973882372982,
                1.891532431724258,
                -1.5380698367568086,
                0.46473452252604874,
                -0.841042808205295
            ]
        },
        {
            "positions": [
                -0.6387757493232121,
                -1.391105725022384,
                1.8984280175471402,
                -1.4767907420029767,
                0.4359121346205298,
                -1.0350263439691545
            ]
        },
        {
            "positions": [
                -0.5696048133299245,
                -1.3682375676717862,
                1.9053236033700225,
                -1.415511647249145,
                0.40708974671501097,
                -1.2290098797330138
            ]
        },
        {
            "positions": [
                -0.5004338773366369,
                -1.3453694103211884,
                1.9122191891929048,
                -1.3542325524953132,
                0.378267358809492,
                -1.422993415496873
            ]
        },
        {
            "positions": [
                -0.4312629413433493,
                -1.3225012529705904,
                1.9191147750157873,
                -1.2929534577414812,
                0.34944497090397314,
                -1.6169769512607324
            ]
        },
        {
            "positions": [
                -0.3620920053500616,
                -1.2996330956199924,
                1.9260103608386696,
                -1.2316743629876492,
                0.3206225829984542,
                -1.810960487024592
            ]
        },
        {
            "positions": [
                -0.2929210693567741,
                -1.2767649382693946,
                1.932905946661552,
                -1.1703952682338175,
                0.29180019509293537,
                -2.0049440227884507
            ]
        },
        {
            "positions": [
                -0.22375013336348648,
                -1.2538967809187969,
                1.9398015324844342,
                -1.1091161734799857,
                0.2629778071874165,
                -2.1989275585523105
            ]
        },
        {
            "positions": [
                -0.15457919737019887,
                -1.2310286235681989,
                1.9466971183073165,
                -1.0478370787261537,
                0.23415541928189754,
                -2.3929110943161698
            ]
        },
        {
            "positions": [
                -0.08540826137691115,
                -1.2081604662176009,
                1.9535927041301988,
                -0.9865579839723219,
                0.20533303137637865,
                -2.586894630080029
            ]
        },
        {
            "positions": [
                -0.016237325383623658,
                -1.185292308867003,
                1.960488289953081,
                -0.92527888921849,
                0.17651064347085982,
                -2.7808781658438884
            ]
        },
        {
            "positions": [
                0.05293361060966384,
                -1.1624241515164053,
                1.9673838757759634,
                -0.8639997944646582,
                0.14768825556534088,
                -2.9748617016077477
            ]
        },
        {
            "positions": [
                0.12210454660295163,
                -1.1395559941658073,
                1.9742794615988457,
                -0.8027206997108263,
                0.11886586765982203,
                -3.168845237371607
            ]
        }
    ]
}