{
    "goal": {
        "global_pose": {
            "orientation": {
                "w": 0.7047431468963623,
                "x": -0.7094548344612122,
                "y": 0.0024358443915843964,
                "z": -0.0022348060738295317
            },
            "position": {
                "x": 0.6094750761985779,
                "y": 0.3671506643295288,
                "z": 0.19426114857196808
            }
        },
        "name": "move_to_magneteinheit_A"
    },
    "id": "LBTRRT_move_to_magneteinheit_A_42",
    "joint_names": [
        "shoulder_pan_joint",
        "shoulder_lift_joint",
        "elbow_joint",
        "wrist_1_joint",
        "wrist_2_joint",
        "wrist_3_joint"
    ],
    "metrics": {
        "cart_traj_len": 2.989182508909319,
        "distance_elbow_joint": 3.8946603350258187,
        "distance_shoulder_lift_joint": 0.7311757262242977,
        "distance_shoulder_pan_joint": 2.8438295760670527,
        "distance_wrist_1_joint": 0.8092419499224446,
        "distance_wrist_2_joint": 2.3745631726245433,
        "distance_wrist_3_joint": 3.6288285023585196,
        "smoothness": 0.14773332987485618,
        "time": 5.0290295039999995,
        "traj_len": 3.7791929379462337,
        "weighted_distance": 4.9722994066615405
    },
    "planner": "LBTRRT",
    "start": {
        "state": {
            "elbow_joint": -1.919618573717145,
            "shoulder_lift_joint": -1.2443395971678275,
            "shoulder_pan_joint": 2.6996025300909787,
            "wrist_1_joint": -1.548550951253194,
            "wrist_2_joint": -1.5709469090946802,
            "wrist_3_joint": 0.4420197732051276
        }
    },
    "waypoints": [
        {
            "positions": [
                2.6996025300909787,
                -1.2443395971678275,
                -1.919618573717145,
                -1.548550951253194,
                -1.5709469090946802,
                0.4420197732051276
            ]
        },
        {
            "positions": [
                2.5860946459122083,
                -1.2600482554373937,
                -1.7928013009166401,
                -1.5243740077798296,
                -1.5877027188159984,
                0.34907291135801977
            ]
        },
        {
            "positions": [
                2.4725867617334383,
                -1.2757569137069598,
                -1.6659840281161356,
                -1.500197064306465,
                -1.604458528537317,
                0.25612604951091195
            ]
        },
        {
            "positions": [
                2.359078877554668,
                -1.2914655719765258,
                -1.5391667553156307,
                -1.4760201208331005,
                -1.6212143382586355,
                0.16317918766380418
            ]
        },
        {
            "positions": [
                2.245570993375898,
                -1.307174230246092,
                -1.412349482515126,
                -1.451843177359736,
                -1.6379701479799538,
                0.0702323258166963
            ]
        },
        {
            "positions": [
                2.1320631091971274,
                -1.3228828885156583,
                -1.2855322097146213,
                -1.4276662338863715,
                -1.654725957701272,
                -0.02271453603041146
            ]
        },
        {
            "positions": [
                2.0185552250183574,
                -1.3385915467852243,
                -1.1587149369141168,
                -1.403489290413007,
                -1.6714817674225906,
                -0.11566139787751922
            ]
        },
        {
            "positions": [
                1.905047340839587,
                -1.3543002050547903,
                -1.031897664113612,
                -1.3793123469396424,
                -1.6882375771439089,
                -0.208608259724627
            ]
        },
        {
            "positions": [
                1.7915394566608167,
                -1.3700088633243566,
                -0.9050803913131071,
                -1.355135403466278,
                -1.7049933868652274,
                -0.301555121571735
            ]
        },
        {
            "positions": [
                1.6780315724820465,
                -1.3857175215939228,
                -0.7782631185126023,
                -1.3309584599929134,
                -1.7217491965865457,
                -0.39450198341884274
            ]
        },
        {
            "positions": [
                1.5645236883032763,
                -1.4014261798634888,
                -0.6514458457120977,
                -1.3067815165195489,
                -1.7385050063078642,
                -0.4874488452659505
            ]
        },
        {
            "positions": [
                1.4510158041245058,
                -1.417134838133055,
                -0.5246285729115929,
                -1.2826045730461844,
                -1.7552608160291827,
                -0.5803957071130583
            ]
        },
        {
            "positions": [
                1.3375079199457358,
                -1.432843496402621,
                -0.39781130011108834,
                -1.2584276295728198,
                -1.772016625750501,
                -0.673342568960166
            ]
        },
        {
            "positions": [
                1.2240000357669654,
                -1.4485521546721873,
                -0.27099402731058353,
                -1.2342506860994553,
                -1.7887724354718193,
                -0.7662894308072739
            ]
        },
        {
            "positions": [
                1.1104921515881954,
                -1.4642608129417534,
                -0.14417675451007894,
                -1.2100737426260908,
                -1.8055282451931378,
                -0.8592362926543815
            ]
        },
        {
            "positions": [
                0.9969842674094251,
                -1.4799694712113194,
                -0.01735948170957413,
                -1.1858967991527263,
                -1.8222840549144563,
                -0.9521831545014896
            ]
        },
        {
            "positions": [
                0.8834763832306547,
                -1.4956781294808856,
                0.10945779109093068,
                -1.1617198556793618,
                -1.8390398646357746,
                -1.0451300163485975
            ]
        },
        {
            "positions": [
                0.7699684990518847,
                -1.5113867877504519,
                0.23627506389143504,
                -1.1375429122059972,
                -1.855795674357093,
                -1.1380768781957051
            ]
        },
        {
            "positions": [
                0.6564606148731142,
                -1.527095446020018,
                0.3630923366919403,
                -1.1133659687326327,
                -1.8725514840784114,
                -1.231023740042813
            ]
        },
        {
            "positions": [
                0.5429527306943442,
                -1.542804104289584,
                0.48990960949244466,
                -1.0891890252592682,
                -1.88930729379973,
                -1.3239706018899207
            ]
        },
        {
            "positions": [
                0.4294448465155739,
                -1.5585127625591502,
                0.6167268822929497,
                -1.0650120817859037,
                -1.9060631035210482,
                -1.4169174637370285
            ]
        },
        {
            "positions": [
                0.3956039747480275,
                -1.5360890381801175,
                0.6956520338132741,
                -1.0419724023085595,
                -1.7945400705751666,
                -1.5225592035867017
            ]
        },
        {
            "positions": [
                0.3617631029804811,
                -1.5136653138010852,
                0.7745771853335985,
                -1.018932722831215,
                -1.683017037629285,
                -1.6282009434363751
            ]
        },
        {
            "positions": [
                0.32792223121293473,
                -1.4912415894220525,
                0.853502336853923,
                -0.9958930433538707,
                -1.5714940046834034,
                -1.7338426832860483
            ]
        },
        {
            "positions": [
                0.2940813594453883,
                -1.46881786504302,
                0.9324274883742474,
                -0.9728533638765264,
                -1.4599709717375216,
                -1.8394844231357217
            ]
        },
        {
            "positions": [
                0.2602404876778419,
                -1.4463941406639873,
                1.0113526398945718,
                -0.9498136843991821,
                -1.34844793879164,
                -1.9451261629853949
            ]
        },
        {
            "positions": [
                0.22639961591029553,
                -1.423970416284955,
                1.0902777914148962,
                -0.9267740049218378,
                -1.2369249058457583,
                -2.050767902835068
            ]
        },
        {
            "positions": [
                0.19255874414274918,
                -1.4015466919059223,
                1.1692029429352206,
                -0.9037343254444936,
                -1.1254018728998767,
                -2.1564096426847414
            ]
        },
        {
            "positions": [
                0.15871787237520274,
                -1.3791229675268897,
                1.248128094455545,
                -0.8806946459671492,
                -1.0138788399539949,
                -2.262051382534415
            ]
        },
        {
            "positions": [
                0.12487700060765639,
                -1.3566992431478573,
                1.3270532459758695,
                -0.857654966489805,
                -0.9023558070081135,
                -2.367693122384088
            ]
        },
        {
            "positions": [
                0.09103612884010998,
                -1.3342755187688247,
                1.405978397496194,
                -0.8346152870124607,
                -0.7908327740622316,
                -2.473334862233761
            ]
        },
        {
            "positions": [
                0.057195257072563566,
                -1.311851794389792,
                1.4849035490165183,
                -0.8115756075351164,
                -0.67930974111635,
                -2.5789766020834346
            ]
        },
        {
            "positions": [
                0.023354385305017156,
                -1.2894280700107597,
                1.5638287005368428,
                -0.7885359280577721,
                -0.5677867081704684,
                -2.684618341933108
            ]
        },
        {
            "positions": [
                -0.010486486462529202,
                -1.267004345631727,
                1.6427538520571672,
                -0.7654962485804278,
                -0.4562636752245868,
                -2.790260081782781
            ]
        },
        {
            "positions": [
                0.016261625440180213,
                -1.2419055168506166,
                1.709211433907469,
                -0.7707336980303634,
                -0.33833416524424403,
                -2.8695698112569032
            ]
        },
        {
            "positions": [
                0.043009737342889626,
                -1.2168066880695063,
                1.775669015757771,
                -0.775971147480299,
                -0.2204046552639013,
                -2.948879540731025
            ]
        },
        {
            "positions": [
                0.06975784924559904,
                -1.1917078592883958,
                1.8421265976080727,
                -0.7812085969302347,
                -0.10247514528355861,
                -3.0281892702051474
            ]
        },
        {
            "positions": [
                0.09650596114830846,
                -1.1666090305072856,
                1.9085841794583747,
                -0.7864460463801703,
                0.015454364696784184,
                -3.1074989996792697
            ]
        },
        {
            "positions": [
                0.12325407305101786,
                -1.1415102017261751,
                1.9750417613086766,
                -0.791683495830106,
                0.13338387467712684,
                -3.1868087291533915
            ]
        }
    ]
}{
    "goal": {
        "global_pose": {
            "orientation": {
                "w": 0.7047431468963623,
                "x": -0.7094548344612122,
                "y": 0.0024358443915843964,
                "z": -0.0022348060738295317
            },
            "position": {
                "x": 0.6094750761985779,
                "y": 0.3671506643295288,
                "z": 0.19426114857196808
            }
        },
        "name": "move_to_magneteinheit_A"
    },
    "id": "LBTRRT_move_to_magneteinheit_A_42",
    "joint_names": [
        "shoulder_pan_joint",
        "shoulder_lift_joint",
        "elbow_joint",
        "wrist_1_joint",
        "wrist_2_joint",
        "wrist_3_joint"
    ],
    "metrics": {
        "cart_traj_len": 1.1740284882633043,
        "distance_elbow_joint": 0.045487230873349604,
        "distance_shoulder_lift_joint": 0.9075558933995178,
        "distance_shoulder_pan_joint": 1.241249733856774,
        "distance_wrist_1_joint": 0.8332480422092317,
        "distance_wrist_2_joint": 1.450422664634506,
        "distance_wrist_3_joint": 4.3303093736297855,
        "smoothness": 0.06689410059621087,
        "time": 5.0596838900000005,
        "traj_len": 2.9678734707873184,
        "weighted_distance": 4.4443854910107055
    },
    "planner": "LBTRRT",
    "start": {
        "state": {
            "elbow_joint": 1.919643534880228,
            "shoulder_lift_joint": -1.8972525353963687,
            "shoulder_pan_joint": -1.1188672234189438,
            "wrist_1_joint": -1.5931878212786155,
            "wrist_2_joint": 1.5706036197970081,
            "wrist_3_joint": 1.118896926603594
        }
    },
    "waypoints": [
        {
            "positions": [
                -1.1188672234189438,
                -1.8972525353963687,
                1.919643534880228,
                -1.5931878212786155,
                1.5706036197970081,
                1.118896926603594
            ]
        },
        {
            "positions": [
                -1.095974697061884,
                -1.9154949662822611,
                1.9277068804366764,
                -1.554737164214122,
                1.4678905777862756,
                0.9639302811436247
            ]
        },
        {
            "positions": [
                -1.073082170704824,
                -1.9337373971681535,
                1.9357702259931244,
                -1.5162865071496285,
                1.3651775357755431,
                0.8089636356836554
            ]
        },
        {
            "positions": [
                -1.050189644347764,
                -1.951979828054046,
                1.9438335715495727,
                -1.477835850085135,
                1.2624644937648108,
                0.6539969902236862
            ]
        },
        {
            "positions": [
                -1.0272971179907042,
                -1.9702222589399383,
                1.951896917106021,
                -1.4393851930206414,
                1.1597514517540783,
                0.4990303447637169
            ]
        },
        {
            "positions": [
                -0.9667876638628866,
                -1.9262966710527831,
                1.9525934354558925,
                -1.4036249080758383,
                1.1050372150913639,
                0.30374388203793223
            ]
        },
        {
            "positions": [
                -0.906278209735069,
                -1.882371083165628,
                1.9532899538057638,
                -1.3678646231310354,
                1.0503229784286492,
                0.10845741931214753
            ]
        },
        {
            "positions": [
                -0.8457687556072515,
                -1.8384454952784728,
                1.9539864721556353,
                -1.3321043381862323,
                0.9956087417659346,
                -0.08682904341363717
            ]
        },
        {
            "positions": [
                -0.7852593014794339,
                -1.7945199073913176,
                1.9546829905055065,
                -1.2963440532414292,
                0.94089450510322,
                -0.2821155061394218
            ]
        },
        {
            "positions": [
                -0.7247498473516163,
                -1.7505943195041624,
                1.955379508855378,
                -1.2605837682966263,
                0.8861802684405056,
                -0.4774019688652066
            ]
        },
        {
            "positions": [
                -0.6642403932237987,
                -1.7066687316170073,
                1.9560760272052493,
                -1.2248234833518232,
                0.8314660317777909,
                -0.6726884315909912
            ]
        },
        {
            "positions": [
                -0.6037309390959811,
                -1.662743143729852,
                1.9567725455551208,
                -1.1890631984070201,
                0.7767517951150764,
                -0.8679748943167759
            ]
        },
        {
            "positions": [
                -0.5432214849681636,
                -1.618817555842697,
                1.9574690639049923,
                -1.153302913462217,
                0.7220375584523617,
                -1.0632613570425606
            ]
        },
        {
            "positions": [
                -0.482712030840346,
                -1.5748919679555418,
                1.9581655822548636,
                -1.1175426285174141,
                0.6673233217896473,
                -1.2585478197683453
            ]
        },
        {
            "positions": [
                -0.42220257671252837,
                -1.5309663800683866,
                1.958862100604735,
                -1.081782343572611,
                0.6126090851269327,
                -1.45383428249413
            ]
        },
        {
            "positions": [
                -0.36169312258471065,
                -1.4870407921812314,
                1.9595586189546064,
                -1.0460220586278082,
                0.557894848464218,
                -1.6491207452199146
            ]
        },
        {
            "positions": [
                -0.30118366845689315,
                -1.4431152042940762,
                1.9602551373044779,
                -1.010261773683005,
                0.5031806118015035,
                -1.8444072079456992
            ]
        },
        {
            "positions": [
                -0.24067421432907554,
                -1.399189616406921,
                1.9609516556543494,
                -0.974501488738202,
                0.44846637513878895,
                -2.0396936706714843
            ]
        },
        {
            "positions": [
                -0.18016476020125805,
                -1.355264028519766,
                1.9616481740042206,
                -0.938741203793399,
                0.3937521384760744,
                -2.2349801333972685
            ]
        },
        {
            "positions": [
                -0.11965530607344033,
                -1.3113384406326107,
                1.9623446923540921,
                -0.9029809188485959,
                0.3390379018133598,
                -2.4302665961230536
            ]
        },
        {
            "positions": [
                -0.05914585194562283,
                -1.2674128527454556,
                1.9630412107039634,
                -0.8672206339037929,
                0.2843236651506452,
                -2.625553058848838
            ]
        },
        {
            "positions": [
                0.0013636021821947786,
                -1.2234872648583004,
                1.963737729053835,
                -0.8314603489589899,
                0.22960942848793064,
                -2.820839521574623
            ]
        },
        {
            "positions": [
                0.061873056310012275,
                -1.1795616769711452,
                1.9644342474037062,
                -0.7957000640141869,
                0.17489519182521607,
                -3.016125984300407
            ]
        },
        {
            "positions": [
                0.12238251043783,
                -1.13563608908399,
                1.9651307657535777,
                -0.7599397790693838,
                0.12018095516250142,
                -3.211412447026192
            ]
        }
    ]
}