{
    "goal": {
        "global_pose": {
            "orientation": {
                "w": 0.5084816217422485,
                "x": -0.49083608388900757,
                "y": 0.5182115435600281,
                "z": -0.4816462993621826
            },
            "position": {
                "x": 0.5540239810943604,
                "y": 0.030875300988554955,
                "z": 0.16403168439865112
            }
        },
        "name": "move_to_storage_A"
    },
    "id": "LBTRRT_move_to_storage_A_21",
    "joint_names": [
        "shoulder_pan_joint",
        "shoulder_lift_joint",
        "elbow_joint",
        "wrist_1_joint",
        "wrist_2_joint",
        "wrist_3_joint"
    ],
    "metrics": {
        "cart_traj_len": 0.35325985418280303,
        "distance_elbow_joint": 0.45251638768326297,
        "distance_shoulder_lift_joint": 0.23558748866055623,
        "distance_shoulder_pan_joint": 0.46353952253608427,
        "distance_wrist_1_joint": 0.24887539773823575,
        "distance_wrist_2_joint": 1.0933720572122665,
        "distance_wrist_3_joint": 0.10209645864486339,
        "smoothness": 6.661338200497456e-16,
        "time": 5.003193753000001,
        "traj_len": 1.6112067876207787,
        "weighted_distance": 2.035295478478616
    },
    "planner": "LBTRRT",
    "start": {
        "state": {
            "elbow_joint": 1.9715477243005601,
            "shoulder_lift_joint": -1.1394853015351272,
            "shoulder_pan_joint": 0.12281154014795169,
            "wrist_1_joint": -0.7804696478968182,
            "wrist_2_joint": 0.12958648046900423,
            "wrist_3_joint": -3.192491284697111
        }
    },
    "waypoints": [
        {
            "positions": [
                0.12281154014795169,
                -1.1394853015351272,
                1.9715477243005601,
                -0.7804696478968182,
                0.12958648046900423,
                -3.192491284697111
            ]
        },
        {
            "positions": [
                0.05659160835708252,
                -1.1731406570580638,
                2.0361929225410265,
                -0.8160232761451376,
                0.28578248864218514,
                -3.1779060763192737
            ]
        },
        {
            "positions": [
                -0.009628323433786654,
                -1.2067960125810004,
                2.1008381207814923,
                -0.8515769043934569,
                0.44197849681536605,
                -3.1633208679414357
            ]
        },
        {
            "positions": [
                -0.07584825522465584,
                -1.240451368103937,
                2.1654833190219587,
                -0.8871305326417763,
                0.598174504988547,
                -3.1487356595635982
            ]
        },
        {
            "positions": [
                -0.14206818701552498,
                -1.2741067236268735,
                2.2301285172624246,
                -0.9226841608900958,
                0.7543705131617279,
                -3.1341504511857607
            ]
        },
        {
            "positions": [
                -0.2082881188063942,
                -1.3077620791498101,
                2.294773715502891,
                -0.9582377891384151,
                0.9105665213349089,
                -3.1195652428079232
            ]
        },
        {
            "positions": [
                -0.27450805059726335,
                -1.3414174346727468,
                2.3594189137433568,
                -0.9937914173867345,
                1.0667625295080896,
                -3.1049800344300853
            ]
        },
        {
            "positions": [
                -0.34072798238813257,
                -1.3750727901956834,
                2.424064111983823,
                -1.029345045635054,
                1.2229585376812708,
                -3.090394826052248
            ]
        }
    ]
}