{
    "goal": {
        "global_pose": {
            "orientation": {
                "w": 0.7047431468963623,
                "x": -0.7094548344612122,
                "y": 0.0024358443915843964,
                "z": -0.0022348060738295317
            },
            "position": {
                "x": 0.6094750761985779,
                "y": 0.3671506643295288,
                "z": 0.19426114857196808
            }
        },
        "name": "move_to_magneteinheit_A"
    },
    "id": "LBTRRT_move_to_magneteinheit_A_150",
    "joint_names": [
        "shoulder_pan_joint",
        "shoulder_lift_joint",
        "elbow_joint",
        "wrist_1_joint",
        "wrist_2_joint",
        "wrist_3_joint"
    ],
    "metrics": {
        "cart_traj_len": 3.737102514393766,
        "distance_elbow_joint": 3.8766200208106962,
        "distance_shoulder_lift_joint": 0.11361881313747024,
        "distance_shoulder_pan_joint": 3.1632848163163456,
        "distance_wrist_1_joint": 0.8378967716240298,
        "distance_wrist_2_joint": 1.7011656541973854,
        "distance_wrist_3_joint": 3.6902516757617234,
        "smoothness": 0.07537605712091186,
        "time": 5.039067118,
        "traj_len": 3.6582561080175418,
        "weighted_distance": 4.827256314843093
    },
    "planner": "LBTRRT",
    "start": {
        "state": {
            "elbow_joint": -1.919618573717145,
            "shoulder_lift_joint": -1.2443395971678275,
            "shoulder_pan_joint": 2.6996025300909787,
            "wrist_1_joint": -1.548550951253194,
            "wrist_2_joint": -1.5709469090946802,
            "wrist_3_joint": 0.4420197732051276
        }
    },
    "waypoints": [
        {
            "positions": [
                2.6996025300909787,
                -1.2443395971678275,
                -1.919618573717145,
                -1.548550951253194,
                -1.5709469090946802,
                0.4420197732051276
            ]
        },
        {
            "positions": [
                2.5892184895249875,
                -1.2408863320234786,
                -1.8056712589811377,
                -1.544984724256373,
                -1.5349415753668914,
                0.32319345248787135
            ]
        },
        {
            "positions": [
                2.478834448958996,
                -1.2374330668791296,
                -1.6917239442451306,
                -1.541418497259552,
                -1.4989362416391026,
                0.20436713177061513
            ]
        },
        {
            "positions": [
                2.368450408393005,
                -1.2339798017347807,
                -1.5777766295091236,
                -1.5378522702627309,
                -1.4629309079113137,
                0.08554081105335892
            ]
        },
        {
            "positions": [
                2.2580663678270136,
                -1.2305265365904319,
                -1.4638293147731163,
                -1.5342860432659098,
                -1.426925574183525,
                -0.03328550966389732
            ]
        },
        {
            "positions": [
                2.1476823272610224,
                -1.2270732714460828,
                -1.349882000037109,
                -1.5307198162690887,
                -1.3909202404557361,
                -0.15211183038115356
            ]
        },
        {
            "positions": [
                2.037298286695031,
                -1.223620006301734,
                -1.235934685301102,
                -1.5271535892722676,
                -1.3549149067279471,
                -0.27093815109840974
            ]
        },
        {
            "positions": [
                1.9269142461290398,
                -1.220166741157385,
                -1.121987370565095,
                -1.5235873622754468,
                -1.3189095730001585,
                -0.3897644718156659
            ]
        },
        {
            "positions": [
                1.8165302055630483,
                -1.216713476013036,
                -1.0080400558290876,
                -1.5200211352786257,
                -1.2829042392723695,
                -0.5085907925329223
            ]
        },
        {
            "positions": [
                1.7061461649970573,
                -1.2132602108686872,
                -0.8940927410930806,
                -1.5164549082818046,
                -1.2468989055445807,
                -0.6274171132501782
            ]
        },
        {
            "positions": [
                1.5957621244310658,
                -1.2098069457243383,
                -0.7801454263570733,
                -1.5128886812849835,
                -1.210893571816792,
                -0.7462434339674346
            ]
        },
        {
            "positions": [
                1.4853780838650745,
                -1.2063536805799893,
                -0.6661981116210662,
                -1.5093224542881625,
                -1.1748882380890031,
                -0.8650697546846908
            ]
        },
        {
            "positions": [
                1.3749940432990833,
                -1.2029004154356404,
                -0.552250796885059,
                -1.5057562272913414,
                -1.1388829043612143,
                -0.983896075401947
            ]
        },
        {
            "positions": [
                1.264610002733092,
                -1.1994471502912916,
                -0.4383034821490519,
                -1.5021900002945203,
                -1.1028775706334255,
                -1.1027223961192032
            ]
        },
        {
            "positions": [
                1.1542259621671007,
                -1.1959938851469425,
                -0.32435616741304485,
                -1.4986237732976992,
                -1.0668722369056367,
                -1.2215487168364594
            ]
        },
        {
            "positions": [
                1.0438419216011097,
                -1.1925406200025936,
                -0.2104088526770378,
                -1.4950575463008782,
                -1.030866903177848,
                -1.3403750375537156
            ]
        },
        {
            "positions": [
                0.933457881035118,
                -1.1890873548582446,
                -0.0964615379410303,
                -1.491491319304057,
                -0.994861569450059,
                -1.459201358270972
            ]
        },
        {
            "positions": [
                0.8230738404691269,
                -1.1856340897138957,
                0.01748577679497676,
                -1.487925092307236,
                -0.9588562357222702,
                -1.578027678988228
            ]
        },
        {
            "positions": [
                0.7126897999031356,
                -1.1821808245695469,
                0.13143309153098381,
                -1.484358865310415,
                -0.9228509019944814,
                -1.6968539997054841
            ]
        },
        {
            "positions": [
                0.6023057593371446,
                -1.1787275594251978,
                0.24538040626699087,
                -1.480792638313594,
                -0.8868455682666926,
                -1.8156803204227403
            ]
        },
        {
            "positions": [
                0.49192171877115287,
                -1.175274294280849,
                0.35932772100299837,
                -1.477226411316773,
                -0.8508402345389037,
                -1.934506641139997
            ]
        },
        {
            "positions": [
                0.3815376782051616,
                -1.1718210291365,
                0.4732750357390054,
                -1.473660184319952,
                -0.8148349008111149,
                -2.053332961857253
            ]
        },
        {
            "positions": [
                0.27115363763917033,
                -1.168367763992151,
                0.5872223504750125,
                -1.4700939573231309,
                -0.7788295670833261,
                -2.1721592825745093
            ]
        },
        {
            "positions": [
                0.16076959707317906,
                -1.1649144988478022,
                0.7011696652110195,
                -1.4665277303263098,
                -0.7428242333555373,
                -2.2909856032917655
            ]
        },
        {
            "positions": [
                0.05038555650718779,
                -1.1614612337034533,
                0.815116979947027,
                -1.4629615033294887,
                -0.7068188996277484,
                -2.4098119240090217
            ]
        },
        {
            "positions": [
                -0.05999848405880348,
                -1.1580079685591043,
                0.9290642946830341,
                -1.4593952763326676,
                -0.6708135658999596,
                -2.528638244726278
            ]
        },
        {
            "positions": [
                -0.17038252462479495,
                -1.1545547034147554,
                1.0430116094190414,
                -1.4558290493358466,
                -0.6348082321721707,
                -2.647464565443534
            ]
        },
        {
            "positions": [
                -0.13789931014738632,
                -1.1525610184197972,
                1.1516617397709974,
                -1.3706909388504065,
                -0.5454011830600949,
                -2.720691016655019
            ]
        },
        {
            "positions": [
                -0.10541609566997767,
                -1.1505673334248392,
                1.2603118701229534,
                -1.2855528283649662,
                -0.4559941339480189,
                -2.7939174678665037
            ]
        },
        {
            "positions": [
                -0.07293288119256904,
                -1.1485736484298812,
                1.3689620004749097,
                -1.2004147178795261,
                -0.366587084835943,
                -2.8671439190779884
            ]
        },
        {
            "positions": [
                -0.0404496667151604,
                -1.146579963434923,
                1.4776121308268657,
                -1.115276607394086,
                -0.27718003572386707,
                -2.9403703702894735
            ]
        },
        {
            "positions": [
                -0.007966452237751748,
                -1.1445862784399647,
                1.5862622611788217,
                -1.0301384969086458,
                -0.18777298661179115,
                -3.0135968215009585
            ]
        },
        {
            "positions": [
                0.024516762239656875,
                -1.1425925934450067,
                1.694912391530778,
                -0.9450003864232057,
                -0.09836593749971523,
                -3.086823272712443
            ]
        },
        {
            "positions": [
                0.0569999767170655,
                -1.1405989084500487,
                1.803562521882734,
                -0.8598622759377657,
                -0.008958888387639363,
                -3.160049723923928
            ]
        },
        {
            "positions": [
                0.08948319119447412,
                -1.1386052234550905,
                1.91221265223469,
                -0.7747241654523255,
                0.08044816072443656,
                -3.233276175135413
            ]
        },
        {
            "positions": [
                0.12291723697577628,
                -1.1307207840303573,
                1.957001447093552,
                -0.7106541796291643,
                0.13021874510270504,
                -3.2482319025565958
            ]
        }
    ]
}{
    "goal": {
        "global_pose": {
            "orientation": {
                "w": 0.7047431468963623,
                "x": -0.7094548344612122,
                "y": 0.0024358443915843964,
                "z": -0.0022348060738295317
            },
            "position": {
                "x": 0.6094750761985779,
                "y": 0.3671506643295288,
                "z": 0.19426114857196808
            }
        },
        "name": "move_to_magneteinheit_A"
    },
    "id": "LBTRRT_move_to_magneteinheit_A_150",
    "joint_names": [
        "shoulder_pan_joint",
        "shoulder_lift_joint",
        "elbow_joint",
        "wrist_1_joint",
        "wrist_2_joint",
        "wrist_3_joint"
    ],
    "metrics": {
        "cart_traj_len": 1.4117374730119472,
        "distance_elbow_joint": 0.3538515900314396,
        "distance_shoulder_lift_joint": 1.1160022863999606,
        "distance_shoulder_pan_joint": 1.2416640609074225,
        "distance_wrist_1_joint": 0.7997206708202526,
        "distance_wrist_2_joint": 1.4491530102562846,
        "distance_wrist_3_joint": 4.299860433051052,
        "smoothness": 0.18822929234040664,
        "time": 5.034968394,
        "traj_len": 3.0430662252843614,
        "weighted_distance": 4.48428886208784
    },
    "planner": "LBTRRT",
    "start": {
        "state": {
            "elbow_joint": 1.919643534880228,
            "shoulder_lift_joint": -1.8972525353963687,
            "shoulder_pan_joint": -1.1188672234189438,
            "wrist_1_joint": -1.5931878212786155,
            "wrist_2_joint": 1.5706036197970081,
            "wrist_3_joint": 1.118896926603594
        }
    },
    "waypoints": [
        {
            "positions": [
                -1.1188672234189438,
                -1.8972525353963687,
                1.919643534880228,
                -1.5931878212786155,
                1.5706036197970081,
                1.118896926603594
            ]
        },
        {
            "positions": [
                -1.0637576228549475,
                -1.8526459126500354,
                1.9124795485399941,
                -1.5567209309854493,
                1.514653663289712,
                0.9248895469071688
            ]
        },
        {
            "positions": [
                -1.008648022290951,
                -1.808039289903702,
                1.9053155621997602,
                -1.5202540406922829,
                1.4587037067824158,
                0.7308821672107437
            ]
        },
        {
            "positions": [
                -0.9535384217269546,
                -1.7634326671573688,
                1.8981515758595262,
                -1.4837871503991167,
                1.4027537502751197,
                0.5368747875143186
            ]
        },
        {
            "positions": [
                -0.8984288211629582,
                -1.7188260444110355,
                1.8909875895192922,
                -1.4473202601059505,
                1.3468037937678234,
                0.3428674078178936
            ]
        },
        {
            "positions": [
                -0.8433192205989617,
                -1.6742194216647022,
                1.8838236031790583,
                -1.4108533698127843,
                1.2908538372605274,
                0.14886002812146848
            ]
        },
        {
            "positions": [
                -0.7882096200349653,
                -1.6296127989183689,
                1.876659616838824,
                -1.374386479519618,
                1.2349038807532313,
                -0.04514735157495675
            ]
        },
        {
            "positions": [
                -0.7331000194709689,
                -1.5850061761720355,
                1.8694956304985901,
                -1.3379195892264517,
                1.1789539242459353,
                -0.23915473127138176
            ]
        },
        {
            "positions": [
                -0.6779904189069725,
                -1.5403995534257025,
                1.8623316441583562,
                -1.3014526989332855,
                1.123003967738639,
                -0.43316211096780677
            ]
        },
        {
            "positions": [
                -0.6228808183429762,
                -1.495792930679369,
                1.8551676578181222,
                -1.2649858086401191,
                1.0670540112313427,
                -0.627169490664232
            ]
        },
        {
            "positions": [
                -0.5677712177789797,
                -1.4511863079330358,
                1.8480036714778882,
                -1.228518918346953,
                1.0111040547240466,
                -0.821176870360657
            ]
        },
        {
            "positions": [
                -0.5126616172149833,
                -1.4065796851867023,
                1.8408396851376543,
                -1.1920520280537867,
                0.9551540982167505,
                -1.0151842500570825
            ]
        },
        {
            "positions": [
                -0.4575520166509869,
                -1.3619730624403692,
                1.8336756987974203,
                -1.1555851377606206,
                0.8992041417094544,
                -1.2091916297535075
            ]
        },
        {
            "positions": [
                -0.4024424160869904,
                -1.3173664396940357,
                1.8265117124571864,
                -1.1191182474674541,
                0.8432541852021582,
                -1.4031990094499325
            ]
        },
        {
            "positions": [
                -0.347332815522994,
                -1.2727598169477026,
                1.8193477261169524,
                -1.082651357174288,
                0.7873042286948622,
                -1.5972063891463575
            ]
        },
        {
            "positions": [
                -0.2922232149589976,
                -1.228153194201369,
                1.8121837397767184,
                -1.0461844668811215,
                0.7313542721875659,
                -1.791213768842783
            ]
        },
        {
            "positions": [
                -0.23711361439500123,
                -1.183546571455036,
                1.8050197534364845,
                -1.0097175765879554,
                0.6754043156802698,
                -1.9852211485392075
            ]
        },
        {
            "positions": [
                -0.18200401383100473,
                -1.1389399487087026,
                1.7978557670962503,
                -0.9732506862947892,
                0.6194543591729736,
                -2.179228528235633
            ]
        },
        {
            "positions": [
                -0.12689441326700834,
                -1.0943333259623693,
                1.7906917807560163,
                -0.936783796001623,
                0.5635044026656775,
                -2.3732359079320577
            ]
        },
        {
            "positions": [
                -0.07178481270301185,
                -1.049726703216036,
                1.7835277944157824,
                -0.9003169057084567,
                0.5075544461583814,
                -2.567243287628483
            ]
        },
        {
            "positions": [
                -0.01667521213901546,
                -1.0051200804697027,
                1.7763638080755484,
                -0.8638500154152905,
                0.45160448965108535,
                -2.7612506673249078
            ]
        },
        {
            "positions": [
                0.03843438842498083,
                -0.9605134577233694,
                1.7691998217353144,
                -0.8273831251221242,
                0.3956545331437892,
                -2.955258047021333
            ]
        },
        {
            "positions": [
                0.06655520477948003,
                -1.0202678606323565,
                1.8370024473641564,
                -0.8160778002342037,
                0.30425322527610055,
                -3.030493200163374
            ]
        },
        {
            "positions": [
                0.09467602113397923,
                -1.0800222635413435,
                1.9048050729929984,
                -0.8047724753462834,
                0.21285191740841192,
                -3.1057283533054156
            ]
        },
        {
            "positions": [
                0.12279683748847843,
                -1.1397766664503306,
                1.9726076986218404,
                -0.7934671504583629,
                0.12145060954072329,
                -3.1809635064474566
            ]
        }
    ]
}