{
    "goal": {
        "global_pose": {
            "orientation": {
                "w": 0.5084816217422485,
                "x": -0.49083608388900757,
                "y": 0.5182115435600281,
                "z": -0.4816462993621826
            },
            "position": {
                "x": 0.5540239810943604,
                "y": 0.030875300988554955,
                "z": 0.16403168439865112
            }
        },
        "name": "move_to_storage_A"
    },
    "id": "LBTRRT_move_to_storage_A_149",
    "joint_names": [
        "shoulder_pan_joint",
        "shoulder_lift_joint",
        "elbow_joint",
        "wrist_1_joint",
        "wrist_2_joint",
        "wrist_3_joint"
    ],
    "metrics": {
        "cart_traj_len": 0.3531539025594688,
        "distance_elbow_joint": 0.45177971088658087,
        "distance_shoulder_lift_joint": 0.2339907811506421,
        "distance_shoulder_pan_joint": 0.4608100220986689,
        "distance_wrist_1_joint": 0.254550120141135,
        "distance_wrist_2_joint": 1.1028687449184371,
        "distance_wrist_3_joint": 0.09707706081271761,
        "smoothness": 5.551115138160447e-16,
        "time": 5.003637851000001,
        "traj_len": 1.6127853049951137,
        "weighted_distance": 2.037805051199253
    },
    "planner": "LBTRRT",
    "start": {
        "state": {
            "elbow_joint": 1.9715477243005601,
            "shoulder_lift_joint": -1.1394853015351272,
            "shoulder_pan_joint": 0.12281154014795169,
            "wrist_1_joint": -0.7804696478968182,
            "wrist_2_joint": 0.12958648046900423,
            "wrist_3_joint": -3.192491284697111
        }
    },
    "waypoints": [
        {
            "positions": [
                0.12281154014795169,
                -1.1394853015351272,
                1.9715477243005601,
                -0.7804696478968182,
                0.12958648046900423,
                -3.192491284697111
            ]
        },
        {
            "positions": [
                0.05698153699099899,
                -1.172912555985219,
                2.036087682998643,
                -0.8168339507741231,
                0.2871391583144952,
                -3.178623133152437
            ]
        },
        {
            "positions": [
                -0.008848466165953708,
                -1.2063398104353107,
                2.1006276416967262,
                -0.8531982536514282,
                0.44469183615998625,
                -3.1647549816077634
            ]
        },
        {
            "positions": [
                -0.07467846932290641,
                -1.2397670648854024,
                2.1651676003948093,
                -0.8895625565287332,
                0.6022445140054773,
                -3.1508868300630892
            ]
        },
        {
            "positions": [
                -0.1405084724798591,
                -1.273194319335494,
                2.229707559092892,
                -0.9259268594060381,
                0.7597971918509683,
                -3.1370186785184155
            ]
        },
        {
            "positions": [
                -0.2063384756368118,
                -1.3066215737855857,
                2.294247517790975,
                -0.9622911622833432,
                0.9173498696964594,
                -3.1231505269737414
            ]
        },
        {
            "positions": [
                -0.2721684787937645,
                -1.3400488282356775,
                2.358787476489058,
                -0.9986554651606481,
                1.0749025475419502,
                -3.1092823754290677
            ]
        },
        {
            "positions": [
                -0.3379984819507172,
                -1.3734760826857693,
                2.423327435187141,
                -1.0350197680379531,
                1.2324552253874415,
                -3.0954142238843936
            ]
        }
    ]
}