{
    "goal": {
        "global_pose": {
            "orientation": {
                "w": 0.7047431468963623,
                "x": -0.7094548344612122,
                "y": 0.0024358443915843964,
                "z": -0.0022348060738295317
            },
            "position": {
                "x": 0.6094750761985779,
                "y": 0.3671506643295288,
                "z": 0.19426114857196808
            }
        },
        "name": "move_to_magneteinheit_A"
    },
    "id": "LBTRRT_move_to_magneteinheit_A_41",
    "joint_names": [
        "shoulder_pan_joint",
        "shoulder_lift_joint",
        "elbow_joint",
        "wrist_1_joint",
        "wrist_2_joint",
        "wrist_3_joint"
    ],
    "metrics": {
        "cart_traj_len": 2.9550949322153075,
        "distance_elbow_joint": 3.8852531388371894,
        "distance_shoulder_lift_joint": 0.12022814871838317,
        "distance_shoulder_pan_joint": 2.8451556146522816,
        "distance_wrist_1_joint": 4.283093547617444,
        "distance_wrist_2_joint": 1.7066555410529447,
        "distance_wrist_3_joint": 3.665272641558135,
        "smoothness": 0.20317671556286349,
        "time": 5.049090448,
        "traj_len": 4.062715672113467,
        "weighted_distance": 5.461314219510084
    },
    "planner": "LBTRRT",
    "start": {
        "state": {
            "elbow_joint": -1.919618573717145,
            "shoulder_lift_joint": -1.2443395971678275,
            "shoulder_pan_joint": 2.6996025300909787,
            "wrist_1_joint": -1.548550951253194,
            "wrist_2_joint": -1.5709469090946802,
            "wrist_3_joint": 0.4420197732051276
        }
    },
    "waypoints": [
        {
            "positions": [
                2.6996025300909787,
                -1.2443395971678275,
                -1.919618573717145,
                -1.548550951253194,
                -1.5709469090946802,
                0.4420197732051276
            ]
        },
        {
            "positions": [
                2.6208054074352103,
                -1.242135717816805,
                -1.8173851872234283,
                -1.4638317413102455,
                -1.5500303412667,
                0.3438443201089063
            ]
        },
        {
            "positions": [
                2.5420082847794423,
                -1.2399318384657827,
                -1.715151800729712,
                -1.379112531367297,
                -1.52911377343872,
                0.24566886701268503
            ]
        },
        {
            "positions": [
                2.463211162123674,
                -1.2377279591147603,
                -1.6129184142359954,
                -1.2943933214243482,
                -1.5081972056107398,
                0.14749341391646376
            ]
        },
        {
            "positions": [
                2.3844140394679054,
                -1.235524079763738,
                -1.5106850277422788,
                -1.2096741114813996,
                -1.4872806377827597,
                0.04931796082024248
            ]
        },
        {
            "positions": [
                2.305616916812137,
                -1.2333202004127153,
                -1.4084516412485621,
                -1.124954901538451,
                -1.4663640699547795,
                -0.04885749227597874
            ]
        },
        {
            "positions": [
                2.226819794156369,
                -1.2311163210616929,
                -1.3062182547548455,
                -1.0402356915955022,
                -1.4454475021267994,
                -0.14703294537220007
            ]
        },
        {
            "positions": [
                2.1480226715006006,
                -1.2289124417106705,
                -1.2039848682611292,
                -0.9555164816525537,
                -1.424530934298819,
                -0.2452083984684213
            ]
        },
        {
            "positions": [
                2.069225548844832,
                -1.226708562359648,
                -1.1017514817674126,
                -0.8707972717096051,
                -1.4036143664708391,
                -0.34338385156464263
            ]
        },
        {
            "positions": [
                1.990428426189064,
                -1.2245046830086257,
                -0.9995180952736961,
                -0.7860780617666564,
                -1.3826977986428588,
                -0.44155930466086385
            ]
        },
        {
            "positions": [
                1.9116313035332957,
                -1.2223008036576033,
                -0.8972847087799796,
                -0.7013588518237078,
                -1.3617812308148787,
                -0.539734757757085
            ]
        },
        {
            "positions": [
                1.8328341808775273,
                -1.220096924306581,
                -0.795051322286263,
                -0.6166396418807593,
                -1.3408646629868985,
                -0.6379102108533063
            ]
        },
        {
            "positions": [
                1.7540370582217588,
                -1.2178930449555585,
                -0.6928179357925464,
                -0.5319204319378106,
                -1.3199480951589184,
                -0.7360856639495277
            ]
        },
        {
            "positions": [
                1.6752399355659906,
                -1.215689165604536,
                -0.5905845492988298,
                -0.4472012219948618,
                -1.2990315273309383,
                -0.834261117045749
            ]
        },
        {
            "positions": [
                1.5964428129102222,
                -1.2134852862535137,
                -0.48835116280511337,
                -0.3624820120519132,
                -1.2781149595029582,
                -0.9324365701419701
            ]
        },
        {
            "positions": [
                1.517645690254454,
                -1.2112814069024913,
                -0.38611777631139677,
                -0.27776280210896465,
                -1.257198391674978,
                -1.0306120232381915
            ]
        },
        {
            "positions": [
                1.4388485675986857,
                -1.2090775275514687,
                -0.28388438981768016,
                -0.19304359216601608,
                -1.236281823846998,
                -1.1287874763344128
            ]
        },
        {
            "positions": [
                1.3600514449429173,
                -1.2068736482004463,
                -0.18165100332396378,
                -0.1083243822230675,
                -1.2153652560190178,
                -1.226962929430634
            ]
        },
        {
            "positions": [
                1.281254322287149,
                -1.204669768849424,
                -0.07941761683024717,
                -0.023605172280118714,
                -1.1944486881910377,
                -1.3251383825268552
            ]
        },
        {
            "positions": [
                1.2024571996313806,
                -1.2024658894984015,
                0.022815769663469432,
                0.061114037662829857,
                -1.1735321203630575,
                -1.4233138356230766
            ]
        },
        {
            "positions": [
                1.1236600769756124,
                -1.200262010147379,
                0.12504915615718581,
                0.14583324760577843,
                -1.1526155525350774,
                -1.5214892887192977
            ]
        },
        {
            "positions": [
                1.0448629543198442,
                -1.1980581307963567,
                0.22728254265090242,
                0.230552457548727,
                -1.1316989847070973,
                -1.619664741815519
            ]
        },
        {
            "positions": [
                0.9660658316640758,
                -1.1958542514453343,
                0.329515929144619,
                0.31527166749167557,
                -1.1107824168791172,
                -1.7178401949117403
            ]
        },
        {
            "positions": [
                0.8872687090083073,
                -1.193650372094312,
                0.43174931563833563,
                0.3999908774346246,
                -1.0898658490511368,
                -1.8160156480079617
            ]
        },
        {
            "positions": [
                0.8084715863525389,
                -1.1914464927432895,
                0.5339827021320522,
                0.48471008737757293,
                -1.0689492812231567,
                -1.914191101104183
            ]
        },
        {
            "positions": [
                0.7296744636967707,
                -1.189242613392267,
                0.6362160886257688,
                0.5694292973205219,
                -1.0480327133951766,
                -2.0123665542004043
            ]
        },
        {
            "positions": [
                0.6508773410410025,
                -1.1870387340412445,
                0.7384494751194854,
                0.6541485072634705,
                -1.0271161455671964,
                -2.1105420072966257
            ]
        },
        {
            "positions": [
                0.572080218385234,
                -1.184834854690222,
                0.840682861613202,
                0.7388677172064191,
                -1.0061995777392163,
                -2.208717460392847
            ]
        },
        {
            "positions": [
                0.4932830957294656,
                -1.1826309753391997,
                0.9429162481069182,
                0.8235869271493677,
                -0.9852830099112362,
                -2.306892913489068
            ]
        },
        {
            "positions": [
                0.4144859730736976,
                -1.1804270959881773,
                1.0451496346006348,
                0.9083061370923162,
                -0.9643664420832561,
                -2.405068366585289
            ]
        },
        {
            "positions": [
                0.3356888504179293,
                -1.178223216637155,
                1.1473830210943516,
                0.9930253470352646,
                -0.9434498742552759,
                -2.5032438196815106
            ]
        },
        {
            "positions": [
                0.2675374037321424,
                -1.1696705343970575,
                1.2394572309395424,
                0.8973856047872684,
                -0.8609932226313755,
                -2.5522708734063246
            ]
        },
        {
            "positions": [
                0.19938595704635556,
                -1.16111785215696,
                1.331531440784733,
                0.8017458625392723,
                -0.7785365710074751,
                -2.6012979271311387
            ]
        },
        {
            "positions": [
                0.1312345103605687,
                -1.1525651699168626,
                1.4236056506299235,
                0.7061061202912762,
                -0.6960799193835747,
                -2.650324980855953
            ]
        },
        {
            "positions": [
                0.06308306367478184,
                -1.1440124876767652,
                1.5156798604751143,
                0.61046637804328,
                -0.6136232677596742,
                -2.699352034580767
            ]
        },
        {
            "positions": [
                0.04463195490838184,
                -1.1406124079904516,
                1.5777247860713075,
                0.4826623970633639,
                -0.5340797620968452,
                -2.751756903358759
            ]
        },
        {
            "positions": [
                0.02618084614198185,
                -1.1372123283041382,
                1.639769711667501,
                0.35485841608344787,
                -0.4545362564340161,
                -2.8041617721367516
            ]
        },
        {
            "positions": [
                0.007729737375581858,
                -1.1338122486178248,
                1.7018146372636944,
                0.22705443510353185,
                -0.374992750771187,
                -2.8565666409147443
            ]
        },
        {
            "positions": [
                -0.010721371390818135,
                -1.1304121689315112,
                1.7638595628598877,
                0.09925045412361577,
                -0.2954492451083579,
                -2.9089715096927367
            ]
        },
        {
            "positions": [
                0.01624497124327856,
                -1.1316723130279245,
                1.8042145633119189,
                -0.07029801715985151,
                -0.20921766969503336,
                -2.971827781424791
            ]
        },
        {
            "positions": [
                0.04321131387737526,
                -1.132932457124338,
                1.8445695637639503,
                -0.2398464884433188,
                -0.12298609428170881,
                -3.034684053156845
            ]
        },
        {
            "positions": [
                0.07017765651147195,
                -1.1341926012207513,
                1.8849245642159815,
                -0.40939495972678597,
                -0.03675451886838427,
                -3.097540324888899
            ]
        },
        {
            "positions": [
                0.09714399914556865,
                -1.1354527453171648,
                1.925279564668013,
                -0.5789434310102534,
                0.04947705654494028,
                -3.160396596620953
            ]
        },
        {
            "positions": [
                0.12411034177966533,
                -1.136712889413578,
                1.9656345651200442,
                -0.7484919022937205,
                0.13570863195826482,
                -3.2232528683530073
            ]
        }
    ]
}{
    "goal": {
        "global_pose": {
            "orientation": {
                "w": 0.7047431468963623,
                "x": -0.7094548344612122,
                "y": 0.0024358443915843964,
                "z": -0.0022348060738295317
            },
            "position": {
                "x": 0.6094750761985779,
                "y": 0.3671506643295288,
                "z": 0.19426114857196808
            }
        },
        "name": "move_to_magneteinheit_A"
    },
    "id": "LBTRRT_move_to_magneteinheit_A_41",
    "joint_names": [
        "shoulder_pan_joint",
        "shoulder_lift_joint",
        "elbow_joint",
        "wrist_1_joint",
        "wrist_2_joint",
        "wrist_3_joint"
    ],
    "metrics": {
        "cart_traj_len": 1.3366875210103404,
        "distance_elbow_joint": 0.4077071205489209,
        "distance_shoulder_lift_joint": 0.928403982246965,
        "distance_shoulder_pan_joint": 1.2422719278729093,
        "distance_wrist_1_joint": 0.7466872277613023,
        "distance_wrist_2_joint": 1.4352326293077236,
        "distance_wrist_3_joint": 4.2436352076368955,
        "smoothness": 0.1372466166297541,
        "time": 5.026152083,
        "traj_len": 3.000656277445772,
        "weighted_distance": 4.435440042173667
    },
    "planner": "LBTRRT",
    "start": {
        "state": {
            "elbow_joint": 1.919643534880228,
            "shoulder_lift_joint": -1.8972525353963687,
            "shoulder_pan_joint": -1.1188672234189438,
            "wrist_1_joint": -1.5931878212786155,
            "wrist_2_joint": 1.5706036197970081,
            "wrist_3_joint": 1.118896926603594
        }
    },
    "waypoints": [
        {
            "positions": [
                -1.1188672234189438,
                -1.8972525353963687,
                1.919643534880228,
                -1.5931878212786155,
                1.5706036197970081,
                1.118896926603594
            ]
        },
        {
            "positions": [
                -1.0685782545571305,
                -1.8572939656988945,
                1.9115387521932754,
                -1.5576330546905874,
                1.5054527226794254,
                0.9379374714579434
            ]
        },
        {
            "positions": [
                -1.0182892856953174,
                -1.8173353960014202,
                1.903433969506323,
                -1.5220782881025592,
                1.4403018255618425,
                0.7569780163122928
            ]
        },
        {
            "positions": [
                -0.9680003168335042,
                -1.777376826303946,
                1.8953291868193702,
                -1.4865235215145312,
                1.3751509284442598,
                0.5760185611666422
            ]
        },
        {
            "positions": [
                -0.917711347971691,
                -1.7374182566064718,
                1.8872244041324175,
                -1.4509687549265031,
                1.3100000313266769,
                0.3950591060209916
            ]
        },
        {
            "positions": [
                -0.8674223791098777,
                -1.6974596869089975,
                1.879119621445465,
                -1.4154139883384749,
                1.2448491342090942,
                0.214099650875341
            ]
        },
        {
            "positions": [
                -0.8171334102480645,
                -1.6575011172115233,
                1.8710148387585124,
                -1.3798592217504468,
                1.1796982370915114,
                0.0331401957296904
            ]
        },
        {
            "positions": [
                -0.7668444413862513,
                -1.617542547514049,
                1.8629100560715597,
                -1.3443044551624188,
                1.1145473399739285,
                -0.1478192594159602
            ]
        },
        {
            "positions": [
                -0.7165554725244381,
                -1.5775839778165748,
                1.8548052733846072,
                -1.3087496885743906,
                1.0493964428563456,
                -0.3287787145616108
            ]
        },
        {
            "positions": [
                -0.6662665036626249,
                -1.5376254081191005,
                1.8467004906976545,
                -1.2731949219863625,
                0.984245545738763,
                -0.5097381697072614
            ]
        },
        {
            "positions": [
                -0.6159775348008116,
                -1.4976668384216263,
                1.8385957080107018,
                -1.2376401553983345,
                0.9190946486211802,
                -0.690697624852912
            ]
        },
        {
            "positions": [
                -0.5656885659389983,
                -1.457708268724152,
                1.8304909253237494,
                -1.2020853888103062,
                0.8539437515035972,
                -0.8716570799985626
            ]
        },
        {
            "positions": [
                -0.5153995970771852,
                -1.4177496990266778,
                1.8223861426367967,
                -1.1665306222222782,
                0.7887928543860145,
                -1.0526165351442132
            ]
        },
        {
            "positions": [
                -0.46511062821537186,
                -1.3777911293292036,
                1.814281359949844,
                -1.13097585563425,
                0.7236419572684317,
                -1.2335759902898638
            ]
        },
        {
            "positions": [
                -0.41482165935355875,
                -1.3378325596317293,
                1.8061765772628915,
                -1.095421089046222,
                0.6584910601508489,
                -1.4145354454355143
            ]
        },
        {
            "positions": [
                -0.3645326904917454,
                -1.297873989934255,
                1.7980717945759388,
                -1.059866322458194,
                0.5933401630332661,
                -1.595494900581165
            ]
        },
        {
            "positions": [
                -0.3142437216299323,
                -1.2579154202367808,
                1.789967011888986,
                -1.0243115558701659,
                0.5281892659156833,
                -1.7764543557268155
            ]
        },
        {
            "positions": [
                -0.26395475276811897,
                -1.2179568505393066,
                1.7818622292020336,
                -0.9887567892821377,
                0.46303836879810056,
                -1.9574138108724661
            ]
        },
        {
            "positions": [
                -0.21366578390630586,
                -1.1779982808418323,
                1.773757446515081,
                -0.9532020226941096,
                0.39788747168051786,
                -2.1383732660181165
            ]
        },
        {
            "positions": [
                -0.16337681504449253,
                -1.138039711144358,
                1.7656526638281282,
                -0.9176472561060814,
                0.33273657456293493,
                -2.319332721163767
            ]
        },
        {
            "positions": [
                -0.11308784618267942,
                -1.0980811414468838,
                1.7575478811411758,
                -0.8820924895180534,
                0.2675856774453522,
                -2.5002921763094177
            ]
        },
        {
            "positions": [
                -0.062798877320866,
                -1.0581225717494096,
                1.749443098454223,
                -0.8465377229300253,
                0.20243478032776926,
                -2.6812516314550683
            ]
        },
        {
            "positions": [
                -0.0007310167292554001,
                -1.0878805779494116,
                1.8286119931618616,
                -0.8465253464591213,
                0.18008018371494094,
                -2.829080514647813
            ]
        },
        {
            "positions": [
                0.0613368438623552,
                -1.1176385841494134,
                1.9077808878695004,
                -0.8465129699882172,
                0.1577255871021126,
                -2.9769093978405574
            ]
        },
        {
            "positions": [
                0.12340470445396583,
                -1.1473965903494154,
                1.986949782577139,
                -0.8465005935173132,
                0.13537099048928428,
                -3.124738281033302
            ]
        }
    ]
}