{
    "goal": {
        "global_pose": {
            "orientation": {
                "w": 0.5084816217422485,
                "x": -0.49083608388900757,
                "y": 0.5182115435600281,
                "z": -0.4816462993621826
            },
            "position": {
                "x": 0.5540239810943604,
                "y": 0.030875300988554955,
                "z": 0.16403168439865112
            }
        },
        "name": "move_to_storage_A"
    },
    "id": "LBTRRT_move_to_storage_A_3",
    "joint_names": [
        "shoulder_pan_joint",
        "shoulder_lift_joint",
        "elbow_joint",
        "wrist_1_joint",
        "wrist_2_joint",
        "wrist_3_joint"
    ],
    "metrics": {
        "cart_traj_len": 0.3527110846589118,
        "distance_elbow_joint": 0.4501070661751472,
        "distance_shoulder_lift_joint": 0.2349137628711817,
        "distance_shoulder_pan_joint": 0.45719765394727835,
        "distance_wrist_1_joint": 0.24294772440549928,
        "distance_wrist_2_joint": 1.1157145556583123,
        "distance_wrist_3_joint": 0.10074127207529138,
        "smoothness": 0.0,
        "time": 5.00321684,
        "traj_len": 1.6129544429811744,
        "weighted_distance": 2.040040896488868
    },
    "planner": "LBTRRT",
    "start": {
        "state": {
            "elbow_joint": 1.9715477243005601,
            "shoulder_lift_joint": -1.1394853015351272,
            "shoulder_pan_joint": 0.12281154014795169,
            "wrist_1_joint": -0.7804696478968182,
            "wrist_2_joint": 0.12958648046900423,
            "wrist_3_joint": -3.192491284697111
        }
    },
    "waypoints": [
        {
            "positions": [
                0.12281154014795169,
                -1.1394853015351272,
                1.9715477243005601,
                -0.7804696478968182,
                0.12958648046900423,
                -3.192491284697111
            ]
        },
        {
            "positions": [
                0.05749758958405479,
                -1.1730444105167246,
                2.0358487337541527,
                -0.8151764656690323,
                0.2889742741344774,
                -3.178099674400641
            ]
        },
        {
            "positions": [
                -0.007816360979842105,
                -1.206603519498322,
                2.100149743207745,
                -0.8498832834412465,
                0.4483620677999506,
                -3.1637080641041706
            ]
        },
        {
            "positions": [
                -0.07313031154373902,
                -1.2401626284799194,
                2.1644507526613377,
                -0.8845901012134607,
                0.6077498614654238,
                -3.1493164538077005
            ]
        },
        {
            "positions": [
                -0.13844426210763588,
                -1.2737217374615166,
                2.2287517621149298,
                -0.9192969189856749,
                0.7671376551308969,
                -3.1349248435112305
            ]
        },
        {
            "positions": [
                -0.20375821267153282,
                -1.307280846443114,
                2.2930527715685223,
                -0.9540037367578891,
                0.9265254487963702,
                -3.1205332332147604
            ]
        },
        {
            "positions": [
                -0.2690721632354297,
                -1.3408399554247115,
                2.357353781022115,
                -0.9887105545301033,
                1.0859132424618432,
                -3.10614162291829
            ]
        },
        {
            "positions": [
                -0.33438611379932665,
                -1.3743990644063089,
                2.4216547904757073,
                -1.0234173723023174,
                1.2453010361273165,
                -3.09175001262182
            ]
        }
    ]
}