{
    "goal": {
        "global_pose": {
            "orientation": {
                "w": 0.7047431468963623,
                "x": -0.7094548344612122,
                "y": 0.0024358443915843964,
                "z": -0.0022348060738295317
            },
            "position": {
                "x": 0.6094750761985779,
                "y": 0.3671506643295288,
                "z": 0.19426114857196808
            }
        },
        "name": "move_to_magneteinheit_A"
    },
    "id": "LBTRRT_move_to_magneteinheit_A_77",
    "joint_names": [
        "shoulder_pan_joint",
        "shoulder_lift_joint",
        "elbow_joint",
        "wrist_1_joint",
        "wrist_2_joint",
        "wrist_3_joint"
    ],
    "metrics": {
        "cart_traj_len": 3.3028040185135263,
        "distance_elbow_joint": 3.930256019539641,
        "distance_shoulder_lift_joint": 0.505173015014337,
        "distance_shoulder_pan_joint": 2.829393195259262,
        "distance_wrist_1_joint": 3.527439222158137,
        "distance_wrist_2_joint": 2.4506097651673424,
        "distance_wrist_3_joint": 0.6889701217386551,
        "smoothness": 0.17101856691382186,
        "time": 5.034318835,
        "traj_len": 3.7325381898752727,
        "weighted_distance": 4.613873705432362
    },
    "planner": "LBTRRT",
    "start": {
        "state": {
            "elbow_joint": -1.919618573717145,
            "shoulder_lift_joint": -1.2443395971678275,
            "shoulder_pan_joint": 2.6996025300909787,
            "wrist_1_joint": -1.548550951253194,
            "wrist_2_joint": -1.5709469090946802,
            "wrist_3_joint": 0.4420197732051276
        }
    },
    "waypoints": [
        {
            "positions": [
                2.6996025300909787,
                -1.2443395971678275,
                -1.919618573717145,
                -1.548550951253194,
                -1.5709469090946802,
                0.4420197732051276
            ]
        },
        {
            "positions": [
                2.6043555331791626,
                -1.229097547126756,
                -1.8393093546798023,
                -1.4463483428106958,
                -1.4913175222484087,
                0.42045913722930056
            ]
        },
        {
            "positions": [
                2.5091085362673464,
                -1.2138554970856845,
                -1.7590001356424596,
                -1.3441457343681973,
                -1.4116881354021373,
                0.39889850125347354
            ]
        },
        {
            "positions": [
                2.4138615393555303,
                -1.1986134470446128,
                -1.678690916605117,
                -1.2419431259256988,
                -1.332058748555866,
                0.37733786527764657
            ]
        },
        {
            "positions": [
                2.318614542443714,
                -1.1833713970035413,
                -1.598381697567774,
                -1.1397405174832005,
                -1.2524293617095945,
                0.35577722930181954
            ]
        },
        {
            "positions": [
                2.223367545531898,
                -1.1681293469624698,
                -1.5180724785304314,
                -1.0375379090407022,
                -1.172799974863323,
                0.3342165933259925
            ]
        },
        {
            "positions": [
                2.128120548620082,
                -1.1528872969213984,
                -1.4377632594930887,
                -0.9353353005982037,
                -1.0931705880170517,
                0.3126559573501655
            ]
        },
        {
            "positions": [
                2.0328735517082657,
                -1.1376452468803269,
                -1.357454040455746,
                -0.8331326921557053,
                -1.01354120117078,
                0.29109532137433847
            ]
        },
        {
            "positions": [
                1.9376265547964497,
                -1.1224031968392554,
                -1.2771448214184034,
                -0.7309300837132069,
                -0.9339118143245089,
                0.26953468539851144
            ]
        },
        {
            "positions": [
                1.8423795578846336,
                -1.107161146798184,
                -1.1968356023810607,
                -0.6287274752707085,
                -0.8542824274782373,
                0.24797404942268444
            ]
        },
        {
            "positions": [
                1.7471325609728172,
                -1.0919190967571122,
                -1.116526383343718,
                -0.5265248668282101,
                -0.7746530406319659,
                0.22641341344685742
            ]
        },
        {
            "positions": [
                1.6518855640610013,
                -1.0766770467160407,
                -1.0362171643063753,
                -0.4243222583857118,
                -0.6950236537856945,
                0.20485277747103042
            ]
        },
        {
            "positions": [
                1.5566385671491851,
                -1.0614349966749692,
                -0.9559079452690326,
                -0.3221196499432133,
                -0.6153942669394231,
                0.1832921414952034
            ]
        },
        {
            "positions": [
                1.461391570237369,
                -1.0461929466338977,
                -0.87559872623169,
                -0.219917041500715,
                -0.5357648800931518,
                0.16173150551937643
            ]
        },
        {
            "positions": [
                1.3661445733255528,
                -1.0309508965928262,
                -0.7952895071943471,
                -0.1177144330582165,
                -0.4561354932468802,
                0.14017086954354935
            ]
        },
        {
            "positions": [
                1.2708975764137367,
                -1.0157088465517545,
                -0.7149802881570044,
                -0.015511824615717984,
                -0.3765061064006088,
                0.11861023356772232
            ]
        },
        {
            "positions": [
                1.1756505795019208,
                -1.000466796510683,
                -0.6346710691196618,
                0.0866907838267803,
                -0.2968767195543376,
                0.09704959759189535
            ]
        },
        {
            "positions": [
                1.0804035825901044,
                -0.9852247464696116,
                -0.5543618500823191,
                0.18889339226927881,
                -0.21724733270806595,
                0.07548896161606827
            ]
        },
        {
            "positions": [
                0.9851565856782885,
                -0.9699826964285401,
                -0.4740526310449764,
                0.2910960007117771,
                -0.13761794586179454,
                0.053928325640241304
            ]
        },
        {
            "positions": [
                0.8899095887664723,
                -0.9547406463874686,
                -0.39374341200763374,
                0.3932986091542754,
                -0.057988559015523355,
                0.032367689664414334
            ]
        },
        {
            "positions": [
                0.7946625918546559,
                -0.939498596346397,
                -0.31343419297029085,
                0.4955012175967739,
                0.021640827830748277,
                0.010807053688587254
            ]
        },
        {
            "positions": [
                0.69941559494284,
                -0.9242565463053255,
                -0.23312497393294818,
                0.5977038260392722,
                0.10127021467701969,
                -0.010753582287239716
            ]
        },
        {
            "positions": [
                0.6041685980310239,
                -0.909014496264254,
                -0.15281575489560573,
                0.6999064344817705,
                0.1808996015232911,
                -0.03231421826306674
            ]
        },
        {
            "positions": [
                0.5089216011192077,
                -0.8937724462231824,
                -0.07250653585826283,
                0.8021090429242692,
                0.2605289883695625,
                -0.05387485423889382
            ]
        },
        {
            "positions": [
                0.41367460420739155,
                -0.8785303961821109,
                0.0078026831790798945,
                0.9043116513667673,
                0.340158375215834,
                -0.07543549021472085
            ]
        },
        {
            "positions": [
                0.36427928412618565,
                -0.8667480551041269,
                0.15209777426383286,
                0.9986631094615213,
                0.34759643312223754,
                -0.07064779722699499
            ]
        },
        {
            "positions": [
                0.31488396404497976,
                -0.8549657140261429,
                0.29639286534858583,
                1.0930145675562755,
                0.35503449102864115,
                -0.06586010423926913
            ]
        },
        {
            "positions": [
                0.2654886439637739,
                -0.8431833729481588,
                0.4406879564333388,
                1.1873660256510294,
                0.3624725489350447,
                -0.061072411251543265
            ]
        },
        {
            "positions": [
                0.21609332388256802,
                -0.8314010318701748,
                0.5849830475180918,
                1.2817174837457834,
                0.3699106068414483,
                -0.05628471826381741
            ]
        },
        {
            "positions": [
                0.179528773325563,
                -0.8199165637371948,
                0.7736495589368271,
                1.3845596341869788,
                0.34360496608437135,
                -0.04435694534322395
            ]
        },
        {
            "positions": [
                0.142964222768558,
                -0.8084320956042148,
                0.9623160703555624,
                1.4874017846281742,
                0.31729932532729443,
                -0.03242917242263049
            ]
        },
        {
            "positions": [
                0.10639967221155297,
                -0.7969476274712348,
                1.1509825817742976,
                1.5902439350693696,
                0.29099368457021746,
                -0.020501399502037033
            ]
        },
        {
            "positions": [
                0.06983512165454797,
                -0.785463159338255,
                1.339649093193033,
                1.693086085510565,
                0.2646880438131406,
                -0.008573626581443575
            ]
        },
        {
            "positions": [
                0.03327057109754292,
                -0.773978691205275,
                1.5283156046117683,
                1.7959282359517603,
                0.23838240305606362,
                0.003354146339149884
            ]
        },
        {
            "positions": [
                -0.003293979459462068,
                -0.762494223072295,
                1.7169821160305037,
                1.8987703863929557,
                0.2120767622989867,
                0.015281919259743346
            ]
        },
        {
            "positions": [
                0.03887158244347795,
                -0.7702701033785632,
                1.8148672259611678,
                1.9254763478969514,
                0.09477062740273588,
                -0.011650563688370929
            ]
        },
        {
            "positions": [
                0.08103714434641797,
                -0.7780459836848312,
                1.9127523358918317,
                1.9521823094009474,
                -0.022535507493514934,
                -0.03858304663648521
            ]
        },
        {
            "positions": [
                0.12320270624935799,
                -0.7858218639910994,
                2.010637445822496,
                1.9788882709049431,
                -0.13984164238976574,
                -0.06551552958459948
            ]
        }
    ]
}{
    "goal": {
        "global_pose": {
            "orientation": {
                "w": 0.7047431468963623,
                "x": -0.7094548344612122,
                "y": 0.0024358443915843964,
                "z": -0.0022348060738295317
            },
            "position": {
                "x": 0.6094750761985779,
                "y": 0.3671506643295288,
                "z": 0.19426114857196808
            }
        },
        "name": "move_to_magneteinheit_A"
    },
    "id": "LBTRRT_move_to_magneteinheit_A_77",
    "joint_names": [
        "shoulder_pan_joint",
        "shoulder_lift_joint",
        "elbow_joint",
        "wrist_1_joint",
        "wrist_2_joint",
        "wrist_3_joint"
    ],
    "metrics": {
        "cart_traj_len": 1.3747670418568887,
        "distance_elbow_joint": 1.004194977752863,
        "distance_shoulder_lift_joint": 0.7681642073936186,
        "distance_shoulder_pan_joint": 1.2411846202486831,
        "distance_wrist_1_joint": 0.8897814802307513,
        "distance_wrist_2_joint": 1.4464383646398586,
        "distance_wrist_3_joint": 4.38939221328825,
        "smoothness": 0.11112638431183212,
        "time": 5.049518944,
        "traj_len": 3.1207620645531478,
        "weighted_distance": 4.566635537789406
    },
    "planner": "LBTRRT",
    "start": {
        "state": {
            "elbow_joint": 1.919643534880228,
            "shoulder_lift_joint": -1.8972525353963687,
            "shoulder_pan_joint": -1.1188672234189438,
            "wrist_1_joint": -1.5931878212786155,
            "wrist_2_joint": 1.5706036197970081,
            "wrist_3_joint": 1.118896926603594
        }
    },
    "waypoints": [
        {
            "positions": [
                -1.1188672234189438,
                -1.8972525353963687,
                1.919643534880228,
                -1.5931878212786155,
                1.5706036197970081,
                1.118896926603594
            ]
        },
        {
            "positions": [
                -1.1065487937705147,
                -1.8717517591074229,
                1.9542618843742623,
                -1.5685833692313111,
                1.5431402514980577,
                0.8714607977990532
            ]
        },
        {
            "positions": [
                -1.0942303641220856,
                -1.8462509828184768,
                1.9888802338682965,
                -1.543978917184007,
                1.5156768831991072,
                0.6240246689945123
            ]
        },
        {
            "positions": [
                -1.0819119344736565,
                -1.820750206529531,
                2.0234985833623305,
                -1.5193744651367027,
                1.4882135149001565,
                0.37658854018997134
            ]
        },
        {
            "positions": [
                -1.0695935048252274,
                -1.7952494302405848,
                2.0581169328563647,
                -1.4947700130893984,
                1.460750146601206,
                0.12915241138543054
            ]
        },
        {
            "positions": [
                -1.0572750751767983,
                -1.769748653951639,
                2.092735282350399,
                -1.470165561042094,
                1.4332867783022556,
                -0.11828371741911026
            ]
        },
        {
            "positions": [
                -1.0449566455283692,
                -1.7442478776626928,
                2.127353631844433,
                -1.44556110899479,
                1.4058234100033051,
                -0.3657198462236513
            ]
        },
        {
            "positions": [
                -1.03263821587994,
                -1.718747101373747,
                2.1619719813384672,
                -1.4209566569474856,
                1.3783600417043547,
                -0.6131559750281921
            ]
        },
        {
            "positions": [
                -1.020319786231511,
                -1.6932463250848009,
                2.1965903308325014,
                -1.3963522049001813,
                1.350896673405404,
                -0.8605921038327329
            ]
        },
        {
            "positions": [
                -1.0080013565830819,
                -1.667745548795855,
                2.2312086803265356,
                -1.371747752852877,
                1.3234333051064535,
                -1.1080282326372737
            ]
        },
        {
            "positions": [
                -0.9956829269346528,
                -1.642244772506909,
                2.26582702982057,
                -1.3471433008055729,
                1.295969936807503,
                -1.3554643614418145
            ]
        },
        {
            "positions": [
                -0.9833644972862237,
                -1.616743996217963,
                2.3004453793146036,
                -1.3225388487582685,
                1.2685065685085526,
                -1.6029004902463553
            ]
        },
        {
            "positions": [
                -0.9710460676377946,
                -1.591243219929017,
                2.3350637288086378,
                -1.2979343967109642,
                1.2410432002096021,
                -1.8503366190508965
            ]
        },
        {
            "positions": [
                -0.9587276379893654,
                -1.565742443640071,
                2.369682078302672,
                -1.2733299446636601,
                1.2135798319106514,
                -2.097772747855437
            ]
        },
        {
            "positions": [
                -0.9464092083409363,
                -1.540241667351125,
                2.404300427796706,
                -1.2487254926163558,
                1.186116463611701,
                -2.345208876659978
            ]
        },
        {
            "positions": [
                -0.9340907786925072,
                -1.5147408910621791,
                2.4389187772907404,
                -1.2241210405690515,
                1.1586530953127505,
                -2.5926450054645187
            ]
        },
        {
            "positions": [
                -0.8380536718268484,
                -1.4796815671476855,
                2.3948351649868904,
                -1.1767833406125798,
                1.0646087462076959,
                -2.654267758302713
            ]
        },
        {
            "positions": [
                -0.7420165649611896,
                -1.444622243233192,
                2.35075155268304,
                -1.1294456406561084,
                0.9705643971026412,
                -2.7158905111409073
            ]
        },
        {
            "positions": [
                -0.6459794580955309,
                -1.4095629193186985,
                2.30666794037919,
                -1.0821079406996368,
                0.8765200479975865,
                -2.777513263979101
            ]
        },
        {
            "positions": [
                -0.549942351229872,
                -1.3745035954042049,
                2.26258432807534,
                -1.0347702407431651,
                0.7824756988925319,
                -2.8391360168172954
            ]
        },
        {
            "positions": [
                -0.45390524436421326,
                -1.3394442714897115,
                2.21850071577149,
                -0.9874325407866936,
                0.6884313497874773,
                -2.9007587696554897
            ]
        },
        {
            "positions": [
                -0.3578681374985545,
                -1.3043849475752178,
                2.17441710346764,
                -0.9400948408302221,
                0.5943870006824227,
                -2.962381522493684
            ]
        },
        {
            "positions": [
                -0.2618310306328957,
                -1.2693256236607244,
                2.13033349116379,
                -0.8927571408737505,
                0.500342651577368,
                -3.0240042753318783
            ]
        },
        {
            "positions": [
                -0.1657939237672369,
                -1.2342662997462308,
                2.08624987885994,
                -0.8454194409172788,
                0.40629830247231336,
                -3.0856270281700726
            ]
        },
        {
            "positions": [
                -0.06975681690157798,
                -1.1992069758317372,
                2.04216626655609,
                -0.7980817409608072,
                0.3122539533672587,
                -3.1472497810082665
            ]
        },
        {
            "positions": [
                0.026280289964080716,
                -1.1641476519172438,
                1.9980826542522396,
                -0.7507440410043358,
                0.21820960426220415,
                -3.2088725338464608
            ]
        },
        {
            "positions": [
                0.1223173968297395,
                -1.1290883280027502,
                1.9539990419483897,
                -0.7034063410478641,
                0.12416525515714939,
                -3.270495286684655
            ]
        }
    ]
}