{
    "goal": {
        "global_pose": {
            "orientation": {
                "w": 0.5084816217422485,
                "x": -0.49083608388900757,
                "y": 0.5182115435600281,
                "z": -0.4816462993621826
            },
            "position": {
                "x": 0.5540239810943604,
                "y": 0.030875300988554955,
                "z": 0.16403168439865112
            }
        },
        "name": "move_to_storage_A"
    },
    "id": "LBTRRT_move_to_storage_A_42",
    "joint_names": [
        "shoulder_pan_joint",
        "shoulder_lift_joint",
        "elbow_joint",
        "wrist_1_joint",
        "wrist_2_joint",
        "wrist_3_joint"
    ],
    "metrics": {
        "cart_traj_len": 0.3528099792101726,
        "distance_elbow_joint": 0.45479188255908687,
        "distance_shoulder_lift_joint": 0.2340648047831404,
        "distance_shoulder_pan_joint": 0.4606728598150833,
        "distance_wrist_1_joint": 0.26086854378603264,
        "distance_wrist_2_joint": 1.1018335759305287,
        "distance_wrist_3_joint": 0.09594411399403624,
        "smoothness": 8.881784267329941e-16,
        "time": 5.0033843639999995,
        "traj_len": 1.6149847618067201,
        "weighted_distance": 2.040285795807181
    },
    "planner": "LBTRRT",
    "start": {
        "state": {
            "elbow_joint": 1.9715477243005601,
            "shoulder_lift_joint": -1.1394853015351272,
            "shoulder_pan_joint": 0.12281154014795169,
            "wrist_1_joint": -0.7804696478968182,
            "wrist_2_joint": 0.12958648046900423,
            "wrist_3_joint": -3.192491284697111
        }
    },
    "waypoints": [
        {
            "positions": [
                0.12281154014795169,
                -1.1394853015351272,
                1.9715477243005601,
                -0.7804696478968182,
                0.12958648046900423,
                -3.192491284697111
            ]
        },
        {
            "positions": [
                0.05700113160293979,
                -1.1729231307898615,
                2.0365179932375725,
                -0.8177365827233942,
                0.2869912770305083,
                -3.1787849826979633
            ]
        },
        {
            "positions": [
                -0.008809276942072106,
                -1.206360960044596,
                2.101488262174585,
                -0.8550035175499704,
                0.4443960735920124,
                -3.165078680698815
            ]
        },
        {
            "positions": [
                -0.07461968548708402,
                -1.2397987892993303,
                2.1664585311115974,
                -0.8922704523765465,
                0.6018008701535165,
                -3.151372378699667
            ]
        },
        {
            "positions": [
                -0.1404300940320959,
                -1.2732366185540644,
                2.2314288000486098,
                -0.9295373872031225,
                0.7592056667150205,
                -3.137666076700519
            ]
        },
        {
            "positions": [
                -0.2062405025771078,
                -1.3066744478087988,
                2.296399068985622,
                -0.9668043220296987,
                0.9166104632765247,
                -3.123959774701371
            ]
        },
        {
            "positions": [
                -0.2720509111221197,
                -1.3401122770635332,
                2.3613693379226346,
                -1.0040712568562746,
                1.0740152598380286,
                -3.110253472702223
            ]
        },
        {
            "positions": [
                -0.3378613196671316,
                -1.3735501063182676,
                2.426339606859647,
                -1.0413381916828508,
                1.231420056399533,
                -3.096547170703075
            ]
        }
    ]
}