{
    "goal": {
        "global_pose": {
            "orientation": {
                "w": 0.7047431468963623,
                "x": -0.7094548344612122,
                "y": 0.0024358443915843964,
                "z": -0.0022348060738295317
            },
            "position": {
                "x": 0.6094750761985779,
                "y": 0.3671506643295288,
                "z": 0.19426114857196808
            }
        },
        "name": "move_to_magneteinheit_A"
    },
    "id": "LBTRRT_move_to_magneteinheit_A_43",
    "joint_names": [
        "shoulder_pan_joint",
        "shoulder_lift_joint",
        "elbow_joint",
        "wrist_1_joint",
        "wrist_2_joint",
        "wrist_3_joint"
    ],
    "metrics": {
        "cart_traj_len": 3.331744938073164,
        "distance_elbow_joint": 3.9384725243170795,
        "distance_shoulder_lift_joint": 1.021260837380247,
        "distance_shoulder_pan_joint": 2.8409816469595706,
        "distance_wrist_1_joint": 3.5729606125940165,
        "distance_wrist_2_joint": 1.447950396618729,
        "distance_wrist_3_joint": 1.2795725520074412,
        "smoothness": 0.10969969322020182,
        "time": 5.023019829,
        "traj_len": 3.755156264375303,
        "weighted_distance": 4.656313421914887
    },
    "planner": "LBTRRT",
    "start": {
        "state": {
            "elbow_joint": -1.919618573717145,
            "shoulder_lift_joint": -1.2443395971678275,
            "shoulder_pan_joint": 2.6996025300909787,
            "wrist_1_joint": -1.548550951253194,
            "wrist_2_joint": -1.5709469090946802,
            "wrist_3_joint": 0.4420197732051276
        }
    },
    "waypoints": [
        {
            "positions": [
                2.6996025300909787,
                -1.2443395971678275,
                -1.919618573717145,
                -1.548550951253194,
                -1.5709469090946802,
                0.4420197732051276
            ]
        },
        {
            "positions": [
                2.5706091934694917,
                -1.2091677812467871,
                -1.8596105718526985,
                -1.479432992831426,
                -1.521891132058509,
                0.3982639145198049
            ]
        },
        {
            "positions": [
                2.4416158568480046,
                -1.173995965325747,
                -1.799602569988252,
                -1.4103150344096582,
                -1.4728353550223379,
                0.3545080558344822
            ]
        },
        {
            "positions": [
                2.3126225202265176,
                -1.1388241494047067,
                -1.7395945681238056,
                -1.3411970759878902,
                -1.4237795779861666,
                0.31075219714915947
            ]
        },
        {
            "positions": [
                2.1836291836050306,
                -1.1036523334836665,
                -1.6795865662593592,
                -1.2720791175661221,
                -1.3747238009499954,
                0.2669963384638368
            ]
        },
        {
            "positions": [
                2.0546358469835435,
                -1.0684805175626262,
                -1.6195785643949128,
                -1.2029611591443543,
                -1.3256680239138243,
                0.2232404797785141
            ]
        },
        {
            "positions": [
                1.9256425103620567,
                -1.033308701641586,
                -1.559570562530466,
                -1.1338432007225863,
                -1.276612246877653,
                0.1794846210931914
            ]
        },
        {
            "positions": [
                1.7966491737405696,
                -0.9981368857205457,
                -1.49956256066602,
                -1.0647252423008182,
                -1.227556469841482,
                0.13572876240786874
            ]
        },
        {
            "positions": [
                1.6676558371190826,
                -0.9629650697995055,
                -1.4395545588015732,
                -0.9956072838790503,
                -1.1785006928053108,
                0.09197290372254602
            ]
        },
        {
            "positions": [
                1.5386625004975956,
                -0.9277932538784652,
                -1.379546556937127,
                -0.9264893254572822,
                -1.1294449157691395,
                0.04821704503722335
            ]
        },
        {
            "positions": [
                1.4096691638761085,
                -0.8926214379574249,
                -1.3195385550726804,
                -0.8573713670355143,
                -1.0803891387329685,
                0.004461186351900626
            ]
        },
        {
            "positions": [
                1.2806758272546215,
                -0.8574496220363848,
                -1.259530553208234,
                -0.7882534086137463,
                -1.031333361696797,
                -0.0392946723334221
            ]
        },
        {
            "positions": [
                1.1516824906331347,
                -0.8222778061153444,
                -1.1995225513437875,
                -0.7191354501919783,
                -0.982277584660626,
                -0.08305053101874477
            ]
        },
        {
            "positions": [
                1.0226891540116474,
                -0.7871059901943042,
                -1.1395145494793408,
                -0.6500174917702103,
                -0.9332218076244547,
                -0.1268063897040675
            ]
        },
        {
            "positions": [
                0.8936958173901606,
                -0.7519341742732639,
                -1.0795065476148946,
                -0.5808995333484424,
                -0.8841660305882837,
                -0.1705622483893901
            ]
        },
        {
            "positions": [
                0.7647024807686733,
                -0.7167623583522237,
                -1.019498545750448,
                -0.5117815749266743,
                -0.8351102535521124,
                -0.21431810707471294
            ]
        },
        {
            "positions": [
                0.6357091441471865,
                -0.6815905424311834,
                -0.9594905438860016,
                -0.4426636165049065,
                -0.7860544765159413,
                -0.25807396576003555
            ]
        },
        {
            "positions": [
                0.5067158075256994,
                -0.6464187265101432,
                -0.8994825420215551,
                -0.37354565808313844,
                -0.73699869947977,
                -0.3018298244453583
            ]
        },
        {
            "positions": [
                0.3777224709042124,
                -0.611246910589103,
                -0.8394745401571089,
                -0.3044276996613704,
                -0.6879429224435989,
                -0.3455856831306809
            ]
        },
        {
            "positions": [
                0.24872913428272536,
                -0.5760750946680626,
                -0.7794665382926622,
                -0.23530974123960235,
                -0.6388871454074277,
                -0.3893415418160037
            ]
        },
        {
            "positions": [
                0.11973579766123832,
                -0.5409032787470224,
                -0.7194585364282158,
                -0.16619178281783453,
                -0.5898313683712566,
                -0.43309740050132634
            ]
        },
        {
            "positions": [
                -0.009257538960248946,
                -0.5057314628259821,
                -0.6594505345637693,
                -0.09707382439606649,
                -0.5407755913350853,
                -0.476853259186649
            ]
        },
        {
            "positions": [
                -0.0009999403409773379,
                -0.5233972567658822,
                -0.4920565042410379,
                0.035518893462489154,
                -0.5146643989063894,
                -0.4543095392106699
            ]
        },
        {
            "positions": [
                0.00725765827829427,
                -0.5410630507057823,
                -0.3246624739183065,
                0.1681116113210448,
                -0.4885532064776934,
                -0.4317658192346909
            ]
        },
        {
            "positions": [
                0.015515256897565877,
                -0.5587288446456824,
                -0.15726844359557512,
                0.30070432917960044,
                -0.46244201404899743,
                -0.4092220992587118
            ]
        },
        {
            "positions": [
                0.023772855516837485,
                -0.5763946385855825,
                0.010125586727156355,
                0.4332970470381561,
                -0.43633082162030146,
                -0.38667837928273274
            ]
        },
        {
            "positions": [
                0.032030454136109096,
                -0.5940604325254827,
                0.17751961704988783,
                0.5658897648967117,
                -0.4102196291916055,
                -0.36413465930675365
            ]
        },
        {
            "positions": [
                0.0402880527553807,
                -0.6117262264653828,
                0.3449136473726191,
                0.6984824827552674,
                -0.3841084367629095,
                -0.34159093933077456
            ]
        },
        {
            "positions": [
                0.048545651374652304,
                -0.6293920204052829,
                0.5123076776953506,
                0.831075200613823,
                -0.35799724433421354,
                -0.3190472193547955
            ]
        },
        {
            "positions": [
                0.056803249993923915,
                -0.647057814345183,
                0.679701708018082,
                0.9636679184723786,
                -0.33188605190551757,
                -0.2965034993788164
            ]
        },
        {
            "positions": [
                0.06506084861319553,
                -0.664723608285083,
                0.8470957383408135,
                1.0962606363309342,
                -0.3057748594768216,
                -0.27395977940283733
            ]
        },
        {
            "positions": [
                0.07331844723246714,
                -0.6823894022249831,
                1.014489768663545,
                1.22885335418949,
                -0.27966366704812556,
                -0.2514160594268583
            ]
        },
        {
            "positions": [
                0.08157604585173873,
                -0.7000551961648833,
                1.1818837989862763,
                1.3614460720480457,
                -0.2535524746194296,
                -0.2288723394508792
            ]
        },
        {
            "positions": [
                0.08983364447101035,
                -0.7177209901047834,
                1.3492778293090075,
                1.4940387899066012,
                -0.22744128219073362,
                -0.2063286194749001
            ]
        },
        {
            "positions": [
                0.09809124309028196,
                -0.7353867840446835,
                1.5166718596317392,
                1.6266315077651567,
                -0.20133008976203765,
                -0.18378489949892107
            ]
        },
        {
            "positions": [
                0.10634884170955355,
                -0.7530525779845836,
                1.6840658899544705,
                1.7592242256237125,
                -0.17521889733334167,
                -0.16124117952294198
            ]
        },
        {
            "positions": [
                0.11460644032882517,
                -0.7707183719244837,
                1.8514599202772022,
                1.8918169434822683,
                -0.1491077049046457,
                -0.13869745954696294
            ]
        },
        {
            "positions": [
                0.12286403894809679,
                -0.7883841658643838,
                2.0188539505999334,
                2.024409661340824,
                -0.12299651247594974,
                -0.11615373957098385
            ]
        }
    ]
}{
    "goal": {
        "global_pose": {
            "orientation": {
                "w": 0.7047431468963623,
                "x": -0.7094548344612122,
                "y": 0.0024358443915843964,
                "z": -0.0022348060738295317
            },
            "position": {
                "x": 0.6094750761985779,
                "y": 0.3671506643295288,
                "z": 0.19426114857196808
            }
        },
        "name": "move_to_magneteinheit_A"
    },
    "id": "LBTRRT_move_to_magneteinheit_A_43",
    "joint_names": [
        "shoulder_pan_joint",
        "shoulder_lift_joint",
        "elbow_joint",
        "wrist_1_joint",
        "wrist_2_joint",
        "wrist_3_joint"
    ],
    "metrics": {
        "cart_traj_len": 1.1949928538560137,
        "distance_elbow_joint": 0.08392281476393881,
        "distance_shoulder_lift_joint": 0.7567878995546145,
        "distance_shoulder_pan_joint": 1.241571258066762,
        "distance_wrist_1_joint": 0.8070596660296636,
        "distance_wrist_2_joint": 1.4497277695746178,
        "distance_wrist_3_joint": 4.317446393881916,
        "smoothness": 0.05522246381606316,
        "time": 5.0489739280000006,
        "traj_len": 2.9421957449958205,
        "weighted_distance": 4.421334190630654
    },
    "planner": "LBTRRT",
    "start": {
        "state": {
            "elbow_joint": 1.919643534880228,
            "shoulder_lift_joint": -1.8972525353963687,
            "shoulder_pan_joint": -1.1188672234189438,
            "wrist_1_joint": -1.5931878212786155,
            "wrist_2_joint": 1.5706036197970081,
            "wrist_3_joint": 1.118896926603594
        }
    },
    "waypoints": [
        {
            "positions": [
                -1.1188672234189438,
                -1.8972525353963687,
                1.919643534880228,
                -1.5931878212786155,
                1.5706036197970081,
                1.118896926603594
            ]
        },
        {
            "positions": [
                -1.063350962510226,
                -1.8640939207539595,
                1.9227912197923913,
                -1.5579289768847517,
                1.5049624904259362,
                0.9248714300261404
            ]
        },
        {
            "positions": [
                -1.0078347016015083,
                -1.83093530611155,
                1.9259389047045548,
                -1.5226701324908878,
                1.439321361054864,
                0.7308459334486868
            ]
        },
        {
            "positions": [
                -0.9523184406927906,
                -1.7977766914691409,
                1.929086589616718,
                -1.487411288097024,
                1.3736802316837922,
                0.5368204368712332
            ]
        },
        {
            "positions": [
                -0.8968021797840728,
                -1.7646180768267314,
                1.9322342745288812,
                -1.4521524437031603,
                1.30803910231272,
                0.34279494029377944
            ]
        },
        {
            "positions": [
                -0.8412859188753551,
                -1.7314594621843222,
                1.9353819594410446,
                -1.4168935993092966,
                1.242397972941648,
                0.14876944371632583
            ]
        },
        {
            "positions": [
                -0.7857696579666373,
                -1.698300847541913,
                1.9385296443532078,
                -1.3816347549154326,
                1.1767568435705762,
                -0.04525605286112766
            ]
        },
        {
            "positions": [
                -0.7302533970579196,
                -1.6651422328995036,
                1.941677329265371,
                -1.346375910521569,
                1.111115714199504,
                -0.23928154943858138
            ]
        },
        {
            "positions": [
                -0.6747371361492018,
                -1.6319836182570944,
                1.9448250141775345,
                -1.3111170661277052,
                1.045474584828432,
                -0.4333070460160351
            ]
        },
        {
            "positions": [
                -0.619220875240484,
                -1.598825003614685,
                1.9479726990896977,
                -1.2758582217338414,
                0.97983345545736,
                -0.6273325425934888
            ]
        },
        {
            "positions": [
                -0.5637046143317663,
                -1.5656663889722757,
                1.951120384001861,
                -1.2405993773399775,
                0.9141923260862881,
                -0.8213580391709423
            ]
        },
        {
            "positions": [
                -0.5081883534230486,
                -1.5325077743298663,
                1.9542680689140242,
                -1.2053405329461138,
                0.8485511967152161,
                -1.015383535748396
            ]
        },
        {
            "positions": [
                -0.4526720925143308,
                -1.499349159687457,
                1.9574157538261876,
                -1.17008168855225,
                0.7829100673441441,
                -1.2094090323258493
            ]
        },
        {
            "positions": [
                -0.3971558316056131,
                -1.4661905450450479,
                1.9605634387383508,
                -1.134822844158386,
                0.717268937973072,
                -1.4034345289033034
            ]
        },
        {
            "positions": [
                -0.3416395706968953,
                -1.4330319304026384,
                1.963711123650514,
                -1.0995639997645223,
                0.6516278086020001,
                -1.5974600254807567
            ]
        },
        {
            "positions": [
                -0.2861233097881777,
                -1.3998733157602292,
                1.9668588085626775,
                -1.0643051553706586,
                0.5859866792309281,
                -1.7914855220582104
            ]
        },
        {
            "positions": [
                -0.23060704887945982,
                -1.3667147011178198,
                1.9700064934748407,
                -1.0290463109767947,
                0.5203455498598559,
                -1.9855110186356641
            ]
        },
        {
            "positions": [
                -0.17509078797074207,
                -1.3335560864754106,
                1.973154178387004,
                -0.993787466582931,
                0.454704420488784,
                -2.179536515213118
            ]
        },
        {
            "positions": [
                -0.1195745270620242,
                -1.3003974718330014,
                1.9763018632991673,
                -0.9585286221890672,
                0.3890632911177119,
                -2.373562011790572
            ]
        },
        {
            "positions": [
                -0.06405826615330645,
                -1.267238857190592,
                1.9794495482113306,
                -0.9232697777952035,
                0.32342216174663996,
                -2.5675875083680255
            ]
        },
        {
            "positions": [
                -0.008542005244588813,
                -1.2340802425481827,
                1.9825972331234938,
                -0.8880109334013396,
                0.25778103237556804,
                -2.7616130049454783
            ]
        },
        {
            "positions": [
                0.04697425566412905,
                -1.2009216279057733,
                1.9857449180356572,
                -0.8527520890074758,
                0.1921399030044959,
                -2.955638501522932
            ]
        },
        {
            "positions": [
                0.10249051657284677,
                -1.167763013263364,
                1.9888926029478204,
                -0.8174932446136121,
                0.12649877363342402,
                -3.1496639981003858
            ]
        },
        {
            "positions": [
                0.12270403464781811,
                -1.1404646358417543,
                1.974218856251474,
                -0.7861281552489519,
                0.13212169704445761,
                -3.1985494672783212
            ]
        }
    ]
}