{
    "goal": {
        "global_pose": {
            "orientation": {
                "w": 0.5084816217422485,
                "x": -0.49083608388900757,
                "y": 0.5182115435600281,
                "z": -0.4816462993621826
            },
            "position": {
                "x": 0.5540239810943604,
                "y": 0.030875300988554955,
                "z": 0.16403168439865112
            }
        },
        "name": "move_to_storage_A"
    },
    "id": "LBTRRT_move_to_storage_A_141",
    "joint_names": [
        "shoulder_pan_joint",
        "shoulder_lift_joint",
        "elbow_joint",
        "wrist_1_joint",
        "wrist_2_joint",
        "wrist_3_joint"
    ],
    "metrics": {
        "cart_traj_len": 0.3524950518153356,
        "distance_elbow_joint": 0.4487740744105535,
        "distance_shoulder_lift_joint": 0.23428357434679348,
        "distance_shoulder_pan_joint": 0.46113789935168387,
        "distance_wrist_1_joint": 0.24318477550971396,
        "distance_wrist_2_joint": 1.0961506892819637,
        "distance_wrist_3_joint": 0.09370871080195142,
        "smoothness": 4.440892098500626e-16,
        "time": 5.008340446,
        "traj_len": 1.6053783739986844,
        "weighted_distance": 2.025831338018602
    },
    "planner": "LBTRRT",
    "start": {
        "state": {
            "elbow_joint": 1.9715477243005601,
            "shoulder_lift_joint": -1.1394853015351272,
            "shoulder_pan_joint": 0.12281154014795169,
            "wrist_1_joint": -0.7804696478968182,
            "wrist_2_joint": 0.12958648046900423,
            "wrist_3_joint": -3.192491284697111
        }
    },
    "waypoints": [
        {
            "positions": [
                0.12281154014795169,
                -1.1394853015351272,
                1.9715477243005601,
                -0.7804696478968182,
                0.12958648046900423,
                -3.192491284697111
            ]
        },
        {
            "positions": [
                0.05693469738342542,
                -1.1729543835846692,
                2.0356583063592106,
                -0.8152103301124916,
                0.2861794360807133,
                -3.1791043260111183
            ]
        },
        {
            "positions": [
                -0.008942145381100844,
                -1.206423465634211,
                2.099768888417861,
                -0.8499510123281651,
                0.4427723916924224,
                -3.165717367325125
            ]
        },
        {
            "positions": [
                -0.07481898814562711,
                -1.239892547683753,
                2.1638794704765116,
                -0.8846916945438384,
                0.5993653473041315,
                -3.152330408639132
            ]
        },
        {
            "positions": [
                -0.14069583091015336,
                -1.2733616297332948,
                2.227990052535162,
                -0.9194323767595118,
                0.7559583029158405,
                -3.138943449953139
            ]
        },
        {
            "positions": [
                -0.20657267367467963,
                -1.3068307117828368,
                2.2921006345938126,
                -0.9541730589751853,
                0.9125512585275497,
                -3.125556491267146
            ]
        },
        {
            "positions": [
                -0.2724495164392059,
                -1.3402997938323786,
                2.356211216652463,
                -0.9889137411908586,
                1.0691442141392589,
                -3.1121695325811527
            ]
        },
        {
            "positions": [
                -0.33832635920373216,
                -1.3737688758819206,
                2.4203217987111136,
                -1.0236544234065321,
                1.225737169750968,
                -3.0987825738951598
            ]
        }
    ]
}