{
    "goal": {
        "global_pose": {
            "orientation": {
                "w": 0.7047431468963623,
                "x": -0.7094548344612122,
                "y": 0.0024358443915843964,
                "z": -0.0022348060738295317
            },
            "position": {
                "x": 0.6094750761985779,
                "y": 0.3671506643295288,
                "z": 0.19426114857196808
            }
        },
        "name": "move_to_magneteinheit_A"
    },
    "id": "LBTRRT_move_to_magneteinheit_A_29",
    "joint_names": [
        "shoulder_pan_joint",
        "shoulder_lift_joint",
        "elbow_joint",
        "wrist_1_joint",
        "wrist_2_joint",
        "wrist_3_joint"
    ],
    "metrics": {
        "cart_traj_len": 3.4911033211272837,
        "distance_elbow_joint": 3.9235577434469278,
        "distance_shoulder_lift_joint": 0.461523030586786,
        "distance_shoulder_pan_joint": 3.1369189297779116,
        "distance_wrist_1_joint": 3.5085911197925244,
        "distance_wrist_2_joint": 1.440895420941449,
        "distance_wrist_3_joint": 0.47209418936757885,
        "smoothness": 0.08677806752847145,
        "time": 5.035153193,
        "traj_len": 3.597718781938519,
        "weighted_distance": 4.340190704725117
    },
    "planner": "LBTRRT",
    "start": {
        "state": {
            "elbow_joint": -1.919618573717145,
            "shoulder_lift_joint": -1.2443395971678275,
            "shoulder_pan_joint": 2.6996025300909787,
            "wrist_1_joint": -1.548550951253194,
            "wrist_2_joint": -1.5709469090946802,
            "wrist_3_joint": 0.4420197732051276
        }
    },
    "waypoints": [
        {
            "positions": [
                2.6996025300909787,
                -1.2443395971678275,
                -1.919618573717145,
                -1.548550951253194,
                -1.5709469090946802,
                0.4420197732051276
            ]
        },
        {
            "positions": [
                2.555389403758232,
                -1.229971484758863,
                -1.801389027774622,
                -1.521367803633572,
                -1.517740087900503,
                0.4255723497546759
            ]
        },
        {
            "positions": [
                2.4111762774254855,
                -1.2156033723498985,
                -1.6831594818320992,
                -1.4941846560139502,
                -1.4645332667063258,
                0.4091249263042242
            ]
        },
        {
            "positions": [
                2.2669631510927384,
                -1.201235259940934,
                -1.5649299358895763,
                -1.4670015083943282,
                -1.4113264455121486,
                0.3926775028537725
            ]
        },
        {
            "positions": [
                2.1227500247599917,
                -1.1868671475319694,
                -1.4467003899470536,
                -1.4398183607747064,
                -1.3581196243179714,
                0.3762300794033208
            ]
        },
        {
            "positions": [
                1.9785368984272451,
                -1.172499035123005,
                -1.3284708440045307,
                -1.4126352131550843,
                -1.3049128031237944,
                0.3597826559528691
            ]
        },
        {
            "positions": [
                1.8343237720944985,
                -1.1581309227140404,
                -1.2102412980620079,
                -1.3854520655354625,
                -1.251705981929617,
                0.34333523250241743
            ]
        },
        {
            "positions": [
                1.6901106457617516,
                -1.1437628103050759,
                -1.092011752119485,
                -1.3582689179158405,
                -1.19849916073544,
                0.32688780905196574
            ]
        },
        {
            "positions": [
                1.545897519429005,
                -1.1293946978961116,
                -0.9737822061769621,
                -1.3310857702962187,
                -1.1452923395412626,
                0.31044038560151405
            ]
        },
        {
            "positions": [
                1.4016843930962584,
                -1.115026585487147,
                -0.8555526602344392,
                -1.3039026226765966,
                -1.0920855183470857,
                0.29399296215106235
            ]
        },
        {
            "positions": [
                1.2574712667635115,
                -1.1006584730781825,
                -0.7373231142919165,
                -1.2767194750569748,
                -1.0388786971529085,
                0.27754553870061066
            ]
        },
        {
            "positions": [
                1.1132581404307649,
                -1.086290360669218,
                -0.6190935683493937,
                -1.2495363274373528,
                -0.9856718759587313,
                0.26109811525015897
            ]
        },
        {
            "positions": [
                0.969045014098018,
                -1.0719222482602535,
                -0.5008640224068706,
                -1.222353179817731,
                -0.932465054764554,
                0.24465069179970725
            ]
        },
        {
            "positions": [
                0.8248318877652714,
                -1.057554135851289,
                -0.3826344764643477,
                -1.195170032198109,
                -0.8792582335703769,
                0.22820326834925556
            ]
        },
        {
            "positions": [
                0.6806187614325245,
                -1.0431860234423245,
                -0.264404930521825,
                -1.1679868845784869,
                -0.8260514123761997,
                0.21175584489880386
            ]
        },
        {
            "positions": [
                0.5364056350997779,
                -1.02881791103336,
                -0.14617538457930218,
                -1.140803736958865,
                -0.7728445911820225,
                0.19530842144835217
            ]
        },
        {
            "positions": [
                0.4785857336139397,
                -1.0223372424768207,
                -0.018312220386516948,
                -1.010089636839902,
                -0.7300976045514218,
                0.18476428352220814
            ]
        },
        {
            "positions": [
                0.4207658321281015,
                -1.0158565739202816,
                0.10955094380626829,
                -0.8793755367209389,
                -0.687350617920821,
                0.1742201455960641
            ]
        },
        {
            "positions": [
                0.36294593064226327,
                -1.0093759053637423,
                0.23741410799905355,
                -0.7486614366019758,
                -0.6446036312902201,
                0.16367600766992008
            ]
        },
        {
            "positions": [
                0.30512602915642506,
                -1.0028952368072033,
                0.36527727219183875,
                -0.6179473364830128,
                -0.6018566446596194,
                0.15313186974377602
            ]
        },
        {
            "positions": [
                0.24730612767058685,
                -0.996414568250664,
                0.49314043638462407,
                -0.4872332363640496,
                -0.5591096580290187,
                0.14258773181763199
            ]
        },
        {
            "positions": [
                0.18948622618474864,
                -0.9899338996941248,
                0.6210036005774093,
                -0.3565191362450866,
                -0.5163626713984178,
                0.13204359389148795
            ]
        },
        {
            "positions": [
                0.13166632469891043,
                -0.9834532311375856,
                0.7488667647701945,
                -0.22580503612612346,
                -0.47361568476781707,
                0.12149945596534391
            ]
        },
        {
            "positions": [
                0.07384642321307222,
                -0.9769725625810465,
                0.8767299289629797,
                -0.09509093600716056,
                -0.4308686981372163,
                0.11095531803919989
            ]
        },
        {
            "positions": [
                0.016026521727233956,
                -0.9704918940245073,
                1.0045930931557652,
                0.03562316411180255,
                -0.3881217115066155,
                0.10041118011305585
            ]
        },
        {
            "positions": [
                -0.0417933797586042,
                -0.964011225467968,
                1.1324562573485504,
                0.1663372642307659,
                -0.3453747248760147,
                0.0898670421869118
            ]
        },
        {
            "positions": [
                -0.09961328124444235,
                -0.9575305569114289,
                1.2603194215413356,
                0.2970513643497288,
                -0.30262773824541395,
                0.07932290426076778
            ]
        },
        {
            "positions": [
                -0.15743318273028062,
                -0.9510498883548897,
                1.3881825857341208,
                0.4277654644686918,
                -0.25988075161481317,
                0.06877876633462374
            ]
        },
        {
            "positions": [
                -0.12244778061069919,
                -0.9300207231331586,
                1.4651521587335785,
                0.6192998024775217,
                -0.24365209368211532,
                0.05642211852248937
            ]
        },
        {
            "positions": [
                -0.08746237849111776,
                -0.9089915579114276,
                1.5421217317330365,
                0.8108341404863516,
                -0.22742343574941745,
                0.044065470710355006
            ]
        },
        {
            "positions": [
                -0.05247697637153634,
                -0.8879623926896966,
                1.6190913047324944,
                1.0023684784951814,
                -0.21119477781671958,
                0.03170882289822064
            ]
        },
        {
            "positions": [
                -0.01749157425195491,
                -0.8669332274679655,
                1.6960608777319521,
                1.1939028165040115,
                -0.19496611988402174,
                0.019352175086086276
            ]
        },
        {
            "positions": [
                0.017493827867626516,
                -0.8459040622462346,
                1.7730304507314099,
                1.3854371545128412,
                -0.1787374619513239,
                0.006995527273951911
            ]
        },
        {
            "positions": [
                0.05247922998720794,
                -0.8248748970245036,
                1.8500000237308678,
                1.5769714925216713,
                -0.16250880401862602,
                -0.005361120538182454
            ]
        },
        {
            "positions": [
                0.08746463210678937,
                -0.8038457318027725,
                1.9269695967303258,
                1.768505830530501,
                -0.14628014608592815,
                -0.017717768350316826
            ]
        },
        {
            "positions": [
                0.12245003422637082,
                -0.7828165665810415,
                2.0039391697297835,
                1.960040168539331,
                -0.1300514881532303,
                -0.030074416162451177
            ]
        }
    ]
}{
    "goal": {
        "global_pose": {
            "orientation": {
                "w": 0.7047431468963623,
                "x": -0.7094548344612122,
                "y": 0.0024358443915843964,
                "z": -0.0022348060738295317
            },
            "position": {
                "x": 0.6094750761985779,
                "y": 0.3671506643295288,
                "z": 0.19426114857196808
            }
        },
        "name": "move_to_magneteinheit_A"
    },
    "id": "LBTRRT_move_to_magneteinheit_A_29",
    "joint_names": [
        "shoulder_pan_joint",
        "shoulder_lift_joint",
        "elbow_joint",
        "wrist_1_joint",
        "wrist_2_joint",
        "wrist_3_joint"
    ],
    "metrics": {
        "cart_traj_len": 1.2518628419671263,
        "distance_elbow_joint": 0.10529709209096771,
        "distance_shoulder_lift_joint": 1.1053892608154365,
        "distance_shoulder_pan_joint": 1.2410656001589684,
        "distance_wrist_1_joint": 3.635316758278033,
        "distance_wrist_2_joint": 1.6920267149617794,
        "distance_wrist_3_joint": 1.2449794818380062,
        "smoothness": 3.7007434447208084e-16,
        "time": 5.019732470999999,
        "traj_len": 3.0040098049345962,
        "weighted_distance": 4.103824721532222
    },
    "planner": "LBTRRT",
    "start": {
        "state": {
            "elbow_joint": 1.919643534880228,
            "shoulder_lift_joint": -1.8972525353963687,
            "shoulder_pan_joint": -1.1188672234189438,
            "wrist_1_joint": -1.5931878212786155,
            "wrist_2_joint": 1.5706036197970081,
            "wrist_3_joint": 1.118896926603594
        }
    },
    "waypoints": [
        {
            "positions": [
                -1.1188672234189438,
                -1.8972525353963687,
                1.919643534880228,
                -1.5931878212786155,
                1.5706036197970081,
                1.118896926603594
            ]
        },
        {
            "positions": [
                -1.0649078494989888,
                -1.8491921327522194,
                1.9242216693189658,
                -1.435130570918701,
                1.4970372408856265,
                1.064767383914985
            ]
        },
        {
            "positions": [
                -1.0109484755790334,
                -1.8011317301080698,
                1.9287998037577037,
                -1.2770733205587865,
                1.4234708619742447,
                1.0106378412263761
            ]
        },
        {
            "positions": [
                -0.9569891016590784,
                -1.7530713274639205,
                1.9333779381964413,
                -1.119016070198872,
                1.349904483062863,
                0.9565082985377671
            ]
        },
        {
            "positions": [
                -0.9030297277391233,
                -1.7050109248197711,
                1.937956072635179,
                -0.9609588198389576,
                1.2763381041514812,
                0.902378755849158
            ]
        },
        {
            "positions": [
                -0.8490703538191682,
                -1.6569505221756216,
                1.9425342070739167,
                -0.8029015694790431,
                1.2027717252400996,
                0.8482492131605491
            ]
        },
        {
            "positions": [
                -0.795110979899213,
                -1.6088901195314722,
                1.9471123415126546,
                -0.6448443191191287,
                1.129205346328718,
                0.7941196704719402
            ]
        },
        {
            "positions": [
                -0.7411516059792578,
                -1.5608297168873229,
                1.9516904759513922,
                -0.4867870687592142,
                1.055638967417336,
                0.7399901277833312
            ]
        },
        {
            "positions": [
                -0.6871922320593027,
                -1.5127693142431733,
                1.95626861039013,
                -0.3287298183992997,
                0.9820725885059545,
                0.6858605850947223
            ]
        },
        {
            "positions": [
                -0.6332328581393475,
                -1.464708911599024,
                1.9608467448288676,
                -0.17067256803938524,
                0.9085062095945727,
                0.6317310424061133
            ]
        },
        {
            "positions": [
                -0.5792734842193924,
                -1.4166485089548746,
                1.9654248792676055,
                -0.012615317679470772,
                0.834939830683191,
                0.5776014997175043
            ]
        },
        {
            "positions": [
                -0.5253141102994372,
                -1.368588106310725,
                1.9700030137063431,
                0.1454419326804437,
                0.7613734517718093,
                0.5234719570288954
            ]
        },
        {
            "positions": [
                -0.4713547363794821,
                -1.320527703666576,
                1.9745811481450808,
                0.30349918304035817,
                0.6878070728604276,
                0.46934241434028634
            ]
        },
        {
            "positions": [
                -0.417395362459527,
                -1.2724673010224263,
                1.9791592825838185,
                0.46155643340027264,
                0.6142406939490459,
                0.4152128716516774
            ]
        },
        {
            "positions": [
                -0.3634359885395717,
                -1.2244068983782768,
                1.9837374170225563,
                0.6196136837601871,
                0.540674315037664,
                0.3610833289630684
            ]
        },
        {
            "positions": [
                -0.3094766146196166,
                -1.1763464957341276,
                1.988315551461294,
                0.7776709341201016,
                0.46710793612628243,
                0.30695378627445946
            ]
        },
        {
            "positions": [
                -0.25551724069966153,
                -1.128286093089978,
                1.9928936859000317,
                0.935728184480016,
                0.3935415572149008,
                0.25282424358585054
            ]
        },
        {
            "positions": [
                -0.20155786677970644,
                -1.0802256904458287,
                1.9974718203387694,
                1.0937854348399305,
                0.3199751783035192,
                0.19869470089724162
            ]
        },
        {
            "positions": [
                -0.14759849285975113,
                -1.0321652878016794,
                2.0020499547775072,
                1.251842685199845,
                0.24640879939213733,
                0.14456515820863258
            ]
        },
        {
            "positions": [
                -0.09363911893979604,
                -0.9841048851575298,
                2.0066280892162447,
                1.4098999355597595,
                0.1728424204807557,
                0.09043561552002366
            ]
        },
        {
            "positions": [
                -0.03967974501984095,
                -0.9360444825133805,
                2.0112062236549826,
                1.567957185919674,
                0.09927604156937386,
                0.036306072831414626
            ]
        },
        {
            "positions": [
                0.014279628900114139,
                -0.8879840798692311,
                2.0157843580937205,
                1.7260144362795884,
                0.025709662657992238,
                -0.017823469857194185
            ]
        },
        {
            "positions": [
                0.06823900282006945,
                -0.8399236772250815,
                2.020362492532458,
                1.8840716866395029,
                -0.04785671625338961,
                -0.07195301254580322
            ]
        },
        {
            "positions": [
                0.12219837674002457,
                -0.7918632745809322,
                2.024940626971196,
                2.0421289369994176,
                -0.12142309516477118,
                -0.12608255523441225
            ]
        }
    ]
}