{
    "goal": {
        "global_pose": {
            "orientation": {
                "w": 0.7047431468963623,
                "x": -0.7094548344612122,
                "y": 0.0024358443915843964,
                "z": -0.0022348060738295317
            },
            "position": {
                "x": 0.6094750761985779,
                "y": 0.3671506643295288,
                "z": 0.19426114857196808
            }
        },
        "name": "move_to_magneteinheit_A"
    },
    "id": "LBTRRT_move_to_magneteinheit_A_109",
    "joint_names": [
        "shoulder_pan_joint",
        "shoulder_lift_joint",
        "elbow_joint",
        "wrist_1_joint",
        "wrist_2_joint",
        "wrist_3_joint"
    ],
    "metrics": {
        "cart_traj_len": 3.356562555560268,
        "distance_elbow_joint": 3.900224307566173,
        "distance_shoulder_lift_joint": 0.2915734300587598,
        "distance_shoulder_pan_joint": 3.4622370563933793,
        "distance_wrist_1_joint": 1.0344862757121782,
        "distance_wrist_2_joint": 1.7059003597596383,
        "distance_wrist_3_joint": 2.6697318909965215,
        "smoothness": 0.13247102578157857,
        "time": 5.038346235,
        "traj_len": 3.614436791602068,
        "weighted_distance": 4.598260947135505
    },
    "planner": "LBTRRT",
    "start": {
        "state": {
            "elbow_joint": -1.919618573717145,
            "shoulder_lift_joint": -1.2443395971678275,
            "shoulder_pan_joint": 2.6996025300909787,
            "wrist_1_joint": -1.548550951253194,
            "wrist_2_joint": -1.5709469090946802,
            "wrist_3_joint": 0.4420197732051276
        }
    },
    "waypoints": [
        {
            "positions": [
                2.6996025300909787,
                -1.2443395971678275,
                -1.919618573717145,
                -1.548550951253194,
                -1.5709469090946802,
                0.4420197732051276
            ]
        },
        {
            "positions": [
                2.5683443273322464,
                -1.2484979346949858,
                -1.8174583816397105,
                -1.5101152397672888,
                -1.5525732478877114,
                0.537091795629498
            ]
        },
        {
            "positions": [
                2.4370861245735136,
                -1.2526562722221444,
                -1.715298189562276,
                -1.4716795282813837,
                -1.5341995866807427,
                0.6321638180538685
            ]
        },
        {
            "positions": [
                2.3058279218147812,
                -1.2568146097493027,
                -1.6131379974848417,
                -1.4332438167954784,
                -1.515825925473774,
                0.7272358404782389
            ]
        },
        {
            "positions": [
                2.174569719056049,
                -1.260972947276461,
                -1.5109778054074074,
                -1.394808105309573,
                -1.4974522642668053,
                0.8223078629026093
            ]
        },
        {
            "positions": [
                2.043311516297316,
                -1.2651312848036196,
                -1.408817613329973,
                -1.356372393823668,
                -1.4790786030598366,
                0.9173798853269797
            ]
        },
        {
            "positions": [
                1.9120533135385838,
                -1.269289622330778,
                -1.3066574212525386,
                -1.3179366823377627,
                -1.460704941852868,
                1.01245190775135
            ]
        },
        {
            "positions": [
                1.7807951107798512,
                -1.2734479598579362,
                -1.2044972291751042,
                -1.2795009708518574,
                -1.4423312806458992,
                1.1075239301757205
            ]
        },
        {
            "positions": [
                1.6495369080211189,
                -1.2776062973850948,
                -1.1023370370976697,
                -1.2410652593659524,
                -1.4239576194389305,
                1.202595952600091
            ]
        },
        {
            "positions": [
                1.5182787052623863,
                -1.2817646349122531,
                -1.0001768450202353,
                -1.202629547880047,
                -1.4055839582319618,
                1.2976679750244613
            ]
        },
        {
            "positions": [
                1.3870205025036537,
                -1.2859229724394114,
                -0.8980166529428009,
                -1.164193836394142,
                -1.387210297024993,
                1.3927399974488317
            ]
        },
        {
            "positions": [
                1.2557622997449212,
                -1.29008130996657,
                -0.7958564608653664,
                -1.1257581249082367,
                -1.3688366358180244,
                1.487812019873202
            ]
        },
        {
            "positions": [
                1.1245040969861888,
                -1.2942396474937283,
                -0.693696268787932,
                -1.0873224134223314,
                -1.3504629746110557,
                1.5828840422975725
            ]
        },
        {
            "positions": [
                0.9932458942274565,
                -1.2983979850208867,
                -0.5915360767104978,
                -1.0488867019364263,
                -1.332089313404087,
                1.677956064721943
            ]
        },
        {
            "positions": [
                0.8619876914687237,
                -1.3025563225480452,
                -0.48937588463306314,
                -1.0104509904505208,
                -1.3137156521971183,
                1.7730280871463133
            ]
        },
        {
            "positions": [
                0.7307294887099911,
                -1.3067146600752035,
                -0.3872156925556287,
                -0.9720152789646157,
                -1.2953419909901496,
                1.8681001095706837
            ]
        },
        {
            "positions": [
                0.599471285951259,
                -1.310872997602362,
                -0.2850555004781945,
                -0.9335795674787105,
                -1.2769683297831809,
                1.9631721319950541
            ]
        },
        {
            "positions": [
                0.4682130831925262,
                -1.3150313351295204,
                -0.18289530840076007,
                -0.8951438559928053,
                -1.2585946685762122,
                2.0582441544194245
            ]
        },
        {
            "positions": [
                0.33695488043379385,
                -1.3191896726566787,
                -0.08073511632332542,
                -0.8567081445069,
                -1.2402210073692435,
                2.153316176843795
            ]
        },
        {
            "positions": [
                0.20569667767506106,
                -1.3233480101838373,
                0.02142507575410879,
                -0.8182724330209948,
                -1.2218473461622748,
                2.2483881992681654
            ]
        },
        {
            "positions": [
                0.07443847491632871,
                -1.3275063477109956,
                0.12358526783154322,
                -0.7798367215350896,
                -1.203473684955306,
                2.3434602216925358
            ]
        },
        {
            "positions": [
                -0.05681972784240363,
                -1.331664685238154,
                0.22574545990897765,
                -0.7414010100491845,
                -1.1851000237483373,
                2.4385322441169057
            ]
        },
        {
            "positions": [
                -0.18807793060113642,
                -1.3358230227653125,
                0.3279056519864121,
                -0.7029652985632792,
                -1.1667263625413686,
                2.5336042665412766
            ]
        },
        {
            "positions": [
                -0.31933613335986877,
                -1.3399813602924708,
                0.4300658440638466,
                -0.664529587077374,
                -1.1483527013344,
                2.628676288965647
            ]
        },
        {
            "positions": [
                -0.2812147865470678,
                -1.3227385678834822,
                0.5696727994359377,
                -0.6770011043136195,
                -1.0348914364834747,
                2.6724885595542243
            ]
        },
        {
            "positions": [
                -0.24309343973426678,
                -1.3054957754744936,
                0.7092797548080287,
                -0.6894726215498649,
                -0.9214301716325495,
                2.716300830142802
            ]
        },
        {
            "positions": [
                -0.2049720929214658,
                -1.288252983065505,
                0.8488867101801199,
                -0.7019441387861104,
                -0.8079689067816244,
                2.7601131007313793
            ]
        },
        {
            "positions": [
                -0.1668507461086648,
                -1.2710101906565163,
                0.988493665552211,
                -0.7144156560223559,
                -0.694507641930699,
                2.8039253713199566
            ]
        },
        {
            "positions": [
                -0.1287293992958638,
                -1.2537673982475277,
                1.128100620924302,
                -0.7268871732586013,
                -0.5810463770797739,
                2.8477376419085343
            ]
        },
        {
            "positions": [
                -0.09060805248306283,
                -1.236524605838539,
                1.267707576296393,
                -0.7393586904948468,
                -0.4675851122288488,
                2.8915499124971116
            ]
        },
        {
            "positions": [
                -0.05248670567026181,
                -1.2192818134295502,
                1.4073145316684843,
                -0.7518302077310923,
                -0.35412384737792346,
                2.9353621830856893
            ]
        },
        {
            "positions": [
                -0.01436535885746082,
                -1.2020390210205616,
                1.5469214870405752,
                -0.7643017249673377,
                -0.24066258252699824,
                2.9791744536742666
            ]
        },
        {
            "positions": [
                0.023755987955340174,
                -1.184796228611573,
                1.6865284424126665,
                -0.7767732422035832,
                -0.12720131767607312,
                3.022986724262844
            ]
        },
        {
            "positions": [
                0.06187733476814117,
                -1.1675534362025843,
                1.8261353977847574,
                -0.7892447594398286,
                -0.013740052825147897,
                3.0667989948514216
            ]
        },
        {
            "positions": [
                0.09999868158094216,
                -1.1503106437935957,
                1.9657423531568485,
                -0.8017162766760741,
                0.09972121202577736,
                3.110611265439999
            ]
        },
        {
            "positions": [
                0.12396225958266288,
                -1.1440496933583544,
                1.9806057338490286,
                -0.8149944986137321,
                0.13495345066495792,
                3.111751664201649
            ]
        }
    ]
}{
    "goal": {
        "global_pose": {
            "orientation": {
                "w": 0.7047431468963623,
                "x": -0.7094548344612122,
                "y": 0.0024358443915843964,
                "z": -0.0022348060738295317
            },
            "position": {
                "x": 0.6094750761985779,
                "y": 0.3671506643295288,
                "z": 0.19426114857196808
            }
        },
        "name": "move_to_magneteinheit_A"
    },
    "id": "LBTRRT_move_to_magneteinheit_A_109",
    "joint_names": [
        "shoulder_pan_joint",
        "shoulder_lift_joint",
        "elbow_joint",
        "wrist_1_joint",
        "wrist_2_joint",
        "wrist_3_joint"
    ],
    "metrics": {
        "cart_traj_len": 1.589335384616986,
        "distance_elbow_joint": 0.4811448671662226,
        "distance_shoulder_lift_joint": 1.2110083617063803,
        "distance_shoulder_pan_joint": 1.2414695984789028,
        "distance_wrist_1_joint": 0.7949655446138235,
        "distance_wrist_2_joint": 1.4476814280476993,
        "distance_wrist_3_joint": 4.294096351763902,
        "smoothness": 0.16084218273518497,
        "time": 5.036507021,
        "traj_len": 3.0773960017808775,
        "weighted_distance": 4.505685944222728
    },
    "planner": "LBTRRT",
    "start": {
        "state": {
            "elbow_joint": 1.919643534880228,
            "shoulder_lift_joint": -1.8972525353963687,
            "shoulder_pan_joint": -1.1188672234189438,
            "wrist_1_joint": -1.5931878212786155,
            "wrist_2_joint": 1.5706036197970081,
            "wrist_3_joint": 1.118896926603594
        }
    },
    "waypoints": [
        {
            "positions": [
                -1.1188672234189438,
                -1.8972525353963687,
                1.919643534880228,
                -1.5931878212786155,
                1.5706036197970081,
                1.118896926603594
            ]
        },
        {
            "positions": [
                -1.1036451426926626,
                -1.9297581234970158,
                1.8891251457280676,
                -1.5793177013971165,
                1.5150619825297096,
                0.9123331066925223
            ]
        },
        {
            "positions": [
                -1.088423061966381,
                -1.962263711597663,
                1.858606756575907,
                -1.5654475815156175,
                1.4595203452624108,
                0.7057692867814507
            ]
        },
        {
            "positions": [
                -1.0732009812400998,
                -1.9947692996983102,
                1.8280883674237465,
                -1.5515774616341185,
                1.4039787079951123,
                0.49920546687037914
            ]
        },
        {
            "positions": [
                -1.0579789005138183,
                -2.0272748877989573,
                1.797569978271586,
                -1.5377073417526193,
                1.3484370707278135,
                0.2926416469593075
            ]
        },
        {
            "positions": [
                -1.042756819787537,
                -2.0597804758996046,
                1.7670515891194254,
                -1.5238372218711203,
                1.292895433460515,
                0.08607782704823586
            ]
        },
        {
            "positions": [
                -1.0275347390612555,
                -2.0922860640002514,
                1.7365331999672649,
                -1.5099671019896213,
                1.2373537961932164,
                -0.12048599286283568
            ]
        },
        {
            "positions": [
                -1.0123126583349742,
                -2.1247916521008987,
                1.7060148108151043,
                -1.4960969821081223,
                1.1818121589259176,
                -0.3270498127739075
            ]
        },
        {
            "positions": [
                -0.9492618231463668,
                -2.070154471823018,
                1.7208768187651653,
                -1.4573261651390483,
                1.122984938527217,
                -0.48528034679537424
            ]
        },
        {
            "positions": [
                -0.8862109879577594,
                -2.0155172915451374,
                1.7357388267152265,
                -1.4185553481699744,
                1.0641577181285167,
                -0.6435108808168409
            ]
        },
        {
            "positions": [
                -0.823160152769152,
                -1.960880111267257,
                1.7506008346652875,
                -1.3797845312009005,
                1.005330497729816,
                -0.8017414148383076
            ]
        },
        {
            "positions": [
                -0.7601093175805447,
                -1.9062429309893765,
                1.7654628426153485,
                -1.3410137142318266,
                0.9465032773311157,
                -0.9599719488597744
            ]
        },
        {
            "positions": [
                -0.6970584823919372,
                -1.8516057507114958,
                1.7803248505654095,
                -1.3022428972627527,
                0.8876760569324151,
                -1.1182024828812411
            ]
        },
        {
            "positions": [
                -0.6340076472033298,
                -1.7969685704336154,
                1.7951868585154707,
                -1.2634720802936787,
                0.8288488365337148,
                -1.2764330169027078
            ]
        },
        {
            "positions": [
                -0.5709568120147224,
                -1.7423313901557347,
                1.8100488664655316,
                -1.2247012633246048,
                0.7700216161350142,
                -1.4346635509241745
            ]
        },
        {
            "positions": [
                -0.507905976826115,
                -1.6876942098778542,
                1.8249108744155926,
                -1.1859304463555311,
                0.7111943957363138,
                -1.5928940849456412
            ]
        },
        {
            "positions": [
                -0.4448551416375076,
                -1.6330570295999736,
                1.8397728823656538,
                -1.147159629386457,
                0.6523671753376132,
                -1.751124618967108
            ]
        },
        {
            "positions": [
                -0.3818043064489002,
                -1.578419849322093,
                1.8546348903157148,
                -1.1083888124173833,
                0.5935399549389128,
                -1.9093551529885746
            ]
        },
        {
            "positions": [
                -0.31875347126029274,
                -1.5237826690442122,
                1.8694968982657758,
                -1.0696179954483092,
                0.5347127345402122,
                -2.0675856870100415
            ]
        },
        {
            "positions": [
                -0.2557026360716854,
                -1.469145488766332,
                1.8843589062158368,
                -1.0308471784792355,
                0.4758855141415118,
                -2.2258162210315082
            ]
        },
        {
            "positions": [
                -0.19265180088307798,
                -1.4145083084884513,
                1.899220914165898,
                -0.9920763615101615,
                0.41705829374281134,
                -2.384046755052975
            ]
        },
        {
            "positions": [
                -0.12960096569447066,
                -1.3598711282105707,
                1.914082922115959,
                -0.9533055445410875,
                0.35823107334411075,
                -2.5422772890744416
            ]
        },
        {
            "positions": [
                -0.06655013050586323,
                -1.30523394793269,
                1.92894493006602,
                -0.9145347275720136,
                0.2994038529454103,
                -2.7005078230959083
            ]
        },
        {
            "positions": [
                -0.0034992953172559016,
                -1.2505967676548098,
                1.943806938016081,
                -0.8757639106029398,
                0.2405766325467099,
                -2.858738357117375
            ]
        },
        {
            "positions": [
                0.05955153987135153,
                -1.195959587376929,
                1.9586689459661422,
                -0.8369930936338659,
                0.18174941214800944,
                -3.0169688911388417
            ]
        },
        {
            "positions": [
                0.12260237505995905,
                -1.1413224070990484,
                1.9735309539162031,
                -0.798222276664792,
                0.12292219174930888,
                -3.1751994251603084
            ]
        }
    ]
}