{
    "goal": {
        "global_pose": {
            "orientation": {
                "w": 0.7047431468963623,
                "x": -0.7094548344612122,
                "y": 0.0024358443915843964,
                "z": -0.0022348060738295317
            },
            "position": {
                "x": 0.6094750761985779,
                "y": 0.3671506643295288,
                "z": 0.19426114857196808
            }
        },
        "name": "move_to_magneteinheit_A"
    },
    "id": "LBTRRT_move_to_magneteinheit_A_115",
    "joint_names": [
        "shoulder_pan_joint",
        "shoulder_lift_joint",
        "elbow_joint",
        "wrist_1_joint",
        "wrist_2_joint",
        "wrist_3_joint"
    ],
    "metrics": {
        "cart_traj_len": 3.209711922711878,
        "distance_elbow_joint": 3.916688916084328,
        "distance_shoulder_lift_joint": 0.4662317426319674,
        "distance_shoulder_pan_joint": 2.693242138383204,
        "distance_wrist_1_joint": 3.4806299791156743,
        "distance_wrist_2_joint": 2.634163086540855,
        "distance_wrist_3_joint": 0.596886939711859,
        "smoothness": 0.15848313568035483,
        "time": 5.037023844,
        "traj_len": 3.713198459881708,
        "weighted_distance": 4.593082815228584
    },
    "planner": "LBTRRT",
    "start": {
        "state": {
            "elbow_joint": -1.919618573717145,
            "shoulder_lift_joint": -1.2443395971678275,
            "shoulder_pan_joint": 2.6996025300909787,
            "wrist_1_joint": -1.548550951253194,
            "wrist_2_joint": -1.5709469090946802,
            "wrist_3_joint": 0.4420197732051276
        }
    },
    "waypoints": [
        {
            "positions": [
                2.6996025300909787,
                -1.2443395971678275,
                -1.919618573717145,
                -1.548550951253194,
                -1.5709469090946802,
                0.4420197732051276
            ]
        },
        {
            "positions": [
                2.6064901270827057,
                -1.2325503219155254,
                -1.8385853459792874,
                -1.4389241333935199,
                -1.48950124372047,
                0.43064668373654386
            ]
        },
        {
            "positions": [
                2.5133777240744326,
                -1.2207610466632233,
                -1.7575521182414298,
                -1.3292973155338454,
                -1.4080555783462596,
                0.41927359426796007
            ]
        },
        {
            "positions": [
                2.4202653210661595,
                -1.2089717714109212,
                -1.676518890503572,
                -1.2196704976741712,
                -1.3266099129720494,
                0.40790050479937634
            ]
        },
        {
            "positions": [
                2.3271529180578865,
                -1.1971824961586193,
                -1.5954856627657144,
                -1.1100436798144968,
                -1.245164247597839,
                0.39652741533079255
            ]
        },
        {
            "positions": [
                2.2340405150496134,
                -1.1853932209063172,
                -1.5144524350278568,
                -1.0004168619548226,
                -1.163718582223629,
                0.3851543258622088
            ]
        },
        {
            "positions": [
                2.1409281120413404,
                -1.173603945654015,
                -1.4334192072899992,
                -0.8907900440951483,
                -1.0822729168494187,
                0.37378123639362504
            ]
        },
        {
            "positions": [
                2.047815709033067,
                -1.161814670401713,
                -1.3523859795521416,
                -0.781163226235474,
                -1.0008272514752083,
                0.3624081469250413
            ]
        },
        {
            "positions": [
                1.9547033060247943,
                -1.1500253951494108,
                -1.271352751814284,
                -0.6715364083757996,
                -0.9193815861009982,
                0.3510350574564576
            ]
        },
        {
            "positions": [
                1.8615909030165212,
                -1.1382361198971087,
                -1.1903195240764264,
                -0.5619095905161254,
                -0.837935920726788,
                0.3396619679878738
            ]
        },
        {
            "positions": [
                1.768478500008248,
                -1.1264468446448066,
                -1.1092862963385686,
                -0.4522827726564511,
                -0.7564902553525776,
                0.32828887851929
            ]
        },
        {
            "positions": [
                1.6753660969999749,
                -1.1146575693925045,
                -1.028253068600711,
                -0.3426559547967769,
                -0.6750445899783675,
                0.3169157890507063
            ]
        },
        {
            "positions": [
                1.5822536939917018,
                -1.1028682941402026,
                -0.9472198408628534,
                -0.23302913693710248,
                -0.5935989246041573,
                0.30554269958212255
            ]
        },
        {
            "positions": [
                1.4891412909834287,
                -1.0910790188879005,
                -0.8661866131249958,
                -0.12340231907742827,
                -0.5121532592299469,
                0.29416961011353876
            ]
        },
        {
            "positions": [
                1.3960288879751555,
                -1.0792897436355984,
                -0.785153385387138,
                -0.013775501217753838,
                -0.43070759385573654,
                0.282796520644955
            ]
        },
        {
            "positions": [
                1.3029164849668826,
                -1.0675004683832963,
                -0.7041201576492806,
                0.09585131664192037,
                -0.3492619284815266,
                0.27142343117637124
            ]
        },
        {
            "positions": [
                1.2098040819586096,
                -1.0557111931309942,
                -0.6230869299114228,
                0.2054781345015948,
                -0.2678162631073162,
                0.2600503417077875
            ]
        },
        {
            "positions": [
                1.1166916789503363,
                -1.043921917878692,
                -0.5420537021735652,
                0.315104952361269,
                -0.18637059773310583,
                0.24867725223920376
            ]
        },
        {
            "positions": [
                1.0235792759420634,
                -1.0321326426263902,
                -0.4610204744357076,
                0.4247317702209432,
                -0.10492493235889588,
                0.23730416277062
            ]
        },
        {
            "positions": [
                0.9304668729337902,
                -1.020343367374088,
                -0.37998724669785,
                0.5343585880806176,
                -0.0234792669846855,
                0.22593107330203624
            ]
        },
        {
            "positions": [
                0.8373544699255171,
                -1.008554092121786,
                -0.2989540189599922,
                0.6439854059402919,
                0.05796639838952489,
                0.21455798383345248
            ]
        },
        {
            "positions": [
                0.7442420669172443,
                -0.9967648168694838,
                -0.2179207912221348,
                0.7536122237999661,
                0.13941206376373483,
                0.20318489436486875
            ]
        },
        {
            "positions": [
                0.651129663908971,
                -0.9849755416171817,
                -0.136887563484277,
                0.8632390416596403,
                0.2208577291379452,
                0.19181180489628497
            ]
        },
        {
            "positions": [
                0.5580172609006979,
                -0.9731862663648796,
                -0.0558543357464194,
                0.9728658595193149,
                0.3023033945121556,
                0.18043871542770124
            ]
        },
        {
            "positions": [
                0.46490485789242486,
                -0.9613969911125776,
                0.02517889199143819,
                1.0824926773789891,
                0.38374905988636554,
                0.1690656259591175
            ]
        },
        {
            "positions": [
                0.3717924548841517,
                -0.9496077158602755,
                0.10621211972929567,
                1.1921194952386636,
                0.4651947252605759,
                0.15769253649053372
            ]
        },
        {
            "positions": [
                0.32342830147272955,
                -0.9320679674875579,
                0.2845311451606345,
                1.280595870427792,
                0.4305641455890061,
                0.13019313696929916
            ]
        },
        {
            "positions": [
                0.2750641480613074,
                -0.9145282191148404,
                0.46285017059197336,
                1.3690722456169202,
                0.3959335659174362,
                0.10269373744806459
            ]
        },
        {
            "positions": [
                0.22669999464988527,
                -0.896988470742123,
                0.6411691960233122,
                1.4575486208060484,
                0.3613029862458663,
                0.07519433792683003
            ]
        },
        {
            "positions": [
                0.17833584123846313,
                -0.8794487223694054,
                0.8194882214546511,
                1.5460249959951768,
                0.3266724065742965,
                0.047694938405595466
            ]
        },
        {
            "positions": [
                0.129971687827041,
                -0.8619089739966879,
                0.99780724688599,
                1.6345013711843053,
                0.2920418269027266,
                0.020195538884360903
            ]
        },
        {
            "positions": [
                0.08160753441561887,
                -0.8443692256239703,
                1.176126272317329,
                1.7229777463734335,
                0.25741124723115677,
                -0.007303860636873674
            ]
        },
        {
            "positions": [
                0.07583339779919983,
                -0.8247636541770894,
                1.3718177983123345,
                1.7926658913225553,
                0.18211405434694194,
                -0.030850827144713613
            ]
        },
        {
            "positions": [
                0.07005926118278077,
                -0.8051580827302086,
                1.56750932430734,
                1.862354036271677,
                0.10681686146272712,
                -0.05439779365255355
            ]
        },
        {
            "positions": [
                0.06428512456636173,
                -0.7855525112833277,
                1.7632008503023455,
                1.9320421812207988,
                0.03151966857851231,
                -0.07794476016039349
            ]
        },
        {
            "positions": [
                0.09324749099565514,
                -0.7818301829095939,
                1.880135596334764,
                1.932060604541639,
                -0.0506535291732554,
                -0.03948355698722462
            ]
        },
        {
            "positions": [
                0.12220985742494855,
                -0.7781078545358601,
                1.9970703423671823,
                1.9320790278624793,
                -0.1328267269250231,
                -0.0010223538140557438
            ]
        }
    ]
}{
    "goal": {
        "global_pose": {
            "orientation": {
                "w": 0.7047431468963623,
                "x": -0.7094548344612122,
                "y": 0.0024358443915843964,
                "z": -0.0022348060738295317
            },
            "position": {
                "x": 0.6094750761985779,
                "y": 0.3671506643295288,
                "z": 0.19426114857196808
            }
        },
        "name": "move_to_magneteinheit_A"
    },
    "id": "LBTRRT_move_to_magneteinheit_A_115",
    "joint_names": [
        "shoulder_pan_joint",
        "shoulder_lift_joint",
        "elbow_joint",
        "wrist_1_joint",
        "wrist_2_joint",
        "wrist_3_joint"
    ],
    "metrics": {
        "cart_traj_len": 1.3278813708226214,
        "distance_elbow_joint": 0.3639635939718704,
        "distance_shoulder_lift_joint": 0.752512586256014,
        "distance_shoulder_pan_joint": 1.2425889297195387,
        "distance_wrist_1_joint": 0.778917529705539,
        "distance_wrist_2_joint": 1.438143347895775,
        "distance_wrist_3_joint": 4.287708863910941,
        "smoothness": 0.04815818515596931,
        "time": 5.038360258,
        "traj_len": 2.9772193153107946,
        "weighted_distance": 4.433544119198869
    },
    "planner": "LBTRRT",
    "start": {
        "state": {
            "elbow_joint": 1.919643534880228,
            "shoulder_lift_joint": -1.8972525353963687,
            "shoulder_pan_joint": -1.1188672234189438,
            "wrist_1_joint": -1.5931878212786155,
            "wrist_2_joint": 1.5706036197970081,
            "wrist_3_joint": 1.118896926603594
        }
    },
    "waypoints": [
        {
            "positions": [
                -1.1188672234189438,
                -1.8972525353963687,
                1.919643534880228,
                -1.5931878212786155,
                1.5706036197970081,
                1.118896926603594
            ]
        },
        {
            "positions": [
                -1.0839863664666645,
                -1.8552651668961881,
                1.935956348857834,
                -1.560062892706898,
                1.5264248753560896,
                0.9201583336206017
            ]
        },
        {
            "positions": [
                -1.0491055095143849,
                -1.8132777983960078,
                1.95226916283544,
                -1.5269379641351806,
                1.4822461309151713,
                0.7214197406376095
            ]
        },
        {
            "positions": [
                -1.0142246525621055,
                -1.7712904298958272,
                1.968581976813046,
                -1.4938130355634631,
                1.4380673864742528,
                0.5226811476546172
            ]
        },
        {
            "positions": [
                -0.9793437956098261,
                -1.7293030613956466,
                1.984894790790652,
                -1.4606881069917457,
                1.3938886420333343,
                0.3239425546716249
            ]
        },
        {
            "positions": [
                -0.9444629386575466,
                -1.6873156928954662,
                2.0012076047682577,
                -1.4275631784200282,
                1.349709897592416,
                0.12520396168863257
            ]
        },
        {
            "positions": [
                -0.9095820817052671,
                -1.6453283243952856,
                2.017520418745864,
                -1.3944382498483108,
                1.3055311531514975,
                -0.07353463129435966
            ]
        },
        {
            "positions": [
                -0.8747012247529877,
                -1.603340955895105,
                2.03383323272347,
                -1.3613133212765933,
                1.2613524087105792,
                -0.2722732242773518
            ]
        },
        {
            "positions": [
                -0.8398203678007082,
                -1.5613535873949247,
                2.0501460467010757,
                -1.3281883927048759,
                1.2171736642696607,
                -0.47101181726034413
            ]
        },
        {
            "positions": [
                -0.8049395108484287,
                -1.519366218894744,
                2.0664588606786816,
                -1.2950634641331584,
                1.1729949198287422,
                -0.6697504102433363
            ]
        },
        {
            "positions": [
                -0.7700586538961494,
                -1.4773788503945635,
                2.0827716746562874,
                -1.261938535561441,
                1.1288161753878236,
                -0.8684890032263288
            ]
        },
        {
            "positions": [
                -0.73517779694387,
                -1.4353914818943831,
                2.0990844886338937,
                -1.2288136069897235,
                1.0846374309469053,
                -1.0672275962093207
            ]
        },
        {
            "positions": [
                -0.7002969399915904,
                -1.3934041133942023,
                2.1153973026114996,
                -1.195688678418006,
                1.0404586865059868,
                -1.2659661891923133
            ]
        },
        {
            "positions": [
                -0.665416083039311,
                -1.351416744894022,
                2.1317101165891055,
                -1.1625637498462886,
                0.9962799420650684,
                -1.4647047821753052
            ]
        },
        {
            "positions": [
                -0.5936762840084104,
                -1.3326279452800522,
                2.1179012972924696,
                -1.1309007081850875,
                0.9177508811410834,
                -1.6196236144600362
            ]
        },
        {
            "positions": [
                -0.52193648497751,
                -1.3138391456660825,
                2.104092477995834,
                -1.0992376665238863,
                0.8392218202170983,
                -1.7745424467447672
            ]
        },
        {
            "positions": [
                -0.45019668594660944,
                -1.2950503460521128,
                2.090283658699198,
                -1.0675746248626854,
                0.7606927592931134,
                -1.9294612790294983
            ]
        },
        {
            "positions": [
                -0.37845688691570895,
                -1.276261546438143,
                2.0764748394025627,
                -1.0359115832014842,
                0.6821636983691284,
                -2.0843801113142293
            ]
        },
        {
            "positions": [
                -0.30671708788480845,
                -1.2574727468241733,
                2.062666020105927,
                -1.004248541540283,
                0.6036346374451433,
                -2.2392989435989605
            ]
        },
        {
            "positions": [
                -0.23497728885390795,
                -1.2386839472102036,
                2.048857200809291,
                -0.972585499879082,
                0.5251055765211583,
                -2.3942177758836913
            ]
        },
        {
            "positions": [
                -0.16323748982300745,
                -1.2198951475962336,
                2.0350483815126554,
                -0.9409224582178809,
                0.44657651559717326,
                -2.5491366081684226
            ]
        },
        {
            "positions": [
                -0.0914976907921069,
                -1.201106347982264,
                2.0212395622160195,
                -0.9092594165566799,
                0.3680474546731882,
                -2.7040554404531534
            ]
        },
        {
            "positions": [
                -0.019757891761206348,
                -1.1823175483682942,
                2.007430742919384,
                -0.8775963748954787,
                0.2895183937492031,
                -2.8589742727378846
            ]
        },
        {
            "positions": [
                0.051981907269694094,
                -1.1635287487543244,
                1.9936219236227481,
                -0.8459333332342776,
                0.21098933282521815,
                -3.013893105022616
            ]
        },
        {
            "positions": [
                0.12372170630059467,
                -1.1447399491403547,
                1.9798131043261125,
                -0.8142702915730765,
                0.13246027190123313,
                -3.1688119373073467
            ]
        }
    ]
}