{
    "goal": {
        "global_pose": {
            "orientation": {
                "w": 0.7047431468963623,
                "x": -0.7094548344612122,
                "y": 0.0024358443915843964,
                "z": -0.0022348060738295317
            },
            "position": {
                "x": 0.6094750761985779,
                "y": 0.3671506643295288,
                "z": 0.19426114857196808
            }
        },
        "name": "move_to_magneteinheit_A"
    },
    "id": "LBTRRT_move_to_magneteinheit_A_121",
    "joint_names": [
        "shoulder_pan_joint",
        "shoulder_lift_joint",
        "elbow_joint",
        "wrist_1_joint",
        "wrist_2_joint",
        "wrist_3_joint"
    ],
    "metrics": {
        "cart_traj_len": 3.1556433251608045,
        "distance_elbow_joint": 3.912240396682023,
        "distance_shoulder_lift_joint": 0.46864149553861767,
        "distance_shoulder_pan_joint": 2.8380606423167363,
        "distance_wrist_1_joint": 3.470011961971741,
        "distance_wrist_2_joint": 1.4420205126177266,
        "distance_wrist_3_joint": 0.4780421812603115,
        "smoothness": 0.048094845606185516,
        "time": 5.031753905,
        "traj_len": 3.5509177954983917,
        "weighted_distance": 4.298503696345654
    },
    "planner": "LBTRRT",
    "start": {
        "state": {
            "elbow_joint": -1.919618573717145,
            "shoulder_lift_joint": -1.2443395971678275,
            "shoulder_pan_joint": 2.6996025300909787,
            "wrist_1_joint": -1.548550951253194,
            "wrist_2_joint": -1.5709469090946802,
            "wrist_3_joint": 0.4420197732051276
        }
    },
    "waypoints": [
        {
            "positions": [
                2.6996025300909787,
                -1.2443395971678275,
                -1.919618573717145,
                -1.548550951253194,
                -1.5709469090946802,
                0.4420197732051276
            ]
        },
        {
            "positions": [
                2.5824933478181307,
                -1.24374523949224,
                -1.7934014201791255,
                -1.4727900433508294,
                -1.5194997016537755,
                0.4334313846589931
            ]
        },
        {
            "positions": [
                2.465384165545283,
                -1.2431508818166523,
                -1.667184266641106,
                -1.3970291354484647,
                -1.4680524942128708,
                0.42484299611285864
            ]
        },
        {
            "positions": [
                2.348274983272435,
                -1.2425565241410648,
                -1.5409671131030866,
                -1.3212682275461,
                -1.416605286771966,
                0.41625460756672417
            ]
        },
        {
            "positions": [
                2.2311658009995874,
                -1.2419621664654774,
                -1.4147499595650674,
                -1.2455073196437354,
                -1.3651580793310614,
                0.40766621902058975
            ]
        },
        {
            "positions": [
                2.1140566187267393,
                -1.2413678087898898,
                -1.2885328060270478,
                -1.1697464117413707,
                -1.3137108718901567,
                0.3990778304744553
            ]
        },
        {
            "positions": [
                1.9969474364538915,
                -1.2407734511143023,
                -1.1623156524890286,
                -1.093985503839006,
                -1.262263664449252,
                0.3904894419283208
            ]
        },
        {
            "positions": [
                1.8798382541810437,
                -1.2401790934387147,
                -1.0360984989510091,
                -1.0182245959366414,
                -1.2108164570083475,
                0.38190105338218633
            ]
        },
        {
            "positions": [
                1.7627290719081956,
                -1.239584735763127,
                -0.9098813454129897,
                -0.9424636880342766,
                -1.1593692495674426,
                0.37331266483605186
            ]
        },
        {
            "positions": [
                1.6456198896353478,
                -1.2389903780875395,
                -0.7836641918749703,
                -0.8667027801319119,
                -1.107922042126538,
                0.3647242762899174
            ]
        },
        {
            "positions": [
                1.5285107073625,
                -1.238396020411952,
                -0.6574470383369508,
                -0.7909418722295473,
                -1.0564748346856332,
                0.3561358877437829
            ]
        },
        {
            "positions": [
                1.4114015250896519,
                -1.2378016627363646,
                -0.5312298847989314,
                -0.7151809643271825,
                -1.0050276272447287,
                0.3475474991976485
            ]
        },
        {
            "positions": [
                1.2942923428168043,
                -1.237207305060777,
                -0.405012731260912,
                -0.6394200564248179,
                -0.9535804198038239,
                0.338959110651514
            ]
        },
        {
            "positions": [
                1.1771831605439562,
                -1.2366129473851895,
                -0.27879557772289254,
                -0.5636591485224531,
                -0.9021332123629192,
                0.33037072210537954
            ]
        },
        {
            "positions": [
                1.0600739782711086,
                -1.2360185897096019,
                -0.15257842418487333,
                -0.4878982406200887,
                -0.8506860049220146,
                0.32178233355924507
            ]
        },
        {
            "positions": [
                0.9429647959982606,
                -1.2354242320340143,
                -0.026361270646853674,
                -0.4121373327177238,
                -0.7992387974811099,
                0.3131939450131106
            ]
        },
        {
            "positions": [
                0.8258556137254125,
                -1.2348298743584267,
                0.09985588289116554,
                -0.3363764248153591,
                -0.7477915900402051,
                0.3046055564669762
            ]
        },
        {
            "positions": [
                0.7087464314525649,
                -1.2342355166828394,
                0.2260730364291852,
                -0.26061551691299445,
                -0.6963443825993005,
                0.29601716792084165
            ]
        },
        {
            "positions": [
                0.5916372491797168,
                -1.2336411590072518,
                0.3522901899672044,
                -0.18485460901062978,
                -0.6448971751583958,
                0.28742877937470723
            ]
        },
        {
            "positions": [
                0.4745280669068692,
                -1.2330468013316642,
                0.4785073435052236,
                -0.1090937011082651,
                -0.5934499677174911,
                0.27884039082857276
            ]
        },
        {
            "positions": [
                0.35741888463402094,
                -1.2324524436560766,
                0.6047244970432433,
                -0.033332793205900435,
                -0.5420027602765864,
                0.2702520022824383
            ]
        },
        {
            "positions": [
                0.30041071916551065,
                -1.2106217162191473,
                0.705853227699878,
                0.08050153617386085,
                -0.4961979540102776,
                0.27280941163823097
            ]
        },
        {
            "positions": [
                0.24340255369700034,
                -1.1887909887822177,
                0.8069819583565128,
                0.19433586555362214,
                -0.4503931477439688,
                0.27536682099402365
            ]
        },
        {
            "positions": [
                0.18639438822849003,
                -1.166960261345288,
                0.9081106890131476,
                0.30817019493338343,
                -0.40458834147766,
                0.2779242303498164
            ]
        },
        {
            "positions": [
                0.12938622275997974,
                -1.1451295339083587,
                1.0092394196697825,
                0.4220045243131447,
                -0.3587835352113512,
                0.2804816397056091
            ]
        },
        {
            "positions": [
                0.0723780572914694,
                -1.1232988064714293,
                1.1103681503264173,
                0.5358388536929061,
                -0.3129787289450423,
                0.28303904906140176
            ]
        },
        {
            "positions": [
                0.015369891822959107,
                -1.1014680790344997,
                1.211496880983052,
                0.6496731830726673,
                -0.2671739226787335,
                0.28559645841719444
            ]
        },
        {
            "positions": [
                -0.007599701068349007,
                -1.0815710710999347,
                1.2799501117014431,
                0.7394163359154637,
                -0.2413567616303986,
                0.28081363128708203
            ]
        },
        {
            "positions": [
                0.0028907098010873336,
                -1.0398966458608492,
                1.3823332282835186,
                0.9031113476135016,
                -0.22268323790446384,
                0.24751731905971275
            ]
        },
        {
            "positions": [
                0.013381120670523675,
                -0.9982222206217637,
                1.4847163448655938,
                1.0668063593115396,
                -0.2040097141785291,
                0.21422100683234346
            ]
        },
        {
            "positions": [
                0.023871531539960016,
                -0.9565477953826782,
                1.5870994614476692,
                1.2305013710095776,
                -0.18533619045259433,
                0.18092469460497418
            ]
        },
        {
            "positions": [
                0.03436194240939636,
                -0.9148733701435927,
                1.6894825780297444,
                1.3941963827076154,
                -0.16666266672665958,
                0.14762838237760492
            ]
        },
        {
            "positions": [
                0.0448523532788327,
                -0.8731989449045071,
                1.79186569461182,
                1.5578913944056536,
                -0.14798914300072483,
                0.11433207015023564
            ]
        },
        {
            "positions": [
                0.05534276414826904,
                -0.8315245196654216,
                1.8942488111938953,
                1.7215864061036914,
                -0.12931561927479007,
                0.08103575792286635
            ]
        },
        {
            "positions": [
                0.08930073711866529,
                -0.8036113106473157,
                1.9434353170793868,
                1.821523708411119,
                -0.1295102306737082,
                0.037851131068597346
            ]
        },
        {
            "positions": [
                0.12325871008906154,
                -0.7756981016292098,
                1.9926218229648784,
                1.921461010718547,
                -0.12970484207262636,
                -0.005333495785671657
            ]
        }
    ]
}{
    "goal": {
        "global_pose": {
            "orientation": {
                "w": 0.7047431468963623,
                "x": -0.7094548344612122,
                "y": 0.0024358443915843964,
                "z": -0.0022348060738295317
            },
            "position": {
                "x": 0.6094750761985779,
                "y": 0.3671506643295288,
                "z": 0.19426114857196808
            }
        },
        "name": "move_to_magneteinheit_A"
    },
    "id": "LBTRRT_move_to_magneteinheit_A_121",
    "joint_names": [
        "shoulder_pan_joint",
        "shoulder_lift_joint",
        "elbow_joint",
        "wrist_1_joint",
        "wrist_2_joint",
        "wrist_3_joint"
    ],
    "metrics": {
        "cart_traj_len": 1.437185918857653,
        "distance_elbow_joint": 0.5175233395239487,
        "distance_shoulder_lift_joint": 1.1135205741028271,
        "distance_shoulder_pan_joint": 1.2411390797841058,
        "distance_wrist_1_joint": 0.896118414493728,
        "distance_wrist_2_joint": 1.4364063638837947,
        "distance_wrist_3_joint": 4.2561781891248565,
        "smoothness": 0.25990800115706003,
        "time": 5.0330314309999995,
        "traj_len": 3.075855321843546,
        "weighted_distance": 4.506192086178806
    },
    "planner": "LBTRRT",
    "start": {
        "state": {
            "elbow_joint": 1.919643534880228,
            "shoulder_lift_joint": -1.8972525353963687,
            "shoulder_pan_joint": -1.1188672234189438,
            "wrist_1_joint": -1.5931878212786155,
            "wrist_2_joint": 1.5706036197970081,
            "wrist_3_joint": 1.118896926603594
        }
    },
    "waypoints": [
        {
            "positions": [
                -1.1188672234189438,
                -1.8972525353963687,
                1.919643534880228,
                -1.5931878212786155,
                1.5706036197970081,
                1.118896926603594
            ]
        },
        {
            "positions": [
                -1.0605599486458108,
                -1.8528793006361455,
                1.908889214886687,
                -1.5538693455246702,
                1.5176081995314,
                0.9372042264054895
            ]
        },
        {
            "positions": [
                -1.0022526738726778,
                -1.8085060658759222,
                1.8981348948931458,
                -1.514550869770725,
                1.4646127792657915,
                0.755511526207385
            ]
        },
        {
            "positions": [
                -0.9439453990995448,
                -1.764132831115699,
                1.8873805748996044,
                -1.4752323940167797,
                1.411617359000183,
                0.5738188260092805
            ]
        },
        {
            "positions": [
                -0.8856381243264118,
                -1.7197595963554757,
                1.8766262549060633,
                -1.4359139182628347,
                1.3586219387345748,
                0.392126125811176
            ]
        },
        {
            "positions": [
                -0.8273308495532787,
                -1.6753863615952524,
                1.8658719349125221,
                -1.3965954425088893,
                1.3056265184689666,
                0.21043342561307155
            ]
        },
        {
            "positions": [
                -0.7690235747801457,
                -1.6310131268350292,
                1.855117614918981,
                -1.3572769667549442,
                1.2526310982033582,
                0.028740725414966972
            ]
        },
        {
            "positions": [
                -0.7107163000070127,
                -1.586639892074806,
                1.8443632949254396,
                -1.317958491000999,
                1.1996356779377497,
                -0.15295197478313738
            ]
        },
        {
            "positions": [
                -0.6524090252338797,
                -1.5422666573145827,
                1.8336089749318984,
                -1.2786400152470536,
                1.1466402576721415,
                -0.33464467498124195
            ]
        },
        {
            "positions": [
                -0.5941017504607466,
                -1.4978934225543594,
                1.8228546549383573,
                -1.2393215394931085,
                1.0936448374065333,
                -0.5163373751793465
            ]
        },
        {
            "positions": [
                -0.5357944756876136,
                -1.4535201877941362,
                1.8121003349448161,
                -1.2000030637391632,
                1.0406494171409248,
                -0.6980300753774509
            ]
        },
        {
            "positions": [
                -0.4774872009144806,
                -1.4091469530339127,
                1.8013460149512748,
                -1.160684587985218,
                0.9876539968753164,
                -0.8797227755755557
            ]
        },
        {
            "positions": [
                -0.4191799261413476,
                -1.3647737182736894,
                1.7905916949577336,
                -1.1213661122312728,
                0.9346585766097082,
                -1.06141547577366
            ]
        },
        {
            "positions": [
                -0.36087265136821456,
                -1.3204004835134664,
                1.7798373749641925,
                -1.0820476364773275,
                0.8816631563440998,
                -1.2431081759717648
            ]
        },
        {
            "positions": [
                -0.30256537659508154,
                -1.276027248753243,
                1.7690830549706513,
                -1.0427291607233824,
                0.8286677360784915,
                -1.4248008761698687
            ]
        },
        {
            "positions": [
                -0.24425810182194851,
                -1.2316540139930197,
                1.75832873497711,
                -1.003410684969437,
                0.7756723158128831,
                -1.6064935763679735
            ]
        },
        {
            "positions": [
                -0.1859508270488155,
                -1.1872807792327964,
                1.7475744149835688,
                -0.9640922092154919,
                0.7226768955472749,
                -1.7881862765660779
            ]
        },
        {
            "positions": [
                -0.12764355227568247,
                -1.1429075444725731,
                1.7368200949900277,
                -0.9247737334615467,
                0.6696814752816664,
                -1.9698789767641827
            ]
        },
        {
            "positions": [
                -0.06933627750254945,
                -1.0985343097123499,
                1.7260657749964865,
                -0.8854552577076015,
                0.6166860550160582,
                -2.151571676962287
            ]
        },
        {
            "positions": [
                -0.011029002729416426,
                -1.0541610749521266,
                1.7153114550029454,
                -0.8461367819536562,
                0.5636906347504498,
                -2.3332643771603916
            ]
        },
        {
            "positions": [
                0.047278272043716596,
                -1.0097878401919034,
                1.704557135009404,
                -0.8068183061997111,
                0.5106952144848416,
                -2.5149570773584955
            ]
        },
        {
            "positions": [
                0.10558554681684953,
                -0.9654146054316801,
                1.6938028150158628,
                -0.7674998304457658,
                0.45769979421923307,
                -2.6966497775566003
            ]
        },
        {
            "positions": [
                0.10975712420392751,
                -1.0108352664662148,
                1.7667234699307586,
                -0.7851074363609853,
                0.3768241596427281,
                -2.806807648797766
            ]
        },
        {
            "positions": [
                0.11392870159100549,
                -1.0562559275007493,
                1.8396441248456545,
                -0.8027150422762048,
                0.29594852506622316,
                -2.9169655200389317
            ]
        },
        {
            "positions": [
                0.11810027897808348,
                -1.101676588535284,
                1.9125647797605505,
                -0.8203226481914244,
                0.2150728904897182,
                -3.0271233912800977
            ]
        },
        {
            "positions": [
                0.12227185636516145,
                -1.1470972495698186,
                1.9854854346754462,
                -0.837930254106644,
                0.13419725591321324,
                -3.137281262521263
            ]
        }
    ]
}