{
    "goal": {
        "global_pose": {
            "orientation": {
                "w": 0.5084816217422485,
                "x": -0.49083608388900757,
                "y": 0.5182115435600281,
                "z": -0.4816462993621826
            },
            "position": {
                "x": 0.5540239810943604,
                "y": 0.030875300988554955,
                "z": 0.16403168439865112
            }
        },
        "name": "move_to_storage_A"
    },
    "id": "LBTRRT_move_to_storage_A_107",
    "joint_names": [
        "shoulder_pan_joint",
        "shoulder_lift_joint",
        "elbow_joint",
        "wrist_1_joint",
        "wrist_2_joint",
        "wrist_3_joint"
    ],
    "metrics": {
        "cart_traj_len": 0.3527524108189409,
        "distance_elbow_joint": 0.45119212534644904,
        "distance_shoulder_lift_joint": 0.2316154763545759,
        "distance_shoulder_pan_joint": 0.46001654099819794,
        "distance_wrist_1_joint": 0.25590552118244003,
        "distance_wrist_2_joint": 1.1020155693338274,
        "distance_wrist_3_joint": 0.09249576095073797,
        "smoothness": 0.0,
        "time": 5.004405986,
        "traj_len": 1.6103543070288069,
        "weighted_distance": 2.0337535756782263
    },
    "planner": "LBTRRT",
    "start": {
        "state": {
            "elbow_joint": 1.9715477243005601,
            "shoulder_lift_joint": -1.1394853015351272,
            "shoulder_pan_joint": 0.12281154014795169,
            "wrist_1_joint": -0.7804696478968182,
            "wrist_2_joint": 0.12958648046900423,
            "wrist_3_joint": -3.192491284697111
        }
    },
    "waypoints": [
        {
            "positions": [
                0.12281154014795169,
                -1.1394853015351272,
                1.9715477243005601,
                -0.7804696478968182,
                0.12958648046900423,
                -3.192491284697111
            ]
        },
        {
            "positions": [
                0.05709489143392342,
                -1.172573226728638,
                2.0360037422071957,
                -0.8170275794943096,
                0.28701727608812244,
                -3.1792776045612916
            ]
        },
        {
            "positions": [
                -0.00862175728010485,
                -1.205661151922149,
                2.1004597601138313,
                -0.853585511091801,
                0.4444480717072406,
                -3.1660639244254716
            ]
        },
        {
            "positions": [
                -0.07433840599413312,
                -1.2387490771156597,
                2.164915778020467,
                -0.8901434426892925,
                0.6018788673263589,
                -3.152850244289652
            ]
        },
        {
            "positions": [
                -0.14005505470816138,
                -1.2718370023091705,
                2.2293717959271024,
                -0.9267013742867839,
                0.759309662945477,
                -3.1396365641538324
            ]
        },
        {
            "positions": [
                -0.2057717034221897,
                -1.3049249275026815,
                2.293827813833738,
                -0.9632593058842753,
                0.9167404585645952,
                -3.126422884018013
            ]
        },
        {
            "positions": [
                -0.2714883521362179,
                -1.3380128526961923,
                2.3582838317403736,
                -0.9998172374817668,
                1.0741712541837134,
                -3.113209203882193
            ]
        },
        {
            "positions": [
                -0.33720500085024624,
                -1.371100777889703,
                2.422739849647009,
                -1.0363751690792582,
                1.2316020498028315,
                -3.099995523746373
            ]
        }
    ]
}