{
    "goal": {
        "global_pose": {
            "orientation": {
                "w": 0.5084816217422485,
                "x": -0.49083608388900757,
                "y": 0.5182115435600281,
                "z": -0.4816462993621826
            },
            "position": {
                "x": 0.5540239810943604,
                "y": 0.030875300988554955,
                "z": 0.16403168439865112
            }
        },
        "name": "move_to_storage_A"
    },
    "id": "LBTRRT_move_to_storage_A_86",
    "joint_names": [
        "shoulder_pan_joint",
        "shoulder_lift_joint",
        "elbow_joint",
        "wrist_1_joint",
        "wrist_2_joint",
        "wrist_3_joint"
    ],
    "metrics": {
        "cart_traj_len": 0.35364327342322555,
        "distance_elbow_joint": 0.4504080529599066,
        "distance_shoulder_lift_joint": 0.23291787095212424,
        "distance_shoulder_pan_joint": 0.46276984987520103,
        "distance_wrist_1_joint": 0.24674106818128305,
        "distance_wrist_2_joint": 1.0977744962045715,
        "distance_wrist_3_joint": 0.1052941855475451,
        "smoothness": 6.661338165333112e-16,
        "time": 5.0045709160000005,
        "traj_len": 1.611181406211179,
        "weighted_distance": 2.0374026256981157
    },
    "planner": "LBTRRT",
    "start": {
        "state": {
            "elbow_joint": 1.9715477243005601,
            "shoulder_lift_joint": -1.1394853015351272,
            "shoulder_pan_joint": 0.12281154014795169,
            "wrist_1_joint": -0.7804696478968182,
            "wrist_2_joint": 0.12958648046900423,
            "wrist_3_joint": -3.192491284697111
        }
    },
    "waypoints": [
        {
            "positions": [
                0.12281154014795169,
                -1.1394853015351272,
                1.9715477243005601,
                -0.7804696478968182,
                0.12958648046900423,
                -3.192491284697111
            ]
        },
        {
            "positions": [
                0.05670156159435155,
                -1.1727592830997164,
                2.0358917318662613,
                -0.8157183719227158,
                0.2864114084982287,
                -3.177449258190319
            ]
        },
        {
            "positions": [
                -0.009408416959248586,
                -1.2060332646643055,
                2.100235739431962,
                -0.8509670959486133,
                0.4432363365274532,
                -3.162407231683527
            ]
        },
        {
            "positions": [
                -0.07551839551284874,
                -1.2393072462288948,
                2.164579746997663,
                -0.8862158199745109,
                0.6000612645566776,
                -3.147365205176735
            ]
        },
        {
            "positions": [
                -0.14162837406644885,
                -1.2725812277934838,
                2.228923754563364,
                -0.9214645440004084,
                0.7568861925859022,
                -3.1323231786699424
            ]
        },
        {
            "positions": [
                -0.20773835262004903,
                -1.305855209358073,
                2.293267762129065,
                -0.9567132680263061,
                0.9137111206151267,
                -3.1172811521631503
            ]
        },
        {
            "positions": [
                -0.27384833117364915,
                -1.3391291909226621,
                2.3576117696947656,
                -0.9919619920522036,
                1.0705360486443511,
                -3.102239125656358
            ]
        },
        {
            "positions": [
                -0.33995830972724933,
                -1.3724031724872514,
                2.4219557772604667,
                -1.0272107160781012,
                1.2273609766735758,
                -3.087197099149566
            ]
        }
    ]
}