{
    "goal": {
        "global_pose": {
            "orientation": {
                "w": 0.7047431468963623,
                "x": -0.7094548344612122,
                "y": 0.0024358443915843964,
                "z": -0.0022348060738295317
            },
            "position": {
                "x": 0.6094750761985779,
                "y": 0.3671506643295288,
                "z": 0.19426114857196808
            }
        },
        "name": "move_to_magneteinheit_A"
    },
    "id": "LBTRRT_move_to_magneteinheit_A_144",
    "joint_names": [
        "shoulder_pan_joint",
        "shoulder_lift_joint",
        "elbow_joint",
        "wrist_1_joint",
        "wrist_2_joint",
        "wrist_3_joint"
    ],
    "metrics": {
        "cart_traj_len": 2.9964592237725363,
        "distance_elbow_joint": 3.936475462106604,
        "distance_shoulder_lift_joint": 0.7147037157815349,
        "distance_shoulder_pan_joint": 2.8137246139228664,
        "distance_wrist_1_joint": 3.558764213229951,
        "distance_wrist_2_joint": 1.4583897982136094,
        "distance_wrist_3_joint": 0.7292266203267872,
        "smoothness": 0.19478305793308678,
        "time": 5.0356487979999995,
        "traj_len": 3.6347330608424815,
        "weighted_distance": 4.436991286410025
    },
    "planner": "LBTRRT",
    "start": {
        "state": {
            "elbow_joint": -1.919618573717145,
            "shoulder_lift_joint": -1.2443395971678275,
            "shoulder_pan_joint": 2.6996025300909787,
            "wrist_1_joint": -1.548550951253194,
            "wrist_2_joint": -1.5709469090946802,
            "wrist_3_joint": 0.4420197732051276
        }
    },
    "waypoints": [
        {
            "positions": [
                2.6996025300909787,
                -1.2443395971678275,
                -1.919618573717145,
                -1.548550951253194,
                -1.5709469090946802,
                0.4420197732051276
            ]
        },
        {
            "positions": [
                2.6006651824089286,
                -1.2491265759309205,
                -1.794530554167976,
                -1.4575182935338629,
                -1.5204427534865461,
                0.42161468468328606
            ]
        },
        {
            "positions": [
                2.501727834726878,
                -1.2539135546940132,
                -1.669442534618807,
                -1.3664856358145316,
                -1.469938597878412,
                0.4012095961614446
            ]
        },
        {
            "positions": [
                2.402790487044828,
                -1.2587005334571062,
                -1.5443545150696383,
                -1.2754529780952004,
                -1.419434442270278,
                0.38080450763960305
            ]
        },
        {
            "positions": [
                2.303853139362778,
                -1.263487512220199,
                -1.4192664955204692,
                -1.1844203203758692,
                -1.368930286662144,
                0.3603994191177615
            ]
        },
        {
            "positions": [
                2.2049157916807274,
                -1.268274490983292,
                -1.2941784759713002,
                -1.093387662656538,
                -1.31842613105401,
                0.33999433059592005
            ]
        },
        {
            "positions": [
                2.1059784439986773,
                -1.2730614697463847,
                -1.1690904564221314,
                -1.0023550049372068,
                -1.267921975445876,
                0.3195892420740785
            ]
        },
        {
            "positions": [
                2.0070410963166267,
                -1.2778484485094777,
                -1.0440024368729626,
                -0.9113223472178756,
                -1.2174178198377417,
                0.29918415355223704
            ]
        },
        {
            "positions": [
                1.9081037486345767,
                -1.2826354272725704,
                -0.9189144173237935,
                -0.8202896894985445,
                -1.1669136642296076,
                0.2787790650303955
            ]
        },
        {
            "positions": [
                1.8091664009525266,
                -1.2874224060356634,
                -0.7938263977746247,
                -0.7292570317792133,
                -1.1164095086214736,
                0.258373976508554
            ]
        },
        {
            "positions": [
                1.7102290532704763,
                -1.2922093847987564,
                -0.6687383782254557,
                -0.6382243740598821,
                -1.0659053530133396,
                0.2379688879867125
            ]
        },
        {
            "positions": [
                1.611291705588426,
                -1.296996363561849,
                -0.5436503586762869,
                -0.5471917163405509,
                -1.0154011974052055,
                0.217563799464871
            ]
        },
        {
            "positions": [
                1.5123543579063756,
                -1.301783342324942,
                -0.4185623391271178,
                -0.45615905862121964,
                -0.9648970417970715,
                0.19715871094302947
            ]
        },
        {
            "positions": [
                1.4134170102243255,
                -1.3065703210880348,
                -0.293474319577949,
                -0.3651264009018884,
                -0.9143928861889373,
                0.17675362242118797
            ]
        },
        {
            "positions": [
                1.3144796625422752,
                -1.3113572998511278,
                -0.16838630002877997,
                -0.2740937431825572,
                -0.8638887305808033,
                0.15634853389934644
            ]
        },
        {
            "positions": [
                1.215542314860225,
                -1.3161442786142206,
                -0.04329828047961093,
                -0.18306108546322597,
                -0.8133845749726691,
                0.1359434453775049
            ]
        },
        {
            "positions": [
                1.1166049671781748,
                -1.3209312573773135,
                0.08178973906955789,
                -0.09202842774389497,
                -0.7628804193645352,
                0.11553835685566344
            ]
        },
        {
            "positions": [
                1.0176676194961243,
                -1.3257182361404063,
                0.20687775861872715,
                -0.0009957700245635248,
                -0.7123762637564011,
                0.09513326833382191
            ]
        },
        {
            "positions": [
                0.9187302718140742,
                -1.3305052149034993,
                0.3319657781678955,
                0.09003688769476748,
                -0.661872108148267,
                0.07472817981198043
            ]
        },
        {
            "positions": [
                0.8197929241320239,
                -1.3352921936665922,
                0.4570537977170648,
                0.18106954541409892,
                -0.611367952540133,
                0.0543230912901389
            ]
        },
        {
            "positions": [
                0.7208555764499738,
                -1.340079172429685,
                0.5821418172662336,
                0.2721022031334299,
                -0.560863796931999,
                0.03391800276829743
            ]
        },
        {
            "positions": [
                0.6219182287679232,
                -1.344866151192778,
                0.7072298368154029,
                0.36313486085276137,
                -0.5103596413238649,
                0.013512914246455898
            ]
        },
        {
            "positions": [
                0.5229808810858732,
                -1.3496531299558707,
                0.8323178563645712,
                0.45416751857209237,
                -0.45985548571573087,
                -0.006892174275385576
            ]
        },
        {
            "positions": [
                0.4240435334038226,
                -1.3544401087189637,
                0.9574058759137405,
                0.5452001762914236,
                -0.4093513301075966,
                -0.027297262797227162
            ]
        },
        {
            "positions": [
                0.3251061857217725,
                -1.3592270874820565,
                1.0824938954629093,
                0.6362328340107548,
                -0.3588471744994628,
                -0.04770235131906864
            ]
        },
        {
            "positions": [
                0.22616883803972243,
                -1.3640140662451494,
                1.2075819150120786,
                0.727265491730086,
                -0.30834301889132854,
                -0.06810743984091011
            ]
        },
        {
            "positions": [
                0.12723149035767234,
                -1.3688010450082422,
                1.332669934561247,
                0.8182981494494173,
                -0.2578388632831945,
                -0.08851252836275164
            ]
        },
        {
            "positions": [
                0.02829414267562186,
                -1.3735880237713352,
                1.4577579541104164,
                0.9093308071687485,
                -0.20733470767506051,
                -0.10891761688459314
            ]
        },
        {
            "positions": [
                0.022329284749119244,
                -1.3100256284797316,
                1.5436641878024957,
                1.0722414861210847,
                -0.18688906892165846,
                -0.11814857207731894
            ]
        },
        {
            "positions": [
                0.01636442682261663,
                -1.2464632331881278,
                1.629570421494575,
                1.2351521650734207,
                -0.16644343016825638,
                -0.12737952727004476
            ]
        },
        {
            "positions": [
                0.010399568896114014,
                -1.1829008378965242,
                1.715476655186654,
                1.3980628440257568,
                -0.1459977914148543,
                -0.13661048246277055
            ]
        },
        {
            "positions": [
                0.0044347109696114,
                -1.1193384426049207,
                1.8013828888787333,
                1.560973522978093,
                -0.12555215266145225,
                -0.14584143765549634
            ]
        },
        {
            "positions": [
                0.04039155015028664,
                -1.0123960141367643,
                1.867249909040171,
                1.6903879288136636,
                -0.12402554536221276,
                -0.11347466796865348
            ]
        },
        {
            "positions": [
                0.07634838933096189,
                -0.9054535856686081,
                1.933116929201609,
                1.8198023346492342,
                -0.12249893806297325,
                -0.08110789828181061
            ]
        },
        {
            "positions": [
                0.11230522851163714,
                -0.7985111572004517,
                1.9989839493630468,
                1.9492167404848049,
                -0.12097233076373376,
                -0.04874112859496774
            ]
        },
        {
            "positions": [
                0.12299150577110968,
                -0.7881327345933079,
                2.016856888389459,
                2.0102132619767565,
                -0.12938755064639693,
                -0.09300622900060267
            ]
        }
    ]
}{
    "goal": {
        "global_pose": {
            "orientation": {
                "w": 0.7047431468963623,
                "x": -0.7094548344612122,
                "y": 0.0024358443915843964,
                "z": -0.0022348060738295317
            },
            "position": {
                "x": 0.6094750761985779,
                "y": 0.3671506643295288,
                "z": 0.19426114857196808
            }
        },
        "name": "move_to_magneteinheit_A"
    },
    "id": "LBTRRT_move_to_magneteinheit_A_144",
    "joint_names": [
        "shoulder_pan_joint",
        "shoulder_lift_joint",
        "elbow_joint",
        "wrist_1_joint",
        "wrist_2_joint",
        "wrist_3_joint"
    ],
    "metrics": {
        "cart_traj_len": 1.4858634158234043,
        "distance_elbow_joint": 0.07067350141666195,
        "distance_shoulder_lift_joint": 0.7476164501588407,
        "distance_shoulder_pan_joint": 1.2409099408542912,
        "distance_wrist_1_joint": 0.8613910623722687,
        "distance_wrist_2_joint": 2.4586929238676216,
        "distance_wrist_3_joint": 4.246275667049822,
        "smoothness": 0.18883511941101036,
        "time": 5.048459589,
        "traj_len": 3.1025085891451623,
        "weighted_distance": 4.630139832236067
    },
    "planner": "LBTRRT",
    "start": {
        "state": {
            "elbow_joint": 1.919643534880228,
            "shoulder_lift_joint": -1.8972525353963687,
            "shoulder_pan_joint": -1.1188672234189438,
            "wrist_1_joint": -1.5931878212786155,
            "wrist_2_joint": 1.5706036197970081,
            "wrist_3_joint": 1.118896926603594
        }
    },
    "waypoints": [
        {
            "positions": [
                -1.1188672234189438,
                -1.8972525353963687,
                1.919643534880228,
                -1.5931878212786155,
                1.5706036197970081,
                1.118896926603594
            ]
        },
        {
            "positions": [
                -1.1147936603173478,
                -1.8564846146757619,
                1.9204275616174913,
                -1.5432216535617314,
                1.4488572681239438,
                0.9626089899592414
            ]
        },
        {
            "positions": [
                -1.1107200972157518,
                -1.8157166939551552,
                1.9212115883547547,
                -1.4932554858448472,
                1.3271109164508794,
                0.8063210533148889
            ]
        },
        {
            "positions": [
                -1.1066465341141558,
                -1.7749487732345486,
                1.9219956150920179,
                -1.4432893181279631,
                1.2053645647778153,
                0.6500331166705364
            ]
        },
        {
            "positions": [
                -1.1025729710125598,
                -1.7341808525139417,
                1.922779641829281,
                -1.3933231504110792,
                1.083618213104751,
                0.49374518002618384
            ]
        },
        {
            "positions": [
                -1.0984994079109638,
                -1.6934129317933349,
                1.9235636685665445,
                -1.3433569826941951,
                0.9618718614316866,
                0.33745724338183125
            ]
        },
        {
            "positions": [
                -1.0944258448093678,
                -1.6526450110727282,
                1.9243476953038077,
                -1.293390814977311,
                0.8401255097586223,
                0.18116930673747877
            ]
        },
        {
            "positions": [
                -1.0903522817077718,
                -1.6118770903521216,
                1.925131722041071,
                -1.243424647260427,
                0.7183791580855581,
                0.024881370093126298
            ]
        },
        {
            "positions": [
                -1.0862787186061755,
                -1.5711091696315147,
                1.9259157487783343,
                -1.1934584795435428,
                0.5966328064124937,
                -0.1314065665512263
            ]
        },
        {
            "positions": [
                -1.0822051555045795,
                -1.5303412489109078,
                1.9266997755155975,
                -1.143492311826659,
                0.47488645473942936,
                -0.2876945031955789
            ]
        },
        {
            "positions": [
                -1.0781315924029835,
                -1.4895733281903012,
                1.9274838022528609,
                -1.0935261441097748,
                0.353140103066365,
                -0.44398243983993146
            ]
        },
        {
            "positions": [
                -1.0740580293013875,
                -1.4488054074696946,
                1.928267828990124,
                -1.0435599763928907,
                0.23139375139330087,
                -0.6002703764842838
            ]
        },
        {
            "positions": [
                -1.0699844661997915,
                -1.4080374867490877,
                1.9290518557273875,
                -0.9935938086760066,
                0.10964739972023652,
                -0.7565583131286364
            ]
        },
        {
            "positions": [
                -1.0659109030981955,
                -1.3672695660284808,
                1.9298358824646507,
                -0.9436276409591225,
                -0.012098951952827841,
                -0.9128462497729888
            ]
        },
        {
            "positions": [
                -1.0618373399965995,
                -1.3265016453078742,
                1.9306199092019138,
                -0.8936614732422384,
                -0.13384530362589198,
                -1.0691341864173414
            ]
        },
        {
            "positions": [
                -1.0577637768950034,
                -1.2857337245872675,
                1.9314039359391773,
                -0.8436953055253544,
                -0.25559165529895633,
                -1.225422123061694
            ]
        },
        {
            "positions": [
                -1.0536902137934074,
                -1.2449658038666607,
                1.9321879626764404,
                -0.7937291378084703,
                -0.3773380069720207,
                -1.3817100597060468
            ]
        },
        {
            "positions": [
                -0.936116920670532,
                -1.2354328320037473,
                1.9380008700384854,
                -0.7999223756986826,
                -0.3262628772621613,
                -1.556276927780065
            ]
        },
        {
            "positions": [
                -0.8185436275476565,
                -1.2258998601408342,
                1.9438137774005304,
                -0.806115613588895,
                -0.2751877475523019,
                -1.730843795854083
            ]
        },
        {
            "positions": [
                -0.7009703344247811,
                -1.2163668882779208,
                1.9496266847625754,
                -0.8123088514791074,
                -0.2241126178424425,
                -1.9054106639281012
            ]
        },
        {
            "positions": [
                -0.5833970413019055,
                -1.2068339164150077,
                1.9554395921246204,
                -0.8185020893693198,
                -0.17303748813258307,
                -2.079977532002119
            ]
        },
        {
            "positions": [
                -0.46582374817903005,
                -1.1973009445520943,
                1.9612524994866654,
                -0.8246953272595321,
                -0.12196235842272368,
                -2.2545444000761377
            ]
        },
        {
            "positions": [
                -0.3482504550561546,
                -1.187767972689181,
                1.9670654068487101,
                -0.8308885651497444,
                -0.07088722871286429,
                -2.429111268150155
            ]
        },
        {
            "positions": [
                -0.23067716193327914,
                -1.1782350008262679,
                1.972878314210755,
                -0.8370818030399568,
                -0.0198120990030049,
                -2.6036781362241737
            ]
        },
        {
            "positions": [
                -0.11310386881040357,
                -1.1687020289633545,
                1.9786912215728,
                -0.8432750409301691,
                0.031263030706854544,
                -2.778245004298192
            ]
        },
        {
            "positions": [
                0.004469424312471881,
                -1.1591690571004414,
                1.984504128934845,
                -0.8494682788203816,
                0.08233816041671393,
                -2.95281187237221
            ]
        },
        {
            "positions": [
                0.1220427174353474,
                -1.149636085237528,
                1.99031703629689,
                -0.8556615167105939,
                0.1334132901265733,
                -3.127378740446228
            ]
        }
    ]
}