{
    "goal": {
        "global_pose": {
            "orientation": {
                "w": 0.5084816217422485,
                "x": -0.49083608388900757,
                "y": 0.5182115435600281,
                "z": -0.4816462993621826
            },
            "position": {
                "x": 0.5540239810943604,
                "y": 0.030875300988554955,
                "z": 0.16403168439865112
            }
        },
        "name": "move_to_storage_A"
    },
    "id": "LBTRRT_move_to_storage_A_39",
    "joint_names": [
        "shoulder_pan_joint",
        "shoulder_lift_joint",
        "elbow_joint",
        "wrist_1_joint",
        "wrist_2_joint",
        "wrist_3_joint"
    ],
    "metrics": {
        "cart_traj_len": 0.35370210283230413,
        "distance_elbow_joint": 0.4501777245072245,
        "distance_shoulder_lift_joint": 0.23502445562775054,
        "distance_shoulder_pan_joint": 0.4611925382020076,
        "distance_wrist_1_joint": 0.24204753942835422,
        "distance_wrist_2_joint": 1.106103866725566,
        "distance_wrist_3_joint": 0.10265931489034053,
        "smoothness": 8.881784197001252e-16,
        "time": 5.0059360889999995,
        "traj_len": 1.6115847602224476,
        "weighted_distance": 2.037320660896523
    },
    "planner": "LBTRRT",
    "start": {
        "state": {
            "elbow_joint": 1.9715477243005601,
            "shoulder_lift_joint": -1.1394853015351272,
            "shoulder_pan_joint": 0.12281154014795169,
            "wrist_1_joint": -0.7804696478968182,
            "wrist_2_joint": 0.12958648046900423,
            "wrist_3_joint": -3.192491284697111
        }
    },
    "waypoints": [
        {
            "positions": [
                0.12281154014795169,
                -1.1394853015351272,
                1.9715477243005601,
                -0.7804696478968182,
                0.12958648046900423,
                -3.192491284697111
            ]
        },
        {
            "positions": [
                0.05692689183337918,
                -1.173060223767663,
                2.0358588278015923,
                -0.8150478678151545,
                0.2876013185726565,
                -3.177825668284205
            ]
        },
        {
            "positions": [
                -0.008957756481193332,
                -1.2066351460001987,
                2.100169931302624,
                -0.8496260877334908,
                0.44561615667630877,
                -3.1631600518712997
            ]
        },
        {
            "positions": [
                -0.07484240479576586,
                -1.2402100682327346,
                2.1644810348036563,
                -0.8842043076518271,
                0.6036309947799611,
                -3.1484944354583937
            ]
        },
        {
            "positions": [
                -0.14072705311033834,
                -1.2737849904652703,
                2.2287921383046885,
                -0.9187825275701634,
                0.7616458328836133,
                -3.133828819045488
            ]
        },
        {
            "positions": [
                -0.20661170142491087,
                -1.3073599126978062,
                2.2931032418057207,
                -0.9533607474884997,
                0.9196606709872657,
                -3.119163202632582
            ]
        },
        {
            "positions": [
                -0.2724963497394834,
                -1.3409348349303418,
                2.3574143453067524,
                -0.9879389674068361,
                1.077675509090918,
                -3.1044975862196766
            ]
        },
        {
            "positions": [
                -0.3383809980540559,
                -1.3745097571628777,
                2.4217254488077846,
                -1.0225171873251724,
                1.2356903471945704,
                -3.0898319698067707
            ]
        }
    ]
}