{
    "goal": {
        "global_pose": {
            "orientation": {
                "w": 0.5084816217422485,
                "x": -0.49083608388900757,
                "y": 0.5182115435600281,
                "z": -0.4816462993621826
            },
            "position": {
                "x": 0.5540239810943604,
                "y": 0.030875300988554955,
                "z": 0.16403168439865112
            }
        },
        "name": "move_to_storage_A"
    },
    "id": "LBTRRT_move_to_storage_A_91",
    "joint_names": [
        "shoulder_pan_joint",
        "shoulder_lift_joint",
        "elbow_joint",
        "wrist_1_joint",
        "wrist_2_joint",
        "wrist_3_joint"
    ],
    "metrics": {
        "cart_traj_len": 0.3525111214372205,
        "distance_elbow_joint": 0.45241493509883,
        "distance_shoulder_lift_joint": 0.23191845996913885,
        "distance_shoulder_pan_joint": 0.4568814101264861,
        "distance_wrist_1_joint": 0.2586969916639278,
        "distance_wrist_2_joint": 1.1141937826952892,
        "distance_wrist_3_joint": 0.10212772440587381,
        "smoothness": 2.2204460668324854e-16,
        "time": 5.009706383999999,
        "traj_len": 1.6174774508349554,
        "weighted_distance": 2.0477742861776806
    },
    "planner": "LBTRRT",
    "start": {
        "state": {
            "elbow_joint": 1.9715477243005601,
            "shoulder_lift_joint": -1.1394853015351272,
            "shoulder_pan_joint": 0.12281154014795169,
            "wrist_1_joint": -0.7804696478968182,
            "wrist_2_joint": 0.12958648046900423,
            "wrist_3_joint": -3.192491284697111
        }
    },
    "waypoints": [
        {
            "positions": [
                0.12281154014795169,
                -1.1394853015351272,
                1.9715477243005601,
                -0.7804696478968182,
                0.12958648046900423,
                -3.192491284697111
            ]
        },
        {
            "positions": [
                0.057542767272739395,
                -1.172616510102147,
                2.0361784293146785,
                -0.817426360991665,
                0.28875702085404553,
                -3.1779016097819865
            ]
        },
        {
            "positions": [
                -0.007726005602472899,
                -1.2057477186691667,
                2.1008091343287973,
                -0.8543830740865118,
                0.44792756123908684,
                -3.1633119348668615
            ]
        },
        {
            "positions": [
                -0.0729947784776852,
                -1.2388789272361866,
                2.1654398393429157,
                -0.8913397871813586,
                0.6070981016241281,
                -3.148722259951737
            ]
        },
        {
            "positions": [
                -0.13826355135289747,
                -1.2720101358032065,
                2.2300705443570346,
                -0.9282965002762055,
                0.7662686420091694,
                -3.1341325850366117
            ]
        },
        {
            "positions": [
                -0.2035323242281098,
                -1.3051413443702264,
                2.294701249371153,
                -0.9652532133710523,
                0.9254391823942109,
                -3.119542910121487
            ]
        },
        {
            "positions": [
                -0.26880109710332206,
                -1.3382725529372461,
                2.3593319543852713,
                -1.0022099264658992,
                1.084609722779252,
                -3.104953235206362
            ]
        },
        {
            "positions": [
                -0.3340698699785344,
                -1.371403761504266,
                2.42396265939939,
                -1.039166639560746,
                1.2437802631642934,
                -3.0903635602912374
            ]
        }
    ]
}