{
    "goal": {
        "global_pose": {
            "orientation": {
                "w": 0.5084816217422485,
                "x": -0.49083608388900757,
                "y": 0.5182115435600281,
                "z": -0.4816462993621826
            },
            "position": {
                "x": 0.5540239810943604,
                "y": 0.030875300988554955,
                "z": 0.16403168439865112
            }
        },
        "name": "move_to_storage_A"
    },
    "id": "LBTRRT_move_to_storage_A_11",
    "joint_names": [
        "shoulder_pan_joint",
        "shoulder_lift_joint",
        "elbow_joint",
        "wrist_1_joint",
        "wrist_2_joint",
        "wrist_3_joint"
    ],
    "metrics": {
        "cart_traj_len": 0.3527527315075403,
        "distance_elbow_joint": 0.4498228784536664,
        "distance_shoulder_lift_joint": 0.2336720071909173,
        "distance_shoulder_pan_joint": 0.45806912710753933,
        "distance_wrist_1_joint": 0.24965450396790712,
        "distance_wrist_2_joint": 1.1110482187260642,
        "distance_wrist_3_joint": 0.10051631497607438,
        "smoothness": 1.9984014473322144e-15,
        "time": 5.002188479,
        "traj_len": 1.6133143061481137,
        "weighted_distance": 2.040715169510015
    },
    "planner": "LBTRRT",
    "start": {
        "state": {
            "elbow_joint": 1.9715477243005601,
            "shoulder_lift_joint": -1.1394853015351272,
            "shoulder_pan_joint": 0.12281154014795169,
            "wrist_1_joint": -0.7804696478968182,
            "wrist_2_joint": 0.12958648046900423,
            "wrist_3_joint": -3.192491284697111
        }
    },
    "waypoints": [
        {
            "positions": [
                0.12281154014795169,
                -1.1394853015351272,
                1.9715477243005601,
                -0.7804696478968182,
                0.12958648046900423,
                -3.192491284697111
            ]
        },
        {
            "positions": [
                0.05737309341830321,
                -1.1728670168481155,
                2.0358081355082267,
                -0.8161345770350906,
                0.28830765457272767,
                -3.1781318111291004
            ]
        },
        {
            "positions": [
                -0.008065353311345266,
                -1.2062487321611035,
                2.1000685467158933,
                -0.8517995061733631,
                0.4470288286764511,
                -3.16377233756109
            ]
        },
        {
            "positions": [
                -0.07350380004099373,
                -1.2396304474740918,
                2.16432895792356,
                -0.8874644353116354,
                0.6057500027801745,
                -3.149412863993079
            ]
        },
        {
            "positions": [
                -0.1389422467706422,
                -1.2730121627870798,
                2.2285893691312264,
                -0.9231293644499079,
                0.764471176883898,
                -3.135053390425069
            ]
        },
        {
            "positions": [
                -0.2043806935002907,
                -1.3063938781000681,
                2.2928497803388934,
                -0.9587942935881804,
                0.9231923509876215,
                -3.120693916857058
            ]
        },
        {
            "positions": [
                -0.26981914022993914,
                -1.3397755934130562,
                2.35711019154656,
                -0.9944592227264528,
                1.0819135250913448,
                -3.1063344432890476
            ]
        },
        {
            "positions": [
                -0.33525758695958763,
                -1.3731573087260445,
                2.4213706027542266,
                -1.0301241518647253,
                1.2406346991950683,
                -3.091974969721037
            ]
        }
    ]
}