{
    "goal": {
        "global_pose": {
            "orientation": {
                "w": 0.5084816217422485,
                "x": -0.49083608388900757,
                "y": 0.5182115435600281,
                "z": -0.4816462993621826
            },
            "position": {
                "x": 0.5540239810943604,
                "y": 0.030875300988554955,
                "z": 0.16403168439865112
            }
        },
        "name": "move_to_storage_A"
    },
    "id": "LBTRRT_move_to_storage_A_112",
    "joint_names": [
        "shoulder_pan_joint",
        "shoulder_lift_joint",
        "elbow_joint",
        "wrist_1_joint",
        "wrist_2_joint",
        "wrist_3_joint"
    ],
    "metrics": {
        "cart_traj_len": 0.3528089935124733,
        "distance_elbow_joint": 0.45011502270462556,
        "distance_shoulder_lift_joint": 0.23675237371493285,
        "distance_shoulder_pan_joint": 0.4583416259450364,
        "distance_wrist_1_joint": 0.24050494028517055,
        "distance_wrist_2_joint": 1.1123845707553235,
        "distance_wrist_3_joint": 0.09082096417443974,
        "smoothness": 4.440892133664971e-16,
        "time": 5.003553071,
        "traj_len": 1.6090119631561253,
        "weighted_distance": 2.0306282123936183
    },
    "planner": "LBTRRT",
    "start": {
        "state": {
            "elbow_joint": 1.9715477243005601,
            "shoulder_lift_joint": -1.1394853015351272,
            "shoulder_pan_joint": 0.12281154014795169,
            "wrist_1_joint": -0.7804696478968182,
            "wrist_2_joint": 0.12958648046900423,
            "wrist_3_joint": -3.192491284697111
        }
    },
    "waypoints": [
        {
            "positions": [
                0.12281154014795169,
                -1.1394853015351272,
                1.9715477243005601,
                -0.7804696478968182,
                0.12958648046900423,
                -3.192491284697111
            ]
        },
        {
            "positions": [
                0.0573341650129465,
                -1.173307069208689,
                2.035849870401221,
                -0.8148274965089853,
                0.28849856200547896,
                -3.17951686124362
            ]
        },
        {
            "positions": [
                -0.008143210122058694,
                -1.2071288368822508,
                2.1001520165018817,
                -0.8491853451211526,
                0.44741064354195376,
                -3.1665424377901283
            ]
        },
        {
            "positions": [
                -0.0736205852570639,
                -1.2409506045558127,
                2.1644541626025426,
                -0.8835431937333198,
                0.6063227250784285,
                -3.153568014336637
            ]
        },
        {
            "positions": [
                -0.13909796039206906,
                -1.2747723722293745,
                2.228756308703203,
                -0.9179010423454871,
                0.7652348066149033,
                -3.1405935908831455
            ]
        },
        {
            "positions": [
                -0.2045753355270743,
                -1.3085941399029364,
                2.293058454803864,
                -0.9522588909576543,
                0.9241468881513781,
                -3.1276191674296543
            ]
        },
        {
            "positions": [
                -0.2700527106620795,
                -1.342415907576498,
                2.3573606009045247,
                -0.9866167395698215,
                1.083058969687853,
                -3.1146447439761626
            ]
        },
        {
            "positions": [
                -0.3355300857970847,
                -1.37623767525006,
                2.4216627470051857,
                -1.0209745881819887,
                1.2419710512243278,
                -3.1016703205226714
            ]
        }
    ]
}