{
    "goal": {
        "global_pose": {
            "orientation": {
                "w": 0.7047431468963623,
                "x": -0.7094548344612122,
                "y": 0.0024358443915843964,
                "z": -0.0022348060738295317
            },
            "position": {
                "x": 0.6094750761985779,
                "y": 0.3671506643295288,
                "z": 0.19426114857196808
            }
        },
        "name": "move_to_magneteinheit_A"
    },
    "id": "LBTRRT_move_to_magneteinheit_A_40",
    "joint_names": [
        "shoulder_pan_joint",
        "shoulder_lift_joint",
        "elbow_joint",
        "wrist_1_joint",
        "wrist_2_joint",
        "wrist_3_joint"
    ],
    "metrics": {
        "cart_traj_len": 3.486088835002077,
        "distance_elbow_joint": 3.868776789020389,
        "distance_shoulder_lift_joint": 0.19210908025539641,
        "distance_shoulder_pan_joint": 2.799555502300404,
        "distance_wrist_1_joint": 0.9663534651385678,
        "distance_wrist_2_joint": 2.006878682660494,
        "distance_wrist_3_joint": 2.575076259773375,
        "smoothness": 0.19473048893020972,
        "time": 5.027778014,
        "traj_len": 3.5226055383974835,
        "weighted_distance": 4.531239835463848
    },
    "planner": "LBTRRT",
    "start": {
        "state": {
            "elbow_joint": -1.919618573717145,
            "shoulder_lift_joint": -1.2443395971678275,
            "shoulder_pan_joint": 2.6996025300909787,
            "wrist_1_joint": -1.548550951253194,
            "wrist_2_joint": -1.5709469090946802,
            "wrist_3_joint": 0.4420197732051276
        }
    },
    "waypoints": [
        {
            "positions": [
                2.6996025300909787,
                -1.2443395971678275,
                -1.919618573717145,
                -1.548550951253194,
                -1.5709469090946802,
                0.4420197732051276
            ]
        },
        {
            "positions": [
                2.5635561225609047,
                -1.2400940015983777,
                -1.7765994298740138,
                -1.552307977039509,
                -1.481376942640745,
                0.4441049588178328
            ]
        },
        {
            "positions": [
                2.427509715030831,
                -1.235848406028928,
                -1.6335802860308828,
                -1.5560650028258238,
                -1.3918069761868102,
                0.44619014443053795
            ]
        },
        {
            "positions": [
                2.291463307500757,
                -1.2316028104594783,
                -1.4905611421877516,
                -1.5598220286121385,
                -1.302237009732875,
                0.44827533004324316
            ]
        },
        {
            "positions": [
                2.1554168999706835,
                -1.2273572148900285,
                -1.3475419983446204,
                -1.5635790543984533,
                -1.2126670432789401,
                0.45036051565594837
            ]
        },
        {
            "positions": [
                2.0193704924406095,
                -1.2231116193205789,
                -1.2045228545014894,
                -1.5673360801847682,
                -1.123097076825005,
                0.4524457012686535
            ]
        },
        {
            "positions": [
                1.8833240849105355,
                -1.218866023751129,
                -1.0615037106583582,
                -1.571093105971083,
                -1.03352711037107,
                0.45453088688135873
            ]
        },
        {
            "positions": [
                1.7472776773804617,
                -1.2146204281816795,
                -0.918484566815227,
                -1.574850131757398,
                -0.943957143917135,
                0.4566160724940639
            ]
        },
        {
            "positions": [
                1.611231269850388,
                -1.2103748326122297,
                -0.7754654229720961,
                -1.5786071575437126,
                -0.8543871774632,
                0.4587012581067691
            ]
        },
        {
            "positions": [
                1.4751848623203139,
                -1.2061292370427799,
                -0.6324462791289647,
                -1.5823641833300275,
                -0.7648172110092649,
                0.4607864437194743
            ]
        },
        {
            "positions": [
                1.33913845479024,
                -1.2018836414733303,
                -0.4894271352858337,
                -1.5861212091163424,
                -0.6752472445553299,
                0.46287162933217946
            ]
        },
        {
            "positions": [
                1.2030920472601663,
                -1.1976380459038805,
                -0.3464079914427025,
                -1.5898782349026572,
                -0.585677278101395,
                0.46495681494488467
            ]
        },
        {
            "positions": [
                1.0670456397300925,
                -1.1933924503344306,
                -0.20338884759957154,
                -1.5936352606889719,
                -0.4961073116474599,
                0.4670420005575899
            ]
        },
        {
            "positions": [
                0.9309992322000185,
                -1.189146854764981,
                -0.06036970375644013,
                -1.5973922864752867,
                -0.4065373451935248,
                0.46912718617029503
            ]
        },
        {
            "positions": [
                0.7949528246699447,
                -1.1849012591955312,
                0.08264944008669094,
                -1.6011493122616016,
                -0.31696737873959,
                0.47121237178300024
            ]
        },
        {
            "positions": [
                0.7426943473928965,
                -1.1873594691453448,
                0.19710809403984902,
                -1.5624973894606233,
                -0.27725611950582074,
                0.5953615693419986
            ]
        },
        {
            "positions": [
                0.6904358701158485,
                -1.1898176790951585,
                0.3115667479930071,
                -1.523845466659645,
                -0.23754486027205152,
                0.719510766900997
            ]
        },
        {
            "positions": [
                0.6381773928388004,
                -1.192275889044972,
                0.4260254019461652,
                -1.4851935438586668,
                -0.19783360103828224,
                0.8436599644599954
            ]
        },
        {
            "positions": [
                0.5859189155617524,
                -1.1947340989947857,
                0.5404840558993232,
                -1.4465416210576885,
                -0.15812234180451298,
                0.9678091620189937
            ]
        },
        {
            "positions": [
                0.5336604382847042,
                -1.1971923089445993,
                0.6549427098524813,
                -1.4078896982567102,
                -0.11841108257074373,
                1.0919583595779923
            ]
        },
        {
            "positions": [
                0.4814019610076561,
                -1.1996505188944129,
                0.7694013638056395,
                -1.3692377754557319,
                -0.07869982333697445,
                1.2161075571369906
            ]
        },
        {
            "positions": [
                0.429143483730608,
                -1.2021087288442265,
                0.8838600177587975,
                -1.3305858526547536,
                -0.038988564103205225,
                1.340256754695989
            ]
        },
        {
            "positions": [
                0.37688500645356,
                -1.2045669387940399,
                0.9983186717119555,
                -1.2919339298537755,
                0.000722695130564055,
                1.4644059522549873
            ]
        },
        {
            "positions": [
                0.3246265291765119,
                -1.2070251487438535,
                1.1127773256651134,
                -1.2532820070527972,
                0.04043395436433328,
                1.5885551498139856
            ]
        },
        {
            "positions": [
                0.2723680518994638,
                -1.209483358693667,
                1.2272359796182715,
                -1.214630084251819,
                0.08014521359810256,
                1.7127043473729842
            ]
        },
        {
            "positions": [
                0.22010957462241576,
                -1.2119415686434807,
                1.3416946335714297,
                -1.1759781614508407,
                0.11985647283187179,
                1.8368535449319823
            ]
        },
        {
            "positions": [
                0.16785109734536752,
                -1.2143997785932943,
                1.456153287524588,
                -1.1373262386498624,
                0.15956773206564112,
                1.9610027424909808
            ]
        },
        {
            "positions": [
                0.1155926200683195,
                -1.216857988543108,
                1.570611941477746,
                -1.098674315848884,
                0.1992789912994104,
                2.0851519400499794
            ]
        },
        {
            "positions": [
                0.06333414279127136,
                -1.2193161984929215,
                1.685070595430904,
                -1.0600223930479058,
                0.23899025053317957,
                2.2093011376089775
            ]
        },
        {
            "positions": [
                0.011075665514223385,
                -1.221774408442735,
                1.799529249384062,
                -1.0213704702469275,
                0.27870150976694885,
                2.333450335167976
            ]
        },
        {
            "positions": [
                0.03883282494513518,
                -1.197825010183761,
                1.8369364908638572,
                -0.937876404718056,
                0.23939394381723234,
                2.5043617596206076
            ]
        },
        {
            "positions": [
                0.06658998437604696,
                -1.173875611924787,
                1.8743437323436525,
                -0.8543823391891845,
                0.20008637786751582,
                2.675273184073239
            ]
        },
        {
            "positions": [
                0.09434714380695876,
                -1.1499262136658128,
                1.911750973823448,
                -0.7708882736603129,
                0.1607788119177993,
                2.846184608525871
            ]
        },
        {
            "positions": [
                0.12210430323787055,
                -1.1259768154068388,
                1.9491582153032432,
                -0.6873942081314414,
                0.1214712459680828,
                3.0170960329785026
            ]
        }
    ]
}{
    "goal": {
        "global_pose": {
            "orientation": {
                "w": 0.7047431468963623,
                "x": -0.7094548344612122,
                "y": 0.0024358443915843964,
                "z": -0.0022348060738295317
            },
            "position": {
                "x": 0.6094750761985779,
                "y": 0.3671506643295288,
                "z": 0.19426114857196808
            }
        },
        "name": "move_to_magneteinheit_A"
    },
    "id": "LBTRRT_move_to_magneteinheit_A_40",
    "joint_names": [
        "shoulder_pan_joint",
        "shoulder_lift_joint",
        "elbow_joint",
        "wrist_1_joint",
        "wrist_2_joint",
        "wrist_3_joint"
    ],
    "metrics": {
        "cart_traj_len": 1.1286982793416174,
        "distance_elbow_joint": 0.10752844276514262,
        "distance_shoulder_lift_joint": 0.7705987385446904,
        "distance_shoulder_pan_joint": 1.2416408526415132,
        "distance_wrist_1_joint": 0.8959157382119307,
        "distance_wrist_2_joint": 1.4463007020740233,
        "distance_wrist_3_joint": 4.392500637178418,
        "smoothness": 0.014679751336960818,
        "time": 5.039144483,
        "traj_len": 2.975648687499201,
        "weighted_distance": 4.470089800670509
    },
    "planner": "LBTRRT",
    "start": {
        "state": {
            "elbow_joint": 1.919643534880228,
            "shoulder_lift_joint": -1.8972525353963687,
            "shoulder_pan_joint": -1.1188672234189438,
            "wrist_1_joint": -1.5931878212786155,
            "wrist_2_joint": 1.5706036197970081,
            "wrist_3_joint": 1.118896926603594
        }
    },
    "waypoints": [
        {
            "positions": [
                -1.1188672234189438,
                -1.8972525353963687,
                1.919643534880228,
                -1.5931878212786155,
                1.5706036197970081,
                1.118896926603594
            ]
        },
        {
            "positions": [
                -1.0676727384340625,
                -1.876798436984671,
                1.924598652964495,
                -1.5334177018802246,
                1.484597746661803,
                0.9593518224331099
            ]
        },
        {
            "positions": [
                -1.0164782534491814,
                -1.8563443385729732,
                1.929553771048762,
                -1.4736475824818338,
                1.398591873526598,
                0.7998067182626258
            ]
        },
        {
            "positions": [
                -0.9652837684643001,
                -1.8358902401612756,
                1.934508889133029,
                -1.413877463083443,
                1.312586000391393,
                0.6402616140921419
            ]
        },
        {
            "positions": [
                -0.9140892834794189,
                -1.8154361417495777,
                1.939464007217296,
                -1.3541073436850521,
                1.2265801272561878,
                0.4807165099216578
            ]
        },
        {
            "positions": [
                -0.8628947984945375,
                -1.79498204333788,
                1.9444191253015628,
                -1.2943372242866613,
                1.140574254120983,
                0.32117140575117376
            ]
        },
        {
            "positions": [
                -0.8117003135096563,
                -1.7745279449261822,
                1.9493742433858299,
                -1.2345671048882705,
                1.0545683809857778,
                0.1616263015806898
            ]
        },
        {
            "positions": [
                -0.760505828524775,
                -1.7540738465144845,
                1.954329361470097,
                -1.1747969854898797,
                0.9685625078505726,
                0.0020811974102057373
            ]
        },
        {
            "positions": [
                -0.7093113435398939,
                -1.7336197481027869,
                1.9592844795543638,
                -1.1150268660914886,
                0.8825566347153676,
                -0.15746390676027833
            ]
        },
        {
            "positions": [
                -0.6581168585550126,
                -1.713165649691089,
                1.9642395976386307,
                -1.0552567466930978,
                0.7965507615801625,
                -0.3170090109307624
            ]
        },
        {
            "positions": [
                -0.6069223735701312,
                -1.6927115512793913,
                1.9691947157228977,
                -0.9954866272947069,
                0.7105448884449574,
                -0.47655411510124646
            ]
        },
        {
            "positions": [
                -0.55572788858525,
                -1.6722574528676935,
                1.9741498338071648,
                -0.9357165078963162,
                0.6245390153097523,
                -0.6360992192717303
            ]
        },
        {
            "positions": [
                -0.5045334036003688,
                -1.6518033544559958,
                1.9791049518914317,
                -0.8759463884979254,
                0.5385331421745474,
                -0.7956443234422144
            ]
        },
        {
            "positions": [
                -0.4533389186154875,
                -1.631349256044298,
                1.9840600699756985,
                -0.8161762690995344,
                0.45252726903934226,
                -0.9551894276126986
            ]
        },
        {
            "positions": [
                -0.40214443363060626,
                -1.6108951576326003,
                1.9890151880599656,
                -0.7564061497011436,
                0.366521395904137,
                -1.1147345317831823
            ]
        },
        {
            "positions": [
                -0.34382020442469785,
                -1.5570905619902755,
                1.9847755447726982,
                -0.7498356978528704,
                0.3396082316617868,
                -1.3546088849822535
            ]
        },
        {
            "positions": [
                -0.28549597521878944,
                -1.503285966347951,
                1.9805359014854311,
                -0.7432652460045972,
                0.31269506741943653,
                -1.594483238181325
            ]
        },
        {
            "positions": [
                -0.227171746012881,
                -1.4494813707056262,
                1.9762962581981638,
                -0.736694794156324,
                0.2857819031770863,
                -1.8343575913803962
            ]
        },
        {
            "positions": [
                -0.1688475168069726,
                -1.3956767750633017,
                1.9720566149108967,
                -0.7301243423080508,
                0.25886873893473605,
                -2.0742319445794677
            ]
        },
        {
            "positions": [
                -0.11052328760106417,
                -1.341872179420977,
                1.9678169716236293,
                -0.7235538904597776,
                0.23195557469238584,
                -2.314106297778539
            ]
        },
        {
            "positions": [
                -0.05219905839515576,
                -1.2880675837786524,
                1.9635773283363622,
                -0.7169834386115044,
                0.20504241045003563,
                -2.55398065097761
            ]
        },
        {
            "positions": [
                0.0061251708107527,
                -1.2342629881363276,
                1.959337685049095,
                -0.7104129867632312,
                0.17812924620768536,
                -2.793855004176682
            ]
        },
        {
            "positions": [
                0.06444940001666105,
                -1.180458392494003,
                1.9550980417618278,
                -0.703842534914958,
                0.15121608196533515,
                -3.033729357375753
            ]
        },
        {
            "positions": [
                0.12277362922256947,
                -1.1266537968516783,
                1.9508583984745604,
                -0.6972720830666848,
                0.12430291772298491,
                -3.2736037105748244
            ]
        }
    ]
}