{
    "goal": {
        "global_pose": {
            "orientation": {
                "w": 0.7047431468963623,
                "x": -0.7094548344612122,
                "y": 0.0024358443915843964,
                "z": -0.0022348060738295317
            },
            "position": {
                "x": 0.6094750761985779,
                "y": 0.3671506643295288,
                "z": 0.19426114857196808
            }
        },
        "name": "move_to_magneteinheit_A"
    },
    "id": "LBTRRT_move_to_magneteinheit_A_12",
    "joint_names": [
        "shoulder_pan_joint",
        "shoulder_lift_joint",
        "elbow_joint",
        "wrist_1_joint",
        "wrist_2_joint",
        "wrist_3_joint"
    ],
    "metrics": {
        "cart_traj_len": 3.669869059766086,
        "distance_elbow_joint": 3.932685117649835,
        "distance_shoulder_lift_joint": 0.7690863652732254,
        "distance_shoulder_pan_joint": 3.398183238720663,
        "distance_wrist_1_joint": 3.5461712697929233,
        "distance_wrist_2_joint": 1.7707556375472113,
        "distance_wrist_3_joint": 1.356017885937264,
        "smoothness": 0.29802982466984157,
        "time": 5.045062785,
        "traj_len": 3.843552980631478,
        "weighted_distance": 4.775129547366833
    },
    "planner": "LBTRRT",
    "start": {
        "state": {
            "elbow_joint": -1.919618573717145,
            "shoulder_lift_joint": -1.2443395971678275,
            "shoulder_pan_joint": 2.6996025300909787,
            "wrist_1_joint": -1.548550951253194,
            "wrist_2_joint": -1.5709469090946802,
            "wrist_3_joint": 0.4420197732051276
        }
    },
    "waypoints": [
        {
            "positions": [
                2.6996025300909787,
                -1.2443395971678275,
                -1.919618573717145,
                -1.548550951253194,
                -1.5709469090946802,
                0.4420197732051276
            ]
        },
        {
            "positions": [
                2.564716496517189,
                -1.2149058369421584,
                -1.8143168611250733,
                -1.4912919100184647,
                -1.5276491598843835,
                0.41684679800334906
            ]
        },
        {
            "positions": [
                2.429830462943399,
                -1.1854720767164895,
                -1.7090151485330018,
                -1.4340328687837354,
                -1.484351410674087,
                0.3916738228015705
            ]
        },
        {
            "positions": [
                2.2949444293696093,
                -1.1560383164908203,
                -1.60371343594093,
                -1.376773827549006,
                -1.4410536614637903,
                0.36650084759979196
            ]
        },
        {
            "positions": [
                2.1600583957958195,
                -1.1266045562651514,
                -1.4984117233488585,
                -1.3195147863142767,
                -1.3977559122534937,
                0.34132787239801343
            ]
        },
        {
            "positions": [
                2.0251723622220292,
                -1.0971707960394823,
                -1.3931100107567869,
                -1.2622557450795473,
                -1.354458163043197,
                0.3161548971962349
            ]
        },
        {
            "positions": [
                1.8902863286482394,
                -1.0677370358138134,
                -1.2878082981647152,
                -1.204996703844818,
                -1.3111604138329005,
                0.2909819219944563
            ]
        },
        {
            "positions": [
                1.7554002950744496,
                -1.0383032755881443,
                -1.1825065855726438,
                -1.1477376626100886,
                -1.267862664622604,
                0.2658089467926778
            ]
        },
        {
            "positions": [
                1.6205142615006598,
                -1.0088695153624754,
                -1.077204872980572,
                -1.0904786213753592,
                -1.2245649154123073,
                0.24063597159089925
            ]
        },
        {
            "positions": [
                1.48562822792687,
                -0.9794357551368063,
                -0.9719031603885004,
                -1.0332195801406299,
                -1.1812671662020109,
                0.21546299638912073
            ]
        },
        {
            "positions": [
                1.35074219435308,
                -0.9500019949111373,
                -0.8666014477964288,
                -0.9759605389059005,
                -1.137969416991714,
                0.19029002118734217
            ]
        },
        {
            "positions": [
                1.2158561607792902,
                -0.9205682346854682,
                -0.7612997352043571,
                -0.9187014976711712,
                -1.0946716677814177,
                0.16511704598556365
            ]
        },
        {
            "positions": [
                1.0809701272055003,
                -0.8911344744597992,
                -0.6559980226122855,
                -0.8614424564364418,
                -1.0513739185711208,
                0.13994407078378507
            ]
        },
        {
            "positions": [
                0.9460840936317105,
                -0.8617007142341302,
                -0.550696310020214,
                -0.8041834152017125,
                -1.0080761693608244,
                0.1147710955820066
            ]
        },
        {
            "positions": [
                0.8111980600579207,
                -0.8322669540084613,
                -0.4453945974281426,
                -0.7469243739669832,
                -0.9647784201505278,
                0.08959812038022802
            ]
        },
        {
            "positions": [
                0.6763120264841307,
                -0.8028331937827922,
                -0.3400928848360709,
                -0.6896653327322538,
                -0.9214806709402312,
                0.0644251451784495
            ]
        },
        {
            "positions": [
                0.5414259929103409,
                -0.7733994335571232,
                -0.23479117224399926,
                -0.6324062914975245,
                -0.8781829217299346,
                0.039252169976670914
            ]
        },
        {
            "positions": [
                0.4065399593365511,
                -0.7439656733314541,
                -0.12948945965192762,
                -0.5751472502627951,
                -0.834885172519638,
                0.014079194774892365
            ]
        },
        {
            "positions": [
                0.3569793432735488,
                -0.7550415054452824,
                -0.03208194394470254,
                -0.4435237762737767,
                -0.7725049486221679,
                -0.022690040565940418
            ]
        },
        {
            "positions": [
                0.3074187272105465,
                -0.7661173375591105,
                0.06532557176252254,
                -0.31190030228475824,
                -0.7101247247246978,
                -0.059459275906773204
            ]
        },
        {
            "positions": [
                0.2578581111475442,
                -0.7771931696729387,
                0.1627330874697476,
                -0.18027682829573977,
                -0.6477445008272276,
                -0.096228511247606
            ]
        },
        {
            "positions": [
                0.2082974950845419,
                -0.788269001786767,
                0.26014060317697274,
                -0.04865335430672135,
                -0.5853642769297575,
                -0.13299774658843877
            ]
        },
        {
            "positions": [
                0.15873687902153957,
                -0.7993448339005952,
                0.3575481188841978,
                0.08297011968229717,
                -0.5229840530322873,
                -0.16976698192927156
            ]
        },
        {
            "positions": [
                0.10917626295853727,
                -0.8104206660144233,
                0.45495563459142285,
                0.21459359367131559,
                -0.46060382913481723,
                -0.20653621727010435
            ]
        },
        {
            "positions": [
                0.059615646895534946,
                -0.8214964981282515,
                0.552363150298648,
                0.3462170676603341,
                -0.39822360523734707,
                -0.24330545261093714
            ]
        },
        {
            "positions": [
                0.010055030832532674,
                -0.8325723302420798,
                0.6497706660058731,
                0.4778405416493524,
                -0.33584338133987696,
                -0.2800746879517699
            ]
        },
        {
            "positions": [
                -0.03950558523046971,
                -0.843648162355908,
                0.7471781817130982,
                0.6094640156383712,
                -0.2734631574424068,
                -0.3168439232926027
            ]
        },
        {
            "positions": [
                -0.08906620129347198,
                -0.8547239944697361,
                0.8445856974203233,
                0.7410874896273895,
                -0.21108293354493668,
                -0.35361315863343545
            ]
        },
        {
            "positions": [
                -0.13862681735647425,
                -0.8657998265835644,
                0.9419932131275484,
                0.872710963616408,
                -0.14870270964746657,
                -0.39038239397426827
            ]
        },
        {
            "positions": [
                -0.18818743341947658,
                -0.8768756586973925,
                1.0394007288347733,
                1.0043344376054262,
                -0.08632248574999646,
                -0.42715162931510103
            ]
        },
        {
            "positions": [
                -0.2377480494824789,
                -0.8879514908112207,
                1.1368082445419987,
                1.1359579115944451,
                -0.023942261852526237,
                -0.46392086465593385
            ]
        },
        {
            "positions": [
                -0.2873086655454813,
                -0.8990273229250489,
                1.2342157602492236,
                1.2675813855834632,
                0.038437962044943874,
                -0.5006900999967666
            ]
        },
        {
            "positions": [
                -0.2285555165334525,
                -0.8827914955188694,
                1.3454801579182905,
                1.3718726617200727,
                0.015384995415288694,
                -0.44164609817742806
            ]
        },
        {
            "positions": [
                -0.1698023675214237,
                -0.8665556681126897,
                1.4567445555873573,
                1.476163937856682,
                -0.0076679712143664855,
                -0.38260209635808956
            ]
        },
        {
            "positions": [
                -0.11104921850939489,
                -0.8503198407065101,
                1.5680089532564239,
                1.5804552139932915,
                -0.030720937844021662,
                -0.32355809453875106
            ]
        },
        {
            "positions": [
                -0.05229606949736609,
                -0.8340840133003306,
                1.6792733509254907,
                1.6847464901299007,
                -0.053773904473676845,
                -0.2645140927194125
            ]
        },
        {
            "positions": [
                0.0064570795146627336,
                -0.8178481858941509,
                1.7905377485945575,
                1.7890377662665102,
                -0.07682687110333203,
                -0.20547009090007395
            ]
        },
        {
            "positions": [
                0.0652102285266915,
                -0.8016123584879713,
                1.9018021462636243,
                1.8933290424031197,
                -0.0998798377329872,
                -0.14642608908073546
            ]
        },
        {
            "positions": [
                0.12396337753872035,
                -0.7853765310817917,
                2.013066543932691,
                1.997620318539729,
                -0.1229328043626424,
                -0.0873820872613969
            ]
        }
    ]
}{
    "goal": {
        "global_pose": {
            "orientation": {
                "w": 0.7047431468963623,
                "x": -0.7094548344612122,
                "y": 0.0024358443915843964,
                "z": -0.0022348060738295317
            },
            "position": {
                "x": 0.6094750761985779,
                "y": 0.3671506643295288,
                "z": 0.19426114857196808
            }
        },
        "name": "move_to_magneteinheit_A"
    },
    "id": "LBTRRT_move_to_magneteinheit_A_12",
    "joint_names": [
        "shoulder_pan_joint",
        "shoulder_lift_joint",
        "elbow_joint",
        "wrist_1_joint",
        "wrist_2_joint",
        "wrist_3_joint"
    ],
    "metrics": {
        "cart_traj_len": 1.238026634151773,
        "distance_elbow_joint": 0.21038990614664677,
        "distance_shoulder_lift_joint": 0.7581727746225411,
        "distance_shoulder_pan_joint": 1.2416213673211414,
        "distance_wrist_1_joint": 0.9695414408294873,
        "distance_wrist_2_joint": 1.4414974898779713,
        "distance_wrist_3_joint": 4.312608126996084,
        "smoothness": 0.07330717547291828,
        "time": 5.047097778,
        "traj_len": 2.988951506096054,
        "weighted_distance": 4.468790249104729
    },
    "planner": "LBTRRT",
    "start": {
        "state": {
            "elbow_joint": 1.919643534880228,
            "shoulder_lift_joint": -1.8972525353963687,
            "shoulder_pan_joint": -1.1188672234189438,
            "wrist_1_joint": -1.5931878212786155,
            "wrist_2_joint": 1.5706036197970081,
            "wrist_3_joint": 1.118896926603594
        }
    },
    "waypoints": [
        {
            "positions": [
                -1.1188672234189438,
                -1.8972525353963687,
                1.919643534880228,
                -1.5931878212786155,
                1.5706036197970081,
                1.118896926603594
            ]
        },
        {
            "positions": [
                -1.0626403643711542,
                -1.8603811170567583,
                1.9154735736835842,
                -1.5462700785093613,
                1.5010768649643227,
                0.9461201572609856
            ]
        },
        {
            "positions": [
                -1.0064135053233647,
                -1.823509698717148,
                1.91130361248694,
                -1.499352335740107,
                1.4315501101316372,
                0.7733433879183774
            ]
        },
        {
            "positions": [
                -0.950186646275575,
                -1.7866382803775376,
                1.907133651290296,
                -1.452434592970853,
                1.3620233552989518,
                0.6005666185757691
            ]
        },
        {
            "positions": [
                -0.8939597872277856,
                -1.7497668620379272,
                1.9029636900936522,
                -1.4055168502015989,
                1.2924966004662664,
                0.4277898492331609
            ]
        },
        {
            "positions": [
                -0.8377329281799959,
                -1.7128954436983168,
                1.8987937288970083,
                -1.3585991074323447,
                1.2229698456335807,
                0.25501307989055255
            ]
        },
        {
            "positions": [
                -0.7815060691322063,
                -1.6760240253587062,
                1.8946237677003641,
                -1.3116813646630905,
                1.1534430908008952,
                0.08223631054794422
            ]
        },
        {
            "positions": [
                -0.7252792100844168,
                -1.6391526070190958,
                1.8904538065037202,
                -1.2647636218938363,
                1.0839163359682098,
                -0.0905404587946641
            ]
        },
        {
            "positions": [
                -0.6690523510366272,
                -1.6022811886794854,
                1.8862838453070763,
                -1.217845879124582,
                1.0143895811355244,
                -0.2633172281372722
            ]
        },
        {
            "positions": [
                -0.6128254919888376,
                -1.565409770339875,
                1.8821138841104323,
                -1.1709281363553279,
                0.9448628263028388,
                -0.43609399747988054
            ]
        },
        {
            "positions": [
                -0.556598632941048,
                -1.5285383520002647,
                1.8779439229137882,
                -1.124010393586074,
                0.8753360714701534,
                -0.6088707668224889
            ]
        },
        {
            "positions": [
                -0.5003717738932584,
                -1.4916669336606543,
                1.8737739617171443,
                -1.0770926508168195,
                0.8058093166374678,
                -0.7816475361650974
            ]
        },
        {
            "positions": [
                -0.4441449148454688,
                -1.454795515321044,
                1.8696040005205004,
                -1.0301749080475655,
                0.7362825618047825,
                -0.9544243055077055
            ]
        },
        {
            "positions": [
                -0.38791805579767924,
                -1.4179240969814333,
                1.8654340393238564,
                -0.9832571652783113,
                0.6667558069720969,
                -1.127201074850314
            ]
        },
        {
            "positions": [
                -0.33169119674988967,
                -1.3810526786418231,
                1.8612640781272123,
                -0.9363394225090572,
                0.5972290521394115,
                -1.2999778441929222
            ]
        },
        {
            "positions": [
                -0.2754643377021001,
                -1.3441812603022125,
                1.8570941169305684,
                -0.889421679739803,
                0.527702297306726,
                -1.4727546135355303
            ]
        },
        {
            "positions": [
                -0.21923747865431054,
                -1.3073098419626024,
                1.8529241557339244,
                -0.8425039369705488,
                0.4581755424740406,
                -1.6455313828781384
            ]
        },
        {
            "positions": [
                -0.16301061960652086,
                -1.2704384236229918,
                1.8487541945372805,
                -0.7955861942012946,
                0.3886487876413549,
                -1.818308152220747
            ]
        },
        {
            "positions": [
                -0.1067837605587314,
                -1.2335670052833816,
                1.8445842333406364,
                -0.7486684514320405,
                0.31912203280866946,
                -1.991084921563355
            ]
        },
        {
            "positions": [
                -0.05055690151094168,
                -1.196695586943771,
                1.8404142721439924,
                -0.7017507086627863,
                0.24959527797598405,
                -2.1638616909059634
            ]
        },
        {
            "positions": [
                -0.015894692428313872,
                -1.1851724217097823,
                1.8666464008260746,
                -0.717371574305518,
                0.22549744836459457,
                -2.3698315928032687
            ]
        },
        {
            "positions": [
                0.018767516654313934,
                -1.1736492564757937,
                1.892878529508157,
                -0.7329924399482496,
                0.2013996187532051,
                -2.575801494700574
            ]
        },
        {
            "positions": [
                0.05342972573694173,
                -1.162126091241805,
                1.919110658190239,
                -0.7486133055909813,
                0.17730178914181566,
                -2.7817713965978794
            ]
        },
        {
            "positions": [
                0.08809193481956955,
                -1.1506029260078163,
                1.9453427868723214,
                -0.7642341712337128,
                0.15320395953042615,
                -2.9877412984951848
            ]
        },
        {
            "positions": [
                0.12275414390219735,
                -1.1390797607738277,
                1.9715749155544036,
                -0.7798550368764445,
                0.1291061299190367,
                -3.19371120039249
            ]
        }
    ]
}