{
    "goal": {
        "global_pose": {
            "orientation": {
                "w": 0.7047431468963623,
                "x": -0.7094548344612122,
                "y": 0.0024358443915843964,
                "z": -0.0022348060738295317
            },
            "position": {
                "x": 0.6094750761985779,
                "y": 0.3671506643295288,
                "z": 0.19426114857196808
            }
        },
        "name": "move_to_magneteinheit_A"
    },
    "id": "LBTRRT_move_to_magneteinheit_A_48",
    "joint_names": [
        "shoulder_pan_joint",
        "shoulder_lift_joint",
        "elbow_joint",
        "wrist_1_joint",
        "wrist_2_joint",
        "wrist_3_joint"
    ],
    "metrics": {
        "cart_traj_len": 3.579424645162897,
        "distance_elbow_joint": 3.9080821023411474,
        "distance_shoulder_lift_joint": 0.09519900827566796,
        "distance_shoulder_pan_joint": 2.896758363314811,
        "distance_wrist_1_joint": 0.7109351703586779,
        "distance_wrist_2_joint": 1.7057935222950098,
        "distance_wrist_3_joint": 2.808945581668763,
        "smoothness": 0.21668554865668724,
        "time": 5.035831952,
        "traj_len": 3.482199556064253,
        "weighted_distance": 4.4900260137604215
    },
    "planner": "LBTRRT",
    "start": {
        "state": {
            "elbow_joint": -1.919618573717145,
            "shoulder_lift_joint": -1.2443395971678275,
            "shoulder_pan_joint": 2.6996025300909787,
            "wrist_1_joint": -1.548550951253194,
            "wrist_2_joint": -1.5709469090946802,
            "wrist_3_joint": 0.4420197732051276
        }
    },
    "waypoints": [
        {
            "positions": [
                2.6996025300909787,
                -1.2443395971678275,
                -1.919618573717145,
                -1.548550951253194,
                -1.5709469090946802,
                0.4420197732051276
            ]
        },
        {
            "positions": [
                2.605216948196967,
                -1.243121414570806,
                -1.8060343902708864,
                -1.524253162662214,
                -1.5121383904755874,
                0.5371305887878541
            ]
        },
        {
            "positions": [
                2.5108313663029556,
                -1.2419032319737844,
                -1.692450206824628,
                -1.4999553740712337,
                -1.4533298718564944,
                0.6322414043705806
            ]
        },
        {
            "positions": [
                2.416445784408944,
                -1.240685049376763,
                -1.5788660233783696,
                -1.4756575854802536,
                -1.3945213532374017,
                0.7273522199533071
            ]
        },
        {
            "positions": [
                2.3220602025149324,
                -1.2394668667797413,
                -1.465281839932111,
                -1.4513597968892733,
                -1.3357128346183087,
                0.8224630355360336
            ]
        },
        {
            "positions": [
                2.227674620620921,
                -1.2382486841827198,
                -1.3516976564858525,
                -1.4270620082982932,
                -1.276904315999216,
                0.9175738511187602
            ]
        },
        {
            "positions": [
                2.1332890387269092,
                -1.2370305015856982,
                -1.238113473039594,
                -1.402764219707313,
                -1.2180957973801232,
                1.0126846667014866
            ]
        },
        {
            "positions": [
                2.038903456832897,
                -1.2358123189886767,
                -1.1245292895933356,
                -1.3784664311163328,
                -1.1592872787610302,
                1.1077954822842133
            ]
        },
        {
            "positions": [
                1.9445178749388858,
                -1.234594136391655,
                -1.0109451061470773,
                -1.3541686425253527,
                -1.1004787601419375,
                1.2029062978669398
            ]
        },
        {
            "positions": [
                1.850132293044874,
                -1.2333759537946336,
                -0.8973609227008186,
                -1.3298708539343724,
                -1.0416702415228445,
                1.2980171134496663
            ]
        },
        {
            "positions": [
                1.7557467111508624,
                -1.232157771197612,
                -0.78377673925456,
                -1.3055730653433923,
                -0.9828617229037516,
                1.3931279290323928
            ]
        },
        {
            "positions": [
                1.661361129256851,
                -1.2309395886005905,
                -0.6701925558083017,
                -1.281275276752412,
                -0.9240532042846589,
                1.4882387446151193
            ]
        },
        {
            "positions": [
                1.5669755473628393,
                -1.2297214060035688,
                -0.5566083723620432,
                -1.256977488161432,
                -0.865244685665566,
                1.5833495601978458
            ]
        },
        {
            "positions": [
                1.4725899654688277,
                -1.2285032234065474,
                -0.44302418891578466,
                -1.2326796995704516,
                -0.8064361670464731,
                1.6784603757805723
            ]
        },
        {
            "positions": [
                1.3782043835748161,
                -1.2272850408095257,
                -0.32944000546952634,
                -1.2083819109794716,
                -0.7476276484273803,
                1.773571191363299
            ]
        },
        {
            "positions": [
                1.2838188016808045,
                -1.2260668582125043,
                -0.2158558220232678,
                -1.1840841223884913,
                -0.6888191298082874,
                1.8686820069460255
            ]
        },
        {
            "positions": [
                1.189433219786793,
                -1.2248486756154826,
                -0.1022716385770095,
                -1.1597863337975112,
                -0.6300106111891947,
                1.963792822528752
            ]
        },
        {
            "positions": [
                1.0950476378927814,
                -1.2236304930184612,
                0.011312544869249042,
                -1.135488545206531,
                -0.5712020925701019,
                2.0589036381114783
            ]
        },
        {
            "positions": [
                1.0006620559987696,
                -1.2224123104214395,
                0.1248967283155078,
                -1.1111907566155508,
                -0.5123935739510088,
                2.154014453694205
            ]
        },
        {
            "positions": [
                0.9062764741047582,
                -1.221194127824418,
                0.2384809117617659,
                -1.0868929680245707,
                -0.45358505533191606,
                2.2491252692769312
            ]
        },
        {
            "positions": [
                0.8118908922107464,
                -1.2199759452273964,
                0.35206509520802487,
                -1.0625951794335904,
                -0.3947765367128231,
                2.344236084859658
            ]
        },
        {
            "positions": [
                0.7175053103167348,
                -1.218757762630375,
                0.46564927865428296,
                -1.0382973908426103,
                -0.33596801809373034,
                2.4393469004423842
            ]
        },
        {
            "positions": [
                0.6231197284227235,
                -1.2175395800333533,
                0.5792334621005415,
                -1.01399960225163,
                -0.2771594994746376,
                2.534457716025111
            ]
        },
        {
            "positions": [
                0.5287341465287114,
                -1.2163213974363318,
                0.6928176455468,
                -0.9897018136606499,
                -0.2183509808555446,
                2.6295685316078377
            ]
        },
        {
            "positions": [
                0.43434856463469984,
                -1.2151032148393102,
                0.8064018289930586,
                -0.9654040250696697,
                -0.15954246223645185,
                2.724679347190564
            ]
        },
        {
            "positions": [
                0.3399629827406887,
                -1.2138850322422887,
                0.9199860124393167,
                -0.9411062364786896,
                -0.1007339436173591,
                2.81979016277329
            ]
        },
        {
            "positions": [
                0.24557740084667667,
                -1.212666849645267,
                1.0335701958855756,
                -0.9168084478877093,
                -0.041925424998266125,
                2.914900978356017
            ]
        },
        {
            "positions": [
                0.1511918189526651,
                -1.2114486670482456,
                1.1471543793318337,
                -0.8925106592967292,
                0.016883093620826628,
                3.0100117939387436
            ]
        },
        {
            "positions": [
                0.05680623705865351,
                -1.210230484451224,
                1.2607385627780923,
                -0.868212870705749,
                0.0756916122399196,
                3.1051226095214703
            ]
        },
        {
            "positions": [
                -0.03757934483535824,
                -1.2090123018542025,
                1.374322746224351,
                -0.8439150821147688,
                0.13450013085901233,
                3.2002334251041966
            ]
        },
        {
            "positions": [
                0.015612817960799885,
                -1.1890550642001882,
                1.5790363403575685,
                -0.8460148491881864,
                0.1346156249727848,
                3.183322781847632
            ]
        },
        {
            "positions": [
                0.06880498075695801,
                -1.1690978265461738,
                1.7837499344907857,
                -0.848114616261604,
                0.13473111908655722,
                3.1664121385910673
            ]
        },
        {
            "positions": [
                0.12199714355311612,
                -1.1491405888921595,
                1.988463528624003,
                -0.8502143833350215,
                0.13484661320032967,
                3.1495014953345026
            ]
        }
    ]
}{
    "goal": {
        "global_pose": {
            "orientation": {
                "w": 0.7047431468963623,
                "x": -0.7094548344612122,
                "y": 0.0024358443915843964,
                "z": -0.0022348060738295317
            },
            "position": {
                "x": 0.6094750761985779,
                "y": 0.3671506643295288,
                "z": 0.19426114857196808
            }
        },
        "name": "move_to_magneteinheit_A"
    },
    "id": "LBTRRT_move_to_magneteinheit_A_48",
    "joint_names": [
        "shoulder_pan_joint",
        "shoulder_lift_joint",
        "elbow_joint",
        "wrist_1_joint",
        "wrist_2_joint",
        "wrist_3_joint"
    ],
    "metrics": {
        "cart_traj_len": 1.3736370430472757,
        "distance_elbow_joint": 0.17122701951218455,
        "distance_shoulder_lift_joint": 0.7683745859302786,
        "distance_shoulder_pan_joint": 1.3770576810017854,
        "distance_wrist_1_joint": 0.8914910603934416,
        "distance_wrist_2_joint": 1.4459968268695742,
        "distance_wrist_3_joint": 4.372846493789185,
        "smoothness": 0.05421856965385447,
        "time": 5.035862293,
        "traj_len": 3.0044955762151573,
        "weighted_distance": 4.484436925895807
    },
    "planner": "LBTRRT",
    "start": {
        "state": {
            "elbow_joint": 1.919643534880228,
            "shoulder_lift_joint": -1.8972525353963687,
            "shoulder_pan_joint": -1.1188672234189438,
            "wrist_1_joint": -1.5931878212786155,
            "wrist_2_joint": 1.5706036197970081,
            "wrist_3_joint": 1.118896926603594
        }
    },
    "waypoints": [
        {
            "positions": [
                -1.1188672234189438,
                -1.8972525353963687,
                1.919643534880228,
                -1.5931878212786155,
                1.5706036197970081,
                1.118896926603594
            ]
        },
        {
            "positions": [
                -1.128559136826144,
                -1.8705208515673644,
                1.9098819350181,
                -1.5555408802380797,
                1.5064021581184683,
                0.8967244685088788
            ]
        },
        {
            "positions": [
                -1.138251050233344,
                -1.8437891677383602,
                1.900120335155972,
                -1.5178939391975437,
                1.4422006964399283,
                0.6745520104141636
            ]
        },
        {
            "positions": [
                -1.1479429636405443,
                -1.8170574839093558,
                1.8903587352938438,
                -1.4802469981570079,
                1.3779992347613885,
                0.45237955231944826
            ]
        },
        {
            "positions": [
                -1.1576348770477443,
                -1.7903258000803517,
                1.8805971354317155,
                -1.4426000571164719,
                1.3137977730828485,
                0.23020709422473307
            ]
        },
        {
            "positions": [
                -1.1673267904549445,
                -1.7635941162513473,
                1.8708355355695874,
                -1.404953116075936,
                1.2495963114043087,
                0.008034636130017647
            ]
        },
        {
            "positions": [
                -1.1770187038621445,
                -1.7368624324223432,
                1.8610739357074593,
                -1.3673061750354,
                1.185394849725769,
                -0.21413782196469744
            ]
        },
        {
            "positions": [
                -1.1867106172693447,
                -1.7101307485933388,
                1.8513123358453312,
                -1.3296592339948643,
                1.121193388047229,
                -0.43631028005941275
            ]
        },
        {
            "positions": [
                -1.1096980121427926,
                -1.6759394074682066,
                1.8573650311675245,
                -1.292720264988412,
                1.0625706471578291,
                -0.6020537675374232
            ]
        },
        {
            "positions": [
                -1.0326854070162406,
                -1.6417480663430744,
                1.863417726489718,
                -1.2557812959819596,
                1.0039479062684296,
                -0.7677972550154337
            ]
        },
        {
            "positions": [
                -0.9556728018896885,
                -1.607556725217942,
                1.8694704218119114,
                -1.218842326975507,
                0.9453251653790298,
                -0.9335407424934443
            ]
        },
        {
            "positions": [
                -0.8786601967631366,
                -1.5733653840928097,
                1.8755231171341047,
                -1.1819033579690548,
                0.88670242448963,
                -1.0992842299714547
            ]
        },
        {
            "positions": [
                -0.8016475916365845,
                -1.5391740429676775,
                1.881575812456298,
                -1.1449643889626024,
                0.8280796836002303,
                -1.2650277174494653
            ]
        },
        {
            "positions": [
                -0.7246349865100324,
                -1.504982701842545,
                1.8876285077784916,
                -1.10802541995615,
                0.7694569427108306,
                -1.430771204927476
            ]
        },
        {
            "positions": [
                -0.6476223813834805,
                -1.4707913607174128,
                1.8936812031006849,
                -1.0710864509496978,
                0.7108342018214309,
                -1.5965146924054863
            ]
        },
        {
            "positions": [
                -0.5706097762569284,
                -1.4366000195922806,
                1.8997338984228782,
                -1.0341474819432452,
                0.6522114609320312,
                -1.7622581798834969
            ]
        },
        {
            "positions": [
                -0.4935971711303764,
                -1.4024086784671483,
                1.9057865937450718,
                -0.9972085129367929,
                0.5935887200426315,
                -1.9280016673615072
            ]
        },
        {
            "positions": [
                -0.4165845660038243,
                -1.3682173373420161,
                1.911839289067265,
                -0.9602695439303405,
                0.5349659791532317,
                -2.093745154839518
            ]
        },
        {
            "positions": [
                -0.33957196087727226,
                -1.3340259962168837,
                1.9178919843894584,
                -0.923330574923888,
                0.47634323826383207,
                -2.259488642317528
            ]
        },
        {
            "positions": [
                -0.2625593557507202,
                -1.2998346550917514,
                1.923944679711652,
                -0.8863916059174357,
                0.4177204973744323,
                -2.425232129795539
            ]
        },
        {
            "positions": [
                -0.18554675062416837,
                -1.2656433139666192,
                1.9299973750338453,
                -0.8494526369109834,
                0.3590977564850327,
                -2.590975617273549
            ]
        },
        {
            "positions": [
                -0.10853414549761631,
                -1.231451972841487,
                1.9360500703560386,
                -0.8125136679045311,
                0.30047501559563294,
                -2.75671910475156
            ]
        },
        {
            "positions": [
                -0.03152154037106425,
                -1.1972606317163548,
                1.942102765678232,
                -0.7755746988980786,
                0.24185227470623327,
                -2.92246259222957
            ]
        },
        {
            "positions": [
                0.04549106475548781,
                -1.1630692905912223,
                1.9481554610004255,
                -0.7386357298916263,
                0.1832295338168335,
                -3.088206079707581
            ]
        },
        {
            "positions": [
                0.12250366988203978,
                -1.12887794946609,
                1.9542081563226188,
                -0.7016967608851739,
                0.12460679292743378,
                -3.2539495671855914
            ]
        }
    ]
}