{
    "goal": {
        "global_pose": {
            "orientation": {
                "w": 0.7047431468963623,
                "x": -0.7094548344612122,
                "y": 0.0024358443915843964,
                "z": -0.0022348060738295317
            },
            "position": {
                "x": 0.6094750761985779,
                "y": 0.3671506643295288,
                "z": 0.19426114857196808
            }
        },
        "name": "move_to_magneteinheit_A"
    },
    "id": "LBTRRT_move_to_magneteinheit_A_102",
    "joint_names": [
        "shoulder_pan_joint",
        "shoulder_lift_joint",
        "elbow_joint",
        "wrist_1_joint",
        "wrist_2_joint",
        "wrist_3_joint"
    ],
    "metrics": {
        "cart_traj_len": 3.7663693133452116,
        "distance_elbow_joint": 3.9020378696084492,
        "distance_shoulder_lift_joint": 0.21330253333135474,
        "distance_shoulder_pan_joint": 2.6934195468537063,
        "distance_wrist_1_joint": 1.7730727587854067,
        "distance_wrist_2_joint": 1.9375111868422064,
        "distance_wrist_3_joint": 3.6065048144250205,
        "smoothness": 0.1782455649450623,
        "time": 5.0403965799999995,
        "traj_len": 3.7584370035755743,
        "weighted_distance": 5.00494178630719
    },
    "planner": "LBTRRT",
    "start": {
        "state": {
            "elbow_joint": -1.919618573717145,
            "shoulder_lift_joint": -1.2443395971678275,
            "shoulder_pan_joint": 2.6996025300909787,
            "wrist_1_joint": -1.548550951253194,
            "wrist_2_joint": -1.5709469090946802,
            "wrist_3_joint": 0.4420197732051276
        }
    },
    "waypoints": [
        {
            "positions": [
                2.6996025300909787,
                -1.2443395971678275,
                -1.919618573717145,
                -1.548550951253194,
                -1.5709469090946802,
                0.4420197732051276
            ]
        },
        {
            "positions": [
                2.5983801748962096,
                -1.25567984279572,
                -1.8896510455118032,
                -1.6068760521327652,
                -1.472198504279867,
                0.38168285060729623
            ]
        },
        {
            "positions": [
                2.4971578197014406,
                -1.267020088423613,
                -1.8596835173064612,
                -1.6652011530123363,
                -1.373450099465054,
                0.32134592800946493
            ]
        },
        {
            "positions": [
                2.395935464506672,
                -1.2783603340515055,
                -1.8297159891011194,
                -1.7235262538919076,
                -1.2747016946502412,
                0.26100900541163363
            ]
        },
        {
            "positions": [
                2.294713109311903,
                -1.2897005796793983,
                -1.7997484608957774,
                -1.7818513547714787,
                -1.1759532898354281,
                0.20067208281380228
            ]
        },
        {
            "positions": [
                2.193490754117134,
                -1.301040825307291,
                -1.7697809326904357,
                -1.8401764556510498,
                -1.077204885020615,
                0.14033516021597098
            ]
        },
        {
            "positions": [
                2.1093247042357093,
                -1.2965626688613563,
                -1.6349496834585593,
                -1.8493592154433132,
                -1.027980463172006,
                0.03416886287311227
            ]
        },
        {
            "positions": [
                2.0251586543542848,
                -1.2920845124154214,
                -1.500118434226683,
                -1.8585419752355765,
                -0.9787560413233971,
                -0.07199743446974644
            ]
        },
        {
            "positions": [
                1.9409926044728605,
                -1.2876063559694868,
                -1.3652871849948065,
                -1.8677247350278399,
                -0.9295316194747881,
                -0.17816373181260514
            ]
        },
        {
            "positions": [
                1.856826554591436,
                -1.283128199523552,
                -1.23045593576293,
                -1.8769074948201032,
                -0.8803071976261791,
                -0.28433002915546385
            ]
        },
        {
            "positions": [
                1.7726605047100117,
                -1.2786500430776173,
                -1.0956246865310537,
                -1.8860902546123666,
                -0.8310827757775701,
                -0.3904963264983226
            ]
        },
        {
            "positions": [
                1.6884944548285872,
                -1.2741718866316827,
                -0.9607934372991774,
                -1.89527301440463,
                -0.7818583539289612,
                -0.49666262384118126
            ]
        },
        {
            "positions": [
                1.6043284049471627,
                -1.2696937301857478,
                -0.8259621880673009,
                -1.9044557741968935,
                -0.7326339320803521,
                -0.6028289211840401
            ]
        },
        {
            "positions": [
                1.5201623550657382,
                -1.2652155737398132,
                -0.6911309388354245,
                -1.9136385339891568,
                -0.6834095102317431,
                -0.7089952185268986
            ]
        },
        {
            "positions": [
                1.4359963051843139,
                -1.2607374172938783,
                -0.5562996896035484,
                -1.9228212937814202,
                -0.6341850883831341,
                -0.8151615158697574
            ]
        },
        {
            "positions": [
                1.3518302553028894,
                -1.2562592608479437,
                -0.42146844037167175,
                -1.9320040535736835,
                -0.584960666534525,
                -0.9213278132126161
            ]
        },
        {
            "positions": [
                1.267664205421465,
                -1.251781104402009,
                -0.28663719113979536,
                -1.941186813365947,
                -0.5357362446859162,
                -1.0274941105554747
            ]
        },
        {
            "positions": [
                1.1834981555400406,
                -1.2473029479560742,
                -0.15180594190791918,
                -1.9503695731582102,
                -0.4865118228373072,
                -1.1336604078983334
            ]
        },
        {
            "positions": [
                1.099332105658616,
                -1.2428247915101396,
                -0.01697469267604257,
                -1.9595523329504736,
                -0.4372874009886981,
                -1.2398267052411922
            ]
        },
        {
            "positions": [
                1.0151660557771915,
                -1.2383466350642047,
                0.11785655655583382,
                -1.968735092742737,
                -0.38806297914008914,
                -1.345993002584051
            ]
        },
        {
            "positions": [
                0.9310000058957673,
                -1.23386847861827,
                0.25268780578771,
                -1.9779178525350003,
                -0.33883855729148016,
                -1.4521592999269095
            ]
        },
        {
            "positions": [
                0.8468339560143427,
                -1.2293903221723355,
                0.3875190550195866,
                -1.9871006123272636,
                -0.2896141354428712,
                -1.5583255972697683
            ]
        },
        {
            "positions": [
                0.7626679061329182,
                -1.2249121657264006,
                0.5223503042514632,
                -1.996283372119527,
                -0.2403897135942621,
                -1.6644918946126273
            ]
        },
        {
            "positions": [
                0.678501856251494,
                -1.220434009280466,
                0.657181553483339,
                -2.0054661319117906,
                -0.19116529174565322,
                -1.7706581919554856
            ]
        },
        {
            "positions": [
                0.5943358063700694,
                -1.2159558528345311,
                0.7920128027152156,
                -2.014648891704054,
                -0.14194086989704424,
                -1.8768244892983446
            ]
        },
        {
            "positions": [
                0.5101697564886449,
                -1.2114776963885965,
                0.9268440519470922,
                -2.0238316514963173,
                -0.09271644804843515,
                -1.9829907866412033
            ]
        },
        {
            "positions": [
                0.42600370660722064,
                -1.2069995399426618,
                1.0616753011789684,
                -2.0330144112885806,
                -0.04349202619982617,
                -2.0891570839840616
            ]
        },
        {
            "positions": [
                0.34183765672579614,
                -1.202521383496727,
                1.196506550410845,
                -2.042197171080844,
                0.0057323956487826955,
                -2.1953233813269204
            ]
        },
        {
            "positions": [
                0.2576716068443716,
                -1.1980432270507924,
                1.3313377996427211,
                -2.0513799308731073,
                0.054956817497391786,
                -2.301489678669779
            ]
        },
        {
            "positions": [
                0.17350555696294734,
                -1.1935650706048575,
                1.4661690488745973,
                -2.0605626906653707,
                0.10418123934600065,
                -2.407655976012638
            ]
        },
        {
            "positions": [
                0.08933950708152288,
                -1.1890869141589229,
                1.6010002981064737,
                -2.069745450457634,
                0.1534056611946098,
                -2.5138222733554967
            ]
        },
        {
            "positions": [
                0.08324645900100619,
                -1.1805557354186498,
                1.6870098074102247,
                -1.966451317925555,
                0.12510300580409062,
                -2.601545007419899
            ]
        },
        {
            "positions": [
                0.0771534109204895,
                -1.1720245566783767,
                1.7730193167139758,
                -1.8631571853934759,
                0.09680035041357142,
                -2.689267741484301
            ]
        },
        {
            "positions": [
                0.0710603628399728,
                -1.1634933779381036,
                1.859028826017727,
                -1.7598630528613968,
                0.06849769502305222,
                -2.776990475548703
            ]
        },
        {
            "positions": [
                0.06496731475945611,
                -1.1549621991978305,
                1.945038335321478,
                -1.6565689203293177,
                0.04019503963253305,
                -2.8647132096131056
            ]
        },
        {
            "positions": [
                0.07966339764000183,
                -1.1523315294272227,
                1.954383575463935,
                -1.446893487966155,
                0.06518203838024289,
                -2.9396561675148023
            ]
        },
        {
            "positions": [
                0.09435948052054753,
                -1.149700859656615,
                1.963728815606392,
                -1.2372180556029924,
                0.09016903712795274,
                -3.014599125416499
            ]
        },
        {
            "positions": [
                0.10905556340109324,
                -1.1470701898860074,
                1.9730740557488489,
                -1.02754262323983,
                0.11515603587566256,
                -3.0895420833181957
            ]
        },
        {
            "positions": [
                0.12375164628163896,
                -1.1444395201153996,
                1.9824192958913058,
                -0.8178671908766673,
                0.1401430346233724,
                -3.1644850412198924
            ]
        }
    ]
}{
    "goal": {
        "global_pose": {
            "orientation": {
                "w": 0.7047431468963623,
                "x": -0.7094548344612122,
                "y": 0.0024358443915843964,
                "z": -0.0022348060738295317
            },
            "position": {
                "x": 0.6094750761985779,
                "y": 0.3671506643295288,
                "z": 0.19426114857196808
            }
        },
        "name": "move_to_magneteinheit_A"
    },
    "id": "LBTRRT_move_to_magneteinheit_A_102",
    "joint_names": [
        "shoulder_pan_joint",
        "shoulder_lift_joint",
        "elbow_joint",
        "wrist_1_joint",
        "wrist_2_joint",
        "wrist_3_joint"
    ],
    "metrics": {
        "cart_traj_len": 1.3789306127364007,
        "distance_elbow_joint": 0.47429339200933773,
        "distance_shoulder_lift_joint": 0.7608875265201966,
        "distance_shoulder_pan_joint": 1.2417183109214431,
        "distance_wrist_1_joint": 0.7524287696569448,
        "distance_wrist_2_joint": 1.4320757957911663,
        "distance_wrist_3_joint": 4.269003084601302,
        "smoothness": 0.04965339468409754,
        "time": 5.048529395999999,
        "traj_len": 2.9883786372379904,
        "weighted_distance": 4.4331611310836765
    },
    "planner": "LBTRRT",
    "start": {
        "state": {
            "elbow_joint": 1.919643534880228,
            "shoulder_lift_joint": -1.8972525353963687,
            "shoulder_pan_joint": -1.1188672234189438,
            "wrist_1_joint": -1.5931878212786155,
            "wrist_2_joint": 1.5706036197970081,
            "wrist_3_joint": 1.118896926603594
        }
    },
    "waypoints": [
        {
            "positions": [
                -1.1188672234189438,
                -1.8972525353963687,
                1.919643534880228,
                -1.5931878212786155,
                1.5706036197970081,
                1.118896926603594
            ]
        },
        {
            "positions": [
                -1.06939031316916,
                -1.84691713008669,
                1.9061193827384364,
                -1.5793903280673751,
                1.479653248779763,
                0.9422031940726585
            ]
        },
        {
            "positions": [
                -1.0199134029193762,
                -1.796581724777011,
                1.8925952305966447,
                -1.5655928348561348,
                1.3887028777625174,
                0.765509461541723
            ]
        },
        {
            "positions": [
                -0.9704364926695923,
                -1.7462463194673323,
                1.879071078454853,
                -1.5517953416448944,
                1.2977525067452722,
                0.5888157290107875
            ]
        },
        {
            "positions": [
                -0.9209595824198085,
                -1.6959109141576536,
                1.865546926313061,
                -1.537997848433654,
                1.206802135728027,
                0.4121219964798519
            ]
        },
        {
            "positions": [
                -0.8714826721700247,
                -1.6455755088479749,
                1.8520227741712694,
                -1.5242003552224137,
                1.1158517647107815,
                0.23542826394891647
            ]
        },
        {
            "positions": [
                -0.8220057619202408,
                -1.595240103538296,
                1.8384986220294777,
                -1.5104028620111734,
                1.0249013936935363,
                0.05873453141798102
            ]
        },
        {
            "positions": [
                -0.772528851670457,
                -1.5449046982286172,
                1.824974469887686,
                -1.496605368799933,
                0.9339510226762909,
                -0.11795920111295444
            ]
        },
        {
            "positions": [
                -0.7230519414206732,
                -1.4945692929189383,
                1.8114503177458943,
                -1.4828078755886926,
                0.8430006516590457,
                -0.2946529336438901
            ]
        },
        {
            "positions": [
                -0.6735750311708895,
                -1.4442338876092595,
                1.7979261656041026,
                -1.4690103823774523,
                0.7520502806418004,
                -0.47134666617482557
            ]
        },
        {
            "positions": [
                -0.6240981209211056,
                -1.3938984822995808,
                1.7844020134623109,
                -1.455212889166212,
                0.6610999096245551,
                -0.648040398705761
            ]
        },
        {
            "positions": [
                -0.5746212106713218,
                -1.343563076989902,
                1.7708778613205192,
                -1.4414153959549716,
                0.5701495386073099,
                -0.8247341312366965
            ]
        },
        {
            "positions": [
                -0.5251443004215378,
                -1.2932276716802231,
                1.7573537091787272,
                -1.4276179027437312,
                0.4791991675900644,
                -1.001427863767632
            ]
        },
        {
            "positions": [
                -0.4756673901717541,
                -1.2428922663705442,
                1.7438295570369355,
                -1.4138204095324909,
                0.38824879657281897,
                -1.1781215962985676
            ]
        },
        {
            "positions": [
                -0.42619047992197023,
                -1.1925568610608654,
                1.7303054048951438,
                -1.4000229163212505,
                0.29729842555557373,
                -1.3548153288295028
            ]
        },
        {
            "positions": [
                -0.37671356967218633,
                -1.1422214557511867,
                1.7167812527533521,
                -1.3862254231100102,
                0.20634805453832855,
                -1.5315090613604387
            ]
        },
        {
            "positions": [
                -0.3142679875253506,
                -1.1429535116105636,
                1.7507101414886599,
                -1.3180421266739677,
                0.19787052572176772,
                -1.7338336984400975
            ]
        },
        {
            "positions": [
                -0.25182240537851497,
                -1.1436855674699404,
                1.7846390302239676,
                -1.2498588302379252,
                0.1893929969052069,
                -1.936158335519756
            ]
        },
        {
            "positions": [
                -0.18937682323167926,
                -1.1444176233293173,
                1.8185679189592754,
                -1.181675533801883,
                0.1809154680886461,
                -2.1384829725994146
            ]
        },
        {
            "positions": [
                -0.12693124108484355,
                -1.1451496791886941,
                1.8524968076945831,
                -1.1134922373658405,
                0.17243793927208526,
                -2.3408076096790733
            ]
        },
        {
            "positions": [
                -0.06448565893800784,
                -1.1458817350480708,
                1.8864256964298907,
                -1.045308940929798,
                0.16396041045552442,
                -2.543132246758732
            ]
        },
        {
            "positions": [
                -0.002040076791172185,
                -1.1466137909074476,
                1.9203545851651984,
                -0.9771256444937555,
                0.15548288163896362,
                -2.745456883838391
            ]
        },
        {
            "positions": [
                0.060405505355663525,
                -1.1473458467668245,
                1.9542834739005062,
                -0.908942348057713,
                0.1470053528224028,
                -2.947781520918049
            ]
        },
        {
            "positions": [
                0.1228510875024992,
                -1.1480779026262014,
                1.988212362635814,
                -0.8407590516216706,
                0.13852782400584196,
                -3.150106157997708
            ]
        }
    ]
}