{
    "goal": {
        "global_pose": {
            "orientation": {
                "w": 0.5084816217422485,
                "x": -0.49083608388900757,
                "y": 0.5182115435600281,
                "z": -0.4816462993621826
            },
            "position": {
                "x": 0.5540239810943604,
                "y": 0.030875300988554955,
                "z": 0.16403168439865112
            }
        },
        "name": "move_to_storage_A"
    },
    "id": "LBTRRT_move_to_storage_A_109",
    "joint_names": [
        "shoulder_pan_joint",
        "shoulder_lift_joint",
        "elbow_joint",
        "wrist_1_joint",
        "wrist_2_joint",
        "wrist_3_joint"
    ],
    "metrics": {
        "cart_traj_len": 0.35216145137941657,
        "distance_elbow_joint": 0.44959687202970633,
        "distance_shoulder_lift_joint": 0.23522489150258052,
        "distance_shoulder_pan_joint": 0.45907006231573855,
        "distance_wrist_1_joint": 0.24236535051614683,
        "distance_wrist_2_joint": 1.1034170280037556,
        "distance_wrist_3_joint": 0.09430097125571502,
        "smoothness": 4.440892098500626e-16,
        "time": 5.003064119,
        "traj_len": 1.6074747822667834,
        "weighted_distance": 2.029374163789166
    },
    "planner": "LBTRRT",
    "start": {
        "state": {
            "elbow_joint": 1.9715477243005601,
            "shoulder_lift_joint": -1.1394853015351272,
            "shoulder_pan_joint": 0.12281154014795169,
            "wrist_1_joint": -0.7804696478968182,
            "wrist_2_joint": 0.12958648046900423,
            "wrist_3_joint": -3.192491284697111
        }
    },
    "waypoints": [
        {
            "positions": [
                0.12281154014795169,
                -1.1394853015351272,
                1.9715477243005601,
                -0.7804696478968182,
                0.12958648046900423,
                -3.192491284697111
            ]
        },
        {
            "positions": [
                0.05723010267427475,
                -1.1730888574640672,
                2.0357758488762325,
                -0.8150932693991249,
                0.28721748446954076,
                -3.179019717374866
            ]
        },
        {
            "positions": [
                -0.008351334799402185,
                -1.2066924133930073,
                2.100003973451905,
                -0.8497168909014315,
                0.44484848847007724,
                -3.1655481500526212
            ]
        },
        {
            "positions": [
                -0.07393277227307911,
                -1.2402959693219473,
                2.1642320980275773,
                -0.8843405124037382,
                0.6024794924706138,
                -3.152076582730376
            ]
        },
        {
            "positions": [
                -0.13951420974675605,
                -1.2738995252508873,
                2.2284602226032493,
                -0.9189641339060449,
                0.7601104964711503,
                -3.1386050154081313
            ]
        },
        {
            "positions": [
                -0.205095647220433,
                -1.3075030811798276,
                2.2926883471789217,
                -0.9535877554083516,
                0.9177415004716868,
                -3.125133448085886
            ]
        },
        {
            "positions": [
                -0.2706770846941099,
                -1.3411066371087677,
                2.356916471754594,
                -0.9882113769106583,
                1.0753725044722233,
                -3.1116618807636414
            ]
        },
        {
            "positions": [
                -0.33625852216778684,
                -1.3747101930377077,
                2.4211445963302665,
                -1.022834998412965,
                1.23300350847276,
                -3.098190313441396
            ]
        }
    ]
}