{
    "goal": {
        "global_pose": {
            "orientation": {
                "w": 0.5084816217422485,
                "x": -0.49083608388900757,
                "y": 0.5182115435600281,
                "z": -0.4816462993621826
            },
            "position": {
                "x": 0.5540239810943604,
                "y": 0.030875300988554955,
                "z": 0.16403168439865112
            }
        },
        "name": "move_to_storage_A"
    },
    "id": "LBTRRT_move_to_storage_A_69",
    "joint_names": [
        "shoulder_pan_joint",
        "shoulder_lift_joint",
        "elbow_joint",
        "wrist_1_joint",
        "wrist_2_joint",
        "wrist_3_joint"
    ],
    "metrics": {
        "cart_traj_len": 0.35277286722268264,
        "distance_elbow_joint": 0.450545142352476,
        "distance_shoulder_lift_joint": 0.23346328458951038,
        "distance_shoulder_pan_joint": 0.45751503428808254,
        "distance_wrist_1_joint": 0.24543133404039918,
        "distance_wrist_2_joint": 1.114294789415613,
        "distance_wrist_3_joint": 0.09114640129230134,
        "smoothness": 4.440892098500626e-16,
        "time": 5.004127821,
        "traj_len": 1.6100919184873834,
        "weighted_distance": 2.033326071248534
    },
    "planner": "LBTRRT",
    "start": {
        "state": {
            "elbow_joint": 1.9715477243005601,
            "shoulder_lift_joint": -1.1394853015351272,
            "shoulder_pan_joint": 0.12281154014795169,
            "wrist_1_joint": -0.7804696478968182,
            "wrist_2_joint": 0.12958648046900423,
            "wrist_3_joint": -3.192491284697111
        }
    },
    "waypoints": [
        {
            "positions": [
                0.12281154014795169,
                -1.1394853015351272,
                1.9715477243005601,
                -0.7804696478968182,
                0.12958648046900423,
                -3.192491284697111
            ]
        },
        {
            "positions": [
                0.05745224953536847,
                -1.1728371993336286,
                2.0359113160651994,
                -0.8155312670454467,
                0.2887714503855203,
                -3.1794703702267824
            ]
        },
        {
            "positions": [
                -0.007907041077214752,
                -1.20618909713213,
                2.100274907829839,
                -0.850592886194075,
                0.4479564203020365,
                -3.1664494557564535
            ]
        },
        {
            "positions": [
                -0.07326633168979797,
                -1.2395409949306315,
                2.1646384995944783,
                -0.8856545053427035,
                0.6071413902185526,
                -3.1534285412861247
            ]
        },
        {
            "positions": [
                -0.13862562230238118,
                -1.272892892729133,
                2.229002091359118,
                -0.920716124491332,
                0.7663263601350687,
                -3.1404076268157963
            ]
        },
        {
            "positions": [
                -0.2039849129149644,
                -1.3062447905276346,
                2.293365683123757,
                -0.9557777436399604,
                0.9255113300515849,
                -3.1273867123454675
            ]
        },
        {
            "positions": [
                -0.2693442035275476,
                -1.339596688326136,
                2.3577292748883965,
                -0.9908393627885889,
                1.0846962999681011,
                -3.1143657978751387
            ]
        },
        {
            "positions": [
                -0.33470349414013084,
                -1.3729485861246375,
                2.422092866653036,
                -1.0259009819372173,
                1.2438812698846173,
                -3.10134488340481
            ]
        }
    ]
}