{
    "goal": {
        "global_pose": {
            "orientation": {
                "w": 0.5084816217422485,
                "x": -0.49083608388900757,
                "y": 0.5182115435600281,
                "z": -0.4816462993621826
            },
            "position": {
                "x": 0.5540239810943604,
                "y": 0.030875300988554955,
                "z": 0.16403168439865112
            }
        },
        "name": "move_to_storage_A"
    },
    "id": "LBTRRT_move_to_storage_A_77",
    "joint_names": [
        "shoulder_pan_joint",
        "shoulder_lift_joint",
        "elbow_joint",
        "wrist_1_joint",
        "wrist_2_joint",
        "wrist_3_joint"
    ],
    "metrics": {
        "cart_traj_len": 0.35331398508516065,
        "distance_elbow_joint": 0.44913197849513375,
        "distance_shoulder_lift_joint": 0.23244374804850754,
        "distance_shoulder_pan_joint": 0.4608701790677069,
        "distance_wrist_1_joint": 0.2446278987936129,
        "distance_wrist_2_joint": 1.102885231788862,
        "distance_wrist_3_joint": 0.09047589566093661,
        "smoothness": 8.881784197001252e-16,
        "time": 5.002981504,
        "traj_len": 1.6063732230881962,
        "weighted_distance": 2.027042144051057
    },
    "planner": "LBTRRT",
    "start": {
        "state": {
            "elbow_joint": 1.9715477243005601,
            "shoulder_lift_joint": -1.1394853015351272,
            "shoulder_pan_joint": 0.12281154014795169,
            "wrist_1_joint": -0.7804696478968182,
            "wrist_2_joint": 0.12958648046900423,
            "wrist_3_joint": -3.192491284697111
        }
    },
    "waypoints": [
        {
            "positions": [
                0.12281154014795169,
                -1.1394853015351272,
                1.9715477243005601,
                -0.7804696478968182,
                0.12958648046900423,
                -3.192491284697111
            ]
        },
        {
            "positions": [
                0.056972943138279275,
                -1.1726915512563425,
                2.0357094355141507,
                -0.81541649058162,
                0.2871415135816988,
                -3.179566156745549
            ]
        },
        {
            "positions": [
                -0.00886565387139314,
                -1.2058978009775578,
                2.0998711467277413,
                -0.8503633332664219,
                0.44469654669439335,
                -3.1666410287939866
            ]
        },
        {
            "positions": [
                -0.07470425088106554,
                -1.2391040506987732,
                2.164032857941332,
                -0.8853101759512236,
                0.602251579807088,
                -3.1537159008424243
            ]
        },
        {
            "positions": [
                -0.14054284789073795,
                -1.2723103004199885,
                2.228194569154922,
                -0.9202570186360255,
                0.7598066129197825,
                -3.1407907728908615
            ]
        },
        {
            "positions": [
                -0.20638144490041038,
                -1.305516550141204,
                2.2923562803685127,
                -0.9552038613208274,
                0.917361646032477,
                -3.127865644939299
            ]
        },
        {
            "positions": [
                -0.27222004191008276,
                -1.3387227998624194,
                2.3565179915821033,
                -0.9901507040056292,
                1.0749166791451716,
                -3.114940516987737
            ]
        },
        {
            "positions": [
                -0.3380586389197552,
                -1.3719290495836347,
                2.420679702795694,
                -1.025097546690431,
                1.2324717122578661,
                -3.1020153890361746
            ]
        }
    ]
}