{
    "goal": {
        "global_pose": {
            "orientation": {
                "w": 0.5084816217422485,
                "x": -0.49083608388900757,
                "y": 0.5182115435600281,
                "z": -0.4816462993621826
            },
            "position": {
                "x": 0.5540239810943604,
                "y": 0.030875300988554955,
                "z": 0.16403168439865112
            }
        },
        "name": "move_to_storage_A"
    },
    "id": "LBTRRT_move_to_storage_A_101",
    "joint_names": [
        "shoulder_pan_joint",
        "shoulder_lift_joint",
        "elbow_joint",
        "wrist_1_joint",
        "wrist_2_joint",
        "wrist_3_joint"
    ],
    "metrics": {
        "cart_traj_len": 0.35319231233343096,
        "distance_elbow_joint": 0.4475097563035284,
        "distance_shoulder_lift_joint": 0.2339459327583302,
        "distance_shoulder_pan_joint": 0.4627939371348096,
        "distance_wrist_1_joint": 0.23654816238231613,
        "distance_wrist_2_joint": 1.0941203474362986,
        "distance_wrist_3_joint": 0.10172760081822352,
        "smoothness": 1.3322676346803227e-15,
        "time": 5.00293997,
        "traj_len": 1.6051933643126943,
        "weighted_distance": 2.0275032548157768
    },
    "planner": "LBTRRT",
    "start": {
        "state": {
            "elbow_joint": 1.9715477243005601,
            "shoulder_lift_joint": -1.1394853015351272,
            "shoulder_pan_joint": 0.12281154014795169,
            "wrist_1_joint": -0.7804696478968182,
            "wrist_2_joint": 0.12958648046900423,
            "wrist_3_joint": -3.192491284697111
        }
    },
    "waypoints": [
        {
            "positions": [
                0.12281154014795169,
                -1.1394853015351272,
                1.9715477243005601,
                -0.7804696478968182,
                0.12958648046900423,
                -3.192491284697111
            ]
        },
        {
            "positions": [
                0.056698120557264614,
                -1.1729061490720314,
                2.0354776894867785,
                -0.8142622425228633,
                0.2858893872456183,
                -3.177958770294508
            ]
        },
        {
            "positions": [
                -0.009415299033422461,
                -1.2063269966089358,
                2.099407654672997,
                -0.8480548371489085,
                0.44219229402223237,
                -3.1634262558919044
            ]
        },
        {
            "positions": [
                -0.07552871862410955,
                -1.23974784414584,
                2.1633376198592154,
                -0.8818474317749536,
                0.5984952007988464,
                -3.1488937414893012
            ]
        },
        {
            "positions": [
                -0.1416421382147966,
                -1.2731686916827445,
                2.2272675850454333,
                -0.9156400264009988,
                0.7547981075754605,
                -3.1343612270866976
            ]
        },
        {
            "positions": [
                -0.20775555780548371,
                -1.3065895392196487,
                2.2911975502316517,
                -0.949432621027044,
                0.9111010143520747,
                -3.1198287126840945
            ]
        },
        {
            "positions": [
                -0.2738689773961708,
                -1.340010386756553,
                2.35512751541787,
                -0.9832252156530892,
                1.0674039211286885,
                -3.105296198281491
            ]
        },
        {
            "positions": [
                -0.3399823969868579,
                -1.3734312342934574,
                2.4190574806040885,
                -1.0170178102791343,
                1.223706827905303,
                -3.0907636838788877
            ]
        }
    ]
}