{
    "goal": {
        "global_pose": {
            "orientation": {
                "w": 0.7047431468963623,
                "x": -0.7094548344612122,
                "y": 0.0024358443915843964,
                "z": -0.0022348060738295317
            },
            "position": {
                "x": 0.6094750761985779,
                "y": 0.3671506643295288,
                "z": 0.19426114857196808
            }
        },
        "name": "move_to_magneteinheit_A"
    },
    "id": "LBTRRT_move_to_magneteinheit_A_72",
    "joint_names": [
        "shoulder_pan_joint",
        "shoulder_lift_joint",
        "elbow_joint",
        "wrist_1_joint",
        "wrist_2_joint",
        "wrist_3_joint"
    ],
    "metrics": {
        "cart_traj_len": 3.3612815142507513,
        "distance_elbow_joint": 3.9251175624147927,
        "distance_shoulder_lift_joint": 0.46695376311690484,
        "distance_shoulder_pan_joint": 2.658323818148225,
        "distance_wrist_1_joint": 3.5076090088215537,
        "distance_wrist_2_joint": 2.332843553306946,
        "distance_wrist_3_joint": 0.7407687640754606,
        "smoothness": 0.06573864405437867,
        "time": 5.026135954,
        "traj_len": 3.69210190404922,
        "weighted_distance": 4.577510956858902
    },
    "planner": "LBTRRT",
    "start": {
        "state": {
            "elbow_joint": -1.919618573717145,
            "shoulder_lift_joint": -1.2443395971678275,
            "shoulder_pan_joint": 2.6996025300909787,
            "wrist_1_joint": -1.548550951253194,
            "wrist_2_joint": -1.5709469090946802,
            "wrist_3_joint": 0.4420197732051276
        }
    },
    "waypoints": [
        {
            "positions": [
                2.6996025300909787,
                -1.2443395971678275,
                -1.919618573717145,
                -1.548550951253194,
                -1.5709469090946802,
                0.4420197732051276
            ]
        },
        {
            "positions": [
                2.5853990191885177,
                -1.228429562321178,
                -1.8457453550496155,
                -1.4814705432945268,
                -1.4811136830740315,
                0.41292301801137477
            ]
        },
        {
            "positions": [
                2.471195508286056,
                -1.2125195274745286,
                -1.7718721363820862,
                -1.4143901353358592,
                -1.3912804570533828,
                0.38382626281762194
            ]
        },
        {
            "positions": [
                2.356991997383595,
                -1.1966094926278792,
                -1.6979989177145567,
                -1.347309727377192,
                -1.301447231032734,
                0.3547295076238691
            ]
        },
        {
            "positions": [
                2.2427884864811336,
                -1.1806994577812298,
                -1.6241256990470272,
                -1.2802293194185244,
                -1.2116140050120854,
                0.32563275243011625
            ]
        },
        {
            "positions": [
                2.1285849755786725,
                -1.1647894229345803,
                -1.550252480379498,
                -1.213148911459857,
                -1.1217807789914367,
                0.2965359972363635
            ]
        },
        {
            "positions": [
                2.0143814646762115,
                -1.1488793880879309,
                -1.4763792617119686,
                -1.1460685035011897,
                -1.031947552970788,
                0.2674392420426106
            ]
        },
        {
            "positions": [
                1.90017795377375,
                -1.1329693532412815,
                -1.4025060430444392,
                -1.0789880955425222,
                -0.9421143269501393,
                0.23834248684885778
            ]
        },
        {
            "positions": [
                1.785974442871289,
                -1.117059318394632,
                -1.3286328243769097,
                -1.0119076875838546,
                -0.8522811009294906,
                0.20924573165510496
            ]
        },
        {
            "positions": [
                1.6717709319688276,
                -1.1011492835479828,
                -1.2547596057093804,
                -0.9448272796251874,
                -0.7624478749088419,
                0.18014897646135214
            ]
        },
        {
            "positions": [
                1.5575674210663664,
                -1.0852392487013334,
                -1.180886387041851,
                -0.87774687166652,
                -0.6726146488881932,
                0.15105222126759932
            ]
        },
        {
            "positions": [
                1.4433639101639049,
                -1.069329213854684,
                -1.1070131683743214,
                -0.8106664637078524,
                -0.5827814228675445,
                0.12195546607384644
            ]
        },
        {
            "positions": [
                1.3291603992614438,
                -1.0534191790080345,
                -1.0331399497067921,
                -0.7435860557491851,
                -0.49294819684689584,
                0.09285871088009368
            ]
        },
        {
            "positions": [
                1.2149568883589825,
                -1.037509144161385,
                -0.9592667310392626,
                -0.6765056477905177,
                -0.40311497082624714,
                0.0637619556863408
            ]
        },
        {
            "positions": [
                1.1007533774565212,
                -1.0215991093147356,
                -0.8853935123717334,
                -0.6094252398318503,
                -0.31328174480559845,
                0.03466520049258798
            ]
        },
        {
            "positions": [
                0.98654986655406,
                -1.0056890744680862,
                -0.8115202937042039,
                -0.5423448318731827,
                -0.22344851878494976,
                0.005568445298835156
            ]
        },
        {
            "positions": [
                0.8723463556515989,
                -0.9897790396214368,
                -0.7376470750366744,
                -0.4752644239145154,
                -0.13361529276430106,
                -0.023528309894917665
            ]
        },
        {
            "positions": [
                0.7581428447491374,
                -0.9738690047747873,
                -0.6637738563691449,
                -0.4081840159558481,
                -0.04378206674365237,
                -0.05262506508867054
            ]
        },
        {
            "positions": [
                0.6439393338466766,
                -0.9579589699281379,
                -0.5899006377016156,
                -0.34110360799718076,
                0.04605115927699632,
                -0.08172182028242331
            ]
        },
        {
            "positions": [
                0.5297358229442151,
                -0.9420489350814885,
                -0.5160274190340861,
                -0.2740232000385132,
                0.13588438529764502,
                -0.11081857547617618
            ]
        },
        {
            "positions": [
                0.415532312041754,
                -0.926138900234839,
                -0.44215420036655684,
                -0.2069427920798459,
                0.2257176113182937,
                -0.13991533066992895
            ]
        },
        {
            "positions": [
                0.30132880113929267,
                -0.9102288653881896,
                -0.36828098169902734,
                -0.13986238412117824,
                0.31555083733894246,
                -0.1690120858636818
            ]
        },
        {
            "positions": [
                0.2813513914458924,
                -0.898672744757707,
                -0.19803258556454753,
                0.008543888820652323,
                0.30110933488267383,
                -0.15931365111592843
            ]
        },
        {
            "positions": [
                0.2613739817524921,
                -0.8871166241272245,
                -0.02778418943006772,
                0.1569501617624829,
                0.2866678324264052,
                -0.1496152163681751
            ]
        },
        {
            "positions": [
                0.24139657205909185,
                -0.8755605034967419,
                0.14246420670441207,
                0.3053564347043134,
                0.27222632997013657,
                -0.13991678162042173
            ]
        },
        {
            "positions": [
                0.2214191623656916,
                -0.8640043828662594,
                0.3127126028388919,
                0.453762707646144,
                0.25778482751386794,
                -0.13021834687266837
            ]
        },
        {
            "positions": [
                0.2014417526722913,
                -0.8524482622357767,
                0.48296099897337164,
                0.6021689805879745,
                0.2433433250575993,
                -0.12051991212491503
            ]
        },
        {
            "positions": [
                0.18146434297889102,
                -0.8408921416052942,
                0.6532093951078515,
                0.750575253529805,
                0.22890182260133068,
                -0.11082147737716168
            ]
        },
        {
            "positions": [
                0.16148693328549077,
                -0.8293360209748116,
                0.8234577912423313,
                0.8989815264716355,
                0.21446032014506206,
                -0.10112304262940833
            ]
        },
        {
            "positions": [
                0.14150952359209049,
                -0.8177799003443291,
                0.9937061873768112,
                1.0473877994134662,
                0.20001881768879343,
                -0.09142460788165496
            ]
        },
        {
            "positions": [
                0.1215321138986902,
                -0.8062237797138465,
                1.163954583511291,
                1.1957940723552967,
                0.1855773152325248,
                -0.08172617313390161
            ]
        },
        {
            "positions": [
                0.10155470420528995,
                -0.794667659083364,
                1.3342029796457706,
                1.3442003452971272,
                0.17113581277625617,
                -0.07202773838614826
            ]
        },
        {
            "positions": [
                0.08157729451188966,
                -0.7831115384528814,
                1.5044513757802505,
                1.492606618238958,
                0.15669431031998754,
                -0.06232930363839491
            ]
        },
        {
            "positions": [
                0.08398533227230903,
                -0.7802783750193996,
                1.5943687080416282,
                1.5710182058063644,
                0.11854518639346406,
                -0.05198648038250844
            ]
        },
        {
            "positions": [
                0.09661551387521397,
                -0.7812425553422252,
                1.731412134926968,
                1.700364823060363,
                0.035431801084182674,
                -0.04774938054068242
            ]
        },
        {
            "positions": [
                0.10924569547811891,
                -0.7822067356650508,
                1.8684555618123078,
                1.8297114403143615,
                -0.047681584225098717,
                -0.04351228069885641
            ]
        },
        {
            "positions": [
                0.12187587708102386,
                -0.7831709159878765,
                2.0054989886976475,
                1.9590580575683603,
                -0.1307949695343801,
                -0.03927518085703039
            ]
        }
    ]
}{
    "goal": {
        "global_pose": {
            "orientation": {
                "w": 0.7047431468963623,
                "x": -0.7094548344612122,
                "y": 0.0024358443915843964,
                "z": -0.0022348060738295317
            },
            "position": {
                "x": 0.6094750761985779,
                "y": 0.3671506643295288,
                "z": 0.19426114857196808
            }
        },
        "name": "move_to_magneteinheit_A"
    },
    "id": "LBTRRT_move_to_magneteinheit_A_72",
    "joint_names": [
        "shoulder_pan_joint",
        "shoulder_lift_joint",
        "elbow_joint",
        "wrist_1_joint",
        "wrist_2_joint",
        "wrist_3_joint"
    ],
    "metrics": {
        "cart_traj_len": 1.210488282014821,
        "distance_elbow_joint": 0.06986844593502428,
        "distance_shoulder_lift_joint": 0.7562900262185144,
        "distance_shoulder_pan_joint": 1.2422181153406766,
        "distance_wrist_1_joint": 0.7252677078931263,
        "distance_wrist_2_joint": 1.448671383959533,
        "distance_wrist_3_joint": 4.240344514595486,
        "smoothness": 0.02874262160896574,
        "time": 5.042134302,
        "traj_len": 2.9125006770715713,
        "weighted_distance": 4.374618647949327
    },
    "planner": "LBTRRT",
    "start": {
        "state": {
            "elbow_joint": 1.919643534880228,
            "shoulder_lift_joint": -1.8972525353963687,
            "shoulder_pan_joint": -1.1188672234189438,
            "wrist_1_joint": -1.5931878212786155,
            "wrist_2_joint": 1.5706036197970081,
            "wrist_3_joint": 1.118896926603594
        }
    },
    "waypoints": [
        {
            "positions": [
                -1.1188672234189438,
                -1.8972525353963687,
                1.919643534880228,
                -1.5931878212786155,
                1.5706036197970081,
                1.118896926603594
            ]
        },
        {
            "positions": [
                -1.0629124540513188,
                -1.8630305496606043,
                1.9222294119033443,
                -1.5608402785221696,
                1.5071390960355349,
                0.9264689020094933
            ]
        },
        {
            "positions": [
                -1.0069576846836938,
                -1.8288085639248397,
                1.9248152889264605,
                -1.5284927357657239,
                1.4436745722740614,
                0.7340408774153926
            ]
        },
        {
            "positions": [
                -0.9510029153160688,
                -1.7945865781890753,
                1.9274011659495767,
                -1.496145193009278,
                1.380210048512588,
                0.5416128528212919
            ]
        },
        {
            "positions": [
                -0.8950481459484438,
                -1.760364592453311,
                1.9299870429726929,
                -1.4637976502528323,
                1.3167455247511146,
                0.3491848282271911
            ]
        },
        {
            "positions": [
                -0.8390933765808188,
                -1.7261426067175463,
                1.932572919995809,
                -1.4314501074963863,
                1.2532810009896413,
                0.15675680363309052
            ]
        },
        {
            "positions": [
                -0.7831386072131938,
                -1.6919206209817819,
                1.935158797018925,
                -1.3991025647399407,
                1.189816477228168,
                -0.035671220961010164
            ]
        },
        {
            "positions": [
                -0.7271838378455688,
                -1.6576986352460175,
                1.9377446740420412,
                -1.3667550219834947,
                1.1263519534666946,
                -0.22809924555511096
            ]
        },
        {
            "positions": [
                -0.6712290684779438,
                -1.6234766495102528,
                1.9403305510651574,
                -1.3344074792270488,
                1.062887429705221,
                -0.42052727014921176
            ]
        },
        {
            "positions": [
                -0.6152742991103188,
                -1.5892546637744884,
                1.9429164280882736,
                -1.3020599364706031,
                0.9994229059437478,
                -0.6129552947433123
            ]
        },
        {
            "positions": [
                -0.5593195297426938,
                -1.555032678038724,
                1.9455023051113898,
                -1.2697123937141572,
                0.9359583821822745,
                -0.8053833193374129
            ]
        },
        {
            "positions": [
                -0.5033647603750688,
                -1.5208106923029594,
                1.948088182134506,
                -1.2373648509577115,
                0.8724938584208011,
                -0.9978113439315137
            ]
        },
        {
            "positions": [
                -0.44740999100744383,
                -1.486588706567195,
                1.9506740591576222,
                -1.2050173082012656,
                0.8090293346593278,
                -1.1902393685256143
            ]
        },
        {
            "positions": [
                -0.39145522163981883,
                -1.4523667208314306,
                1.9532599361807383,
                -1.17266976544482,
                0.7455648108978543,
                -1.3826673931197153
            ]
        },
        {
            "positions": [
                -0.3355004522721938,
                -1.418144735095666,
                1.9558458132038545,
                -1.140322222688374,
                0.6821002871363809,
                -1.575095417713816
            ]
        },
        {
            "positions": [
                -0.27954568290456894,
                -1.3839227493599018,
                1.9584316902269707,
                -1.1079746799319283,
                0.6186357633749077,
                -1.7675234423079165
            ]
        },
        {
            "positions": [
                -0.22359091353694382,
                -1.3497007636241372,
                1.961017567250087,
                -1.0756271371754824,
                0.5551712396134343,
                -1.9599514669020175
            ]
        },
        {
            "positions": [
                -0.16763614416931882,
                -1.3154787778883725,
                1.9636034442732029,
                -1.0432795944190367,
                0.4917067158519608,
                -2.1523794914961174
            ]
        },
        {
            "positions": [
                -0.11168137480169382,
                -1.2812567921526081,
                1.966189321296319,
                -1.0109320516625906,
                0.42824219209048753,
                -2.344807516090219
            ]
        },
        {
            "positions": [
                -0.05572660543406882,
                -1.2470348064168437,
                1.9687751983194353,
                -0.9785845089061449,
                0.36477766832901404,
                -2.5372355406843194
            ]
        },
        {
            "positions": [
                0.00022816393355618025,
                -1.212812820681079,
                1.9713610753425514,
                -0.9462369661496991,
                0.30131314456754077,
                -2.72966356527842
            ]
        },
        {
            "positions": [
                0.05618293330118118,
                -1.1785908349453147,
                1.9739469523656676,
                -0.9138894233932533,
                0.23784862080606728,
                -2.9220915898725206
            ]
        },
        {
            "positions": [
                0.11213770266880622,
                -1.1443688492095503,
                1.9765328293887838,
                -0.8815418806368075,
                0.17438409704459407,
                -3.114519614466621
            ]
        },
        {
            "positions": [
                0.12335089192173274,
                -1.1477751892412462,
                1.9895119808152524,
                -0.8679201133854891,
                0.12193223583747508,
                -3.1214475879918915
            ]
        }
    ]
}