{
    "goal": {
        "global_pose": {
            "orientation": {
                "w": 0.7047431468963623,
                "x": -0.7094548344612122,
                "y": 0.0024358443915843964,
                "z": -0.0022348060738295317
            },
            "position": {
                "x": 0.6094750761985779,
                "y": 0.3671506643295288,
                "z": 0.19426114857196808
            }
        },
        "name": "move_to_magneteinheit_A"
    },
    "id": "LBTRRT_move_to_magneteinheit_A_113",
    "joint_names": [
        "shoulder_pan_joint",
        "shoulder_lift_joint",
        "elbow_joint",
        "wrist_1_joint",
        "wrist_2_joint",
        "wrist_3_joint"
    ],
    "metrics": {
        "cart_traj_len": 3.178551015456917,
        "distance_elbow_joint": 3.9306560857219797,
        "distance_shoulder_lift_joint": 0.4635727438048941,
        "distance_shoulder_pan_joint": 2.8056210612034476,
        "distance_wrist_1_joint": 3.545549511201652,
        "distance_wrist_2_joint": 1.4477778581546654,
        "distance_wrist_3_joint": 0.6084643098546825,
        "smoothness": 0.2654274092532724,
        "time": 5.044538467,
        "traj_len": 3.5779381730182704,
        "weighted_distance": 4.3602634735766825
    },
    "planner": "LBTRRT",
    "start": {
        "state": {
            "elbow_joint": -1.919618573717145,
            "shoulder_lift_joint": -1.2443395971678275,
            "shoulder_pan_joint": 2.6996025300909787,
            "wrist_1_joint": -1.548550951253194,
            "wrist_2_joint": -1.5709469090946802,
            "wrist_3_joint": 0.4420197732051276
        }
    },
    "waypoints": [
        {
            "positions": [
                2.6996025300909787,
                -1.2443395971678275,
                -1.919618573717145,
                -1.548550951253194,
                -1.5709469090946802,
                0.4420197732051276
            ]
        },
        {
            "positions": [
                2.6123131167120195,
                -1.234793263573846,
                -1.8198563858060044,
                -1.4248188155411483,
                -1.5215154799191215,
                0.42970696717729406
            ]
        },
        {
            "positions": [
                2.5250237033330603,
                -1.2252469299798645,
                -1.720094197894864,
                -1.3010866798291025,
                -1.4720840507435626,
                0.4173941611494606
            ]
        },
        {
            "positions": [
                2.437734289954101,
                -1.215700596385883,
                -1.6203320099837235,
                -1.177354544117057,
                -1.422652621568004,
                0.4050813551216271
            ]
        },
        {
            "positions": [
                2.350444876575142,
                -1.2061542627919013,
                -1.520569822072583,
                -1.0536224084050112,
                -1.3732211923924451,
                0.39276854909379355
            ]
        },
        {
            "positions": [
                2.263155463196183,
                -1.1966079291979197,
                -1.4208076341614424,
                -0.9298902726929653,
                -1.3237897632168865,
                0.38045574306596003
            ]
        },
        {
            "positions": [
                2.1758660498172238,
                -1.1870615956039383,
                -1.3210454462503018,
                -0.8061581369809196,
                -1.2743583340413278,
                0.3681429370381265
            ]
        },
        {
            "positions": [
                2.0885766364382645,
                -1.1775152620099567,
                -1.2212832583391613,
                -0.6824260012688739,
                -1.224926904865769,
                0.35583013101029304
            ]
        },
        {
            "positions": [
                2.0012872230593053,
                -1.167968928415975,
                -1.121521070428021,
                -0.5586938655568282,
                -1.1754954756902103,
                0.3435173249824595
            ]
        },
        {
            "positions": [
                1.913997809680346,
                -1.1584225948219937,
                -1.0217588825168802,
                -0.4349617298447823,
                -1.1260640465146514,
                0.331204518954626
            ]
        },
        {
            "positions": [
                1.8267083963013868,
                -1.1488762612280121,
                -0.9219966946057399,
                -0.31122959413273654,
                -1.0766326173390928,
                0.3188917129267925
            ]
        },
        {
            "positions": [
                1.7394189829224276,
                -1.1393299276340305,
                -0.8222345066945993,
                -0.187497458420691,
                -1.027201188163534,
                0.306578906898959
            ]
        },
        {
            "positions": [
                1.6521295695434686,
                -1.129783594040049,
                -0.722472318783459,
                -0.06376532270864521,
                -0.9777697589879752,
                0.2942661008711255
            ]
        },
        {
            "positions": [
                1.5648401561645093,
                -1.1202372604460675,
                -0.6227101308723184,
                0.059966813003400565,
                -0.9283383298124165,
                0.28195329484329196
            ]
        },
        {
            "positions": [
                1.47755074278555,
                -1.110690926852086,
                -0.5229479429611779,
                0.18369894871544634,
                -0.8789069006368577,
                0.26964048881545843
            ]
        },
        {
            "positions": [
                1.3902613294065909,
                -1.1011445932581043,
                -0.4231857550500373,
                0.3074310844274921,
                -0.829475471461299,
                0.25732768278762497
            ]
        },
        {
            "positions": [
                1.3029719160276318,
                -1.091598259664123,
                -0.323423567138897,
                0.4311632201395377,
                -0.7800440422857403,
                0.24501487675979144
            ]
        },
        {
            "positions": [
                1.2156825026486726,
                -1.0820519260701413,
                -0.22366137922775642,
                0.5548953558515834,
                -0.7306126131101816,
                0.23270207073195795
            ]
        },
        {
            "positions": [
                1.1283930892697132,
                -1.0725055924761597,
                -0.12389919131661564,
                0.6786274915636294,
                -0.6811811839346227,
                0.2203892647041244
            ]
        },
        {
            "positions": [
                1.0411036758907541,
                -1.0629592588821781,
                -0.02413700340547531,
                0.802359627275675,
                -0.6317497547590639,
                0.2080764586762909
            ]
        },
        {
            "positions": [
                0.9538142625117949,
                -1.0534129252881967,
                0.07562518450566524,
                0.926091762987721,
                -0.5823183255835053,
                0.1957636526484574
            ]
        },
        {
            "positions": [
                0.8665248491328357,
                -1.0438665916942151,
                0.1753873724168058,
                1.0498238986997666,
                -0.5328868964079465,
                0.1834508466206239
            ]
        },
        {
            "positions": [
                0.7792354357538767,
                -1.0343202581002335,
                0.27514956032794635,
                1.173556034411812,
                -0.48345546723238786,
                0.17113804059279042
            ]
        },
        {
            "positions": [
                0.6919460223749176,
                -1.0247739245062522,
                0.37491174823908646,
                1.297288170123858,
                -0.434024038056829,
                0.1588252345649569
            ]
        },
        {
            "positions": [
                0.6046566089959584,
                -1.0152275909122705,
                0.474673936150227,
                1.4210203058359037,
                -0.38459260888127034,
                0.14651242853712337
            ]
        },
        {
            "positions": [
                0.5173671956169987,
                -1.005681257318289,
                0.574436124061368,
                1.5447524415479497,
                -0.33516117970571147,
                0.13419962250928985
            ]
        },
        {
            "positions": [
                0.43007778223803994,
                -0.9961349237243075,
                0.6741983119725081,
                1.6684845772599952,
                -0.2857297505301528,
                0.12188681648145633
            ]
        },
        {
            "positions": [
                0.3427883688590807,
                -0.986588590130326,
                0.7739604998836487,
                1.7922167129720412,
                -0.23629832135459394,
                0.10957401045362286
            ]
        },
        {
            "positions": [
                0.25549895548012164,
                -0.9770422565363444,
                0.8737226877947892,
                1.9159488486840868,
                -0.18686689217903532,
                0.09726120442578932
            ]
        },
        {
            "positions": [
                0.20612748935001035,
                -0.9383059691595776,
                1.084241311054106,
                1.9212335293056124,
                -0.18135484844685695,
                0.05366679529744019
            ]
        },
        {
            "positions": [
                0.15675602321989904,
                -0.8995696817828109,
                1.294759934313423,
                1.926518209927138,
                -0.1758428047146786,
                0.01007238616909105
            ]
        },
        {
            "positions": [
                0.10738455708978775,
                -0.8608333944060442,
                1.5052785575727399,
                1.9318028905486637,
                -0.17033076098250025,
                -0.03352202295925806
            ]
        },
        {
            "positions": [
                0.05801309095967644,
                -0.8220971070292775,
                1.715797180832057,
                1.9370875711701894,
                -0.16481871725032188,
                -0.07711643208760723
            ]
        },
        {
            "positions": [
                0.008641624829565146,
                -0.7833608196525108,
                1.9263158040913737,
                1.942372251791715,
                -0.15930667351814354,
                -0.12071084121595632
            ]
        },
        {
            "positions": [
                0.12330178077159927,
                -0.7859547859420882,
                2.011037512004834,
                1.996998559948457,
                -0.12316905094001451,
                -0.07497714578235778
            ]
        }
    ]
}{
    "goal": {
        "global_pose": {
            "orientation": {
                "w": 0.7047431468963623,
                "x": -0.7094548344612122,
                "y": 0.0024358443915843964,
                "z": -0.0022348060738295317
            },
            "position": {
                "x": 0.6094750761985779,
                "y": 0.3671506643295288,
                "z": 0.19426114857196808
            }
        },
        "name": "move_to_magneteinheit_A"
    },
    "id": "LBTRRT_move_to_magneteinheit_A_113",
    "joint_names": [
        "shoulder_pan_joint",
        "shoulder_lift_joint",
        "elbow_joint",
        "wrist_1_joint",
        "wrist_2_joint",
        "wrist_3_joint"
    ],
    "metrics": {
        "cart_traj_len": 1.204535338344301,
        "distance_elbow_joint": 0.04617117183488806,
        "distance_shoulder_lift_joint": 0.7668551884830113,
        "distance_shoulder_pan_joint": 1.242597324097123,
        "distance_wrist_1_joint": 0.8868518636795083,
        "distance_wrist_2_joint": 1.4614641840665687,
        "distance_wrist_3_joint": 4.3915142639975215,
        "smoothness": 1.066656691966687,
        "time": 5.014820855,
        "traj_len": 2.9657130670647525,
        "weighted_distance": 4.46394428413928
    },
    "planner": "LBTRRT",
    "start": {
        "state": {
            "elbow_joint": 1.919643534880228,
            "shoulder_lift_joint": -1.8972525353963687,
            "shoulder_pan_joint": -1.1188672234189438,
            "wrist_1_joint": -1.5931878212786155,
            "wrist_2_joint": 1.5706036197970081,
            "wrist_3_joint": 1.118896926603594
        }
    },
    "waypoints": [
        {
            "positions": [
                -1.1188672234189438,
                -1.8972525353963687,
                1.919643534880228,
                -1.5931878212786155,
                1.5706036197970081,
                1.118896926603594
            ]
        },
        {
            "positions": [
                -1.062201095250552,
                -1.8624776101403204,
                1.921674883160881,
                -1.5544633942790287,
                1.5047570754746245,
                0.9207505511998573
            ]
        },
        {
            "positions": [
                -1.0055349670821605,
                -1.8277026848842721,
                1.9237062314415339,
                -1.515738967279442,
                1.438910531152241,
                0.7226041757961206
            ]
        },
        {
            "positions": [
                -0.9488688389137688,
                -1.7929277596282238,
                1.9257375797221867,
                -1.4770145402798551,
                1.3730639868298573,
                0.524457800392384
            ]
        },
        {
            "positions": [
                -0.8922027107453772,
                -1.7581528343721755,
                1.9277689280028396,
                -1.4382901132802681,
                1.3072174425074736,
                0.3263114249886473
            ]
        },
        {
            "positions": [
                -0.8355365825769854,
                -1.7233779091161272,
                1.9298002762834925,
                -1.3995656862806813,
                1.2413708981850902,
                0.1281650495849107
            ]
        },
        {
            "positions": [
                -0.7788704544085938,
                -1.688602983860079,
                1.9318316245641454,
                -1.3608412592810946,
                1.1755243538627065,
                -0.06998132581882599
            ]
        },
        {
            "positions": [
                -0.722204326240202,
                -1.6538280586040306,
                1.9338629728447982,
                -1.3221168322815078,
                1.1096778095403228,
                -0.26812770122256246
            ]
        },
        {
            "positions": [
                -0.6655381980718104,
                -1.6190531333479823,
                1.9358943211254511,
                -1.283392405281921,
                1.0438312652179391,
                -0.4662740766262994
            ]
        },
        {
            "positions": [
                -0.6088720699034187,
                -1.5842782080919342,
                1.937925669406104,
                -1.244667978282334,
                0.9779847208955557,
                -0.6644204520300359
            ]
        },
        {
            "positions": [
                -0.552205941735027,
                -1.549503282835886,
                1.939957017686757,
                -1.2059435512827474,
                0.9121381765731721,
                -0.8625668274337726
            ]
        },
        {
            "positions": [
                -0.49553981356663523,
                -1.5147283575798376,
                1.94198836596741,
                -1.1672191242831604,
                0.8462916322507884,
                -1.0607132028375095
            ]
        },
        {
            "positions": [
                -0.4388736853982437,
                -1.4799534323237893,
                1.9440197142480629,
                -1.1284946972835737,
                0.780445087928405,
                -1.258859578241246
            ]
        },
        {
            "positions": [
                -0.3822075572298519,
                -1.445178507067741,
                1.9460510625287157,
                -1.0897702702839869,
                0.7145985436060213,
                -1.4570059536449824
            ]
        },
        {
            "positions": [
                -0.32554142906146033,
                -1.4104035818116927,
                1.9480824108093686,
                -1.0510458432844,
                0.6487519992836377,
                -1.655152329048719
            ]
        },
        {
            "positions": [
                -0.26887530089306866,
                -1.3756286565556444,
                1.9501137590900215,
                -1.0123214162848133,
                0.582905454961254,
                -1.8532987044524558
            ]
        },
        {
            "positions": [
                -0.21220917272467688,
                -1.340853731299596,
                1.9521451073706744,
                -0.9735969892852264,
                0.5170589106388703,
                -2.051445079856193
            ]
        },
        {
            "positions": [
                -0.15554304455628531,
                -1.3060788060435478,
                1.9541764556513272,
                -0.9348725622856396,
                0.45121236631648687,
                -2.249591455259929
            ]
        },
        {
            "positions": [
                -0.09887691638789353,
                -1.2713038807874995,
                1.9562078039319801,
                -0.8961481352860527,
                0.3853658219941032,
                -2.447737830663666
            ]
        },
        {
            "positions": [
                -0.04221078821950197,
                -1.2365289555314511,
                1.958239152212633,
                -0.8574237082864661,
                0.3195192776717197,
                -2.645884206067402
            ]
        },
        {
            "positions": [
                0.014455339948889812,
                -1.2017540302754028,
                1.9602705004932859,
                -0.8186992812868792,
                0.25367273334933604,
                -2.844030581471139
            ]
        },
        {
            "positions": [
                0.05033464117153811,
                -1.1786708877225853,
                1.9599663346687564,
                -0.787455938892305,
                0.2101126694389529,
                -2.979936400707146
            ]
        },
        {
            "positions": [
                0.08621394239418641,
                -1.155587745169768,
                1.9596621688442268,
                -0.7562125964977309,
                0.1665526055285698,
                -3.1158422199431532
            ]
        },
        {
            "positions": [
                0.12209324361683471,
                -1.1325046026169505,
                1.9593580030196973,
                -0.7249692541031567,
                0.12299254161818665,
                -3.2517480391791604
            ]
        },
        {
            "positions": [
                0.12373010067817904,
                -1.1346118583205436,
                1.963989711767939,
                -0.7436025506072063,
                0.1368456475059341,
                -3.230878740964393
            ]
        }
    ]
}