{
    "goal": {
        "global_pose": {
            "orientation": {
                "w": 0.7047431468963623,
                "x": -0.7094548344612122,
                "y": 0.0024358443915843964,
                "z": -0.0022348060738295317
            },
            "position": {
                "x": 0.6094750761985779,
                "y": 0.3671506643295288,
                "z": 0.19426114857196808
            }
        },
        "name": "move_to_magneteinheit_A"
    },
    "id": "LBTRRT_move_to_magneteinheit_A_34",
    "joint_names": [
        "shoulder_pan_joint",
        "shoulder_lift_joint",
        "elbow_joint",
        "wrist_1_joint",
        "wrist_2_joint",
        "wrist_3_joint"
    ],
    "metrics": {
        "cart_traj_len": 2.9676505621829743,
        "distance_elbow_joint": 3.9225899170274854,
        "distance_shoulder_lift_joint": 0.6105306745904014,
        "distance_shoulder_pan_joint": 2.786715067448556,
        "distance_wrist_1_joint": 3.5063123729297407,
        "distance_wrist_2_joint": 1.4398630388238596,
        "distance_wrist_3_joint": 0.8605978928227253,
        "smoothness": 0.07945782069024897,
        "time": 5.028744873,
        "traj_len": 3.6230662378216008,
        "weighted_distance": 4.449042611735902
    },
    "planner": "LBTRRT",
    "start": {
        "state": {
            "elbow_joint": -1.919618573717145,
            "shoulder_lift_joint": -1.2443395971678275,
            "shoulder_pan_joint": 2.6996025300909787,
            "wrist_1_joint": -1.548550951253194,
            "wrist_2_joint": -1.5709469090946802,
            "wrist_3_joint": 0.4420197732051276
        }
    },
    "waypoints": [
        {
            "positions": [
                2.6996025300909787,
                -1.2443395971678275,
                -1.919618573717145,
                -1.548550951253194,
                -1.5709469090946802,
                0.4420197732051276
            ]
        },
        {
            "positions": [
                2.604753651061625,
                -1.2469667691673911,
                -1.7938762002401778,
                -1.4488810435983517,
                -1.5291711084429178,
                0.4181060210884165
            ]
        },
        {
            "positions": [
                2.509904772032271,
                -1.2495939411669548,
                -1.6681338267632109,
                -1.349211135943509,
                -1.4873953077911553,
                0.39419226897170534
            ]
        },
        {
            "positions": [
                2.4150558930029176,
                -1.2522211131665184,
                -1.5423914532862437,
                -1.2495412282886666,
                -1.445619507139393,
                0.37027851685499424
            ]
        },
        {
            "positions": [
                2.320207013973564,
                -1.2548482851660823,
                -1.4166490798092766,
                -1.149871320633824,
                -1.4038437064876306,
                0.34636476473828315
            ]
        },
        {
            "positions": [
                2.22535813494421,
                -1.257475457165646,
                -1.2909067063323096,
                -1.0502014129789816,
                -1.3620679058358682,
                0.322451012621572
            ]
        },
        {
            "positions": [
                2.1305092559148564,
                -1.2601026291652095,
                -1.1651643328553427,
                -0.9505315053241391,
                -1.3202921051841057,
                0.29853726050486085
            ]
        },
        {
            "positions": [
                2.0356603768855024,
                -1.2627298011647732,
                -1.0394219593783753,
                -0.8508615976692966,
                -1.2785163045323433,
                0.27462350838814975
            ]
        },
        {
            "positions": [
                1.9408114978561488,
                -1.2653569731643368,
                -0.9136795859014084,
                -0.7511916900144542,
                -1.236740503880581,
                0.25070975627143866
            ]
        },
        {
            "positions": [
                1.8459626188267952,
                -1.2679841451639005,
                -0.7879372124244413,
                -0.6515217823596116,
                -1.1949647032288184,
                0.2267960041547275
            ]
        },
        {
            "positions": [
                1.7511137397974414,
                -1.270611317163464,
                -0.6621948389474741,
                -0.551851874704769,
                -1.153188902577056,
                0.20288225203801638
            ]
        },
        {
            "positions": [
                1.6562648607680877,
                -1.273238489163028,
                -0.5364524654705072,
                -0.4521819670499265,
                -1.1114131019252937,
                0.17896849992130526
            ]
        },
        {
            "positions": [
                1.561415981738734,
                -1.2758656611625916,
                -0.41071009199354025,
                -0.3525120593950841,
                -1.0696373012735312,
                0.15505474780459416
            ]
        },
        {
            "positions": [
                1.4665671027093803,
                -1.2784928331621552,
                -0.2849677185165729,
                -0.2528421517402415,
                -1.0278615006217688,
                0.131140995687883
            ]
        },
        {
            "positions": [
                1.3717182236800265,
                -1.2811200051617189,
                -0.15922534503960595,
                -0.1531722440853991,
                -0.9860856999700065,
                0.10722724357117192
            ]
        },
        {
            "positions": [
                1.2768693446506727,
                -1.2837471771612825,
                -0.03348297156263902,
                -0.053502336430556685,
                -0.9443098993182442,
                0.08331349145446082
            ]
        },
        {
            "positions": [
                1.1820204656213191,
                -1.2863743491608461,
                0.09225940191432813,
                0.04616757122428572,
                -0.9025340986664817,
                0.059399739337749724
            ]
        },
        {
            "positions": [
                1.0871715865919653,
                -1.2890015211604098,
                0.21800177539129506,
                0.14583747887912835,
                -0.8607582980147194,
                0.03548598722103857
            ]
        },
        {
            "positions": [
                0.9923227075626115,
                -1.2916286931599736,
                0.34374414886826243,
                0.24550738653397097,
                -0.8189824973629568,
                0.011572235104327422
            ]
        },
        {
            "positions": [
                0.8974738285332577,
                -1.2942558651595373,
                0.46948652234522936,
                0.3451772941888136,
                -0.7772066967111945,
                -0.01234151701238373
            ]
        },
        {
            "positions": [
                0.8026249495039042,
                -1.296883037159101,
                0.5952288958221967,
                0.444847201843656,
                -0.735430896059432,
                -0.036255269129094825
            ]
        },
        {
            "positions": [
                0.7077760704745504,
                -1.2995102091586646,
                0.7209712692991637,
                0.5445171094984982,
                -0.6936550954076697,
                -0.060169021245805976
            ]
        },
        {
            "positions": [
                0.6129271914451966,
                -1.3021373811582282,
                0.8467136427761306,
                0.644187017153341,
                -0.6518792947559073,
                -0.08408277336251707
            ]
        },
        {
            "positions": [
                0.518078312415843,
                -1.3047645531577918,
                0.9724560162530975,
                0.7438569248081834,
                -0.6101034941041449,
                -0.10799652547922817
            ]
        },
        {
            "positions": [
                0.42322943338648944,
                -1.3073917251573555,
                1.0981983897300645,
                0.8435268324630258,
                -0.5683276934523824,
                -0.13191027759593926
            ]
        },
        {
            "positions": [
                0.3283805543571354,
                -1.3100188971569193,
                1.2239407632070318,
                0.9431967401178687,
                -0.5265518928006201,
                -0.15582402971265047
            ]
        },
        {
            "positions": [
                0.23353167532778185,
                -1.312646069156483,
                1.3496831366839992,
                1.042866647772711,
                -0.48477609214885753,
                -0.17973778182936156
            ]
        },
        {
            "positions": [
                0.13868279629842784,
                -1.3152732411560466,
                1.4754255101609661,
                1.1425365554275535,
                -0.4430002914970952,
                -0.20365153394607266
            ]
        },
        {
            "positions": [
                0.043833917269074416,
                -1.3179004131556102,
                1.601167883637933,
                1.2422064630823961,
                -0.40122449084533274,
                -0.22756528606278376
            ]
        },
        {
            "positions": [
                0.03727920334625742,
                -1.2290946640607916,
                1.6850904455291964,
                1.3634797338786022,
                -0.35263428421441867,
                -0.18546511358650616
            ]
        },
        {
            "positions": [
                0.030724489423440422,
                -1.140288914965973,
                1.76901300742046,
                1.4847530046748085,
                -0.3040440775835046,
                -0.14336494111022857
            ]
        },
        {
            "positions": [
                0.024169775500623426,
                -1.0514831658711543,
                1.8529355693117233,
                1.6060262754710148,
                -0.2554538709525905,
                -0.10126476863395101
            ]
        },
        {
            "positions": [
                0.01761506157780643,
                -0.9626774167763358,
                1.9368581312029867,
                1.727299546267221,
                -0.2068636643216764,
                -0.05916459615767341
            ]
        },
        {
            "positions": [
                0.06997886104549844,
                -0.8718039856646637,
                1.9699147372566637,
                1.842530483971884,
                -0.1689737672962484,
                -0.04785852433282166
            ]
        },
        {
            "positions": [
                0.12234266051319044,
                -0.7809305545529915,
                2.0029713433103407,
                1.9577614216765469,
                -0.13108387027082044,
                -0.03655245250796991
            ]
        }
    ]
}{
    "goal": {
        "global_pose": {
            "orientation": {
                "w": 0.7047431468963623,
                "x": -0.7094548344612122,
                "y": 0.0024358443915843964,
                "z": -0.0022348060738295317
            },
            "position": {
                "x": 0.6094750761985779,
                "y": 0.3671506643295288,
                "z": 0.19426114857196808
            }
        },
        "name": "move_to_magneteinheit_A"
    },
    "id": "LBTRRT_move_to_magneteinheit_A_34",
    "joint_names": [
        "shoulder_pan_joint",
        "shoulder_lift_joint",
        "elbow_joint",
        "wrist_1_joint",
        "wrist_2_joint",
        "wrist_3_joint"
    ],
    "metrics": {
        "cart_traj_len": 1.3852074948133584,
        "distance_elbow_joint": 0.06831973904107169,
        "distance_shoulder_lift_joint": 1.1066179626768822,
        "distance_shoulder_pan_joint": 1.2406029490889992,
        "distance_wrist_1_joint": 1.4891391363007624,
        "distance_wrist_2_joint": 1.4350301720987764,
        "distance_wrist_3_joint": 4.8334711898419265,
        "smoothness": 0.5579590707555317,
        "time": 5.009662047,
        "traj_len": 3.189542467039499,
        "weighted_distance": 4.771194068273874
    },
    "planner": "LBTRRT",
    "start": {
        "state": {
            "elbow_joint": 1.919643534880228,
            "shoulder_lift_joint": -1.8972525353963687,
            "shoulder_pan_joint": -1.1188672234189438,
            "wrist_1_joint": -1.5931878212786155,
            "wrist_2_joint": 1.5706036197970081,
            "wrist_3_joint": 1.118896926603594
        }
    },
    "waypoints": [
        {
            "positions": [
                -1.1188672234189438,
                -1.8972525353963687,
                1.919643534880228,
                -1.5931878212786155,
                1.5706036197970081,
                1.118896926603594
            ]
        },
        {
            "positions": [
                -1.0763547332941292,
                -1.8569182395245174,
                1.9209499618990915,
                -1.5446324262171467,
                1.516987039275108,
                0.9212416221929866
            ]
        },
        {
            "positions": [
                -1.0338422431693146,
                -1.8165839436526658,
                1.9222563889179551,
                -1.496077031155678,
                1.4633704587532075,
                0.7235863177823791
            ]
        },
        {
            "positions": [
                -0.9913297530445,
                -1.7762496477808145,
                1.9235628159368185,
                -1.4475216360942091,
                1.409753878231307,
                0.5259310133717717
            ]
        },
        {
            "positions": [
                -0.9488172629196853,
                -1.735915351908963,
                1.9248692429556822,
                -1.3989662410327404,
                1.3561372977094068,
                0.3282757089611643
            ]
        },
        {
            "positions": [
                -0.9063047727948707,
                -1.6955810560371116,
                1.9261756699745456,
                -1.3504108459712716,
                1.3025207171875066,
                0.1306204045505569
            ]
        },
        {
            "positions": [
                -0.863792282670056,
                -1.65524676016526,
                1.927482096993409,
                -1.3018554509098026,
                1.2489041366656062,
                -0.06703489986005051
            ]
        },
        {
            "positions": [
                -0.8212797925452413,
                -1.6149124642934087,
                1.9287885240122726,
                -1.2533000558483338,
                1.1952875561437057,
                -0.26469020427065804
            ]
        },
        {
            "positions": [
                -0.7787673024204267,
                -1.5745781684215574,
                1.930094951031136,
                -1.204744660786865,
                1.1416709756218055,
                -0.46234550868126534
            ]
        },
        {
            "positions": [
                -0.7362548122956121,
                -1.5342438725497058,
                1.9314013780499997,
                -1.1561892657253963,
                1.088054395099905,
                -0.6600008130918729
            ]
        },
        {
            "positions": [
                -0.6937423221707975,
                -1.4939095766778545,
                1.932707805068863,
                -1.1076338706639275,
                1.0344378145780049,
                -0.8576561175024802
            ]
        },
        {
            "positions": [
                -0.6512298320459828,
                -1.4535752808060032,
                1.9340142320877265,
                -1.0590784756024587,
                0.9808212340561044,
                -1.055311421913088
            ]
        },
        {
            "positions": [
                -0.6087173419211682,
                -1.4132409849341516,
                1.9353206591065901,
                -1.01052308054099,
                0.9272046535342042,
                -1.252966726323695
            ]
        },
        {
            "positions": [
                -0.5662048517963536,
                -1.3729066890623003,
                1.9366270861254535,
                -0.9619676854795212,
                0.8735880730123039,
                -1.4506220307343025
            ]
        },
        {
            "positions": [
                -0.5236923616715389,
                -1.3325723931904487,
                1.937933513144317,
                -0.9134122904180523,
                0.8199714924904035,
                -1.64827733514491
            ]
        },
        {
            "positions": [
                -0.48117987154672426,
                -1.2922380973185974,
                1.9392399401631806,
                -0.8648568953565835,
                0.7663549119685031,
                -1.8459326395555176
            ]
        },
        {
            "positions": [
                -0.43866738142190964,
                -1.2519038014467458,
                1.940546367182044,
                -0.8163015002951147,
                0.7127383314466029,
                -2.0435879439661244
            ]
        },
        {
            "positions": [
                -0.396154891297095,
                -1.2115695055748945,
                1.9418527942009076,
                -0.7677461052336461,
                0.6591217509247026,
                -2.2412432483767324
            ]
        },
        {
            "positions": [
                -0.3536424011722804,
                -1.1712352097030432,
                1.943159221219771,
                -0.7191907101721772,
                0.6055051704028022,
                -2.4388985527873395
            ]
        },
        {
            "positions": [
                -0.3111299110474658,
                -1.1309009138311916,
                1.9444656482386344,
                -0.6706353151107084,
                0.5518885898809018,
                -2.6365538571979474
            ]
        },
        {
            "positions": [
                -0.2686174209226512,
                -1.0905666179593403,
                1.945772075257498,
                -0.6220799200492396,
                0.4982720093590016,
                -2.8342091616085545
            ]
        },
        {
            "positions": [
                -0.22610493079783656,
                -1.050232322087489,
                1.9470785022763615,
                -0.5735245249877707,
                0.4446554288371012,
                -3.0318644660191616
            ]
        },
        {
            "positions": [
                -0.18359244067302183,
                -1.0098980262156374,
                1.948384929295225,
                -0.524969129926302,
                0.39103884831520075,
                -3.2295197704297696
            ]
        },
        {
            "positions": [
                -0.1410799505482072,
                -0.969563730343786,
                1.9496913563140885,
                -0.4764137348648332,
                0.33742226779330053,
                -3.4271750748403766
            ]
        },
        {
            "positions": [
                -0.07537603149364153,
                -1.0142960197498607,
                1.9592593357158914,
                -0.5695049973365781,
                0.28696006276953334,
                -3.355325277740888
            ]
        },
        {
            "positions": [
                -0.009672112439075842,
                -1.0590283091559356,
                1.9688273151176943,
                -0.662596259808323,
                0.23649785774576615,
                -3.2834754806413997
            ]
        },
        {
            "positions": [
                0.05603180661548984,
                -1.1037605985620105,
                1.978395294519497,
                -0.7556875222800681,
                0.18603565272199898,
                -3.2116256835419112
            ]
        },
        {
            "positions": [
                0.12173572567005554,
                -1.1484928879680854,
                1.9879632739212998,
                -0.848778784751813,
                0.1355734476982318,
                -3.139775886442423
            ]
        }
    ]
}