{
    "goal": {
        "global_pose": {
            "orientation": {
                "w": 0.7047431468963623,
                "x": -0.7094548344612122,
                "y": 0.0024358443915843964,
                "z": -0.0022348060738295317
            },
            "position": {
                "x": 0.6094750761985779,
                "y": 0.3671506643295288,
                "z": 0.19426114857196808
            }
        },
        "name": "move_to_magneteinheit_A"
    },
    "id": "LBTRRT_move_to_magneteinheit_A_124",
    "joint_names": [
        "shoulder_pan_joint",
        "shoulder_lift_joint",
        "elbow_joint",
        "wrist_1_joint",
        "wrist_2_joint",
        "wrist_3_joint"
    ],
    "metrics": {
        "cart_traj_len": 3.7397693915604506,
        "distance_elbow_joint": 3.925180146019019,
        "distance_shoulder_lift_joint": 0.7720863084671293,
        "distance_shoulder_pan_joint": 2.729425518217024,
        "distance_wrist_1_joint": 3.523309950009468,
        "distance_wrist_2_joint": 2.888530677153086,
        "distance_wrist_3_joint": 1.7808656095751867,
        "smoothness": 0.4797467747169973,
        "time": 5.031233010999999,
        "traj_len": 3.952138435004639,
        "weighted_distance": 5.058949501206137
    },
    "planner": "LBTRRT",
    "start": {
        "state": {
            "elbow_joint": -1.919618573717145,
            "shoulder_lift_joint": -1.2443395971678275,
            "shoulder_pan_joint": 2.6996025300909787,
            "wrist_1_joint": -1.548550951253194,
            "wrist_2_joint": -1.5709469090946802,
            "wrist_3_joint": 0.4420197732051276
        }
    },
    "waypoints": [
        {
            "positions": [
                2.6996025300909787,
                -1.2443395971678275,
                -1.919618573717145,
                -1.548550951253194,
                -1.5709469090946802,
                0.4420197732051276
            ]
        },
        {
            "positions": [
                2.5709496378124794,
                -1.2238197502427184,
                -1.79978205940329,
                -1.5229463417446034,
                -1.49846006332404,
                0.41853966723578173
            ]
        },
        {
            "positions": [
                2.4422967455339806,
                -1.2032999033176095,
                -1.679945545089435,
                -1.4973417322360127,
                -1.4259732175533995,
                0.3950595612664359
            ]
        },
        {
            "positions": [
                2.3136438532554813,
                -1.1827800563925004,
                -1.56010903077558,
                -1.471737122727422,
                -1.3534863717827592,
                0.37157945529709
            ]
        },
        {
            "positions": [
                2.1849909609769824,
                -1.1622602094673913,
                -1.440272516461725,
                -1.4461325132188314,
                -1.280999526012119,
                0.3480993493277441
            ]
        },
        {
            "positions": [
                2.056338068698483,
                -1.1417403625422822,
                -1.32043600214787,
                -1.4205279037102407,
                -1.2085126802414785,
                0.32461924335839826
            ]
        },
        {
            "positions": [
                1.9276851764199843,
                -1.1212205156171733,
                -1.200599487834015,
                -1.3949232942016498,
                -1.1360258344708383,
                0.3011391373890524
            ]
        },
        {
            "positions": [
                1.799032284141485,
                -1.1007006686920642,
                -1.08076297352016,
                -1.3693186846930592,
                -1.063538988700198,
                0.27765903141970655
            ]
        },
        {
            "positions": [
                1.670379391862986,
                -1.080180821766955,
                -0.960926459206305,
                -1.3437140751844685,
                -0.9910521429295577,
                0.2541789254503607
            ]
        },
        {
            "positions": [
                1.5417264995844868,
                -1.059660974841846,
                -0.84108994489245,
                -1.3181094656758778,
                -0.9185652971589173,
                0.2306988194810148
            ]
        },
        {
            "positions": [
                1.4130736073059877,
                -1.039141127916737,
                -0.7212534305785951,
                -1.2925048561672872,
                -0.8460784513882771,
                0.20721871351166896
            ]
        },
        {
            "positions": [
                1.2844207150274884,
                -1.018621280991628,
                -0.60141691626474,
                -1.2669002466586965,
                -0.7735916056176367,
                0.18373860754232307
            ]
        },
        {
            "positions": [
                1.1557678227489896,
                -0.998101434066519,
                -0.48158040195088514,
                -1.2412956371501058,
                -0.7011047598469965,
                0.16025850157297722
            ]
        },
        {
            "positions": [
                1.0271149304704903,
                -0.9775815871414099,
                -0.36174388763703025,
                -1.2156910276415152,
                -0.6286179140763561,
                0.13677839560363136
            ]
        },
        {
            "positions": [
                0.8984620381919914,
                -0.9570617402163009,
                -0.24190737332317536,
                -1.1900864181329245,
                -0.5561310683057159,
                0.11329828963428551
            ]
        },
        {
            "positions": [
                0.7698091459134924,
                -0.9365418932911918,
                -0.12207085900932024,
                -1.1644818086243336,
                -0.48364422253507566,
                0.08981818366493965
            ]
        },
        {
            "positions": [
                0.6411562536349931,
                -0.9160220463660826,
                -0.002234344695465129,
                -1.138877199115743,
                -0.4111573767644352,
                0.06633807769559374
            ]
        },
        {
            "positions": [
                0.5125033613564942,
                -0.8955021994409738,
                0.11760216961838954,
                -1.1132725896071523,
                -0.33867053099379496,
                0.042857971726247945
            ]
        },
        {
            "positions": [
                0.3838504690779949,
                -0.8749823525158646,
                0.23743868393224488,
                -1.0876679800985616,
                -0.2661836852231545,
                0.019377865756902035
            ]
        },
        {
            "positions": [
                0.25519757679949606,
                -0.8544625055907555,
                0.35727519824609977,
                -1.062063370589971,
                -0.19369683945251448,
                -0.004102240212443764
            ]
        },
        {
            "positions": [
                0.1265446845209967,
                -0.8339426586656465,
                0.47711171255995477,
                -1.0364587610813802,
                -0.12120999368187402,
                -0.027582346181789674
            ]
        },
        {
            "positions": [
                0.11765970612578511,
                -0.8512206011371255,
                0.5447308822221997,
                -0.921347660036415,
                -0.20148628627496437,
                -0.1014046777842216
            ]
        },
        {
            "positions": [
                0.1087747277305735,
                -0.8684985436086043,
                0.6123500518844446,
                -0.8062365589914497,
                -0.2817625788680547,
                -0.17522700938665353
            ]
        },
        {
            "positions": [
                0.0998897493353619,
                -0.8857764860800833,
                0.6799692215466895,
                -0.6911254579464845,
                -0.3620388714611451,
                -0.2490493409890855
            ]
        },
        {
            "positions": [
                0.0910047709401503,
                -0.9030544285515621,
                0.7475883912089344,
                -0.5760143569015193,
                -0.44231516405423543,
                -0.3228716725915174
            ]
        },
        {
            "positions": [
                0.08211979254493867,
                -0.9203323710230411,
                0.8152075608711793,
                -0.460903255856554,
                -0.5225914566473259,
                -0.3966940041939494
            ]
        },
        {
            "positions": [
                0.07323481414972709,
                -0.93761031349452,
                0.8828267305334242,
                -0.34579215481158876,
                -0.6028677492404162,
                -0.4705163357963813
            ]
        },
        {
            "positions": [
                0.06434983575451547,
                -0.9548882559659989,
                0.9504459001956691,
                -0.2306810537666235,
                -0.6831440418335065,
                -0.5443386673988132
            ]
        },
        {
            "positions": [
                0.055464857359303885,
                -0.9721661984374779,
                1.0180650698579141,
                -0.11556995272165826,
                -0.7634203344265968,
                -0.6181609990012451
            ]
        },
        {
            "positions": [
                0.04657987896409227,
                -0.9894441409089567,
                1.085684239520159,
                -0.0004588516766930173,
                -0.8436966270196873,
                -0.6919833306036771
            ]
        },
        {
            "positions": [
                0.047643721820309834,
                -0.972485684424451,
                1.1720613612193154,
                0.16063877367279966,
                -0.777638452640295,
                -0.6433750229911321
            ]
        },
        {
            "positions": [
                0.048707564676527405,
                -0.9555272279399455,
                1.2584384829184716,
                0.32173639902229234,
                -0.7115802782609026,
                -0.5947667153785872
            ]
        },
        {
            "positions": [
                0.04977140753274497,
                -0.9385687714554398,
                1.344815604617628,
                0.482834024371785,
                -0.6455221038815103,
                -0.5461584077660423
            ]
        },
        {
            "positions": [
                0.05083525038896254,
                -0.9216103149709343,
                1.4311927263167843,
                0.6439316497212777,
                -0.579463929502118,
                -0.4975501001534973
            ]
        },
        {
            "positions": [
                0.051899093245180106,
                -0.9046518584864286,
                1.5175698480159407,
                0.8050292750707704,
                -0.5134057551227257,
                -0.44894179254095234
            ]
        },
        {
            "positions": [
                0.05296293610139767,
                -0.8876934020019229,
                1.6039469697150972,
                0.9661269004202631,
                -0.44734758074333336,
                -0.4003334849284074
            ]
        },
        {
            "positions": [
                0.05402677895761524,
                -0.8707349455174174,
                1.6903240914142534,
                1.1272245257697557,
                -0.3812894063639411,
                -0.35172517731586245
            ]
        },
        {
            "positions": [
                0.055090621813832806,
                -0.8537764890329117,
                1.77670121311341,
                1.2883221511192484,
                -0.3152312319845487,
                -0.30311686970331747
            ]
        },
        {
            "positions": [
                0.05615446467005038,
                -0.836818032548406,
                1.8630783348125664,
                1.449419776468741,
                -0.2491730576051564,
                -0.2545085620907725
            ]
        },
        {
            "positions": [
                0.05721830752626794,
                -0.8198595760639005,
                1.9494554565117226,
                1.6105174018182338,
                -0.18311488322576405,
                -0.20590025447822755
            ]
        },
        {
            "positions": [
                0.09010052679024919,
                -0.8015579146256095,
                1.9775085144067996,
                1.7926382002872532,
                -0.15525219092149217,
                -0.12551053965776143
            ]
        },
        {
            "positions": [
                0.12298274605423043,
                -0.7832562531873185,
                2.0055615723018767,
                1.9747589987562726,
                -0.1273894986172203,
                -0.04512082483729532
            ]
        }
    ]
}{
    "goal": {
        "global_pose": {
            "orientation": {
                "w": 0.7047431468963623,
                "x": -0.7094548344612122,
                "y": 0.0024358443915843964,
                "z": -0.0022348060738295317
            },
            "position": {
                "x": 0.6094750761985779,
                "y": 0.3671506643295288,
                "z": 0.19426114857196808
            }
        },
        "name": "move_to_magneteinheit_A"
    },
    "id": "LBTRRT_move_to_magneteinheit_A_124",
    "joint_names": [
        "shoulder_pan_joint",
        "shoulder_lift_joint",
        "elbow_joint",
        "wrist_1_joint",
        "wrist_2_joint",
        "wrist_3_joint"
    ],
    "metrics": {
        "cart_traj_len": 1.2423692253369647,
        "distance_elbow_joint": 0.46580941784607144,
        "distance_shoulder_lift_joint": 0.7564336750856815,
        "distance_shoulder_pan_joint": 1.2415647035025608,
        "distance_wrist_1_joint": 0.8223538398200956,
        "distance_wrist_2_joint": 1.434476164553624,
        "distance_wrist_3_joint": 4.315679631042561,
        "smoothness": 0.050646970648709703,
        "time": 5.0421607029999995,
        "traj_len": 3.0060468113205743,
        "weighted_distance": 4.463687567282172
    },
    "planner": "LBTRRT",
    "start": {
        "state": {
            "elbow_joint": 1.919643534880228,
            "shoulder_lift_joint": -1.8972525353963687,
            "shoulder_pan_joint": -1.1188672234189438,
            "wrist_1_joint": -1.5931878212786155,
            "wrist_2_joint": 1.5706036197970081,
            "wrist_3_joint": 1.118896926603594
        }
    },
    "waypoints": [
        {
            "positions": [
                -1.1188672234189438,
                -1.8972525353963687,
                1.919643534880228,
                -1.5931878212786155,
                1.5706036197970081,
                1.118896926603594
            ]
        },
        {
            "positions": [
                -1.1098514284989405,
                -1.883662726031567,
                1.9048468406117816,
                -1.5471886625764903,
                1.4993196289275834,
                0.8966686416690927
            ]
        },
        {
            "positions": [
                -1.1008356335789373,
                -1.8700729166667656,
                1.8900501463433348,
                -1.501189503874365,
                1.4280356380581585,
                0.6744403567345914
            ]
        },
        {
            "positions": [
                -1.091819838658934,
                -1.856483107301964,
                1.8752534520748882,
                -1.4551903451722399,
                1.3567516471887338,
                0.45221207180009004
            ]
        },
        {
            "positions": [
                -1.0828040437389308,
                -1.8428932979371624,
                1.8604567578064417,
                -1.4091911864701148,
                1.2854676563193088,
                0.22998378686558874
            ]
        },
        {
            "positions": [
                -1.0737882488189274,
                -1.8293034885723607,
                1.845660063537995,
                -1.3631920277679894,
                1.214183665449884,
                0.007755501931087316
            ]
        },
        {
            "positions": [
                -1.064772453898924,
                -1.8157136792075592,
                1.8308633692695484,
                -1.3171928690658643,
                1.1428996745804592,
                -0.21447278300341388
            ]
        },
        {
            "positions": [
                -1.055756658978921,
                -1.8021238698427577,
                1.8160666750011019,
                -1.2711937103637392,
                1.0716156837110344,
                -0.4367010679379153
            ]
        },
        {
            "positions": [
                -1.0467408640589175,
                -1.788534060477956,
                1.801269980732655,
                -1.225194551661614,
                1.0003316928416095,
                -0.6589293528724165
            ]
        },
        {
            "positions": [
                -1.0377250691389142,
                -1.7749442511131543,
                1.7864732864642086,
                -1.1791953929594887,
                0.9290477019721847,
                -0.8811576378069181
            ]
        },
        {
            "positions": [
                -1.028709274218911,
                -1.7613544417483529,
                1.7716765921957618,
                -1.1331962342573636,
                0.85776371110276,
                -1.1033859227414193
            ]
        },
        {
            "positions": [
                -1.0196934792989076,
                -1.7477646323835514,
                1.7568798979273152,
                -1.0871970755552385,
                0.7864797202333351,
                -1.3256142076759205
            ]
        },
        {
            "positions": [
                -1.0106776843789045,
                -1.7341748230187497,
                1.7420832036588687,
                -1.0411979168531134,
                0.7151957293639103,
                -1.5478424926104217
            ]
        },
        {
            "positions": [
                -1.0016618894589011,
                -1.720585013653948,
                1.727286509390422,
                -0.995198758150988,
                0.6439117384944855,
                -1.7700707775449234
            ]
        },
        {
            "positions": [
                -0.9926460945388978,
                -1.7069952042891465,
                1.7124898151219754,
                -0.9491995994488629,
                0.5726277476250606,
                -1.9922990624794248
            ]
        },
        {
            "positions": [
                -0.8811117370766464,
                -1.6503775698913006,
                1.7383553849307574,
                -0.9313630376498286,
                0.528977718386893,
                -2.112747426675379
            ]
        },
        {
            "positions": [
                -0.7695773796143949,
                -1.5937599354934546,
                1.764220954739539,
                -0.9135264758507943,
                0.48532768914872537,
                -2.233195790871333
            ]
        },
        {
            "positions": [
                -0.6580430221521434,
                -1.5371423010956087,
                1.790086524548321,
                -0.89568991405176,
                0.44167765991055774,
                -2.353644155067287
            ]
        },
        {
            "positions": [
                -0.546508664689892,
                -1.4805246666977627,
                1.8159520943571028,
                -0.8778533522527256,
                0.3980276306723901,
                -2.4740925192632415
            ]
        },
        {
            "positions": [
                -0.4349743072276405,
                -1.4239070322999168,
                1.8418176641658848,
                -0.8600167904536914,
                0.35437760143422253,
                -2.594540883459196
            ]
        },
        {
            "positions": [
                -0.32343994976538903,
                -1.367289397902071,
                1.8676832339746667,
                -0.8421802286546571,
                0.3107275721960549,
                -2.71498924765515
            ]
        },
        {
            "positions": [
                -0.21190559230313766,
                -1.310671763504225,
                1.8935488037834485,
                -0.8243436668556228,
                0.2670775429578873,
                -2.8354376118511038
            ]
        },
        {
            "positions": [
                -0.10037123484088606,
                -1.2540541291063791,
                1.9194143735922304,
                -0.8065071050565885,
                0.22342751371971964,
                -2.955885976047058
            ]
        },
        {
            "positions": [
                0.011163122621365429,
                -1.1974364947085332,
                1.9452799434010122,
                -0.7886705432575541,
                0.17977748448155206,
                -3.0763343402430126
            ]
        },
        {
            "positions": [
                0.12269748008361671,
                -1.1408188603106872,
                1.9711455132097941,
                -0.7708339814585199,
                0.13612745524338446,
                -3.1967827044389665
            ]
        }
    ]
}