{
    "goal": {
        "global_pose": {
            "orientation": {
                "w": 0.5084816217422485,
                "x": -0.49083608388900757,
                "y": 0.5182115435600281,
                "z": -0.4816462993621826
            },
            "position": {
                "x": 0.5540239810943604,
                "y": 0.030875300988554955,
                "z": 0.16403168439865112
            }
        },
        "name": "move_to_storage_A"
    },
    "id": "LBTRRT_move_to_storage_A_143",
    "joint_names": [
        "shoulder_pan_joint",
        "shoulder_lift_joint",
        "elbow_joint",
        "wrist_1_joint",
        "wrist_2_joint",
        "wrist_3_joint"
    ],
    "metrics": {
        "cart_traj_len": 0.3532622055071906,
        "distance_elbow_joint": 0.45076573388007635,
        "distance_shoulder_lift_joint": 0.23345404321444474,
        "distance_shoulder_pan_joint": 0.46277726185702595,
        "distance_wrist_1_joint": 0.25053968519721936,
        "distance_wrist_2_joint": 1.09486045714628,
        "distance_wrist_3_joint": 0.09379215720312395,
        "smoothness": 0.0,
        "time": 5.002973151,
        "traj_len": 1.6081633432267293,
        "weighted_distance": 2.0295747818811503
    },
    "planner": "LBTRRT",
    "start": {
        "state": {
            "elbow_joint": 1.9715477243005601,
            "shoulder_lift_joint": -1.1394853015351272,
            "shoulder_pan_joint": 0.12281154014795169,
            "wrist_1_joint": -0.7804696478968182,
            "wrist_2_joint": 0.12958648046900423,
            "wrist_3_joint": -3.192491284697111
        }
    },
    "waypoints": [
        {
            "positions": [
                0.12281154014795169,
                -1.1394853015351272,
                1.9715477243005601,
                -0.7804696478968182,
                0.12958648046900423,
                -3.192491284697111
            ]
        },
        {
            "positions": [
                0.056700502739805134,
                -1.1728358791371907,
                2.0359428291405712,
                -0.8162610314964209,
                0.28599511720418713,
                -3.179092405096665
            ]
        },
        {
            "positions": [
                -0.009410534668341422,
                -1.2061864567392542,
                2.100337933980582,
                -0.8520524150960237,
                0.44240375393937,
                -3.1656935254962186
            ]
        },
        {
            "positions": [
                -0.07552157207648798,
                -1.2395370343413177,
                2.164733038820593,
                -0.8878437986956265,
                0.5988123906745528,
                -3.1522946458957724
            ]
        },
        {
            "positions": [
                -0.14163260948463452,
                -1.2728876119433812,
                2.2291281436606036,
                -0.9236351822952292,
                0.7552210274097357,
                -3.138895766295326
            ]
        },
        {
            "positions": [
                -0.20774364689278113,
                -1.306238189545445,
                2.2935232485006147,
                -0.959426565894832,
                0.9116296641449186,
                -3.12549688669488
            ]
        },
        {
            "positions": [
                -0.27385468430092763,
                -1.3395887671475084,
                2.3579183533406254,
                -0.9952179494944348,
                1.0680383008801013,
                -3.1120980070944335
            ]
        },
        {
            "positions": [
                -0.33996572170907424,
                -1.372939344749572,
                2.4223134581806365,
                -1.0310093330940375,
                1.2244469376152844,
                -3.0986991274939872
            ]
        }
    ]
}