{
    "goal": {
        "global_pose": {
            "orientation": {
                "w": 0.7047431468963623,
                "x": -0.7094548344612122,
                "y": 0.0024358443915843964,
                "z": -0.0022348060738295317
            },
            "position": {
                "x": 0.6094750761985779,
                "y": 0.3671506643295288,
                "z": 0.19426114857196808
            }
        },
        "name": "move_to_magneteinheit_A"
    },
    "id": "LBTRRT_move_to_magneteinheit_A_114",
    "joint_names": [
        "shoulder_pan_joint",
        "shoulder_lift_joint",
        "elbow_joint",
        "wrist_1_joint",
        "wrist_2_joint",
        "wrist_3_joint"
    ],
    "metrics": {
        "cart_traj_len": 3.3526070711078724,
        "distance_elbow_joint": 3.940366908176758,
        "distance_shoulder_lift_joint": 1.6702376502839718,
        "distance_shoulder_pan_joint": 3.4070547411022902,
        "distance_wrist_1_joint": 3.5625344449103826,
        "distance_wrist_2_joint": 1.4357844633103307,
        "distance_wrist_3_joint": 1.4793244843090236,
        "smoothness": 0.18457037381470737,
        "time": 5.047513241,
        "traj_len": 3.936407333101181,
        "weighted_distance": 4.842754440288246
    },
    "planner": "LBTRRT",
    "start": {
        "state": {
            "elbow_joint": -1.919618573717145,
            "shoulder_lift_joint": -1.2443395971678275,
            "shoulder_pan_joint": 2.6996025300909787,
            "wrist_1_joint": -1.548550951253194,
            "wrist_2_joint": -1.5709469090946802,
            "wrist_3_joint": 0.4420197732051276
        }
    },
    "waypoints": [
        {
            "positions": [
                2.6996025300909787,
                -1.2443395971678275,
                -1.919618573717145,
                -1.548550951253194,
                -1.5709469090946802,
                0.4420197732051276
            ]
        },
        {
            "positions": [
                2.569521785205398,
                -1.1981097739614908,
                -1.8877793691189926,
                -1.4522009822188584,
                -1.5270428478221405,
                0.3981834031629968
            ]
        },
        {
            "positions": [
                2.4394410403198177,
                -1.1518799507551538,
                -1.8559401645208402,
                -1.3558510131845227,
                -1.483138786549601,
                0.3543470331208659
            ]
        },
        {
            "positions": [
                2.309360295434237,
                -1.105650127548817,
                -1.8241009599226876,
                -1.259501044150187,
                -1.4392347252770614,
                0.3105106630787351
            ]
        },
        {
            "positions": [
                2.1792795505486566,
                -1.0594203043424804,
                -1.7922617553245352,
                -1.1631510751158514,
                -1.3953306640045218,
                0.2666742930366043
            ]
        },
        {
            "positions": [
                2.049198805663076,
                -1.0131904811361436,
                -1.7604225507263829,
                -1.0668011060815157,
                -1.3514266027319821,
                0.22283792299447347
            ]
        },
        {
            "positions": [
                1.9191180607774956,
                -0.9669606579298068,
                -1.7285833461282305,
                -0.9704511370471801,
                -1.3075225414594427,
                0.17900155295234266
            ]
        },
        {
            "positions": [
                1.7890373158919148,
                -0.92073083472347,
                -1.6967441415300781,
                -0.8741011680128443,
                -1.263618480186903,
                0.1351651829102118
            ]
        },
        {
            "positions": [
                1.6589565710063343,
                -0.8745010115171332,
                -1.6649049369319258,
                -0.7777511989785088,
                -1.2197144189143634,
                0.09132881286808098
            ]
        },
        {
            "positions": [
                1.5288758261207538,
                -0.8282711883107964,
                -1.6330657323337734,
                -0.681401229944173,
                -1.1758103576418237,
                0.04749244282595011
            ]
        },
        {
            "positions": [
                1.3987950812351733,
                -0.7820413651044597,
                -1.6012265277356208,
                -0.5850512609098374,
                -1.1319062963692843,
                0.003656072783819353
            ]
        },
        {
            "positions": [
                1.2687143363495925,
                -0.7358115418981228,
                -1.5693873231374684,
                -0.4887012918755016,
                -1.0880022350967447,
                -0.040180297258311515
            ]
        },
        {
            "positions": [
                1.1386335914640122,
                -0.6895817186917861,
                -1.537548118539316,
                -0.39235132284116614,
                -1.044098173824205,
                -0.08401666730044227
            ]
        },
        {
            "positions": [
                1.0085528465784317,
                -0.6433518954854494,
                -1.5057089139411637,
                -0.29600135380683046,
                -1.0001941125516653,
                -0.12785303734257308
            ]
        },
        {
            "positions": [
                0.878472101692851,
                -0.5971220722791124,
                -1.473869709343011,
                -0.19965138477249456,
                -0.9562900512791258,
                -0.171689407384704
            ]
        },
        {
            "positions": [
                0.7483913568072704,
                -0.5508922490727757,
                -1.4420305047448587,
                -0.1033014157381591,
                -0.9123859900065863,
                -0.21552577742683482
            ]
        },
        {
            "positions": [
                0.6183106119216899,
                -0.504662425866439,
                -1.4101913001467064,
                -0.006951446703823416,
                -0.8684819287340467,
                -0.25936214746896563
            ]
        },
        {
            "positions": [
                0.4882298670361096,
                -0.4584326026601022,
                -1.378352095548554,
                0.08939852233051226,
                -0.8245778674615071,
                -0.30319851751109644
            ]
        },
        {
            "positions": [
                0.35814912215052885,
                -0.41220277945376527,
                -1.3465128909504016,
                0.18574849136484817,
                -0.7806738061889674,
                -0.34703488755322737
            ]
        },
        {
            "positions": [
                0.2280683772649481,
                -0.36597295624742854,
                -1.3146736863522492,
                0.2820984603991836,
                -0.7367697449164279,
                -0.3908712575953582
            ]
        },
        {
            "positions": [
                0.0979876323793678,
                -0.3197431330410918,
                -1.2828344817540969,
                0.3784484294335193,
                -0.6928656836438883,
                -0.4347076276374889
            ]
        },
        {
            "positions": [
                -0.03209311250621294,
                -0.2735133098347551,
                -1.2509952771559445,
                0.474798398467855,
                -0.6489616223713487,
                -0.4785439976796197
            ]
        },
        {
            "positions": [
                -0.16217385739179369,
                -0.22728348662841813,
                -1.219156072557792,
                0.5711483675021909,
                -0.605057561098809,
                -0.5223803677217507
            ]
        },
        {
            "positions": [
                -0.29225460227737415,
                -0.1810536634220813,
                -1.1873168679596395,
                0.6674983365365263,
                -0.5611534998262695,
                -0.5662167377638814
            ]
        },
        {
            "positions": [
                -0.2678312135283191,
                -0.21675670557138862,
                -0.9986071501702717,
                0.7467033457789183,
                -0.536095202529686,
                -0.5385056805085864
            ]
        },
        {
            "positions": [
                -0.24340782477926406,
                -0.25245974772069596,
                -0.8098974323809038,
                0.8259083550213102,
                -0.5110369052331024,
                -0.5107946232532914
            ]
        },
        {
            "positions": [
                -0.218984436030209,
                -0.2881627898700033,
                -0.621187714591536,
                0.9051133642637021,
                -0.4859786079365189,
                -0.48308356599799646
            ]
        },
        {
            "positions": [
                -0.19456104728115398,
                -0.32386583201931063,
                -0.43247799680216814,
                0.9843183735060941,
                -0.46092031063993544,
                -0.4553725087427015
            ]
        },
        {
            "positions": [
                -0.17013765853209892,
                -0.359568874168618,
                -0.2437682790128003,
                1.063523382748486,
                -0.4358620133433519,
                -0.42766145148740653
            ]
        },
        {
            "positions": [
                -0.14571426978304386,
                -0.39527191631792535,
                -0.055058561223432445,
                1.142728391990878,
                -0.41080371604676835,
                -0.39995039423211154
            ]
        },
        {
            "positions": [
                -0.12129088103398883,
                -0.43097495846723266,
                0.1336511565659353,
                1.22193340123327,
                -0.38574541875018487,
                -0.37223933697681666
            ]
        },
        {
            "positions": [
                -0.09686749228493377,
                -0.46667800061654,
                0.32236087435530325,
                1.3011384104756618,
                -0.3606871214536014,
                -0.34452827972152167
            ]
        },
        {
            "positions": [
                -0.07244410353587874,
                -0.5023810427658473,
                0.511070592144671,
                1.380343419718054,
                -0.3356288241570178,
                -0.3168172224662267
            ]
        },
        {
            "positions": [
                -0.04802071478682368,
                -0.5380840849151547,
                0.699780309934039,
                1.4595484289604457,
                -0.3105705268604343,
                -0.28910616521093174
            ]
        },
        {
            "positions": [
                -0.02359732603776865,
                -0.5737871270644621,
                0.8884900277234069,
                1.5387534382028378,
                -0.28551222956385075,
                -0.26139510795563675
            ]
        },
        {
            "positions": [
                0.0008260627112864349,
                -0.6094901692137694,
                1.0771997455127746,
                1.6179584474452298,
                -0.26045393226726726,
                -0.23368405070034176
            ]
        },
        {
            "positions": [
                0.02524945146034141,
                -0.6451932113630767,
                1.2659094633021424,
                1.6971634566876215,
                -0.23539563497068378,
                -0.20597299344504688
            ]
        },
        {
            "positions": [
                0.049672840209396496,
                -0.680896253512384,
                1.4546191810915101,
                1.7763684659300136,
                -0.21033733767410023,
                -0.1782619361897519
            ]
        },
        {
            "positions": [
                0.07409622895845153,
                -0.7165992956616913,
                1.6433288988808779,
                1.8555734751724056,
                -0.1852790403775167,
                -0.1505508789344569
            ]
        },
        {
            "positions": [
                0.09851961770750661,
                -0.7523023378109988,
                1.832038616670246,
                1.9347784844147975,
                -0.1602207430809332,
                -0.12283982167916196
            ]
        },
        {
            "positions": [
                0.12294300645656166,
                -0.7880053799603061,
                2.0207483344596135,
                2.0139834936571894,
                -0.1351624457843497,
                -0.09512876442386699
            ]
        }
    ]
}{
    "goal": {
        "global_pose": {
            "orientation": {
                "w": 0.7047431468963623,
                "x": -0.7094548344612122,
                "y": 0.0024358443915843964,
                "z": -0.0022348060738295317
            },
            "position": {
                "x": 0.6094750761985779,
                "y": 0.3671506643295288,
                "z": 0.19426114857196808
            }
        },
        "name": "move_to_magneteinheit_A"
    },
    "id": "LBTRRT_move_to_magneteinheit_A_114",
    "joint_names": [
        "shoulder_pan_joint",
        "shoulder_lift_joint",
        "elbow_joint",
        "wrist_1_joint",
        "wrist_2_joint",
        "wrist_3_joint"
    ],
    "metrics": {
        "cart_traj_len": 1.190275350077126,
        "distance_elbow_joint": 0.15137772552924877,
        "distance_shoulder_lift_joint": 0.7554778155069253,
        "distance_shoulder_pan_joint": 1.2409127836982432,
        "distance_wrist_1_joint": 0.7864910743836504,
        "distance_wrist_2_joint": 2.1086838106185057,
        "distance_wrist_3_joint": 4.3658376818417866,
        "smoothness": 0.3748921167945626,
        "time": 5.035764196,
        "traj_len": 3.067373614605557,
        "weighted_distance": 4.586461723405538
    },
    "planner": "LBTRRT",
    "start": {
        "state": {
            "elbow_joint": 1.919643534880228,
            "shoulder_lift_joint": -1.8972525353963687,
            "shoulder_pan_joint": -1.1188672234189438,
            "wrist_1_joint": -1.5931878212786155,
            "wrist_2_joint": 1.5706036197970081,
            "wrist_3_joint": 1.118896926603594
        }
    },
    "waypoints": [
        {
            "positions": [
                -1.1188672234189438,
                -1.8972525353963687,
                1.919643534880228,
                -1.5931878212786155,
                1.5706036197970081,
                1.118896926603594
            ]
        },
        {
            "positions": [
                -1.0689617724547194,
                -1.8699976318862679,
                1.917486912714282,
                -1.5623814152156903,
                1.4897013716876244,
                0.9222549908822433
            ]
        },
        {
            "positions": [
                -1.0190563214904949,
                -1.8427427283761673,
                1.9153302905483358,
                -1.5315750091527651,
                1.4087991235782404,
                0.7256130551608926
            ]
        },
        {
            "positions": [
                -0.9691508705262705,
                -1.8154878248660664,
                1.9131736683823897,
                -1.5007686030898402,
                1.3278968754688567,
                0.528971119439542
            ]
        },
        {
            "positions": [
                -0.919245419562046,
                -1.7882329213559658,
                1.9110170462164433,
                -1.469962197026915,
                1.2469946273594728,
                0.3323291837181913
            ]
        },
        {
            "positions": [
                -0.8693399685978216,
                -1.760978017845865,
                1.9088604240504972,
                -1.4391557909639898,
                1.166092379250089,
                0.13568724799684073
            ]
        },
        {
            "positions": [
                -0.8194345176335971,
                -1.7337231143357643,
                1.906703801884551,
                -1.4083493849010646,
                1.0851901311407053,
                -0.06095468772450996
            ]
        },
        {
            "positions": [
                -0.7695290666693726,
                -1.7064682108256635,
                1.9045471797186049,
                -1.3775429788381395,
                1.0042878830313213,
                -0.25759662344586065
            ]
        },
        {
            "positions": [
                -0.7196236157051481,
                -1.6792133073155626,
                1.9023905575526587,
                -1.3467365727752143,
                0.9233856349219375,
                -0.45423855916721134
            ]
        },
        {
            "positions": [
                -0.6697181647409236,
                -1.651958403805462,
                1.9002339353867126,
                -1.3159301667122891,
                0.8424833868125535,
                -0.650880494888562
            ]
        },
        {
            "positions": [
                -0.6198127137766992,
                -1.6247035002953611,
                1.8980773132207664,
                -1.2851237606493642,
                0.7615811387031698,
                -0.8475224306099125
            ]
        },
        {
            "positions": [
                -0.5699072628124747,
                -1.5974485967852603,
                1.8959206910548203,
                -1.254317354586439,
                0.680678890593786,
                -1.0441643663312632
            ]
        },
        {
            "positions": [
                -0.5200018118482503,
                -1.5701936932751597,
                1.893764068888874,
                -1.2235109485235138,
                0.5997766424844022,
                -1.2408063020526139
            ]
        },
        {
            "positions": [
                -0.47009636088402573,
                -1.5429387897650588,
                1.8916074467229278,
                -1.1927045424605887,
                0.5188743943750183,
                -1.4374482377739646
            ]
        },
        {
            "positions": [
                -0.42019090991980135,
                -1.5156838862549582,
                1.8894508245569817,
                -1.1618981363976637,
                0.4379721462656345,
                -1.6340901734953153
            ]
        },
        {
            "positions": [
                -0.37028545895557696,
                -1.4884289827448574,
                1.8872942023910355,
                -1.1310917303347385,
                0.3570698981562508,
                -1.8307321092166655
            ]
        },
        {
            "positions": [
                -0.32038000799135236,
                -1.4611740792347567,
                1.8851375802250894,
                -1.1002853242718134,
                0.27616765004686683,
                -2.027374044938017
            ]
        },
        {
            "positions": [
                -0.27047455702712797,
                -1.4339191757246559,
                1.8829809580591432,
                -1.0694789182088882,
                0.19526540193748287,
                -2.2240159806593667
            ]
        },
        {
            "positions": [
                -0.22056910606290336,
                -1.406664272214555,
                1.880824335893197,
                -1.038672512145963,
                0.11436315382809892,
                -2.4206579163807183
            ]
        },
        {
            "positions": [
                -0.17066365509867898,
                -1.3794093687044544,
                1.8786677137272507,
                -1.0078661060830378,
                0.033460905718715184,
                -2.617299852102068
            ]
        },
        {
            "positions": [
                -0.1207582041344546,
                -1.3521544651943538,
                1.8765110915613046,
                -0.9770597000201128,
                -0.04744134239066855,
                -2.8139417878234187
            ]
        },
        {
            "positions": [
                -0.0708527531702301,
                -1.3248995616842527,
                1.8743544693953584,
                -0.9462532939571876,
                -0.1283435905000525,
                -3.0105837235447694
            ]
        },
        {
            "positions": [
                -0.02094730220600564,
                -1.297644658174152,
                1.8721978472294123,
                -0.9154468878942625,
                -0.20924583860943613,
                -3.20722565926612
            ]
        },
        {
            "positions": [
                0.026716985289096096,
                -1.2456880120792493,
                1.9068418598555565,
                -0.8791968408944967,
                -0.09963438787208237,
                -3.1939872939420964
            ]
        },
        {
            "positions": [
                0.07438127278419783,
                -1.1937313659843463,
                1.941485872481701,
                -0.8429467938947309,
                0.009977062865271391,
                -3.180748928618072
            ]
        },
        {
            "positions": [
                0.12204556027929957,
                -1.1417747198894435,
                1.9761298851078453,
                -0.8066967468949651,
                0.1195885136026252,
                -3.1675105632940483
            ]
        }
    ]
}