{
    "goal": {
        "global_pose": {
            "orientation": {
                "w": 0.7047431468963623,
                "x": -0.7094548344612122,
                "y": 0.0024358443915843964,
                "z": -0.0022348060738295317
            },
            "position": {
                "x": 0.6094750761985779,
                "y": 0.3671506643295288,
                "z": 0.19426114857196808
            }
        },
        "name": "move_to_magneteinheit_A"
    },
    "id": "LBTRRT_move_to_magneteinheit_A_76",
    "joint_names": [
        "shoulder_pan_joint",
        "shoulder_lift_joint",
        "elbow_joint",
        "wrist_1_joint",
        "wrist_2_joint",
        "wrist_3_joint"
    ],
    "metrics": {
        "cart_traj_len": 3.152806813216401,
        "distance_elbow_joint": 3.93646863607095,
        "distance_shoulder_lift_joint": 0.46186023968349355,
        "distance_shoulder_pan_joint": 2.7792514899253717,
        "distance_wrist_1_joint": 3.5107128095603515,
        "distance_wrist_2_joint": 1.4410818861312475,
        "distance_wrist_3_joint": 1.0491607466853101,
        "smoothness": 0.0467485103972494,
        "time": 5.040501967999999,
        "traj_len": 3.630225310921724,
        "weighted_distance": 4.497627374196193
    },
    "planner": "LBTRRT",
    "start": {
        "state": {
            "elbow_joint": -1.919618573717145,
            "shoulder_lift_joint": -1.2443395971678275,
            "shoulder_pan_joint": 2.6996025300909787,
            "wrist_1_joint": -1.548550951253194,
            "wrist_2_joint": -1.5709469090946802,
            "wrist_3_joint": 0.4420197732051276
        }
    },
    "waypoints": [
        {
            "positions": [
                2.6996025300909787,
                -1.2443395971678275,
                -1.919618573717145,
                -1.548550951253194,
                -1.5709469090946802,
                0.4420197732051276
            ]
        },
        {
            "positions": [
                2.593283694992811,
                -1.237388235929735,
                -1.8083300453568611,
                -1.4454446308611382,
                -1.526158553759805,
                0.453263723434273
            ]
        },
        {
            "positions": [
                2.4869648598946426,
                -1.2304368746916428,
                -1.6970415169965773,
                -1.342338310469082,
                -1.4813701984249301,
                0.4645076736634184
            ]
        },
        {
            "positions": [
                2.3806460247964747,
                -1.2234855134535503,
                -1.5857529886362938,
                -1.2392319900770261,
                -1.436581843090055,
                0.4757516238925638
            ]
        },
        {
            "positions": [
                2.274327189698307,
                -1.216534152215458,
                -1.47446446027601,
                -1.13612566968497,
                -1.3917934877551799,
                0.48699557412170924
            ]
        },
        {
            "positions": [
                2.168008354600139,
                -1.2095827909773655,
                -1.3631759319157262,
                -1.033019349292914,
                -1.3470051324203047,
                0.49823952435085467
            ]
        },
        {
            "positions": [
                2.0616895195019707,
                -1.202631429739273,
                -1.2518874035554424,
                -0.929913028900858,
                -1.3022167770854298,
                0.5094834745800001
            ]
        },
        {
            "positions": [
                1.9553706844038028,
                -1.1956800685011808,
                -1.1405988751951586,
                -0.826806708508802,
                -1.2574284217505547,
                0.5207274248091455
            ]
        },
        {
            "positions": [
                1.849051849305635,
                -1.1887287072630883,
                -1.0293103468348748,
                -0.723700388116746,
                -1.2126400664156796,
                0.5319713750382908
            ]
        },
        {
            "positions": [
                1.7427330142074668,
                -1.181777346024996,
                -0.9180218184745912,
                -0.6205940677246901,
                -1.1678517110808047,
                0.5432153252674363
            ]
        },
        {
            "positions": [
                1.6364141791092988,
                -1.1748259847869036,
                -0.8067332901143074,
                -0.517487747332634,
                -1.1230633557459295,
                0.5544592754965817
            ]
        },
        {
            "positions": [
                1.530095344011131,
                -1.167874623548811,
                -0.6954447617540236,
                -0.4143814269405781,
                -1.0782750004110544,
                0.5657032257257272
            ]
        },
        {
            "positions": [
                1.4237765089129628,
                -1.1609232623107189,
                -0.58415623339374,
                -0.311275106548522,
                -1.0334866450761795,
                0.5769471759548725
            ]
        },
        {
            "positions": [
                1.317457673814795,
                -1.1539719010726264,
                -0.472867705033456,
                -0.20816878615646606,
                -0.9886982897413042,
                0.588191126184018
            ]
        },
        {
            "positions": [
                1.2111388387166269,
                -1.1470205398345341,
                -0.3615791766731722,
                -0.10506246576440992,
                -0.9439099344064291,
                0.5994350764131634
            ]
        },
        {
            "positions": [
                1.104820003618459,
                -1.1400691785964416,
                -0.2502906483128886,
                -0.001956145372354001,
                -0.8991215790715542,
                0.6106790266423088
            ]
        },
        {
            "positions": [
                0.9985011685202909,
                -1.1331178173583492,
                -0.1390021199526048,
                0.10115017501970214,
                -0.8543332237366791,
                0.6219229768714543
            ]
        },
        {
            "positions": [
                0.8921823334221228,
                -1.126166456120257,
                -0.027713591592321007,
                0.20425649541175805,
                -0.809544868401804,
                0.6331669271005996
            ]
        },
        {
            "positions": [
                0.785863498323955,
                -1.1192150948821644,
                0.08357493676796257,
                0.30736281580381397,
                -0.7647565130669289,
                0.644410877329745
            ]
        },
        {
            "positions": [
                0.6795446632257871,
                -1.1122637336440722,
                0.1948634651282466,
                0.4104691361958701,
                -0.7199681577320539,
                0.6556548275588905
            ]
        },
        {
            "positions": [
                0.5732258281276188,
                -1.1053123724059797,
                0.30615199348853017,
                0.513575456587926,
                -0.6751798023971788,
                0.6668987777880359
            ]
        },
        {
            "positions": [
                0.46690699302945093,
                -1.0983610111678872,
                0.41744052184881375,
                0.6166817769799819,
                -0.6303914470623038,
                0.6781427280171812
            ]
        },
        {
            "positions": [
                0.36058815793128307,
                -1.091409649929795,
                0.5287290502090978,
                0.7197880973720379,
                -0.5856030917274286,
                0.6893866782463267
            ]
        },
        {
            "positions": [
                0.25426932283311476,
                -1.0844582886917025,
                0.6400175785693814,
                0.8228944177640942,
                -0.5408147363925535,
                0.7006306284754722
            ]
        },
        {
            "positions": [
                0.1479504877349469,
                -1.0775069274536102,
                0.7513061069296649,
                0.9260007381561501,
                -0.4960263810576786,
                0.7118745787046175
            ]
        },
        {
            "positions": [
                0.04163165263677923,
                -1.0705555662155177,
                0.862594635289949,
                1.0291070585482063,
                -0.4512380257228035,
                0.7231185289337629
            ]
        },
        {
            "positions": [
                0.03761620651828351,
                -1.0393459457948035,
                1.022026502616758,
                1.089010861225231,
                -0.41661625045149536,
                0.6733683386959531
            ]
        },
        {
            "positions": [
                0.0336007603997878,
                -1.0081363253740894,
                1.1814583699435675,
                1.1489146639022556,
                -0.3819944751801872,
                0.6236181484581435
            ]
        },
        {
            "positions": [
                0.02958531428129208,
                -0.9769267049533753,
                1.3408902372703766,
                1.2088184665792805,
                -0.34737269990887903,
                0.5738679582203337
            ]
        },
        {
            "positions": [
                0.025569868162796366,
                -0.9457170845326612,
                1.5003221045971857,
                1.2687222692563052,
                -0.31275092463757087,
                0.524117767982524
            ]
        },
        {
            "positions": [
                0.02155442204430065,
                -0.914507464111947,
                1.6597539719239949,
                1.3286260719333298,
                -0.2781291493662627,
                0.47436757774471416
            ]
        },
        {
            "positions": [
                0.03476511997591872,
                -0.8877508583797024,
                1.7474036964971496,
                1.4220745196532967,
                -0.24853033191375007,
                0.3968118716485841
            ]
        },
        {
            "positions": [
                0.047975817907536786,
                -0.8609942526474577,
                1.8350534210703044,
                1.5155229673732635,
                -0.21893151446123743,
                0.3192561655524541
            ]
        },
        {
            "positions": [
                0.061186515839154854,
                -0.8342376469152128,
                1.9227031456434593,
                1.6089714150932306,
                -0.1893326970087248,
                0.2417004594563241
            ]
        },
        {
            "positions": [
                0.07439721377077292,
                -0.8074810411829682,
                2.010352870216614,
                1.7024198628131975,
                -0.15973387955621215,
                0.16414475336019407
            ]
        },
        {
            "positions": [
                0.09857750884688288,
                -0.794980199333651,
                2.007104274148018,
                1.8322908605601775,
                -0.14479945125982208,
                0.059600645668641206
            ]
        },
        {
            "positions": [
                0.12275780392299285,
                -0.782479357484334,
                2.0038556780794226,
                1.9621618583071576,
                -0.12986502296343203,
                -0.04494346202291165
            ]
        }
    ]
}{
    "goal": {
        "global_pose": {
            "orientation": {
                "w": 0.7047431468963623,
                "x": -0.7094548344612122,
                "y": 0.0024358443915843964,
                "z": -0.0022348060738295317
            },
            "position": {
                "x": 0.6094750761985779,
                "y": 0.3671506643295288,
                "z": 0.19426114857196808
            }
        },
        "name": "move_to_magneteinheit_A"
    },
    "id": "LBTRRT_move_to_magneteinheit_A_76",
    "joint_names": [
        "shoulder_pan_joint",
        "shoulder_lift_joint",
        "elbow_joint",
        "wrist_1_joint",
        "wrist_2_joint",
        "wrist_3_joint"
    ],
    "metrics": {
        "cart_traj_len": 1.2002397994158511,
        "distance_elbow_joint": 0.05731364167888642,
        "distance_shoulder_lift_joint": 0.7556358336817368,
        "distance_shoulder_pan_joint": 1.2410480851425278,
        "distance_wrist_1_joint": 0.7818852443605374,
        "distance_wrist_2_joint": 1.4464396161109336,
        "distance_wrist_3_joint": 1.9921892951691766,
        "smoothness": 0.0,
        "time": 5.004784024,
        "traj_len": 2.504897546037322,
        "weighted_distance": 3.5337253949555305
    },
    "planner": "LBTRRT",
    "start": {
        "state": {
            "elbow_joint": 1.919643534880228,
            "shoulder_lift_joint": -1.8972525353963687,
            "shoulder_pan_joint": -1.1188672234189438,
            "wrist_1_joint": -1.5931878212786155,
            "wrist_2_joint": 1.5706036197970081,
            "wrist_3_joint": 1.118896926603594
        }
    },
    "waypoints": [
        {
            "positions": [
                -1.1188672234189438,
                -1.8972525353963687,
                1.919643534880228,
                -1.5931878212786155,
                1.5706036197970081,
                1.118896926603594
            ]
        },
        {
            "positions": [
                -1.041301718097536,
                -1.8500252957912602,
                1.9232256374851584,
                -1.5443199935060818,
                1.4802011437900748,
                1.2434087575516675
            ]
        },
        {
            "positions": [
                -0.9637362127761279,
                -1.8027980561861516,
                1.926807740090089,
                -1.4954521657335482,
                1.3897986677831415,
                1.367920588499741
            ]
        },
        {
            "positions": [
                -0.8861707074547198,
                -1.755570816581043,
                1.9303898426950192,
                -1.4465843379610148,
                1.299396191776208,
                1.4924324194478147
            ]
        },
        {
            "positions": [
                -0.8086052021333119,
                -1.7083435769759345,
                1.9339719452999498,
                -1.3977165101884812,
                1.2089937157692747,
                1.6169442503958882
            ]
        },
        {
            "positions": [
                -0.731039696811904,
                -1.661116337370826,
                1.93755404790488,
                -1.3488486824159476,
                1.1185912397623414,
                1.7414560813439617
            ]
        },
        {
            "positions": [
                -0.6534741914904959,
                -1.6138890977657174,
                1.9411361505098106,
                -1.299980854643414,
                1.028188763755408,
                1.8659679122920352
            ]
        },
        {
            "positions": [
                -0.5759086861690879,
                -1.5666618581606089,
                1.944718253114741,
                -1.2511130268708803,
                0.9377862877484746,
                1.9904797432401087
            ]
        },
        {
            "positions": [
                -0.4983431808476799,
                -1.5194346185555003,
                1.9483003557196712,
                -1.2022451990983467,
                0.8473838117415413,
                2.114991574188182
            ]
        },
        {
            "positions": [
                -0.420777675526272,
                -1.4722073789503918,
                1.9518824583246017,
                -1.153377371325813,
                0.756981335734608,
                2.239503405136256
            ]
        },
        {
            "positions": [
                -0.34321217020486394,
                -1.4249801393452832,
                1.955464560929532,
                -1.1045095435532795,
                0.6665788597276746,
                2.364015236084329
            ]
        },
        {
            "positions": [
                -0.2656466648834559,
                -1.3777528997401747,
                1.9590466635344626,
                -1.0556417157807458,
                0.5761763837207412,
                2.488527067032403
            ]
        },
        {
            "positions": [
                -0.18808115956204796,
                -1.3305256601350661,
                1.9626287661393929,
                -1.0067738880082124,
                0.4857739077138079,
                2.613038897980476
            ]
        },
        {
            "positions": [
                -0.11051565424064003,
                -1.2832984205299576,
                1.9662108687443234,
                -0.9579060602356788,
                0.3953714317068746,
                2.73755072892855
            ]
        },
        {
            "positions": [
                -0.03295014891923187,
                -1.236071180924849,
                1.9697929713492537,
                -0.9090382324631452,
                0.3049689556999411,
                2.8620625598766236
            ]
        },
        {
            "positions": [
                0.044615356402176065,
                -1.1888439413197405,
                1.9733750739541842,
                -0.8601704046906117,
                0.2145664796930078,
                2.986574390824697
            ]
        },
        {
            "positions": [
                0.12218086172358397,
                -1.141616701714632,
                1.9769571765591145,
                -0.8113025769180781,
                0.12416400368607453,
                3.1110862217727706
            ]
        }
    ]
}