{
    "goal": {
        "global_pose": {
            "orientation": {
                "w": 0.7047431468963623,
                "x": -0.7094548344612122,
                "y": 0.0024358443915843964,
                "z": -0.0022348060738295317
            },
            "position": {
                "x": 0.6094750761985779,
                "y": 0.3671506643295288,
                "z": 0.19426114857196808
            }
        },
        "name": "move_to_magneteinheit_A"
    },
    "id": "LBTRRT_move_to_magneteinheit_A_103",
    "joint_names": [
        "shoulder_pan_joint",
        "shoulder_lift_joint",
        "elbow_joint",
        "wrist_1_joint",
        "wrist_2_joint",
        "wrist_3_joint"
    ],
    "metrics": {
        "cart_traj_len": 3.4413351356692057,
        "distance_elbow_joint": 3.878865176063605,
        "distance_shoulder_lift_joint": 0.18063617393998643,
        "distance_shoulder_pan_joint": 2.652670942422126,
        "distance_wrist_1_joint": 1.0343363400870356,
        "distance_wrist_2_joint": 1.704254377915778,
        "distance_wrist_3_joint": 2.590644606256512,
        "smoothness": 0.0466523144254484,
        "time": 5.027075427,
        "traj_len": 3.4700731428436837,
        "weighted_distance": 4.46780567473574
    },
    "planner": "LBTRRT",
    "start": {
        "state": {
            "elbow_joint": -1.919618573717145,
            "shoulder_lift_joint": -1.2443395971678275,
            "shoulder_pan_joint": 2.6996025300909787,
            "wrist_1_joint": -1.548550951253194,
            "wrist_2_joint": -1.5709469090946802,
            "wrist_3_joint": 0.4420197732051276
        }
    },
    "waypoints": [
        {
            "positions": [
                2.6996025300909787,
                -1.2443395971678275,
                -1.919618573717145,
                -1.548550951253194,
                -1.5709469090946802,
                0.4420197732051276
            ]
        },
        {
            "positions": [
                2.6043650477831743,
                -1.2402999857489796,
                -1.811426635250488,
                -1.5125212578362965,
                -1.5184315198053027,
                0.5283903108804388
            ]
        },
        {
            "positions": [
                2.50912756547537,
                -1.2362603743301315,
                -1.703234696783831,
                -1.4764915644193992,
                -1.465916130515925,
                0.61476084855575
            ]
        },
        {
            "positions": [
                2.413890083167565,
                -1.2322207629112836,
                -1.5950427583171738,
                -1.4404618710025017,
                -1.4134007412265475,
                0.7011313862310612
            ]
        },
        {
            "positions": [
                2.3186526008597608,
                -1.2281811514924357,
                -1.4868508198505168,
                -1.4044321775856041,
                -1.3608853519371698,
                0.7875019239063724
            ]
        },
        {
            "positions": [
                2.2234151185519564,
                -1.2241415400735878,
                -1.3786588813838598,
                -1.3684024841687066,
                -1.3083699626477923,
                0.8738724615816837
            ]
        },
        {
            "positions": [
                2.1281776362441516,
                -1.2201019286547397,
                -1.2704669429172029,
                -1.3323727907518093,
                -1.2558545733584148,
                0.9602429992569947
            ]
        },
        {
            "positions": [
                2.032940153936347,
                -1.2160623172358918,
                -1.1622750044505459,
                -1.2963430973349117,
                -1.203339184069037,
                1.0466135369323062
            ]
        },
        {
            "positions": [
                1.9377026716285428,
                -1.2120227058170439,
                -1.054083065983889,
                -1.2603134039180142,
                -1.1508237947796596,
                1.1329840746076172
            ]
        },
        {
            "positions": [
                1.8424651893207384,
                -1.207983094398196,
                -0.9458911275172318,
                -1.2242837105011168,
                -1.098308405490282,
                1.2193546122829284
            ]
        },
        {
            "positions": [
                1.7472277070129338,
                -1.2039434829793478,
                -0.8376991890505747,
                -1.1882540170842193,
                -1.0457930162009044,
                1.3057251499582399
            ]
        },
        {
            "positions": [
                1.6519902247051295,
                -1.1999038715605,
                -0.7295072505839177,
                -1.1522243236673217,
                -0.9932776269115268,
                1.3920956876335508
            ]
        },
        {
            "positions": [
                1.5567527423973249,
                -1.195864260141652,
                -0.6213153121172608,
                -1.1161946302504244,
                -0.9407622376221493,
                1.478466225308862
            ]
        },
        {
            "positions": [
                1.4615152600895205,
                -1.191824648722804,
                -0.5131233736506038,
                -1.0801649368335267,
                -0.8882468483327716,
                1.5648367629841735
            ]
        },
        {
            "positions": [
                1.3662777777817159,
                -1.187785037303956,
                -0.4049314351839466,
                -1.0441352434166293,
                -0.835731459043394,
                1.6512073006594847
            ]
        },
        {
            "positions": [
                1.2710402954739115,
                -1.1837454258851081,
                -0.29673949671728983,
                -1.008105549999732,
                -0.7832160697540165,
                1.7375778383347957
            ]
        },
        {
            "positions": [
                1.175802813166107,
                -1.17970581446626,
                -0.18854755825063263,
                -0.9720758565828344,
                -0.7307006804646389,
                1.823948376010107
            ]
        },
        {
            "positions": [
                1.0805653308583023,
                -1.175666203047412,
                -0.08035561978397565,
                -0.9360461631659368,
                -0.6781852911752613,
                1.9103189136854184
            ]
        },
        {
            "positions": [
                0.9853278485504982,
                -1.1716265916285642,
                0.027836318682681327,
                -0.9000164697490394,
                -0.6256699018858838,
                1.9966894513607294
            ]
        },
        {
            "positions": [
                0.8900903662426936,
                -1.1675869802097163,
                0.13602825714933853,
                -0.8639867763321419,
                -0.5731545125965062,
                2.0830599890360406
            ]
        },
        {
            "positions": [
                0.794852883934889,
                -1.1635473687908682,
                0.2442201956159955,
                -0.8279570829152444,
                -0.5206391233071286,
                2.169430526711352
            ]
        },
        {
            "positions": [
                0.6996154016270846,
                -1.1595077573720203,
                0.35241213408265204,
                -0.791927389498347,
                -0.4681237340177511,
                2.255801064386663
            ]
        },
        {
            "positions": [
                0.6043779193192802,
                -1.1554681459531724,
                0.46060407254930946,
                -0.7558976960814494,
                -0.4156083447283734,
                2.342171602061974
            ]
        },
        {
            "positions": [
                0.5091404370114754,
                -1.1514285345343245,
                0.5687960110159664,
                -0.719868002664552,
                -0.3630929554389959,
                2.4285421397372855
            ]
        },
        {
            "positions": [
                0.413902954703671,
                -1.1473889231154764,
                0.6769879494826234,
                -0.6838383092476545,
                -0.3105775661496184,
                2.5149126774125965
            ]
        },
        {
            "positions": [
                0.31866547239586657,
                -1.1433493116966285,
                0.7851798879492804,
                -0.647808615830757,
                -0.25806217686024074,
                2.601283215087908
            ]
        },
        {
            "positions": [
                0.2606968266807486,
                -1.1318810394469148,
                0.9036796585501048,
                -0.6403117722833398,
                -0.2057173791927658,
                2.6830158608508055
            ]
        },
        {
            "positions": [
                0.20272818096563064,
                -1.1204127671972008,
                1.022179429150929,
                -0.6328149287359226,
                -0.15337258152529087,
                2.764748506613703
            ]
        },
        {
            "positions": [
                0.14475953525051266,
                -1.1089444949474871,
                1.1406791997517534,
                -0.6253180851885053,
                -0.10102778385781597,
                2.846481152376601
            ]
        },
        {
            "positions": [
                0.08679088953539471,
                -1.0974762226977735,
                1.2591789703525778,
                -0.6178212416410881,
                -0.04868298619034103,
                2.9282137981394984
            ]
        },
        {
            "positions": [
                0.0860904671685395,
                -1.103881526893376,
                1.427391077133227,
                -0.6307098474855394,
                0.0014231389304924097,
                2.959279941822599
            ]
        },
        {
            "positions": [
                0.08539004480168429,
                -1.1102868310889784,
                1.595603183913876,
                -0.6435984533299908,
                0.05152926405132585,
                2.9903460855056996
            ]
        },
        {
            "positions": [
                0.08468962243482908,
                -1.1166921352845809,
                1.7638152906945253,
                -0.6564870591744421,
                0.10163538917215931,
                3.0214122291888
            ]
        },
        {
            "positions": [
                0.12244765720080489,
                -1.1312490221677058,
                1.9592466023464596,
                -0.7214278721160176,
                0.1333074688210979,
                3.0326643794616395
            ]
        }
    ]
}{
    "goal": {
        "global_pose": {
            "orientation": {
                "w": 0.7047431468963623,
                "x": -0.7094548344612122,
                "y": 0.0024358443915843964,
                "z": -0.0022348060738295317
            },
            "position": {
                "x": 0.6094750761985779,
                "y": 0.3671506643295288,
                "z": 0.19426114857196808
            }
        },
        "name": "move_to_magneteinheit_A"
    },
    "id": "LBTRRT_move_to_magneteinheit_A_103",
    "joint_names": [
        "shoulder_pan_joint",
        "shoulder_lift_joint",
        "elbow_joint",
        "wrist_1_joint",
        "wrist_2_joint",
        "wrist_3_joint"
    ],
    "metrics": {
        "cart_traj_len": 1.2248881507657128,
        "distance_elbow_joint": 0.05695281375347272,
        "distance_shoulder_lift_joint": 0.7541114368634501,
        "distance_shoulder_pan_joint": 1.2421780336097537,
        "distance_wrist_1_joint": 1.0405044800812473,
        "distance_wrist_2_joint": 1.4333859579667907,
        "distance_wrist_3_joint": 4.290647072777511,
        "smoothness": 0.16093610737418942,
        "time": 5.046403253,
        "traj_len": 2.969474666511271,
        "weighted_distance": 4.4579103152323825
    },
    "planner": "LBTRRT",
    "start": {
        "state": {
            "elbow_joint": 1.919643534880228,
            "shoulder_lift_joint": -1.8972525353963687,
            "shoulder_pan_joint": -1.1188672234189438,
            "wrist_1_joint": -1.5931878212786155,
            "wrist_2_joint": 1.5706036197970081,
            "wrist_3_joint": 1.118896926603594
        }
    },
    "waypoints": [
        {
            "positions": [
                -1.1188672234189438,
                -1.8972525353963687,
                1.919643534880228,
                -1.5931878212786155,
                1.5706036197970081,
                1.118896926603594
            ]
        },
        {
            "positions": [
                -1.0637815571617257,
                -1.8605603880299375,
                1.9221000418415977,
                -1.5474238062400032,
                1.511039433552072,
                0.9256765790330804
            ]
        },
        {
            "positions": [
                -1.0086958909045074,
                -1.8238682406635063,
                1.9245565488029672,
                -1.501659791201391,
                1.451475247307136,
                0.7324562314625669
            ]
        },
        {
            "positions": [
                -0.9536102246472892,
                -1.787176093297075,
                1.9270130557643368,
                -1.4558957761627789,
                1.3919110610621999,
                0.5392358838920535
            ]
        },
        {
            "positions": [
                -0.898524558390071,
                -1.7504839459306438,
                1.9294695627257061,
                -1.4101317611241666,
                1.3323468748172638,
                0.3460155363215398
            ]
        },
        {
            "positions": [
                -0.8434388921328527,
                -1.7137917985642126,
                1.9319260696870757,
                -1.3643677460855543,
                1.2727826885723275,
                0.15279518875102638
            ]
        },
        {
            "positions": [
                -0.7883532258756345,
                -1.6770996511977814,
                1.9343825766484453,
                -1.318603731046942,
                1.2132185023273916,
                -0.04042515881948705
            ]
        },
        {
            "positions": [
                -0.7332675596184163,
                -1.6404075038313501,
                1.9368390836098148,
                -1.2728397160083298,
                1.1536543160824553,
                -0.23364550639000048
            ]
        },
        {
            "positions": [
                -0.678181893361198,
                -1.603715356464919,
                1.9392955905711844,
                -1.2270757009697175,
                1.0940901298375192,
                -0.42686585396051435
            ]
        },
        {
            "positions": [
                -0.6230962271039798,
                -1.5670232090984877,
                1.941752097532554,
                -1.1813116859311055,
                1.034525943592583,
                -0.6200862015310278
            ]
        },
        {
            "positions": [
                -0.5680105608467616,
                -1.5303310617320565,
                1.9442086044939235,
                -1.1355476708924932,
                0.974961757347647,
                -0.8133065491015412
            ]
        },
        {
            "positions": [
                -0.5129248945895434,
                -1.4936389143656252,
                1.9466651114552929,
                -1.089783655853881,
                0.9153975711027108,
                -1.006526896672055
            ]
        },
        {
            "positions": [
                -0.45783922833232515,
                -1.456946766999194,
                1.9491216184166624,
                -1.0440196408152689,
                0.8558333848577748,
                -1.199747244242568
            ]
        },
        {
            "positions": [
                -0.40275356207510693,
                -1.4202546196327628,
                1.951578125378032,
                -0.9982556257766565,
                0.7962691986128386,
                -1.392967591813082
            ]
        },
        {
            "positions": [
                -0.3476678958178887,
                -1.3835624722663316,
                1.9540346323394016,
                -0.9524916107380443,
                0.7367050123679026,
                -1.586187939383595
            ]
        },
        {
            "positions": [
                -0.2925822295606705,
                -1.3468703248999003,
                1.9564911393007711,
                -0.9067275956994321,
                0.6771408261229664,
                -1.7794082869541088
            ]
        },
        {
            "positions": [
                -0.23749656330345226,
                -1.310178177533469,
                1.9589476462621407,
                -0.8609635806608198,
                0.6175766398780302,
                -1.9726286345246227
            ]
        },
        {
            "positions": [
                -0.18241089704623403,
                -1.2734860301670379,
                1.96140415322351,
                -0.8151995656222076,
                0.5580124536330942,
                -2.1658489820951354
            ]
        },
        {
            "positions": [
                -0.1273252307890158,
                -1.2367938828006066,
                1.9638606601848796,
                -0.7694355505835954,
                0.49844826738815806,
                -2.3590693296656493
            ]
        },
        {
            "positions": [
                -0.0722395645317977,
                -1.2001017354341754,
                1.9663171671462492,
                -0.7236715355449832,
                0.43888408114322197,
                -2.5522896772361623
            ]
        },
        {
            "positions": [
                -0.017153898274579395,
                -1.1634095880677442,
                1.9687736741076187,
                -0.6779075205063709,
                0.3793198948982858,
                -2.7455100248066766
            ]
        },
        {
            "positions": [
                0.029667671213883674,
                -1.156653424889469,
                1.9713812322829793,
                -0.7196489136093719,
                0.29861915054226296,
                -2.887590065262423
            ]
        },
        {
            "positions": [
                0.07648924070234675,
                -1.1498972617111938,
                1.9739887904583402,
                -0.7613903067123727,
                0.2179184061862401,
                -3.0296701057181696
            ]
        },
        {
            "positions": [
                0.12331081019080983,
                -1.1431410985329187,
                1.9765963486337008,
                -0.8031316998153737,
                0.1372176618302172,
                -3.171750146173916
            ]
        }
    ]
}