{
    "goal": {
        "global_pose": {
            "orientation": {
                "w": 0.5084816217422485,
                "x": -0.49083608388900757,
                "y": 0.5182115435600281,
                "z": -0.4816462993621826
            },
            "position": {
                "x": 0.5540239810943604,
                "y": 0.030875300988554955,
                "z": 0.16403168439865112
            }
        },
        "name": "move_to_storage_A"
    },
    "id": "LBTRRT_move_to_storage_A_137",
    "joint_names": [
        "shoulder_pan_joint",
        "shoulder_lift_joint",
        "elbow_joint",
        "wrist_1_joint",
        "wrist_2_joint",
        "wrist_3_joint"
    ],
    "metrics": {
        "cart_traj_len": 0.3539628516150045,
        "distance_elbow_joint": 0.45287628677023806,
        "distance_shoulder_lift_joint": 0.23469743072259708,
        "distance_shoulder_pan_joint": 0.4595945783756692,
        "distance_wrist_1_joint": 0.25782529015625777,
        "distance_wrist_2_joint": 1.1146656689958085,
        "distance_wrist_3_joint": 0.09291804469609133,
        "smoothness": 4.440892098500626e-16,
        "time": 5.003154425,
        "traj_len": 1.616346899559826,
        "weighted_distance": 2.0422792042864537
    },
    "planner": "LBTRRT",
    "start": {
        "state": {
            "elbow_joint": 1.9715477243005601,
            "shoulder_lift_joint": -1.1394853015351272,
            "shoulder_pan_joint": 0.12281154014795169,
            "wrist_1_joint": -0.7804696478968182,
            "wrist_2_joint": 0.12958648046900423,
            "wrist_3_joint": -3.192491284697111
        }
    },
    "waypoints": [
        {
            "positions": [
                0.12281154014795169,
                -1.1394853015351272,
                1.9715477243005601,
                -0.7804696478968182,
                0.12958648046900423,
                -3.192491284697111
            ]
        },
        {
            "positions": [
                0.05715517180857038,
                -1.1730135059240696,
                2.0362443366963086,
                -0.817301832204855,
                0.28882443318269113,
                -3.179217278311955
            ]
        },
        {
            "positions": [
                -0.008501196530810926,
                -1.206541710313012,
                2.1009409490920565,
                -0.8541340165128918,
                0.4480623858963781,
                -3.1659432719267993
            ]
        },
        {
            "positions": [
                -0.07415756487019225,
                -1.2400699147019545,
                2.165637561487805,
                -0.8909662008209286,
                0.607300338610065,
                -3.1526692655416433
            ]
        },
        {
            "positions": [
                -0.13981393320957353,
                -1.273598119090897,
                2.2303341738835534,
                -0.9277983851289655,
                0.766538291323752,
                -3.1393952591564878
            ]
        },
        {
            "positions": [
                -0.20547030154895485,
                -1.3071263234798394,
                2.295030786279302,
                -0.9646305694370023,
                0.925776244037439,
                -3.126121252771332
            ]
        },
        {
            "positions": [
                -0.27112666988833617,
                -1.3406545278687818,
                2.3597273986750498,
                -1.0014627537450391,
                1.0850141967511258,
                -3.112847246386176
            ]
        },
        {
            "positions": [
                -0.3367830382277175,
                -1.3741827322577242,
                2.424424011070798,
                -1.038294938053076,
                1.2442521494648127,
                -3.09957324000102
            ]
        }
    ]
}