{
    "goal": {
        "global_pose": {
            "orientation": {
                "w": 0.5084816217422485,
                "x": -0.49083608388900757,
                "y": 0.5182115435600281,
                "z": -0.4816462993621826
            },
            "position": {
                "x": 0.5540239810943604,
                "y": 0.030875300988554955,
                "z": 0.16403168439865112
            }
        },
        "name": "move_to_storage_A"
    },
    "id": "LBTRRT_move_to_storage_A_76",
    "joint_names": [
        "shoulder_pan_joint",
        "shoulder_lift_joint",
        "elbow_joint",
        "wrist_1_joint",
        "wrist_2_joint",
        "wrist_3_joint"
    ],
    "metrics": {
        "cart_traj_len": 0.35289029046695003,
        "distance_elbow_joint": 0.4484276971668022,
        "distance_shoulder_lift_joint": 0.2322995684379141,
        "distance_shoulder_pan_joint": 0.46140049291351515,
        "distance_wrist_1_joint": 0.23987494142203303,
        "distance_wrist_2_joint": 1.0974589123837268,
        "distance_wrist_3_joint": 0.09215121246094027,
        "smoothness": 0.0,
        "time": 5.002622933,
        "traj_len": 1.6036249015230872,
        "weighted_distance": 2.0231779712898645
    },
    "planner": "LBTRRT",
    "start": {
        "state": {
            "elbow_joint": 1.9715477243005601,
            "shoulder_lift_joint": -1.1394853015351272,
            "shoulder_pan_joint": 0.12281154014795169,
            "wrist_1_joint": -0.7804696478968182,
            "wrist_2_joint": 0.12958648046900423,
            "wrist_3_joint": -3.192491284697111
        }
    },
    "waypoints": [
        {
            "positions": [
                0.12281154014795169,
                -1.1394853015351272,
                1.9715477243005601,
                -0.7804696478968182,
                0.12958648046900423,
                -3.192491284697111
            ]
        },
        {
            "positions": [
                0.05689718401744953,
                -1.172670954169115,
                2.0356088238958177,
                -0.8147374966713943,
                0.28636632509525095,
                -3.17932682577412
            ]
        },
        {
            "positions": [
                -0.009017172113052627,
                -1.2058566068031027,
                2.099669923491075,
                -0.8490053454459705,
                0.4431461697214976,
                -3.166162366851128
            ]
        },
        {
            "positions": [
                -0.0749315282435548,
                -1.2390422594370905,
                2.1637310230863327,
                -0.8832731942205466,
                0.5999260143477443,
                -3.1529979079281367
            ]
        },
        {
            "positions": [
                -0.14084588437405693,
                -1.272227912071078,
                2.2277921226815898,
                -0.9175410429951227,
                0.756705858973991,
                -3.1398334490051454
            ]
        },
        {
            "positions": [
                -0.2067602405045591,
                -1.3054135647050658,
                2.2918532222768473,
                -0.951808891769699,
                0.9134857036002377,
                -3.126668990082154
            ]
        },
        {
            "positions": [
                -0.2726745966350613,
                -1.3385992173390535,
                2.355914321872105,
                -0.986076740544275,
                1.0702655482264842,
                -3.1135045311591623
            ]
        },
        {
            "positions": [
                -0.33858895276556344,
                -1.3717848699730413,
                2.4199754214673623,
                -1.0203445893188512,
                1.227045392852731,
                -3.100340072236171
            ]
        }
    ]
}