{
    "goal": {
        "global_pose": {
            "orientation": {
                "w": 0.7047431468963623,
                "x": -0.7094548344612122,
                "y": 0.0024358443915843964,
                "z": -0.0022348060738295317
            },
            "position": {
                "x": 0.6094750761985779,
                "y": 0.3671506643295288,
                "z": 0.19426114857196808
            }
        },
        "name": "move_to_magneteinheit_A"
    },
    "id": "LBTRRT_move_to_magneteinheit_A_99",
    "joint_names": [
        "shoulder_pan_joint",
        "shoulder_lift_joint",
        "elbow_joint",
        "wrist_1_joint",
        "wrist_2_joint",
        "wrist_3_joint"
    ],
    "metrics": {
        "cart_traj_len": 3.158558948746617,
        "distance_elbow_joint": 3.9420403462595686,
        "distance_shoulder_lift_joint": 0.5406436359442026,
        "distance_shoulder_pan_joint": 2.857985829759885,
        "distance_wrist_1_joint": 3.5633624652316547,
        "distance_wrist_2_joint": 1.6072090208968657,
        "distance_wrist_3_joint": 0.6768419973436406,
        "smoothness": 0.19368906383303855,
        "time": 5.0361523539999995,
        "traj_len": 3.6315400721230953,
        "weighted_distance": 4.439857968026863
    },
    "planner": "LBTRRT",
    "start": {
        "state": {
            "elbow_joint": -1.919618573717145,
            "shoulder_lift_joint": -1.2443395971678275,
            "shoulder_pan_joint": 2.6996025300909787,
            "wrist_1_joint": -1.548550951253194,
            "wrist_2_joint": -1.5709469090946802,
            "wrist_3_joint": 0.4420197732051276
        }
    },
    "waypoints": [
        {
            "positions": [
                2.6996025300909787,
                -1.2443395971678275,
                -1.919618573717145,
                -1.548550951253194,
                -1.5709469090946802,
                0.4420197732051276
            ]
        },
        {
            "positions": [
                2.564266709898953,
                -1.2336596941586961,
                -1.795664162481252,
                -1.475971563788835,
                -1.557493318319063,
                0.4222334440482833
            ]
        },
        {
            "positions": [
                2.428930889706927,
                -1.2229797911495648,
                -1.671709751245359,
                -1.403392176324476,
                -1.5440397275434457,
                0.40244711489143903
            ]
        },
        {
            "positions": [
                2.2935950695149008,
                -1.2122998881404332,
                -1.547755340009466,
                -1.3308127888601171,
                -1.5305861367678284,
                0.3826607857345947
            ]
        },
        {
            "positions": [
                2.158259249322875,
                -1.2016199851313019,
                -1.4238009287735727,
                -1.2582334013957581,
                -1.5171325459922111,
                0.3628744565777504
            ]
        },
        {
            "positions": [
                2.022923429130849,
                -1.1909400821221705,
                -1.2998465175376799,
                -1.1856540139313994,
                -1.503678955216594,
                0.3430881274209061
            ]
        },
        {
            "positions": [
                1.8875876089388233,
                -1.1802601791130392,
                -1.1758921063017866,
                -1.1130746264670404,
                -1.4902253644409766,
                0.3233017982640618
            ]
        },
        {
            "positions": [
                1.7522517887467972,
                -1.1695802761039078,
                -1.0519376950658936,
                -1.0404952390026814,
                -1.4767717736653594,
                0.30351546910721755
            ]
        },
        {
            "positions": [
                1.6169159685547714,
                -1.1589003730947762,
                -0.9279832838300006,
                -0.9679158515383224,
                -1.4633181828897424,
                0.28372913995037324
            ]
        },
        {
            "positions": [
                1.4815801483627455,
                -1.1482204700856449,
                -0.8040288725941076,
                -0.8953364640739635,
                -1.449864592114125,
                0.263942810793529
            ]
        },
        {
            "positions": [
                1.3462443281707195,
                -1.1375405670765135,
                -0.6800744613582146,
                -0.8227570766096045,
                -1.4364110013385079,
                0.24415648163668469
            ]
        },
        {
            "positions": [
                1.2109085079786936,
                -1.1268606640673822,
                -0.5561200501223216,
                -0.7501776891452455,
                -1.4229574105628906,
                0.22437015247984038
            ]
        },
        {
            "positions": [
                1.0755726877866676,
                -1.1161807610582508,
                -0.43216563888642834,
                -0.6775983016808865,
                -1.4095038197872733,
                0.20458382332299607
            ]
        },
        {
            "positions": [
                0.9402368675946418,
                -1.1055008580491192,
                -0.3082112276505353,
                -0.6050189142165275,
                -1.396050229011656,
                0.18479749416615177
            ]
        },
        {
            "positions": [
                0.8049010474026157,
                -1.0948209550399879,
                -0.1842568164146423,
                -0.5324395267521687,
                -1.3825966382360388,
                0.16501116500930751
            ]
        },
        {
            "positions": [
                0.6695652272105899,
                -1.0841410520308565,
                -0.060302405178749297,
                -0.4598601392878098,
                -1.3691430474604216,
                0.1452248358524632
            ]
        },
        {
            "positions": [
                0.6038329104337128,
                -1.0664805088262388,
                0.04072756607608688,
                -0.335619152704533,
                -1.3117817400379337,
                0.13126499125754704
            ]
        },
        {
            "positions": [
                0.5381005936568358,
                -1.048819965621621,
                0.14175753733092306,
                -0.21137816612125626,
                -1.2544204326154458,
                0.1173051466626309
            ]
        },
        {
            "positions": [
                0.4723682768799588,
                -1.031159422417003,
                0.24278750858575926,
                -0.0871371795379795,
                -1.1970591251929579,
                0.10334530206771472
            ]
        },
        {
            "positions": [
                0.4066359601030818,
                -1.0134988792123854,
                0.3438174798405954,
                0.037103807045297255,
                -1.13969781777047,
                0.08938545747279858
            ]
        },
        {
            "positions": [
                0.34090364332620476,
                -0.9958383360077676,
                0.44484745109543156,
                0.161344793628574,
                -1.0823365103479818,
                0.07542561287788241
            ]
        },
        {
            "positions": [
                0.27517132654932774,
                -0.9781777928031499,
                0.5458774223502678,
                0.28558578021185077,
                -1.024975202925494,
                0.06146576828296625
            ]
        },
        {
            "positions": [
                0.20943900977245072,
                -0.960517249598532,
                0.646907393605104,
                0.40982676679512753,
                -0.967613895503006,
                0.047505923688050095
            ]
        },
        {
            "positions": [
                0.14370669299557365,
                -0.9428567063939143,
                0.7479373648599401,
                0.5340677533784043,
                -0.9102525880805181,
                0.03354607909313394
            ]
        },
        {
            "positions": [
                0.12757642919400802,
                -0.9232274798916884,
                0.8591865082290701,
                0.6576996751056092,
                -0.824106999740273,
                0.03971817847662963
            ]
        },
        {
            "positions": [
                0.1114461653924424,
                -0.9035982533894626,
                0.9704356515982,
                0.7813315968328142,
                -0.7379614114000279,
                0.045890277860125325
            ]
        },
        {
            "positions": [
                0.09531590159087677,
                -0.8839690268872368,
                1.08168479496733,
                0.9049635185600191,
                -0.6518158230597828,
                0.05206237724362102
            ]
        },
        {
            "positions": [
                0.07918563778931113,
                -0.8643398003850109,
                1.19293393833646,
                1.028595440287224,
                -0.5656702347195377,
                0.05823447662711671
            ]
        },
        {
            "positions": [
                0.06305537398774551,
                -0.8447105738827851,
                1.30418308170559,
                1.152227362014429,
                -0.4795246463792927,
                0.06440657601061239
            ]
        },
        {
            "positions": [
                0.04692511018617988,
                -0.8250813473805594,
                1.4154322250747198,
                1.2758592837416338,
                -0.3933790580390476,
                0.07057867539410809
            ]
        },
        {
            "positions": [
                0.030794846384614258,
                -0.8054521208783335,
                1.5266813684438498,
                1.3994912054688387,
                -0.3072334696988026,
                0.07675077477760378
            ]
        },
        {
            "positions": [
                0.014664582583048619,
                -0.7858228943761076,
                1.6379305118129799,
                1.5231231271960437,
                -0.2210878813585574,
                0.08292287416109947
            ]
        },
        {
            "positions": [
                -0.0014656812185170065,
                -0.7661936678738819,
                1.74917965518211,
                1.6467550489232488,
                -0.1349422930183124,
                0.08909497354459517
            ]
        },
        {
            "positions": [
                -0.017595945020082625,
                -0.746564441371656,
                1.8604287985512398,
                1.7703869706504534,
                -0.048796704678067265,
                0.09526707292809086
            ]
        },
        {
            "positions": [
                0.02933317319619265,
                -0.760853934754333,
                1.9144264565483013,
                1.8518618184264557,
                -0.0771496435048183,
                0.026384636462527658
            ]
        },
        {
            "positions": [
                0.07626229141246793,
                -0.7751434281370101,
                1.9684241145453631,
                1.9333366662024583,
                -0.10550258233156934,
                -0.042497800003035546
            ]
        },
        {
            "positions": [
                0.1231914096287432,
                -0.7894329215196871,
                2.0224217725424247,
                2.0148115139784606,
                -0.1338555211583204,
                -0.11138023646859878
            ]
        }
    ]
}{
    "goal": {
        "global_pose": {
            "orientation": {
                "w": 0.7047431468963623,
                "x": -0.7094548344612122,
                "y": 0.0024358443915843964,
                "z": -0.0022348060738295317
            },
            "position": {
                "x": 0.6094750761985779,
                "y": 0.3671506643295288,
                "z": 0.19426114857196808
            }
        },
        "name": "move_to_magneteinheit_A"
    },
    "id": "LBTRRT_move_to_magneteinheit_A_99",
    "joint_names": [
        "shoulder_pan_joint",
        "shoulder_lift_joint",
        "elbow_joint",
        "wrist_1_joint",
        "wrist_2_joint",
        "wrist_3_joint"
    ],
    "metrics": {
        "cart_traj_len": 1.367318288408588,
        "distance_elbow_joint": 0.07485152362608827,
        "distance_shoulder_lift_joint": 0.7639226562994557,
        "distance_shoulder_pan_joint": 1.2557369195481929,
        "distance_wrist_1_joint": 0.8688396009833895,
        "distance_wrist_2_joint": 1.433357707648184,
        "distance_wrist_3_joint": 4.357356422342537,
        "smoothness": 0.01648402908621884,
        "time": 5.043871015000001,
        "traj_len": 2.958726893521578,
        "weighted_distance": 4.446456452475892
    },
    "planner": "LBTRRT",
    "start": {
        "state": {
            "elbow_joint": 1.919643534880228,
            "shoulder_lift_joint": -1.8972525353963687,
            "shoulder_pan_joint": -1.1188672234189438,
            "wrist_1_joint": -1.5931878212786155,
            "wrist_2_joint": 1.5706036197970081,
            "wrist_3_joint": 1.118896926603594
        }
    },
    "waypoints": [
        {
            "positions": [
                -1.1188672234189438,
                -1.8972525353963687,
                1.919643534880228,
                -1.5931878212786155,
                1.5706036197970081,
                1.118896926603594
            ]
        },
        {
            "positions": [
                -1.120157523421277,
                -1.850404924529845,
                1.916162954989321,
                -1.5336080741419778,
                1.4862457382037628,
                0.9762576587464504
            ]
        },
        {
            "positions": [
                -1.1214478234236103,
                -1.8035573136633216,
                1.9126823750984143,
                -1.4740283270053403,
                1.4018878566105177,
                0.8336183908893068
            ]
        },
        {
            "positions": [
                -1.1227381234259437,
                -1.756709702796798,
                1.9092017952075073,
                -1.4144485798687025,
                1.3175299750172724,
                0.6909791230321632
            ]
        },
        {
            "positions": [
                -1.124028423428277,
                -1.7098620919302743,
                1.9057212153166005,
                -1.3548688327320648,
                1.2331720934240273,
                0.5483398551750196
            ]
        },
        {
            "positions": [
                -1.1253187234306101,
                -1.6630144810637508,
                1.9022406354256935,
                -1.2952890855954273,
                1.148814211830782,
                0.40570058731787606
            ]
        },
        {
            "positions": [
                -1.055913977900803,
                -1.63358755873226,
                1.9054322256574465,
                -1.263570148634305,
                1.0926159729595621,
                0.203247249370275
            ]
        },
        {
            "positions": [
                -0.9865092323709961,
                -1.6041606364007688,
                1.9086238158891995,
                -1.2318512116731828,
                1.0364177340883423,
                0.0007939114226739319
            ]
        },
        {
            "positions": [
                -0.9171044868411891,
                -1.5747337140692779,
                1.9118154061209525,
                -1.2001322747120604,
                0.9802194952171224,
                -0.2016594265249272
            ]
        },
        {
            "positions": [
                -0.8476997413113819,
                -1.545306791737787,
                1.9150069963527054,
                -1.168413337750938,
                0.9240212563459025,
                -0.4041127644725282
            ]
        },
        {
            "positions": [
                -0.7782949957815749,
                -1.5158798694062958,
                1.9181985865844584,
                -1.1366944007898159,
                0.8678230174746826,
                -0.6065661024201294
            ]
        },
        {
            "positions": [
                -0.7088902502517679,
                -1.486452947074805,
                1.9213901768162114,
                -1.1049754638286935,
                0.8116247786034627,
                -0.8090194403677304
            ]
        },
        {
            "positions": [
                -0.6394855047219608,
                -1.457026024743314,
                1.9245817670479644,
                -1.0732565268675711,
                0.7554265397322427,
                -1.0114727783153314
            ]
        },
        {
            "positions": [
                -0.5700807591921537,
                -1.4275991024118229,
                1.9277733572797173,
                -1.041537589906449,
                0.6992283008610229,
                -1.2139261162629325
            ]
        },
        {
            "positions": [
                -0.5006760136623467,
                -1.398172180080332,
                1.9309649475114705,
                -1.0098186529453266,
                0.643030061989803,
                -1.4163794542105337
            ]
        },
        {
            "positions": [
                -0.4312712681325397,
                -1.368745257748841,
                1.9341565377432235,
                -0.9780997159842043,
                0.5868318231185831,
                -1.618832792158135
            ]
        },
        {
            "positions": [
                -0.36186652260273255,
                -1.33931833541735,
                1.9373481279749765,
                -0.946380779023082,
                0.5306335842473631,
                -1.8212861301057361
            ]
        },
        {
            "positions": [
                -0.29246177707292564,
                -1.309891413085859,
                1.9405397182067294,
                -0.9146618420619598,
                0.4744353453761433,
                -2.023739468053337
            ]
        },
        {
            "positions": [
                -0.2230570315431185,
                -1.280464490754368,
                1.9437313084384824,
                -0.8829429051008375,
                0.4182371065049234,
                -2.226192806000938
            ]
        },
        {
            "positions": [
                -0.1536522860133115,
                -1.251037568422877,
                1.9469228986702354,
                -0.8512239681397151,
                0.3620388676337034,
                -2.428646143948539
            ]
        },
        {
            "positions": [
                -0.08424754048350436,
                -1.221610646091386,
                1.9501144889019884,
                -0.8195050311785927,
                0.3058406287624835,
                -2.63109948189614
            ]
        },
        {
            "positions": [
                -0.014842794953697336,
                -1.1921837237598951,
                1.9533060791337413,
                -0.7877860942174706,
                0.24964238989126375,
                -2.833552819843741
            ]
        },
        {
            "positions": [
                0.054561950576109686,
                -1.162756801428404,
                1.9564976693654943,
                -0.7560671572563482,
                0.19344415102004375,
                -3.036006157791342
            ]
        },
        {
            "positions": [
                0.1239666961059166,
                -1.133329879096913,
                1.9596892595972473,
                -0.7243482202952259,
                0.13724591214882395,
                -3.2384594957389434
            ]
        }
    ]
}