{
    "goal": {
        "global_pose": {
            "orientation": {
                "w": 0.5084816217422485,
                "x": -0.49083608388900757,
                "y": 0.5182115435600281,
                "z": -0.4816462993621826
            },
            "position": {
                "x": 0.5540239810943604,
                "y": 0.030875300988554955,
                "z": 0.16403168439865112
            }
        },
        "name": "move_to_storage_A"
    },
    "id": "LBTRRT_move_to_storage_A_132",
    "joint_names": [
        "shoulder_pan_joint",
        "shoulder_lift_joint",
        "elbow_joint",
        "wrist_1_joint",
        "wrist_2_joint",
        "wrist_3_joint"
    ],
    "metrics": {
        "cart_traj_len": 0.3534946465429843,
        "distance_elbow_joint": 0.45144123836282724,
        "distance_shoulder_lift_joint": 0.23435252718785815,
        "distance_shoulder_pan_joint": 0.4616379340931088,
        "distance_wrist_1_joint": 0.24758601646622724,
        "distance_wrist_2_joint": 1.1025000197617882,
        "distance_wrist_3_joint": 0.10249038398367505,
        "smoothness": 1.2212453191034883e-15,
        "time": 5.0042759420000005,
        "traj_len": 1.6124540675180439,
        "weighted_distance": 2.0384000892981855
    },
    "planner": "LBTRRT",
    "start": {
        "state": {
            "elbow_joint": 1.9715477243005601,
            "shoulder_lift_joint": -1.1394853015351272,
            "shoulder_pan_joint": 0.12281154014795169,
            "wrist_1_joint": -0.7804696478968182,
            "wrist_2_joint": 0.12958648046900423,
            "wrist_3_joint": -3.192491284697111
        }
    },
    "waypoints": [
        {
            "positions": [
                0.12281154014795169,
                -1.1394853015351272,
                1.9715477243005601,
                -0.7804696478968182,
                0.12958648046900423,
                -3.192491284697111
            ]
        },
        {
            "positions": [
                0.05686326384893614,
                -1.1729642339905355,
                2.036039329780964,
                -0.815839078820565,
                0.28708648329211683,
                -3.177849801270872
            ]
        },
        {
            "positions": [
                -0.009085012450079408,
                -1.2064431664459438,
                2.100530935261368,
                -0.8512085097443116,
                0.44458648611522944,
                -3.1632083178446324
            ]
        },
        {
            "positions": [
                -0.07503328874909494,
                -1.2399220989013522,
                2.165022540741772,
                -0.8865779406680584,
                0.602086488938342,
                -3.1485668344183932
            ]
        },
        {
            "positions": [
                -0.1409815650481105,
                -1.2734010313567603,
                2.2295141462221757,
                -0.9219473715918052,
                0.7595864917614547,
                -3.133925350992154
            ]
        },
        {
            "positions": [
                -0.20692984134712605,
                -1.3068799638121686,
                2.2940057517025796,
                -0.9573168025155518,
                0.9170864945845673,
                -3.119283867565915
            ]
        },
        {
            "positions": [
                -0.27287811764614156,
                -1.340358896267577,
                2.3584973571829835,
                -0.9926862334392986,
                1.07458649740768,
                -3.1046423841396753
            ]
        },
        {
            "positions": [
                -0.3388263939451571,
                -1.3738378287229853,
                2.4229889626633874,
                -1.0280556643630454,
                1.2320865002307926,
                -3.090000900713436
            ]
        }
    ]
}