{
    "goal": {
        "global_pose": {
            "orientation": {
                "w": 0.7047431468963623,
                "x": -0.7094548344612122,
                "y": 0.0024358443915843964,
                "z": -0.0022348060738295317
            },
            "position": {
                "x": 0.6094750761985779,
                "y": 0.3671506643295288,
                "z": 0.19426114857196808
            }
        },
        "name": "move_to_magneteinheit_A"
    },
    "id": "LBTRRT_move_to_magneteinheit_A_58",
    "joint_names": [
        "shoulder_pan_joint",
        "shoulder_lift_joint",
        "elbow_joint",
        "wrist_1_joint",
        "wrist_2_joint",
        "wrist_3_joint"
    ],
    "metrics": {
        "cart_traj_len": 2.7511811415775735,
        "distance_elbow_joint": 5.010757794982559,
        "distance_shoulder_lift_joint": 3.1222601978330937,
        "distance_shoulder_pan_joint": 4.279048792536642,
        "distance_wrist_1_joint": 4.242599655309219,
        "distance_wrist_2_joint": 1.4384484424274986,
        "distance_wrist_3_joint": 2.3841706716386954,
        "smoothness": 0.3087072866864264,
        "time": 5.052497917,
        "traj_len": 4.525183482990243,
        "weighted_distance": 5.561175684667929
    },
    "planner": "LBTRRT",
    "start": {
        "state": {
            "elbow_joint": -1.919618573717145,
            "shoulder_lift_joint": -1.2443395971678275,
            "shoulder_pan_joint": 2.6996025300909787,
            "wrist_1_joint": -1.548550951253194,
            "wrist_2_joint": -1.5709469090946802,
            "wrist_3_joint": 0.4420197732051276
        }
    },
    "waypoints": [
        {
            "positions": [
                2.6996025300909787,
                -1.2443395971678275,
                -1.919618573717145,
                -1.548550951253194,
                -1.5709469090946802,
                0.4420197732051276
            ]
        },
        {
            "positions": [
                2.609396412894297,
                -1.279366234663993,
                -1.80198409230685,
                -1.4462294954887769,
                -1.5462446940940537,
                0.46670485969550124
            ]
        },
        {
            "positions": [
                2.5191902956976144,
                -1.3143928721601583,
                -1.684349610896555,
                -1.3439080397243597,
                -1.5215424790934273,
                0.49138994618587495
            ]
        },
        {
            "positions": [
                2.428984178500932,
                -1.3494195096563235,
                -1.5667151294862598,
                -1.2415865839599425,
                -1.4968402640928011,
                0.5160750326762487
            ]
        },
        {
            "positions": [
                2.33877806130425,
                -1.384446147152489,
                -1.4490806480759648,
                -1.139265128195525,
                -1.4721380490921747,
                0.5407601191666223
            ]
        },
        {
            "positions": [
                2.248571944107568,
                -1.4194727846486543,
                -1.3314461666656698,
                -1.0369436724311079,
                -1.4474358340915483,
                0.565445205656996
            ]
        },
        {
            "positions": [
                2.158365826910886,
                -1.4544994221448198,
                -1.2138116852553749,
                -0.9346222166666907,
                -1.4227336190909219,
                0.5901302921473697
            ]
        },
        {
            "positions": [
                2.0681597097142035,
                -1.4895260596409852,
                -1.0961772038450799,
                -0.8323007609022733,
                -1.3980314040902955,
                0.6148153786377433
            ]
        },
        {
            "positions": [
                1.9779535925175216,
                -1.5245526971371506,
                -0.9785427224347848,
                -0.7299793051378561,
                -1.3733291890896693,
                0.639500465128117
            ]
        },
        {
            "positions": [
                1.8877474753208394,
                -1.5595793346333158,
                -0.8609082410244897,
                -0.6276578493734389,
                -1.3486269740890429,
                0.6641855516184907
            ]
        },
        {
            "positions": [
                1.7975413581241573,
                -1.5946059721294812,
                -0.7432737596141947,
                -0.5253363936090216,
                -1.3239247590884164,
                0.6888706381088643
            ]
        },
        {
            "positions": [
                1.7073352409274751,
                -1.6296326096256466,
                -0.6256392782038995,
                -0.4230149378446042,
                -1.29922254408779,
                0.713555724599238
            ]
        },
        {
            "positions": [
                1.617129123730793,
                -1.664659247121812,
                -0.5080047967936048,
                -0.3206934820801872,
                -1.2745203290871636,
                0.7382408110896117
            ]
        },
        {
            "positions": [
                1.5269230065341108,
                -1.6996858846179774,
                -0.3903703153833096,
                -0.2183720263157698,
                -1.2498181140865374,
                0.7629258975799853
            ]
        },
        {
            "positions": [
                1.4367168893374287,
                -1.7347125221141426,
                -0.2727358339730146,
                -0.1160505705513526,
                -1.225115899085911,
                0.787610984070359
            ]
        },
        {
            "positions": [
                1.3465107721407465,
                -1.769739159610308,
                -0.15510135256271962,
                -0.013729114786935392,
                -1.2004136840852846,
                0.8122960705607327
            ]
        },
        {
            "positions": [
                1.2563046549440644,
                -1.8047657971064734,
                -0.03746687115242464,
                0.08859234097748181,
                -1.1757114690846584,
                0.8369811570511063
            ]
        },
        {
            "positions": [
                1.1660985377473823,
                -1.8397924346026389,
                0.08016761025787056,
                0.19091379674189923,
                -1.1510092540840318,
                0.86166624354148
            ]
        },
        {
            "positions": [
                1.0758924205507001,
                -1.8748190720988043,
                0.19780209166816554,
                0.2932352525063162,
                -1.1263070390834056,
                0.8863513300318537
            ]
        },
        {
            "positions": [
                0.985686303354018,
                -1.9098457095949697,
                0.3154365730784605,
                0.39555670827073364,
                -1.1016048240827792,
                0.9110364165222273
            ]
        },
        {
            "positions": [
                0.8954801861573358,
                -1.9448723470911349,
                0.4330710544887555,
                0.49787816403515084,
                -1.0769026090821527,
                0.935721503012601
            ]
        },
        {
            "positions": [
                0.8052740689606535,
                -1.9798989845873005,
                0.5507055358990509,
                0.6001996197995685,
                -1.0522003940815263,
                0.9604065895029748
            ]
        },
        {
            "positions": [
                0.7150679517639715,
                -2.0149256220834655,
                0.6683400173093459,
                0.7025210755639857,
                -1.0274981790809,
                0.9850916759933483
            ]
        },
        {
            "positions": [
                0.6248618345672896,
                -2.049952259579631,
                0.7859744987196404,
                0.8048425313284024,
                -1.0027959640802737,
                1.0097767624837222
            ]
        },
        {
            "positions": [
                0.5346557173706072,
                -2.0849788970757963,
                0.9036089801299354,
                0.9071639870928196,
                -0.9780937490796473,
                1.0344618489740958
            ]
        },
        {
            "positions": [
                0.4444496001739249,
                -2.1200055345719617,
                1.0212434615402308,
                1.0094854428572373,
                -0.9533915340790209,
                1.0591469354644696
            ]
        },
        {
            "positions": [
                0.35424348297724295,
                -2.155032172068127,
                1.1388779429505258,
                1.1118068986216545,
                -0.9286893190783946,
                1.0838320219548432
            ]
        },
        {
            "positions": [
                0.26403736578056103,
                -2.1900588095642926,
                1.2565124243608208,
                1.2141283543860717,
                -0.9039871040777682,
                1.1085171084452168
            ]
        },
        {
            "positions": [
                0.17383124858387866,
                -2.225085447060458,
                1.3741469057711158,
                1.316449810150489,
                -0.8792848890771419,
                1.1332021949355904
            ]
        },
        {
            "positions": [
                0.0836251313871963,
                -2.2601120845566234,
                1.4917813871814107,
                1.418771265914906,
                -0.8545826740765154,
                1.1578872814259642
            ]
        },
        {
            "positions": [
                -0.006580985809485629,
                -2.295138722052789,
                1.6094158685917057,
                1.5210927216793233,
                -0.8298804590758891,
                1.1825723679163378
            ]
        },
        {
            "positions": [
                -0.09678710300616755,
                -2.330165359548954,
                1.7270503500020007,
                1.6234141774437405,
                -0.8051782440752627,
                1.2072574544067114
            ]
        },
        {
            "positions": [
                -0.18699322020284992,
                -2.3651919970451196,
                1.8446848314122957,
                1.7257356332081577,
                -0.7804760290746364,
                1.231942540897085
            ]
        },
        {
            "positions": [
                -0.2771993373995323,
                -2.400218634541285,
                1.962319312822591,
                1.8280570889725754,
                -0.75577381407401,
                1.2566276273874588
            ]
        },
        {
            "positions": [
                -0.3674054545962142,
                -2.4352452720374504,
                2.0799537942328863,
                1.9303785447369926,
                -0.7310715990733836,
                1.2813127138778324
            ]
        },
        {
            "positions": [
                -0.45761157179289613,
                -2.4702719095336154,
                2.197588275643181,
                2.0327000005014093,
                -0.7063693840727573,
                1.3059978003682062
            ]
        },
        {
            "positions": [
                -0.5478176889895785,
                -2.505298547029781,
                2.3152227570534762,
                2.1350214562658265,
                -0.681667169072131,
                1.3306828868585798
            ]
        },
        {
            "positions": [
                -0.6380238061862609,
                -2.5403251845259462,
                2.4328572384637717,
                2.237342912030244,
                -0.6569649540715045,
                1.3553679733489536
            ]
        },
        {
            "positions": [
                -0.7282299233829428,
                -2.5753518220221117,
                2.550491719874066,
                2.3396643677946614,
                -0.6322627390708782,
                1.3800530598393272
            ]
        },
        {
            "positions": [
                -0.6674287563070342,
                -2.447405538237911,
                2.5118740412032556,
                2.31435120091885,
                -0.5965652910420427,
                1.2767575323390061
            ]
        },
        {
            "positions": [
                -0.6066275892311257,
                -2.3194592544537103,
                2.473256362532445,
                2.289038034043038,
                -0.5608678430132071,
                1.173462004838685
            ]
        },
        {
            "positions": [
                -0.545826422155217,
                -2.1915129706695096,
                2.4346386838616345,
                2.2637248671672263,
                -0.5251703949843717,
                1.070166477338364
            ]
        },
        {
            "positions": [
                -0.4850252550793085,
                -2.0635666868853093,
                2.396021005190824,
                2.2384117002914143,
                -0.4894729469555361,
                0.9668709498380428
            ]
        },
        {
            "positions": [
                -0.4242240880033999,
                -1.9356204031011084,
                2.3574033265200134,
                2.213098533415603,
                -0.45377549892670066,
                0.8635754223377216
            ]
        },
        {
            "positions": [
                -0.36342292092749134,
                -1.807674119316908,
                2.318785647849203,
                2.187785366539791,
                -0.4180780508978651,
                0.7602798948374004
            ]
        },
        {
            "positions": [
                -0.30262175385158274,
                -1.6797278355327072,
                2.2801679691783923,
                2.1624721996639793,
                -0.38238060286902964,
                0.6569843673370793
            ]
        },
        {
            "positions": [
                -0.2418205867756742,
                -1.5517815517485065,
                2.2415502905075817,
                2.1371590327881673,
                -0.34668315484019413,
                0.5536888398367582
            ]
        },
        {
            "positions": [
                -0.18101941969976554,
                -1.4238352679643058,
                2.202932611836771,
                2.111845865912356,
                -0.31098570681135856,
                0.450393312336437
            ]
        },
        {
            "positions": [
                -0.12021825262385699,
                -1.2958889841801051,
                2.1643149331659606,
                2.086532699036544,
                -0.2752882587825231,
                0.34709778483611586
            ]
        },
        {
            "positions": [
                -0.059417085547948445,
                -1.1679427003959044,
                2.12569725449515,
                2.0612195321607323,
                -0.2395908107536876,
                0.24380225733579475
            ]
        },
        {
            "positions": [
                0.0013840815279601015,
                -1.039996416611704,
                2.0870795758243395,
                2.0359063652849203,
                -0.2038933627248521,
                0.14050672983547363
            ]
        },
        {
            "positions": [
                0.06218524860386876,
                -0.9120501328275032,
                2.048461897153529,
                2.0105931984091088,
                -0.16819591469601658,
                0.037211202335152516
            ]
        },
        {
            "positions": [
                0.12298641567977729,
                -0.7841038490433025,
                2.0098442184827183,
                1.985280031533297,
                -0.13249846666718107,
                -0.06608432516516867
            ]
        }
    ]
}{
    "goal": {
        "global_pose": {
            "orientation": {
                "w": 0.7047431468963623,
                "x": -0.7094548344612122,
                "y": 0.0024358443915843964,
                "z": -0.0022348060738295317
            },
            "position": {
                "x": 0.6094750761985779,
                "y": 0.3671506643295288,
                "z": 0.19426114857196808
            }
        },
        "name": "move_to_magneteinheit_A"
    },
    "id": "LBTRRT_move_to_magneteinheit_A_58",
    "joint_names": [
        "shoulder_pan_joint",
        "shoulder_lift_joint",
        "elbow_joint",
        "wrist_1_joint",
        "wrist_2_joint",
        "wrist_3_joint"
    ],
    "metrics": {
        "cart_traj_len": 1.786591903624751,
        "distance_elbow_joint": 0.6329763326882931,
        "distance_shoulder_lift_joint": 0.7612333971146661,
        "distance_shoulder_pan_joint": 2.162641745018545,
        "distance_wrist_1_joint": 0.8757707426345258,
        "distance_wrist_2_joint": 1.4437645048488992,
        "distance_wrist_3_joint": 4.343303510695195,
        "smoothness": 0.1345132163803446,
        "time": 5.0437503999999995,
        "traj_len": 3.196825023832259,
        "weighted_distance": 4.607150149699263
    },
    "planner": "LBTRRT",
    "start": {
        "state": {
            "elbow_joint": 1.919643534880228,
            "shoulder_lift_joint": -1.8972525353963687,
            "shoulder_pan_joint": -1.1188672234189438,
            "wrist_1_joint": -1.5931878212786155,
            "wrist_2_joint": 1.5706036197970081,
            "wrist_3_joint": 1.118896926603594
        }
    },
    "waypoints": [
        {
            "positions": [
                -1.1188672234189438,
                -1.8972525353963687,
                1.919643534880228,
                -1.5931878212786155,
                1.5706036197970081,
                1.118896926603594
            ]
        },
        {
            "positions": [
                -1.1430840173282824,
                -1.872470329794207,
                1.9374580990962351,
                -1.5478046991335126,
                1.5192335970809563,
                0.9043993176823415
            ]
        },
        {
            "positions": [
                -1.1673008112376209,
                -1.847688124192045,
                1.9552726633122424,
                -1.5024215769884097,
                1.4678635743649047,
                0.689901708761089
            ]
        },
        {
            "positions": [
                -1.1915176051469594,
                -1.8229059185898833,
                1.9730872275282494,
                -1.4570384548433069,
                1.4164935516488528,
                0.47540409983983667
            ]
        },
        {
            "positions": [
                -1.215734399056298,
                -1.7981237129877214,
                1.9909017917442566,
                -1.411655332698204,
                1.3651235289328012,
                0.2609064909185842
            ]
        },
        {
            "positions": [
                -1.2399511929656366,
                -1.7733415073855596,
                2.0087163559602637,
                -1.366272210553101,
                1.3137535062167494,
                0.04640888199733184
            ]
        },
        {
            "positions": [
                -1.2641679868749751,
                -1.7485593017833976,
                2.026530920176271,
                -1.3208890884079985,
                1.2623834835006975,
                -0.16808872692392063
            ]
        },
        {
            "positions": [
                -1.2883847807843136,
                -1.7237770961812358,
                2.0443454843922777,
                -1.2755059662628954,
                1.211013460784646,
                -0.3825863358451731
            ]
        },
        {
            "positions": [
                -1.3126015746936521,
                -1.698994890579074,
                2.062160048608285,
                -1.2301228441177927,
                1.1596434380685943,
                -0.5970839447664256
            ]
        },
        {
            "positions": [
                -1.3368183686029906,
                -1.6742126849769121,
                2.079974612824292,
                -1.1847397219726896,
                1.1082734153525424,
                -0.811581553687678
            ]
        },
        {
            "positions": [
                -1.3610351625123291,
                -1.6494304793747503,
                2.0977891770402994,
                -1.139356599827587,
                1.0569033926364906,
                -1.0260791626089303
            ]
        },
        {
            "positions": [
                -1.3852519564216679,
                -1.6246482737725885,
                2.1156037412563062,
                -1.0939734776824839,
                1.005533369920439,
                -1.240576771530183
            ]
        },
        {
            "positions": [
                -1.4094687503310064,
                -1.5998660681704266,
                2.1334183054723135,
                -1.0485903555373812,
                0.9541633472043871,
                -1.4550743804514352
            ]
        },
        {
            "positions": [
                -1.4336855442403449,
                -1.5750838625682646,
                2.1512328696883207,
                -1.0032072333922781,
                0.9027933244883354,
                -1.669571989372688
            ]
        },
        {
            "positions": [
                -1.4579023381496834,
                -1.550301656966103,
                2.1690474339043275,
                -0.9578241112471755,
                0.8514233017722836,
                -1.8840695982939402
            ]
        },
        {
            "positions": [
                -1.482119132059022,
                -1.525519451363941,
                2.1868619981203348,
                -0.9124409891020725,
                0.8000532790562319,
                -2.0985672072151926
            ]
        },
        {
            "positions": [
                -1.5063359259683606,
                -1.5007372457617794,
                2.204676562336342,
                -0.8670578669569697,
                0.7486832563401802,
                -2.3130648161364453
            ]
        },
        {
            "positions": [
                -1.5305527198776991,
                -1.4759550401596173,
                2.2224911265523493,
                -0.8216747448118669,
                0.6973132336241283,
                -2.527562425057698
            ]
        },
        {
            "positions": [
                -1.5547695137870376,
                -1.4511728345574555,
                2.240305690768356,
                -0.776291622666764,
                0.6459432109080767,
                -2.74206003397895
            ]
        },
        {
            "positions": [
                -1.5789863076963762,
                -1.4263906289552937,
                2.2581202549843633,
                -0.7309085005216611,
                0.5945731881920249,
                -2.9565576429002025
            ]
        },
        {
            "positions": [
                -1.3661709751037372,
                -1.3900941926210948,
                2.2213078034113436,
                -0.7325949282563575,
                0.5361064290365354,
                -2.9900387605491274
            ]
        },
        {
            "positions": [
                -1.153355642511098,
                -1.353797756286896,
                2.184495351838324,
                -0.7342813559910539,
                0.47763966988104595,
                -3.0235198781980523
            ]
        },
        {
            "positions": [
                -0.9405403099184589,
                -1.317501319952697,
                2.147682900265304,
                -0.7359677837257504,
                0.4191729107255565,
                -3.057000995846977
            ]
        },
        {
            "positions": [
                -0.7277249773258199,
                -1.2812048836184982,
                2.1108704486922845,
                -0.7376542114604469,
                0.360706151570067,
                -3.0904821134959017
            ]
        },
        {
            "positions": [
                -0.5149096447331807,
                -1.2449084472842993,
                2.0740579971192648,
                -0.7393406391951433,
                0.30223939241457753,
                -3.1239632311448267
            ]
        },
        {
            "positions": [
                -0.3020943121405417,
                -1.2086120109501004,
                2.037245545546245,
                -0.7410270669298398,
                0.2437726332590881,
                -3.157444348793751
            ]
        },
        {
            "positions": [
                -0.08927897954790276,
                -1.1723155746159015,
                2.000433093973225,
                -0.7427134946645362,
                0.18530587410359867,
                -3.190925466442676
            ]
        },
        {
            "positions": [
                0.1235363530447364,
                -1.1360191382817026,
                1.9636206424002054,
                -0.7443999223992326,
                0.12683911494810918,
                -3.224406584091601
            ]
        }
    ]
}