{
    "goal": {
        "global_pose": {
            "orientation": {
                "w": 0.5084816217422485,
                "x": -0.49083608388900757,
                "y": 0.5182115435600281,
                "z": -0.4816462993621826
            },
            "position": {
                "x": 0.5540239810943604,
                "y": 0.030875300988554955,
                "z": 0.16403168439865112
            }
        },
        "name": "move_to_storage_A"
    },
    "id": "LBTRRT_move_to_storage_A_23",
    "joint_names": [
        "shoulder_pan_joint",
        "shoulder_lift_joint",
        "elbow_joint",
        "wrist_1_joint",
        "wrist_2_joint",
        "wrist_3_joint"
    ],
    "metrics": {
        "cart_traj_len": 0.35381692648953866,
        "distance_elbow_joint": 0.4538729296462929,
        "distance_shoulder_lift_joint": 0.2323682916696519,
        "distance_shoulder_pan_joint": 0.4618264573044249,
        "distance_wrist_1_joint": 0.26307342073670126,
        "distance_wrist_2_joint": 1.1031507359673443,
        "distance_wrist_3_joint": 0.10595335918550397,
        "smoothness": 2.2204460668324854e-16,
        "time": 5.003355424,
        "traj_len": 1.6187171446889415,
        "weighted_distance": 2.048993916434349
    },
    "planner": "LBTRRT",
    "start": {
        "state": {
            "elbow_joint": 1.9715477243005601,
            "shoulder_lift_joint": -1.1394853015351272,
            "shoulder_pan_joint": 0.12281154014795169,
            "wrist_1_joint": -0.7804696478968182,
            "wrist_2_joint": 0.12958648046900423,
            "wrist_3_joint": -3.192491284697111
        }
    },
    "waypoints": [
        {
            "positions": [
                0.12281154014795169,
                -1.1394853015351272,
                1.9715477243005601,
                -0.7804696478968182,
                0.12958648046900423,
                -3.192491284697111
            ]
        },
        {
            "positions": [
                0.056836331961605285,
                -1.172680771773649,
                2.0363867142500305,
                -0.8180515651449184,
                0.28717944275005336,
                -3.1773550905277537
            ]
        },
        {
            "positions": [
                -0.009138876224741119,
                -1.2058762420121705,
                2.101225704199501,
                -0.8556334823930185,
                0.44477240503110255,
                -3.1622188963583957
            ]
        },
        {
            "positions": [
                -0.07511408441108754,
                -1.2390717122506922,
                2.166064694148971,
                -0.8932153996411187,
                0.6023653673121517,
                -3.147082702189038
            ]
        },
        {
            "positions": [
                -0.1410892925974339,
                -1.272267182489214,
                2.2309036840984415,
                -0.9307973168892189,
                0.7599583295932009,
                -3.13194650801968
            ]
        },
        {
            "positions": [
                -0.20706450078378036,
                -1.3054626527277358,
                2.2957426740479123,
                -0.9683792341373191,
                0.9175512918742501,
                -3.1168103138503227
            ]
        },
        {
            "positions": [
                -0.27303970897012675,
                -1.3386581229662573,
                2.3605816639973827,
                -1.0059611513854192,
                1.0751442541552994,
                -3.1016741196809647
            ]
        },
        {
            "positions": [
                -0.3390149171564732,
                -1.371853593204779,
                2.425420653946853,
                -1.0435430686335194,
                1.2327372164363484,
                -3.086537925511607
            ]
        }
    ]
}