{
    "goal": {
        "global_pose": {
            "orientation": {
                "w": 0.7047431468963623,
                "x": -0.7094548344612122,
                "y": 0.0024358443915843964,
                "z": -0.0022348060738295317
            },
            "position": {
                "x": 0.6094750761985779,
                "y": 0.3671506643295288,
                "z": 0.19426114857196808
            }
        },
        "name": "move_to_magneteinheit_A"
    },
    "id": "LBTRRT_move_to_magneteinheit_A_85",
    "joint_names": [
        "shoulder_pan_joint",
        "shoulder_lift_joint",
        "elbow_joint",
        "wrist_1_joint",
        "wrist_2_joint",
        "wrist_3_joint"
    ],
    "metrics": {
        "cart_traj_len": 4.769139897663416,
        "distance_elbow_joint": 3.8783569975736594,
        "distance_shoulder_lift_joint": 0.562826368300336,
        "distance_shoulder_pan_joint": 4.640033363646992,
        "distance_wrist_1_joint": 3.107633015988357,
        "distance_wrist_2_joint": 1.6950449944146615,
        "distance_wrist_3_joint": 3.6879791570692286,
        "smoothness": 0.2097036159410543,
        "time": 5.040007944,
        "traj_len": 4.191881903989334,
        "weighted_distance": 5.454402829048723
    },
    "planner": "LBTRRT",
    "start": {
        "state": {
            "elbow_joint": -1.919618573717145,
            "shoulder_lift_joint": -1.2443395971678275,
            "shoulder_pan_joint": 2.6996025300909787,
            "wrist_1_joint": -1.548550951253194,
            "wrist_2_joint": -1.5709469090946802,
            "wrist_3_joint": 0.4420197732051276
        }
    },
    "waypoints": [
        {
            "positions": [
                2.6996025300909787,
                -1.2443395971678275,
                -1.919618573717145,
                -1.548550951253194,
                -1.5709469090946802,
                0.4420197732051276
            ]
        },
        {
            "positions": [
                2.575173037738967,
                -1.2327124412943768,
                -1.829304054942997,
                -1.5879076378477837,
                -1.5447925641495206,
                0.3511958921816273
            ]
        },
        {
            "positions": [
                2.4507435453869557,
                -1.221085285420926,
                -1.7389895361688492,
                -1.6272643244423732,
                -1.518638219204361,
                0.260372011158127
            ]
        },
        {
            "positions": [
                2.326314053034944,
                -1.2094581295474753,
                -1.6486750173947013,
                -1.6666210110369628,
                -1.4924838742592015,
                0.16954813013462672
            ]
        },
        {
            "positions": [
                2.2018845606829323,
                -1.1978309736740245,
                -1.5583604986205535,
                -1.7059776976315524,
                -1.466329529314042,
                0.07872424911112647
            ]
        },
        {
            "positions": [
                2.0774550683309205,
                -1.1862038178005738,
                -1.4680459798464056,
                -1.745334384226142,
                -1.4401751843688824,
                -0.012099631912373843
            ]
        },
        {
            "positions": [
                1.9530255759789092,
                -1.174576661927123,
                -1.377731461072258,
                -1.7846910708207315,
                -1.4140208394237228,
                -0.10292351293587415
            ]
        },
        {
            "positions": [
                1.8285960836268975,
                -1.1629495060536723,
                -1.28741694229811,
                -1.824047757415321,
                -1.3878664944785633,
                -0.1937473939593744
            ]
        },
        {
            "positions": [
                1.7041665912748858,
                -1.1513223501802217,
                -1.1971024235239622,
                -1.8634044440099107,
                -1.3617121495334037,
                -0.28457127498287466
            ]
        },
        {
            "positions": [
                1.5797370989228743,
                -1.1396951943067708,
                -1.1067879047498144,
                -1.9027611306045003,
                -1.3355578045882441,
                -0.375395156006375
            ]
        },
        {
            "positions": [
                1.4553076065708626,
                -1.1280680384333202,
                -1.0164733859756665,
                -1.9421178171990898,
                -1.3094034596430846,
                -0.46621903702987527
            ]
        },
        {
            "positions": [
                1.330878114218851,
                -1.1164408825598695,
                -0.9261588672015186,
                -1.9814745037936794,
                -1.283249114697925,
                -0.5570429180533756
            ]
        },
        {
            "positions": [
                1.2064486218668395,
                -1.1048137266864186,
                -0.8358443484273708,
                -2.020831190388269,
                -1.2570947697527655,
                -0.6478667990768758
            ]
        },
        {
            "positions": [
                1.0820191295148278,
                -1.093186570812968,
                -0.7455298296532229,
                -2.0601878769828588,
                -1.230940424807606,
                -0.7386906801003761
            ]
        },
        {
            "positions": [
                0.9575896371628161,
                -1.0815594149395171,
                -0.655215310879075,
                -2.099544563577448,
                -1.2047860798624463,
                -0.8295145611238763
            ]
        },
        {
            "positions": [
                0.8331601448108046,
                -1.0699322590660665,
                -0.5649007921049272,
                -2.138901250172038,
                -1.1786317349172866,
                -0.9203384421473766
            ]
        },
        {
            "positions": [
                0.7087306524587931,
                -1.0583051031926156,
                -0.4745862733307793,
                -2.1782579367666273,
                -1.1524773899721272,
                -1.0111623231708768
            ]
        },
        {
            "positions": [
                0.5843011601067816,
                -1.046677947319165,
                -0.38427175455663165,
                -2.217614623361217,
                -1.1263230450269677,
                -1.101986204194377
            ]
        },
        {
            "positions": [
                0.45987166775476984,
                -1.0350507914457143,
                -0.29395723578248356,
                -2.2569713099558064,
                -1.100168700081808,
                -1.1928100852178776
            ]
        },
        {
            "positions": [
                0.3354421754027581,
                -1.0234236355722635,
                -0.20364271700833592,
                -2.296327996550396,
                -1.0740143551366486,
                -1.2836339662413776
            ]
        },
        {
            "positions": [
                0.21101268305074639,
                -1.0117964796988128,
                -0.11332819823418783,
                -2.3356846831449856,
                -1.0478600101914888,
                -1.374457847264878
            ]
        },
        {
            "positions": [
                0.0865831906987351,
                -1.000169323825362,
                -0.02301367946003996,
                -2.3750413697395754,
                -1.0217056652463294,
                -1.4652817282883783
            ]
        },
        {
            "positions": [
                -0.037846301653276626,
                -0.9885421679519113,
                0.06730083931410769,
                -2.4143980563341647,
                -0.9955513203011698,
                -1.5561056093118786
            ]
        },
        {
            "positions": [
                -0.16227579400528835,
                -0.9769150120784605,
                0.15761535808825555,
                -2.4537547429287545,
                -0.9693969753560101,
                -1.646929490335379
            ]
        },
        {
            "positions": [
                -0.28670528635729964,
                -0.9652878562050098,
                0.24792987686240342,
                -2.493111429523344,
                -0.9432426304108505,
                -1.7377533713588793
            ]
        },
        {
            "positions": [
                -0.41113477870931137,
                -0.9536607003315591,
                0.3382443956365513,
                -2.5324681161179337,
                -0.9170882854656911,
                -1.8285772523823791
            ]
        },
        {
            "positions": [
                -0.5355642710613231,
                -0.9420335444581083,
                0.42855891441069915,
                -2.5718248027125235,
                -0.8909339405205314,
                -1.9194011334058798
            ]
        },
        {
            "positions": [
                -0.6599937634133344,
                -0.9304063885846576,
                0.518873433184847,
                -2.611181489307113,
                -0.8647795955753719,
                -2.01022501442938
            ]
        },
        {
            "positions": [
                -0.7844232557653465,
                -0.9187792327112068,
                0.6091879519589949,
                -2.650538175901702,
                -0.8386252506302123,
                -2.1010488954528803
            ]
        },
        {
            "positions": [
                -0.9088527481173576,
                -0.9071520768377561,
                0.6995024707331426,
                -2.689894862496292,
                -0.8124709056850528,
                -2.1918727764763806
            ]
        },
        {
            "positions": [
                -0.8481716842680248,
                -0.9204249502477717,
                0.7735751738580469,
                -2.5742307975112766,
                -0.7573786120965214,
                -2.2538778710285996
            ]
        },
        {
            "positions": [
                -0.787490620418692,
                -0.9336978236577873,
                0.8476478769829512,
                -2.4585667325262612,
                -0.70228631850799,
                -2.315882965580818
            ]
        },
        {
            "positions": [
                -0.7268095565693592,
                -0.9469706970678028,
                0.9217205801078554,
                -2.3429026675412463,
                -0.6471940249194584,
                -2.377888060133037
            ]
        },
        {
            "positions": [
                -0.6661284927200264,
                -0.9602435704778184,
                0.9957932832327596,
                -2.227238602556231,
                -0.592101731330927,
                -2.439893154685256
            ]
        },
        {
            "positions": [
                -0.6054474288706936,
                -0.973516443887834,
                1.0698659863576638,
                -2.1115745375712156,
                -0.5370094377423956,
                -2.501898249237475
            ]
        },
        {
            "positions": [
                -0.5447663650213608,
                -0.9867893172978496,
                1.143938689482568,
                -1.9959104725862002,
                -0.48191714415386416,
                -2.563903343789694
            ]
        },
        {
            "positions": [
                -0.484085301172028,
                -1.000062190707865,
                1.2180113926074723,
                -1.8802464076011853,
                -0.4268248505653328,
                -2.6259084383419125
            ]
        },
        {
            "positions": [
                -0.4234042373226952,
                -1.0133350641178807,
                1.2920840957323767,
                -1.76458234261617,
                -0.37173255697680135,
                -2.6879135328941315
            ]
        },
        {
            "positions": [
                -0.36272317347336236,
                -1.0266079375278963,
                1.366156798857281,
                -1.6489182776311546,
                -0.31664026338826995,
                -2.74991862744635
            ]
        },
        {
            "positions": [
                -0.30204210962402955,
                -1.0398808109379118,
                1.4402295019821851,
                -1.5332542126461395,
                -0.2615479697997385,
                -2.811923721998569
            ]
        },
        {
            "positions": [
                -0.24136104577469675,
                -1.0531536843479274,
                1.5143022051070893,
                -1.4175901476611241,
                -0.20645567621120708,
                -2.873928816550788
            ]
        },
        {
            "positions": [
                -0.18067998192536394,
                -1.066426557757943,
                1.5883749082319936,
                -1.3019260826761088,
                -0.15136338262267557,
                -2.9359339111030067
            ]
        },
        {
            "positions": [
                -0.11999891807603125,
                -1.0796994311679584,
                1.6624476113568978,
                -1.1862620176910939,
                -0.09627108903414427,
                -2.9979390056552253
            ]
        },
        {
            "positions": [
                -0.05931785422669844,
                -1.092972304577974,
                1.736520314481802,
                -1.0705979527060785,
                -0.04117879544561287,
                -3.0599441002074443
            ]
        },
        {
            "positions": [
                0.0013632096226343648,
                -1.1062451779879896,
                1.8105930176067062,
                -0.9549338877210631,
                0.013913498142918534,
                -3.1219491947596634
            ]
        },
        {
            "positions": [
                0.06204427347196717,
                -1.1195180513980052,
                1.8846657207316104,
                -0.839269822736048,
                0.06900579173145005,
                -3.183954289311882
            ]
        },
        {
            "positions": [
                0.1227253373212999,
                -1.1327909248080208,
                1.9587384238565146,
                -0.7236057577510325,
                0.12409808531998143,
                -3.245959383864101
            ]
        }
    ]
}{
    "goal": {
        "global_pose": {
            "orientation": {
                "w": 0.7047431468963623,
                "x": -0.7094548344612122,
                "y": 0.0024358443915843964,
                "z": -0.0022348060738295317
            },
            "position": {
                "x": 0.6094750761985779,
                "y": 0.3671506643295288,
                "z": 0.19426114857196808
            }
        },
        "name": "move_to_magneteinheit_A"
    },
    "id": "LBTRRT_move_to_magneteinheit_A_85",
    "joint_names": [
        "shoulder_pan_joint",
        "shoulder_lift_joint",
        "elbow_joint",
        "wrist_1_joint",
        "wrist_2_joint",
        "wrist_3_joint"
    ],
    "metrics": {
        "cart_traj_len": 1.4799774276018798,
        "distance_elbow_joint": 0.07101545745871052,
        "distance_shoulder_lift_joint": 0.7548005376547613,
        "distance_shoulder_pan_joint": 1.8491447781169605,
        "distance_wrist_1_joint": 0.7739035131990608,
        "distance_wrist_2_joint": 1.4454182811659726,
        "distance_wrist_3_joint": 4.27933759920164,
        "smoothness": 0.11660418752822459,
        "time": 5.054770585,
        "traj_len": 3.02879846916184,
        "weighted_distance": 4.4667233135224995
    },
    "planner": "LBTRRT",
    "start": {
        "state": {
            "elbow_joint": 1.919643534880228,
            "shoulder_lift_joint": -1.8972525353963687,
            "shoulder_pan_joint": -1.1188672234189438,
            "wrist_1_joint": -1.5931878212786155,
            "wrist_2_joint": 1.5706036197970081,
            "wrist_3_joint": 1.118896926603594
        }
    },
    "waypoints": [
        {
            "positions": [
                -1.1188672234189438,
                -1.8972525353963687,
                1.919643534880228,
                -1.5931878212786155,
                1.5706036197970081,
                1.118896926603594
            ]
        },
        {
            "positions": [
                -1.1525460267416021,
                -1.8840327364121445,
                1.926841093338207,
                -1.5096932170211654,
                1.494894514391229,
                0.9601989346783718
            ]
        },
        {
            "positions": [
                -1.1862248300642602,
                -1.8708129374279205,
                1.9340386517961858,
                -1.4261986127637154,
                1.4191854089854496,
                0.8015009427531496
            ]
        },
        {
            "positions": [
                -1.2199036333869184,
                -1.8575931384436963,
                1.9412362102541647,
                -1.3427040085062654,
                1.3434763035796702,
                0.6428029508279276
            ]
        },
        {
            "positions": [
                -1.2535824367095765,
                -1.8443733394594723,
                1.9484337687121436,
                -1.2592094042488153,
                1.267767198173891,
                0.48410495890270544
            ]
        },
        {
            "positions": [
                -1.2872612400322347,
                -1.8311535404752481,
                1.9556313271701224,
                -1.175714799991365,
                1.1920580927681117,
                0.32540696697748317
            ]
        },
        {
            "positions": [
                -1.3209400433548928,
                -1.8179337414910242,
                1.9628288856281013,
                -1.092220195733915,
                1.1163489873623325,
                0.16670897505226112
            ]
        },
        {
            "positions": [
                -1.354618846677551,
                -1.8047139425068,
                1.9700264440860802,
                -1.008725591476465,
                1.0406398819565532,
                0.008010983127038962
            ]
        },
        {
            "positions": [
                -1.3882976500002093,
                -1.791494143522576,
                1.977224002544059,
                -0.9252309872190151,
                0.9649307765507739,
                -0.1506870087981831
            ]
        },
        {
            "positions": [
                -1.4219764533228674,
                -1.7782743445383518,
                1.984421561002038,
                -0.8417363829615649,
                0.8892216711449945,
                -0.30938500072340547
            ]
        },
        {
            "positions": [
                -1.3189074167753316,
                -1.7358861880852354,
                1.9840057322462445,
                -0.8402395779694309,
                0.8382859156440639,
                -0.49945537884838154
            ]
        },
        {
            "positions": [
                -1.2158383802277957,
                -1.693498031632119,
                1.9835899034904512,
                -0.8387427729772969,
                0.7873501601431333,
                -0.6895257569733576
            ]
        },
        {
            "positions": [
                -1.11276934368026,
                -1.651109875179003,
                1.9831740747346578,
                -0.8372459679851629,
                0.7364144046422026,
                -0.8795961350983337
            ]
        },
        {
            "positions": [
                -1.0097003071327242,
                -1.6087217187258867,
                1.9827582459788644,
                -0.8357491629930288,
                0.6854786491412721,
                -1.0696665132233099
            ]
        },
        {
            "positions": [
                -0.9066312705851883,
                -1.5663335622727703,
                1.982342417223071,
                -0.8342523580008948,
                0.6345428936403414,
                -1.2597368913482856
            ]
        },
        {
            "positions": [
                -0.8035622340376525,
                -1.523945405819654,
                1.9819265884672777,
                -0.8327555530087608,
                0.5836071381394108,
                -1.4498072694732618
            ]
        },
        {
            "positions": [
                -0.7004931974901166,
                -1.4815572493665377,
                1.9815107597114843,
                -0.8312587480166268,
                0.5326713826384801,
                -1.639877647598238
            ]
        },
        {
            "positions": [
                -0.5974241609425809,
                -1.4391690929134215,
                1.981094930955691,
                -0.8297619430244928,
                0.48173562713754964,
                -1.8299480257232141
            ]
        },
        {
            "positions": [
                -0.49435512439504503,
                -1.3967809364603052,
                1.9806791021998975,
                -0.8282651380323588,
                0.43079987163661904,
                -2.02001840384819
            ]
        },
        {
            "positions": [
                -0.3912860878475093,
                -1.3543927800071889,
                1.9802632734441041,
                -0.8267683330402248,
                0.3798641161356884,
                -2.210088781973166
            ]
        },
        {
            "positions": [
                -0.28821705129997355,
                -1.3120046235540725,
                1.9798474446883108,
                -0.8252715280480908,
                0.32892836063475783,
                -2.4001591600981422
            ]
        },
        {
            "positions": [
                -0.18514801475243758,
                -1.2696164671009562,
                1.9794316159325174,
                -0.8237747230559567,
                0.27799260513382706,
                -2.5902295382231184
            ]
        },
        {
            "positions": [
                -0.08207897820490162,
                -1.22722831064784,
                1.979015787176724,
                -0.8222779180638227,
                0.22705684963289652,
                -2.7802999163480946
            ]
        },
        {
            "positions": [
                0.02099005834263412,
                -1.1848401541947238,
                1.9785999584209306,
                -0.8207811130716887,
                0.17612109413196586,
                -2.9703702944730703
            ]
        },
        {
            "positions": [
                0.12405909489016995,
                -1.1424519977416074,
                1.9781841296651372,
                -0.8192843080795547,
                0.12518533863103537,
                -3.1604406725980465
            ]
        }
    ]
}