{
    "goal": {
        "global_pose": {
            "orientation": {
                "w": 0.5084816217422485,
                "x": -0.49083608388900757,
                "y": 0.5182115435600281,
                "z": -0.4816462993621826
            },
            "position": {
                "x": 0.5540239810943604,
                "y": 0.030875300988554955,
                "z": 0.16403168439865112
            }
        },
        "name": "move_to_storage_A"
    },
    "id": "LBTRRT_move_to_storage_A_43",
    "joint_names": [
        "shoulder_pan_joint",
        "shoulder_lift_joint",
        "elbow_joint",
        "wrist_1_joint",
        "wrist_2_joint",
        "wrist_3_joint"
    ],
    "metrics": {
        "cart_traj_len": 0.3526601632970907,
        "distance_elbow_joint": 0.4522614059978789,
        "distance_shoulder_lift_joint": 0.2354556214663155,
        "distance_shoulder_pan_joint": 0.46005607402124293,
        "distance_wrist_1_joint": 0.2511276107505297,
        "distance_wrist_2_joint": 1.1034991462075125,
        "distance_wrist_3_joint": 0.10849245062689006,
        "smoothness": 1.1102230263833737e-15,
        "time": 5.002719784,
        "traj_len": 1.6158255812649982,
        "weighted_distance": 2.04511710356209
    },
    "planner": "LBTRRT",
    "start": {
        "state": {
            "elbow_joint": 1.9715477243005601,
            "shoulder_lift_joint": -1.1394853015351272,
            "shoulder_pan_joint": 0.12281154014795169,
            "wrist_1_joint": -0.7804696478968182,
            "wrist_2_joint": 0.12958648046900423,
            "wrist_3_joint": -3.192491284697111
        }
    },
    "waypoints": [
        {
            "positions": [
                0.12281154014795169,
                -1.1394853015351272,
                1.9715477243005601,
                -0.7804696478968182,
                0.12958648046900423,
                -3.192491284697111
            ]
        },
        {
            "positions": [
                0.05708924385920271,
                -1.173121818887458,
                2.0361564965859715,
                -0.8163450208611795,
                0.28722921564150605,
                -3.176992363178984
            ]
        },
        {
            "positions": [
                -0.008633052429546276,
                -1.2067583362397887,
                2.1007652688713825,
                -0.8522203938255409,
                0.4448719508140078,
                -3.161493441660857
            ]
        },
        {
            "positions": [
                -0.07435534871829526,
                -1.2403948535921194,
                2.165374041156794,
                -0.8880957667899023,
                0.6025146859865096,
                -3.1459945201427297
            ]
        },
        {
            "positions": [
                -0.14007764500704423,
                -1.2740313709444502,
                2.2299828134422053,
                -0.9239711397542637,
                0.7601574211590114,
                -3.1304955986246026
            ]
        },
        {
            "positions": [
                -0.20579994129579327,
                -1.3076678882967812,
                2.2945915857276167,
                -0.9598465127186251,
                0.9178001563315132,
                -3.1149966771064754
            ]
        },
        {
            "positions": [
                -0.2715222375845422,
                -1.341304405649112,
                2.3592003580130276,
                -0.9957218856829865,
                1.0754428915040148,
                -3.0994977555883483
            ]
        },
        {
            "positions": [
                -0.33724453387329123,
                -1.3749409230014427,
                2.423809130298439,
                -1.0315972586473479,
                1.2330856266765167,
                -3.083998834070221
            ]
        }
    ]
}