{
    "goal": {
        "global_pose": {
            "orientation": {
                "w": 0.5084816217422485,
                "x": -0.49083608388900757,
                "y": 0.5182115435600281,
                "z": -0.4816462993621826
            },
            "position": {
                "x": 0.5540239810943604,
                "y": 0.030875300988554955,
                "z": 0.16403168439865112
            }
        },
        "name": "move_to_storage_A"
    },
    "id": "LBTRRT_move_to_storage_A_1",
    "joint_names": [
        "shoulder_pan_joint",
        "shoulder_lift_joint",
        "elbow_joint",
        "wrist_1_joint",
        "wrist_2_joint",
        "wrist_3_joint"
    ],
    "metrics": {
        "cart_traj_len": 0.35262549121545317,
        "distance_elbow_joint": 0.4511427482293233,
        "distance_shoulder_lift_joint": 0.23471267327512346,
        "distance_shoulder_pan_joint": 0.45964790193125954,
        "distance_wrist_1_joint": 0.2527845429730914,
        "distance_wrist_2_joint": 1.1040031301706819,
        "distance_wrist_3_joint": 0.09869864153616481,
        "smoothness": 2.2204460668324854e-16,
        "time": 5.003688869,
        "traj_len": 1.6127583942164567,
        "weighted_distance": 2.0384245373159504
    },
    "planner": "LBTRRT",
    "start": {
        "state": {
            "elbow_joint": 1.9715477243005601,
            "shoulder_lift_joint": -1.1394853015351272,
            "shoulder_pan_joint": 0.12281154014795169,
            "wrist_1_joint": -0.7804696478968182,
            "wrist_2_joint": 0.12958648046900423,
            "wrist_3_joint": -3.192491284697111
        }
    },
    "waypoints": [
        {
            "positions": [
                0.12281154014795169,
                -1.1394853015351272,
                1.9715477243005601,
                -0.7804696478968182,
                0.12958648046900423,
                -3.192491284697111
            ]
        },
        {
            "positions": [
                0.05714755415777176,
                -1.1730156834315735,
                2.0359966883333205,
                -0.8165817254644027,
                0.28730121335053016,
                -3.1783914787633734
            ]
        },
        {
            "positions": [
                -0.008516431832408175,
                -1.2065460653280196,
                2.1004456523660813,
                -0.8526938030319872,
                0.44501594623205615,
                -3.1642916728296355
            ]
        },
        {
            "positions": [
                -0.0741804178225881,
                -1.2400764472244659,
                2.1648946163988416,
                -0.8888058805995716,
                0.6027306791135821,
                -3.1501918668958977
            ]
        },
        {
            "positions": [
                -0.13984440381276803,
                -1.273606829120912,
                2.229343580431602,
                -0.924917958167156,
                0.7604454119951081,
                -3.13609206096216
            ]
        },
        {
            "positions": [
                -0.205508389802948,
                -1.3071372110173582,
                2.2937925444643623,
                -0.9610300357347406,
                0.9181601448766341,
                -3.121992255028422
            ]
        },
        {
            "positions": [
                -0.27117237579312786,
                -1.3406675929138043,
                2.358241508497123,
                -0.997142113302325,
                1.0758748777581602,
                -3.107892449094684
            ]
        },
        {
            "positions": [
                -0.33683636178330784,
                -1.3741979748102506,
                2.4226904725298835,
                -1.0332541908699096,
                1.233589610639686,
                -3.0937926431609464
            ]
        }
    ]
}