{
    "goal": {
        "global_pose": {
            "orientation": {
                "w": 0.7047431468963623,
                "x": -0.7094548344612122,
                "y": 0.0024358443915843964,
                "z": -0.0022348060738295317
            },
            "position": {
                "x": 0.6094750761985779,
                "y": 0.3671506643295288,
                "z": 0.19426114857196808
            }
        },
        "name": "move_to_magneteinheit_A"
    },
    "id": "LBTRRT_move_to_magneteinheit_A_132",
    "joint_names": [
        "shoulder_pan_joint",
        "shoulder_lift_joint",
        "elbow_joint",
        "wrist_1_joint",
        "wrist_2_joint",
        "wrist_3_joint"
    ],
    "metrics": {
        "cart_traj_len": 3.6156728931512037,
        "distance_elbow_joint": 3.8803741173424786,
        "distance_shoulder_lift_joint": 0.3522246380869998,
        "distance_shoulder_pan_joint": 2.5772169833935843,
        "distance_wrist_1_joint": 0.8171016854367009,
        "distance_wrist_2_joint": 1.902062751711905,
        "distance_wrist_3_joint": 2.626267100487274,
        "smoothness": 0.22773310928229315,
        "time": 5.029875080999999,
        "traj_len": 3.4864376197572997,
        "weighted_distance": 4.486306489149186
    },
    "planner": "LBTRRT",
    "start": {
        "state": {
            "elbow_joint": -1.919618573717145,
            "shoulder_lift_joint": -1.2443395971678275,
            "shoulder_pan_joint": 2.6996025300909787,
            "wrist_1_joint": -1.548550951253194,
            "wrist_2_joint": -1.5709469090946802,
            "wrist_3_joint": 0.4420197732051276
        }
    },
    "waypoints": [
        {
            "positions": [
                2.6996025300909787,
                -1.2443395971678275,
                -1.919618573717145,
                -1.548550951253194,
                -1.5709469090946802,
                0.4420197732051276
            ]
        },
        {
            "positions": [
                2.6035001817846104,
                -1.2354200393437536,
                -1.8099163690155948,
                -1.5244496501577935,
                -1.51172887512185,
                0.5390828279058534
            ]
        },
        {
            "positions": [
                2.507397833478242,
                -1.2265004815196794,
                -1.7002141643140447,
                -1.500348349062393,
                -1.45251084114902,
                0.6361458826065792
            ]
        },
        {
            "positions": [
                2.4112954851718733,
                -1.2175809236956054,
                -1.5905119596124946,
                -1.4762470479669925,
                -1.3932928071761896,
                0.7332089373073051
            ]
        },
        {
            "positions": [
                2.315193136865505,
                -1.2086613658715313,
                -1.4808097549109445,
                -1.452145746871592,
                -1.3340747732033595,
                0.8302719920080309
            ]
        },
        {
            "positions": [
                2.2190907885591367,
                -1.1997418080474573,
                -1.3711075502093943,
                -1.4280444457761914,
                -1.2748567392305294,
                0.9273350467087568
            ]
        },
        {
            "positions": [
                2.1229884402527683,
                -1.1908222502233832,
                -1.2614053455078444,
                -1.4039431446807908,
                -1.2156387052576991,
                1.0243981014094825
            ]
        },
        {
            "positions": [
                2.0268860919464,
                -1.1819026923993092,
                -1.151703140806294,
                -1.3798418435853903,
                -1.1564206712848693,
                1.1214611561102084
            ]
        },
        {
            "positions": [
                1.9307837436400317,
                -1.1729831345752353,
                -1.0420009361047442,
                -1.3557405424899895,
                -1.097202637312039,
                1.2185242108109342
            ]
        },
        {
            "positions": [
                1.8346813953336634,
                -1.1640635767511611,
                -0.9322987314031941,
                -1.331639241394589,
                -1.0379846033392088,
                1.31558726551166
            ]
        },
        {
            "positions": [
                1.7385790470272946,
                -1.1551440189270872,
                -0.8225965267016437,
                -1.3075379402991885,
                -0.9787665693663786,
                1.412650320212386
            ]
        },
        {
            "positions": [
                1.6424766987209265,
                -1.146224461103013,
                -0.7128943220000938,
                -1.283436639203788,
                -0.9195485353935485,
                1.5097133749131117
            ]
        },
        {
            "positions": [
                1.546374350414558,
                -1.137304903278939,
                -0.6031921172985437,
                -1.2593353381083874,
                -0.8603305014207183,
                1.6067764296138376
            ]
        },
        {
            "positions": [
                1.4502720021081896,
                -1.128385345454865,
                -0.4934899125969936,
                -1.2352340370129868,
                -0.8011124674478882,
                1.7038394843145634
            ]
        },
        {
            "positions": [
                1.3541696538018213,
                -1.119465787630791,
                -0.3837877078954435,
                -1.2111327359175863,
                -0.7418944334750581,
                1.8009025390152893
            ]
        },
        {
            "positions": [
                1.258067305495453,
                -1.110546229806717,
                -0.2740855031938936,
                -1.1870314348221858,
                -0.682676399502228,
                1.897965593716015
            ]
        },
        {
            "positions": [
                1.1619649571890844,
                -1.1016266719826429,
                -0.16438329849234323,
                -1.1629301337267852,
                -0.6234583655293977,
                1.995028648416741
            ]
        },
        {
            "positions": [
                1.0658626088827161,
                -1.092707114158569,
                -0.05468109379079311,
                -1.1388288326313847,
                -0.5642403315565676,
                2.092091703117467
            ]
        },
        {
            "positions": [
                0.9697602605763478,
                -1.0837875563344948,
                0.05502111091075679,
                -1.1147275315359841,
                -0.5050222975837375,
                2.1891547578181925
            ]
        },
        {
            "positions": [
                0.8736579122699795,
                -1.0748679985104208,
                0.1647233156123067,
                -1.0906262304405836,
                -0.4458042636109074,
                2.286217812518918
            ]
        },
        {
            "positions": [
                0.7775555639636107,
                -1.0659484406863466,
                0.2744255203138575,
                -1.0665249293451828,
                -0.3865862296380771,
                2.383280867219644
            ]
        },
        {
            "positions": [
                0.6814532156572426,
                -1.0570288828622727,
                0.3841277250154074,
                -1.0424236282497823,
                -0.327368195665247,
                2.4803439219203702
            ]
        },
        {
            "positions": [
                0.5853508673508743,
                -1.0481093250381988,
                0.49382992971695727,
                -1.0183223271543818,
                -0.2681501616924169,
                2.577406976621096
            ]
        },
        {
            "positions": [
                0.48924851904450595,
                -1.0391897672141246,
                0.6035321344185072,
                -0.9942210260589813,
                -0.2089321277195868,
                2.6744700313218215
            ]
        },
        {
            "positions": [
                0.3931461707381372,
                -1.0302702093900507,
                0.7132343391200575,
                -0.9701197249635807,
                -0.14971409374675648,
                2.7715330860225476
            ]
        },
        {
            "positions": [
                0.29704382243176886,
                -1.0213506515659765,
                0.8229365438216079,
                -0.9460184238681801,
                -0.09049605977392639,
                2.8685961407232736
            ]
        },
        {
            "positions": [
                0.2009414741254007,
                -1.0124310937419025,
                0.9326387485231576,
                -0.9219171227727796,
                -0.0312780258010964,
                2.9656591954239993
            ]
        },
        {
            "positions": [
                0.18817869690891367,
                -1.0200537162971497,
                1.1423619708852535,
                -0.8861072480110632,
                0.033154205355030525,
                2.9884598457034395
            ]
        },
        {
            "positions": [
                0.17541591969242665,
                -1.0276763388523968,
                1.3520851932473494,
                -0.8502973732493468,
                0.09758643651115745,
                3.0112604959828793
            ]
        },
        {
            "positions": [
                0.16265314247593962,
                -1.0352989614076442,
                1.5618084156094454,
                -0.8144874984876306,
                0.16201866766728437,
                3.034061146262319
            ]
        },
        {
            "positions": [
                0.1498903652594526,
                -1.0429215839628914,
                1.7715316379715413,
                -0.7786776237259142,
                0.2264508988234113,
                3.0568617965417593
            ]
        },
        {
            "positions": [
                0.13613795597842376,
                -1.0878344061829344,
                1.8661435907984376,
                -0.7550634447712037,
                0.17411842692650464,
                3.051149257966438
            ]
        },
        {
            "positions": [
                0.12238554669739496,
                -1.1327472284029774,
                1.9607555436253339,
                -0.7314492658164932,
                0.12178595502959798,
                3.045436719391117
            ]
        }
    ]
}{
    "goal": {
        "global_pose": {
            "orientation": {
                "w": 0.7047431468963623,
                "x": -0.7094548344612122,
                "y": 0.0024358443915843964,
                "z": -0.0022348060738295317
            },
            "position": {
                "x": 0.6094750761985779,
                "y": 0.3671506643295288,
                "z": 0.19426114857196808
            }
        },
        "name": "move_to_magneteinheit_A"
    },
    "id": "LBTRRT_move_to_magneteinheit_A_132",
    "joint_names": [
        "shoulder_pan_joint",
        "shoulder_lift_joint",
        "elbow_joint",
        "wrist_1_joint",
        "wrist_2_joint",
        "wrist_3_joint"
    ],
    "metrics": {
        "cart_traj_len": 1.3852509385147846,
        "distance_elbow_joint": 0.8223750398625815,
        "distance_shoulder_lift_joint": 0.7657839225584562,
        "distance_shoulder_pan_joint": 1.2416962401962612,
        "distance_wrist_1_joint": 1.3931247186216464,
        "distance_wrist_2_joint": 2.136856033238465,
        "distance_wrist_3_joint": 4.3832488474399245,
        "smoothness": 0.4565166624619554,
        "time": 5.042978344,
        "traj_len": 3.277664534682788,
        "weighted_distance": 4.799954504852863
    },
    "planner": "LBTRRT",
    "start": {
        "state": {
            "elbow_joint": 1.919643534880228,
            "shoulder_lift_joint": -1.8972525353963687,
            "shoulder_pan_joint": -1.1188672234189438,
            "wrist_1_joint": -1.5931878212786155,
            "wrist_2_joint": 1.5706036197970081,
            "wrist_3_joint": 1.118896926603594
        }
    },
    "waypoints": [
        {
            "positions": [
                -1.1188672234189438,
                -1.8972525353963687,
                1.919643534880228,
                -1.5931878212786155,
                1.5706036197970081,
                1.118896926603594
            ]
        },
        {
            "positions": [
                -1.0769722039434133,
                -1.8695991881603038,
                1.9382918886951264,
                -1.5436214288793157,
                1.492802624941942,
                0.9382909876886505
            ]
        },
        {
            "positions": [
                -1.0350771844678825,
                -1.8419458409242389,
                1.9569402425100244,
                -1.4940550364800158,
                1.4150016300868755,
                0.757685048773707
            ]
        },
        {
            "positions": [
                -0.9931821649923519,
                -1.8142924936881737,
                1.9755885963249227,
                -1.444488644080716,
                1.3372006352318093,
                0.5770791098587635
            ]
        },
        {
            "positions": [
                -0.9512871455168213,
                -1.7866391464521088,
                1.9942369501398207,
                -1.3949222516814164,
                1.2593996403767431,
                0.39647317094381995
            ]
        },
        {
            "positions": [
                -0.9093921260412906,
                -1.7589857992160438,
                2.012885303954719,
                -1.3453558592821167,
                1.1815986455216767,
                0.21586723202887648
            ]
        },
        {
            "positions": [
                -0.86749710656576,
                -1.7313324519799789,
                2.031533657769617,
                -1.295789466882817,
                1.1037976506666105,
                0.03526129311393311
            ]
        },
        {
            "positions": [
                -0.8256020870902293,
                -1.7036791047439137,
                2.050182011584515,
                -1.246223074483517,
                1.0259966558115443,
                -0.14534464580101059
            ]
        },
        {
            "positions": [
                -0.7837070676146987,
                -1.6760257575078488,
                2.0688303653994136,
                -1.1966566820842173,
                0.948195660956478,
                -0.32595058471595406
            ]
        },
        {
            "positions": [
                -0.741812048139168,
                -1.6483724102717838,
                2.0874787192143116,
                -1.1470902896849173,
                0.8703946661014116,
                -0.5065565236308975
            ]
        },
        {
            "positions": [
                -0.6999170286636374,
                -1.6207190630357189,
                2.1061270730292097,
                -1.0975238972856176,
                0.7925936712463454,
                -0.687162462545841
            ]
        },
        {
            "positions": [
                -0.6580220091881067,
                -1.593065715799654,
                2.124775426844108,
                -1.047957504886318,
                0.7147926763912791,
                -0.8677684014607845
            ]
        },
        {
            "positions": [
                -0.6161269897125761,
                -1.5654123685635888,
                2.143423780659006,
                -0.9983911124870182,
                0.6369916815362129,
                -1.0483743403757277
            ]
        },
        {
            "positions": [
                -0.5742319702370454,
                -1.5377590213275238,
                2.1620721344739042,
                -0.9488247200877185,
                0.5591906866811467,
                -1.2289802792906712
            ]
        },
        {
            "positions": [
                -0.5323369507615148,
                -1.510105674091459,
                2.1807204882888023,
                -0.8992583276884185,
                0.48138969182608027,
                -1.4095862182056151
            ]
        },
        {
            "positions": [
                -0.4904419312859841,
                -1.482452326855394,
                2.1993688421037008,
                -0.8496919352891188,
                0.40358869697101407,
                -1.5901921571205586
            ]
        },
        {
            "positions": [
                -0.4485469118104535,
                -1.454798979619329,
                2.218017195918599,
                -0.8001255428898191,
                0.3257877021159479,
                -1.770798096035502
            ]
        },
        {
            "positions": [
                -0.4066518923349228,
                -1.4271456323832639,
                2.236665549733497,
                -0.7505591504905194,
                0.24798670726088146,
                -1.9514040349504451
            ]
        },
        {
            "positions": [
                -0.3647568728593922,
                -1.399492285147199,
                2.2553139035483953,
                -0.7009927580912194,
                0.17018571240581504,
                -2.1320099738653893
            ]
        },
        {
            "positions": [
                -0.32286185338386153,
                -1.371838937911134,
                2.2739622573632934,
                -0.6514263656919197,
                0.09238471755074884,
                -2.3126159127803323
            ]
        },
        {
            "positions": [
                -0.2809668339083309,
                -1.3441855906750688,
                2.2926106111781914,
                -0.60185997329262,
                0.014583722695682644,
                -2.493221851695276
            ]
        },
        {
            "positions": [
                -0.23907181443280023,
                -1.316532243439004,
                2.3112589649930895,
                -0.5522935808933203,
                -0.06321727215938355,
                -2.6738277906102192
            ]
        },
        {
            "positions": [
                -0.19717679495726959,
                -1.288878896202939,
                2.329907318807988,
                -0.5027271884940203,
                -0.14101826701444997,
                -2.854433729525163
            ]
        },
        {
            "positions": [
                -0.15528177548173894,
                -1.261225548966874,
                2.348555672622886,
                -0.4531607960947207,
                -0.21881926186951628,
                -3.0350396684401066
            ]
        },
        {
            "positions": [
                -0.09965961702992775,
                -1.2352741617410816,
                2.2698630921989014,
                -0.5037803347822709,
                -0.14933263155512805,
                -3.0809021189193517
            ]
        },
        {
            "positions": [
                -0.044037458578116556,
                -1.2093227745152895,
                2.1911705117749167,
                -0.5543998734698212,
                -0.07984600124073984,
                -3.126764569398597
            ]
        },
        {
            "positions": [
                0.01158469987369462,
                -1.183371387289497,
                2.1124779313509316,
                -0.6050194121573714,
                -0.010359370926351669,
                -3.1726270198778415
            ]
        },
        {
            "positions": [
                0.06720685832550582,
                -1.157420000063705,
                2.033785350926947,
                -0.6556389508449217,
                0.05912725938803659,
                -3.2184894703570865
            ]
        },
        {
            "positions": [
                0.122829016777317,
                -1.1314686128379126,
                1.9550927705029624,
                -0.706258489532472,
                0.12861388970242477,
                -3.2643519208363316
            ]
        }
    ]
}