{
    "goal": {
        "global_pose": {
            "orientation": {
                "w": 0.5084816217422485,
                "x": -0.49083608388900757,
                "y": 0.5182115435600281,
                "z": -0.4816462993621826
            },
            "position": {
                "x": 0.5540239810943604,
                "y": 0.030875300988554955,
                "z": 0.16403168439865112
            }
        },
        "name": "move_to_storage_A"
    },
    "id": "LBTRRT_move_to_storage_A_15",
    "joint_names": [
        "shoulder_pan_joint",
        "shoulder_lift_joint",
        "elbow_joint",
        "wrist_1_joint",
        "wrist_2_joint",
        "wrist_3_joint"
    ],
    "metrics": {
        "cart_traj_len": 0.3531395941137291,
        "distance_elbow_joint": 0.449816737401489,
        "distance_shoulder_lift_joint": 0.2346804234215467,
        "distance_shoulder_pan_joint": 0.4595629960404447,
        "distance_wrist_1_joint": 0.2433781022772813,
        "distance_wrist_2_joint": 1.1084703745003148,
        "distance_wrist_3_joint": 0.10554836611960416,
        "smoothness": 1.3322676295501878e-15,
        "time": 5.004047916999999,
        "traj_len": 1.6129032828290357,
        "weighted_distance": 2.040686700299065
    },
    "planner": "LBTRRT",
    "start": {
        "state": {
            "elbow_joint": 1.9715477243005601,
            "shoulder_lift_joint": -1.1394853015351272,
            "shoulder_pan_joint": 0.12281154014795169,
            "wrist_1_joint": -0.7804696478968182,
            "wrist_2_joint": 0.12958648046900423,
            "wrist_3_joint": -3.192491284697111
        }
    },
    "waypoints": [
        {
            "positions": [
                0.12281154014795169,
                -1.1394853015351272,
                1.9715477243005601,
                -0.7804696478968182,
                0.12958648046900423,
                -3.192491284697111
            ]
        },
        {
            "positions": [
                0.0571596835707453,
                -1.1730110763096337,
                2.0358072582150584,
                -0.815237948222144,
                0.28793939111190636,
                -3.177412946680025
            ]
        },
        {
            "positions": [
                -0.008492173006461087,
                -1.2065368510841405,
                2.100066792129557,
                -0.85000624854747,
                0.44629230175480844,
                -3.1623346086629387
            ]
        },
        {
            "positions": [
                -0.07414402958366746,
                -1.2400626258586471,
                2.1643263260440553,
                -0.8847745488727958,
                0.6046452123977106,
                -3.1472562706458524
            ]
        },
        {
            "positions": [
                -0.13979588616087385,
                -1.273588400633154,
                2.228585859958554,
                -0.9195428491981218,
                0.7629981230406127,
                -3.1321779326287658
            ]
        },
        {
            "positions": [
                -0.20544774273808025,
                -1.3071141754076605,
                2.292845393873052,
                -0.9543111495234476,
                0.9213510336835148,
                -3.1170995946116795
            ]
        },
        {
            "positions": [
                -0.2710995993152866,
                -1.340639950182167,
                2.3571049277875504,
                -0.9890794498487736,
                1.079703944326417,
                -3.1020212565945933
            ]
        },
        {
            "positions": [
                -0.336751455892493,
                -1.3741657249566739,
                2.421364461702049,
                -1.0238477501740995,
                1.238056854969319,
                -3.086942918577507
            ]
        }
    ]
}