{
    "goal": {
        "global_pose": {
            "orientation": {
                "w": 0.5084816217422485,
                "x": -0.49083608388900757,
                "y": 0.5182115435600281,
                "z": -0.4816462993621826
            },
            "position": {
                "x": 0.5540239810943604,
                "y": 0.030875300988554955,
                "z": 0.16403168439865112
            }
        },
        "name": "move_to_storage_A"
    },
    "id": "LBTRRT_move_to_storage_A_125",
    "joint_names": [
        "shoulder_pan_joint",
        "shoulder_lift_joint",
        "elbow_joint",
        "wrist_1_joint",
        "wrist_2_joint",
        "wrist_3_joint"
    ],
    "metrics": {
        "cart_traj_len": 0.35297992948250734,
        "distance_elbow_joint": 0.44990094335945097,
        "distance_shoulder_lift_joint": 0.23526672489977907,
        "distance_shoulder_pan_joint": 0.4585693983111363,
        "distance_wrist_1_joint": 0.2366400504065148,
        "distance_wrist_2_joint": 1.1124488094671716,
        "distance_wrist_3_joint": 0.09527451580090451,
        "smoothness": 0.0,
        "time": 5.006026662,
        "traj_len": 1.6087574218150347,
        "weighted_distance": 2.0316836204784576
    },
    "planner": "LBTRRT",
    "start": {
        "state": {
            "elbow_joint": 1.9715477243005601,
            "shoulder_lift_joint": -1.1394853015351272,
            "shoulder_pan_joint": 0.12281154014795169,
            "wrist_1_joint": -0.7804696478968182,
            "wrist_2_joint": 0.12958648046900423,
            "wrist_3_joint": -3.192491284697111
        }
    },
    "waypoints": [
        {
            "positions": [
                0.12281154014795169,
                -1.1394853015351272,
                1.9715477243005601,
                -0.7804696478968182,
                0.12958648046900423,
                -3.192491284697111
            ]
        },
        {
            "positions": [
                0.057301626103503644,
                -1.173094833663667,
                2.0358192876376244,
                -0.8142753693834631,
                0.2885077389643145,
                -3.178880639582696
            ]
        },
        {
            "positions": [
                -0.0082082879409444,
                -1.206704365792207,
                2.100090850974689,
                -0.8480810908701081,
                0.44742899745962467,
                -3.1652699944682814
            ]
        },
        {
            "positions": [
                -0.07371820198539243,
                -1.2403138979207469,
                2.1643624143117535,
                -0.881886812356753,
                0.606350255954935,
                -3.1516593493538663
            ]
        },
        {
            "positions": [
                -0.13922811602984048,
                -1.2739234300492865,
                2.2286339776488178,
                -0.9156925338433981,
                0.7652715144502451,
                -3.1380487042394516
            ]
        },
        {
            "positions": [
                -0.20473803007428854,
                -1.3075329621778264,
                2.292905540985882,
                -0.9494982553300431,
                0.9241927729455554,
                -3.1244380591250365
            ]
        },
        {
            "positions": [
                -0.27024794411873654,
                -1.3411424943063663,
                2.357177104322947,
                -0.983303976816688,
                1.0831140314408656,
                -3.110827414010622
            ]
        },
        {
            "positions": [
                -0.3357578581631846,
                -1.3747520264349062,
                2.421448667660011,
                -1.017109698303333,
                1.242035289936176,
                -3.0972167688962067
            ]
        }
    ]
}