{
    "goal": {
        "global_pose": {
            "orientation": {
                "w": 0.7047431468963623,
                "x": -0.7094548344612122,
                "y": 0.0024358443915843964,
                "z": -0.0022348060738295317
            },
            "position": {
                "x": 0.6094750761985779,
                "y": 0.3671506643295288,
                "z": 0.19426114857196808
            }
        },
        "name": "move_to_magneteinheit_A"
    },
    "id": "LBTRRT_move_to_magneteinheit_A_70",
    "joint_names": [
        "shoulder_pan_joint",
        "shoulder_lift_joint",
        "elbow_joint",
        "wrist_1_joint",
        "wrist_2_joint",
        "wrist_3_joint"
    ],
    "metrics": {
        "cart_traj_len": 3.2873625111381806,
        "distance_elbow_joint": 3.906016993288934,
        "distance_shoulder_lift_joint": 0.7146189802359642,
        "distance_shoulder_pan_joint": 2.738906475228949,
        "distance_wrist_1_joint": 0.7022020083710442,
        "distance_wrist_2_joint": 1.7026160754442805,
        "distance_wrist_3_joint": 3.584022789412465,
        "smoothness": 0.031270006926468835,
        "time": 5.035615807,
        "traj_len": 3.653543940064446,
        "weighted_distance": 4.7876139134877915
    },
    "planner": "LBTRRT",
    "start": {
        "state": {
            "elbow_joint": -1.919618573717145,
            "shoulder_lift_joint": -1.2443395971678275,
            "shoulder_pan_joint": 2.6996025300909787,
            "wrist_1_joint": -1.548550951253194,
            "wrist_2_joint": -1.5709469090946802,
            "wrist_3_joint": 0.4420197732051276
        }
    },
    "waypoints": [
        {
            "positions": [
                2.6996025300909787,
                -1.2443395971678275,
                -1.919618573717145,
                -1.548550951253194,
                -1.5709469090946802,
                0.4420197732051276
            ]
        },
        {
            "positions": [
                2.5973829130081683,
                -1.256188060048493,
                -1.7859871027344354,
                -1.5458311703060608,
                -1.5275552921775666,
                0.3508959896560956
            ]
        },
        {
            "positions": [
                2.495163295925358,
                -1.2680365229291586,
                -1.652355631751726,
                -1.5431113893589272,
                -1.484163675260453,
                0.2597722061070636
            ]
        },
        {
            "positions": [
                2.392943678842547,
                -1.279884985809824,
                -1.5187241607690165,
                -1.540391608411794,
                -1.4407720583433397,
                0.16864842255803159
            ]
        },
        {
            "positions": [
                2.2907240617597364,
                -1.2917334486904897,
                -1.385092689786307,
                -1.5376718274646606,
                -1.397380441426226,
                0.07752463900899959
            ]
        },
        {
            "positions": [
                2.188504444676926,
                -1.303581911571155,
                -1.2514612188035976,
                -1.534952046517527,
                -1.3539888245091125,
                -0.013599144540032415
            ]
        },
        {
            "positions": [
                2.0862848275941155,
                -1.3154303744518208,
                -1.1178297478208883,
                -1.5322322655703937,
                -1.310597207591999,
                -0.10472292808906442
            ]
        },
        {
            "positions": [
                1.984065210511305,
                -1.3272788373324862,
                -0.9841982768381788,
                -1.5295124846232604,
                -1.2672055906748856,
                -0.19584671163809636
            ]
        },
        {
            "positions": [
                1.8818455934284941,
                -1.3391273002131516,
                -0.8505668058554692,
                -1.5267927036761268,
                -1.223813973757772,
                -0.2869704951871284
            ]
        },
        {
            "positions": [
                1.7796259763456836,
                -1.3509757630938173,
                -0.7169353348727598,
                -1.5240729227289935,
                -1.1804223568406584,
                -0.37809427873616036
            ]
        },
        {
            "positions": [
                1.6774063592628732,
                -1.3628242259744827,
                -0.5833038638900503,
                -1.5213531417818602,
                -1.1370307399235449,
                -0.4692180622851924
            ]
        },
        {
            "positions": [
                1.5751867421800627,
                -1.3746726888551484,
                -0.44967239290734096,
                -1.5186333608347267,
                -1.0936391230064313,
                -0.5603418458342242
            ]
        },
        {
            "positions": [
                1.472967125097252,
                -1.3865211517358138,
                -0.3160409219246314,
                -1.5159135798875933,
                -1.0502475060893177,
                -0.6514656293832564
            ]
        },
        {
            "positions": [
                1.3707475080144416,
                -1.3983696146164792,
                -0.18240945094192207,
                -1.5131937989404598,
                -1.0068558891722044,
                -0.7425894129322883
            ]
        },
        {
            "positions": [
                1.268527890931631,
                -1.410218077497145,
                -0.048777979959212736,
                -1.5104740179933265,
                -0.9634642722550909,
                -0.8337131964813203
            ]
        },
        {
            "positions": [
                1.1663082738488206,
                -1.4220665403778103,
                0.0848534910234966,
                -1.5077542370461932,
                -0.9200726553379773,
                -0.9248369800303522
            ]
        },
        {
            "positions": [
                1.0640886567660097,
                -1.433915003258476,
                0.2184849620062066,
                -1.5050344560990596,
                -0.8766810384208638,
                -1.0159607635793844
            ]
        },
        {
            "positions": [
                0.9618690396831993,
                -1.4457634661391414,
                0.3521164329889157,
                -1.5023146751519263,
                -0.8332894215037503,
                -1.1070845471284163
            ]
        },
        {
            "positions": [
                0.8596494226003888,
                -1.457611929019807,
                0.48574790397162526,
                -1.499594894204793,
                -0.7898978045866367,
                -1.1982083306774483
            ]
        },
        {
            "positions": [
                0.7574298055175783,
                -1.4694603919004725,
                0.6193793749543344,
                -1.4968751132576594,
                -0.7465061876695233,
                -1.2893321142264802
            ]
        },
        {
            "positions": [
                0.6552101884347676,
                -1.4813088547811382,
                0.7530108459370444,
                -1.494155332310526,
                -0.7031145707524097,
                -1.3804558977755124
            ]
        },
        {
            "positions": [
                0.5529905713519572,
                -1.4931573176618036,
                0.8866423169197535,
                -1.4914355513633928,
                -0.6597229538352962,
                -1.4715796813245443
            ]
        },
        {
            "positions": [
                0.4507709542691467,
                -1.505005780542469,
                1.020273787902463,
                -1.4887157704162592,
                -0.6163313369181826,
                -1.562703464873576
            ]
        },
        {
            "positions": [
                0.34855133718633624,
                -1.5168542434231347,
                1.1539052588851721,
                -1.485995989469126,
                -0.5729397200010692,
                -1.653827248422608
            ]
        },
        {
            "positions": [
                0.24633172010352533,
                -1.5287027063038001,
                1.2875367298678821,
                -1.4832762085219926,
                -0.5295481030839555,
                -1.7449510319716404
            ]
        },
        {
            "positions": [
                0.14411210302071487,
                -1.5405511691844658,
                1.4211682008505913,
                -1.480556427574859,
                -0.48615648616684215,
                -1.8360748155206723
            ]
        },
        {
            "positions": [
                0.041892485937904456,
                -1.5523996320651312,
                1.5547996718333006,
                -1.4778366466277257,
                -0.4427648692497287,
                -1.9271985990697043
            ]
        },
        {
            "positions": [
                0.04356712266073983,
                -1.506714892005899,
                1.605109905001397,
                -1.3973530355445956,
                -0.3771953076307949,
                -2.071902634298038
            ]
        },
        {
            "positions": [
                0.045241759383575206,
                -1.461030151946667,
                1.6554201381694933,
                -1.3168694244614656,
                -0.3116257460118611,
                -2.2166066695263713
            ]
        },
        {
            "positions": [
                0.04691639610641058,
                -1.415345411887435,
                1.7057303713375898,
                -1.2363858133783354,
                -0.24605618439292734,
                -2.361310704754705
            ]
        },
        {
            "positions": [
                0.048591032829245956,
                -1.3696606718282027,
                1.7560406045056862,
                -1.1559022022952052,
                -0.18048662277399358,
                -2.506014739983039
            ]
        },
        {
            "positions": [
                0.05026566955208133,
                -1.3239759317689708,
                1.8063508376737825,
                -1.075418591212075,
                -0.11491706115505979,
                -2.6507187752113723
            ]
        },
        {
            "positions": [
                0.051940306274916706,
                -1.2782911917097386,
                1.856661070841879,
                -0.994934980128945,
                -0.049347499536125994,
                -2.795422810439706
            ]
        },
        {
            "positions": [
                0.07565650985453792,
                -1.2341410233819827,
                1.8999068537518489,
                -0.94540630104668,
                0.010991389092449497,
                -2.910949545695583
            ]
        },
        {
            "positions": [
                0.09937271343415914,
                -1.1899908550542266,
                1.9431526366618188,
                -0.8958776219644149,
                0.07133027772102499,
                -3.0264762809514605
            ]
        },
        {
            "positions": [
                0.12308891701378036,
                -1.1458406867264708,
                1.9863984195717888,
                -0.8463489428821499,
                0.1316691663496005,
                -3.1420030162073376
            ]
        }
    ]
}{
    "goal": {
        "global_pose": {
            "orientation": {
                "w": 0.7047431468963623,
                "x": -0.7094548344612122,
                "y": 0.0024358443915843964,
                "z": -0.0022348060738295317
            },
            "position": {
                "x": 0.6094750761985779,
                "y": 0.3671506643295288,
                "z": 0.19426114857196808
            }
        },
        "name": "move_to_magneteinheit_A"
    },
    "id": "LBTRRT_move_to_magneteinheit_A_70",
    "joint_names": [
        "shoulder_pan_joint",
        "shoulder_lift_joint",
        "elbow_joint",
        "wrist_1_joint",
        "wrist_2_joint",
        "wrist_3_joint"
    ],
    "metrics": {
        "cart_traj_len": 1.2478603387759941,
        "distance_elbow_joint": 0.6293249535782475,
        "distance_shoulder_lift_joint": 0.7597637954496883,
        "distance_shoulder_pan_joint": 1.2417289799531621,
        "distance_wrist_1_joint": 0.9509387240434248,
        "distance_wrist_2_joint": 1.431770235915459,
        "distance_wrist_3_joint": 4.327887852864331,
        "smoothness": 0.09207359799970563,
        "time": 5.035390174,
        "traj_len": 3.056372775334238,
        "weighted_distance": 4.514410172712695
    },
    "planner": "LBTRRT",
    "start": {
        "state": {
            "elbow_joint": 1.919643534880228,
            "shoulder_lift_joint": -1.8972525353963687,
            "shoulder_pan_joint": -1.1188672234189438,
            "wrist_1_joint": -1.5931878212786155,
            "wrist_2_joint": 1.5706036197970081,
            "wrist_3_joint": 1.118896926603594
        }
    },
    "waypoints": [
        {
            "positions": [
                -1.1188672234189438,
                -1.8972525353963687,
                1.919643534880228,
                -1.5931878212786155,
                1.5706036197970081,
                1.118896926603594
            ]
        },
        {
            "positions": [
                -1.099122689875957,
                -1.8924527504288104,
                1.8972626628854183,
                -1.5245281248836164,
                1.5285166422682297,
                0.8914327941139005
            ]
        },
        {
            "positions": [
                -1.0793781563329703,
                -1.8876529654612522,
                1.8748817908906084,
                -1.4558684284886176,
                1.4864296647394515,
                0.6639686616242071
            ]
        },
        {
            "positions": [
                -1.0596336227899834,
                -1.8828531804936939,
                1.8525009188957986,
                -1.3872087320936186,
                1.444342687210673,
                0.43650452913451376
            ]
        },
        {
            "positions": [
                -1.0398890892469965,
                -1.8780533955261356,
                1.8301200469009886,
                -1.3185490356986196,
                1.4022557096818948,
                0.20904039664482033
            ]
        },
        {
            "positions": [
                -1.0201445557040099,
                -1.8732536105585773,
                1.8077391749061789,
                -1.2498893393036208,
                1.3601687321531164,
                -0.018423735844873113
            ]
        },
        {
            "positions": [
                -1.000400022161023,
                -1.868453825591019,
                1.785358302911369,
                -1.1812296429086218,
                1.3180817546243382,
                -0.24588786833456644
            ]
        },
        {
            "positions": [
                -0.9806554886180362,
                -1.863654040623461,
                1.7629774309165591,
                -1.1125699465136227,
                1.2759947770955598,
                -0.47335200082425977
            ]
        },
        {
            "positions": [
                -0.9609109550750494,
                -1.8588542556559027,
                1.7405965589217494,
                -1.043910250118624,
                1.2339077995667815,
                -0.7008161333139533
            ]
        },
        {
            "positions": [
                -0.9411664215320625,
                -1.8540544706883444,
                1.7182156869269396,
                -0.9752505537236249,
                1.191820822038003,
                -0.9282802658036464
            ]
        },
        {
            "positions": [
                -0.9214218879890758,
                -1.849254685720786,
                1.6958348149321296,
                -0.9065908573286259,
                1.1497338445092247,
                -1.1557443982933402
            ]
        },
        {
            "positions": [
                -0.901677354446089,
                -1.8444549007532278,
                1.6734539429373199,
                -0.837931160933627,
                1.1076468669804465,
                -1.3832085307830335
            ]
        },
        {
            "positions": [
                -0.8819328209031021,
                -1.8396551157856695,
                1.6510730709425099,
                -0.7692714645386279,
                1.0655598894516682,
                -1.6106726632727268
            ]
        },
        {
            "positions": [
                -0.8621882873601153,
                -1.8348553308181113,
                1.6286921989477001,
                -0.700611768143629,
                1.0234729119228898,
                -1.83813679576242
            ]
        },
        {
            "positions": [
                -0.7726382833697214,
                -1.7714583680116176,
                1.6594534369154927,
                -0.7059174654989416,
                0.9430511366464043,
                -1.9627598985349943
            ]
        },
        {
            "positions": [
                -0.6830882793793274,
                -1.708061405205124,
                1.6902146748832856,
                -0.7112231628542541,
                0.8626293613699189,
                -2.0873830013075687
            ]
        },
        {
            "positions": [
                -0.5935382753889336,
                -1.64466444239863,
                1.7209759128510782,
                -0.7165288602095667,
                0.7822075860934334,
                -2.212006104080143
            ]
        },
        {
            "positions": [
                -0.5039882713985395,
                -1.5812674795921364,
                1.7517371508188708,
                -0.7218345575648794,
                0.7017858108169479,
                -2.3366292068527175
            ]
        },
        {
            "positions": [
                -0.4144382674081456,
                -1.5178705167856428,
                1.7824983887866634,
                -0.727140254920192,
                0.6213640355404624,
                -2.4612523096252916
            ]
        },
        {
            "positions": [
                -0.3248882634177517,
                -1.454473553979149,
                1.8132596267544563,
                -0.7324459522755045,
                0.540942260263977,
                -2.585875412397866
            ]
        },
        {
            "positions": [
                -0.23533825942735764,
                -1.3910765911726553,
                1.844020864722249,
                -0.7377516496308171,
                0.46052048498749143,
                -2.7104985151704404
            ]
        },
        {
            "positions": [
                -0.14578825543696372,
                -1.3276796283661616,
                1.8747821026900415,
                -0.7430573469861297,
                0.3800987097110059,
                -2.835121617943015
            ]
        },
        {
            "positions": [
                -0.05623825144656969,
                -1.264282665559668,
                1.9055433406578342,
                -0.7483630443414423,
                0.2996769344345205,
                -2.959744720715589
            ]
        },
        {
            "positions": [
                0.033311752543824125,
                -1.2008857027531743,
                1.936304578625627,
                -0.7536687416967548,
                0.21925515915803506,
                -3.0843678234881633
            ]
        },
        {
            "positions": [
                0.12286175653421812,
                -1.1374887399466804,
                1.9670658165934196,
                -0.7589744390520674,
                0.13883338388154956,
                -3.208990926260738
            ]
        }
    ]
}