{
    "goal": {
        "global_pose": {
            "orientation": {
                "w": 0.5084816217422485,
                "x": -0.49083608388900757,
                "y": 0.5182115435600281,
                "z": -0.4816462993621826
            },
            "position": {
                "x": 0.5540239810943604,
                "y": 0.030875300988554955,
                "z": 0.16403168439865112
            }
        },
        "name": "move_to_storage_A"
    },
    "id": "LBTRRT_move_to_storage_A_105",
    "joint_names": [
        "shoulder_pan_joint",
        "shoulder_lift_joint",
        "elbow_joint",
        "wrist_1_joint",
        "wrist_2_joint",
        "wrist_3_joint"
    ],
    "metrics": {
        "cart_traj_len": 0.35287435669562767,
        "distance_elbow_joint": 0.45134446005424866,
        "distance_shoulder_lift_joint": 0.2327521242680548,
        "distance_shoulder_pan_joint": 0.4581432313562368,
        "distance_wrist_1_joint": 0.2553854286490934,
        "distance_wrist_2_joint": 1.111546713022686,
        "distance_wrist_3_joint": 0.10750068486977193,
        "smoothness": 1.554312239749871e-15,
        "time": 5.005623099,
        "traj_len": 1.6176132548356827,
        "weighted_distance": 2.049050061279962
    },
    "planner": "LBTRRT",
    "start": {
        "state": {
            "elbow_joint": 1.9715477243005601,
            "shoulder_lift_joint": -1.1394853015351272,
            "shoulder_pan_joint": 0.12281154014795169,
            "wrist_1_joint": -0.7804696478968182,
            "wrist_2_joint": 0.12958648046900423,
            "wrist_3_joint": -3.192491284697111
        }
    },
    "waypoints": [
        {
            "positions": [
                0.12281154014795169,
                -1.1394853015351272,
                1.9715477243005601,
                -0.7804696478968182,
                0.12958648046900423,
                -3.192491284697111
            ]
        },
        {
            "positions": [
                0.05736250709706073,
                -1.1727356050019921,
                2.0360255043083098,
                -0.8169532805609744,
                0.28837886804367363,
                -3.1771340440014293
            ]
        },
        {
            "positions": [
                -0.008086525953830234,
                -1.2059859084688571,
                2.10050328431606,
                -0.8534369132251306,
                0.44717125561834303,
                -3.161776803305748
            ]
        },
        {
            "positions": [
                -0.07353555900472121,
                -1.239236211935722,
                2.1649810643238094,
                -0.8899205458892867,
                0.6059636431930124,
                -3.146419562610066
            ]
        },
        {
            "positions": [
                -0.13898459205561214,
                -1.272486515402587,
                2.2294588443315595,
                -0.9264041785534429,
                0.7647560307676818,
                -3.1310623219143845
            ]
        },
        {
            "positions": [
                -0.20443362510650315,
                -1.305736818869452,
                2.293936624339309,
                -0.9628878112175991,
                0.9235484183423514,
                -3.1157050812187026
            ]
        },
        {
            "positions": [
                -0.2698826581573941,
                -1.338987122336317,
                2.3584144043470587,
                -0.9993714438817554,
                1.0823408059170205,
                -3.100347840523021
            ]
        },
        {
            "positions": [
                -0.3353316912082851,
                -1.372237425803182,
                2.422892184354809,
                -1.0358550765459116,
                1.2411331934916903,
                -3.0849905998273393
            ]
        }
    ]
}