{
    "goal": {
        "global_pose": {
            "orientation": {
                "w": 0.7047431468963623,
                "x": -0.7094548344612122,
                "y": 0.0024358443915843964,
                "z": -0.0022348060738295317
            },
            "position": {
                "x": 0.6094750761985779,
                "y": 0.3671506643295288,
                "z": 0.19426114857196808
            }
        },
        "name": "move_to_magneteinheit_A"
    },
    "id": "LBTRRT_move_to_magneteinheit_A_135",
    "joint_names": [
        "shoulder_pan_joint",
        "shoulder_lift_joint",
        "elbow_joint",
        "wrist_1_joint",
        "wrist_2_joint",
        "wrist_3_joint"
    ],
    "metrics": {
        "cart_traj_len": 3.007795337481593,
        "distance_elbow_joint": 3.934666533847354,
        "distance_shoulder_lift_joint": 0.8500503490645309,
        "distance_shoulder_pan_joint": 2.6481411339634686,
        "distance_wrist_1_joint": 3.55207147655565,
        "distance_wrist_2_joint": 1.4489956494548442,
        "distance_wrist_3_joint": 1.397192802452791,
        "smoothness": 0.09162457051084578,
        "time": 5.041670954,
        "traj_len": 3.719021100415894,
        "weighted_distance": 4.650437686525294
    },
    "planner": "LBTRRT",
    "start": {
        "state": {
            "elbow_joint": -1.919618573717145,
            "shoulder_lift_joint": -1.2443395971678275,
            "shoulder_pan_joint": 2.6996025300909787,
            "wrist_1_joint": -1.548550951253194,
            "wrist_2_joint": -1.5709469090946802,
            "wrist_3_joint": 0.4420197732051276
        }
    },
    "waypoints": [
        {
            "positions": [
                2.6996025300909787,
                -1.2443395971678275,
                -1.919618573717145,
                -1.548550951253194,
                -1.5709469090946802,
                0.4420197732051276
            ]
        },
        {
            "positions": [
                2.5510111676035625,
                -1.2058666836477177,
                -1.891826969425733,
                -1.4569022794830644,
                -1.5070964099701922,
                0.4676805693705926
            ]
        },
        {
            "positions": [
                2.4024198051161467,
                -1.167393770127608,
                -1.8640353651343209,
                -1.3652536077129347,
                -1.4432459108457043,
                0.4933413655360576
            ]
        },
        {
            "positions": [
                2.2538284426287305,
                -1.1289208566074982,
                -1.836243760842909,
                -1.273604935942805,
                -1.3793954117212164,
                0.5190021617015226
            ]
        },
        {
            "positions": [
                2.1052370801413147,
                -1.0904479430873886,
                -1.8084521565514968,
                -1.1819562641726753,
                -1.3155449125967285,
                0.5446629578669876
            ]
        },
        {
            "positions": [
                1.9566457176538985,
                -1.0519750295672787,
                -1.780660552260085,
                -1.0903075924025458,
                -1.2516944134722405,
                0.5703237540324526
            ]
        },
        {
            "positions": [
                1.8080543551664823,
                -1.013502116047169,
                -1.7528689479686728,
                -0.998658920632416,
                -1.1878439143477526,
                0.5959845501979177
            ]
        },
        {
            "positions": [
                1.6594629926790663,
                -0.9750292025270593,
                -1.7250773436772608,
                -0.9070102488622864,
                -1.123993415223265,
                0.6216453463633826
            ]
        },
        {
            "positions": [
                1.5108716301916503,
                -0.9365562890069495,
                -1.697285739385849,
                -0.8153615770921567,
                -1.060142916098777,
                0.6473061425288477
            ]
        },
        {
            "positions": [
                1.362280267704234,
                -0.8980833754868398,
                -1.6694941350944368,
                -0.723712905322027,
                -0.996292416974289,
                0.6729669386943127
            ]
        },
        {
            "positions": [
                1.213688905216818,
                -0.85961046196673,
                -1.6417025308030249,
                -0.6320642335518973,
                -0.9324419178498011,
                0.6986277348597778
            ]
        },
        {
            "positions": [
                1.0650975427294018,
                -0.8211375484466203,
                -1.613910926511613,
                -0.5404155617817676,
                -0.8685914187253132,
                0.7242885310252427
            ]
        },
        {
            "positions": [
                0.9165061802419858,
                -0.7826646349265105,
                -1.5861193222202008,
                -0.44876689001163794,
                -0.8047409196008253,
                0.7499493271907078
            ]
        },
        {
            "positions": [
                0.76791481775457,
                -0.7441917214064009,
                -1.5583277179287889,
                -0.35711821824150847,
                -0.7408904204763376,
                0.7756101233561727
            ]
        },
        {
            "positions": [
                0.6193234552671538,
                -0.7057188078862912,
                -1.5305361136373767,
                -0.26546954647137877,
                -0.6770399213518496,
                0.8012709195216378
            ]
        },
        {
            "positions": [
                0.4707320927797376,
                -0.6672458943661813,
                -1.5027445093459648,
                -0.17382087470124907,
                -0.6131894222273617,
                0.8269317156871028
            ]
        },
        {
            "positions": [
                0.3221407302923218,
                -0.6287729808460716,
                -1.4749529050545527,
                -0.08217220293111938,
                -0.5493389231028738,
                0.8525925118525678
            ]
        },
        {
            "positions": [
                0.17354936780490568,
                -0.5903000673259619,
                -1.4471613007631408,
                0.009476468839010238,
                -0.4854884239783859,
                0.8782533080180328
            ]
        },
        {
            "positions": [
                0.16844316526872563,
                -0.5993081386838855,
                -1.2566204026740129,
                0.11683577810157236,
                -0.4641449894227478,
                0.8273145231704041
            ]
        },
        {
            "positions": [
                0.16333696273254558,
                -0.6083162100418092,
                -1.066079504584885,
                0.2241950873641345,
                -0.4428015548671097,
                0.7763757383227754
            ]
        },
        {
            "positions": [
                0.15823076019636553,
                -0.6173242813997329,
                -0.8755386064957571,
                0.3315543966266966,
                -0.4214581203114716,
                0.7254369534751466
            ]
        },
        {
            "positions": [
                0.1531245576601855,
                -0.6263323527576566,
                -0.6849977084066292,
                0.4389137058892587,
                -0.40011468575583353,
                0.674498168627518
            ]
        },
        {
            "positions": [
                0.14801835512400546,
                -0.6353404241155803,
                -0.4944568103175013,
                0.5462730151518209,
                -0.37877125120019545,
                0.6235593837798892
            ]
        },
        {
            "positions": [
                0.14291215258782541,
                -0.644348495473504,
                -0.30391591222837344,
                0.653632324414383,
                -0.35742781664455736,
                0.5726205989322605
            ]
        },
        {
            "positions": [
                0.13780595005164537,
                -0.6533565668314276,
                -0.11337501413924556,
                0.7609916336769451,
                -0.33608438208891933,
                0.5216818140846318
            ]
        },
        {
            "positions": [
                0.13269974751546532,
                -0.6623646381893513,
                0.07716588394988233,
                0.8683509429395072,
                -0.3147409475332812,
                0.47074302923700306
            ]
        },
        {
            "positions": [
                0.12759354497928527,
                -0.671372709547275,
                0.2677067820390102,
                0.9757102522020694,
                -0.29339751297764316,
                0.41980424438937436
            ]
        },
        {
            "positions": [
                0.12248734244310522,
                -0.6803807809051987,
                0.4582476801281381,
                1.0830695614646317,
                -0.272054078422005,
                0.36886545954174565
            ]
        },
        {
            "positions": [
                0.11738113990692517,
                -0.6893888522631224,
                0.648788578217266,
                1.1904288707271937,
                -0.250710643866367,
                0.31792667469411684
            ]
        },
        {
            "positions": [
                0.11227493737074512,
                -0.6983969236210461,
                0.8393294763063939,
                1.297788179989756,
                -0.22936720931072885,
                0.26698788984648814
            ]
        },
        {
            "positions": [
                0.10716873483456509,
                -0.7074049949789698,
                1.0298703743955218,
                1.405147489252318,
                -0.20802377475509082,
                0.21604910499885954
            ]
        },
        {
            "positions": [
                0.10206253229838505,
                -0.7164130663368935,
                1.2204112724846496,
                1.5125067985148801,
                -0.18668034019945273,
                0.16511032015123084
            ]
        },
        {
            "positions": [
                0.096956329762205,
                -0.7254211376948172,
                1.4109521705737775,
                1.619866107777442,
                -0.16533690564381465,
                0.11417153530360202
            ]
        },
        {
            "positions": [
                0.09185012722602495,
                -0.7344292090527409,
                1.6014930686629054,
                1.7272254170400043,
                -0.14399347108817656,
                0.06323275045597332
            ]
        },
        {
            "positions": [
                0.0867439246898449,
                -0.7434372804106646,
                1.792033966752033,
                1.8345847263025665,
                -0.12265003653253848,
                0.012293965608344573
            ]
        },
        {
            "positions": [
                0.10438518897101377,
                -0.7648740834796459,
                1.9035409634411213,
                1.9190526258025111,
                -0.12230064808618682,
                -0.035205997006754225
            ]
        },
        {
            "positions": [
                0.12202645325218264,
                -0.7863108865486271,
                2.0150479601302096,
                2.0035205253024557,
                -0.12195125963983518,
                -0.08270595962185302
            ]
        }
    ]
}{
    "goal": {
        "global_pose": {
            "orientation": {
                "w": 0.7047431468963623,
                "x": -0.7094548344612122,
                "y": 0.0024358443915843964,
                "z": -0.0022348060738295317
            },
            "position": {
                "x": 0.6094750761985779,
                "y": 0.3671506643295288,
                "z": 0.19426114857196808
            }
        },
        "name": "move_to_magneteinheit_A"
    },
    "id": "LBTRRT_move_to_magneteinheit_A_135",
    "joint_names": [
        "shoulder_pan_joint",
        "shoulder_lift_joint",
        "elbow_joint",
        "wrist_1_joint",
        "wrist_2_joint",
        "wrist_3_joint"
    ],
    "metrics": {
        "cart_traj_len": 1.2141475917364013,
        "distance_elbow_joint": 0.06641232955939591,
        "distance_shoulder_lift_joint": 0.7829981955863525,
        "distance_shoulder_pan_joint": 1.241503398459098,
        "distance_wrist_1_joint": 0.8067091497291125,
        "distance_wrist_2_joint": 1.4758806985868391,
        "distance_wrist_3_joint": 4.315037104911861,
        "smoothness": 0.7539877797799809,
        "time": 5.0464982119999995,
        "traj_len": 2.947633097390627,
        "weighted_distance": 4.427324805678067
    },
    "planner": "LBTRRT",
    "start": {
        "state": {
            "elbow_joint": 1.919643534880228,
            "shoulder_lift_joint": -1.8972525353963687,
            "shoulder_pan_joint": -1.1188672234189438,
            "wrist_1_joint": -1.5931878212786155,
            "wrist_2_joint": 1.5706036197970081,
            "wrist_3_joint": 1.118896926603594
        }
    },
    "waypoints": [
        {
            "positions": [
                -1.1188672234189438,
                -1.8972525353963687,
                1.919643534880228,
                -1.5931878212786155,
                1.5706036197970081,
                1.118896926603594
            ]
        },
        {
            "positions": [
                -1.0641096972313422,
                -1.8624250372210969,
                1.9222871523942548,
                -1.5579171932579647,
                1.504375318562153,
                0.9241871712575255
            ]
        },
        {
            "positions": [
                -1.0093521710437405,
                -1.8275975390458252,
                1.9249307699082816,
                -1.522646565237314,
                1.4381470173272979,
                0.729477415911457
            ]
        },
        {
            "positions": [
                -0.9545946448561388,
                -1.7927700408705534,
                1.9275743874223084,
                -1.4873759372166635,
                1.3719187160924426,
                0.5347676605653886
            ]
        },
        {
            "positions": [
                -0.8998371186685371,
                -1.7579425426952817,
                1.9302180049363349,
                -1.4521053091960128,
                1.3056904148575876,
                0.3400579052193201
            ]
        },
        {
            "positions": [
                -0.8450795924809353,
                -1.7231150445200099,
                1.9328616224503616,
                -1.416834681175362,
                1.2394621136227324,
                0.14534814987325173
            ]
        },
        {
            "positions": [
                -0.7903220662933337,
                -1.6882875463447382,
                1.9355052399643884,
                -1.3815640531547113,
                1.1732338123878774,
                -0.04936160547281676
            ]
        },
        {
            "positions": [
                -0.735564540105732,
                -1.6534600481694663,
                1.9381488574784151,
                -1.3462934251340606,
                1.1070055111530221,
                -0.24407136081888514
            ]
        },
        {
            "positions": [
                -0.6808070139181304,
                -1.6186325499941945,
                1.940792474992442,
                -1.3110227971134099,
                1.0407772099181671,
                -0.43878111616495374
            ]
        },
        {
            "positions": [
                -0.6260494877305287,
                -1.5838050518189228,
                1.9434360925064686,
                -1.2757521690927591,
                0.9745489086833119,
                -0.6334908715110223
            ]
        },
        {
            "positions": [
                -0.5712919615429269,
                -1.548977553643651,
                1.9460797100204954,
                -1.2404815410721086,
                0.9083206074484568,
                -0.8282006268570905
            ]
        },
        {
            "positions": [
                -0.5165344353553253,
                -1.514150055468379,
                1.948723327534522,
                -1.2052109130514579,
                0.8420923062136016,
                -1.022910382203159
            ]
        },
        {
            "positions": [
                -0.4617769091677236,
                -1.4793225572931075,
                1.9513669450485487,
                -1.1699402850308072,
                0.7758640049787465,
                -1.2176201375492275
            ]
        },
        {
            "positions": [
                -0.40701938298012186,
                -1.4444950591178356,
                1.9540105625625754,
                -1.1346696570101564,
                0.7096357037438913,
                -1.4123298928952963
            ]
        },
        {
            "positions": [
                -0.3522618567925202,
                -1.409667560942564,
                1.9566541800766022,
                -1.0993990289895057,
                0.6434074025090363,
                -1.6070396482413642
            ]
        },
        {
            "positions": [
                -0.29750433060491854,
                -1.374840062767292,
                1.959297797590629,
                -1.0641284009688552,
                0.5771791012741811,
                -1.8017494035874326
            ]
        },
        {
            "positions": [
                -0.24274680441731677,
                -1.3400125645920204,
                1.9619414151046557,
                -1.0288577729482045,
                0.5109508000393259,
                -1.9964591589335015
            ]
        },
        {
            "positions": [
                -0.18798927822971523,
                -1.3051850664167486,
                1.9645850326186824,
                -0.9935871449275537,
                0.4447224988044709,
                -2.1911689142795696
            ]
        },
        {
            "positions": [
                -0.13323175204211346,
                -1.2703575682414767,
                1.9672286501327092,
                -0.9583165169069029,
                0.37849419756961566,
                -2.3858786696256384
            ]
        },
        {
            "positions": [
                -0.07847422585451169,
                -1.235530070066205,
                1.9698722676467357,
                -0.9230458888862523,
                0.31226589633476065,
                -2.5805884249717073
            ]
        },
        {
            "positions": [
                -0.023716699666910035,
                -1.2007025718909334,
                1.9725158851607625,
                -0.8877752608656017,
                0.24603759509990542,
                -2.775298180317775
            ]
        },
        {
            "positions": [
                0.031040826520691622,
                -1.1658750737156613,
                1.9751595026747892,
                -0.8525046328449508,
                0.17980929386505018,
                -2.970007935663844
            ]
        },
        {
            "positions": [
                0.0857983527082932,
                -1.1310475755403897,
                1.977803120188816,
                -0.8172340048243002,
                0.11358099263019522,
                -3.164717691009912
            ]
        },
        {
            "positions": [
                0.12263617504015403,
                -1.1478408112707632,
                1.986055864439624,
                -0.8479893380990974,
                0.13243906405022146,
                -3.1332952037115573
            ]
        }
    ]
}