{
    "goal": {
        "global_pose": {
            "orientation": {
                "w": 0.7047431468963623,
                "x": -0.7094548344612122,
                "y": 0.0024358443915843964,
                "z": -0.0022348060738295317
            },
            "position": {
                "x": 0.6094750761985779,
                "y": 0.3671506643295288,
                "z": 0.19426114857196808
            }
        },
        "name": "move_to_magneteinheit_A"
    },
    "id": "LBTRRT_move_to_magneteinheit_A_107",
    "joint_names": [
        "shoulder_pan_joint",
        "shoulder_lift_joint",
        "elbow_joint",
        "wrist_1_joint",
        "wrist_2_joint",
        "wrist_3_joint"
    ],
    "metrics": {
        "cart_traj_len": 3.3013461293188113,
        "distance_elbow_joint": 3.9384663680599776,
        "distance_shoulder_lift_joint": 0.6098771355278716,
        "distance_shoulder_pan_joint": 2.6809648909395905,
        "distance_wrist_1_joint": 3.5553476830795674,
        "distance_wrist_2_joint": 2.069808584786135,
        "distance_wrist_3_joint": 0.8646255018290118,
        "smoothness": 0.12821944915716657,
        "time": 5.048825411,
        "traj_len": 3.703929017168411,
        "weighted_distance": 4.590587918311323
    },
    "planner": "LBTRRT",
    "start": {
        "state": {
            "elbow_joint": -1.919618573717145,
            "shoulder_lift_joint": -1.2443395971678275,
            "shoulder_pan_joint": 2.6996025300909787,
            "wrist_1_joint": -1.548550951253194,
            "wrist_2_joint": -1.5709469090946802,
            "wrist_3_joint": 0.4420197732051276
        }
    },
    "waypoints": [
        {
            "positions": [
                2.6996025300909787,
                -1.2443395971678275,
                -1.919618573717145,
                -1.548550951253194,
                -1.5709469090946802,
                0.4420197732051276
            ]
        },
        {
            "positions": [
                2.59968646591417,
                -1.2287156788513438,
                -1.8355999144003503,
                -1.4373206758193897,
                -1.503446129045778,
                0.44831648607692887
            ]
        },
        {
            "positions": [
                2.499770401737362,
                -1.21309176053486,
                -1.7515812550835554,
                -1.3260904003855853,
                -1.4359453489968754,
                0.45461319894873015
            ]
        },
        {
            "positions": [
                2.399854337560553,
                -1.1974678422183762,
                -1.6675625957667608,
                -1.2148601249517812,
                -1.3684445689479732,
                0.4609099118205314
            ]
        },
        {
            "positions": [
                2.299938273383745,
                -1.1818439239018925,
                -1.5835439364499662,
                -1.1036298495179766,
                -1.300943788899071,
                0.46720662469233276
            ]
        },
        {
            "positions": [
                2.2000222092069364,
                -1.1662200055854088,
                -1.4995252771331715,
                -0.9923995740841723,
                -1.2334430088501684,
                0.47350333756413404
            ]
        },
        {
            "positions": [
                2.1001061450301277,
                -1.150596087268925,
                -1.4155066178163769,
                -0.8811692986503681,
                -1.1659422288012662,
                0.4798000504359353
            ]
        },
        {
            "positions": [
                2.0001900808533195,
                -1.1349721689524412,
                -1.331487958499582,
                -0.7699390232165637,
                -1.098441448752364,
                0.4860967633077366
            ]
        },
        {
            "positions": [
                1.9002740166765109,
                -1.1193482506359576,
                -1.2474692991827874,
                -0.6587087477827593,
                -1.0309406687034617,
                0.4923934761795379
            ]
        },
        {
            "positions": [
                1.8003579524997024,
                -1.1037243323194739,
                -1.1634506398659927,
                -0.547478472348955,
                -0.9634398886545593,
                0.49869018905133916
            ]
        },
        {
            "positions": [
                1.700441888322894,
                -1.08810041400299,
                -1.0794319805491979,
                -0.4362481969151506,
                -0.895939108605657,
                0.5049869019231404
            ]
        },
        {
            "positions": [
                1.6005258241460856,
                -1.0724764956865063,
                -0.9954133212324033,
                -0.32501792148134645,
                -0.8284383285567547,
                0.5112836147949418
            ]
        },
        {
            "positions": [
                1.500609759969277,
                -1.0568525773700226,
                -0.9113946619156086,
                -0.21378764604754208,
                -0.7609375485078523,
                0.517580327666743
            ]
        },
        {
            "positions": [
                1.4006936957924685,
                -1.0412286590535387,
                -0.8273760025988139,
                -0.10255737061373771,
                -0.6934367684589501,
                0.5238770405385443
            ]
        },
        {
            "positions": [
                1.30077763161566,
                -1.025604740737055,
                -0.7433573432820193,
                0.008672904820066663,
                -0.6259359884100478,
                0.5301737534103456
            ]
        },
        {
            "positions": [
                1.2008615674388516,
                -1.0099808224205713,
                -0.6593386839652247,
                0.11990318025387081,
                -0.5584352083611455,
                0.5364704662821469
            ]
        },
        {
            "positions": [
                1.100945503262043,
                -0.9943569041040875,
                -0.5753200246484298,
                0.2311334556876754,
                -0.490934428312243,
                0.5427671791539481
            ]
        },
        {
            "positions": [
                1.0010294390852346,
                -0.9787329857876038,
                -0.49130136533163515,
                0.34236373112147955,
                -0.42343364826334073,
                0.5490638920257495
            ]
        },
        {
            "positions": [
                0.9011133749084261,
                -0.96310906747112,
                -0.4072827060148405,
                0.45359400655528415,
                -0.3559328682144385,
                0.5553606048975508
            ]
        },
        {
            "positions": [
                0.8011973107316177,
                -0.9474851491546363,
                -0.32326404669804587,
                0.5648242819890883,
                -0.2884320881655362,
                0.561657317769352
            ]
        },
        {
            "positions": [
                0.7012812465548091,
                -0.9318612308381525,
                -0.239245387381251,
                0.6760545574228929,
                -0.22093130811663375,
                0.5679540306411534
            ]
        },
        {
            "positions": [
                0.6013651823780006,
                -0.9162373125216687,
                -0.15522672806445637,
                0.787284832856697,
                -0.1534305280677315,
                0.5742507435129546
            ]
        },
        {
            "positions": [
                0.5014491182011924,
                -0.900613394205185,
                -0.07120806874766172,
                0.8985151082905012,
                -0.08592974801882924,
                0.5805474563847559
            ]
        },
        {
            "positions": [
                0.4015330540243838,
                -0.8849894758887014,
                0.012810590569132918,
                1.0097453837243058,
                -0.01842896796992699,
                0.5868441692565571
            ]
        },
        {
            "positions": [
                0.3016169898475751,
                -0.8693655575722176,
                0.09682924988592778,
                1.12097565915811,
                0.049071812078975485,
                0.5931408821283585
            ]
        },
        {
            "positions": [
                0.20170092567076647,
                -0.8537416392557338,
                0.18084790920272265,
                1.2322059345919145,
                0.11657259212787774,
                0.5994375950001598
            ]
        },
        {
            "positions": [
                0.10178486149395821,
                -0.8381177209392501,
                0.26486656851951695,
                1.3434362100257187,
                0.18407337217678005,
                0.605734307871961
            ]
        },
        {
            "positions": [
                0.09786338001940109,
                -0.8223060136685534,
                0.43992915715505243,
                1.406244705270435,
                0.15741003658355995,
                0.5410197523655859
            ]
        },
        {
            "positions": [
                0.09394189854484396,
                -0.8064943063978568,
                0.6149917457905879,
                1.469053200515151,
                0.13074670099033986,
                0.4763051968592107
            ]
        },
        {
            "positions": [
                0.09002041707028682,
                -0.7906825991271602,
                0.7900543344261234,
                1.5318616957598674,
                0.10408336539711978,
                0.4115906413528356
            ]
        },
        {
            "positions": [
                0.0860989355957297,
                -0.7748708918564635,
                0.9651169230616589,
                1.5946701910045835,
                0.07742002980389968,
                0.3468760858464604
            ]
        },
        {
            "positions": [
                0.08217745412117258,
                -0.7590591845857668,
                1.1401795116971942,
                1.6574786862492998,
                0.050756694210679604,
                0.28216153034008523
            ]
        },
        {
            "positions": [
                0.07825597264661545,
                -0.7432474773150702,
                1.3152421003327297,
                1.7202871814940162,
                0.02409335861745951,
                0.21744697483371012
            ]
        },
        {
            "positions": [
                0.07433449117205831,
                -0.7274357700443737,
                1.4903046889682652,
                1.7830956767387325,
                -0.002569976975760585,
                0.15273241932733495
            ]
        },
        {
            "positions": [
                0.0704130096975012,
                -0.711624062773677,
                1.6653672776038007,
                1.8459041719834486,
                -0.029233312568980676,
                0.08801786382095979
            ]
        },
        {
            "positions": [
                0.0876714665462052,
                -0.7373445964849173,
                1.7831941165168113,
                1.8995350252644236,
                -0.0630605188252855,
                0.026953022783900805
            ]
        },
        {
            "positions": [
                0.1049299233949092,
                -0.7630651301961576,
                1.9010209554298219,
                1.9531658785453987,
                -0.09688772508159033,
                -0.03411181825315818
            ]
        },
        {
            "positions": [
                0.1221883802436132,
                -0.788785663907398,
                2.0188477943428325,
                2.0067967318263737,
                -0.13071493133789516,
                -0.09517665929021718
            ]
        }
    ]
}{
    "goal": {
        "global_pose": {
            "orientation": {
                "w": 0.7047431468963623,
                "x": -0.7094548344612122,
                "y": 0.0024358443915843964,
                "z": -0.0022348060738295317
            },
            "position": {
                "x": 0.6094750761985779,
                "y": 0.3671506643295288,
                "z": 0.19426114857196808
            }
        },
        "name": "move_to_magneteinheit_A"
    },
    "id": "LBTRRT_move_to_magneteinheit_A_107",
    "joint_names": [
        "shoulder_pan_joint",
        "shoulder_lift_joint",
        "elbow_joint",
        "wrist_1_joint",
        "wrist_2_joint",
        "wrist_3_joint"
    ],
    "metrics": {
        "cart_traj_len": 1.4143768319985366,
        "distance_elbow_joint": 0.9666756748634988,
        "distance_shoulder_lift_joint": 0.7549456395452985,
        "distance_shoulder_pan_joint": 1.4696451950629694,
        "distance_wrist_1_joint": 0.9568275200597464,
        "distance_wrist_2_joint": 1.4461054215364146,
        "distance_wrist_3_joint": 4.275665572454086,
        "smoothness": 0.14140673665869355,
        "time": 5.0275590150000005,
        "traj_len": 3.141634132664403,
        "weighted_distance": 4.563346262341522
    },
    "planner": "LBTRRT",
    "start": {
        "state": {
            "elbow_joint": 1.919643534880228,
            "shoulder_lift_joint": -1.8972525353963687,
            "shoulder_pan_joint": -1.1188672234189438,
            "wrist_1_joint": -1.5931878212786155,
            "wrist_2_joint": 1.5706036197970081,
            "wrist_3_joint": 1.118896926603594
        }
    },
    "waypoints": [
        {
            "positions": [
                -1.1188672234189438,
                -1.8972525353963687,
                1.919643534880228,
                -1.5931878212786155,
                1.5706036197970081,
                1.118896926603594
            ]
        },
        {
            "positions": [
                -1.1315488350132863,
                -1.8861219290082178,
                1.9765353597490185,
                -1.4968619936041219,
                1.528460183111688,
                0.9459202231570184
            ]
        },
        {
            "positions": [
                -1.1442304466076287,
                -1.8749913226200672,
                2.0334271846178087,
                -1.4005361659296285,
                1.4863167464263678,
                0.7729435197104428
            ]
        },
        {
            "positions": [
                -1.1569120582019714,
                -1.8638607162319163,
                2.090319009486599,
                -1.3042103382551349,
                1.4441733097410476,
                0.5999668162638672
            ]
        },
        {
            "positions": [
                -1.1695936697963139,
                -1.8527301098437654,
                2.1472108343553895,
                -1.2078845105806413,
                1.4020298730557275,
                0.4269901128172916
            ]
        },
        {
            "positions": [
                -1.1822752813906563,
                -1.8415995034556147,
                2.20410265922418,
                -1.1115586829061477,
                1.3598864363704073,
                0.2540134093707159
            ]
        },
        {
            "positions": [
                -1.1949568929849987,
                -1.8304688970674639,
                2.2609944840929703,
                -1.015232855231654,
                1.3177429996850871,
                0.08103670592414036
            ]
        },
        {
            "positions": [
                -1.2076385045793414,
                -1.819338290679313,
                2.3178863089617607,
                -0.9189070275571606,
                1.275599562999767,
                -0.09193999752243531
            ]
        },
        {
            "positions": [
                -1.2203201161736839,
                -1.8082076842911623,
                2.374778133830551,
                -0.8225811998826671,
                1.2334561263144468,
                -0.26491670096901077
            ]
        },
        {
            "positions": [
                -1.2330017277680263,
                -1.7970770779030114,
                2.4316699586993415,
                -0.7262553722081735,
                1.1913126896291266,
                -0.4378934044155864
            ]
        },
        {
            "positions": [
                -1.1532658047848565,
                -1.7585611848411324,
                2.4049258851084954,
                -0.7315433175604855,
                1.128558896019213,
                -0.5978272421470514
            ]
        },
        {
            "positions": [
                -1.0735298818016867,
                -1.7200452917792537,
                2.378181811517649,
                -0.7368312629127975,
                1.0658051024092992,
                -0.7577610798785164
            ]
        },
        {
            "positions": [
                -0.9937939588185168,
                -1.6815293987173747,
                2.351437737926803,
                -0.7421192082651096,
                1.0030513087993853,
                -0.9176949176099815
            ]
        },
        {
            "positions": [
                -0.9140580358353471,
                -1.6430135056554958,
                2.324693664335957,
                -0.7474071536174216,
                0.9402975151894717,
                -1.0776287553414463
            ]
        },
        {
            "positions": [
                -0.8343221128521772,
                -1.604497612593617,
                2.2979495907451106,
                -0.7526950989697336,
                0.877543721579558,
                -1.2375625930729115
            ]
        },
        {
            "positions": [
                -0.7545861898690074,
                -1.565981719531738,
                2.2712055171542644,
                -0.7579830443220457,
                0.8147899279696442,
                -1.3974964308043765
            ]
        },
        {
            "positions": [
                -0.6748502668858377,
                -1.527465826469859,
                2.2444614435634183,
                -0.7632709896743577,
                0.7520361343597306,
                -1.5574302685358414
            ]
        },
        {
            "positions": [
                -0.5951143439026678,
                -1.4889499334079803,
                2.217717369972572,
                -0.7685589350266697,
                0.6892823407498169,
                -1.7173641062673064
            ]
        },
        {
            "positions": [
                -0.515378420919498,
                -1.4504340403461013,
                2.190973296381726,
                -0.7738468803789817,
                0.626528547139903,
                -1.8772979439987716
            ]
        },
        {
            "positions": [
                -0.43564249793632814,
                -1.4119181472842226,
                2.1642292227908797,
                -0.7791348257312937,
                0.5637747535299893,
                -2.0372317817302363
            ]
        },
        {
            "positions": [
                -0.35590657495315836,
                -1.3734022542223436,
                2.1374851492000335,
                -0.7844227710836057,
                0.5010209599200756,
                -2.1971656194617015
            ]
        },
        {
            "positions": [
                -0.2761706519699886,
                -1.3348863611604647,
                2.1107410756091873,
                -0.7897107164359177,
                0.4382671663101618,
                -2.3570994571931667
            ]
        },
        {
            "positions": [
                -0.1964347289868189,
                -1.2963704680985857,
                2.083997002018341,
                -0.7949986617882298,
                0.3755133727002482,
                -2.517033294924631
            ]
        },
        {
            "positions": [
                -0.11669880600364912,
                -1.257854575036707,
                2.057252928427495,
                -0.8002866071405418,
                0.31275957909033447,
                -2.676967132656096
            ]
        },
        {
            "positions": [
                -0.03696288302047912,
                -1.2193386819748282,
                2.030508854836649,
                -0.8055745524928538,
                0.25000578548042074,
                -2.8369009703875614
            ]
        },
        {
            "positions": [
                0.04277303996269066,
                -1.1808227889129492,
                2.0037647812458026,
                -0.8108624978451658,
                0.18725199187050712,
                -2.996834808119026
            ]
        },
        {
            "positions": [
                0.1225089629458605,
                -1.1423068958510703,
                1.9770207076549562,
                -0.8161504431974779,
                0.12449819826059327,
                -3.1567686458504913
            ]
        }
    ]
}