{
    "goal": {
        "global_pose": {
            "orientation": {
                "w": 0.5084816217422485,
                "x": -0.49083608388900757,
                "y": 0.5182115435600281,
                "z": -0.4816462993621826
            },
            "position": {
                "x": 0.5540239810943604,
                "y": 0.030875300988554955,
                "z": 0.16403168439865112
            }
        },
        "name": "move_to_storage_A"
    },
    "id": "LBTRRT_move_to_storage_A_134",
    "joint_names": [
        "shoulder_pan_joint",
        "shoulder_lift_joint",
        "elbow_joint",
        "wrist_1_joint",
        "wrist_2_joint",
        "wrist_3_joint"
    ],
    "metrics": {
        "cart_traj_len": 0.35253770356193304,
        "distance_elbow_joint": 0.4518753430434854,
        "distance_shoulder_lift_joint": 0.23394197483342083,
        "distance_shoulder_pan_joint": 0.45670057634865285,
        "distance_wrist_1_joint": 0.254845660943107,
        "distance_wrist_2_joint": 1.1159691339699305,
        "distance_wrist_3_joint": 0.10978045811725012,
        "smoothness": 0.0,
        "time": 5.003503158999999,
        "traj_len": 1.6196027745270898,
        "weighted_distance": 2.0526784595750462
    },
    "planner": "LBTRRT",
    "start": {
        "state": {
            "elbow_joint": 1.9715477243005601,
            "shoulder_lift_joint": -1.1394853015351272,
            "shoulder_pan_joint": 0.12281154014795169,
            "wrist_1_joint": -0.7804696478968182,
            "wrist_2_joint": 0.12958648046900423,
            "wrist_3_joint": -3.192491284697111
        }
    },
    "waypoints": [
        {
            "positions": [
                0.12281154014795169,
                -1.1394853015351272,
                1.9715477243005601,
                -0.7804696478968182,
                0.12958648046900423,
                -3.192491284697111
            ]
        },
        {
            "positions": [
                0.057568600669572714,
                -1.1729055836541873,
                2.0361013447353438,
                -0.8168761708886906,
                0.28901064246470853,
                -3.1768083621089325
            ]
        },
        {
            "positions": [
                -0.007674338808806261,
                -1.2063258657732474,
                2.1006549651701274,
                -0.853282693880563,
                0.4484348044604129,
                -3.161125439520754
            ]
        },
        {
            "positions": [
                -0.07291727828718524,
                -1.2397461478923075,
                2.165208585604911,
                -0.8896892168724354,
                0.6078589664561173,
                -3.1454425169325755
            ]
        },
        {
            "positions": [
                -0.1381602177655642,
                -1.2731664300113676,
                2.2297622060396947,
                -0.9260957398643079,
                0.7672831284518216,
                -3.1297595943443968
            ]
        },
        {
            "positions": [
                -0.2034031572439432,
                -1.3065867121304278,
                2.2943158264744783,
                -0.9625022628561803,
                0.926707290447526,
                -3.114076671756218
            ]
        },
        {
            "positions": [
                -0.26864609672232215,
                -1.3400069942494879,
                2.358869446909262,
                -0.9989087858480528,
                1.0861314524432304,
                -3.09839374916804
            ]
        },
        {
            "positions": [
                -0.33388903620070115,
                -1.373427276368548,
                2.4234230673440456,
                -1.0353153088399252,
                1.2455556144389348,
                -3.082710826579861
            ]
        }
    ]
}