{
    "goal": {
        "global_pose": {
            "orientation": {
                "w": 0.5084816217422485,
                "x": -0.49083608388900757,
                "y": 0.5182115435600281,
                "z": -0.4816462993621826
            },
            "position": {
                "x": 0.5540239810943604,
                "y": 0.030875300988554955,
                "z": 0.16403168439865112
            }
        },
        "name": "move_to_storage_A"
    },
    "id": "LBTRRT_move_to_storage_A_79",
    "joint_names": [
        "shoulder_pan_joint",
        "shoulder_lift_joint",
        "elbow_joint",
        "wrist_1_joint",
        "wrist_2_joint",
        "wrist_3_joint"
    ],
    "metrics": {
        "cart_traj_len": 0.35353010536160845,
        "distance_elbow_joint": 0.4503207944053593,
        "distance_shoulder_lift_joint": 0.23337028673371663,
        "distance_shoulder_pan_joint": 0.46122989184359536,
        "distance_wrist_1_joint": 0.2453758698486158,
        "distance_wrist_2_joint": 1.1038255350059307,
        "distance_wrist_3_joint": 0.10311129835521049,
        "smoothness": 2.2204460668324854e-16,
        "time": 5.002561172,
        "traj_len": 1.6115935207714223,
        "weighted_distance": 2.037807075696175
    },
    "planner": "LBTRRT",
    "start": {
        "state": {
            "elbow_joint": 1.9715477243005601,
            "shoulder_lift_joint": -1.1394853015351272,
            "shoulder_pan_joint": 0.12281154014795169,
            "wrist_1_joint": -0.7804696478968182,
            "wrist_2_joint": 0.12958648046900423,
            "wrist_3_joint": -3.192491284697111
        }
    },
    "waypoints": [
        {
            "positions": [
                0.12281154014795169,
                -1.1394853015351272,
                1.9715477243005601,
                -0.7804696478968182,
                0.12958648046900423,
                -3.192491284697111
            ]
        },
        {
            "positions": [
                0.056921555598866636,
                -1.1728239139256582,
                2.0358792663584686,
                -0.8155233435894775,
                0.2872758426127086,
                -3.1777610992177956
            ]
        },
        {
            "positions": [
                -0.008968428950218418,
                -1.206162526316189,
                2.100210808416377,
                -0.850577039282137,
                0.444965204756413,
                -3.1630309137384796
            ]
        },
        {
            "positions": [
                -0.07485841349930346,
                -1.23950113870672,
                2.1645423504742856,
                -0.8856307349747964,
                0.6026545669001173,
                -3.148300728259164
            ]
        },
        {
            "positions": [
                -0.1407483980483885,
                -1.272839751097251,
                2.228873892532194,
                -0.9206844306674558,
                0.7603439290438218,
                -3.133570542779848
            ]
        },
        {
            "positions": [
                -0.20663838259747358,
                -1.306178363487782,
                2.2932054345901025,
                -0.9557381263601152,
                0.9180332911875262,
                -3.1188403573005323
            ]
        },
        {
            "positions": [
                -0.2725283671465586,
                -1.3395169758783128,
                2.357536976648011,
                -0.9907918220527745,
                1.0757226533312305,
                -3.1041101718212163
            ]
        },
        {
            "positions": [
                -0.33841835169564366,
                -1.3728555882688438,
                2.4218685187059195,
                -1.025845517745434,
                1.233412015474935,
                -3.0893799863419007
            ]
        }
    ]
}