{
    "goal": {
        "global_pose": {
            "orientation": {
                "w": 0.5084816217422485,
                "x": -0.49083608388900757,
                "y": 0.5182115435600281,
                "z": -0.4816462993621826
            },
            "position": {
                "x": 0.5540239810943604,
                "y": 0.030875300988554955,
                "z": 0.16403168439865112
            }
        },
        "name": "move_to_storage_A"
    },
    "id": "LBTRRT_move_to_storage_A_120",
    "joint_names": [
        "shoulder_pan_joint",
        "shoulder_lift_joint",
        "elbow_joint",
        "wrist_1_joint",
        "wrist_2_joint",
        "wrist_3_joint"
    ],
    "metrics": {
        "cart_traj_len": 0.3532891624216082,
        "distance_elbow_joint": 0.45338289335194304,
        "distance_shoulder_lift_joint": 0.23441143112638363,
        "distance_shoulder_pan_joint": 0.46135672605735134,
        "distance_wrist_1_joint": 0.2549122828955587,
        "distance_wrist_2_joint": 1.1024691657490937,
        "distance_wrist_3_joint": 0.0975702542546415,
        "smoothness": 1.998401446083499e-15,
        "time": 5.004094384999999,
        "traj_len": 1.6137232580076957,
        "weighted_distance": 2.038780201637466
    },
    "planner": "LBTRRT",
    "start": {
        "state": {
            "elbow_joint": 1.9715477243005601,
            "shoulder_lift_joint": -1.1394853015351272,
            "shoulder_pan_joint": 0.12281154014795169,
            "wrist_1_joint": -0.7804696478968182,
            "wrist_2_joint": 0.12958648046900423,
            "wrist_3_joint": -3.192491284697111
        }
    },
    "waypoints": [
        {
            "positions": [
                0.12281154014795169,
                -1.1394853015351272,
                1.9715477243005601,
                -0.7804696478968182,
                0.12958648046900423,
                -3.192491284697111
            ]
        },
        {
            "positions": [
                0.056903436425472936,
                -1.1729726488388963,
                2.0363167090651233,
                -0.8168856883104694,
                0.2870820755760176,
                -3.178552676946448
            ]
        },
        {
            "positions": [
                -0.009004667297005817,
                -1.2064599961426654,
                2.101085693829687,
                -0.8533017287241207,
                0.444577670683031,
                -3.164614069195785
            ]
        },
        {
            "positions": [
                -0.07491277101948458,
                -1.2399473434464345,
                2.16585467859425,
                -0.8897177691377719,
                0.6020732657900444,
                -3.150675461445122
            ]
        },
        {
            "positions": [
                -0.1408208747419633,
                -1.2734346907502034,
                2.2306236633588132,
                -0.9261338095514231,
                0.7595688608970578,
                -3.136736853694459
            ]
        },
        {
            "positions": [
                -0.2067289784644421,
                -1.3069220380539726,
                2.295392648123377,
                -0.9625498499650744,
                0.9170644560040712,
                -3.122798245943796
            ]
        },
        {
            "positions": [
                -0.27263708218692084,
                -1.3404093853577417,
                2.36016163288794,
                -0.9989658903787255,
                1.0745600511110847,
                -3.108859638193133
            ]
        },
        {
            "positions": [
                -0.33854518590939964,
                -1.3738967326615108,
                2.424930617652503,
                -1.0353819307923768,
                1.232055646218098,
                -3.0949210304424697
            ]
        }
    ]
}