{
    "goal": {
        "global_pose": {
            "orientation": {
                "w": 0.7047431468963623,
                "x": -0.7094548344612122,
                "y": 0.0024358443915843964,
                "z": -0.0022348060738295317
            },
            "position": {
                "x": 0.6094750761985779,
                "y": 0.3671506643295288,
                "z": 0.19426114857196808
            }
        },
        "name": "move_to_magneteinheit_A"
    },
    "id": "LBTRRT_move_to_magneteinheit_A_10",
    "joint_names": [
        "shoulder_pan_joint",
        "shoulder_lift_joint",
        "elbow_joint",
        "wrist_1_joint",
        "wrist_2_joint",
        "wrist_3_joint"
    ],
    "metrics": {
        "cart_traj_len": 3.722627354636564,
        "distance_elbow_joint": 3.9343068034090853,
        "distance_shoulder_lift_joint": 0.4582814825148923,
        "distance_shoulder_pan_joint": 4.345134715212308,
        "distance_wrist_1_joint": 3.552963237451813,
        "distance_wrist_2_joint": 1.4474238775845045,
        "distance_wrist_3_joint": 0.528267125317289,
        "smoothness": 0.13171699574782395,
        "time": 5.031303379000001,
        "traj_len": 3.777085813360598,
        "weighted_distance": 4.508136933053474
    },
    "planner": "LBTRRT",
    "start": {
        "state": {
            "elbow_joint": -1.919618573717145,
            "shoulder_lift_joint": -1.2443395971678275,
            "shoulder_pan_joint": 2.6996025300909787,
            "wrist_1_joint": -1.548550951253194,
            "wrist_2_joint": -1.5709469090946802,
            "wrist_3_joint": 0.4420197732051276
        }
    },
    "waypoints": [
        {
            "positions": [
                2.6996025300909787,
                -1.2443395971678275,
                -1.919618573717145,
                -1.548550951253194,
                -1.5709469090946802,
                0.4420197732051276
            ]
        },
        {
            "positions": [
                2.542259020946117,
                -1.2259864004443815,
                -1.8386886076708227,
                -1.464784908802623,
                -1.5515476855046781,
                0.4208886803166817
            ]
        },
        {
            "positions": [
                2.3849155118012555,
                -1.2076332037209352,
                -1.7577586416245004,
                -1.3810188663520517,
                -1.5321484619146761,
                0.3997575874282358
            ]
        },
        {
            "positions": [
                2.2275720026563937,
                -1.1892800069974891,
                -1.676828675578178,
                -1.2972528239014807,
                -1.5127492383246743,
                0.37862649453978997
            ]
        },
        {
            "positions": [
                2.0702284935115323,
                -1.1709268102740429,
                -1.5958987095318555,
                -1.2134867814509094,
                -1.4933500147346723,
                0.3574954016513441
            ]
        },
        {
            "positions": [
                1.9128849843666704,
                -1.1525736135505968,
                -1.5149687434855332,
                -1.1297207390003383,
                -1.4739507911446703,
                0.3363643087628982
            ]
        },
        {
            "positions": [
                1.7555414752218086,
                -1.1342204168271506,
                -1.434038777439211,
                -1.0459546965497672,
                -1.4545515675546683,
                0.3152332158744523
            ]
        },
        {
            "positions": [
                1.598197966076947,
                -1.1158672201037045,
                -1.3531088113928886,
                -0.962188654099196,
                -1.4351523439646663,
                0.29410212298600646
            ]
        },
        {
            "positions": [
                1.4408544569320854,
                -1.0975140233802585,
                -1.2721788453465663,
                -0.8784226116486248,
                -1.4157531203746643,
                0.2729710300975605
            ]
        },
        {
            "positions": [
                1.2835109477872235,
                -1.0791608266568122,
                -1.191248879300244,
                -0.7946565691980536,
                -1.3963538967846625,
                0.2518399372091147
            ]
        },
        {
            "positions": [
                1.1261674386423621,
                -1.0608076299333662,
                -1.1103189132539217,
                -0.7108905267474825,
                -1.3769546731946605,
                0.2307088443206688
            ]
        },
        {
            "positions": [
                0.9688239294975003,
                -1.04245443320992,
                -1.0293889472075994,
                -0.6271244842969114,
                -1.3575554496046585,
                0.2095777514322229
            ]
        },
        {
            "positions": [
                0.8114804203526387,
                -1.0241012364864739,
                -0.9484589811612771,
                -0.5433584418463402,
                -1.3381562260146564,
                0.18844665854377707
            ]
        },
        {
            "positions": [
                0.6541369112077766,
                -1.0057480397630276,
                -0.8675290151149548,
                -0.4595923993957689,
                -1.3187570024246544,
                0.16731556565533112
            ]
        },
        {
            "positions": [
                0.4967934020629152,
                -0.9873948430395816,
                -0.7865990490686325,
                -0.37582635694519784,
                -1.2993577788346524,
                0.1461844727668853
            ]
        },
        {
            "positions": [
                0.33944989291805383,
                -0.9690416463161354,
                -0.7056690830223102,
                -0.29206031449462677,
                -1.2799585552446506,
                0.1250533798784394
            ]
        },
        {
            "positions": [
                0.182106383773192,
                -0.9506884495926893,
                -0.6247391169759877,
                -0.20829427204405548,
                -1.2605593316546486,
                0.1039222869899935
            ]
        },
        {
            "positions": [
                0.024762874628330156,
                -0.9323352528692432,
                -0.5438091509296656,
                -0.12452822959348442,
                -1.2411601080646466,
                0.08279119410154762
            ]
        },
        {
            "positions": [
                -0.13258063451653168,
                -0.913982056145797,
                -0.4628791848833431,
                -0.04076218714291313,
                -1.2217608844746446,
                0.061660101213101726
            ]
        },
        {
            "positions": [
                -0.2899241436613931,
                -0.8956288594223509,
                -0.3819492188370208,
                0.043003855307657934,
                -1.2023616608846428,
                0.040529008324655835
            ]
        },
        {
            "positions": [
                -0.44726765280625447,
                -0.8772756626989048,
                -0.3010192527906985,
                0.126769897758229,
                -1.1829624372946408,
                0.01939791543621
            ]
        },
        {
            "positions": [
                -0.6046111619511167,
                -0.8589224659754586,
                -0.22008928674437622,
                0.2105359402088003,
                -1.1635632137046388,
                -0.0017331774522359455
            ]
        },
        {
            "positions": [
                -0.761954671095978,
                -0.8405692692520125,
                -0.13915932069805387,
                0.29430198265937135,
                -1.1441639901146368,
                -0.022864270340681767
            ]
        },
        {
            "positions": [
                -0.7030495034942881,
                -0.8369351922787407,
                0.004430515994612388,
                0.4083093362286546,
                -1.0761212595410061,
                -0.027089809125447086
            ]
        },
        {
            "positions": [
                -0.644144335892598,
                -0.8333011153054688,
                0.14802035268727864,
                0.5223166897979379,
                -1.0080785289673753,
                -0.031315347910212406
            ]
        },
        {
            "positions": [
                -0.585239168290908,
                -0.829667038332197,
                0.29161018937994493,
                0.6363240433672211,
                -0.9400357983937446,
                -0.03554088669497772
            ]
        },
        {
            "positions": [
                -0.5263340006892181,
                -0.8260329613589252,
                0.43520002607261116,
                0.7503313969365044,
                -0.8719930678201139,
                -0.039766425479743045
            ]
        },
        {
            "positions": [
                -0.46742883308752803,
                -0.8223988843856533,
                0.5787898627652774,
                0.8643387505057876,
                -0.8039503372464831,
                -0.043991964264508354
            ]
        },
        {
            "positions": [
                -0.408523665485838,
                -0.8187648074123816,
                0.7223796994579437,
                0.9783461040750709,
                -0.7359076066728524,
                -0.04821750304927368
            ]
        },
        {
            "positions": [
                -0.349618497884148,
                -0.8151307304391098,
                0.8659695361506099,
                1.092353457644354,
                -0.6678648760992216,
                -0.052443041834039
            ]
        },
        {
            "positions": [
                -0.29071333028245805,
                -0.8114966534658379,
                1.0095593728432761,
                1.2063608112136373,
                -0.599822145525591,
                -0.056668580618804316
            ]
        },
        {
            "positions": [
                -0.2318081626807681,
                -0.8078625764925661,
                1.1531492095359424,
                1.3203681647829206,
                -0.5317794149519602,
                -0.06089411940356963
            ]
        },
        {
            "positions": [
                -0.17290299507907803,
                -0.8042284995192943,
                1.2967390462286086,
                1.4343755183522038,
                -0.4637366843783295,
                -0.06511965818833496
            ]
        },
        {
            "positions": [
                -0.11399782747738807,
                -0.8005944225460224,
                1.4403288829212748,
                1.5483828719214872,
                -0.39569395380469885,
                -0.06934519697310026
            ]
        },
        {
            "positions": [
                -0.055092659875698,
                -0.7969603455727506,
                1.5839187196139413,
                1.6623902254907705,
                -0.327651223231068,
                -0.07357073575786559
            ]
        },
        {
            "positions": [
                0.0038125077259919538,
                -0.7933262685994789,
                1.7275085563066075,
                1.7763975790600537,
                -0.25960849265743724,
                -0.07779627454263091
            ]
        },
        {
            "positions": [
                0.06271767532768202,
                -0.789692191626207,
                1.8710983929992737,
                1.890404932629337,
                -0.1915657620838066,
                -0.08202181332739622
            ]
        },
        {
            "positions": [
                0.12162284292937199,
                -0.7860581146529352,
                2.01468822969194,
                2.00441228619862,
                -0.12352303151017581,
                -0.08624735211216154
            ]
        }
    ]
}{
    "goal": {
        "global_pose": {
            "orientation": {
                "w": 0.7047431468963623,
                "x": -0.7094548344612122,
                "y": 0.0024358443915843964,
                "z": -0.0022348060738295317
            },
            "position": {
                "x": 0.6094750761985779,
                "y": 0.3671506643295288,
                "z": 0.19426114857196808
            }
        },
        "name": "move_to_magneteinheit_A"
    },
    "id": "LBTRRT_move_to_magneteinheit_A_10",
    "joint_names": [
        "shoulder_pan_joint",
        "shoulder_lift_joint",
        "elbow_joint",
        "wrist_1_joint",
        "wrist_2_joint",
        "wrist_3_joint"
    ],
    "metrics": {
        "cart_traj_len": 1.3452886520921412,
        "distance_elbow_joint": 0.07115906979666176,
        "distance_shoulder_lift_joint": 0.7623355167391113,
        "distance_shoulder_pan_joint": 1.380291502059582,
        "distance_wrist_1_joint": 1.1077956102873472,
        "distance_wrist_2_joint": 1.4369821624317258,
        "distance_wrist_3_joint": 4.340217461362384,
        "smoothness": 0.18694229609134805,
        "time": 5.024993386,
        "traj_len": 3.016418625237023,
        "weighted_distance": 4.5082140608139545
    },
    "planner": "LBTRRT",
    "start": {
        "state": {
            "elbow_joint": 1.919643534880228,
            "shoulder_lift_joint": -1.8972525353963687,
            "shoulder_pan_joint": -1.1188672234189438,
            "wrist_1_joint": -1.5931878212786155,
            "wrist_2_joint": 1.5706036197970081,
            "wrist_3_joint": 1.118896926603594
        }
    },
    "waypoints": [
        {
            "positions": [
                -1.1188672234189438,
                -1.8972525353963687,
                1.919643534880228,
                -1.5931878212786155,
                1.5706036197970081,
                1.118896926603594
            ]
        },
        {
            "positions": [
                -1.1360712817529268,
                -1.850306866858305,
                1.934058745908095,
                -1.6253978833148663,
                1.4807407253247198,
                0.9999219751299007
            ]
        },
        {
            "positions": [
                -1.15327534008691,
                -1.8033611983202413,
                1.948473956935962,
                -1.657607945351117,
                1.3908778308524312,
                0.8809470236562075
            ]
        },
        {
            "positions": [
                -1.170479398420893,
                -1.7564155297821775,
                1.9628891679638287,
                -1.6898180073873679,
                1.3010149363801427,
                0.7619720721825143
            ]
        },
        {
            "positions": [
                -1.187683456754876,
                -1.7094698612441137,
                1.9773043789916955,
                -1.7220280694236187,
                1.2111520419078543,
                0.642997120708821
            ]
        },
        {
            "positions": [
                -1.1221096933186934,
                -1.680742219114771,
                1.9766294677074359,
                -1.6730803013165017,
                1.1572755126807257,
                0.44978123793544045
            ]
        },
        {
            "positions": [
                -1.056535929882511,
                -1.6520145769854282,
                1.9759545564231762,
                -1.6241325332093843,
                1.103398983453597,
                0.25656535516205986
            ]
        },
        {
            "positions": [
                -0.9909621664463285,
                -1.6232869348560852,
                1.9752796451389163,
                -1.5751847651022672,
                1.0495224542264685,
                0.06334947238867938
            ]
        },
        {
            "positions": [
                -0.925388403010146,
                -1.5945592927267425,
                1.9746047338546566,
                -1.52623699699515,
                0.9956459249993399,
                -0.12986641038470126
            ]
        },
        {
            "positions": [
                -0.8598146395739634,
                -1.5658316505973997,
                1.973929822570397,
                -1.4772892288880328,
                0.9417693957722113,
                -0.3230822931580818
            ]
        },
        {
            "positions": [
                -0.794240876137781,
                -1.5371040084680567,
                1.9732549112861373,
                -1.4283414607809155,
                0.8878928665450827,
                -0.5162981759314622
            ]
        },
        {
            "positions": [
                -0.7286671127015985,
                -1.508376366338714,
                1.9725800000018776,
                -1.3793936926737984,
                0.8340163373179542,
                -0.7095140587048427
            ]
        },
        {
            "positions": [
                -0.663093349265416,
                -1.4796487242093712,
                1.9719050887176177,
                -1.330445924566681,
                0.7801398080908255,
                -0.9027299414782235
            ]
        },
        {
            "positions": [
                -0.5975195858292335,
                -1.4509210820800285,
                1.971230177433358,
                -1.281498156459564,
                0.726263278863697,
                -1.095945824251604
            ]
        },
        {
            "positions": [
                -0.531945822393051,
                -1.4221934399506857,
                1.9705552661490984,
                -1.2325503883524467,
                0.6723867496365684,
                -1.2891617070249846
            ]
        },
        {
            "positions": [
                -0.4663720589568684,
                -1.3934657978213427,
                1.9698803548648387,
                -1.1836026202453294,
                0.6185102204094398,
                -1.4823775897983653
            ]
        },
        {
            "positions": [
                -0.400798295520686,
                -1.364738155692,
                1.969205443580579,
                -1.1346548521382123,
                0.5646336911823112,
                -1.6755934725717454
            ]
        },
        {
            "positions": [
                -0.3352245320845034,
                -1.3360105135626572,
                1.9685305322963191,
                -1.0857070840310952,
                0.5107571619551826,
                -1.8688093553451264
            ]
        },
        {
            "positions": [
                -0.26965076864832105,
                -1.3072828714333142,
                1.9678556210120595,
                -1.036759315923978,
                0.4568806327280541,
                -2.0620252381185065
            ]
        },
        {
            "positions": [
                -0.20407700521213856,
                -1.2785552293039715,
                1.9671807097277998,
                -0.9878115478168608,
                0.4030041035009255,
                -2.2552411208918874
            ]
        },
        {
            "positions": [
                -0.13850324177595597,
                -1.2498275871746287,
                1.9665057984435401,
                -0.9388637797097434,
                0.3491275742737968,
                -2.448457003665268
            ]
        },
        {
            "positions": [
                -0.07292947833977359,
                -1.221099945045286,
                1.9658308871592804,
                -0.8899160116026263,
                0.2952510450466683,
                -2.6416728864386485
            ]
        },
        {
            "positions": [
                -0.007355714903590993,
                -1.1923723029159432,
                1.9651559758750206,
                -0.8409682434955091,
                0.24137451581953973,
                -2.834888769212029
            ]
        },
        {
            "positions": [
                0.05821804853259138,
                -1.1636446607866002,
                1.9644810645907609,
                -0.7920204753883919,
                0.18749798659241113,
                -3.0281046519854096
            ]
        },
        {
            "positions": [
                0.12379181196877394,
                -1.1349170186572575,
                1.9638061533065012,
                -0.7430727072812747,
                0.1336214573652825,
                -3.22132053475879
            ]
        }
    ]
}