{
    "goal": {
        "global_pose": {
            "orientation": {
                "w": 0.5084816217422485,
                "x": -0.49083608388900757,
                "y": 0.5182115435600281,
                "z": -0.4816462993621826
            },
            "position": {
                "x": 0.5540239810943604,
                "y": 0.030875300988554955,
                "z": 0.16403168439865112
            }
        },
        "name": "move_to_storage_A"
    },
    "id": "LBTRRT_move_to_storage_A_119",
    "joint_names": [
        "shoulder_pan_joint",
        "shoulder_lift_joint",
        "elbow_joint",
        "wrist_1_joint",
        "wrist_2_joint",
        "wrist_3_joint"
    ],
    "metrics": {
        "cart_traj_len": 0.35354938145865944,
        "distance_elbow_joint": 0.4511040501079937,
        "distance_shoulder_lift_joint": 0.23353500578063469,
        "distance_shoulder_pan_joint": 0.46325062539520023,
        "distance_wrist_1_joint": 0.25036200177268475,
        "distance_wrist_2_joint": 1.0952024950559252,
        "distance_wrist_3_joint": 0.10043177806299486,
        "smoothness": 9.992007271825419e-16,
        "time": 5.003599206,
        "traj_len": 1.6105545492703541,
        "weighted_distance": 2.0347761570084395
    },
    "planner": "LBTRRT",
    "start": {
        "state": {
            "elbow_joint": 1.9715477243005601,
            "shoulder_lift_joint": -1.1394853015351272,
            "shoulder_pan_joint": 0.12281154014795169,
            "wrist_1_joint": -0.7804696478968182,
            "wrist_2_joint": 0.12958648046900423,
            "wrist_3_joint": -3.192491284697111
        }
    },
    "waypoints": [
        {
            "positions": [
                0.12281154014795169,
                -1.1394853015351272,
                1.9715477243005601,
                -0.7804696478968182,
                0.12958648046900423,
                -3.192491284697111
            ]
        },
        {
            "positions": [
                0.0566328793772088,
                -1.172847445218075,
                2.0359911600302736,
                -0.8162356481500589,
                0.2860439797627078,
                -3.178143887830969
            ]
        },
        {
            "positions": [
                -0.009545781393534084,
                -1.2062095889010227,
                2.100434595759987,
                -0.8520016484032995,
                0.4425014790564114,
                -3.163796490964827
            ]
        },
        {
            "positions": [
                -0.07572444216427697,
                -1.2395717325839706,
                2.1648780314897005,
                -0.8877676486565402,
                0.598958978350115,
                -3.149449094098685
            ]
        },
        {
            "positions": [
                -0.14190310293501984,
                -1.2729338762669185,
                2.2293214672194135,
                -0.9235336489097808,
                0.7554164776438186,
                -3.1351016972325425
            ]
        },
        {
            "positions": [
                -0.20808176370576276,
                -1.3062960199498663,
                2.293764902949127,
                -0.9592996491630216,
                0.9118739769375223,
                -3.1207543003664004
            ]
        },
        {
            "positions": [
                -0.2742604244765056,
                -1.339658163632814,
                2.3582083386788404,
                -0.9950656494162622,
                1.0683314762312257,
                -3.1064069035002584
            ]
        },
        {
            "positions": [
                -0.34043908524724853,
                -1.3730203073157619,
                2.422651774408554,
                -1.030831649669503,
                1.2247889755249293,
                -3.0920595066341163
            ]
        }
    ]
}