{
    "goal": {
        "global_pose": {
            "orientation": {
                "w": 0.7047431468963623,
                "x": -0.7094548344612122,
                "y": 0.0024358443915843964,
                "z": -0.0022348060738295317
            },
            "position": {
                "x": 0.6094750761985779,
                "y": 0.3671506643295288,
                "z": 0.19426114857196808
            }
        },
        "name": "move_to_magneteinheit_A"
    },
    "id": "PRM_move_to_magneteinheit_A_57",
    "joint_names": [
        "shoulder_pan_joint",
        "shoulder_lift_joint",
        "elbow_joint",
        "wrist_1_joint",
        "wrist_2_joint",
        "wrist_3_joint"
    ],
    "metrics": {
        "cart_traj_len": 3.653197980562155,
        "distance_elbow_joint": 3.876026120543167,
        "distance_shoulder_lift_joint": 0.4934182787808241,
        "distance_shoulder_pan_joint": 2.9734995625931426,
        "distance_wrist_1_joint": 2.1691347554252243,
        "distance_wrist_2_joint": 2.100182465235573,
        "distance_wrist_3_joint": 2.578366846612719,
        "smoothness": 0.2790831131515452,
        "time": 0.20547379500000001,
        "traj_len": 3.767044999623797,
        "weighted_distance": 4.859699470448444
    },
    "planner": "PRM",
    "start": {
        "state": {
            "elbow_joint": -1.919618573717145,
            "shoulder_lift_joint": -1.2443395971678275,
            "shoulder_pan_joint": 2.6996025300909787,
            "wrist_1_joint": -1.548550951253194,
            "wrist_2_joint": -1.5709469090946802,
            "wrist_3_joint": 0.4420197732051276
        }
    },
    "waypoints": [
        {
            "positions": [
                2.6996025300909787,
                -1.2443395971678275,
                -1.919618573717145,
                -1.548550951253194,
                -1.5709469090946802,
                0.4420197732051276
            ]
        },
        {
            "positions": [
                2.588600843927026,
                -1.2321929511362224,
                -1.8293345570887216,
                -1.4884148376148063,
                -1.4962143928419378,
                0.48883758283052414
            ]
        },
        {
            "positions": [
                2.4775991577630734,
                -1.2200463051046173,
                -1.7390505404602983,
                -1.4282787239764185,
                -1.4214818765891952,
                0.5356553924559206
            ]
        },
        {
            "positions": [
                2.3665974715991207,
                -1.207899659073012,
                -1.648766523831875,
                -1.3681426103380308,
                -1.3467493603364529,
                0.5824732020813173
            ]
        },
        {
            "positions": [
                2.255595785435168,
                -1.195753013041407,
                -1.5584825072034514,
                -1.308006496699643,
                -1.2720168440837103,
                0.6292910117067138
            ]
        },
        {
            "positions": [
                2.144594099271215,
                -1.1836063670098018,
                -1.468198490575028,
                -1.2478703830612552,
                -1.197284327830968,
                0.6761088213321103
            ]
        },
        {
            "positions": [
                2.0335924131072627,
                -1.1714597209781967,
                -1.3779144739466047,
                -1.1877342694228674,
                -1.1225518115782256,
                0.7229266309575069
            ]
        },
        {
            "positions": [
                1.9225907269433096,
                -1.1593130749465914,
                -1.2876304573181814,
                -1.1275981557844794,
                -1.047819295325483,
                0.7697444405829035
            ]
        },
        {
            "positions": [
                1.811589040779357,
                -1.1471664289149863,
                -1.197346440689758,
                -1.0674620421460919,
                -0.9730867790727405,
                0.8165622502082999
            ]
        },
        {
            "positions": [
                1.7005873546154042,
                -1.1350197828833812,
                -1.1070624240613347,
                -1.0073259285077039,
                -0.8983542628199982,
                0.8633800598336965
            ]
        },
        {
            "positions": [
                1.5895856684514515,
                -1.1228731368517761,
                -1.0167784074329114,
                -0.9471898148693162,
                -0.8236217465672557,
                0.9101978694590931
            ]
        },
        {
            "positions": [
                1.4785839822874989,
                -1.1107264908201708,
                -0.9264943908044879,
                -0.8870537012309284,
                -0.7488892303145133,
                0.9570156790844895
            ]
        },
        {
            "positions": [
                1.3675822961235462,
                -1.0985798447885657,
                -0.8362103741760647,
                -0.8269175875925406,
                -0.6741567140617709,
                1.003833488709886
            ]
        },
        {
            "positions": [
                1.2565806099595935,
                -1.0864331987569606,
                -0.7459263575476411,
                -0.7667814739541529,
                -0.5994241978090283,
                1.0506512983352827
            ]
        },
        {
            "positions": [
                1.1455789237956406,
                -1.0742865527253556,
                -0.6556423409192178,
                -0.706645360315765,
                -0.5246916815562859,
                1.0974691079606793
            ]
        },
        {
            "positions": [
                1.0345772376316882,
                -1.0621399066937502,
                -0.5653583242907945,
                -0.6465092466773773,
                -0.4499591653035435,
                1.1442869175860757
            ]
        },
        {
            "positions": [
                0.9235755514677353,
                -1.0499932606621452,
                -0.47507430766237113,
                -0.5863731330389895,
                -0.37522664905080094,
                1.1911047272114723
            ]
        },
        {
            "positions": [
                0.8125738653037826,
                -1.03784661463054,
                -0.3847902910339476,
                -0.5262370194006016,
                -0.3004941327980586,
                1.237922536836869
            ]
        },
        {
            "positions": [
                0.7015721791398299,
                -1.025699968598935,
                -0.29450627440552446,
                -0.46610090576221386,
                -0.22576161654531623,
                1.2847403464622653
            ]
        },
        {
            "positions": [
                0.590570492975877,
                -1.0135533225673297,
                -0.20422225777710112,
                -0.4059647921238261,
                -0.15102910029257366,
                1.331558156087662
            ]
        },
        {
            "positions": [
                0.4795688068119244,
                -1.0014066765357246,
                -0.11393824114867757,
                -0.3458286784854383,
                -0.0762965840398313,
                1.3783759657130585
            ]
        },
        {
            "positions": [
                0.36856712064797215,
                -0.9892600305041195,
                -0.023654224520254452,
                -0.2856925648470505,
                -0.0015640677870889519,
                1.425193775338455
            ]
        },
        {
            "positions": [
                0.25756543448401903,
                -0.9771133844725144,
                0.0666297921081691,
                -0.22555645120866274,
                0.07316844846565362,
                1.4720115849638515
            ]
        },
        {
            "positions": [
                0.14656374832006636,
                -0.9649667384409092,
                0.15691380873659244,
                -0.16542033757027497,
                0.1479009647183962,
                1.5188293945892481
            ]
        },
        {
            "positions": [
                0.03556206215611368,
                -0.952820092409304,
                0.24719782536501556,
                -0.10528422393188719,
                0.22263348097113833,
                1.5656472042146445
            ]
        },
        {
            "positions": [
                -0.07543962400783916,
                -0.9406734463776989,
                0.3374818419934392,
                -0.04514811029349951,
                0.2973659972238809,
                1.6124650138400412
            ]
        },
        {
            "positions": [
                -0.05952104211155481,
                -0.9584054445754457,
                0.48978668833021,
                -0.09848665261191775,
                0.27710764257784654,
                1.7461566866056497
            ]
        },
        {
            "positions": [
                -0.043602460215270464,
                -0.9761374427731926,
                0.6420915346669808,
                -0.15182519493033597,
                0.2568492879318121,
                1.8798483593712585
            ]
        },
        {
            "positions": [
                -0.027683878318986124,
                -0.9938694409709393,
                0.7943963810037514,
                -0.2051637372487542,
                0.23659093328577774,
                2.0135400321368673
            ]
        },
        {
            "positions": [
                -0.011765296422701771,
                -1.0116014391686863,
                0.9467012273405223,
                -0.2585022795671725,
                0.2163325786397433,
                2.1472317049024756
            ]
        },
        {
            "positions": [
                0.004153285473582569,
                -1.0293334373664331,
                1.0990060736772929,
                -0.3118408218855907,
                0.19607422399370894,
                2.2809233776680844
            ]
        },
        {
            "positions": [
                0.020071867369866908,
                -1.0470654355641797,
                1.2513109200140637,
                -0.3651793642040089,
                0.17581586934767457,
                2.414615050433693
            ]
        },
        {
            "positions": [
                0.03599044926615125,
                -1.0647974337619266,
                1.4036157663508342,
                -0.41851790652242715,
                0.15555751470164017,
                2.5483067231993015
            ]
        },
        {
            "positions": [
                0.051909031162435615,
                -1.0825294319596734,
                1.5559206126876055,
                -0.47185644884084543,
                0.13529916005560574,
                2.6819983959649107
            ]
        },
        {
            "positions": [
                0.06782761305871995,
                -1.1002614301574203,
                1.708225459024376,
                -0.5251949911592636,
                0.11504080540957137,
                2.815690068730519
            ]
        },
        {
            "positions": [
                0.0837461949550043,
                -1.1179934283551671,
                1.8605303053611468,
                -0.5785335334776819,
                0.09478245076353697,
                2.949381741496128
            ]
        },
        {
            "positions": [
                0.12301778448648718,
                -1.1304255743683944,
                1.9564075468260218,
                -0.7108800247590287,
                0.12406846322020439,
                3.0203866198178466
            ]
        }
    ]
}{
    "goal": {
        "global_pose": {
            "orientation": {
                "w": 0.7047431468963623,
                "x": -0.7094548344612122,
                "y": 0.0024358443915843964,
                "z": -0.0022348060738295317
            },
            "position": {
                "x": 0.6094750761985779,
                "y": 0.3671506643295288,
                "z": 0.19426114857196808
            }
        },
        "name": "move_to_magneteinheit_A"
    },
    "id": "PRM_move_to_magneteinheit_A_57",
    "joint_names": [
        "shoulder_pan_joint",
        "shoulder_lift_joint",
        "elbow_joint",
        "wrist_1_joint",
        "wrist_2_joint",
        "wrist_3_joint"
    ],
    "metrics": {
        "cart_traj_len": 2.5570729244475086,
        "distance_elbow_joint": 4.159386309189201,
        "distance_shoulder_lift_joint": 0.8354012163142477,
        "distance_shoulder_pan_joint": 1.7710819758718956,
        "distance_wrist_1_joint": 0.7510476901405545,
        "distance_wrist_2_joint": 1.438648032991411,
        "distance_wrist_3_joint": 4.254287349543839,
        "smoothness": 0.3474232990482434,
        "time": 0.22585903300000001,
        "traj_len": 3.6345360878729966,
        "weighted_distance": 4.889593336492392
    },
    "planner": "PRM",
    "start": {
        "state": {
            "elbow_joint": 1.919643534880228,
            "shoulder_lift_joint": -1.8972525353963687,
            "shoulder_pan_joint": -1.1188672234189438,
            "wrist_1_joint": -1.5931878212786155,
            "wrist_2_joint": 1.5706036197970081,
            "wrist_3_joint": 1.118896926603594
        }
    },
    "waypoints": [
        {
            "positions": [
                -1.1188672234189438,
                -1.8972525353963687,
                1.919643534880228,
                -1.5931878212786155,
                1.5706036197970081,
                1.118896926603594
            ]
        },
        {
            "positions": [
                -1.134431069049087,
                -1.8505829962063942,
                1.7991929627060164,
                -1.5864830775676968,
                1.5096265538246054,
                0.9753018962296276
            ]
        },
        {
            "positions": [
                -1.1499949146792303,
                -1.8039134570164197,
                1.6787423905318044,
                -1.579778333856778,
                1.448649487852203,
                0.8317068658556612
            ]
        },
        {
            "positions": [
                -1.1655587603093736,
                -1.7572439178264452,
                1.5582918183575925,
                -1.5730735901458592,
                1.3876724218798002,
                0.6881118354816949
            ]
        },
        {
            "positions": [
                -1.1811226059395168,
                -1.7105743786364707,
                1.4378412461833807,
                -1.5663688464349403,
                1.3266953559073975,
                0.5445168051077286
            ]
        },
        {
            "positions": [
                -1.1966864515696602,
                -1.6639048394464961,
                1.317390674009169,
                -1.5596641027240217,
                1.2657182899349948,
                0.4009217747337622
            ]
        },
        {
            "positions": [
                -1.2122502971998035,
                -1.6172353002565214,
                1.196940101834957,
                -1.552959359013103,
                1.2047412239625923,
                0.25732674435979586
            ]
        },
        {
            "positions": [
                -1.2278141428299467,
                -1.570565761066547,
                1.076489529660745,
                -1.546254615302184,
                1.1437641579901896,
                0.1137317139858296
            ]
        },
        {
            "positions": [
                -1.24337798846009,
                -1.5238962218765724,
                0.9560389574865333,
                -1.5395498715912654,
                1.082787092017787,
                -0.029863316388136774
            ]
        },
        {
            "positions": [
                -1.2589418340902332,
                -1.4772266826865978,
                0.8355883853123214,
                -1.5328451278803465,
                1.0218100260453844,
                -0.17345834676210314
            ]
        },
        {
            "positions": [
                -1.2745056797203764,
                -1.4305571434966233,
                0.7151378131381096,
                -1.5261403841694279,
                0.9608329600729817,
                -0.3170533771360695
            ]
        },
        {
            "positions": [
                -1.2900695253505197,
                -1.3838876043066488,
                0.5946872409638977,
                -1.519435640458509,
                0.899855894100579,
                -0.4606484075100359
            ]
        },
        {
            "positions": [
                -1.305633370980663,
                -1.3372180651166743,
                0.47423666878968573,
                -1.5127308967475903,
                0.8388788281281764,
                -0.6042434378840023
            ]
        },
        {
            "positions": [
                -1.3211972166108064,
                -1.2905485259266998,
                0.3537860966154742,
                -1.5060261530366716,
                0.7779017621557738,
                -0.7478384682579684
            ]
        },
        {
            "positions": [
                -1.3367610622409496,
                -1.2438789867367253,
                0.23333552444126227,
                -1.4993214093257528,
                0.7169246961833712,
                -0.8914334986319348
            ]
        },
        {
            "positions": [
                -1.3523249078710928,
                -1.1972094475467507,
                0.11288495226705031,
                -1.492616665614834,
                0.6559476302109685,
                -1.0350285290059011
            ]
        },
        {
            "positions": [
                -1.367888753501236,
                -1.1505399083567762,
                -0.007565619907161425,
                -1.4859119219039152,
                0.5949705642385659,
                -1.1786235593798675
            ]
        },
        {
            "positions": [
                -1.3834525991313793,
                -1.1038703691668017,
                -0.1280161920813736,
                -1.4792071781929965,
                0.5339934982661632,
                -1.3222185897538337
            ]
        },
        {
            "positions": [
                -1.2948351520631758,
                -1.1063420779953124,
                -0.0037969813621029636,
                -1.4417326460132944,
                0.5103442093567181,
                -1.428875756411858
            ]
        },
        {
            "positions": [
                -1.2062177049949723,
                -1.108813786823823,
                0.12042222935716768,
                -1.4042581138335923,
                0.486694920447273,
                -1.535532923069882
            ]
        },
        {
            "positions": [
                -1.1176002579267688,
                -1.1112854956523335,
                0.24464144007643834,
                -1.3667835816538902,
                0.46304563153782796,
                -1.6421900897279063
            ]
        },
        {
            "positions": [
                -1.028982810858565,
                -1.1137572044808441,
                0.36886065079570896,
                -1.3293090494741882,
                0.43939634262838295,
                -1.7488472563859303
            ]
        },
        {
            "positions": [
                -0.9403653637903615,
                -1.1162289133093548,
                0.4930798615149796,
                -1.291834517294486,
                0.4157470537189379,
                -1.8555044230439546
            ]
        },
        {
            "positions": [
                -0.851747916722158,
                -1.1187006221378655,
                0.6172990722342503,
                -1.254359985114784,
                0.3920977648094928,
                -1.9621615897019788
            ]
        },
        {
            "positions": [
                -0.7631304696539545,
                -1.1211723309663761,
                0.7415182829535208,
                -1.2168854529350819,
                0.3684484759000478,
                -2.068818756360003
            ]
        },
        {
            "positions": [
                -0.6745130225857509,
                -1.1236440397948868,
                0.8657374936727915,
                -1.1794109207553798,
                0.34479918699060275,
                -2.175475923018027
            ]
        },
        {
            "positions": [
                -0.5858955755175473,
                -1.1261157486233973,
                0.9899567043920621,
                -1.1419363885756777,
                0.3211498980811577,
                -2.2821330896760514
            ]
        },
        {
            "positions": [
                -0.4972781284493437,
                -1.128587457451908,
                1.1141759151113328,
                -1.1044618563959756,
                0.2975006091717126,
                -2.3887902563340755
            ]
        },
        {
            "positions": [
                -0.4086606813811402,
                -1.1310591662804186,
                1.2383951258306034,
                -1.0669873242162735,
                0.27385132026226755,
                -2.4954474229920995
            ]
        },
        {
            "positions": [
                -0.3200432343129367,
                -1.1335308751089292,
                1.3626143365498742,
                -1.0295127920365714,
                0.2502020313528225,
                -2.602104589650124
            ]
        },
        {
            "positions": [
                -0.23142578724473317,
                -1.13600258393744,
                1.4868335472691445,
                -0.9920382598568693,
                0.22655274244337748,
                -2.7087617563081476
            ]
        },
        {
            "positions": [
                -0.14280834017652966,
                -1.1384742927659506,
                1.6110527579884153,
                -0.9545637276771672,
                0.20290345353393247,
                -2.815418922966172
            ]
        },
        {
            "positions": [
                -0.054190893108326144,
                -1.140946001594461,
                1.7352719687076859,
                -0.9170891954974651,
                0.1792541646244874,
                -2.9220760896241966
            ]
        },
        {
            "positions": [
                0.03442655395987759,
                -1.1434177104229717,
                1.8594911794269566,
                -0.8796146633177631,
                0.15560487571504233,
                -3.0287332562822202
            ]
        },
        {
            "positions": [
                0.12304400102808104,
                -1.1458894192514824,
                1.9837103901462272,
                -0.842140131138061,
                0.13195558680559727,
                -3.1353904229402447
            ]
        }
    ]
}