{
    "goal": {
        "global_pose": {
            "orientation": {
                "w": 0.7047431468963623,
                "x": -0.7094548344612122,
                "y": 0.0024358443915843964,
                "z": -0.0022348060738295317
            },
            "position": {
                "x": 0.6094750761985779,
                "y": 0.3671506643295288,
                "z": 0.19426114857196808
            }
        },
        "name": "move_to_magneteinheit_A"
    },
    "id": "PRM_move_to_magneteinheit_A_146",
    "joint_names": [
        "shoulder_pan_joint",
        "shoulder_lift_joint",
        "elbow_joint",
        "wrist_1_joint",
        "wrist_2_joint",
        "wrist_3_joint"
    ],
    "metrics": {
        "cart_traj_len": 3.238173276384951,
        "distance_elbow_joint": 4.711696078903844,
        "distance_shoulder_lift_joint": 0.6675849301964165,
        "distance_shoulder_pan_joint": 3.305513285374612,
        "distance_wrist_1_joint": 4.094454118614776,
        "distance_wrist_2_joint": 2.0685275683694617,
        "distance_wrist_3_joint": 2.5609045253222544,
        "smoothness": 0.5627807279660775,
        "time": 0.115050194,
        "traj_len": 4.172371089294594,
        "weighted_distance": 5.356628720044924
    },
    "planner": "PRM",
    "start": {
        "state": {
            "elbow_joint": -1.919618573717145,
            "shoulder_lift_joint": -1.2443395971678275,
            "shoulder_pan_joint": 2.6996025300909787,
            "wrist_1_joint": -1.548550951253194,
            "wrist_2_joint": -1.5709469090946802,
            "wrist_3_joint": 0.4420197732051276
        }
    },
    "waypoints": [
        {
            "positions": [
                2.6996025300909787,
                -1.2443395971678275,
                -1.919618573717145,
                -1.548550951253194,
                -1.5709469090946802,
                0.4420197732051276
            ]
        },
        {
            "positions": [
                2.589524941094749,
                -1.2417653451973247,
                -1.787123450229247,
                -1.4910081309437702,
                -1.5688666680106436,
                0.36744089822204096
            ]
        },
        {
            "positions": [
                2.4794473520985196,
                -1.239191093226822,
                -1.6546283267413489,
                -1.433465310634346,
                -1.5667864269266072,
                0.29286202323895427
            ]
        },
        {
            "positions": [
                2.36936976310229,
                -1.2366168412563194,
                -1.522133203253451,
                -1.375922490324922,
                -1.5647061858425706,
                0.21828314825586767
            ]
        },
        {
            "positions": [
                2.2592921741060605,
                -1.2340425892858167,
                -1.389638079765553,
                -1.318379670015498,
                -1.562625944758534,
                0.143704273272781
            ]
        },
        {
            "positions": [
                2.1492145851098314,
                -1.231468337315314,
                -1.2571429562776548,
                -1.260836849706074,
                -1.5605457036744974,
                0.06912539828969438
            ]
        },
        {
            "positions": [
                2.039136996113602,
                -1.2288940853448111,
                -1.1246478327897569,
                -1.2032940293966499,
                -1.558465462590461,
                -0.005453476693392245
            ]
        },
        {
            "positions": [
                1.9290594071173723,
                -1.2263198333743086,
                -0.992152709301859,
                -1.145751209087226,
                -1.5563852215064244,
                -0.08003235167647887
            ]
        },
        {
            "positions": [
                1.8189818181211428,
                -1.2237455814038058,
                -0.859657585813961,
                -1.0882083887778018,
                -1.5543049804223878,
                -0.15461122665956556
            ]
        },
        {
            "positions": [
                1.7089042291249132,
                -1.221171329433303,
                -0.7271624623260629,
                -1.0306655684683779,
                -1.5522247393383515,
                -0.22919010164265213
            ]
        },
        {
            "positions": [
                1.5988266401286837,
                -1.2185970774628003,
                -0.5946673388381649,
                -0.9731227481589538,
                -1.5501444982543149,
                -0.3037689766257388
            ]
        },
        {
            "positions": [
                1.4887490511324541,
                -1.2160228254922978,
                -0.46217221535026676,
                -0.9155799278495297,
                -1.5480642571702783,
                -0.3783478516088255
            ]
        },
        {
            "positions": [
                1.3786714621362248,
                -1.213448573521795,
                -0.3296770918623688,
                -0.8580371075401058,
                -1.5459840160862417,
                -0.4529267265919121
            ]
        },
        {
            "positions": [
                1.268593873139995,
                -1.2108743215512923,
                -0.19718196837447066,
                -0.8004942872306816,
                -1.5439037750022053,
                -0.5275056015749988
            ]
        },
        {
            "positions": [
                1.1585162841437657,
                -1.2083000695807895,
                -0.06468684488657295,
                -0.7429514669212577,
                -1.5418235339181687,
                -0.6020844765580853
            ]
        },
        {
            "positions": [
                1.0484386951475362,
                -1.205725817610287,
                0.06780827860132521,
                -0.6854086466118336,
                -1.5397432928341321,
                -0.676663351541172
            ]
        },
        {
            "positions": [
                0.9383611061513066,
                -1.2031515656397842,
                0.20030340208922293,
                -0.6278658263024096,
                -1.5376630517500958,
                -0.7512422265242586
            ]
        },
        {
            "positions": [
                0.8282835171550771,
                -1.2005773136692814,
                0.3327985255771211,
                -0.5703230059929856,
                -1.5355828106660592,
                -0.8258211015073453
            ]
        },
        {
            "positions": [
                0.7182059281588478,
                -1.1980030616987787,
                0.46529364906501924,
                -0.5127801856835617,
                -1.5335025695820226,
                -0.9003999764904318
            ]
        },
        {
            "positions": [
                0.6081283391626182,
                -1.1954288097282761,
                0.5977887725529174,
                -0.4552373653741375,
                -1.531422328497986,
                -0.9749788514735185
            ]
        },
        {
            "positions": [
                0.49805075016638867,
                -1.1928545577577734,
                0.7302838960408151,
                -0.3976945450647136,
                -1.5293420874139496,
                -1.0495577264566052
            ]
        },
        {
            "positions": [
                0.3879731611701592,
                -1.1902803057872706,
                0.8627790195287135,
                -0.34015172475528943,
                -1.527261846329913,
                -1.1241366014396919
            ]
        },
        {
            "positions": [
                0.3565043087380182,
                -1.1956301871503514,
                0.9399846390150154,
                -0.20867026339759448,
                -1.4416491811833172,
                -1.0744196711444407
            ]
        },
        {
            "positions": [
                0.32503545630587716,
                -1.2009800685134322,
                1.0171902585013173,
                -0.07718880203989953,
                -1.3560365160367214,
                -1.0247027408491893
            ]
        },
        {
            "positions": [
                0.2935666038737362,
                -1.2063299498765128,
                1.0943958779876193,
                0.054292659317795366,
                -1.2704238508901255,
                -0.9749858105539381
            ]
        },
        {
            "positions": [
                0.2620977514415952,
                -1.2116798312395936,
                1.171601497473921,
                0.18577412067549037,
                -1.1848111857435297,
                -0.9252688802586868
            ]
        },
        {
            "positions": [
                0.23062889900945416,
                -1.2170297126026743,
                1.248807116960223,
                0.31725558203318527,
                -1.0991985205969341,
                -0.8755519499634357
            ]
        },
        {
            "positions": [
                0.19916004657731315,
                -1.2223795939657551,
                1.326012736446525,
                0.44873704339088016,
                -1.0135858554503383,
                -0.8258350196681843
            ]
        },
        {
            "positions": [
                0.16769119414517217,
                -1.227729475328836,
                1.4032183559328268,
                0.5802185047485751,
                -0.9279731903037425,
                -0.7761180893729331
            ]
        },
        {
            "positions": [
                0.13622234171303116,
                -1.2330793566919165,
                1.4804239754191288,
                0.7116999661062702,
                -0.8423605251571467,
                -0.7264011590776818
            ]
        },
        {
            "positions": [
                0.10475348928089012,
                -1.2384292380549973,
                1.5576295949054306,
                0.8431814274639651,
                -0.7567478600105509,
                -0.6766842287824306
            ]
        },
        {
            "positions": [
                0.07328463684874914,
                -1.243779119418078,
                1.6348352143917326,
                0.97466288882166,
                -0.6711351948639551,
                -0.6269672984871794
            ]
        },
        {
            "positions": [
                0.041815784416608104,
                -1.2491290007811588,
                1.7120408338780346,
                1.106144350179355,
                -0.5855225297173593,
                -0.5772503681919281
            ]
        },
        {
            "positions": [
                0.010346931984467123,
                -1.2544788821442396,
                1.7892464533643364,
                1.2376258115370498,
                -0.4999098645707636,
                -0.5275334378966768
            ]
        },
        {
            "positions": [
                -0.02112192044767386,
                -1.2598287635073202,
                1.8664520728506384,
                1.3691072728947449,
                -0.41429719942416776,
                -0.4778165076014256
            ]
        },
        {
            "positions": [
                -0.05259077287981484,
                -1.265178644870401,
                1.9436576923369402,
                1.5005887342524395,
                -0.32868453427757194,
                -0.42809957730617443
            ]
        },
        {
            "positions": [
                -0.08405962531195588,
                -1.2705285262334818,
                2.020863311823242,
                1.6320701956101347,
                -0.24307186913097611,
                -0.37838264701092306
            ]
        },
        {
            "positions": [
                -0.11552847774409686,
                -1.2758784075965626,
                2.098068931309544,
                1.7635516569678298,
                -0.1574592039843803,
                -0.3286657167156718
            ]
        },
        {
            "positions": [
                -0.1469973301762379,
                -1.2812282889596434,
                2.175274550795846,
                1.8950331183255245,
                -0.07184653883778469,
                -0.27894878642042065
            ]
        },
        {
            "positions": [
                -0.17846618260837893,
                -1.286578170322724,
                2.2524801702821478,
                2.0265145796832194,
                0.013766126308811133,
                -0.2292318561251694
            ]
        },
        {
            "positions": [
                -0.20993503504051986,
                -1.2919280516858047,
                2.3296857897684498,
                2.1579960410409145,
                0.09937879145540696,
                -0.17951492582991813
            ]
        },
        {
            "positions": [
                -0.2414038874726609,
                -1.2972779330488855,
                2.4068914092547518,
                2.2894775023986096,
                0.18499145660200278,
                -0.12979799553466687
            ]
        },
        {
            "positions": [
                -0.16850251391046703,
                -1.1959723307380365,
                2.329854190068362,
                2.2381923694060153,
                0.12247361606744707,
                -0.12971608658018466
            ]
        },
        {
            "positions": [
                -0.09560114034827316,
                -1.0946667284271876,
                2.2528169708819727,
                2.186907236413421,
                0.05995577553289136,
                -0.12963417762570245
            ]
        },
        {
            "positions": [
                -0.022699766786079323,
                -0.9933611261163386,
                2.175779751695583,
                2.1356221034208267,
                -0.0025620650016643653,
                -0.12955226867122022
            ]
        },
        {
            "positions": [
                0.05020160677611457,
                -0.8920555238054897,
                2.0987425325091937,
                2.0843369704282324,
                -0.06507990553622006,
                -0.129470359716738
            ]
        },
        {
            "positions": [
                0.12310298033830838,
                -0.7907499214946407,
                2.021705313322804,
                2.033051837435638,
                -0.12759774607077579,
                -0.1293884507622558
            ]
        }
    ]
}{
    "goal": {
        "global_pose": {
            "orientation": {
                "w": 0.7047431468963623,
                "x": -0.7094548344612122,
                "y": 0.0024358443915843964,
                "z": -0.0022348060738295317
            },
            "position": {
                "x": 0.6094750761985779,
                "y": 0.3671506643295288,
                "z": 0.19426114857196808
            }
        },
        "name": "move_to_magneteinheit_A"
    },
    "id": "PRM_move_to_magneteinheit_A_146",
    "joint_names": [
        "shoulder_pan_joint",
        "shoulder_lift_joint",
        "elbow_joint",
        "wrist_1_joint",
        "wrist_2_joint",
        "wrist_3_joint"
    ],
    "metrics": {
        "cart_traj_len": 2.05288771254586,
        "distance_elbow_joint": 0.35796918989024107,
        "distance_shoulder_lift_joint": 0.7482765555969781,
        "distance_shoulder_pan_joint": 3.0391559305320017,
        "distance_wrist_1_joint": 3.1494698170696123,
        "distance_wrist_2_joint": 1.4328036338442796,
        "distance_wrist_3_joint": 4.249221207906009,
        "smoothness": 0.3363998114331568,
        "time": 0.129845931,
        "traj_len": 3.6023459488004645,
        "weighted_distance": 5.104665728680481
    },
    "planner": "PRM",
    "start": {
        "state": {
            "elbow_joint": 1.919643534880228,
            "shoulder_lift_joint": -1.8972525353963687,
            "shoulder_pan_joint": -1.1188672234189438,
            "wrist_1_joint": -1.5931878212786155,
            "wrist_2_joint": 1.5706036197970081,
            "wrist_3_joint": 1.118896926603594
        }
    },
    "waypoints": [
        {
            "positions": [
                -1.1188672234189438,
                -1.8972525353963687,
                1.919643534880228,
                -1.5931878212786155,
                1.5706036197970081,
                1.118896926603594
            ]
        },
        {
            "positions": [
                -1.1717055555012577,
                -1.865201581645256,
                1.9321766375115843,
                -1.4785459914942263,
                1.5040007962426631,
                1.0221808858070052
            ]
        },
        {
            "positions": [
                -1.2245438875835712,
                -1.8331506278941436,
                1.9447097401429407,
                -1.363904161709837,
                1.4373979726883184,
                0.9254648450104165
            ]
        },
        {
            "positions": [
                -1.277382219665885,
                -1.801099674143031,
                1.957242842774297,
                -1.2492623319254477,
                1.3707951491339734,
                0.8287488042138277
            ]
        },
        {
            "positions": [
                -1.3302205517481989,
                -1.7690487203919183,
                1.9697759454056534,
                -1.1346205021410585,
                1.3041923255796286,
                0.732032763417239
            ]
        },
        {
            "positions": [
                -1.3830588838305127,
                -1.7369977666408056,
                1.9823090480370096,
                -1.0199786723566693,
                1.2375895020252836,
                0.6353167226206502
            ]
        },
        {
            "positions": [
                -1.4358972159128265,
                -1.7049468128896932,
                1.994842150668366,
                -0.90533684257228,
                1.1709866784709386,
                0.5386006818240614
            ]
        },
        {
            "positions": [
                -1.48873554799514,
                -1.6728958591385805,
                2.007375253299722,
                -0.7906950127878909,
                1.1043838549165939,
                0.4418846410274727
            ]
        },
        {
            "positions": [
                -1.5415738800774539,
                -1.6408449053874679,
                2.0199083559310784,
                -0.6760531830035016,
                1.0377810313622489,
                0.3451686002308839
            ]
        },
        {
            "positions": [
                -1.5944122121597677,
                -1.6087939516363554,
                2.0324414585624346,
                -0.5614113532191123,
                0.9711782078079039,
                0.24845255943429512
            ]
        },
        {
            "positions": [
                -1.6472505442420813,
                -1.5767429978852427,
                2.0449745611937913,
                -0.4467695234347231,
                0.904575384253559,
                0.15173651863770632
            ]
        },
        {
            "positions": [
                -1.7000888763243953,
                -1.54469204413413,
                2.0575076638251475,
                -0.3321276936503339,
                0.837972560699214,
                0.05502047784111763
            ]
        },
        {
            "positions": [
                -1.752927208406709,
                -1.5126410903830174,
                2.0700407664565037,
                -0.21748586386594448,
                0.7713697371448691,
                -0.041695562955471166
            ]
        },
        {
            "positions": [
                -1.8057655404890225,
                -1.480590136631905,
                2.08257386908786,
                -0.10284403408155551,
                0.7047669135905243,
                -0.13841160375205974
            ]
        },
        {
            "positions": [
                -1.8586038725713365,
                -1.4485391828807923,
                2.095106971719216,
                0.01179779570283368,
                0.6381640900361794,
                -0.23512764454864854
            ]
        },
        {
            "positions": [
                -1.9114422046536501,
                -1.4164882291296799,
                2.1076400743505728,
                0.12643962548722287,
                0.5715612664818345,
                -0.33184368534523734
            ]
        },
        {
            "positions": [
                -1.964280536735964,
                -1.3844372753785672,
                2.120173176981929,
                0.2410814552716123,
                0.5049584429274896,
                -0.42855972614182614
            ]
        },
        {
            "positions": [
                -2.0171188688182777,
                -1.3523863216274545,
                2.132706279613285,
                0.35572328505600137,
                0.4383556193731446,
                -0.5252757669384149
            ]
        },
        {
            "positions": [
                -1.8911833226340031,
                -1.3404210074022742,
                2.1241823710746273,
                0.2851021844245311,
                0.4206758762307672,
                -0.6785139148421795
            ]
        },
        {
            "positions": [
                -1.7652477764497285,
                -1.328455693177094,
                2.1156584625359693,
                0.21448108379306088,
                0.4029961330883897,
                -0.8317520627459442
            ]
        },
        {
            "positions": [
                -1.6393122302654541,
                -1.3164903789519138,
                2.1071345539973114,
                0.14385998316159063,
                0.38531638994601225,
                -0.9849902106497088
            ]
        },
        {
            "positions": [
                -1.5133766840811795,
                -1.3045250647267337,
                2.0986106454586535,
                0.0732388825301204,
                0.36763664680363484,
                -1.1382283585534734
            ]
        },
        {
            "positions": [
                -1.387441137896905,
                -1.2925597505015534,
                2.0900867369199956,
                0.00261778189865014,
                0.3499569036612574,
                -1.2914665064572382
            ]
        },
        {
            "positions": [
                -1.2615055917126305,
                -1.280594436276373,
                2.081562828381338,
                -0.06800331873282012,
                0.33227716051887995,
                -1.4447046543610027
            ]
        },
        {
            "positions": [
                -1.135570045528356,
                -1.268629122051193,
                2.07303891984268,
                -0.13862441936429032,
                0.31459741737650254,
                -1.5979428022647673
            ]
        },
        {
            "positions": [
                -1.0096344993440813,
                -1.2566638078260126,
                2.0645150113040223,
                -0.20924551999576058,
                0.2969176742341251,
                -1.7511809501685318
            ]
        },
        {
            "positions": [
                -0.883698953159807,
                -1.2446984936008325,
                2.0559911027653643,
                -0.2798666206272309,
                0.27923793109174766,
                -1.9044190980722966
            ]
        },
        {
            "positions": [
                -0.7577634069755323,
                -1.2327331793756522,
                2.0474671942267064,
                -0.3504877212587011,
                0.2615581879493702,
                -2.057657245976061
            ]
        },
        {
            "positions": [
                -0.6318278607912577,
                -1.220767865150472,
                2.0389432856880485,
                -0.4211088218901714,
                0.24387844480699275,
                -2.210895393879826
            ]
        },
        {
            "positions": [
                -0.5058923146069831,
                -1.2088025509252918,
                2.0304193771493906,
                -0.4917299225216416,
                0.2261987016646153,
                -2.3641335417835903
            ]
        },
        {
            "positions": [
                -0.37995676842270876,
                -1.1968372367001114,
                2.0218954686107327,
                -0.5623510231531118,
                0.2085189585222379,
                -2.517371689687355
            ]
        },
        {
            "positions": [
                -0.25402122223843415,
                -1.1848719224749313,
                2.0133715600720747,
                -0.632972123784582,
                0.19083921537986046,
                -2.67060983759112
            ]
        },
        {
            "positions": [
                -0.12808567605415977,
                -1.172906608249751,
                2.004847651533417,
                -0.7035932244160522,
                0.17315947223748301,
                -2.8238479854948846
            ]
        },
        {
            "positions": [
                -0.0021501298698849425,
                -1.160941294024571,
                1.9963237429947591,
                -0.7742143250475225,
                0.1554797290951056,
                -2.9770861333986485
            ]
        },
        {
            "positions": [
                0.1237854163143896,
                -1.1489759797993906,
                1.9877998344561012,
                -0.8448354256789928,
                0.13779998595272816,
                -3.1303242813024137
            ]
        }
    ]
}