{
    "goal": {
        "global_pose": {
            "orientation": {
                "w": 0.7047431468963623,
                "x": -0.7094548344612122,
                "y": 0.0024358443915843964,
                "z": -0.0022348060738295317
            },
            "position": {
                "x": 0.6094750761985779,
                "y": 0.3671506643295288,
                "z": 0.19426114857196808
            }
        },
        "name": "move_to_magneteinheit_A"
    },
    "id": "PRM_move_to_magneteinheit_A_76",
    "joint_names": [
        "shoulder_pan_joint",
        "shoulder_lift_joint",
        "elbow_joint",
        "wrist_1_joint",
        "wrist_2_joint",
        "wrist_3_joint"
    ],
    "metrics": {
        "cart_traj_len": 4.204018954864537,
        "distance_elbow_joint": 3.9072293545686696,
        "distance_shoulder_lift_joint": 0.8089155937128276,
        "distance_shoulder_pan_joint": 4.666918923737903,
        "distance_wrist_1_joint": 3.457043409778003,
        "distance_wrist_2_joint": 4.405292452635067,
        "distance_wrist_3_joint": 2.49693509852386,
        "smoothness": 0.25107854623679154,
        "time": 0.149687556,
        "traj_len": 4.443234726295286,
        "weighted_distance": 5.709513192244774
    },
    "planner": "PRM",
    "start": {
        "state": {
            "elbow_joint": -1.919618573717145,
            "shoulder_lift_joint": -1.2443395971678275,
            "shoulder_pan_joint": 2.6996025300909787,
            "wrist_1_joint": -1.548550951253194,
            "wrist_2_joint": -1.5709469090946802,
            "wrist_3_joint": 0.4420197732051276
        }
    },
    "waypoints": [
        {
            "positions": [
                2.6996025300909787,
                -1.2443395971678275,
                -1.919618573717145,
                -1.548550951253194,
                -1.5709469090946802,
                0.4420197732051276
            ]
        },
        {
            "positions": [
                2.560309193608778,
                -1.2508589334861484,
                -1.8660000125925253,
                -1.5171295642143285,
                -1.458457162859801,
                0.4819636052658968
            ]
        },
        {
            "positions": [
                2.4210158571265774,
                -1.2573782698044695,
                -1.8123814514679057,
                -1.4857081771754632,
                -1.345967416624922,
                0.521907437326666
            ]
        },
        {
            "positions": [
                2.2817225206443768,
                -1.2638976061227905,
                -1.7587628903432861,
                -1.4542867901365977,
                -1.233477670390043,
                0.5618512693874352
            ]
        },
        {
            "positions": [
                2.142429184162176,
                -1.2704169424411114,
                -1.7051443292186668,
                -1.4228654030977324,
                -1.120987924155164,
                0.6017951014482045
            ]
        },
        {
            "positions": [
                2.0031358476799754,
                -1.2769362787594325,
                -1.6515257680940472,
                -1.3914440160588668,
                -1.0084981779202848,
                0.6417389335089736
            ]
        },
        {
            "positions": [
                1.8638425111977746,
                -1.2834556150777534,
                -1.5979072069694276,
                -1.3600226290200015,
                -0.8960084316854059,
                0.6816827655697428
            ]
        },
        {
            "positions": [
                1.724549174715574,
                -1.2899749513960743,
                -1.544288645844808,
                -1.328601241981136,
                -0.7835186854505268,
                0.7216265976305121
            ]
        },
        {
            "positions": [
                1.585255838233373,
                -1.2964942877143952,
                -1.4906700847201884,
                -1.2971798549422706,
                -0.6710289392156478,
                0.7615704296912813
            ]
        },
        {
            "positions": [
                1.4459625017511726,
                -1.3030136240327164,
                -1.437051523595569,
                -1.265758467903405,
                -0.5585391929807688,
                0.8015142617520505
            ]
        },
        {
            "positions": [
                1.3066691652689717,
                -1.3095329603510373,
                -1.3834329624709492,
                -1.2343370808645395,
                -0.44604944674588953,
                0.8414580938128198
            ]
        },
        {
            "positions": [
                1.167375828786771,
                -1.3160522966693582,
                -1.3298144013463298,
                -1.2029156938256742,
                -0.3335597005110107,
                0.8814019258735889
            ]
        },
        {
            "positions": [
                1.0280824923045704,
                -1.3225716329876793,
                -1.27619584022171,
                -1.1714943067868087,
                -0.22106995427613163,
                0.9213457579343581
            ]
        },
        {
            "positions": [
                0.8887891558223697,
                -1.3290909693060002,
                -1.2225772790970906,
                -1.1400729197479433,
                -0.10858020804125257,
                0.9612895899951273
            ]
        },
        {
            "positions": [
                0.7494958193401691,
                -1.3356103056243211,
                -1.1689587179724712,
                -1.1086515327090778,
                0.003909538193626494,
                1.0012334220558965
            ]
        },
        {
            "positions": [
                0.6102024828579684,
                -1.3421296419426423,
                -1.1153401568478514,
                -1.0772301456702125,
                0.11639928442850533,
                1.0411772541166657
            ]
        },
        {
            "positions": [
                0.4709091463757673,
                -1.3486489782609632,
                -1.0617215957232318,
                -1.045808758631347,
                0.22888903066338462,
                1.081121086177435
            ]
        },
        {
            "positions": [
                0.3316158098935671,
                -1.355168314579284,
                -1.0081030345986122,
                -1.0143873715924814,
                0.3413787768982637,
                1.1210649182382042
            ]
        },
        {
            "positions": [
                0.19232247341136643,
                -1.361687650897605,
                -0.9544844734739928,
                -0.9829659845536161,
                0.4538685231331425,
                1.1610087502989734
            ]
        },
        {
            "positions": [
                0.05302913692916578,
                -1.3682069872159262,
                -0.9008659123493732,
                -0.9515445975147506,
                0.5663582693680214,
                1.2009525823597424
            ]
        },
        {
            "positions": [
                -0.08626419955303533,
                -1.374726323534247,
                -0.8472473512247536,
                -0.9201232104758851,
                0.6788480156029011,
                1.240896414420512
            ]
        },
        {
            "positions": [
                -0.22555753603523598,
                -1.381245659852568,
                -0.793628790100134,
                -0.8887018234370196,
                0.7913377618377799,
                1.280840246481281
            ]
        },
        {
            "positions": [
                -0.36485087251743664,
                -1.387764996170889,
                -0.7400102289755144,
                -0.8572804363981543,
                0.9038275080726588,
                1.3207840785420502
            ]
        },
        {
            "positions": [
                -0.5041442089996369,
                -1.39428433248921,
                -0.686391667850895,
                -0.8258590493592889,
                1.0163172543075376,
                1.3607279106028194
            ]
        },
        {
            "positions": [
                -0.643437545481838,
                -1.400803668807531,
                -0.6327731067262752,
                -0.7944376623204233,
                1.128807000542417,
                1.4006717426635886
            ]
        },
        {
            "positions": [
                -0.7827308819640386,
                -1.407323005125852,
                -0.5791545456016558,
                -0.7630162752815579,
                1.2412967467772962,
                1.4406155747243579
            ]
        },
        {
            "positions": [
                -0.9220242184462392,
                -1.413842341444173,
                -0.5255359844770363,
                -0.7315948882426925,
                1.3537864930121748,
                1.480559406785127
            ]
        },
        {
            "positions": [
                -0.8802125314382117,
                -1.3882658274667137,
                -0.42501011386389387,
                -0.6259913943719925,
                1.2945641309910463,
                1.4222235881873728
            ]
        },
        {
            "positions": [
                -0.8384008444301841,
                -1.3626893134892544,
                -0.3244842432507515,
                -0.5203879005012924,
                1.235341768969918,
                1.3638877695896183
            ]
        },
        {
            "positions": [
                -0.7965891574221566,
                -1.337112799511795,
                -0.2239583726376091,
                -0.41478440663059235,
                1.1761194069487895,
                1.305551950991864
            ]
        },
        {
            "positions": [
                -0.754777470414129,
                -1.3115362855343358,
                -0.12343250202446665,
                -0.3091809127598923,
                1.116897044927661,
                1.2472161323941096
            ]
        },
        {
            "positions": [
                -0.7129657834061015,
                -1.2859597715568765,
                -0.022906631411324208,
                -0.20357741888919223,
                1.0576746829065327,
                1.1888803137963553
            ]
        },
        {
            "positions": [
                -0.671154096398074,
                -1.2603832575794174,
                0.07761923920181812,
                -0.09797392501849223,
                0.9984523208854041,
                1.1305444951986008
            ]
        },
        {
            "positions": [
                -0.6293424093900464,
                -1.234806743601958,
                0.17814510981496068,
                0.007629568852207891,
                0.9392299588642756,
                1.0722086766008465
            ]
        },
        {
            "positions": [
                -0.587530722382019,
                -1.2092302296244988,
                0.278670980428103,
                0.1132330627229079,
                0.8800075968431473,
                1.0138728580030922
            ]
        },
        {
            "positions": [
                -0.5457190353739914,
                -1.1836537156470395,
                0.37919685104124545,
                0.2188365565936079,
                0.8207852348220189,
                0.9555370394053377
            ]
        },
        {
            "positions": [
                -0.5039073483659638,
                -1.1580772016695802,
                0.4797227216543879,
                0.324440050464308,
                0.7615628728008904,
                0.8972012208075834
            ]
        },
        {
            "positions": [
                -0.46209566135793634,
                -1.1325006876921209,
                0.5802485922675303,
                0.430043544335008,
                0.702340510779762,
                0.838865402209829
            ]
        },
        {
            "positions": [
                -0.42028397434990883,
                -1.1069241737146616,
                0.6807744628806726,
                0.535647038205708,
                0.6431181487586336,
                0.7805295836120747
            ]
        },
        {
            "positions": [
                -0.3784722873418812,
                -1.0813476597372023,
                0.7813003334938152,
                0.6412505320764083,
                0.5838957867375051,
                0.7221937650143202
            ]
        },
        {
            "positions": [
                -0.3366606003338537,
                -1.055771145759743,
                0.8818262041069577,
                0.7468540259471083,
                0.5246734247163766,
                0.6638579464165658
            ]
        },
        {
            "positions": [
                -0.2948489133258262,
                -1.0301946317822837,
                0.9823520747200999,
                0.8524575198178083,
                0.4654510626952483,
                0.6055221278188115
            ]
        },
        {
            "positions": [
                -0.2530372263177987,
                -1.0046181178048244,
                1.0828779453332422,
                0.9580610136885083,
                0.40622870067411976,
                0.5471863092210572
            ]
        },
        {
            "positions": [
                -0.21122553930977106,
                -0.979041603827365,
                1.1834038159463849,
                1.0636645075592086,
                0.34700633865299135,
                0.48885049062330266
            ]
        },
        {
            "positions": [
                -0.16941385230174366,
                -0.9534650898499059,
                1.283929686559527,
                1.1692680014299084,
                0.28778397663186306,
                0.4305146720255484
            ]
        },
        {
            "positions": [
                -0.12760216529371604,
                -0.9278885758724466,
                1.3844555571726698,
                1.2748714953006082,
                0.22856161461073454,
                0.3721788534277941
            ]
        },
        {
            "positions": [
                -0.08579047828568853,
                -0.9023120618949872,
                1.484981427785812,
                1.3804749891713084,
                0.16933925258960603,
                0.3138430348300396
            ]
        },
        {
            "positions": [
                -0.04397879127766102,
                -0.8767355479175281,
                1.5855072983989542,
                1.4860784830420082,
                0.11011689056847773,
                0.25550721623228534
            ]
        },
        {
            "positions": [
                -0.002167104269633513,
                -0.8511590339400686,
                1.6860331690120969,
                1.5916819769127084,
                0.050894528547349216,
                0.19717139763453084
            ]
        },
        {
            "positions": [
                0.03964458273839411,
                -0.8255825199626093,
                1.786559039625239,
                1.6972854707834086,
                -0.0083278334737793,
                0.13883557903677657
            ]
        },
        {
            "positions": [
                0.0814562697464215,
                -0.8000060059851501,
                1.8870849102383813,
                1.8028889646541084,
                -0.0675501954949076,
                0.0804997604390223
            ]
        },
        {
            "positions": [
                0.12326795675444906,
                -0.7744294920076908,
                1.9876107808515242,
                1.9084924585248086,
                -0.12677255751603622,
                0.02216394184126775
            ]
        }
    ]
}{
    "goal": {
        "global_pose": {
            "orientation": {
                "w": 0.7047431468963623,
                "x": -0.7094548344612122,
                "y": 0.0024358443915843964,
                "z": -0.0022348060738295317
            },
            "position": {
                "x": 0.6094750761985779,
                "y": 0.3671506643295288,
                "z": 0.19426114857196808
            }
        },
        "name": "move_to_magneteinheit_A"
    },
    "id": "PRM_move_to_magneteinheit_A_76",
    "joint_names": [
        "shoulder_pan_joint",
        "shoulder_lift_joint",
        "elbow_joint",
        "wrist_1_joint",
        "wrist_2_joint",
        "wrist_3_joint"
    ],
    "metrics": {
        "cart_traj_len": 2.7052494061465353,
        "distance_elbow_joint": 4.991968339669024,
        "distance_shoulder_lift_joint": 1.8065799688156117,
        "distance_shoulder_pan_joint": 1.8636463170525306,
        "distance_wrist_1_joint": 0.819190879405246,
        "distance_wrist_2_joint": 1.4357867958930355,
        "distance_wrist_3_joint": 4.290556752711674,
        "smoothness": 0.3294452541763415,
        "time": 0.113892411,
        "traj_len": 3.899708842150542,
        "weighted_distance": 5.1033146321061515
    },
    "planner": "PRM",
    "start": {
        "state": {
            "elbow_joint": 1.919643534880228,
            "shoulder_lift_joint": -1.8972525353963687,
            "shoulder_pan_joint": -1.1188672234189438,
            "wrist_1_joint": -1.5931878212786155,
            "wrist_2_joint": 1.5706036197970081,
            "wrist_3_joint": 1.118896926603594
        }
    },
    "waypoints": [
        {
            "positions": [
                -1.1188672234189438,
                -1.8972525353963687,
                1.919643534880228,
                -1.5931878212786155,
                1.5706036197970081,
                1.118896926603594
            ]
        },
        {
            "positions": [
                -1.1313090445632459,
                -1.8459960821093175,
                1.820904182814997,
                -1.5608241123977196,
                1.538528506501347,
                0.9530290784235499
            ]
        },
        {
            "positions": [
                -1.143750865707548,
                -1.7947396288222661,
                1.7221648307497661,
                -1.5284604035168234,
                1.5064533932056858,
                0.7871612302435058
            ]
        },
        {
            "positions": [
                -1.15619268685185,
                -1.743483175535215,
                1.623425478684535,
                -1.4960966946359275,
                1.474378279910025,
                0.6212933820634619
            ]
        },
        {
            "positions": [
                -1.1686345079961522,
                -1.6922267222481637,
                1.5246861266193041,
                -1.4637329857550314,
                1.4423031666143638,
                0.4554255338834178
            ]
        },
        {
            "positions": [
                -1.1810763291404542,
                -1.6409702689611123,
                1.425946774554073,
                -1.4313692768741355,
                1.4102280533187026,
                0.2895576857033737
            ]
        },
        {
            "positions": [
                -1.1935181502847563,
                -1.5897138156740611,
                1.3272074224888422,
                -1.3990055679932394,
                1.3781529400230417,
                0.12368983752332974
            ]
        },
        {
            "positions": [
                -1.2059599714290583,
                -1.5384573623870097,
                1.228468070423611,
                -1.3666418591123435,
                1.3460778267273805,
                -0.04217801065671445
            ]
        },
        {
            "positions": [
                -1.2184017925733603,
                -1.4872009090999585,
                1.12972871835838,
                -1.3342781502314476,
                1.3140027134317194,
                -0.2080458588367584
            ]
        },
        {
            "positions": [
                -1.2308436137176624,
                -1.4359444558129073,
                1.030989366293149,
                -1.3019144413505515,
                1.2819276001360582,
                -0.3739137070168024
            ]
        },
        {
            "positions": [
                -1.2432854348619644,
                -1.384688002525856,
                0.932250014227918,
                -1.2695507324696556,
                1.249852486840397,
                -0.5397815551968466
            ]
        },
        {
            "positions": [
                -1.2557272560062664,
                -1.3334315492388047,
                0.8335106621626871,
                -1.2371870235887594,
                1.2177773735447361,
                -0.7056494033768905
            ]
        },
        {
            "positions": [
                -1.2681690771505685,
                -1.2821750959517535,
                0.734771310097456,
                -1.2048233147078635,
                1.185702260249075,
                -0.8715172515569345
            ]
        },
        {
            "positions": [
                -1.2806108982948707,
                -1.230918642664702,
                0.6360319580322251,
                -1.1724596058269676,
                1.1536271469534138,
                -1.0373850997369785
            ]
        },
        {
            "positions": [
                -1.2930527194391728,
                -1.1796621893776509,
                0.537292605966994,
                -1.1400958969460715,
                1.121552033657753,
                -1.2032529479170229
            ]
        },
        {
            "positions": [
                -1.3054945405834748,
                -1.1284057360905995,
                0.43855325390176314,
                -1.1077321880651756,
                1.0894769203620918,
                -1.3691207960970664
            ]
        },
        {
            "positions": [
                -1.3179363617277768,
                -1.0771492828035483,
                0.33981390183653204,
                -1.0753684791842795,
                1.0574018070664306,
                -1.5349886442771108
            ]
        },
        {
            "positions": [
                -1.3303781828720789,
                -1.025892829516497,
                0.24107454977130094,
                -1.0430047703033836,
                1.0253266937707695,
                -1.7008564924571548
            ]
        },
        {
            "positions": [
                -1.342820004016381,
                -0.9746363762294458,
                0.14233519770607006,
                -1.0106410614224877,
                0.9932515804751085,
                -1.8667243406371987
            ]
        },
        {
            "positions": [
                -1.355261825160683,
                -0.9233799229423945,
                0.04359584564083896,
                -0.9782773525415915,
                0.9611764671794474,
                -2.032592188817243
            ]
        },
        {
            "positions": [
                -1.3677036463049852,
                -0.8721234696553433,
                -0.05514350642439214,
                -0.9459136436606955,
                0.9291013538837862,
                -2.198460036997287
            ]
        },
        {
            "positions": [
                -1.380145467449287,
                -0.8208670163682921,
                -0.15388285848962302,
                -0.9135499347797996,
                0.8970262405881252,
                -2.364327885177331
            ]
        },
        {
            "positions": [
                -1.3925872885935893,
                -0.7696105630812407,
                -0.2526222105548539,
                -0.8811862258989035,
                0.864951127292464,
                -2.530195733357375
            ]
        },
        {
            "positions": [
                -1.4050291097378913,
                -0.7183541097941892,
                -0.3513615626200852,
                -0.8488225170180075,
                0.832876013996803,
                -2.6960635815374188
            ]
        },
        {
            "positions": [
                -1.4174709308821933,
                -0.6670976565071383,
                -0.4501009146853161,
                -0.8164588081371116,
                0.800800900701142,
                -2.8619314297174627
            ]
        },
        {
            "positions": [
                -1.4299127520264954,
                -0.6158412032200868,
                -0.548840266750547,
                -0.7840950992562156,
                0.7687257874054808,
                -3.027799277897507
            ]
        },
        {
            "positions": [
                -1.319012695708997,
                -0.6533532486943247,
                -0.3685913711763864,
                -0.7848163962121332,
                0.7234465757268016,
                -3.0380750313411196
            ]
        },
        {
            "positions": [
                -1.2081126393914983,
                -0.6908652941685626,
                -0.18834247560222578,
                -0.7855376931680508,
                0.6781673640481225,
                -3.048350784784732
            ]
        },
        {
            "positions": [
                -1.0972125830739998,
                -0.7283773396428004,
                -0.00809358002806515,
                -0.7862589901239683,
                0.6328881523694433,
                -3.0586265382283444
            ]
        },
        {
            "positions": [
                -0.9863125267565014,
                -0.7658893851170383,
                0.17215531554609542,
                -0.7869802870798859,
                0.5876089406907641,
                -3.068902291671957
            ]
        },
        {
            "positions": [
                -0.8754124704390028,
                -0.8034014305912761,
                0.3524042111202561,
                -0.7877015840358035,
                0.5423297290120849,
                -3.0791780451155693
            ]
        },
        {
            "positions": [
                -0.7645124141215044,
                -0.8409134760655139,
                0.5326531066944167,
                -0.7884228809917211,
                0.4970505173334057,
                -3.0894537985591817
            ]
        },
        {
            "positions": [
                -0.6536123578040058,
                -0.8784255215397518,
                0.7129020022685773,
                -0.7891441779476387,
                0.4517713056547265,
                -3.0997295520027937
            ]
        },
        {
            "positions": [
                -0.5427123014865074,
                -0.9159375670139898,
                0.8931508978427378,
                -0.7898654749035562,
                0.40649209397604735,
                -3.110005305446406
            ]
        },
        {
            "positions": [
                -0.43181224516900873,
                -0.9534496124882276,
                1.0733997934168986,
                -0.7905867718594738,
                0.3612128822973681,
                -3.1202810588900185
            ]
        },
        {
            "positions": [
                -0.3209121888515103,
                -0.9909616579624654,
                1.2536486889910592,
                -0.7913080688153914,
                0.31593367061868893,
                -3.130556812333631
            ]
        },
        {
            "positions": [
                -0.21001213253401185,
                -1.0284737034367033,
                1.4338975845652195,
                -0.792029365771309,
                0.2706544589400098,
                -3.1408325657772433
            ]
        },
        {
            "positions": [
                -0.09911207621651341,
                -1.0659857489109412,
                1.6141464801393803,
                -0.7927506627272265,
                0.22537524726133062,
                -3.1511083192208558
            ]
        },
        {
            "positions": [
                0.011787980100985251,
                -1.103497794385179,
                1.7943953757135411,
                -0.7934719596831441,
                0.18009603558265141,
                -3.161384072664468
            ]
        },
        {
            "positions": [
                0.12268803641848372,
                -1.1410098398594168,
                1.9746442712877015,
                -0.7941932566390617,
                0.13481682390397223,
                -3.1716598261080806
            ]
        }
    ]
}