{
    "goal": {
        "global_pose": {
            "orientation": {
                "w": 0.7047431468963623,
                "x": -0.7094548344612122,
                "y": 0.0024358443915843964,
                "z": -0.0022348060738295317
            },
            "position": {
                "x": 0.6094750761985779,
                "y": 0.3671506643295288,
                "z": 0.19426114857196808
            }
        },
        "name": "move_to_magneteinheit_A"
    },
    "id": "PRM_move_to_magneteinheit_A_102",
    "joint_names": [
        "shoulder_pan_joint",
        "shoulder_lift_joint",
        "elbow_joint",
        "wrist_1_joint",
        "wrist_2_joint",
        "wrist_3_joint"
    ],
    "metrics": {
        "cart_traj_len": 4.442395726509936,
        "distance_elbow_joint": 3.9019403288081254,
        "distance_shoulder_lift_joint": 0.09853859335130122,
        "distance_shoulder_pan_joint": 4.1402034228222195,
        "distance_wrist_1_joint": 0.7209835143790951,
        "distance_wrist_2_joint": 3.5665234238530727,
        "distance_wrist_3_joint": 2.682043027816864,
        "smoothness": 0.31864153343152146,
        "time": 0.086208769,
        "traj_len": 3.8871882268589304,
        "weighted_distance": 4.9761255314648745
    },
    "planner": "PRM",
    "start": {
        "state": {
            "elbow_joint": -1.919618573717145,
            "shoulder_lift_joint": -1.2443395971678275,
            "shoulder_pan_joint": 2.6996025300909787,
            "wrist_1_joint": -1.548550951253194,
            "wrist_2_joint": -1.5709469090946802,
            "wrist_3_joint": 0.4420197732051276
        }
    },
    "waypoints": [
        {
            "positions": [
                2.6996025300909787,
                -1.2443395971678275,
                -1.919618573717145,
                -1.548550951253194,
                -1.5709469090946802,
                0.4420197732051276
            ]
        },
        {
            "positions": [
                2.575232436676883,
                -1.2421454084322903,
                -1.8058398529465889,
                -1.5314441823326708,
                -1.4733265101600612,
                0.48067402376116775
            ]
        },
        {
            "positions": [
                2.4508623432627865,
                -1.2399512196967528,
                -1.6920611321760326,
                -1.5143374134121474,
                -1.3757061112254423,
                0.519328274317208
            ]
        },
        {
            "positions": [
                2.3264922498486906,
                -1.2377570309612156,
                -1.5782824114054765,
                -1.4972306444916241,
                -1.2780857122908236,
                0.5579825248732482
            ]
        },
        {
            "positions": [
                2.2021221564345943,
                -1.2355628422256784,
                -1.4645036906349203,
                -1.4801238755711008,
                -1.1804653133562044,
                0.5966367754292883
            ]
        },
        {
            "positions": [
                2.0777520630204984,
                -1.2333686534901411,
                -1.3507249698643642,
                -1.4630171066505777,
                -1.0828449144215857,
                0.6352910259853285
            ]
        },
        {
            "positions": [
                1.9533819696064023,
                -1.2311744647546037,
                -1.236946249093808,
                -1.4459103377300544,
                -0.9852245154869668,
                0.6739452765413687
            ]
        },
        {
            "positions": [
                1.8290118761923062,
                -1.2289802760190665,
                -1.1231675283232518,
                -1.428803568809531,
                -0.8876041165523478,
                0.7125995270974088
            ]
        },
        {
            "positions": [
                1.70464178277821,
                -1.2267860872835292,
                -1.0093888075526958,
                -1.4116967998890078,
                -0.7899837176177289,
                0.7512537776534491
            ]
        },
        {
            "positions": [
                1.580271689364114,
                -1.224591898547992,
                -0.8956100867821395,
                -1.3945900309684844,
                -0.69236331868311,
                0.7899080282094892
            ]
        },
        {
            "positions": [
                1.455901595950018,
                -1.2223977098124545,
                -0.7818313660115834,
                -1.3774832620479611,
                -0.5947429197484911,
                0.8285622787655293
            ]
        },
        {
            "positions": [
                1.331531502535922,
                -1.2202035210769173,
                -0.6680526452410271,
                -1.3603764931274378,
                -0.4971225208138721,
                0.8672165293215697
            ]
        },
        {
            "positions": [
                1.207161409121826,
                -1.21800933234138,
                -0.5542739244704711,
                -1.3432697242069145,
                -0.3995021218792534,
                0.9058707798776098
            ]
        },
        {
            "positions": [
                1.0827913157077298,
                -1.2158151436058429,
                -0.440495203699915,
                -1.3261629552863914,
                -0.30188172294463445,
                0.9445250304336499
            ]
        },
        {
            "positions": [
                0.9584212222936337,
                -1.2136209548703054,
                -0.32671648292935873,
                -1.309056186365868,
                -0.2042613240100155,
                0.9831792809896902
            ]
        },
        {
            "positions": [
                0.8340511288795374,
                -1.2114267661347682,
                -0.21293776215880245,
                -1.2919494174453447,
                -0.10664092507539635,
                1.0218335315457303
            ]
        },
        {
            "positions": [
                0.7096810354654415,
                -1.209232577399231,
                -0.09915904138824638,
                -1.2748426485248214,
                -0.00902052614077764,
                1.0604877821017706
            ]
        },
        {
            "positions": [
                0.5853109420513452,
                -1.2070383886636937,
                0.014619679382309902,
                -1.2577358796042981,
                0.0885998727938413,
                1.0991420326578107
            ]
        },
        {
            "positions": [
                0.46094084863724927,
                -1.2048441999281563,
                0.12839840015286597,
                -1.2406291106837748,
                0.18622027172846023,
                1.1377962832138508
            ]
        },
        {
            "positions": [
                0.33657075522315294,
                -1.202650011192619,
                0.24217712092342203,
                -1.2235223417632515,
                0.28384067066307916,
                1.1764505337698912
            ]
        },
        {
            "positions": [
                0.21220066180905706,
                -1.2004558224570818,
                0.3559558416939781,
                -1.2064155728427282,
                0.3814610695976979,
                1.2151047843259313
            ]
        },
        {
            "positions": [
                0.08783056839496117,
                -1.1982616337215446,
                0.4697345624645346,
                -1.1893088039222048,
                0.4790814685323168,
                1.2537590348819716
            ]
        },
        {
            "positions": [
                -0.03653952501913471,
                -1.1960674449860071,
                0.5835132832350907,
                -1.1722020350016815,
                0.576701867466936,
                1.2924132854380117
            ]
        },
        {
            "positions": [
                -0.16090961843323104,
                -1.19387325625047,
                0.6972920040056467,
                -1.1550952660811582,
                0.6743222664015547,
                1.3310675359940518
            ]
        },
        {
            "positions": [
                -0.2852797118473269,
                -1.1916790675149327,
                0.8110707247762028,
                -1.137988497160635,
                0.7719426653361734,
                1.369721786550092
            ]
        },
        {
            "positions": [
                -0.40964980526142325,
                -1.1894848787793955,
                0.9248494455467593,
                -1.1208817282401118,
                0.8695630642707926,
                1.4083760371061322
            ]
        },
        {
            "positions": [
                -0.5340198986755191,
                -1.187290690043858,
                1.038628166317315,
                -1.1037749593195885,
                0.9671834632054113,
                1.4470302876621723
            ]
        },
        {
            "positions": [
                -0.6583899920896155,
                -1.1850965013083208,
                1.1524068870878712,
                -1.0866681903990651,
                1.0648038621400304,
                1.4856845382182127
            ]
        },
        {
            "positions": [
                -0.5932057503694801,
                -1.1818218765173378,
                1.2215664594214635,
                -1.0650764609386514,
                0.9872394744218334,
                1.6222160601185276
            ]
        },
        {
            "positions": [
                -0.5280215086493447,
                -1.178547251726355,
                1.290726031755056,
                -1.0434847314782374,
                0.9096750867036363,
                1.7587475820188425
            ]
        },
        {
            "positions": [
                -0.4628372669292093,
                -1.1752726269353722,
                1.3598856040886482,
                -1.0218930020178236,
                0.8321106989854392,
                1.8952791039191574
            ]
        },
        {
            "positions": [
                -0.3976530252090739,
                -1.1719980021443892,
                1.4290451764222407,
                -1.0003012725574099,
                0.7545463112672421,
                2.0318106258194724
            ]
        },
        {
            "positions": [
                -0.3324687834889385,
                -1.1687233773534065,
                1.498204748755833,
                -0.9787095430969959,
                0.6769819235490451,
                2.1683421477197875
            ]
        },
        {
            "positions": [
                -0.2672845417688031,
                -1.1654487525624235,
                1.5673643210894252,
                -0.9571178136365821,
                0.599417535830848,
                2.304873669620102
            ]
        },
        {
            "positions": [
                -0.2021003000486677,
                -1.1621741277714406,
                1.6365238934230177,
                -0.9355260841761682,
                0.5218531481126509,
                2.4414051915204174
            ]
        },
        {
            "positions": [
                -0.13691605832853238,
                -1.1588995029804579,
                1.70568346575661,
                -0.9139343547157543,
                0.444288760394454,
                2.577936713420732
            ]
        },
        {
            "positions": [
                -0.07173181660839689,
                -1.155624878189475,
                1.7748430380902025,
                -0.8923426252553405,
                0.3667243726762569,
                2.714468235321047
            ]
        },
        {
            "positions": [
                -0.00654757488826152,
                -1.152350253398492,
                1.8440026104237948,
                -0.8707508957949266,
                0.28915998495805983,
                2.850999757221362
            ]
        },
        {
            "positions": [
                0.05863666683187385,
                -1.1490756286075092,
                1.9131621827573873,
                -0.8491591663345128,
                0.21159559723986276,
                2.9875312791216766
            ]
        },
        {
            "positions": [
                0.12382090855200924,
                -1.1458010038165263,
                1.9823217550909795,
                -0.827567436874099,
                0.13403120952166572,
                3.1240628010219917
            ]
        }
    ]
}{
    "goal": {
        "global_pose": {
            "orientation": {
                "w": 0.7047431468963623,
                "x": -0.7094548344612122,
                "y": 0.0024358443915843964,
                "z": -0.0022348060738295317
            },
            "position": {
                "x": 0.6094750761985779,
                "y": 0.3671506643295288,
                "z": 0.19426114857196808
            }
        },
        "name": "move_to_magneteinheit_A"
    },
    "id": "PRM_move_to_magneteinheit_A_102",
    "joint_names": [
        "shoulder_pan_joint",
        "shoulder_lift_joint",
        "elbow_joint",
        "wrist_1_joint",
        "wrist_2_joint",
        "wrist_3_joint"
    ],
    "metrics": {
        "cart_traj_len": 1.16184697464866,
        "distance_elbow_joint": 0.10983756254446386,
        "distance_shoulder_lift_joint": 0.7704587341388949,
        "distance_shoulder_pan_joint": 1.2417943195013366,
        "distance_wrist_1_joint": 2.2584776442759065,
        "distance_wrist_2_joint": 2.424952653506308,
        "distance_wrist_3_joint": 4.390612360563802,
        "smoothness": 0.3863936229044644,
        "time": 0.133367524,
        "traj_len": 3.3460623536525307,
        "weighted_distance": 4.965962977453672
    },
    "planner": "PRM",
    "start": {
        "state": {
            "elbow_joint": 1.919643534880228,
            "shoulder_lift_joint": -1.8972525353963687,
            "shoulder_pan_joint": -1.1188672234189438,
            "wrist_1_joint": -1.5931878212786155,
            "wrist_2_joint": 1.5706036197970081,
            "wrist_3_joint": 1.118896926603594
        }
    },
    "waypoints": [
        {
            "positions": [
                -1.1188672234189438,
                -1.8972525353963687,
                1.919643534880228,
                -1.5931878212786155,
                1.5706036197970081,
                1.118896926603594
            ]
        },
        {
            "positions": [
                -1.094729475093358,
                -1.8878785487825505,
                1.9176163350406632,
                -1.5140908228310272,
                1.4737859502624455,
                0.943687549738702
            ]
        },
        {
            "positions": [
                -1.0705917267677723,
                -1.878504562168732,
                1.9155891352010983,
                -1.434993824383439,
                1.3769682807278831,
                0.7684781728738099
            ]
        },
        {
            "positions": [
                -1.0464539784421862,
                -1.8691305755549137,
                1.9135619353615334,
                -1.3558968259358508,
                1.2801506111933207,
                0.593268796008918
            ]
        },
        {
            "positions": [
                -1.0223162301166004,
                -1.8597565889410954,
                1.9115347355219685,
                -1.2767998274882626,
                1.1833329416587581,
                0.4180594191440259
            ]
        },
        {
            "positions": [
                -0.9981784817910146,
                -1.850382602327277,
                1.9095075356824036,
                -1.1977028290406744,
                1.0865152721241957,
                0.24285004227913398
            ]
        },
        {
            "positions": [
                -0.9740407334654289,
                -1.8410086157134586,
                1.9074803358428387,
                -1.1186058305930864,
                0.9896976025896332,
                0.06764066541424207
            ]
        },
        {
            "positions": [
                -0.949902985139843,
                -1.8316346290996404,
                1.9054531360032738,
                -1.0395088321454982,
                0.8928799330550707,
                -0.10756871145064983
            ]
        },
        {
            "positions": [
                -0.9257652368142572,
                -1.8222606424858219,
                1.903425936163709,
                -0.9604118336979098,
                0.7960622635205081,
                -0.2827780883155422
            ]
        },
        {
            "positions": [
                -0.9016274884886712,
                -1.8128866558720036,
                1.901398736324144,
                -0.8813148352503217,
                0.6992445939859457,
                -0.4579874651804341
            ]
        },
        {
            "positions": [
                -0.8774897401630855,
                -1.8035126692581853,
                1.8993715364845791,
                -0.8022178368027335,
                0.6024269244513832,
                -0.633196842045326
            ]
        },
        {
            "positions": [
                -0.8533519918374997,
                -1.7941386826443668,
                1.8973443366450142,
                -0.7231208383551453,
                0.5056092549168207,
                -0.8084062189102181
            ]
        },
        {
            "positions": [
                -0.8292142435119139,
                -1.7847646960305485,
                1.8953171368054493,
                -0.6440238399075572,
                0.40879158538225835,
                -0.9836155957751098
            ]
        },
        {
            "positions": [
                -0.8050764951863278,
                -1.77539070941673,
                1.8932899369658844,
                -0.5649268414599689,
                0.31197391584769574,
                -1.1588249726400022
            ]
        },
        {
            "positions": [
                -0.780938746860742,
                -1.7660167228029118,
                1.8912627371263195,
                -0.48582984301238086,
                0.21515624631313335,
                -1.3340343495048936
            ]
        },
        {
            "positions": [
                -0.7568009985351563,
                -1.7566427361890935,
                1.8892355372867546,
                -0.4067328445647924,
                0.11833857677857074,
                -1.509243726369786
            ]
        },
        {
            "positions": [
                -0.7326632502095705,
                -1.747268749575275,
                1.8872083374471897,
                -0.3276358461172042,
                0.021520907244008125,
                -1.6844531032346783
            ]
        },
        {
            "positions": [
                -0.7085255018839847,
                -1.7378947629614567,
                1.8851811376076248,
                -0.2485388476696162,
                -0.07529676229055404,
                -1.8596624800995698
            ]
        },
        {
            "positions": [
                -0.6843877535583986,
                -1.7285207763476385,
                1.88315393776806,
                -0.16944184922202798,
                -0.17211443182511665,
                -2.034871856964462
            ]
        },
        {
            "positions": [
                -0.6602500052328129,
                -1.71914678973382,
                1.881126737928495,
                -0.09034485077443977,
                -0.26893210135967904,
                -2.210081233829354
            ]
        },
        {
            "positions": [
                -0.6361122569072271,
                -1.7097728031200017,
                1.8790995380889302,
                -0.011247852326851576,
                -0.36574977089424165,
                -2.385290610694246
            ]
        },
        {
            "positions": [
                -0.5517745510194915,
                -1.6449973584686097,
                1.8867988231726152,
                -0.08641870514064513,
                -0.31146096391479083,
                -2.4837822577237976
            ]
        },
        {
            "positions": [
                -0.467436845131756,
                -1.5802219138172178,
                1.8944981082563004,
                -0.1615895579544387,
                -0.25717215693534,
                -2.582273904753349
            ]
        },
        {
            "positions": [
                -0.3830991392440204,
                -1.5154464691658258,
                1.9021973933399854,
                -0.23676041076823223,
                -0.20288334995588922,
                -2.6807655517829003
            ]
        },
        {
            "positions": [
                -0.29876143335628486,
                -1.4506710245144339,
                1.9098966784236706,
                -0.31193126358202583,
                -0.1485945429764384,
                -2.7792571988124517
            ]
        },
        {
            "positions": [
                -0.21442372746854926,
                -1.3858955798630417,
                1.9175959635073556,
                -0.3871021163958194,
                -0.09430573599698755,
                -2.8777488458420035
            ]
        },
        {
            "positions": [
                -0.13008602158081373,
                -1.32112013521165,
                1.9252952485910408,
                -0.4622729692096129,
                -0.040016929017536784,
                -2.976240492871555
            ]
        },
        {
            "positions": [
                -0.045748315693078134,
                -1.2563446905602578,
                1.9329945336747258,
                -0.5374438220234065,
                0.014271877961914037,
                -3.0747321399011063
            ]
        },
        {
            "positions": [
                0.03858939019465735,
                -1.1915692459088658,
                1.940693818758411,
                -0.6126146748372,
                0.06856068494136486,
                -3.1732237869306577
            ]
        },
        {
            "positions": [
                0.1229270960823929,
                -1.1267938012574739,
                1.948393103842096,
                -0.6877855276509935,
                0.12284949192081568,
                -3.271715433960209
            ]
        }
    ]
}