{
    "goal": {
        "global_pose": {
            "orientation": {
                "w": 0.7047431468963623,
                "x": -0.7094548344612122,
                "y": 0.0024358443915843964,
                "z": -0.0022348060738295317
            },
            "position": {
                "x": 0.6094750761985779,
                "y": 0.3671506643295288,
                "z": 0.19426114857196808
            }
        },
        "name": "move_to_magneteinheit_A"
    },
    "id": "PRM_move_to_magneteinheit_A_109",
    "joint_names": [
        "shoulder_pan_joint",
        "shoulder_lift_joint",
        "elbow_joint",
        "wrist_1_joint",
        "wrist_2_joint",
        "wrist_3_joint"
    ],
    "metrics": {
        "cart_traj_len": 3.1367418093526287,
        "distance_elbow_joint": 3.934523566546943,
        "distance_shoulder_lift_joint": 0.9847766776021558,
        "distance_shoulder_pan_joint": 3.7955452183646283,
        "distance_wrist_1_joint": 3.540535512128147,
        "distance_wrist_2_joint": 1.4385911454728293,
        "distance_wrist_3_joint": 0.8424133761266936,
        "smoothness": 0.21380837628029517,
        "time": 0.065848199,
        "traj_len": 3.812661209213506,
        "weighted_distance": 4.604382575991677
    },
    "planner": "PRM",
    "start": {
        "state": {
            "elbow_joint": -1.919618573717145,
            "shoulder_lift_joint": -1.2443395971678275,
            "shoulder_pan_joint": 2.6996025300909787,
            "wrist_1_joint": -1.548550951253194,
            "wrist_2_joint": -1.5709469090946802,
            "wrist_3_joint": 0.4420197732051276
        }
    },
    "waypoints": [
        {
            "positions": [
                2.6996025300909787,
                -1.2443395971678275,
                -1.919618573717145,
                -1.548550951253194,
                -1.5709469090946802,
                0.4420197732051276
            ]
        },
        {
            "positions": [
                2.5897270268175765,
                -1.253424503961346,
                -1.8088809389745863,
                -1.4593100774852756,
                -1.5292253744585194,
                0.4186285189404504
            ]
        },
        {
            "positions": [
                2.4798515235441743,
                -1.262509410754865,
                -1.698143304232028,
                -1.3700692037173572,
                -1.4875038398223583,
                0.39523726467577314
            ]
        },
        {
            "positions": [
                2.369976020270772,
                -1.2715943175483835,
                -1.5874056694894694,
                -1.2808283299494385,
                -1.4457823051861975,
                0.37184601041109594
            ]
        },
        {
            "positions": [
                2.2601005169973702,
                -1.2806792243419023,
                -1.4766680347469108,
                -1.19158745618152,
                -1.4040607705500365,
                0.34845475614641874
            ]
        },
        {
            "positions": [
                2.1502250137239676,
                -1.2897641311354209,
                -1.3659304000043524,
                -1.1023465824136016,
                -1.3623392359138757,
                0.32506350188174155
            ]
        },
        {
            "positions": [
                2.040349510450566,
                -1.2988490379289397,
                -1.2551927652617938,
                -1.013105708645683,
                -1.320617701277715,
                0.30167224761706435
            ]
        },
        {
            "positions": [
                1.9304740071771636,
                -1.3079339447224583,
                -1.1444551305192352,
                -0.9238648348777645,
                -1.278896166641554,
                0.2782809933523871
            ]
        },
        {
            "positions": [
                1.8205985039037613,
                -1.317018851515977,
                -1.0337174957766768,
                -0.834623961109846,
                -1.2371746320053931,
                0.2548897390877099
            ]
        },
        {
            "positions": [
                1.710723000630359,
                -1.3261037583094957,
                -0.9229798610341181,
                -0.7453830873419275,
                -1.195453097369232,
                0.23149848482303267
            ]
        },
        {
            "positions": [
                1.6008474973569569,
                -1.3351886651030145,
                -0.8122422262915596,
                -0.656142213574009,
                -1.1537315627330713,
                0.20810723055835548
            ]
        },
        {
            "positions": [
                1.4909719940835549,
                -1.344273571896533,
                -0.7015045915490012,
                -0.5669013398060906,
                -1.1120100280969103,
                0.1847159762936783
            ]
        },
        {
            "positions": [
                1.3810964908101526,
                -1.3533584786900517,
                -0.5907669568064426,
                -0.477660466038172,
                -1.0702884934607495,
                0.16132472202900106
            ]
        },
        {
            "positions": [
                1.2712209875367504,
                -1.3624433854835705,
                -0.48002932206388405,
                -0.3884195922702536,
                -1.0285669588245887,
                0.13793346776432386
            ]
        },
        {
            "positions": [
                1.1613454842633484,
                -1.371528292277089,
                -0.36929168732132545,
                -0.2991787185023349,
                -0.9868454241884277,
                0.1145422134996466
            ]
        },
        {
            "positions": [
                1.0514699809899462,
                -1.3806131990706079,
                -0.25855405257876685,
                -0.20993784473441646,
                -0.9451238895522668,
                0.09115095923496941
            ]
        },
        {
            "positions": [
                0.9415944777165441,
                -1.3896981058641265,
                -0.14781641783620847,
                -0.12069697096649801,
                -0.903402354916106,
                0.06775970497029221
            ]
        },
        {
            "positions": [
                0.8317189744431419,
                -1.398783012657645,
                -0.03707878309365009,
                -0.03145609719857956,
                -0.8616808202799451,
                0.04436845070561507
            ]
        },
        {
            "positions": [
                0.7218434711697397,
                -1.4078679194511639,
                0.07365885164890873,
                0.057784776569339114,
                -0.8199592856437842,
                0.020977196440937762
            ]
        },
        {
            "positions": [
                0.6119679678963377,
                -1.4169528262446827,
                0.18439648639146689,
                0.14702565033725734,
                -0.7782377510076234,
                -0.0024140578237393795
            ]
        },
        {
            "positions": [
                0.502092464622935,
                -1.4260377330382012,
                0.2951341211340257,
                0.236266524105176,
                -0.7365162163714624,
                -0.025805312088416632
            ]
        },
        {
            "positions": [
                0.3922169613495332,
                -1.4351226398317198,
                0.4058717558765841,
                0.32550739787309446,
                -0.6947946817353016,
                -0.04919656635309383
            ]
        },
        {
            "positions": [
                0.282341458076131,
                -1.4442075466252386,
                0.5166093906191425,
                0.4147482716410129,
                -0.6530731470991407,
                -0.07258782061777097
            ]
        },
        {
            "positions": [
                0.17246595480272875,
                -1.4532924534187572,
                0.6273470253617013,
                0.5039891454089314,
                -0.6113516124629798,
                -0.09597907488244822
            ]
        },
        {
            "positions": [
                0.06259045152932652,
                -1.462377360212276,
                0.7380846601042597,
                0.59323001917685,
                -0.5696300778268188,
                -0.11937032914712548
            ]
        },
        {
            "positions": [
                -0.04728505174407527,
                -1.4714622670057946,
                0.848822294846818,
                0.6824708929447683,
                -0.527908543190658,
                -0.14276158341180262
            ]
        },
        {
            "positions": [
                -0.15716055501747794,
                -1.4805471737993134,
                0.9595599295893769,
                0.7717117667126869,
                -0.48618700855449704,
                -0.16615283767647987
            ]
        },
        {
            "positions": [
                -0.26703605829087973,
                -1.489632080592832,
                1.0702975643319352,
                0.8609526404806056,
                -0.44446547391833624,
                -0.18954409194115712
            ]
        },
        {
            "positions": [
                -0.37691156156428196,
                -1.4987169873863508,
                1.181035199074494,
                0.9501935142485243,
                -0.4027439392821752,
                -0.21293534620583437
            ]
        },
        {
            "positions": [
                -0.4867870648376844,
                -1.5078018941798694,
                1.2917728338170522,
                1.0394343880164425,
                -0.3610224046460144,
                -0.23632660047051152
            ]
        },
        {
            "positions": [
                -0.4191031066781328,
                -1.427655851892079,
                1.372120851485135,
                1.1452732961118326,
                -0.3356150000877741,
                -0.2180969335315055
            ]
        },
        {
            "positions": [
                -0.3514191485185811,
                -1.3475098096042886,
                1.452468869153218,
                1.2511122042072227,
                -0.31020759552953375,
                -0.19986726659249948
            ]
        },
        {
            "positions": [
                -0.2837351903590294,
                -1.2673637673164981,
                1.532816886821301,
                1.3569511123026126,
                -0.2848001909712934,
                -0.18163759965349344
            ]
        },
        {
            "positions": [
                -0.21605123219947775,
                -1.1872177250287077,
                1.6131649044893839,
                1.4627900203980027,
                -0.2593927864130531,
                -0.16340793271448742
            ]
        },
        {
            "positions": [
                -0.148367274039926,
                -1.1070716827409173,
                1.6935129221574667,
                1.5686289284933927,
                -0.23398538185481274,
                -0.14517826577548137
            ]
        },
        {
            "positions": [
                -0.08068331588037436,
                -1.0269256404531268,
                1.7738609398255496,
                1.6744678365887826,
                -0.2085779772965724,
                -0.12694859883647536
            ]
        },
        {
            "positions": [
                -0.012999357720822668,
                -0.9467795981653364,
                1.8542089574936327,
                1.780306744684173,
                -0.18317057273833207,
                -0.10871893189746934
            ]
        },
        {
            "positions": [
                0.054684600438728914,
                -0.866633555877546,
                1.9345569751617155,
                1.8861456527795628,
                -0.15776316818009173,
                -0.09048926495846332
            ]
        },
        {
            "positions": [
                0.1223685585982807,
                -0.7864875135897555,
                2.0149049928297984,
                1.991984560874953,
                -0.1323557636218514,
                -0.07225959801945728
            ]
        }
    ]
}{
    "goal": {
        "global_pose": {
            "orientation": {
                "w": 0.7047431468963623,
                "x": -0.7094548344612122,
                "y": 0.0024358443915843964,
                "z": -0.0022348060738295317
            },
            "position": {
                "x": 0.6094750761985779,
                "y": 0.3671506643295288,
                "z": 0.19426114857196808
            }
        },
        "name": "move_to_magneteinheit_A"
    },
    "id": "PRM_move_to_magneteinheit_A_109",
    "joint_names": [
        "shoulder_pan_joint",
        "shoulder_lift_joint",
        "elbow_joint",
        "wrist_1_joint",
        "wrist_2_joint",
        "wrist_3_joint"
    ],
    "metrics": {
        "cart_traj_len": 1.250452133422837,
        "distance_elbow_joint": 0.08180173832139936,
        "distance_shoulder_lift_joint": 1.1162498951692927,
        "distance_shoulder_pan_joint": 1.241927034231738,
        "distance_wrist_1_joint": 3.541546688143323,
        "distance_wrist_2_joint": 1.700548335442487,
        "distance_wrist_3_joint": 1.1364215679846401,
        "smoothness": 3.7007434447208084e-16,
        "time": 0.046975913,
        "traj_len": 2.9695951339017377,
        "weighted_distance": 4.041464266679587
    },
    "planner": "PRM",
    "start": {
        "state": {
            "elbow_joint": 1.919643534880228,
            "shoulder_lift_joint": -1.8972525353963687,
            "shoulder_pan_joint": -1.1188672234189438,
            "wrist_1_joint": -1.5931878212786155,
            "wrist_2_joint": 1.5706036197970081,
            "wrist_3_joint": 1.118896926603594
        }
    },
    "waypoints": [
        {
            "positions": [
                -1.1188672234189438,
                -1.8972525353963687,
                1.919643534880228,
                -1.5931878212786155,
                1.5706036197970081,
                1.118896926603594
            ]
        },
        {
            "positions": [
                -1.064870395843651,
                -1.8487199312585734,
                1.92320013219855,
                -1.4392075304897753,
                1.4966667356473349,
                1.0694872932129575
            ]
        },
        {
            "positions": [
                -1.0108735682683578,
                -1.800187327120778,
                1.9267567295168715,
                -1.2852272397009352,
                1.4227298514976614,
                1.020077659822321
            ]
        },
        {
            "positions": [
                -0.9568767406930649,
                -1.7516547229829826,
                1.9303133268351933,
                -1.131246948912095,
                1.3487929673479881,
                0.9706680264316844
            ]
        },
        {
            "positions": [
                -0.902879913117772,
                -1.7031221188451875,
                1.9338699241535149,
                -0.977266658123255,
                1.2748560831983147,
                0.9212583930410478
            ]
        },
        {
            "positions": [
                -0.8488830855424792,
                -1.6545895147073921,
                1.9374265214718367,
                -0.8232863673344148,
                1.2009191990486414,
                0.8718487596504113
            ]
        },
        {
            "positions": [
                -0.7948862579671861,
                -1.6060569105695968,
                1.9409831187901583,
                -0.6693060765455747,
                1.1269823148989682,
                0.8224391262597748
            ]
        },
        {
            "positions": [
                -0.7408894303918931,
                -1.5575243064318014,
                1.94453971610848,
                -0.5153257857567344,
                1.0530454307492947,
                0.7730294928691382
            ]
        },
        {
            "positions": [
                -0.6868926028166003,
                -1.508991702294006,
                1.948096313426802,
                -0.3613454949678945,
                0.9791085465996213,
                0.7236198594785017
            ]
        },
        {
            "positions": [
                -0.6328957752413072,
                -1.4604590981562107,
                1.9516529107451235,
                -0.20736520417905413,
                0.905171662449948,
                0.6742102260878652
            ]
        },
        {
            "positions": [
                -0.5788989476660144,
                -1.4119264940184153,
                1.9552095080634453,
                -0.05338491339021423,
                0.8312347783002746,
                0.6248005926972287
            ]
        },
        {
            "positions": [
                -0.5249021200907213,
                -1.3633938898806202,
                1.9587661053817669,
                0.10059537739862612,
                0.7572978941506012,
                0.5753909593065921
            ]
        },
        {
            "positions": [
                -0.47090529251542845,
                -1.3148612857428246,
                1.9623227027000887,
                0.254575668187466,
                0.683361010000928,
                0.5259813259159557
            ]
        },
        {
            "positions": [
                -0.41690846494013556,
                -1.2663286816050294,
                1.9658793000184103,
                0.4085559589763059,
                0.6094241258512546,
                0.47657169252531917
            ]
        },
        {
            "positions": [
                -0.36291163736484244,
                -1.2177960774672338,
                1.969435897336732,
                0.5625362497651467,
                0.5354872417015812,
                0.4271620591346825
            ]
        },
        {
            "positions": [
                -0.30891480978954955,
                -1.1692634733294387,
                1.9729924946550537,
                0.7165165405539866,
                0.46155035755190776,
                0.3777524257440461
            ]
        },
        {
            "positions": [
                -0.25491798221425666,
                -1.1207308691916433,
                1.9765490919733755,
                0.8704968313428265,
                0.3876134734022345,
                0.3283427923534096
            ]
        },
        {
            "positions": [
                -0.20092115463896376,
                -1.072198265053848,
                1.9801056892916973,
                1.0244771221316664,
                0.31367658925256126,
                0.27893315896277304
            ]
        },
        {
            "positions": [
                -0.14692432706367065,
                -1.0236656609160526,
                1.9836622866100189,
                1.1784574129205072,
                0.23973970510288778,
                0.2295235255721364
            ]
        },
        {
            "positions": [
                -0.09292749948837775,
                -0.9751330567782573,
                1.9872188839283407,
                1.332437703709347,
                0.16580282095321452,
                0.18011389218149998
            ]
        },
        {
            "positions": [
                -0.03893067191308486,
                -0.926600452640462,
                1.9907754812466623,
                1.486417994498187,
                0.09186593680354105,
                0.13070425879086345
            ]
        },
        {
            "positions": [
                0.015066155662208036,
                -0.8780678485026667,
                1.994332078564984,
                1.6403982852870274,
                0.017929052653867794,
                0.08129462540022692
            ]
        },
        {
            "positions": [
                0.06906298323750115,
                -0.8295352443648714,
                1.9978886758833057,
                1.7943785760758677,
                -0.05600783149580568,
                0.031884992009590274
            ]
        },
        {
            "positions": [
                0.12305981081279409,
                -0.781002640227076,
                2.0014452732016275,
                1.9483588668647076,
                -0.12994471564547894,
                -0.01752464138104611
            ]
        }
    ]
}