{
    "goal": {
        "global_pose": {
            "orientation": {
                "w": 0.5084816217422485,
                "x": -0.49083608388900757,
                "y": 0.5182115435600281,
                "z": -0.4816462993621826
            },
            "position": {
                "x": 0.5540239810943604,
                "y": 0.030875300988554955,
                "z": 0.16403168439865112
            }
        },
        "name": "move_to_storage_A"
    },
    "id": "PRM_move_to_storage_A_15",
    "joint_names": [
        "shoulder_pan_joint",
        "shoulder_lift_joint",
        "elbow_joint",
        "wrist_1_joint",
        "wrist_2_joint",
        "wrist_3_joint"
    ],
    "metrics": {
        "cart_traj_len": 0.3524183926752784,
        "distance_elbow_joint": 0.449659018404617,
        "distance_shoulder_lift_joint": 0.2343331265906492,
        "distance_shoulder_pan_joint": 0.4567384120071179,
        "distance_wrist_1_joint": 0.24276995521593914,
        "distance_wrist_2_joint": 1.1150907947723705,
        "distance_wrist_3_joint": 0.10139910738471292,
        "smoothness": 4.440892098500626e-16,
        "time": 0.031357267,
        "traj_len": 1.6124485772809647,
        "weighted_distance": 2.039766991382384
    },
    "planner": "PRM",
    "start": {
        "state": {
            "elbow_joint": 1.9715477243005601,
            "shoulder_lift_joint": -1.1394853015351272,
            "shoulder_pan_joint": 0.12281154014795169,
            "wrist_1_joint": -0.7804696478968182,
            "wrist_2_joint": 0.12958648046900423,
            "wrist_3_joint": -3.192491284697111
        }
    },
    "waypoints": [
        {
            "positions": [
                0.12281154014795169,
                -1.1394853015351272,
                1.9715477243005601,
                -0.7804696478968182,
                0.12958648046900423,
                -3.192491284697111
            ]
        },
        {
            "positions": [
                0.05756319557550628,
                -1.1729614624766485,
                2.035784726929791,
                -0.8151510700705238,
                0.2888851654364857,
                -3.1780056979278664
            ]
        },
        {
            "positions": [
                -0.007685148996939131,
                -1.2064376234181697,
                2.100021729559022,
                -0.8498324922442293,
                0.4481838504039672,
                -3.163520111158622
            ]
        },
        {
            "positions": [
                -0.07293349356938454,
                -1.239913784359691,
                2.164258732188253,
                -0.8845139144179349,
                0.6074825353714487,
                -3.149034524389377
            ]
        },
        {
            "positions": [
                -0.13818183814182994,
                -1.2733899453012123,
                2.228495734817484,
                -0.9191953365916405,
                0.7667812203389301,
                -3.1345489376201323
            ]
        },
        {
            "positions": [
                -0.20343018271427538,
                -1.3068661062427338,
                2.2927327374467152,
                -0.9538767587653461,
                0.9260799053064117,
                -3.1200633508508875
            ]
        },
        {
            "positions": [
                -0.26867852728672076,
                -1.340342267184255,
                2.356969740075946,
                -0.9885581809390517,
                1.0853785902738933,
                -3.105577764081643
            ]
        },
        {
            "positions": [
                -0.3339268718591662,
                -1.3738184281257764,
                2.421206742705177,
                -1.0232396031127573,
                1.2446772752413748,
                -3.0910921773123983
            ]
        }
    ]
}