{
    "goal": {
        "global_pose": {
            "orientation": {
                "w": 0.7047431468963623,
                "x": -0.7094548344612122,
                "y": 0.0024358443915843964,
                "z": -0.0022348060738295317
            },
            "position": {
                "x": 0.6094750761985779,
                "y": 0.3671506643295288,
                "z": 0.19426114857196808
            }
        },
        "name": "move_to_magneteinheit_A"
    },
    "id": "PRM_move_to_magneteinheit_A_80",
    "joint_names": [
        "shoulder_pan_joint",
        "shoulder_lift_joint",
        "elbow_joint",
        "wrist_1_joint",
        "wrist_2_joint",
        "wrist_3_joint"
    ],
    "metrics": {
        "cart_traj_len": 3.4381938158676717,
        "distance_elbow_joint": 3.9170386260361836,
        "distance_shoulder_lift_joint": 0.5425525580674521,
        "distance_shoulder_pan_joint": 2.91407458562571,
        "distance_wrist_1_joint": 3.4842393080159377,
        "distance_wrist_2_joint": 1.4380191828344395,
        "distance_wrist_3_joint": 0.6696996380981668,
        "smoothness": 0.10096210819435522,
        "time": 0.155710445,
        "traj_len": 3.6007810123191173,
        "weighted_distance": 4.3848924349092755
    },
    "planner": "PRM",
    "start": {
        "state": {
            "elbow_joint": -1.919618573717145,
            "shoulder_lift_joint": -1.2443395971678275,
            "shoulder_pan_joint": 2.6996025300909787,
            "wrist_1_joint": -1.548550951253194,
            "wrist_2_joint": -1.5709469090946802,
            "wrist_3_joint": 0.4420197732051276
        }
    },
    "waypoints": [
        {
            "positions": [
                2.6996025300909787,
                -1.2443395971678275,
                -1.919618573717145,
                -1.548550951253194,
                -1.5709469090946802,
                0.4420197732051276
            ]
        },
        {
            "positions": [
                2.5605678407310735,
                -1.2532251958184837,
                -1.8563673472298419,
                -1.516143171317672,
                -1.4807515161544054,
                0.49394883637340903
            ]
        },
        {
            "positions": [
                2.421533151371168,
                -1.2621107944691399,
                -1.7931161207425386,
                -1.48373539138215,
                -1.3905561232141306,
                0.5458778995416905
            ]
        },
        {
            "positions": [
                2.3266473159108036,
                -1.2427247482221455,
                -1.688283275908574,
                -1.3615184045744773,
                -1.352864836417497,
                0.5348320862061264
            ]
        },
        {
            "positions": [
                2.231761480450439,
                -1.2233387019751512,
                -1.5834504310746094,
                -1.2393014177668045,
                -1.3151735496208636,
                0.5237862728705625
            ]
        },
        {
            "positions": [
                2.1368756449900745,
                -1.203952655728157,
                -1.4786175862406448,
                -1.1170844309591317,
                -1.2774822628242302,
                0.5127404595349984
            ]
        },
        {
            "positions": [
                2.04198980952971,
                -1.1845666094811627,
                -1.3737847414066802,
                -0.9948674441514589,
                -1.2397909760275967,
                0.5016946461994343
            ]
        },
        {
            "positions": [
                1.9471039740693452,
                -1.1651805632341683,
                -1.2689518965727156,
                -0.8726504573437861,
                -1.2020996892309632,
                0.49064883286387023
            ]
        },
        {
            "positions": [
                1.8522181386089807,
                -1.145794516987174,
                -1.1641190517387512,
                -0.7504334705361133,
                -1.1644084024343297,
                0.4796030195283062
            ]
        },
        {
            "positions": [
                1.757332303148616,
                -1.1264084707401798,
                -1.0592862069047866,
                -0.6282164837284405,
                -1.1267171156376963,
                0.4685572061927421
            ]
        },
        {
            "positions": [
                1.6624464676882513,
                -1.1070224244931854,
                -0.954453362070822,
                -0.5059994969207677,
                -1.0890258288410628,
                0.45751139285717807
            ]
        },
        {
            "positions": [
                1.5675606322278868,
                -1.087636378246191,
                -0.8496205172368575,
                -0.38378251011309494,
                -1.0513345420444293,
                0.44646557952161403
            ]
        },
        {
            "positions": [
                1.4726747967675222,
                -1.0682503319991967,
                -0.7447876724028928,
                -0.26156552330542215,
                -1.0136432552477959,
                0.43541976618604994
            ]
        },
        {
            "positions": [
                1.3777889613071577,
                -1.0488642857522024,
                -0.6399548275689284,
                -0.13934853649774936,
                -0.9759519684511623,
                0.4243739528504859
            ]
        },
        {
            "positions": [
                1.2829031258467931,
                -1.0294782395052082,
                -0.5351219827349638,
                -0.017131549690076575,
                -0.9382606816545288,
                0.41332813951492187
            ]
        },
        {
            "positions": [
                1.1880172903864286,
                -1.0100921932582139,
                -0.4302891379009992,
                0.10508543711759621,
                -0.9005693948578953,
                0.4022823261793578
            ]
        },
        {
            "positions": [
                1.093131454926064,
                -0.9907061470112195,
                -0.3254562930670346,
                0.227302423925269,
                -0.8628781080612619,
                0.3912365128437937
            ]
        },
        {
            "positions": [
                0.9982456194656995,
                -0.9713201007642253,
                -0.22062344823307023,
                0.34951941073294157,
                -0.8251868212646284,
                0.3801906995082297
            ]
        },
        {
            "positions": [
                0.9033597840053347,
                -0.9519340545172309,
                -0.11579060339910541,
                0.4717363975406146,
                -0.7874955344679948,
                0.3691448861726656
            ]
        },
        {
            "positions": [
                0.8084739485449701,
                -0.9325480082702367,
                -0.01095775856514103,
                0.5939533843482874,
                -0.7498042476713614,
                0.3580990728371015
            ]
        },
        {
            "positions": [
                0.7135881130846056,
                -0.9131619620232423,
                0.09387508626882357,
                0.7161703711559602,
                -0.712112960874728,
                0.3470532595015375
            ]
        },
        {
            "positions": [
                0.6187022776242412,
                -0.893775915776248,
                0.19870793110278817,
                0.838387357963633,
                -0.6744216740780945,
                0.33600744616597344
            ]
        },
        {
            "positions": [
                0.5238164421638762,
                -0.8743898695292537,
                0.303540775936753,
                0.9606043447713057,
                -0.6367303872814609,
                0.32496163283040935
            ]
        },
        {
            "positions": [
                0.4289306067035119,
                -0.8550038232822594,
                0.40837362077071715,
                1.0828213315789785,
                -0.5990391004848274,
                0.3139158194948453
            ]
        },
        {
            "positions": [
                0.33404477124314713,
                -0.8356177770352651,
                0.5132064656046817,
                1.2050383183866513,
                -0.561347813688194,
                0.3028700061592813
            ]
        },
        {
            "positions": [
                0.23915893578278258,
                -0.8162317307882708,
                0.6180393104386463,
                1.327255305194324,
                -0.5236565268915606,
                0.2918241928237172
            ]
        },
        {
            "positions": [
                0.14427310032241802,
                -0.7968456845412765,
                0.722872155272611,
                1.449472292001997,
                -0.48596524009492703,
                0.28077837948815315
            ]
        },
        {
            "positions": [
                0.04938726486205347,
                -0.7774596382942822,
                0.8277050001065756,
                1.5716892788096697,
                -0.44827395329829356,
                0.26973256615258906
            ]
        },
        {
            "positions": [
                -0.045498570598310986,
                -0.7580735920472879,
                0.9325378449405402,
                1.6939062656173427,
                -0.4105826665016601,
                0.258686752817025
            ]
        },
        {
            "positions": [
                -0.02625182964883045,
                -0.7586767121262346,
                1.0904865669772272,
                1.7387987662516782,
                -0.3701934329673843,
                0.2168777224241415
            ]
        },
        {
            "positions": [
                -0.007005088699349911,
                -0.7592798322051812,
                1.248435289013914,
                1.7836912668860139,
                -0.3298041994331084,
                0.17506869203125797
            ]
        },
        {
            "positions": [
                0.025614912060014566,
                -0.7641643117517798,
                1.4356814798401953,
                1.8216905393551963,
                -0.28058508113989156,
                0.1263106159684651
            ]
        },
        {
            "positions": [
                0.058234912819379044,
                -0.7690487912983783,
                1.6229276706664768,
                1.8596898118243788,
                -0.23136596284667474,
                0.07755253990567224
            ]
        },
        {
            "positions": [
                0.09085491357874353,
                -0.773933270844977,
                1.810173861492758,
                1.8976890842935612,
                -0.18214684455345792,
                0.02879446384287937
            ]
        },
        {
            "positions": [
                0.123474914338108,
                -0.7788177503915755,
                1.9974200523190393,
                1.9356883567627436,
                -0.13292772626024107,
                -0.019963612219913492
            ]
        }
    ]
}{
    "goal": {
        "global_pose": {
            "orientation": {
                "w": 0.7047431468963623,
                "x": -0.7094548344612122,
                "y": 0.0024358443915843964,
                "z": -0.0022348060738295317
            },
            "position": {
                "x": 0.6094750761985779,
                "y": 0.3671506643295288,
                "z": 0.19426114857196808
            }
        },
        "name": "move_to_magneteinheit_A"
    },
    "id": "PRM_move_to_magneteinheit_A_80",
    "joint_names": [
        "shoulder_pan_joint",
        "shoulder_lift_joint",
        "elbow_joint",
        "wrist_1_joint",
        "wrist_2_joint",
        "wrist_3_joint"
    ],
    "metrics": {
        "cart_traj_len": 1.2840169495560927,
        "distance_elbow_joint": 1.219177586474658,
        "distance_shoulder_lift_joint": 0.7671580466933778,
        "distance_shoulder_pan_joint": 1.2421636364990516,
        "distance_wrist_1_joint": 2.277797024968334,
        "distance_wrist_2_joint": 2.0001489320976287,
        "distance_wrist_3_joint": 4.36769109035514,
        "smoothness": 0.35039237313829,
        "time": 0.163240023,
        "traj_len": 3.4458868694558427,
        "weighted_distance": 4.988733752653515
    },
    "planner": "PRM",
    "start": {
        "state": {
            "elbow_joint": 1.919643534880228,
            "shoulder_lift_joint": -1.8972525353963687,
            "shoulder_pan_joint": -1.1188672234189438,
            "wrist_1_joint": -1.5931878212786155,
            "wrist_2_joint": 1.5706036197970081,
            "wrist_3_joint": 1.118896926603594
        }
    },
    "waypoints": [
        {
            "positions": [
                -1.1188672234189438,
                -1.8972525353963687,
                1.919643534880228,
                -1.5931878212786155,
                1.5706036197970081,
                1.118896926603594
            ]
        },
        {
            "positions": [
                -1.0899046699961072,
                -1.8740651557715893,
                1.891479158012704,
                -1.5179368005170544,
                1.4885811183039137,
                0.9689428020517011
            ]
        },
        {
            "positions": [
                -1.0609421165732706,
                -1.8508777761468098,
                1.86331478114518,
                -1.442685779755493,
                1.4065586168108193,
                0.8189886774998083
            ]
        },
        {
            "positions": [
                -1.0319795631504343,
                -1.8276903965220301,
                1.8351504042776559,
                -1.367434758993932,
                1.3245361153177249,
                0.6690345529479155
            ]
        },
        {
            "positions": [
                -1.0030170097275977,
                -1.8045030168972507,
                1.806986027410132,
                -1.2921837382323706,
                1.2425136138246304,
                0.5190804283960226
            ]
        },
        {
            "positions": [
                -0.9740544563047611,
                -1.7813156372724712,
                1.7788216505426078,
                -1.2169327174708096,
                1.160491112331536,
                0.3691263038441298
            ]
        },
        {
            "positions": [
                -0.9450919028819245,
                -1.7581282576476918,
                1.7506572736750838,
                -1.1416816967092482,
                1.0784686108384416,
                0.21917217929223698
            ]
        },
        {
            "positions": [
                -0.916129349459088,
                -1.7349408780229123,
                1.7224928968075597,
                -1.0664306759476871,
                0.9964461093453473,
                0.06921805474034426
            ]
        },
        {
            "positions": [
                -0.8871667960362514,
                -1.7117534983981328,
                1.6943285199400355,
                -0.9911796551861259,
                0.9144236078522529,
                -0.08073606981154868
            ]
        },
        {
            "positions": [
                -0.8582042426134149,
                -1.6885661187733532,
                1.6661641430725116,
                -0.9159286344245647,
                0.8324011063591584,
                -0.2306901943634414
            ]
        },
        {
            "positions": [
                -0.8292416891905783,
                -1.6653787391485737,
                1.6379997662049874,
                -0.8406776136630035,
                0.750378604866064,
                -0.38064431891533435
            ]
        },
        {
            "positions": [
                -0.8002791357677417,
                -1.6421913595237942,
                1.6098353893374635,
                -0.7654265929014422,
                0.6683561033729696,
                -0.5305984434672273
            ]
        },
        {
            "positions": [
                -0.7713165823449051,
                -1.6190039798990148,
                1.5816710124699394,
                -0.6901755721398811,
                0.5863336018798753,
                -0.68055256801912
            ]
        },
        {
            "positions": [
                -0.7423540289220686,
                -1.5958166002742353,
                1.5535066356024152,
                -0.6149245513783198,
                0.5043111003867806,
                -0.830506692571013
            ]
        },
        {
            "positions": [
                -0.7133914754992321,
                -1.5726292206494557,
                1.5253422587348913,
                -0.5396735306167588,
                0.4222885988936864,
                -0.9804608171229054
            ]
        },
        {
            "positions": [
                -0.6844289220763955,
                -1.5494418410246762,
                1.4971778818673673,
                -0.4644225098551975,
                0.340266097400592,
                -1.1304149416747988
            ]
        },
        {
            "positions": [
                -0.6554663686535589,
                -1.5262544613998967,
                1.4690135049998432,
                -0.3891714890936364,
                0.25824359590749757,
                -1.2803690662266913
            ]
        },
        {
            "positions": [
                -0.6265038152307223,
                -1.5030670817751173,
                1.440849128132319,
                -0.3139204683320751,
                0.17622109441440315,
                -1.4303231907785843
            ]
        },
        {
            "positions": [
                -0.5975412618078858,
                -1.4798797021503378,
                1.412684751264795,
                -0.238669447570514,
                0.09419859292130872,
                -1.5802773153304768
            ]
        },
        {
            "positions": [
                -0.5685787083850492,
                -1.4566923225255581,
                1.384520374397271,
                -0.1634184268089527,
                0.012176091428214297,
                -1.7302314398823702
            ]
        },
        {
            "positions": [
                -0.5396161549622127,
                -1.4335049429007787,
                1.356355997529747,
                -0.0881674060473916,
                -0.06984641006488013,
                -1.8801855644342627
            ]
        },
        {
            "positions": [
                -0.5106536015393761,
                -1.4103175632759992,
                1.3281916206622228,
                -0.01291638528583039,
                -0.15186891155797447,
                -2.030139688986156
            ]
        },
        {
            "positions": [
                -0.44725860007742774,
                -1.3822952558186983,
                1.3909641878878882,
                -0.08266894418338526,
                -0.1241012714837098,
                -2.152005136462695
            ]
        },
        {
            "positions": [
                -0.38386359861547936,
                -1.3542729483613976,
                1.4537367551135534,
                -0.15242150308094013,
                -0.09633363140944512,
                -2.273870583939234
            ]
        },
        {
            "positions": [
                -0.32046859715353104,
                -1.3262506409040968,
                1.5165093223392185,
                -0.222174061978495,
                -0.06856599133518045,
                -2.395736031415773
            ]
        },
        {
            "positions": [
                -0.25707359569158267,
                -1.298228333446796,
                1.579281889564884,
                -0.29192662087604987,
                -0.04079835126091576,
                -2.517601478892312
            ]
        },
        {
            "positions": [
                -0.19367859422963435,
                -1.270206025989495,
                1.6420544567905493,
                -0.36167917977360475,
                -0.013030711186651084,
                -2.639466926368851
            ]
        },
        {
            "positions": [
                -0.13028359276768603,
                -1.2421837185321942,
                1.7048270240162144,
                -0.43143173867115964,
                0.014736928887613576,
                -2.76133237384539
            ]
        },
        {
            "positions": [
                -0.06688859130573765,
                -1.2141614110748935,
                1.7675995912418796,
                -0.5011842975687144,
                0.042504568961878264,
                -2.883197821321929
            ]
        },
        {
            "positions": [
                -0.0034935898437892243,
                -1.1861391036175926,
                1.830372158467545,
                -0.5709368564662693,
                0.07027220903614295,
                -3.005063268798468
            ]
        },
        {
            "positions": [
                0.059901411618159095,
                -1.1581167961602916,
                1.8931447256932104,
                -0.6406894153638243,
                0.09803984911040764,
                -3.1269287162750072
            ]
        },
        {
            "positions": [
                0.12329641308010746,
                -1.130094488702991,
                1.9559172929188755,
                -0.7104419742613791,
                0.12580748918467233,
                -3.2487941637515463
            ]
        }
    ]
}