{
    "goal": {
        "global_pose": {
            "orientation": {
                "w": 0.5084816217422485,
                "x": -0.49083608388900757,
                "y": 0.5182115435600281,
                "z": -0.4816462993621826
            },
            "position": {
                "x": 0.5540239810943604,
                "y": 0.030875300988554955,
                "z": 0.16403168439865112
            }
        },
        "name": "move_to_storage_A"
    },
    "id": "PRM_move_to_storage_A_49",
    "joint_names": [
        "shoulder_pan_joint",
        "shoulder_lift_joint",
        "elbow_joint",
        "wrist_1_joint",
        "wrist_2_joint",
        "wrist_3_joint"
    ],
    "metrics": {
        "cart_traj_len": 0.35345397639810106,
        "distance_elbow_joint": 0.4507641414589396,
        "distance_shoulder_lift_joint": 0.23401470719854078,
        "distance_shoulder_pan_joint": 0.4596478645459821,
        "distance_wrist_1_joint": 0.2434193283768259,
        "distance_wrist_2_joint": 1.1107171165787992,
        "distance_wrist_3_joint": 0.09417125382915348,
        "smoothness": 6.661338200497456e-16,
        "time": 0.033155859,
        "traj_len": 1.6101970103028513,
        "weighted_distance": 2.033522403270289
    },
    "planner": "PRM",
    "start": {
        "state": {
            "elbow_joint": 1.9715477243005601,
            "shoulder_lift_joint": -1.1394853015351272,
            "shoulder_pan_joint": 0.12281154014795169,
            "wrist_1_joint": -0.7804696478968182,
            "wrist_2_joint": 0.12958648046900423,
            "wrist_3_joint": -3.192491284697111
        }
    },
    "waypoints": [
        {
            "positions": [
                0.12281154014795169,
                -1.1394853015351272,
                1.9715477243005601,
                -0.7804696478968182,
                0.12958648046900423,
                -3.192491284697111
            ]
        },
        {
            "positions": [
                0.05714755949852568,
                -1.1729159739920616,
                2.035942601651837,
                -0.8152438376649361,
                0.2882603542659755,
                -3.1790382484358037
            ]
        },
        {
            "positions": [
                -0.00851642115090033,
                -1.206346646448996,
                2.100337479003114,
                -0.8500180274330541,
                0.44693422806294686,
                -3.165585212174496
            ]
        },
        {
            "positions": [
                -0.07418040180032635,
                -1.2397773189059305,
                2.164732356354391,
                -0.8847922172011721,
                0.6056081018599182,
                -3.1521321759131884
            ]
        },
        {
            "positions": [
                -0.13984438244975234,
                -1.2732079913628647,
                2.2291272337056682,
                -0.9195664069692902,
                0.7642819756568895,
                -3.1386791396518805
            ]
        },
        {
            "positions": [
                -0.20550836309917836,
                -1.306638663819799,
                2.2935221110569457,
                -0.9543405967374081,
                0.9229558494538609,
                -3.125226103390573
            ]
        },
        {
            "positions": [
                -0.2711723437486044,
                -1.3400693362767335,
                2.3579169884082227,
                -0.9891147865055261,
                1.081629723250832,
                -3.111773067129265
            ]
        },
        {
            "positions": [
                -0.3368363243980304,
                -1.373500008733668,
                2.4223118657594997,
                -1.023888976273644,
                1.2403035970478036,
                -3.0983200308679577
            ]
        }
    ]
}