{
    "goal": {
        "global_pose": {
            "orientation": {
                "w": 0.5084816217422485,
                "x": -0.49083608388900757,
                "y": 0.5182115435600281,
                "z": -0.4816462993621826
            },
            "position": {
                "x": 0.5540239810943604,
                "y": 0.030875300988554955,
                "z": 0.16403168439865112
            }
        },
        "name": "move_to_storage_A"
    },
    "id": "PRM_move_to_storage_A_91",
    "joint_names": [
        "shoulder_pan_joint",
        "shoulder_lift_joint",
        "elbow_joint",
        "wrist_1_joint",
        "wrist_2_joint",
        "wrist_3_joint"
    ],
    "metrics": {
        "cart_traj_len": 0.353123207978991,
        "distance_elbow_joint": 0.45070243039477376,
        "distance_shoulder_lift_joint": 0.23506880369076377,
        "distance_shoulder_pan_joint": 0.4578978371033044,
        "distance_wrist_1_joint": 0.24981332246929744,
        "distance_wrist_2_joint": 1.115474812488788,
        "distance_wrist_3_joint": 0.10272531599827017,
        "smoothness": 6.661338165333112e-16,
        "time": 0.02580909,
        "traj_len": 1.6160700857775934,
        "weighted_distance": 2.045096889905176
    },
    "planner": "PRM",
    "start": {
        "state": {
            "elbow_joint": 1.9715477243005601,
            "shoulder_lift_joint": -1.1394853015351272,
            "shoulder_pan_joint": 0.12281154014795169,
            "wrist_1_joint": -0.7804696478968182,
            "wrist_2_joint": 0.12958648046900423,
            "wrist_3_joint": -3.192491284697111
        }
    },
    "waypoints": [
        {
            "positions": [
                0.12281154014795169,
                -1.1394853015351272,
                1.9715477243005601,
                -0.7804696478968182,
                0.12958648046900423,
                -3.192491284697111
            ]
        },
        {
            "positions": [
                0.05739756341890821,
                -1.1730665592052363,
                2.0359337857855277,
                -0.816157265392432,
                0.2889400251102596,
                -3.177816239554501
            ]
        },
        {
            "positions": [
                -0.008016413310135265,
                -1.2066478168753454,
                2.1003198472704954,
                -0.851844882888046,
                0.4482935697515151,
                -3.163141194411891
            ]
        },
        {
            "positions": [
                -0.07343039003917874,
                -1.2402290745454545,
                2.164705908755463,
                -0.8875325003836599,
                0.6076471143927705,
                -3.148466149269281
            ]
        },
        {
            "positions": [
                -0.1388443667682222,
                -1.2738103322155636,
                2.2290919702404306,
                -0.9232201178792738,
                0.7670006590340259,
                -3.1337911041266713
            ]
        },
        {
            "positions": [
                -0.20425834349726574,
                -1.3073915898856727,
                2.2934780317253987,
                -0.9589077353748878,
                0.9263542036752814,
                -3.119116058984061
            ]
        },
        {
            "positions": [
                -0.26967232022630916,
                -1.3409728475557818,
                2.3578640932103663,
                -0.9945953528705016,
                1.085707748316537,
                -3.104441013841451
            ]
        },
        {
            "positions": [
                -0.3350862969553527,
                -1.374554105225891,
                2.422250154695334,
                -1.0302829703661156,
                1.2450612929577922,
                -3.089765968698841
            ]
        }
    ]
}