{
    "goal": {
        "global_pose": {
            "orientation": {
                "w": 0.5084816217422485,
                "x": -0.49083608388900757,
                "y": 0.5182115435600281,
                "z": -0.4816462993621826
            },
            "position": {
                "x": 0.5540239810943604,
                "y": 0.030875300988554955,
                "z": 0.16403168439865112
            }
        },
        "name": "move_to_storage_A"
    },
    "id": "PRM_move_to_storage_A_75",
    "joint_names": [
        "shoulder_pan_joint",
        "shoulder_lift_joint",
        "elbow_joint",
        "wrist_1_joint",
        "wrist_2_joint",
        "wrist_3_joint"
    ],
    "metrics": {
        "cart_traj_len": 0.3530633340546824,
        "distance_elbow_joint": 0.44997157227893325,
        "distance_shoulder_lift_joint": 0.23700935218228403,
        "distance_shoulder_pan_joint": 0.4586896879925591,
        "distance_wrist_1_joint": 0.23868045277661387,
        "distance_wrist_2_joint": 1.1129850836476907,
        "distance_wrist_3_joint": 0.09431775233065798,
        "smoothness": 9.992007236661072e-16,
        "time": 0.025292563,
        "traj_len": 1.6098614540415392,
        "weighted_distance": 2.0327210684927626
    },
    "planner": "PRM",
    "start": {
        "state": {
            "elbow_joint": 1.9715477243005601,
            "shoulder_lift_joint": -1.1394853015351272,
            "shoulder_pan_joint": 0.12281154014795169,
            "wrist_1_joint": -0.7804696478968182,
            "wrist_2_joint": 0.12958648046900423,
            "wrist_3_joint": -3.192491284697111
        }
    },
    "waypoints": [
        {
            "positions": [
                0.12281154014795169,
                -1.1394853015351272,
                1.9715477243005601,
                -0.7804696478968182,
                0.12958648046900423,
                -3.192491284697111
            ]
        },
        {
            "positions": [
                0.057284441863300395,
                -1.1733437804183107,
                2.0358293774832648,
                -0.8145668554363344,
                0.28858434956153145,
                -3.179017320078446
            ]
        },
        {
            "positions": [
                -0.0082426564213509,
                -1.207202259301494,
                2.10011103066597,
                -0.8486640629758507,
                0.44758221865405867,
                -3.1655433554597803
            ]
        },
        {
            "positions": [
                -0.07376975470600221,
                -1.2410607381846774,
                2.1643926838486744,
                -0.8827612705153669,
                0.6065800877465859,
                -3.152069390841115
            ]
        },
        {
            "positions": [
                -0.13929685299065347,
                -1.274919217067861,
                2.228674337031379,
                -0.9168584780548832,
                0.7655779568391131,
                -3.1385954262224494
            ]
        },
        {
            "positions": [
                -0.20482395127530478,
                -1.3087776959510444,
                2.292955990214084,
                -0.9509556855943995,
                0.9245758259316404,
                -3.125121461603784
            ]
        },
        {
            "positions": [
                -0.2703510495599561,
                -1.3426361748342277,
                2.3572376433967888,
                -0.9850528931339158,
                1.0835736950241674,
                -3.1116474969851184
            ]
        },
        {
            "positions": [
                -0.3358781478446074,
                -1.3764946537174112,
                2.4215192965794934,
                -1.019150100673432,
                1.2425715641166948,
                -3.098173532366453
            ]
        }
    ]
}