{
    "goal": {
        "global_pose": {
            "orientation": {
                "w": 0.7047431468963623,
                "x": -0.7094548344612122,
                "y": 0.0024358443915843964,
                "z": -0.0022348060738295317
            },
            "position": {
                "x": 0.6094750761985779,
                "y": 0.3671506643295288,
                "z": 0.19426114857196808
            }
        },
        "name": "move_to_magneteinheit_A"
    },
    "id": "PRM_move_to_magneteinheit_A_88",
    "joint_names": [
        "shoulder_pan_joint",
        "shoulder_lift_joint",
        "elbow_joint",
        "wrist_1_joint",
        "wrist_2_joint",
        "wrist_3_joint"
    ],
    "metrics": {
        "cart_traj_len": 3.53702563637327,
        "distance_elbow_joint": 3.8772279566420425,
        "distance_shoulder_lift_joint": 0.3887690581987151,
        "distance_shoulder_pan_joint": 4.103253985135192,
        "distance_wrist_1_joint": 1.3318632649356923,
        "distance_wrist_2_joint": 1.706606966286804,
        "distance_wrist_3_joint": 2.5894996040707996,
        "smoothness": 0.19408010017783983,
        "time": 0.082032144,
        "traj_len": 3.741285986832501,
        "weighted_distance": 4.7132462565235596
    },
    "planner": "PRM",
    "start": {
        "state": {
            "elbow_joint": -1.919618573717145,
            "shoulder_lift_joint": -1.2443395971678275,
            "shoulder_pan_joint": 2.6996025300909787,
            "wrist_1_joint": -1.548550951253194,
            "wrist_2_joint": -1.5709469090946802,
            "wrist_3_joint": 0.4420197732051276
        }
    },
    "waypoints": [
        {
            "positions": [
                2.6996025300909787,
                -1.2443395971678275,
                -1.919618573717145,
                -1.548550951253194,
                -1.5709469090946802,
                0.4420197732051276
            ]
        },
        {
            "positions": [
                2.5543800438415856,
                -1.250344066776304,
                -1.8169539902399612,
                -1.5015191308253577,
                -1.5367688407582165,
                0.49677638272935376
            ]
        },
        {
            "positions": [
                2.409157557592192,
                -1.2563485363847804,
                -1.7142894067627774,
                -1.4544873103975213,
                -1.502590772421753,
                0.5515329922535799
            ]
        },
        {
            "positions": [
                2.263935071342799,
                -1.2623530059932568,
                -1.6116248232855939,
                -1.407455489969685,
                -1.4684127040852895,
                0.606289601777806
            ]
        },
        {
            "positions": [
                2.1187125850934057,
                -1.268357475601733,
                -1.50896023980841,
                -1.3604236695418486,
                -1.434234635748826,
                0.6610462113020322
            ]
        },
        {
            "positions": [
                1.973490098844012,
                -1.2743619452102095,
                -1.4062956563312263,
                -1.3133918491140122,
                -1.4000565674123624,
                0.7158028208262583
            ]
        },
        {
            "positions": [
                1.828267612594619,
                -1.280366414818686,
                -1.3036310728540426,
                -1.2663600286861758,
                -1.3658784990758988,
                0.7705594303504845
            ]
        },
        {
            "positions": [
                1.6830451263452255,
                -1.2863708844271624,
                -1.2009664893768588,
                -1.2193282082583394,
                -1.3317004307394353,
                0.8253160398747107
            ]
        },
        {
            "positions": [
                1.5378226400958324,
                -1.2923753540356389,
                -1.098301905899675,
                -1.1722963878305033,
                -1.2975223624029717,
                0.8800726493989368
            ]
        },
        {
            "positions": [
                1.3926001538464388,
                -1.2983798236441153,
                -0.9956373224224914,
                -1.125264567402667,
                -1.263344294066508,
                0.934829258923163
            ]
        },
        {
            "positions": [
                1.2473776675970456,
                -1.3043842932525918,
                -0.8929727389453077,
                -1.0782327469748305,
                -1.2291662257300446,
                0.989585868447389
            ]
        },
        {
            "positions": [
                1.1021551813476522,
                -1.3103887628610682,
                -0.7903081554681239,
                -1.0312009265469941,
                -1.194988157393581,
                1.0443424779716153
            ]
        },
        {
            "positions": [
                0.9569326950982591,
                -1.3163932324695444,
                -0.6876435719909402,
                -0.9841691061191578,
                -1.1608100890571176,
                1.0990990874958413
            ]
        },
        {
            "positions": [
                0.8117102088488659,
                -1.3223977020780209,
                -0.5849789885137566,
                -0.9371372856913215,
                -1.126632020720654,
                1.1538556970200675
            ]
        },
        {
            "positions": [
                0.6664877225994723,
                -1.3284021716864973,
                -0.48231440503657264,
                -0.890105465263485,
                -1.0924539523841903,
                1.2086123065442937
            ]
        },
        {
            "positions": [
                0.5212652363500792,
                -1.3344066412949738,
                -0.3796498215593891,
                -0.8430736448356487,
                -1.0582758840477269,
                1.26336891606852
            ]
        },
        {
            "positions": [
                0.376042750100686,
                -1.3404111109034502,
                -0.2769852380822053,
                -0.7960418244078123,
                -1.0240978157112632,
                1.318125525592746
            ]
        },
        {
            "positions": [
                0.2308202638512924,
                -1.3464155805119267,
                -0.17432065460502155,
                -0.749010003979976,
                -0.9899197473747998,
                1.3728821351169722
            ]
        },
        {
            "positions": [
                0.0855977776018988,
                -1.3524200501204031,
                -0.07165607112783778,
                -0.7019781835521396,
                -0.9557416790383362,
                1.4276387446411984
            ]
        },
        {
            "positions": [
                -0.05962470864749436,
                -1.3584245197288793,
                0.031008512349345985,
                -0.6549463631243032,
                -0.9215636107018726,
                1.4823953541654245
            ]
        },
        {
            "positions": [
                -0.20484719489688752,
                -1.3644289893373558,
                0.13367309582652953,
                -0.6079145426964669,
                -0.8873855423654091,
                1.5371519636896507
            ]
        },
        {
            "positions": [
                -0.3500696811462807,
                -1.3704334589458322,
                0.2363376793037133,
                -0.5608827222686306,
                -0.8532074740289456,
                1.5919085732138767
            ]
        },
        {
            "positions": [
                -0.4952921673956743,
                -1.3764379285543087,
                0.33900226278089707,
                -0.5138509018407942,
                -0.819029405692482,
                1.6466651827381031
            ]
        },
        {
            "positions": [
                -0.6405146536450675,
                -1.3824423981627851,
                0.44166684625808084,
                -0.4668190814129578,
                -0.7848513373560184,
                1.7014217922623291
            ]
        },
        {
            "positions": [
                -0.5818118227682103,
                -1.3631603783778807,
                0.5582778106170667,
                -0.48605995795876217,
                -0.7140427685446229,
                1.803736991109529
            ]
        },
        {
            "positions": [
                -0.5231089918913531,
                -1.3438783585929763,
                0.6748887749760526,
                -0.5053008345045665,
                -0.6432341997332273,
                1.9060521899567289
            ]
        },
        {
            "positions": [
                -0.4644061610144959,
                -1.324596338808072,
                0.7914997393350385,
                -0.524541711050371,
                -0.5724256309218316,
                2.008367388803929
            ]
        },
        {
            "positions": [
                -0.4057033301376387,
                -1.3053143190231675,
                0.9081107036940242,
                -0.5437825875961753,
                -0.5016170621104361,
                2.1106825876511284
            ]
        },
        {
            "positions": [
                -0.34700049926078147,
                -1.2860322992382631,
                1.0247216680530102,
                -0.5630234641419797,
                -0.43080849329904053,
                2.2129977864983283
            ]
        },
        {
            "positions": [
                -0.28829766838392423,
                -1.2667502794533587,
                1.141332632411996,
                -0.5822643406877841,
                -0.35999992448764495,
                2.3153129853455283
            ]
        },
        {
            "positions": [
                -0.2295948375070671,
                -1.2474682596684543,
                1.2579435967709816,
                -0.6015052172335884,
                -0.28919135567624943,
                2.4176281841927283
            ]
        },
        {
            "positions": [
                -0.17089200663020981,
                -1.2281862398835497,
                1.3745545611299677,
                -0.6207460937793928,
                -0.2183827868648538,
                2.5199433830399283
            ]
        },
        {
            "positions": [
                -0.11218917575335263,
                -1.2089042200986453,
                1.4911655254889533,
                -0.6399869703251972,
                -0.14757421805345827,
                2.622258581887128
            ]
        },
        {
            "positions": [
                -0.053486344876495395,
                -1.1896222003137409,
                1.6077764898479394,
                -0.6592278468710016,
                -0.07676564924206264,
                2.7245737807343278
            ]
        },
        {
            "positions": [
                0.005216486000361731,
                -1.1703401805288365,
                1.724387454206925,
                -0.678468723416806,
                -0.0059570804306671166,
                2.8268889795815273
            ]
        },
        {
            "positions": [
                0.06391931687721908,
                -1.151058160743932,
                1.8409984185659112,
                -0.6977095999626104,
                0.06485148838072852,
                2.9292041784287273
            ]
        },
        {
            "positions": [
                0.12262214775407616,
                -1.1317761409590277,
                1.9576093829248968,
                -0.7169504765084147,
                0.13566005719212404,
                3.0315193772759272
            ]
        }
    ]
}{
    "goal": {
        "global_pose": {
            "orientation": {
                "w": 0.7047431468963623,
                "x": -0.7094548344612122,
                "y": 0.0024358443915843964,
                "z": -0.0022348060738295317
            },
            "position": {
                "x": 0.6094750761985779,
                "y": 0.3671506643295288,
                "z": 0.19426114857196808
            }
        },
        "name": "move_to_magneteinheit_A"
    },
    "id": "PRM_move_to_magneteinheit_A_88",
    "joint_names": [
        "shoulder_pan_joint",
        "shoulder_lift_joint",
        "elbow_joint",
        "wrist_1_joint",
        "wrist_2_joint",
        "wrist_3_joint"
    ],
    "metrics": {
        "cart_traj_len": 1.5753931302776187,
        "distance_elbow_joint": 0.10229789789532617,
        "distance_shoulder_lift_joint": 1.0761151459509848,
        "distance_shoulder_pan_joint": 1.7780508478791428,
        "distance_wrist_1_joint": 2.444973256027016,
        "distance_wrist_2_joint": 3.052800323530909,
        "distance_wrist_3_joint": 4.270898725492337,
        "smoothness": 0.3598138373588191,
        "time": 0.10616382,
        "traj_len": 3.5672308863845243,
        "weighted_distance": 5.173461822350514
    },
    "planner": "PRM",
    "start": {
        "state": {
            "elbow_joint": 1.919643534880228,
            "shoulder_lift_joint": -1.8972525353963687,
            "shoulder_pan_joint": -1.1188672234189438,
            "wrist_1_joint": -1.5931878212786155,
            "wrist_2_joint": 1.5706036197970081,
            "wrist_3_joint": 1.118896926603594
        }
    },
    "waypoints": [
        {
            "positions": [
                -1.1188672234189438,
                -1.8972525353963687,
                1.919643534880228,
                -1.5931878212786155,
                1.5706036197970081,
                1.118896926603594
            ]
        },
        {
            "positions": [
                -1.1395214315342819,
                -1.9097944990325932,
                1.9261301840783398,
                -1.4700952730715702,
                1.6326260627293596,
                0.9565720989717835
            ]
        },
        {
            "positions": [
                -1.16017563964962,
                -1.9223364626688177,
                1.9326168332764517,
                -1.347002724864525,
                1.694648505661711,
                0.7942472713399731
            ]
        },
        {
            "positions": [
                -1.180829847764958,
                -1.9348784263050423,
                1.9391034824745634,
                -1.2239101766574798,
                1.7566709485940626,
                0.6319224437081625
            ]
        },
        {
            "positions": [
                -1.201484055880296,
                -1.9474203899412665,
                1.9455901316726754,
                -1.1008176284504347,
                1.818693391526414,
                0.4695976160763521
            ]
        },
        {
            "positions": [
                -1.222138263995634,
                -1.959962353577491,
                1.952076780870787,
                -0.9777250802433894,
                1.8807158344587653,
                0.30727278844454164
            ]
        },
        {
            "positions": [
                -1.242792472110972,
                -1.9725043172137156,
                1.958563430068899,
                -0.8546325320363443,
                1.9427382773911168,
                0.1449479608127312
            ]
        },
        {
            "positions": [
                -1.26344668022631,
                -1.98504628084994,
                1.9650500792670107,
                -0.7315399838292992,
                2.004760720323468,
                -0.01737686681907924
            ]
        },
        {
            "positions": [
                -1.284100888341648,
                -1.9975882444861646,
                1.9715367284651226,
                -0.6084474356222539,
                2.0667831632558196,
                -0.1797016944508898
            ]
        },
        {
            "positions": [
                -1.304755096456986,
                -2.010130208122389,
                1.9780233776632343,
                -0.4853548874152087,
                2.128805606188171,
                -0.3420265220827001
            ]
        },
        {
            "positions": [
                -1.325409304572324,
                -2.0226721717586136,
                1.9845100268613463,
                -0.3622623392081634,
                2.1908280491205225,
                -0.5043513497145107
            ]
        },
        {
            "positions": [
                -1.3460635126876621,
                -2.035214135394838,
                1.990996676059458,
                -0.23916979100111835,
                2.252850492052874,
                -0.666676177346321
            ]
        },
        {
            "positions": [
                -1.3667177208030001,
                -2.0477560990310626,
                1.9974833252575699,
                -0.11607724279407305,
                2.3148729349852255,
                -0.8290010049781316
            ]
        },
        {
            "positions": [
                -1.3873719289183382,
                -2.060298062667287,
                2.0039699744556816,
                0.007015305412971996,
                2.376895377917577,
                -0.9913258326099417
            ]
        },
        {
            "positions": [
                -1.3118946217993508,
                -2.0146445817332834,
                2.003071401539688,
                -0.03522320105379952,
                2.26456994964706,
                -1.0993596309238818
            ]
        },
        {
            "positions": [
                -1.2364173146803632,
                -1.9689911007992802,
                2.0021728286236944,
                -0.07746170752057105,
                2.152244521376543,
                -1.2073934292378217
            ]
        },
        {
            "positions": [
                -1.1609400075613758,
                -1.923337619865277,
                2.001274255707701,
                -0.11970021398734257,
                2.0399190931060263,
                -1.3154272275517616
            ]
        },
        {
            "positions": [
                -1.0854627004423882,
                -1.8776841389312735,
                2.000375682791707,
                -0.1619387204541141,
                1.927593664835509,
                -1.4234610258657017
            ]
        },
        {
            "positions": [
                -1.0099853933234009,
                -1.8320306579972703,
                1.9994771098757134,
                -0.2041772269208856,
                1.8152682365649921,
                -1.5314948241796418
            ]
        },
        {
            "positions": [
                -0.9345080862044135,
                -1.7863771770632668,
                1.9985785369597198,
                -0.24641573338765713,
                1.702942808294475,
                -1.6395286224935817
            ]
        },
        {
            "positions": [
                -0.859030779085426,
                -1.7407236961292636,
                1.9976799640437262,
                -0.2886542398544286,
                1.590617380023958,
                -1.7475624208075216
            ]
        },
        {
            "positions": [
                -0.7835534719664385,
                -1.6950702151952601,
                1.9967813911277326,
                -0.33089274632120014,
                1.478291951753441,
                -1.8555962191214617
            ]
        },
        {
            "positions": [
                -0.7080761648474512,
                -1.649416734261257,
                1.995882818211739,
                -0.37313125278797166,
                1.3659665234829241,
                -1.9636300174354018
            ]
        },
        {
            "positions": [
                -0.6325988577284637,
                -1.6037632533272537,
                1.9949842452957451,
                -0.4153697592547432,
                1.253641095212407,
                -2.071663815749342
            ]
        },
        {
            "positions": [
                -0.5571215506094762,
                -1.5581097723932502,
                1.9940856723797515,
                -0.45760826572151475,
                1.14131566694189,
                -2.179697614063282
            ]
        },
        {
            "positions": [
                -0.48164424349048884,
                -1.5124562914592468,
                1.993187099463758,
                -0.4998467721882862,
                1.0289902386713732,
                -2.2877314123772217
            ]
        },
        {
            "positions": [
                -0.40616693637150136,
                -1.4668028105252435,
                1.9922885265477643,
                -0.5420852786550577,
                0.9166648104008561,
                -2.3957652106911618
            ]
        },
        {
            "positions": [
                -0.3306896292525139,
                -1.4211493295912403,
                1.9913899536317707,
                -0.5843237851218293,
                0.8043393821303393,
                -2.5037990090051014
            ]
        },
        {
            "positions": [
                -0.2552123221335265,
                -1.3754958486572368,
                1.9904913807157771,
                -0.6265622915886008,
                0.692013953859822,
                -2.6118328073190415
            ]
        },
        {
            "positions": [
                -0.17973501501453892,
                -1.3298423677232334,
                1.9895928077997835,
                -0.6688007980553723,
                0.579688525589305,
                -2.7198666056329817
            ]
        },
        {
            "positions": [
                -0.10425770789555155,
                -1.2841888867892304,
                1.9886942348837897,
                -0.7110393045221438,
                0.4673630973187881,
                -2.8279004039469218
            ]
        },
        {
            "positions": [
                -0.028780400776564186,
                -1.238535405855227,
                1.9877956619677961,
                -0.7532778109889153,
                0.3550376690482713,
                -2.935934202260862
            ]
        },
        {
            "positions": [
                0.04669690634242318,
                -1.1928819249212235,
                1.9868970890518025,
                -0.7955163174556868,
                0.24271224077775422,
                -3.0439680005748015
            ]
        },
        {
            "positions": [
                0.12217421346141083,
                -1.1472284439872202,
                1.985998516135809,
                -0.8377548239224584,
                0.13038681250723705,
                -3.1520017988887417
            ]
        }
    ]
}