{
    "goal": {
        "global_pose": {
            "orientation": {
                "w": 0.7047431468963623,
                "x": -0.7094548344612122,
                "y": 0.0024358443915843964,
                "z": -0.0022348060738295317
            },
            "position": {
                "x": 0.6094750761985779,
                "y": 0.3671506643295288,
                "z": 0.19426114857196808
            }
        },
        "name": "move_to_magneteinheit_A"
    },
    "id": "PRM_move_to_magneteinheit_A_58",
    "joint_names": [
        "shoulder_pan_joint",
        "shoulder_lift_joint",
        "elbow_joint",
        "wrist_1_joint",
        "wrist_2_joint",
        "wrist_3_joint"
    ],
    "metrics": {
        "cart_traj_len": 4.289686458683526,
        "distance_elbow_joint": 4.0201963441054644,
        "distance_shoulder_lift_joint": 1.3399750383800126,
        "distance_shoulder_pan_joint": 2.9686202578170384,
        "distance_wrist_1_joint": 1.3443550779039846,
        "distance_wrist_2_joint": 1.6999915364349167,
        "distance_wrist_3_joint": 2.566350819553192,
        "smoothness": 0.3328683621116761,
        "time": 0.204607314,
        "traj_len": 3.733562517783063,
        "weighted_distance": 4.702822272597583
    },
    "planner": "PRM",
    "start": {
        "state": {
            "elbow_joint": -1.919618573717145,
            "shoulder_lift_joint": -1.2443395971678275,
            "shoulder_pan_joint": 2.6996025300909787,
            "wrist_1_joint": -1.548550951253194,
            "wrist_2_joint": -1.5709469090946802,
            "wrist_3_joint": 0.4420197732051276
        }
    },
    "waypoints": [
        {
            "positions": [
                2.6996025300909787,
                -1.2443395971678275,
                -1.919618573717145,
                -1.548550951253194,
                -1.5709469090946802,
                0.4420197732051276
            ]
        },
        {
            "positions": [
                2.562367924075293,
                -1.2803751908112933,
                -1.8539335339839234,
                -1.5241690573440265,
                -1.4967753554062417,
                0.4818646071373881
            ]
        },
        {
            "positions": [
                2.4251333180596064,
                -1.3164107844547588,
                -1.788248494250702,
                -1.4997871634348587,
                -1.422603801717803,
                0.5217094410696486
            ]
        },
        {
            "positions": [
                2.2878987120439205,
                -1.3524463780982245,
                -1.7225634545174804,
                -1.4754052695256912,
                -1.3484322480293647,
                0.5615542750019091
            ]
        },
        {
            "positions": [
                2.1506641060282345,
                -1.38848197174169,
                -1.656878414784259,
                -1.4510233756165234,
                -1.274260694340926,
                0.6013991089341697
            ]
        },
        {
            "positions": [
                2.013429500012548,
                -1.4245175653851558,
                -1.5911933750510374,
                -1.4266414817073558,
                -1.2000891406524876,
                0.6412439428664302
            ]
        },
        {
            "positions": [
                1.8761948939968622,
                -1.4605531590286216,
                -1.5255083353178158,
                -1.402259587798188,
                -1.1259175869640492,
                0.6810887767986907
            ]
        },
        {
            "positions": [
                1.7389602879811763,
                -1.4965887526720871,
                -1.4598232955845944,
                -1.3778776938890205,
                -1.0517460332756108,
                0.7209336107309512
            ]
        },
        {
            "positions": [
                1.6017256819654901,
                -1.5326243463155529,
                -1.3941382558513729,
                -1.3534957999798527,
                -0.9775744795871721,
                0.7607784446632118
            ]
        },
        {
            "positions": [
                1.4644910759498042,
                -1.5686599399590184,
                -1.3284532161181515,
                -1.3291139060706851,
                -0.9034029258987337,
                0.8006232785954723
            ]
        },
        {
            "positions": [
                1.327256469934118,
                -1.6046955336024842,
                -1.2627681763849299,
                -1.3047320121615174,
                -0.8292313722102952,
                0.8404681125277328
            ]
        },
        {
            "positions": [
                1.190021863918432,
                -1.64073112724595,
                -1.1970831366517083,
                -1.2803501182523498,
                -0.7550598185218567,
                0.8803129464599933
            ]
        },
        {
            "positions": [
                1.0527872579027457,
                -1.6767667208894155,
                -1.131398096918487,
                -1.255968224343182,
                -0.6808882648334181,
                0.9201577803922538
            ]
        },
        {
            "positions": [
                0.91555265188706,
                -1.712802314532881,
                -1.0657130571852655,
                -1.2315863304340144,
                -0.6067167111449797,
                0.9600026143245144
            ]
        },
        {
            "positions": [
                0.7783180458713739,
                -1.7488379081763468,
                -1.000028017452044,
                -1.2072044365248469,
                -0.5325451574565412,
                0.9998474482567747
            ]
        },
        {
            "positions": [
                0.6410834398556879,
                -1.7848735018198125,
                -0.9343429777188225,
                -1.182822542615679,
                -0.45837360376810277,
                1.0396922821890353
            ]
        },
        {
            "positions": [
                0.5038488338400016,
                -1.820909095463278,
                -0.868657937985601,
                -1.1584406487065113,
                -0.3842020500796641,
                1.0795371161212959
            ]
        },
        {
            "positions": [
                0.3666142278243156,
                -1.8569446891067438,
                -0.8029728982523794,
                -1.1340587547973437,
                -0.3100304963912256,
                1.1193819500535565
            ]
        },
        {
            "positions": [
                0.3407486293362364,
                -1.8200106124844102,
                -0.6365283626898929,
                -1.0938110901249913,
                -0.2900347751483501,
                1.2250607542185565
            ]
        },
        {
            "positions": [
                0.3148830308481572,
                -1.7830765358620766,
                -0.47008382712740643,
                -1.0535634254526387,
                -0.2700390539054745,
                1.3307395583835566
            ]
        },
        {
            "positions": [
                0.28901743236007804,
                -1.746142459239743,
                -0.30363929156491987,
                -1.0133157607802863,
                -0.250043332662599,
                1.436418362548557
            ]
        },
        {
            "positions": [
                0.2631518338719989,
                -1.7092083826174096,
                -0.13719475600243347,
                -0.9730680961079337,
                -0.23004761141972346,
                1.542097166713557
            ]
        },
        {
            "positions": [
                0.23728623538391974,
                -1.6722743059950758,
                0.029249779560053035,
                -0.9328204314355812,
                -0.21005189017684792,
                1.6477759708785573
            ]
        },
        {
            "positions": [
                0.21142063689584056,
                -1.6353402293727424,
                0.19569431512253965,
                -0.8925727667632286,
                -0.19005616893397237,
                1.7534547750435574
            ]
        },
        {
            "positions": [
                0.1855550384077614,
                -1.5984061527504088,
                0.36213885068502605,
                -0.8523251020908762,
                -0.17006044769109685,
                1.8591335792085575
            ]
        },
        {
            "positions": [
                0.15968943991968224,
                -1.5614720761280751,
                0.5285833862475124,
                -0.8120774374185237,
                -0.1500647264482213,
                1.9648123833735576
            ]
        },
        {
            "positions": [
                0.13382384143160306,
                -1.5245379995057415,
                0.6950279218099991,
                -0.7718297727461711,
                -0.13006900520534578,
                2.0704911875385577
            ]
        },
        {
            "positions": [
                0.10795824294352391,
                -1.487603922883408,
                0.8614724573724855,
                -0.7315821080738186,
                -0.11007328396247024,
                2.176169991703558
            ]
        },
        {
            "positions": [
                0.08209264445544473,
                -1.4506698462610743,
                1.027916992934972,
                -0.6913344434014661,
                -0.09007756271959469,
                2.281848795868558
            ]
        },
        {
            "positions": [
                0.05622704596736555,
                -1.4137357696387407,
                1.1943615284974587,
                -0.6510867787291136,
                -0.07008184147671914,
                2.3875276000335584
            ]
        },
        {
            "positions": [
                0.03036144747928643,
                -1.3768016930164073,
                1.3608060640599449,
                -0.6108391140567612,
                -0.05008612023384362,
                2.493206404198558
            ]
        },
        {
            "positions": [
                0.004495848991207252,
                -1.3398676163940737,
                1.5272505996224315,
                -0.5705914493844086,
                -0.030090398990968104,
                2.5988852083635585
            ]
        },
        {
            "positions": [
                -0.021369749496871926,
                -1.30293353977174,
                1.6936951351849177,
                -0.5303437847120561,
                -0.010094677748092584,
                2.704564012528558
            ]
        },
        {
            "positions": [
                -0.047235347984951104,
                -1.2659994631494065,
                1.8601396707474043,
                -0.4900961200397036,
                0.00990104349478299,
                2.8102428166935587
            ]
        },
        {
            "positions": [
                -0.07310094647303031,
                -1.2290653865270729,
                2.026584206309891,
                -0.4498484553673511,
                0.02989676473765851,
                2.9159216208585588
            ]
        },
        {
            "positions": [
                -0.007795352722020282,
                -1.1959018385732645,
                2.001919684950415,
                -0.5317326493733981,
                0.06294605227185104,
                2.946737944825146
            ]
        },
        {
            "positions": [
                0.057510241028989745,
                -1.1627382906194559,
                1.9772551635909392,
                -0.6136168433794451,
                0.09599533980604358,
                2.9775542687917325
            ]
        },
        {
            "positions": [
                0.12281583477999979,
                -1.1295747426656475,
                1.9525906422314632,
                -0.6955010373854922,
                0.1290446273402361,
                3.0083705927583195
            ]
        }
    ]
}{
    "goal": {
        "global_pose": {
            "orientation": {
                "w": 0.7047431468963623,
                "x": -0.7094548344612122,
                "y": 0.0024358443915843964,
                "z": -0.0022348060738295317
            },
            "position": {
                "x": 0.6094750761985779,
                "y": 0.3671506643295288,
                "z": 0.19426114857196808
            }
        },
        "name": "move_to_magneteinheit_A"
    },
    "id": "PRM_move_to_magneteinheit_A_58",
    "joint_names": [
        "shoulder_pan_joint",
        "shoulder_lift_joint",
        "elbow_joint",
        "wrist_1_joint",
        "wrist_2_joint",
        "wrist_3_joint"
    ],
    "metrics": {
        "cart_traj_len": 1.380399189496853,
        "distance_elbow_joint": 1.1423800361388128,
        "distance_shoulder_lift_joint": 0.7473274101349432,
        "distance_shoulder_pan_joint": 1.240766177357607,
        "distance_wrist_1_joint": 0.7336612372578641,
        "distance_wrist_2_joint": 1.7383586314235995,
        "distance_wrist_3_joint": 4.246103080428144,
        "smoothness": 0.16287004472822808,
        "time": 0.085179148,
        "traj_len": 3.1382473727768767,
        "weighted_distance": 4.562107254578604
    },
    "planner": "PRM",
    "start": {
        "state": {
            "elbow_joint": 1.919643534880228,
            "shoulder_lift_joint": -1.8972525353963687,
            "shoulder_pan_joint": -1.1188672234189438,
            "wrist_1_joint": -1.5931878212786155,
            "wrist_2_joint": 1.5706036197970081,
            "wrist_3_joint": 1.118896926603594
        }
    },
    "waypoints": [
        {
            "positions": [
                -1.1188672234189438,
                -1.8972525353963687,
                1.919643534880228,
                -1.5931878212786155,
                1.5706036197970081,
                1.118896926603594
            ]
        },
        {
            "positions": [
                -1.0945517437788035,
                -1.870404489356017,
                1.8839267291657213,
                -1.5776558719815565,
                1.464900651919317,
                0.9332714416801683
            ]
        },
        {
            "positions": [
                -1.070236264138663,
                -1.8435564433156655,
                1.8482099234512144,
                -1.5621239226844978,
                1.359197684041626,
                0.7476459567567426
            ]
        },
        {
            "positions": [
                -1.0459207844985225,
                -1.8167083972753137,
                1.8124931177367076,
                -1.546591973387439,
                1.2534947161639347,
                0.5620204718333169
            ]
        },
        {
            "positions": [
                -1.0216053048583822,
                -1.789860351234962,
                1.7767763120222009,
                -1.5310600240903802,
                1.1477917482862436,
                0.37639498690989126
            ]
        },
        {
            "positions": [
                -0.9972898252182416,
                -1.7630123051946103,
                1.7410595063076941,
                -1.5155280747933213,
                1.0420887804085526,
                0.1907695019864657
            ]
        },
        {
            "positions": [
                -0.9729743455781013,
                -1.7361642591542585,
                1.7053427005931872,
                -1.4999961254962626,
                0.9363858125308614,
                0.005144017063039907
            ]
        },
        {
            "positions": [
                -0.9486588659379608,
                -1.709316213113907,
                1.6696258948786804,
                -1.4844641761992037,
                0.8306828446531703,
                -0.18048146786038566
            ]
        },
        {
            "positions": [
                -0.9243433862978203,
                -1.6824681670735553,
                1.6339090891641737,
                -1.468932226902145,
                0.7249798767754793,
                -0.36610695278381145
            ]
        },
        {
            "positions": [
                -0.90002790665768,
                -1.6556201210332038,
                1.598192283449667,
                -1.453400277605086,
                0.6192769088977882,
                -0.551732437707237
            ]
        },
        {
            "positions": [
                -0.8757124270175395,
                -1.628772074992852,
                1.56247547773516,
                -1.4378683283080274,
                0.513573941020097,
                -0.7373579226306626
            ]
        },
        {
            "positions": [
                -0.851396947377399,
                -1.6019240289525003,
                1.5267586720206532,
                -1.4223363790109684,
                0.40787097314240595,
                -0.9229834075540884
            ]
        },
        {
            "positions": [
                -0.8270814677372585,
                -1.5750759829121486,
                1.4910418663061464,
                -1.4068044297139095,
                0.30216800526471466,
                -1.1086088924775142
            ]
        },
        {
            "positions": [
                -0.8027659880971181,
                -1.5482279368717968,
                1.4553250605916395,
                -1.3912724804168508,
                0.1964650373870236,
                -1.29423437740094
            ]
        },
        {
            "positions": [
                -0.7784505084569777,
                -1.5213798908314453,
                1.4196082548771327,
                -1.375740531119792,
                0.09076206950933252,
                -1.4798598623243653
            ]
        },
        {
            "positions": [
                -0.7541350288168372,
                -1.4945318447910936,
                1.383891449162626,
                -1.3602085818227332,
                -0.014940898368358574,
                -1.6654853472477908
            ]
        },
        {
            "positions": [
                -0.6665316305412872,
                -1.4600711728381268,
                1.444554244204747,
                -1.310140382042535,
                0.0003405129574646504,
                -1.8116574279054667
            ]
        },
        {
            "positions": [
                -0.5789282322657371,
                -1.42561050088516,
                1.505217039246868,
                -1.2600721822623369,
                0.015621924283287875,
                -1.9578295085631425
            ]
        },
        {
            "positions": [
                -0.491324833990187,
                -1.391149828932193,
                1.5658798342889892,
                -1.2100039824821387,
                0.0309033356091111,
                -2.1040015892208186
            ]
        },
        {
            "positions": [
                -0.4037214357146369,
                -1.3566891569792263,
                1.6265426293311103,
                -1.1599357827019405,
                0.04618474693493432,
                -2.250173669878494
            ]
        },
        {
            "positions": [
                -0.31611803743908684,
                -1.3222284850262596,
                1.6872054243732313,
                -1.1098675829217424,
                0.06146615826075755,
                -2.3963457505361703
            ]
        },
        {
            "positions": [
                -0.22851463916353676,
                -1.2877678130732928,
                1.7478682194153523,
                -1.0597993831415442,
                0.07674756958658077,
                -2.5425178311938463
            ]
        },
        {
            "positions": [
                -0.14091124088798668,
                -1.253307141120326,
                1.8085310144574733,
                -1.009731183361346,
                0.092028980912404,
                -2.688689911851522
            ]
        },
        {
            "positions": [
                -0.053307842612436596,
                -1.218846469167359,
                1.8691938094995946,
                -0.9596629835811477,
                0.10731039223822722,
                -2.834861992509198
            ]
        },
        {
            "positions": [
                0.034295555663113486,
                -1.1843857972143923,
                1.9298566045417156,
                -0.9095947838009495,
                0.12259180356405044,
                -2.9810340731668736
            ]
        },
        {
            "positions": [
                0.12189895393866351,
                -1.1499251252614255,
                1.9905193995838366,
                -0.8595265840207513,
                0.13787321488987367,
                -3.1272061538245497
            ]
        }
    ]
}