{
    "goal": {
        "global_pose": {
            "orientation": {
                "w": 0.7047431468963623,
                "x": -0.7094548344612122,
                "y": 0.0024358443915843964,
                "z": -0.0022348060738295317
            },
            "position": {
                "x": 0.6094750761985779,
                "y": 0.3671506643295288,
                "z": 0.19426114857196808
            }
        },
        "name": "move_to_magneteinheit_A"
    },
    "id": "PRM_move_to_magneteinheit_A_137",
    "joint_names": [
        "shoulder_pan_joint",
        "shoulder_lift_joint",
        "elbow_joint",
        "wrist_1_joint",
        "wrist_2_joint",
        "wrist_3_joint"
    ],
    "metrics": {
        "cart_traj_len": 3.3791621012007127,
        "distance_elbow_joint": 3.8819868561163307,
        "distance_shoulder_lift_joint": 0.7250049572828607,
        "distance_shoulder_pan_joint": 3.4102913997225937,
        "distance_wrist_1_joint": 1.430091617222066,
        "distance_wrist_2_joint": 1.703302917572172,
        "distance_wrist_3_joint": 3.6675612656119143,
        "smoothness": 0.22391497559121312,
        "time": 0.07429224300000001,
        "traj_len": 3.8494465853584634,
        "weighted_distance": 5.028593847145145
    },
    "planner": "PRM",
    "start": {
        "state": {
            "elbow_joint": -1.919618573717145,
            "shoulder_lift_joint": -1.2443395971678275,
            "shoulder_pan_joint": 2.6996025300909787,
            "wrist_1_joint": -1.548550951253194,
            "wrist_2_joint": -1.5709469090946802,
            "wrist_3_joint": 0.4420197732051276
        }
    },
    "waypoints": [
        {
            "positions": [
                2.6996025300909787,
                -1.2443395971678275,
                -1.919618573717145,
                -1.548550951253194,
                -1.5709469090946802,
                0.4420197732051276
            ]
        },
        {
            "positions": [
                2.5998322772333986,
                -1.2545853028533527,
                -1.801044154211143,
                -1.5111890346293513,
                -1.5163005084786416,
                0.3676569484023004
            ]
        },
        {
            "positions": [
                2.500062024375818,
                -1.264831008538878,
                -1.682469734705141,
                -1.4738271180055085,
                -1.4616541078626033,
                0.29329412359947327
            ]
        },
        {
            "positions": [
                2.400291771518238,
                -1.2750767142244033,
                -1.563895315199139,
                -1.436465201381666,
                -1.4070077072465648,
                0.21893129879664605
            ]
        },
        {
            "positions": [
                2.3005215186606573,
                -1.2853224199099285,
                -1.4453208956931372,
                -1.399103284757823,
                -1.3523613066305264,
                0.1445684739938189
            ]
        },
        {
            "positions": [
                2.2007512658030772,
                -1.2955681255954539,
                -1.326746476187135,
                -1.3617413681339803,
                -1.297714906014488,
                0.07020564919099176
            ]
        },
        {
            "positions": [
                2.1009810129454967,
                -1.305813831280979,
                -1.2081720566811331,
                -1.3243794515101375,
                -1.2430685053984494,
                -0.004157175611835484
            ]
        },
        {
            "positions": [
                2.0012107600879165,
                -1.3160595369665045,
                -1.0895976371751313,
                -1.287017534886295,
                -1.188422104782411,
                -0.07852000041466262
            ]
        },
        {
            "positions": [
                1.901440507230336,
                -1.3263052426520296,
                -0.9710232176691292,
                -1.249655618262452,
                -1.1337757041663725,
                -0.1528828252174898
            ]
        },
        {
            "positions": [
                1.8016702543727559,
                -1.3365509483375548,
                -0.8524487981631272,
                -1.2122937016386093,
                -1.0791293035503342,
                -0.227245650020317
            ]
        },
        {
            "positions": [
                1.7019000015151755,
                -1.3467966540230802,
                -0.7338743786571253,
                -1.1749317850147665,
                -1.0244829029342957,
                -0.30160847482314407
            ]
        },
        {
            "positions": [
                1.6021297486575952,
                -1.3570423597086054,
                -0.6152999591511235,
                -1.1375698683909237,
                -0.9698365023182572,
                -0.37597129962597126
            ]
        },
        {
            "positions": [
                1.5023594958000148,
                -1.3672880653941306,
                -0.49672553964512134,
                -1.1002079517670809,
                -0.9151901017022187,
                -0.45033412442879855
            ]
        },
        {
            "positions": [
                1.4025892429424345,
                -1.377533771079656,
                -0.3781511201391192,
                -1.062846035143238,
                -0.8605437010861803,
                -0.5246969492316258
            ]
        },
        {
            "positions": [
                1.3028189900848541,
                -1.3877794767651812,
                -0.25957670063311733,
                -1.0254841185193955,
                -0.8058973004701419,
                -0.5990597740344528
            ]
        },
        {
            "positions": [
                1.2030487372272738,
                -1.3980251824507066,
                -0.14100228112711544,
                -0.9881222018955527,
                -0.7512508998541034,
                -0.67342259883728
            ]
        },
        {
            "positions": [
                1.1032784843696934,
                -1.4082708881362318,
                -0.022427861621113543,
                -0.9507602852717099,
                -0.696604499238065,
                -0.7477854236401071
            ]
        },
        {
            "positions": [
                1.003508231512113,
                -1.418516593821757,
                0.09614655788488835,
                -0.9133983686478672,
                -0.6419580986220266,
                -0.8221482484429343
            ]
        },
        {
            "positions": [
                0.9037379786545328,
                -1.4287622995072824,
                0.21472097739089047,
                -0.8760364520240244,
                -0.5873116980059881,
                -0.8965110732457615
            ]
        },
        {
            "positions": [
                0.8039677257969526,
                -1.4390080051928076,
                0.33329539689689214,
                -0.8386745354001817,
                -0.5326652973899497,
                -0.9708738980485885
            ]
        },
        {
            "positions": [
                0.7041974729393723,
                -1.4492537108783328,
                0.45186981640289425,
                -0.8013126187763389,
                -0.4780188967739112,
                -1.0452367228514157
            ]
        },
        {
            "positions": [
                0.6044272200817917,
                -1.4594994165638582,
                0.5704442359088964,
                -0.7639507021524962,
                -0.42337249615787287,
                -1.1195995476542429
            ]
        },
        {
            "positions": [
                0.5046569672242116,
                -1.4697451222493834,
                0.689018655414898,
                -0.7265887855286534,
                -0.36872609554183433,
                -1.19396237245707
            ]
        },
        {
            "positions": [
                0.40488671436663104,
                -1.4799908279349085,
                0.8075930749209006,
                -0.6892268689048106,
                -0.3140796949257958,
                -1.2683251972598975
            ]
        },
        {
            "positions": [
                0.3051164615090509,
                -1.490236533620434,
                0.9261674944269023,
                -0.6518649522809677,
                -0.25943329430975726,
                -1.3426880220627246
            ]
        },
        {
            "positions": [
                0.20534620865147035,
                -1.5004822393059591,
                1.0447419139329044,
                -0.614503035657125,
                -0.20478689369371894,
                -1.4170508468655518
            ]
        },
        {
            "positions": [
                0.10557595579389023,
                -1.5107279449914843,
                1.1633163334389065,
                -0.5771411190332822,
                -0.1501404930776804,
                -1.491413671668379
            ]
        },
        {
            "positions": [
                0.005805702936309665,
                -1.5209736506770097,
                1.2818907529449082,
                -0.5397792024094394,
                -0.09549409246164209,
                -1.565776496471206
            ]
        },
        {
            "positions": [
                -0.09396454992127046,
                -1.531219356362535,
                1.4004651724509103,
                -0.5024172857855969,
                -0.04084769184560355,
                -1.6401393212740332
            ]
        },
        {
            "positions": [
                -0.19373480277885102,
                -1.5414650620480603,
                1.519039591956912,
                -0.46505536916175405,
                0.013798708770434764,
                -1.7145021460768604
            ]
        },
        {
            "positions": [
                -0.2935050556364311,
                -1.5517107677335855,
                1.6376140114629139,
                -0.42769345253791113,
                0.06844510938647339,
                -1.7888649708796875
            ]
        },
        {
            "positions": [
                -0.24135707888703312,
                -1.4995065443939477,
                1.6782082953299478,
                -0.46634771735125896,
                0.0764339717728507,
                -1.968449536070575
            ]
        },
        {
            "positions": [
                -0.18920910213763514,
                -1.44730232105431,
                1.7188025791969817,
                -0.5050019821646068,
                0.08442283415922802,
                -2.1480341012614623
            ]
        },
        {
            "positions": [
                -0.13706112538823717,
                -1.395098097714672,
                1.7593968630640155,
                -0.5436562469779547,
                0.09241169654560535,
                -2.3276186664523495
            ]
        },
        {
            "positions": [
                -0.0849131486388392,
                -1.3428938743750343,
                1.7999911469310494,
                -0.5823105117913024,
                0.10040055893198267,
                -2.507203231643237
            ]
        },
        {
            "positions": [
                -0.032765171889441225,
                -1.2906896510353962,
                1.8405854307980836,
                -0.6209647766046502,
                0.10838942131835999,
                -2.6867877968341247
            ]
        },
        {
            "positions": [
                0.019382804859956748,
                -1.2384854276957584,
                1.8811797146651175,
                -0.6596190414179981,
                0.11637828370473732,
                -2.866372362025012
            ]
        },
        {
            "positions": [
                0.07153078160935472,
                -1.1862812043561206,
                1.9217739985321514,
                -0.698273306231346,
                0.12436714609111464,
                -3.045956927215899
            ]
        },
        {
            "positions": [
                0.12367875835875268,
                -1.1340769810164828,
                1.9623682823991853,
                -0.7369275710446938,
                0.13235600847749196,
                -3.2255414924067867
            ]
        }
    ]
}{
    "goal": {
        "global_pose": {
            "orientation": {
                "w": 0.7047431468963623,
                "x": -0.7094548344612122,
                "y": 0.0024358443915843964,
                "z": -0.0022348060738295317
            },
            "position": {
                "x": 0.6094750761985779,
                "y": 0.3671506643295288,
                "z": 0.19426114857196808
            }
        },
        "name": "move_to_magneteinheit_A"
    },
    "id": "PRM_move_to_magneteinheit_A_137",
    "joint_names": [
        "shoulder_pan_joint",
        "shoulder_lift_joint",
        "elbow_joint",
        "wrist_1_joint",
        "wrist_2_joint",
        "wrist_3_joint"
    ],
    "metrics": {
        "cart_traj_len": 1.201777194071856,
        "distance_elbow_joint": 0.05507681595055547,
        "distance_shoulder_lift_joint": 0.7573369041619371,
        "distance_shoulder_pan_joint": 1.2422748366297802,
        "distance_wrist_1_joint": 0.8033866492948468,
        "distance_wrist_2_joint": 1.4330058502853775,
        "distance_wrist_3_joint": 1.976920899198612,
        "smoothness": 1.0449157961564637e-16,
        "time": 0.029480419,
        "traj_len": 2.50359780226799,
        "weighted_distance": 3.5296226786299068
    },
    "planner": "PRM",
    "start": {
        "state": {
            "elbow_joint": 1.919643534880228,
            "shoulder_lift_joint": -1.8972525353963687,
            "shoulder_pan_joint": -1.1188672234189438,
            "wrist_1_joint": -1.5931878212786155,
            "wrist_2_joint": 1.5706036197970081,
            "wrist_3_joint": 1.118896926603594
        }
    },
    "waypoints": [
        {
            "positions": [
                -1.1188672234189438,
                -1.8972525353963687,
                1.919643534880228,
                -1.5931878212786155,
                1.5706036197970081,
                1.118896926603594
            ]
        },
        {
            "positions": [
                -1.0412250461295827,
                -1.8499189788862476,
                1.9230858358771379,
                -1.5429761556976875,
                1.4810407541541721,
                1.2424544828035071
            ]
        },
        {
            "positions": [
                -0.9635828688402213,
                -1.8025854223761266,
                1.9265281368740474,
                -1.4927644901167596,
                1.391477888511336,
                1.3660120390034205
            ]
        },
        {
            "positions": [
                -0.8859406915508601,
                -1.7552518658660055,
                1.9299704378709572,
                -1.4425528245358317,
                1.3019150228685,
                1.4895695952033337
            ]
        },
        {
            "positions": [
                -0.8082985142614988,
                -1.7079183093558845,
                1.933412738867867,
                -1.3923411589549037,
                1.2123521572256637,
                1.613127151403247
            ]
        },
        {
            "positions": [
                -0.7306563369721375,
                -1.6605847528457633,
                1.9368550398647766,
                -1.3421294933739758,
                1.1227892915828277,
                1.7366847076031602
            ]
        },
        {
            "positions": [
                -0.6530141596827763,
                -1.6132511963356424,
                1.9402973408616864,
                -1.2919178277930479,
                1.0332264259399917,
                1.8602422638030736
            ]
        },
        {
            "positions": [
                -0.575371982393415,
                -1.5659176398255212,
                1.9437396418585962,
                -1.24170616221212,
                0.9436635602971555,
                1.9837998200029867
            ]
        },
        {
            "positions": [
                -0.49772980510405374,
                -1.5185840833154,
                1.9471819428555057,
                -1.191494496631192,
                0.8541006946543194,
                2.1073573762029
            ]
        },
        {
            "positions": [
                -0.42008762781469244,
                -1.4712505268052791,
                1.9506242438524155,
                -1.141282831050264,
                0.7645378290114833,
                2.230914932402813
            ]
        },
        {
            "positions": [
                -0.34244545052533115,
                -1.4239169702951582,
                1.9540665448493253,
                -1.0910711654693364,
                0.6749749633686472,
                2.3544724886027266
            ]
        },
        {
            "positions": [
                -0.26480327323596997,
                -1.376583413785037,
                1.957508845846235,
                -1.0408594998884082,
                0.585412097725811,
                2.4780300448026398
            ]
        },
        {
            "positions": [
                -0.18716109594660868,
                -1.3292498572749158,
                1.9609511468431446,
                -0.9906478343074804,
                0.49584923208297504,
                2.601587601002553
            ]
        },
        {
            "positions": [
                -0.10951891865724739,
                -1.2819163007647947,
                1.9643934478400544,
                -0.9404361687265524,
                0.4062863664401388,
                2.7251451572024665
            ]
        },
        {
            "positions": [
                -0.03187674136788621,
                -1.2345827442546737,
                1.9678357488369642,
                -0.8902245031456245,
                0.3167235007973028,
                2.8487027134023792
            ]
        },
        {
            "positions": [
                0.045765435921475195,
                -1.1872491877445528,
                1.9712780498338738,
                -0.8400128375646966,
                0.2271606351544666,
                2.972260269602293
            ]
        },
        {
            "positions": [
                0.12340761321083639,
                -1.1399156312344316,
                1.9747203508307836,
                -0.7898011719837686,
                0.13759776951163064,
                3.095817825802206
            ]
        }
    ]
}