{
    "goal": {
        "global_pose": {
            "orientation": {
                "w": 0.5084816217422485,
                "x": -0.49083608388900757,
                "y": 0.5182115435600281,
                "z": -0.4816462993621826
            },
            "position": {
                "x": 0.5540239810943604,
                "y": 0.030875300988554955,
                "z": 0.16403168439865112
            }
        },
        "name": "move_to_storage_A"
    },
    "id": "PRM_move_to_storage_A_147",
    "joint_names": [
        "shoulder_pan_joint",
        "shoulder_lift_joint",
        "elbow_joint",
        "wrist_1_joint",
        "wrist_2_joint",
        "wrist_3_joint"
    ],
    "metrics": {
        "cart_traj_len": 0.35317310379449485,
        "distance_elbow_joint": 0.4525818546171143,
        "distance_shoulder_lift_joint": 0.23139656542380016,
        "distance_shoulder_pan_joint": 0.4603461453540405,
        "distance_wrist_1_joint": 0.2622227650219574,
        "distance_wrist_2_joint": 1.1037749126362568,
        "distance_wrist_3_joint": 0.10950880711396316,
        "smoothness": 2.2204460668324854e-16,
        "time": 0.039679605,
        "traj_len": 1.6185892160048305,
        "weighted_distance": 2.0505721986931533
    },
    "planner": "PRM",
    "start": {
        "state": {
            "elbow_joint": 1.9715477243005601,
            "shoulder_lift_joint": -1.1394853015351272,
            "shoulder_pan_joint": 0.12281154014795169,
            "wrist_1_joint": -0.7804696478968182,
            "wrist_2_joint": 0.12958648046900423,
            "wrist_3_joint": -3.192491284697111
        }
    },
    "waypoints": [
        {
            "positions": [
                0.12281154014795169,
                -1.1394853015351272,
                1.9715477243005601,
                -0.7804696478968182,
                0.12958648046900423,
                -3.192491284697111
            ]
        },
        {
            "positions": [
                0.05704780509737448,
                -1.172541953738527,
                2.036202274960148,
                -0.817930042899955,
                0.28726861084561234,
                -3.1768471693951166
            ]
        },
        {
            "positions": [
                -0.008715929953202736,
                -1.2055986059419272,
                2.1008568256197355,
                -0.8553904379030917,
                0.44495074122222045,
                -3.1612030540931215
            ]
        },
        {
            "positions": [
                -0.07447966500377994,
                -1.2386552581453272,
                2.165511376279323,
                -0.8928508329062285,
                0.6026328715988285,
                -3.145558938791127
            ]
        },
        {
            "positions": [
                -0.14024340005435715,
                -1.2717119103487273,
                2.230165926938911,
                -0.9303112279093653,
                0.7603150019754367,
                -3.1299148234891323
            ]
        },
        {
            "positions": [
                -0.2060071351049344,
                -1.3047685625521273,
                2.294820477598499,
                -0.967771622912502,
                0.9179971323520448,
                -3.1142707081871377
            ]
        },
        {
            "positions": [
                -0.27177087015551155,
                -1.3378252147555272,
                2.3594750282580867,
                -1.0052320179156389,
                1.0756792627286529,
                -3.0986265928851426
            ]
        },
        {
            "positions": [
                -0.3375346052060888,
                -1.3708818669589273,
                2.4241295789176744,
                -1.0426924129187756,
                1.2333613931052612,
                -3.082982477583148
            ]
        }
    ]
}