{
    "goal": {
        "global_pose": {
            "orientation": {
                "w": 0.5084816217422485,
                "x": -0.49083608388900757,
                "y": 0.5182115435600281,
                "z": -0.4816462993621826
            },
            "position": {
                "x": 0.5540239810943604,
                "y": 0.030875300988554955,
                "z": 0.16403168439865112
            }
        },
        "name": "move_to_storage_A"
    },
    "id": "PRM_move_to_storage_A_53",
    "joint_names": [
        "shoulder_pan_joint",
        "shoulder_lift_joint",
        "elbow_joint",
        "wrist_1_joint",
        "wrist_2_joint",
        "wrist_3_joint"
    ],
    "metrics": {
        "cart_traj_len": 0.3536845926102166,
        "distance_elbow_joint": 0.4526378824882977,
        "distance_shoulder_lift_joint": 0.23296325231270054,
        "distance_shoulder_pan_joint": 0.4627071520416336,
        "distance_wrist_1_joint": 0.2599704332857168,
        "distance_wrist_2_joint": 1.098213234326841,
        "distance_wrist_3_joint": 0.0921599336852128,
        "smoothness": 0.0,
        "time": 0.036880312,
        "traj_len": 1.6120334637160614,
        "weighted_distance": 2.0349829048725163
    },
    "planner": "PRM",
    "start": {
        "state": {
            "elbow_joint": 1.9715477243005601,
            "shoulder_lift_joint": -1.1394853015351272,
            "shoulder_pan_joint": 0.12281154014795169,
            "wrist_1_joint": -0.7804696478968182,
            "wrist_2_joint": 0.12958648046900423,
            "wrist_3_joint": -3.192491284697111
        }
    },
    "waypoints": [
        {
            "positions": [
                0.12281154014795169,
                -1.1394853015351272,
                1.9715477243005601,
                -0.7804696478968182,
                0.12958648046900423,
                -3.192491284697111
            ]
        },
        {
            "positions": [
                0.05671051842771832,
                -1.1727657661512272,
                2.0362102789417453,
                -0.8176082812233492,
                0.28647408537283864,
                -3.179325579884938
            ]
        },
        {
            "positions": [
                -0.009390503292515048,
                -1.2060462307673274,
                2.100872833582931,
                -0.85474691454988,
                0.44336169027667305,
                -3.166159875072765
            ]
        },
        {
            "positions": [
                -0.0754915250127484,
                -1.2393266953834274,
                2.165535388224116,
                -0.8918855478764111,
                0.6002492951805074,
                -3.1529941702605915
            ]
        },
        {
            "positions": [
                -0.14159254673298177,
                -1.2726071599995274,
                2.230197942865302,
                -0.9290241812029421,
                0.7571369000843419,
                -3.139828465448418
            ]
        },
        {
            "positions": [
                -0.20769356845321518,
                -1.3058876246156275,
                2.294860497506487,
                -0.966162814529473,
                0.9140245049881763,
                -3.1266627606362447
            ]
        },
        {
            "positions": [
                -0.2737945901734485,
                -1.3391680892317277,
                2.359523052147672,
                -1.003301447856004,
                1.0709121098920107,
                -3.1134970558240718
            ]
        },
        {
            "positions": [
                -0.3398956118936819,
                -1.3724485538478277,
                2.424185606788858,
                -1.040440081182535,
                1.2277997147958453,
                -3.1003313510118984
            ]
        }
    ]
}