{
    "goal": {
        "global_pose": {
            "orientation": {
                "w": 0.5084816217422485,
                "x": -0.49083608388900757,
                "y": 0.5182115435600281,
                "z": -0.4816462993621826
            },
            "position": {
                "x": 0.5540239810943604,
                "y": 0.030875300988554955,
                "z": 0.16403168439865112
            }
        },
        "name": "move_to_storage_A"
    },
    "id": "PRM_move_to_storage_A_39",
    "joint_names": [
        "shoulder_pan_joint",
        "shoulder_lift_joint",
        "elbow_joint",
        "wrist_1_joint",
        "wrist_2_joint",
        "wrist_3_joint"
    ],
    "metrics": {
        "cart_traj_len": 0.3537984447934143,
        "distance_elbow_joint": 0.4490574250443431,
        "distance_shoulder_lift_joint": 0.2356379033523004,
        "distance_shoulder_pan_joint": 0.4600860690119419,
        "distance_wrist_1_joint": 0.23680203273314582,
        "distance_wrist_2_joint": 1.111742839642429,
        "distance_wrist_3_joint": 0.10479531532543351,
        "smoothness": 2.2204460668324854e-16,
        "time": 0.036597546,
        "traj_len": 1.6118689726865498,
        "weighted_distance": 2.0386900421927887
    },
    "planner": "PRM",
    "start": {
        "state": {
            "elbow_joint": 1.9715477243005601,
            "shoulder_lift_joint": -1.1394853015351272,
            "shoulder_pan_joint": 0.12281154014795169,
            "wrist_1_joint": -0.7804696478968182,
            "wrist_2_joint": 0.12958648046900423,
            "wrist_3_joint": -3.192491284697111
        }
    },
    "waypoints": [
        {
            "positions": [
                0.12281154014795169,
                -1.1394853015351272,
                1.9715477243005601,
                -0.7804696478968182,
                0.12958648046900423,
                -3.192491284697111
            ]
        },
        {
            "positions": [
                0.05708495886053143,
                -1.1731478591568845,
                2.0356987850211805,
                -0.814298509715839,
                0.28840688613220833,
                -3.1775205253649066
            ]
        },
        {
            "positions": [
                -0.008641622426888831,
                -1.2068104167786415,
                2.099849845741801,
                -0.8481273715348598,
                0.4472272917954125,
                -3.1625497660327015
            ]
        },
        {
            "positions": [
                -0.07436820371430909,
                -1.2404729744003988,
                2.1640009064624213,
                -0.8819562333538806,
                0.6060476974586166,
                -3.147579006700497
            ]
        },
        {
            "positions": [
                -0.14009478500172934,
                -1.274135532022156,
                2.2281519671830416,
                -0.9157850951729015,
                0.7648681031218207,
                -3.132608247368292
            ]
        },
        {
            "positions": [
                -0.20582136628914965,
                -1.3077980896439132,
                2.2923030279036625,
                -0.9496139569919223,
                0.923688508785025,
                -3.1176374880360873
            ]
        },
        {
            "positions": [
                -0.27154794757656986,
                -1.3414606472656703,
                2.356454088624283,
                -0.9834428188109432,
                1.082508914448229,
                -3.1026667287038823
            ]
        },
        {
            "positions": [
                -0.3372745288639902,
                -1.3751232048874276,
                2.4206051493449032,
                -1.017271680629964,
                1.241329320111433,
                -3.0876959693716777
            ]
        }
    ]
}