{
    "goal": {
        "global_pose": {
            "orientation": {
                "w": 0.5084816217422485,
                "x": -0.49083608388900757,
                "y": 0.5182115435600281,
                "z": -0.4816462993621826
            },
            "position": {
                "x": 0.5540239810943604,
                "y": 0.030875300988554955,
                "z": 0.16403168439865112
            }
        },
        "name": "move_to_storage_A"
    },
    "id": "PRM_move_to_storage_A_149",
    "joint_names": [
        "shoulder_pan_joint",
        "shoulder_lift_joint",
        "elbow_joint",
        "wrist_1_joint",
        "wrist_2_joint",
        "wrist_3_joint"
    ],
    "metrics": {
        "cart_traj_len": 0.3534562410742226,
        "distance_elbow_joint": 0.45159269864917206,
        "distance_shoulder_lift_joint": 0.2333450501826022,
        "distance_shoulder_pan_joint": 0.46078500544998774,
        "distance_wrist_1_joint": 0.24833838202929048,
        "distance_wrist_2_joint": 1.1055463510567205,
        "distance_wrist_3_joint": 0.09775749930665745,
        "smoothness": 6.661338165333112e-16,
        "time": 0.025327391999999997,
        "traj_len": 1.6116342595869666,
        "weighted_distance": 2.036360655280335
    },
    "planner": "PRM",
    "start": {
        "state": {
            "elbow_joint": 1.9715477243005601,
            "shoulder_lift_joint": -1.1394853015351272,
            "shoulder_pan_joint": 0.12281154014795169,
            "wrist_1_joint": -0.7804696478968182,
            "wrist_2_joint": 0.12958648046900423,
            "wrist_3_joint": -3.192491284697111
        }
    },
    "waypoints": [
        {
            "positions": [
                0.12281154014795169,
                -1.1394853015351272,
                1.9715477243005601,
                -0.7804696478968182,
                0.12958648046900423,
                -3.192491284697111
            ]
        },
        {
            "positions": [
                0.056985110797953445,
                -1.1728203087040703,
                2.0360609669647274,
                -0.8159465596152883,
                0.2875216734771071,
                -3.178525927653303
            ]
        },
        {
            "positions": [
                -0.0088413185520448,
                -1.2061553158730136,
                2.100574209628895,
                -0.8514234713337583,
                0.44545686648521005,
                -3.1645605706094946
            ]
        },
        {
            "positions": [
                -0.07466774790204304,
                -1.2394903230419567,
                2.1650874522930623,
                -0.8869003830522284,
                0.603392059493313,
                -3.1505952135656865
            ]
        },
        {
            "positions": [
                -0.14049417725204127,
                -1.2728253302108998,
                2.22960069495723,
                -0.9223772947706984,
                0.7613272525014159,
                -3.1366298565218784
            ]
        },
        {
            "positions": [
                -0.20632060660203955,
                -1.306160337379843,
                2.2941139376213973,
                -0.9578542064891685,
                0.9192624455095189,
                -3.1226644994780703
            ]
        },
        {
            "positions": [
                -0.27214703595203776,
                -1.3394953445487863,
                2.3586271802855645,
                -0.9933311182076385,
                1.0771976385176218,
                -3.108699142434262
            ]
        },
        {
            "positions": [
                -0.33797346530203604,
                -1.3728303517177294,
                2.423140422949732,
                -1.0288080299261086,
                1.2351328315257246,
                -3.0947337853904537
            ]
        }
    ]
}