{
    "goal": {
        "global_pose": {
            "orientation": {
                "w": 0.5084816217422485,
                "x": -0.49083608388900757,
                "y": 0.5182115435600281,
                "z": -0.4816462993621826
            },
            "position": {
                "x": 0.5540239810943604,
                "y": 0.030875300988554955,
                "z": 0.16403168439865112
            }
        },
        "name": "move_to_storage_A"
    },
    "id": "PRM_move_to_storage_A_32",
    "joint_names": [
        "shoulder_pan_joint",
        "shoulder_lift_joint",
        "elbow_joint",
        "wrist_1_joint",
        "wrist_2_joint",
        "wrist_3_joint"
    ],
    "metrics": {
        "cart_traj_len": 0.35341277480778016,
        "distance_elbow_joint": 0.45518875313101015,
        "distance_shoulder_lift_joint": 0.23373583755348992,
        "distance_shoulder_pan_joint": 0.4638711108775046,
        "distance_wrist_1_joint": 0.26274531342643914,
        "distance_wrist_2_joint": 1.0924694802844153,
        "distance_wrist_3_joint": 0.10771959704922285,
        "smoothness": 8.881784197001252e-16,
        "time": 0.03816237,
        "traj_len": 1.6173218889021699,
        "weighted_distance": 2.04606551217975
    },
    "planner": "PRM",
    "start": {
        "state": {
            "elbow_joint": 1.9715477243005601,
            "shoulder_lift_joint": -1.1394853015351272,
            "shoulder_pan_joint": 0.12281154014795169,
            "wrist_1_joint": -0.7804696478968182,
            "wrist_2_joint": 0.12958648046900423,
            "wrist_3_joint": -3.192491284697111
        }
    },
    "waypoints": [
        {
            "positions": [
                0.12281154014795169,
                -1.1394853015351272,
                1.9715477243005601,
                -0.7804696478968182,
                0.12958648046900423,
                -3.192491284697111
            ]
        },
        {
            "positions": [
                0.05654423859402247,
                -1.17287613547134,
                2.0365746890335616,
                -0.8180046926720238,
                0.28565354908106355,
                -3.1771027708329367
            ]
        },
        {
            "positions": [
                -0.009723062959906756,
                -1.206266969407553,
                2.101601653766563,
                -0.8555397374472293,
                0.4417206176931229,
                -3.1617142569687617
            ]
        },
        {
            "positions": [
                -0.07599036451383599,
                -1.2396578033437657,
                2.1666286184995647,
                -0.893074782222435,
                0.5977876863051822,
                -3.1463257431045872
            ]
        },
        {
            "positions": [
                -0.1422576660677652,
                -1.2730486372799785,
                2.2316555832325657,
                -0.9306098269976405,
                0.7538547549172415,
                -3.1309372292404123
            ]
        },
        {
            "positions": [
                -0.20852496762169442,
                -1.3064394712161915,
                2.2966825479655673,
                -0.9681448717728461,
                0.9099218235293008,
                -3.115548715376238
            ]
        },
        {
            "positions": [
                -0.27479226917562366,
                -1.3398303051524043,
                2.3617095126985688,
                -1.0056799165480517,
                1.0659888921413603,
                -3.100160201512063
            ]
        },
        {
            "positions": [
                -0.3410595707295529,
                -1.373221139088617,
                2.4267364774315703,
                -1.0432149613232573,
                1.2220559607534196,
                -3.0847716876478883
            ]
        }
    ]
}