{
    "goal": {
        "global_pose": {
            "orientation": {
                "w": 0.7047431468963623,
                "x": -0.7094548344612122,
                "y": 0.0024358443915843964,
                "z": -0.0022348060738295317
            },
            "position": {
                "x": 0.6094750761985779,
                "y": 0.3671506643295288,
                "z": 0.19426114857196808
            }
        },
        "name": "move_to_magneteinheit_A"
    },
    "id": "PRM_move_to_magneteinheit_A_115",
    "joint_names": [
        "shoulder_pan_joint",
        "shoulder_lift_joint",
        "elbow_joint",
        "wrist_1_joint",
        "wrist_2_joint",
        "wrist_3_joint"
    ],
    "metrics": {
        "cart_traj_len": 3.0740584830295203,
        "distance_elbow_joint": 3.8797200537390846,
        "distance_shoulder_lift_joint": 0.6438074923797452,
        "distance_shoulder_pan_joint": 2.7512209355122184,
        "distance_wrist_1_joint": 1.966213841200825,
        "distance_wrist_2_joint": 1.7105286195930085,
        "distance_wrist_3_joint": 2.6041437316899954,
        "smoothness": 0.13088159593941917,
        "time": 0.14182084,
        "traj_len": 3.6817977503001007,
        "weighted_distance": 4.737157860815777
    },
    "planner": "PRM",
    "start": {
        "state": {
            "elbow_joint": -1.919618573717145,
            "shoulder_lift_joint": -1.2443395971678275,
            "shoulder_pan_joint": 2.6996025300909787,
            "wrist_1_joint": -1.548550951253194,
            "wrist_2_joint": -1.5709469090946802,
            "wrist_3_joint": 0.4420197732051276
        }
    },
    "waypoints": [
        {
            "positions": [
                2.6996025300909787,
                -1.2443395971678275,
                -1.919618573717145,
                -1.548550951253194,
                -1.5709469090946802,
                0.4420197732051276
            ]
        },
        {
            "positions": [
                2.583803015003967,
                -1.2559420115705866,
                -1.7898191873843476,
                -1.4878440829268325,
                -1.5246057000779472,
                0.4578371904172001
            ]
        },
        {
            "positions": [
                2.468003499916955,
                -1.2675444259733457,
                -1.6600198010515506,
                -1.427137214600471,
                -1.478264491061214,
                0.4736546076292726
            ]
        },
        {
            "positions": [
                2.352203984829943,
                -1.2791468403761048,
                -1.5302204147187535,
                -1.3664303462741094,
                -1.431923282044481,
                0.4894720248413451
            ]
        },
        {
            "positions": [
                2.236404469742931,
                -1.2907492547788637,
                -1.4004210283859562,
                -1.305723477947748,
                -1.385582073027748,
                0.5052894420534176
            ]
        },
        {
            "positions": [
                2.1206049546559194,
                -1.3023516691816228,
                -1.2706216420531589,
                -1.2450166096213864,
                -1.3392408640110147,
                0.5211068592654902
            ]
        },
        {
            "positions": [
                2.0048054395689077,
                -1.313954083584382,
                -1.1408222557203618,
                -1.1843097412950248,
                -1.2928996549942817,
                0.5369242764775627
            ]
        },
        {
            "positions": [
                1.8890059244818955,
                -1.325556497987141,
                -1.0110228693875645,
                -1.1236028729686631,
                -1.2465584459775485,
                0.5527416936896352
            ]
        },
        {
            "positions": [
                1.7732064093948838,
                -1.3371589123899001,
                -0.8812234830547674,
                -1.0628960046423017,
                -1.2002172369608155,
                0.5685591109017076
            ]
        },
        {
            "positions": [
                1.657406894307872,
                -1.3487613267926593,
                -0.7514240967219701,
                -1.0021891363159403,
                -1.1538760279440825,
                0.5843765281137802
            ]
        },
        {
            "positions": [
                1.54160737922086,
                -1.3603637411954184,
                -0.621624710389173,
                -0.9414822679895787,
                -1.1075348189273493,
                0.6001939453258527
            ]
        },
        {
            "positions": [
                1.425807864133848,
                -1.3719661555981775,
                -0.4918253240563757,
                -0.880775399663217,
                -1.0611936099106163,
                0.6160113625379252
            ]
        },
        {
            "positions": [
                1.3100083490468364,
                -1.3835685700009364,
                -0.3620259377235786,
                -0.8200685313368556,
                -1.0148524008938833,
                0.6318287797499977
            ]
        },
        {
            "positions": [
                1.1942088339598245,
                -1.3951709844036955,
                -0.23222655139078152,
                -0.7593616630104941,
                -0.9685111918771502,
                0.6476461969620702
            ]
        },
        {
            "positions": [
                1.0784093188728126,
                -1.4067733988064546,
                -0.102427165057984,
                -0.6986547946841324,
                -0.9221699828604171,
                0.6634636141741428
            ]
        },
        {
            "positions": [
                0.9626098037858006,
                -1.4183758132092137,
                0.02737222127481309,
                -0.637947926357771,
                -0.875828773843684,
                0.6792810313862152
            ]
        },
        {
            "positions": [
                0.8468102886987889,
                -1.4299782276119728,
                0.15717160760761018,
                -0.5772410580314095,
                -0.829487564826951,
                0.6950984485982877
            ]
        },
        {
            "positions": [
                0.731010773611777,
                -1.441580642014732,
                0.28697099394040726,
                -0.5165341897050479,
                -0.783146355810218,
                0.7109158658103603
            ]
        },
        {
            "positions": [
                0.6152112585247651,
                -1.453183056417491,
                0.4167703802732048,
                -0.4558273213786863,
                -0.7368051467934847,
                0.7267332830224328
            ]
        },
        {
            "positions": [
                0.4994117434377534,
                -1.46478547082025,
                0.5465697666060019,
                -0.3951204530523247,
                -0.6904639377767517,
                0.7425507002345053
            ]
        },
        {
            "positions": [
                0.38361222835074127,
                -1.476387885223009,
                0.676369152938799,
                -0.3344135847259633,
                -0.6441227287600186,
                0.7583681174465777
            ]
        },
        {
            "positions": [
                0.2678127132637296,
                -1.4879902996257681,
                0.806168539271596,
                -0.27370671639960187,
                -0.5977815197432856,
                0.7741855346586503
            ]
        },
        {
            "positions": [
                0.15201319817671743,
                -1.4995927140285272,
                0.9359679256043936,
                -0.21299984807324002,
                -0.5514403107265524,
                0.7900029518707228
            ]
        },
        {
            "positions": [
                0.036213683089705545,
                -1.5111951284312863,
                1.0657673119371907,
                -0.15229297974687855,
                -0.5050991017098194,
                0.8058203690827953
            ]
        },
        {
            "positions": [
                0.03654723229577274,
                -1.4813848433966696,
                1.1458698278366137,
                -0.19727215446660645,
                -0.45174346624082234,
                0.9888109161224014
            ]
        },
        {
            "positions": [
                0.03688078150183993,
                -1.451574558362053,
                1.2259723437360368,
                -0.24225132918633435,
                -0.39838783077182527,
                1.1718014631620075
            ]
        },
        {
            "positions": [
                0.037214330707907126,
                -1.4217642733274363,
                1.3060748596354599,
                -0.28723050390606225,
                -0.34503219530282825,
                1.3547920102016136
            ]
        },
        {
            "positions": [
                0.03754787991397432,
                -1.3919539882928196,
                1.386177375534883,
                -0.3322096786257902,
                -0.2916765598338312,
                1.5377825572412196
            ]
        },
        {
            "positions": [
                0.03788142912004152,
                -1.3621437032582029,
                1.466279891434306,
                -0.3771888533455181,
                -0.2383209243648341,
                1.7207731042808256
            ]
        },
        {
            "positions": [
                0.03821497832610871,
                -1.3323334182235862,
                1.5463824073337291,
                -0.42216802806524595,
                -0.18496528889583708,
                1.9037636513204315
            ]
        },
        {
            "positions": [
                0.03854852753217591,
                -1.3025231331889695,
                1.6264849232331522,
                -0.4671472027849739,
                -0.13160965342683995,
                2.0867541983600377
            ]
        },
        {
            "positions": [
                0.0388820767382431,
                -1.2727128481543528,
                1.7065874391325753,
                -0.5121263775047018,
                -0.07825401795784293,
                2.269744745399644
            ]
        },
        {
            "positions": [
                0.039215625944310294,
                -1.2429025631197361,
                1.7866899550319983,
                -0.5571055522244297,
                -0.024898382488845842,
                2.45273529243925
            ]
        },
        {
            "positions": [
                0.06042316235839558,
                -1.2157377141685521,
                1.830042836279484,
                -0.5983913765286692,
                0.016221640757947853,
                2.601092345553218
            ]
        },
        {
            "positions": [
                0.08163069877248086,
                -1.1885728652173682,
                1.87339571752697,
                -0.6396772008329089,
                0.05734166400474155,
                2.749449398667186
            ]
        },
        {
            "positions": [
                0.10283823518656615,
                -1.161408016266184,
                1.916748598774456,
                -0.6809630251371486,
                0.09846168725153523,
                2.8978064517811544
            ]
        },
        {
            "positions": [
                0.12404577160065144,
                -1.134243167315,
                1.9601014800219416,
                -0.7222488494413881,
                0.13958171049832893,
                3.0461635048951226
            ]
        }
    ]
}{
    "goal": {
        "global_pose": {
            "orientation": {
                "w": 0.7047431468963623,
                "x": -0.7094548344612122,
                "y": 0.0024358443915843964,
                "z": -0.0022348060738295317
            },
            "position": {
                "x": 0.6094750761985779,
                "y": 0.3671506643295288,
                "z": 0.19426114857196808
            }
        },
        "name": "move_to_magneteinheit_A"
    },
    "id": "PRM_move_to_magneteinheit_A_115",
    "joint_names": [
        "shoulder_pan_joint",
        "shoulder_lift_joint",
        "elbow_joint",
        "wrist_1_joint",
        "wrist_2_joint",
        "wrist_3_joint"
    ],
    "metrics": {
        "cart_traj_len": 1.2511777706064413,
        "distance_elbow_joint": 0.09426928330888651,
        "distance_shoulder_lift_joint": 1.1103123011455969,
        "distance_shoulder_pan_joint": 1.2421325656106263,
        "distance_wrist_1_joint": 3.5877155985479035,
        "distance_wrist_2_joint": 1.7028667552556775,
        "distance_wrist_3_joint": 1.193155606584075,
        "smoothness": 2.5905204008662365e-16,
        "time": 0.049316395,
        "traj_len": 2.988386205036552,
        "weighted_distance": 4.07521112059541
    },
    "planner": "PRM",
    "start": {
        "state": {
            "elbow_joint": 1.919643534880228,
            "shoulder_lift_joint": -1.8972525353963687,
            "shoulder_pan_joint": -1.1188672234189438,
            "wrist_1_joint": -1.5931878212786155,
            "wrist_2_joint": 1.5706036197970081,
            "wrist_3_joint": 1.118896926603594
        }
    },
    "waypoints": [
        {
            "positions": [
                -1.1188672234189438,
                -1.8972525353963687,
                1.919643534880228,
                -1.5931878212786155,
                1.5706036197970081,
                1.118896926603594
            ]
        },
        {
            "positions": [
                -1.0648614596967427,
                -1.8489780875204733,
                1.9237421993719188,
                -1.4372001865591415,
                1.4965659347858917,
                1.0670205958825472
            ]
        },
        {
            "positions": [
                -1.0108556959745416,
                -1.8007036396445777,
                1.9278408638636095,
                -1.2812125518396673,
                1.4225282497747753,
                1.0151442651615006
            ]
        },
        {
            "positions": [
                -0.9568499322523404,
                -1.7524291917686823,
                1.9319395283553003,
                -1.1252249171201933,
                1.348490564763659,
                0.9632679344404538
            ]
        },
        {
            "positions": [
                -0.9028441685301393,
                -1.7041547438927866,
                1.936038192846991,
                -0.9692372824007193,
                1.2744528797525425,
                0.911391603719407
            ]
        },
        {
            "positions": [
                -0.8488384048079382,
                -1.6558802960168912,
                1.9401368573386817,
                -0.8132496476812452,
                1.200415194741426,
                0.8595152729983603
            ]
        },
        {
            "positions": [
                -0.7948326410857369,
                -1.6076058481409956,
                1.9442355218303724,
                -0.6572620129617711,
                1.1263775097303097,
                0.8076389422773136
            ]
        },
        {
            "positions": [
                -0.7408268773635358,
                -1.5593314002651,
                1.9483341863220631,
                -0.501274378242297,
                1.0523398247191933,
                0.7557626115562668
            ]
        },
        {
            "positions": [
                -0.6868211136413347,
                -1.5110569523892046,
                1.9524328508137538,
                -0.34528674352282307,
                0.9783021397080768,
                0.7038862808352201
            ]
        },
        {
            "positions": [
                -0.6328153499191336,
                -1.4627825045133092,
                1.9565315153054446,
                -0.18929910880334888,
                0.9042644546969604,
                0.6520099501141734
            ]
        },
        {
            "positions": [
                -0.5788095861969325,
                -1.4145080566374135,
                1.9606301797971353,
                -0.033311474083874915,
                0.830226769685844,
                0.6001336193931266
            ]
        },
        {
            "positions": [
                -0.5248038224747312,
                -1.366233608761518,
                1.964728844288826,
                0.12267616063559927,
                0.7561890846747276,
                0.5482572886720799
            ]
        },
        {
            "positions": [
                -0.4707980587525301,
                -1.3179591608856227,
                1.9688275087805167,
                0.27866379535507324,
                0.6821513996636112,
                0.4963809579510331
            ]
        },
        {
            "positions": [
                -0.416792295030329,
                -1.269684713009727,
                1.9729261732722074,
                0.434651430074547,
                0.6081137146524949,
                0.4445046272299864
            ]
        },
        {
            "positions": [
                -0.36278653130812777,
                -1.2214102651338314,
                1.9770248377638981,
                0.5906390647940214,
                0.5340760296413782,
                0.3926282965089396
            ]
        },
        {
            "positions": [
                -0.30878076758592665,
                -1.173135817257936,
                1.9811235022555889,
                0.7466266995134954,
                0.46003834463026183,
                0.3407519657878929
            ]
        },
        {
            "positions": [
                -0.25477500386372554,
                -1.1248613693820406,
                1.9852221667472796,
                0.9026143342329693,
                0.3860006596191454,
                0.2888756350668462
            ]
        },
        {
            "positions": [
                -0.20076924014152442,
                -1.076586921506145,
                1.9893208312389703,
                1.0586019689524433,
                0.31196297460802924,
                0.23699930434579952
            ]
        },
        {
            "positions": [
                -0.1467634764193232,
                -1.0283124736302494,
                1.993419495730661,
                1.2145896036719177,
                0.23792528959691261,
                0.18512297362475272
            ]
        },
        {
            "positions": [
                -0.09275771269712196,
                -0.980038025754354,
                1.9975181602223517,
                1.3705772383913917,
                0.1638876045857962,
                0.13324664290370603
            ]
        },
        {
            "positions": [
                -0.03875194897492107,
                -0.9317635778784584,
                2.0016168247140422,
                1.5265648731108656,
                0.0898499195746798,
                0.08137031218265922
            ]
        },
        {
            "positions": [
                0.015253814747280048,
                -0.8834891300025629,
                2.005715489205733,
                1.6825525078303396,
                0.0158122345635634,
                0.02949398146161264
            ]
        },
        {
            "positions": [
                0.06925957846948139,
                -0.8352146821266673,
                2.009814153697424,
                1.838540142549814,
                -0.05822545044755301,
                -0.022382349259434164
            ]
        },
        {
            "positions": [
                0.12326534219168253,
                -0.7869402342507719,
                2.0139128181891146,
                1.994527777269288,
                -0.13226313545866947,
                -0.07425867998048097
            ]
        }
    ]
}