{
    "goal": {
        "global_pose": {
            "orientation": {
                "w": 0.5084816217422485,
                "x": -0.49083608388900757,
                "y": 0.5182115435600281,
                "z": -0.4816462993621826
            },
            "position": {
                "x": 0.5540239810943604,
                "y": 0.030875300988554955,
                "z": 0.16403168439865112
            }
        },
        "name": "move_to_storage_A"
    },
    "id": "PRM_move_to_storage_A_61",
    "joint_names": [
        "shoulder_pan_joint",
        "shoulder_lift_joint",
        "elbow_joint",
        "wrist_1_joint",
        "wrist_2_joint",
        "wrist_3_joint"
    ],
    "metrics": {
        "cart_traj_len": 0.35338192877118857,
        "distance_elbow_joint": 0.45028897821014224,
        "distance_shoulder_lift_joint": 0.23213640270186842,
        "distance_shoulder_pan_joint": 0.45921576053450835,
        "distance_wrist_1_joint": 0.248115797417232,
        "distance_wrist_2_joint": 1.1106857444885883,
        "distance_wrist_3_joint": 0.09035590478540989,
        "smoothness": 0.0,
        "time": 0.032504241,
        "traj_len": 1.6095957840829944,
        "weighted_distance": 2.032316889565795
    },
    "planner": "PRM",
    "start": {
        "state": {
            "elbow_joint": 1.9715477243005601,
            "shoulder_lift_joint": -1.1394853015351272,
            "shoulder_pan_joint": 0.12281154014795169,
            "wrist_1_joint": -0.7804696478968182,
            "wrist_2_joint": 0.12958648046900423,
            "wrist_3_joint": -3.192491284697111
        }
    },
    "waypoints": [
        {
            "positions": [
                0.12281154014795169,
                -1.1394853015351272,
                1.9715477243005601,
                -0.7804696478968182,
                0.12958648046900423,
                -3.192491284697111
            ]
        },
        {
            "positions": [
                0.057209288643021924,
                -1.1726476447782512,
                2.0358747211877235,
                -0.8159147618135656,
                0.2882558725388026,
                -3.1795832982991956
            ]
        },
        {
            "positions": [
                -0.00839296286190784,
                -1.2058099880213753,
                2.1002017180748864,
                -0.851359875730313,
                0.4469252646086009,
                -3.1666753119012796
            ]
        },
        {
            "positions": [
                -0.0739952143668376,
                -1.2389723312644993,
                2.16452871496205,
                -0.8868049896470604,
                0.6055946566783992,
                -3.153767325503364
            ]
        },
        {
            "positions": [
                -0.13959746587176736,
                -1.2721346745076234,
                2.2288557118492127,
                -0.9222501035638079,
                0.7642640487481975,
                -3.1408593391054485
            ]
        },
        {
            "positions": [
                -0.20519971737669712,
                -1.3052970177507475,
                2.293182708736376,
                -0.9576952174805553,
                0.9229334408179959,
                -3.127951352707533
            ]
        },
        {
            "positions": [
                -0.2708019688816269,
                -1.3384593609938715,
                2.357509705623539,
                -0.9931403313973027,
                1.081602832887794,
                -3.115043366309617
            ]
        },
        {
            "positions": [
                -0.33640422038655665,
                -1.3716217042369956,
                2.4218367025107024,
                -1.0285854453140502,
                1.2402722249575926,
                -3.1021353799117013
            ]
        }
    ]
}