{
    "goal": {
        "global_pose": {
            "orientation": {
                "w": 0.7047431468963623,
                "x": -0.7094548344612122,
                "y": 0.0024358443915843964,
                "z": -0.0022348060738295317
            },
            "position": {
                "x": 0.6094750761985779,
                "y": 0.3671506643295288,
                "z": 0.19426114857196808
            }
        },
        "name": "move_to_magneteinheit_A"
    },
    "id": "PRM_move_to_magneteinheit_A_53",
    "joint_names": [
        "shoulder_pan_joint",
        "shoulder_lift_joint",
        "elbow_joint",
        "wrist_1_joint",
        "wrist_2_joint",
        "wrist_3_joint"
    ],
    "metrics": {
        "cart_traj_len": 3.648177807625273,
        "distance_elbow_joint": 4.334774831090549,
        "distance_shoulder_lift_joint": 1.6943284928516507,
        "distance_shoulder_pan_joint": 3.79477817216988,
        "distance_wrist_1_joint": 3.4807507832241846,
        "distance_wrist_2_joint": 1.4410136251759194,
        "distance_wrist_3_joint": 1.2849620121192586,
        "smoothness": 0.3493187121208505,
        "time": 0.094990923,
        "traj_len": 4.003824161552482,
        "weighted_distance": 4.849979005033946
    },
    "planner": "PRM",
    "start": {
        "state": {
            "elbow_joint": -1.919618573717145,
            "shoulder_lift_joint": -1.2443395971678275,
            "shoulder_pan_joint": 2.6996025300909787,
            "wrist_1_joint": -1.548550951253194,
            "wrist_2_joint": -1.5709469090946802,
            "wrist_3_joint": 0.4420197732051276
        }
    },
    "waypoints": [
        {
            "positions": [
                2.6996025300909787,
                -1.2443395971678275,
                -1.919618573717145,
                -1.548550951253194,
                -1.5709469090946802,
                0.4420197732051276
            ]
        },
        {
            "positions": [
                2.5791583802430185,
                -1.2804393400916334,
                -1.8411930295201673,
                -1.4548935797149363,
                -1.5384662875475672,
                0.4260168562781147
            ]
        },
        {
            "positions": [
                2.458714230395058,
                -1.316539083015439,
                -1.7627674853231898,
                -1.3612362081766782,
                -1.5059856660004542,
                0.41001393935110175
            ]
        },
        {
            "positions": [
                2.338270080547098,
                -1.352638825939245,
                -1.6843419411262122,
                -1.2675788366384204,
                -1.4735050444533415,
                0.39401102242408886
            ]
        },
        {
            "positions": [
                2.2178259306991377,
                -1.388738568863051,
                -1.6059163969292345,
                -1.1739214651001624,
                -1.4410244229062286,
                0.3780081054970759
            ]
        },
        {
            "positions": [
                2.097381780851178,
                -1.4248383117868566,
                -1.5274908527322568,
                -1.0802640935619046,
                -1.4085438013591156,
                0.36200518857006303
            ]
        },
        {
            "positions": [
                1.9769376310032174,
                -1.4609380547106625,
                -1.4490653085352792,
                -0.9866067220236466,
                -1.3760631798120027,
                0.3460022716430501
            ]
        },
        {
            "positions": [
                1.8564934811552574,
                -1.4970377976344684,
                -1.3706397643383017,
                -0.8929493504853888,
                -1.34358255826489,
                0.3299993547160372
            ]
        },
        {
            "positions": [
                1.736049331307297,
                -1.5331375405582743,
                -1.292214220141324,
                -0.7992919789471309,
                -1.311101936717777,
                0.3139964377890243
            ]
        },
        {
            "positions": [
                1.6156051814593368,
                -1.56923728348208,
                -1.2137886759443464,
                -0.7056346074088731,
                -1.278621315170664,
                0.29799352086201136
            ]
        },
        {
            "positions": [
                1.4951610316113766,
                -1.605337026405886,
                -1.1353631317473687,
                -0.6119772358706151,
                -1.246140693623551,
                0.2819906039349985
            ]
        },
        {
            "positions": [
                1.3747168817634163,
                -1.6414367693296918,
                -1.056937587550391,
                -0.5183198643323572,
                -1.2136600720764381,
                0.2659876870079856
            ]
        },
        {
            "positions": [
                1.254272731915456,
                -1.6775365122534978,
                -0.9785120433534135,
                -0.4246624927940992,
                -1.1811794505293254,
                0.24998477008097264
            ]
        },
        {
            "positions": [
                1.1338285820674963,
                -1.7136362551773034,
                -0.9000864991564359,
                -0.3310051212558416,
                -1.1486988289822124,
                0.23398185315395975
            ]
        },
        {
            "positions": [
                1.013384432219536,
                -1.7497359981011094,
                -0.8216609549594585,
                -0.23734774971758354,
                -1.1162182074350997,
                0.21797893622694683
            ]
        },
        {
            "positions": [
                0.8929402823715757,
                -1.7858357410249153,
                -0.7432354107624808,
                -0.14369037817932573,
                -1.0837375858879867,
                0.20197601929993392
            ]
        },
        {
            "positions": [
                0.7724961325236155,
                -1.821935483948721,
                -0.6648098665655031,
                -0.05003300664106769,
                -1.0512569643408738,
                0.18597310237292097
            ]
        },
        {
            "positions": [
                0.6520519826756552,
                -1.8580352268725269,
                -0.5863843223685254,
                0.04362436489719013,
                -1.0187763427937608,
                0.1699701854459081
            ]
        },
        {
            "positions": [
                0.5951409104905738,
                -1.812136492685448,
                -0.44680234303188526,
                0.1268758338823775,
                -0.9782292363135784,
                0.14031139079223492
            ]
        },
        {
            "positions": [
                0.5382298383054925,
                -1.766237758498369,
                -0.30722036369524514,
                0.21012730286756487,
                -0.9376821298333959,
                0.11065259613856172
            ]
        },
        {
            "positions": [
                0.48131876612041113,
                -1.7203390243112902,
                -0.16763838435860495,
                0.2933787718527522,
                -0.8971350233532136,
                0.08099380148488854
            ]
        },
        {
            "positions": [
                0.4244076939353298,
                -1.674440290124211,
                -0.028056405021964825,
                0.3766302408379396,
                -0.8565879168730312,
                0.051335006831215335
            ]
        },
        {
            "positions": [
                0.36749662175024844,
                -1.6285415559371321,
                0.11152557431467536,
                0.4598817098231269,
                -0.8160408103928487,
                0.021676212177542148
            ]
        },
        {
            "positions": [
                0.3105855495651671,
                -1.5826428217500532,
                0.25110755365131554,
                0.5431331788083142,
                -0.7754937039126663,
                -0.00798258247613104
            ]
        },
        {
            "positions": [
                0.25367447738008575,
                -1.5367440875629743,
                0.3906895329879556,
                0.6263846477935016,
                -0.7349465974324838,
                -0.03764137712980423
            ]
        },
        {
            "positions": [
                0.19676340519500435,
                -1.4908453533758954,
                0.5302715123245958,
                0.7096361167786891,
                -0.6943994909523015,
                -0.06730017178347744
            ]
        },
        {
            "positions": [
                0.13985233300992295,
                -1.4449466191888165,
                0.669853491661236,
                0.7928875857638764,
                -0.6538523844721189,
                -0.09695896643715066
            ]
        },
        {
            "positions": [
                0.08294126082484166,
                -1.3990478850017376,
                0.8094354709978762,
                0.8761390547490637,
                -0.6133052779919366,
                -0.12661776109082382
            ]
        },
        {
            "positions": [
                0.026030188639760254,
                -1.3531491508146587,
                0.9490174503345163,
                0.9593905237342512,
                -0.5727581715117541,
                -0.15627655574449703
            ]
        },
        {
            "positions": [
                -0.030880883545321036,
                -1.3072504166275798,
                1.0885994296711565,
                1.0426419927194384,
                -0.5322110650315717,
                -0.1859353503981702
            ]
        },
        {
            "positions": [
                -0.08779195573040244,
                -1.2613516824405009,
                1.2281814090077967,
                1.125893461704626,
                -0.4916639585513892,
                -0.2155941450518434
            ]
        },
        {
            "positions": [
                -0.14470302791548373,
                -1.215452948253422,
                1.3677633883444367,
                1.209144930689813,
                -0.4511168520712069,
                -0.24525293970551656
            ]
        },
        {
            "positions": [
                -0.20161410010056513,
                -1.1695542140663429,
                1.507345367681077,
                1.2923963996750005,
                -0.41056974559102444,
                -0.2749117343591898
            ]
        },
        {
            "positions": [
                -0.25852517228564653,
                -1.123655479879264,
                1.646927347017717,
                1.375647868660188,
                -0.370022639110842,
                -0.30457052901286297
            ]
        },
        {
            "positions": [
                -0.3154362444707278,
                -1.077756745692185,
                1.7865093263543574,
                1.4588993376453752,
                -0.32947553263065965,
                -0.3342293236665361
            ]
        },
        {
            "positions": [
                -0.37234731665580934,
                -1.031858011505106,
                1.9260913056909974,
                1.5421508066305627,
                -0.2889284261504771,
                -0.3638881183202094
            ]
        },
        {
            "positions": [
                -0.4292583888408905,
                -0.9859592773180272,
                2.0656732850276374,
                1.6254022756157498,
                -0.24838131967029475,
                -0.39354691297388245
            ]
        },
        {
            "positions": [
                -0.4861694610259719,
                -0.9400605431309482,
                2.2052552643642778,
                1.7086537446009373,
                -0.2078342131901123,
                -0.4232057076275557
            ]
        },
        {
            "positions": [
                -0.3643682248153861,
                -0.9075289072498737,
                2.163275065762453,
                1.753362962074948,
                -0.19225402733584204,
                -0.3392584013702406
            ]
        },
        {
            "positions": [
                -0.24256698860480025,
                -0.8749972713687991,
                2.121294867160628,
                1.798072179548959,
                -0.17667384148157178,
                -0.2553110951129255
            ]
        },
        {
            "positions": [
                -0.12076575239421444,
                -0.8424656354877245,
                2.0793146685588026,
                1.8427813970229696,
                -0.16109365562730155,
                -0.17136378885561038
            ]
        },
        {
            "positions": [
                0.0010354838163714186,
                -0.8099339996066499,
                2.0373344699569778,
                1.8874906144969805,
                -0.14551346977303128,
                -0.08741648259829526
            ]
        },
        {
            "positions": [
                0.1228367200269572,
                -0.7774023637255754,
                1.9953542713551529,
                1.9321998319709912,
                -0.12993328391876102,
                -0.003469176340980138
            ]
        }
    ]
}{
    "goal": {
        "global_pose": {
            "orientation": {
                "w": 0.7047431468963623,
                "x": -0.7094548344612122,
                "y": 0.0024358443915843964,
                "z": -0.0022348060738295317
            },
            "position": {
                "x": 0.6094750761985779,
                "y": 0.3671506643295288,
                "z": 0.19426114857196808
            }
        },
        "name": "move_to_magneteinheit_A"
    },
    "id": "PRM_move_to_magneteinheit_A_53",
    "joint_names": [
        "shoulder_pan_joint",
        "shoulder_lift_joint",
        "elbow_joint",
        "wrist_1_joint",
        "wrist_2_joint",
        "wrist_3_joint"
    ],
    "metrics": {
        "cart_traj_len": 2.0875907690111464,
        "distance_elbow_joint": 2.9901776799376254,
        "distance_shoulder_lift_joint": 0.761056818616167,
        "distance_shoulder_pan_joint": 1.8032278628914842,
        "distance_wrist_1_joint": 0.8456494560600412,
        "distance_wrist_2_joint": 3.4917412455239463,
        "distance_wrist_3_joint": 4.348193873644104,
        "smoothness": 0.34799910485378727,
        "time": 0.105606373,
        "traj_len": 3.7735986719142995,
        "weighted_distance": 5.222434813910612
    },
    "planner": "PRM",
    "start": {
        "state": {
            "elbow_joint": 1.919643534880228,
            "shoulder_lift_joint": -1.8972525353963687,
            "shoulder_pan_joint": -1.1188672234189438,
            "wrist_1_joint": -1.5931878212786155,
            "wrist_2_joint": 1.5706036197970081,
            "wrist_3_joint": 1.118896926603594
        }
    },
    "waypoints": [
        {
            "positions": [
                -1.1188672234189438,
                -1.8972525353963687,
                1.919643534880228,
                -1.5931878212786155,
                1.5706036197970081,
                1.118896926603594
            ]
        },
        {
            "positions": [
                -1.132913584105813,
                -1.8714812786231936,
                1.846038848802457,
                -1.55667744970462,
                1.447374572710072,
                1.000160331329928
            ]
        },
        {
            "positions": [
                -1.1469599447926824,
                -1.8457100218500186,
                1.772434162724686,
                -1.5201670781306245,
                1.3241455256231358,
                0.8814237360562621
            ]
        },
        {
            "positions": [
                -1.1610063054795514,
                -1.8199387650768435,
                1.698829476646915,
                -1.483656706556629,
                1.2009164785361996,
                0.7626871407825963
            ]
        },
        {
            "positions": [
                -1.1750526661664207,
                -1.7941675083036686,
                1.6252247905691437,
                -1.4471463349826335,
                1.0776874314492635,
                0.6439505455089303
            ]
        },
        {
            "positions": [
                -1.18909902685329,
                -1.7683962515304934,
                1.5516201044913727,
                -1.410635963408638,
                0.9544583843623272,
                0.5252139502352644
            ]
        },
        {
            "positions": [
                -1.2031453875401592,
                -1.7426249947573185,
                1.4780154184136016,
                -1.3741255918346427,
                0.8312293372753911,
                0.40647735496159854
            ]
        },
        {
            "positions": [
                -1.2171917482270285,
                -1.7168537379841433,
                1.4044107323358306,
                -1.337615220260647,
                0.7080002901884549,
                0.28774075968793267
            ]
        },
        {
            "positions": [
                -1.2312381089138975,
                -1.6910824812109682,
                1.3308060462580595,
                -1.3011048486866517,
                0.5847712431015186,
                0.16900416441426658
            ]
        },
        {
            "positions": [
                -1.2452844696007668,
                -1.6653112244377932,
                1.2572013601802885,
                -1.264594477112656,
                0.46154219601458246,
                0.05026756914060071
            ]
        },
        {
            "positions": [
                -1.259330830287636,
                -1.6395399676646183,
                1.1835966741025175,
                -1.2280841055386607,
                0.3383131489276463,
                -0.06846902613306516
            ]
        },
        {
            "positions": [
                -1.2733771909745053,
                -1.6137687108914431,
                1.1099919880247464,
                -1.191573733964665,
                0.21508410184070992,
                -0.18720562140673125
            ]
        },
        {
            "positions": [
                -1.2874235516613746,
                -1.587997454118268,
                1.0363873019469754,
                -1.1550633623906696,
                0.09185505475377398,
                -0.3059422166803969
            ]
        },
        {
            "positions": [
                -1.3014699123482436,
                -1.562226197345093,
                0.9627826158692042,
                -1.1185529908166743,
                -0.031373992333162404,
                -0.424678811954063
            ]
        },
        {
            "positions": [
                -1.3155162730351129,
                -1.5364549405719181,
                0.8891779297914333,
                -1.0820426192426789,
                -0.15460303942009834,
                -0.5434154072277286
            ]
        },
        {
            "positions": [
                -1.3295626337219821,
                -1.510683683798743,
                0.815573243713662,
                -1.0455322476686832,
                -0.2778320865070345,
                -0.6621520025013947
            ]
        },
        {
            "positions": [
                -1.3436089944088514,
                -1.4849124270255678,
                0.741968557635891,
                -1.0090218760946876,
                -0.4010611335939709,
                -0.7808885977750608
            ]
        },
        {
            "positions": [
                -1.3576553550957207,
                -1.4591411702523929,
                0.6683638715581199,
                -0.9725115045206923,
                -0.5242901806809068,
                -0.8996251930487265
            ]
        },
        {
            "positions": [
                -1.37170171578259,
                -1.4333699134792177,
                0.5947591854803489,
                -0.9360011329466967,
                -0.6475192277678432,
                -1.0183617883223925
            ]
        },
        {
            "positions": [
                -1.385748076469459,
                -1.4075986567060428,
                0.5211544994025779,
                -0.8994907613727013,
                -0.7707482748547791,
                -1.1370983835960582
            ]
        },
        {
            "positions": [
                -1.3997944371563282,
                -1.3818273999328676,
                0.4475498133248069,
                -0.8629803897987058,
                -0.8939773219417156,
                -1.255834978869724
            ]
        },
        {
            "positions": [
                -1.3102473401472636,
                -1.3673784773944755,
                0.5368488697002307,
                -0.8561896824704628,
                -0.8335561276014084,
                -1.3719209769974172
            ]
        },
        {
            "positions": [
                -1.2207002431381988,
                -1.3529295548560833,
                0.6261479260756544,
                -0.8493989751422197,
                -0.7731349332611013,
                -1.4880069751251106
            ]
        },
        {
            "positions": [
                -1.1311531461291342,
                -1.3384806323176912,
                0.7154469824510782,
                -0.8426082678139768,
                -0.712713738920794,
                -1.6040929732528038
            ]
        },
        {
            "positions": [
                -1.0416060491200696,
                -1.324031709779299,
                0.804746038826502,
                -0.8358175604857337,
                -0.6522925445804868,
                -1.720178971380497
            ]
        },
        {
            "positions": [
                -0.9520589521110048,
                -1.3095827872409072,
                0.8940450952019257,
                -0.8290268531574907,
                -0.5918713502401796,
                -1.83626496950819
            ]
        },
        {
            "positions": [
                -0.8625118551019401,
                -1.295133864702515,
                0.9833441515773494,
                -0.8222361458292476,
                -0.5314501558998723,
                -1.9523509676358834
            ]
        },
        {
            "positions": [
                -0.7729647580928755,
                -1.2806849421641229,
                1.072643207952773,
                -0.8154454385010046,
                -0.4710289615595652,
                -2.068436965763577
            ]
        },
        {
            "positions": [
                -0.6834176610838107,
                -1.2662360196257307,
                1.161942264328197,
                -0.8086547311727615,
                -0.41060776721925796,
                -2.1845229638912698
            ]
        },
        {
            "positions": [
                -0.5938705640747459,
                -1.2517870970873386,
                1.2512413207036206,
                -0.8018640238445186,
                -0.3501865728789507,
                -2.300608962018963
            ]
        },
        {
            "positions": [
                -0.5043234670656812,
                -1.2373381745489465,
                1.3405403770790443,
                -0.7950733165162756,
                -0.2897653785386435,
                -2.416694960146656
            ]
        },
        {
            "positions": [
                -0.4147763700566165,
                -1.2228892520105543,
                1.4298394334544682,
                -0.7882826091880325,
                -0.22934418419833624,
                -2.5327809582743495
            ]
        },
        {
            "positions": [
                -0.3252292730475519,
                -1.2084403294721622,
                1.519138489829892,
                -0.7814919018597895,
                -0.168922989858029,
                -2.648866956402043
            ]
        },
        {
            "positions": [
                -0.2356821760384873,
                -1.1939914069337703,
                1.6084375462053155,
                -0.7747011945315464,
                -0.10850179551772199,
                -2.7649529545297358
            ]
        },
        {
            "positions": [
                -0.1461350790294227,
                -1.1795424843953781,
                1.6977366025807394,
                -0.7679104872033033,
                -0.04808060117741475,
                -2.881038952657429
            ]
        },
        {
            "positions": [
                -0.05658798202035786,
                -1.165093561856986,
                1.787035658956163,
                -0.7611197798750604,
                0.012340593162892488,
                -2.997124950785122
            ]
        },
        {
            "positions": [
                0.03295911498870674,
                -1.1506446393185938,
                1.8763347153315868,
                -0.7543290725468174,
                0.07276178750319973,
                -3.1132109489128155
            ]
        },
        {
            "positions": [
                0.12250621199777151,
                -1.1361957167802017,
                1.9656337717070105,
                -0.7475383652185743,
                0.13318298184350694,
                -3.229296947040509
            ]
        }
    ]
}