{
    "goal": {
        "global_pose": {
            "orientation": {
                "w": 0.5084816217422485,
                "x": -0.49083608388900757,
                "y": 0.5182115435600281,
                "z": -0.4816462993621826
            },
            "position": {
                "x": 0.5540239810943604,
                "y": 0.030875300988554955,
                "z": 0.16403168439865112
            }
        },
        "name": "move_to_storage_A"
    },
    "id": "PRM_move_to_storage_A_1",
    "joint_names": [
        "shoulder_pan_joint",
        "shoulder_lift_joint",
        "elbow_joint",
        "wrist_1_joint",
        "wrist_2_joint",
        "wrist_3_joint"
    ],
    "metrics": {
        "cart_traj_len": 0.35261774382817174,
        "distance_elbow_joint": 0.4498380452641655,
        "distance_shoulder_lift_joint": 0.23511948116383685,
        "distance_shoulder_pan_joint": 0.45768665017966165,
        "distance_wrist_1_joint": 0.24183354714129568,
        "distance_wrist_2_joint": 1.1129513674779554,
        "distance_wrist_3_joint": 0.1056674865271745,
        "smoothness": 4.440892133664971e-16,
        "time": 0.024222588,
        "traj_len": 1.6134114719296158,
        "weighted_distance": 2.04186592738791
    },
    "planner": "PRM",
    "start": {
        "state": {
            "elbow_joint": 1.9715477243005601,
            "shoulder_lift_joint": -1.1394853015351272,
            "shoulder_pan_joint": 0.12281154014795169,
            "wrist_1_joint": -0.7804696478968182,
            "wrist_2_joint": 0.12958648046900423,
            "wrist_3_joint": -3.192491284697111
        }
    },
    "waypoints": [
        {
            "positions": [
                0.12281154014795169,
                -1.1394853015351272,
                1.9715477243005601,
                -0.7804696478968182,
                0.12958648046900423,
                -3.192491284697111
            ]
        },
        {
            "positions": [
                0.0574277329794286,
                -1.1730737988442468,
                2.035810302195441,
                -0.8150172974884319,
                0.28857953296585503,
                -3.1773959294789433
            ]
        },
        {
            "positions": [
                -0.007956074189094484,
                -1.2066622961533662,
                2.100072880090322,
                -0.8495649470800455,
                0.4475725854627058,
                -3.1623005742607755
            ]
        },
        {
            "positions": [
                -0.07333988135761758,
                -1.2402507934624858,
                2.1643354579852025,
                -0.8841125966716592,
                0.6065656379595565,
                -3.1472052190426076
            ]
        },
        {
            "positions": [
                -0.13872368852614064,
                -1.2738392907716054,
                2.228598035880083,
                -0.9186602462632728,
                0.7655586904564073,
                -3.1321098638244402
            ]
        },
        {
            "positions": [
                -0.20410749569466374,
                -1.307427788080725,
                2.2928606137749643,
                -0.9532078958548865,
                0.9245517429532581,
                -3.1170145086062724
            ]
        },
        {
            "positions": [
                -0.26949130286318684,
                -1.3410162853898444,
                2.357123191669845,
                -0.9877555454465001,
                1.0835447954501087,
                -3.1019191533881045
            ]
        },
        {
            "positions": [
                -0.33487511003170994,
                -1.374604782698964,
                2.4213857695647256,
                -1.0223031950381138,
                1.2425378479469595,
                -3.0868237981699367
            ]
        }
    ]
}