{
    "goal": {
        "global_pose": {
            "orientation": {
                "w": 0.7047431468963623,
                "x": -0.7094548344612122,
                "y": 0.0024358443915843964,
                "z": -0.0022348060738295317
            },
            "position": {
                "x": 0.6094750761985779,
                "y": 0.3671506643295288,
                "z": 0.19426114857196808
            }
        },
        "name": "move_to_magneteinheit_A"
    },
    "id": "PRM_move_to_magneteinheit_A_43",
    "joint_names": [
        "shoulder_pan_joint",
        "shoulder_lift_joint",
        "elbow_joint",
        "wrist_1_joint",
        "wrist_2_joint",
        "wrist_3_joint"
    ],
    "metrics": {
        "cart_traj_len": 3.481158533593575,
        "distance_elbow_joint": 3.941608888010598,
        "distance_shoulder_lift_joint": 0.4545751643676168,
        "distance_shoulder_pan_joint": 3.8282523474273233,
        "distance_wrist_1_joint": 4.8704334349144975,
        "distance_wrist_2_joint": 1.4383024172932526,
        "distance_wrist_3_joint": 1.473935081303774,
        "smoothness": 0.37384138313933896,
        "time": 0.243083176,
        "traj_len": 4.0008883180260195,
        "weighted_distance": 5.026302154480207
    },
    "planner": "PRM",
    "start": {
        "state": {
            "elbow_joint": -1.919618573717145,
            "shoulder_lift_joint": -1.2443395971678275,
            "shoulder_pan_joint": 2.6996025300909787,
            "wrist_1_joint": -1.548550951253194,
            "wrist_2_joint": -1.5709469090946802,
            "wrist_3_joint": 0.4420197732051276
        }
    },
    "waypoints": [
        {
            "positions": [
                2.6996025300909787,
                -1.2443395971678275,
                -1.919618573717145,
                -1.548550951253194,
                -1.5709469090946802,
                0.4420197732051276
            ]
        },
        {
            "positions": [
                2.602557207484037,
                -1.2430975605940306,
                -1.8020880775635637,
                -1.4207263620342958,
                -1.5347116214319736,
                0.4560657515671881
            ]
        },
        {
            "positions": [
                2.505511884877096,
                -1.2418555240202336,
                -1.6845575814099825,
                -1.2929017728153975,
                -1.498476333769267,
                0.47011172992924866
            ]
        },
        {
            "positions": [
                2.408466562270154,
                -1.2406134874464367,
                -1.5670270852564012,
                -1.165077183596499,
                -1.4622410461065605,
                0.48415770829130916
            ]
        },
        {
            "positions": [
                2.3114212396632126,
                -1.23937145087264,
                -1.4494965891028202,
                -1.0372525943776008,
                -1.426005758443854,
                0.49820368665336967
            ]
        },
        {
            "positions": [
                2.2143759170562713,
                -1.2381294142988428,
                -1.331966092949239,
                -0.9094280051587025,
                -1.3897704707811471,
                0.5122496650154302
            ]
        },
        {
            "positions": [
                2.1173305944493297,
                -1.236887377725046,
                -1.2144355967956577,
                -0.7816034159398041,
                -1.3535351831184406,
                0.5262956433774907
            ]
        },
        {
            "positions": [
                2.020285271842388,
                -1.2356453411512491,
                -1.0969051006420765,
                -0.6537788267209058,
                -1.317299895455734,
                0.5403416217395512
            ]
        },
        {
            "positions": [
                1.9232399492354468,
                -1.234403304577452,
                -0.9793746044884952,
                -0.5259542375020074,
                -1.2810646077930274,
                0.5543876001016118
            ]
        },
        {
            "positions": [
                1.8261946266285054,
                -1.2331612680036552,
                -0.861844108334914,
                -0.39812964828310915,
                -1.2448293201303209,
                0.5684335784636723
            ]
        },
        {
            "positions": [
                1.7291493040215637,
                -1.2319192314298584,
                -0.7443136121813327,
                -0.2703050590642109,
                -1.2085940324676143,
                0.5824795568257328
            ]
        },
        {
            "positions": [
                1.6321039814146223,
                -1.2306771948560613,
                -0.6267831160277517,
                -0.1424804698453126,
                -1.1723587448049078,
                0.5965255351877934
            ]
        },
        {
            "positions": [
                1.5350586588076809,
                -1.2294351582822645,
                -0.5092526198741703,
                -0.014655880626414097,
                -1.136123457142201,
                0.6105715135498538
            ]
        },
        {
            "positions": [
                1.4380133362007395,
                -1.2281931217084676,
                -0.39172212372058923,
                0.11316870859248396,
                -1.0998881694794944,
                0.6246174919119144
            ]
        },
        {
            "positions": [
                1.3409680135937978,
                -1.2269510851346705,
                -0.27419162756700777,
                0.24099329781138246,
                -1.0636528818167879,
                0.638663470273975
            ]
        },
        {
            "positions": [
                1.2439226909868564,
                -1.2257090485608737,
                -0.15666113141342675,
                0.36881788703028073,
                -1.0274175941540813,
                0.6527094486360354
            ]
        },
        {
            "positions": [
                1.1468773683799147,
                -1.2244670119870769,
                -0.0391306352598455,
                0.49664247624917923,
                -0.9911823064913747,
                0.666755426998096
            ]
        },
        {
            "positions": [
                1.0498320457729735,
                -1.2232249754132798,
                0.07839986089373574,
                0.6244670654680773,
                -0.9549470188286682,
                0.6808014053601565
            ]
        },
        {
            "positions": [
                0.9527867231660321,
                -1.221982938839483,
                0.19593035704731698,
                0.7522916546869758,
                -0.9187117311659616,
                0.694847383722217
            ]
        },
        {
            "positions": [
                0.8557414005590902,
                -1.220740902265686,
                0.3134608532008982,
                0.8801162439058743,
                -0.8824764435032549,
                0.7088933620842776
            ]
        },
        {
            "positions": [
                0.7586960779521488,
                -1.219498865691889,
                0.43099134935447947,
                1.0079408331247723,
                -0.8462411558405484,
                0.722939340446338
            ]
        },
        {
            "positions": [
                0.6616507553452076,
                -1.2182568291180922,
                0.5485218455080607,
                1.1357654223436708,
                -0.8100058681778418,
                0.7369853188083986
            ]
        },
        {
            "positions": [
                0.5646054327382659,
                -1.2170147925442953,
                0.6660523416616415,
                1.263590011562569,
                -0.7737705805151353,
                0.7510312971704591
            ]
        },
        {
            "positions": [
                0.46756011013132426,
                -1.2157727559704983,
                0.7835828378152232,
                1.3914146007814674,
                -0.7375352928524286,
                0.7650772755325197
            ]
        },
        {
            "positions": [
                0.37051478752438305,
                -1.2145307193967014,
                0.9011133339688044,
                1.519239190000366,
                -0.701300005189722,
                0.7791232538945801
            ]
        },
        {
            "positions": [
                0.2734694649174414,
                -1.2132886828229046,
                1.0186438301223852,
                1.647063779219264,
                -0.6650647175270155,
                0.7931692322566407
            ]
        },
        {
            "positions": [
                0.1764241423105002,
                -1.2120466462491075,
                1.1361743262759665,
                1.774888368438162,
                -0.6288294298643089,
                0.8072152106187012
            ]
        },
        {
            "positions": [
                0.07937881970355809,
                -1.2108046096753107,
                1.2537048224295482,
                1.902712957657061,
                -0.5925941422016022,
                0.8212611889807617
            ]
        },
        {
            "positions": [
                -0.01766650290338312,
                -1.2095625731015138,
                1.3712353185831294,
                2.030537546875959,
                -0.5563588545388956,
                0.8353071673428223
            ]
        },
        {
            "positions": [
                -0.11471182551032433,
                -1.2083205365277168,
                1.4887658147367102,
                2.1583621360948575,
                -0.5201235668761892,
                0.8493531457048829
            ]
        },
        {
            "positions": [
                -0.21175714811726598,
                -1.20707849995392,
                1.6062963108902915,
                2.2861867253137556,
                -0.48388827921348265,
                0.8633991240669433
            ]
        },
        {
            "positions": [
                -0.30880247072420763,
                -1.205836463380123,
                1.7238268070438731,
                2.414011314532654,
                -0.44765299155077587,
                0.8774451024290039
            ]
        },
        {
            "positions": [
                -0.4058477933311493,
                -1.204594426806326,
                1.841357303197454,
                2.5418359037515526,
                -0.4114177038880693,
                0.8914910807910643
            ]
        },
        {
            "positions": [
                -0.5028931159380903,
                -1.2033523902325292,
                1.9588877993510352,
                2.6696604929704506,
                -0.37518241622536275,
                0.9055370591531249
            ]
        },
        {
            "positions": [
                -0.4246735282633085,
                -1.1516538955534894,
                1.9667756137188375,
                2.5881327441340938,
                -0.3448651756723708,
                0.7792348347336528
            ]
        },
        {
            "positions": [
                -0.34645394058852674,
                -1.0999554008744497,
                1.9746634280866397,
                2.506604995297737,
                -0.31454793511937884,
                0.6529326103141808
            ]
        },
        {
            "positions": [
                -0.2682343529137449,
                -1.0482569061954097,
                1.982551242454442,
                2.4250772464613806,
                -0.2842306945663869,
                0.5266303858947087
            ]
        },
        {
            "positions": [
                -0.19001476523896316,
                -0.9965584115163699,
                1.990439056822244,
                2.3435494976250237,
                -0.25391345401339493,
                0.40032816147523664
            ]
        },
        {
            "positions": [
                -0.11179517756418139,
                -0.9448599168373302,
                1.9983268711900464,
                2.262021748788667,
                -0.22359621346040295,
                0.2740259370557646
            ]
        },
        {
            "positions": [
                -0.03357558988939957,
                -0.8931614221582903,
                2.0062146855578487,
                2.1804939999523105,
                -0.193278972907411,
                0.14772371263629247
            ]
        },
        {
            "positions": [
                0.044643997785382195,
                -0.8414629274792504,
                2.014102499925651,
                2.0989662511159537,
                -0.16296173235441905,
                0.02142148821682044
            ]
        },
        {
            "positions": [
                0.12286358546016393,
                -0.7897644328002107,
                2.021990314293453,
                2.017438502279597,
                -0.1326444918014271,
                -0.10488073620265165
            ]
        }
    ]
}{
    "goal": {
        "global_pose": {
            "orientation": {
                "w": 0.7047431468963623,
                "x": -0.7094548344612122,
                "y": 0.0024358443915843964,
                "z": -0.0022348060738295317
            },
            "position": {
                "x": 0.6094750761985779,
                "y": 0.3671506643295288,
                "z": 0.19426114857196808
            }
        },
        "name": "move_to_magneteinheit_A"
    },
    "id": "PRM_move_to_magneteinheit_A_43",
    "joint_names": [
        "shoulder_pan_joint",
        "shoulder_lift_joint",
        "elbow_joint",
        "wrist_1_joint",
        "wrist_2_joint",
        "wrist_3_joint"
    ],
    "metrics": {
        "cart_traj_len": 1.2033518813691404,
        "distance_elbow_joint": 0.03980127262459998,
        "distance_shoulder_lift_joint": 0.764438038698454,
        "distance_shoulder_pan_joint": 1.240839983634631,
        "distance_wrist_1_joint": 0.8555296190200807,
        "distance_wrist_2_joint": 1.4513392768540232,
        "distance_wrist_3_joint": 1.9386381996035367,
        "smoothness": 1.0449157961564637e-16,
        "time": 0.025925492999999997,
        "traj_len": 2.5081041426614097,
        "weighted_distance": 3.531958618885066
    },
    "planner": "PRM",
    "start": {
        "state": {
            "elbow_joint": 1.919643534880228,
            "shoulder_lift_joint": -1.8972525353963687,
            "shoulder_pan_joint": -1.1188672234189438,
            "wrist_1_joint": -1.5931878212786155,
            "wrist_2_joint": 1.5706036197970081,
            "wrist_3_joint": 1.118896926603594
        }
    },
    "waypoints": [
        {
            "positions": [
                -1.1188672234189438,
                -1.8972525353963687,
                1.919643534880228,
                -1.5931878212786155,
                1.5706036197970081,
                1.118896926603594
            ]
        },
        {
            "positions": [
                -1.0413147244417793,
                -1.8494751579777153,
                1.9221311144192657,
                -1.5397172200898603,
                1.4798949149936318,
                1.240061814078815
            ]
        },
        {
            "positions": [
                -0.963762225464615,
                -1.801697780559062,
                1.924618693958303,
                -1.4862466189011054,
                1.3891862101902552,
                1.361226701554036
            ]
        },
        {
            "positions": [
                -0.8862097264874504,
                -1.7539204031404085,
                1.9271062734973405,
                -1.4327760177123503,
                1.2984775053868787,
                1.4823915890292572
            ]
        },
        {
            "positions": [
                -0.8086572275102861,
                -1.7061430257217554,
                1.929593853036378,
                -1.3793054165235952,
                1.2077688005835023,
                1.603556476504478
            ]
        },
        {
            "positions": [
                -0.7311047285331216,
                -1.658365648303102,
                1.9320814325754156,
                -1.3258348153348403,
                1.117060095780126,
                1.7247213639796992
            ]
        },
        {
            "positions": [
                -0.6535522295559572,
                -1.6105882708844486,
                1.9345690121144532,
                -1.2723642141460851,
                1.0263513909767494,
                1.8458862514549201
            ]
        },
        {
            "positions": [
                -0.5759997305787927,
                -1.5628108934657952,
                1.9370565916534905,
                -1.2188936129573302,
                0.935642686173373,
                1.9670511389301413
            ]
        },
        {
            "positions": [
                -0.4984472316016283,
                -1.5150335160471418,
                1.939544171192528,
                -1.165423011768575,
                0.8449339813699965,
                2.0882160264053624
            ]
        },
        {
            "positions": [
                -0.42089473262446386,
                -1.4672561386284884,
                1.9420317507315656,
                -1.11195241057982,
                0.7542252765666201,
                2.209380913880583
            ]
        },
        {
            "positions": [
                -0.34334223364729943,
                -1.419478761209835,
                1.944519330270603,
                -1.058481809391065,
                0.6635165717632436,
                2.3305458013558047
            ]
        },
        {
            "positions": [
                -0.265789734670135,
                -1.3717013837911818,
                1.9470069098096405,
                -1.00501120820231,
                0.5728078669598672,
                2.4517106888310254
            ]
        },
        {
            "positions": [
                -0.18823723569297046,
                -1.3239240063725282,
                1.949494489348678,
                -0.9515406070135549,
                0.48209916215649073,
                2.5728755763062465
            ]
        },
        {
            "positions": [
                -0.11068473671580614,
                -1.276146628953875,
                1.9519820688877156,
                -0.8980700058247999,
                0.3913904573531144,
                2.6940404637814677
            ]
        },
        {
            "positions": [
                -0.0331322377386416,
                -1.2283692515352216,
                1.9544696484267532,
                -0.8445994046360448,
                0.30068175254973784,
                2.8152053512566884
            ]
        },
        {
            "positions": [
                0.04442026123852272,
                -1.1805918741165682,
                1.9569572279657905,
                -0.7911288034472898,
                0.20997304774636127,
                2.9363702387319095
            ]
        },
        {
            "positions": [
                0.12197276021568734,
                -1.1328144966979148,
                1.959444807504828,
                -0.7376582022585347,
                0.11926434294298503,
                3.0575351262071306
            ]
        }
    ]
}