{
    "goal": {
        "global_pose": {
            "orientation": {
                "w": 0.5084816217422485,
                "x": -0.49083608388900757,
                "y": 0.5182115435600281,
                "z": -0.4816462993621826
            },
            "position": {
                "x": 0.5540239810943604,
                "y": 0.030875300988554955,
                "z": 0.16403168439865112
            }
        },
        "name": "move_to_storage_A"
    },
    "id": "PRM_move_to_storage_A_78",
    "joint_names": [
        "shoulder_pan_joint",
        "shoulder_lift_joint",
        "elbow_joint",
        "wrist_1_joint",
        "wrist_2_joint",
        "wrist_3_joint"
    ],
    "metrics": {
        "cart_traj_len": 0.3531189004742873,
        "distance_elbow_joint": 0.45334207037303775,
        "distance_shoulder_lift_joint": 0.2328457526167178,
        "distance_shoulder_pan_joint": 0.4617589236648994,
        "distance_wrist_1_joint": 0.2569205793958508,
        "distance_wrist_2_joint": 1.0986896843932996,
        "distance_wrist_3_joint": 0.10231231639519667,
        "smoothness": 4.440892133664971e-16,
        "time": 0.027045154000000002,
        "traj_len": 1.6142705246763944,
        "weighted_distance": 2.041103677773019
    },
    "planner": "PRM",
    "start": {
        "state": {
            "elbow_joint": 1.9715477243005601,
            "shoulder_lift_joint": -1.1394853015351272,
            "shoulder_pan_joint": 0.12281154014795169,
            "wrist_1_joint": -0.7804696478968182,
            "wrist_2_joint": 0.12958648046900423,
            "wrist_3_joint": -3.192491284697111
        }
    },
    "waypoints": [
        {
            "positions": [
                0.12281154014795169,
                -1.1394853015351272,
                1.9715477243005601,
                -0.7804696478968182,
                0.12958648046900423,
                -3.192491284697111
            ]
        },
        {
            "positions": [
                0.05684597962439464,
                -1.1727489804803726,
                2.036310877210994,
                -0.8171725878105112,
                0.28654214966804703,
                -3.1778752394977974
            ]
        },
        {
            "positions": [
                -0.009119580899162413,
                -1.206012659425618,
                2.101074030121428,
                -0.853875527724204,
                0.44349781886708983,
                -3.1632591942984836
            ]
        },
        {
            "positions": [
                -0.07508514142271948,
                -1.2392763383708634,
                2.165837183031862,
                -0.890578467637897,
                0.6004534880661326,
                -3.1486431490991698
            ]
        },
        {
            "positions": [
                -0.1410507019462765,
                -1.2725400173161088,
                2.230600335942296,
                -0.92728140755159,
                0.7574091572651754,
                -3.134027103899856
            ]
        },
        {
            "positions": [
                -0.20701626246983357,
                -1.3058036962613542,
                2.29536348885273,
                -0.9639843474652829,
                0.9143648264642182,
                -3.119411058700542
            ]
        },
        {
            "positions": [
                -0.27298182299339063,
                -1.3390673752065996,
                2.3601266417631637,
                -1.000687287378976,
                1.0713204956632612,
                -3.1047950135012283
            ]
        },
        {
            "positions": [
                -0.3389473835169477,
                -1.372331054151845,
                2.424889794673598,
                -1.037390227292669,
                1.2282761648623037,
                -3.0901789683019145
            ]
        }
    ]
}