{
    "goal": {
        "global_pose": {
            "orientation": {
                "w": 0.7047431468963623,
                "x": -0.7094548344612122,
                "y": 0.0024358443915843964,
                "z": -0.0022348060738295317
            },
            "position": {
                "x": 0.6094750761985779,
                "y": 0.3671506643295288,
                "z": 0.19426114857196808
            }
        },
        "name": "move_to_magneteinheit_A"
    },
    "id": "PRM_move_to_magneteinheit_A_86",
    "joint_names": [
        "shoulder_pan_joint",
        "shoulder_lift_joint",
        "elbow_joint",
        "wrist_1_joint",
        "wrist_2_joint",
        "wrist_3_joint"
    ],
    "metrics": {
        "cart_traj_len": 3.6415133305936935,
        "distance_elbow_joint": 3.8926152526847986,
        "distance_shoulder_lift_joint": 0.10400722309094879,
        "distance_shoulder_pan_joint": 2.7405140662845464,
        "distance_wrist_1_joint": 0.7697263033607953,
        "distance_wrist_2_joint": 2.4436406556236863,
        "distance_wrist_3_joint": 2.637836803910131,
        "smoothness": 0.2375367554873264,
        "time": 0.197464963,
        "traj_len": 3.54800511625264,
        "weighted_distance": 4.591010876894068
    },
    "planner": "PRM",
    "start": {
        "state": {
            "elbow_joint": -1.919618573717145,
            "shoulder_lift_joint": -1.2443395971678275,
            "shoulder_pan_joint": 2.6996025300909787,
            "wrist_1_joint": -1.548550951253194,
            "wrist_2_joint": -1.5709469090946802,
            "wrist_3_joint": 0.4420197732051276
        }
    },
    "waypoints": [
        {
            "positions": [
                2.6996025300909787,
                -1.2443395971678275,
                -1.919618573717145,
                -1.548550951253194,
                -1.5709469090946802,
                0.4420197732051276
            ]
        },
        {
            "positions": [
                2.604635208142554,
                -1.2416338547868626,
                -1.7998323981221296,
                -1.5265542882040923,
                -1.496932718359385,
                0.5229570305755395
            ]
        },
        {
            "positions": [
                2.509667886194129,
                -1.2389281124058975,
                -1.6800462225271142,
                -1.5045576251549906,
                -1.4229185276240897,
                0.6038942879459515
            ]
        },
        {
            "positions": [
                2.4147005642457042,
                -1.2362223700249326,
                -1.560260046932099,
                -1.4825609621058886,
                -1.3489043368887945,
                0.6848315453163634
            ]
        },
        {
            "positions": [
                2.319733242297279,
                -1.2335166276439675,
                -1.4404738713370837,
                -1.4605642990567869,
                -1.2748901461534992,
                0.7657688026867753
            ]
        },
        {
            "positions": [
                2.224765920348854,
                -1.2308108852630026,
                -1.3206876957420683,
                -1.4385676360076851,
                -1.200875955418204,
                0.8467060600571872
            ]
        },
        {
            "positions": [
                2.1297985984004293,
                -1.2281051428820375,
                -1.200901520147053,
                -1.4165709729585834,
                -1.1268617646829089,
                0.9276433174275991
            ]
        },
        {
            "positions": [
                2.0348312764520045,
                -1.2253994005010727,
                -1.0811153445520376,
                -1.3945743099094814,
                -1.0528475739476135,
                1.008580574798011
            ]
        },
        {
            "positions": [
                1.9398639545035796,
                -1.2226936581201076,
                -0.9613291689570224,
                -1.3725776468603796,
                -0.9788333832123183,
                1.089517832168423
            ]
        },
        {
            "positions": [
                1.8448966325551543,
                -1.2199879157391427,
                -0.8415429933620069,
                -1.350580983811278,
                -0.904819192477023,
                1.1704550895388348
            ]
        },
        {
            "positions": [
                1.7499293106067295,
                -1.2172821733581776,
                -0.7217568177669915,
                -1.3285843207621761,
                -0.8308050017417278,
                1.2513923469092467
            ]
        },
        {
            "positions": [
                1.6549619886583047,
                -1.2145764309772127,
                -0.6019706421719764,
                -1.3065876577130742,
                -0.7567908110064326,
                1.3323296042796586
            ]
        },
        {
            "positions": [
                1.5599946667098799,
                -1.2118706885962476,
                -0.482184466576961,
                -1.2845909946639724,
                -0.6827766202711374,
                1.4132668616500705
            ]
        },
        {
            "positions": [
                1.4650273447614548,
                -1.2091649462152827,
                -0.36239829098194565,
                -1.2625943316148707,
                -0.6087624295358421,
                1.4942041190204824
            ]
        },
        {
            "positions": [
                1.37006002281303,
                -1.2064592038343176,
                -0.24261211538693028,
                -1.240597668565769,
                -0.5347482388005469,
                1.5751413763908944
            ]
        },
        {
            "positions": [
                1.2750927008646051,
                -1.2037534614533527,
                -0.12282593979191492,
                -1.2186010055166672,
                -0.46073404806525176,
                1.6560786337613063
            ]
        },
        {
            "positions": [
                1.1801253789161803,
                -1.2010477190723878,
                -0.0030397641968997746,
                -1.1966043424675652,
                -0.3867198573299564,
                1.7370158911317182
            ]
        },
        {
            "positions": [
                1.0851580569677552,
                -1.1983419766914227,
                0.11674641139811537,
                -1.1746076794184634,
                -0.31270566659466126,
                1.81795314850213
            ]
        },
        {
            "positions": [
                0.9901907350193302,
                -1.1956362343104578,
                0.23653258699313118,
                -1.1526110163693617,
                -0.2386914758593659,
                1.898890405872542
            ]
        },
        {
            "positions": [
                0.8952234130709054,
                -1.1929304919294927,
                0.35631876258814654,
                -1.1306143533202597,
                -0.16467728512407076,
                1.979827663242954
            ]
        },
        {
            "positions": [
                0.8002560911224805,
                -1.1902247495485279,
                0.4761049381831619,
                -1.108617690271158,
                -0.0906630943887754,
                2.060764920613366
            ]
        },
        {
            "positions": [
                0.7052887691740555,
                -1.1875190071675628,
                0.5958911137781768,
                -1.0866210272220562,
                -0.016648903653480263,
                2.1417021779837775
            ]
        },
        {
            "positions": [
                0.6103214472256306,
                -1.1848132647865979,
                0.7156772893731922,
                -1.0646243641729545,
                0.057365287081814875,
                2.2226394353541896
            ]
        },
        {
            "positions": [
                0.5153541252772058,
                -1.1821075224056328,
                0.8354634649682076,
                -1.0426277011238527,
                0.13137947781711024,
                2.3035766927246013
            ]
        },
        {
            "positions": [
                0.420386803328781,
                -1.179401780024668,
                0.9552496405632229,
                -1.0206310380747508,
                0.20539366855240537,
                2.3845139500950134
            ]
        },
        {
            "positions": [
                0.3254194813803557,
                -1.1766960376437028,
                1.0750358161582387,
                -0.998634375025649,
                0.27940785928770073,
                2.4654512074654256
            ]
        },
        {
            "positions": [
                0.23045215943193087,
                -1.173990295262738,
                1.1948219917532537,
                -0.9766377119765473,
                0.35342205002299587,
                2.5463884648358373
            ]
        },
        {
            "positions": [
                0.13548483748350604,
                -1.1712845528817728,
                1.314608167348269,
                -0.9546410489274454,
                0.42743624075829123,
                2.6273257222062494
            ]
        },
        {
            "positions": [
                0.040517515535081344,
                -1.168578810500808,
                1.4343943429432842,
                -0.9326443858783436,
                0.5014504314935863,
                2.708262979576661
            ]
        },
        {
            "positions": [
                0.05803528994088809,
                -1.161505040784773,
                1.5711842600388986,
                -0.8939200960750742,
                0.4115447595038032,
                2.8025896367006995
            ]
        },
        {
            "positions": [
                0.07555306434669484,
                -1.1544312710687379,
                1.7079741771345127,
                -0.8551958062718048,
                0.32163908751402015,
                2.896916293824738
            ]
        },
        {
            "positions": [
                0.0930708387525016,
                -1.1473575013527029,
                1.844764094230127,
                -0.8164715164685353,
                0.23173341552423704,
                2.9912429509487763
            ]
        },
        {
            "positions": [
                0.1219465672637299,
                -1.1403323740768787,
                1.9729966789676532,
                -0.7788246478923988,
                0.13020711645816607,
                3.0798565771152586
            ]
        }
    ]
}{
    "goal": {
        "global_pose": {
            "orientation": {
                "w": 0.7047431468963623,
                "x": -0.7094548344612122,
                "y": 0.0024358443915843964,
                "z": -0.0022348060738295317
            },
            "position": {
                "x": 0.6094750761985779,
                "y": 0.3671506643295288,
                "z": 0.19426114857196808
            }
        },
        "name": "move_to_magneteinheit_A"
    },
    "id": "PRM_move_to_magneteinheit_A_86",
    "joint_names": [
        "shoulder_pan_joint",
        "shoulder_lift_joint",
        "elbow_joint",
        "wrist_1_joint",
        "wrist_2_joint",
        "wrist_3_joint"
    ],
    "metrics": {
        "cart_traj_len": 2.268121799199856,
        "distance_elbow_joint": 4.74528573330458,
        "distance_shoulder_lift_joint": 1.766164819055982,
        "distance_shoulder_pan_joint": 1.2426081007187333,
        "distance_wrist_1_joint": 0.7329537691391292,
        "distance_wrist_2_joint": 1.441009921689926,
        "distance_wrist_3_joint": 4.239990994453086,
        "smoothness": 0.32604382378458124,
        "time": 0.118610144,
        "traj_len": 3.7640421541690308,
        "weighted_distance": 4.982164089840545
    },
    "planner": "PRM",
    "start": {
        "state": {
            "elbow_joint": 1.919643534880228,
            "shoulder_lift_joint": -1.8972525353963687,
            "shoulder_pan_joint": -1.1188672234189438,
            "wrist_1_joint": -1.5931878212786155,
            "wrist_2_joint": 1.5706036197970081,
            "wrist_3_joint": 1.118896926603594
        }
    },
    "waypoints": [
        {
            "positions": [
                -1.1188672234189438,
                -1.8972525353963687,
                1.919643534880228,
                -1.5931878212786155,
                1.5706036197970081,
                1.118896926603594
            ]
        },
        {
            "positions": [
                -1.079076723479449,
                -1.818677887088885,
                1.7735442492512161,
                -1.5571399944190136,
                1.565555604854104,
                1.042561194349924
            ]
        },
        {
            "positions": [
                -1.039286223539954,
                -1.7401032387814013,
                1.627444963622204,
                -1.5210921675594118,
                1.5605075899111995,
                0.9662254620962542
            ]
        },
        {
            "positions": [
                -0.9994957236004591,
                -1.6615285904739174,
                1.481345677993192,
                -1.48504434069981,
                1.5554595749682953,
                0.8898897298425843
            ]
        },
        {
            "positions": [
                -0.9597052236609642,
                -1.5829539421664336,
                1.33524639236418,
                -1.448996513840208,
                1.550411560025391,
                0.8135539975889143
            ]
        },
        {
            "positions": [
                -0.9199147237214693,
                -1.5043792938589498,
                1.1891471067351678,
                -1.412948686980606,
                1.5453635450824867,
                0.7372182653352444
            ]
        },
        {
            "positions": [
                -0.8801242237819743,
                -1.425804645551466,
                1.0430478211061558,
                -1.3769008601210042,
                1.5403155301395823,
                0.6608825330815745
            ]
        },
        {
            "positions": [
                -0.8403337238424794,
                -1.3472299972439823,
                0.8969485354771436,
                -1.3408530332614024,
                1.5352675151966781,
                0.5845468008279047
            ]
        },
        {
            "positions": [
                -0.8005432239029845,
                -1.2686553489364985,
                0.7508492498481316,
                -1.3048052064018005,
                1.5302195002537737,
                0.5082110685742347
            ]
        },
        {
            "positions": [
                -0.7607527239634896,
                -1.1900807006290146,
                0.6047499642191196,
                -1.2687573795421987,
                1.5251714853108695,
                0.43187533632056474
            ]
        },
        {
            "positions": [
                -0.7209622240239947,
                -1.111506052321531,
                0.45865067859010744,
                -1.2327095526825969,
                1.5201234703679654,
                0.3555396040668949
            ]
        },
        {
            "positions": [
                -0.6811717240844997,
                -1.0329314040140471,
                0.31255139296109546,
                -1.1966617258229948,
                1.515075455425061,
                0.27920387181322504
            ]
        },
        {
            "positions": [
                -0.6413812241450048,
                -0.9543567557065633,
                0.1664521073320835,
                -1.1606138989633932,
                1.5100274404821568,
                0.20286813955955507
            ]
        },
        {
            "positions": [
                -0.6015907242055099,
                -0.8757821073990795,
                0.02035282170307129,
                -1.1245660721037911,
                1.5049794255392523,
                0.1265324073058851
            ]
        },
        {
            "positions": [
                -0.561800224266015,
                -0.7972074590915958,
                -0.1257464639259409,
                -1.0885182452441893,
                1.4999314105963482,
                0.05019667505221537
            ]
        },
        {
            "positions": [
                -0.52200972432652,
                -0.718632810784112,
                -0.2718457495549529,
                -1.0524704183845874,
                1.4948833956534437,
                -0.026139057201454596
            ]
        },
        {
            "positions": [
                -0.48221922438702514,
                -0.6400581624766282,
                -0.417945035183965,
                -1.0164225915249856,
                1.4898353807105396,
                -0.10247478945512453
            ]
        },
        {
            "positions": [
                -0.45336398144955775,
                -0.6642948503878777,
                -0.30329278931537523,
                -1.008985042030438,
                1.425061967253232,
                -0.24621856461676106
            ]
        },
        {
            "positions": [
                -0.42450873851209037,
                -0.6885315382991274,
                -0.18864054344678552,
                -1.0015474925358905,
                1.3602885537959246,
                -0.38996233977839756
            ]
        },
        {
            "positions": [
                -0.39565349557462304,
                -0.7127682262103769,
                -0.07398829757819575,
                -0.9941099430413428,
                1.2955151403386171,
                -0.5337061149400342
            ]
        },
        {
            "positions": [
                -0.36679825263715565,
                -0.7370049141216265,
                0.040663948290393936,
                -0.9866723935467953,
                1.2307417268813097,
                -0.6774498901016707
            ]
        },
        {
            "positions": [
                -0.33794300969968827,
                -0.7612416020328762,
                0.15531619415898368,
                -0.9792348440522477,
                1.1659683134240022,
                -0.8211936652633072
            ]
        },
        {
            "positions": [
                -0.3090877667622209,
                -0.7854782899441257,
                0.2699684400275735,
                -0.9717972945577,
                1.1011948999666947,
                -0.9649374404249438
            ]
        },
        {
            "positions": [
                -0.2802325238247535,
                -0.8097149778553753,
                0.38462068589616316,
                -0.9643597450631525,
                1.0364214865093873,
                -1.1086812155865802
            ]
        },
        {
            "positions": [
                -0.25137728088728617,
                -0.8339516657666248,
                0.49927293176475285,
                -0.9569221955686049,
                0.9716480730520797,
                -1.2524249907482168
            ]
        },
        {
            "positions": [
                -0.22252203794981879,
                -0.8581883536778745,
                0.6139251776333426,
                -0.9494846460740574,
                0.9068746595947722,
                -1.3961687659098534
            ]
        },
        {
            "positions": [
                -0.1936667950123514,
                -0.882425041589124,
                0.7285774235019323,
                -0.9420470965795097,
                0.8421012461374647,
                -1.5399125410714898
            ]
        },
        {
            "positions": [
                -0.16481155207488396,
                -0.9066617295003737,
                0.8432296693705222,
                -0.9346095470849621,
                0.7773278326801573,
                -1.6836563162331266
            ]
        },
        {
            "positions": [
                -0.13595630913741663,
                -0.9308984174116233,
                0.9578819152391119,
                -0.9271719975904146,
                0.7125544192228498,
                -1.827400091394763
            ]
        },
        {
            "positions": [
                -0.10710106619994925,
                -0.9551351053228729,
                1.0725341611077015,
                -0.9197344480958669,
                0.6477810057655423,
                -1.9711438665563996
            ]
        },
        {
            "positions": [
                -0.07824582326248186,
                -0.9793717932341224,
                1.1871864069762914,
                -0.9122968986013194,
                0.5830075923082348,
                -2.1148876417180356
            ]
        },
        {
            "positions": [
                -0.04939058032501448,
                -1.003608481145372,
                1.3018386528448813,
                -0.9048593491067718,
                0.5182341788509273,
                -2.2586314168796724
            ]
        },
        {
            "positions": [
                -0.020535337387547148,
                -1.0278451690566217,
                1.4164908987134708,
                -0.8974217996122242,
                0.4534607653936198,
                -2.402375192041309
            ]
        },
        {
            "positions": [
                0.008319905549920292,
                -1.0520818569678712,
                1.5311431445820607,
                -0.8899842501176766,
                0.3886873519363123,
                -2.5461189672029456
            ]
        },
        {
            "positions": [
                0.037175148487387566,
                -1.0763185448791208,
                1.6457953904506502,
                -0.882546700623129,
                0.32391393847900485,
                -2.689862742364582
            ]
        },
        {
            "positions": [
                0.066030391424855,
                -1.1005552327903705,
                1.76044763631924,
                -0.8751091511285813,
                0.2591405250216974,
                -2.8336065175262184
            ]
        },
        {
            "positions": [
                0.09488563436232234,
                -1.12479192070162,
                1.8750998821878295,
                -0.8676716016340338,
                0.1943671115643899,
                -2.977350292687855
            ]
        },
        {
            "positions": [
                0.12374087729978979,
                -1.1490286086128696,
                1.9897521280564194,
                -0.8602340521394862,
                0.12959369810708232,
                -3.1210940678494916
            ]
        }
    ]
}