{
    "goal": {
        "global_pose": {
            "orientation": {
                "w": 0.7047431468963623,
                "x": -0.7094548344612122,
                "y": 0.0024358443915843964,
                "z": -0.0022348060738295317
            },
            "position": {
                "x": 0.6094750761985779,
                "y": 0.3671506643295288,
                "z": 0.19426114857196808
            }
        },
        "name": "move_to_magneteinheit_A"
    },
    "id": "PRM_move_to_magneteinheit_A_65",
    "joint_names": [
        "shoulder_pan_joint",
        "shoulder_lift_joint",
        "elbow_joint",
        "wrist_1_joint",
        "wrist_2_joint",
        "wrist_3_joint"
    ],
    "metrics": {
        "cart_traj_len": 4.093145328498603,
        "distance_elbow_joint": 3.9131078986531245,
        "distance_shoulder_lift_joint": 0.467125232356738,
        "distance_shoulder_pan_joint": 4.6676226543858474,
        "distance_wrist_1_joint": 3.4600256547906545,
        "distance_wrist_2_joint": 1.4385243149955813,
        "distance_wrist_3_joint": 0.6993212632396445,
        "smoothness": 0.29674802423136537,
        "time": 0.095692706,
        "traj_len": 3.826973610886491,
        "weighted_distance": 4.576343465550539
    },
    "planner": "PRM",
    "start": {
        "state": {
            "elbow_joint": -1.919618573717145,
            "shoulder_lift_joint": -1.2443395971678275,
            "shoulder_pan_joint": 2.6996025300909787,
            "wrist_1_joint": -1.548550951253194,
            "wrist_2_joint": -1.5709469090946802,
            "wrist_3_joint": 0.4420197732051276
        }
    },
    "waypoints": [
        {
            "positions": [
                2.6996025300909787,
                -1.2443395971678275,
                -1.919618573717145,
                -1.548550951253194,
                -1.5709469090946802,
                0.4420197732051276
            ]
        },
        {
            "positions": [
                2.5746904398523536,
                -1.2389819951431111,
                -1.8114040480697198,
                -1.4668900656565842,
                -1.52440699682968,
                0.42248224969232273
            ]
        },
        {
            "positions": [
                2.449778349613729,
                -1.233624393118395,
                -1.7031895224222946,
                -1.385229180059974,
                -1.47786708456468,
                0.4029447261795179
            ]
        },
        {
            "positions": [
                2.3248662593751037,
                -1.2282667910936786,
                -1.5949749967748694,
                -1.3035682944633642,
                -1.4313271722996799,
                0.383407202666713
            ]
        },
        {
            "positions": [
                2.199954169136479,
                -1.2229091890689625,
                -1.4867604711274442,
                -1.2219074088667543,
                -1.3847872600346798,
                0.3638696791539081
            ]
        },
        {
            "positions": [
                2.075042078897854,
                -1.2175515870442462,
                -1.378545945480019,
                -1.1402465232701442,
                -1.3382473477696797,
                0.34433215564110325
            ]
        },
        {
            "positions": [
                1.9501299886592292,
                -1.2121939850195298,
                -1.270331419832594,
                -1.0585856376735343,
                -1.2917074355046796,
                0.3247946321282984
            ]
        },
        {
            "positions": [
                1.825217898420604,
                -1.2068363829948137,
                -1.1621168941851687,
                -0.9769247520769243,
                -1.2451675232396795,
                0.30525710861549354
            ]
        },
        {
            "positions": [
                1.700305808181979,
                -1.2014787809700973,
                -1.0539023685377436,
                -0.8952638664803144,
                -1.1986276109746794,
                0.2857195851026887
            ]
        },
        {
            "positions": [
                1.5753937179433541,
                -1.196121178945381,
                -0.9456878428903183,
                -0.8136029808837044,
                -1.152087698709679,
                0.26618206158988383
            ]
        },
        {
            "positions": [
                1.4504816277047292,
                -1.1907635769206648,
                -0.837473317242893,
                -0.7319420952870944,
                -1.105547786444679,
                0.24664453807707895
            ]
        },
        {
            "positions": [
                1.3255695374661043,
                -1.1854059748959485,
                -0.729258791595468,
                -0.6502812096904846,
                -1.0590078741796791,
                0.22710701456427412
            ]
        },
        {
            "positions": [
                1.2006574472274794,
                -1.1800483728712323,
                -0.6210442659480429,
                -0.5686203240938746,
                -1.0124679619146788,
                0.20756949105146927
            ]
        },
        {
            "positions": [
                1.0757453569888544,
                -1.174690770846516,
                -0.5128297403006175,
                -0.48695943849726464,
                -0.9659280496496787,
                0.1880319675386644
            ]
        },
        {
            "positions": [
                0.9508332667502293,
                -1.1693331688217996,
                -0.4046152146531923,
                -0.40529855290065453,
                -0.9193881373846786,
                0.1684944440258595
            ]
        },
        {
            "positions": [
                0.8259211765116043,
                -1.1639755667970835,
                -0.2964006890057671,
                -0.32363766730404464,
                -0.8728482251196785,
                0.14895692051305465
            ]
        },
        {
            "positions": [
                0.7010090862729794,
                -1.1586179647723671,
                -0.18818616335834215,
                -0.24197678170743475,
                -0.8263083128546784,
                0.1294193970002498
            ]
        },
        {
            "positions": [
                0.5760969960343547,
                -1.153260362747651,
                -0.07997163771091698,
                -0.16031589611082486,
                -0.7797684005896783,
                0.10988187348744499
            ]
        },
        {
            "positions": [
                0.45118490579572956,
                -1.1479027607229346,
                0.02824288793650842,
                -0.07865501051421475,
                -0.7332284883246781,
                0.09034434997464008
            ]
        },
        {
            "positions": [
                0.32627281555710486,
                -1.1425451586982183,
                0.1364574135839336,
                0.0030058750823951375,
                -0.6866885760596781,
                0.07080682646183523
            ]
        },
        {
            "positions": [
                0.2013607253184797,
                -1.1371875566735021,
                0.244671939231359,
                0.08466676067900525,
                -0.6401486637946779,
                0.051269302949030315
            ]
        },
        {
            "positions": [
                0.07644863507985455,
                -1.1318299546487858,
                0.35288646487878395,
                0.16632764627561514,
                -0.5936087515296778,
                0.031731779436225516
            ]
        },
        {
            "positions": [
                -0.04846345515877015,
                -1.1264723526240694,
                0.4611009905262089,
                0.2479885318722248,
                -0.5470688392646779,
                0.01219425592342066
            ]
        },
        {
            "positions": [
                -0.1733755453973953,
                -1.1211147505993533,
                0.5693155161736343,
                0.3296494174688349,
                -0.5005289269996775,
                -0.00734326758938425
            ]
        },
        {
            "positions": [
                -0.29828763563602,
                -1.115757148574637,
                0.6775300418210592,
                0.4113103030654448,
                -0.45398901473467745,
                -0.02688079110218905
            ]
        },
        {
            "positions": [
                -0.4231997258746447,
                -1.1103995465499206,
                0.7857445674684846,
                0.4929711886620547,
                -0.4074491024696776,
                -0.046418314614993905
            ]
        },
        {
            "positions": [
                -0.5481118161132699,
                -1.1050419445252044,
                0.89395909311591,
                0.5746320742586648,
                -0.36090919020467727,
                -0.06595583812779876
            ]
        },
        {
            "positions": [
                -0.673023906351895,
                -1.099684342500488,
                1.002173618763335,
                0.6562929598552749,
                -0.31436927793967717,
                -0.08549336164060367
            ]
        },
        {
            "positions": [
                -0.7979359965905202,
                -1.094326740475772,
                1.1103881444107604,
                0.737953845451885,
                -0.2678293656746771,
                -0.10503088515340858
            ]
        },
        {
            "positions": [
                -0.9228480868291449,
                -1.0889691384510556,
                1.2186026700581851,
                0.8196147310484947,
                -0.22128945340967704,
                -0.12456840866621338
            ]
        },
        {
            "positions": [
                -0.8067178604440647,
                -1.054329719157726,
                1.304701187266829,
                0.940932505769491,
                -0.21141535793072389,
                -0.10982028851417969
            ]
        },
        {
            "positions": [
                -0.6905876340589845,
                -1.0196902998643964,
                1.390799704475473,
                1.0622502804904872,
                -0.20154126245177073,
                -0.09507216836214598
            ]
        },
        {
            "positions": [
                -0.5744574076739042,
                -0.9850508805710669,
                1.4768982216841167,
                1.1835680552114833,
                -0.19166716697281758,
                -0.08032404821011228
            ]
        },
        {
            "positions": [
                -0.458327181288824,
                -0.9504114612777373,
                1.5629967388927606,
                1.3048858299324797,
                -0.18179307149386442,
                -0.06557592805807858
            ]
        },
        {
            "positions": [
                -0.3421969549037437,
                -0.9157720419844078,
                1.6490952561014045,
                1.4262036046534758,
                -0.17191897601491127,
                -0.05082780790604488
            ]
        },
        {
            "positions": [
                -0.2260667285186635,
                -0.8811326226910783,
                1.7351937733100482,
                1.547521379374472,
                -0.1620448805359581,
                -0.036079687754011186
            ]
        },
        {
            "positions": [
                -0.1099365021335833,
                -0.8464932033977486,
                1.8212922905186923,
                1.6688391540954683,
                -0.15217078505700496,
                -0.021331567601977477
            ]
        },
        {
            "positions": [
                0.00619372425149689,
                -0.8118537841044191,
                1.907390807727336,
                1.7901569288164647,
                -0.1422966895780518,
                -0.006583447449943783
            ]
        },
        {
            "positions": [
                0.12232395063657715,
                -0.7772143648110895,
                1.99348932493598,
                1.9114747035374609,
                -0.13242259409909865,
                0.008164672702089938
            ]
        }
    ]
}{
    "goal": {
        "global_pose": {
            "orientation": {
                "w": 0.7047431468963623,
                "x": -0.7094548344612122,
                "y": 0.0024358443915843964,
                "z": -0.0022348060738295317
            },
            "position": {
                "x": 0.6094750761985779,
                "y": 0.3671506643295288,
                "z": 0.19426114857196808
            }
        },
        "name": "move_to_magneteinheit_A"
    },
    "id": "PRM_move_to_magneteinheit_A_65",
    "joint_names": [
        "shoulder_pan_joint",
        "shoulder_lift_joint",
        "elbow_joint",
        "wrist_1_joint",
        "wrist_2_joint",
        "wrist_3_joint"
    ],
    "metrics": {
        "cart_traj_len": 1.7026073433653113,
        "distance_elbow_joint": 3.118369471397136,
        "distance_shoulder_lift_joint": 1.387696694573906,
        "distance_shoulder_pan_joint": 1.240597362106946,
        "distance_wrist_1_joint": 0.805457494569998,
        "distance_wrist_2_joint": 3.972682030907663,
        "distance_wrist_3_joint": 4.299791161817629,
        "smoothness": 0.37755013663387776,
        "time": 0.145949718,
        "traj_len": 3.850271966416565,
        "weighted_distance": 5.310585284550676
    },
    "planner": "PRM",
    "start": {
        "state": {
            "elbow_joint": 1.919643534880228,
            "shoulder_lift_joint": -1.8972525353963687,
            "shoulder_pan_joint": -1.1188672234189438,
            "wrist_1_joint": -1.5931878212786155,
            "wrist_2_joint": 1.5706036197970081,
            "wrist_3_joint": 1.118896926603594
        }
    },
    "waypoints": [
        {
            "positions": [
                -1.1188672234189438,
                -1.8972525353963687,
                1.919643534880228,
                -1.5931878212786155,
                1.5706036197970081,
                1.118896926603594
            ]
        },
        {
            "positions": [
                -1.0853982967171165,
                -1.8506495227031468,
                1.8530154905705964,
                -1.5593041730413078,
                1.452792129378856,
                1.0332360922909678
            ]
        },
        {
            "positions": [
                -1.0519293700152894,
                -1.8040465100099248,
                1.7863874462609646,
                -1.525420524804,
                1.334980638960704,
                0.9475752579783416
            ]
        },
        {
            "positions": [
                -1.018460443313462,
                -1.7574434973167028,
                1.719759401951333,
                -1.4915368765666923,
                1.2171691485425518,
                0.8619144236657155
            ]
        },
        {
            "positions": [
                -0.984991516611635,
                -1.7108404846234808,
                1.6531313576417013,
                -1.4576532283293846,
                1.0993576581243996,
                0.7762535893530892
            ]
        },
        {
            "positions": [
                -0.9515225899098076,
                -1.6642374719302588,
                1.5865033133320696,
                -1.423769580092077,
                0.9815461677062475,
                0.690592755040463
            ]
        },
        {
            "positions": [
                -0.9180536632079805,
                -1.6176344592370369,
                1.519875269022438,
                -1.3898859318547694,
                0.8637346772880954,
                0.6049319207278369
            ]
        },
        {
            "positions": [
                -0.8845847365061532,
                -1.5710314465438149,
                1.453247224712806,
                -1.3560022836174617,
                0.7459231868699432,
                0.5192710864152106
            ]
        },
        {
            "positions": [
                -0.8511158098043261,
                -1.524428433850593,
                1.3866191804031744,
                -1.322118635380154,
                0.6281116964517911,
                0.4336102521025844
            ]
        },
        {
            "positions": [
                -0.8176468831024988,
                -1.477825421157371,
                1.3199911360935426,
                -1.2882349871428462,
                0.510300206033639,
                0.34794941778995814
            ]
        },
        {
            "positions": [
                -0.7841779564006716,
                -1.4312224084641487,
                1.253363091783911,
                -1.2543513389055385,
                0.3924887156154868,
                0.2622885834773321
            ]
        },
        {
            "positions": [
                -0.7507090296988443,
                -1.384619395770927,
                1.1867350474742793,
                -1.2204676906682308,
                0.2746772251973346,
                0.1766277491647058
            ]
        },
        {
            "positions": [
                -0.7172401029970171,
                -1.3380163830777048,
                1.1201070031646476,
                -1.186584042430923,
                0.15686573477918264,
                0.09096691485207975
            ]
        },
        {
            "positions": [
                -0.6837711762951899,
                -1.291413370384483,
                1.053478958855016,
                -1.1527003941936154,
                0.039054244361030443,
                0.005306080539453584
            ]
        },
        {
            "positions": [
                -0.6503022495933626,
                -1.2448103576912608,
                0.9868509145453841,
                -1.1188167459563076,
                -0.07875724605712175,
                -0.0803547537731728
            ]
        },
        {
            "positions": [
                -0.6168333228915355,
                -1.198207344998039,
                0.9202228702357524,
                -1.084933097719,
                -0.19656873647527395,
                -0.16601558808579897
            ]
        },
        {
            "positions": [
                -0.5833643961897083,
                -1.1516043323048168,
                0.8535948259261208,
                -1.0510494494816922,
                -0.31438022689342593,
                -0.25167642239842514
            ]
        },
        {
            "positions": [
                -0.549895469487881,
                -1.105001319611595,
                0.7869667816164891,
                -1.0171658012443845,
                -0.4321917173115781,
                -0.3373372567110513
            ]
        },
        {
            "positions": [
                -0.5164265427860537,
                -1.0583983069183729,
                0.7203387373068573,
                -0.9832821530070769,
                -0.5500032077297301,
                -0.4229980910236777
            ]
        },
        {
            "positions": [
                -0.4829576160842265,
                -1.011795294225151,
                0.6537106929972256,
                -0.9493985047697692,
                -0.6678146981478825,
                -0.5086589253363039
            ]
        },
        {
            "positions": [
                -0.4494886893823993,
                -0.9651922815319289,
                0.587082648687594,
                -0.9155148565324616,
                -0.7856261885660345,
                -0.5943197596489298
            ]
        },
        {
            "positions": [
                -0.41601976268057217,
                -0.9185892688387071,
                0.5204546043779623,
                -0.8816312082951538,
                -0.9034376789841865,
                -0.679980593961556
            ]
        },
        {
            "positions": [
                -0.38255083597874484,
                -0.871986256145485,
                0.45382656006833044,
                -0.8477475600578461,
                -1.021249169402339,
                -0.7656414282741824
            ]
        },
        {
            "positions": [
                -0.3490819092769176,
                -0.825383243452263,
                0.38719851575869885,
                -0.8138639118205384,
                -1.1390606598204909,
                -0.8513022625868084
            ]
        },
        {
            "positions": [
                -0.31965615627911015,
                -0.8451224561166255,
                0.48631879402592443,
                -0.8122305627510433,
                -1.0601220503648556,
                -0.9969017608760101
            ]
        },
        {
            "positions": [
                -0.2902304032813027,
                -0.864861668780988,
                0.58543907229315,
                -0.8105972136815482,
                -0.9811834409092206,
                -1.1425012591652117
            ]
        },
        {
            "positions": [
                -0.2608046502834952,
                -0.8846008814453505,
                0.6845593505603755,
                -0.8089638646120533,
                -0.9022448314535854,
                -1.2881007574544134
            ]
        },
        {
            "positions": [
                -0.2313788972856877,
                -0.904340094109713,
                0.7836796288276011,
                -0.8073305155425582,
                -0.8233062219979502,
                -1.4337002557436151
            ]
        },
        {
            "positions": [
                -0.20195314428788022,
                -0.9240793067740757,
                0.8827999070948267,
                -0.8056971664730631,
                -0.7443676125423151,
                -1.5792997540328169
            ]
        },
        {
            "positions": [
                -0.17252739129007272,
                -0.9438185194384382,
                0.9819201853620523,
                -0.804063817403568,
                -0.6654290030866798,
                -1.7248992523220186
            ]
        },
        {
            "positions": [
                -0.14310163829226524,
                -0.9635577321028007,
                1.0810404636292779,
                -0.8024304683340729,
                -0.5864903936310447,
                -1.8704987506112203
            ]
        },
        {
            "positions": [
                -0.11367588529445777,
                -0.9832969447671632,
                1.1801607418965034,
                -0.800797119264578,
                -0.5075517841754096,
                -2.016098248900422
            ]
        },
        {
            "positions": [
                -0.08425013229665029,
                -1.0030361574315259,
                1.279281020163729,
                -0.7991637701950829,
                -0.42861317471977445,
                -2.1616977471896237
            ]
        },
        {
            "positions": [
                -0.05482437929884282,
                -1.0227753700958884,
                1.3784012984309546,
                -0.7975304211255878,
                -0.3496745652641393,
                -2.3072972454788254
            ]
        },
        {
            "positions": [
                -0.025398626301035343,
                -1.0425145827602509,
                1.47752157669818,
                -0.7958970720560927,
                -0.27073595580850407,
                -2.452896743768027
            ]
        },
        {
            "positions": [
                0.0040271266967721875,
                -1.0622537954246134,
                1.5766418549654055,
                -0.7942637229865976,
                -0.19179734635286894,
                -2.5984962420572284
            ]
        },
        {
            "positions": [
                0.03345287969457966,
                -1.081993008088976,
                1.6757621332326311,
                -0.7926303739171026,
                -0.1128587368972338,
                -2.74409574034643
            ]
        },
        {
            "positions": [
                0.06287863269238714,
                -1.1017322207533384,
                1.7748824114998567,
                -0.7909970248476076,
                -0.03392012744159856,
                -2.889695238635632
            ]
        },
        {
            "positions": [
                0.09230438569019461,
                -1.121471433417701,
                1.8740026897670823,
                -0.7893636757781125,
                0.045018482014036465,
                -3.0352947369248335
            ]
        },
        {
            "positions": [
                0.12173013868800206,
                -1.1412106460820635,
                1.9731229680343079,
                -0.7877303267086174,
                0.12395709146967175,
                -3.1808942352140352
            ]
        }
    ]
}