{
    "goal": {
        "global_pose": {
            "orientation": {
                "w": 0.7047431468963623,
                "x": -0.7094548344612122,
                "y": 0.0024358443915843964,
                "z": -0.0022348060738295317
            },
            "position": {
                "x": 0.6094750761985779,
                "y": 0.3671506643295288,
                "z": 0.19426114857196808
            }
        },
        "name": "move_to_magneteinheit_A"
    },
    "id": "PRM_move_to_magneteinheit_A_38",
    "joint_names": [
        "shoulder_pan_joint",
        "shoulder_lift_joint",
        "elbow_joint",
        "wrist_1_joint",
        "wrist_2_joint",
        "wrist_3_joint"
    ],
    "metrics": {
        "cart_traj_len": 3.2133466634896797,
        "distance_elbow_joint": 3.923274428092827,
        "distance_shoulder_lift_joint": 0.4619882663943399,
        "distance_shoulder_pan_joint": 2.944960880191908,
        "distance_wrist_1_joint": 3.6592714131169632,
        "distance_wrist_2_joint": 1.444788865436392,
        "distance_wrist_3_joint": 3.794181991429094,
        "smoothness": 0.2970127916797413,
        "time": 0.161129465,
        "traj_len": 4.028457005437878,
        "weighted_distance": 5.377814621765337
    },
    "planner": "PRM",
    "start": {
        "state": {
            "elbow_joint": -1.919618573717145,
            "shoulder_lift_joint": -1.2443395971678275,
            "shoulder_pan_joint": 2.6996025300909787,
            "wrist_1_joint": -1.548550951253194,
            "wrist_2_joint": -1.5709469090946802,
            "wrist_3_joint": 0.4420197732051276
        }
    },
    "waypoints": [
        {
            "positions": [
                2.6996025300909787,
                -1.2443395971678275,
                -1.919618573717145,
                -1.548550951253194,
                -1.5709469090946802,
                0.4420197732051276
            ]
        },
        {
            "positions": [
                2.5746356471327987,
                -1.230744276581103,
                -1.9111566489102934,
                -1.4597053415151562,
                -1.5086465883443958,
                0.5289326241690986
            ]
        },
        {
            "positions": [
                2.449668764174619,
                -1.2171489559943784,
                -1.9026947241034418,
                -1.3708597317771185,
                -1.4463462675941114,
                0.6158454751330695
            ]
        },
        {
            "positions": [
                2.324701881216439,
                -1.2035536354076541,
                -1.8942327992965902,
                -1.2820141220390808,
                -1.384045946843827,
                0.7027583260970405
            ]
        },
        {
            "positions": [
                2.199734998258259,
                -1.1899583148209296,
                -1.8857708744897386,
                -1.193168512301043,
                -1.3217456260935427,
                0.7896711770610114
            ]
        },
        {
            "positions": [
                2.0747681153000794,
                -1.176362994234205,
                -1.877308949682887,
                -1.104322902563005,
                -1.2594453053432586,
                0.8765840280249825
            ]
        },
        {
            "positions": [
                1.9498012323418994,
                -1.1627676736474806,
                -1.8688470248760354,
                -1.0154772928249673,
                -1.1971449845929742,
                0.9634968789889535
            ]
        },
        {
            "positions": [
                1.8248343493837194,
                -1.149172353060756,
                -1.8603851000691838,
                -0.9266316830869296,
                -1.13484466384269,
                1.0504097299529245
            ]
        },
        {
            "positions": [
                1.6998674664255398,
                -1.1355770324740315,
                -1.8519231752623322,
                -0.8377860733488918,
                -1.0725443430924055,
                1.1373225809168954
            ]
        },
        {
            "positions": [
                1.5749005834673597,
                -1.1219817118873072,
                -1.8434612504554808,
                -0.748940463610854,
                -1.0102440223421212,
                1.2242354318808664
            ]
        },
        {
            "positions": [
                1.44993370050918,
                -1.1083863913005827,
                -1.8349993256486292,
                -0.6600948538728162,
                -0.9479437015918368,
                1.3111482828448373
            ]
        },
        {
            "positions": [
                1.3249668175509999,
                -1.0947910707138582,
                -1.8265374008417776,
                -0.5712492441347783,
                -0.8856433808415525,
                1.3980611338088085
            ]
        },
        {
            "positions": [
                1.19999993459282,
                -1.0811957501271336,
                -1.818075476034926,
                -0.4824036343967406,
                -0.8233430600912682,
                1.4849739847727794
            ]
        },
        {
            "positions": [
                1.07503305163464,
                -1.0676004295404091,
                -1.8096135512280744,
                -0.3935580246587027,
                -0.7610427393409839,
                1.5718868357367504
            ]
        },
        {
            "positions": [
                0.9500661686764602,
                -1.0540051089536848,
                -1.8011516264212228,
                -0.30471241492066503,
                -0.6987424185906995,
                1.6587996867007213
            ]
        },
        {
            "positions": [
                0.8250992857182802,
                -1.0404097883669603,
                -1.7926897016143712,
                -0.21586680518262713,
                -0.6364420978404152,
                1.7457125376646923
            ]
        },
        {
            "positions": [
                0.7001324027601006,
                -1.0268144677802358,
                -1.7842277768075196,
                -0.12702119544458945,
                -0.5741417770901309,
                1.8326253886286632
            ]
        },
        {
            "positions": [
                0.5751655198019203,
                -1.0132191471935112,
                -1.775765852000668,
                -0.03817558570655155,
                -0.5118414563398466,
                1.9195382395926344
            ]
        },
        {
            "positions": [
                0.45019863684374073,
                -0.9996238266067868,
                -1.7673039271938165,
                0.05067002403148613,
                -0.4495411355895622,
                2.006451090556605
            ]
        },
        {
            "positions": [
                0.3252317538855607,
                -0.9860285060200623,
                -1.7588420023869649,
                0.13951563376952408,
                -0.38724081483927786,
                2.0933639415205763
            ]
        },
        {
            "positions": [
                0.3076351970272217,
                -0.9782175745050088,
                -1.5910328615310074,
                0.22572589312924524,
                -0.38249841977661214,
                1.9990146277631082
            ]
        },
        {
            "positions": [
                0.2900386401688827,
                -0.9704066429899552,
                -1.4232237206750502,
                0.31193615248896633,
                -0.37775602471394637,
                1.90466531400564
            ]
        },
        {
            "positions": [
                0.2724420833105437,
                -0.9625957114749015,
                -1.2554145798190928,
                0.3981464118486875,
                -0.37301362965128065,
                1.810316000248172
            ]
        },
        {
            "positions": [
                0.2548455264522047,
                -0.954784779959848,
                -1.0876054389631356,
                0.48435667120840864,
                -0.3682712345886149,
                1.7159666864907037
            ]
        },
        {
            "positions": [
                0.23724896959386566,
                -0.9469738484447945,
                -0.9197962981071781,
                0.5705669305681298,
                -0.36352883952594917,
                1.6216173727332357
            ]
        },
        {
            "positions": [
                0.21965241273552666,
                -0.9391629169297409,
                -0.7519871572512209,
                0.656777189927851,
                -0.35878644446328345,
                1.5272680589757677
            ]
        },
        {
            "positions": [
                0.20205585587718766,
                -0.9313519854146872,
                -0.5841780163952635,
                0.7429874492875721,
                -0.3540440494006177,
                1.4329187452182994
            ]
        },
        {
            "positions": [
                0.18445929901884867,
                -0.9235410538996337,
                -0.416368875539306,
                0.8291977086472933,
                -0.34930165433795196,
                1.3385694314608312
            ]
        },
        {
            "positions": [
                0.16686274216050964,
                -0.9157301223845802,
                -0.24855973468334858,
                0.9154079680070144,
                -0.3445592592752862,
                1.244220117703363
            ]
        },
        {
            "positions": [
                0.14926618530217065,
                -0.9079191908695265,
                -0.08075059382739136,
                1.0016182273667356,
                -0.3398168642126205,
                1.1498708039458951
            ]
        },
        {
            "positions": [
                0.13166962844383165,
                -0.9001082593544729,
                0.08705854702856608,
                1.0878284867264567,
                -0.33507446914995476,
                1.055521490188427
            ]
        },
        {
            "positions": [
                0.11407307158549265,
                -0.8922973278394194,
                0.2548676878845231,
                1.1740387460861776,
                -0.330332074087289,
                0.9611721764309589
            ]
        },
        {
            "positions": [
                0.09647651472715363,
                -0.8844863963243659,
                0.42267682874048074,
                1.260249005445899,
                -0.32558967902462327,
                0.8668228626734906
            ]
        },
        {
            "positions": [
                0.07887995786881463,
                -0.8766754648093122,
                0.590485969596438,
                1.34645926480562,
                -0.3208472839619575,
                0.7724735489160226
            ]
        },
        {
            "positions": [
                0.061283401010475635,
                -0.8688645332942587,
                0.7582951104523952,
                1.432669524165341,
                -0.3161048888992918,
                0.6781242351585546
            ]
        },
        {
            "positions": [
                0.04368684415213664,
                -0.8610536017792051,
                0.9261042513083528,
                1.5188797835250623,
                -0.31136249383662606,
                0.5837749214010863
            ]
        },
        {
            "positions": [
                0.026090287293797643,
                -0.8532426702641516,
                1.09391339216431,
                1.6050900428847834,
                -0.3066200987739603,
                0.4894256076436181
            ]
        },
        {
            "positions": [
                0.00849373043545859,
                -0.8454317387490979,
                1.2617225330202677,
                1.6913003022445048,
                -0.3018777037112945,
                0.39507629388614984
            ]
        },
        {
            "positions": [
                -0.009102826422880406,
                -0.8376208072340443,
                1.429531673876225,
                1.7775105616042257,
                -0.2971353086486288,
                0.3007269801286818
            ]
        },
        {
            "positions": [
                -0.026699383281219402,
                -0.8298098757189908,
                1.5973408147321821,
                1.8637208209639469,
                -0.2923929135859631,
                0.2063776663712138
            ]
        },
        {
            "positions": [
                -0.0442959401395584,
                -0.8219989442039373,
                1.7651499555881398,
                1.949931080323668,
                -0.2876505185232973,
                0.11202835261374555
            ]
        },
        {
            "positions": [
                -0.06189249699789741,
                -0.8141880126888836,
                1.932959096444097,
                2.036141339683389,
                -0.2829081234606316,
                0.017679038856277557
            ]
        },
        {
            "positions": [
                0.02984042955361675,
                -0.7982696717311857,
                1.9683074754098895,
                1.9988517785931992,
                -0.20453308355945957,
                -0.015897421368395323
            ]
        },
        {
            "positions": [
                0.1215733561051309,
                -0.7823513307734876,
                2.003655854375682,
                1.9615622175030092,
                -0.12615804365828753,
                -0.0494738815930682
            ]
        }
    ]
}{
    "goal": {
        "global_pose": {
            "orientation": {
                "w": 0.7047431468963623,
                "x": -0.7094548344612122,
                "y": 0.0024358443915843964,
                "z": -0.0022348060738295317
            },
            "position": {
                "x": 0.6094750761985779,
                "y": 0.3671506643295288,
                "z": 0.19426114857196808
            }
        },
        "name": "move_to_magneteinheit_A"
    },
    "id": "PRM_move_to_magneteinheit_A_38",
    "joint_names": [
        "shoulder_pan_joint",
        "shoulder_lift_joint",
        "elbow_joint",
        "wrist_1_joint",
        "wrist_2_joint",
        "wrist_3_joint"
    ],
    "metrics": {
        "cart_traj_len": 1.5630242514262167,
        "distance_elbow_joint": 1.6323929376478559,
        "distance_shoulder_lift_joint": 1.127495641872764,
        "distance_shoulder_pan_joint": 1.2419336438483928,
        "distance_wrist_1_joint": 1.6539244927116727,
        "distance_wrist_2_joint": 1.4425584874888813,
        "distance_wrist_3_joint": 4.370081635330591,
        "smoothness": 0.34199959219139126,
        "time": 0.121319071,
        "traj_len": 3.3865006775283772,
        "weighted_distance": 4.827528673116493
    },
    "planner": "PRM",
    "start": {
        "state": {
            "elbow_joint": 1.919643534880228,
            "shoulder_lift_joint": -1.8972525353963687,
            "shoulder_pan_joint": -1.1188672234189438,
            "wrist_1_joint": -1.5931878212786155,
            "wrist_2_joint": 1.5706036197970081,
            "wrist_3_joint": 1.118896926603594
        }
    },
    "waypoints": [
        {
            "positions": [
                -1.1188672234189438,
                -1.8972525353963687,
                1.919643534880228,
                -1.5931878212786155,
                1.5706036197970081,
                1.118896926603594
            ]
        },
        {
            "positions": [
                -1.084951732751804,
                -1.8560640070972179,
                1.8849349200703276,
                -1.5379629030492536,
                1.5123183648420593,
                0.9462911371988714
            ]
        },
        {
            "positions": [
                -1.051036242084664,
                -1.8148754787980668,
                1.8502263052604273,
                -1.482737984819892,
                1.4540331098871104,
                0.7736853477941489
            ]
        },
        {
            "positions": [
                -1.017120751417524,
                -1.773686950498916,
                1.8155176904505268,
                -1.4275130665905302,
                1.3957478549321616,
                0.6010795583894263
            ]
        },
        {
            "positions": [
                -0.9832052607503842,
                -1.7324984221997648,
                1.7808090756406263,
                -1.3722881483611684,
                1.3374625999772127,
                0.4284737689847038
            ]
        },
        {
            "positions": [
                -0.9492897700832442,
                -1.691309893900614,
                1.7461004608307258,
                -1.3170632301318068,
                1.2791773450222639,
                0.2558679795799812
            ]
        },
        {
            "positions": [
                -0.9153742794161043,
                -1.6501213656014628,
                1.7113918460208255,
                -1.261838311902445,
                1.220892090067315,
                0.0832621901752586
            ]
        },
        {
            "positions": [
                -0.8814587887489644,
                -1.6089328373023117,
                1.676683231210925,
                -1.2066133936730832,
                1.162606835112366,
                -0.089343599229464
            ]
        },
        {
            "positions": [
                -0.8475432980818245,
                -1.5677443090031609,
                1.6419746164010245,
                -1.1513884754437216,
                1.104321580157417,
                -0.2619493886341864
            ]
        },
        {
            "positions": [
                -0.8136278074146845,
                -1.52655578070401,
                1.607266001591124,
                -1.0961635572143598,
                1.0460363252024683,
                -0.434555178038909
            ]
        },
        {
            "positions": [
                -0.7797123167475446,
                -1.485367252404859,
                1.5725573867812237,
                -1.040938638984998,
                0.9877510702475194,
                -0.6071609674436316
            ]
        },
        {
            "positions": [
                -0.7457968260804047,
                -1.444178724105708,
                1.5378487719713232,
                -0.9857137207556362,
                0.9294658152925706,
                -0.7797667568483542
            ]
        },
        {
            "positions": [
                -0.7118813354132647,
                -1.402990195806557,
                1.5031401571614227,
                -0.9304888025262746,
                0.8711805603376217,
                -0.9523725462530768
            ]
        },
        {
            "positions": [
                -0.6779658447461249,
                -1.361801667507406,
                1.4684315423515222,
                -0.8752638842969129,
                0.8128953053826729,
                -1.1249783356577991
            ]
        },
        {
            "positions": [
                -0.6440503540789849,
                -1.320613139208255,
                1.4337229275416217,
                -0.820038966067551,
                0.7546100504277239,
                -1.297584125062522
            ]
        },
        {
            "positions": [
                -0.610134863411845,
                -1.279424610909104,
                1.3990143127317214,
                -0.7648140478381893,
                0.696324795472775,
                -1.4701899144672443
            ]
        },
        {
            "positions": [
                -0.5762193727447051,
                -1.2382360826099532,
                1.3643056979218209,
                -0.7095891296088276,
                0.6380395405178262,
                -1.6427957038719667
            ]
        },
        {
            "positions": [
                -0.5423038820775652,
                -1.1970475543108021,
                1.3295970831119206,
                -0.6543642113794659,
                0.5797542855628774,
                -1.815401493276689
            ]
        },
        {
            "positions": [
                -0.5083883914104252,
                -1.155859026011651,
                1.29488846830202,
                -0.5991392931501041,
                0.5214690306079284,
                -1.988007282681412
            ]
        },
        {
            "positions": [
                -0.4744729007432853,
                -1.1146704977125002,
                1.2601798534921196,
                -0.5439143749207425,
                0.4631837756529795,
                -2.160613072086134
            ]
        },
        {
            "positions": [
                -0.44055741007614546,
                -1.0734819694133493,
                1.225471238682219,
                -0.48868945669138064,
                0.4048985206980307,
                -2.333218861490857
            ]
        },
        {
            "positions": [
                -0.4066419194090055,
                -1.0322934411141982,
                1.1907626238723186,
                -0.43346453846201904,
                0.3466132657430818,
                -2.5058246508955797
            ]
        },
        {
            "positions": [
                -0.37272642874186557,
                -0.9911049128150472,
                1.156054009062418,
                -0.378239620232657,
                0.28832801078813297,
                -2.6784304403003025
            ]
        },
        {
            "positions": [
                -0.3388109380747256,
                -0.9499163845158962,
                1.1213453942525178,
                -0.3230147020032955,
                0.2300427558331842,
                -2.8510362297050245
            ]
        },
        {
            "positions": [
                -0.2618313783240298,
                -0.9799429663479448,
                1.2603611937558754,
                -0.38697326424268763,
                0.2130431519123414,
                -2.917727642875353
            ]
        },
        {
            "positions": [
                -0.18485181857333405,
                -1.0099695481799933,
                1.3993769932592328,
                -0.4509318264820797,
                0.19604354799149865,
                -2.9844190560456823
            ]
        },
        {
            "positions": [
                -0.10787225882263826,
                -1.039996130012042,
                1.5383927927625907,
                -0.5148903887214717,
                0.17904394407065585,
                -3.0511104692160114
            ]
        },
        {
            "positions": [
                -0.030892699071942475,
                -1.0700227118440906,
                1.677408592265948,
                -0.5788489509608639,
                0.16204434014981306,
                -3.11780188238634
            ]
        },
        {
            "positions": [
                0.04608686067875334,
                -1.100049293676139,
                1.816424391769306,
                -0.642807513200256,
                0.1450447362289703,
                -3.1844932955566687
            ]
        },
        {
            "positions": [
                0.12306642042944911,
                -1.1300758755081877,
                1.9554401912726633,
                -0.7067660754396481,
                0.1280451323081275,
                -3.251184708726998
            ]
        }
    ]
}