{
    "goal": {
        "global_pose": {
            "orientation": {
                "w": 0.5084816217422485,
                "x": -0.49083608388900757,
                "y": 0.5182115435600281,
                "z": -0.4816462993621826
            },
            "position": {
                "x": 0.5540239810943604,
                "y": 0.030875300988554955,
                "z": 0.16403168439865112
            }
        },
        "name": "move_to_storage_A"
    },
    "id": "PRM_move_to_storage_A_54",
    "joint_names": [
        "shoulder_pan_joint",
        "shoulder_lift_joint",
        "elbow_joint",
        "wrist_1_joint",
        "wrist_2_joint",
        "wrist_3_joint"
    ],
    "metrics": {
        "cart_traj_len": 0.3532051309463019,
        "distance_elbow_joint": 0.4521089088947634,
        "distance_shoulder_lift_joint": 0.23354290588175264,
        "distance_shoulder_pan_joint": 0.4603348187743464,
        "distance_wrist_1_joint": 0.252689977948375,
        "distance_wrist_2_joint": 1.1055086799885068,
        "distance_wrist_3_joint": 0.09145576207400019,
        "smoothness": 1.1102230263833737e-15,
        "time": 0.039432918,
        "traj_len": 1.6110993307557868,
        "weighted_distance": 2.0339004979709863
    },
    "planner": "PRM",
    "start": {
        "state": {
            "elbow_joint": 1.9715477243005601,
            "shoulder_lift_joint": -1.1394853015351272,
            "shoulder_pan_joint": 0.12281154014795169,
            "wrist_1_joint": -0.7804696478968182,
            "wrist_2_joint": 0.12958648046900423,
            "wrist_3_joint": -3.192491284697111
        }
    },
    "waypoints": [
        {
            "positions": [
                0.12281154014795169,
                -1.1394853015351272,
                1.9715477243005601,
                -0.7804696478968182,
                0.12958648046900423,
                -3.192491284697111
            ]
        },
        {
            "positions": [
                0.05704942318018792,
                -1.172848573803949,
                2.036134711285526,
                -0.8165682161751574,
                0.28751629189593375,
                -3.1794261758293967
            ]
        },
        {
            "positions": [
                -0.008712693787575845,
                -1.2062118460727709,
                2.1007216982704926,
                -0.8526667844534968,
                0.4454461033228633,
                -3.1663610669616826
            ]
        },
        {
            "positions": [
                -0.07447481075533961,
                -1.2395751183415926,
                2.1653086852554586,
                -0.888765352731836,
                0.6033759147497928,
                -3.153295958093968
            ]
        },
        {
            "positions": [
                -0.14023692772310337,
                -1.2729383906104144,
                2.229895672240425,
                -0.9248639210101753,
                0.7613057261767223,
                -3.140230849226254
            ]
        },
        {
            "positions": [
                -0.20599904469086716,
                -1.3063016628792363,
                2.294482659225391,
                -0.9609624892885146,
                0.919235537603652,
                -3.1271657403585396
            ]
        },
        {
            "positions": [
                -0.2717611616586309,
                -1.339664935148058,
                2.359069646210357,
                -0.9970610575668539,
                1.0771653490305813,
                -3.1141006314908255
            ]
        },
        {
            "positions": [
                -0.3375232786263947,
                -1.3730282074168798,
                2.4236566331953235,
                -1.0331596258451932,
                1.2350951604575109,
                -3.101035522623111
            ]
        }
    ]
}