{
    "goal": {
        "global_pose": {
            "orientation": {
                "w": 0.5084816217422485,
                "x": -0.49083608388900757,
                "y": 0.5182115435600281,
                "z": -0.4816462993621826
            },
            "position": {
                "x": 0.5540239810943604,
                "y": 0.030875300988554955,
                "z": 0.16403168439865112
            }
        },
        "name": "move_to_storage_A"
    },
    "id": "PRM_move_to_storage_A_123",
    "joint_names": [
        "shoulder_pan_joint",
        "shoulder_lift_joint",
        "elbow_joint",
        "wrist_1_joint",
        "wrist_2_joint",
        "wrist_3_joint"
    ],
    "metrics": {
        "cart_traj_len": 0.35354888440049304,
        "distance_elbow_joint": 0.4495007419605166,
        "distance_shoulder_lift_joint": 0.2342189925569449,
        "distance_shoulder_pan_joint": 0.4610053264956315,
        "distance_wrist_1_joint": 0.2429641860241446,
        "distance_wrist_2_joint": 1.1050397288448668,
        "distance_wrist_3_joint": 0.09337715665305835,
        "smoothness": 6.661338165333112e-16,
        "time": 0.038296363,
        "traj_len": 1.6081374731456148,
        "weighted_distance": 2.0299912218308456
    },
    "planner": "PRM",
    "start": {
        "state": {
            "elbow_joint": 1.9715477243005601,
            "shoulder_lift_joint": -1.1394853015351272,
            "shoulder_pan_joint": 0.12281154014795169,
            "wrist_1_joint": -0.7804696478968182,
            "wrist_2_joint": 0.12958648046900423,
            "wrist_3_joint": -3.192491284697111
        }
    },
    "waypoints": [
        {
            "positions": [
                0.12281154014795169,
                -1.1394853015351272,
                1.9715477243005601,
                -0.7804696478968182,
                0.12958648046900423,
                -3.192491284697111
            ]
        },
        {
            "positions": [
                0.05695363636286148,
                -1.1729451576146908,
                2.0357621160092054,
                -0.8151788173288388,
                0.28744929887541376,
                -3.1791516908895314
            ]
        },
        {
            "positions": [
                -0.008904267422228732,
                -1.2064050136942543,
                2.0999765077178507,
                -0.8498879867608595,
                0.4453121172818233,
                -3.1658120970819517
            ]
        },
        {
            "positions": [
                -0.07476217120731894,
                -1.239864869773818,
                2.164190899426496,
                -0.8845971561928802,
                0.6031749356882328,
                -3.152472503274372
            ]
        },
        {
            "positions": [
                -0.14062007499240914,
                -1.2733247258533813,
                2.228405291135141,
                -0.9193063256249008,
                0.7610377540946424,
                -3.139132909466792
            ]
        },
        {
            "positions": [
                -0.20647797877749935,
                -1.3067845819329449,
                2.292619682843786,
                -0.9540154950569215,
                0.918900572501052,
                -3.1257933156592124
            ]
        },
        {
            "positions": [
                -0.27233588256258956,
                -1.3402444380125085,
                2.3568340745524314,
                -0.988724664488942,
                1.0767633909074614,
                -3.1124537218516326
            ]
        },
        {
            "positions": [
                -0.33819378634767977,
                -1.373704294092072,
                2.4210484662610767,
                -1.0234338339209628,
                1.2346262093138711,
                -3.099114128044053
            ]
        }
    ]
}