{
    "goal": {
        "global_pose": {
            "orientation": {
                "w": 0.7047431468963623,
                "x": -0.7094548344612122,
                "y": 0.0024358443915843964,
                "z": -0.0022348060738295317
            },
            "position": {
                "x": 0.6094750761985779,
                "y": 0.3671506643295288,
                "z": 0.19426114857196808
            }
        },
        "name": "move_to_magneteinheit_A"
    },
    "id": "PRM_move_to_magneteinheit_A_82",
    "joint_names": [
        "shoulder_pan_joint",
        "shoulder_lift_joint",
        "elbow_joint",
        "wrist_1_joint",
        "wrist_2_joint",
        "wrist_3_joint"
    ],
    "metrics": {
        "cart_traj_len": 3.65573573850342,
        "distance_elbow_joint": 3.87079701742674,
        "distance_shoulder_lift_joint": 0.9564689786666907,
        "distance_shoulder_pan_joint": 2.948919113864997,
        "distance_wrist_1_joint": 1.1923004560848127,
        "distance_wrist_2_joint": 2.7032112091255436,
        "distance_wrist_3_joint": 3.7146374294231648,
        "smoothness": 0.20398867765183612,
        "time": 0.09212600900000001,
        "traj_len": 3.9225418040591933,
        "weighted_distance": 5.168280248656089
    },
    "planner": "PRM",
    "start": {
        "state": {
            "elbow_joint": -1.919618573717145,
            "shoulder_lift_joint": -1.2443395971678275,
            "shoulder_pan_joint": 2.6996025300909787,
            "wrist_1_joint": -1.548550951253194,
            "wrist_2_joint": -1.5709469090946802,
            "wrist_3_joint": 0.4420197732051276
        }
    },
    "waypoints": [
        {
            "positions": [
                2.6996025300909787,
                -1.2443395971678275,
                -1.919618573717145,
                -1.548550951253194,
                -1.5709469090946802,
                0.4420197732051276
            ]
        },
        {
            "positions": [
                2.6043369198624964,
                -1.225827672967138,
                -1.8751196299362367,
                -1.513200895417649,
                -1.495137746309728,
                0.32824535010428574
            ]
        },
        {
            "positions": [
                2.509071309634014,
                -1.2073157487664483,
                -1.8306206861553287,
                -1.4778508395821037,
                -1.4193285835247758,
                0.21447092700344392
            ]
        },
        {
            "positions": [
                2.4138056994055317,
                -1.1888038245657588,
                -1.7861217423744205,
                -1.4425007837465587,
                -1.3435194207398238,
                0.1006965039026021
            ]
        },
        {
            "positions": [
                2.3185400891770493,
                -1.1702919003650691,
                -1.7416227985935124,
                -1.4071507279110136,
                -1.2677102579548716,
                -0.013077919198239751
            ]
        },
        {
            "positions": [
                2.223274478948567,
                -1.1517799761643797,
                -1.6971238548126042,
                -1.3718006720754685,
                -1.1919010951699194,
                -0.12685234229908154
            ]
        },
        {
            "positions": [
                2.1280088687200847,
                -1.13326805196369,
                -1.6526249110316962,
                -1.3364506162399232,
                -1.1160919323849672,
                -0.2406267653999234
            ]
        },
        {
            "positions": [
                2.0327432584916023,
                -1.1147561277630005,
                -1.608125967250788,
                -1.3011005604043782,
                -1.0402827696000152,
                -0.35440118850076524
            ]
        },
        {
            "positions": [
                1.9374776482631202,
                -1.096244203562311,
                -1.5636270234698797,
                -1.265750504568833,
                -0.9644736068150629,
                -0.4681756116016071
            ]
        },
        {
            "positions": [
                1.8422120380346378,
                -1.0777322793616213,
                -1.5191280796889717,
                -1.2304004487332878,
                -0.8886644440301108,
                -0.5819500347024489
            ]
        },
        {
            "positions": [
                1.7469464278061555,
                -1.0592203551609318,
                -1.4746291359080634,
                -1.1950503928977427,
                -0.8128552812451586,
                -0.6957244578032906
            ]
        },
        {
            "positions": [
                1.6516808175776734,
                -1.0407084309602421,
                -1.4301301921271554,
                -1.1597003370621977,
                -0.7370461184602065,
                -0.8094988809041324
            ]
        },
        {
            "positions": [
                1.556415207349191,
                -1.0221965067595526,
                -1.3856312483462472,
                -1.1243502812266526,
                -0.6612369556752543,
                -0.9232733040049743
            ]
        },
        {
            "positions": [
                1.4611495971207087,
                -1.003684582558863,
                -1.3411323045653392,
                -1.0890002253911075,
                -0.5854277928903021,
                -1.037047727105816
            ]
        },
        {
            "positions": [
                1.3658839868922263,
                -0.9851726583581735,
                -1.2966333607844307,
                -1.0536501695555622,
                -0.50961863010535,
                -1.150822150206658
            ]
        },
        {
            "positions": [
                1.270618376663744,
                -0.9666607341574839,
                -1.2521344170035227,
                -1.018300113720017,
                -0.4338094673203978,
                -1.2645965733075
            ]
        },
        {
            "positions": [
                1.1753527664352617,
                -0.9481488099567943,
                -1.2076354732226147,
                -0.982950057884472,
                -0.3580003045354456,
                -1.3783709964083417
            ]
        },
        {
            "positions": [
                1.0800871562067795,
                -0.9296368857561048,
                -1.1631365294417066,
                -0.9476000020489269,
                -0.28219114175049365,
                -1.4921454195091832
            ]
        },
        {
            "positions": [
                0.984821545978297,
                -0.9111249615554151,
                -1.1186375856607982,
                -0.9122499462133817,
                -0.20638197896554145,
                -1.6059198426100254
            ]
        },
        {
            "positions": [
                0.8895559357498148,
                -0.8926130373547256,
                -1.0741386418798902,
                -0.8768998903778367,
                -0.13057281618058925,
                -1.7196942657108671
            ]
        },
        {
            "positions": [
                0.7942903255213323,
                -0.8741011131540359,
                -1.029639698098982,
                -0.8415498345422915,
                -0.054763653395637046,
                -1.8334686888117089
            ]
        },
        {
            "positions": [
                0.6990247152928499,
                -0.8555891889533465,
                -0.9851407543180738,
                -0.8061997787067463,
                0.021045509389315153,
                -1.9472431119125506
            ]
        },
        {
            "positions": [
                0.603759105064368,
                -0.8370772647526569,
                -0.9406418105371658,
                -0.7708497228712012,
                0.09685467217426713,
                -2.0610175350133924
            ]
        },
        {
            "positions": [
                0.5084934948358852,
                -0.8185653405519673,
                -0.8961428667562574,
                -0.7354996670356561,
                0.17266383495921955,
                -2.1747919581142345
            ]
        },
        {
            "positions": [
                0.41322788460740334,
                -0.8000534163512778,
                -0.8516439229753494,
                -0.700149611200111,
                0.24847299774417153,
                -2.2885663812150763
            ]
        },
        {
            "positions": [
                0.317962274378921,
                -0.7815414921505881,
                -0.8071449791944414,
                -0.6647995553645659,
                0.3242821605291235,
                -2.402340804315918
            ]
        },
        {
            "positions": [
                0.22269666415043865,
                -0.7630295679498986,
                -0.7626460354135332,
                -0.6294494995290207,
                0.40009132331407593,
                -2.5161152274167597
            ]
        },
        {
            "positions": [
                0.1274310539219563,
                -0.744517643749209,
                -0.7181470916326249,
                -0.5940994436934756,
                0.4759004860990279,
                -2.6298896505176015
            ]
        },
        {
            "positions": [
                0.03216544369347396,
                -0.7260057195485194,
                -0.6736481478517167,
                -0.5587493878579304,
                0.5517096488839801,
                -2.7436640736184437
            ]
        },
        {
            "positions": [
                -0.06310016653500858,
                -0.7074937953478299,
                -0.6291492040708087,
                -0.5233993320223853,
                0.6275188116689323,
                -2.8574384967192854
            ]
        },
        {
            "positions": [
                -0.046171401331462136,
                -0.7456413568793474,
                -0.39457396336349926,
                -0.5385946808272947,
                0.5816328581814839,
                -2.8951820566737174
            ]
        },
        {
            "positions": [
                -0.029242636127915694,
                -0.783788918410865,
                -0.1599987226561898,
                -0.5537900296322041,
                0.5357469046940356,
                -2.9329256166281494
            ]
        },
        {
            "positions": [
                -0.01231387092436926,
                -0.8219364799423825,
                0.07457651805111953,
                -0.5689853784371135,
                0.48986095120658724,
                -2.9706691765825814
            ]
        },
        {
            "positions": [
                0.00461489427917719,
                -0.8600840414739,
                0.30915175875842904,
                -0.584180727242023,
                0.4439749977191389,
                -3.0084127365370135
            ]
        },
        {
            "positions": [
                0.02154365948272363,
                -0.8982316030054176,
                0.5437269994657383,
                -0.5993760760469323,
                0.39808904423169056,
                -3.0461562964914455
            ]
        },
        {
            "positions": [
                0.03847242468627006,
                -0.9363791645369351,
                0.7783022401730477,
                -0.6145714248518418,
                0.3522030907442422,
                -3.083899856445877
            ]
        },
        {
            "positions": [
                0.055401189889816516,
                -0.9745267260684527,
                1.0128774808803573,
                -0.6297667736567512,
                0.3063171372567938,
                -3.121643416400309
            ]
        },
        {
            "positions": [
                0.07232995509336296,
                -1.0126742875999701,
                1.2474527215876667,
                -0.6449621224616606,
                0.2604311837693455,
                -3.159386976354741
            ]
        },
        {
            "positions": [
                0.0892587202969094,
                -1.0508218491314878,
                1.4820279622949761,
                -0.66015747126657,
                0.2145452302818971,
                -3.197130536309173
            ]
        },
        {
            "positions": [
                0.10618748550045584,
                -1.0889694106630055,
                1.7166032030022853,
                -0.6753528200714793,
                0.1686592767944488,
                -3.234874096263605
            ]
        },
        {
            "positions": [
                0.12311625070400228,
                -1.127116972194523,
                1.951178443709595,
                -0.6905481688763888,
                0.12277332330700044,
                -3.272617656218037
            ]
        }
    ]
}{
    "goal": {
        "global_pose": {
            "orientation": {
                "w": 0.7047431468963623,
                "x": -0.7094548344612122,
                "y": 0.0024358443915843964,
                "z": -0.0022348060738295317
            },
            "position": {
                "x": 0.6094750761985779,
                "y": 0.3671506643295288,
                "z": 0.19426114857196808
            }
        },
        "name": "move_to_magneteinheit_A"
    },
    "id": "PRM_move_to_magneteinheit_A_82",
    "joint_names": [
        "shoulder_pan_joint",
        "shoulder_lift_joint",
        "elbow_joint",
        "wrist_1_joint",
        "wrist_2_joint",
        "wrist_3_joint"
    ],
    "metrics": {
        "cart_traj_len": 1.6359537926686487,
        "distance_elbow_joint": 0.7611009632180008,
        "distance_shoulder_lift_joint": 0.7662566059440303,
        "distance_shoulder_pan_joint": 1.5836777945305658,
        "distance_wrist_1_joint": 0.8643572149043147,
        "distance_wrist_2_joint": 1.4490646080646057,
        "distance_wrist_3_joint": 4.367359421213321,
        "smoothness": 0.21615359452169808,
        "time": 0.159440062,
        "traj_len": 3.1291878511643945,
        "weighted_distance": 4.565080204472907
    },
    "planner": "PRM",
    "start": {
        "state": {
            "elbow_joint": 1.919643534880228,
            "shoulder_lift_joint": -1.8972525353963687,
            "shoulder_pan_joint": -1.1188672234189438,
            "wrist_1_joint": -1.5931878212786155,
            "wrist_2_joint": 1.5706036197970081,
            "wrist_3_joint": 1.118896926603594
        }
    },
    "waypoints": [
        {
            "positions": [
                -1.1188672234189438,
                -1.8972525353963687,
                1.919643534880228,
                -1.5931878212786155,
                1.5706036197970081,
                1.118896926603594
            ]
        },
        {
            "positions": [
                -1.161736707499244,
                -1.8592453339622967,
                1.8294375334708983,
                -1.5501858652505267,
                1.5120463987496078,
                1.0802406679639314
            ]
        },
        {
            "positions": [
                -1.2046061915795439,
                -1.821238132528225,
                1.7392315320615683,
                -1.5071839092224377,
                1.4534891777022074,
                1.0415844093242688
            ]
        },
        {
            "positions": [
                -1.247475675659844,
                -1.783230931094153,
                1.6490255306522386,
                -1.464181953194349,
                1.3949319566548068,
                1.0029281506846062
            ]
        },
        {
            "positions": [
                -1.290345159740144,
                -1.745223729660081,
                1.5588195292429088,
                -1.4211799971662602,
                1.3363747356074065,
                0.9642718920449436
            ]
        },
        {
            "positions": [
                -1.2261542570942638,
                -1.7173042841960926,
                1.577013936405667,
                -1.3897095703120803,
                1.2811549299767244,
                0.7727839653788222
            ]
        },
        {
            "positions": [
                -1.1619633544483836,
                -1.6893848387321044,
                1.5952083435684252,
                -1.3582391434579002,
                1.2259351243460426,
                0.5812960387127009
            ]
        },
        {
            "positions": [
                -1.0977724518025034,
                -1.661465393268116,
                1.6134027507311834,
                -1.3267687166037203,
                1.1707153187153605,
                0.3898081120465795
            ]
        },
        {
            "positions": [
                -1.0335815491566231,
                -1.6335459478041279,
                1.6315971578939419,
                -1.2952982897495402,
                1.1154955130846784,
                0.19832018538045804
            ]
        },
        {
            "positions": [
                -0.9693906465107428,
                -1.6056265023401395,
                1.6497915650567,
                -1.2638278628953603,
                1.0602757074539966,
                0.006832258714336681
            ]
        },
        {
            "positions": [
                -0.9051997438648626,
                -1.577707056876151,
                1.6679859722194583,
                -1.2323574360411804,
                1.0050559018233145,
                -0.18465566795178456
            ]
        },
        {
            "positions": [
                -0.8410088412189823,
                -1.549787611412163,
                1.6861803793822165,
                -1.2008870091870003,
                0.9498360961926324,
                -0.37614359461790614
            ]
        },
        {
            "positions": [
                -0.776817938573102,
                -1.5218681659481745,
                1.7043747865449748,
                -1.1694165823328204,
                0.8946162905619505,
                -0.5676315212840275
            ]
        },
        {
            "positions": [
                -0.7126270359272218,
                -1.4939487204841861,
                1.722569193707733,
                -1.1379461554786405,
                0.8393964849312685,
                -0.7591194479501489
            ]
        },
        {
            "positions": [
                -0.6484361332813415,
                -1.466029275020198,
                1.7407636008704912,
                -1.1064757286244604,
                0.7841766793005865,
                -0.9506073746162702
            ]
        },
        {
            "positions": [
                -0.5842452306354613,
                -1.4381098295562098,
                1.7589580080332494,
                -1.0750053017702805,
                0.7289568736699045,
                -1.1420953012823916
            ]
        },
        {
            "positions": [
                -0.5200543279895811,
                -1.4101903840922214,
                1.7771524151960079,
                -1.0435348749161006,
                0.6737370680392225,
                -1.3335832279485127
            ]
        },
        {
            "positions": [
                -0.4558634253437007,
                -1.382270938628233,
                1.795346822358766,
                -1.0120644480619205,
                0.6185172624085404,
                -1.5250711546146343
            ]
        },
        {
            "positions": [
                -0.3916725226978206,
                -1.3543514931642449,
                1.8135412295215243,
                -0.9805940212077405,
                0.5632974567778585,
                -1.7165590812807558
            ]
        },
        {
            "positions": [
                -0.32748162005194037,
                -1.3264320477002565,
                1.8317356366842825,
                -0.9491235943535605,
                0.5080776511471765,
                -1.908047007946877
            ]
        },
        {
            "positions": [
                -0.2632907174060599,
                -1.298512602236268,
                1.8499300438470407,
                -0.9176531674993806,
                0.45285784551649444,
                -2.099534934612999
            ]
        },
        {
            "positions": [
                -0.1990998147601799,
                -1.27059315677228,
                1.868124451009799,
                -0.8861827406452006,
                0.3976380398858125,
                -2.29102286127912
            ]
        },
        {
            "positions": [
                -0.13490891211429945,
                -1.2426737113082915,
                1.8863188581725572,
                -0.8547123137910206,
                0.3424182342551304,
                -2.482510787945241
            ]
        },
        {
            "positions": [
                -0.07071800946841922,
                -1.2147542658443031,
                1.9045132653353156,
                -0.8232418869368406,
                0.28719842862444844,
                -2.673998714611362
            ]
        },
        {
            "positions": [
                -0.006527106822538986,
                -1.186834820380315,
                1.9227076724980738,
                -0.7917714600826607,
                0.2319786229937666,
                -2.865486641277484
            ]
        },
        {
            "positions": [
                0.057663795823341246,
                -1.1589153749163268,
                1.940902079660832,
                -0.7603010332284807,
                0.1767588173630843,
                -3.0569745679436053
            ]
        },
        {
            "positions": [
                0.12185469846922156,
                -1.1309959294523384,
                1.9590964868235903,
                -0.7288306063743007,
                0.12153901173240238,
                -3.248462494609727
            ]
        }
    ]
}