{
    "goal": {
        "global_pose": {
            "orientation": {
                "w": 0.7047431468963623,
                "x": -0.7094548344612122,
                "y": 0.0024358443915843964,
                "z": -0.0022348060738295317
            },
            "position": {
                "x": 0.6094750761985779,
                "y": 0.3671506643295288,
                "z": 0.19426114857196808
            }
        },
        "name": "move_to_magneteinheit_A"
    },
    "id": "PRM_move_to_magneteinheit_A_45",
    "joint_names": [
        "shoulder_pan_joint",
        "shoulder_lift_joint",
        "elbow_joint",
        "wrist_1_joint",
        "wrist_2_joint",
        "wrist_3_joint"
    ],
    "metrics": {
        "cart_traj_len": 4.184804860049962,
        "distance_elbow_joint": 3.915259891803173,
        "distance_shoulder_lift_joint": 1.155355058028261,
        "distance_shoulder_pan_joint": 3.9029398971233706,
        "distance_wrist_1_joint": 4.873730047441244,
        "distance_wrist_2_joint": 1.4486748267811873,
        "distance_wrist_3_joint": 1.1875802242621258,
        "smoothness": 0.4675824130081642,
        "time": 0.116852232,
        "traj_len": 4.059992604111411,
        "weighted_distance": 5.018077845967123
    },
    "planner": "PRM",
    "start": {
        "state": {
            "elbow_joint": -1.919618573717145,
            "shoulder_lift_joint": -1.2443395971678275,
            "shoulder_pan_joint": 2.6996025300909787,
            "wrist_1_joint": -1.548550951253194,
            "wrist_2_joint": -1.5709469090946802,
            "wrist_3_joint": 0.4420197732051276
        }
    },
    "waypoints": [
        {
            "positions": [
                2.6996025300909787,
                -1.2443395971678275,
                -1.919618573717145,
                -1.548550951253194,
                -1.5709469090946802,
                0.4420197732051276
            ]
        },
        {
            "positions": [
                2.576606522540476,
                -1.2394473636000858,
                -1.9033224438144376,
                -1.4147161821355565,
                -1.4998560194709265,
                0.46661219442628726
            ]
        },
        {
            "positions": [
                2.4536105149899736,
                -1.2345551300323439,
                -1.88702631391173,
                -1.280881413017919,
                -1.4287651298471726,
                0.49120461564744694
            ]
        },
        {
            "positions": [
                2.330614507439471,
                -1.2296628964646021,
                -1.8707301840090227,
                -1.1470466439002815,
                -1.357674240223419,
                0.5157970368686067
            ]
        },
        {
            "positions": [
                2.2076184998889685,
                -1.2247706628968604,
                -1.8544340541063153,
                -1.013211874782644,
                -1.286583350599665,
                0.5403894580897664
            ]
        },
        {
            "positions": [
                2.0846224923384664,
                -1.2198784293291187,
                -1.8381379242036078,
                -0.8793771056650064,
                -1.2154924609759115,
                0.564981879310926
            ]
        },
        {
            "positions": [
                1.9616264847879639,
                -1.2149861957613768,
                -1.8218417943009004,
                -0.7455423365473688,
                -1.1444015713521578,
                0.5895743005320857
            ]
        },
        {
            "positions": [
                1.8386304772374613,
                -1.210093962193635,
                -1.805545664398193,
                -0.6117075674297313,
                -1.073310681728404,
                0.6141667217532454
            ]
        },
        {
            "positions": [
                1.7156344696869588,
                -1.2052017286258934,
                -1.7892495344954855,
                -0.47787279831209384,
                -1.0022197921046503,
                0.6387591429744051
            ]
        },
        {
            "positions": [
                1.5926384621364564,
                -1.2003094950581517,
                -1.7729534045927782,
                -0.34403802919445625,
                -0.9311289024808965,
                0.6633515641955647
            ]
        },
        {
            "positions": [
                1.4696424545859539,
                -1.1954172614904097,
                -1.7566572746900708,
                -0.21020326007681867,
                -0.8600380128571428,
                0.6879439854167244
            ]
        },
        {
            "positions": [
                1.3466464470354513,
                -1.190525027922668,
                -1.7403611447873633,
                -0.0763684909591813,
                -0.7889471232333891,
                0.7125364066378841
            ]
        },
        {
            "positions": [
                1.2236504394849488,
                -1.1856327943549263,
                -1.724065014884656,
                0.05746627815845651,
                -0.7178562336096352,
                0.7371288278590438
            ]
        },
        {
            "positions": [
                1.1006544319344462,
                -1.1807405607871844,
                -1.7077688849819486,
                0.1913010472760941,
                -0.6467653439858815,
                0.7617212490802034
            ]
        },
        {
            "positions": [
                0.9776584243839439,
                -1.1758483272194427,
                -1.691472755079241,
                0.32513581639373146,
                -0.5756744543621278,
                0.7863136703013631
            ]
        },
        {
            "positions": [
                0.8546624168334412,
                -1.170956093651701,
                -1.6751766251765337,
                0.45897058551136893,
                -0.5045835647383741,
                0.8109060915225228
            ]
        },
        {
            "positions": [
                0.7882366598821764,
                -1.1358593744314145,
                -1.5407921300258847,
                0.562496557550389,
                -0.48842705119137597,
                0.7721108073475141
            ]
        },
        {
            "positions": [
                0.7218109029309114,
                -1.1007626552111278,
                -1.4064076348752357,
                0.6660225295894091,
                -0.47227053764437793,
                0.7333155231725055
            ]
        },
        {
            "positions": [
                0.6553851459796467,
                -1.0656659359908414,
                -1.2720231397245867,
                0.7695485016284291,
                -0.4561140240973799,
                0.6945202389974969
            ]
        },
        {
            "positions": [
                0.5889593890283817,
                -1.0305692167705547,
                -1.1376386445739377,
                0.8730744736674492,
                -0.4399575105503818,
                0.6557249548224883
            ]
        },
        {
            "positions": [
                0.5225336320771169,
                -0.9954724975502682,
                -1.003254149423289,
                0.9766004457064692,
                -0.4238009970033837,
                0.6169296706474796
            ]
        },
        {
            "positions": [
                0.45610787512585205,
                -0.9603757783299818,
                -0.8688696542726398,
                1.0801264177454892,
                -0.40764448345638565,
                0.578134386472471
            ]
        },
        {
            "positions": [
                0.38968211817458714,
                -0.9252790591096952,
                -0.7344851591219909,
                1.1836523897845095,
                -0.3914879699093876,
                0.5393391022974623
            ]
        },
        {
            "positions": [
                0.32325636122332224,
                -0.8901823398894086,
                -0.600100663971342,
                1.2871783618235293,
                -0.3753314563623895,
                0.5005438181224537
            ]
        },
        {
            "positions": [
                0.2568306042720574,
                -0.8550856206691222,
                -0.465716168820693,
                1.3907043338625495,
                -0.3591749428153914,
                0.46174853394744503
            ]
        },
        {
            "positions": [
                0.19040484732079255,
                -0.8199889014488355,
                -0.331331673670044,
                1.4942303059015694,
                -0.3430184292683934,
                0.42295324977243637
            ]
        },
        {
            "positions": [
                0.12397909036952759,
                -0.7848921822285491,
                -0.1969471785193948,
                1.5977562779405896,
                -0.3268619157213953,
                0.3841579655974277
            ]
        },
        {
            "positions": [
                0.05755333341826285,
                -0.7497954630082625,
                -0.06256268336874604,
                1.7012822499796094,
                -0.31070540217439724,
                0.3453626814224191
            ]
        },
        {
            "positions": [
                -0.008872423533002105,
                -0.7146987437879759,
                0.07182181178190317,
                1.8048082220186297,
                -0.29454888862739914,
                0.30656739724741044
            ]
        },
        {
            "positions": [
                -0.07529818048426695,
                -0.6796020245676895,
                0.20620630693255193,
                1.90833419405765,
                -0.2783923750804011,
                0.2677721130724018
            ]
        },
        {
            "positions": [
                -0.1417239374355319,
                -0.6445053053474028,
                0.3405908020832009,
                2.0118601660966697,
                -0.262235861533403,
                0.22897682889739313
            ]
        },
        {
            "positions": [
                -0.20814969438679676,
                -0.6094085861271163,
                0.4749752972338497,
                2.11538613813569,
                -0.24607934798640496,
                0.19018154472238458
            ]
        },
        {
            "positions": [
                -0.2745754513380617,
                -0.5743118669068298,
                0.6093597923844989,
                2.2189121101747102,
                -0.22992283443940686,
                0.1513862605473758
            ]
        },
        {
            "positions": [
                -0.34100120828932645,
                -0.5392151476865433,
                0.7437442875351477,
                2.32243808221373,
                -0.21376632089240882,
                0.11259097637236726
            ]
        },
        {
            "positions": [
                -0.4074269652405914,
                -0.5041184284662567,
                0.8781287826857969,
                2.4259640542527503,
                -0.19760980734541073,
                0.0737956921973586
            ]
        },
        {
            "positions": [
                -0.47385272219185615,
                -0.4690217092459702,
                1.0125132778364456,
                2.52949002629177,
                -0.18145329379841268,
                0.03500040802234994
            ]
        },
        {
            "positions": [
                -0.5402784791431211,
                -0.43392499002568363,
                1.1468977729870948,
                2.6330159983307904,
                -0.1652967802514146,
                -0.0037948761526587216
            ]
        },
        {
            "positions": [
                -0.44555578087322556,
                -0.4832021972951289,
                1.2681468508583709,
                2.534135555779754,
                -0.1591503948317115,
                -0.004365295905451493
            ]
        },
        {
            "positions": [
                -0.35083308260333,
                -0.5324794045645742,
                1.389395928729647,
                2.435255113228717,
                -0.15300400941200842,
                -0.004935715658244264
            ]
        },
        {
            "positions": [
                -0.25611038433343447,
                -0.5817566118340196,
                1.510645006600923,
                2.3363746706776802,
                -0.14685762399230534,
                -0.005506135411037036
            ]
        },
        {
            "positions": [
                -0.16138768606353893,
                -0.6310338191034649,
                1.631894084472199,
                2.2374942281266437,
                -0.14071123857260226,
                -0.0060765551638298065
            ]
        },
        {
            "positions": [
                -0.06666498779364338,
                -0.6803110263729102,
                1.7531431623434752,
                2.1386137855756067,
                -0.13456485315289918,
                -0.006646974916622578
            ]
        },
        {
            "positions": [
                0.028057710476252162,
                -0.7295882336423556,
                1.874392240214751,
                2.03973334302457,
                -0.1284184677331961,
                -0.00721739466941535
            ]
        },
        {
            "positions": [
                0.12278040874614772,
                -0.7788654409118009,
                1.9956413180860273,
                1.9408529004735333,
                -0.12227208231349303,
                -0.0077878144222081214
            ]
        }
    ]
}{
    "goal": {
        "global_pose": {
            "orientation": {
                "w": 0.7047431468963623,
                "x": -0.7094548344612122,
                "y": 0.0024358443915843964,
                "z": -0.0022348060738295317
            },
            "position": {
                "x": 0.6094750761985779,
                "y": 0.3671506643295288,
                "z": 0.19426114857196808
            }
        },
        "name": "move_to_magneteinheit_A"
    },
    "id": "PRM_move_to_magneteinheit_A_45",
    "joint_names": [
        "shoulder_pan_joint",
        "shoulder_lift_joint",
        "elbow_joint",
        "wrist_1_joint",
        "wrist_2_joint",
        "wrist_3_joint"
    ],
    "metrics": {
        "cart_traj_len": 1.8677995521889683,
        "distance_elbow_joint": 2.735083861589806,
        "distance_shoulder_lift_joint": 0.7498334603433576,
        "distance_shoulder_pan_joint": 1.2407074720145375,
        "distance_wrist_1_joint": 0.7406674550484275,
        "distance_wrist_2_joint": 1.4451375813047265,
        "distance_wrist_3_joint": 4.2401742052163245,
        "smoothness": 0.20153591696643,
        "time": 0.104653891,
        "traj_len": 3.339401748145494,
        "weighted_distance": 4.670948242306158
    },
    "planner": "PRM",
    "start": {
        "state": {
            "elbow_joint": 1.919643534880228,
            "shoulder_lift_joint": -1.8972525353963687,
            "shoulder_pan_joint": -1.1188672234189438,
            "wrist_1_joint": -1.5931878212786155,
            "wrist_2_joint": 1.5706036197970081,
            "wrist_3_joint": 1.118896926603594
        }
    },
    "waypoints": [
        {
            "positions": [
                -1.1188672234189438,
                -1.8972525353963687,
                1.919643534880228,
                -1.5931878212786155,
                1.5706036197970081,
                1.118896926603594
            ]
        },
        {
            "positions": [
                -1.079961454557051,
                -1.8580472226114506,
                1.8494452263335779,
                -1.569094240441725,
                1.512852931520173,
                0.9621937696301471
            ]
        },
        {
            "positions": [
                -1.0410556856951583,
                -1.8188419098265325,
                1.779246917786928,
                -1.5450006596048347,
                1.4551022432433383,
                0.8054906126567003
            ]
        },
        {
            "positions": [
                -1.0021499168332657,
                -1.7796365970416144,
                1.709048609240278,
                -1.5209070787679442,
                1.3973515549665032,
                0.6487874556832534
            ]
        },
        {
            "positions": [
                -0.9632441479713729,
                -1.7404312842566965,
                1.6388503006936277,
                -1.4968134979310537,
                1.3396008666896684,
                0.4920842987098065
            ]
        },
        {
            "positions": [
                -0.9243383791094801,
                -1.7012259714717783,
                1.5686519921469775,
                -1.4727199170941634,
                1.2818501784128333,
                0.3353811417363597
            ]
        },
        {
            "positions": [
                -0.8854326102475873,
                -1.6620206586868602,
                1.4984536836003275,
                -1.4486263362572729,
                1.2240994901359983,
                0.17867798476291274
            ]
        },
        {
            "positions": [
                -0.8465268413856946,
                -1.622815345901942,
                1.4282553750536775,
                -1.4245327554203824,
                1.1663488018591635,
                0.0219748277894658
            ]
        },
        {
            "positions": [
                -0.8076210725238019,
                -1.583610033117024,
                1.3580570665070273,
                -1.400439174583492,
                1.1085981135823284,
                -0.13472832918398092
            ]
        },
        {
            "positions": [
                -0.7687153036619092,
                -1.5444047203321059,
                1.287858757960377,
                -1.3763455937466016,
                1.0508474253054936,
                -0.29143148615742787
            ]
        },
        {
            "positions": [
                -0.7298095348000164,
                -1.5051994075471877,
                1.217660449413727,
                -1.352252012909711,
                0.9930967370286585,
                -0.4481346431308746
            ]
        },
        {
            "positions": [
                -0.6909037659381236,
                -1.4659940947622696,
                1.1474621408670769,
                -1.3281584320728208,
                0.9353460487518235,
                -0.6048378001043218
            ]
        },
        {
            "positions": [
                -0.6519979970762309,
                -1.4267887819773515,
                1.0772638323204269,
                -1.3040648512359303,
                0.8775953604749885,
                -0.7615409570777685
            ]
        },
        {
            "positions": [
                -0.6130922282143382,
                -1.3875834691924336,
                1.0070655237737767,
                -1.2799712703990398,
                0.8198446721981535,
                -0.9182441140512154
            ]
        },
        {
            "positions": [
                -0.5741864593524454,
                -1.3483781564075152,
                0.9368672152271267,
                -1.2558776895621495,
                0.7620939839213187,
                -1.0749472710246624
            ]
        },
        {
            "positions": [
                -0.5352806904905526,
                -1.3091728436225973,
                0.8666689066804765,
                -1.231784108725259,
                0.7043432956444836,
                -1.2316504279981093
            ]
        },
        {
            "positions": [
                -0.4963749216286599,
                -1.2699675308376792,
                0.7964705981338265,
                -1.2076905278883685,
                0.6465926073676487,
                -1.3883535849715558
            ]
        },
        {
            "positions": [
                -0.45746915276676714,
                -1.230762218052761,
                0.7262722895871763,
                -1.183596947051478,
                0.5888419190908136,
                -1.5450567419450028
            ]
        },
        {
            "positions": [
                -0.41856338390487446,
                -1.191556905267843,
                0.6560739810405263,
                -1.1595033662145877,
                0.5310912308139788,
                -1.7017598989184497
            ]
        },
        {
            "positions": [
                -0.3796576150429817,
                -1.1523515924829248,
                0.5858756724938761,
                -1.1354097853776972,
                0.4733405425371437,
                -1.8584630558918966
            ]
        },
        {
            "positions": [
                -0.32950782867912415,
                -1.1518583407399334,
                0.7260072724142215,
                -1.1071208434629463,
                0.43855309213265753,
                -1.98474447816398
            ]
        },
        {
            "positions": [
                -0.2793580423152666,
                -1.151365088996942,
                0.8661388723345669,
                -1.0788319015481953,
                0.4037656417281713,
                -2.1110259004360636
            ]
        },
        {
            "positions": [
                -0.22920825595140912,
                -1.1508718372539508,
                1.0062704722549123,
                -1.0505429596334444,
                0.36897819132368515,
                -2.237307322708147
            ]
        },
        {
            "positions": [
                -0.1790584695875516,
                -1.1503785855109594,
                1.1464020721752575,
                -1.0222540177186936,
                0.334190740919199,
                -2.3635887449802304
            ]
        },
        {
            "positions": [
                -0.1289086832236941,
                -1.149885333767968,
                1.286533672095603,
                -0.9939650758039427,
                0.29940329051471276,
                -2.489870167252314
            ]
        },
        {
            "positions": [
                -0.07875889685983656,
                -1.1493920820249766,
                1.4266652720159483,
                -0.9656761338891917,
                0.26461584011022654,
                -2.616151589524397
            ]
        },
        {
            "positions": [
                -0.028609110495979084,
                -1.1488988302819851,
                1.5667968719362937,
                -0.9373871919744408,
                0.2298283897057404,
                -2.742433011796481
            ]
        },
        {
            "positions": [
                0.0215406758678785,
                -1.148405578538994,
                1.706928471856639,
                -0.9090982500596898,
                0.1950409393012542,
                -2.8687144340685644
            ]
        },
        {
            "positions": [
                0.07169046223173597,
                -1.1479123267960025,
                1.8470600717769845,
                -0.8808093081449389,
                0.160253488896768,
                -2.9949958563406476
            ]
        },
        {
            "positions": [
                0.12184024859559356,
                -1.147419075053011,
                1.98719167169733,
                -0.852520366230188,
                0.12546603849228183,
                -3.121277278612731
            ]
        }
    ]
}