{
    "goal": {
        "global_pose": {
            "orientation": {
                "w": 0.5084816217422485,
                "x": -0.49083608388900757,
                "y": 0.5182115435600281,
                "z": -0.4816462993621826
            },
            "position": {
                "x": 0.5540239810943604,
                "y": 0.030875300988554955,
                "z": 0.16403168439865112
            }
        },
        "name": "move_to_storage_A"
    },
    "id": "PRM_move_to_storage_A_69",
    "joint_names": [
        "shoulder_pan_joint",
        "shoulder_lift_joint",
        "elbow_joint",
        "wrist_1_joint",
        "wrist_2_joint",
        "wrist_3_joint"
    ],
    "metrics": {
        "cart_traj_len": 0.35326493779377566,
        "distance_elbow_joint": 0.44993346956499636,
        "distance_shoulder_lift_joint": 0.23391521228910284,
        "distance_shoulder_pan_joint": 0.45880295499093005,
        "distance_wrist_1_joint": 0.2391697847916453,
        "distance_wrist_2_joint": 1.1128900294933284,
        "distance_wrist_3_joint": 0.08779650007606365,
        "smoothness": 0.0,
        "time": 0.036390491999999997,
        "traj_len": 1.6070183419009463,
        "weighted_distance": 2.027353142805458
    },
    "planner": "PRM",
    "start": {
        "state": {
            "elbow_joint": 1.9715477243005601,
            "shoulder_lift_joint": -1.1394853015351272,
            "shoulder_pan_joint": 0.12281154014795169,
            "wrist_1_joint": -0.7804696478968182,
            "wrist_2_joint": 0.12958648046900423,
            "wrist_3_joint": -3.192491284697111
        }
    },
    "waypoints": [
        {
            "positions": [
                0.12281154014795169,
                -1.1394853015351272,
                1.9715477243005601,
                -0.7804696478968182,
                0.12958648046900423,
                -3.192491284697111
            ]
        },
        {
            "positions": [
                0.05726826086353312,
                -1.1729017604335705,
                2.0358239342384166,
                -0.8146367600099104,
                0.2885707703966226,
                -3.179948927543388
            ]
        },
        {
            "positions": [
                -0.008275018420885447,
                -1.2063182193320137,
                2.1001001441762734,
                -0.8488038721230026,
                0.4475550603242409,
                -3.1674065703896646
            ]
        },
        {
            "positions": [
                -0.07381829770530403,
                -1.239734678230457,
                2.16437635411413,
                -0.8829709842360947,
                0.6065393502518592,
                -3.1548642132359412
            ]
        },
        {
            "positions": [
                -0.13936157698972257,
                -1.2731511371289002,
                2.2286525640519868,
                -0.9171380963491869,
                0.7655236401794776,
                -3.1423218560822175
            ]
        },
        {
            "positions": [
                -0.20490485627414118,
                -1.3065675960273435,
                2.292928773989843,
                -0.9513052084622791,
                0.924507930107096,
                -3.129779498928494
            ]
        },
        {
            "positions": [
                -0.27044813555855973,
                -1.3399840549257866,
                2.3572049839276996,
                -0.9854723205753713,
                1.0834922200347141,
                -3.117237141774771
            ]
        },
        {
            "positions": [
                -0.33599141484297834,
                -1.37340051382423,
                2.4214811938655565,
                -1.0196394326884635,
                1.2424765099623325,
                -3.1046947846210475
            ]
        }
    ]
}