{
    "goal": {
        "global_pose": {
            "orientation": {
                "w": 0.5084816217422485,
                "x": -0.49083608388900757,
                "y": 0.5182115435600281,
                "z": -0.4816462993621826
            },
            "position": {
                "x": 0.5540239810943604,
                "y": 0.030875300988554955,
                "z": 0.16403168439865112
            }
        },
        "name": "move_to_storage_A"
    },
    "id": "PRM_move_to_storage_A_67",
    "joint_names": [
        "shoulder_pan_joint",
        "shoulder_lift_joint",
        "elbow_joint",
        "wrist_1_joint",
        "wrist_2_joint",
        "wrist_3_joint"
    ],
    "metrics": {
        "cart_traj_len": 0.3535987990654681,
        "distance_elbow_joint": 0.45235545040886027,
        "distance_shoulder_lift_joint": 0.23403127883056385,
        "distance_shoulder_pan_joint": 0.46159301368010885,
        "distance_wrist_1_joint": 0.25442637464173956,
        "distance_wrist_2_joint": 1.1031615429150583,
        "distance_wrist_3_joint": 0.09751341435945582,
        "smoothness": 2.2204460668324854e-16,
        "time": 0.022534513,
        "traj_len": 1.6134066675317127,
        "weighted_distance": 2.0385523837055293
    },
    "planner": "PRM",
    "start": {
        "state": {
            "elbow_joint": 1.9715477243005601,
            "shoulder_lift_joint": -1.1394853015351272,
            "shoulder_pan_joint": 0.12281154014795169,
            "wrist_1_joint": -0.7804696478968182,
            "wrist_2_joint": 0.12958648046900423,
            "wrist_3_joint": -3.192491284697111
        }
    },
    "waypoints": [
        {
            "positions": [
                0.12281154014795169,
                -1.1394853015351272,
                1.9715477243005601,
                -0.7804696478968182,
                0.12958648046900423,
                -3.192491284697111
            ]
        },
        {
            "positions": [
                0.05686968105079329,
                -1.1729183413680648,
                2.036169931501826,
                -0.8168162728456381,
                0.2871809865997268,
                -3.1785607969314746
            ]
        },
        {
            "positions": [
                -0.009072178046365106,
                -1.2063513812010025,
                2.1007921387030914,
                -0.8531628977944581,
                0.4447754927304494,
                -3.164630309165838
            ]
        },
        {
            "positions": [
                -0.07501403714352352,
                -1.2397844210339402,
                2.1654143459043573,
                -0.889509522743278,
                0.602369998861172,
                -3.1506998214002016
            ]
        },
        {
            "positions": [
                -0.1409558962406819,
                -1.2732174608668778,
                2.230036553105623,
                -0.9258561476920979,
                0.7599645049918946,
                -3.136769333634565
            ]
        },
        {
            "positions": [
                -0.20689775533784033,
                -1.3066505006998157,
                2.294658760306889,
                -0.9622027726409179,
                0.9175590111226173,
                -3.1228388458689285
            ]
        },
        {
            "positions": [
                -0.2728396144349987,
                -1.3400835405327534,
                2.3592809675081545,
                -0.9985493975897377,
                1.07515351725334,
                -3.108908358103292
            ]
        },
        {
            "positions": [
                -0.33878147353215715,
                -1.373516580365691,
                2.4239031747094204,
                -1.0348960225385577,
                1.2327480233840626,
                -3.0949778703376554
            ]
        }
    ]
}