{
    "goal": {
        "global_pose": {
            "orientation": {
                "w": 0.7047431468963623,
                "x": -0.7094548344612122,
                "y": 0.0024358443915843964,
                "z": -0.0022348060738295317
            },
            "position": {
                "x": 0.6094750761985779,
                "y": 0.3671506643295288,
                "z": 0.19426114857196808
            }
        },
        "name": "move_to_magneteinheit_A"
    },
    "id": "PRM_move_to_magneteinheit_A_113",
    "joint_names": [
        "shoulder_pan_joint",
        "shoulder_lift_joint",
        "elbow_joint",
        "wrist_1_joint",
        "wrist_2_joint",
        "wrist_3_joint"
    ],
    "metrics": {
        "cart_traj_len": 3.406910938256288,
        "distance_elbow_joint": 4.579551032511785,
        "distance_shoulder_lift_joint": 2.326077931751353,
        "distance_shoulder_pan_joint": 8.142238175105147,
        "distance_wrist_1_joint": 4.363493325088586,
        "distance_wrist_2_joint": 1.7031570737158308,
        "distance_wrist_3_joint": 4.366327234065499,
        "smoothness": 0.31467664651137095,
        "time": 0.124740595,
        "traj_len": 5.047855462692866,
        "weighted_distance": 6.346664449864483
    },
    "planner": "PRM",
    "start": {
        "state": {
            "elbow_joint": -1.919618573717145,
            "shoulder_lift_joint": -1.2443395971678275,
            "shoulder_pan_joint": 2.6996025300909787,
            "wrist_1_joint": -1.548550951253194,
            "wrist_2_joint": -1.5709469090946802,
            "wrist_3_joint": 0.4420197732051276
        }
    },
    "waypoints": [
        {
            "positions": [
                2.6996025300909787,
                -1.2443395971678275,
                -1.919618573717145,
                -1.548550951253194,
                -1.5709469090946802,
                0.4420197732051276
            ]
        },
        {
            "positions": [
                2.5585655967664716,
                -1.2734517875535338,
                -1.80835691224545,
                -1.4801697637412652,
                -1.5560195302448065,
                0.41870053777661503
            ]
        },
        {
            "positions": [
                2.417528663441964,
                -1.3025639779392404,
                -1.697095250773755,
                -1.4117885762293363,
                -1.5410921513949332,
                0.3953813023481025
            ]
        },
        {
            "positions": [
                2.2764917301174568,
                -1.3316761683249467,
                -1.5858335893020596,
                -1.3434073887174074,
                -1.5261647725450596,
                0.37206206691958993
            ]
        },
        {
            "positions": [
                2.1354547967929496,
                -1.3607883587106533,
                -1.4745719278303646,
                -1.2750262012054785,
                -1.5112373936951862,
                0.3487428314910774
            ]
        },
        {
            "positions": [
                1.9944178634684422,
                -1.3899005490963596,
                -1.3633102663586696,
                -1.2066450136935496,
                -1.4963100148453126,
                0.32542359606256477
            ]
        },
        {
            "positions": [
                1.8533809301439348,
                -1.419012739482066,
                -1.2520486048869746,
                -1.1382638261816207,
                -1.481382635995439,
                0.3021043606340522
            ]
        },
        {
            "positions": [
                1.7123439968194276,
                -1.4481249298677725,
                -1.1407869434152795,
                -1.069882638669692,
                -1.4664552571455656,
                0.27878512520553966
            ]
        },
        {
            "positions": [
                1.5713070634949202,
                -1.4772371202534789,
                -1.0295252819435845,
                -1.001501451157763,
                -1.451527878295692,
                0.2554658897770271
            ]
        },
        {
            "positions": [
                1.430270130170413,
                -1.5063493106391852,
                -0.9182636204718893,
                -0.9331202636458341,
                -1.4366004994458186,
                0.23214665434851459
            ]
        },
        {
            "positions": [
                1.2892331968459056,
                -1.5354615010248918,
                -0.8070019590001942,
                -0.8647390761339052,
                -1.421673120595945,
                0.208827418920002
            ]
        },
        {
            "positions": [
                1.1481962635213983,
                -1.5645736914105983,
                -0.695740297528499,
                -0.7963578886219763,
                -1.4067457417460714,
                0.18550818349148945
            ]
        },
        {
            "positions": [
                1.007159330196891,
                -1.5936858817963047,
                -0.5844786360568042,
                -0.7279767011100475,
                -1.391818362896198,
                0.1621889480629769
            ]
        },
        {
            "positions": [
                0.8661223968723837,
                -1.622798072182011,
                -0.4732169745851089,
                -0.6595955135981185,
                -1.3768909840463244,
                0.1388697126344643
            ]
        },
        {
            "positions": [
                0.7250854635478765,
                -1.6519102625677173,
                -0.3619553131134139,
                -0.5912143260861897,
                -1.361963605196451,
                0.1155504772059518
            ]
        },
        {
            "positions": [
                0.5840485302233689,
                -1.681022452953424,
                -0.25069365164171886,
                -0.5228331385742608,
                -1.3470362263465774,
                0.09223124177743919
            ]
        },
        {
            "positions": [
                0.4430115968988617,
                -1.7101346433391302,
                -0.13943199017002383,
                -0.45445195106233194,
                -1.3321088474967038,
                0.06891200634892669
            ]
        },
        {
            "positions": [
                0.30197466357435454,
                -1.7392468337248368,
                -0.028170328698328584,
                -0.38607076355040304,
                -1.3171814686468304,
                0.04559277092041408
            ]
        },
        {
            "positions": [
                0.16093773024984737,
                -1.7683590241105431,
                0.08309133277336644,
                -0.31768957603847414,
                -1.3022540897969568,
                0.022273535491901586
            ]
        },
        {
            "positions": [
                0.019900796925339748,
                -1.7974712144962495,
                0.19435299424506147,
                -0.24930838852654524,
                -1.2873267109470832,
                -0.001045699936611022
            ]
        },
        {
            "positions": [
                -0.12113613639916743,
                -1.8265834048819558,
                0.3056146557167565,
                -0.18092720101461635,
                -1.2723993320972098,
                -0.024364935365123574
            ]
        },
        {
            "positions": [
                -0.26217306972367505,
                -1.8556955952676626,
                0.416876317188452,
                -0.11254601350268723,
                -1.2574719532473362,
                -0.04768417079363618
            ]
        },
        {
            "positions": [
                -0.4032100030481822,
                -1.884807785653369,
                0.528137978660147,
                -0.04416482599075855,
                -1.2425445743974626,
                -0.07100340622214868
            ]
        },
        {
            "positions": [
                -0.5442469363726894,
                -1.9139199760390753,
                0.6393996401318416,
                0.02421636152117035,
                -1.2276171955475892,
                -0.09432264165066123
            ]
        },
        {
            "positions": [
                -0.6852838696971966,
                -1.9430321664247816,
                0.7506613016035366,
                0.09259754903309902,
                -1.2126898166977158,
                -0.11764187707917378
            ]
        },
        {
            "positions": [
                -0.8263208030217042,
                -1.9721443568104882,
                0.8619229630752321,
                0.16097873654502814,
                -1.1977624378478422,
                -0.14096111250768645
            ]
        },
        {
            "positions": [
                -0.9673577363462114,
                -2.0012565471961947,
                0.9731846245469271,
                0.22935992405695704,
                -1.1828350589979686,
                -0.164280347936199
            ]
        },
        {
            "positions": [
                -1.1083946696707185,
                -2.030368737581901,
                1.0844462860186221,
                0.2977411115688857,
                -1.1679076801480952,
                -0.18759958336471144
            ]
        },
        {
            "positions": [
                -1.2494316029952257,
                -2.0594809279676074,
                1.1957079474903172,
                0.3661222990808146,
                -1.1529803012982216,
                -0.210918818793224
            ]
        },
        {
            "positions": [
                -1.3904685363197338,
                -2.0885931183533137,
                1.3069696089620122,
                0.43450348659274374,
                -1.138052922448348,
                -0.23423805422173666
            ]
        },
        {
            "positions": [
                -1.531505469644241,
                -2.11770530873902,
                1.4182312704337072,
                0.5028846741046724,
                -1.1231255435984746,
                -0.2575572896502492
            ]
        },
        {
            "positions": [
                -1.6725424029687481,
                -2.146817499124727,
                1.5294929319054023,
                0.5712658616166015,
                -1.108198164748601,
                -0.28087652507876165
            ]
        },
        {
            "positions": [
                -1.8135793362932553,
                -2.175929689510433,
                1.6407545933770973,
                0.6396470491285302,
                -1.0932707858987276,
                -0.3041957605072742
            ]
        },
        {
            "positions": [
                -1.9546162696177625,
                -2.2050418798961395,
                1.7520162548487928,
                0.7080282366404593,
                -1.078343407048854,
                -0.32751499593578687
            ]
        },
        {
            "positions": [
                -2.0956532029422696,
                -2.234154070281846,
                1.8632779163204878,
                0.776409424152388,
                -1.0634160281989806,
                -0.3508342313642994
            ]
        },
        {
            "positions": [
                -2.236690136266777,
                -2.263266260667552,
                1.9745395777921824,
                0.8447906116643167,
                -1.048488649349107,
                -0.374153466792812
            ]
        },
        {
            "positions": [
                -2.377727069591284,
                -2.292378451053259,
                2.085801239263878,
                0.9131717991762458,
                -1.0335612704992334,
                -0.3974727022213244
            ]
        },
        {
            "positions": [
                -2.518764002915792,
                -2.3214906414389653,
                2.197062900735573,
                0.9815529866881749,
                -1.01863389164936,
                -0.4207919376498371
            ]
        },
        {
            "positions": [
                -2.6598009362402992,
                -2.3506028318246717,
                2.308324562207268,
                1.0499341742001034,
                -1.0037065127994864,
                -0.4441111730783496
            ]
        },
        {
            "positions": [
                -2.5604139823555183,
                -2.3070380212141535,
                2.2957671373291473,
                0.9868981670702717,
                -0.9631380600344637,
                -0.319818448514706
            ]
        },
        {
            "positions": [
                -2.461027028470737,
                -2.2634732106036353,
                2.283209712451027,
                0.9238621599404399,
                -0.9225696072694409,
                -0.19552572395106232
            ]
        },
        {
            "positions": [
                -2.361640074585956,
                -2.219908399993117,
                2.270652287572906,
                0.860826152810608,
                -0.8820011545044182,
                -0.07123299938741873
            ]
        },
        {
            "positions": [
                -2.262253120701175,
                -2.176343589382599,
                2.2580948626947857,
                0.7977901456807763,
                -0.8414327017393954,
                0.053059725176224926
            ]
        },
        {
            "positions": [
                -2.1628661668163938,
                -2.1327787787720807,
                2.245537437816665,
                0.7347541385509445,
                -0.8008642489743727,
                0.17735244973986863
            ]
        },
        {
            "positions": [
                -2.063479212931613,
                -2.0892139681615625,
                2.2329800129385444,
                0.6717181314211128,
                -0.76029579620935,
                0.3016451743035121
            ]
        },
        {
            "positions": [
                -1.964092259046832,
                -2.0456491575510443,
                2.2204225880604236,
                0.608682124291281,
                -0.7197273434443272,
                0.42593789886715583
            ]
        },
        {
            "positions": [
                -1.8647053051620508,
                -2.002084346940526,
                2.207865163182303,
                0.5456461171614493,
                -0.6791588906793045,
                0.5502306234307994
            ]
        },
        {
            "positions": [
                -1.7653183512772697,
                -1.958519536330008,
                2.1953077383041824,
                0.48261011003161736,
                -0.6385904379142816,
                0.6745233479944432
            ]
        },
        {
            "positions": [
                -1.6659313973924887,
                -1.9149547257194899,
                2.182750313426062,
                0.41957410290178565,
                -0.5980219851492589,
                0.7988160725580868
            ]
        },
        {
            "positions": [
                -1.5665444435077076,
                -1.8713899151089717,
                2.170192888547941,
                0.35653809577195394,
                -0.5574535323842362,
                0.9231087971217302
            ]
        },
        {
            "positions": [
                -1.4671574896229267,
                -1.8278251044984537,
                2.1576354636698207,
                0.29350208864212224,
                -0.5168850796192135,
                1.0474015216853738
            ]
        },
        {
            "positions": [
                -1.3677705357381453,
                -1.7842602938879355,
                2.1450780387917,
                0.2304660815122903,
                -0.47631662685419063,
                1.1716942462490176
            ]
        },
        {
            "positions": [
                -1.2683835818533644,
                -1.7406954832774173,
                2.1325206139135795,
                0.1674300743824586,
                -0.4357481740891679,
                1.2959869708126612
            ]
        },
        {
            "positions": [
                -1.1689966279685835,
                -1.697130672666899,
                2.1199631890354587,
                0.1043940672526269,
                -0.39517972132414514,
                1.4202796953763048
            ]
        },
        {
            "positions": [
                -1.0696096740838024,
                -1.653565862056381,
                2.1074057641573383,
                0.04135806012279519,
                -0.3546112685591224,
                1.5445724199399484
            ]
        },
        {
            "positions": [
                -0.9702227201990214,
                -1.6100010514458627,
                2.0948483392792174,
                -0.021677947007036513,
                -0.31404281579409965,
                1.6688651445035918
            ]
        },
        {
            "positions": [
                -0.8708357663142401,
                -1.5664362408353445,
                2.082290914401097,
                -0.08471395413686866,
                -0.2734743630290768,
                1.793157869067236
            ]
        },
        {
            "positions": [
                -0.771448812429459,
                -1.5228714302248263,
                2.069733489522976,
                -0.14774996126670037,
                -0.23290591026405405,
                1.9174505936308794
            ]
        },
        {
            "positions": [
                -0.672061858544678,
                -1.479306619614308,
                2.057176064644856,
                -0.21078596839653208,
                -0.1923374574990313,
                2.0417433181945235
            ]
        },
        {
            "positions": [
                -0.5726749046598969,
                -1.43574180900379,
                2.044618639766735,
                -0.2738219755263638,
                -0.15176900473400856,
                2.166036042758167
            ]
        },
        {
            "positions": [
                -0.473287950775116,
                -1.3921769983932717,
                2.0320612148886146,
                -0.3368579826561955,
                -0.11120055196898593,
                2.2903287673218102
            ]
        },
        {
            "positions": [
                -0.37390099689033507,
                -1.3486121877827537,
                2.0195037900104937,
                -0.3998939897860272,
                -0.07063209920396318,
                2.4146214918854536
            ]
        },
        {
            "positions": [
                -0.27451404300555415,
                -1.3050473771722355,
                2.0069463651323733,
                -0.4629299969158589,
                -0.03006364643894044,
                2.538914216449097
            ]
        },
        {
            "positions": [
                -0.1751270891207728,
                -1.261482566561717,
                1.9943889402542525,
                -0.525966004045691,
                0.010504806326082416,
                2.6632069410127412
            ]
        },
        {
            "positions": [
                -0.07574013523599143,
                -1.217917755951199,
                1.981831515376132,
                -0.5890020111755228,
                0.05107325909110516,
                2.7874996655763846
            ]
        },
        {
            "positions": [
                0.02364681864878948,
                -1.174352945340681,
                1.9692740904980113,
                -0.6520380183053545,
                0.0916417118561279,
                2.911792390140029
            ]
        },
        {
            "positions": [
                0.12303377253357037,
                -1.1307881347301627,
                1.9567166656198907,
                -0.7150740254351863,
                0.13221016462115057,
                3.0360851147036723
            ]
        }
    ]
}{
    "goal": {
        "global_pose": {
            "orientation": {
                "w": 0.7047431468963623,
                "x": -0.7094548344612122,
                "y": 0.0024358443915843964,
                "z": -0.0022348060738295317
            },
            "position": {
                "x": 0.6094750761985779,
                "y": 0.3671506643295288,
                "z": 0.19426114857196808
            }
        },
        "name": "move_to_magneteinheit_A"
    },
    "id": "PRM_move_to_magneteinheit_A_113",
    "joint_names": [
        "shoulder_pan_joint",
        "shoulder_lift_joint",
        "elbow_joint",
        "wrist_1_joint",
        "wrist_2_joint",
        "wrist_3_joint"
    ],
    "metrics": {
        "cart_traj_len": 2.028639936845864,
        "distance_elbow_joint": 1.3024740592620805,
        "distance_shoulder_lift_joint": 0.7656832234914162,
        "distance_shoulder_pan_joint": 1.9377060131249402,
        "distance_wrist_1_joint": 0.8655650530987515,
        "distance_wrist_2_joint": 1.4474654827883249,
        "distance_wrist_3_joint": 4.362625082049454,
        "smoothness": 0.2543656246358809,
        "time": 0.092114286,
        "traj_len": 3.2682593094512815,
        "weighted_distance": 4.660450580555592
    },
    "planner": "PRM",
    "start": {
        "state": {
            "elbow_joint": 1.919643534880228,
            "shoulder_lift_joint": -1.8972525353963687,
            "shoulder_pan_joint": -1.1188672234189438,
            "wrist_1_joint": -1.5931878212786155,
            "wrist_2_joint": 1.5706036197970081,
            "wrist_3_joint": 1.118896926603594
        }
    },
    "waypoints": [
        {
            "positions": [
                -1.1188672234189438,
                -1.8972525353963687,
                1.919643534880228,
                -1.5931878212786155,
                1.5706036197970081,
                1.118896926603594
            ]
        },
        {
            "positions": [
                -1.1686148554362286,
                -1.8926166539397014,
                1.8292964165273837,
                -1.5594365928510425,
                1.514978548238817,
                1.0064888035605948
            ]
        },
        {
            "positions": [
                -1.2183624874535133,
                -1.8879807724830338,
                1.7389492981745394,
                -1.5256853644234696,
                1.4593534766806258,
                0.8940806805175956
            ]
        },
        {
            "positions": [
                -1.268110119470798,
                -1.8833448910263664,
                1.6486021798216952,
                -1.4919341359958966,
                1.4037284051224346,
                0.7816725574745964
            ]
        },
        {
            "positions": [
                -1.3178577514880827,
                -1.8787090095696988,
                1.5582550614688508,
                -1.4581829075683235,
                1.3481033335642434,
                0.6692644344315971
            ]
        },
        {
            "positions": [
                -1.3676053835053674,
                -1.8740731281130314,
                1.4679079431160065,
                -1.4244316791407505,
                1.2924782620060522,
                0.5568563113885978
            ]
        },
        {
            "positions": [
                -1.4173530155226521,
                -1.8694372466563638,
                1.377560824763162,
                -1.3906804507131776,
                1.236853190447861,
                0.44444818834559874
            ]
        },
        {
            "positions": [
                -1.4671006475399369,
                -1.8648013651996964,
                1.2872137064103177,
                -1.3569292222856046,
                1.1812281188896698,
                0.33204006530259944
            ]
        },
        {
            "positions": [
                -1.391411476634987,
                -1.829885553138042,
                1.3191205745432781,
                -1.3269622482805694,
                1.1308428816572418,
                0.16176538812410138
            ]
        },
        {
            "positions": [
                -1.3157223057300371,
                -1.7949697410763874,
                1.3510274426762388,
                -1.2969952742755342,
                1.080457644424814,
                -0.008509289054396685
            ]
        },
        {
            "positions": [
                -1.2400331348250873,
                -1.760053929014733,
                1.3829343108091992,
                -1.2670283002704987,
                1.030072407192386,
                -0.17878396623289472
            ]
        },
        {
            "positions": [
                -1.1643439639201374,
                -1.7251381169530786,
                1.4148411789421598,
                -1.2370613262654635,
                0.9796871699599581,
                -0.3490586434113928
            ]
        },
        {
            "positions": [
                -1.0886547930151875,
                -1.690222304891424,
                1.4467480470751202,
                -1.2070943522604283,
                0.92930193272753,
                -0.5193333205898909
            ]
        },
        {
            "positions": [
                -1.0129656221102379,
                -1.6553064928297696,
                1.4786549152080806,
                -1.177127378255393,
                0.8789166954951022,
                -0.6896079977683889
            ]
        },
        {
            "positions": [
                -0.9372764512052879,
                -1.6203906807681152,
                1.5105617833410412,
                -1.1471604042503578,
                0.8285314582626742,
                -0.8598826749468871
            ]
        },
        {
            "positions": [
                -0.861587280300338,
                -1.5854748687064606,
                1.5424686514740016,
                -1.1171934302453224,
                0.7781462210302462,
                -1.030157352125385
            ]
        },
        {
            "positions": [
                -0.7858981093953882,
                -1.5505590566448062,
                1.574375519606962,
                -1.0872264562402871,
                0.7277609837978183,
                -1.200432029303883
            ]
        },
        {
            "positions": [
                -0.7102089384904383,
                -1.5156432445831518,
                1.6062823877399226,
                -1.057259482235252,
                0.6773757465653903,
                -1.3707067064823812
            ]
        },
        {
            "positions": [
                -0.6345197675854884,
                -1.4807274325214972,
                1.638189255872883,
                -1.0272925082302167,
                0.6269905093329623,
                -1.5409813836608794
            ]
        },
        {
            "positions": [
                -0.5588305966805387,
                -1.4458116204598428,
                1.6700961240058434,
                -0.9973255342251814,
                0.5766052721005345,
                -1.7112560608393772
            ]
        },
        {
            "positions": [
                -0.4831414257755887,
                -1.4108958083981884,
                1.702002992138804,
                -0.9673585602201461,
                0.5262200348681064,
                -1.8815307380178754
            ]
        },
        {
            "positions": [
                -0.40745225487063896,
                -1.3759799963365338,
                1.7339098602717644,
                -0.9373915862151109,
                0.4758347976356785,
                -2.0518054151963736
            ]
        },
        {
            "positions": [
                -0.3317630839656891,
                -1.3410641842748794,
                1.765816728404725,
                -0.9074246122100755,
                0.42544956040325055,
                -2.222080092374872
            ]
        },
        {
            "positions": [
                -0.25607391306073923,
                -1.306148372213225,
                1.7977235965376854,
                -0.8774576382050403,
                0.3750643231708226,
                -2.3923547695533696
            ]
        },
        {
            "positions": [
                -0.18038474215578937,
                -1.2712325601515704,
                1.8296304646706458,
                -0.847490664200005,
                0.32467908593839456,
                -2.5626294467318678
            ]
        },
        {
            "positions": [
                -0.1046955712508395,
                -1.236316748089916,
                1.8615373328036062,
                -0.8175236901949697,
                0.27429384870596674,
                -2.7329041239103655
            ]
        },
        {
            "positions": [
                -0.029006400345889638,
                -1.2014009360282616,
                1.893444200936567,
                -0.7875567161899345,
                0.2239086114735387,
                -2.903178801088864
            ]
        },
        {
            "positions": [
                0.04668277055906023,
                -1.166485123966607,
                1.9253510690695275,
                -0.7575897421848993,
                0.17352337424111086,
                -3.073453478267362
            ]
        },
        {
            "positions": [
                0.12237194146401015,
                -1.1315693119049526,
                1.9572579372024879,
                -0.7276227681798639,
                0.12313813700868287,
                -3.24372815544586
            ]
        }
    ]
}