{
    "goal": {
        "global_pose": {
            "orientation": {
                "w": 0.5084816217422485,
                "x": -0.49083608388900757,
                "y": 0.5182115435600281,
                "z": -0.4816462993621826
            },
            "position": {
                "x": 0.5540239810943604,
                "y": 0.030875300988554955,
                "z": 0.16403168439865112
            }
        },
        "name": "move_to_storage_A"
    },
    "id": "PRM_move_to_storage_A_86",
    "joint_names": [
        "shoulder_pan_joint",
        "shoulder_lift_joint",
        "elbow_joint",
        "wrist_1_joint",
        "wrist_2_joint",
        "wrist_3_joint"
    ],
    "metrics": {
        "cart_traj_len": 0.35354788349324523,
        "distance_elbow_joint": 0.4494730237797784,
        "distance_shoulder_lift_joint": 0.23412410273204975,
        "distance_shoulder_pan_joint": 0.4614690103770926,
        "distance_wrist_1_joint": 0.24642153721439553,
        "distance_wrist_2_joint": 1.1026291331185067,
        "distance_wrist_3_joint": 0.10093147868982433,
        "smoothness": 0.0,
        "time": 0.042642089,
        "traj_len": 1.6109153565323187,
        "weighted_distance": 2.036163528212849
    },
    "planner": "PRM",
    "start": {
        "state": {
            "elbow_joint": 1.9715477243005601,
            "shoulder_lift_joint": -1.1394853015351272,
            "shoulder_pan_joint": 0.12281154014795169,
            "wrist_1_joint": -0.7804696478968182,
            "wrist_2_joint": 0.12958648046900423,
            "wrist_3_joint": -3.192491284697111
        }
    },
    "waypoints": [
        {
            "positions": [
                0.12281154014795169,
                -1.1394853015351272,
                1.9715477243005601,
                -0.7804696478968182,
                0.12958648046900423,
                -3.192491284697111
            ]
        },
        {
            "positions": [
                0.05688739580836703,
                -1.17293160192542,
                2.0357581562691,
                -0.8156727246417318,
                0.2871049280573623,
                -3.178072502027136
            ]
        },
        {
            "positions": [
                -0.009036748531217623,
                -1.2063779023157128,
                2.0999685882376395,
                -0.8508758013866454,
                0.4446233756457204,
                -3.1636537193571614
            ]
        },
        {
            "positions": [
                -0.07496089287080228,
                -1.2398242027060056,
                2.1641790202061792,
                -0.8860788781315591,
                0.6021418232340785,
                -3.1492349366871863
            ]
        },
        {
            "positions": [
                -0.14088503721038692,
                -1.2732705030962985,
                2.228389452174719,
                -0.9212819548764728,
                0.7596602708224366,
                -3.1348161540172117
            ]
        },
        {
            "positions": [
                -0.20680918154997158,
                -1.3067168034865912,
                2.292599884143259,
                -0.9564850316213864,
                0.9171787184107948,
                -3.1203973713472366
            ]
        },
        {
            "positions": [
                -0.27273332588955623,
                -1.340163103876884,
                2.356810316111799,
                -0.9916881083663001,
                1.0746971659991527,
                -3.105978588677262
            ]
        },
        {
            "positions": [
                -0.3386574702291409,
                -1.373609404267177,
                2.4210207480803385,
                -1.0268911851112137,
                1.2322156135875109,
                -3.091559806007287
            ]
        }
    ]
}