{
    "goal": {
        "global_pose": {
            "orientation": {
                "w": 0.7047431468963623,
                "x": -0.7094548344612122,
                "y": 0.0024358443915843964,
                "z": -0.0022348060738295317
            },
            "position": {
                "x": 0.6094750761985779,
                "y": 0.3671506643295288,
                "z": 0.19426114857196808
            }
        },
        "name": "move_to_magneteinheit_A"
    },
    "id": "PRM_move_to_magneteinheit_A_134",
    "joint_names": [
        "shoulder_pan_joint",
        "shoulder_lift_joint",
        "elbow_joint",
        "wrist_1_joint",
        "wrist_2_joint",
        "wrist_3_joint"
    ],
    "metrics": {
        "cart_traj_len": 3.376202819147074,
        "distance_elbow_joint": 3.9097255307178536,
        "distance_shoulder_lift_joint": 0.9299332992300043,
        "distance_shoulder_pan_joint": 2.7394490975636083,
        "distance_wrist_1_joint": 3.4547226625717897,
        "distance_wrist_2_joint": 2.865369074761989,
        "distance_wrist_3_joint": 2.720670295739645,
        "smoothness": 0.21427729107516064,
        "time": 0.16983072500000002,
        "traj_len": 4.076747473241983,
        "weighted_distance": 5.3274104675158975
    },
    "planner": "PRM",
    "start": {
        "state": {
            "elbow_joint": -1.919618573717145,
            "shoulder_lift_joint": -1.2443395971678275,
            "shoulder_pan_joint": 2.6996025300909787,
            "wrist_1_joint": -1.548550951253194,
            "wrist_2_joint": -1.5709469090946802,
            "wrist_3_joint": 0.4420197732051276
        }
    },
    "waypoints": [
        {
            "positions": [
                2.6996025300909787,
                -1.2443395971678275,
                -1.919618573717145,
                -1.548550951253194,
                -1.5709469090946802,
                0.4420197732051276
            ]
        },
        {
            "positions": [
                2.5759160252732203,
                -1.2075554805510151,
                -1.9137726971982967,
                -1.5110162213717615,
                -1.4575427854191734,
                0.5026657516719335
            ]
        },
        {
            "positions": [
                2.4522295204554623,
                -1.1707713639342026,
                -1.9079268206794482,
                -1.4734814914903287,
                -1.3441386617436664,
                0.5633117301387395
            ]
        },
        {
            "positions": [
                2.328543015637704,
                -1.1339872473173902,
                -1.9020809441606,
                -1.4359467616088961,
                -1.2307345380681594,
                0.6239577086055453
            ]
        },
        {
            "positions": [
                2.204856510819946,
                -1.0972031307005776,
                -1.8962350676417516,
                -1.3984120317274633,
                -1.1173304143926526,
                0.6846036870723513
            ]
        },
        {
            "positions": [
                2.0811700060021874,
                -1.0604190140837653,
                -1.8903891911229032,
                -1.3608773018460307,
                -1.0039262907171458,
                0.7452496655391572
            ]
        },
        {
            "positions": [
                1.9574835011844292,
                -1.0236348974669527,
                -1.8845433146040549,
                -1.3233425719645981,
                -0.8905221670416388,
                0.8058956440059631
            ]
        },
        {
            "positions": [
                1.833796996366671,
                -0.9868507808501403,
                -1.8786974380852066,
                -1.2858078420831653,
                -0.7771180433661319,
                0.8665416224727691
            ]
        },
        {
            "positions": [
                1.7101104915489127,
                -0.950066664233328,
                -1.8728515615663581,
                -1.2482731122017328,
                -0.663713919690625,
                0.927187600939575
            ]
        },
        {
            "positions": [
                1.5864239867311545,
                -0.9132825476165154,
                -1.8670056850475099,
                -1.2107383823203,
                -0.5503097960151182,
                0.9878335794063808
            ]
        },
        {
            "positions": [
                1.4627374819133963,
                -0.876498430999703,
                -1.8611598085286616,
                -1.1732036524388674,
                -0.4369056723396112,
                1.048479557873187
            ]
        },
        {
            "positions": [
                1.3390509770956378,
                -0.8397143143828905,
                -1.855313932009813,
                -1.1356689225574346,
                -0.3235015486641042,
                1.1091255363399928
            ]
        },
        {
            "positions": [
                1.2153644722778796,
                -0.8029301977660781,
                -1.8494680554909648,
                -1.098134192676002,
                -0.2100974249885974,
                1.1697715148067986
            ]
        },
        {
            "positions": [
                1.0916779674601214,
                -0.7661460811492656,
                -1.8436221789721166,
                -1.0605994627945692,
                -0.0966933013130904,
                1.2304174932736047
            ]
        },
        {
            "positions": [
                0.9679914626423631,
                -0.7293619645324532,
                -1.8377763024532683,
                -1.0230647329131366,
                0.01671082236241639,
                1.2910634717404106
            ]
        },
        {
            "positions": [
                0.8443049578246049,
                -0.6925778479156407,
                -1.8319304259344198,
                -0.9855300030317039,
                0.1301149460379234,
                1.3517094502072167
            ]
        },
        {
            "positions": [
                0.7206184530068467,
                -0.6557937312988283,
                -1.8260845494155715,
                -0.9479952731502713,
                0.24351906971343018,
                1.4123554286740225
            ]
        },
        {
            "positions": [
                0.5969319481890882,
                -0.6190096146820159,
                -1.8202386728967233,
                -0.9104605432688386,
                0.3569231933889372,
                1.4730014071408284
            ]
        },
        {
            "positions": [
                0.47324544337133023,
                -0.5822254980652034,
                -1.8143927963778748,
                -0.8729258133874059,
                0.47032731706444375,
                1.5336473856076343
            ]
        },
        {
            "positions": [
                0.34955893855357173,
                -0.5454413814483909,
                -1.8085469198590265,
                -0.8353910835059732,
                0.5837314407399508,
                1.5942933640744403
            ]
        },
        {
            "positions": [
                0.3348664068849816,
                -0.5538753602163872,
                -1.645815475056474,
                -0.7163727489202366,
                0.5578893117509276,
                1.5293436398099132
            ]
        },
        {
            "positions": [
                0.3201738752163915,
                -0.5623093389843834,
                -1.4830840302539217,
                -0.5973544143345,
                0.5320471827619044,
                1.464393915545386
            ]
        },
        {
            "positions": [
                0.3054813435478014,
                -0.5707433177523797,
                -1.3203525854513691,
                -0.47833607974876324,
                0.5062050537728814,
                1.3994441912808588
            ]
        },
        {
            "positions": [
                0.2907888118792113,
                -0.579177296520376,
                -1.1576211406488168,
                -0.3593177451630266,
                0.4803629247838582,
                1.3344944670163317
            ]
        },
        {
            "positions": [
                0.27609628021062116,
                -0.5876112752883722,
                -0.9948896958462642,
                -0.24029941057728998,
                0.45452079579483506,
                1.2695447427518043
            ]
        },
        {
            "positions": [
                0.261403748542031,
                -0.5960452540563684,
                -0.8321582510437118,
                -0.12128107599155324,
                0.4286786668058119,
                1.2045950184872771
            ]
        },
        {
            "positions": [
                0.24671121687344094,
                -0.6044792328243648,
                -0.6694268062411592,
                -0.002262741405816615,
                0.4028365378167888,
                1.13964529422275
            ]
        },
        {
            "positions": [
                0.2320186852048508,
                -0.612913211592361,
                -0.5066953614386069,
                0.11675559317992001,
                0.3769944088277657,
                1.0746955699582228
            ]
        },
        {
            "positions": [
                0.2173261535362607,
                -0.6213471903603572,
                -0.3439639166360544,
                0.23577392776565675,
                0.35115227983874253,
                1.0097458456936956
            ]
        },
        {
            "positions": [
                0.2026336218676706,
                -0.6297811691283535,
                -0.18123247183350188,
                0.3547922623513933,
                0.32531015084971937,
                0.9447961214291684
            ]
        },
        {
            "positions": [
                0.18794109019908045,
                -0.6382151478963498,
                -0.018501027030949357,
                0.47381059693713024,
                0.2994680218606962,
                0.8798463971646412
            ]
        },
        {
            "positions": [
                0.17324855853049034,
                -0.646649126664346,
                0.14423041777160295,
                0.5928289315228668,
                0.2736258928716731,
                0.814896672900114
            ]
        },
        {
            "positions": [
                0.15855602686190023,
                -0.6550831054323423,
                0.3069618625741555,
                0.7118472661086035,
                0.24778376388264994,
                0.7499469486355868
            ]
        },
        {
            "positions": [
                0.14386349519331013,
                -0.6635170842003385,
                0.469693307376708,
                0.83086560069434,
                0.22194163489362684,
                0.6849972243710596
            ]
        },
        {
            "positions": [
                0.12917096352472,
                -0.6719510629683347,
                0.6324247521792605,
                0.9498839352800768,
                0.19609950590460368,
                0.6200475001065324
            ]
        },
        {
            "positions": [
                0.11447843185612991,
                -0.6803850417363311,
                0.7951561969818126,
                1.0689022698658133,
                0.17025737691558057,
                0.5550977758420053
            ]
        },
        {
            "positions": [
                0.09978590018753977,
                -0.6888190205043273,
                0.9578876417843656,
                1.1879206044515502,
                0.14441524792655736,
                0.4901480515774781
            ]
        },
        {
            "positions": [
                0.08509336851894966,
                -0.6972529992723235,
                1.1206190865869177,
                1.3069389390372868,
                0.11857311893753425,
                0.42519832731295093
            ]
        },
        {
            "positions": [
                0.07040083685035953,
                -0.7056869780403199,
                1.2833505313894702,
                1.4259572736230233,
                0.09273098994851109,
                0.36024860304842354
            ]
        },
        {
            "positions": [
                0.055708305181769446,
                -0.7141209568083161,
                1.4460819761920227,
                1.5449756082087598,
                0.06688886095948798,
                0.2952988787838964
            ]
        },
        {
            "positions": [
                0.041015773513179296,
                -0.7225549355763123,
                1.6088134209945755,
                1.6639939427944967,
                0.04104673197046477,
                0.23034915451936916
            ]
        },
        {
            "positions": [
                0.06796988717511526,
                -0.7405287787038611,
                1.7359112663299532,
                1.7447198656358631,
                -0.01495527341549334,
                0.16219832274761523
            ]
        },
        {
            "positions": [
                0.09492400083705123,
                -0.7585026218314099,
                1.8630091116653311,
                1.8254457884772297,
                -0.07095727880145145,
                0.09404749097586129
            ]
        },
        {
            "positions": [
                0.1218781144989872,
                -0.7764764649589587,
                1.9901069570007088,
                1.906171711318596,
                -0.12695928418740957,
                0.02589665920410735
            ]
        }
    ]
}{
    "goal": {
        "global_pose": {
            "orientation": {
                "w": 0.7047431468963623,
                "x": -0.7094548344612122,
                "y": 0.0024358443915843964,
                "z": -0.0022348060738295317
            },
            "position": {
                "x": 0.6094750761985779,
                "y": 0.3671506643295288,
                "z": 0.19426114857196808
            }
        },
        "name": "move_to_magneteinheit_A"
    },
    "id": "PRM_move_to_magneteinheit_A_134",
    "joint_names": [
        "shoulder_pan_joint",
        "shoulder_lift_joint",
        "elbow_joint",
        "wrist_1_joint",
        "wrist_2_joint",
        "wrist_3_joint"
    ],
    "metrics": {
        "cart_traj_len": 1.2027125373215257,
        "distance_elbow_joint": 0.10890150963839051,
        "distance_shoulder_lift_joint": 0.7642383008443789,
        "distance_shoulder_pan_joint": 1.2428609102671608,
        "distance_wrist_1_joint": 3.3002124979847234,
        "distance_wrist_2_joint": 2.0871757180608608,
        "distance_wrist_3_joint": 4.363795110174323,
        "smoothness": 0.37856105195490225,
        "time": 0.20968383499999999,
        "traj_len": 3.444877943696966,
        "weighted_distance": 5.097270101079995
    },
    "planner": "PRM",
    "start": {
        "state": {
            "elbow_joint": 1.919643534880228,
            "shoulder_lift_joint": -1.8972525353963687,
            "shoulder_pan_joint": -1.1188672234189438,
            "wrist_1_joint": -1.5931878212786155,
            "wrist_2_joint": 1.5706036197970081,
            "wrist_3_joint": 1.118896926603594
        }
    },
    "waypoints": [
        {
            "positions": [
                -1.1188672234189438,
                -1.8972525353963687,
                1.919643534880228,
                -1.5931878212786155,
                1.5706036197970081,
                1.118896926603594
            ]
        },
        {
            "positions": [
                -1.0901856605380689,
                -1.8744217819281894,
                1.923036254843996,
                -1.4984103416756,
                1.4906584690992133,
                0.9608030271276227
            ]
        },
        {
            "positions": [
                -1.0615040976571941,
                -1.85159102846001,
                1.926428974807764,
                -1.4036328620725844,
                1.4107133184014184,
                0.8027091276516513
            ]
        },
        {
            "positions": [
                -1.0328225347763191,
                -1.8287602749918306,
                1.929821694771532,
                -1.308855382469569,
                1.3307681677036236,
                0.6446152281756798
            ]
        },
        {
            "positions": [
                -1.0041409718954442,
                -1.805929521523651,
                1.9332144147353,
                -1.2140779028665534,
                1.2508230170058288,
                0.48652132869970854
            ]
        },
        {
            "positions": [
                -0.9754594090145693,
                -1.7830987680554717,
                1.936607134699068,
                -1.119300423263538,
                1.1708778663080341,
                0.32842742922373724
            ]
        },
        {
            "positions": [
                -0.9467778461336944,
                -1.7602680145872924,
                1.939999854662836,
                -1.0245229436605223,
                1.0909327156102393,
                0.17033352974776583
            ]
        },
        {
            "positions": [
                -0.9180962832528194,
                -1.737437261119113,
                1.943392574626604,
                -0.9297454640575069,
                1.0109875649124445,
                0.012239630271794422
            ]
        },
        {
            "positions": [
                -0.8894147203719445,
                -1.7146065076509336,
                1.946785294590372,
                -0.8349679844544914,
                0.9310424142146495,
                -0.14585426920417688
            ]
        },
        {
            "positions": [
                -0.8607331574910696,
                -1.691775754182754,
                1.95017801455414,
                -0.7401905048514758,
                0.8510972635168547,
                -0.3039481686801484
            ]
        },
        {
            "positions": [
                -0.8320515946101947,
                -1.6689450007145747,
                1.953570734517908,
                -0.6454130252484603,
                0.7711521128190599,
                -0.4620420681561195
            ]
        },
        {
            "positions": [
                -0.8033700317293198,
                -1.6461142472463952,
                1.9569634544816763,
                -0.5506355456454448,
                0.6912069621212651,
                -0.620135967632091
            ]
        },
        {
            "positions": [
                -0.7746884688484449,
                -1.623283493778216,
                1.9603561744454443,
                -0.4558580660424294,
                0.6112618114234704,
                -0.7782298671080623
            ]
        },
        {
            "positions": [
                -0.7460069059675699,
                -1.6004527403100366,
                1.9637488944092123,
                -0.36108058643941376,
                0.5313166607256754,
                -0.936323766584034
            ]
        },
        {
            "positions": [
                -0.717325343086695,
                -1.577621986841857,
                1.9671416143729803,
                -0.26630310683639835,
                0.45137151002788056,
                -1.0944176660600051
            ]
        },
        {
            "positions": [
                -0.6886437802058201,
                -1.5547912333736778,
                1.9705343343367483,
                -0.17152562723338294,
                0.37142635933008594,
                -1.2525115655359762
            ]
        },
        {
            "positions": [
                -0.6599622173249451,
                -1.5319604799054982,
                1.9739270543005163,
                -0.0767481476303673,
                0.2914812086322909,
                -1.4106054650119477
            ]
        },
        {
            "positions": [
                -0.6312806544440703,
                -1.509129726437319,
                1.9773197742642843,
                0.018029331972648333,
                0.21153605793449626,
                -1.5686993644879192
            ]
        },
        {
            "positions": [
                -0.6025990915631954,
                -1.4862989729691396,
                1.9807124942280523,
                0.11280681157566397,
                0.1315909072367012,
                -1.7267932639638908
            ]
        },
        {
            "positions": [
                -0.5739175286823204,
                -1.46346821950096,
                1.9841052141918203,
                0.20758429117867938,
                0.05164575653890657,
                -1.8848871634398618
            ]
        },
        {
            "positions": [
                -0.5452359658014455,
                -1.4406374660327808,
                1.9874979341555883,
                0.3023617707816948,
                -0.02829939415888827,
                -2.0429810629158327
            ]
        },
        {
            "positions": [
                -0.5165544029205705,
                -1.4178067125646012,
                1.9908906541193563,
                0.39713925038471043,
                -0.10824454485668311,
                -2.2010749623918047
            ]
        },
        {
            "positions": [
                -0.48787284003969567,
                -1.394975959096422,
                1.9942833740831243,
                0.49191672998772606,
                -0.18818969555447806,
                -2.359168861867776
            ]
        },
        {
            "positions": [
                -0.41988767038548314,
                -1.3658691008137072,
                1.9904765218125138,
                0.35690473590790583,
                -0.15170276192010312,
                -2.457583230945882
            ]
        },
        {
            "positions": [
                -0.3519025007312706,
                -1.3367622425309926,
                1.9866696695419033,
                0.2218927418280856,
                -0.11521582828572817,
                -2.555997600023988
            ]
        },
        {
            "positions": [
                -0.2839173310770581,
                -1.3076553842482779,
                1.9828628172712928,
                0.08688074774826537,
                -0.07872889465135322,
                -2.6544119691020938
            ]
        },
        {
            "positions": [
                -0.2159321614228455,
                -1.2785485259655631,
                1.9790559650006823,
                -0.048131246331554856,
                -0.042241961016978274,
                -2.752826338180199
            ]
        },
        {
            "positions": [
                -0.14794699176863296,
                -1.2494416676828486,
                1.975249112730072,
                -0.18314324041137509,
                -0.005755027382603278,
                -2.851240707258305
            ]
        },
        {
            "positions": [
                -0.07996182211442043,
                -1.2203348094001338,
                1.9714422604594615,
                -0.3181552344911953,
                0.030731906251771635,
                -2.949655076336411
            ]
        },
        {
            "positions": [
                -0.011976652460207848,
                -1.191227951117419,
                1.967635408188851,
                -0.45316722857101555,
                0.06721883988614663,
                -3.0480694454145167
            ]
        },
        {
            "positions": [
                0.05600851719400468,
                -1.1621210928347045,
                1.9638285559182405,
                -0.5881792226508358,
                0.10370577352052152,
                -3.1464838144926226
            ]
        },
        {
            "positions": [
                0.12399368684821718,
                -1.1330142345519898,
                1.96002170364763,
                -0.7231912167306559,
                0.14019270715489648,
                -3.2448981835707285
            ]
        }
    ]
}