{
    "goal": {
        "global_pose": {
            "orientation": {
                "w": 0.5084816217422485,
                "x": -0.49083608388900757,
                "y": 0.5182115435600281,
                "z": -0.4816462993621826
            },
            "position": {
                "x": 0.5540239810943604,
                "y": 0.030875300988554955,
                "z": 0.16403168439865112
            }
        },
        "name": "move_to_storage_A"
    },
    "id": "PRM_move_to_storage_A_125",
    "joint_names": [
        "shoulder_pan_joint",
        "shoulder_lift_joint",
        "elbow_joint",
        "wrist_1_joint",
        "wrist_2_joint",
        "wrist_3_joint"
    ],
    "metrics": {
        "cart_traj_len": 0.35329720648580215,
        "distance_elbow_joint": 0.45014666925602054,
        "distance_shoulder_lift_joint": 0.23389192085062271,
        "distance_shoulder_pan_joint": 0.46125262924215793,
        "distance_wrist_1_joint": 0.24315009908201846,
        "distance_wrist_2_joint": 1.10228705608607,
        "distance_wrist_3_joint": 0.09777697212439884,
        "smoothness": 0.0,
        "time": 0.036527830000000004,
        "traj_len": 1.6088832607250558,
        "weighted_distance": 2.0321162481654866
    },
    "planner": "PRM",
    "start": {
        "state": {
            "elbow_joint": 1.9715477243005601,
            "shoulder_lift_joint": -1.1394853015351272,
            "shoulder_pan_joint": 0.12281154014795169,
            "wrist_1_joint": -0.7804696478968182,
            "wrist_2_joint": 0.12958648046900423,
            "wrist_3_joint": -3.192491284697111
        }
    },
    "waypoints": [
        {
            "positions": [
                0.12281154014795169,
                -1.1394853015351272,
                1.9715477243005601,
                -0.7804696478968182,
                0.12958648046900423,
                -3.192491284697111
            ]
        },
        {
            "positions": [
                0.056918307399071985,
                -1.1728984330852161,
                2.0358543913371343,
                -0.8152053763371065,
                0.2870560599098714,
                -3.178523145822197
            ]
        },
        {
            "positions": [
                -0.00897492534980772,
                -1.206311564635305,
                2.100161058373709,
                -0.8499411047773948,
                0.4445256393507385,
                -3.1645550069472828
            ]
        },
        {
            "positions": [
                -0.07486815809868742,
                -1.239724696185394,
                2.164467725410283,
                -0.8846768332176832,
                0.6019952187916057,
                -3.1505868680723688
            ]
        },
        {
            "positions": [
                -0.1407613908475671,
                -1.273137827735483,
                2.2287743924468577,
                -0.9194125616579716,
                0.7594647982324728,
                -3.1366187291974548
            ]
        },
        {
            "positions": [
                -0.20665462359644682,
                -1.306550959285572,
                2.293081059483432,
                -0.9541482900982599,
                0.91693437767334,
                -3.1226505903225408
            ]
        },
        {
            "positions": [
                -0.2725478563453265,
                -1.339964090835661,
                2.357387726520006,
                -0.9888840185385482,
                1.0744039571142072,
                -3.1086824514476263
            ]
        },
        {
            "positions": [
                -0.3384410890942062,
                -1.3733772223857499,
                2.4216943935565807,
                -1.0236197469788366,
                1.2318735365550741,
                -3.0947143125727123
            ]
        }
    ]
}