{
    "goal": {
        "global_pose": {
            "orientation": {
                "w": 0.7047431468963623,
                "x": -0.7094548344612122,
                "y": 0.0024358443915843964,
                "z": -0.0022348060738295317
            },
            "position": {
                "x": 0.6094750761985779,
                "y": 0.3671506643295288,
                "z": 0.19426114857196808
            }
        },
        "name": "move_to_magneteinheit_A"
    },
    "id": "PRM_move_to_magneteinheit_A_122",
    "joint_names": [
        "shoulder_pan_joint",
        "shoulder_lift_joint",
        "elbow_joint",
        "wrist_1_joint",
        "wrist_2_joint",
        "wrist_3_joint"
    ],
    "metrics": {
        "cart_traj_len": 3.4044141797483722,
        "distance_elbow_joint": 3.941779532588061,
        "distance_shoulder_lift_joint": 0.8830492023797762,
        "distance_shoulder_pan_joint": 3.380878007023078,
        "distance_wrist_1_joint": 3.564912190281518,
        "distance_wrist_2_joint": 1.496482244504475,
        "distance_wrist_3_joint": 2.7164232749450163,
        "smoothness": 0.20994392974738424,
        "time": 0.085470768,
        "traj_len": 3.9979400260286453,
        "weighted_distance": 5.145655005574892
    },
    "planner": "PRM",
    "start": {
        "state": {
            "elbow_joint": -1.919618573717145,
            "shoulder_lift_joint": -1.2443395971678275,
            "shoulder_pan_joint": 2.6996025300909787,
            "wrist_1_joint": -1.548550951253194,
            "wrist_2_joint": -1.5709469090946802,
            "wrist_3_joint": 0.4420197732051276
        }
    },
    "waypoints": [
        {
            "positions": [
                2.6996025300909787,
                -1.2443395971678275,
                -1.919618573717145,
                -1.548550951253194,
                -1.5709469090946802,
                0.4420197732051276
            ]
        },
        {
            "positions": [
                2.5968818774333684,
                -1.2212727144311768,
                -1.8685787974170083,
                -1.4411658644696677,
                -1.5202937766636682,
                0.38586236219076336
            ]
        },
        {
            "positions": [
                2.4941612247757585,
                -1.1982058316945263,
                -1.8175390211168716,
                -1.3337807776861412,
                -1.4696406442326562,
                0.32970495117639914
            ]
        },
        {
            "positions": [
                2.391440572118148,
                -1.1751389489578756,
                -1.766499244816735,
                -1.2263956909026148,
                -1.4189875118016444,
                0.2735475401620349
            ]
        },
        {
            "positions": [
                2.2887199194605383,
                -1.1520720662212252,
                -1.715459468516598,
                -1.1190106041190881,
                -1.3683343793706324,
                0.2173901291476707
            ]
        },
        {
            "positions": [
                2.185999266802928,
                -1.1290051834845745,
                -1.6644196922164614,
                -1.0116255173355617,
                -1.3176812469396204,
                0.16123271813330642
            ]
        },
        {
            "positions": [
                2.0832786141453177,
                -1.1059383007479238,
                -1.6133799159163247,
                -0.9042404305520353,
                -1.2670281145086084,
                0.10507530711894225
            ]
        },
        {
            "positions": [
                1.9805579614877078,
                -1.0828714180112733,
                -1.562340139616188,
                -0.7968553437685088,
                -1.2163749820775966,
                0.048917896104577974
            ]
        },
        {
            "positions": [
                1.8778373088300975,
                -1.0598045352746226,
                -1.5113003633160513,
                -0.6894702569849823,
                -1.1657218496465847,
                -0.007239514909786193
            ]
        },
        {
            "positions": [
                1.7751166561724876,
                -1.0367376525379721,
                -1.4602605870159144,
                -0.5820851702014558,
                -1.1150687172155727,
                -0.06339692592415042
            ]
        },
        {
            "positions": [
                1.6723960035148773,
                -1.0136707698013214,
                -1.4092208107157778,
                -0.47470008341792935,
                -1.0644155847845607,
                -0.11955433693851475
            ]
        },
        {
            "positions": [
                1.5696753508572672,
                -0.9906038870646708,
                -1.358181034415641,
                -0.3673149966344029,
                -1.0137624523535487,
                -0.17571174795287886
            ]
        },
        {
            "positions": [
                1.466954698199657,
                -0.9675370043280203,
                -1.3071412581155044,
                -0.2599299098508765,
                -0.9631093199225368,
                -0.23186915896724308
            ]
        },
        {
            "positions": [
                1.364234045542047,
                -0.9444701215913696,
                -1.2561014818153677,
                -0.15254482306734984,
                -0.9124561874915248,
                -0.2880265699816074
            ]
        },
        {
            "positions": [
                1.2615133928844366,
                -0.921403238854719,
                -1.2050617055152308,
                -0.045159736283823415,
                -0.8618030550605129,
                -0.34418398099597164
            ]
        },
        {
            "positions": [
                1.1587927402268265,
                -0.8983363561180684,
                -1.1540219292150942,
                0.062225350499703236,
                -0.8111499226295009,
                -0.40034139201033586
            ]
        },
        {
            "positions": [
                1.0560720875692164,
                -0.8752694733814177,
                -1.1029821529149575,
                0.16961043728322944,
                -0.760496790198489,
                -0.4564988030247
            ]
        },
        {
            "positions": [
                0.9533514349116066,
                -0.8522025906447672,
                -1.051942376614821,
                0.27699552406675587,
                -0.7098436577674772,
                -0.5126562140390643
            ]
        },
        {
            "positions": [
                0.8506307822539962,
                -0.8291357079081165,
                -1.0009026003146841,
                0.3843806108502825,
                -0.659190525336465,
                -0.5688136250534284
            ]
        },
        {
            "positions": [
                0.7479101295963861,
                -0.8060688251714659,
                -0.9498628240145475,
                0.49176569763380895,
                -0.6085373929054532,
                -0.6249710360677927
            ]
        },
        {
            "positions": [
                0.6451894769387758,
                -0.7830019424348154,
                -0.8988230477144106,
                0.5991507844173354,
                -0.5578842604744412,
                -0.681128447082157
            ]
        },
        {
            "positions": [
                0.5424688242811659,
                -0.7599350596981647,
                -0.8477832714142739,
                0.7065358712008618,
                -0.5072311280434292,
                -0.7372858580965211
            ]
        },
        {
            "positions": [
                0.4397481716235556,
                -0.7368681769615142,
                -0.7967434951141372,
                0.8139209579843882,
                -0.4565779956124174,
                -0.7934432691108853
            ]
        },
        {
            "positions": [
                0.3370275189659453,
                -0.7138012942248635,
                -0.7457037188140005,
                0.9213060447679151,
                -0.4059248631814054,
                -0.8496006801252496
            ]
        },
        {
            "positions": [
                0.23430686630833542,
                -0.6907344114882129,
                -0.6946639425138639,
                1.028691131551441,
                -0.3552717307503934,
                -0.9057580911396137
            ]
        },
        {
            "positions": [
                0.13158621365072554,
                -0.6676675287515623,
                -0.6436241662137272,
                1.1360762183349675,
                -0.30461859831938165,
                -0.961915502153978
            ]
        },
        {
            "positions": [
                0.028865560993115214,
                -0.6446006460149117,
                -0.5925843899135903,
                1.2434613051184944,
                -0.25396546588836943,
                -1.0180729131683424
            ]
        },
        {
            "positions": [
                -0.07385509166449511,
                -0.6215337632782612,
                -0.5415446136134539,
                1.3508463919020208,
                -0.20331233345735766,
                -1.0742303241827065
            ]
        },
        {
            "positions": [
                -0.17657574432210543,
                -0.5984668805416105,
                -0.49050483731331695,
                1.4582314786855473,
                -0.15265920102634567,
                -1.1303877351970708
            ]
        },
        {
            "positions": [
                -0.27929639697971514,
                -0.5753999978049599,
                -0.43946506101318034,
                1.5656165654690737,
                -0.10200606859533379,
                -1.186545146211435
            ]
        },
        {
            "positions": [
                -0.24992802921197482,
                -0.592016919714355,
                -0.23863634569908915,
                1.6054014616828627,
                -0.10267861523088746,
                -1.100212772885275
            ]
        },
        {
            "positions": [
                -0.2205596614442345,
                -0.6086338416237501,
                -0.03780763038499796,
                1.6451863578966515,
                -0.10335116186644112,
                -1.0138803995591152
            ]
        },
        {
            "positions": [
                -0.19119129367649418,
                -0.6252507635331452,
                0.16302108492909323,
                1.6849712541104405,
                -0.1040237085019948,
                -0.9275480262329553
            ]
        },
        {
            "positions": [
                -0.16182292590875386,
                -0.6418676854425404,
                0.3638498002431844,
                1.7247561503242292,
                -0.10469625513754847,
                -0.8412156529067955
            ]
        },
        {
            "positions": [
                -0.13245455814101353,
                -0.6584846073519355,
                0.5646785155572758,
                1.7645410465380182,
                -0.10536880177310214,
                -0.7548832795806355
            ]
        },
        {
            "positions": [
                -0.10308619037327321,
                -0.6751015292613306,
                0.7655072308713669,
                1.804325942751807,
                -0.10604134840865581,
                -0.6685509062544757
            ]
        },
        {
            "positions": [
                -0.07371782260553289,
                -0.6917184511707257,
                0.9663359461854582,
                1.844110838965596,
                -0.10671389504420949,
                -0.5822185329283158
            ]
        },
        {
            "positions": [
                -0.04434945483779257,
                -0.7083353730801208,
                1.1671646614995492,
                1.8838957351793848,
                -0.10738644167976315,
                -0.495886159602156
            ]
        },
        {
            "positions": [
                -0.014981087070052246,
                -0.724952294989516,
                1.3679933768136405,
                1.9236806313931738,
                -0.10805898831531682,
                -0.40955378627599603
            ]
        },
        {
            "positions": [
                0.01943485544062775,
                -0.7410916214476041,
                1.5315352723279596,
                1.946850783301961,
                -0.11343110938660314,
                -0.33183703737774217
            ]
        },
        {
            "positions": [
                0.05385079795130775,
                -0.7572309479056922,
                1.6950771678422785,
                1.9700209352107485,
                -0.11880323045788944,
                -0.25412028847948825
            ]
        },
        {
            "positions": [
                0.08826674046198774,
                -0.7733702743637804,
                1.8586190633565973,
                1.993191087119536,
                -0.12417535152917575,
                -0.17640353958123436
            ]
        },
        {
            "positions": [
                0.12268268297266774,
                -0.7895096008218685,
                2.0221609588709164,
                2.016361239028323,
                -0.12954747260046207,
                -0.0986867906829805
            ]
        }
    ]
}{
    "goal": {
        "global_pose": {
            "orientation": {
                "w": 0.7047431468963623,
                "x": -0.7094548344612122,
                "y": 0.0024358443915843964,
                "z": -0.0022348060738295317
            },
            "position": {
                "x": 0.6094750761985779,
                "y": 0.3671506643295288,
                "z": 0.19426114857196808
            }
        },
        "name": "move_to_magneteinheit_A"
    },
    "id": "PRM_move_to_magneteinheit_A_122",
    "joint_names": [
        "shoulder_pan_joint",
        "shoulder_lift_joint",
        "elbow_joint",
        "wrist_1_joint",
        "wrist_2_joint",
        "wrist_3_joint"
    ],
    "metrics": {
        "cart_traj_len": 2.729367662287594,
        "distance_elbow_joint": 4.256954982358145,
        "distance_shoulder_lift_joint": 0.7498905326897274,
        "distance_shoulder_pan_joint": 2.263910230286705,
        "distance_wrist_1_joint": 1.2181627483568356,
        "distance_wrist_2_joint": 2.090539419870586,
        "distance_wrist_3_joint": 4.5123986474597935,
        "smoothness": 0.3636577967126095,
        "time": 0.166939812,
        "traj_len": 3.88482387773523,
        "weighted_distance": 5.236922380957044
    },
    "planner": "PRM",
    "start": {
        "state": {
            "elbow_joint": 1.919643534880228,
            "shoulder_lift_joint": -1.8972525353963687,
            "shoulder_pan_joint": -1.1188672234189438,
            "wrist_1_joint": -1.5931878212786155,
            "wrist_2_joint": 1.5706036197970081,
            "wrist_3_joint": 1.118896926603594
        }
    },
    "waypoints": [
        {
            "positions": [
                -1.1188672234189438,
                -1.8972525353963687,
                1.919643534880228,
                -1.5931878212786155,
                1.5706036197970081,
                1.118896926603594
            ]
        },
        {
            "positions": [
                -1.1553353212309285,
                -1.851537978526336,
                1.7700484254483926,
                -1.6104810538196328,
                1.4443424907125184,
                1.1284994197163603
            ]
        },
        {
            "positions": [
                -1.1918034190429132,
                -1.805823421656303,
                1.6204533160165573,
                -1.6277742863606501,
                1.3180813616280285,
                1.1381019128291263
            ]
        },
        {
            "positions": [
                -1.228271516854898,
                -1.76010886478627,
                1.470858206584722,
                -1.6450675189016675,
                1.1918202325435387,
                1.1477044059418926
            ]
        },
        {
            "positions": [
                -1.2647396146668828,
                -1.7143943079162371,
                1.3212630971528865,
                -1.6623607514426848,
                1.0655591034590488,
                1.1573068990546589
            ]
        },
        {
            "positions": [
                -1.3012077124788675,
                -1.6686797510462044,
                1.171667987721051,
                -1.6796539839837021,
                0.9392979743745591,
                1.166909392167425
            ]
        },
        {
            "positions": [
                -1.3376758102908521,
                -1.6229651941761714,
                1.0220728782892157,
                -1.6969472165247195,
                0.8130368452900693,
                1.1765118852801912
            ]
        },
        {
            "positions": [
                -1.374143908102837,
                -1.5772506373061383,
                0.8724777688573802,
                -1.7142404490657368,
                0.6867757162055794,
                1.1861143783929573
            ]
        },
        {
            "positions": [
                -1.4106120059148217,
                -1.5315360804361056,
                0.7228826594255449,
                -1.7315336816067544,
                0.5605145871210897,
                1.1957168715057236
            ]
        },
        {
            "positions": [
                -1.4470801037268064,
                -1.4858215235660726,
                0.5732875499937091,
                -1.7488269141477717,
                0.43425345803659976,
                1.2053193646184899
            ]
        },
        {
            "positions": [
                -1.483548201538791,
                -1.4401069666960398,
                0.42369244056187383,
                -1.766120146688789,
                0.30799232895211004,
                1.214921857731256
            ]
        },
        {
            "positions": [
                -1.5200162993507758,
                -1.3943924098260068,
                0.27409733113003854,
                -1.7834133792298064,
                0.1817311998676201,
                1.2245243508440222
            ]
        },
        {
            "positions": [
                -1.5564843971627607,
                -1.348677852955974,
                0.12450222169820324,
                -1.8007066117708237,
                0.055470070783130376,
                1.2341268439567885
            ]
        },
        {
            "positions": [
                -1.5929524949747453,
                -1.3029632960859412,
                -0.025092887733632496,
                -1.817999844311841,
                -0.07079105830135957,
                1.2437293370695546
            ]
        },
        {
            "positions": [
                -1.62942059278673,
                -1.2572487392159082,
                -0.1746879971654678,
                -1.8352930768528584,
                -0.1970521873858494,
                1.2533318301823209
            ]
        },
        {
            "positions": [
                -1.5592863183499732,
                -1.2528532697555375,
                -0.08818305915296983,
                -1.7962507771415546,
                -0.1841368428783403,
                1.078213280427078
            ]
        },
        {
            "positions": [
                -1.4891520439132164,
                -1.2484578002951667,
                -0.001678121140471861,
                -1.757208477430251,
                -0.17122149837083123,
                0.9030947306718355
            ]
        },
        {
            "positions": [
                -1.4190177694764599,
                -1.2440623308347962,
                0.08482681687202609,
                -1.7181661777189472,
                -0.15830615386332214,
                0.7279761809165928
            ]
        },
        {
            "positions": [
                -1.348883495039703,
                -1.2396668613744255,
                0.17133175488452407,
                -1.6791238780076436,
                -0.14539080935581306,
                0.5528576311613501
            ]
        },
        {
            "positions": [
                -1.2787492206029463,
                -1.2352713919140548,
                0.25783669289702205,
                -1.6400815782963398,
                -0.13247546484830397,
                0.37773908140610735
            ]
        },
        {
            "positions": [
                -1.2086149461661897,
                -1.230875922453684,
                0.34434163090951997,
                -1.601039278585036,
                -0.11956012034079491,
                0.2026205316508647
            ]
        },
        {
            "positions": [
                -1.138480671729433,
                -1.2264804529933135,
                0.430846568922018,
                -1.5619969788737325,
                -0.10664477583328583,
                0.02750198189562192
            ]
        },
        {
            "positions": [
                -1.068346397292676,
                -1.2220849835329428,
                0.5173515069345159,
                -1.5229546791624287,
                -0.09372943132577674,
                -0.14761656785962063
            ]
        },
        {
            "positions": [
                -0.9982121228559194,
                -1.217689514072572,
                0.6038564449470138,
                -1.483912379451125,
                -0.08081408681826767,
                -0.3227351176148632
            ]
        },
        {
            "positions": [
                -0.9280778484191626,
                -1.2132940446122014,
                0.6903613829595119,
                -1.4448700797398213,
                -0.06789874231075857,
                -0.49785366737010617
            ]
        },
        {
            "positions": [
                -0.857943573982406,
                -1.2088985751518309,
                0.7768663209720098,
                -1.4058277800285177,
                -0.05498339780324951,
                -0.6729722171253487
            ]
        },
        {
            "positions": [
                -0.7878092995456493,
                -1.2045031056914601,
                0.8633712589845077,
                -1.366785480317214,
                -0.042068053295740426,
                -0.8480907668805915
            ]
        },
        {
            "positions": [
                -0.7176750251088925,
                -1.2001076362310894,
                0.9498761969970058,
                -1.3277431806059101,
                -0.02915270878823134,
                -1.023209316635834
            ]
        },
        {
            "positions": [
                -0.6475407506721357,
                -1.1957121667707187,
                1.0363811350095038,
                -1.2887008808946065,
                -0.016237364280722255,
                -1.198327866391077
            ]
        },
        {
            "positions": [
                -0.577406476235379,
                -1.1913166973103482,
                1.1228860730220016,
                -1.2496585811833028,
                -0.0033220197732131973,
                -1.3734464161463196
            ]
        },
        {
            "positions": [
                -0.5072722017986222,
                -1.1869212278499774,
                1.2093910110344996,
                -1.210616281471999,
                0.009593324734295916,
                -1.5485649659015621
            ]
        },
        {
            "positions": [
                -0.4371379273618654,
                -1.1825257583896067,
                1.2958959490469977,
                -1.1715739817606954,
                0.022508669241805,
                -1.723683515656805
            ]
        },
        {
            "positions": [
                -0.36700365292510884,
                -1.178130288929236,
                1.3824008870594955,
                -1.1325316820493918,
                0.03542401374931406,
                -1.8988020654120472
            ]
        },
        {
            "positions": [
                -0.29686937848835204,
                -1.1737348194688655,
                1.4689058250719935,
                -1.0934893823380878,
                0.048339358256823145,
                -2.07392061516729
            ]
        },
        {
            "positions": [
                -0.22673510405159525,
                -1.1693393500084948,
                1.5554107630844916,
                -1.0544470826267842,
                0.06125470276433226,
                -2.249039164922533
            ]
        },
        {
            "positions": [
                -0.15660082961483868,
                -1.164943880548124,
                1.6419157010969894,
                -1.0154047829154806,
                0.07417004727184129,
                -2.4241577146777753
            ]
        },
        {
            "positions": [
                -0.08646655517808188,
                -1.1605484110877533,
                1.7284206391094874,
                -0.9763624832041768,
                0.08708539177935037,
                -2.5992762644330183
            ]
        },
        {
            "positions": [
                -0.01633228074132509,
                -1.1561529416273828,
                1.8149255771219854,
                -0.937320183492873,
                0.10000073628685946,
                -2.7743948141882613
            ]
        },
        {
            "positions": [
                0.05380199369543148,
                -1.151757472167012,
                1.9014305151344832,
                -0.8982778837815695,
                0.11291608079436855,
                -2.949513363943504
            ]
        },
        {
            "positions": [
                0.12393626813218823,
                -1.1473620027066413,
                1.9879354531469813,
                -0.8592355840702657,
                0.1258314253018776,
                -3.1246319136987464
            ]
        }
    ]
}