{
    "goal": {
        "global_pose": {
            "orientation": {
                "w": 0.5084816217422485,
                "x": -0.49083608388900757,
                "y": 0.5182115435600281,
                "z": -0.4816462993621826
            },
            "position": {
                "x": 0.5540239810943604,
                "y": 0.030875300988554955,
                "z": 0.16403168439865112
            }
        },
        "name": "move_to_storage_A"
    },
    "id": "PRM_move_to_storage_A_90",
    "joint_names": [
        "shoulder_pan_joint",
        "shoulder_lift_joint",
        "elbow_joint",
        "wrist_1_joint",
        "wrist_2_joint",
        "wrist_3_joint"
    ],
    "metrics": {
        "cart_traj_len": 0.3530329039259752,
        "distance_elbow_joint": 0.4504117158387779,
        "distance_shoulder_lift_joint": 0.23558622447942335,
        "distance_shoulder_pan_joint": 0.4607923595892859,
        "distance_wrist_1_joint": 0.24243930710243744,
        "distance_wrist_2_joint": 1.103073358153344,
        "distance_wrist_3_joint": 0.09791990862048516,
        "smoothness": 6.661338165333112e-16,
        "time": 0.014547795,
        "traj_len": 1.609416935968972,
        "weighted_distance": 2.0326276974105477
    },
    "planner": "PRM",
    "start": {
        "state": {
            "elbow_joint": 1.9715477243005601,
            "shoulder_lift_joint": -1.1394853015351272,
            "shoulder_pan_joint": 0.12281154014795169,
            "wrist_1_joint": -0.7804696478968182,
            "wrist_2_joint": 0.12958648046900423,
            "wrist_3_joint": -3.192491284697111
        }
    },
    "waypoints": [
        {
            "positions": [
                0.12281154014795169,
                -1.1394853015351272,
                1.9715477243005601,
                -0.7804696478968182,
                0.12958648046900423,
                -3.192491284697111
            ]
        },
        {
            "positions": [
                0.05698406020662514,
                -1.1731404764607591,
                2.035892255134671,
                -0.8151038346257378,
                0.28716838877662476,
                -3.178502726322756
            ]
        },
        {
            "positions": [
                -0.008843419734701416,
                -1.2067956513863909,
                2.1002367859687823,
                -0.8497380213546575,
                0.44475029708424535,
                -3.164514167948401
            ]
        },
        {
            "positions": [
                -0.07467089967602795,
                -1.2404508263120229,
                2.1645813168028933,
                -0.8843722080835771,
                0.6023322053918659,
                -3.150525609574046
            ]
        },
        {
            "positions": [
                -0.1404983796173545,
                -1.2741060012376548,
                2.2289258476370044,
                -0.9190063948124967,
                0.7599141136994865,
                -3.1365370511996913
            ]
        },
        {
            "positions": [
                -0.2063258595586811,
                -1.3077611761632868,
                2.293270378471116,
                -0.9536405815414164,
                0.9174960220071071,
                -3.122548492825336
            ]
        },
        {
            "positions": [
                -0.2721533395000076,
                -1.3414163510889185,
                2.357614909305227,
                -0.9882747682703359,
                1.0750779303147278,
                -3.108559934450981
            ]
        },
        {
            "positions": [
                -0.3379808194413342,
                -1.3750715260145505,
                2.421959440139338,
                -1.0229089549992556,
                1.2326598386223484,
                -3.094571376076626
            ]
        }
    ]
}