{
    "goal": {
        "global_pose": {
            "orientation": {
                "w": 0.7047431468963623,
                "x": -0.7094548344612122,
                "y": 0.0024358443915843964,
                "z": -0.0022348060738295317
            },
            "position": {
                "x": 0.6094750761985779,
                "y": 0.3671506643295288,
                "z": 0.19426114857196808
            }
        },
        "name": "move_to_magneteinheit_A"
    },
    "id": "PRM_move_to_magneteinheit_A_123",
    "joint_names": [
        "shoulder_pan_joint",
        "shoulder_lift_joint",
        "elbow_joint",
        "wrist_1_joint",
        "wrist_2_joint",
        "wrist_3_joint"
    ],
    "metrics": {
        "cart_traj_len": 4.23089327760005,
        "distance_elbow_joint": 3.919927586175326,
        "distance_shoulder_lift_joint": 0.46407871331611994,
        "distance_shoulder_pan_joint": 5.480608374076232,
        "distance_wrist_1_joint": 3.489162543974648,
        "distance_wrist_2_joint": 1.4356624287667463,
        "distance_wrist_3_joint": 3.0253810845502773,
        "smoothness": 0.27320395753648824,
        "time": 0.20013160600000002,
        "traj_len": 4.220760681543003,
        "weighted_distance": 5.365669377878339
    },
    "planner": "PRM",
    "start": {
        "state": {
            "elbow_joint": -1.919618573717145,
            "shoulder_lift_joint": -1.2443395971678275,
            "shoulder_pan_joint": 2.6996025300909787,
            "wrist_1_joint": -1.548550951253194,
            "wrist_2_joint": -1.5709469090946802,
            "wrist_3_joint": 0.4420197732051276
        }
    },
    "waypoints": [
        {
            "positions": [
                2.6996025300909787,
                -1.2443395971678275,
                -1.919618573717145,
                -1.548550951253194,
                -1.5709469090946802,
                0.4420197732051276
            ]
        },
        {
            "positions": [
                2.560706696309336,
                -1.239144175634134,
                -1.835673900927974,
                -1.475657472534271,
                -1.5472335319130615,
                0.3818698832627437
            ]
        },
        {
            "positions": [
                2.4218108625276935,
                -1.2339487541004401,
                -1.7517292281388028,
                -1.4027639938153482,
                -1.5235201547314428,
                0.3217199933203598
            ]
        },
        {
            "positions": [
                2.282915028746051,
                -1.2287533325667466,
                -1.6677845553496318,
                -1.3298705150964252,
                -1.499806777549824,
                0.2615701033779759
            ]
        },
        {
            "positions": [
                2.1440191949644083,
                -1.223557911033053,
                -1.583839882560461,
                -1.2569770363775024,
                -1.4760934003682054,
                0.201420213435592
            ]
        },
        {
            "positions": [
                2.0051233611827657,
                -1.2183624894993592,
                -1.4998952097712899,
                -1.1840835576585793,
                -1.4523800231865867,
                0.14127032349320806
            ]
        },
        {
            "positions": [
                1.8662275274011229,
                -1.2131670679656656,
                -1.4159505369821188,
                -1.1111900789396565,
                -1.428666646004968,
                0.08112043355082421
            ]
        },
        {
            "positions": [
                1.7273316936194802,
                -1.207971646431972,
                -1.3320058641929478,
                -1.0382966002207334,
                -1.4049532688233493,
                0.02097054360844025
            ]
        },
        {
            "positions": [
                1.5884358598378376,
                -1.2027762248982785,
                -1.2480611914037767,
                -0.9654031215018105,
                -1.3812398916417306,
                -0.0391793463339436
            ]
        },
        {
            "positions": [
                1.449540026056195,
                -1.1975808033645847,
                -1.1641165186146059,
                -0.8925096427828876,
                -1.3575265144601116,
                -0.09932923627632756
            ]
        },
        {
            "positions": [
                1.3106441922745522,
                -1.1923853818308912,
                -1.0801718458254346,
                -0.8196161640639646,
                -1.333813137278493,
                -0.15947912621871146
            ]
        },
        {
            "positions": [
                1.1717483584929098,
                -1.1871899602971976,
                -0.9962271730362637,
                -0.7467226853450417,
                -1.3100997600968742,
                -0.21962901616109526
            ]
        },
        {
            "positions": [
                1.032852524711267,
                -1.1819945387635038,
                -0.9122825002470927,
                -0.6738292066261188,
                -1.2863863829152555,
                -0.27977890610347916
            ]
        },
        {
            "positions": [
                0.8939566909296244,
                -1.1767991172298102,
                -0.8283378274579216,
                -0.6009357279071958,
                -1.2626730057336368,
                -0.3399287960458632
            ]
        },
        {
            "positions": [
                0.7550608571479818,
                -1.1716036956961167,
                -0.7443931546687506,
                -0.5280422491882728,
                -1.2389596285520181,
                -0.4000786859882471
            ]
        },
        {
            "positions": [
                0.6161650233663392,
                -1.1664082741624229,
                -0.6604484818795795,
                -0.45514877046934976,
                -1.2152462513703994,
                -0.460228575930631
            ]
        },
        {
            "positions": [
                0.47726918958469655,
                -1.1612128526287293,
                -0.5765038090904087,
                -0.38225529175042694,
                -1.1915328741887807,
                -0.5203784658730148
            ]
        },
        {
            "positions": [
                0.33837335580305394,
                -1.1560174310950357,
                -0.4925591363012376,
                -0.3093618130315041,
                -1.167819497007162,
                -0.5805283558153986
            ]
        },
        {
            "positions": [
                0.19947752202141134,
                -1.150822009561342,
                -0.40861446351206654,
                -0.23646833431258107,
                -1.1441061198255433,
                -0.6406782457577826
            ]
        },
        {
            "positions": [
                0.06058168823976873,
                -1.1456265880276484,
                -0.3246697907228957,
                -0.16357485559365825,
                -1.1203927426439246,
                -0.7008281357001664
            ]
        },
        {
            "positions": [
                -0.07831414554187432,
                -1.1404311664939548,
                -0.24072511793372442,
                -0.09068137687473521,
                -1.0966793654623057,
                -0.7609780256425505
            ]
        },
        {
            "positions": [
                -0.2172099793235165,
                -1.1352357449602613,
                -0.15678044514455358,
                -0.017787898155812165,
                -1.072965988280687,
                -0.8211279155849343
            ]
        },
        {
            "positions": [
                -0.3561058131051591,
                -1.1300403234265675,
                -0.07283577235538252,
                0.05510558056311066,
                -1.0492526110990683,
                -0.881277805527318
            ]
        },
        {
            "positions": [
                -0.49500164688680215,
                -1.124844901892874,
                0.011108900433788538,
                0.1279990592820337,
                -1.0255392339174496,
                -0.9414276954697021
            ]
        },
        {
            "positions": [
                -0.6338974806684448,
                -1.1196494803591803,
                0.0950535732229596,
                0.20089253800095652,
                -1.001825856735831,
                -1.0015775854120859
            ]
        },
        {
            "positions": [
                -0.7727933144500869,
                -1.1144540588254865,
                0.17899824601213044,
                0.27378601671987934,
                -0.9781124795542123,
                -1.0617274753544699
            ]
        },
        {
            "positions": [
                -0.91168914823173,
                -1.109258637291793,
                0.2629429188013017,
                0.3466794954388024,
                -0.9543991023725935,
                -1.121877365296854
            ]
        },
        {
            "positions": [
                -1.0505849820133726,
                -1.1040632157580994,
                0.34688759159047255,
                0.41957297415772543,
                -0.9306857251909748,
                -1.1820272552392377
            ]
        },
        {
            "positions": [
                -1.1894808157950152,
                -1.0988677942244056,
                0.43083226437964384,
                0.4924664528766485,
                -0.9069723480093561,
                -1.2421771451816217
            ]
        },
        {
            "positions": [
                -1.3283766495766576,
                -1.093672372690712,
                0.5147769371688146,
                0.5653599315955713,
                -0.8832589708277374,
                -1.3023270351240055
            ]
        },
        {
            "positions": [
                -1.2429278734349751,
                -1.075236402759006,
                0.6021611768917186,
                0.646257088132388,
                -0.8392604713865724,
                -1.2269720776992323
            ]
        },
        {
            "positions": [
                -1.1574790972932927,
                -1.0568004328272997,
                0.6895454166146225,
                0.7271542446692048,
                -0.7952619719454076,
                -1.151617120274459
            ]
        },
        {
            "positions": [
                -1.0720303211516102,
                -1.0383644628955937,
                0.7769296563375265,
                0.8080514012060215,
                -0.7512634725042426,
                -1.0762621628496858
            ]
        },
        {
            "positions": [
                -0.9865815450099278,
                -1.0199284929638874,
                0.8643138960604304,
                0.8889485577428382,
                -0.7072649730630777,
                -1.0009072054249124
            ]
        },
        {
            "positions": [
                -0.9011327688682453,
                -1.0014925230321814,
                0.9516981357833345,
                0.9698457142796549,
                -0.6632664736219127,
                -0.9255522480001392
            ]
        },
        {
            "positions": [
                -0.8156839927265629,
                -0.9830565531004751,
                1.0390823755062386,
                1.0507428708164717,
                -0.6192679741807479,
                -0.8501972905753661
            ]
        },
        {
            "positions": [
                -0.7302352165848804,
                -0.9646205831687691,
                1.1264666152291425,
                1.1316400273532883,
                -0.5752694747395829,
                -0.7748423331505928
            ]
        },
        {
            "positions": [
                -0.644786440443198,
                -0.9461846132370628,
                1.2138508549520464,
                1.2125371838901051,
                -0.5312709752984179,
                -0.6994873757258195
            ]
        },
        {
            "positions": [
                -0.5593376643015155,
                -0.9277486433053568,
                1.3012350946749505,
                1.2934343404269217,
                -0.48727247585725303,
                -0.6241324183010464
            ]
        },
        {
            "positions": [
                -0.4738888881598331,
                -0.9093126733736505,
                1.3886193343978546,
                1.3743314969637386,
                -0.4432739764160881,
                -0.5487774608762731
            ]
        },
        {
            "positions": [
                -0.38844011201815065,
                -0.8908767034419445,
                1.4760035741207584,
                1.4552286535005554,
                -0.39927547697492316,
                -0.47342250345149983
            ]
        },
        {
            "positions": [
                -0.3029913358764682,
                -0.8724407335102382,
                1.5633878138436623,
                1.536125810037372,
                -0.3552769775337582,
                -0.39806754602672656
            ]
        },
        {
            "positions": [
                -0.21754255973478576,
                -0.8540047635785322,
                1.6507720535665662,
                1.6170229665741886,
                -0.31127847809259335,
                -0.3227125886019534
            ]
        },
        {
            "positions": [
                -0.1320937835931033,
                -0.835568793646826,
                1.73815629328947,
                1.6979201231110053,
                -0.2672799786514284,
                -0.24735763117718013
            ]
        },
        {
            "positions": [
                -0.04664500745142086,
                -0.8171328237151199,
                1.8255405330123744,
                1.778817279647822,
                -0.22328147921026353,
                -0.17200267375240696
            ]
        },
        {
            "positions": [
                0.038803768690261586,
                -0.7986968537834137,
                1.9129247727352783,
                1.8597144361846387,
                -0.17928297976909857,
                -0.09664771632763358
            ]
        },
        {
            "positions": [
                0.12425254483194409,
                -0.7802608838517076,
                2.000309012458182,
                1.9406115927214556,
                -0.13528448032793355,
                -0.02129275890286051
            ]
        }
    ]
}{
    "goal": {
        "global_pose": {
            "orientation": {
                "w": 0.7047431468963623,
                "x": -0.7094548344612122,
                "y": 0.0024358443915843964,
                "z": -0.0022348060738295317
            },
            "position": {
                "x": 0.6094750761985779,
                "y": 0.3671506643295288,
                "z": 0.19426114857196808
            }
        },
        "name": "move_to_magneteinheit_A"
    },
    "id": "PRM_move_to_magneteinheit_A_123",
    "joint_names": [
        "shoulder_pan_joint",
        "shoulder_lift_joint",
        "elbow_joint",
        "wrist_1_joint",
        "wrist_2_joint",
        "wrist_3_joint"
    ],
    "metrics": {
        "cart_traj_len": 1.2083605171677132,
        "distance_elbow_joint": 0.06666941848072616,
        "distance_shoulder_lift_joint": 0.7504005322185967,
        "distance_shoulder_pan_joint": 1.2409561445396038,
        "distance_wrist_1_joint": 0.7403451658164258,
        "distance_wrist_2_joint": 1.4616473938913424,
        "distance_wrist_3_joint": 4.252343967072117,
        "smoothness": 0.05964497711928806,
        "time": 0.104749627,
        "traj_len": 2.917595349259183,
        "weighted_distance": 4.383952909860097
    },
    "planner": "PRM",
    "start": {
        "state": {
            "elbow_joint": 1.919643534880228,
            "shoulder_lift_joint": -1.8972525353963687,
            "shoulder_pan_joint": -1.1188672234189438,
            "wrist_1_joint": -1.5931878212786155,
            "wrist_2_joint": 1.5706036197970081,
            "wrist_3_joint": 1.118896926603594
        }
    },
    "waypoints": [
        {
            "positions": [
                -1.1188672234189438,
                -1.8972525353963687,
                1.919643534880228,
                -1.5931878212786155,
                1.5706036197970081,
                1.118896926603594
            ]
        },
        {
            "positions": [
                -1.0631947951055762,
                -1.863610182342079,
                1.9212383901167198,
                -1.5602857308260403,
                1.5044636818105117,
                0.9261352553044537
            ]
        },
        {
            "positions": [
                -1.0075223667922089,
                -1.8299678292877892,
                1.9228332453532115,
                -1.527383640373465,
                1.4383237438240155,
                0.7333735840053135
            ]
        },
        {
            "positions": [
                -0.9518499384788413,
                -1.7963254762334995,
                1.9244281005897033,
                -1.4944815499208899,
                1.372183805837519,
                0.5406119127061733
            ]
        },
        {
            "positions": [
                -0.8961775101654738,
                -1.7626831231792097,
                1.9260229558261952,
                -1.4615794594683145,
                1.3060438678510229,
                0.347850241407033
            ]
        },
        {
            "positions": [
                -0.8405050818521063,
                -1.72904077012492,
                1.927617811062687,
                -1.4286773690157393,
                1.2399039298645265,
                0.1550885701078928
            ]
        },
        {
            "positions": [
                -0.7848326535387388,
                -1.6953984170706302,
                1.9292126662991786,
                -1.395775278563164,
                1.1737639918780303,
                -0.03767310119124745
            ]
        },
        {
            "positions": [
                -0.7291602252253713,
                -1.6617560640163405,
                1.9308075215356704,
                -1.3628731881105889,
                1.1076240538915338,
                -0.23043477249038768
            ]
        },
        {
            "positions": [
                -0.6734877969120037,
                -1.6281137109620507,
                1.932402376772162,
                -1.3299710976580137,
                1.0414841159050376,
                -0.4231964437895279
            ]
        },
        {
            "positions": [
                -0.6178153685986362,
                -1.594471357907761,
                1.9339972320086538,
                -1.2970690072054385,
                0.9753441779185412,
                -0.6159581150886682
            ]
        },
        {
            "positions": [
                -0.5621429402852687,
                -1.5608290048534714,
                1.9355920872451455,
                -1.2641669167528633,
                0.9092042399320449,
                -0.8087197863878084
            ]
        },
        {
            "positions": [
                -0.5064705119719012,
                -1.5271866517991817,
                1.9371869424816373,
                -1.231264826300288,
                0.8430643019455486,
                -1.0014814576869486
            ]
        },
        {
            "positions": [
                -0.4507980836585337,
                -1.493544298744892,
                1.9387817977181292,
                -1.198362735847713,
                0.7769243639590523,
                -1.1942431289860889
            ]
        },
        {
            "positions": [
                -0.3951256553451661,
                -1.4599019456906022,
                1.940376652954621,
                -1.1654606453951375,
                0.7107844259725559,
                -1.387004800285229
            ]
        },
        {
            "positions": [
                -0.3394532270317987,
                -1.4262595926363124,
                1.9419715081911126,
                -1.1325585549425623,
                0.6446444879860597,
                -1.5797664715843693
            ]
        },
        {
            "positions": [
                -0.2837807987184312,
                -1.3926172395820227,
                1.9435663634276044,
                -1.099656464489987,
                0.5785045499995634,
                -1.7725281428835096
            ]
        },
        {
            "positions": [
                -0.2281083704050636,
                -1.358974886527733,
                1.945161218664096,
                -1.066754374037412,
                0.5123646120130669,
                -1.9652898141826498
            ]
        },
        {
            "positions": [
                -0.1724359420916961,
                -1.3253325334734432,
                1.9467560739005878,
                -1.0338522835848365,
                0.44622467402657073,
                -2.1580514854817903
            ]
        },
        {
            "positions": [
                -0.1167635137783285,
                -1.2916901804191534,
                1.9483509291370795,
                -1.0009501931322613,
                0.3800847360400743,
                -2.35081315678093
            ]
        },
        {
            "positions": [
                -0.061091085464961115,
                -1.2580478273648636,
                1.9499457843735715,
                -0.9680481026796862,
                0.3139447980535781,
                -2.5435748280800707
            ]
        },
        {
            "positions": [
                -0.005418657151593509,
                -1.224405474310574,
                1.9515406396100632,
                -0.935146012227111,
                0.2478048600670817,
                -2.7363364993792105
            ]
        },
        {
            "positions": [
                0.0502537711617741,
                -1.1907631212562841,
                1.953135494846555,
                -0.9022439217745357,
                0.18166492208058527,
                -2.929098170678351
            ]
        },
        {
            "positions": [
                0.10592619947514142,
                -1.1571207682019944,
                1.9547303500830466,
                -0.8693418313219605,
                0.11552498409408896,
                -3.121859841977491
            ]
        },
        {
            "positions": [
                0.12208892112065999,
                -1.146852003177772,
                1.9863129533609543,
                -0.8528426554621896,
                0.12209374228251227,
                -3.133447040468523
            ]
        }
    ]
}