{
    "goal": {
        "global_pose": {
            "orientation": {
                "w": 0.7047431468963623,
                "x": -0.7094548344612122,
                "y": 0.0024358443915843964,
                "z": -0.0022348060738295317
            },
            "position": {
                "x": 0.6094750761985779,
                "y": 0.3671506643295288,
                "z": 0.19426114857196808
            }
        },
        "name": "move_to_magneteinheit_A"
    },
    "id": "PRM_move_to_magneteinheit_A_41",
    "joint_names": [
        "shoulder_pan_joint",
        "shoulder_lift_joint",
        "elbow_joint",
        "wrist_1_joint",
        "wrist_2_joint",
        "wrist_3_joint"
    ],
    "metrics": {
        "cart_traj_len": 3.989574472805066,
        "distance_elbow_joint": 3.878867111036948,
        "distance_shoulder_lift_joint": 0.5063808390892874,
        "distance_shoulder_pan_joint": 3.804683833161264,
        "distance_wrist_1_joint": 1.3167858796843084,
        "distance_wrist_2_joint": 1.704867519162755,
        "distance_wrist_3_joint": 3.6750052085050213,
        "smoothness": 0.15262561825450108,
        "time": 0.15967039,
        "traj_len": 3.85831444942472,
        "weighted_distance": 5.025759067692828
    },
    "planner": "PRM",
    "start": {
        "state": {
            "elbow_joint": -1.919618573717145,
            "shoulder_lift_joint": -1.2443395971678275,
            "shoulder_pan_joint": 2.6996025300909787,
            "wrist_1_joint": -1.548550951253194,
            "wrist_2_joint": -1.5709469090946802,
            "wrist_3_joint": 0.4420197732051276
        }
    },
    "waypoints": [
        {
            "positions": [
                2.6996025300909787,
                -1.2443395971678275,
                -1.919618573717145,
                -1.548550951253194,
                -1.5709469090946802,
                0.4420197732051276
            ]
        },
        {
            "positions": [
                2.566674833058681,
                -1.231480458111397,
                -1.8189308139843283,
                -1.5039926657752327,
                -1.5246581977353781,
                0.38739464938328666
            ]
        },
        {
            "positions": [
                2.433747136026384,
                -1.2186213190549664,
                -1.7182430542515115,
                -1.4594343802972713,
                -1.4783694863760761,
                0.3327695255614458
            ]
        },
        {
            "positions": [
                2.300819438994086,
                -1.2057621799985359,
                -1.6175552945186946,
                -1.4148760948193102,
                -1.432080775016774,
                0.27814440173960486
            ]
        },
        {
            "positions": [
                2.167891741961789,
                -1.1929030409421053,
                -1.516867534785878,
                -1.3703178093413488,
                -1.385792063657472,
                0.22351927791776396
            ]
        },
        {
            "positions": [
                2.0349640449294912,
                -1.1800439018856748,
                -1.4161797750530614,
                -1.3257595238633875,
                -1.33950335229817,
                0.168894154095923
            ]
        },
        {
            "positions": [
                1.9020363478971936,
                -1.1671847628292442,
                -1.3154920153202445,
                -1.2812012383854263,
                -1.293214640938868,
                0.11426903027408214
            ]
        },
        {
            "positions": [
                1.769108650864896,
                -1.1543256237728137,
                -1.2148042555874277,
                -1.236642952907465,
                -1.246925929579566,
                0.05964390645224121
            ]
        },
        {
            "positions": [
                1.6361809538325987,
                -1.1414664847163833,
                -1.114116495854611,
                -1.1920846674295036,
                -1.200637218220264,
                0.0050187826304003424
            ]
        },
        {
            "positions": [
                1.5032532568003012,
                -1.1286073456599528,
                -1.0134287361217944,
                -1.1475263819515422,
                -1.1543485068609622,
                -0.049606341191440584
            ]
        },
        {
            "positions": [
                1.3703255597680035,
                -1.1157482066035223,
                -0.9127409763889776,
                -1.1029680964735809,
                -1.10805979550166,
                -0.10423146501328157
            ]
        },
        {
            "positions": [
                1.2373978627357063,
                -1.1028890675470917,
                -0.8120532166561609,
                -1.0584098109956197,
                -1.0617710841423582,
                -0.15885658883512238
            ]
        },
        {
            "positions": [
                1.1044701657034086,
                -1.0900299284906612,
                -0.7113654569233441,
                -1.0138515255176583,
                -1.015482372783056,
                -0.2134817126569633
            ]
        },
        {
            "positions": [
                0.9715424686711112,
                -1.0771707894342306,
                -0.6106776971905274,
                -0.9692932400396971,
                -0.9691936614237541,
                -0.2681068364788041
            ]
        },
        {
            "positions": [
                0.8386147716388135,
                -1.0643116503778,
                -0.5099899374577106,
                -0.9247349545617357,
                -0.9229049500644521,
                -0.32273196030064516
            ]
        },
        {
            "positions": [
                0.705687074606516,
                -1.0514525113213695,
                -0.40930217772489397,
                -0.8801766690837745,
                -0.87661623870515,
                -0.3773570841224861
            ]
        },
        {
            "positions": [
                0.5727593775742186,
                -1.038593372264939,
                -0.3086144179920771,
                -0.8356183836058131,
                -0.8303275273458481,
                -0.4319822079443269
            ]
        },
        {
            "positions": [
                0.4398316805419209,
                -1.0257342332085084,
                -0.20792665825926027,
                -0.7910600981278517,
                -0.784038815986546,
                -0.48660733176616794
            ]
        },
        {
            "positions": [
                0.30690398350962367,
                -1.0128750941520779,
                -0.10723889852644364,
                -0.7465018126498905,
                -0.7377501046272441,
                -0.5412324555880088
            ]
        },
        {
            "positions": [
                0.173976286477326,
                -1.0000159550956473,
                -0.006551138793627009,
                -0.7019435271719292,
                -0.6914613932679421,
                -0.5958575794098495
            ]
        },
        {
            "positions": [
                0.041048589445028316,
                -0.9871568160392168,
                0.09413662093918984,
                -0.6573852416939678,
                -0.64517268190864,
                -0.6504827032316907
            ]
        },
        {
            "positions": [
                -0.09187910758726892,
                -0.9742976769827862,
                0.1948243806720067,
                -0.6128269562160065,
                -0.5988839705493381,
                -0.7051078270535314
            ]
        },
        {
            "positions": [
                -0.22480680461956615,
                -0.9614385379263558,
                0.2955121404048231,
                -0.5682686707380452,
                -0.552595259190036,
                -0.7597329508753723
            ]
        },
        {
            "positions": [
                -0.35773450165186427,
                -0.9485793988699253,
                0.39619990013763995,
                -0.523710385260084,
                -0.506306547830734,
                -0.8143580746972132
            ]
        },
        {
            "positions": [
                -0.49066219868416144,
                -0.9357202598134947,
                0.4968876598704569,
                -0.4791520997821226,
                -0.460017836471432,
                -0.8689831985190541
            ]
        },
        {
            "positions": [
                -0.449457721482728,
                -0.9491905092498639,
                0.5976573538565074,
                -0.4959323914988341,
                -0.4190886388121348,
                -1.0310301822782322
            ]
        },
        {
            "positions": [
                -0.4082532442812945,
                -0.9626607586862331,
                0.6984270478425578,
                -0.5127126832155456,
                -0.3781594411528376,
                -1.1930771660374102
            ]
        },
        {
            "positions": [
                -0.367048767079861,
                -0.9761310081226023,
                0.7991967418286083,
                -0.5294929749322571,
                -0.33723024349354036,
                -1.3551241497965885
            ]
        },
        {
            "positions": [
                -0.32584428987842756,
                -0.9896012575589715,
                0.8999664358146588,
                -0.5462732666489686,
                -0.29630104583424316,
                -1.5171711335557665
            ]
        },
        {
            "positions": [
                -0.28463981267699406,
                -1.0030715069953406,
                1.0007361298007094,
                -0.5630535583656802,
                -0.25537184817494596,
                -1.6792181173149445
            ]
        },
        {
            "positions": [
                -0.24343533547556062,
                -1.0165417564317099,
                1.1015058237867597,
                -0.5798338500823916,
                -0.21444265051564873,
                -1.8412651010741228
            ]
        },
        {
            "positions": [
                -0.20223085827412712,
                -1.030012005868079,
                1.2022755177728102,
                -0.5966141417991031,
                -0.1735134528563515,
                -2.0033120848333006
            ]
        },
        {
            "positions": [
                -0.16102638107269368,
                -1.0434822553044483,
                1.3030452117588607,
                -0.6133944335158147,
                -0.1325842551970543,
                -2.165359068592479
            ]
        },
        {
            "positions": [
                -0.11982190387126013,
                -1.0569525047408175,
                1.4038149057449112,
                -0.6301747252325262,
                -0.09165505753775705,
                -2.327406052351657
            ]
        },
        {
            "positions": [
                -0.07861742666982668,
                -1.0704227541771867,
                1.5045845997309617,
                -0.6469550169492377,
                -0.050725859878459845,
                -2.4894530361108353
            ]
        },
        {
            "positions": [
                -0.03741294946839324,
                -1.083893003613556,
                1.6053542937170122,
                -0.6637353086659492,
                -0.009796662219162644,
                -2.651500019870013
            ]
        },
        {
            "positions": [
                0.003791527733040201,
                -1.097363253049925,
                1.7061239877030627,
                -0.6805156003826607,
                0.031132535440134557,
                -2.813547003629191
            ]
        },
        {
            "positions": [
                0.0449960049344737,
                -1.1108335024862943,
                1.8068936816891132,
                -0.6972958920993723,
                0.07206173309943187,
                -2.9755939873883697
            ]
        },
        {
            "positions": [
                0.08620048213590717,
                -1.1243037519226635,
                1.9076633756751635,
                -0.7140761838160837,
                0.112990930758729,
                -3.1376409711475475
            ]
        },
        {
            "positions": [
                0.12375690570196156,
                -1.1334817615484494,
                1.9592485373198025,
                -0.7265391279953599,
                0.13392061006807526,
                -3.2329854352998937
            ]
        }
    ]
}{
    "goal": {
        "global_pose": {
            "orientation": {
                "w": 0.7047431468963623,
                "x": -0.7094548344612122,
                "y": 0.0024358443915843964,
                "z": -0.0022348060738295317
            },
            "position": {
                "x": 0.6094750761985779,
                "y": 0.3671506643295288,
                "z": 0.19426114857196808
            }
        },
        "name": "move_to_magneteinheit_A"
    },
    "id": "PRM_move_to_magneteinheit_A_41",
    "joint_names": [
        "shoulder_pan_joint",
        "shoulder_lift_joint",
        "elbow_joint",
        "wrist_1_joint",
        "wrist_2_joint",
        "wrist_3_joint"
    ],
    "metrics": {
        "cart_traj_len": 2.1280090473197077,
        "distance_elbow_joint": 1.011975225611834,
        "distance_shoulder_lift_joint": 0.748650673878483,
        "distance_shoulder_pan_joint": 2.762992225252655,
        "distance_wrist_1_joint": 0.7295944454608944,
        "distance_wrist_2_joint": 2.185691113866498,
        "distance_wrist_3_joint": 4.228780909771274,
        "smoothness": 0.29455317803930237,
        "time": 0.176517023,
        "traj_len": 3.4157992613503554,
        "weighted_distance": 4.8000554135042615
    },
    "planner": "PRM",
    "start": {
        "state": {
            "elbow_joint": 1.919643534880228,
            "shoulder_lift_joint": -1.8972525353963687,
            "shoulder_pan_joint": -1.1188672234189438,
            "wrist_1_joint": -1.5931878212786155,
            "wrist_2_joint": 1.5706036197970081,
            "wrist_3_joint": 1.118896926603594
        }
    },
    "waypoints": [
        {
            "positions": [
                -1.1188672234189438,
                -1.8972525353963687,
                1.919643534880228,
                -1.5931878212786155,
                1.5706036197970081,
                1.118896926603594
            ]
        },
        {
            "positions": [
                -1.1695813302569071,
                -1.8813402082908277,
                1.8882593569631692,
                -1.5774704042233199,
                1.4498437527286494,
                0.9800699591616118
            ]
        },
        {
            "positions": [
                -1.2202954370948706,
                -1.8654278811852867,
                1.8568751790461102,
                -1.5617529871680242,
                1.3290838856602907,
                0.8412429917196295
            ]
        },
        {
            "positions": [
                -1.2710095439328342,
                -1.8495155540797457,
                1.8254910011290513,
                -1.5460355701127286,
                1.208324018591932,
                0.7024160242776472
            ]
        },
        {
            "positions": [
                -1.3217236507707975,
                -1.8336032269742046,
                1.7941068232119923,
                -1.530318153057433,
                1.0875641515235732,
                0.563589056835665
            ]
        },
        {
            "positions": [
                -1.3724377576087607,
                -1.8176908998686636,
                1.7627226452949334,
                -1.5146007360021374,
                0.9668042844552145,
                0.42476208939368276
            ]
        },
        {
            "positions": [
                -1.4231518644467243,
                -1.8017785727631226,
                1.7313384673778744,
                -1.4988833189468418,
                0.8460444173868558,
                0.28593512195170045
            ]
        },
        {
            "positions": [
                -1.4738659712846875,
                -1.7858662456575816,
                1.6999542894608157,
                -1.4831659018915462,
                0.725284550318497,
                0.14710815450971826
            ]
        },
        {
            "positions": [
                -1.524580078122651,
                -1.7699539185520405,
                1.6685701115437568,
                -1.4674484848362506,
                0.6045246832501383,
                0.008281187067735951
            ]
        },
        {
            "positions": [
                -1.5752941849606144,
                -1.7540415914464995,
                1.6371859336266978,
                -1.451731067780955,
                0.4837648161817796,
                -0.13054578037424625
            ]
        },
        {
            "positions": [
                -1.6260082917985779,
                -1.7381292643409585,
                1.605801755709639,
                -1.4360136507256593,
                0.36300494911342085,
                -0.26937274781622844
            ]
        },
        {
            "positions": [
                -1.6767223986365412,
                -1.7222169372354175,
                1.57441757779258,
                -1.4202962336703637,
                0.24224508204506212,
                -0.40819971525821064
            ]
        },
        {
            "positions": [
                -1.7274365054745047,
                -1.7063046101298764,
                1.543033399875521,
                -1.4045788166150681,
                0.12148521497670339,
                -0.5470266827001931
            ]
        },
        {
            "positions": [
                -1.778150612312468,
                -1.6903922830243354,
                1.511649221958462,
                -1.3888613995597725,
                0.0007253479083446646,
                -0.6858536501421753
            ]
        },
        {
            "positions": [
                -1.8288647191504315,
                -1.6744799559187944,
                1.4802650440414031,
                -1.373143982504477,
                -0.12003451916001406,
                -0.8246806175841574
            ]
        },
        {
            "positions": [
                -1.8795788259883948,
                -1.6585676288132534,
                1.4488808661243442,
                -1.3574265654491813,
                -0.24079438622837276,
                -0.9635075850261394
            ]
        },
        {
            "positions": [
                -1.7544362870706944,
                -1.626694768357293,
                1.482706650927841,
                -1.326561991097215,
                -0.217401066988303,
                -1.0976561099099857
            ]
        },
        {
            "positions": [
                -1.6292937481529943,
                -1.5948219079013324,
                1.516532435731338,
                -1.2956974167452489,
                -0.19400774774823323,
                -1.231804634793832
            ]
        },
        {
            "positions": [
                -1.504151209235294,
                -1.562949047445372,
                1.5503582205348347,
                -1.2648328423932824,
                -0.1706144285081635,
                -1.3659531596776784
            ]
        },
        {
            "positions": [
                -1.3790086703175937,
                -1.5310761869894114,
                1.5841840053383316,
                -1.2339682680413162,
                -0.14722110926809373,
                -1.5001016845615247
            ]
        },
        {
            "positions": [
                -1.2538661313998933,
                -1.499203326533451,
                1.6180097901418287,
                -1.20310369368935,
                -0.12382779002802395,
                -1.634250209445371
            ]
        },
        {
            "positions": [
                -1.128723592482193,
                -1.4673304660774904,
                1.6518355749453255,
                -1.1722391193373838,
                -0.1004344707879542,
                -1.7683987343292171
            ]
        },
        {
            "positions": [
                -1.003581053564493,
                -1.43545760562153,
                1.6856613597488224,
                -1.1413745449854176,
                -0.07704115154788443,
                -1.9025472592130634
            ]
        },
        {
            "positions": [
                -0.8784385146467926,
                -1.4035847451655696,
                1.7194871445523192,
                -1.1105099706334511,
                -0.05364783230781467,
                -2.03669578409691
            ]
        },
        {
            "positions": [
                -0.7532959757290922,
                -1.371711884709609,
                1.753312929355816,
                -1.079645396281485,
                -0.030254513067744904,
                -2.1708443089807563
            ]
        },
        {
            "positions": [
                -0.6281534368113919,
                -1.3398390242536484,
                1.787138714159313,
                -1.0487808219295187,
                -0.006861193827675138,
                -2.3049928338646026
            ]
        },
        {
            "positions": [
                -0.5030108978936918,
                -1.307966163797688,
                1.8209644989628098,
                -1.0179162475775523,
                0.0165321254123946,
                -2.439141358748449
            ]
        },
        {
            "positions": [
                -0.37786835897599147,
                -1.2760933033417277,
                1.8547902837663068,
                -0.9870516732255862,
                0.039925444652464365,
                -2.573289883632295
            ]
        },
        {
            "positions": [
                -0.25272582005829114,
                -1.244220442885767,
                1.8886160685698035,
                -0.9561870988736199,
                0.06331876389253413,
                -2.707438408516141
            ]
        },
        {
            "positions": [
                -0.12758328114059103,
                -1.2123475824298067,
                1.9224418533733005,
                -0.9253225245216536,
                0.0867120831326039,
                -2.8415869333999875
            ]
        },
        {
            "positions": [
                -0.0024407422228907016,
                -1.1804747219738463,
                1.9562676381767974,
                -0.8944579501696874,
                0.11010540237267366,
                -2.975735458283834
            ]
        },
        {
            "positions": [
                0.12270179669480982,
                -1.1486018615178857,
                1.9900934229802942,
                -0.8635933758177211,
                0.13349872161274343,
                -3.10988398316768
            ]
        }
    ]
}