{
    "goal": {
        "global_pose": {
            "orientation": {
                "w": 0.7047431468963623,
                "x": -0.7094548344612122,
                "y": 0.0024358443915843964,
                "z": -0.0022348060738295317
            },
            "position": {
                "x": 0.6094750761985779,
                "y": 0.3671506643295288,
                "z": 0.19426114857196808
            }
        },
        "name": "move_to_magneteinheit_A"
    },
    "id": "PRM_move_to_magneteinheit_A_23",
    "joint_names": [
        "shoulder_pan_joint",
        "shoulder_lift_joint",
        "elbow_joint",
        "wrist_1_joint",
        "wrist_2_joint",
        "wrist_3_joint"
    ],
    "metrics": {
        "cart_traj_len": 3.6438822970117477,
        "distance_elbow_joint": 3.9119312458576463,
        "distance_shoulder_lift_joint": 0.4664682530926285,
        "distance_shoulder_pan_joint": 3.0028627468509894,
        "distance_wrist_1_joint": 3.469368467914146,
        "distance_wrist_2_joint": 1.7031861933295103,
        "distance_wrist_3_joint": 1.6683331612999674,
        "smoothness": 0.10710550921678887,
        "time": 0.150597199,
        "traj_len": 3.7712265999731303,
        "weighted_distance": 4.767742762795461
    },
    "planner": "PRM",
    "start": {
        "state": {
            "elbow_joint": -1.919618573717145,
            "shoulder_lift_joint": -1.2443395971678275,
            "shoulder_pan_joint": 2.6996025300909787,
            "wrist_1_joint": -1.548550951253194,
            "wrist_2_joint": -1.5709469090946802,
            "wrist_3_joint": 0.4420197732051276
        }
    },
    "waypoints": [
        {
            "positions": [
                2.6996025300909787,
                -1.2443395971678275,
                -1.919618573717145,
                -1.548550951253194,
                -1.5709469090946802,
                0.4420197732051276
            ]
        },
        {
            "positions": [
                2.572790855125538,
                -1.2337578790988084,
                -1.8128325799741865,
                -1.5040858561688197,
                -1.4993113675410699,
                0.47010455431869685
            ]
        },
        {
            "positions": [
                2.445979180160097,
                -1.223176161029789,
                -1.706046586231228,
                -1.4596207610844456,
                -1.4276758259874598,
                0.4981893354322661
            ]
        },
        {
            "positions": [
                2.319167505194656,
                -1.21259444296077,
                -1.5992605924882695,
                -1.4151556660000713,
                -1.3560402844338495,
                0.5262741165458353
            ]
        },
        {
            "positions": [
                2.192355830229215,
                -1.2020127248917507,
                -1.492474598745311,
                -1.370690570915697,
                -1.2844047428802392,
                0.5543588976594046
            ]
        },
        {
            "positions": [
                2.0655441552637743,
                -1.1914310068227316,
                -1.3856886050023525,
                -1.3262254758313228,
                -1.2127692013266291,
                0.5824436787729739
            ]
        },
        {
            "positions": [
                1.9387324802983337,
                -1.1808492887537123,
                -1.278902611259394,
                -1.2817603807469484,
                -1.1411336597730188,
                0.6105284598865431
            ]
        },
        {
            "positions": [
                1.8119208053328926,
                -1.1702675706846932,
                -1.1721166175164355,
                -1.237295285662574,
                -1.0694981182194088,
                0.6386132410001124
            ]
        },
        {
            "positions": [
                1.685109130367452,
                -1.159685852615674,
                -1.065330623773477,
                -1.1928301905781997,
                -0.9978625766657984,
                0.6666980221136817
            ]
        },
        {
            "positions": [
                1.558297455402011,
                -1.1491041345466548,
                -0.9585446300305184,
                -1.1483650954938256,
                -0.9262270351121881,
                0.694782803227251
            ]
        },
        {
            "positions": [
                1.4314857804365702,
                -1.1385224164776355,
                -0.85175863628756,
                -1.1039000004094512,
                -0.854591493558578,
                0.7228675843408201
            ]
        },
        {
            "positions": [
                1.3046741054711293,
                -1.1279406984086164,
                -0.7449726425446015,
                -1.0594349053250771,
                -0.7829559520049677,
                0.7509523654543895
            ]
        },
        {
            "positions": [
                1.1778624305056886,
                -1.1173589803395974,
                -0.638186648801643,
                -1.0149698102407028,
                -0.7113204104513575,
                0.7790371465679586
            ]
        },
        {
            "positions": [
                1.0510507555402475,
                -1.106777262270578,
                -0.5314006550586845,
                -0.9705047151563284,
                -0.6396848688977472,
                0.807121927681528
            ]
        },
        {
            "positions": [
                0.9242390805748066,
                -1.096195544201559,
                -0.424614661315726,
                -0.9260396200719542,
                -0.5680493273441372,
                0.8352067087950972
            ]
        },
        {
            "positions": [
                0.797427405609366,
                -1.0856138261325396,
                -0.31782866757276773,
                -0.8815745249875799,
                -0.49641378579052686,
                0.8632914899086664
            ]
        },
        {
            "positions": [
                0.6706157306439251,
                -1.0750321080635206,
                -0.211042673829809,
                -0.8371094299032056,
                -0.42477824423691657,
                0.8913762710222357
            ]
        },
        {
            "positions": [
                0.5438040556784842,
                -1.0644503899945013,
                -0.10425668008685052,
                -0.7926443348188313,
                -0.3531427026833065,
                0.919461052135805
            ]
        },
        {
            "positions": [
                0.41699238071304334,
                -1.0538686719254822,
                0.002529313656108201,
                -0.748179239734457,
                -0.281507161129696,
                0.9475458332493742
            ]
        },
        {
            "positions": [
                0.29018070574760246,
                -1.0432869538564629,
                0.10931530739906647,
                -0.7037141446500828,
                -0.2098716195760859,
                0.9756306143629434
            ]
        },
        {
            "positions": [
                0.16336903078216158,
                -1.0327052357874438,
                0.21610130114202497,
                -0.6592490495657085,
                -0.13823607802247584,
                1.0037153954765128
            ]
        },
        {
            "positions": [
                0.036557355816720705,
                -1.0221235177184245,
                0.32288729488498347,
                -0.6147839544813342,
                -0.06660053646886532,
                1.031800176590082
            ]
        },
        {
            "positions": [
                -0.09025431914872008,
                -1.0115417996494054,
                0.42967328862794174,
                -0.5703188593969599,
                0.00503500508474479,
                1.0598849577036513
            ]
        },
        {
            "positions": [
                -0.07743277710653633,
                -0.9951856867491744,
                0.5397084612247923,
                -0.3967838382447908,
                -0.0027038352772481332,
                0.9873488440083046
            ]
        },
        {
            "positions": [
                -0.0646112350643526,
                -0.9788295738489434,
                0.6497436338216429,
                -0.22324881709262173,
                -0.010442675639241056,
                0.9148127303129578
            ]
        },
        {
            "positions": [
                -0.05178969302216885,
                -0.9624734609487124,
                0.7597788064184936,
                -0.049713795940452665,
                -0.01818151600123398,
                0.8422766166176111
            ]
        },
        {
            "positions": [
                -0.03896815097998511,
                -0.9461173480484816,
                0.8698139790153442,
                0.12382122521171646,
                -0.025920356363226902,
                0.7697405029222644
            ]
        },
        {
            "positions": [
                -0.026146608937801366,
                -0.9297612351482506,
                0.9798491516121948,
                0.2973562463638856,
                -0.033659196725219824,
                0.6972043892269177
            ]
        },
        {
            "positions": [
                -0.013325066895617618,
                -0.9134051222480196,
                1.0898843242090455,
                0.4708912675160546,
                -0.04139803708721275,
                0.6246682755315709
            ]
        },
        {
            "positions": [
                -0.0005035248534338982,
                -0.8970490093477886,
                1.199919496805896,
                0.6444262886682237,
                -0.04913687744920567,
                0.5521321618362243
            ]
        },
        {
            "positions": [
                0.012318017188749864,
                -0.8806928964475577,
                1.3099546694027466,
                0.8179613098203928,
                -0.056875717811198594,
                0.47959604814087753
            ]
        },
        {
            "positions": [
                0.025139559230933597,
                -0.8643367835473268,
                1.4199898419995973,
                0.9914963309725617,
                -0.06461455817319152,
                0.4070599344455309
            ]
        },
        {
            "positions": [
                0.037961101273117345,
                -0.8479806706470958,
                1.5300250145964478,
                1.165031352124731,
                -0.07235339853518444,
                0.33452382075018405
            ]
        },
        {
            "positions": [
                0.050782643315301065,
                -0.8316245577468648,
                1.6400601871932985,
                1.3385663732769,
                -0.08009223889717736,
                0.2619877070548374
            ]
        },
        {
            "positions": [
                0.06360418535748484,
                -0.8152684448466339,
                1.7500953597901492,
                1.512101394429069,
                -0.08783107925917029,
                0.18945159335949058
            ]
        },
        {
            "positions": [
                0.07642572739966855,
                -0.7989123319464029,
                1.8601305323869997,
                1.6856364155812382,
                -0.09556991962116321,
                0.11691547966414392
            ]
        },
        {
            "positions": [
                0.09958865293111935,
                -0.7883918380108009,
                1.9262216022637515,
                1.803226966121095,
                -0.10886959684325206,
                0.06316623028317586
            ]
        },
        {
            "positions": [
                0.12275157846257014,
                -0.777871344075199,
                1.9923126721405033,
                1.9208175166609516,
                -0.12216927406534092,
                0.009416980902207816
            ]
        }
    ]
}{
    "goal": {
        "global_pose": {
            "orientation": {
                "w": 0.7047431468963623,
                "x": -0.7094548344612122,
                "y": 0.0024358443915843964,
                "z": -0.0022348060738295317
            },
            "position": {
                "x": 0.6094750761985779,
                "y": 0.3671506643295288,
                "z": 0.19426114857196808
            }
        },
        "name": "move_to_magneteinheit_A"
    },
    "id": "PRM_move_to_magneteinheit_A_23",
    "joint_names": [
        "shoulder_pan_joint",
        "shoulder_lift_joint",
        "elbow_joint",
        "wrist_1_joint",
        "wrist_2_joint",
        "wrist_3_joint"
    ],
    "metrics": {
        "cart_traj_len": 1.226394700443999,
        "distance_elbow_joint": 0.32395540752683827,
        "distance_shoulder_lift_joint": 0.795187677217005,
        "distance_shoulder_pan_joint": 1.2417605692275848,
        "distance_wrist_1_joint": 1.7645390686978453,
        "distance_wrist_2_joint": 2.113695047701831,
        "distance_wrist_3_joint": 4.370858724553622,
        "smoothness": 0.45345197618286076,
        "time": 0.099192908,
        "traj_len": 3.2572989569464954,
        "weighted_distance": 4.8197456427109975
    },
    "planner": "PRM",
    "start": {
        "state": {
            "elbow_joint": 1.919643534880228,
            "shoulder_lift_joint": -1.8972525353963687,
            "shoulder_pan_joint": -1.1188672234189438,
            "wrist_1_joint": -1.5931878212786155,
            "wrist_2_joint": 1.5706036197970081,
            "wrist_3_joint": 1.118896926603594
        }
    },
    "waypoints": [
        {
            "positions": [
                -1.1188672234189438,
                -1.8972525353963687,
                1.919643534880228,
                -1.5931878212786155,
                1.5706036197970081,
                1.118896926603594
            ]
        },
        {
            "positions": [
                -1.0684680391150767,
                -1.8633376724816428,
                1.9134304395509214,
                -1.5357635294571852,
                1.493316577007009,
                0.9498794230833946
            ]
        },
        {
            "positions": [
                -1.0180688548112098,
                -1.8294228095669167,
                1.9072173442216147,
                -1.478339237635755,
                1.4160295342170097,
                0.7808619195631952
            ]
        },
        {
            "positions": [
                -0.9676696705073426,
                -1.7955079466521908,
                1.901004248892308,
                -1.4209149458143246,
                1.3387424914270105,
                0.6118444160429958
            ]
        },
        {
            "positions": [
                -0.9172704862034756,
                -1.761593083737465,
                1.8947911535630013,
                -1.3634906539928944,
                1.261455448637011,
                0.4428269125227964
            ]
        },
        {
            "positions": [
                -0.8668713018996086,
                -1.7276782208227388,
                1.8885780582336946,
                -1.306066362171464,
                1.1841684058470119,
                0.273809409002597
            ]
        },
        {
            "positions": [
                -0.8164721175957416,
                -1.693763357908013,
                1.8823649629043882,
                -1.2486420703500338,
                1.1068813630570127,
                0.10479190548239758
            ]
        },
        {
            "positions": [
                -0.7660729332918745,
                -1.659848494993287,
                1.8761518675750815,
                -1.1912177785286033,
                1.0295943202670133,
                -0.06422559803780192
            ]
        },
        {
            "positions": [
                -0.7156737489880074,
                -1.625933632078561,
                1.8699387722457748,
                -1.1337934867071733,
                0.9523072774770142,
                -0.2332431015580012
            ]
        },
        {
            "positions": [
                -0.6652745646841404,
                -1.592018769163835,
                1.863725676916468,
                -1.0763691948857428,
                0.875020234687015,
                -0.4022606050782007
            ]
        },
        {
            "positions": [
                -0.6148753803802733,
                -1.558103906249109,
                1.8575125815871614,
                -1.0189449030643125,
                0.7977331918970157,
                -0.5712781085984
            ]
        },
        {
            "positions": [
                -0.5644761960764062,
                -1.524189043334383,
                1.8512994862578547,
                -0.9615206112428824,
                0.7204461491070164,
                -0.7402956121185995
            ]
        },
        {
            "positions": [
                -0.5140770117725393,
                -1.490274180419657,
                1.845086390928548,
                -0.9040963194214521,
                0.6431591063170172,
                -0.9093131156387988
            ]
        },
        {
            "positions": [
                -0.46367782746867225,
                -1.4563593175049312,
                1.8388732955992413,
                -0.8466720276000218,
                0.565872063527018,
                -1.0783306191589983
            ]
        },
        {
            "positions": [
                -0.4132786431648051,
                -1.422444454590205,
                1.8326602002699346,
                -0.7892477357785914,
                0.4885850207370186,
                -1.2473481226791978
            ]
        },
        {
            "positions": [
                -0.3628794588609381,
                -1.388529591675479,
                1.826447104940628,
                -0.7318234439571613,
                0.4112979779470194,
                -1.4163656261993973
            ]
        },
        {
            "positions": [
                -0.31248027455707106,
                -1.3546147287607533,
                1.8202340096113212,
                -0.674399152135731,
                0.3340109351570202,
                -1.5853831297195964
            ]
        },
        {
            "positions": [
                -0.26208109025320403,
                -1.3206998658460272,
                1.8140209142820147,
                -0.6169748603143007,
                0.256723892367021,
                -1.754400633239796
            ]
        },
        {
            "positions": [
                -0.2116819059493369,
                -1.286785002931301,
                1.807807818952708,
                -0.5595505684928703,
                0.17943684957702177,
                -1.9234181367599954
            ]
        },
        {
            "positions": [
                -0.16128272164546986,
                -1.2528701400165754,
                1.8015947236234013,
                -0.50212627667144,
                0.10214980678702257,
                -2.092435640280195
            ]
        },
        {
            "positions": [
                -0.11088353734160283,
                -1.2189552771018493,
                1.7953816282940946,
                -0.4447019848500098,
                0.024862763997023363,
                -2.261453143800394
            ]
        },
        {
            "positions": [
                -0.060484353037735694,
                -1.1850404141871234,
                1.789168532964788,
                -0.3872776930285795,
                -0.05242427879297584,
                -2.4304706473205933
            ]
        },
        {
            "positions": [
                -0.010085168733868555,
                -1.1511255512723972,
                1.7829554376354813,
                -0.32985340120714923,
                -0.12971132158297527,
                -2.599488150840793
            ]
        },
        {
            "positions": [
                0.04031401556999825,
                -1.1172106883576713,
                1.7767423423061746,
                -0.272429109385719,
                -0.20699836437297436,
                -2.7685056543609923
            ]
        },
        {
            "positions": [
                0.06095884812965881,
                -1.1209971459022483,
                1.8220058960443708,
                -0.3833741985869562,
                -0.12297509849001236,
                -2.889369690258251
            ]
        },
        {
            "positions": [
                0.08160368068931936,
                -1.1247836034468253,
                1.867269449782567,
                -0.49431928778819345,
                -0.038951832607050346,
                -3.01023372615551
            ]
        },
        {
            "positions": [
                0.10224851324897993,
                -1.128570060991402,
                1.912533003520763,
                -0.6052643769894306,
                0.045071433275911676,
                -3.131097762052769
            ]
        },
        {
            "positions": [
                0.12289334580864049,
                -1.132356518535979,
                1.9577965572589593,
                -0.7162094661906678,
                0.12909469915887367,
                -3.2519617979500275
            ]
        }
    ]
}