{
    "goal": {
        "global_pose": {
            "orientation": {
                "w": 0.7047431468963623,
                "x": -0.7094548344612122,
                "y": 0.0024358443915843964,
                "z": -0.0022348060738295317
            },
            "position": {
                "x": 0.6094750761985779,
                "y": 0.3671506643295288,
                "z": 0.19426114857196808
            }
        },
        "name": "move_to_magneteinheit_A"
    },
    "id": "PRM_move_to_magneteinheit_A_2",
    "joint_names": [
        "shoulder_pan_joint",
        "shoulder_lift_joint",
        "elbow_joint",
        "wrist_1_joint",
        "wrist_2_joint",
        "wrist_3_joint"
    ],
    "metrics": {
        "cart_traj_len": 3.3135480116685394,
        "distance_elbow_joint": 3.909652600638129,
        "distance_shoulder_lift_joint": 0.65770398421236,
        "distance_shoulder_pan_joint": 2.5776678964502597,
        "distance_wrist_1_joint": 3.464586101959228,
        "distance_wrist_2_joint": 1.7581063788734717,
        "distance_wrist_3_joint": 1.2146322173300894,
        "smoothness": 0.04282746103880685,
        "time": 0.24882675199999998,
        "traj_len": 3.685423880568359,
        "weighted_distance": 4.608069671235063
    },
    "planner": "PRM",
    "start": {
        "state": {
            "elbow_joint": -1.919618573717145,
            "shoulder_lift_joint": -1.2443395971678275,
            "shoulder_pan_joint": 2.6996025300909787,
            "wrist_1_joint": -1.548550951253194,
            "wrist_2_joint": -1.5709469090946802,
            "wrist_3_joint": 0.4420197732051276
        }
    },
    "waypoints": [
        {
            "positions": [
                2.6996025300909787,
                -1.2443395971678275,
                -1.919618573717145,
                -1.548550951253194,
                -1.5709469090946802,
                0.4420197732051276
            ]
        },
        {
            "positions": [
                2.6039544719853858,
                -1.2233056347788316,
                -1.8350845931031559,
                -1.4450374298590885,
                -1.5095130364331513,
                0.457205267346551
            ]
        },
        {
            "positions": [
                2.5083064138797933,
                -1.2022716723898357,
                -1.7505506124891665,
                -1.3415239084649826,
                -1.4480791637716224,
                0.4723907614879743
            ]
        },
        {
            "positions": [
                2.4126583557742003,
                -1.1812377100008395,
                -1.6660166318751775,
                -1.238010387070877,
                -1.3866452911100937,
                0.48757625562939766
            ]
        },
        {
            "positions": [
                2.3170102976686078,
                -1.1602037476118436,
                -1.5814826512611884,
                -1.134496865676771,
                -1.3252114184485648,
                0.502761749770821
            ]
        },
        {
            "positions": [
                2.221362239563015,
                -1.1391697852228477,
                -1.496948670647199,
                -1.0309833442826655,
                -1.263777545787036,
                0.5179472439122444
            ]
        },
        {
            "positions": [
                2.1257141814574223,
                -1.1181358228338518,
                -1.4124146900332097,
                -0.9274698228885597,
                -1.2023436731255073,
                0.5331327380536678
            ]
        },
        {
            "positions": [
                2.0300661233518293,
                -1.0971018604448557,
                -1.3278807094192207,
                -0.8239563014944541,
                -1.1409098004639784,
                0.5483182321950911
            ]
        },
        {
            "positions": [
                1.9344180652462366,
                -1.0760678980558598,
                -1.2433467288052316,
                -0.7204427801003482,
                -1.0794759278024495,
                0.5635037263365146
            ]
        },
        {
            "positions": [
                1.8387700071406439,
                -1.0550339356668639,
                -1.1588127481912425,
                -0.6169292587062426,
                -1.0180420551409206,
                0.5786892204779379
            ]
        },
        {
            "positions": [
                1.7431219490350511,
                -1.033999973277868,
                -1.0742787675772532,
                -0.5134157373121369,
                -0.9566081824793918,
                0.5938747146193613
            ]
        },
        {
            "positions": [
                1.6474738909294584,
                -1.012966010888872,
                -0.9897447869632641,
                -0.4099022159180312,
                -0.8951743098178631,
                0.6090602087607846
            ]
        },
        {
            "positions": [
                1.5518258328238657,
                -0.9919320484998759,
                -0.9052108063492748,
                -0.30638869452392536,
                -0.8337404371563342,
                0.6242457029022079
            ]
        },
        {
            "positions": [
                1.456177774718273,
                -0.97089808611088,
                -0.8206768257352857,
                -0.20287517312981973,
                -0.7723065644948054,
                0.6394311970436314
            ]
        },
        {
            "positions": [
                1.3605297166126802,
                -0.9498641237218841,
                -0.7361428451212966,
                -0.0993616517357141,
                -0.7108726918332766,
                0.6546166911850547
            ]
        },
        {
            "positions": [
                1.2648816585070874,
                -0.9288301613328882,
                -0.6516088645073075,
                0.004151869658391538,
                -0.6494388191717478,
                0.6698021853264781
            ]
        },
        {
            "positions": [
                1.1692336004014945,
                -0.9077961989438921,
                -0.5670748838933182,
                0.10766539105249762,
                -0.5880049465102188,
                0.6849876794679015
            ]
        },
        {
            "positions": [
                1.073585542295902,
                -0.8867622365548962,
                -0.48254090327932886,
                0.21117891244660325,
                -0.5265710738486902,
                0.7001731736093249
            ]
        },
        {
            "positions": [
                0.9779374841903092,
                -0.8657282741659003,
                -0.39800692266533977,
                0.3146924338407089,
                -0.4651372011871613,
                0.7153586677507482
            ]
        },
        {
            "positions": [
                0.8822894260847165,
                -0.8446943117769043,
                -0.3134729420513507,
                0.4182059552348145,
                -0.4037033285256324,
                0.7305441618921715
            ]
        },
        {
            "positions": [
                0.7866413679791235,
                -0.8236603493879082,
                -0.22893896143736137,
                0.5217194766289204,
                -0.3422694558641035,
                0.7457296560335949
            ]
        },
        {
            "positions": [
                0.690993309873531,
                -0.8026263869989123,
                -0.14440498082337228,
                0.625232998023026,
                -0.28083558320257485,
                0.7609151501750183
            ]
        },
        {
            "positions": [
                0.5953452517679381,
                -0.7815924246099164,
                -0.059871000209383185,
                0.7287465194171316,
                -0.21940171054104596,
                0.7761006443164417
            ]
        },
        {
            "positions": [
                0.49969719366234555,
                -0.7605584622209205,
                0.024662980404606127,
                0.8322600408112373,
                -0.15796783787951707,
                0.791286138457865
            ]
        },
        {
            "positions": [
                0.4040491355567526,
                -0.7395244998319245,
                0.10919696101859544,
                0.9357735622053434,
                -0.09653396521798818,
                0.8064716325992884
            ]
        },
        {
            "positions": [
                0.30840107745115963,
                -0.7184905374429285,
                0.19373094163258453,
                1.039287083599449,
                -0.03510009255645952,
                0.8216571267407118
            ]
        },
        {
            "positions": [
                0.21275301934556712,
                -0.6974565750539325,
                0.2782649222465735,
                1.1428006049935546,
                0.026333780105069343,
                0.8368426208821351
            ]
        },
        {
            "positions": [
                0.20190440608793322,
                -0.695089096700835,
                0.45313149797034236,
                1.2205218202455212,
                0.027105155212378006,
                0.7380039063091173
            ]
        },
        {
            "positions": [
                0.19105579283029933,
                -0.6927216183477375,
                0.6279980736941112,
                1.2982430354974879,
                0.02787653031968667,
                0.6391651917360994
            ]
        },
        {
            "positions": [
                0.18020717957266544,
                -0.6903541399946399,
                0.80286464941788,
                1.3759642507494545,
                0.02864790542699533,
                0.5403264771630816
            ]
        },
        {
            "positions": [
                0.16935856631503154,
                -0.6879866616415424,
                0.9777312251416489,
                1.4536854660014211,
                0.029419280534303992,
                0.4414877625900636
            ]
        },
        {
            "positions": [
                0.15850995305739762,
                -0.6856191832884448,
                1.1525978008654176,
                1.531406681253388,
                0.030190655641612656,
                0.3426490480170457
            ]
        },
        {
            "positions": [
                0.14766133979976376,
                -0.6832517049353474,
                1.3274643765891865,
                1.6091278965053546,
                0.03096203074892132,
                0.24381033344402792
            ]
        },
        {
            "positions": [
                0.13681272654212984,
                -0.6808842265822498,
                1.5023309523129553,
                1.6868491117573212,
                0.03173340585622998,
                0.14497161887100996
            ]
        },
        {
            "positions": [
                0.1318533622416593,
                -0.7123004311245106,
                1.664898643848965,
                1.7632444580735585,
                -0.020075282117957297,
                0.10232549632369096
            ]
        },
        {
            "positions": [
                0.12689399794118877,
                -0.7437166356667713,
                1.8274663353849745,
                1.8396398043897957,
                -0.07188397009214458,
                0.059679373776371974
            ]
        },
        {
            "positions": [
                0.12193463364071824,
                -0.7751328402090321,
                1.9900340269209842,
                1.916035150706033,
                -0.12369265806633185,
                0.01703325122905297
            ]
        }
    ]
}{
    "goal": {
        "global_pose": {
            "orientation": {
                "w": 0.7047431468963623,
                "x": -0.7094548344612122,
                "y": 0.0024358443915843964,
                "z": -0.0022348060738295317
            },
            "position": {
                "x": 0.6094750761985779,
                "y": 0.3671506643295288,
                "z": 0.19426114857196808
            }
        },
        "name": "move_to_magneteinheit_A"
    },
    "id": "PRM_move_to_magneteinheit_A_2",
    "joint_names": [
        "shoulder_pan_joint",
        "shoulder_lift_joint",
        "elbow_joint",
        "wrist_1_joint",
        "wrist_2_joint",
        "wrist_3_joint"
    ],
    "metrics": {
        "cart_traj_len": 1.1429500135894048,
        "distance_elbow_joint": 0.06374020654297086,
        "distance_shoulder_lift_joint": 0.7521618453472412,
        "distance_shoulder_pan_joint": 1.241542376995259,
        "distance_wrist_1_joint": 1.6376048615032168,
        "distance_wrist_2_joint": 2.8429469125959166,
        "distance_wrist_3_joint": 4.261895895345342,
        "smoothness": 0.47877376112768744,
        "time": 0.11892117499999999,
        "traj_len": 3.2863189282736913,
        "weighted_distance": 4.878958460893038
    },
    "planner": "PRM",
    "start": {
        "state": {
            "elbow_joint": 1.919643534880228,
            "shoulder_lift_joint": -1.8972525353963687,
            "shoulder_pan_joint": -1.1188672234189438,
            "wrist_1_joint": -1.5931878212786155,
            "wrist_2_joint": 1.5706036197970081,
            "wrist_3_joint": 1.118896926603594
        }
    },
    "waypoints": [
        {
            "positions": [
                -1.1188672234189438,
                -1.8972525353963687,
                1.919643534880228,
                -1.5931878212786155,
                1.5706036197970081,
                1.118896926603594
            ]
        },
        {
            "positions": [
                -1.0933963139072407,
                -1.8905174036883496,
                1.9208352847525587,
                -1.5363885966618065,
                1.4683930690212261,
                0.927386068255075
            ]
        },
        {
            "positions": [
                -1.0679254043955375,
                -1.8837822719803303,
                1.922027034624889,
                -1.4795893720449973,
                1.3661825182454441,
                0.735875209906556
            ]
        },
        {
            "positions": [
                -1.0424544948838343,
                -1.8770471402723112,
                1.9232187844972197,
                -1.4227901474281883,
                1.2639719674696621,
                0.544364351558037
            ]
        },
        {
            "positions": [
                -1.016983585372131,
                -1.870312008564292,
                1.9244105343695503,
                -1.3659909228113791,
                1.1617614166938801,
                0.352853493209518
            ]
        },
        {
            "positions": [
                -0.9915126758604279,
                -1.8635768768562728,
                1.925602284241881,
                -1.3091916981945702,
                1.0595508659180979,
                0.16134263486099898
            ]
        },
        {
            "positions": [
                -0.9660417663487246,
                -1.8568417451482535,
                1.9267940341142114,
                -1.252392473577761,
                0.957340315142316,
                -0.03016822348752002
            ]
        },
        {
            "positions": [
                -0.9405708568370215,
                -1.8501066134402344,
                1.927985783986542,
                -1.195593248960952,
                0.8551297643665339,
                -0.22167908183603902
            ]
        },
        {
            "positions": [
                -0.9150999473253183,
                -1.8433714817322153,
                1.9291775338588726,
                -1.1387940243441428,
                0.7529192135907519,
                -0.413189940184558
            ]
        },
        {
            "positions": [
                -0.8896290378136151,
                -1.836636350024196,
                1.930369283731203,
                -1.0819947997273338,
                0.6507086628149699,
                -0.604700798533077
            ]
        },
        {
            "positions": [
                -0.864158128301912,
                -1.829901218316177,
                1.9315610336035336,
                -1.0251955751105246,
                0.5484981120391879,
                -0.796211656881596
            ]
        },
        {
            "positions": [
                -0.8386872187902086,
                -1.8231660866081576,
                1.9327527834758642,
                -0.9683963504937155,
                0.44628756126340563,
                -0.9877225152301154
            ]
        },
        {
            "positions": [
                -0.8132163092785054,
                -1.8164309549001385,
                1.9339445333481948,
                -0.9115971258769066,
                0.34407701048762385,
                -1.179233373578634
            ]
        },
        {
            "positions": [
                -0.7877453997668022,
                -1.8096958231921192,
                1.9351362832205252,
                -0.8547979012600974,
                0.24186645971184162,
                -1.3707442319271534
            ]
        },
        {
            "positions": [
                -0.7622744902550991,
                -1.8029606914841,
                1.9363280330928558,
                -0.7979986766432884,
                0.13965590893605961,
                -1.562255090275672
            ]
        },
        {
            "positions": [
                -0.7368035807433959,
                -1.796225559776081,
                1.9375197829651865,
                -0.7411994520264793,
                0.03744535816027761,
                -1.7537659486241914
            ]
        },
        {
            "positions": [
                -0.7113326712316927,
                -1.7894904280680617,
                1.9387115328375168,
                -0.6844002274096702,
                -0.0647651926155044,
                -1.94527680697271
            ]
        },
        {
            "positions": [
                -0.6858617617199895,
                -1.7827552963600426,
                1.9399032827098475,
                -0.6276010027928611,
                -0.16697574339128662,
                -2.136787665321229
            ]
        },
        {
            "positions": [
                -0.6603908522082863,
                -1.7760201646520233,
                1.941095032582178,
                -0.5708017781760522,
                -0.2691862941670684,
                -2.3282985236697478
            ]
        },
        {
            "positions": [
                -0.634919942696583,
                -1.7692850329440042,
                1.9422867824545087,
                -0.514002553559243,
                -0.37139684494285063,
                -2.519809382018267
            ]
        },
        {
            "positions": [
                -0.60944903318488,
                -1.7625499012359849,
                1.943478532326839,
                -0.457203328942434,
                -0.4736073957186324,
                -2.7113202403667858
            ]
        },
        {
            "positions": [
                -0.5839781236731767,
                -1.7558147695279658,
                1.9446702821991697,
                -0.4004041043256248,
                -0.5758179464944144,
                -2.9028310987153056
            ]
        },
        {
            "positions": [
                -0.48302765549467785,
                -1.6685684724595604,
                1.950200776374031,
                -0.4639499821185143,
                -0.47631432559377235,
                -2.9371407944333683
            ]
        },
        {
            "positions": [
                -0.38207718731617907,
                -1.5813221753911548,
                1.9557312705488923,
                -0.5274958599114038,
                -0.37681070469313027,
                -2.971450490151431
            ]
        },
        {
            "positions": [
                -0.2811267191376802,
                -1.4940758783227495,
                1.9612617647237536,
                -0.5910417377042932,
                -0.27730708379248825,
                -3.0057601858694936
            ]
        },
        {
            "positions": [
                -0.18017625095918144,
                -1.4068295812543439,
                1.966792258898615,
                -0.6545876154971828,
                -0.17780346289184618,
                -3.0400698815875566
            ]
        },
        {
            "positions": [
                -0.0792257827806826,
                -1.3195832841859385,
                1.9723227530734764,
                -0.7181334932900723,
                -0.0782998419912041,
                -3.0743795773056193
            ]
        },
        {
            "positions": [
                0.021724685397816246,
                -1.2323369871175331,
                1.9778532472483377,
                -0.7816793710829617,
                0.02120377890943792,
                -3.108689273023682
            ]
        },
        {
            "positions": [
                0.12267515357631507,
                -1.1450906900491276,
                1.983383741423199,
                -0.8452252488758513,
                0.12070739981008005,
                -3.1429989687417446
            ]
        }
    ]
}