{
    "goal": {
        "global_pose": {
            "orientation": {
                "w": 0.5084816217422485,
                "x": -0.49083608388900757,
                "y": 0.5182115435600281,
                "z": -0.4816462993621826
            },
            "position": {
                "x": 0.5540239810943604,
                "y": 0.030875300988554955,
                "z": 0.16403168439865112
            }
        },
        "name": "move_to_storage_A"
    },
    "id": "PRM_move_to_storage_A_112",
    "joint_names": [
        "shoulder_pan_joint",
        "shoulder_lift_joint",
        "elbow_joint",
        "wrist_1_joint",
        "wrist_2_joint",
        "wrist_3_joint"
    ],
    "metrics": {
        "cart_traj_len": 0.35237397847245,
        "distance_elbow_joint": 0.4531040265774653,
        "distance_shoulder_lift_joint": 0.23262046980425022,
        "distance_shoulder_pan_joint": 0.45632718228753166,
        "distance_wrist_1_joint": 0.2602192635694861,
        "distance_wrist_2_joint": 1.1159959279712535,
        "distance_wrist_3_joint": 0.09658305952790913,
        "smoothness": 6.661338165333112e-16,
        "time": 0.016874414,
        "traj_len": 1.6170497610580497,
        "weighted_distance": 2.0455393519398384
    },
    "planner": "PRM",
    "start": {
        "state": {
            "elbow_joint": 1.9715477243005601,
            "shoulder_lift_joint": -1.1394853015351272,
            "shoulder_pan_joint": 0.12281154014795169,
            "wrist_1_joint": -0.7804696478968182,
            "wrist_2_joint": 0.12958648046900423,
            "wrist_3_joint": -3.192491284697111
        }
    },
    "waypoints": [
        {
            "positions": [
                0.12281154014795169,
                -1.1394853015351272,
                1.9715477243005601,
                -0.7804696478968182,
                0.12958648046900423,
                -3.192491284697111
            ]
        },
        {
            "positions": [
                0.05762194267830431,
                -1.1727167972214487,
                2.0362768709544836,
                -0.8176438284067448,
                0.28901447017918325,
                -3.178693704764553
            ]
        },
        {
            "positions": [
                -0.0075676547913430675,
                -1.20594829290777,
                2.1010060176084076,
                -0.8548180089166714,
                0.4484424598893623,
                -3.1648961248319942
            ]
        },
        {
            "positions": [
                -0.07275725226099043,
                -1.2391797885940916,
                2.165735164262331,
                -0.8919921894265979,
                0.6078704495995414,
                -3.151098544899436
            ]
        },
        {
            "positions": [
                -0.1379468497306378,
                -1.272411284280413,
                2.2304643109162545,
                -0.9291663699365245,
                0.7672984393097204,
                -3.1373009649668773
            ]
        },
        {
            "positions": [
                -0.20313644720028523,
                -1.3056427799667345,
                2.2951934575701785,
                -0.9663405504464511,
                0.9267264290198995,
                -3.123503385034319
            ]
        },
        {
            "positions": [
                -0.26832604466993254,
                -1.3388742756530558,
                2.359922604224102,
                -1.0035147309563777,
                1.0861544187300787,
                -3.1097058051017603
            ]
        },
        {
            "positions": [
                -0.33351564213957996,
                -1.3721057713393774,
                2.4246517508780254,
                -1.0406889114663043,
                1.2455824084402576,
                -3.095908225169202
            ]
        }
    ]
}