{
    "goal": {
        "global_pose": {
            "orientation": {
                "w": 0.7047431468963623,
                "x": -0.7094548344612122,
                "y": 0.0024358443915843964,
                "z": -0.0022348060738295317
            },
            "position": {
                "x": 0.6094750761985779,
                "y": 0.3671506643295288,
                "z": 0.19426114857196808
            }
        },
        "name": "move_to_magneteinheit_A"
    },
    "id": "PRM_move_to_magneteinheit_A_24",
    "joint_names": [
        "shoulder_pan_joint",
        "shoulder_lift_joint",
        "elbow_joint",
        "wrist_1_joint",
        "wrist_2_joint",
        "wrist_3_joint"
    ],
    "metrics": {
        "cart_traj_len": 3.5548866351466364,
        "distance_elbow_joint": 3.911420008828168,
        "distance_shoulder_lift_joint": 0.46639745390576215,
        "distance_shoulder_pan_joint": 2.6665018824973847,
        "distance_wrist_1_joint": 3.4724161023922204,
        "distance_wrist_2_joint": 3.244896046183419,
        "distance_wrist_3_joint": 1.372190022811222,
        "smoothness": 0.15955540091135856,
        "time": 0.089276558,
        "traj_len": 3.8902212683365676,
        "weighted_distance": 4.959386424832839
    },
    "planner": "PRM",
    "start": {
        "state": {
            "elbow_joint": -1.919618573717145,
            "shoulder_lift_joint": -1.2443395971678275,
            "shoulder_pan_joint": 2.6996025300909787,
            "wrist_1_joint": -1.548550951253194,
            "wrist_2_joint": -1.5709469090946802,
            "wrist_3_joint": 0.4420197732051276
        }
    },
    "waypoints": [
        {
            "positions": [
                2.6996025300909787,
                -1.2443395971678275,
                -1.919618573717145,
                -1.548550951253194,
                -1.5709469090946802,
                0.4420197732051276
            ]
        },
        {
            "positions": [
                2.6018905996012345,
                -1.2276264026884007,
                -1.8383646975134202,
                -1.48486684049439,
                -1.4731821373623017,
                0.40436168120972604
            ]
        },
        {
            "positions": [
                2.5041786691114907,
                -1.210913208208974,
                -1.7571108213096955,
                -1.4211827297355861,
                -1.3754173656299233,
                0.36670358921432444
            ]
        },
        {
            "positions": [
                2.4064667386217464,
                -1.1942000137295472,
                -1.6758569451059708,
                -1.3574986189767821,
                -1.2776525938975447,
                0.3290454972189229
            ]
        },
        {
            "positions": [
                2.3087548081320026,
                -1.1774868192501204,
                -1.5946030689022463,
                -1.2938145082179782,
                -1.1798878221651663,
                0.29138740522352136
            ]
        },
        {
            "positions": [
                2.2110428776422584,
                -1.1607736247706937,
                -1.5133491926985214,
                -1.230130397459174,
                -1.082123050432788,
                0.25372931322811976
            ]
        },
        {
            "positions": [
                2.113330947152514,
                -1.144060430291267,
                -1.432095316494797,
                -1.1664462867003702,
                -0.9843582787004094,
                0.21607122123271824
            ]
        },
        {
            "positions": [
                2.0156190166627703,
                -1.1273472358118402,
                -1.350841440291072,
                -1.102762175941566,
                -0.8865935069680309,
                0.17841312923731667
            ]
        },
        {
            "positions": [
                1.9179070861730263,
                -1.1106340413324134,
                -1.2695875640873475,
                -1.0390780651827622,
                -0.7888287352356524,
                0.14075503724191513
            ]
        },
        {
            "positions": [
                1.8201951556832823,
                -1.0939208468529866,
                -1.1883336878836228,
                -0.975393954423958,
                -0.691063963503274,
                0.10309694524651358
            ]
        },
        {
            "positions": [
                1.722483225193538,
                -1.0772076523735599,
                -1.107079811679898,
                -0.9117098436651541,
                -0.5932991917708955,
                0.06543885325111198
            ]
        },
        {
            "positions": [
                1.624771294703794,
                -1.060494457894133,
                -1.0258259354761736,
                -0.8480257329063501,
                -0.495534420038517,
                0.027780761255710495
            ]
        },
        {
            "positions": [
                1.52705936421405,
                -1.0437812634147063,
                -0.9445720592724488,
                -0.7843416221475461,
                -0.3977696483061386,
                -0.009877330739691104
            ]
        },
        {
            "positions": [
                1.429347433724306,
                -1.0270680689352796,
                -0.8633181830687242,
                -0.7206575113887421,
                -0.3000048765737602,
                -0.04753542273509265
            ]
        },
        {
            "positions": [
                1.3316355032345617,
                -1.0103548744558528,
                -0.7820643068649993,
                -0.656973400629938,
                -0.20224010484138155,
                -0.08519351473049425
            ]
        },
        {
            "positions": [
                1.2339235727448177,
                -0.993641679976426,
                -0.7008104306612748,
                -0.5932892898711342,
                -0.10447533310900314,
                -0.12285160672589573
            ]
        },
        {
            "positions": [
                1.1362116422550739,
                -0.9769284854969994,
                -0.6195565544575501,
                -0.5296051791123302,
                -0.006710561376624735,
                -0.16050969872129733
            ]
        },
        {
            "positions": [
                1.0384997117653296,
                -0.9602152910175725,
                -0.5383026782538254,
                -0.465921068353526,
                0.0910542103557539,
                -0.19816779071669893
            ]
        },
        {
            "positions": [
                0.9407877812755856,
                -0.9435020965381459,
                -0.4570488020501007,
                -0.402236957594722,
                0.18881898208813208,
                -0.23582588271210042
            ]
        },
        {
            "positions": [
                0.8430758507858416,
                -0.9267889020587191,
                -0.3757949258463762,
                -0.33855284683591824,
                0.2865837538205105,
                -0.273483974707502
            ]
        },
        {
            "positions": [
                0.7453639202960973,
                -0.9100757075792922,
                -0.29454104964265126,
                -0.27486873607711404,
                0.3843485255528891,
                -0.3111420667029036
            ]
        },
        {
            "positions": [
                0.6476519898063535,
                -0.8933625130998656,
                -0.21328717343892678,
                -0.21118462531831006,
                0.48211329728526753,
                -0.3488001586983051
            ]
        },
        {
            "positions": [
                0.5499400593166093,
                -0.8766493186204388,
                -0.13203329723520207,
                -0.14750051455950608,
                0.5798780690176462,
                -0.3864582506937066
            ]
        },
        {
            "positions": [
                0.45222812882686503,
                -0.8599361241410121,
                -0.05077942103147737,
                -0.0838164038007021,
                0.6776428407500248,
                -0.4241163426891083
            ]
        },
        {
            "positions": [
                0.35451619833712145,
                -0.8432229296615853,
                0.03047445517224734,
                -0.020132293041898175,
                0.775407612482403,
                -0.4617744346845098
            ]
        },
        {
            "positions": [
                0.3293819836634887,
                -0.8378975532313415,
                0.16516828444234388,
                0.11553960903972219,
                0.7285867006869038,
                -0.44283286871964384
            ]
        },
        {
            "positions": [
                0.30424776898985595,
                -0.8325721768010977,
                0.2998621137124404,
                0.25121151112134255,
                0.6817657888914045,
                -0.4238913027547778
            ]
        },
        {
            "positions": [
                0.2791135543162232,
                -0.8272468003708541,
                0.4345559429825369,
                0.3868834132029629,
                0.6349448770959053,
                -0.40494973678991186
            ]
        },
        {
            "positions": [
                0.2539793396425904,
                -0.8219214239406103,
                0.5692497722526335,
                0.5225553152845832,
                0.5881239653004061,
                -0.3860081708250459
            ]
        },
        {
            "positions": [
                0.22884512496895765,
                -0.8165960475103665,
                0.7039436015227301,
                0.6582272173662036,
                0.5413030535049069,
                -0.36706660486017995
            ]
        },
        {
            "positions": [
                0.2037109102953249,
                -0.8112706710801227,
                0.8386374307928265,
                0.793899119447824,
                0.4944821417094077,
                -0.348125038895314
            ]
        },
        {
            "positions": [
                0.17857669562169215,
                -0.805945294649879,
                0.9733312600629231,
                0.9295710215294444,
                0.44766122991390844,
                -0.329183472930448
            ]
        },
        {
            "positions": [
                0.15344248094805937,
                -0.8006199182196352,
                1.1080250893330197,
                1.0652429236110648,
                0.4008403181184092,
                -0.31024190696558196
            ]
        },
        {
            "positions": [
                0.1283082662744266,
                -0.7952945417893915,
                1.2427189186031162,
                1.2009148256926854,
                0.35401940632291,
                -0.291300341000716
            ]
        },
        {
            "positions": [
                0.10317405160079385,
                -0.7899691653591477,
                1.3774127478732128,
                1.3365867277743055,
                0.3071984945274108,
                -0.27235877503585004
            ]
        },
        {
            "positions": [
                0.07803983692716111,
                -0.784643788928904,
                1.5121065771433093,
                1.472258629855926,
                0.2603775827319116,
                -0.2534172090709841
            ]
        },
        {
            "positions": [
                0.08702767479387456,
                -0.7833034597955363,
                1.6080455487368523,
                1.562579934112546,
                0.1836752837607427,
                -0.20140949120937235
            ]
        },
        {
            "positions": [
                0.09601551266058801,
                -0.7819631306621685,
                1.7039845203303954,
                1.6529012383691657,
                0.10697298478957384,
                -0.14940177334776059
            ]
        },
        {
            "positions": [
                0.10500335052730145,
                -0.7806228015288008,
                1.7999234919239384,
                1.7432225426257857,
                0.030270685818404974,
                -0.09739405548614885
            ]
        },
        {
            "positions": [
                0.1139911883940149,
                -0.779282472395433,
                1.8958624635174814,
                1.8335438468824057,
                -0.046431613152763895,
                -0.04538633762453709
            ]
        },
        {
            "positions": [
                0.12297902626072835,
                -0.7779421432620653,
                1.9918014351110245,
                1.9238651511390255,
                -0.12313391212393276,
                0.006621380237074672
            ]
        }
    ]
}{
    "goal": {
        "global_pose": {
            "orientation": {
                "w": 0.7047431468963623,
                "x": -0.7094548344612122,
                "y": 0.0024358443915843964,
                "z": -0.0022348060738295317
            },
            "position": {
                "x": 0.6094750761985779,
                "y": 0.3671506643295288,
                "z": 0.19426114857196808
            }
        },
        "name": "move_to_magneteinheit_A"
    },
    "id": "PRM_move_to_magneteinheit_A_24",
    "joint_names": [
        "shoulder_pan_joint",
        "shoulder_lift_joint",
        "elbow_joint",
        "wrist_1_joint",
        "wrist_2_joint",
        "wrist_3_joint"
    ],
    "metrics": {
        "cart_traj_len": 1.2148004937340036,
        "distance_elbow_joint": 0.03764055948118106,
        "distance_shoulder_lift_joint": 0.7654811154946528,
        "distance_shoulder_pan_joint": 1.2413752733436256,
        "distance_wrist_1_joint": 0.8795832097612601,
        "distance_wrist_2_joint": 1.4872439268154092,
        "distance_wrist_3_joint": 4.359849457108071,
        "smoothness": 0.13677925109634023,
        "time": 0.150954336,
        "traj_len": 2.961616710853077,
        "weighted_distance": 4.456197885282588
    },
    "planner": "PRM",
    "start": {
        "state": {
            "elbow_joint": 1.919643534880228,
            "shoulder_lift_joint": -1.8972525353963687,
            "shoulder_pan_joint": -1.1188672234189438,
            "wrist_1_joint": -1.5931878212786155,
            "wrist_2_joint": 1.5706036197970081,
            "wrist_3_joint": 1.118896926603594
        }
    },
    "waypoints": [
        {
            "positions": [
                -1.1188672234189438,
                -1.8972525353963687,
                1.919643534880228,
                -1.5931878212786155,
                1.5706036197970081,
                1.118896926603594
            ]
        },
        {
            "positions": [
                -1.0640754721707602,
                -1.8624796118481546,
                1.9198774693374336,
                -1.5533864683826786,
                1.5038999377256852,
                0.9242495091143142
            ]
        },
        {
            "positions": [
                -1.0092837209225762,
                -1.8277066882999404,
                1.9201114037946394,
                -1.5135851154867415,
                1.4371962556543623,
                0.7296020916250345
            ]
        },
        {
            "positions": [
                -0.9544919696743925,
                -1.7929337647517265,
                1.920345338251845,
                -1.4737837625908046,
                1.3704925735830396,
                0.5349546741357549
            ]
        },
        {
            "positions": [
                -0.8997002184262087,
                -1.7581608412035123,
                1.9205792727090505,
                -1.4339824096948675,
                1.3037888915117166,
                0.3403072566464751
            ]
        },
        {
            "positions": [
                -0.8449084671780249,
                -1.7233879176552982,
                1.9208132071662563,
                -1.3941810567989306,
                1.2370852094403937,
                0.1456598391571955
            ]
        },
        {
            "positions": [
                -0.7901167159298412,
                -1.688614994107084,
                1.9210471416234618,
                -1.3543797039029934,
                1.1703815273690708,
                -0.048987578332084114
            ]
        },
        {
            "positions": [
                -0.7353249646816573,
                -1.65384207055887,
                1.9212810760806673,
                -1.3145783510070566,
                1.1036778452977478,
                -0.24363499582136394
            ]
        },
        {
            "positions": [
                -0.6805332134334736,
                -1.6190691470106557,
                1.921515010537873,
                -1.2747769981111194,
                1.036974163226425,
                -0.43828241331064377
            ]
        },
        {
            "positions": [
                -0.6257414621852897,
                -1.5842962234624416,
                1.9217489449950786,
                -1.2349756452151825,
                0.9702704811551021,
                -0.6329298307999236
            ]
        },
        {
            "positions": [
                -0.570949710937106,
                -1.5495232999142277,
                1.9219828794522842,
                -1.1951742923192454,
                0.9035667990837792,
                -0.827577248289203
            ]
        },
        {
            "positions": [
                -0.5161579596889222,
                -1.5147503763660135,
                1.9222168139094897,
                -1.1553729394233085,
                0.8368631170124563,
                -1.0222246657784828
            ]
        },
        {
            "positions": [
                -0.4613662084407385,
                -1.4799774528177994,
                1.9224507483666955,
                -1.1155715865273717,
                0.7701594349411335,
                -1.2168720832677622
            ]
        },
        {
            "positions": [
                -0.4065744571925546,
                -1.4452045292695852,
                1.922684682823901,
                -1.0757702336314345,
                0.7034557528698104,
                -1.4115195007570425
            ]
        },
        {
            "positions": [
                -0.3517827059443709,
                -1.4104316057213713,
                1.9229186172811066,
                -1.0359688807354974,
                0.6367520707984876,
                -1.6061669182463219
            ]
        },
        {
            "positions": [
                -0.2969909546961871,
                -1.3756586821731571,
                1.9231525517383123,
                -0.9961675278395606,
                0.5700483887271648,
                -1.8008143357356012
            ]
        },
        {
            "positions": [
                -0.24219920344800328,
                -1.340885758624943,
                1.9233864861955179,
                -0.9563661749436235,
                0.5033447066558419,
                -1.9954617532248815
            ]
        },
        {
            "positions": [
                -0.18740745219981947,
                -1.3061128350767288,
                1.9236204206527234,
                -0.9165648220476866,
                0.4366410245845189,
                -2.1901091707141607
            ]
        },
        {
            "positions": [
                -0.13261570095163566,
                -1.2713399115285147,
                1.9238543551099292,
                -0.8767634691517495,
                0.369937342513196,
                -2.384756588203441
            ]
        },
        {
            "positions": [
                -0.07782394970345186,
                -1.2365669879803005,
                1.9240882895671347,
                -0.8369621162558126,
                0.30323366044187305,
                -2.5794040056927203
            ]
        },
        {
            "positions": [
                -0.02303219845526816,
                -1.2017940644320864,
                1.9243222240243403,
                -0.7971607633598756,
                0.23652997837055034,
                -2.7740514231819997
            ]
        },
        {
            "positions": [
                0.03175955279291576,
                -1.1670211408838722,
                1.924556158481546,
                -0.7573594104639386,
                0.1698262962992274,
                -2.96869884067128
            ]
        },
        {
            "positions": [
                0.08655130404109948,
                -1.1322482173356583,
                1.9247900929387516,
                -0.7175580575680016,
                0.1031226142279045,
                -3.16334625816056
            ]
        },
        {
            "positions": [
                0.12250804992468185,
                -1.131771419901716,
                1.9572840943614092,
                -0.7215115036186479,
                0.12288553547420991,
                -3.2409525305044777
            ]
        }
    ]
}