{
    "goal": {
        "global_pose": {
            "orientation": {
                "w": 0.7047431468963623,
                "x": -0.7094548344612122,
                "y": 0.0024358443915843964,
                "z": -0.0022348060738295317
            },
            "position": {
                "x": 0.6094750761985779,
                "y": 0.3671506643295288,
                "z": 0.19426114857196808
            }
        },
        "name": "move_to_magneteinheit_A"
    },
    "id": "PRM_move_to_magneteinheit_A_75",
    "joint_names": [
        "shoulder_pan_joint",
        "shoulder_lift_joint",
        "elbow_joint",
        "wrist_1_joint",
        "wrist_2_joint",
        "wrist_3_joint"
    ],
    "metrics": {
        "cart_traj_len": 3.4244375507353797,
        "distance_elbow_joint": 3.9147388382963277,
        "distance_shoulder_lift_joint": 0.4664768955255796,
        "distance_shoulder_pan_joint": 2.9566868682517713,
        "distance_wrist_1_joint": 4.02029484664696,
        "distance_wrist_2_joint": 1.4393727734921213,
        "distance_wrist_3_joint": 3.4189338846196073,
        "smoothness": 0.2023894247912554,
        "time": 0.1072566,
        "traj_len": 4.026972076738597,
        "weighted_distance": 5.339853883413915
    },
    "planner": "PRM",
    "start": {
        "state": {
            "elbow_joint": -1.919618573717145,
            "shoulder_lift_joint": -1.2443395971678275,
            "shoulder_pan_joint": 2.6996025300909787,
            "wrist_1_joint": -1.548550951253194,
            "wrist_2_joint": -1.5709469090946802,
            "wrist_3_joint": 0.4420197732051276
        }
    },
    "waypoints": [
        {
            "positions": [
                2.6996025300909787,
                -1.2443395971678275,
                -1.919618573717145,
                -1.548550951253194,
                -1.5709469090946802,
                0.4420197732051276
            ]
        },
        {
            "positions": [
                2.5563168563649517,
                -1.2374895744595196,
                -1.800611708614413,
                -1.5644751325090156,
                -1.5627611297742352,
                0.5293997795200891
            ]
        },
        {
            "positions": [
                2.413031182638924,
                -1.2306395517512116,
                -1.681604843511681,
                -1.5803993137648373,
                -1.5545753504537903,
                0.6167797858350507
            ]
        },
        {
            "positions": [
                2.269745508912897,
                -1.2237895290429035,
                -1.5625979784089492,
                -1.5963234950206588,
                -1.546389571133345,
                0.7041597921500122
            ]
        },
        {
            "positions": [
                2.1264598351868695,
                -1.2169395063345956,
                -1.4435911133062174,
                -1.6122476762764804,
                -1.5382037918129001,
                0.7915397984649737
            ]
        },
        {
            "positions": [
                1.9831741614608422,
                -1.2100894836262877,
                -1.3245842482034855,
                -1.628171857532302,
                -1.5300180124924552,
                0.8789198047799353
            ]
        },
        {
            "positions": [
                1.839888487734815,
                -1.2032394609179797,
                -1.2055773831007537,
                -1.6440960387881236,
                -1.5218322331720102,
                0.9662998110948968
            ]
        },
        {
            "positions": [
                1.6966028140087879,
                -1.1963894382096716,
                -1.0865705179980218,
                -1.6600202200439451,
                -1.513646453851565,
                1.0536798174098583
            ]
        },
        {
            "positions": [
                1.5533171402827606,
                -1.1895394155013637,
                -0.9675636528952898,
                -1.6759444012997669,
                -1.50546067453112,
                1.14105982372482
            ]
        },
        {
            "positions": [
                1.410031466556733,
                -1.1826893927930557,
                -0.8485567877925579,
                -1.6918685825555884,
                -1.4972748952106751,
                1.2284398300397814
            ]
        },
        {
            "positions": [
                1.2667457928307058,
                -1.1758393700847478,
                -0.7295499226898259,
                -1.70779276381141,
                -1.4890891158902302,
                1.3158198363547429
            ]
        },
        {
            "positions": [
                1.1234601191046785,
                -1.1689893473764397,
                -0.610543057587094,
                -1.7237169450672316,
                -1.480903336569785,
                1.4031998426697045
            ]
        },
        {
            "positions": [
                0.9801744453786512,
                -1.1621393246681317,
                -0.4915361924843622,
                -1.7396411263230531,
                -1.47271755724934,
                1.4905798489846662
            ]
        },
        {
            "positions": [
                0.8368887716526241,
                -1.1552893019598238,
                -0.37252932738163036,
                -1.7555653075788746,
                -1.464531777928895,
                1.5779598552996275
            ]
        },
        {
            "positions": [
                0.693603097926597,
                -1.148439279251516,
                -0.2535224622788985,
                -1.7714894888346964,
                -1.4563459986084502,
                1.6653398616145891
            ]
        },
        {
            "positions": [
                0.5503174242005695,
                -1.1415892565432078,
                -0.13451559717616668,
                -1.7874136700905179,
                -1.4481602192880052,
                1.7527198679295506
            ]
        },
        {
            "positions": [
                0.40703175047454243,
                -1.1347392338348998,
                -0.015508732073434617,
                -1.8033378513463396,
                -1.43997443996756,
                1.8400998742445123
            ]
        },
        {
            "positions": [
                0.26374607674851497,
                -1.127889211126592,
                0.10349813302929717,
                -1.8192620326021611,
                -1.431788660647115,
                1.9274798805594737
            ]
        },
        {
            "positions": [
                0.24633164199754295,
                -1.1136210896769712,
                0.18764394997444694,
                -1.6734735906960438,
                -1.3802379270089042,
                1.8584995671526172
            ]
        },
        {
            "positions": [
                0.22891720724657094,
                -1.0993529682273504,
                0.27178976691959666,
                -1.5276851487899263,
                -1.3286871933706934,
                1.7895192537457605
            ]
        },
        {
            "positions": [
                0.21150277249559893,
                -1.0850848467777297,
                0.35593558386474644,
                -1.381896706883809,
                -1.2771364597324826,
                1.720538940338904
            ]
        },
        {
            "positions": [
                0.19408833774462692,
                -1.0708167253281091,
                0.4400814008098962,
                -1.2361082649776916,
                -1.2255857260942717,
                1.6515586269320472
            ]
        },
        {
            "positions": [
                0.1766739029936549,
                -1.0565486038784884,
                0.524227217755046,
                -1.0903198230715745,
                -1.1740349924560607,
                1.5825783135251907
            ]
        },
        {
            "positions": [
                0.1592594682426829,
                -1.0422804824288676,
                0.6083730347001957,
                -0.944531381165457,
                -1.1224842588178499,
                1.5135980001183342
            ]
        },
        {
            "positions": [
                0.14184503349171088,
                -1.0280123609792469,
                0.6925188516453455,
                -0.7987429392593397,
                -1.070933525179639,
                1.4446176867114775
            ]
        },
        {
            "positions": [
                0.12443059874073886,
                -1.0137442395296261,
                0.7766646685904952,
                -0.6529544973532222,
                -1.0193827915414282,
                1.375637373304621
            ]
        },
        {
            "positions": [
                0.10701616398976685,
                -0.9994761180800054,
                0.8608104855356451,
                -0.5071660554471049,
                -0.9678320579032174,
                1.3066570598977645
            ]
        },
        {
            "positions": [
                0.08960172923879484,
                -0.9852079966303847,
                0.9449563024807948,
                -0.36137761354098763,
                -0.9162813242650065,
                1.2376767464909078
            ]
        },
        {
            "positions": [
                0.0721872944878228,
                -0.970939875180764,
                1.0291021194259447,
                -0.21558917163487012,
                -0.8647305906267956,
                1.1686964330840512
            ]
        },
        {
            "positions": [
                0.05477285973685081,
                -0.9566717537311432,
                1.1132479363710943,
                -0.06980072972875284,
                -0.8131798569885849,
                1.0997161196771947
            ]
        },
        {
            "positions": [
                0.03735842498587877,
                -0.9424036322815226,
                1.1973937533162442,
                0.07598771217736466,
                -0.7616291233503739,
                1.030735806270338
            ]
        },
        {
            "positions": [
                0.019943990234906783,
                -0.9281355108319018,
                1.2815395702613939,
                0.22177615408348172,
                -0.7100783897121631,
                0.9617554928634815
            ]
        },
        {
            "positions": [
                0.0025295554839347423,
                -0.9138673893822811,
                1.3656853872065438,
                0.36756459598959923,
                -0.6585276560739523,
                0.8927751794566248
            ]
        },
        {
            "positions": [
                -0.014884879267037243,
                -0.8995992679326603,
                1.4498312041516934,
                0.5133530378957167,
                -0.6069769224357414,
                0.8237948660497683
            ]
        },
        {
            "positions": [
                -0.032299314018009284,
                -0.8853311464830396,
                1.5339770210968433,
                0.6591414798018342,
                -0.5554261887975305,
                0.7548145526429118
            ]
        },
        {
            "positions": [
                -0.04971374876898127,
                -0.8710630250334189,
                1.618122838041993,
                0.8049299217079513,
                -0.5038754551593198,
                0.6858342392360552
            ]
        },
        {
            "positions": [
                -0.0671281835199533,
                -0.8567949035837982,
                1.7022686549871429,
                0.950718363614069,
                -0.4523247215211088,
                0.6168539258291985
            ]
        },
        {
            "positions": [
                -0.04290042389964609,
                -0.8449010215521026,
                1.7494381589469155,
                1.095680656395675,
                -0.40491917053933757,
                0.5255395338882989
            ]
        },
        {
            "positions": [
                -0.01867266427933887,
                -0.8330071395204071,
                1.796607662906688,
                1.2406429491772806,
                -0.3575136195575663,
                0.4342251419473993
            ]
        },
        {
            "positions": [
                0.005555095340968347,
                -0.8211132574887114,
                1.8437771668664604,
                1.3856052419588862,
                -0.310108068575795,
                0.34291075000649973
            ]
        },
        {
            "positions": [
                0.029782854961275557,
                -0.8092193754570158,
                1.890946670826233,
                1.5305675347404921,
                -0.26270251759402374,
                0.2515963580656001
            ]
        },
        {
            "positions": [
                0.060797893681144854,
                -0.7987671508520932,
                1.9256712020772169,
                1.663818934058939,
                -0.21899305693020207,
                0.16573293980847123
            ]
        },
        {
            "positions": [
                0.09181293240101415,
                -0.7883149262471706,
                1.9603957333282007,
                1.7970703333773859,
                -0.1752835962663804,
                0.07986952155134236
            ]
        },
        {
            "positions": [
                0.12282797112088346,
                -0.7778627016422479,
                1.9951202645791846,
                1.9303217326958328,
                -0.1315741356025587,
                -0.005993896705786549
            ]
        }
    ]
}{
    "goal": {
        "global_pose": {
            "orientation": {
                "w": 0.7047431468963623,
                "x": -0.7094548344612122,
                "y": 0.0024358443915843964,
                "z": -0.0022348060738295317
            },
            "position": {
                "x": 0.6094750761985779,
                "y": 0.3671506643295288,
                "z": 0.19426114857196808
            }
        },
        "name": "move_to_magneteinheit_A"
    },
    "id": "PRM_move_to_magneteinheit_A_75",
    "joint_names": [
        "shoulder_pan_joint",
        "shoulder_lift_joint",
        "elbow_joint",
        "wrist_1_joint",
        "wrist_2_joint",
        "wrist_3_joint"
    ],
    "metrics": {
        "cart_traj_len": 1.2053902533601428,
        "distance_elbow_joint": 0.06673058200740734,
        "distance_shoulder_lift_joint": 0.7495547649319028,
        "distance_shoulder_pan_joint": 1.2402629572372514,
        "distance_wrist_1_joint": 0.7363057687954274,
        "distance_wrist_2_joint": 1.4683601095889078,
        "distance_wrist_3_joint": 4.241601737377857,
        "smoothness": 0.11971889961855685,
        "time": 0.265490163,
        "traj_len": 2.9159588337181224,
        "weighted_distance": 4.380717438169095
    },
    "planner": "PRM",
    "start": {
        "state": {
            "elbow_joint": 1.919643534880228,
            "shoulder_lift_joint": -1.8972525353963687,
            "shoulder_pan_joint": -1.1188672234189438,
            "wrist_1_joint": -1.5931878212786155,
            "wrist_2_joint": 1.5706036197970081,
            "wrist_3_joint": 1.118896926603594
        }
    },
    "waypoints": [
        {
            "positions": [
                -1.1188672234189438,
                -1.8972525353963687,
                1.919643534880228,
                -1.5931878212786155,
                1.5706036197970081,
                1.118896926603594
            ]
        },
        {
            "positions": [
                -1.0629673004013576,
                -1.8633408015224455,
                1.921599976922938,
                -1.5601059695753023,
                1.5042828654441098,
                0.9264250259354601
            ]
        },
        {
            "positions": [
                -1.0070673773837713,
                -1.8294290676485223,
                1.9235564189656478,
                -1.5270241178719892,
                1.4379621110912115,
                0.7339531252673263
            ]
        },
        {
            "positions": [
                -0.9511674543661851,
                -1.795517333774599,
                1.9255128610083576,
                -1.4939422661686759,
                1.3716413567383134,
                0.5414812245991925
            ]
        },
        {
            "positions": [
                -0.8952675313485988,
                -1.761605599900676,
                1.9274693030510675,
                -1.4608604144653627,
                1.305320602385415,
                0.34900932393105855
            ]
        },
        {
            "positions": [
                -0.8393676083310125,
                -1.7276938660267527,
                1.9294257450937773,
                -1.4277785627620496,
                1.2389998480325168,
                0.15653742326292475
            ]
        },
        {
            "positions": [
                -0.7834676853134264,
                -1.6937821321528295,
                1.9313821871364871,
                -1.3946967110587365,
                1.1726790936796185,
                -0.03593447740520905
            ]
        },
        {
            "positions": [
                -0.7275677622958401,
                -1.6598703982789063,
                1.933338629179197,
                -1.3616148593554231,
                1.1063583393267202,
                -0.22840637807334296
            ]
        },
        {
            "positions": [
                -0.6716678392782538,
                -1.625958664404983,
                1.9352950712219068,
                -1.32853300765211,
                1.040037584973822,
                -0.4208782787414769
            ]
        },
        {
            "positions": [
                -0.6157679162606674,
                -1.5920469305310598,
                1.9372515132646166,
                -1.295451155948797,
                0.9737168306209236,
                -0.6133501794096108
            ]
        },
        {
            "positions": [
                -0.5598679932430812,
                -1.5581351966571366,
                1.9392079553073265,
                -1.2623693042454838,
                0.9073960762680254,
                -0.8058220800777445
            ]
        },
        {
            "positions": [
                -0.503968070225495,
                -1.5242234627832134,
                1.9411643973500365,
                -1.2292874525421706,
                0.8410753219151271,
                -0.9982939807458784
            ]
        },
        {
            "positions": [
                -0.4480681472079088,
                -1.4903117289092902,
                1.9431208393927464,
                -1.1962056008388573,
                0.7747545675622289,
                -1.190765881414012
            ]
        },
        {
            "positions": [
                -0.3921682241903224,
                -1.456399995035367,
                1.9450772814354562,
                -1.1631237491355442,
                0.7084338132093305,
                -1.3832377820821462
            ]
        },
        {
            "positions": [
                -0.3362683011727362,
                -1.4224882611614438,
                1.947033723478166,
                -1.130041897432231,
                0.6421130588564323,
                -1.57570968275028
            ]
        },
        {
            "positions": [
                -0.2803683781551499,
                -1.3885765272875206,
                1.948990165520876,
                -1.096960045728918,
                0.5757923045035341,
                -1.7681815834184136
            ]
        },
        {
            "positions": [
                -0.22446845513756364,
                -1.3546647934135974,
                1.9509466075635857,
                -1.0638781940256048,
                0.5094715501506357,
                -1.9606534840865477
            ]
        },
        {
            "positions": [
                -0.16856853211997735,
                -1.3207530595396741,
                1.9529030496062956,
                -1.0307963423222914,
                0.4431507957977374,
                -2.1531253847546816
            ]
        },
        {
            "positions": [
                -0.11266860910239096,
                -1.286841325665751,
                1.9548594916490054,
                -0.9977144906189782,
                0.3768300414448391,
                -2.3455972854228158
            ]
        },
        {
            "positions": [
                -0.0567686860848049,
                -1.2529295917918277,
                1.9568159336917152,
                -0.9646326389156651,
                0.31050928709194103,
                -2.538069186090949
            ]
        },
        {
            "positions": [
                -0.0008687630672186142,
                -1.2190178579179045,
                1.958772375734425,
                -0.931550787212352,
                0.24418853273904273,
                -2.730541086759083
            ]
        },
        {
            "positions": [
                0.05503115995036767,
                -1.1851061240439813,
                1.960728817777135,
                -0.8984689355090387,
                0.17786777838614443,
                -2.9230129874272173
            ]
        },
        {
            "positions": [
                0.11093108296795394,
                -1.151194390170058,
                1.9626852598198448,
                -0.8653870838057256,
                0.11154702403324604,
                -3.1154848880953505
            ]
        },
        {
            "positions": [
                0.12139573381830768,
                -1.147697770464466,
                1.9863741168876354,
                -0.856882052483188,
                0.12085053785839196,
                -3.1227048107742625
            ]
        }
    ]
}