{
    "goal": {
        "global_pose": {
            "orientation": {
                "w": 0.5084816217422485,
                "x": -0.49083608388900757,
                "y": 0.5182115435600281,
                "z": -0.4816462993621826
            },
            "position": {
                "x": 0.5540239810943604,
                "y": 0.030875300988554955,
                "z": 0.16403168439865112
            }
        },
        "name": "move_to_storage_A"
    },
    "id": "PRM_move_to_storage_A_114",
    "joint_names": [
        "shoulder_pan_joint",
        "shoulder_lift_joint",
        "elbow_joint",
        "wrist_1_joint",
        "wrist_2_joint",
        "wrist_3_joint"
    ],
    "metrics": {
        "cart_traj_len": 0.3537199319988241,
        "distance_elbow_joint": 0.45146424360639026,
        "distance_shoulder_lift_joint": 0.2334395121185706,
        "distance_shoulder_pan_joint": 0.45920421287799856,
        "distance_wrist_1_joint": 0.25309710290448184,
        "distance_wrist_2_joint": 1.113837035564937,
        "distance_wrist_3_joint": 0.0928928879543105,
        "smoothness": 1.1102230298998083e-15,
        "time": 0.024323537,
        "traj_len": 1.6136712784909721,
        "weighted_distance": 2.0387876077229645
    },
    "planner": "PRM",
    "start": {
        "state": {
            "elbow_joint": 1.9715477243005601,
            "shoulder_lift_joint": -1.1394853015351272,
            "shoulder_pan_joint": 0.12281154014795169,
            "wrist_1_joint": -0.7804696478968182,
            "wrist_2_joint": 0.12958648046900423,
            "wrist_3_joint": -3.192491284697111
        }
    },
    "waypoints": [
        {
            "positions": [
                0.12281154014795169,
                -1.1394853015351272,
                1.9715477243005601,
                -0.7804696478968182,
                0.12958648046900423,
                -3.192491284697111
            ]
        },
        {
            "positions": [
                0.05721093830823762,
                -1.1728338032663514,
                2.0360426162443304,
                -0.8166263768831727,
                0.2887060569782809,
                -3.1792208721322095
            ]
        },
        {
            "positions": [
                -0.008389663531476452,
                -1.206182304997576,
                2.1005375081881,
                -0.8527831058695272,
                0.4478256334875576,
                -3.1659504595673083
            ]
        },
        {
            "positions": [
                -0.07399026537119054,
                -1.2395308067288002,
                2.1650324001318704,
                -0.8889398348558818,
                0.6069452099968343,
                -3.1526800470024066
            ]
        },
        {
            "positions": [
                -0.13959086721090458,
                -1.2728793084600247,
                2.22952729207564,
                -0.9250965638422364,
                0.766064786506111,
                -3.1394096344375053
            ]
        },
        {
            "positions": [
                -0.2051914690506187,
                -1.306227810191249,
                2.2940221840194104,
                -0.9612532928285908,
                0.9251843630153878,
                -3.1261392218726036
            ]
        },
        {
            "positions": [
                -0.27079207089033275,
                -1.3395763119224733,
                2.35851707596318,
                -0.9974100218149454,
                1.0843039395246645,
                -3.1128688093077024
            ]
        },
        {
            "positions": [
                -0.33639267273004686,
                -1.3729248136536978,
                2.4230119679069504,
                -1.0335667508013,
                1.243423516033941,
                -3.0995983967428007
            ]
        }
    ]
}