{
    "goal": {
        "global_pose": {
            "orientation": {
                "w": 0.5084816217422485,
                "x": -0.49083608388900757,
                "y": 0.5182115435600281,
                "z": -0.4816462993621826
            },
            "position": {
                "x": 0.5540239810943604,
                "y": 0.030875300988554955,
                "z": 0.16403168439865112
            }
        },
        "name": "move_to_storage_A"
    },
    "id": "PRM_move_to_storage_A_128",
    "joint_names": [
        "shoulder_pan_joint",
        "shoulder_lift_joint",
        "elbow_joint",
        "wrist_1_joint",
        "wrist_2_joint",
        "wrist_3_joint"
    ],
    "metrics": {
        "cart_traj_len": 0.3538884925670453,
        "distance_elbow_joint": 0.4513770242221913,
        "distance_shoulder_lift_joint": 0.2347524252297668,
        "distance_shoulder_pan_joint": 0.4638827359353622,
        "distance_wrist_1_joint": 0.25073058754714006,
        "distance_wrist_2_joint": 1.0955445368012562,
        "distance_wrist_3_joint": 0.10451593267071946,
        "smoothness": 2.2204460668324854e-16,
        "time": 0.015588436,
        "traj_len": 1.6127006053221522,
        "weighted_distance": 2.0386540246192513
    },
    "planner": "PRM",
    "start": {
        "state": {
            "elbow_joint": 1.9715477243005601,
            "shoulder_lift_joint": -1.1394853015351272,
            "shoulder_pan_joint": 0.12281154014795169,
            "wrist_1_joint": -0.7804696478968182,
            "wrist_2_joint": 0.12958648046900423,
            "wrist_3_joint": -3.192491284697111
        }
    },
    "waypoints": [
        {
            "positions": [
                0.12281154014795169,
                -1.1394853015351272,
                1.9715477243005601,
                -0.7804696478968182,
                0.12958648046900423,
                -3.192491284697111
            ]
        },
        {
            "positions": [
                0.05654257787147138,
                -1.1730213622822367,
                2.0360301563323016,
                -0.8162883032606953,
                0.2860928428691837,
                -3.1775604371727226
            ]
        },
        {
            "positions": [
                -0.009726384405008934,
                -1.2065574230293463,
                2.1005125883640434,
                -0.8521069586245724,
                0.44259920526936314,
                -3.162629589648334
            ]
        },
        {
            "positions": [
                -0.07599534668148926,
                -1.240093483776456,
                2.164995020395785,
                -0.8879256139884496,
                0.5991055676695426,
                -3.1476987421239455
            ]
        },
        {
            "positions": [
                -0.14226430895796954,
                -1.2736295445235652,
                2.2294774524275267,
                -0.9237442693523268,
                0.755611930069722,
                -3.1327678945995574
            ]
        },
        {
            "positions": [
                -0.20853327123444987,
                -1.3071656052706748,
                2.293959884459268,
                -0.9595629247162039,
                0.9121182924699015,
                -3.117837047075169
            ]
        },
        {
            "positions": [
                -0.2748022335109302,
                -1.3407016660177844,
                2.3584423164910095,
                -0.995381580080081,
                1.068624654870081,
                -3.1029061995507803
            ]
        },
        {
            "positions": [
                -0.3410711957874105,
                -1.374237726764894,
                2.4229247485227514,
                -1.0312002354439582,
                1.2251310172702603,
                -3.0879753520263917
            ]
        }
    ]
}