{
    "goal": {
        "global_pose": {
            "orientation": {
                "w": 0.5084816217422485,
                "x": -0.49083608388900757,
                "y": 0.5182115435600281,
                "z": -0.4816462993621826
            },
            "position": {
                "x": 0.5540239810943604,
                "y": 0.030875300988554955,
                "z": 0.16403168439865112
            }
        },
        "name": "move_to_storage_A"
    },
    "id": "PRM_move_to_storage_A_97",
    "joint_names": [
        "shoulder_pan_joint",
        "shoulder_lift_joint",
        "elbow_joint",
        "wrist_1_joint",
        "wrist_2_joint",
        "wrist_3_joint"
    ],
    "metrics": {
        "cart_traj_len": 0.35378607911915627,
        "distance_elbow_joint": 0.450457032336673,
        "distance_shoulder_lift_joint": 0.23603296691519016,
        "distance_shoulder_pan_joint": 0.46447046206183884,
        "distance_wrist_1_joint": 0.2425210609628835,
        "distance_wrist_2_joint": 1.0930148013087533,
        "distance_wrist_3_joint": 0.10264311871504717,
        "smoothness": 4.440892098500626e-16,
        "time": 0.033436115999999995,
        "traj_len": 1.6090803094626402,
        "weighted_distance": 2.032230681296323
    },
    "planner": "PRM",
    "start": {
        "state": {
            "elbow_joint": 1.9715477243005601,
            "shoulder_lift_joint": -1.1394853015351272,
            "shoulder_pan_joint": 0.12281154014795169,
            "wrist_1_joint": -0.7804696478968182,
            "wrist_2_joint": 0.12958648046900423,
            "wrist_3_joint": -3.192491284697111
        }
    },
    "waypoints": [
        {
            "positions": [
                0.12281154014795169,
                -1.1394853015351272,
                1.9715477243005601,
                -0.7804696478968182,
                0.12958648046900423,
                -3.192491284697111
            ]
        },
        {
            "positions": [
                0.056458616996260425,
                -1.1732042968087257,
                2.0358987289200847,
                -0.8151155137486586,
                0.2857314520845404,
                -3.177827982023533
            ]
        },
        {
            "positions": [
                -0.00989430615543084,
                -1.2069232920823243,
                2.1002497335396098,
                -0.8497613796004991,
                0.44187642370007657,
                -3.163164679349955
            ]
        },
        {
            "positions": [
                -0.07624722930712209,
                -1.2406422873559229,
                2.1646007381591343,
                -0.8844072454523396,
                0.5980213953156128,
                -3.1485013766763768
            ]
        },
        {
            "positions": [
                -0.14260015245881336,
                -1.2743612826295214,
                2.228951742778659,
                -0.9190531113041802,
                0.7541663669311489,
                -3.1338380740027985
            ]
        },
        {
            "positions": [
                -0.20895307561050463,
                -1.3080802779031202,
                2.293302747398184,
                -0.9536989771560207,
                0.9103113385466851,
                -3.11917477132922
            ]
        },
        {
            "positions": [
                -0.27530599876219586,
                -1.3417992731767188,
                2.3576537520177085,
                -0.9883448430078612,
                1.0664563101622213,
                -3.1045114686556423
            ]
        },
        {
            "positions": [
                -0.34165892191388714,
                -1.3755182684503173,
                2.422004756637233,
                -1.0229907088597017,
                1.2226012817777576,
                -3.089848165982064
            ]
        }
    ]
}