{
    "goal": {
        "global_pose": {
            "orientation": {
                "w": 0.5084816217422485,
                "x": -0.49083608388900757,
                "y": 0.5182115435600281,
                "z": -0.4816462993621826
            },
            "position": {
                "x": 0.5540239810943604,
                "y": 0.030875300988554955,
                "z": 0.16403168439865112
            }
        },
        "name": "move_to_storage_A"
    },
    "id": "PRM_move_to_storage_A_104",
    "joint_names": [
        "shoulder_pan_joint",
        "shoulder_lift_joint",
        "elbow_joint",
        "wrist_1_joint",
        "wrist_2_joint",
        "wrist_3_joint"
    ],
    "metrics": {
        "cart_traj_len": 0.35314233597699735,
        "distance_elbow_joint": 0.448768668101851,
        "distance_shoulder_lift_joint": 0.2335353626499912,
        "distance_shoulder_pan_joint": 0.46121332567776013,
        "distance_wrist_1_joint": 0.23698417838559582,
        "distance_wrist_2_joint": 1.10106359117048,
        "distance_wrist_3_joint": 0.09643809210058718,
        "smoothness": 0.0,
        "time": 0.033030205,
        "traj_len": 1.6056161490487897,
        "weighted_distance": 2.0270488824504245
    },
    "planner": "PRM",
    "start": {
        "state": {
            "elbow_joint": 1.9715477243005601,
            "shoulder_lift_joint": -1.1394853015351272,
            "shoulder_pan_joint": 0.12281154014795169,
            "wrist_1_joint": -0.7804696478968182,
            "wrist_2_joint": 0.12958648046900423,
            "wrist_3_joint": -3.192491284697111
        }
    },
    "waypoints": [
        {
            "positions": [
                0.12281154014795169,
                -1.1394853015351272,
                1.9715477243005601,
                -0.7804696478968182,
                0.12958648046900423,
                -3.192491284697111
            ]
        },
        {
            "positions": [
                0.056923922193985954,
                -1.1728474961994115,
                2.035657534029396,
                -0.8143245305233319,
                0.2868812792076442,
                -3.178714414397027
            ]
        },
        {
            "positions": [
                -0.008963695759979781,
                -1.2062096908636961,
                2.099767343758232,
                -0.8481794131498456,
                0.4441760779462842,
                -3.1649375440969436
            ]
        },
        {
            "positions": [
                -0.0748513137139455,
                -1.2395718855279805,
                2.1638771534870678,
                -0.8820342957763592,
                0.6014708766849242,
                -3.1511606737968596
            ]
        },
        {
            "positions": [
                -0.14073893166791124,
                -1.272934080192265,
                2.2279869632159035,
                -0.9158891784028729,
                0.7587656754235642,
                -3.1373838034967756
            ]
        },
        {
            "positions": [
                -0.206626549621877,
                -1.3062962748565494,
                2.2920967729447392,
                -0.9497440610293866,
                0.9160604741622043,
                -3.1236069331966916
            ]
        },
        {
            "positions": [
                -0.2725141675758427,
                -1.3396584695208338,
                2.3562065826735754,
                -0.9835989436559003,
                1.0733552729008442,
                -3.109830062896608
            ]
        },
        {
            "positions": [
                -0.33840178552980843,
                -1.3730206641851184,
                2.420316392402411,
                -1.017453826282414,
                1.2306500716394841,
                -3.096053192596524
            ]
        }
    ]
}