{
    "goal": {
        "global_pose": {
            "orientation": {
                "w": 0.5084816217422485,
                "x": -0.49083608388900757,
                "y": 0.5182115435600281,
                "z": -0.4816462993621826
            },
            "position": {
                "x": 0.5540239810943604,
                "y": 0.030875300988554955,
                "z": 0.16403168439865112
            }
        },
        "name": "move_to_storage_A"
    },
    "id": "PRM_move_to_storage_A_24",
    "joint_names": [
        "shoulder_pan_joint",
        "shoulder_lift_joint",
        "elbow_joint",
        "wrist_1_joint",
        "wrist_2_joint",
        "wrist_3_joint"
    ],
    "metrics": {
        "cart_traj_len": 0.3532276918581047,
        "distance_elbow_joint": 0.4500522666938971,
        "distance_shoulder_lift_joint": 0.23303957314751655,
        "distance_shoulder_pan_joint": 0.46313831244099873,
        "distance_wrist_1_joint": 0.24141978545874865,
        "distance_wrist_2_joint": 1.0934379351570316,
        "distance_wrist_3_joint": 0.10016960017410703,
        "smoothness": 4.440892098500626e-16,
        "time": 0.024961409,
        "traj_len": 1.6066292270067477,
        "weighted_distance": 2.0289047276883885
    },
    "planner": "PRM",
    "start": {
        "state": {
            "elbow_joint": 1.9715477243005601,
            "shoulder_lift_joint": -1.1394853015351272,
            "shoulder_pan_joint": 0.12281154014795169,
            "wrist_1_joint": -0.7804696478968182,
            "wrist_2_joint": 0.12958648046900423,
            "wrist_3_joint": -3.192491284697111
        }
    },
    "waypoints": [
        {
            "positions": [
                0.12281154014795169,
                -1.1394853015351272,
                1.9715477243005601,
                -0.7804696478968182,
                0.12958648046900423,
                -3.192491284697111
            ]
        },
        {
            "positions": [
                0.05664892408495187,
                -1.1727766691276296,
                2.035840905256831,
                -0.8149581886766394,
                0.2857918997771516,
                -3.1781813418150957
            ]
        },
        {
            "positions": [
                -0.009513691978047953,
                -1.206068036720132,
                2.100134086213102,
                -0.8494467294564606,
                0.44199731908529893,
                -3.1638713989330807
            ]
        },
        {
            "positions": [
                -0.07567630804104776,
                -1.2393594043126344,
                2.164427267169373,
                -0.8839352702362818,
                0.5982027383934463,
                -3.149561456051065
            ]
        },
        {
            "positions": [
                -0.14183892410404758,
                -1.2726507719051365,
                2.228720448125644,
                -0.9184238110161032,
                0.7544081577015936,
                -3.13525151316905
            ]
        },
        {
            "positions": [
                -0.20800154016704742,
                -1.305942139497639,
                2.293013629081915,
                -0.9529123517959244,
                0.9106135770097411,
                -3.1209415702870347
            ]
        },
        {
            "positions": [
                -0.2741641562300472,
                -1.3392335070901413,
                2.357306810038186,
                -0.9874008925757456,
                1.0668189963178882,
                -3.1066316274050196
            ]
        },
        {
            "positions": [
                -0.34032677229304703,
                -1.3725248746826437,
                2.421599990994457,
                -1.0218894333555668,
                1.223024415626036,
                -3.092321684523004
            ]
        }
    ]
}