{
    "goal": {
        "global_pose": {
            "orientation": {
                "w": 0.7047431468963623,
                "x": -0.7094548344612122,
                "y": 0.0024358443915843964,
                "z": -0.0022348060738295317
            },
            "position": {
                "x": 0.6094750761985779,
                "y": 0.3671506643295288,
                "z": 0.19426114857196808
            }
        },
        "name": "move_to_magneteinheit_A"
    },
    "id": "PRM_move_to_magneteinheit_A_87",
    "joint_names": [
        "shoulder_pan_joint",
        "shoulder_lift_joint",
        "elbow_joint",
        "wrist_1_joint",
        "wrist_2_joint",
        "wrist_3_joint"
    ],
    "metrics": {
        "cart_traj_len": 5.062470299252668,
        "distance_elbow_joint": 3.874004690099631,
        "distance_shoulder_lift_joint": 0.8825069872283469,
        "distance_shoulder_pan_joint": 7.236975312333852,
        "distance_wrist_1_joint": 0.8379568581907,
        "distance_wrist_2_joint": 5.425628224493227,
        "distance_wrist_3_joint": 3.6884379437803276,
        "smoothness": 0.3045434777052139,
        "time": 0.167623143,
        "traj_len": 4.684603506821691,
        "weighted_distance": 5.965397806212984
    },
    "planner": "PRM",
    "start": {
        "state": {
            "elbow_joint": -1.919618573717145,
            "shoulder_lift_joint": -1.2443395971678275,
            "shoulder_pan_joint": 2.6996025300909787,
            "wrist_1_joint": -1.548550951253194,
            "wrist_2_joint": -1.5709469090946802,
            "wrist_3_joint": 0.4420197732051276
        }
    },
    "waypoints": [
        {
            "positions": [
                2.6996025300909787,
                -1.2443395971678275,
                -1.919618573717145,
                -1.548550951253194,
                -1.5709469090946802,
                0.4420197732051276
            ]
        },
        {
            "positions": [
                2.550891725294922,
                -1.2559756457315487,
                -1.8477894304867053,
                -1.5453328760305896,
                -1.4631314172576821,
                0.3940861665374578
            ]
        },
        {
            "positions": [
                2.4021809204988656,
                -1.2676116942952702,
                -1.7759602872562656,
                -1.5421148008079848,
                -1.3553159254206841,
                0.3461525598697881
            ]
        },
        {
            "positions": [
                2.2534701157028088,
                -1.2792477428589915,
                -1.704131144025826,
                -1.5388967255853803,
                -1.2475004335836863,
                0.29821895320211833
            ]
        },
        {
            "positions": [
                2.1047593109067524,
                -1.2908837914227127,
                -1.6323020007953863,
                -1.5356786503627755,
                -1.1396849417466883,
                0.25028534653444856
            ]
        },
        {
            "positions": [
                1.9560485061106958,
                -1.3025198399864342,
                -1.5604728575649467,
                -1.532460575140171,
                -1.0318694499096903,
                0.20235173986677885
            ]
        },
        {
            "positions": [
                1.8073377013146392,
                -1.3141558885501554,
                -1.4886437143345068,
                -1.5292424999175662,
                -0.9240539580726924,
                0.15441813319910908
            ]
        },
        {
            "positions": [
                1.6586268965185826,
                -1.3257919371138767,
                -1.4168145711040672,
                -1.5260244246949617,
                -0.8162384662356945,
                0.10648452653143936
            ]
        },
        {
            "positions": [
                1.509916091722526,
                -1.3374279856775981,
                -1.3449854278736275,
                -1.522806349472357,
                -0.7084229743986965,
                0.05855091986376959
            ]
        },
        {
            "positions": [
                1.3612052869264695,
                -1.3490640342413194,
                -1.2731562846431879,
                -1.5195882742497524,
                -0.6006074825616987,
                0.010617313196099876
            ]
        },
        {
            "positions": [
                1.2124944821304129,
                -1.3607000828050406,
                -1.2013271414127482,
                -1.5163701990271476,
                -0.4927919907247007,
                -0.037316293471569895
            ]
        },
        {
            "positions": [
                1.0637836773343563,
                -1.372336131368762,
                -1.1294979981823086,
                -1.5131521238045431,
                -0.3849764988877027,
                -0.08524990013923955
            ]
        },
        {
            "positions": [
                0.9150728725382995,
                -1.3839721799324833,
                -1.057668854951869,
                -1.5099340485819384,
                -0.2771610070507047,
                -0.13318350680690944
            ]
        },
        {
            "positions": [
                0.7663620677422431,
                -1.3956082284962046,
                -0.9858397117214294,
                -1.5067159733593338,
                -0.1693455152137069,
                -0.1811171134745791
            ]
        },
        {
            "positions": [
                0.6176512629461866,
                -1.407244277059926,
                -0.9140105684909896,
                -1.503497898136729,
                -0.061530023376708876,
                -0.22905072014224886
            ]
        },
        {
            "positions": [
                0.46894045815012975,
                -1.4188803256236473,
                -0.84218142526055,
                -1.5002798229141245,
                0.046285468460289136,
                -0.27698432680991864
            ]
        },
        {
            "positions": [
                0.3202296533540734,
                -1.4305163741873685,
                -0.7703522820301103,
                -1.4970617476915198,
                0.15410096029728715,
                -0.3249179334775884
            ]
        },
        {
            "positions": [
                0.17151884855801658,
                -1.44215242275109,
                -0.6985231387996707,
                -1.4938436724689153,
                0.26191645213428494,
                -0.37285154014525806
            ]
        },
        {
            "positions": [
                0.022808043761960217,
                -1.4537884713148113,
                -0.626693995569231,
                -1.4906255972463105,
                0.36973194397128273,
                -0.42078514681292783
            ]
        },
        {
            "positions": [
                -0.1259027610340966,
                -1.4654245198785325,
                -0.5548648523387911,
                -1.487407522023706,
                0.47754743580828096,
                -0.4687187534805977
            ]
        },
        {
            "positions": [
                -0.27461356583015295,
                -1.477060568442254,
                -0.4830357091083517,
                -1.4841894468011012,
                0.5853629276452788,
                -0.5166523601482673
            ]
        },
        {
            "positions": [
                -0.42332437062620976,
                -1.4886966170059752,
                -0.41120656587791204,
                -1.4809713715784967,
                0.693178419482277,
                -0.564585966815937
            ]
        },
        {
            "positions": [
                -0.5720351754222661,
                -1.5003326655696965,
                -0.3393774226474724,
                -1.477753296355892,
                0.8009939113192748,
                -0.6125195734836066
            ]
        },
        {
            "positions": [
                -0.7207459802183229,
                -1.511968714133418,
                -0.2675482794170325,
                -1.4745352211332874,
                0.908809403156273,
                -0.6604531801512765
            ]
        },
        {
            "positions": [
                -0.8694567850143797,
                -1.5236047626971392,
                -0.19571913618659287,
                -1.4713171459106826,
                1.0166248949932708,
                -0.7083867868189464
            ]
        },
        {
            "positions": [
                -1.018167589810436,
                -1.5352408112608604,
                -0.12388999295615344,
                -1.468099070688078,
                1.1244403868302686,
                -0.7563203934866161
            ]
        },
        {
            "positions": [
                -1.1668783946064925,
                -1.546876859824582,
                -0.05206084972571379,
                -1.4648809954654733,
                1.2322558786672664,
                -0.8042540001542857
            ]
        },
        {
            "positions": [
                -1.3155891994025497,
                -1.5585129083883031,
                0.019768293504726087,
                -1.4616629202428688,
                1.3400713705042646,
                -0.8521876068219556
            ]
        },
        {
            "positions": [
                -1.4643000041986056,
                -1.5701489569520244,
                0.09159743673516574,
                -1.458444845020264,
                1.4478868623412624,
                -0.9001212134896253
            ]
        },
        {
            "positions": [
                -1.6130108089946624,
                -1.5817850055157459,
                0.1634265799656054,
                -1.4552267697976595,
                1.5557023541782606,
                -0.9480548201572949
            ]
        },
        {
            "positions": [
                -1.7617216137907192,
                -1.593421054079467,
                0.23525572319604504,
                -1.452008694575055,
                1.6635178460152584,
                -0.9959884268249648
            ]
        },
        {
            "positions": [
                -1.910432418586776,
                -1.6050571026431886,
                0.3070848664264847,
                -1.4487906193524502,
                1.7713333378522567,
                -1.0439220334926347
            ]
        },
        {
            "positions": [
                -2.059143223382832,
                -1.6166931512069098,
                0.37891400965692434,
                -1.4455725441298455,
                1.8791488296892545,
                -1.0918556401603043
            ]
        },
        {
            "positions": [
                -2.2078540281788888,
                -1.628329199770631,
                0.4507431528873642,
                -1.442354468907241,
                1.9869643215262522,
                -1.139789246827974
            ]
        },
        {
            "positions": [
                -2.1065706040891503,
                -1.6066545308738682,
                0.5161189339088914,
                -1.4105388003922519,
                1.9057592348361525,
                -1.2313818087300272
            ]
        },
        {
            "positions": [
                -2.005287179999412,
                -1.5849798619771056,
                0.5814947149304186,
                -1.378723131877263,
                1.8245541481460525,
                -1.3229743706320807
            ]
        },
        {
            "positions": [
                -1.9040037559096732,
                -1.5633051930803428,
                0.6468704959519457,
                -1.346907463362274,
                1.7433490614559528,
                -1.4145669325341341
            ]
        },
        {
            "positions": [
                -1.8027203318199345,
                -1.5416305241835802,
                0.7122462769734729,
                -1.315091794847285,
                1.6621439747658528,
                -1.5061594944361874
            ]
        },
        {
            "positions": [
                -1.701436907730196,
                -1.5199558552868173,
                0.777622057995,
                -1.283276126332296,
                1.5809388880757531,
                -1.5977520563382406
            ]
        },
        {
            "positions": [
                -1.6001534836404576,
                -1.4982811863900545,
                0.8429978390165271,
                -1.251460457817307,
                1.4997338013856532,
                -1.689344618240294
            ]
        },
        {
            "positions": [
                -1.498870059550719,
                -1.4766065174932919,
                0.9083736200380543,
                -1.219644789302318,
                1.4185287146955532,
                -1.7809371801423475
            ]
        },
        {
            "positions": [
                -1.3975866354609803,
                -1.454931848596529,
                0.9737494010595815,
                -1.187829120787329,
                1.3373236280054535,
                -1.8725297420444007
            ]
        },
        {
            "positions": [
                -1.2963032113712418,
                -1.4332571796997664,
                1.0391251820811087,
                -1.15601345227234,
                1.2561185413153537,
                -1.9641223039464542
            ]
        },
        {
            "positions": [
                -1.1950197872815034,
                -1.4115825108030036,
                1.1045009631026357,
                -1.1241977837573511,
                1.174913454625254,
                -2.0557148658485076
            ]
        },
        {
            "positions": [
                -1.0937363631917647,
                -1.3899078419062407,
                1.169876744124163,
                -1.092382115242362,
                1.0937083679351538,
                -2.147307427750561
            ]
        },
        {
            "positions": [
                -0.9924529391020263,
                -1.368233173009478,
                1.23525252514569,
                -1.060566446727373,
                1.012503281245054,
                -2.238899989652614
            ]
        },
        {
            "positions": [
                -0.8911695150122878,
                -1.3465585041127153,
                1.3006283061672173,
                -1.0287507782123841,
                0.9312981945549543,
                -2.3304925515546673
            ]
        },
        {
            "positions": [
                -0.7898860909225491,
                -1.3248838352159527,
                1.3660040871887444,
                -0.9969351096973951,
                0.8500931078648544,
                -2.422085113456721
            ]
        },
        {
            "positions": [
                -0.6886026668328105,
                -1.3032091663191898,
                1.4313798682102716,
                -0.965119441182406,
                0.7688880211747546,
                -2.513677675358774
            ]
        },
        {
            "positions": [
                -0.587319242743072,
                -1.281534497422427,
                1.4967556492317988,
                -0.933303772667417,
                0.6876829344846549,
                -2.6052702372608274
            ]
        },
        {
            "positions": [
                -0.48603581865333356,
                -1.2598598285256644,
                1.5621314302533258,
                -0.9014881041524281,
                0.6064778477945549,
                -2.6968627991628806
            ]
        },
        {
            "positions": [
                -0.3847523945635949,
                -1.2381851596289015,
                1.6275072112748532,
                -0.869672435637439,
                0.525272761104455,
                -2.7884553610649343
            ]
        },
        {
            "positions": [
                -0.28346897047385644,
                -1.216510490732139,
                1.6928829922963804,
                -0.83785676712245,
                0.44406767441435524,
                -2.8800479229669875
            ]
        },
        {
            "positions": [
                -0.182185546384118,
                -1.194835821835376,
                1.7582587733179074,
                -0.8060410986074611,
                0.3628625877242555,
                -2.9716404848690408
            ]
        },
        {
            "positions": [
                -0.08090212229437954,
                -1.1731611529386132,
                1.8236345543394346,
                -0.7742254300924721,
                0.28165750103415554,
                -3.063233046771094
            ]
        },
        {
            "positions": [
                0.020381301795359352,
                -1.1514864840418504,
                1.8890103353609617,
                -0.7424097615774831,
                0.20045241434405559,
                -3.1548256086731477
            ]
        },
        {
            "positions": [
                0.12166472588509797,
                -1.1298118151450878,
                1.954386116382489,
                -0.7105940930624941,
                0.11924732765395592,
                -3.246418170575201
            ]
        }
    ]
}{
    "goal": {
        "global_pose": {
            "orientation": {
                "w": 0.7047431468963623,
                "x": -0.7094548344612122,
                "y": 0.0024358443915843964,
                "z": -0.0022348060738295317
            },
            "position": {
                "x": 0.6094750761985779,
                "y": 0.3671506643295288,
                "z": 0.19426114857196808
            }
        },
        "name": "move_to_magneteinheit_A"
    },
    "id": "PRM_move_to_magneteinheit_A_87",
    "joint_names": [
        "shoulder_pan_joint",
        "shoulder_lift_joint",
        "elbow_joint",
        "wrist_1_joint",
        "wrist_2_joint",
        "wrist_3_joint"
    ],
    "metrics": {
        "cart_traj_len": 1.2029873770719035,
        "distance_elbow_joint": 0.044745609386073415,
        "distance_shoulder_lift_joint": 0.7616188690300685,
        "distance_shoulder_pan_joint": 1.2422193970087294,
        "distance_wrist_1_joint": 0.8360470567175678,
        "distance_wrist_2_joint": 1.4429584582602808,
        "distance_wrist_3_joint": 1.95417419568805,
        "smoothness": 3.134747388469391e-16,
        "time": 0.034530218,
        "traj_len": 2.5063446662601634,
        "weighted_distance": 3.5311637589390723
    },
    "planner": "PRM",
    "start": {
        "state": {
            "elbow_joint": 1.919643534880228,
            "shoulder_lift_joint": -1.8972525353963687,
            "shoulder_pan_joint": -1.1188672234189438,
            "wrist_1_joint": -1.5931878212786155,
            "wrist_2_joint": 1.5706036197970081,
            "wrist_3_joint": 1.118896926603594
        }
    },
    "waypoints": [
        {
            "positions": [
                -1.1188672234189438,
                -1.8972525353963687,
                1.919643534880228,
                -1.5931878212786155,
                1.5706036197970081,
                1.118896926603594
            ]
        },
        {
            "positions": [
                -1.0412285111058983,
                -1.8496513560819894,
                1.9224401354668577,
                -1.5409348802337675,
                1.4804187161557405,
                1.2410328138340971
            ]
        },
        {
            "positions": [
                -0.9635897987928527,
                -1.8020501767676103,
                1.9252367360534872,
                -1.4886819391889194,
                1.390233812514473,
                1.3631687010646003
            ]
        },
        {
            "positions": [
                -0.885951086479807,
                -1.754448997453231,
                1.9280333366401168,
                -1.4364289981440714,
                1.3000489088732055,
                1.4853045882951035
            ]
        },
        {
            "positions": [
                -0.8083123741667615,
                -1.7068478181388516,
                1.9308299372267466,
                -1.3841760570992234,
                1.209864005231938,
                1.6074404755256064
            ]
        },
        {
            "positions": [
                -0.730673661853716,
                -1.6592466388244724,
                1.9336265378133761,
                -1.3319231160543756,
                1.1196791015906704,
                1.7295763627561096
            ]
        },
        {
            "positions": [
                -0.6530349495406703,
                -1.611645459510093,
                1.9364231384000057,
                -1.2796701750095276,
                1.0294941979494028,
                1.8517122499866128
            ]
        },
        {
            "positions": [
                -0.5753962372276247,
                -1.5640442801957137,
                1.9392197389866352,
                -1.2274172339646796,
                0.9393092943081353,
                1.9738481372171157
            ]
        },
        {
            "positions": [
                -0.49775752491457914,
                -1.5164431008813346,
                1.9420163395732648,
                -1.1751642929198316,
                0.8491243906668677,
                2.095984024447619
            ]
        },
        {
            "positions": [
                -0.4201188126015336,
                -1.4688419215669553,
                1.9448129401598944,
                -1.1229113518749836,
                0.7589394870256002,
                2.218119911678122
            ]
        },
        {
            "positions": [
                -0.34248010028848797,
                -1.421240742252576,
                1.947609540746524,
                -1.0706584108301356,
                0.6687545833843327,
                2.3402557989086255
            ]
        },
        {
            "positions": [
                -0.2648413879754423,
                -1.3736395629381968,
                1.9504061413331535,
                -1.0184054697852876,
                0.5785696797430651,
                2.4623916861391284
            ]
        },
        {
            "positions": [
                -0.1872026756623968,
                -1.3260383836238174,
                1.953202741919783,
                -0.9661525287404396,
                0.4883847761017974,
                2.5845275733696313
            ]
        },
        {
            "positions": [
                -0.10956396334935126,
                -1.278437204309438,
                1.9559993425064128,
                -0.9138995876955915,
                0.39819987246053,
                2.7066634606001347
            ]
        },
        {
            "positions": [
                -0.0319252510363055,
                -1.230836024995059,
                1.9587959430930424,
                -0.8616466466507436,
                0.3080149688192624,
                2.8287993478306377
            ]
        },
        {
            "positions": [
                0.04571346127674003,
                -1.1832348456806794,
                1.961592543679672,
                -0.8093937056058956,
                0.21783006517799497,
                2.9509352350611406
            ]
        },
        {
            "positions": [
                0.12335217358978552,
                -1.1356336663663003,
                1.9643891442663015,
                -0.7571407645610476,
                0.12764516153672742,
                3.073071122291644
            ]
        }
    ]
}