{
    "goal": {
        "global_pose": {
            "orientation": {
                "w": 0.7047431468963623,
                "x": -0.7094548344612122,
                "y": 0.0024358443915843964,
                "z": -0.0022348060738295317
            },
            "position": {
                "x": 0.6094750761985779,
                "y": 0.3671506643295288,
                "z": 0.19426114857196808
            }
        },
        "name": "move_to_magneteinheit_A"
    },
    "id": "PRM_move_to_magneteinheit_A_51",
    "joint_names": [
        "shoulder_pan_joint",
        "shoulder_lift_joint",
        "elbow_joint",
        "wrist_1_joint",
        "wrist_2_joint",
        "wrist_3_joint"
    ],
    "metrics": {
        "cart_traj_len": 2.772628220087549,
        "distance_elbow_joint": 4.1287643770161395,
        "distance_shoulder_lift_joint": 1.522958039405085,
        "distance_shoulder_pan_joint": 2.7832679303440475,
        "distance_wrist_1_joint": 3.5791425140052118,
        "distance_wrist_2_joint": 1.5814560724217683,
        "distance_wrist_3_joint": 0.6939086602902916,
        "smoothness": 0.21038943954391426,
        "time": 0.16677732,
        "traj_len": 3.7801451815350355,
        "weighted_distance": 4.56485635047699
    },
    "planner": "PRM",
    "start": {
        "state": {
            "elbow_joint": -1.919618573717145,
            "shoulder_lift_joint": -1.2443395971678275,
            "shoulder_pan_joint": 2.6996025300909787,
            "wrist_1_joint": -1.548550951253194,
            "wrist_2_joint": -1.5709469090946802,
            "wrist_3_joint": 0.4420197732051276
        }
    },
    "waypoints": [
        {
            "positions": [
                2.6996025300909787,
                -1.2443395971678275,
                -1.919618573717145,
                -1.548550951253194,
                -1.5709469090946802,
                0.4420197732051276
            ]
        },
        {
            "positions": [
                2.6240425368971088,
                -1.2634284689692286,
                -1.7842576978615974,
                -1.4510122650753041,
                -1.5262999668078556,
                0.42773806258458463
            ]
        },
        {
            "positions": [
                2.5484825437032392,
                -1.2825173407706296,
                -1.64889682200605,
                -1.3534735788974142,
                -1.4816530245210309,
                0.4134563519640417
            ]
        },
        {
            "positions": [
                2.4729225505093693,
                -1.3016062125720307,
                -1.5135359461505025,
                -1.255934892719524,
                -1.4370060822342063,
                0.39917464134349867
            ]
        },
        {
            "positions": [
                2.3973625573154997,
                -1.3206950843734317,
                -1.378175070294955,
                -1.158396206541634,
                -1.3923591399473816,
                0.3848929307229557
            ]
        },
        {
            "positions": [
                2.3218025641216298,
                -1.339783956174833,
                -1.2428141944394073,
                -1.060857520363744,
                -1.347712197660557,
                0.37061122010241276
            ]
        },
        {
            "positions": [
                2.24624257092776,
                -1.358872827976234,
                -1.1074533185838602,
                -0.9633188341858541,
                -1.3030652553737325,
                0.3563295094818698
            ]
        },
        {
            "positions": [
                2.1706825777338903,
                -1.3779616997776352,
                -0.9720924427283125,
                -0.865780148007964,
                -1.2584183130869078,
                0.34204779886132686
            ]
        },
        {
            "positions": [
                2.0951225845400203,
                -1.3970505715790362,
                -0.8367315668727651,
                -0.768241461830074,
                -1.2137713708000832,
                0.3277660882407839
            ]
        },
        {
            "positions": [
                2.0195625913461503,
                -1.4161394433804373,
                -0.7013706910172175,
                -0.670702775652184,
                -1.1691244285132585,
                0.3134843776202409
            ]
        },
        {
            "positions": [
                1.9440025981522806,
                -1.4352283151818384,
                -0.5660098151616699,
                -0.573164089474294,
                -1.124477486226434,
                0.29920266699969794
            ]
        },
        {
            "positions": [
                1.8684426049584109,
                -1.4543171869832394,
                -0.4306489393061226,
                -0.475625403296404,
                -1.0798305439396092,
                0.28492095637915493
            ]
        },
        {
            "positions": [
                1.7928826117645411,
                -1.4734060587846405,
                -0.29528806345057523,
                -0.37808671711851405,
                -1.0351836016527847,
                0.270639245758612
            ]
        },
        {
            "positions": [
                1.7173226185706711,
                -1.4924949305860415,
                -0.15992718759502744,
                -0.28054803094062386,
                -0.99053665936596,
                0.256357535138069
            ]
        },
        {
            "positions": [
                1.6417626253768014,
                -1.5115838023874426,
                -0.024566311739480096,
                -0.1830093447627339,
                -0.9458897170791354,
                0.24207582451752607
            ]
        },
        {
            "positions": [
                1.5662026321829317,
                -1.530672674188844,
                0.11079456411606725,
                -0.08547065858484393,
                -0.9012427747923107,
                0.22779411389698312
            ]
        },
        {
            "positions": [
                1.490642638989062,
                -1.549761545990245,
                0.24615543997161482,
                0.012068027593046038,
                -0.8565958325054862,
                0.21351240327644017
            ]
        },
        {
            "positions": [
                1.4150826457951922,
                -1.568850417791646,
                0.3815163158271624,
                0.109606713770936,
                -0.8119488902186616,
                0.19923069265589718
            ]
        },
        {
            "positions": [
                1.339522652601322,
                -1.587939289593047,
                0.51687719168271,
                0.2071453999488262,
                -0.7673019479318368,
                0.1849489820353542
            ]
        },
        {
            "positions": [
                1.2639626594074522,
                -1.6070281613944482,
                0.6522380675382575,
                0.30468408612671616,
                -0.7226550056450122,
                0.17066727141481125
            ]
        },
        {
            "positions": [
                1.1884026662135825,
                -1.6261170331958492,
                0.7875989433938051,
                0.4022227723046061,
                -0.6780080633581876,
                0.1563855607942683
            ]
        },
        {
            "positions": [
                1.1128426730197127,
                -1.6452059049972503,
                0.9229598192493522,
                0.4997614584824963,
                -0.633361121071363,
                0.14210385017372534
            ]
        },
        {
            "positions": [
                1.037282679825843,
                -1.6642947767986513,
                1.0583206951048998,
                0.5973001446603861,
                -0.5887141787845384,
                0.12782213955318233
            ]
        },
        {
            "positions": [
                0.9617226866319732,
                -1.6833836486000524,
                1.1936815709604474,
                0.6948388308382762,
                -0.5440672364977137,
                0.11354042893263938
            ]
        },
        {
            "positions": [
                0.8861626934381035,
                -1.7024725204014537,
                1.3290424468159945,
                0.792377517016166,
                -0.4994202942108892,
                0.09925871831209643
            ]
        },
        {
            "positions": [
                0.8106027002442333,
                -1.7215613922028548,
                1.4644033226715425,
                0.8899162031940562,
                -0.45477335192406443,
                0.08497700769155342
            ]
        },
        {
            "positions": [
                0.7350427070503636,
                -1.7406502640042558,
                1.59976419852709,
                0.9874548893719464,
                -0.4101264096372399,
                0.07069529707101047
            ]
        },
        {
            "positions": [
                0.659482713856494,
                -1.7597391358056569,
                1.7351250743826372,
                1.084993575549836,
                -0.36547946735041514,
                0.05641358645046751
            ]
        },
        {
            "positions": [
                0.5839227206626243,
                -1.778828007607058,
                1.8704859502381848,
                1.1825322617277263,
                -0.3208325250635906,
                0.042131875829924545
            ]
        },
        {
            "positions": [
                0.5043578489404414,
                -1.7373218835885091,
                1.9210188796959606,
                1.2944338578768946,
                -0.2827946477957738,
                0.014396633131644125
            ]
        },
        {
            "positions": [
                0.4247929772182585,
                -1.6958157595699603,
                1.9715518091537363,
                1.4063354540260629,
                -0.244756770527957,
                -0.013338609566636295
            ]
        },
        {
            "positions": [
                0.3438446112318046,
                -1.614366700089823,
                2.0004773924963484,
                1.5062519249357156,
                -0.2078017006400157,
                -0.04780455216756516
            ]
        },
        {
            "positions": [
                0.2628962452453507,
                -1.5329176406096856,
                2.02940297583896,
                1.606168395845368,
                -0.17084663075207443,
                -0.08227049476849403
            ]
        },
        {
            "positions": [
                0.1819478792588968,
                -1.4514685811295482,
                2.058328559181572,
                1.7060848667550208,
                -0.13389156086413315,
                -0.1167364373694229
            ]
        },
        {
            "positions": [
                0.10099951327244289,
                -1.3700195216494107,
                2.0872541425241837,
                1.8060013376646733,
                -0.09693649097619186,
                -0.15120237997035177
            ]
        },
        {
            "positions": [
                0.02005114728598901,
                -1.2885704621692733,
                2.116179725866796,
                1.905917808574326,
                -0.059981421088250594,
                -0.18566832257128063
            ]
        },
        {
            "positions": [
                0.031163497184481415,
                -1.090094709489547,
                2.0877302076052944,
                1.9687034314141978,
                -0.07284855880980667,
                -0.17008883999286664
            ]
        },
        {
            "positions": [
                0.07746559600476427,
                -0.9402265440653753,
                2.055471928019946,
                1.999647497083108,
                -0.10166028215669816,
                -0.14476829902513197
            ]
        },
        {
            "positions": [
                0.12376769482504711,
                -0.7903583786412036,
                2.0232136484345977,
                2.030591562752018,
                -0.13047200550358964,
                -0.11944775805739728
            ]
        }
    ]
}{
    "goal": {
        "global_pose": {
            "orientation": {
                "w": 0.7047431468963623,
                "x": -0.7094548344612122,
                "y": 0.0024358443915843964,
                "z": -0.0022348060738295317
            },
            "position": {
                "x": 0.6094750761985779,
                "y": 0.3671506643295288,
                "z": 0.19426114857196808
            }
        },
        "name": "move_to_magneteinheit_A"
    },
    "id": "PRM_move_to_magneteinheit_A_51",
    "joint_names": [
        "shoulder_pan_joint",
        "shoulder_lift_joint",
        "elbow_joint",
        "wrist_1_joint",
        "wrist_2_joint",
        "wrist_3_joint"
    ],
    "metrics": {
        "cart_traj_len": 2.4617603095669267,
        "distance_elbow_joint": 2.579406395608234,
        "distance_shoulder_lift_joint": 0.7499170583051751,
        "distance_shoulder_pan_joint": 2.056433642117106,
        "distance_wrist_1_joint": 0.7298006449960196,
        "distance_wrist_2_joint": 1.4394829780682938,
        "distance_wrist_3_joint": 5.105921171366211,
        "smoothness": 0.41637454085546005,
        "time": 0.151456357,
        "traj_len": 3.5582245418833596,
        "weighted_distance": 5.004207015727644
    },
    "planner": "PRM",
    "start": {
        "state": {
            "elbow_joint": 1.919643534880228,
            "shoulder_lift_joint": -1.8972525353963687,
            "shoulder_pan_joint": -1.1188672234189438,
            "wrist_1_joint": -1.5931878212786155,
            "wrist_2_joint": 1.5706036197970081,
            "wrist_3_joint": 1.118896926603594
        }
    },
    "waypoints": [
        {
            "positions": [
                -1.1188672234189438,
                -1.8972525353963687,
                1.919643534880228,
                -1.5931878212786155,
                1.5706036197970081,
                1.118896926603594
            ]
        },
        {
            "positions": [
                -1.1698071177031708,
                -1.8343228835170795,
                1.7627714285495402,
                -1.5772113035346635,
                1.5207245718921256,
                1.173589507006687
            ]
        },
        {
            "positions": [
                -1.220747011987398,
                -1.7713932316377903,
                1.605899322218852,
                -1.5612347857907118,
                1.470845523987243,
                1.2282820874097804
            ]
        },
        {
            "positions": [
                -1.271686906271625,
                -1.708463579758501,
                1.4490272158881639,
                -1.54525826804676,
                1.4209664760823608,
                1.2829746678128735
            ]
        },
        {
            "positions": [
                -1.322626800555852,
                -1.645533927879212,
                1.292155109557476,
                -1.529281750302808,
                1.3710874281774783,
                1.3376672482159666
            ]
        },
        {
            "positions": [
                -1.373566694840079,
                -1.5826042759999228,
                1.135283003226788,
                -1.513305232558856,
                1.3212083802725958,
                1.39235982861906
            ]
        },
        {
            "positions": [
                -1.424506589124306,
                -1.5196746241206336,
                0.9784108968960998,
                -1.4973287148149041,
                1.2713293323677135,
                1.447052409022153
            ]
        },
        {
            "positions": [
                -1.475446483408533,
                -1.4567449722413444,
                0.8215387905654119,
                -1.4813521970709524,
                1.221450284462831,
                1.5017449894252461
            ]
        },
        {
            "positions": [
                -1.5263863776927602,
                -1.3938153203620551,
                0.6646666842347239,
                -1.4653756793270005,
                1.1715712365579485,
                1.5564375698283395
            ]
        },
        {
            "positions": [
                -1.4604297981790286,
                -1.3839561266312206,
                0.717643866033233,
                -1.4412961392052244,
                1.1299532127647791,
                1.369702348702681
            ]
        },
        {
            "positions": [
                -1.394473218665297,
                -1.3740969329003863,
                0.7706210478317423,
                -1.4172165990834482,
                1.0883351889716097,
                1.1829671275770222
            ]
        },
        {
            "positions": [
                -1.3285166391515655,
                -1.3642377391695517,
                0.8235982296302515,
                -1.393137058961672,
                1.0467171651784404,
                0.9962319064513636
            ]
        },
        {
            "positions": [
                -1.262560059637834,
                -1.3543785454387174,
                0.8765754114287608,
                -1.3690575188398957,
                1.005099141385271,
                0.809496685325705
            ]
        },
        {
            "positions": [
                -1.1966034801241023,
                -1.3445193517078828,
                0.92955259322727,
                -1.3449779787181195,
                0.9634811175921016,
                0.6227614642000463
            ]
        },
        {
            "positions": [
                -1.1306469006103708,
                -1.3346601579770483,
                0.9825297750257793,
                -1.3208984385963434,
                0.9218630937989323,
                0.43602624307438775
            ]
        },
        {
            "positions": [
                -1.0646903210966392,
                -1.324800964246214,
                1.0355069568242885,
                -1.2968188984745672,
                0.8802450700057629,
                0.24929102194872899
            ]
        },
        {
            "positions": [
                -0.9987337415829076,
                -1.3149417705153794,
                1.0884841386227977,
                -1.272739358352791,
                0.8386270462125935,
                0.06255580082307044
            ]
        },
        {
            "positions": [
                -0.932777162069176,
                -1.305082576784545,
                1.1414613204213069,
                -1.248659818231015,
                0.7970090224194243,
                -0.1241794203025881
            ]
        },
        {
            "positions": [
                -0.8668205825554445,
                -1.2952233830537105,
                1.1944385022198163,
                -1.2245802781092388,
                0.7553909986262548,
                -0.3109146414282469
            ]
        },
        {
            "positions": [
                -0.8008640030417129,
                -1.285364189322876,
                1.2474156840183253,
                -1.2005007379874626,
                0.7137729748330855,
                -0.49764986255390564
            ]
        },
        {
            "positions": [
                -0.7349074235279813,
                -1.2755049955920417,
                1.3003928658168347,
                -1.1764211978656862,
                0.6721549510399162,
                -0.684385083679564
            ]
        },
        {
            "positions": [
                -0.6689508440142498,
                -1.2656458018612071,
                1.3533700476153439,
                -1.15234165774391,
                0.6305369272467468,
                -0.8711203048052227
            ]
        },
        {
            "positions": [
                -0.6029942645005181,
                -1.2557866081303728,
                1.406347229413853,
                -1.128262117622134,
                0.5889189034535774,
                -1.0578555259308815
            ]
        },
        {
            "positions": [
                -0.5370376849867866,
                -1.2459274143995382,
                1.4593244112123624,
                -1.1041825775003578,
                0.5473008796604081,
                -1.2445907470565398
            ]
        },
        {
            "positions": [
                -0.47108110547305504,
                -1.2360682206687037,
                1.5123015930108716,
                -1.0801030373785816,
                0.5056828558672387,
                -1.4313259681821986
            ]
        },
        {
            "positions": [
                -0.40512452595932347,
                -1.2262090269378694,
                1.5652787748093808,
                -1.0560234972568052,
                0.46406483207406934,
                -1.6180611893078574
            ]
        },
        {
            "positions": [
                -0.3391679464455919,
                -1.2163498332070348,
                1.61825595660789,
                -1.031943957135029,
                0.4224468082809001,
                -1.8047964104335157
            ]
        },
        {
            "positions": [
                -0.2732113669318603,
                -1.2064906394762005,
                1.6712331384063992,
                -1.007864417013253,
                0.3808287844877306,
                -1.9915316315591745
            ]
        },
        {
            "positions": [
                -0.20725478741812875,
                -1.196631445745366,
                1.7242103202049086,
                -0.9837848768914768,
                0.33921076069456124,
                -2.178266852684833
            ]
        },
        {
            "positions": [
                -0.14129820790439718,
                -1.1867722520145314,
                1.7771875020034176,
                -0.9597053367697006,
                0.297592736901392,
                -2.3650020738104915
            ]
        },
        {
            "positions": [
                -0.0753416283906656,
                -1.176913058283697,
                1.830164683801927,
                -0.9356257966479244,
                0.2559747131082226,
                -2.5517372949361508
            ]
        },
        {
            "positions": [
                -0.009385048876934032,
                -1.1670538645528625,
                1.8831418656004364,
                -0.9115462565261482,
                0.21435668931505314,
                -2.7384725160618095
            ]
        },
        {
            "positions": [
                0.05657153063679754,
                -1.1571946708220282,
                1.9361190473989454,
                -0.887466716404372,
                0.17273866552188388,
                -2.9252077371874674
            ]
        },
        {
            "positions": [
                0.12252811015052906,
                -1.1473354770911937,
                1.9890962291974545,
                -0.8633871762825959,
                0.1311206417287145,
                -3.111942958313126
            ]
        }
    ]
}