{
    "goal": {
        "global_pose": {
            "orientation": {
                "w": 0.5084816217422485,
                "x": -0.49083608388900757,
                "y": 0.5182115435600281,
                "z": -0.4816462993621826
            },
            "position": {
                "x": 0.5540239810943604,
                "y": 0.030875300988554955,
                "z": 0.16403168439865112
            }
        },
        "name": "move_to_storage_A"
    },
    "id": "PRM_move_to_storage_A_106",
    "joint_names": [
        "shoulder_pan_joint",
        "shoulder_lift_joint",
        "elbow_joint",
        "wrist_1_joint",
        "wrist_2_joint",
        "wrist_3_joint"
    ],
    "metrics": {
        "cart_traj_len": 0.3525137317182899,
        "distance_elbow_joint": 0.4500467386053866,
        "distance_shoulder_lift_joint": 0.23598974424182262,
        "distance_shoulder_pan_joint": 0.46055169488248027,
        "distance_wrist_1_joint": 0.23964131734688376,
        "distance_wrist_2_joint": 1.100429632636187,
        "distance_wrist_3_joint": 0.0879380888655743,
        "smoothness": 4.440892098500626e-16,
        "time": 0.02422168,
        "traj_len": 1.6045551460072462,
        "weighted_distance": 2.0225094176029326
    },
    "planner": "PRM",
    "start": {
        "state": {
            "elbow_joint": 1.9715477243005601,
            "shoulder_lift_joint": -1.1394853015351272,
            "shoulder_pan_joint": 0.12281154014795169,
            "wrist_1_joint": -0.7804696478968182,
            "wrist_2_joint": 0.12958648046900423,
            "wrist_3_joint": -3.192491284697111
        }
    },
    "waypoints": [
        {
            "positions": [
                0.12281154014795169,
                -1.1394853015351272,
                1.9715477243005601,
                -0.7804696478968182,
                0.12958648046900423,
                -3.192491284697111
            ]
        },
        {
            "positions": [
                0.05701844087902594,
                -1.1731981221411019,
                2.035840115529901,
                -0.8147041218035158,
                0.2867907137027452,
                -3.1799287005734578
            ]
        },
        {
            "positions": [
                -0.008774658389899812,
                -1.2069109427470766,
                2.100132506759242,
                -0.8489385957102136,
                0.4439949469364862,
                -3.1673661164498044
            ]
        },
        {
            "positions": [
                -0.07456775765882555,
                -1.2406237633530512,
                2.164424897988583,
                -0.8831730696169112,
                0.6011991801702272,
                -3.154803532326151
            ]
        },
        {
            "positions": [
                -0.1403608569277513,
                -1.2743365839590257,
                2.228717289217924,
                -0.9174075435236089,
                0.7584034134039682,
                -3.142240948202497
            ]
        },
        {
            "positions": [
                -0.2061539561966771,
                -1.3080494045650004,
                2.293009680447265,
                -0.9516420174303066,
                0.9156076466377093,
                -3.1296783640788437
            ]
        },
        {
            "positions": [
                -0.27194705546560277,
                -1.341762225170975,
                2.3573020716766058,
                -0.9858764913370042,
                1.07281187987145,
                -3.1171157799551903
            ]
        },
        {
            "positions": [
                -0.33774015473452856,
                -1.3754750457769498,
                2.4215944629059467,
                -1.020110965243702,
                1.2300161131051914,
                -3.104553195831537
            ]
        }
    ]
}