{
    "goal": {
        "global_pose": {
            "orientation": {
                "w": 0.7047431468963623,
                "x": -0.7094548344612122,
                "y": 0.0024358443915843964,
                "z": -0.0022348060738295317
            },
            "position": {
                "x": 0.6094750761985779,
                "y": 0.3671506643295288,
                "z": 0.19426114857196808
            }
        },
        "name": "move_to_magneteinheit_A"
    },
    "id": "PRM_move_to_magneteinheit_A_11",
    "joint_names": [
        "shoulder_pan_joint",
        "shoulder_lift_joint",
        "elbow_joint",
        "wrist_1_joint",
        "wrist_2_joint",
        "wrist_3_joint"
    ],
    "metrics": {
        "cart_traj_len": 3.0866871692764137,
        "distance_elbow_joint": 3.940345451114244,
        "distance_shoulder_lift_joint": 0.4558179457892044,
        "distance_shoulder_pan_joint": 3.0590236121494767,
        "distance_wrist_1_joint": 3.563729927471077,
        "distance_wrist_2_joint": 1.4321328851571709,
        "distance_wrist_3_joint": 1.6870091318082319,
        "smoothness": 0.14629516560185257,
        "time": 0.08074152600000001,
        "traj_len": 3.760061030553813,
        "weighted_distance": 4.744253369049139
    },
    "planner": "PRM",
    "start": {
        "state": {
            "elbow_joint": -1.919618573717145,
            "shoulder_lift_joint": -1.2443395971678275,
            "shoulder_pan_joint": 2.6996025300909787,
            "wrist_1_joint": -1.548550951253194,
            "wrist_2_joint": -1.5709469090946802,
            "wrist_3_joint": 0.4420197732051276
        }
    },
    "waypoints": [
        {
            "positions": [
                2.6996025300909787,
                -1.2443395971678275,
                -1.919618573717145,
                -1.548550951253194,
                -1.5709469090946802,
                0.4420197732051276
            ]
        },
        {
            "positions": [
                2.6087191303983674,
                -1.243851179512373,
                -1.8035552234763461,
                -1.4454108675141046,
                -1.5283638736903717,
                0.4058540128598282
            ]
        },
        {
            "positions": [
                2.517835730705756,
                -1.2433627618569185,
                -1.6874918732355475,
                -1.3422707837750152,
                -1.4857808382860633,
                0.36968825251452875
            ]
        },
        {
            "positions": [
                2.426952331013145,
                -1.242874344201464,
                -1.5714285229947489,
                -1.2391307000359255,
                -1.443197802881755,
                0.33352249216922936
            ]
        },
        {
            "positions": [
                2.3360689313205336,
                -1.2423859265460098,
                -1.45536517275395,
                -1.1359906162968363,
                -1.4006147674774465,
                0.29735673182392997
            ]
        },
        {
            "positions": [
                2.2451855316279223,
                -1.2418975088905553,
                -1.3393018225131512,
                -1.0328505325577466,
                -1.358031732073138,
                0.2611909714786306
            ]
        },
        {
            "positions": [
                2.154302131935311,
                -1.2414090912351008,
                -1.2232384722723526,
                -0.9297104488186572,
                -1.3154486966688297,
                0.22502521113333115
            ]
        },
        {
            "positions": [
                2.0634187322427,
                -1.2409206735796463,
                -1.107175122031554,
                -0.8265703650795677,
                -1.2728656612645213,
                0.18885945078803174
            ]
        },
        {
            "positions": [
                1.9725353325500885,
                -1.2404322559241918,
                -0.9911117717907552,
                -0.7234302813404783,
                -1.2302826258602129,
                0.15269369044273234
            ]
        },
        {
            "positions": [
                1.8816519328574772,
                -1.2399438382687373,
                -0.8750484215499563,
                -0.6202901976013887,
                -1.1876995904559045,
                0.1165279300974329
            ]
        },
        {
            "positions": [
                1.790768533164866,
                -1.239455420613283,
                -0.7589850713091577,
                -0.5171501138622994,
                -1.145116555051596,
                0.08036216975213356
            ]
        },
        {
            "positions": [
                1.6998851334722547,
                -1.2389670029578286,
                -0.6429217210683589,
                -0.4140100301232097,
                -1.1025335196472876,
                0.044196409406834114
            ]
        },
        {
            "positions": [
                1.6090017337796434,
                -1.238478585302374,
                -0.5268583708275603,
                -0.31086994638412024,
                -1.0599504842429792,
                0.008030649061534723
            ]
        },
        {
            "positions": [
                1.5181183340870321,
                -1.2379901676469196,
                -0.41079502058676143,
                -0.2077298626450308,
                -1.0173674488386708,
                -0.028135111283764724
            ]
        },
        {
            "positions": [
                1.4272349343944208,
                -1.2375017499914651,
                -0.2947316703459628,
                -0.10458977890594134,
                -0.9747844134343624,
                -0.06430087162906412
            ]
        },
        {
            "positions": [
                1.3363515347018096,
                -1.2370133323360106,
                -0.17866832010516398,
                -0.0014496951668516722,
                -0.932201378030054,
                -0.10046663197436351
            ]
        },
        {
            "positions": [
                1.2454681350091983,
                -1.2365249146805564,
                -0.06260496986436537,
                0.10169038857223756,
                -0.8896183426257456,
                -0.1366323923196629
            ]
        },
        {
            "positions": [
                1.1545847353165872,
                -1.2360364970251019,
                0.053458380376433245,
                0.204830472311327,
                -0.8470353072214373,
                -0.1727981526649623
            ]
        },
        {
            "positions": [
                1.0637013356239757,
                -1.2355480793696474,
                0.1695217306172323,
                0.3079705560504167,
                -0.8044522718171288,
                -0.2089639130102618
            ]
        },
        {
            "positions": [
                0.9728179359313645,
                -1.235059661714193,
                0.2855850808580309,
                0.4111106397895061,
                -0.7618692364128203,
                -0.24512967335556118
            ]
        },
        {
            "positions": [
                0.8819345362387532,
                -1.2345712440587384,
                0.40164843109882953,
                0.5142507235285954,
                -0.7192862010085119,
                -0.28129543370086046
            ]
        },
        {
            "positions": [
                0.7910511365461421,
                -1.234082826403284,
                0.5177117813396281,
                0.617390807267685,
                -0.6767031656042036,
                -0.31746119404615986
            ]
        },
        {
            "positions": [
                0.7001677368535306,
                -1.2335944087478297,
                0.6337751315804272,
                0.7205308910067747,
                -0.6341201301998951,
                -0.35362695439145936
            ]
        },
        {
            "positions": [
                0.6092843371609193,
                -1.2331059910923752,
                0.7498384818212258,
                0.8236709747458639,
                -0.5915370947955867,
                -0.38979271473675875
            ]
        },
        {
            "positions": [
                0.5184009374683081,
                -1.2326175734369207,
                0.8659018320620244,
                0.9268110584849536,
                -0.5489540593912783,
                -0.42595847508205814
            ]
        },
        {
            "positions": [
                0.4275175377756968,
                -1.2321291557814662,
                0.981965182302823,
                1.0299511422240428,
                -0.5063710239869699,
                -0.46212423542735753
            ]
        },
        {
            "positions": [
                0.3366341380830855,
                -1.2316407381260117,
                1.098028532543622,
                1.1330912259631325,
                -0.46378798858266146,
                -0.49828999577265704
            ]
        },
        {
            "positions": [
                0.24575073839047423,
                -1.2311523204705572,
                1.2140918827844207,
                1.2362313097022222,
                -0.42120495317835305,
                -0.5344557561179564
            ]
        },
        {
            "positions": [
                0.15486733869786296,
                -1.230663902815103,
                1.3301552330252193,
                1.3393713934413114,
                -0.37862191777404464,
                -0.5706215164632558
            ]
        },
        {
            "positions": [
                0.06398393900525168,
                -1.2301754851596485,
                1.446218583266018,
                1.4425114771804006,
                -0.3360388823697362,
                -0.6067872768085552
            ]
        },
        {
            "positions": [
                -0.0268994606873596,
                -1.229687067504194,
                1.562281933506817,
                1.5456515609194907,
                -0.2934558469654278,
                -0.6429530371538545
            ]
        },
        {
            "positions": [
                -0.11778286037997102,
                -1.2291986498487395,
                1.6783452837476158,
                1.6487916446585802,
                -0.2508728115611194,
                -0.679118797499154
            ]
        },
        {
            "positions": [
                -0.0989808537958928,
                -1.1681942205182,
                1.7427580554797595,
                1.7122567046223705,
                -0.2279947318166457,
                -0.6025473247288846
            ]
        },
        {
            "positions": [
                -0.08017884721181459,
                -1.1071897911876605,
                1.8071708272119034,
                1.7757217645861605,
                -0.205116652072172,
                -0.5259758519586151
            ]
        },
        {
            "positions": [
                -0.061376840627736365,
                -1.046185361857121,
                1.871583598944047,
                1.8391868245499507,
                -0.1822385723276983,
                -0.44940437918834564
            ]
        },
        {
            "positions": [
                -0.0018814789329611031,
                -0.962719026455859,
                1.920014020655265,
                1.8955086866427326,
                -0.168021296409359,
                -0.33918722041767824
            ]
        },
        {
            "positions": [
                0.05761388276181416,
                -0.879252691054597,
                1.9684444423664826,
                1.9518305487355148,
                -0.15380402049101974,
                -0.2289700616470108
            ]
        },
        {
            "positions": [
                0.11710924445658943,
                -0.7957863556533349,
                2.0168748640777006,
                2.0081524108282967,
                -0.13958674457268044,
                -0.11875290287634337
            ]
        },
        {
            "positions": [
                0.12385536129855695,
                -0.7885216513786231,
                2.020726877397099,
                2.015178976217883,
                -0.140359465207852,
                -0.1132482363952042
            ]
        }
    ]
}{
    "goal": {
        "global_pose": {
            "orientation": {
                "w": 0.7047431468963623,
                "x": -0.7094548344612122,
                "y": 0.0024358443915843964,
                "z": -0.0022348060738295317
            },
            "position": {
                "x": 0.6094750761985779,
                "y": 0.3671506643295288,
                "z": 0.19426114857196808
            }
        },
        "name": "move_to_magneteinheit_A"
    },
    "id": "PRM_move_to_magneteinheit_A_11",
    "joint_names": [
        "shoulder_pan_joint",
        "shoulder_lift_joint",
        "elbow_joint",
        "wrist_1_joint",
        "wrist_2_joint",
        "wrist_3_joint"
    ],
    "metrics": {
        "cart_traj_len": 1.1655037926627907,
        "distance_elbow_joint": 0.20346312939774447,
        "distance_shoulder_lift_joint": 0.7508461107165065,
        "distance_shoulder_pan_joint": 1.242246906604429,
        "distance_wrist_1_joint": 1.0536165044327634,
        "distance_wrist_2_joint": 1.4403497718021026,
        "distance_wrist_3_joint": 4.246630788194853,
        "smoothness": 0.16691294903040074,
        "time": 0.120737766,
        "traj_len": 2.989507185331455,
        "weighted_distance": 4.463673494306339
    },
    "planner": "PRM",
    "start": {
        "state": {
            "elbow_joint": 1.919643534880228,
            "shoulder_lift_joint": -1.8972525353963687,
            "shoulder_pan_joint": -1.1188672234189438,
            "wrist_1_joint": -1.5931878212786155,
            "wrist_2_joint": 1.5706036197970081,
            "wrist_3_joint": 1.118896926603594
        }
    },
    "waypoints": [
        {
            "positions": [
                -1.1188672234189438,
                -1.8972525353963687,
                1.919643534880228,
                -1.5931878212786155,
                1.5706036197970081,
                1.118896926603594
            ]
        },
        {
            "positions": [
                -1.0715080431106427,
                -1.8705033862424068,
                1.9263665472202536,
                -1.5481133224961008,
                1.5144901762427874,
                0.9189755842834755
            ]
        },
        {
            "positions": [
                -1.0241488628023419,
                -1.843754237088445,
                1.933089559560279,
                -1.5030388237135863,
                1.4583767326885666,
                0.719054241963357
            ]
        },
        {
            "positions": [
                -0.9767896824940407,
                -1.817005087934483,
                1.9398125719003045,
                -1.4579643249310716,
                1.4022632891343458,
                0.5191328996432385
            ]
        },
        {
            "positions": [
                -0.9294305021857396,
                -1.7902559387805212,
                1.9465355842403302,
                -1.412889826148557,
                1.346149845580125,
                0.31921155732312
            ]
        },
        {
            "positions": [
                -0.8820713218774386,
                -1.7635067896265593,
                1.9532585965803557,
                -1.3678153273660425,
                1.2900364020259043,
                0.11929021500300152
            ]
        },
        {
            "positions": [
                -0.8347121415691376,
                -1.7367576404725975,
                1.9599816089203812,
                -1.3227408285835278,
                1.2339229584716835,
                -0.08063112731711697
            ]
        },
        {
            "positions": [
                -0.7873529612608365,
                -1.7100084913186355,
                1.9667046212604067,
                -1.2776663298010131,
                1.1778095149174628,
                -0.28055246963723546
            ]
        },
        {
            "positions": [
                -0.7399937809525354,
                -1.6832593421646735,
                1.9734276336004322,
                -1.2325918310184985,
                1.121696071363242,
                -0.48047381195735395
            ]
        },
        {
            "positions": [
                -0.6926346006442345,
                -1.6565101930107118,
                1.9801506459404576,
                -1.187517332235984,
                1.0655826278090212,
                -0.6803951542774724
            ]
        },
        {
            "positions": [
                -0.6452754203359334,
                -1.62976104385675,
                1.9868736582804831,
                -1.1424428334534693,
                1.0094691842548005,
                -0.8803164965975909
            ]
        },
        {
            "positions": [
                -0.5979162400276323,
                -1.603011894702788,
                1.9935966706205088,
                -1.0973683346709546,
                0.9533557407005797,
                -1.0802378389177096
            ]
        },
        {
            "positions": [
                -0.5505570597193313,
                -1.576262745548826,
                2.000319682960534,
                -1.05229383588844,
                0.897242297146359,
                -1.280159181237828
            ]
        },
        {
            "positions": [
                -0.5031978794110303,
                -1.5495135963948643,
                2.0070426953005596,
                -1.0072193371059255,
                0.8411288535921382,
                -1.4800805235579466
            ]
        },
        {
            "positions": [
                -0.45583869910272934,
                -1.5227644472409025,
                2.0137657076405855,
                -0.9621448383234109,
                0.7850154100379174,
                -1.6800018658780649
            ]
        },
        {
            "positions": [
                -0.40847951879442823,
                -1.4960152980869406,
                2.020488719980611,
                -0.9170703395408962,
                0.7289019664836967,
                -1.8799232081981831
            ]
        },
        {
            "positions": [
                -0.3611203384861271,
                -1.4692661489329786,
                2.0272117323206365,
                -0.8719958407583815,
                0.6727885229294759,
                -2.0798445505183016
            ]
        },
        {
            "positions": [
                -0.3137611581778261,
                -1.4425169997790168,
                2.033934744660662,
                -0.826921341975867,
                0.6166750793752551,
                -2.2797658928384203
            ]
        },
        {
            "positions": [
                -0.26640197786952513,
                -1.4157678506250548,
                2.0406577570006874,
                -0.7818468431933524,
                0.5605616358210344,
                -2.479687235158539
            ]
        },
        {
            "positions": [
                -0.21904279756122413,
                -1.3890187014710929,
                2.047380769340713,
                -0.7367723444108378,
                0.5044481922668136,
                -2.679608577478657
            ]
        },
        {
            "positions": [
                -0.17168361725292303,
                -1.362269552317131,
                2.0541037816807384,
                -0.6916978456283231,
                0.4483347487125928,
                -2.8795299197987756
            ]
        },
        {
            "positions": [
                -0.09791779214332089,
                -1.308303770407814,
                2.03685306103143,
                -0.7297294778239409,
                0.368814523533171,
                -2.941580905246896
            ]
        },
        {
            "positions": [
                -0.024151967033718746,
                -1.2543379884984966,
                2.0196023403821215,
                -0.7677611100195587,
                0.2892942983537492,
                -3.003631890695017
            ]
        },
        {
            "positions": [
                0.049613858075883394,
                -1.2003722065891793,
                2.0023516197328126,
                -0.8057927422151766,
                0.20977407317432734,
                -3.065682876143138
            ]
        },
        {
            "positions": [
                0.12337968318548556,
                -1.1464064246798622,
                1.9851008990835042,
                -0.8438243744107944,
                0.13025384799490553,
                -3.1277338615912584
            ]
        }
    ]
}