{
    "goal": {
        "global_pose": {
            "orientation": {
                "w": 0.5084816217422485,
                "x": -0.49083608388900757,
                "y": 0.5182115435600281,
                "z": -0.4816462993621826
            },
            "position": {
                "x": 0.5540239810943604,
                "y": 0.030875300988554955,
                "z": 0.16403168439865112
            }
        },
        "name": "move_to_storage_A"
    },
    "id": "PRM_move_to_storage_A_124",
    "joint_names": [
        "shoulder_pan_joint",
        "shoulder_lift_joint",
        "elbow_joint",
        "wrist_1_joint",
        "wrist_2_joint",
        "wrist_3_joint"
    ],
    "metrics": {
        "cart_traj_len": 0.35296524363030835,
        "distance_elbow_joint": 0.44801994940798506,
        "distance_shoulder_lift_joint": 0.23295037163417942,
        "distance_shoulder_pan_joint": 0.45805754711842767,
        "distance_wrist_1_joint": 0.2360588210079556,
        "distance_wrist_2_joint": 1.1128510300710563,
        "distance_wrist_3_joint": 0.09052633078009675,
        "smoothness": 4.440892133664971e-16,
        "time": 0.025947188,
        "traj_len": 1.6057596488950958,
        "weighted_distance": 2.026925396421612
    },
    "planner": "PRM",
    "start": {
        "state": {
            "elbow_joint": 1.9715477243005601,
            "shoulder_lift_joint": -1.1394853015351272,
            "shoulder_pan_joint": 0.12281154014795169,
            "wrist_1_joint": -0.7804696478968182,
            "wrist_2_joint": 0.12958648046900423,
            "wrist_3_joint": -3.192491284697111
        }
    },
    "waypoints": [
        {
            "positions": [
                0.12281154014795169,
                -1.1394853015351272,
                1.9715477243005601,
                -0.7804696478968182,
                0.12958648046900423,
                -3.192491284697111
            ]
        },
        {
            "positions": [
                0.05737474770246202,
                -1.1727639260542957,
                2.0355505742159865,
                -0.8141923366122404,
                0.2885651990505837,
                -3.179558951728526
            ]
        },
        {
            "positions": [
                -0.008062044743027644,
                -1.2060425505734642,
                2.099553424131413,
                -0.8479150253276626,
                0.44754391763216317,
                -3.1666266187599406
            ]
        },
        {
            "positions": [
                -0.07349883718851731,
                -1.2393211750926327,
                2.1635562740468393,
                -0.8816377140430849,
                0.6065226362137426,
                -3.1536942857913552
            ]
        },
        {
            "positions": [
                -0.13893562963400696,
                -1.272599799611801,
                2.2275591239622656,
                -0.915360402758507,
                0.7655013547953221,
                -3.1407619528227704
            ]
        },
        {
            "positions": [
                -0.20437242207949663,
                -1.3058784241309696,
                2.2915619738776924,
                -0.9490830914739293,
                0.9244800733769016,
                -3.127829619854185
            ]
        },
        {
            "positions": [
                -0.2698092145249863,
                -1.339157048650138,
                2.355564823793119,
                -0.9828057801893515,
                1.083458791958481,
                -3.1148972868855997
            ]
        },
        {
            "positions": [
                -0.33524600697047596,
                -1.3724356731693066,
                2.419567673708545,
                -1.0165284689047738,
                1.2424375105400607,
                -3.1019649539170144
            ]
        }
    ]
}