{
    "goal": {
        "global_pose": {
            "orientation": {
                "w": 0.5084816217422485,
                "x": -0.49083608388900757,
                "y": 0.5182115435600281,
                "z": -0.4816462993621826
            },
            "position": {
                "x": 0.5540239810943604,
                "y": 0.030875300988554955,
                "z": 0.16403168439865112
            }
        },
        "name": "move_to_storage_A"
    },
    "id": "PRM_move_to_storage_A_83",
    "joint_names": [
        "shoulder_pan_joint",
        "shoulder_lift_joint",
        "elbow_joint",
        "wrist_1_joint",
        "wrist_2_joint",
        "wrist_3_joint"
    ],
    "metrics": {
        "cart_traj_len": 0.35371190001090513,
        "distance_elbow_joint": 0.44787478157544136,
        "distance_shoulder_lift_joint": 0.2353514464934343,
        "distance_shoulder_pan_joint": 0.4593991226441201,
        "distance_wrist_1_joint": 0.2350765198893886,
        "distance_wrist_2_joint": 1.1135136739180571,
        "distance_wrist_3_joint": 0.08700062827723087,
        "smoothness": 7.771561092534257e-16,
        "time": 0.042191547999999995,
        "traj_len": 1.6056824632528288,
        "weighted_distance": 2.0250450916361293
    },
    "planner": "PRM",
    "start": {
        "state": {
            "elbow_joint": 1.9715477243005601,
            "shoulder_lift_joint": -1.1394853015351272,
            "shoulder_pan_joint": 0.12281154014795169,
            "wrist_1_joint": -0.7804696478968182,
            "wrist_2_joint": 0.12958648046900423,
            "wrist_3_joint": -3.192491284697111
        }
    },
    "waypoints": [
        {
            "positions": [
                0.12281154014795169,
                -1.1394853015351272,
                1.9715477243005601,
                -0.7804696478968182,
                0.12958648046900423,
                -3.192491284697111
            ]
        },
        {
            "positions": [
                0.05718309405593454,
                -1.173106936748475,
                2.0355298359541947,
                -0.8140520078810165,
                0.28865986245729813,
                -3.1800626235146496
            ]
        },
        {
            "positions": [
                -0.008445352036082612,
                -1.2067285719618226,
                2.099511947607829,
                -0.847634367865215,
                0.447733244445592,
                -3.167633962332188
            ]
        },
        {
            "positions": [
                -0.07407379812809976,
                -1.2403502071751704,
                2.1634940592614638,
                -0.8812167278494133,
                0.6068066264338858,
                -3.1552053011497265
            ]
        },
        {
            "positions": [
                -0.1397022442201169,
                -1.2739718423885182,
                2.227476170915098,
                -0.9147990878336116,
                0.7658800084221797,
                -3.142776639967265
            ]
        },
        {
            "positions": [
                -0.20533069031213408,
                -1.307593477601866,
                2.2914582825687324,
                -0.9483814478178101,
                0.9249533904104736,
                -3.1303479787848034
            ]
        },
        {
            "positions": [
                -0.2709591364041512,
                -1.3412151128152137,
                2.355440394222367,
                -0.9819638078020083,
                1.0840267723987673,
                -3.117919317602342
            ]
        },
        {
            "positions": [
                -0.3365875824961684,
                -1.3748367480285615,
                2.4194225058760015,
                -1.0155461677862068,
                1.2431001543870612,
                -3.1054906564198803
            ]
        }
    ]
}