{
    "goal": {
        "global_pose": {
            "orientation": {
                "w": 0.7047431468963623,
                "x": -0.7094548344612122,
                "y": 0.0024358443915843964,
                "z": -0.0022348060738295317
            },
            "position": {
                "x": 0.6094750761985779,
                "y": 0.3671506643295288,
                "z": 0.19426114857196808
            }
        },
        "name": "move_to_magneteinheit_A"
    },
    "id": "PRM_move_to_magneteinheit_A_67",
    "joint_names": [
        "shoulder_pan_joint",
        "shoulder_lift_joint",
        "elbow_joint",
        "wrist_1_joint",
        "wrist_2_joint",
        "wrist_3_joint"
    ],
    "metrics": {
        "cart_traj_len": 3.649463249947765,
        "distance_elbow_joint": 3.888129568153504,
        "distance_shoulder_lift_joint": 0.630568153202119,
        "distance_shoulder_pan_joint": 4.832555318251071,
        "distance_wrist_1_joint": 3.7029702442987356,
        "distance_wrist_2_joint": 1.8007387969663338,
        "distance_wrist_3_joint": 3.6535899347799554,
        "smoothness": 0.2741071367583825,
        "time": 0.17241309400000002,
        "traj_len": 4.3021566702819785,
        "weighted_distance": 5.596377482486032
    },
    "planner": "PRM",
    "start": {
        "state": {
            "elbow_joint": -1.919618573717145,
            "shoulder_lift_joint": -1.2443395971678275,
            "shoulder_pan_joint": 2.6996025300909787,
            "wrist_1_joint": -1.548550951253194,
            "wrist_2_joint": -1.5709469090946802,
            "wrist_3_joint": 0.4420197732051276
        }
    },
    "waypoints": [
        {
            "positions": [
                2.6996025300909787,
                -1.2443395971678275,
                -1.919618573717145,
                -1.548550951253194,
                -1.5709469090946802,
                0.4420197732051276
            ]
        },
        {
            "positions": [
                2.580088546088495,
                -1.252795140875116,
                -1.8409269248761708,
                -1.4760824569381366,
                -1.5143423892483583,
                0.3871499594552487
            ]
        },
        {
            "positions": [
                2.4605745620860113,
                -1.2612506845824043,
                -1.7622352760351967,
                -1.4036139626230788,
                -1.4577378694020362,
                0.3322801457053699
            ]
        },
        {
            "positions": [
                2.3410605780835274,
                -1.269706228289693,
                -1.6835436271942226,
                -1.3311454683080213,
                -1.4011333495557143,
                0.27741033195549103
            ]
        },
        {
            "positions": [
                2.221546594081044,
                -1.2781617719969813,
                -1.6048519783532487,
                -1.2586769739929635,
                -1.3445288297093922,
                0.22254051820561216
            ]
        },
        {
            "positions": [
                2.10203261007856,
                -1.2866173157042697,
                -1.5261603295122745,
                -1.186208479677906,
                -1.2879243098630702,
                0.1676707044557333
            ]
        },
        {
            "positions": [
                1.982518626076076,
                -1.2950728594115581,
                -1.4474686806713004,
                -1.1137399853628482,
                -1.2313197900167483,
                0.11280089070585447
            ]
        },
        {
            "positions": [
                1.8630046420735926,
                -1.3035284031188465,
                -1.3687770318303263,
                -1.0412714910477907,
                -1.1747152701704264,
                0.0579310769559756
            ]
        },
        {
            "positions": [
                1.7434906580711087,
                -1.3119839468261352,
                -1.2900853829893522,
                -0.9688029967327331,
                -1.1181107503241043,
                0.0030612632060967315
            ]
        },
        {
            "positions": [
                1.623976674068625,
                -1.3204394905334236,
                -1.211393734148378,
                -0.8963345024176753,
                -1.0615062304777823,
                -0.05180855054378214
            ]
        },
        {
            "positions": [
                1.5044626900661413,
                -1.328895034240712,
                -1.132702085307404,
                -0.8238660081026178,
                -1.0049017106314604,
                -0.10667836429366101
            ]
        },
        {
            "positions": [
                1.3849487060636574,
                -1.3373505779480004,
                -1.05401043646643,
                -0.7513975137875601,
                -0.9482971907851384,
                -0.16154817804353988
            ]
        },
        {
            "positions": [
                1.2654347220611737,
                -1.3458061216552888,
                -0.9753187876254559,
                -0.6789290194725025,
                -0.8916926709388165,
                -0.21641799179341864
            ]
        },
        {
            "positions": [
                1.14592073805869,
                -1.3542616653625774,
                -0.8966271387844817,
                -0.6064605251574449,
                -0.8350881510924945,
                -0.2712878055432976
            ]
        },
        {
            "positions": [
                1.0264067540562063,
                -1.3627172090698658,
                -0.8179354899435076,
                -0.5339920308423873,
                -0.7784836312461726,
                -0.3261576192931764
            ]
        },
        {
            "positions": [
                0.9068927700537224,
                -1.3711727527771542,
                -0.7392438411025335,
                -0.4615235365273296,
                -0.7218791113998505,
                -0.38102743304305525
            ]
        },
        {
            "positions": [
                0.7873787860512389,
                -1.3796282964844426,
                -0.6605521922615596,
                -0.38905504221227205,
                -0.6652745915535286,
                -0.4358972467929341
            ]
        },
        {
            "positions": [
                0.6678648020487552,
                -1.388083840191731,
                -0.5818605434205855,
                -0.3165865478972145,
                -0.6086700717072067,
                -0.4907670605428129
            ]
        },
        {
            "positions": [
                0.5483508180462713,
                -1.3965393838990194,
                -0.5031688945796111,
                -0.24411805358215655,
                -0.5520655518608846,
                -0.5456368742926918
            ]
        },
        {
            "positions": [
                0.42883683404378736,
                -1.404994927606308,
                -0.4244772457386372,
                -0.17164955926709902,
                -0.4954610320145627,
                -0.6005066880425707
            ]
        },
        {
            "positions": [
                0.3093228500413039,
                -1.4134504713135965,
                -0.3457855968976631,
                -0.09918106495204149,
                -0.4388565121682406,
                -0.6553765017924496
            ]
        },
        {
            "positions": [
                0.1898088660388204,
                -1.4219060150208849,
                -0.2670939480566892,
                -0.026712570636983957,
                -0.38225199232191875,
                -0.7102463155423282
            ]
        },
        {
            "positions": [
                0.07029488203633605,
                -1.4303615587281733,
                -0.18840229921571483,
                0.045755923678073795,
                -0.32564747247559667,
                -0.7651161292922073
            ]
        },
        {
            "positions": [
                -0.04921910196614743,
                -1.4388171024354617,
                -0.10971065037474093,
                0.11822441799313133,
                -0.2690429526292748,
                -0.8199859430420862
            ]
        },
        {
            "positions": [
                -0.16873308596863135,
                -1.4472726461427503,
                -0.0310190015337668,
                0.19069291230818908,
                -0.21243843278295294,
                -0.8748557567919648
            ]
        },
        {
            "positions": [
                -0.2882470699711148,
                -1.4557281898500387,
                0.047672647307207106,
                0.2631614066232466,
                -0.15583391293663085,
                -0.9297255705418437
            ]
        },
        {
            "positions": [
                -0.40776105397359874,
                -1.4641837335573271,
                0.12636429614818145,
                0.33562990093830436,
                -0.09922939309030876,
                -0.9845953842917228
            ]
        },
        {
            "positions": [
                -0.5272750379760827,
                -1.4726392772646155,
                0.20505594498915536,
                0.4080983952533619,
                -0.042624873243986894,
                -1.0394651980416014
            ]
        },
        {
            "positions": [
                -0.6467890219785661,
                -1.481094820971904,
                0.2837475938301297,
                0.4805668895684194,
                0.013979646602334972,
                -1.0943350117914803
            ]
        },
        {
            "positions": [
                -0.7663030059810496,
                -1.4895503646791926,
                0.3624392426711036,
                0.553035383883477,
                0.07058416644865706,
                -1.1492048255413592
            ]
        },
        {
            "positions": [
                -0.885816989983534,
                -1.498005908386481,
                0.44113089151207796,
                0.6255038781985349,
                0.12718868629497915,
                -1.204074639291238
            ]
        },
        {
            "positions": [
                -1.0053309739860175,
                -1.5064614520937694,
                0.5198225403530518,
                0.6979723725135922,
                0.18379320614130096,
                -1.258944453041117
            ]
        },
        {
            "positions": [
                -0.9390002790346014,
                -1.4847881404304648,
                0.6050395082403051,
                0.612299024247007,
                0.18108740133363316,
                -1.3738047888372176
            ]
        },
        {
            "positions": [
                -0.8726695840831853,
                -1.4631148287671603,
                0.6902564761275584,
                0.5266256759804219,
                0.17838159652596533,
                -1.4886651246333182
            ]
        },
        {
            "positions": [
                -0.8063388891317691,
                -1.4414415171038557,
                0.7754734440148117,
                0.4409523277138367,
                0.17567579171829753,
                -1.603525460429419
            ]
        },
        {
            "positions": [
                -0.7400081941803531,
                -1.4197682054405512,
                0.860690411902065,
                0.3552789794472515,
                0.1729699869106297,
                -1.7183857962255193
            ]
        },
        {
            "positions": [
                -0.6736774992289369,
                -1.3980948937772466,
                0.9459073797893183,
                0.26960563118066627,
                0.1702641821029619,
                -1.8332461320216202
            ]
        },
        {
            "positions": [
                -0.6073468042775207,
                -1.376421582113942,
                1.0311243476765717,
                0.18393228291408115,
                0.1675583772952941,
                -1.9481064678177207
            ]
        },
        {
            "positions": [
                -0.5410161093261048,
                -1.3547482704506377,
                1.1163413155638249,
                0.09825893464749602,
                0.16485257248762628,
                -2.062966803613821
            ]
        },
        {
            "positions": [
                -0.4746854143746887,
                -1.333074958787333,
                1.201558283451078,
                0.012585586380910785,
                0.16214676767995848,
                -2.177827139409922
            ]
        },
        {
            "positions": [
                -0.4083547194232725,
                -1.3114016471240286,
                1.2867752513383315,
                -0.07308776188567445,
                0.15944096287229065,
                -2.292687475206023
            ]
        },
        {
            "positions": [
                -0.3420240244718564,
                -1.2897283354607239,
                1.371992219225585,
                -0.1587611101522597,
                0.15673515806462285,
                -2.4075478110021233
            ]
        },
        {
            "positions": [
                -0.27569332952044034,
                -1.2680550237974195,
                1.4572091871128383,
                -0.2444344584188448,
                0.15402935325695502,
                -2.522408146798224
            ]
        },
        {
            "positions": [
                -0.20936263456902415,
                -1.246381712134115,
                1.5424261550000917,
                -0.33010780668542994,
                0.15132354844928722,
                -2.6372684825943247
            ]
        },
        {
            "positions": [
                -0.14303193961760818,
                -1.2247084004708104,
                1.6276431228873447,
                -0.4157811549520152,
                0.14861774364161942,
                -2.752128818390425
            ]
        },
        {
            "positions": [
                -0.0767012446661921,
                -1.2030350888075059,
                1.712860090774598,
                -0.5014545032186002,
                0.1459119388339516,
                -2.866989154186526
            ]
        },
        {
            "positions": [
                -0.010370549714776023,
                -1.1813617771442013,
                1.7980770586618515,
                -0.5871278514851854,
                0.1432061340262838,
                -2.9818494899826264
            ]
        },
        {
            "positions": [
                0.05596014523664006,
                -1.1596884654808968,
                1.8832940265491045,
                -0.6728011997517707,
                0.140500329218616,
                -3.096709825778727
            ]
        },
        {
            "positions": [
                0.12229084018805635,
                -1.1380151538175922,
                1.9685109944363581,
                -0.7584745480183559,
                0.13779452441094817,
                -3.2115701615748278
            ]
        }
    ]
}{
    "goal": {
        "global_pose": {
            "orientation": {
                "w": 0.7047431468963623,
                "x": -0.7094548344612122,
                "y": 0.0024358443915843964,
                "z": -0.0022348060738295317
            },
            "position": {
                "x": 0.6094750761985779,
                "y": 0.3671506643295288,
                "z": 0.19426114857196808
            }
        },
        "name": "move_to_magneteinheit_A"
    },
    "id": "PRM_move_to_magneteinheit_A_67",
    "joint_names": [
        "shoulder_pan_joint",
        "shoulder_lift_joint",
        "elbow_joint",
        "wrist_1_joint",
        "wrist_2_joint",
        "wrist_3_joint"
    ],
    "metrics": {
        "cart_traj_len": 1.2509203417198043,
        "distance_elbow_joint": 0.08788194237321734,
        "distance_shoulder_lift_joint": 1.113299281394521,
        "distance_shoulder_pan_joint": 1.2426234852012477,
        "distance_wrist_1_joint": 3.561300173331712,
        "distance_wrist_2_joint": 1.7086769173926382,
        "distance_wrist_3_joint": 1.164032377165745,
        "smoothness": 7.401486889441618e-17,
        "time": 0.051309874,
        "traj_len": 2.9795661054688956,
        "weighted_distance": 4.059046196080419
    },
    "planner": "PRM",
    "start": {
        "state": {
            "elbow_joint": 1.919643534880228,
            "shoulder_lift_joint": -1.8972525353963687,
            "shoulder_pan_joint": -1.1188672234189438,
            "wrist_1_joint": -1.5931878212786155,
            "wrist_2_joint": 1.5706036197970081,
            "wrist_3_joint": 1.118896926603594
        }
    },
    "waypoints": [
        {
            "positions": [
                -1.1188672234189438,
                -1.8972525353963687,
                1.919643534880228,
                -1.5931878212786155,
                1.5706036197970081,
                1.118896926603594
            ]
        },
        {
            "positions": [
                -1.0648401153667157,
                -1.8488482188139983,
                1.923464488896455,
                -1.4383486833076715,
                1.4963133190408064,
                1.0682868232485616
            ]
        },
        {
            "positions": [
                -1.0108130073144874,
                -1.8004439022316279,
                1.9272854429126818,
                -1.2835095453367276,
                1.4220230182846048,
                1.0176767198935293
            ]
        },
        {
            "positions": [
                -0.9567858992622593,
                -1.7520395856492572,
                1.9311063969289086,
                -1.1286704073657834,
                1.347732717528403,
                0.9670666165384968
            ]
        },
        {
            "positions": [
                -0.9027587912100312,
                -1.7036352690668868,
                1.9349273509451355,
                -0.9738312693948395,
                1.2734424167722014,
                0.9164565131834644
            ]
        },
        {
            "positions": [
                -0.8487316831578031,
                -1.6552309524845163,
                1.9387483049613623,
                -0.8189921314238955,
                1.199152116016,
                0.865846409828432
            ]
        },
        {
            "positions": [
                -0.7947045751055749,
                -1.606826635902146,
                1.9425692589775891,
                -0.6641529934529515,
                1.1248618152597982,
                0.8152363064733996
            ]
        },
        {
            "positions": [
                -0.7406774670533467,
                -1.5584223193197753,
                1.946390212993816,
                -0.5093138554820074,
                1.0505715145035965,
                0.7646262031183673
            ]
        },
        {
            "positions": [
                -0.6866503590011186,
                -1.5100180027374048,
                1.9502111670100428,
                -0.35447471751106363,
                0.9762812137473948,
                0.7140160997633349
            ]
        },
        {
            "positions": [
                -0.6326232509488904,
                -1.4616136861550344,
                1.9540321210262697,
                -0.19963557954011946,
                0.9019909129911932,
                0.6634059964083023
            ]
        },
        {
            "positions": [
                -0.5785961428966623,
                -1.413209369572664,
                1.9578530750424965,
                -0.044796441569175505,
                0.8277006122349916,
                0.6127958930532701
            ]
        },
        {
            "positions": [
                -0.5245690348444341,
                -1.3648050529902935,
                1.9616740290587233,
                0.11004269640176845,
                0.7534103114787899,
                0.5621857896982376
            ]
        },
        {
            "positions": [
                -0.47054192679220597,
                -1.3164007364079229,
                1.9654949830749502,
                0.2648818343727124,
                0.6791200107225882,
                0.5115756863432053
            ]
        },
        {
            "positions": [
                -0.41651481873997787,
                -1.2679964198255527,
                1.969315937091177,
                0.41972097234365635,
                0.6048297099663866,
                0.4609655829881729
            ]
        },
        {
            "positions": [
                -0.36248771068774954,
                -1.219592103243182,
                1.9731368911074039,
                0.5745601103146007,
                0.5305394092101849,
                0.41035547963314045
            ]
        },
        {
            "positions": [
                -0.30846060263552144,
                -1.1711877866608114,
                1.9769578451236307,
                0.7293992482855443,
                0.45624910845398325,
                0.3597453762781081
            ]
        },
        {
            "positions": [
                -0.25443349458329334,
                -1.1227834700784411,
                1.9807787991398575,
                0.8842383862564882,
                0.38195880769778157,
                0.30913527292307574
            ]
        },
        {
            "positions": [
                -0.20040638653106524,
                -1.0743791534960705,
                1.9845997531560844,
                1.0390775242274322,
                0.3076685069415801,
                0.2585251695680434
            ]
        },
        {
            "positions": [
                -0.14637927847883692,
                -1.0259748369137,
                1.9884207071723112,
                1.1939166621983766,
                0.2333782061853782,
                0.2079150662130108
            ]
        },
        {
            "positions": [
                -0.09235217042660882,
                -0.9775705203313296,
                1.992241661188538,
                1.3487558001693205,
                0.1590879054291765,
                0.15730496285797846
            ]
        },
        {
            "positions": [
                -0.038325062374380714,
                -0.9291662037489592,
                1.996062615204765,
                1.5035949381402645,
                0.08479760467297504,
                0.10669485950294622
            ]
        },
        {
            "positions": [
                0.015702045677847387,
                -0.8807618871665888,
                1.9998835692209918,
                1.658434076111208,
                0.010507303916773347,
                0.05608475614791386
            ]
        },
        {
            "positions": [
                0.06972915373007571,
                -0.8323575705842181,
                2.003704523237219,
                1.8132732140821524,
                -0.06378299683942834,
                0.005474652792881285
            ]
        },
        {
            "positions": [
                0.12375626178230388,
                -0.7839532540018478,
                2.0075254772534454,
                1.9681123520530965,
                -0.1380732975956301,
                -0.045135450562151166
            ]
        }
    ]
}