{
    "goal": {
        "global_pose": {
            "orientation": {
                "w": 0.5084816217422485,
                "x": -0.49083608388900757,
                "y": 0.5182115435600281,
                "z": -0.4816462993621826
            },
            "position": {
                "x": 0.5540239810943604,
                "y": 0.030875300988554955,
                "z": 0.16403168439865112
            }
        },
        "name": "move_to_storage_A"
    },
    "id": "PRM_move_to_storage_A_117",
    "joint_names": [
        "shoulder_pan_joint",
        "shoulder_lift_joint",
        "elbow_joint",
        "wrist_1_joint",
        "wrist_2_joint",
        "wrist_3_joint"
    ],
    "metrics": {
        "cart_traj_len": 0.35331805404360084,
        "distance_elbow_joint": 0.4480341816641076,
        "distance_shoulder_lift_joint": 0.23605256811655617,
        "distance_shoulder_pan_joint": 0.4635888720118128,
        "distance_wrist_1_joint": 0.23347308701782332,
        "distance_wrist_2_joint": 1.092939359081091,
        "distance_wrist_3_joint": 0.10236380069894446,
        "smoothness": 4.440892098500626e-16,
        "time": 0.02992777,
        "traj_len": 1.605132975360713,
        "weighted_distance": 2.0267194961531154
    },
    "planner": "PRM",
    "start": {
        "state": {
            "elbow_joint": 1.9715477243005601,
            "shoulder_lift_joint": -1.1394853015351272,
            "shoulder_pan_joint": 0.12281154014795169,
            "wrist_1_joint": -0.7804696478968182,
            "wrist_2_joint": 0.12958648046900423,
            "wrist_3_joint": -3.192491284697111
        }
    },
    "waypoints": [
        {
            "positions": [
                0.12281154014795169,
                -1.1394853015351272,
                1.9715477243005601,
                -0.7804696478968182,
                0.12958648046900423,
                -3.192491284697111
            ]
        },
        {
            "positions": [
                0.05658455843197843,
                -1.1732070969803494,
                2.0355526073954326,
                -0.8138229460422215,
                0.28572067462344575,
                -3.177867884597262
            ]
        },
        {
            "positions": [
                -0.009642423283994825,
                -1.2069288924255719,
                2.099557490490305,
                -0.8471762441876248,
                0.4418548687778873,
                -3.1632444844974126
            ]
        },
        {
            "positions": [
                -0.07586940499996807,
                -1.2406506878707941,
                2.1635623735851777,
                -0.8805295423330282,
                0.5979890629323289,
                -3.1486210843975635
            ]
        },
        {
            "positions": [
                -0.14209638671594133,
                -1.2743724833160164,
                2.22756725668005,
                -0.9138828404784315,
                0.7541232570867704,
                -3.1339976842977144
            ]
        },
        {
            "positions": [
                -0.20832336843191462,
                -1.3080942787612386,
                2.2915721397749227,
                -0.9472361386238348,
                0.910257451241212,
                -3.1193742841978653
            ]
        },
        {
            "positions": [
                -0.2745503501478878,
                -1.341816074206461,
                2.355577022869795,
                -0.9805894367692382,
                1.0663916453956537,
                -3.104750884098016
            ]
        },
        {
            "positions": [
                -0.3407773318638611,
                -1.3755378696516833,
                2.4195819059646677,
                -1.0139427349146415,
                1.2225258395500953,
                -3.0901274839981667
            ]
        }
    ]
}