{
    "goal": {
        "global_pose": {
            "orientation": {
                "w": 0.7047431468963623,
                "x": -0.7094548344612122,
                "y": 0.0024358443915843964,
                "z": -0.0022348060738295317
            },
            "position": {
                "x": 0.6094750761985779,
                "y": 0.3671506643295288,
                "z": 0.19426114857196808
            }
        },
        "name": "move_to_magneteinheit_A"
    },
    "id": "PRM_move_to_magneteinheit_A_98",
    "joint_names": [
        "shoulder_pan_joint",
        "shoulder_lift_joint",
        "elbow_joint",
        "wrist_1_joint",
        "wrist_2_joint",
        "wrist_3_joint"
    ],
    "metrics": {
        "cart_traj_len": 3.1627894578205504,
        "distance_elbow_joint": 3.9268463039689427,
        "distance_shoulder_lift_joint": 0.4615234331680247,
        "distance_shoulder_pan_joint": 2.7657985850522806,
        "distance_wrist_1_joint": 3.5147012839584235,
        "distance_wrist_2_joint": 1.434113820823729,
        "distance_wrist_3_joint": 0.7581077046923312,
        "smoothness": 0.030876421673239465,
        "time": 0.119195487,
        "traj_len": 3.5862363463195974,
        "weighted_distance": 4.396148501339616
    },
    "planner": "PRM",
    "start": {
        "state": {
            "elbow_joint": -1.919618573717145,
            "shoulder_lift_joint": -1.2443395971678275,
            "shoulder_pan_joint": 2.6996025300909787,
            "wrist_1_joint": -1.548550951253194,
            "wrist_2_joint": -1.5709469090946802,
            "wrist_3_joint": 0.4420197732051276
        }
    },
    "waypoints": [
        {
            "positions": [
                2.6996025300909787,
                -1.2443395971678275,
                -1.919618573717145,
                -1.548550951253194,
                -1.5709469090946802,
                0.4420197732051276
            ]
        },
        {
            "positions": [
                2.6000371285040584,
                -1.2316508765683387,
                -1.815210270330967,
                -1.4436337841174813,
                -1.528850458621492,
                0.4162499100349219
            ]
        },
        {
            "positions": [
                2.5004717269171386,
                -1.21896215596885,
                -1.710801966944789,
                -1.3387166169817688,
                -1.4867540081483035,
                0.3904800468647162
            ]
        },
        {
            "positions": [
                2.4009063253302183,
                -1.2062734353693612,
                -1.606393663558611,
                -1.233799449846056,
                -1.4446575576751153,
                0.3647101836945105
            ]
        },
        {
            "positions": [
                2.301340923743298,
                -1.1935847147698726,
                -1.5019853601724327,
                -1.1288822827103435,
                -1.4025611072019268,
                0.33894032052430484
            ]
        },
        {
            "positions": [
                2.2017755221563777,
                -1.1808959941703838,
                -1.3975770567862547,
                -1.0239651155746308,
                -1.3604646567287386,
                0.31317045735409915
            ]
        },
        {
            "positions": [
                2.102210120569458,
                -1.168207273570895,
                -1.2931687534000766,
                -0.919047948438918,
                -1.3183682062555502,
                0.28740059418389347
            ]
        },
        {
            "positions": [
                2.0026447189825376,
                -1.1555185529714063,
                -1.1887604500138984,
                -0.8141307813032053,
                -1.276271755782362,
                0.2616307310136878
            ]
        },
        {
            "positions": [
                1.9030793173956175,
                -1.1428298323719175,
                -1.0843521466277206,
                -0.7092136141674927,
                -1.2341753053091735,
                0.2358608678434821
            ]
        },
        {
            "positions": [
                1.8035139158086972,
                -1.1301411117724287,
                -0.9799438432415425,
                -0.60429644703178,
                -1.1920788548359853,
                0.2100910046732764
            ]
        },
        {
            "positions": [
                1.7039485142217772,
                -1.11745239117294,
                -0.8755355398553644,
                -0.49937927989606723,
                -1.1499824043627969,
                0.18432114150307072
            ]
        },
        {
            "positions": [
                1.6043831126348571,
                -1.1047636705734512,
                -0.7711272364691864,
                -0.3944621127603547,
                -1.1078859538896086,
                0.15855127833286503
            ]
        },
        {
            "positions": [
                1.5048177110479368,
                -1.0920749499739624,
                -0.6667189330830083,
                -0.28954494562464195,
                -1.0657895034164202,
                0.13278141516265934
            ]
        },
        {
            "positions": [
                1.4052523094610168,
                -1.0793862293744738,
                -0.5623106296968303,
                -0.18462777848892942,
                -1.023693052943232,
                0.10701155199245366
            ]
        },
        {
            "positions": [
                1.3056869078740965,
                -1.066697508774985,
                -0.4579023263106521,
                -0.07971061135321644,
                -0.9815966024700437,
                0.08124168882224797
            ]
        },
        {
            "positions": [
                1.2061215062871764,
                -1.0540087881754963,
                -0.35349402292447407,
                0.025206555782496087,
                -0.9395001519968553,
                0.055471825652042284
            ]
        },
        {
            "positions": [
                1.1065561047002563,
                -1.0413200675760075,
                -0.24908571953829628,
                0.13012372291820862,
                -0.8974037015236671,
                0.029701962481836597
            ]
        },
        {
            "positions": [
                1.006990703113336,
                -1.0286313469765187,
                -0.14467741615211804,
                0.2350408900539216,
                -0.8553072510504787,
                0.00393209931163091
            ]
        },
        {
            "positions": [
                0.9074253015264158,
                -1.01594262637703,
                -0.04026911276594003,
                0.3399580571896341,
                -0.8132108005772904,
                -0.021837763858574777
            ]
        },
        {
            "positions": [
                0.8078598999394957,
                -1.0032539057775411,
                0.06413919062023798,
                0.44487522432534665,
                -0.7711143501041021,
                -0.047607627028780464
            ]
        },
        {
            "positions": [
                0.7082944983525754,
                -0.9905651851780525,
                0.16854749400641622,
                0.5497923914610596,
                -0.7290178996309137,
                -0.07337749019898615
            ]
        },
        {
            "positions": [
                0.6087290967656553,
                -0.9778764645785637,
                0.272955797392594,
                0.6547095585967719,
                -0.6869214491577255,
                -0.09914735336919184
            ]
        },
        {
            "positions": [
                0.5091636951787355,
                -0.965187743979075,
                0.37736410077877225,
                0.7596267257324847,
                -0.6448249986845371,
                -0.12491721653939752
            ]
        },
        {
            "positions": [
                0.4095982935918152,
                -0.9524990233795863,
                0.4817724041649505,
                0.8645438928681974,
                -0.6027285482113488,
                -0.1506870797096032
            ]
        },
        {
            "positions": [
                0.3100328920048949,
                -0.9398103027800975,
                0.5861807075511285,
                0.9694610600039102,
                -0.5606320977381605,
                -0.17645694287980884
            ]
        },
        {
            "positions": [
                0.2729368218725392,
                -0.9304854153118102,
                0.6671172301987984,
                1.0358579037711468,
                -0.5326566013712797,
                -0.17975679031443687
            ]
        },
        {
            "positions": [
                0.23584075174018349,
                -0.9211605278435229,
                0.7480537528464684,
                1.1022547475383835,
                -0.5046811050043988,
                -0.18305663774906486
            ]
        },
        {
            "positions": [
                0.19436292079701767,
                -0.903778224908382,
                0.9023672140613137,
                1.2180647539272622,
                -0.4548044094425785,
                -0.17738385645009883
            ]
        },
        {
            "positions": [
                0.15288508985385185,
                -0.8863959219732411,
                1.056680675276159,
                1.333874760316141,
                -0.4049277138807582,
                -0.1717110751511328
            ]
        },
        {
            "positions": [
                0.11140725891068606,
                -0.8690136190381001,
                1.2109941364910046,
                1.4496847667050194,
                -0.3550510183189379,
                -0.16603829385216679
            ]
        },
        {
            "positions": [
                0.06992942796752022,
                -0.8516313161029593,
                1.36530759770585,
                1.5654947730938982,
                -0.30517432275711764,
                -0.16036551255320075
            ]
        },
        {
            "positions": [
                0.028451597024354437,
                -0.8342490131678184,
                1.5196210589206953,
                1.681304779482777,
                -0.25529762719529736,
                -0.15469273125423472
            ]
        },
        {
            "positions": [
                0.036756386747768294,
                -0.8183956582654534,
                1.6728868997223607,
                1.7813700088743905,
                -0.21331668733620257,
                -0.13373889913473302
            ]
        },
        {
            "positions": [
                0.04506117647118216,
                -0.8025423033630883,
                1.826152740524026,
                1.881435238266004,
                -0.1713357474771078,
                -0.11278506701523133
            ]
        },
        {
            "positions": [
                0.0840802127405966,
                -0.7926792336814455,
                1.9166902353879125,
                1.9237927854856172,
                -0.1540844178740298,
                -0.08140520551307875
            ]
        },
        {
            "positions": [
                0.12309924901001103,
                -0.7828161639998028,
                2.007227730251799,
                1.9661503327052303,
                -0.13683308827095178,
                -0.05002534401092619
            ]
        }
    ]
}{
    "goal": {
        "global_pose": {
            "orientation": {
                "w": 0.7047431468963623,
                "x": -0.7094548344612122,
                "y": 0.0024358443915843964,
                "z": -0.0022348060738295317
            },
            "position": {
                "x": 0.6094750761985779,
                "y": 0.3671506643295288,
                "z": 0.19426114857196808
            }
        },
        "name": "move_to_magneteinheit_A"
    },
    "id": "PRM_move_to_magneteinheit_A_98",
    "joint_names": [
        "shoulder_pan_joint",
        "shoulder_lift_joint",
        "elbow_joint",
        "wrist_1_joint",
        "wrist_2_joint",
        "wrist_3_joint"
    ],
    "metrics": {
        "cart_traj_len": 1.1998930994872876,
        "distance_elbow_joint": 0.061114915178795304,
        "distance_shoulder_lift_joint": 0.753188589447173,
        "distance_shoulder_pan_joint": 1.2424989630969083,
        "distance_wrist_1_joint": 0.7721368709500266,
        "distance_wrist_2_joint": 1.431507470890332,
        "distance_wrist_3_joint": 2.0009120304254004,
        "smoothness": 0.0,
        "time": 0.035451031,
        "traj_len": 2.5022707367486507,
        "weighted_distance": 3.5308394529742917
    },
    "planner": "PRM",
    "start": {
        "state": {
            "elbow_joint": 1.919643534880228,
            "shoulder_lift_joint": -1.8972525353963687,
            "shoulder_pan_joint": -1.1188672234189438,
            "wrist_1_joint": -1.5931878212786155,
            "wrist_2_joint": 1.5706036197970081,
            "wrist_3_joint": 1.118896926603594
        }
    },
    "waypoints": [
        {
            "positions": [
                -1.1188672234189438,
                -1.8972525353963687,
                1.919643534880228,
                -1.5931878212786155,
                1.5706036197970081,
                1.118896926603594
            ]
        },
        {
            "positions": [
                -1.041211038225387,
                -1.8501782485559204,
                1.9234632170789028,
                -1.5449292668442387,
                1.4811344028663624,
                1.2439539285051815
            ]
        },
        {
            "positions": [
                -0.9635548530318303,
                -1.803103961715472,
                1.9272828992775775,
                -1.4966707124098622,
                1.3916651859357168,
                1.369010930406769
            ]
        },
        {
            "positions": [
                -0.8858986678382735,
                -1.7560296748750237,
                1.9311025814762521,
                -1.4484121579754854,
                1.3021959690050708,
                1.4940679323083565
            ]
        },
        {
            "positions": [
                -0.8082424826447168,
                -1.7089553880345756,
                1.934922263674927,
                -1.4001536035411088,
                1.2127267520744252,
                1.619124934209944
            ]
        },
        {
            "positions": [
                -0.73058629745116,
                -1.6618811011941272,
                1.9387419458736017,
                -1.351895049106732,
                1.1232575351437795,
                1.7441819361115316
            ]
        },
        {
            "positions": [
                -0.6529301122576032,
                -1.614806814353679,
                1.9425616280722764,
                -1.3036364946723555,
                1.0337883182131336,
                1.8692389380131191
            ]
        },
        {
            "positions": [
                -0.5752739270640465,
                -1.5677325275132306,
                1.946381310270951,
                -1.2553779402379788,
                0.9443191012824879,
                1.9942959399147067
            ]
        },
        {
            "positions": [
                -0.4976177418704897,
                -1.5206582406727822,
                1.9502009924696257,
                -1.2071193858036022,
                0.8548498843518422,
                2.1193529418162944
            ]
        },
        {
            "positions": [
                -0.4199615566769329,
                -1.4735839538323339,
                1.9540206746683004,
                -1.1588608313692255,
                0.7653806674211965,
                2.2444099437178817
            ]
        },
        {
            "positions": [
                -0.34230537148337614,
                -1.4265096669918855,
                1.957840356866975,
                -1.110602276934849,
                0.6759114504905507,
                2.369466945619469
            ]
        },
        {
            "positions": [
                -0.26464918628981937,
                -1.3794353801514374,
                1.9616600390656498,
                -1.0623437225004722,
                0.5864422335599049,
                2.4945239475210568
            ]
        },
        {
            "positions": [
                -0.1869930010962626,
                -1.3323610933109888,
                1.9654797212643245,
                -1.0140851680660954,
                0.4969730166292592,
                2.6195809494226445
            ]
        },
        {
            "positions": [
                -0.10933681590270594,
                -1.2852868064705407,
                1.9692994034629994,
                -0.9658266136317188,
                0.4075037996986135,
                2.744637951324232
            ]
        },
        {
            "positions": [
                -0.03168063070914906,
                -1.2382125196300924,
                1.973119085661674,
                -0.9175680591973422,
                0.3180345827679676,
                2.869694953225819
            ]
        },
        {
            "positions": [
                0.04597555448440782,
                -1.191138232789644,
                1.9769387678603487,
                -0.8693095047629655,
                0.2285653658373219,
                2.994751955127407
            ]
        },
        {
            "positions": [
                0.1236317396779644,
                -1.1440639459491957,
                1.9807584500590234,
                -0.8210509503285889,
                0.1390961489066761,
                3.119808957028994
            ]
        }
    ]
}