{
    "goal": {
        "global_pose": {
            "orientation": {
                "w": 0.5084816217422485,
                "x": -0.49083608388900757,
                "y": 0.5182115435600281,
                "z": -0.4816462993621826
            },
            "position": {
                "x": 0.5540239810943604,
                "y": 0.030875300988554955,
                "z": 0.16403168439865112
            }
        },
        "name": "move_to_storage_A"
    },
    "id": "PRM_move_to_storage_A_136",
    "joint_names": [
        "shoulder_pan_joint",
        "shoulder_lift_joint",
        "elbow_joint",
        "wrist_1_joint",
        "wrist_2_joint",
        "wrist_3_joint"
    ],
    "metrics": {
        "cart_traj_len": 0.35344094596969333,
        "distance_elbow_joint": 0.44907774739136563,
        "distance_shoulder_lift_joint": 0.23314610844900718,
        "distance_shoulder_pan_joint": 0.46216364997774495,
        "distance_wrist_1_joint": 0.23759486956337528,
        "distance_wrist_2_joint": 1.0991691698706494,
        "distance_wrist_3_joint": 0.09794553592387034,
        "smoothness": 1.3322676295501878e-15,
        "time": 0.032767937999999996,
        "traj_len": 1.6059567494724174,
        "weighted_distance": 2.0277455936230706
    },
    "planner": "PRM",
    "start": {
        "state": {
            "elbow_joint": 1.9715477243005601,
            "shoulder_lift_joint": -1.1394853015351272,
            "shoulder_pan_joint": 0.12281154014795169,
            "wrist_1_joint": -0.7804696478968182,
            "wrist_2_joint": 0.12958648046900423,
            "wrist_3_joint": -3.192491284697111
        }
    },
    "waypoints": [
        {
            "positions": [
                0.12281154014795169,
                -1.1394853015351272,
                1.9715477243005601,
                -0.7804696478968182,
                0.12958648046900423,
                -3.192491284697111
            ]
        },
        {
            "positions": [
                0.056788161579702415,
                -1.172791888456414,
                2.0357016882136123,
                -0.8144117721201575,
                0.28661064759338273,
                -3.1784990652794156
            ]
        },
        {
            "positions": [
                -0.00923521698854686,
                -1.2060984753777007,
                2.0998556521266645,
                -0.8483538963434968,
                0.44363481471776117,
                -3.1645068458617196
            ]
        },
        {
            "positions": [
                -0.07525859555679613,
                -1.2394050622989874,
                2.1640096160397166,
                -0.8822960205668361,
                0.6006589818421397,
                -3.150514626444024
            ]
        },
        {
            "positions": [
                -0.1412819741250454,
                -1.2727116492202741,
                2.228163579952769,
                -0.9162381447901755,
                0.7576831489665181,
                -3.136522407026328
            ]
        },
        {
            "positions": [
                -0.2073053526932947,
                -1.3060182361415609,
                2.2923175438658214,
                -0.9501802690135148,
                0.9147073160908966,
                -3.1225301876086324
            ]
        },
        {
            "positions": [
                -0.27332873126154394,
                -1.3393248230628476,
                2.3564715077788736,
                -0.9841223932368541,
                1.0717314832152751,
                -3.1085379681909364
            ]
        },
        {
            "positions": [
                -0.33935210982979325,
                -1.3726314099841344,
                2.4206254716919258,
                -1.0180645174601934,
                1.2287556503396537,
                -3.094545748773241
            ]
        }
    ]
}