{
    "goal": {
        "global_pose": {
            "orientation": {
                "w": 0.5084816217422485,
                "x": -0.49083608388900757,
                "y": 0.5182115435600281,
                "z": -0.4816462993621826
            },
            "position": {
                "x": 0.5540239810943604,
                "y": 0.030875300988554955,
                "z": 0.16403168439865112
            }
        },
        "name": "move_to_storage_A"
    },
    "id": "PRM_move_to_storage_A_141",
    "joint_names": [
        "shoulder_pan_joint",
        "shoulder_lift_joint",
        "elbow_joint",
        "wrist_1_joint",
        "wrist_2_joint",
        "wrist_3_joint"
    ],
    "metrics": {
        "cart_traj_len": 0.3537193883642148,
        "distance_elbow_joint": 0.45046105336083064,
        "distance_shoulder_lift_joint": 0.2362259677318317,
        "distance_shoulder_pan_joint": 0.4621886428063731,
        "distance_wrist_1_joint": 0.2400232677684494,
        "distance_wrist_2_joint": 1.1026942422893664,
        "distance_wrist_3_joint": 0.10291887182624126,
        "smoothness": 0.0,
        "time": 0.028811167000000002,
        "traj_len": 1.61074890836005,
        "weighted_distance": 2.03545260310659
    },
    "planner": "PRM",
    "start": {
        "state": {
            "elbow_joint": 1.9715477243005601,
            "shoulder_lift_joint": -1.1394853015351272,
            "shoulder_pan_joint": 0.12281154014795169,
            "wrist_1_joint": -0.7804696478968182,
            "wrist_2_joint": 0.12958648046900423,
            "wrist_3_joint": -3.192491284697111
        }
    },
    "waypoints": [
        {
            "positions": [
                0.12281154014795169,
                -1.1394853015351272,
                1.9715477243005601,
                -0.7804696478968182,
                0.12958648046900423,
                -3.192491284697111
            ]
        },
        {
            "positions": [
                0.05678459117561267,
                -1.1732318683539602,
                2.0358993033521076,
                -0.8147586861494538,
                0.2871142293674851,
                -3.177788588721934
            ]
        },
        {
            "positions": [
                -0.009242357796726344,
                -1.2069784351727935,
                2.1002508824036545,
                -0.8490477244020894,
                0.444641978265966,
                -3.1630858927467567
            ]
        },
        {
            "positions": [
                -0.07526930676906536,
                -1.2407250019916265,
                2.164602461455202,
                -0.883336762654725,
                0.6021697271644469,
                -3.1483831967715794
            ]
        },
        {
            "positions": [
                -0.14129625574140436,
                -1.2744715688104595,
                2.228954040506749,
                -0.9176258009073607,
                0.7596974760629278,
                -3.1336805007964017
            ]
        },
        {
            "positions": [
                -0.20732320471374338,
                -1.3082181356292928,
                2.2933056195582964,
                -0.9519148391599963,
                0.9172252249614088,
                -3.1189778048212244
            ]
        },
        {
            "positions": [
                -0.2733501536860824,
                -1.3419647024481258,
                2.3576571986098434,
                -0.9862038774126319,
                1.0747529738598898,
                -3.104275108846047
            ]
        },
        {
            "positions": [
                -0.3393771026584214,
                -1.3757112692669589,
                2.4220087776613908,
                -1.0204929156652676,
                1.2322807227583708,
                -3.08957241287087
            ]
        }
    ]
}