{
    "goal": {
        "global_pose": {
            "orientation": {
                "w": 0.5084816217422485,
                "x": -0.49083608388900757,
                "y": 0.5182115435600281,
                "z": -0.4816462993621826
            },
            "position": {
                "x": 0.5540239810943604,
                "y": 0.030875300988554955,
                "z": 0.16403168439865112
            }
        },
        "name": "move_to_storage_A"
    },
    "id": "PRM_move_to_storage_A_71",
    "joint_names": [
        "shoulder_pan_joint",
        "shoulder_lift_joint",
        "elbow_joint",
        "wrist_1_joint",
        "wrist_2_joint",
        "wrist_3_joint"
    ],
    "metrics": {
        "cart_traj_len": 0.3534129559386967,
        "distance_elbow_joint": 0.4501089355149386,
        "distance_shoulder_lift_joint": 0.23452179024176,
        "distance_shoulder_pan_joint": 0.45879598386777803,
        "distance_wrist_1_joint": 0.24228408544185498,
        "distance_wrist_2_joint": 1.1140288581517308,
        "distance_wrist_3_joint": 0.10504281763731571,
        "smoothness": 8.881784197001252e-16,
        "time": 0.014445712999999999,
        "traj_len": 1.6139338495909237,
        "weighted_distance": 2.04234694646223
    },
    "planner": "PRM",
    "start": {
        "state": {
            "elbow_joint": 1.9715477243005601,
            "shoulder_lift_joint": -1.1394853015351272,
            "shoulder_pan_joint": 0.12281154014795169,
            "wrist_1_joint": -0.7804696478968182,
            "wrist_2_joint": 0.12958648046900423,
            "wrist_3_joint": -3.192491284697111
        }
    },
    "waypoints": [
        {
            "positions": [
                0.12281154014795169,
                -1.1394853015351272,
                1.9715477243005601,
                -0.7804696478968182,
                0.12958648046900423,
                -3.192491284697111
            ]
        },
        {
            "positions": [
                0.05726925673826912,
                -1.1729884144268072,
                2.035849000802694,
                -0.8150816601027975,
                0.28873346020496576,
                -3.1774851678917804
            ]
        },
        {
            "positions": [
                -0.008273026671413455,
                -1.206491527318487,
                2.100150277304828,
                -0.8496936723087767,
                0.4478804399409273,
                -3.1624790510864496
            ]
        },
        {
            "positions": [
                -0.07381531008109603,
                -1.2399946402101671,
                2.164451553806962,
                -0.884305684514756,
                0.6070274196768888,
                -3.1474729342811187
            ]
        },
        {
            "positions": [
                -0.1393575934907786,
                -1.2734977531018472,
                2.228752830309096,
                -0.9189176967207353,
                0.7661743994128504,
                -3.132466817475788
            ]
        },
        {
            "positions": [
                -0.2048998769004612,
                -1.3070008659935273,
                2.2930541068112307,
                -0.9535297089267145,
                0.925321379148812,
                -3.117460700670457
            ]
        },
        {
            "positions": [
                -0.27044216031014373,
                -1.3405039788852071,
                2.3573553833133647,
                -0.9881417211326938,
                1.0844683588847734,
                -3.1024545838651263
            ]
        },
        {
            "positions": [
                -0.33598444371982633,
                -1.3740070917768872,
                2.4216566598154987,
                -1.0227537333386731,
                1.243615338620735,
                -3.0874484670597955
            ]
        }
    ]
}