{
    "goal": {
        "global_pose": {
            "orientation": {
                "w": 0.5084816217422485,
                "x": -0.49083608388900757,
                "y": 0.5182115435600281,
                "z": -0.4816462993621826
            },
            "position": {
                "x": 0.5540239810943604,
                "y": 0.030875300988554955,
                "z": 0.16403168439865112
            }
        },
        "name": "move_to_storage_A"
    },
    "id": "PRM_move_to_storage_A_84",
    "joint_names": [
        "shoulder_pan_joint",
        "shoulder_lift_joint",
        "elbow_joint",
        "wrist_1_joint",
        "wrist_2_joint",
        "wrist_3_joint"
    ],
    "metrics": {
        "cart_traj_len": 0.35315365467028886,
        "distance_elbow_joint": 0.4478467222808189,
        "distance_shoulder_lift_joint": 0.23466465214637378,
        "distance_shoulder_pan_joint": 0.45956315377385126,
        "distance_wrist_1_joint": 0.23762095009194273,
        "distance_wrist_2_joint": 1.108117706959002,
        "distance_wrist_3_joint": 0.09185148722991476,
        "smoothness": 8.881784232165597e-16,
        "time": 0.014317137,
        "traj_len": 1.6061334541319732,
        "weighted_distance": 2.027093067422578
    },
    "planner": "PRM",
    "start": {
        "state": {
            "elbow_joint": 1.9715477243005601,
            "shoulder_lift_joint": -1.1394853015351272,
            "shoulder_pan_joint": 0.12281154014795169,
            "wrist_1_joint": -0.7804696478968182,
            "wrist_2_joint": 0.12958648046900423,
            "wrist_3_joint": -3.192491284697111
        }
    },
    "waypoints": [
        {
            "positions": [
                0.12281154014795169,
                -1.1394853015351272,
                1.9715477243005601,
                -0.7804696478968182,
                0.12958648046900423,
                -3.192491284697111
            ]
        },
        {
            "positions": [
                0.05715966103740151,
                -1.1730088232703235,
                2.0355258274835344,
                -0.8144154979099528,
                0.2878890100345759,
                -3.179369643664266
            ]
        },
        {
            "positions": [
                -0.008492218073148664,
                -1.2065323450055196,
                2.099503930666508,
                -0.8483613479230875,
                0.4461915396001476,
                -3.1662480026314213
            ]
        },
        {
            "positions": [
                -0.07414409718369884,
                -1.240055866740716,
                2.1634820338494825,
                -0.8823071979362221,
                0.6044940691657193,
                -3.1531263615985763
            ]
        },
        {
            "positions": [
                -0.139795976294249,
                -1.2735793884759121,
                2.2274601370324567,
                -0.9162530479493569,
                0.762796598731291,
                -3.1400047205657313
            ]
        },
        {
            "positions": [
                -0.2054478554047992,
                -1.3071029102111085,
                2.291438240215431,
                -0.9501988979624916,
                0.9210991282968628,
                -3.1268830795328864
            ]
        },
        {
            "positions": [
                -0.27109973451534936,
                -1.3406264319463046,
                2.3554163433984048,
                -0.9841447479756262,
                1.0794016578624346,
                -3.1137614385000414
            ]
        },
        {
            "positions": [
                -0.33675161362589956,
                -1.374149953681501,
                2.419394446581379,
                -1.018090597988761,
                1.2377041874280061,
                -3.1006397974671964
            ]
        }
    ]
}