{
    "goal": {
        "global_pose": {
            "orientation": {
                "w": 0.5084816217422485,
                "x": -0.49083608388900757,
                "y": 0.5182115435600281,
                "z": -0.4816462993621826
            },
            "position": {
                "x": 0.5540239810943604,
                "y": 0.030875300988554955,
                "z": 0.16403168439865112
            }
        },
        "name": "move_to_storage_A"
    },
    "id": "PRM_move_to_storage_A_126",
    "joint_names": [
        "shoulder_pan_joint",
        "shoulder_lift_joint",
        "elbow_joint",
        "wrist_1_joint",
        "wrist_2_joint",
        "wrist_3_joint"
    ],
    "metrics": {
        "cart_traj_len": 0.35328093760552604,
        "distance_elbow_joint": 0.4514579289063674,
        "distance_shoulder_lift_joint": 0.23247846310493192,
        "distance_shoulder_pan_joint": 0.459206970217577,
        "distance_wrist_1_joint": 0.25496122787362985,
        "distance_wrist_2_joint": 1.1100151733492134,
        "distance_wrist_3_joint": 0.09035478304487743,
        "smoothness": 1.1102230298998083e-15,
        "time": 0.024685436,
        "traj_len": 1.611978457206112,
        "weighted_distance": 2.035721128693514
    },
    "planner": "PRM",
    "start": {
        "state": {
            "elbow_joint": 1.9715477243005601,
            "shoulder_lift_joint": -1.1394853015351272,
            "shoulder_pan_joint": 0.12281154014795169,
            "wrist_1_joint": -0.7804696478968182,
            "wrist_2_joint": 0.12958648046900423,
            "wrist_3_joint": -3.192491284697111
        }
    },
    "waypoints": [
        {
            "positions": [
                0.12281154014795169,
                -1.1394853015351272,
                1.9715477243005601,
                -0.7804696478968182,
                0.12958648046900423,
                -3.192491284697111
            ]
        },
        {
            "positions": [
                0.05721054440258355,
                -1.1726965105501175,
                2.0360417141443268,
                -0.8168926804501938,
                0.28816007666174903,
                -3.179583458547843
            ]
        },
        {
            "positions": [
                -0.008390451342784586,
                -1.2059077195651078,
                2.100535703988094,
                -0.8533157130035696,
                0.4467336728544938,
                -3.166675632398575
            ]
        },
        {
            "positions": [
                -0.07399144708815274,
                -1.239118928580098,
                2.1650296938318605,
                -0.8897387455569452,
                0.6053072690472385,
                -3.1537678062493066
            ]
        },
        {
            "positions": [
                -0.13959244283352085,
                -1.2723301375950882,
                2.229523683675627,
                -0.926161778110321,
                0.7638808652399833,
                -3.1408599801000383
            ]
        },
        {
            "positions": [
                -0.205193438578889,
                -1.3055413466100785,
                2.2940176735193942,
                -0.9625848106636966,
                0.9224544614327281,
                -3.12795215395077
            ]
        },
        {
            "positions": [
                -0.27079443432425715,
                -1.3387525556250688,
                2.358511663363161,
                -0.9990078432170724,
                1.0810280576254727,
                -3.115044327801502
            ]
        },
        {
            "positions": [
                -0.3363954300696253,
                -1.371963764640059,
                2.4230056532069275,
                -1.035430875770448,
                1.2396016538182175,
                -3.1021365016522338
            ]
        }
    ]
}