{
    "goal": {
        "global_pose": {
            "orientation": {
                "w": 0.7047431468963623,
                "x": -0.7094548344612122,
                "y": 0.0024358443915843964,
                "z": -0.0022348060738295317
            },
            "position": {
                "x": 0.6094750761985779,
                "y": 0.3671506643295288,
                "z": 0.19426114857196808
            }
        },
        "name": "move_to_magneteinheit_A"
    },
    "id": "PRMstar_move_to_magneteinheit_A_17",
    "joint_names": [
        "shoulder_pan_joint",
        "shoulder_lift_joint",
        "elbow_joint",
        "wrist_1_joint",
        "wrist_2_joint",
        "wrist_3_joint"
    ],
    "metrics": {
        "cart_traj_len": 3.4016304438861904,
        "distance_elbow_joint": 3.8806178279034214,
        "distance_shoulder_lift_joint": 0.9482086790055597,
        "distance_shoulder_pan_joint": 2.577369928264547,
        "distance_wrist_1_joint": 1.0524803409544365,
        "distance_wrist_2_joint": 1.7086061698625314,
        "distance_wrist_3_joint": 2.5972118140154454,
        "smoothness": 0.026133490759815144,
        "time": 5.027936897,
        "traj_len": 3.5727433101198223,
        "weighted_distance": 4.551923208804581
    },
    "planner": "PRMstar",
    "start": {
        "state": {
            "elbow_joint": -1.919618573717145,
            "shoulder_lift_joint": -1.2443395971678275,
            "shoulder_pan_joint": 2.6996025300909787,
            "wrist_1_joint": -1.548550951253194,
            "wrist_2_joint": -1.5709469090946802,
            "wrist_3_joint": 0.4420197732051276
        }
    },
    "waypoints": [
        {
            "positions": [
                2.6996025300909787,
                -1.2443395971678275,
                -1.919618573717145,
                -1.548550951253194,
                -1.5709469090946802,
                0.4420197732051276
            ]
        },
        {
            "positions": [
                2.581557795287947,
                -1.2149153110216673,
                -1.8386575884854466,
                -1.4970649798625495,
                -1.5237334417172126,
                0.4969778473097279
            ]
        },
        {
            "positions": [
                2.4635130604849156,
                -1.1854910248755068,
                -1.7576966032537482,
                -1.4455790084719051,
                -1.4765199743397452,
                0.5519359214143282
            ]
        },
        {
            "positions": [
                2.3454683256818845,
                -1.1560667387293466,
                -1.6767356180220498,
                -1.3940930370812605,
                -1.4293065069622777,
                0.6068939955189285
            ]
        },
        {
            "positions": [
                2.227423590878853,
                -1.1266424525831862,
                -1.5957746327903515,
                -1.3426070656906162,
                -1.3820930395848101,
                0.6618520696235288
            ]
        },
        {
            "positions": [
                2.1093788560758213,
                -1.097218166437026,
                -1.5148136475586529,
                -1.2911210942999716,
                -1.3348795722073425,
                0.7168101437281291
            ]
        },
        {
            "positions": [
                1.99133412127279,
                -1.0677938802908655,
                -1.4338526623269545,
                -1.239635122909327,
                -1.2876661048298752,
                0.7717682178327294
            ]
        },
        {
            "positions": [
                1.8732893864697584,
                -1.0383695941447053,
                -1.3528916770952562,
                -1.1881491515186826,
                -1.2404526374524076,
                0.8267262919373298
            ]
        },
        {
            "positions": [
                1.755244651666727,
                -1.008945307998545,
                -1.2719306918635578,
                -1.136663180128038,
                -1.19323917007494,
                0.8816843660419301
            ]
        },
        {
            "positions": [
                1.6371999168636955,
                -0.9795210218523847,
                -1.1909697066318594,
                -1.0851772087373934,
                -1.1460257026974725,
                0.9366424401465305
            ]
        },
        {
            "positions": [
                1.519155182060664,
                -0.9500967357062244,
                -1.110008721400161,
                -1.033691237346749,
                -1.0988122353200052,
                0.9916005142511308
            ]
        },
        {
            "positions": [
                1.4011104472576323,
                -0.920672449560064,
                -1.0290477361684625,
                -0.9822052659561045,
                -1.0515987679425376,
                1.0465585883557311
            ]
        },
        {
            "positions": [
                1.2830657124546012,
                -0.8912481634139038,
                -0.9480867509367643,
                -0.9307192945654601,
                -1.0043853005650702,
                1.1015166624603314
            ]
        },
        {
            "positions": [
                1.1650209776515696,
                -0.8618238772677435,
                -0.8671257657050659,
                -0.8792333231748155,
                -0.9571718331876026,
                1.1564747365649317
            ]
        },
        {
            "positions": [
                1.046976242848538,
                -0.8323995911215831,
                -0.7861647804733674,
                -0.827747351784171,
                -0.9099583658101351,
                1.211432810669532
            ]
        },
        {
            "positions": [
                0.9289315080455065,
                -0.8029753049754229,
                -0.705203795241669,
                -0.7762613803935264,
                -0.8627448984326676,
                1.2663908847741325
            ]
        },
        {
            "positions": [
                0.8108867732424754,
                -0.7735510188292626,
                -0.6242428100099708,
                -0.7247754090028821,
                -0.8155314310552001,
                1.3213489588787326
            ]
        },
        {
            "positions": [
                0.6928420384394438,
                -0.7441267326831023,
                -0.5432818247782722,
                -0.6732894376122375,
                -0.7683179636777326,
                1.3763070329833331
            ]
        },
        {
            "positions": [
                0.5747973036364125,
                -0.7147024465369419,
                -0.4623208395465738,
                -0.621803466221593,
                -0.7211044963002651,
                1.4312651070879334
            ]
        },
        {
            "positions": [
                0.5405636851649656,
                -0.7238357171860281,
                -0.29948630230835827,
                -0.6203368423495498,
                -0.6619304381147728,
                1.5281154267303112
            ]
        },
        {
            "positions": [
                0.5063300666935188,
                -0.7329689878351144,
                -0.1366517650701427,
                -0.6188702184775066,
                -0.6027563799292804,
                1.624965746372689
            ]
        },
        {
            "positions": [
                0.4720964482220719,
                -0.7421022584842006,
                0.0261827721680728,
                -0.6174035946054633,
                -0.5435823217437882,
                1.7218160660150665
            ]
        },
        {
            "positions": [
                0.43786282975062507,
                -0.751235529133287,
                0.18901730940628841,
                -0.6159369707334201,
                -0.4844082635582959,
                1.8186663856574443
            ]
        },
        {
            "positions": [
                0.4036292112791782,
                -0.7603687997823732,
                0.3518518466445039,
                -0.6144703468613768,
                -0.4252342053728036,
                1.915516705299822
            ]
        },
        {
            "positions": [
                0.3693955928077314,
                -0.7695020704314594,
                0.5146863838827194,
                -0.6130037229893336,
                -0.36606014718731134,
                2.0123670249421997
            ]
        },
        {
            "positions": [
                0.3351619743362846,
                -0.7786353410805457,
                0.677520921120935,
                -0.6115370991172904,
                -0.306886089001819,
                2.1092173445845774
            ]
        },
        {
            "positions": [
                0.3009283558648377,
                -0.7877686117296319,
                0.8403554583591506,
                -0.6100704752452472,
                -0.2477120308163267,
                2.206067664226955
            ]
        },
        {
            "positions": [
                0.26669473739339083,
                -0.7969018823787182,
                1.003189995597366,
                -0.6086038513732039,
                -0.18853797263083438,
                2.302917983869333
            ]
        },
        {
            "positions": [
                0.23246111892194396,
                -0.8060351530278044,
                1.1660245328355816,
                -0.6071372275011607,
                -0.12936391444534215,
                2.3997683035117108
            ]
        },
        {
            "positions": [
                0.2140896994060252,
                -0.8605749566751063,
                1.298520319727364,
                -0.6256483303682279,
                -0.08486005190980987,
                2.506345517463188
            ]
        },
        {
            "positions": [
                0.19571827989010643,
                -0.9151147603224082,
                1.4310161066191462,
                -0.6441594332352951,
                -0.040356189374277596,
                2.612922731414665
            ]
        },
        {
            "positions": [
                0.17734686037418768,
                -0.9696545639697103,
                1.5635118935109287,
                -0.6626705361023624,
                0.004147673161254695,
                2.7194999453661417
            ]
        },
        {
            "positions": [
                0.15897544085826892,
                -1.0241943676170122,
                1.6960076804027109,
                -0.6811816389694295,
                0.04865153569678696,
                2.826077159317619
            ]
        },
        {
            "positions": [
                0.14060402134235014,
                -1.0787341712643141,
                1.8285034672944933,
                -0.6996927418364967,
                0.09315539823231928,
                2.932654373269096
            ]
        },
        {
            "positions": [
                0.12223260182643138,
                -1.133273974911616,
                1.9609992541862757,
                -0.7182038447035639,
                0.13765926076785154,
                3.039231587220573
            ]
        }
    ]
}{
    "goal": {
        "global_pose": {
            "orientation": {
                "w": 0.7047431468963623,
                "x": -0.7094548344612122,
                "y": 0.0024358443915843964,
                "z": -0.0022348060738295317
            },
            "position": {
                "x": 0.6094750761985779,
                "y": 0.3671506643295288,
                "z": 0.19426114857196808
            }
        },
        "name": "move_to_magneteinheit_A"
    },
    "id": "PRMstar_move_to_magneteinheit_A_17",
    "joint_names": [
        "shoulder_pan_joint",
        "shoulder_lift_joint",
        "elbow_joint",
        "wrist_1_joint",
        "wrist_2_joint",
        "wrist_3_joint"
    ],
    "metrics": {
        "cart_traj_len": 1.2742015440497008,
        "distance_elbow_joint": 0.04503981860845796,
        "distance_shoulder_lift_joint": 0.90948866483255,
        "distance_shoulder_pan_joint": 1.242660127673666,
        "distance_wrist_1_joint": 1.0008138112990295,
        "distance_wrist_2_joint": 1.4321817501833394,
        "distance_wrist_3_joint": 4.337982005600168,
        "smoothness": 0.21035077500480878,
        "time": 5.024011253,
        "traj_len": 2.9946896630865125,
        "weighted_distance": 4.480750578963296
    },
    "planner": "PRMstar",
    "start": {
        "state": {
            "elbow_joint": 1.919643534880228,
            "shoulder_lift_joint": -1.8972525353963687,
            "shoulder_pan_joint": -1.1188672234189438,
            "wrist_1_joint": -1.5931878212786155,
            "wrist_2_joint": 1.5706036197970081,
            "wrist_3_joint": 1.118896926603594
        }
    },
    "waypoints": [
        {
            "positions": [
                -1.1188672234189438,
                -1.8972525353963687,
                1.919643534880228,
                -1.5931878212786155,
                1.5706036197970081,
                1.118896926603594
            ]
        },
        {
            "positions": [
                -1.0630549203603012,
                -1.8574966460449225,
                1.9200305758783582,
                -1.5491820308276478,
                1.5055912320466291,
                0.934927708054761
            ]
        },
        {
            "positions": [
                -1.0072426173016586,
                -1.8177407566934762,
                1.9204176168764884,
                -1.5051762403766802,
                1.4405788442962502,
                0.750958489505928
            ]
        },
        {
            "positions": [
                -0.9514303142430159,
                -1.77798486734203,
                1.9208046578746185,
                -1.4611704499257125,
                1.3755664565458714,
                0.5669892709570951
            ]
        },
        {
            "positions": [
                -0.8956180111843732,
                -1.7382289779905835,
                1.9211916988727487,
                -1.417164659474745,
                1.3105540687954924,
                0.3830200524082621
            ]
        },
        {
            "positions": [
                -0.8398057081257306,
                -1.6984730886391373,
                1.9215787398708788,
                -1.3731588690237773,
                1.2455416810451134,
                0.19905083385942912
            ]
        },
        {
            "positions": [
                -0.783993405067088,
                -1.658717199287691,
                1.9219657808690092,
                -1.3291530785728096,
                1.1805292932947344,
                0.015081615310596153
            ]
        },
        {
            "positions": [
                -0.7281811020084454,
                -1.6189613099362448,
                1.9223528218671393,
                -1.285147288121842,
                1.1155169055443555,
                -0.1688876032382367
            ]
        },
        {
            "positions": [
                -0.6723687989498027,
                -1.5792054205847985,
                1.9227398628652694,
                -1.2411414976708743,
                1.0505045177939767,
                -0.3528568217870698
            ]
        },
        {
            "positions": [
                -0.6165564958911601,
                -1.5394495312333523,
                1.9231269038633996,
                -1.1971357072199067,
                0.9854921300435977,
                -0.5368260403359026
            ]
        },
        {
            "positions": [
                -0.5607441928325174,
                -1.499693641881906,
                1.9235139448615297,
                -1.153129916768939,
                0.9204797422932187,
                -0.7207952588847357
            ]
        },
        {
            "positions": [
                -0.5049318897738748,
                -1.4599377525304595,
                1.9239009858596599,
                -1.1091241263179712,
                0.8554673545428397,
                -0.904764477433569
            ]
        },
        {
            "positions": [
                -0.4491195867152322,
                -1.4201818631790135,
                1.92428802685779,
                -1.0651183358670036,
                0.7904549667924609,
                -1.0887336959824017
            ]
        },
        {
            "positions": [
                -0.3933072836565895,
                -1.380425973827567,
                1.9246750678559201,
                -1.021112545416036,
                0.7254425790420819,
                -1.2727029145312347
            ]
        },
        {
            "positions": [
                -0.3374949805979469,
                -1.3406700844761208,
                1.9250621088540503,
                -0.9771067549650684,
                0.660430191291703,
                -1.4566721330800674
            ]
        },
        {
            "positions": [
                -0.2816826775393042,
                -1.3009141951246745,
                1.9254491498521804,
                -0.9331009645141006,
                0.595417803541324,
                -1.640641351628901
            ]
        },
        {
            "positions": [
                -0.2258703744806616,
                -1.2611583057732283,
                1.9258361908503108,
                -0.8890951740631331,
                0.530405415790945,
                -1.8246105701777335
            ]
        },
        {
            "positions": [
                -0.1700580714220189,
                -1.2214024164217818,
                1.926223231848441,
                -0.8450893836121653,
                0.46539302804056604,
                -2.008579788726567
            ]
        },
        {
            "positions": [
                -0.11424576836337641,
                -1.1816465270703356,
                1.926610272846571,
                -0.8010835931611978,
                0.4003806402901873,
                -2.1925490072753995
            ]
        },
        {
            "positions": [
                -0.05843346530473359,
                -1.1418906377188893,
                1.9269973138447012,
                -0.7570778027102301,
                0.3353682525398083,
                -2.376518225824233
            ]
        },
        {
            "positions": [
                -0.002621162246090991,
                -1.102134748367443,
                1.9273843548428313,
                -0.7130720122592625,
                0.2703558647894293,
                -2.5604874443730656
            ]
        },
        {
            "positions": [
                0.05319114081255161,
                -1.0623788590159968,
                1.9277713958409615,
                -0.6690662218082948,
                0.20534347703905026,
                -2.7444566629218983
            ]
        },
        {
            "positions": [
                0.07672506195994169,
                -1.0872505218333894,
                1.9400753817235363,
                -0.6946302924178643,
                0.1830362745639231,
                -2.90266613494679
            ]
        },
        {
            "positions": [
                0.10025898310733176,
                -1.1121221846507823,
                1.9523793676061112,
                -0.720194363027434,
                0.16072907208879594,
                -3.0608756069716816
            ]
        },
        {
            "positions": [
                0.12379290425472185,
                -1.136993847468175,
                1.964683353488686,
                -0.7457584336370036,
                0.13842186961366879,
                -3.2190850789965735
            ]
        }
    ]
}