{
    "goal": {
        "global_pose": {
            "orientation": {
                "w": 0.7047431468963623,
                "x": -0.7094548344612122,
                "y": 0.0024358443915843964,
                "z": -0.0022348060738295317
            },
            "position": {
                "x": 0.6094750761985779,
                "y": 0.3671506643295288,
                "z": 0.19426114857196808
            }
        },
        "name": "move_to_magneteinheit_A"
    },
    "id": "PRMstar_move_to_magneteinheit_A_110",
    "joint_names": [
        "shoulder_pan_joint",
        "shoulder_lift_joint",
        "elbow_joint",
        "wrist_1_joint",
        "wrist_2_joint",
        "wrist_3_joint"
    ],
    "metrics": {
        "cart_traj_len": 3.461576678971617,
        "distance_elbow_joint": 3.8915054457796465,
        "distance_shoulder_lift_joint": 0.6304368229042745,
        "distance_shoulder_pan_joint": 2.576416752715411,
        "distance_wrist_1_joint": 0.7777393895155147,
        "distance_wrist_2_joint": 1.7080257676922521,
        "distance_wrist_3_joint": 2.630191393080267,
        "smoothness": 0.014600130172546294,
        "time": 5.035871773,
        "traj_len": 3.4948985066361176,
        "weighted_distance": 4.467713454895655
    },
    "planner": "PRMstar",
    "start": {
        "state": {
            "elbow_joint": -1.919618573717145,
            "shoulder_lift_joint": -1.2443395971678275,
            "shoulder_pan_joint": 2.6996025300909787,
            "wrist_1_joint": -1.548550951253194,
            "wrist_2_joint": -1.5709469090946802,
            "wrist_3_joint": 0.4420197732051276
        }
    },
    "waypoints": [
        {
            "positions": [
                2.6996025300909787,
                -1.2443395971678275,
                -1.919618573717145,
                -1.548550951253194,
                -1.5709469090946802,
                0.4420197732051276
            ]
        },
        {
            "positions": [
                2.5740195603787255,
                -1.2195279509577635,
                -1.8418607448311388,
                -1.5372265749054732,
                -1.5262823585759024,
                0.5355597096359267
            ]
        },
        {
            "positions": [
                2.4484365906664722,
                -1.1947163047476994,
                -1.764102915945133,
                -1.5259021985577523,
                -1.481617808057125,
                0.6290996460667257
            ]
        },
        {
            "positions": [
                2.3228536209542194,
                -1.1699046585376354,
                -1.6863450870591268,
                -1.5145778222100312,
                -1.4369532575383472,
                0.7226395824975249
            ]
        },
        {
            "positions": [
                2.197270651241966,
                -1.1450930123275713,
                -1.6085872581731206,
                -1.5032534458623104,
                -1.3922887070195695,
                0.8161795189283239
            ]
        },
        {
            "positions": [
                2.071687681529713,
                -1.1202813661175073,
                -1.5308294292871145,
                -1.4919290695145895,
                -1.347624156500792,
                0.909719455359123
            ]
        },
        {
            "positions": [
                1.94610471181746,
                -1.0954697199074432,
                -1.4530716004011084,
                -1.4806046931668684,
                -1.3029596059820143,
                1.0032593917899222
            ]
        },
        {
            "positions": [
                1.8205217421052067,
                -1.0706580736973792,
                -1.3753137715151023,
                -1.4692803168191475,
                -1.2582950554632366,
                1.0967993282207213
            ]
        },
        {
            "positions": [
                1.6949387723929537,
                -1.0458464274873152,
                -1.2975559426290963,
                -1.4579559404714266,
                -1.2136305049444591,
                1.1903392646515203
            ]
        },
        {
            "positions": [
                1.5693558026807004,
                -1.0210347812772511,
                -1.2197981137430902,
                -1.4466315641237057,
                -1.1689659544256814,
                1.2838792010823195
            ]
        },
        {
            "positions": [
                1.4437728329684474,
                -0.9962231350671871,
                -1.1420402848570843,
                -1.4353071877759849,
                -1.1243014039069037,
                1.3774191375131186
            ]
        },
        {
            "positions": [
                1.3181898632561944,
                -0.971411488857123,
                -1.0642824559710782,
                -1.4239828114282638,
                -1.0796368533881262,
                1.4709590739439176
            ]
        },
        {
            "positions": [
                1.1926068935439411,
                -0.946599842647059,
                -0.986524627085072,
                -1.412658435080543,
                -1.0349723028693485,
                1.5644990103747167
            ]
        },
        {
            "positions": [
                1.1252289804102045,
                -0.9412679928454312,
                -0.8334599653993433,
                -1.3876509005695168,
                -0.9775492896654132,
                1.6486938391383632
            ]
        },
        {
            "positions": [
                1.0578510672764676,
                -0.9359361430438032,
                -0.6803953037136147,
                -1.3626433660584907,
                -0.9201262764614778,
                1.7328886679020097
            ]
        },
        {
            "positions": [
                0.990473154142731,
                -0.9306042932421754,
                -0.5273306420278859,
                -1.3376358315474643,
                -0.8627032632575425,
                1.817083496665656
            ]
        },
        {
            "positions": [
                0.9230952410089942,
                -0.9252724434405475,
                -0.3742659803421573,
                -1.3126282970364382,
                -0.8052802500536071,
                1.9012783254293024
            ]
        },
        {
            "positions": [
                0.8557173278752574,
                -0.9199405936389197,
                -0.22120131865642856,
                -1.2876207625254121,
                -0.7478572368496719,
                1.985473154192949
            ]
        },
        {
            "positions": [
                0.7883394147415207,
                -0.9146087438372918,
                -0.06813665697069982,
                -1.262613228014386,
                -0.6904342236457366,
                2.069667982956595
            ]
        },
        {
            "positions": [
                0.720961501607784,
                -0.9092768940356639,
                0.0849280047150287,
                -1.2376056935033597,
                -0.6330112104418013,
                2.153862811720242
            ]
        },
        {
            "positions": [
                0.6535835884740473,
                -0.9039450442340361,
                0.23799266640075745,
                -1.2125981589923336,
                -0.5755881972378658,
                2.238057640483888
            ]
        },
        {
            "positions": [
                0.5862056753403105,
                -0.8986131944324083,
                0.3910573280864862,
                -1.1875906244813075,
                -0.5181651840339306,
                2.322252469247535
            ]
        },
        {
            "positions": [
                0.5188277622065738,
                -0.8932813446307803,
                0.5441219897722149,
                -1.1625830899702814,
                -0.46074217082999525,
                2.406447298011181
            ]
        },
        {
            "positions": [
                0.45144984907283714,
                -0.8879494948291525,
                0.6971866514579435,
                -1.137575555459255,
                -0.40331915762605997,
                2.4906421267748273
            ]
        },
        {
            "positions": [
                0.3840719359391003,
                -0.8826176450275246,
                0.8502513131436724,
                -1.112568020948229,
                -0.3458961444221246,
                2.5748369555384736
            ]
        },
        {
            "positions": [
                0.3166940228053636,
                -0.8772857952258968,
                1.003315974829401,
                -1.0875604864372028,
                -0.2884731312181893,
                2.6590317843021203
            ]
        },
        {
            "positions": [
                0.28998335223942284,
                -0.8907067550571139,
                1.1302971072786194,
                -1.051954045134911,
                -0.22903925506183312,
                2.7041236166306732
            ]
        },
        {
            "positions": [
                0.26327268167348217,
                -0.904127714888331,
                1.2572782397278381,
                -1.0163476038326191,
                -0.16960537890547694,
                2.749215448959226
            ]
        },
        {
            "positions": [
                0.23656201110754146,
                -0.917548674719548,
                1.3842593721770569,
                -0.9807411625303272,
                -0.11017150274912074,
                2.794307281287779
            ]
        },
        {
            "positions": [
                0.20985134054160076,
                -0.9309696345507652,
                1.5112405046262753,
                -0.9451347212280353,
                -0.05073762659276457,
                2.839399113616332
            ]
        },
        {
            "positions": [
                0.18818494975009228,
                -0.983394429960134,
                1.6264020964853318,
                -0.9015539313554464,
                -0.0037835052951804907,
                2.897602126783598
            ]
        },
        {
            "positions": [
                0.16651855895858383,
                -1.0358192253695029,
                1.7415636883443883,
                -0.8579731414828573,
                0.043170616002403586,
                2.955805139950863
            ]
        },
        {
            "positions": [
                0.14485216816707536,
                -1.0882440207788717,
                1.8567252802034446,
                -0.8143923516102684,
                0.09012473729998766,
                3.014008153118129
            ]
        },
        {
            "positions": [
                0.1231857773755669,
                -1.1406688161882406,
                1.9718868720625011,
                -0.7708115617376794,
                0.13707885859757174,
                3.0722111662853946
            ]
        }
    ]
}{
    "goal": {
        "global_pose": {
            "orientation": {
                "w": 0.7047431468963623,
                "x": -0.7094548344612122,
                "y": 0.0024358443915843964,
                "z": -0.0022348060738295317
            },
            "position": {
                "x": 0.6094750761985779,
                "y": 0.3671506643295288,
                "z": 0.19426114857196808
            }
        },
        "name": "move_to_magneteinheit_A"
    },
    "id": "PRMstar_move_to_magneteinheit_A_110",
    "joint_names": [
        "shoulder_pan_joint",
        "shoulder_lift_joint",
        "elbow_joint",
        "wrist_1_joint",
        "wrist_2_joint",
        "wrist_3_joint"
    ],
    "metrics": {
        "cart_traj_len": 1.2141856477584203,
        "distance_elbow_joint": 0.06564318201378039,
        "distance_shoulder_lift_joint": 0.7750128351063832,
        "distance_shoulder_pan_joint": 1.2428206890052305,
        "distance_wrist_1_joint": 0.8020165997988468,
        "distance_wrist_2_joint": 1.4463707621049482,
        "distance_wrist_3_joint": 4.304084902710268,
        "smoothness": 0.0864407176431432,
        "time": 5.046614323,
        "traj_len": 2.9386985164762063,
        "weighted_distance": 4.415031838850518
    },
    "planner": "PRMstar",
    "start": {
        "state": {
            "elbow_joint": 1.919643534880228,
            "shoulder_lift_joint": -1.8972525353963687,
            "shoulder_pan_joint": -1.1188672234189438,
            "wrist_1_joint": -1.5931878212786155,
            "wrist_2_joint": 1.5706036197970081,
            "wrist_3_joint": 1.118896926603594
        }
    },
    "waypoints": [
        {
            "positions": [
                -1.1188672234189438,
                -1.8972525353963687,
                1.919643534880228,
                -1.5931878212786155,
                1.5706036197970081,
                1.118896926603594
            ]
        },
        {
            "positions": [
                -1.0635437909464593,
                -1.8624328045999725,
                1.9223218953472732,
                -1.5570458773137323,
                1.505453718692546,
                0.9259321311874645
            ]
        },
        {
            "positions": [
                -1.0082203584739748,
                -1.8276130738035765,
                1.9250002558143184,
                -1.520903933348849,
                1.440303817588084,
                0.7329673357713351
            ]
        },
        {
            "positions": [
                -0.9528969260014903,
                -1.7927933430071803,
                1.9276786162813635,
                -1.4847619893839659,
                1.3751539164836222,
                0.5400025403552057
            ]
        },
        {
            "positions": [
                -0.8975734935290058,
                -1.757973612210784,
                1.9303569767484086,
                -1.4486200454190827,
                1.3100040153791601,
                0.34703774493907613
            ]
        },
        {
            "positions": [
                -0.8422500610565213,
                -1.723153881414388,
                1.9330353372154538,
                -1.4124781014541994,
                1.244854114274698,
                0.1540729495229468
            ]
        },
        {
            "positions": [
                -0.786926628584037,
                -1.6883341506179919,
                1.935713697682499,
                -1.3763361574893163,
                1.1797042131702362,
                -0.03889184589318262
            ]
        },
        {
            "positions": [
                -0.7316031961115523,
                -1.6535144198215956,
                1.938392058149544,
                -1.3401942135244331,
                1.1145543120657742,
                -0.23185664130931216
            ]
        },
        {
            "positions": [
                -0.6762797636390678,
                -1.6186946890251996,
                1.9410704186165892,
                -1.3040522695595498,
                1.049404410961312,
                -0.4248214367254417
            ]
        },
        {
            "positions": [
                -0.6209563311665833,
                -1.5838749582288034,
                1.9437487790836343,
                -1.2679103255946667,
                0.98425450985685,
                -0.617786232141571
            ]
        },
        {
            "positions": [
                -0.5656328986940989,
                -1.5490552274324072,
                1.9464271395506794,
                -1.2317683816297835,
                0.9191046087523881,
                -0.8107510275577003
            ]
        },
        {
            "positions": [
                -0.5103094662216144,
                -1.5142354966360112,
                1.9491055000177244,
                -1.1956264376649002,
                0.853954707647926,
                -1.0037158229738299
            ]
        },
        {
            "positions": [
                -0.45498603374913005,
                -1.479415765839615,
                1.9517838604847697,
                -1.159484493700017,
                0.7888048065434641,
                -1.1966806183899592
            ]
        },
        {
            "positions": [
                -0.39966260127664544,
                -1.4445960350432188,
                1.9544622209518148,
                -1.1233425497351337,
                0.723654905439002,
                -1.389645413806089
            ]
        },
        {
            "positions": [
                -0.34433916880416093,
                -1.4097763042468228,
                1.9571405814188598,
                -1.0872006057702506,
                0.65850500433454,
                -1.5826102092222183
            ]
        },
        {
            "positions": [
                -0.28901573633167654,
                -1.3749565734504265,
                1.959818941885905,
                -1.0510586618053672,
                0.593355103230078,
                -1.7755750046383476
            ]
        },
        {
            "positions": [
                -0.23369230385919193,
                -1.3401368426540303,
                1.9624973023529502,
                -1.014916717840484,
                0.5282052021256161,
                -1.9685398000544774
            ]
        },
        {
            "positions": [
                -0.17836887138670754,
                -1.3053171118576343,
                1.9651756628199952,
                -0.978774773875601,
                0.463055301021154,
                -2.161504595470606
            ]
        },
        {
            "positions": [
                -0.12304543891422293,
                -1.2704973810612379,
                1.9678540232870405,
                -0.9426328299107177,
                0.39790539991669194,
                -2.3544693908867362
            ]
        },
        {
            "positions": [
                -0.06772200644173854,
                -1.2356776502648419,
                1.9705323837540856,
                -0.9064908859458345,
                0.3327554988122299,
                -2.5474341863028656
            ]
        },
        {
            "positions": [
                -0.012398573969254034,
                -1.2008579194684459,
                1.9732107442211306,
                -0.8703489419809514,
                0.26760559770776804,
                -2.740398981718995
            ]
        },
        {
            "positions": [
                0.04292485850323047,
                -1.1660381886720494,
                1.975889104688176,
                -0.834206998016068,
                0.20245569660330598,
                -2.933363777135124
            ]
        },
        {
            "positions": [
                0.09824829097571497,
                -1.1312184578756534,
                1.978567465155221,
                -0.7980650540511849,
                0.13730579549884392,
                -3.1263285725512535
            ]
        },
        {
            "positions": [
                0.12395346558628655,
                -1.1401972154613214,
                1.9718482134164335,
                -0.7911712214797687,
                0.12423285769205988,
                -3.1851879761066737
            ]
        }
    ]
}