{
    "goal": {
        "global_pose": {
            "orientation": {
                "w": 0.7047431468963623,
                "x": -0.7094548344612122,
                "y": 0.0024358443915843964,
                "z": -0.0022348060738295317
            },
            "position": {
                "x": 0.6094750761985779,
                "y": 0.3671506643295288,
                "z": 0.19426114857196808
            }
        },
        "name": "move_to_magneteinheit_A"
    },
    "id": "PRMstar_move_to_magneteinheit_A_8",
    "joint_names": [
        "shoulder_pan_joint",
        "shoulder_lift_joint",
        "elbow_joint",
        "wrist_1_joint",
        "wrist_2_joint",
        "wrist_3_joint"
    ],
    "metrics": {
        "cart_traj_len": 3.773174079035993,
        "distance_elbow_joint": 3.8784726603001802,
        "distance_shoulder_lift_joint": 0.8502776273950334,
        "distance_shoulder_pan_joint": 2.577435722398568,
        "distance_wrist_1_joint": 0.8269702979692068,
        "distance_wrist_2_joint": 1.8864960541987301,
        "distance_wrist_3_joint": 2.5875155458410273,
        "smoothness": 0.07000532016817443,
        "time": 5.045779496,
        "traj_len": 3.5506573909774435,
        "weighted_distance": 4.527213861963308
    },
    "planner": "PRMstar",
    "start": {
        "state": {
            "elbow_joint": -1.919618573717145,
            "shoulder_lift_joint": -1.2443395971678275,
            "shoulder_pan_joint": 2.6996025300909787,
            "wrist_1_joint": -1.548550951253194,
            "wrist_2_joint": -1.5709469090946802,
            "wrist_3_joint": 0.4420197732051276
        }
    },
    "waypoints": [
        {
            "positions": [
                2.6996025300909787,
                -1.2443395971678275,
                -1.919618573717145,
                -1.548550951253194,
                -1.5709469090946802,
                0.4420197732051276
            ]
        },
        {
            "positions": [
                2.6107535013935745,
                -1.2258514070535982,
                -1.8204835789299338,
                -1.525785017866735,
                -1.502007166259414,
                0.5296185408231905
            ]
        },
        {
            "positions": [
                2.5219044726961704,
                -1.207363216939369,
                -1.721348584142723,
                -1.503019084480276,
                -1.4330674234241478,
                0.6172173084412534
            ]
        },
        {
            "positions": [
                2.433055443998766,
                -1.1888750268251398,
                -1.6222135893555119,
                -1.4802531510938168,
                -1.3641276805888818,
                0.7048160760593163
            ]
        },
        {
            "positions": [
                2.344206415301362,
                -1.1703868367109107,
                -1.5230785945683007,
                -1.457487217707358,
                -1.2951879377536155,
                0.7924148436773792
            ]
        },
        {
            "positions": [
                2.255357386603958,
                -1.1518986465966814,
                -1.4239435997810899,
                -1.4347212843208987,
                -1.2262481949183495,
                0.8800136112954422
            ]
        },
        {
            "positions": [
                2.1665083579065536,
                -1.1334104564824523,
                -1.3248086049938788,
                -1.4119553509344396,
                -1.1573084520830832,
                0.9676123789135052
            ]
        },
        {
            "positions": [
                2.0776593292091494,
                -1.114922266368223,
                -1.2256736102066679,
                -1.3891894175479806,
                -1.0883687092478171,
                1.0552111465315681
            ]
        },
        {
            "positions": [
                1.9888103005117448,
                -1.0964340762539937,
                -1.1265386154194568,
                -1.3664234841615215,
                -1.0194289664125509,
                1.142809914149631
            ]
        },
        {
            "positions": [
                1.8999612718143406,
                -1.0779458861397646,
                -1.0274036206322457,
                -1.3436575507750625,
                -0.9504892235772848,
                1.2304086817676938
            ]
        },
        {
            "positions": [
                1.8111122431169364,
                -1.0594576960255353,
                -0.9282686258450347,
                -1.3208916173886034,
                -0.8815494807420186,
                1.3180074493857568
            ]
        },
        {
            "positions": [
                1.7222632144195322,
                -1.0409695059113062,
                -0.8291336310578237,
                -1.2981256840021445,
                -0.8126097379067525,
                1.4056062170038197
            ]
        },
        {
            "positions": [
                1.633414185722128,
                -1.022481315797077,
                -0.7299986362706126,
                -1.2753597506156853,
                -0.7436699950714863,
                1.4932049846218827
            ]
        },
        {
            "positions": [
                1.5445651570247239,
                -1.0039931256828476,
                -0.6308636414834017,
                -1.2525938172292261,
                -0.6747302522362202,
                1.5808037522399456
            ]
        },
        {
            "positions": [
                1.4557161283273197,
                -0.9855049355686185,
                -0.5317286466961908,
                -1.2298278838427672,
                -0.605790509400954,
                1.6684025198580086
            ]
        },
        {
            "positions": [
                1.3668670996299155,
                -0.9670167454543893,
                -0.4325936519089797,
                -1.207061950456308,
                -0.5368507665656879,
                1.7560012874760713
            ]
        },
        {
            "positions": [
                1.278018070932511,
                -0.9485285553401601,
                -0.3334586571217686,
                -1.1842960170698489,
                -0.4679110237304216,
                1.8436000550941345
            ]
        },
        {
            "positions": [
                1.1891690422351069,
                -0.9300403652259308,
                -0.23432366233455748,
                -1.16153008368339,
                -0.39897128089515554,
                1.9311988227121972
            ]
        },
        {
            "positions": [
                1.1003200135377027,
                -0.9115521751117017,
                -0.1351886675473466,
                -1.1387641502969308,
                -0.3300315380598895,
                2.01879759033026
            ]
        },
        {
            "positions": [
                1.0114709848402987,
                -0.8930639849974724,
                -0.03605367276013571,
                -1.1159982169104719,
                -0.26109179522462345,
                2.106396357948323
            ]
        },
        {
            "positions": [
                0.9226219561428941,
                -0.8745757948832431,
                0.06308132202707561,
                -1.0932322835240127,
                -0.19215205238935695,
                2.193995125566386
            ]
        },
        {
            "positions": [
                0.8337729274454901,
                -0.856087604769014,
                0.1622163168142865,
                -1.0704663501375538,
                -0.1232123095540909,
                2.281593893184449
            ]
        },
        {
            "positions": [
                0.744923898748086,
                -0.8375994146547847,
                0.2613513116014976,
                -1.0477004167510946,
                -0.054272566718824855,
                2.369192660802512
            ]
        },
        {
            "positions": [
                0.6560748700506815,
                -0.8191112245405556,
                0.36048630638870827,
                -1.0249344833646354,
                0.014667176116441194,
                2.456791428420575
            ]
        },
        {
            "positions": [
                0.5672258413532774,
                -0.8006230344263263,
                0.4596213011759198,
                -1.0021685499781765,
                0.08360691895170747,
                2.5443901960386377
            ]
        },
        {
            "positions": [
                0.4783768126558732,
                -0.7821348443120971,
                0.5587562959631305,
                -0.9794026165917173,
                0.15254666178697374,
                2.631988963656701
            ]
        },
        {
            "positions": [
                0.389527783958469,
                -0.7636466541978679,
                0.6578912907503417,
                -0.9566366832052583,
                0.2214864046222398,
                2.7195877312747636
            ]
        },
        {
            "positions": [
                0.35549128038933825,
                -0.7872454659744241,
                0.8315227919202275,
                -0.9301425630069813,
                0.21292321937153558,
                2.787073508483287
            ]
        },
        {
            "positions": [
                0.3214547768202075,
                -0.8108442777509804,
                1.0051542930901132,
                -0.9036484428087044,
                0.20436003412083137,
                2.8545592856918107
            ]
        },
        {
            "positions": [
                0.28741827325107683,
                -0.8344430895275368,
                1.178785794259999,
                -0.8771543226104274,
                0.19579684887012713,
                2.922045062900334
            ]
        },
        {
            "positions": [
                0.2533817696819461,
                -0.858041901304093,
                1.3524172954298848,
                -0.8506602024121503,
                0.1872336636194229,
                2.9895308401088574
            ]
        },
        {
            "positions": [
                0.22057802918456249,
                -0.9268392606338052,
                1.5040264932181722,
                -0.8183903151301095,
                0.17228116374967456,
                2.999531959843182
            ]
        },
        {
            "positions": [
                0.18777428868717888,
                -0.9956366199635174,
                1.6556356910064598,
                -0.7861204278480688,
                0.15732866387992622,
                3.009533079577506
            ]
        },
        {
            "positions": [
                0.15497054818979528,
                -1.0644339792932296,
                1.8072448887947472,
                -0.7538505405660281,
                0.1423761640101779,
                3.0195341993118303
            ]
        },
        {
            "positions": [
                0.12216680769241166,
                -1.1332313386229418,
                1.9588540865830346,
                -0.7215806532839872,
                0.12742366414042958,
                3.029535319046155
            ]
        }
    ]
}{
    "goal": {
        "global_pose": {
            "orientation": {
                "w": 0.7047431468963623,
                "x": -0.7094548344612122,
                "y": 0.0024358443915843964,
                "z": -0.0022348060738295317
            },
            "position": {
                "x": 0.6094750761985779,
                "y": 0.3671506643295288,
                "z": 0.19426114857196808
            }
        },
        "name": "move_to_magneteinheit_A"
    },
    "id": "PRMstar_move_to_magneteinheit_A_8",
    "joint_names": [
        "shoulder_pan_joint",
        "shoulder_lift_joint",
        "elbow_joint",
        "wrist_1_joint",
        "wrist_2_joint",
        "wrist_3_joint"
    ],
    "metrics": {
        "cart_traj_len": 1.2176474429511017,
        "distance_elbow_joint": 0.031518277248971716,
        "distance_shoulder_lift_joint": 0.7847726759035589,
        "distance_shoulder_pan_joint": 1.2421087502977128,
        "distance_wrist_1_joint": 0.9018442986681331,
        "distance_wrist_2_joint": 1.4471883298456902,
        "distance_wrist_3_joint": 4.3858058679000145,
        "smoothness": 0.04620981523155385,
        "time": 5.049672252000001,
        "traj_len": 2.9653394746409867,
        "weighted_distance": 4.46249734612559
    },
    "planner": "PRMstar",
    "start": {
        "state": {
            "elbow_joint": 1.919643534880228,
            "shoulder_lift_joint": -1.8972525353963687,
            "shoulder_pan_joint": -1.1188672234189438,
            "wrist_1_joint": -1.5931878212786155,
            "wrist_2_joint": 1.5706036197970081,
            "wrist_3_joint": 1.118896926603594
        }
    },
    "waypoints": [
        {
            "positions": [
                -1.1188672234189438,
                -1.8972525353963687,
                1.919643534880228,
                -1.5931878212786155,
                1.5706036197970081,
                1.118896926603594
            ]
        },
        {
            "positions": [
                -1.063481518347179,
                -1.8619053277444229,
                1.920588828422221,
                -1.5531376696508183,
                1.50489352381944,
                0.9230636038615914
            ]
        },
        {
            "positions": [
                -1.0080958132754145,
                -1.8265581200924772,
                1.9215341219642137,
                -1.513087518023021,
                1.4391834278418718,
                0.7272302811195888
            ]
        },
        {
            "positions": [
                -0.9527101082036498,
                -1.7912109124405313,
                1.9224794155062064,
                -1.4730373663952239,
                1.3734733318643038,
                0.5313969583775862
            ]
        },
        {
            "positions": [
                -0.897324403131885,
                -1.7558637047885854,
                1.9234247090481993,
                -1.4329872147674265,
                1.3077632358867357,
                0.33556363563558345
            ]
        },
        {
            "positions": [
                -0.8419386980601203,
                -1.7205164971366398,
                1.9243700025901922,
                -1.3929370631396294,
                1.2420531399091677,
                0.13973031289358084
            ]
        },
        {
            "positions": [
                -0.7865529929883557,
                -1.685169289484694,
                1.9253152961321849,
                -1.352886911511832,
                1.1763430439315994,
                -0.05610300984842165
            ]
        },
        {
            "positions": [
                -0.7311672879165909,
                -1.649822081832748,
                1.9262605896741776,
                -1.3128367598840347,
                1.1106329479540313,
                -0.25193633259042447
            ]
        },
        {
            "positions": [
                -0.6757815828448261,
                -1.6144748741808024,
                1.9272058832161705,
                -1.2727866082562376,
                1.0449228519764633,
                -0.4477696553324271
            ]
        },
        {
            "positions": [
                -0.6203958777730614,
                -1.5791276665288565,
                1.9281511767581634,
                -1.2327364566284404,
                0.979212755998895,
                -0.6436029780744297
            ]
        },
        {
            "positions": [
                -0.5650101727012968,
                -1.5437804588769106,
                1.929096470300156,
                -1.192686305000643,
                0.913502660021327,
                -0.8394363008164323
            ]
        },
        {
            "positions": [
                -0.5096244676295321,
                -1.508433251224965,
                1.9300417638421488,
                -1.1526361533728458,
                0.8477925640437588,
                -1.0352696235584349
            ]
        },
        {
            "positions": [
                -0.4542387625577674,
                -1.473086043573019,
                1.9309870573841417,
                -1.1125860017450486,
                0.7820824680661908,
                -1.2311029463004373
            ]
        },
        {
            "positions": [
                -0.39885305748600264,
                -1.4377388359210732,
                1.9319323509261346,
                -1.0725358501172515,
                0.7163723720886225,
                -1.42693626904244
            ]
        },
        {
            "positions": [
                -0.343467352414238,
                -1.4023916282691276,
                1.9328776444681273,
                -1.0324856984894542,
                0.6506622761110544,
                -1.622769591784443
            ]
        },
        {
            "positions": [
                -0.2880816473424733,
                -1.3670444206171817,
                1.93382293801012,
                -0.9924355468616569,
                0.5849521801334864,
                -1.8186029145264453
            ]
        },
        {
            "positions": [
                -0.23269594227070856,
                -1.3316972129652358,
                1.9347682315521129,
                -0.9523853952338597,
                0.5192420841559182,
                -2.0144362372684483
            ]
        },
        {
            "positions": [
                -0.1773102371989438,
                -1.2963500053132901,
                1.9357135250941058,
                -0.9123352436060624,
                0.45353198817835016,
                -2.2102695600104507
            ]
        },
        {
            "positions": [
                -0.12192453212717902,
                -1.261002797661344,
                1.9366588186360985,
                -0.8722850919782652,
                0.3878218922007819,
                -2.406102882752453
            ]
        },
        {
            "positions": [
                -0.06653882705541436,
                -1.2256555900093984,
                1.9376041121780911,
                -0.832234940350468,
                0.32211179622321384,
                -2.6019362054944555
            ]
        },
        {
            "positions": [
                -0.011153121983649816,
                -1.1903083823574527,
                1.938549405720084,
                -0.7921847887226707,
                0.2564017002456458,
                -2.7977695282364587
            ]
        },
        {
            "positions": [
                0.04423258308811495,
                -1.1549611747055066,
                1.939494699262077,
                -0.7521346370948735,
                0.19069160426807752,
                -2.993602850978461
            ]
        },
        {
            "positions": [
                0.09961828815987962,
                -1.119613967053561,
                1.9404399928040696,
                -0.7120844854670763,
                0.12498150829050939,
                -3.1894361737204635
            ]
        },
        {
            "positions": [
                0.1232415268787688,
                -1.1267480746143121,
                1.9511618121291998,
                -0.6913435226104824,
                0.12341528995131774,
                -3.2669089412964207
            ]
        }
    ]
}