{
    "goal": {
        "global_pose": {
            "orientation": {
                "w": 0.7047431468963623,
                "x": -0.7094548344612122,
                "y": 0.0024358443915843964,
                "z": -0.0022348060738295317
            },
            "position": {
                "x": 0.6094750761985779,
                "y": 0.3671506643295288,
                "z": 0.19426114857196808
            }
        },
        "name": "move_to_magneteinheit_A"
    },
    "id": "PRMstar_move_to_magneteinheit_A_62",
    "joint_names": [
        "shoulder_pan_joint",
        "shoulder_lift_joint",
        "elbow_joint",
        "wrist_1_joint",
        "wrist_2_joint",
        "wrist_3_joint"
    ],
    "metrics": {
        "cart_traj_len": 3.041967810978381,
        "distance_elbow_joint": 3.929519353962594,
        "distance_shoulder_lift_joint": 0.4601415352720365,
        "distance_shoulder_pan_joint": 2.728940811166321,
        "distance_wrist_1_joint": 3.5279858077214747,
        "distance_wrist_2_joint": 1.442450415745696,
        "distance_wrist_3_joint": 1.3061596865544298,
        "smoothness": 0.10552935613983941,
        "time": 5.029069662,
        "traj_len": 3.6599450283334245,
        "weighted_distance": 4.58016956094407
    },
    "planner": "PRMstar",
    "start": {
        "state": {
            "elbow_joint": -1.919618573717145,
            "shoulder_lift_joint": -1.2443395971678275,
            "shoulder_pan_joint": 2.6996025300909787,
            "wrist_1_joint": -1.548550951253194,
            "wrist_2_joint": -1.5709469090946802,
            "wrist_3_joint": 0.4420197732051276
        }
    },
    "waypoints": [
        {
            "positions": [
                2.6996025300909787,
                -1.2443395971678275,
                -1.919618573717145,
                -1.548550951253194,
                -1.5709469090946802,
                0.4420197732051276
            ]
        },
        {
            "positions": [
                2.603579333715633,
                -1.2417785739170213,
                -1.8237059428573563,
                -1.438645582013494,
                -1.525553549405419,
                0.40831213206536365
            ]
        },
        {
            "positions": [
                2.5075561373402873,
                -1.2392175506662149,
                -1.7277933119975675,
                -1.3287402127737937,
                -1.480160189716158,
                0.3746044909255997
            ]
        },
        {
            "positions": [
                2.4115329409649418,
                -1.2366565274154087,
                -1.6318806811377788,
                -1.2188348435340937,
                -1.4347668300268968,
                0.3408968497858358
            ]
        },
        {
            "positions": [
                2.315509744589596,
                -1.2340955041646022,
                -1.5359680502779902,
                -1.1089294742943936,
                -1.3893734703376357,
                0.3071892086460719
            ]
        },
        {
            "positions": [
                2.2194865482142503,
                -1.231534480913796,
                -1.4400554194182016,
                -0.9990241050546934,
                -1.3439801106483746,
                0.2734815675063079
            ]
        },
        {
            "positions": [
                2.1234633518389048,
                -1.2289734576629896,
                -1.344142788558413,
                -0.8891187358149932,
                -1.2985867509591136,
                0.23977392636654402
            ]
        },
        {
            "positions": [
                2.027440155463559,
                -1.2264124344121834,
                -1.248230157698624,
                -0.779213366575293,
                -1.2531933912698525,
                0.20606628522678008
            ]
        },
        {
            "positions": [
                1.9314169590882133,
                -1.223851411161377,
                -1.1523175268388355,
                -0.669307997335593,
                -1.2078000315805912,
                0.17235864408701618
            ]
        },
        {
            "positions": [
                1.8353937627128676,
                -1.2212903879105708,
                -1.0564048959790466,
                -0.5594026280958928,
                -1.1624066718913304,
                0.13865100294725224
            ]
        },
        {
            "positions": [
                1.7393705663375219,
                -1.2187293646597643,
                -0.9604922651192581,
                -0.44949725885619274,
                -1.1170133122020691,
                0.10494336180748831
            ]
        },
        {
            "positions": [
                1.6433473699621761,
                -1.2161683414089581,
                -0.8645796342594694,
                -0.33959188961649245,
                -1.071619952512808,
                0.07123572066772438
            ]
        },
        {
            "positions": [
                1.5473241735868306,
                -1.2136073181581517,
                -0.7686670033996807,
                -0.22968652037679238,
                -1.026226592823547,
                0.037528079527960445
            ]
        },
        {
            "positions": [
                1.4513009772114849,
                -1.2110462949073455,
                -0.6727543725398919,
                -0.11978115113709231,
                -0.9808332331342858,
                0.003820438388196512
            ]
        },
        {
            "positions": [
                1.3552777808361391,
                -1.208485271656539,
                -0.5768417416801033,
                -0.009875781897392022,
                -0.9354398734450248,
                -0.02988720275156742
            ]
        },
        {
            "positions": [
                1.2592545844607932,
                -1.2059242484057329,
                -0.4809291108203144,
                0.10002958734230827,
                -0.8900465137557636,
                -0.06359484389133135
            ]
        },
        {
            "positions": [
                1.1632313880854477,
                -1.2033632251549264,
                -0.385016479960526,
                0.20993495658200811,
                -0.8446531540665025,
                -0.09730248503109523
            ]
        },
        {
            "positions": [
                1.067208191710102,
                -1.2008022019041202,
                -0.28910384910073716,
                0.3198403258217086,
                -0.7992597943772414,
                -0.13101012617085922
            ]
        },
        {
            "positions": [
                0.9711849953347564,
                -1.1982411786533138,
                -0.19319121824094854,
                0.4297456950614085,
                -0.7538664346879804,
                -0.1647177673106231
            ]
        },
        {
            "positions": [
                0.8751617989594105,
                -1.1956801554025076,
                -0.09727858738115969,
                0.539651064301109,
                -0.7084730749987193,
                -0.1984254084503871
            ]
        },
        {
            "positions": [
                0.779138602584065,
                -1.1931191321517012,
                -0.001365956521371281,
                0.6495564335408086,
                -0.6630797153094582,
                -0.23213304959015096
            ]
        },
        {
            "positions": [
                0.683115406208719,
                -1.190558108900895,
                0.09454667433841757,
                0.7594618027805091,
                -0.617686355620197,
                -0.26584069072991495
            ]
        },
        {
            "positions": [
                0.5870922098333735,
                -1.1879970856500885,
                0.1904593051982062,
                0.8693671720202092,
                -0.572292995930936,
                -0.29954833186967883
            ]
        },
        {
            "positions": [
                0.491069013458028,
                -1.1854360623992823,
                0.2863719360579948,
                0.9792725412599093,
                -0.5268996362416749,
                -0.3332559730094428
            ]
        },
        {
            "positions": [
                0.3950458170826825,
                -1.182875039148476,
                0.38228456691778345,
                1.0891779104996093,
                -0.48150627655241385,
                -0.3669636141492067
            ]
        },
        {
            "positions": [
                0.29902262070733654,
                -1.1803140158976697,
                0.4781971977775725,
                1.1990832797393098,
                -0.43611291686315257,
                -0.4006712552889707
            ]
        },
        {
            "positions": [
                0.20299942433199103,
                -1.1777529926468633,
                0.5741098286373612,
                1.3089886489790095,
                -0.3907195571738915,
                -0.43437889642873456
            ]
        },
        {
            "positions": [
                0.10697622795664502,
                -1.175191969396057,
                0.6700224594971498,
                1.41889401821871,
                -0.34532619748463034,
                -0.46808653756849855
            ]
        },
        {
            "positions": [
                0.09837232826683893,
                -1.1276239252756037,
                0.8425793385211497,
                1.498729902753244,
                -0.3146710190792895,
                -0.4238808383497716
            ]
        },
        {
            "positions": [
                0.08976842857703285,
                -1.0800558811551504,
                1.0151362175451497,
                1.5785657872877776,
                -0.2840158406739487,
                -0.3796751391310446
            ]
        },
        {
            "positions": [
                0.08116452888722676,
                -1.0324878370346973,
                1.18769309656915,
                1.6584016718223116,
                -0.2533606622686079,
                -0.33546943991231765
            ]
        },
        {
            "positions": [
                0.07256062919742068,
                -0.9849197929142438,
                1.3602499755931499,
                1.7382375563568453,
                -0.22270548386326702,
                -0.2912637406935907
            ]
        },
        {
            "positions": [
                0.06395672950761458,
                -0.9373517487937906,
                1.5328068546171498,
                1.8180734408913792,
                -0.19205030545792617,
                -0.2470580414748637
            ]
        },
        {
            "positions": [
                0.0553528298178085,
                -0.8897837046733372,
                1.7053637336411498,
                1.897909325425913,
                -0.16139512705258538,
                -0.20285234225613674
            ]
        },
        {
            "positions": [
                0.04674893012800241,
                -0.8422156605528839,
                1.8779206126651498,
                1.977745209960447,
                -0.13073994864724453,
                -0.1586466430374098
            ]
        },
        {
            "positions": [
                0.12283614133134683,
                -0.784198061895791,
                2.0099007802454487,
                1.9794348564682818,
                -0.13298340394550515,
                -0.07203316178769488
            ]
        }
    ]
}{
    "goal": {
        "global_pose": {
            "orientation": {
                "w": 0.7047431468963623,
                "x": -0.7094548344612122,
                "y": 0.0024358443915843964,
                "z": -0.0022348060738295317
            },
            "position": {
                "x": 0.6094750761985779,
                "y": 0.3671506643295288,
                "z": 0.19426114857196808
            }
        },
        "name": "move_to_magneteinheit_A"
    },
    "id": "PRMstar_move_to_magneteinheit_A_62",
    "joint_names": [
        "shoulder_pan_joint",
        "shoulder_lift_joint",
        "elbow_joint",
        "wrist_1_joint",
        "wrist_2_joint",
        "wrist_3_joint"
    ],
    "metrics": {
        "cart_traj_len": 1.2149913175216518,
        "distance_elbow_joint": 0.03628998990914001,
        "distance_shoulder_lift_joint": 0.784280904244443,
        "distance_shoulder_pan_joint": 1.2406543238090775,
        "distance_wrist_1_joint": 0.9082446943521304,
        "distance_wrist_2_joint": 1.4485091480012409,
        "distance_wrist_3_joint": 4.371469621492036,
        "smoothness": 0.181919797888767,
        "time": 5.042206459,
        "traj_len": 2.9647004371113224,
        "weighted_distance": 4.459724404842245
    },
    "planner": "PRMstar",
    "start": {
        "state": {
            "elbow_joint": 1.919643534880228,
            "shoulder_lift_joint": -1.8972525353963687,
            "shoulder_pan_joint": -1.1188672234189438,
            "wrist_1_joint": -1.5931878212786155,
            "wrist_2_joint": 1.5706036197970081,
            "wrist_3_joint": 1.118896926603594
        }
    },
    "waypoints": [
        {
            "positions": [
                -1.1188672234189438,
                -1.8972525353963687,
                1.919643534880228,
                -1.5931878212786155,
                1.5706036197970081,
                1.118896926603594
            ]
        },
        {
            "positions": [
                -1.063636821789909,
                -1.862007337754043,
                1.9210138823444542,
                -1.5526077449981748,
                1.5054175257129896,
                0.9225432149857685
            ]
        },
        {
            "positions": [
                -1.008406420160874,
                -1.8267621401117171,
                1.9223842298086804,
                -1.5120276687177339,
                1.4402314316289708,
                0.7261895033679431
            ]
        },
        {
            "positions": [
                -0.9531760185318392,
                -1.7915169424693913,
                1.9237545772729066,
                -1.4714475924372932,
                1.3750453375449523,
                0.5298357917501176
            ]
        },
        {
            "positions": [
                -0.8979456169028042,
                -1.7562717448270657,
                1.9251249247371325,
                -1.4308675161568523,
                1.3098592434609335,
                0.3334820801322921
            ]
        },
        {
            "positions": [
                -0.8427152152737694,
                -1.72102654718474,
                1.9264952722013586,
                -1.3902874398764116,
                1.244673149376915,
                0.13712836851446675
            ]
        },
        {
            "positions": [
                -0.7874848136447344,
                -1.685781349542414,
                1.9278656196655848,
                -1.3497073635959709,
                1.1794870552928964,
                -0.059225343103358696
            ]
        },
        {
            "positions": [
                -0.7322544120156995,
                -1.6505361519000883,
                1.929235967129811,
                -1.30912728731553,
                1.114300961208878,
                -0.25557905472118425
            ]
        },
        {
            "positions": [
                -0.6770240103866645,
                -1.6152909542577625,
                1.930606314594037,
                -1.2685472110350893,
                1.0491148671248591,
                -0.4519327663390098
            ]
        },
        {
            "positions": [
                -0.6217936087576297,
                -1.5800457566154367,
                1.9319766620582632,
                -1.2279671347546484,
                0.9839287730408405,
                -0.6482864779568351
            ]
        },
        {
            "positions": [
                -0.5665632071285948,
                -1.5448005589731109,
                1.9333470095224894,
                -1.1873870584742077,
                0.9187426789568219,
                -0.8446401895746605
            ]
        },
        {
            "positions": [
                -0.5113328054995598,
                -1.509555361330785,
                1.9347173569867153,
                -1.146806982193767,
                0.8535565848728033,
                -1.040993901192486
            ]
        },
        {
            "positions": [
                -0.45610240387052503,
                -1.4743101636884595,
                1.9360877044509415,
                -1.106226905913326,
                0.7883704907887847,
                -1.2373476128103114
            ]
        },
        {
            "positions": [
                -0.40087200224149,
                -1.4390649660461337,
                1.9374580519151676,
                -1.0656468296328852,
                0.723184396704766,
                -1.4337013244281371
            ]
        },
        {
            "positions": [
                -0.3456416006124551,
                -1.4038197684038078,
                1.9388283993793938,
                -1.0250667533524447,
                0.6579983026207474,
                -1.6300550360459625
            ]
        },
        {
            "positions": [
                -0.29041119898342027,
                -1.368574570761482,
                1.94019874684362,
                -0.9844866770720038,
                0.5928122085367289,
                -1.8264087476637878
            ]
        },
        {
            "positions": [
                -0.23518079735438524,
                -1.3333293731191562,
                1.941569094307846,
                -0.943906600791563,
                0.5276261144527101,
                -2.022762459281614
            ]
        },
        {
            "positions": [
                -0.17995039572535043,
                -1.2980841754768306,
                1.9429394417720722,
                -0.9033265245111222,
                0.4624400203686916,
                -2.2191161708994382
            ]
        },
        {
            "positions": [
                -0.1247199940963154,
                -1.2628389778345048,
                1.9443097892362984,
                -0.8627464482306814,
                0.3972539262846728,
                -2.4154698825172645
            ]
        },
        {
            "positions": [
                -0.06948959246728048,
                -1.227593780192179,
                1.9456801367005243,
                -0.8221663719502406,
                0.3320678322006543,
                -2.61182359413509
            ]
        },
        {
            "positions": [
                -0.014259190838245672,
                -1.1923485825498532,
                1.9470504841647505,
                -0.7815862956697999,
                0.26688173811663574,
                -2.808177305752915
            ]
        },
        {
            "positions": [
                0.04097121079078936,
                -1.1571033849075274,
                1.9484208316289766,
                -0.741006219389359,
                0.20169564403261697,
                -3.0045310173707405
            ]
        },
        {
            "positions": [
                0.09620161241982406,
                -1.1218581872652016,
                1.9497911790932028,
                -0.7004261431089183,
                0.13650954994859837,
                -3.2008847289885662
            ]
        },
        {
            "positions": [
                0.12178710039013346,
                -1.1307447433784774,
                1.955933524789368,
                -0.7159091592913515,
                0.12209447179576731,
                -3.2525726948884417
            ]
        }
    ]
}