{
    "goal": {
        "global_pose": {
            "orientation": {
                "w": 0.5084816217422485,
                "x": -0.49083608388900757,
                "y": 0.5182115435600281,
                "z": -0.4816462993621826
            },
            "position": {
                "x": 0.5540239810943604,
                "y": 0.030875300988554955,
                "z": 0.16403168439865112
            }
        },
        "name": "move_to_storage_A"
    },
    "id": "PRMstar_move_to_storage_A_141",
    "joint_names": [
        "shoulder_pan_joint",
        "shoulder_lift_joint",
        "elbow_joint",
        "wrist_1_joint",
        "wrist_2_joint",
        "wrist_3_joint"
    ],
    "metrics": {
        "cart_traj_len": 0.3534638576092391,
        "distance_elbow_joint": 0.4504997567625053,
        "distance_shoulder_lift_joint": 0.236055925110219,
        "distance_shoulder_pan_joint": 0.46364364346116216,
        "distance_wrist_1_joint": 0.24131493423395722,
        "distance_wrist_2_joint": 1.0943176737394493,
        "distance_wrist_3_joint": 0.09846398507937026,
        "smoothness": 4.440892098500626e-16,
        "time": 5.01285998,
        "traj_len": 1.6075745452036316,
        "weighted_distance": 2.0290038187541217
    },
    "planner": "PRMstar",
    "start": {
        "state": {
            "elbow_joint": 1.9715477243005601,
            "shoulder_lift_joint": -1.1394853015351272,
            "shoulder_pan_joint": 0.12281154014795169,
            "wrist_1_joint": -0.7804696478968182,
            "wrist_2_joint": 0.12958648046900423,
            "wrist_3_joint": -3.192491284697111
        }
    },
    "waypoints": [
        {
            "positions": [
                0.12281154014795169,
                -1.1394853015351272,
                1.9715477243005601,
                -0.7804696478968182,
                0.12958648046900423,
                -3.192491284697111
            ]
        },
        {
            "positions": [
                0.05657673393921424,
                -1.1732075765508727,
                2.0359048324094893,
                -0.8149432099302406,
                0.28591757671749696,
                -3.178425001114344
            ]
        },
        {
            "positions": [
                -0.009658072269523213,
                -1.2069298515666183,
                2.100261940518419,
                -0.849416771963663,
                0.44224867296598974,
                -3.164358717531577
            ]
        },
        {
            "positions": [
                -0.07589287847826066,
                -1.2406521265823638,
                2.164619048627348,
                -0.8838903339970855,
                0.5985797692144825,
                -3.1502924339488096
            ]
        },
        {
            "positions": [
                -0.1421276846869981,
                -1.2743744015981093,
                2.2289761567362776,
                -0.918363896030508,
                0.7549108654629753,
                -3.1362261503660425
            ]
        },
        {
            "positions": [
                -0.20836249089573555,
                -1.308096676613855,
                2.2933332648452067,
                -0.9528374580639305,
                0.9112419617114681,
                -3.1221598667832753
            ]
        },
        {
            "positions": [
                -0.274597297104473,
                -1.3418189516296006,
                2.357690372954136,
                -0.9873110200973529,
                1.0675730579599607,
                -3.108093583200508
            ]
        },
        {
            "positions": [
                -0.34083210331321045,
                -1.3755412266453462,
                2.4220474810630654,
                -1.0217845821307754,
                1.2239041542084534,
                -3.094027299617741
            ]
        }
    ]
}