{
    "goal": {
        "global_pose": {
            "orientation": {
                "w": 0.5084816217422485,
                "x": -0.49083608388900757,
                "y": 0.5182115435600281,
                "z": -0.4816462993621826
            },
            "position": {
                "x": 0.5540239810943604,
                "y": 0.030875300988554955,
                "z": 0.16403168439865112
            }
        },
        "name": "move_to_storage_A"
    },
    "id": "PRMstar_move_to_storage_A_58",
    "joint_names": [
        "shoulder_pan_joint",
        "shoulder_lift_joint",
        "elbow_joint",
        "wrist_1_joint",
        "wrist_2_joint",
        "wrist_3_joint"
    ],
    "metrics": {
        "cart_traj_len": 0.3533516367017814,
        "distance_elbow_joint": 0.44744628162223643,
        "distance_shoulder_lift_joint": 0.2349327140038131,
        "distance_shoulder_pan_joint": 0.46156551370758836,
        "distance_wrist_1_joint": 0.2348913079746987,
        "distance_wrist_2_joint": 1.101109689270337,
        "distance_wrist_3_joint": 0.08560372281393347,
        "smoothness": 2.2204460668324854e-16,
        "time": 5.004198263,
        "traj_len": 1.601733195445673,
        "weighted_distance": 2.01810744814678
    },
    "planner": "PRMstar",
    "start": {
        "state": {
            "elbow_joint": 1.9715477243005601,
            "shoulder_lift_joint": -1.1394853015351272,
            "shoulder_pan_joint": 0.12281154014795169,
            "wrist_1_joint": -0.7804696478968182,
            "wrist_2_joint": 0.12958648046900423,
            "wrist_3_joint": -3.192491284697111
        }
    },
    "waypoints": [
        {
            "positions": [
                0.12281154014795169,
                -1.1394853015351272,
                1.9715477243005601,
                -0.7804696478968182,
                0.12958648046900423,
                -3.192491284697111
            ]
        },
        {
            "positions": [
                0.05687360961829621,
                -1.1730471178213862,
                2.0354686216751654,
                -0.8140255490360608,
                0.2868878646504809,
                -3.180262181437978
            ]
        },
        {
            "positions": [
                -0.009064320911359267,
                -1.2066089341076451,
                2.0993895190497707,
                -0.8475814501753035,
                0.4441892488319576,
                -3.1680330781788446
            ]
        },
        {
            "positions": [
                -0.07500225144101473,
                -1.2401707503939041,
                2.163310416424376,
                -0.8811373513145462,
                0.6014906330134343,
                -3.1558039749197113
            ]
        },
        {
            "positions": [
                -0.1409401819706702,
                -1.273732566680163,
                2.2272313137989808,
                -0.9146932524537889,
                0.758792017194911,
                -3.1435748716605776
            ]
        },
        {
            "positions": [
                -0.20687811250032573,
                -1.3072943829664223,
                2.291152211173586,
                -0.9482491535930315,
                0.9160934013763877,
                -3.1313457684014443
            ]
        },
        {
            "positions": [
                -0.27281604302998114,
                -1.3408561992526813,
                2.3550731085481913,
                -0.9818050547322742,
                1.0733947855578645,
                -3.119116665142311
            ]
        },
        {
            "positions": [
                -0.33875397355963666,
                -1.3744180155389403,
                2.4189940059227966,
                -1.0153609558715169,
                1.230696169739341,
                -3.1068875618831777
            ]
        }
    ]
}