{
    "goal": {
        "global_pose": {
            "orientation": {
                "w": 0.5084816217422485,
                "x": -0.49083608388900757,
                "y": 0.5182115435600281,
                "z": -0.4816462993621826
            },
            "position": {
                "x": 0.5540239810943604,
                "y": 0.030875300988554955,
                "z": 0.16403168439865112
            }
        },
        "name": "move_to_storage_A"
    },
    "id": "PRMstar_move_to_storage_A_116",
    "joint_names": [
        "shoulder_pan_joint",
        "shoulder_lift_joint",
        "elbow_joint",
        "wrist_1_joint",
        "wrist_2_joint",
        "wrist_3_joint"
    ],
    "metrics": {
        "cart_traj_len": 0.352942194611659,
        "distance_elbow_joint": 0.4474745066806469,
        "distance_shoulder_lift_joint": 0.23511399100088082,
        "distance_shoulder_pan_joint": 0.4594229681089313,
        "distance_wrist_1_joint": 0.23387742752300633,
        "distance_wrist_2_joint": 1.1074680490849684,
        "distance_wrist_3_joint": 0.08938006543980315,
        "smoothness": 1.1102230298998083e-15,
        "time": 5.006785121,
        "traj_len": 1.6039753763191742,
        "weighted_distance": 2.0230775109535024
    },
    "planner": "PRMstar",
    "start": {
        "state": {
            "elbow_joint": 1.9715477243005601,
            "shoulder_lift_joint": -1.1394853015351272,
            "shoulder_pan_joint": 0.12281154014795169,
            "wrist_1_joint": -0.7804696478968182,
            "wrist_2_joint": 0.12958648046900423,
            "wrist_3_joint": -3.192491284697111
        }
    },
    "waypoints": [
        {
            "positions": [
                0.12281154014795169,
                -1.1394853015351272,
                1.9715477243005601,
                -0.7804696478968182,
                0.12958648046900423,
                -3.192491284697111
            ]
        },
        {
            "positions": [
                0.057179687560961506,
                -1.173073014535253,
                2.0354726538263668,
                -0.8138807089715333,
                0.28779620176685683,
                -3.1797227039199965
            ]
        },
        {
            "positions": [
                -0.008452165026028677,
                -1.206660727535379,
                2.0993975833521734,
                -0.8472917700462486,
                0.4460059230647095,
                -3.1669541231428817
            ]
        },
        {
            "positions": [
                -0.07408401761301885,
                -1.2402484405355048,
                2.16332251287798,
                -0.8807028311209637,
                0.6042156443625621,
                -3.154185542365767
            ]
        },
        {
            "positions": [
                -0.13971587020000903,
                -1.2738361535356304,
                2.2272474424037867,
                -0.914113892195679,
                0.7624253656604147,
                -3.1414169615886522
            ]
        },
        {
            "positions": [
                -0.20534772278699925,
                -1.3074238665357563,
                2.2911723719295938,
                -0.9475249532703941,
                0.9206350869582675,
                -3.1286483808115375
            ]
        },
        {
            "positions": [
                -0.27097957537398937,
                -1.3410115795358821,
                2.3550973014554004,
                -0.9809360143451094,
                1.07884480825612,
                -3.1158798000344228
            ]
        },
        {
            "positions": [
                -0.3366114279609796,
                -1.374599292536008,
                2.419022230981207,
                -1.0143470754198245,
                1.2370545295539728,
                -3.103111219257308
            ]
        }
    ]
}