{
    "goal": {
        "global_pose": {
            "orientation": {
                "w": 0.7047431468963623,
                "x": -0.7094548344612122,
                "y": 0.0024358443915843964,
                "z": -0.0022348060738295317
            },
            "position": {
                "x": 0.6094750761985779,
                "y": 0.3671506643295288,
                "z": 0.19426114857196808
            }
        },
        "name": "move_to_magneteinheit_A"
    },
    "id": "PRMstar_move_to_magneteinheit_A_64",
    "joint_names": [
        "shoulder_pan_joint",
        "shoulder_lift_joint",
        "elbow_joint",
        "wrist_1_joint",
        "wrist_2_joint",
        "wrist_3_joint"
    ],
    "metrics": {
        "cart_traj_len": 4.910115390534428,
        "distance_elbow_joint": 3.909028504780742,
        "distance_shoulder_lift_joint": 1.9535991068766922,
        "distance_shoulder_pan_joint": 8.513957206002242,
        "distance_wrist_1_joint": 8.132421014562492,
        "distance_wrist_2_joint": 2.455641444119465,
        "distance_wrist_3_joint": 3.5707187007246737,
        "smoothness": 0.3011564032986661,
        "time": 5.052138279999999,
        "traj_len": 5.34185042630981,
        "weighted_distance": 6.801828124643966
    },
    "planner": "PRMstar",
    "start": {
        "state": {
            "elbow_joint": -1.919618573717145,
            "shoulder_lift_joint": -1.2443395971678275,
            "shoulder_pan_joint": 2.6996025300909787,
            "wrist_1_joint": -1.548550951253194,
            "wrist_2_joint": -1.5709469090946802,
            "wrist_3_joint": 0.4420197732051276
        }
    },
    "waypoints": [
        {
            "positions": [
                2.6996025300909787,
                -1.2443395971678275,
                -1.919618573717145,
                -1.548550951253194,
                -1.5709469090946802,
                0.4420197732051276
            ]
        },
        {
            "positions": [
                2.584068046902212,
                -1.263696470325052,
                -1.8701936836362418,
                -1.456645829601317,
                -1.5276542599887115,
                0.37007622011877334
            ]
        },
        {
            "positions": [
                2.4685335637134456,
                -1.2830533434822762,
                -1.8207687935553385,
                -1.3647407079494398,
                -1.4843616108827429,
                0.29813266703241914
            ]
        },
        {
            "positions": [
                2.352999080524679,
                -1.3024102166395006,
                -1.7713439034744354,
                -1.2728355862975627,
                -1.441068961776774,
                0.22618911394606486
            ]
        },
        {
            "positions": [
                2.2374645973359124,
                -1.3217670897967249,
                -1.7219190133935323,
                -1.1809304646456855,
                -1.3977763126708054,
                0.15424556085971064
            ]
        },
        {
            "positions": [
                2.121930114147146,
                -1.3411239629539493,
                -1.6724941233126291,
                -1.0890253429938082,
                -1.3544836635648367,
                0.08230200777335639
            ]
        },
        {
            "positions": [
                2.0063956309583793,
                -1.3604808361111735,
                -1.623069233231726,
                -0.997120221341931,
                -1.3111910144588679,
                0.010358454687002139
            ]
        },
        {
            "positions": [
                1.890861147769613,
                -1.379837709268398,
                -1.5736443431508227,
                -0.9052150996900538,
                -1.2678983653528992,
                -0.06158509839935217
            ]
        },
        {
            "positions": [
                1.7753266645808465,
                -1.3991945824256222,
                -1.5242194530699196,
                -0.8133099780381767,
                -1.2246057162469306,
                -0.1335286514857063
            ]
        },
        {
            "positions": [
                1.65979218139208,
                -1.4185514555828467,
                -1.4747945629890165,
                -0.7214048563862995,
                -1.181313067140962,
                -0.20547220457206056
            ]
        },
        {
            "positions": [
                1.5442576982033132,
                -1.437908328740071,
                -1.4253696729081131,
                -0.6294997347344222,
                -1.1380204180349933,
                -0.2774157576584148
            ]
        },
        {
            "positions": [
                1.4287232150145468,
                -1.4572652018972954,
                -1.3759447828272102,
                -0.5375946130825451,
                -1.0947277689290245,
                -0.34935931074476906
            ]
        },
        {
            "positions": [
                1.3131887318257802,
                -1.4766220750545196,
                -1.3265198927463069,
                -0.44568949143066794,
                -1.0514351198230558,
                -0.4213028638311233
            ]
        },
        {
            "positions": [
                1.1976542486370139,
                -1.495978948211744,
                -1.2770950026654038,
                -0.3537843697787908,
                -1.0081424707170872,
                -0.49324641691747745
            ]
        },
        {
            "positions": [
                1.082119765448247,
                -1.5153358213689683,
                -1.2276701125845007,
                -0.26187924812691343,
                -0.9648498216111184,
                -0.5651899700038319
            ]
        },
        {
            "positions": [
                0.9665852822594805,
                -1.5346926945261927,
                -1.1782452225035973,
                -0.1699741264750365,
                -0.9215571725051497,
                -0.637133523090186
            ]
        },
        {
            "positions": [
                0.8510507990707141,
                -1.554049567683417,
                -1.1288203324226942,
                -0.07806900482315937,
                -0.878264523399181,
                -0.7090770761765401
            ]
        },
        {
            "positions": [
                0.7355163158819473,
                -1.5734064408406414,
                -1.079395442341791,
                0.013836116828717993,
                -0.8349718742932123,
                -0.7810206292628945
            ]
        },
        {
            "positions": [
                0.6199818326931812,
                -1.5927633139978656,
                -1.0299705522608877,
                0.10574123848059513,
                -0.7916792251872437,
                -0.8529641823492486
            ]
        },
        {
            "positions": [
                0.5044473495044146,
                -1.61212018715509,
                -0.9805456621799847,
                0.19764636013247228,
                -0.748386576081275,
                -0.9249077354356028
            ]
        },
        {
            "positions": [
                0.3889128663156476,
                -1.6314770603123145,
                -0.9311207720990815,
                0.28955148178434964,
                -0.7050939269753063,
                -0.9968512885219571
            ]
        },
        {
            "positions": [
                0.27337838312688145,
                -1.6508339334695388,
                -0.8816958820181784,
                0.3814566034362268,
                -0.6618012778693376,
                -1.0687948416083115
            ]
        },
        {
            "positions": [
                0.15784389993811487,
                -1.670190806626763,
                -0.8322709919372753,
                0.4733617250881039,
                -0.6185086287633689,
                -1.1407383946946656
            ]
        },
        {
            "positions": [
                0.042309416749348294,
                -1.6895476797839875,
                -0.7828461018563719,
                0.5652668467399811,
                -0.5752159796574001,
                -1.21268194778102
            ]
        },
        {
            "positions": [
                -0.07322506643941828,
                -1.708904552941212,
                -0.7334212117754688,
                0.6571719683918582,
                -0.5319233305514315,
                -1.2846255008673741
            ]
        },
        {
            "positions": [
                -0.18875954962818486,
                -1.7282614260984361,
                -0.6839963216945655,
                0.7490770900437353,
                -0.4886306814454626,
                -1.3565690539537285
            ]
        },
        {
            "positions": [
                -0.304294032816951,
                -1.7476182992556604,
                -0.6345714316136626,
                0.8409822116956125,
                -0.4453380323394942,
                -1.4285126070400824
            ]
        },
        {
            "positions": [
                -0.419828516005718,
                -1.7669751724128848,
                -0.5851465415327592,
                0.9328873333474896,
                -0.40204538323352534,
                -1.5004561601264368
            ]
        },
        {
            "positions": [
                -0.5353629991944846,
                -1.7863320455701093,
                -0.5357216514518561,
                1.0247924549993672,
                -0.3587527341275567,
                -1.5723997132127914
            ]
        },
        {
            "positions": [
                -0.6508974823832507,
                -1.8056889187273335,
                -0.486296761370953,
                1.116697576651244,
                -0.31546008502158807,
                -1.644343266299145
            ]
        },
        {
            "positions": [
                -0.7664319655720178,
                -1.8250457918845577,
                -0.4368718712900497,
                1.208602698303121,
                -0.2721674359156192,
                -1.7162868193854997
            ]
        },
        {
            "positions": [
                -0.8819664487607843,
                -1.8444026650417822,
                -0.38744698120914656,
                1.3005078199549986,
                -0.22887478680965057,
                -1.7882303724718538
            ]
        },
        {
            "positions": [
                -0.9975009319495505,
                -1.8637595381990066,
                -0.33802209112824344,
                1.3924129416068753,
                -0.18558213770368193,
                -1.860173925558208
            ]
        },
        {
            "positions": [
                -1.113035415138317,
                -1.8831164113562309,
                -0.2885972010473403,
                1.484318063258753,
                -0.1422894885977133,
                -1.9321174786445625
            ]
        },
        {
            "positions": [
                -1.228569898327084,
                -1.9024732845134553,
                -0.23917231096643699,
                1.57622318491063,
                -0.09899683949174443,
                -2.0040610317309167
            ]
        },
        {
            "positions": [
                -1.3441043815158498,
                -1.9218301576706796,
                -0.1897474208855341,
                1.6681283065625072,
                -0.05570419038577601,
                -2.076004584817271
            ]
        },
        {
            "positions": [
                -1.4596388647046163,
                -1.941187030827904,
                -0.14032253080463075,
                1.7600334282143844,
                -0.012411541279807148,
                -2.147948137903625
            ]
        },
        {
            "positions": [
                -1.5751733478933838,
                -1.9605439039851285,
                -0.09089764072372741,
                1.8519385498662615,
                0.030881107826161713,
                -2.2198916909899795
            ]
        },
        {
            "positions": [
                -1.6907078310821495,
                -1.9799007771423525,
                -0.04147275064282452,
                1.9438436715181386,
                0.07417375693213013,
                -2.291835244076333
            ]
        },
        {
            "positions": [
                -1.806242314270916,
                -1.999257650299577,
                0.00795213943807882,
                2.035748793170016,
                0.11746640603809899,
                -2.363778797162688
            ]
        },
        {
            "positions": [
                -1.9217767974596836,
                -2.0186145234568014,
                0.05737702951898194,
                2.1276539148218934,
                0.16075905514406763,
                -2.435722350249042
            ]
        },
        {
            "positions": [
                -2.0373112806484492,
                -2.037971396614026,
                0.10680191959988483,
                2.21955903647377,
                0.20405170425003627,
                -2.507665903335396
            ]
        },
        {
            "positions": [
                -2.152845763837216,
                -2.05732826977125,
                0.15622680968078817,
                2.3114641581256476,
                0.2473443533560049,
                -2.5796094564217507
            ]
        },
        {
            "positions": [
                -2.2683802470259824,
                -2.0766851429284743,
                0.2056516997616915,
                2.403369279777525,
                0.29063700246197377,
                -2.651553009508105
            ]
        },
        {
            "positions": [
                -2.383914730214749,
                -2.0960420160856987,
                0.2550765898425944,
                2.495274401429402,
                0.3339296515679424,
                -2.723496562594459
            ]
        },
        {
            "positions": [
                -2.4994492134035156,
                -2.115398889242923,
                0.30450147992349774,
                2.5871795230812786,
                0.37722230067391105,
                -2.795440115680813
            ]
        },
        {
            "positions": [
                -2.614983696592282,
                -2.1347557624001476,
                0.3539263700044011,
                2.679084644733156,
                0.4205149497798799,
                -2.8673836687671677
            ]
        },
        {
            "positions": [
                -2.7305181797810487,
                -2.1541126355573716,
                0.403351260085304,
                2.770989766385033,
                0.46380759888584855,
                -2.9393272218535214
            ]
        },
        {
            "positions": [
                -2.8460526629698157,
                -2.173469508714596,
                0.4527761501662071,
                2.862894888036911,
                0.5071002479918172,
                -3.011270774939876
            ]
        },
        {
            "positions": [
                -2.727320582452158,
                -2.132490740901399,
                0.5142415014021027,
                2.714055881026016,
                0.49199647651049827,
                -3.0159679010430627
            ]
        },
        {
            "positions": [
                -2.6085885019345,
                -2.091511973088202,
                0.5757068526379981,
                2.56521687401512,
                0.47689270502917935,
                -3.0206650271462494
            ]
        },
        {
            "positions": [
                -2.4898564214168415,
                -2.050533205275005,
                0.6371722038738937,
                2.416377867004225,
                0.46178893354786044,
                -3.025362153249436
            ]
        },
        {
            "positions": [
                -2.3711243408991836,
                -2.009554437461808,
                0.6986375551097892,
                2.26753885999333,
                0.4466851620665415,
                -3.0300592793526233
            ]
        },
        {
            "positions": [
                -2.2523922603815256,
                -1.9685756696486114,
                0.7601029063456848,
                2.1186998529824344,
                0.4315813905852226,
                -3.03475640545581
            ]
        },
        {
            "positions": [
                -2.1336601798638677,
                -1.9275969018354144,
                0.8215682575815804,
                1.9698608459715394,
                0.4164776191039037,
                -3.039453531558997
            ]
        },
        {
            "positions": [
                -2.0149280993462098,
                -1.8866181340222175,
                0.883033608817476,
                1.821021838960644,
                0.40137384762258477,
                -3.0441506576621835
            ]
        },
        {
            "positions": [
                -1.8961960188285514,
                -1.8456393662090205,
                0.9444989600533714,
                1.6721828319497487,
                0.38627007614126585,
                -3.0488477837653702
            ]
        },
        {
            "positions": [
                -1.7774639383108937,
                -1.8046605983958237,
                1.0059643112892669,
                1.5233438249388536,
                0.37116630465994693,
                -3.053544909868557
            ]
        },
        {
            "positions": [
                -1.6587318577932355,
                -1.7636818305826267,
                1.0674296625251625,
                1.3745048179279582,
                0.356062533178628,
                -3.058242035971744
            ]
        },
        {
            "positions": [
                -1.5399997772755776,
                -1.7227030627694297,
                1.128895013761058,
                1.225665810917063,
                0.3409587616973091,
                -3.062939162074931
            ]
        },
        {
            "positions": [
                -1.4212676967579194,
                -1.6817242949562328,
                1.1903603649969536,
                1.076826803906168,
                0.3258549902159902,
                -3.0676362881781176
            ]
        },
        {
            "positions": [
                -1.3025356162402615,
                -1.6407455271430358,
                1.2518257162328492,
                0.9279877968952723,
                0.31075121873467126,
                -3.0723334142813044
            ]
        },
        {
            "positions": [
                -1.1838035357226033,
                -1.5997667593298388,
                1.3132910674687448,
                0.7791487898843772,
                0.29564744725335235,
                -3.077030540384491
            ]
        },
        {
            "positions": [
                -1.0650714552049454,
                -1.5587879915166418,
                1.3747564187046402,
                0.630309782873482,
                0.28054367577203343,
                -3.081727666487678
            ]
        },
        {
            "positions": [
                -0.9463393746872872,
                -1.5178092237034448,
                1.4362217699405357,
                0.48147077586258646,
                0.2654399042907145,
                -3.086424792590865
            ]
        },
        {
            "positions": [
                -0.8276072941696291,
                -1.4768304558902479,
                1.4976871211764313,
                0.3326317688516913,
                0.2503361328093956,
                -3.0911219186940517
            ]
        },
        {
            "positions": [
                -0.7088752136519716,
                -1.435851688077051,
                1.5591524724123267,
                0.18379276184079618,
                0.23523236132807668,
                -3.0958190447972385
            ]
        },
        {
            "positions": [
                -0.5901431331343132,
                -1.3948729202638541,
                1.6206178236482223,
                0.03495375482990104,
                0.22012858984675776,
                -3.100516170900425
            ]
        },
        {
            "positions": [
                -0.4714110526166553,
                -1.3538941524506571,
                1.6820831748841178,
                -0.11388525218099455,
                0.20502481836543884,
                -3.105213297003612
            ]
        },
        {
            "positions": [
                -0.35267897209899735,
                -1.3129153846374604,
                1.7435485261200134,
                -0.2627242591918897,
                0.18992104688411993,
                -3.1099104231067987
            ]
        },
        {
            "positions": [
                -0.2339468915813394,
                -1.2719366168242634,
                1.805013877355909,
                -0.4115632662027848,
                0.174817275402801,
                -3.114607549209986
            ]
        },
        {
            "positions": [
                -0.11521481106368103,
                -1.2309578490110664,
                1.8664792285918046,
                -0.5604022732136804,
                0.1597135039214821,
                -3.1193046753131726
            ]
        },
        {
            "positions": [
                0.003517269453976901,
                -1.1899790811978694,
                1.9279445798277,
                -0.7092412802245751,
                0.14460973244016317,
                -3.1240018014163593
            ]
        },
        {
            "positions": [
                0.12224934997163482,
                -1.1490003133846725,
                1.9894099310635955,
                -0.8580802872354707,
                0.12950596095884423,
                -3.128698927519546
            ]
        }
    ]
}{
    "goal": {
        "global_pose": {
            "orientation": {
                "w": 0.7047431468963623,
                "x": -0.7094548344612122,
                "y": 0.0024358443915843964,
                "z": -0.0022348060738295317
            },
            "position": {
                "x": 0.6094750761985779,
                "y": 0.3671506643295288,
                "z": 0.19426114857196808
            }
        },
        "name": "move_to_magneteinheit_A"
    },
    "id": "PRMstar_move_to_magneteinheit_A_64",
    "joint_names": [
        "shoulder_pan_joint",
        "shoulder_lift_joint",
        "elbow_joint",
        "wrist_1_joint",
        "wrist_2_joint",
        "wrist_3_joint"
    ],
    "metrics": {
        "cart_traj_len": 1.4919848965499576,
        "distance_elbow_joint": 0.4901219835864614,
        "distance_shoulder_lift_joint": 0.7669823382412566,
        "distance_shoulder_pan_joint": 1.2413820980930335,
        "distance_wrist_1_joint": 0.8821259747499576,
        "distance_wrist_2_joint": 1.4338159826896992,
        "distance_wrist_3_joint": 4.375157869749209,
        "smoothness": 0.06360820017503244,
        "time": 5.028285426,
        "traj_len": 3.0314330352342633,
        "weighted_distance": 4.500649280275868
    },
    "planner": "PRMstar",
    "start": {
        "state": {
            "elbow_joint": 1.919643534880228,
            "shoulder_lift_joint": -1.8972525353963687,
            "shoulder_pan_joint": -1.1188672234189438,
            "wrist_1_joint": -1.5931878212786155,
            "wrist_2_joint": 1.5706036197970081,
            "wrist_3_joint": 1.118896926603594
        }
    },
    "waypoints": [
        {
            "positions": [
                -1.1188672234189438,
                -1.8972525353963687,
                1.919643534880228,
                -1.5931878212786155,
                1.5706036197970081,
                1.118896926603594
            ]
        },
        {
            "positions": [
                -1.0790670985729125,
                -1.825466874002354,
                1.897018709408877,
                -1.513373685536776,
                1.4805934754528314,
                1.0431079059117698
            ]
        },
        {
            "positions": [
                -1.0392669737268811,
                -1.7536812126083396,
                1.874393883937526,
                -1.4335595497949367,
                1.3905833311086546,
                0.9673188852199456
            ]
        },
        {
            "positions": [
                -0.9994668488808499,
                -1.681895551214325,
                1.851769058466175,
                -1.3537454140530973,
                1.3005731867644779,
                0.8915298645281213
            ]
        },
        {
            "positions": [
                -0.9596667240348186,
                -1.6101098898203103,
                1.829144232994824,
                -1.273931278311258,
                1.210563042420301,
                0.8157408438362972
            ]
        },
        {
            "positions": [
                -0.9198665991887872,
                -1.538324228426296,
                1.806519407523473,
                -1.1941171425694186,
                1.1205528980761243,
                0.7399518231444729
            ]
        },
        {
            "positions": [
                -0.8800664743427559,
                -1.4665385670322812,
                1.7838945820521221,
                -1.1143030068275792,
                1.0305427537319476,
                0.6641628024526487
            ]
        },
        {
            "positions": [
                -0.8402663494967246,
                -1.3947529056382666,
                1.7612697565807711,
                -1.0344888710857398,
                0.940532609387771,
                0.5883737817608246
            ]
        },
        {
            "positions": [
                -0.8004662246506933,
                -1.3229672442442522,
                1.73864493110942,
                -0.9546747353439005,
                0.8505224650435941,
                0.5125847610690003
            ]
        },
        {
            "positions": [
                -0.7606660998046619,
                -1.2511815828502373,
                1.716020105638069,
                -0.8748605996020611,
                0.7605123206994174,
                0.43679574037717606
            ]
        },
        {
            "positions": [
                -0.7208659749586306,
                -1.1793959214562229,
                1.693395280166718,
                -0.7950464638602217,
                0.6705021763552407,
                0.3610067196853519
            ]
        },
        {
            "positions": [
                -0.6606244856991506,
                -1.1758869411490007,
                1.712243403657643,
                -0.7890475626222528,
                0.6323797092661028,
                0.10263045805456855
            ]
        },
        {
            "positions": [
                -0.6003829964396706,
                -1.1723779608417784,
                1.7310915271485683,
                -0.783048661384284,
                0.5942572421769647,
                -0.15574580357621481
            ]
        },
        {
            "positions": [
                -0.5401415071801906,
                -1.1688689805345562,
                1.7499396506394933,
                -0.7770497601463152,
                0.5561347750878268,
                -0.41412206520699824
            ]
        },
        {
            "positions": [
                -0.4799000179207106,
                -1.165360000227334,
                1.7687877741304183,
                -0.7710508589083463,
                0.5180123079986889,
                -0.6724983268377815
            ]
        },
        {
            "positions": [
                -0.4196585286612306,
                -1.161851019920112,
                1.7876358976213436,
                -0.7650519576703775,
                0.4798898409095509,
                -0.930874588468565
            ]
        },
        {
            "positions": [
                -0.3594170394017506,
                -1.1583420396128896,
                1.8064840211122686,
                -0.7590530564324086,
                0.441767373820413,
                -1.1892508500993484
            ]
        },
        {
            "positions": [
                -0.2991755501422706,
                -1.1548330593056675,
                1.8253321446031938,
                -0.7530541551944399,
                0.403644906731275,
                -1.4476271117301318
            ]
        },
        {
            "positions": [
                -0.23893406088279062,
                -1.1513240789984454,
                1.8441802680941188,
                -0.747055253956471,
                0.3655224396421371,
                -1.706003373360915
            ]
        },
        {
            "positions": [
                -0.17869257162331054,
                -1.147815098691223,
                1.8630283915850439,
                -0.7410563527185021,
                0.3273999725529991,
                -1.9643796349916989
            ]
        },
        {
            "positions": [
                -0.11845108236383062,
                -1.1443061183840009,
                1.881876515075969,
                -0.7350574514805333,
                0.28927750546386116,
                -2.222755896622482
            ]
        },
        {
            "positions": [
                -0.05820959310435059,
                -1.1407971380767787,
                1.900724638566894,
                -0.7290585502425644,
                0.2511550383747232,
                -2.4811321582532653
            ]
        },
        {
            "positions": [
                0.0020318961551293313,
                -1.1372881577695566,
                1.9195727620578191,
                -0.7230596490045956,
                0.21303257128558528,
                -2.7395084198840487
            ]
        },
        {
            "positions": [
                0.06227338541460947,
                -1.1337791774623343,
                1.9384208855487444,
                -0.7170607477666268,
                0.17491010419644726,
                -2.997884681514832
            ]
        },
        {
            "positions": [
                0.12251487467408943,
                -1.1302701971551121,
                1.9572690090396694,
                -0.7110618465286579,
                0.13678763710730937,
                -3.2562609431456155
            ]
        }
    ]
}