{
    "goal": {
        "global_pose": {
            "orientation": {
                "w": 0.5084816217422485,
                "x": -0.49083608388900757,
                "y": 0.5182115435600281,
                "z": -0.4816462993621826
            },
            "position": {
                "x": 0.5540239810943604,
                "y": 0.030875300988554955,
                "z": 0.16403168439865112
            }
        },
        "name": "move_to_storage_A"
    },
    "id": "PRMstar_move_to_storage_A_69",
    "joint_names": [
        "shoulder_pan_joint",
        "shoulder_lift_joint",
        "elbow_joint",
        "wrist_1_joint",
        "wrist_2_joint",
        "wrist_3_joint"
    ],
    "metrics": {
        "cart_traj_len": 0.353751217313805,
        "distance_elbow_joint": 0.4483717134215546,
        "distance_shoulder_lift_joint": 0.2350923759037351,
        "distance_shoulder_pan_joint": 0.46322969908864786,
        "distance_wrist_1_joint": 0.2352460513160054,
        "distance_wrist_2_joint": 1.0974325104430136,
        "distance_wrist_3_joint": 0.09275433976879688,
        "smoothness": 0.0,
        "time": 5.003637004000001,
        "traj_len": 1.6037851133932355,
        "weighted_distance": 2.0224524546298652
    },
    "planner": "PRMstar",
    "start": {
        "state": {
            "elbow_joint": 1.9715477243005601,
            "shoulder_lift_joint": -1.1394853015351272,
            "shoulder_pan_joint": 0.12281154014795169,
            "wrist_1_joint": -0.7804696478968182,
            "wrist_2_joint": 0.12958648046900423,
            "wrist_3_joint": -3.192491284697111
        }
    },
    "waypoints": [
        {
            "positions": [
                0.12281154014795169,
                -1.1394853015351272,
                1.9715477243005601,
                -0.7804696478968182,
                0.12958648046900423,
                -3.192491284697111
            ]
        },
        {
            "positions": [
                0.05663586884957343,
                -1.1730699266642322,
                2.0356008262179253,
                -0.8140762266562475,
                0.2863625533894347,
                -3.1792406647301403
            ]
        },
        {
            "positions": [
                -0.009539802448804827,
                -1.2066545517933371,
                2.09965392813529,
                -0.8476828054156769,
                0.4431386263098652,
                -3.165990044763169
            ]
        },
        {
            "positions": [
                -0.07571547374718308,
                -1.2402391769224421,
                2.163707030052655,
                -0.8812893841751062,
                0.5999146992302957,
                -3.152739424796198
            ]
        },
        {
            "positions": [
                -0.14189114504556133,
                -1.273823802051547,
                2.2277601319700198,
                -0.9148959629345356,
                0.7566907721507262,
                -3.1394888048292273
            ]
        },
        {
            "positions": [
                -0.20806681634393964,
                -1.3074084271806523,
                2.291813233887385,
                -0.9485025416939649,
                0.9134668450711568,
                -3.1262381848622565
            ]
        },
        {
            "positions": [
                -0.27424248764231784,
                -1.3409930523097573,
                2.3558663358047496,
                -0.9821091204533943,
                1.070242917991587,
                -3.112987564895285
            ]
        },
        {
            "positions": [
                -0.34041815894069616,
                -1.3745776774388623,
                2.4199194377221147,
                -1.0157156992128236,
                1.2270189909120177,
                -3.0997369449283143
            ]
        }
    ]
}