{
    "goal": {
        "global_pose": {
            "orientation": {
                "w": 0.5084816217422485,
                "x": -0.49083608388900757,
                "y": 0.5182115435600281,
                "z": -0.4816462993621826
            },
            "position": {
                "x": 0.5540239810943604,
                "y": 0.030875300988554955,
                "z": 0.16403168439865112
            }
        },
        "name": "move_to_storage_A"
    },
    "id": "PRMstar_move_to_storage_A_49",
    "joint_names": [
        "shoulder_pan_joint",
        "shoulder_lift_joint",
        "elbow_joint",
        "wrist_1_joint",
        "wrist_2_joint",
        "wrist_3_joint"
    ],
    "metrics": {
        "cart_traj_len": 0.35339404113182904,
        "distance_elbow_joint": 0.44778951342804296,
        "distance_shoulder_lift_joint": 0.23549207843990794,
        "distance_shoulder_pan_joint": 0.46143320204499944,
        "distance_wrist_1_joint": 0.2345627384979555,
        "distance_wrist_2_joint": 1.1024055938426827,
        "distance_wrist_3_joint": 0.08759321367263784,
        "smoothness": 4.440892098500626e-16,
        "time": 5.01162108,
        "traj_len": 1.6028962349217202,
        "weighted_distance": 2.0202552065548898
    },
    "planner": "PRMstar",
    "start": {
        "state": {
            "elbow_joint": 1.9715477243005601,
            "shoulder_lift_joint": -1.1394853015351272,
            "shoulder_pan_joint": 0.12281154014795169,
            "wrist_1_joint": -0.7804696478968182,
            "wrist_2_joint": 0.12958648046900423,
            "wrist_3_joint": -3.192491284697111
        }
    },
    "waypoints": [
        {
            "positions": [
                0.12281154014795169,
                -1.1394853015351272,
                1.9715477243005601,
                -0.7804696478968182,
                0.12958648046900423,
                -3.192491284697111
            ]
        },
        {
            "positions": [
                0.056892511284380345,
                -1.1731270270265426,
                2.0355176547902807,
                -0.8139786105393833,
                0.28707299387510177,
                -3.179977968458163
            ]
        },
        {
            "positions": [
                -0.009026517579190999,
                -1.206768752517958,
                2.099487585280001,
                -0.8474875731819483,
                0.44455950728119925,
                -3.1674646522192145
            ]
        },
        {
            "positions": [
                -0.07494554644276234,
                -1.2404104780093734,
                2.1634575157697213,
                -0.8809965358245133,
                0.6020460206872968,
                -3.1549513359802663
            ]
        },
        {
            "positions": [
                -0.14086457530633367,
                -1.2740522035007888,
                2.227427446259442,
                -0.9145054984670784,
                0.7595325340933943,
                -3.142438019741318
            ]
        },
        {
            "positions": [
                -0.20678360416990504,
                -1.3076939289922043,
                2.2913973767491624,
                -0.9480144611096435,
                0.9170190474994918,
                -3.12992470350237
            ]
        },
        {
            "positions": [
                -0.27270263303347636,
                -1.3413356544836197,
                2.3553673072388825,
                -0.9815234237522086,
                1.0745055609055894,
                -3.1174113872634215
            ]
        },
        {
            "positions": [
                -0.33862166189704773,
                -1.374977379975035,
                2.419337237728603,
                -1.0150323863947737,
                1.231992074311687,
                -3.1048980710244733
            ]
        }
    ]
}