{
    "goal": {
        "global_pose": {
            "orientation": {
                "w": 0.7047431468963623,
                "x": -0.7094548344612122,
                "y": 0.0024358443915843964,
                "z": -0.0022348060738295317
            },
            "position": {
                "x": 0.6094750761985779,
                "y": 0.3671506643295288,
                "z": 0.19426114857196808
            }
        },
        "name": "move_to_magneteinheit_A"
    },
    "id": "PRMstar_move_to_magneteinheit_A_37",
    "joint_names": [
        "shoulder_pan_joint",
        "shoulder_lift_joint",
        "elbow_joint",
        "wrist_1_joint",
        "wrist_2_joint",
        "wrist_3_joint"
    ],
    "metrics": {
        "cart_traj_len": 4.0288392883776405,
        "distance_elbow_joint": 3.875369908901088,
        "distance_shoulder_lift_joint": 0.6178726012794902,
        "distance_shoulder_pan_joint": 3.061701398475737,
        "distance_wrist_1_joint": 0.8434194166029624,
        "distance_wrist_2_joint": 1.705979255481934,
        "distance_wrist_3_joint": 2.5903716298803214,
        "smoothness": 0.13496074010567308,
        "time": 5.047635349999999,
        "traj_len": 3.562964244926061,
        "weighted_distance": 4.519386699815261
    },
    "planner": "PRMstar",
    "start": {
        "state": {
            "elbow_joint": -1.919618573717145,
            "shoulder_lift_joint": -1.2443395971678275,
            "shoulder_pan_joint": 2.6996025300909787,
            "wrist_1_joint": -1.548550951253194,
            "wrist_2_joint": -1.5709469090946802,
            "wrist_3_joint": 0.4420197732051276
        }
    },
    "waypoints": [
        {
            "positions": [
                2.6996025300909787,
                -1.2443395971678275,
                -1.919618573717145,
                -1.548550951253194,
                -1.5709469090946802,
                0.4420197732051276
            ]
        },
        {
            "positions": [
                2.5951799208683464,
                -1.2307891517997,
                -1.7996787307338982,
                -1.5392633949281505,
                -1.5125211777454715,
                0.5207729945264721
            ]
        },
        {
            "positions": [
                2.490757311645714,
                -1.2172387064315728,
                -1.6797388877506514,
                -1.5299758386031066,
                -1.4540954463962628,
                0.5995262158478166
            ]
        },
        {
            "positions": [
                2.386334702423082,
                -1.2036882610634454,
                -1.5597990447674046,
                -1.520688282278063,
                -1.395669715047054,
                0.6782794371691612
            ]
        },
        {
            "positions": [
                2.2819120932004497,
                -1.1901378156953182,
                -1.439859201784158,
                -1.5114007259530193,
                -1.3372439836978454,
                0.7570326584905057
            ]
        },
        {
            "positions": [
                2.1774894839778174,
                -1.1765873703271907,
                -1.3199193588009113,
                -1.5021131696279755,
                -1.2788182523486364,
                0.8357858798118503
            ]
        },
        {
            "positions": [
                2.073066874755185,
                -1.1630369249590635,
                -1.1999795158176645,
                -1.4928256133029318,
                -1.220392520999428,
                0.9145391011331948
            ]
        },
        {
            "positions": [
                1.9686442655325527,
                -1.149486479590936,
                -1.0800396728344177,
                -1.4835380569778882,
                -1.161966789650219,
                0.9932923224545394
            ]
        },
        {
            "positions": [
                1.8642216563099203,
                -1.1359360342228086,
                -0.9600998298511709,
                -1.4742505006528444,
                -1.1035410583010103,
                1.0720455437758838
            ]
        },
        {
            "positions": [
                1.7597990470872882,
                -1.1223855888546814,
                -0.8401599868679241,
                -1.4649629443278007,
                -1.0451153269518016,
                1.1507987650972284
            ]
        },
        {
            "positions": [
                1.6553764378646558,
                -1.108835143486554,
                -0.7202201438846774,
                -1.455675388002757,
                -0.986689595602593,
                1.2295519864185729
            ]
        },
        {
            "positions": [
                1.5509538286420237,
                -1.0952846981184268,
                -0.6002803009014306,
                -1.4463878316777132,
                -0.9282638642533843,
                1.3083052077399175
            ]
        },
        {
            "positions": [
                1.4465312194193913,
                -1.0817342527502993,
                -0.4803404579181838,
                -1.4371002753526696,
                -0.8698381329041756,
                1.387058429061262
            ]
        },
        {
            "positions": [
                1.342108610196759,
                -1.0681838073821721,
                -0.360400614934937,
                -1.427812719027626,
                -0.8114124015549667,
                1.4658116503826066
            ]
        },
        {
            "positions": [
                1.2376860009741268,
                -1.0546333620140447,
                -0.24046077195169024,
                -1.418525162702582,
                -0.752986670205758,
                1.544564871703951
            ]
        },
        {
            "positions": [
                1.1332633917514943,
                -1.0410829166459172,
                -0.12052092896844346,
                -1.4092376063775385,
                -0.6945609388565492,
                1.6233180930252957
            ]
        },
        {
            "positions": [
                1.0288407825288621,
                -1.02753247127779,
                -0.0005810859851969052,
                -1.3999500500524948,
                -0.6361352075073406,
                1.7020713143466402
            ]
        },
        {
            "positions": [
                0.9244181733062298,
                -1.0139820259096626,
                0.11935875699805032,
                -1.390662493727451,
                -0.5777094761581318,
                1.7808245356679848
            ]
        },
        {
            "positions": [
                0.8199955640835976,
                -1.0004315805415354,
                0.23929859998129666,
                -1.3813749374024074,
                -0.5192837448089231,
                1.8595777569893293
            ]
        },
        {
            "positions": [
                0.7155729548609651,
                -0.9868811351734079,
                0.35923844296454344,
                -1.3720873810773637,
                -0.46085801345971444,
                1.938330978310674
            ]
        },
        {
            "positions": [
                0.6111503456383329,
                -0.9733306898052806,
                0.4791782859477902,
                -1.3627998247523199,
                -0.40243228211050575,
                2.017084199632018
            ]
        },
        {
            "positions": [
                0.5067277364157006,
                -0.9597802444371533,
                0.599118128931037,
                -1.3535122684272762,
                -0.34400655076129705,
                2.095837420953363
            ]
        },
        {
            "positions": [
                0.40230512719306866,
                -0.9462297990690259,
                0.7190579719142838,
                -1.3442247121022326,
                -0.28558081941208835,
                2.1745906422747074
            ]
        },
        {
            "positions": [
                0.29788251797043586,
                -0.9326793537008986,
                0.8389978148975306,
                -1.3349371557771887,
                -0.22715508806287943,
                2.253343863596052
            ]
        },
        {
            "positions": [
                0.19345990874780394,
                -0.9191289083327712,
                0.9589376578807773,
                -1.3256495994521451,
                -0.16872935671367095,
                2.3320970849173963
            ]
        },
        {
            "positions": [
                0.08903729952517159,
                -0.905578462964644,
                1.0788775008640241,
                -1.3163620431271015,
                -0.11030362536446203,
                2.410850306238741
            ]
        },
        {
            "positions": [
                -0.01538530969746077,
                -0.8920280175965165,
                1.198817343847271,
                -1.3070744868020576,
                -0.051877894015253334,
                2.4896035275600856
            ]
        },
        {
            "positions": [
                -0.11980791892009315,
                -0.8784775722283892,
                1.3187571868305177,
                -1.297786930477014,
                0.006547837333955399,
                2.5683567488814303
            ]
        },
        {
            "positions": [
                -0.07942609400931548,
                -0.9204793349517312,
                1.4249228782227554,
                -1.1990110311725504,
                0.027961922176171765,
                2.6456958579154333
            ]
        },
        {
            "positions": [
                -0.03904426909853781,
                -0.9624810976750732,
                1.531088569614993,
                -1.1002351318680865,
                0.04937600701838813,
                2.7230349669494367
            ]
        },
        {
            "positions": [
                0.0013375558122398767,
                -1.004482860398415,
                1.6372542610072307,
                -1.001459232563623,
                0.0707900918606045,
                2.8003740759834397
            ]
        },
        {
            "positions": [
                0.041719380723017535,
                -1.046484623121757,
                1.7434199523994685,
                -0.9026833332591592,
                0.09220417670282086,
                2.8777131850174427
            ]
        },
        {
            "positions": [
                0.08210120563379525,
                -1.088486385845099,
                1.849585643791706,
                -0.8039074339546954,
                0.11361826154503724,
                2.955052294051446
            ]
        },
        {
            "positions": [
                0.12248303054457291,
                -1.130488148568441,
                1.9557513351839437,
                -0.7051315346502317,
                0.1350323463872536,
                3.032391403085449
            ]
        }
    ]
}{
    "goal": {
        "global_pose": {
            "orientation": {
                "w": 0.7047431468963623,
                "x": -0.7094548344612122,
                "y": 0.0024358443915843964,
                "z": -0.0022348060738295317
            },
            "position": {
                "x": 0.6094750761985779,
                "y": 0.3671506643295288,
                "z": 0.19426114857196808
            }
        },
        "name": "move_to_magneteinheit_A"
    },
    "id": "PRMstar_move_to_magneteinheit_A_37",
    "joint_names": [
        "shoulder_pan_joint",
        "shoulder_lift_joint",
        "elbow_joint",
        "wrist_1_joint",
        "wrist_2_joint",
        "wrist_3_joint"
    ],
    "metrics": {
        "cart_traj_len": 1.3482100263447863,
        "distance_elbow_joint": 0.34550376689847506,
        "distance_shoulder_lift_joint": 0.7538799414559667,
        "distance_shoulder_pan_joint": 1.242420215002882,
        "distance_wrist_1_joint": 0.7751395931000407,
        "distance_wrist_2_joint": 1.442679537218802,
        "distance_wrist_3_joint": 4.271012234218585,
        "smoothness": 0.04536666516519076,
        "time": 5.045298406000001,
        "traj_len": 2.9716384853973663,
        "weighted_distance": 4.426113293472137
    },
    "planner": "PRMstar",
    "start": {
        "state": {
            "elbow_joint": 1.919643534880228,
            "shoulder_lift_joint": -1.8972525353963687,
            "shoulder_pan_joint": -1.1188672234189438,
            "wrist_1_joint": -1.5931878212786155,
            "wrist_2_joint": 1.5706036197970081,
            "wrist_3_joint": 1.118896926603594
        }
    },
    "waypoints": [
        {
            "positions": [
                -1.1188672234189438,
                -1.8972525353963687,
                1.919643534880228,
                -1.5931878212786155,
                1.5706036197970081,
                1.118896926603594
            ]
        },
        {
            "positions": [
                -1.045854259319663,
                -1.8961492098493742,
                1.906667044108258,
                -1.5785820410644866,
                1.5479587044807512,
                0.8660125746644672
            ]
        },
        {
            "positions": [
                -0.9728412952203818,
                -1.8950458843023796,
                1.8936905533362882,
                -1.563976260850358,
                1.5253137891644943,
                0.6131282227253405
            ]
        },
        {
            "positions": [
                -0.8998283311211008,
                -1.893942558755385,
                1.8807140625643182,
                -1.5493704806362292,
                1.5026688738482374,
                0.3602438707862138
            ]
        },
        {
            "positions": [
                -0.8268153670218197,
                -1.8928392332083905,
                1.8677375717923481,
                -1.5347647004221006,
                1.4800239585319805,
                0.10735951884708705
            ]
        },
        {
            "positions": [
                -0.7538024029225388,
                -1.891735907661396,
                1.8547610810203783,
                -1.5201589202079717,
                1.4573790432157236,
                -0.14552483309203978
            ]
        },
        {
            "positions": [
                -0.6807894388232578,
                -1.8906325821144014,
                1.8417845902484082,
                -1.505553139993843,
                1.4347341278994667,
                -0.3984091850311664
            ]
        },
        {
            "positions": [
                -0.6077764747239767,
                -1.889529256567407,
                1.8288080994764384,
                -1.4909473597797143,
                1.4120892125832096,
                -0.6512935369702932
            ]
        },
        {
            "positions": [
                -0.5347635106246956,
                -1.8884259310204123,
                1.8158316087044684,
                -1.4763415795655856,
                1.3894442972669527,
                -0.9041778889094199
            ]
        },
        {
            "positions": [
                -0.4617505465254146,
                -1.8873226054734178,
                1.8028551179324983,
                -1.4617357993514568,
                1.3667993819506958,
                -1.157062240848547
            ]
        },
        {
            "positions": [
                -0.38873758242613365,
                -1.8862192799264232,
                1.7898786271605285,
                -1.4471300191373282,
                1.344154466634439,
                -1.4099465927876735
            ]
        },
        {
            "positions": [
                -0.3157246183268526,
                -1.8851159543794287,
                1.7769021363885584,
                -1.4325242389231994,
                1.321509551318182,
                -1.6628309447268002
            ]
        },
        {
            "positions": [
                -0.2791181508342867,
                -1.8233040076761764,
                1.7937990004224589,
                -1.3813179046944806,
                1.2220440955898506,
                -1.7869379749674827
            ]
        },
        {
            "positions": [
                -0.24251168334172085,
                -1.7614920609729243,
                1.8106958644563593,
                -1.330111570465762,
                1.1225786398615194,
                -1.9110450052081653
            ]
        },
        {
            "positions": [
                -0.20590521584915494,
                -1.699680114269672,
                1.8275927284902598,
                -1.2789052362370432,
                1.0231131841331882,
                -2.035152035448848
            ]
        },
        {
            "positions": [
                -0.1692987483565891,
                -1.6378681675664197,
                1.8444895925241602,
                -1.2276989020083244,
                0.9236477284048568,
                -2.1592590656895303
            ]
        },
        {
            "positions": [
                -0.13269228086402318,
                -1.5760562208631677,
                1.8613864565580607,
                -1.1764925677796056,
                0.8241822726765254,
                -2.283366095930213
            ]
        },
        {
            "positions": [
                -0.0960858133714573,
                -1.5142442741599154,
                1.8782833205919611,
                -1.125286233550887,
                0.7247168169481941,
                -2.4074731261708955
            ]
        },
        {
            "positions": [
                -0.05947934587889142,
                -1.452432327456663,
                1.8951801846258616,
                -1.0740798993221683,
                0.6252513612198628,
                -2.5315801564115783
            ]
        },
        {
            "positions": [
                -0.022872878386325568,
                -1.390620380753411,
                1.912077048659762,
                -1.0228735650934497,
                0.5257859054915315,
                -2.6556871866522607
            ]
        },
        {
            "positions": [
                0.01373358910624034,
                -1.3288084340501587,
                1.9289739126936625,
                -0.971667230864731,
                0.42632044976320016,
                -2.7797942168929435
            ]
        },
        {
            "positions": [
                0.05034005659880625,
                -1.2669964873469064,
                1.945870776727563,
                -0.9204608966360122,
                0.32685499403486884,
                -2.903901247133626
            ]
        },
        {
            "positions": [
                0.0869465240913721,
                -1.2051845406436543,
                1.9627676407614634,
                -0.8692545624072936,
                0.22738953830653763,
                -3.028008277374308
            ]
        },
        {
            "positions": [
                0.12355299158393801,
                -1.143372593940402,
                1.9796645047953638,
                -0.8180482281785748,
                0.1279240825782063,
                -3.152115307614991
            ]
        }
    ]
}