{
    "goal": {
        "global_pose": {
            "orientation": {
                "w": 0.7047431468963623,
                "x": -0.7094548344612122,
                "y": 0.0024358443915843964,
                "z": -0.0022348060738295317
            },
            "position": {
                "x": 0.6094750761985779,
                "y": 0.3671506643295288,
                "z": 0.19426114857196808
            }
        },
        "name": "move_to_magneteinheit_A"
    },
    "id": "PRMstar_move_to_magneteinheit_A_99",
    "joint_names": [
        "shoulder_pan_joint",
        "shoulder_lift_joint",
        "elbow_joint",
        "wrist_1_joint",
        "wrist_2_joint",
        "wrist_3_joint"
    ],
    "metrics": {
        "cart_traj_len": 3.61726031793301,
        "distance_elbow_joint": 3.917804332182965,
        "distance_shoulder_lift_joint": 0.6518678931966758,
        "distance_shoulder_pan_joint": 3.2035214259718856,
        "distance_wrist_1_joint": 3.6726341624321446,
        "distance_wrist_2_joint": 2.1406550576112493,
        "distance_wrist_3_joint": 0.6428595752455679,
        "smoothness": 0.1855169377132388,
        "time": 5.029411474,
        "traj_len": 3.7721800655112543,
        "weighted_distance": 4.618262748823958
    },
    "planner": "PRMstar",
    "start": {
        "state": {
            "elbow_joint": -1.919618573717145,
            "shoulder_lift_joint": -1.2443395971678275,
            "shoulder_pan_joint": 2.6996025300909787,
            "wrist_1_joint": -1.548550951253194,
            "wrist_2_joint": -1.5709469090946802,
            "wrist_3_joint": 0.4420197732051276
        }
    },
    "waypoints": [
        {
            "positions": [
                2.6996025300909787,
                -1.2443395971678275,
                -1.919618573717145,
                -1.548550951253194,
                -1.5709469090946802,
                0.4420197732051276
            ]
        },
        {
            "positions": [
                2.524839314445179,
                -1.2088919993440386,
                -1.803183958339416,
                -1.5572031320471997,
                -1.6030656133950014,
                0.4506770487185117
            ]
        },
        {
            "positions": [
                2.3500760987993785,
                -1.1734444015202496,
                -1.6867493429616869,
                -1.5658553128412056,
                -1.6351843176953227,
                0.45933432423189585
            ]
        },
        {
            "positions": [
                2.1753128831535786,
                -1.1379968036964607,
                -1.570314727583958,
                -1.5745074936352113,
                -1.6673030219956437,
                0.46799159974528
            ]
        },
        {
            "positions": [
                2.0005496675077787,
                -1.1025492058726718,
                -1.453880112206229,
                -1.583159674429217,
                -1.699421726295965,
                0.4766488752586641
            ]
        },
        {
            "positions": [
                1.8257864518619786,
                -1.0671016080488829,
                -1.3374454968285,
                -1.5918118552232228,
                -1.7315404305962863,
                0.4853061507720482
            ]
        },
        {
            "positions": [
                1.6510232362161787,
                -1.031654010225094,
                -1.2210108814507712,
                -1.6004640360172284,
                -1.7636591348966075,
                0.4939634262854323
            ]
        },
        {
            "positions": [
                1.4762600205703786,
                -0.996206412401305,
                -1.104576266073042,
                -1.6091162168112343,
                -1.7957778391969288,
                0.5026207017988165
            ]
        },
        {
            "positions": [
                1.3014968049245785,
                -0.9607588145775161,
                -0.988141650695313,
                -1.61776839760524,
                -1.8278965434972498,
                0.5112779773122006
            ]
        },
        {
            "positions": [
                1.1267335892787784,
                -0.9253112167537272,
                -0.871707035317584,
                -1.6264205783992456,
                -1.860015247797571,
                0.5199352528255847
            ]
        },
        {
            "positions": [
                0.9519703736329785,
                -0.8898636189299383,
                -0.755272419939855,
                -1.6350727591932515,
                -1.8921339520978924,
                0.5285925283389689
            ]
        },
        {
            "positions": [
                0.7772071579871784,
                -0.8544160211061493,
                -0.638837804562126,
                -1.643724939987257,
                -1.9242526563982136,
                0.537249803852353
            ]
        },
        {
            "positions": [
                0.7080961360038278,
                -0.8424141860159009,
                -0.5169826121951618,
                -1.5228281046506487,
                -1.8712607913732886,
                0.5206979835438607
            ]
        },
        {
            "positions": [
                0.6389851140204772,
                -0.8304123509256526,
                -0.39512741982819777,
                -1.4019312693140402,
                -1.8182689263483636,
                0.5041461632353684
            ]
        },
        {
            "positions": [
                0.5698740920371265,
                -0.8184105158354041,
                -0.2732722274612336,
                -1.281034433977432,
                -1.7652770613234385,
                0.4875943429268761
            ]
        },
        {
            "positions": [
                0.5007630700537758,
                -0.8064086807451558,
                -0.15141703509426946,
                -1.1601375986408236,
                -1.7122851962985137,
                0.47104252261838375
            ]
        },
        {
            "positions": [
                0.4316520480704252,
                -0.7944068456549074,
                -0.02956184272730522,
                -1.039240763304215,
                -1.6592933312735887,
                0.45449070230989147
            ]
        },
        {
            "positions": [
                0.36254102608707456,
                -0.782405010564659,
                0.09229334963965885,
                -0.9183439279676068,
                -1.6063014662486637,
                0.4379388820013992
            ]
        },
        {
            "positions": [
                0.2934300041037239,
                -0.7704031754744106,
                0.21414854200662303,
                -0.7974470926309983,
                -1.5533096012237386,
                0.42138706169290685
            ]
        },
        {
            "positions": [
                0.22431898212037327,
                -0.7584013403841623,
                0.3360037343735871,
                -0.67655025729439,
                -1.5003177361988136,
                0.4048352413844145
            ]
        },
        {
            "positions": [
                0.15520796013702254,
                -0.7463995052939139,
                0.4578589267405514,
                -0.5556534219577816,
                -1.4473258711738886,
                0.38828342107592223
            ]
        },
        {
            "positions": [
                0.08609693815367192,
                -0.7343976702036654,
                0.5797141191075156,
                -0.4347565866211731,
                -1.3943340061489637,
                0.37173160076742995
            ]
        },
        {
            "positions": [
                0.016985916170321302,
                -0.7223958351134171,
                0.7015693114744795,
                -0.31385975128456467,
                -1.3413421411240387,
                0.3551797804589376
            ]
        },
        {
            "positions": [
                -0.052125105813029315,
                -0.7103940000231687,
                0.8234245038414437,
                -0.19296291594795645,
                -1.2883502760991137,
                0.33862796015044533
            ]
        },
        {
            "positions": [
                -0.12123612779638004,
                -0.6983921649329203,
                0.9452796962084079,
                -0.072066080611348,
                -1.2353584110741886,
                0.32207613984195305
            ]
        },
        {
            "positions": [
                -0.1903471497797306,
                -0.6863903298426719,
                1.067134888575372,
                0.048830754725260495,
                -1.1823665460492636,
                0.3055243195334607
            ]
        },
        {
            "positions": [
                -0.16421617093796567,
                -0.694216881998632,
                1.1447224610662425,
                0.20590612797405744,
                -1.0952446127193665,
                0.27919898117683983
            ]
        },
        {
            "positions": [
                -0.13808519209620074,
                -0.7020434341545919,
                1.2223100335571133,
                0.3629815012228544,
                -1.0081226793894693,
                0.252873642820219
            ]
        },
        {
            "positions": [
                -0.1119542132544358,
                -0.709869986310552,
                1.2998976060479839,
                0.5200568744716514,
                -0.9210007460595722,
                0.22654830446359814
            ]
        },
        {
            "positions": [
                -0.08582323441267087,
                -0.7176965384665119,
                1.3774851785388544,
                0.6771322477204482,
                -0.8338788127296751,
                0.20022296610697732
            ]
        },
        {
            "positions": [
                -0.05969225557090593,
                -0.725523090622472,
                1.4550727510297252,
                0.8342076209692453,
                -0.7467568793997779,
                0.17389762775035644
            ]
        },
        {
            "positions": [
                -0.033561276729141,
                -0.7333496427784321,
                1.5326603235205958,
                0.9912829942180421,
                -0.6596349460698808,
                0.1475722893937356
            ]
        },
        {
            "positions": [
                -0.007430297887376064,
                -0.741176194934392,
                1.6102478960114666,
                1.1483583674668392,
                -0.5725130127399837,
                0.12124695103711472
            ]
        },
        {
            "positions": [
                0.01870068095438887,
                -0.7490027470903521,
                1.6878354685023371,
                1.305433740715636,
                -0.48539107941008663,
                0.0949216126804939
            ]
        },
        {
            "positions": [
                0.044831659796153805,
                -0.756829299246312,
                1.7654230409932077,
                1.462509113964433,
                -0.3982691460801895,
                0.06859627432387305
            ]
        },
        {
            "positions": [
                0.07096263863791874,
                -0.7646558514022721,
                1.8430106134840782,
                1.61958448721323,
                -0.3111472127502922,
                0.04227093596725218
            ]
        },
        {
            "positions": [
                0.09709361747968365,
                -0.7724824035582321,
                1.9205981859749488,
                1.7766598604620267,
                -0.22402527942039518,
                0.015945597610631357
            ]
        },
        {
            "positions": [
                0.12322459632144861,
                -0.7803089557141921,
                1.9981857584658196,
                1.9337352337108238,
                -0.13690334609049803,
                -0.01037974074598952
            ]
        }
    ]
}{
    "goal": {
        "global_pose": {
            "orientation": {
                "w": 0.7047431468963623,
                "x": -0.7094548344612122,
                "y": 0.0024358443915843964,
                "z": -0.0022348060738295317
            },
            "position": {
                "x": 0.6094750761985779,
                "y": 0.3671506643295288,
                "z": 0.19426114857196808
            }
        },
        "name": "move_to_magneteinheit_A"
    },
    "id": "PRMstar_move_to_magneteinheit_A_99",
    "joint_names": [
        "shoulder_pan_joint",
        "shoulder_lift_joint",
        "elbow_joint",
        "wrist_1_joint",
        "wrist_2_joint",
        "wrist_3_joint"
    ],
    "metrics": {
        "cart_traj_len": 1.139886181696714,
        "distance_elbow_joint": 0.1431740284430023,
        "distance_shoulder_lift_joint": 0.7480810944191465,
        "distance_shoulder_pan_joint": 1.2419131211990346,
        "distance_wrist_1_joint": 0.7262266303064321,
        "distance_wrist_2_joint": 1.4413988664919841,
        "distance_wrist_3_joint": 4.230398837201365,
        "smoothness": 0.020229589522990882,
        "time": 5.035718833000001,
        "traj_len": 2.9208205316419162,
        "weighted_distance": 4.377169833266938
    },
    "planner": "PRMstar",
    "start": {
        "state": {
            "elbow_joint": 1.919643534880228,
            "shoulder_lift_joint": -1.8972525353963687,
            "shoulder_pan_joint": -1.1188672234189438,
            "wrist_1_joint": -1.5931878212786155,
            "wrist_2_joint": 1.5706036197970081,
            "wrist_3_joint": 1.118896926603594
        }
    },
    "waypoints": [
        {
            "positions": [
                -1.1188672234189438,
                -1.8972525353963687,
                1.919643534880228,
                -1.5931878212786155,
                1.5706036197970081,
                1.118896926603594
            ]
        },
        {
            "positions": [
                -1.0672848692400274,
                -1.8788855820693542,
                1.9252845241201697,
                -1.5588400432037524,
                1.5062963152369855,
                0.9057843234434666
            ]
        },
        {
            "positions": [
                -1.0157025150611108,
                -1.8605186287423399,
                1.930925513360111,
                -1.5244922651288895,
                1.4419890106769628,
                0.6926717202833392
            ]
        },
        {
            "positions": [
                -0.9641201608821943,
                -1.8421516754153253,
                1.9365665026000527,
                -1.4901444870540264,
                1.3776817061169402,
                0.479559117123212
            ]
        },
        {
            "positions": [
                -0.9125378067032779,
                -1.8237847220883108,
                1.942207491839994,
                -1.4557967089791635,
                1.3133744015569175,
                0.2664465139630846
            ]
        },
        {
            "positions": [
                -0.8609554525243615,
                -1.8054177687612964,
                1.9478484810799357,
                -1.4214489309043004,
                1.249067096996895,
                0.05333391080295735
            ]
        },
        {
            "positions": [
                -0.8093730983454449,
                -1.787050815434282,
                1.953489470319877,
                -1.3871011528294375,
                1.1847597924368725,
                -0.15977869235717002
            ]
        },
        {
            "positions": [
                -0.7577907441665284,
                -1.7686838621072676,
                1.9591304595598187,
                -1.3527533747545744,
                1.1204524878768498,
                -0.3728912955172974
            ]
        },
        {
            "positions": [
                -0.7062083899876119,
                -1.750316908780253,
                1.96477144879976,
                -1.3184055966797112,
                1.0561451833168272,
                -0.5860038986774248
            ]
        },
        {
            "positions": [
                -0.6546260358086955,
                -1.7319499554532385,
                1.9704124380397017,
                -1.2840578186048484,
                0.9918378787568045,
                -0.7991165018375521
            ]
        },
        {
            "positions": [
                -0.603043681629779,
                -1.7135830021262242,
                1.976053427279643,
                -1.2497100405299852,
                0.9275305741967819,
                -1.0122291049976793
            ]
        },
        {
            "positions": [
                -0.5514613274508624,
                -1.6952160487992096,
                1.9816944165195847,
                -1.2153622624551224,
                0.8632232696367592,
                -1.225341708157807
            ]
        },
        {
            "positions": [
                -0.49987897327194597,
                -1.6768490954721953,
                1.987335405759526,
                -1.1810144843802592,
                0.7989159650767367,
                -1.438454311317934
            ]
        },
        {
            "positions": [
                -0.4482966190930294,
                -1.6584821421451807,
                1.9929763949994677,
                -1.1466667063053961,
                0.734608660516714,
                -1.6515669144780614
            ]
        },
        {
            "positions": [
                -0.396714264914113,
                -1.6401151888181662,
                1.998617384239409,
                -1.1123189282305332,
                0.6703013559566914,
                -1.8646795176381887
            ]
        },
        {
            "positions": [
                -0.34513191073519645,
                -1.6217482354911517,
                2.0042583734793507,
                -1.0779711501556704,
                0.6059940513966687,
                -2.077792120798316
            ]
        },
        {
            "positions": [
                -0.29354955655628,
                -1.6033812821641373,
                2.0098993627192923,
                -1.0436233720808072,
                0.5416867468366462,
                -2.2909047239584437
            ]
        },
        {
            "positions": [
                -0.24196720237736347,
                -1.5850143288371228,
                2.0155403519592334,
                -1.0092755940059441,
                0.47737944227662354,
                -2.5040173271185706
            ]
        },
        {
            "positions": [
                -0.19038484819844703,
                -1.5666473755101085,
                2.021181341199175,
                -0.9749278159310811,
                0.4130721377166009,
                -2.7171299302786984
            ]
        },
        {
            "positions": [
                -0.13880249401953043,
                -1.548280422183094,
                2.0268223304391166,
                -0.9405800378562181,
                0.34876483315657825,
                -2.9302425334388253
            ]
        },
        {
            "positions": [
                -0.051519696752989994,
                -1.41524409511447,
                2.0148239194777453,
                -0.9160404222282066,
                0.2755781398727268,
                -2.9906623258251406
            ]
        },
        {
            "positions": [
                0.035763100513550444,
                -1.2822077680458461,
                2.002825508516374,
                -0.8915008066001949,
                0.2023914465888753,
                -3.051082118211456
            ]
        },
        {
            "positions": [
                0.12304589778009091,
                -1.1491714409772222,
                1.9908270975550029,
                -0.8669611909721834,
                0.12920475330502382,
                -3.111501910597771
            ]
        }
    ]
}