{
    "goal": {
        "global_pose": {
            "orientation": {
                "w": 0.5084816217422485,
                "x": -0.49083608388900757,
                "y": 0.5182115435600281,
                "z": -0.4816462993621826
            },
            "position": {
                "x": 0.5540239810943604,
                "y": 0.030875300988554955,
                "z": 0.16403168439865112
            }
        },
        "name": "move_to_storage_A"
    },
    "id": "PRMstar_move_to_storage_A_123",
    "joint_names": [
        "shoulder_pan_joint",
        "shoulder_lift_joint",
        "elbow_joint",
        "wrist_1_joint",
        "wrist_2_joint",
        "wrist_3_joint"
    ],
    "metrics": {
        "cart_traj_len": 0.35245693977672704,
        "distance_elbow_joint": 0.44768998761300294,
        "distance_shoulder_lift_joint": 0.23499950507044987,
        "distance_shoulder_pan_joint": 0.45793010493155645,
        "distance_wrist_1_joint": 0.236171822609215,
        "distance_wrist_2_joint": 1.110111515655762,
        "distance_wrist_3_joint": 0.08726739934322447,
        "smoothness": 0.0,
        "time": 5.00849456,
        "traj_len": 1.6044221187777268,
        "weighted_distance": 2.0236077861519104
    },
    "planner": "PRMstar",
    "start": {
        "state": {
            "elbow_joint": 1.9715477243005601,
            "shoulder_lift_joint": -1.1394853015351272,
            "shoulder_pan_joint": 0.12281154014795169,
            "wrist_1_joint": -0.7804696478968182,
            "wrist_2_joint": 0.12958648046900423,
            "wrist_3_joint": -3.192491284697111
        }
    },
    "waypoints": [
        {
            "positions": [
                0.12281154014795169,
                -1.1394853015351272,
                1.9715477243005601,
                -0.7804696478968182,
                0.12958648046900423,
                -3.192491284697111
            ]
        },
        {
            "positions": [
                0.05739295372915791,
                -1.1730566594023344,
                2.0355034368167035,
                -0.8142084796981346,
                0.2881738398483988,
                -3.180024513362365
            ]
        },
        {
            "positions": [
                -0.008025632689635867,
                -1.2066280172695414,
                2.0994591493328465,
                -0.847947311499451,
                0.44676119922779334,
                -3.1675577420276184
            ]
        },
        {
            "positions": [
                -0.07344421910842965,
                -1.2401993751367486,
                2.16341486184899,
                -0.8816861433007674,
                0.6053485586071878,
                -3.1550909706928723
            ]
        },
        {
            "positions": [
                -0.1388628055272234,
                -1.2737707330039556,
                2.2273705743651333,
                -0.9154249751020839,
                0.7639359179865824,
                -3.1426241993581256
            ]
        },
        {
            "positions": [
                -0.2042813919460172,
                -1.3073420908711628,
                2.2913262868812767,
                -0.9491638069034003,
                0.9225232773659771,
                -3.1301574280233795
            ]
        },
        {
            "positions": [
                -0.26969997836481097,
                -1.3409134487383698,
                2.3552819993974197,
                -0.9829026387047167,
                1.0811106367453716,
                -3.117690656688633
            ]
        },
        {
            "positions": [
                -0.33511856478360474,
                -1.374484806605577,
                2.419237711913563,
                -1.0166414705060332,
                1.239697996124766,
                -3.1052238853538867
            ]
        }
    ]
}