{
    "goal": {
        "global_pose": {
            "orientation": {
                "w": 0.7047431468963623,
                "x": -0.7094548344612122,
                "y": 0.0024358443915843964,
                "z": -0.0022348060738295317
            },
            "position": {
                "x": 0.6094750761985779,
                "y": 0.3671506643295288,
                "z": 0.19426114857196808
            }
        },
        "name": "move_to_magneteinheit_A"
    },
    "id": "PRMstar_move_to_magneteinheit_A_147",
    "joint_names": [
        "shoulder_pan_joint",
        "shoulder_lift_joint",
        "elbow_joint",
        "wrist_1_joint",
        "wrist_2_joint",
        "wrist_3_joint"
    ],
    "metrics": {
        "cart_traj_len": 3.160092618454703,
        "distance_elbow_joint": 3.877400126335218,
        "distance_shoulder_lift_joint": 0.24042078542522471,
        "distance_shoulder_pan_joint": 2.7552766487539055,
        "distance_wrist_1_joint": 0.9611598595594184,
        "distance_wrist_2_joint": 2.715573758521798,
        "distance_wrist_3_joint": 3.6821407301659543,
        "smoothness": 0.15450194923762817,
        "time": 5.028096387,
        "traj_len": 3.7725285828952346,
        "weighted_distance": 5.027224580936746
    },
    "planner": "PRMstar",
    "start": {
        "state": {
            "elbow_joint": -1.919618573717145,
            "shoulder_lift_joint": -1.2443395971678275,
            "shoulder_pan_joint": 2.6996025300909787,
            "wrist_1_joint": -1.548550951253194,
            "wrist_2_joint": -1.5709469090946802,
            "wrist_3_joint": 0.4420197732051276
        }
    },
    "waypoints": [
        {
            "positions": [
                2.6996025300909787,
                -1.2443395971678275,
                -1.919618573717145,
                -1.548550951253194,
                -1.5709469090946802,
                0.4420197732051276
            ]
        },
        {
            "positions": [
                2.589326119967021,
                -1.2355559245481815,
                -1.8098322720586197,
                -1.5184428524714302,
                -1.5962670047693925,
                0.336342539740546
            ]
        },
        {
            "positions": [
                2.4790497098430633,
                -1.2267722519285353,
                -1.7000459704000945,
                -1.4883347536896663,
                -1.6215871004441051,
                0.23066530627596446
            ]
        },
        {
            "positions": [
                2.3687732997191056,
                -1.2179885793088894,
                -1.5902596687415695,
                -1.4582266549079024,
                -1.6469071961188175,
                0.12498807281138291
            ]
        },
        {
            "positions": [
                2.258496889595148,
                -1.2092049066892432,
                -1.4804733670830443,
                -1.4281185561261385,
                -1.67222729179353,
                0.019310839346801334
            ]
        },
        {
            "positions": [
                2.14822047947119,
                -1.2004212340695972,
                -1.3706870654245191,
                -1.3980104573443746,
                -1.6975473874682425,
                -0.08636639411778019
            ]
        },
        {
            "positions": [
                2.0379440693472324,
                -1.1916375614499513,
                -1.260900763765994,
                -1.3679023585626107,
                -1.722867483142955,
                -0.19204362758236176
            ]
        },
        {
            "positions": [
                1.9276676592232747,
                -1.182853888830305,
                -1.151114462107469,
                -1.3377942597808468,
                -1.7481875788176673,
                -0.29772086104694323
            ]
        },
        {
            "positions": [
                1.8173912490993167,
                -1.174070216210659,
                -1.0413281604489435,
                -1.3076861609990826,
                -1.7735076744923797,
                -0.4033980945115249
            ]
        },
        {
            "positions": [
                1.707114838975359,
                -1.165286543591013,
                -0.9315418587904184,
                -1.2775780622173187,
                -1.7988277701670923,
                -0.5090753279761064
            ]
        },
        {
            "positions": [
                1.5968384288514013,
                -1.156502870971367,
                -0.8217555571318933,
                -1.2474699634355548,
                -1.8241478658418047,
                -0.6147525614406879
            ]
        },
        {
            "positions": [
                1.4865620187274433,
                -1.147719198351721,
                -0.7119692554733681,
                -1.217361864653791,
                -1.8494679615165173,
                -0.7204297949052696
            ]
        },
        {
            "positions": [
                1.3762856086034858,
                -1.1389355257320748,
                -0.6021829538148431,
                -1.187253765872027,
                -1.8747880571912297,
                -0.8261070283698511
            ]
        },
        {
            "positions": [
                1.2660091984795279,
                -1.1301518531124288,
                -0.49239665215631767,
                -1.1571456670902631,
                -1.900108152865942,
                -0.9317842618344325
            ]
        },
        {
            "positions": [
                1.1557327883555704,
                -1.1213681804927826,
                -0.3826103504977927,
                -1.1270375683084992,
                -1.9254282485406544,
                -1.037461495299014
            ]
        },
        {
            "positions": [
                1.0454563782316124,
                -1.1125845078731367,
                -0.2728240488392675,
                -1.0969294695267353,
                -1.9507483442153668,
                -1.1431387287635957
            ]
        },
        {
            "positions": [
                0.9351799681076547,
                -1.1038008352534907,
                -0.16303774718074227,
                -1.0668213707449714,
                -1.9760684398900794,
                -1.2488159622281774
            ]
        },
        {
            "positions": [
                0.8249035579836972,
                -1.0950171626338445,
                -0.05325144552221728,
                -1.0367132719632075,
                -2.001388535564792,
                -1.3544931956927588
            ]
        },
        {
            "positions": [
                0.7146271478597392,
                -1.0862334900141986,
                0.056534856136308154,
                -1.0066051731814434,
                -2.0267086312395044,
                -1.4601704291573403
            ]
        },
        {
            "positions": [
                0.6043507377357815,
                -1.0774498173945524,
                0.16632115779483292,
                -0.9764970743996796,
                -2.052028726914217,
                -1.565847662621922
            ]
        },
        {
            "positions": [
                0.4940743276118239,
                -1.0686661447749064,
                0.27610745945335824,
                -0.9463889756179157,
                -2.077348822588929,
                -1.6715248960865037
            ]
        },
        {
            "positions": [
                0.4586356390456173,
                -1.073566090737014,
                0.38592002949950355,
                -0.9237548509713251,
                -1.9630003762567887,
                -1.7609889314682359
            ]
        },
        {
            "positions": [
                0.42319695047941075,
                -1.0784660366991214,
                0.49573259954564886,
                -0.9011207263247346,
                -1.8486519299246482,
                -1.8504529668499683
            ]
        },
        {
            "positions": [
                0.3877582619132042,
                -1.083365982661229,
                0.6055451695917942,
                -0.8784866016781441,
                -1.7343034835925077,
                -1.9399170022317005
            ]
        },
        {
            "positions": [
                0.35231957334699765,
                -1.0882659286233363,
                0.7153577396379395,
                -0.8558524770315534,
                -1.6199550372603673,
                -2.0293810376134327
            ]
        },
        {
            "positions": [
                0.31688088478079113,
                -1.0931658745854438,
                0.8251703096840848,
                -0.8332183523849629,
                -1.5056065909282268,
                -2.118845072995165
            ]
        },
        {
            "positions": [
                0.28144219621458455,
                -1.0980658205475513,
                0.9349828797302301,
                -0.8105842277383724,
                -1.3912581445960863,
                -2.2083091083768975
            ]
        },
        {
            "positions": [
                0.246003507648378,
                -1.1029657665096588,
                1.0447954497763754,
                -0.7879501030917818,
                -1.276909698263946,
                -2.2977731437586297
            ]
        },
        {
            "positions": [
                0.2105648190821714,
                -1.1078657124717664,
                1.1546080198225206,
                -0.7653159784451913,
                -1.1625612519318054,
                -2.387237179140362
            ]
        },
        {
            "positions": [
                0.17512613051596487,
                -1.1127656584338739,
                1.2644205898686658,
                -0.7426818537986007,
                -1.0482128055996651,
                -2.476701214522094
            ]
        },
        {
            "positions": [
                0.1396874419497583,
                -1.1176656043959812,
                1.3742331599148114,
                -0.7200477291520101,
                -0.9338643592675244,
                -2.5661652499038263
            ]
        },
        {
            "positions": [
                0.10424875338355172,
                -1.1225655503580887,
                1.4840457299609566,
                -0.6974136045054196,
                -0.8195159129353842,
                -2.655629285285559
            ]
        },
        {
            "positions": [
                0.06881006481734514,
                -1.1274654963201962,
                1.5938583000071018,
                -0.674779479858829,
                -0.7051674666032437,
                -2.745093320667291
            ]
        },
        {
            "positions": [
                0.0333713762511386,
                -1.1323654422823037,
                1.703670870053247,
                -0.6521453552122385,
                -0.5908190202711033,
                -2.8345573560490234
            ]
        },
        {
            "positions": [
                0.05563274997965498,
                -1.132103433401077,
                1.7671985406944537,
                -0.6683339210918542,
                -0.4101585095936725,
                -2.9359482562769745
            ]
        },
        {
            "positions": [
                0.07789412370817136,
                -1.1318414245198505,
                1.8307262113356604,
                -0.6845224869714699,
                -0.22949799891624173,
                -3.0373391565049253
            ]
        },
        {
            "positions": [
                0.10015549743668772,
                -1.131579415638624,
                1.894253881976867,
                -0.7007110528510856,
                -0.048837488238810955,
                -3.138730056732876
            ]
        },
        {
            "positions": [
                0.12241687116520412,
                -1.1313174067573974,
                1.9577815526180737,
                -0.7168996187307013,
                0.1318230224386199,
                -3.240120956960827
            ]
        }
    ]
}{
    "goal": {
        "global_pose": {
            "orientation": {
                "w": 0.7047431468963623,
                "x": -0.7094548344612122,
                "y": 0.0024358443915843964,
                "z": -0.0022348060738295317
            },
            "position": {
                "x": 0.6094750761985779,
                "y": 0.3671506643295288,
                "z": 0.19426114857196808
            }
        },
        "name": "move_to_magneteinheit_A"
    },
    "id": "PRMstar_move_to_magneteinheit_A_147",
    "joint_names": [
        "shoulder_pan_joint",
        "shoulder_lift_joint",
        "elbow_joint",
        "wrist_1_joint",
        "wrist_2_joint",
        "wrist_3_joint"
    ],
    "metrics": {
        "cart_traj_len": 1.2032007927423212,
        "distance_elbow_joint": 0.04857828144834242,
        "distance_shoulder_lift_joint": 0.760618070170807,
        "distance_shoulder_pan_joint": 1.242355372484657,
        "distance_wrist_1_joint": 0.839690147314507,
        "distance_wrist_2_joint": 1.4301046532543265,
        "distance_wrist_3_joint": 1.9392012669045144,
        "smoothness": 3.657205271811157e-16,
        "time": 5.010244687,
        "traj_len": 2.502108669018425,
        "weighted_distance": 3.5226048779213115
    },
    "planner": "PRMstar",
    "start": {
        "state": {
            "elbow_joint": 1.919643534880228,
            "shoulder_lift_joint": -1.8972525353963687,
            "shoulder_pan_joint": -1.1188672234189438,
            "wrist_1_joint": -1.5931878212786155,
            "wrist_2_joint": 1.5706036197970081,
            "wrist_3_joint": 1.118896926603594
        }
    },
    "waypoints": [
        {
            "positions": [
                -1.1188672234189438,
                -1.8972525353963687,
                1.919643534880228,
                -1.5931878212786155,
                1.5706036197970081,
                1.118896926603594
            ]
        },
        {
            "positions": [
                -1.0412200126386528,
                -1.8497139060106933,
                1.9226796774707495,
                -1.5407071870714588,
                1.4812220789686128,
                1.2400970057851262
            ]
        },
        {
            "positions": [
                -0.9635728018583617,
                -1.8021752766250179,
                1.925715820061271,
                -1.4882265528643022,
                1.3918405381402172,
                1.3612970849666584
            ]
        },
        {
            "positions": [
                -0.8859255910780707,
                -1.7546366472393424,
                1.9287519626517924,
                -1.4357459186571453,
                1.302458997311822,
                1.4824971641481905
            ]
        },
        {
            "positions": [
                -0.8082783802977795,
                -1.707098017853667,
                1.9317881052423136,
                -1.3832652844499886,
                1.2130774564834266,
                1.6036972433297225
            ]
        },
        {
            "positions": [
                -0.7306311695174885,
                -1.6595593884679916,
                1.934824247832835,
                -1.330784650242832,
                1.123695915655031,
                1.7248973225112547
            ]
        },
        {
            "positions": [
                -0.6529839587371975,
                -1.6120207590823161,
                1.9378603904233564,
                -1.2783040160356753,
                1.0343143748266357,
                1.846097401692787
            ]
        },
        {
            "positions": [
                -0.5753367479569064,
                -1.5644821296966407,
                1.9408965330138779,
                -1.2258233818285187,
                0.9449328339982404,
                1.9672974808743189
            ]
        },
        {
            "positions": [
                -0.49768953717661535,
                -1.5169435003109653,
                1.9439326756043993,
                -1.173342747621362,
                0.8555512931698449,
                2.0884975600558513
            ]
        },
        {
            "positions": [
                -0.42004232639632433,
                -1.4694048709252898,
                1.9469688181949207,
                -1.1208621134142054,
                0.7661697523414495,
                2.2096976392373833
            ]
        },
        {
            "positions": [
                -0.3423951156160332,
                -1.4218662415396144,
                1.9500049607854422,
                -1.0683814792070487,
                0.6767882115130541,
                2.3308977184189157
            ]
        },
        {
            "positions": [
                -0.2647479048357422,
                -1.374327612153939,
                1.9530411033759636,
                -1.015900844999892,
                0.5874066706846587,
                2.4520977976004477
            ]
        },
        {
            "positions": [
                -0.18710069405545116,
                -1.3267889827682635,
                1.956077245966485,
                -0.9634202107927352,
                0.49802512985626324,
                2.5732978767819796
            ]
        },
        {
            "positions": [
                -0.10945348327516013,
                -1.279250353382588,
                1.9591133885570062,
                -0.9109395765855786,
                0.4086435890278679,
                2.694497955963512
            ]
        },
        {
            "positions": [
                -0.03180627249486889,
                -1.2317117239969126,
                1.9621495311475277,
                -0.8584589423784219,
                0.31926204819947257,
                2.815698035145044
            ]
        },
        {
            "positions": [
                0.04584093828542213,
                -1.1841730946112372,
                1.965185673738049,
                -0.8059783081712651,
                0.22988050737107701,
                2.936898114326576
            ]
        },
        {
            "positions": [
                0.12348814906571313,
                -1.1366344652255618,
                1.9682218163285705,
                -0.7534976739641085,
                0.14049896654268174,
                3.0580981935081084
            ]
        }
    ]
}