{
    "goal": {
        "global_pose": {
            "orientation": {
                "w": 0.5084816217422485,
                "x": -0.49083608388900757,
                "y": 0.5182115435600281,
                "z": -0.4816462993621826
            },
            "position": {
                "x": 0.5540239810943604,
                "y": 0.030875300988554955,
                "z": 0.16403168439865112
            }
        },
        "name": "move_to_storage_A"
    },
    "id": "PRMstar_move_to_storage_A_92",
    "joint_names": [
        "shoulder_pan_joint",
        "shoulder_lift_joint",
        "elbow_joint",
        "wrist_1_joint",
        "wrist_2_joint",
        "wrist_3_joint"
    ],
    "metrics": {
        "cart_traj_len": 0.35294620704307117,
        "distance_elbow_joint": 0.44778576010306015,
        "distance_shoulder_lift_joint": 0.23373990367836073,
        "distance_shoulder_pan_joint": 0.46077458063864785,
        "distance_wrist_1_joint": 0.23752931038308123,
        "distance_wrist_2_joint": 1.100986398478101,
        "distance_wrist_3_joint": 0.09706956053118665,
        "smoothness": 2.2204460668324854e-16,
        "time": 5.009486254,
        "traj_len": 1.6055794947035287,
        "weighted_distance": 2.027446754846103
    },
    "planner": "PRMstar",
    "start": {
        "state": {
            "elbow_joint": 1.9715477243005601,
            "shoulder_lift_joint": -1.1394853015351272,
            "shoulder_pan_joint": 0.12281154014795169,
            "wrist_1_joint": -0.7804696478968182,
            "wrist_2_joint": 0.12958648046900423,
            "wrist_3_joint": -3.192491284697111
        }
    },
    "waypoints": [
        {
            "positions": [
                0.12281154014795169,
                -1.1394853015351272,
                1.9715477243005601,
                -0.7804696478968182,
                0.12958648046900423,
                -3.192491284697111
            ]
        },
        {
            "positions": [
                0.05698660005671628,
                -1.1728767163463216,
                2.0355171186009975,
                -0.8144024065229726,
                0.2868702516801615,
                -3.178624204621227
            ]
        },
        {
            "positions": [
                -0.008838340034519124,
                -1.2062681311575159,
                2.0994865129014344,
                -0.8483351651491271,
                0.4441540228913188,
                -3.1647571245453436
            ]
        },
        {
            "positions": [
                -0.07466328012575453,
                -1.2396595459687103,
                2.1634559072018718,
                -0.8822679237752815,
                0.601437794102476,
                -3.1508900444694596
            ]
        },
        {
            "positions": [
                -0.14048822021698992,
                -1.2730509607799048,
                2.2274253015023087,
                -0.916200682401436,
                0.7587215653136333,
                -3.137022964393576
            ]
        },
        {
            "positions": [
                -0.20631316030822533,
                -1.3064423755910992,
                2.291394695802746,
                -0.9501334410275905,
                0.9160053365247907,
                -3.123155884317692
            ]
        },
        {
            "positions": [
                -0.27213810039946074,
                -1.3398337904022934,
                2.355364090103183,
                -0.984066199653745,
                1.0732891077359479,
                -3.1092888042418085
            ]
        },
        {
            "positions": [
                -0.33796304049069614,
                -1.373225205213488,
                2.4193334844036203,
                -1.0179989582798994,
                1.2305728789471053,
                -3.0954217241659245
            ]
        }
    ]
}