{
    "goal": {
        "global_pose": {
            "orientation": {
                "w": 0.5084816217422485,
                "x": -0.49083608388900757,
                "y": 0.5182115435600281,
                "z": -0.4816462993621826
            },
            "position": {
                "x": 0.5540239810943604,
                "y": 0.030875300988554955,
                "z": 0.16403168439865112
            }
        },
        "name": "move_to_storage_A"
    },
    "id": "PRMstar_move_to_storage_A_16",
    "joint_names": [
        "shoulder_pan_joint",
        "shoulder_lift_joint",
        "elbow_joint",
        "wrist_1_joint",
        "wrist_2_joint",
        "wrist_3_joint"
    ],
    "metrics": {
        "cart_traj_len": 0.35295101748142005,
        "distance_elbow_joint": 0.44760364237829586,
        "distance_shoulder_lift_joint": 0.23465538346883652,
        "distance_shoulder_pan_joint": 0.4625690014707685,
        "distance_wrist_1_joint": 0.23557470633853284,
        "distance_wrist_2_joint": 1.0936690124074246,
        "distance_wrist_3_joint": 0.09930079926905933,
        "smoothness": 4.440892098500626e-16,
        "time": 5.010390034,
        "traj_len": 1.6041734773187462,
        "weighted_distance": 2.0251463805406744
    },
    "planner": "PRMstar",
    "start": {
        "state": {
            "elbow_joint": 1.9715477243005601,
            "shoulder_lift_joint": -1.1394853015351272,
            "shoulder_pan_joint": 0.12281154014795169,
            "wrist_1_joint": -0.7804696478968182,
            "wrist_2_joint": 0.12958648046900423,
            "wrist_3_joint": -3.192491284697111
        }
    },
    "waypoints": [
        {
            "positions": [
                0.12281154014795169,
                -1.1394853015351272,
                1.9715477243005601,
                -0.7804696478968182,
                0.12958648046900423,
                -3.192491284697111
            ]
        },
        {
            "positions": [
                0.056730254223556195,
                -1.1730074991735324,
                2.035491101783174,
                -0.8141231773737514,
                0.28582491081292205,
                -3.1783054562301025
            ]
        },
        {
            "positions": [
                -0.009351031700839299,
                -1.2065296968119377,
                2.0994344792657875,
                -0.8477767068506847,
                0.4420633411568398,
                -3.1641196277630943
            ]
        },
        {
            "positions": [
                -0.0754323176252348,
                -1.240051894450343,
                2.163377856748401,
                -0.881430236327618,
                0.5983017715007577,
                -3.1499337992960856
            ]
        },
        {
            "positions": [
                -0.14151360354963027,
                -1.273574092088748,
                2.227321234231015,
                -0.9150837658045512,
                0.7545402018446754,
                -3.1357479708290774
            ]
        },
        {
            "positions": [
                -0.20759488947402582,
                -1.3070962897271532,
                2.2912646117136286,
                -0.9487372952814845,
                0.9107786321885932,
                -3.1215621423620687
            ]
        },
        {
            "positions": [
                -0.27367617539842126,
                -1.3406184873655584,
                2.3552079891962423,
                -0.9823908247584177,
                1.067017062532511,
                -3.1073763138950605
            ]
        },
        {
            "positions": [
                -0.3397574613228168,
                -1.3741406850039637,
                2.419151366678856,
                -1.016044354235351,
                1.2232554928764288,
                -3.093190485428052
            ]
        }
    ]
}