{
    "goal": {
        "global_pose": {
            "orientation": {
                "w": 0.7047431468963623,
                "x": -0.7094548344612122,
                "y": 0.0024358443915843964,
                "z": -0.0022348060738295317
            },
            "position": {
                "x": 0.6094750761985779,
                "y": 0.3671506643295288,
                "z": 0.19426114857196808
            }
        },
        "name": "move_to_magneteinheit_A"
    },
    "id": "PRMstar_move_to_magneteinheit_A_38",
    "joint_names": [
        "shoulder_pan_joint",
        "shoulder_lift_joint",
        "elbow_joint",
        "wrist_1_joint",
        "wrist_2_joint",
        "wrist_3_joint"
    ],
    "metrics": {
        "cart_traj_len": 3.5147229630786976,
        "distance_elbow_joint": 3.87207123019751,
        "distance_shoulder_lift_joint": 0.11695406266269437,
        "distance_shoulder_pan_joint": 3.5448970387206997,
        "distance_wrist_1_joint": 1.5830438967244134,
        "distance_wrist_2_joint": 1.6989753739885807,
        "distance_wrist_3_joint": 2.573142693736332,
        "smoothness": 0.1619712193672451,
        "time": 5.071051466,
        "traj_len": 3.659109768240116,
        "weighted_distance": 4.670908793181033
    },
    "planner": "PRMstar",
    "start": {
        "state": {
            "elbow_joint": -1.919618573717145,
            "shoulder_lift_joint": -1.2443395971678275,
            "shoulder_pan_joint": 2.6996025300909787,
            "wrist_1_joint": -1.548550951253194,
            "wrist_2_joint": -1.5709469090946802,
            "wrist_3_joint": 0.4420197732051276
        }
    },
    "waypoints": [
        {
            "positions": [
                2.6996025300909787,
                -1.2443395971678275,
                -1.919618573717145,
                -1.548550951253194,
                -1.5709469090946802,
                0.4420197732051276
            ]
        },
        {
            "positions": [
                2.5384755751330736,
                -1.242702629399161,
                -1.8071014467988735,
                -1.5050430949077793,
                -1.525267802988034,
                0.45330920796989743
            ]
        },
        {
            "positions": [
                2.3773486201751686,
                -1.2410656616304945,
                -1.694584319880602,
                -1.4615352385623646,
                -1.4795886968813878,
                0.4645986427346673
            ]
        },
        {
            "positions": [
                2.2162216652172635,
                -1.239428693861828,
                -1.5820671929623307,
                -1.4180273822169496,
                -1.4339095907747414,
                0.4758880774994371
            ]
        },
        {
            "positions": [
                2.0550947102593584,
                -1.2377917260931615,
                -1.4695500660440592,
                -1.3745195258715348,
                -1.3882304846680953,
                0.48717751226420697
            ]
        },
        {
            "positions": [
                1.8939677553014533,
                -1.236154758324495,
                -1.3570329391257876,
                -1.33101166952612,
                -1.3425513785614491,
                0.4984669470289768
            ]
        },
        {
            "positions": [
                1.7328408003435483,
                -1.2345177905558284,
                -1.2445158122075162,
                -1.287503813180705,
                -1.296872272454803,
                0.5097563817937466
            ]
        },
        {
            "positions": [
                1.5717138453856432,
                -1.232880822787162,
                -1.1319986852892447,
                -1.2439959568352903,
                -1.2511931663481568,
                0.5210458165585165
            ]
        },
        {
            "positions": [
                1.410586890427738,
                -1.2312438550184954,
                -1.0194815583709733,
                -1.2004881004898755,
                -1.2055140602415104,
                0.5323352513232863
            ]
        },
        {
            "positions": [
                1.249459935469833,
                -1.229606887249829,
                -0.9069644314527019,
                -1.1569802441444608,
                -1.1598349541348643,
                0.5436246860880561
            ]
        },
        {
            "positions": [
                1.088332980511928,
                -1.2279699194811626,
                -0.7944473045344305,
                -1.113472387799046,
                -1.114155848028218,
                0.554914120852826
            ]
        },
        {
            "positions": [
                0.9272060255540229,
                -1.2263329517124961,
                -0.681930177616159,
                -1.069964531453631,
                -1.0684767419215717,
                0.5662035556175958
            ]
        },
        {
            "positions": [
                0.7660790705961178,
                -1.2246959839438296,
                -0.5694130506978876,
                -1.0264566751082163,
                -1.0227976358149258,
                0.5774929903823657
            ]
        },
        {
            "positions": [
                0.6049521156382127,
                -1.223059016175163,
                -0.45689592377961596,
                -0.9829488187628014,
                -0.9771185297082794,
                0.5887824251471355
            ]
        },
        {
            "positions": [
                0.44382516068030764,
                -1.2214220484064966,
                -0.34437879686134476,
                -0.9394409624173866,
                -0.9314394236016332,
                0.6000718599119054
            ]
        },
        {
            "positions": [
                0.28269820572240256,
                -1.21978508063783,
                -0.2318616699430731,
                -0.8959331060719717,
                -0.8857603174949871,
                0.6113612946766752
            ]
        },
        {
            "positions": [
                0.12157125076449748,
                -1.2181481128691636,
                -0.11934454302480191,
                -0.852425249726557,
                -0.8400812113883409,
                0.6226507294414451
            ]
        },
        {
            "positions": [
                -0.03955570419340759,
                -1.216511145100497,
                -0.00682741610653026,
                -0.8089173933811421,
                -0.7944021052816946,
                0.6339401642062149
            ]
        },
        {
            "positions": [
                -0.20068265915131267,
                -1.2148741773318306,
                0.10568971081174117,
                -0.7654095370357273,
                -0.7487229991750485,
                0.6452295989709848
            ]
        },
        {
            "positions": [
                -0.3618096141092175,
                -1.213237209563164,
                0.21820683773001273,
                -0.7219016806903125,
                -0.7030438930684022,
                0.6565190337357546
            ]
        },
        {
            "positions": [
                -0.33169136959273526,
                -1.2047257688735704,
                0.34886649901728456,
                -0.6826473092347786,
                -0.638795652034678,
                0.7763378905311349
            ]
        },
        {
            "positions": [
                -0.30157312507625306,
                -1.1962143281839768,
                0.4795261603045564,
                -0.6433929377792446,
                -0.574547411000954,
                0.8961567473265152
            ]
        },
        {
            "positions": [
                -0.2714548805597708,
                -1.1877028874943834,
                0.6101858215918282,
                -0.6041385663237107,
                -0.5102991699672299,
                1.0159756041218955
            ]
        },
        {
            "positions": [
                -0.24133663604328856,
                -1.1791914468047897,
                0.7408454828791,
                -0.5648841948681768,
                -0.44605092893350573,
                1.1357944609172757
            ]
        },
        {
            "positions": [
                -0.21121839152680633,
                -1.170680006115196,
                0.8715051441663718,
                -0.5256298234126429,
                -0.3818026878997816,
                1.255613317712656
            ]
        },
        {
            "positions": [
                -0.1811001470103241,
                -1.1621685654256024,
                1.0021648054536436,
                -0.48637545195710885,
                -0.3175544468660575,
                1.3754321745080362
            ]
        },
        {
            "positions": [
                -0.15098190249384186,
                -1.1536571247360088,
                1.1328244667409155,
                -0.44712108050157495,
                -0.25330620583233343,
                1.4952510313034164
            ]
        },
        {
            "positions": [
                -0.1208636579773596,
                -1.1451456840464154,
                1.2634841280281874,
                -0.407866709046041,
                -0.18905796479860926,
                1.6150698880987968
            ]
        },
        {
            "positions": [
                -0.09074541346087733,
                -1.1366342433568217,
                1.3941437893154593,
                -0.36861233759050704,
                -0.12480972376488508,
                1.7348887448941772
            ]
        },
        {
            "positions": [
                -0.06062716894439511,
                -1.128122802667228,
                1.524803450602731,
                -0.32935796613497315,
                -0.06056148273116105,
                1.8547076016895574
            ]
        },
        {
            "positions": [
                -0.030243427385114926,
                -1.1282456806942438,
                1.5960783182490037,
                -0.3899997847360051,
                -0.029129824793650824,
                2.048116745898208
            ]
        },
        {
            "positions": [
                0.0001403141741652611,
                -1.1283685587212597,
                1.6673531858952761,
                -0.45064160333703707,
                0.0023018331438593997,
                2.241525890106858
            ]
        },
        {
            "positions": [
                0.03052405573344545,
                -1.1284914367482757,
                1.7386280535415488,
                -0.5112834219380691,
                0.03373349108136964,
                2.4349350343155085
            ]
        },
        {
            "positions": [
                0.060907797292725635,
                -1.1286143147752914,
                1.8099029211878213,
                -0.5719252405391011,
                0.06516514901887985,
                2.6283441785241592
            ]
        },
        {
            "positions": [
                0.09129153885200585,
                -1.128737192802307,
                1.8811777888340941,
                -0.6325670591401331,
                0.09659680695639011,
                2.8217533227328095
            ]
        },
        {
            "positions": [
                0.12167528041128603,
                -1.128860070829323,
                1.9524526564803666,
                -0.693208877741165,
                0.12802846489390032,
                3.01516246694146
            ]
        }
    ]
}{
    "goal": {
        "global_pose": {
            "orientation": {
                "w": 0.7047431468963623,
                "x": -0.7094548344612122,
                "y": 0.0024358443915843964,
                "z": -0.0022348060738295317
            },
            "position": {
                "x": 0.6094750761985779,
                "y": 0.3671506643295288,
                "z": 0.19426114857196808
            }
        },
        "name": "move_to_magneteinheit_A"
    },
    "id": "PRMstar_move_to_magneteinheit_A_38",
    "joint_names": [
        "shoulder_pan_joint",
        "shoulder_lift_joint",
        "elbow_joint",
        "wrist_1_joint",
        "wrist_2_joint",
        "wrist_3_joint"
    ],
    "metrics": {
        "cart_traj_len": 1.1926743919881795,
        "distance_elbow_joint": 0.08593221218220215,
        "distance_shoulder_lift_joint": 0.7577244878346665,
        "distance_shoulder_pan_joint": 1.2416333093269303,
        "distance_wrist_1_joint": 0.8100896415290008,
        "distance_wrist_2_joint": 1.4365388001214818,
        "distance_wrist_3_joint": 4.3193812627839705,
        "smoothness": 0.007348069872261126,
        "time": 5.0436739,
        "traj_len": 2.9413091836422525,
        "weighted_distance": 4.420032882343374
    },
    "planner": "PRMstar",
    "start": {
        "state": {
            "elbow_joint": 1.919643534880228,
            "shoulder_lift_joint": -1.8972525353963687,
            "shoulder_pan_joint": -1.1188672234189438,
            "wrist_1_joint": -1.5931878212786155,
            "wrist_2_joint": 1.5706036197970081,
            "wrist_3_joint": 1.118896926603594
        }
    },
    "waypoints": [
        {
            "positions": [
                -1.1188672234189438,
                -1.8972525353963687,
                1.919643534880228,
                -1.5931878212786155,
                1.5706036197970081,
                1.118896926603594
            ]
        },
        {
            "positions": [
                -1.0333342987239882,
                -1.8468633975291597,
                1.917560718387567,
                -1.523292506795583,
                1.4426523179505983,
                1.068798967568235
            ]
        },
        {
            "positions": [
                -0.9478013740290328,
                -1.7964742596619505,
                1.9154779018949057,
                -1.4533971923125502,
                1.3147010161041888,
                1.0187010085328763
            ]
        },
        {
            "positions": [
                -0.8622684493340771,
                -1.7460851217947415,
                1.9133950854022446,
                -1.3835018778295176,
                1.186749714257779,
                0.9686030494975173
            ]
        },
        {
            "positions": [
                -0.7767355246391217,
                -1.6956959839275325,
                1.9113122689095836,
                -1.313606563346485,
                1.0587984124113694,
                0.9185050904621583
            ]
        },
        {
            "positions": [
                -0.691202599944166,
                -1.6453068460603235,
                1.9092294524169224,
                -1.2437112488634525,
                0.9308471105649596,
                0.8684071314267994
            ]
        },
        {
            "positions": [
                -0.6056696752492104,
                -1.5949177081931145,
                1.9071466359242613,
                -1.17381593438042,
                0.8028958087185498,
                0.8183091723914405
            ]
        },
        {
            "positions": [
                -0.5201367505542549,
                -1.5445285703259053,
                1.9050638194316,
                -1.1039206198973872,
                0.6749445068721401,
                0.7682112133560817
            ]
        },
        {
            "positions": [
                -0.43460382585929935,
                -1.4941394324586963,
                1.902981002938939,
                -1.0340253054143547,
                0.5469932050257305,
                0.7181132543207227
            ]
        },
        {
            "positions": [
                -0.3974458317414803,
                -1.4704986734655634,
                1.9075989816216665,
                -1.0172968303700387,
                0.5194646460023835,
                0.4568734149539827
            ]
        },
        {
            "positions": [
                -0.36028783762366123,
                -1.4468579144724305,
                1.912216960304394,
                -1.0005683553257227,
                0.49193608697903657,
                0.1956335755872427
            ]
        },
        {
            "positions": [
                -0.32312984350584223,
                -1.4232171554792974,
                1.9168349389871215,
                -0.9838398802814067,
                0.4644075279556896,
                -0.0656062637794973
            ]
        },
        {
            "positions": [
                -0.28597184938802317,
                -1.3995763964861645,
                1.921452917669849,
                -0.9671114052370907,
                0.4368789689323427,
                -0.3268461031462373
            ]
        },
        {
            "positions": [
                -0.24881385527020414,
                -1.3759356374930316,
                1.9260708963525766,
                -0.9503829301927746,
                0.40935040990899574,
                -0.5880859425129772
            ]
        },
        {
            "positions": [
                -0.21165586115238508,
                -1.3522948784998987,
                1.9306888750353042,
                -0.9336544551484587,
                0.3818218508856488,
                -0.8493257818797173
            ]
        },
        {
            "positions": [
                -0.17449786703456605,
                -1.3286541195067658,
                1.9353068537180316,
                -0.9169259801041427,
                0.35429329186230185,
                -1.1105656212464572
            ]
        },
        {
            "positions": [
                -0.13733987291674699,
                -1.3050133605136327,
                1.9399248324007592,
                -0.9001975050598267,
                0.3267647328389549,
                -1.3718054606131973
            ]
        },
        {
            "positions": [
                -0.10018187879892798,
                -1.2813726015204998,
                1.9445428110834866,
                -0.8834690300155107,
                0.29923617381560796,
                -1.6330452999799372
            ]
        },
        {
            "positions": [
                -0.06302388468110892,
                -1.257731842527367,
                1.9491607897662142,
                -0.8667405549711947,
                0.271707614792261,
                -1.894285139346677
            ]
        },
        {
            "positions": [
                -0.02586589056328986,
                -1.234091083534234,
                1.9537787684489418,
                -0.8500120799268787,
                0.24417905576891408,
                -2.1555249787134168
            ]
        },
        {
            "positions": [
                0.011292103554529198,
                -1.210450324541101,
                1.9583967471316692,
                -0.8332836048825627,
                0.21665049674556713,
                -2.416764818080157
            ]
        },
        {
            "positions": [
                0.04845009767234826,
                -1.186809565547968,
                1.9630147258143968,
                -0.8165551298382467,
                0.1891219377222202,
                -2.6780046574468974
            ]
        },
        {
            "positions": [
                0.08560809179016726,
                -1.1631688065548351,
                1.9676327044971242,
                -0.7998266547939307,
                0.16159337869887325,
                -2.939244496813637
            ]
        },
        {
            "positions": [
                0.12276608590798638,
                -1.1395280475617022,
                1.9722506831798519,
                -0.7830981797496147,
                0.13406481967552628,
                -3.2004843361803768
            ]
        }
    ]
}