{
    "goal": {
        "global_pose": {
            "orientation": {
                "w": 0.7047431468963623,
                "x": -0.7094548344612122,
                "y": 0.0024358443915843964,
                "z": -0.0022348060738295317
            },
            "position": {
                "x": 0.6094750761985779,
                "y": 0.3671506643295288,
                "z": 0.19426114857196808
            }
        },
        "name": "move_to_magneteinheit_A"
    },
    "id": "PRMstar_move_to_magneteinheit_A_15",
    "joint_names": [
        "shoulder_pan_joint",
        "shoulder_lift_joint",
        "elbow_joint",
        "wrist_1_joint",
        "wrist_2_joint",
        "wrist_3_joint"
    ],
    "metrics": {
        "cart_traj_len": 3.257487385884708,
        "distance_elbow_joint": 3.9123633575503187,
        "distance_shoulder_lift_joint": 0.6919568874702797,
        "distance_shoulder_pan_joint": 2.6986792953417154,
        "distance_wrist_1_joint": 3.4716807351937344,
        "distance_wrist_2_joint": 1.4507097043431987,
        "distance_wrist_3_joint": 0.7438792137739917,
        "smoothness": 0.04310325610660319,
        "time": 5.071678073,
        "traj_len": 3.601287157902469,
        "weighted_distance": 4.4022060447868805
    },
    "planner": "PRMstar",
    "start": {
        "state": {
            "elbow_joint": -1.919618573717145,
            "shoulder_lift_joint": -1.2443395971678275,
            "shoulder_pan_joint": 2.6996025300909787,
            "wrist_1_joint": -1.548550951253194,
            "wrist_2_joint": -1.5709469090946802,
            "wrist_3_joint": 0.4420197732051276
        }
    },
    "waypoints": [
        {
            "positions": [
                2.6996025300909787,
                -1.2443395971678275,
                -1.919618573717145,
                -1.548550951253194,
                -1.5709469090946802,
                0.4420197732051276
            ]
        },
        {
            "positions": [
                2.5825588720266235,
                -1.2179712506796216,
                -1.8235406347583296,
                -1.4346592548574744,
                -1.5409160612049688,
                0.4489950243269675
            ]
        },
        {
            "positions": [
                2.4655152139622682,
                -1.1916029041914158,
                -1.727462695799514,
                -1.3207675584617544,
                -1.5108852133152575,
                0.45597027544880736
            ]
        },
        {
            "positions": [
                2.348471555897913,
                -1.16523455770321,
                -1.6313847568406987,
                -1.2068758620660347,
                -1.4808543654255462,
                0.46294552657064725
            ]
        },
        {
            "positions": [
                2.2314278978335578,
                -1.138866211215004,
                -1.5353068178818834,
                -1.092984165670315,
                -1.4508235175358348,
                0.46992077769248713
            ]
        },
        {
            "positions": [
                2.1143842397692025,
                -1.1124978647267982,
                -1.439228878923068,
                -0.9790924692745951,
                -1.4207926696461235,
                0.476896028814327
            ]
        },
        {
            "positions": [
                1.9973405817048475,
                -1.0861295182385924,
                -1.3431509399642527,
                -0.8652007728788754,
                -1.3907618217564122,
                0.4838712799361669
            ]
        },
        {
            "positions": [
                1.880296923640492,
                -1.0597611717503865,
                -1.2470730010054372,
                -0.7513090764831556,
                -1.3607309738667008,
                0.4908465310580068
            ]
        },
        {
            "positions": [
                1.7632532655761368,
                -1.0333928252621807,
                -1.1509950620466216,
                -0.6374173800874358,
                -1.3307001259769895,
                0.4978217821798467
            ]
        },
        {
            "positions": [
                1.6462096075117818,
                -1.0070244787739748,
                -1.0549171230878063,
                -0.5235256836917159,
                -1.3006692780872782,
                0.5047970333016866
            ]
        },
        {
            "positions": [
                1.5291659494474266,
                -0.9806561322857691,
                -0.958839184128991,
                -0.4096339872959962,
                -1.2706384301975668,
                0.5117722844235264
            ]
        },
        {
            "positions": [
                1.4121222913830713,
                -0.9542877857975632,
                -0.8627612451701756,
                -0.2957422909002765,
                -1.2406075823078555,
                0.5187475355453663
            ]
        },
        {
            "positions": [
                1.2950786333187163,
                -0.9279194393093575,
                -0.7666833062113603,
                -0.18185059450455676,
                -1.2105767344181444,
                0.5257227866672062
            ]
        },
        {
            "positions": [
                1.1780349752543608,
                -0.9015510928211515,
                -0.6706053672525447,
                -0.06795889810883682,
                -1.1805458865284328,
                0.5326980377890461
            ]
        },
        {
            "positions": [
                1.0609913171900056,
                -0.8751827463329458,
                -0.5745274282937294,
                0.0459327982868829,
                -1.1505150386387217,
                0.539673288910886
            ]
        },
        {
            "positions": [
                0.9439476591256506,
                -0.8488143998447399,
                -0.47844948933491405,
                0.15982449468260262,
                -1.1204841907490104,
                0.5466485400327259
            ]
        },
        {
            "positions": [
                0.8269040010612951,
                -0.8224460533565341,
                -0.3823715503760985,
                0.27371619107832257,
                -1.090453342859299,
                0.5536237911545657
            ]
        },
        {
            "positions": [
                0.7098603429969401,
                -0.7960777068683282,
                -0.2862936114172834,
                0.38760788747404207,
                -1.0604224949695877,
                0.5605990422764057
            ]
        },
        {
            "positions": [
                0.5928166849325849,
                -0.7697093603801224,
                -0.19021567245846782,
                0.5014995838697622,
                -1.0303916470798762,
                0.5675742933982455
            ]
        },
        {
            "positions": [
                0.47577302686822964,
                -0.7433410138919165,
                -0.09413773349965249,
                0.6153912802654817,
                -1.000360799190165,
                0.5745495445200854
            ]
        },
        {
            "positions": [
                0.3587293688038744,
                -0.7169726674037107,
                0.001940205459162847,
                0.7292829766612017,
                -0.9703299513004537,
                0.5815247956419253
            ]
        },
        {
            "positions": [
                0.24168571073951917,
                -0.6906043209155048,
                0.0980181444179784,
                0.8431746730569216,
                -0.9402991034107424,
                0.5885000467637651
            ]
        },
        {
            "positions": [
                0.12464205267516396,
                -0.664235974427299,
                0.19409608337679374,
                0.9570663694526413,
                -0.9102682555210311,
                0.595475297885605
            ]
        },
        {
            "positions": [
                0.11766985171982024,
                -0.6677098017819506,
                0.3572184157821394,
                1.0398465306404112,
                -0.8467231110511577,
                0.5423008205405198
            ]
        },
        {
            "positions": [
                0.11069765076447652,
                -0.6711836291366021,
                0.5203407481874851,
                1.122626691828181,
                -0.7831779665812844,
                0.4891263431954344
            ]
        },
        {
            "positions": [
                0.10372544980913279,
                -0.6746574564912537,
                0.6834630805928308,
                1.205406853015951,
                -0.719632822111411,
                0.43595186585034906
            ]
        },
        {
            "positions": [
                0.09675324885378907,
                -0.6781312838459054,
                0.8465854129981766,
                1.2881870142037206,
                -0.6560876776415376,
                0.38277738850526377
            ]
        },
        {
            "positions": [
                0.08978104789844535,
                -0.6816051112005569,
                1.0097077454035221,
                1.3709671753914905,
                -0.5925425331716643,
                0.3296029111601784
            ]
        },
        {
            "positions": [
                0.08280884694310163,
                -0.6850789385552085,
                1.172830077808868,
                1.4537473365792604,
                -0.528997388701791,
                0.27642843381509313
            ]
        },
        {
            "positions": [
                0.07583664598775791,
                -0.6885527659098601,
                1.3359524102142137,
                1.5365274977670302,
                -0.4654522442319176,
                0.22325395647000779
            ]
        },
        {
            "positions": [
                0.06886444503241418,
                -0.6920265932645117,
                1.4990747426195594,
                1.6193076589548001,
                -0.4019070997620443,
                0.1700794791249225
            ]
        },
        {
            "positions": [
                0.06189224407707046,
                -0.6955004206191633,
                1.662197075024905,
                1.70208782014257,
                -0.33836195529217095,
                0.11690500177983715
            ]
        },
        {
            "positions": [
                0.08221524718633959,
                -0.7223633601317923,
                1.7723796446276616,
                1.7757684747418934,
                -0.26565370511194103,
                0.07962053745058831
            ]
        },
        {
            "positions": [
                0.10253825029560873,
                -0.7492262996444212,
                1.8825622142304181,
                1.8494491293412167,
                -0.1929454549317111,
                0.04233607312133948
            ]
        },
        {
            "positions": [
                0.12286125340487786,
                -0.7760892391570502,
                1.9927447838331747,
                1.9231297839405401,
                -0.12023720475148118,
                0.00505160879209064
            ]
        }
    ]
}{
    "goal": {
        "global_pose": {
            "orientation": {
                "w": 0.7047431468963623,
                "x": -0.7094548344612122,
                "y": 0.0024358443915843964,
                "z": -0.0022348060738295317
            },
            "position": {
                "x": 0.6094750761985779,
                "y": 0.3671506643295288,
                "z": 0.19426114857196808
            }
        },
        "name": "move_to_magneteinheit_A"
    },
    "id": "PRMstar_move_to_magneteinheit_A_15",
    "joint_names": [
        "shoulder_pan_joint",
        "shoulder_lift_joint",
        "elbow_joint",
        "wrist_1_joint",
        "wrist_2_joint",
        "wrist_3_joint"
    ],
    "metrics": {
        "cart_traj_len": 1.7306946128634102,
        "distance_elbow_joint": 1.5527807362938426,
        "distance_shoulder_lift_joint": 0.7666904586733796,
        "distance_shoulder_pan_joint": 1.2421862755499813,
        "distance_wrist_1_joint": 0.8869022280088348,
        "distance_wrist_2_joint": 1.4418569730652508,
        "distance_wrist_3_joint": 4.373026493804738,
        "smoothness": 0.16665983507462587,
        "time": 5.067841141,
        "traj_len": 3.2036609005005547,
        "weighted_distance": 4.6193349471628045
    },
    "planner": "PRMstar",
    "start": {
        "state": {
            "elbow_joint": 1.919643534880228,
            "shoulder_lift_joint": -1.8972525353963687,
            "shoulder_pan_joint": -1.1188672234189438,
            "wrist_1_joint": -1.5931878212786155,
            "wrist_2_joint": 1.5706036197970081,
            "wrist_3_joint": 1.118896926603594
        }
    },
    "waypoints": [
        {
            "positions": [
                -1.1188672234189438,
                -1.8972525353963687,
                1.919643534880228,
                -1.5931878212786155,
                1.5706036197970081,
                1.118896926603594
            ]
        },
        {
            "positions": [
                -1.0920458532759865,
                -1.8427624841449235,
                1.8654126015303474,
                -1.5780416298341355,
                1.5426819841501644,
                0.903721420878091
            ]
        },
        {
            "positions": [
                -1.065224483133029,
                -1.7882724328934783,
                1.8111816681804669,
                -1.5628954383896556,
                1.5147603485033208,
                0.6885459151525881
            ]
        },
        {
            "positions": [
                -1.0384031129900717,
                -1.733782381642033,
                1.7569507348305862,
                -1.5477492469451755,
                1.4868387128564773,
                0.4733704094270851
            ]
        },
        {
            "positions": [
                -1.0115817428471143,
                -1.6792923303905878,
                1.7027198014807055,
                -1.5326030555006955,
                1.4589170772096336,
                0.25819490370158216
            ]
        },
        {
            "positions": [
                -0.9847603727041568,
                -1.6248022791391423,
                1.648488868130825,
                -1.5174568640562156,
                1.43099544156279,
                0.04301939797607912
            ]
        },
        {
            "positions": [
                -0.9579390025611995,
                -1.5703122278876973,
                1.5942579347809442,
                -1.5023106726117357,
                1.4030738059159462,
                -0.1721561077494238
            ]
        },
        {
            "positions": [
                -0.9311176324182421,
                -1.5158221766362519,
                1.5400270014310635,
                -1.4871644811672557,
                1.3751521702691027,
                -0.38733161347492673
            ]
        },
        {
            "positions": [
                -0.9042962622752847,
                -1.4613321253848066,
                1.485796068081183,
                -1.4720182897227756,
                1.347230534622259,
                -0.6025071192004297
            ]
        },
        {
            "positions": [
                -0.8774748921323272,
                -1.4068420741333614,
                1.4315651347313023,
                -1.4568720982782957,
                1.3193088989754154,
                -0.8176826249259328
            ]
        },
        {
            "positions": [
                -0.8506535219893698,
                -1.3523520228819161,
                1.3773342013814216,
                -1.4417259068338157,
                1.2913872633285717,
                -1.0328581306514357
            ]
        },
        {
            "positions": [
                -0.8238321518464125,
                -1.297861971630471,
                1.323103268031541,
                -1.4265797153893358,
                1.263465627681728,
                -1.2480336363769384
            ]
        },
        {
            "positions": [
                -0.7970107817034551,
                -1.2433719203790257,
                1.2688723346816606,
                -1.4114335239448557,
                1.2355439920348845,
                -1.4632091421024416
            ]
        },
        {
            "positions": [
                -0.7701894115604977,
                -1.1888818691275804,
                1.2146414013317797,
                -1.3962873325003757,
                1.2076223563880408,
                -1.6783846478279447
            ]
        },
        {
            "positions": [
                -0.7433680414175403,
                -1.1343918178761352,
                1.1604104679818992,
                -1.3811411410558958,
                1.1797007207411971,
                -1.8935601535534476
            ]
        },
        {
            "positions": [
                -0.6711441169551589,
                -1.1340726727800396,
                1.2265394404315253,
                -1.3249031787403862,
                1.0921212145737438,
                -2.0069409380240892
            ]
        },
        {
            "positions": [
                -0.5989201924927774,
                -1.133753527683944,
                1.2926684128811514,
                -1.2686652164248766,
                1.0045417084062904,
                -2.1203217224947304
            ]
        },
        {
            "positions": [
                -0.5266962680303958,
                -1.1334343825878488,
                1.3587973853307775,
                -1.212427254109367,
                0.9169622022388372,
                -2.233702506965372
            ]
        },
        {
            "positions": [
                -0.45447234356801436,
                -1.1331152374917532,
                1.4249263577804037,
                -1.1561892917938574,
                0.8293826960713839,
                -2.347083291436013
            ]
        },
        {
            "positions": [
                -0.3822484191056328,
                -1.1327960923956577,
                1.4910553302300298,
                -1.0999513294783478,
                0.7418031899039306,
                -2.4604640759066547
            ]
        },
        {
            "positions": [
                -0.3100244946432513,
                -1.1324769472995622,
                1.557184302679656,
                -1.0437133671628382,
                0.6542236837364772,
                -2.573844860377296
            ]
        },
        {
            "positions": [
                -0.23780057018086975,
                -1.1321578022034666,
                1.6233132751292823,
                -0.9874754048473287,
                0.5666441775690239,
                -2.6872256448479375
            ]
        },
        {
            "positions": [
                -0.1655766457184884,
                -1.131838657107371,
                1.6894422475789082,
                -0.9312374425318191,
                0.4790646714015706,
                -2.800606429318579
            ]
        },
        {
            "positions": [
                -0.09335272125610683,
                -1.1315195120112755,
                1.7555712200285345,
                -0.8749994802163095,
                0.39148516523411725,
                -2.91398721378922
            ]
        },
        {
            "positions": [
                -0.021128796793725257,
                -1.1312003669151802,
                1.8217001924781606,
                -0.8187615179007999,
                0.3039056590666639,
                -3.027367998259862
            ]
        },
        {
            "positions": [
                0.05109512766865609,
                -1.1308812218190847,
                1.8878291649277867,
                -0.7625235555852903,
                0.21632615289921064,
                -3.140748782730503
            ]
        },
        {
            "positions": [
                0.12331905213103761,
                -1.1305620767229891,
                1.9539581373774129,
                -0.7062855932697807,
                0.12874664673175729,
                -3.2541295672011445
            ]
        }
    ]
}