{
    "goal": {
        "global_pose": {
            "orientation": {
                "w": 0.7047431468963623,
                "x": -0.7094548344612122,
                "y": 0.0024358443915843964,
                "z": -0.0022348060738295317
            },
            "position": {
                "x": 0.6094750761985779,
                "y": 0.3671506643295288,
                "z": 0.19426114857196808
            }
        },
        "name": "move_to_magneteinheit_A"
    },
    "id": "PRMstar_move_to_magneteinheit_A_61",
    "joint_names": [
        "shoulder_pan_joint",
        "shoulder_lift_joint",
        "elbow_joint",
        "wrist_1_joint",
        "wrist_2_joint",
        "wrist_3_joint"
    ],
    "metrics": {
        "cart_traj_len": 3.37473687910569,
        "distance_elbow_joint": 3.893295835946167,
        "distance_shoulder_lift_joint": 0.268950290505112,
        "distance_shoulder_pan_joint": 2.816827055859314,
        "distance_wrist_1_joint": 0.7637691892922351,
        "distance_wrist_2_joint": 1.701055482754411,
        "distance_wrist_3_joint": 2.6498338645808177,
        "smoothness": 0.02560667118010791,
        "time": 5.036825085,
        "traj_len": 3.4776043074130865,
        "weighted_distance": 4.456256738580749
    },
    "planner": "PRMstar",
    "start": {
        "state": {
            "elbow_joint": -1.919618573717145,
            "shoulder_lift_joint": -1.2443395971678275,
            "shoulder_pan_joint": 2.6996025300909787,
            "wrist_1_joint": -1.548550951253194,
            "wrist_2_joint": -1.5709469090946802,
            "wrist_3_joint": 0.4420197732051276
        }
    },
    "waypoints": [
        {
            "positions": [
                2.6996025300909787,
                -1.2443395971678275,
                -1.919618573717145,
                -1.548550951253194,
                -1.5709469090946802,
                0.4420197732051276
            ]
        },
        {
            "positions": [
                2.564743098481766,
                -1.2484970937712652,
                -1.7886329617605052,
                -1.5210484571311504,
                -1.528829070159911,
                0.48861324845765164
            ]
        },
        {
            "positions": [
                2.4298836668725534,
                -1.2526545903747028,
                -1.6576473498038657,
                -1.4935459630091068,
                -1.4867112312251416,
                0.5352067237101756
            ]
        },
        {
            "positions": [
                2.2950242352633405,
                -1.2568120869781405,
                -1.526661737847226,
                -1.4660434688870632,
                -1.4445933922903724,
                0.5818001989626996
            ]
        },
        {
            "positions": [
                2.160164803654128,
                -1.2609695835815784,
                -1.3956761258905863,
                -1.4385409747650195,
                -1.402475553355603,
                0.6283936742152236
            ]
        },
        {
            "positions": [
                2.0253053720449152,
                -1.265127080185016,
                -1.2646905139339468,
                -1.411038480642976,
                -1.3603577144208339,
                0.6749871494677477
            ]
        },
        {
            "positions": [
                1.8904459404357026,
                -1.2692845767884537,
                -1.1337049019773073,
                -1.3835359865209325,
                -1.3182398754860647,
                0.7215806247202716
            ]
        },
        {
            "positions": [
                1.75558650882649,
                -1.2734420733918914,
                -1.0027192900206676,
                -1.3560334923988888,
                -1.2761220365512953,
                0.7681740999727957
            ]
        },
        {
            "positions": [
                1.620727077217277,
                -1.277599569995329,
                -0.8717336780640279,
                -1.3285309982768452,
                -1.2340041976165261,
                0.8147675752253198
            ]
        },
        {
            "positions": [
                1.4858676456080644,
                -1.2817570665987668,
                -0.7407480661073882,
                -1.3010285041548015,
                -1.1918863586817567,
                0.8613610504778437
            ]
        },
        {
            "positions": [
                1.3510082139988517,
                -1.2859145632022044,
                -0.6097624541507487,
                -1.273526010032758,
                -1.1497685197469876,
                0.9079545257303678
            ]
        },
        {
            "positions": [
                1.2161487823896389,
                -1.2900720598056423,
                -0.478776842194109,
                -1.2460235159107143,
                -1.1076506808122182,
                0.9545480009828919
            ]
        },
        {
            "positions": [
                1.0812893507804264,
                -1.29422955640908,
                -0.3477912302374695,
                -1.2185210217886706,
                -1.0655328418774492,
                1.0011414762354158
            ]
        },
        {
            "positions": [
                0.9464299191712136,
                -1.2983870530125177,
                -0.21680561828082978,
                -1.191018527666627,
                -1.0234150029426798,
                1.04773495148794
            ]
        },
        {
            "positions": [
                0.8115704875620011,
                -1.3025445496159553,
                -0.08582000632419029,
                -1.1635160335445835,
                -0.9812971640079106,
                1.0943284267404638
            ]
        },
        {
            "positions": [
                0.6767110559527882,
                -1.306702046219393,
                0.045165605632449424,
                -1.1360135394225397,
                -0.9391793250731413,
                1.140921901992988
            ]
        },
        {
            "positions": [
                0.5418516243435754,
                -1.3108595428228307,
                0.17615121758908914,
                -1.1085110453004963,
                -0.897061486138372,
                1.187515377245512
            ]
        },
        {
            "positions": [
                0.40699219273436293,
                -1.3150170394262686,
                0.30713682954572863,
                -1.0810085511784526,
                -0.8549436472036028,
                1.234108852498036
            ]
        },
        {
            "positions": [
                0.27213276112515006,
                -1.3191745360297062,
                0.43812244150236856,
                -1.053506057056409,
                -0.8128258082688334,
                1.28070232775056
            ]
        },
        {
            "positions": [
                0.13727332951593763,
                -1.323332032633144,
                0.5691080534590076,
                -1.0260035629343653,
                -0.7707079693340643,
                1.327295803003084
            ]
        },
        {
            "positions": [
                0.002413897906724846,
                -1.3274895292365816,
                0.7000936654156475,
                -0.9985010688123217,
                -0.728590130399295,
                1.373889278255608
            ]
        },
        {
            "positions": [
                0.008335377120077845,
                -1.3106737716166432,
                0.8132657863352074,
                -0.9807520478894484,
                -0.6515866424131346,
                1.5237818326934351
            ]
        },
        {
            "positions": [
                0.014256856333430842,
                -1.293858013996705,
                0.9264379072547673,
                -0.9630030269665751,
                -0.5745831544269742,
                1.6736743871312625
            ]
        },
        {
            "positions": [
                0.02017833554678384,
                -1.2770422563767667,
                1.0396100281743272,
                -0.9452540060437018,
                -0.4975796664408138,
                1.8235669415690896
            ]
        },
        {
            "positions": [
                0.026099814760136838,
                -1.2602264987568284,
                1.1527821490938872,
                -0.9275049851208285,
                -0.4205761784546534,
                1.973459496006917
            ]
        },
        {
            "positions": [
                0.03202129397348984,
                -1.2434107411368902,
                1.265954270013447,
                -0.9097559641979551,
                -0.343572690468493,
                2.123352050444744
            ]
        },
        {
            "positions": [
                0.03794277318684283,
                -1.2265949835169518,
                1.3791263909330067,
                -0.8920069432750819,
                -0.2665692024823326,
                2.273244604882571
            ]
        },
        {
            "positions": [
                0.04386425240019583,
                -1.2097792258970137,
                1.492298511852567,
                -0.8742579223522086,
                -0.1895657144961722,
                2.4231371593203983
            ]
        },
        {
            "positions": [
                0.04978573161354883,
                -1.1929634682770753,
                1.6054706327721266,
                -0.8565089014293352,
                -0.1125622265100118,
                2.573029713758226
            ]
        },
        {
            "positions": [
                0.05570721082690183,
                -1.176147710657137,
                1.7186427536916866,
                -0.8387598805064619,
                -0.035558738523851274,
                2.722922268196053
            ]
        },
        {
            "positions": [
                0.06162869004025482,
                -1.1593319530371988,
                1.8318148746112464,
                -0.8210108595835887,
                0.04144474946230903,
                2.87281482263388
            ]
        },
        {
            "positions": [
                0.06755016925360782,
                -1.1425161954172605,
                1.9449869955308063,
                -0.8032618386607153,
                0.1184482374484694,
                3.0227073770717072
            ]
        },
        {
            "positions": [
                0.1220523215817864,
                -1.1416891708002237,
                1.9736772622290224,
                -0.784781761960959,
                0.13010857365973139,
                3.0918536377859454
            ]
        }
    ]
}{
    "goal": {
        "global_pose": {
            "orientation": {
                "w": 0.7047431468963623,
                "x": -0.7094548344612122,
                "y": 0.0024358443915843964,
                "z": -0.0022348060738295317
            },
            "position": {
                "x": 0.6094750761985779,
                "y": 0.3671506643295288,
                "z": 0.19426114857196808
            }
        },
        "name": "move_to_magneteinheit_A"
    },
    "id": "PRMstar_move_to_magneteinheit_A_61",
    "joint_names": [
        "shoulder_pan_joint",
        "shoulder_lift_joint",
        "elbow_joint",
        "wrist_1_joint",
        "wrist_2_joint",
        "wrist_3_joint"
    ],
    "metrics": {
        "cart_traj_len": 1.1987203552733492,
        "distance_elbow_joint": 0.06843855092348727,
        "distance_shoulder_lift_joint": 0.7502444428995736,
        "distance_shoulder_pan_joint": 1.2418881428702118,
        "distance_wrist_1_joint": 0.7467296941920974,
        "distance_wrist_2_joint": 1.4347449879825094,
        "distance_wrist_3_joint": 2.0266448179730565,
        "smoothness": 3.134747388469391e-16,
        "time": 5.012385364,
        "traj_len": 2.5037353368199553,
        "weighted_distance": 3.5360224765916937
    },
    "planner": "PRMstar",
    "start": {
        "state": {
            "elbow_joint": 1.919643534880228,
            "shoulder_lift_joint": -1.8972525353963687,
            "shoulder_pan_joint": -1.1188672234189438,
            "wrist_1_joint": -1.5931878212786155,
            "wrist_2_joint": 1.5706036197970081,
            "wrist_3_joint": 1.118896926603594
        }
    },
    "waypoints": [
        {
            "positions": [
                -1.1188672234189438,
                -1.8972525353963687,
                1.919643534880228,
                -1.5931878212786155,
                1.5706036197970081,
                1.118896926603594
            ]
        },
        {
            "positions": [
                -1.0412492144895555,
                -1.8503622577151453,
                1.9239209443129461,
                -1.5465172153916094,
                1.4809320580481014,
                1.24556222772691
            ]
        },
        {
            "positions": [
                -0.9636312055601673,
                -1.803471980033922,
                1.928198353745664,
                -1.4998466095046032,
                1.3912604962991946,
                1.372227528850226
            ]
        },
        {
            "positions": [
                -0.8860131966307792,
                -1.7565817023526986,
                1.932475763178382,
                -1.4531760036175971,
                1.3015889345502876,
                1.498892829973542
            ]
        },
        {
            "positions": [
                -0.8083951877013908,
                -1.7096914246714754,
                1.9367531726111,
                -1.406505397730591,
                1.2119173728013808,
                1.625558131096858
            ]
        },
        {
            "positions": [
                -0.7307771787720027,
                -1.662801146990252,
                1.9410305820438178,
                -1.3598347918435851,
                1.122245811052474,
                1.7522234322201742
            ]
        },
        {
            "positions": [
                -0.6531591698426145,
                -1.6159108693090287,
                1.9453079914765359,
                -1.313164185956579,
                1.032574249303567,
                1.8788887333434903
            ]
        },
        {
            "positions": [
                -0.5755411609132262,
                -1.5690205916278053,
                1.9495854009092537,
                -1.266493580069573,
                0.9429026875546602,
                2.0055540344668064
            ]
        },
        {
            "positions": [
                -0.49792315198383796,
                -1.5221303139465818,
                1.9538628103419717,
                -1.2198229741825668,
                0.8532311258057534,
                2.132219335590122
            ]
        },
        {
            "positions": [
                -0.42030514305444977,
                -1.4752400362653586,
                1.9581402197746898,
                -1.1731523682955607,
                0.7635595640568467,
                2.2588846367134385
            ]
        },
        {
            "positions": [
                -0.34268713412506147,
                -1.4283497585841354,
                1.9624176292074076,
                -1.1264817624085546,
                0.6738880023079398,
                2.385549937836754
            ]
        },
        {
            "positions": [
                -0.26506912519567327,
                -1.381459480902912,
                1.9666950386401256,
                -1.0798111565215485,
                0.5842164405590329,
                2.5122152389600703
            ]
        },
        {
            "positions": [
                -0.18745111626628508,
                -1.3345692032216885,
                1.9709724480728434,
                -1.0331405506345424,
                0.4945448788101261,
                2.6388805400833864
            ]
        },
        {
            "positions": [
                -0.10983310733689677,
                -1.2876789255404653,
                1.9752498575055615,
                -0.9864699447475362,
                0.4048733170612193,
                2.7655458412067024
            ]
        },
        {
            "positions": [
                -0.03221509840750847,
                -1.2407886478592418,
                1.9795272669382795,
                -0.9397993388605302,
                0.3152017553123123,
                2.8922111423300185
            ]
        },
        {
            "positions": [
                0.045402910521879614,
                -1.1938983701780184,
                1.9838046763709973,
                -0.8931287329735241,
                0.22553019356340553,
                3.018876443453334
            ]
        },
        {
            "positions": [
                0.12302091945126784,
                -1.1470080924967951,
                1.9880820858037154,
                -0.846458127086518,
                0.13585863181449878,
                3.1455417445766507
            ]
        }
    ]
}