{
    "goal": {
        "global_pose": {
            "orientation": {
                "w": 0.5084816217422485,
                "x": -0.49083608388900757,
                "y": 0.5182115435600281,
                "z": -0.4816462993621826
            },
            "position": {
                "x": 0.5540239810943604,
                "y": 0.030875300988554955,
                "z": 0.16403168439865112
            }
        },
        "name": "move_to_storage_A"
    },
    "id": "PRMstar_move_to_storage_A_23",
    "joint_names": [
        "shoulder_pan_joint",
        "shoulder_lift_joint",
        "elbow_joint",
        "wrist_1_joint",
        "wrist_2_joint",
        "wrist_3_joint"
    ],
    "metrics": {
        "cart_traj_len": 0.35375729223757113,
        "distance_elbow_joint": 0.45046177535694243,
        "distance_shoulder_lift_joint": 0.23485880206761678,
        "distance_shoulder_pan_joint": 0.46288580552221076,
        "distance_wrist_1_joint": 0.23872782054892372,
        "distance_wrist_2_joint": 1.0996348479665001,
        "distance_wrist_3_joint": 0.0917999502189506,
        "smoothness": 0.0,
        "time": 5.007551452,
        "traj_len": 1.6057300525558909,
        "weighted_distance": 2.0249275470086503
    },
    "planner": "PRMstar",
    "start": {
        "state": {
            "elbow_joint": 1.9715477243005601,
            "shoulder_lift_joint": -1.1394853015351272,
            "shoulder_pan_joint": 0.12281154014795169,
            "wrist_1_joint": -0.7804696478968182,
            "wrist_2_joint": 0.12958648046900423,
            "wrist_3_joint": -3.192491284697111
        }
    },
    "waypoints": [
        {
            "positions": [
                0.12281154014795169,
                -1.1394853015351272,
                1.9715477243005601,
                -0.7804696478968182,
                0.12958648046900423,
                -3.192491284697111
            ]
        },
        {
            "positions": [
                0.05668499650192159,
                -1.1730365589733582,
                2.035899406494409,
                -0.8145736222609501,
                0.2866771730356471,
                -3.1793770060944038
            ]
        },
        {
            "positions": [
                -0.009441547144108511,
                -1.206587816411589,
                2.100251088688258,
                -0.8486775966250821,
                0.44376786560229,
                -3.166262727491697
            ]
        },
        {
            "positions": [
                -0.07556809079013861,
                -1.2401390738498201,
                2.164602770882107,
                -0.8827815709892141,
                0.6008585581689329,
                -3.1531484488889894
            ]
        },
        {
            "positions": [
                -0.1416946344361687,
                -1.273690331288051,
                2.2289544530759557,
                -0.916885545353346,
                0.7579492507355757,
                -3.1400341702862824
            ]
        },
        {
            "positions": [
                -0.20782117808219885,
                -1.307241588726282,
                2.2933061352698045,
                -0.950989519717478,
                0.9150399433022186,
                -3.126919891683575
            ]
        },
        {
            "positions": [
                -0.2739477217282289,
                -1.3407928461645129,
                2.3576578174636538,
                -0.9850934940816098,
                1.0721306358688616,
                -3.113805613080868
            ]
        },
        {
            "positions": [
                -0.34007426537425905,
                -1.374344103602744,
                2.4220094996575026,
                -1.0191974684457419,
                1.2292213284355042,
                -3.1006913344781606
            ]
        }
    ]
}