{
    "goal": {
        "global_pose": {
            "orientation": {
                "w": 0.7047431468963623,
                "x": -0.7094548344612122,
                "y": 0.0024358443915843964,
                "z": -0.0022348060738295317
            },
            "position": {
                "x": 0.6094750761985779,
                "y": 0.3671506643295288,
                "z": 0.19426114857196808
            }
        },
        "name": "move_to_magneteinheit_A"
    },
    "id": "PRMstar_move_to_magneteinheit_A_20",
    "joint_names": [
        "shoulder_pan_joint",
        "shoulder_lift_joint",
        "elbow_joint",
        "wrist_1_joint",
        "wrist_2_joint",
        "wrist_3_joint"
    ],
    "metrics": {
        "cart_traj_len": 3.1623988993167576,
        "distance_elbow_joint": 3.903490734056377,
        "distance_shoulder_lift_joint": 1.3030993255901338,
        "distance_shoulder_pan_joint": 3.3959300153131844,
        "distance_wrist_1_joint": 0.7082749694223122,
        "distance_wrist_2_joint": 1.7015738085858811,
        "distance_wrist_3_joint": 3.570884957825586,
        "smoothness": 0.15896456796720043,
        "time": 5.033462287,
        "traj_len": 3.818802667171148,
        "weighted_distance": 4.912725567793588
    },
    "planner": "PRMstar",
    "start": {
        "state": {
            "elbow_joint": -1.919618573717145,
            "shoulder_lift_joint": -1.2443395971678275,
            "shoulder_pan_joint": 2.6996025300909787,
            "wrist_1_joint": -1.548550951253194,
            "wrist_2_joint": -1.5709469090946802,
            "wrist_3_joint": 0.4420197732051276
        }
    },
    "waypoints": [
        {
            "positions": [
                2.6996025300909787,
                -1.2443395971678275,
                -1.919618573717145,
                -1.548550951253194,
                -1.5709469090946802,
                0.4420197732051276
            ]
        },
        {
            "positions": [
                2.6000470259791397,
                -1.2644300407368512,
                -1.7915062638796941,
                -1.528640980113167,
                -1.5337315662752748,
                0.36038497875388875
            ]
        },
        {
            "positions": [
                2.500491521867301,
                -1.284520484305875,
                -1.663393954042243,
                -1.5087310089731398,
                -1.4965162234558695,
                0.27875018430265
            ]
        },
        {
            "positions": [
                2.400936017755462,
                -1.3046109278748987,
                -1.535281644204792,
                -1.4888210378331128,
                -1.459300880636464,
                0.1971153898514111
            ]
        },
        {
            "positions": [
                2.3013805136436236,
                -1.3247013714439224,
                -1.4071693343673413,
                -1.4689110666930856,
                -1.4220855378170587,
                0.1154805954001723
            ]
        },
        {
            "positions": [
                2.2018250095317846,
                -1.3447918150129463,
                -1.2790570245298905,
                -1.4490010955530586,
                -1.3848701949976534,
                0.03384580094893347
            ]
        },
        {
            "positions": [
                2.102269505419946,
                -1.36488225858197,
                -1.1509447146924394,
                -1.4290911244130313,
                -1.3476548521782479,
                -0.047788993502305366
            ]
        },
        {
            "positions": [
                2.002714001308107,
                -1.3849727021509937,
                -1.0228324048549884,
                -1.4091811532730043,
                -1.3104395093588426,
                -0.1294237879535442
            ]
        },
        {
            "positions": [
                1.9031584971962685,
                -1.4050631457200176,
                -0.8947200950175376,
                -1.389271182132977,
                -1.2732241665394373,
                -0.21105858240478298
            ]
        },
        {
            "positions": [
                1.8036029930844295,
                -1.4251535892890412,
                -0.7666077851800868,
                -1.36936121099295,
                -1.236008823720032,
                -0.29269337685602176
            ]
        },
        {
            "positions": [
                1.704047488972591,
                -1.445244032858065,
                -0.638495475342636,
                -1.3494512398529228,
                -1.1987934809006267,
                -0.37432817130726065
            ]
        },
        {
            "positions": [
                1.6044919848607522,
                -1.4653344764270888,
                -0.5103831655051849,
                -1.3295412687128958,
                -1.1615781380812211,
                -0.45596296575849943
            ]
        },
        {
            "positions": [
                1.5049364807489132,
                -1.4854249199961125,
                -0.3822708556677339,
                -1.3096312975728686,
                -1.1243627952618158,
                -0.5375977602097384
            ]
        },
        {
            "positions": [
                1.4053809766370744,
                -1.5055153635651362,
                -0.2541585458302831,
                -1.2897213264328415,
                -1.0871474524424105,
                -0.6192325546609772
            ]
        },
        {
            "positions": [
                1.3058254725252356,
                -1.52560580713416,
                -0.12604623599283205,
                -1.2698113552928145,
                -1.049932109623005,
                -0.7008673491122159
            ]
        },
        {
            "positions": [
                1.2062699684133968,
                -1.5456962507031837,
                0.0020660738446187654,
                -1.2499013841527873,
                -1.0127167668035997,
                -0.7825021435634547
            ]
        },
        {
            "positions": [
                1.106714464301558,
                -1.5657866942722074,
                0.1301783836820698,
                -1.22999141301276,
                -0.9755014239841944,
                -0.8641369380146935
            ]
        },
        {
            "positions": [
                1.0071589601897193,
                -1.5858771378412313,
                0.2582906935195204,
                -1.210081441872733,
                -0.938286081164789,
                -0.9457717324659323
            ]
        },
        {
            "positions": [
                0.9076034560778805,
                -1.605967581410255,
                0.3864030033569714,
                -1.190171470732706,
                -0.9010707383453836,
                -1.027406526917171
            ]
        },
        {
            "positions": [
                0.8080479519660417,
                -1.6260580249792786,
                0.5145153131944225,
                -1.1702614995926788,
                -0.8638553955259782,
                -1.1090413213684098
            ]
        },
        {
            "positions": [
                0.708492447854203,
                -1.6461484685483025,
                0.642627623031873,
                -1.1503515284526518,
                -0.8266400527065729,
                -1.1906761158196488
            ]
        },
        {
            "positions": [
                0.6089369437423642,
                -1.6662389121173262,
                0.7707399328693241,
                -1.1304415573126245,
                -0.7894247098871675,
                -1.2723109102708876
            ]
        },
        {
            "positions": [
                0.5093814396305256,
                -1.68632935568635,
                0.8988522427067751,
                -1.1105315861725975,
                -0.7522093670677622,
                -1.3539457047221264
            ]
        },
        {
            "positions": [
                0.4098259355186862,
                -1.7064197992553738,
                1.0269645525442261,
                -1.0906216150325703,
                -0.7149940242483567,
                -1.4355804991733654
            ]
        },
        {
            "positions": [
                0.3102704314068476,
                -1.7265102428243975,
                1.1550768623816772,
                -1.0707116438925433,
                -0.6777786814289514,
                -1.5172152936246042
            ]
        },
        {
            "positions": [
                0.21071492729500862,
                -1.7466006863934211,
                1.2831891722191282,
                -1.050801672752516,
                -0.640563338609546,
                -1.5988500880758432
            ]
        },
        {
            "positions": [
                0.11115942318317007,
                -1.766691129962445,
                1.4113014820565788,
                -1.030891701612489,
                -0.6033479957901406,
                -1.680484882527082
            ]
        },
        {
            "positions": [
                0.01160391907133107,
                -1.7867815735314687,
                1.5394137918940298,
                -1.0109817304724618,
                -0.5661326529707353,
                -1.7621196769783207
            ]
        },
        {
            "positions": [
                -0.08795158504050749,
                -1.8068720171004924,
                1.6675261017314809,
                -0.9910717593324347,
                -0.5289173101513298,
                -1.8437544714295595
            ]
        },
        {
            "positions": [
                -0.18750708915234648,
                -1.8269624606695163,
                1.7956384115689314,
                -0.9711617881924076,
                -0.4917019673319245,
                -1.9253892658807983
            ]
        },
        {
            "positions": [
                -0.28706259326418526,
                -1.84705290423854,
                1.9237507214063827,
                -0.9512518170523805,
                -0.4544866245125191,
                -2.007024060332037
            ]
        },
        {
            "positions": [
                -0.23590448176943282,
                -1.7595046519236124,
                1.931265901272989,
                -0.9373798376496931,
                -0.38134743401205407,
                -2.1472542008680895
            ]
        },
        {
            "positions": [
                -0.18474637027468038,
                -1.6719563996086846,
                1.9387810811395951,
                -0.9235078582470059,
                -0.308208243511589,
                -2.2874843414041424
            ]
        },
        {
            "positions": [
                -0.13358825877992797,
                -1.584408147293757,
                1.9462962610062013,
                -0.9096358788443185,
                -0.23506905301112394,
                -2.4277144819401952
            ]
        },
        {
            "positions": [
                -0.08243014728517553,
                -1.4968598949788294,
                1.9538114408728076,
                -0.8957638994416313,
                -0.16192986251065888,
                -2.5679446224762477
            ]
        },
        {
            "positions": [
                -0.03127203579042309,
                -1.4093116426639016,
                1.9613266207394138,
                -0.8818919200389439,
                -0.08879067201019386,
                -2.7081747630123
            ]
        },
        {
            "positions": [
                0.01988607570432932,
                -1.321763390348974,
                1.96884180060602,
                -0.8680199406362565,
                -0.015651481509728782,
                -2.848404903548353
            ]
        },
        {
            "positions": [
                0.07104418719908179,
                -1.2342151380340463,
                1.9763569804726262,
                -0.8541479612335693,
                0.0574877089907363,
                -2.988635044084406
            ]
        },
        {
            "positions": [
                0.12220229869383419,
                -1.1466668857191187,
                1.9838721603392324,
                -0.8402759818308819,
                0.13062689949120126,
                -3.1288651846204583
            ]
        }
    ]
}{
    "goal": {
        "global_pose": {
            "orientation": {
                "w": 0.7047431468963623,
                "x": -0.7094548344612122,
                "y": 0.0024358443915843964,
                "z": -0.0022348060738295317
            },
            "position": {
                "x": 0.6094750761985779,
                "y": 0.3671506643295288,
                "z": 0.19426114857196808
            }
        },
        "name": "move_to_magneteinheit_A"
    },
    "id": "PRMstar_move_to_magneteinheit_A_20",
    "joint_names": [
        "shoulder_pan_joint",
        "shoulder_lift_joint",
        "elbow_joint",
        "wrist_1_joint",
        "wrist_2_joint",
        "wrist_3_joint"
    ],
    "metrics": {
        "cart_traj_len": 1.2047711018871425,
        "distance_elbow_joint": 0.03812182013129495,
        "distance_shoulder_lift_joint": 0.765792775164106,
        "distance_shoulder_pan_joint": 1.241942339115641,
        "distance_wrist_1_joint": 0.8837151399692988,
        "distance_wrist_2_joint": 1.4344196859264773,
        "distance_wrist_3_joint": 1.900584318446635,
        "smoothness": 4.1796631846258547e-16,
        "time": 5.016613222,
        "traj_len": 2.5029135180332247,
        "weighted_distance": 3.5190736766289077
    },
    "planner": "PRMstar",
    "start": {
        "state": {
            "elbow_joint": 1.919643534880228,
            "shoulder_lift_joint": -1.8972525353963687,
            "shoulder_pan_joint": -1.1188672234189438,
            "wrist_1_joint": -1.5931878212786155,
            "wrist_2_joint": 1.5706036197970081,
            "wrist_3_joint": 1.118896926603594
        }
    },
    "waypoints": [
        {
            "positions": [
                -1.1188672234189438,
                -1.8972525353963687,
                1.919643534880228,
                -1.5931878212786155,
                1.5706036197970081,
                1.118896926603594
            ]
        },
        {
            "positions": [
                -1.0412458272242162,
                -1.8493904869486122,
                1.922026148638434,
                -1.5379556250305342,
                1.4809523894266032,
                1.2376834465065087
            ]
        },
        {
            "positions": [
                -0.9636244310294887,
                -1.8015284385008554,
                1.92440876239664,
                -1.4827234287824531,
                1.3913011590561986,
                1.3564699664094233
            ]
        },
        {
            "positions": [
                -0.8860030348347612,
                -1.7536663900530989,
                1.9267913761548459,
                -1.427491232534372,
                1.3016499286857937,
                1.475256486312338
            ]
        },
        {
            "positions": [
                -0.8083816386400335,
                -1.7058043416053423,
                1.9291739899130518,
                -1.3722590362862908,
                1.2119986983153888,
                1.5940430062152526
            ]
        },
        {
            "positions": [
                -0.730760242445306,
                -1.6579422931575856,
                1.9315566036712577,
                -1.3170268400382095,
                1.122347467944984,
                1.7128295261181674
            ]
        },
        {
            "positions": [
                -0.6531388462505785,
                -1.610080244709829,
                1.9339392174294636,
                -1.2617946437901284,
                1.0326962375745792,
                1.831616046021082
            ]
        },
        {
            "positions": [
                -0.5755174500558509,
                -1.5622181962620725,
                1.9363218311876695,
                -1.2065624475420473,
                0.9430450072041743,
                1.9504025659239967
            ]
        },
        {
            "positions": [
                -0.49789605386112334,
                -1.5143561478143157,
                1.9387044449458757,
                -1.151330251293966,
                0.8533937768337695,
                2.0691890858269115
            ]
        },
        {
            "positions": [
                -0.4202746576663958,
                -1.466494099366559,
                1.9410870587040816,
                -1.0960980550458848,
                0.7637425464633647,
                2.187975605729826
            ]
        },
        {
            "positions": [
                -0.3426532614716682,
                -1.4186320509188024,
                1.9434696724622875,
                -1.0408658587978037,
                0.6740913160929598,
                2.3067621256327406
            ]
        },
        {
            "positions": [
                -0.26503186527694067,
                -1.3707700024710459,
                1.9458522862204934,
                -0.9856336625497225,
                0.584440085722555,
                2.425548645535655
            ]
        },
        {
            "positions": [
                -0.18741046908221315,
                -1.322907954023289,
                1.9482348999786994,
                -0.9304014663016413,
                0.4947888553521502,
                2.54433516543857
            ]
        },
        {
            "positions": [
                -0.10978907288748552,
                -1.2750459055755325,
                1.9506175137369053,
                -0.8751692700535602,
                0.4051376249817453,
                2.6631216853414847
            ]
        },
        {
            "positions": [
                -0.032167676692757885,
                -1.227183857127776,
                1.9530001274951112,
                -0.819937073805479,
                0.3154863946113404,
                2.7819082052443997
            ]
        },
        {
            "positions": [
                0.045453719501969525,
                -1.1793218086800192,
                1.9553827412533171,
                -0.7647048775573978,
                0.22583516424093575,
                2.9006947251473143
            ]
        },
        {
            "positions": [
                0.12307511569669709,
                -1.1314597602322627,
                1.957765355011523,
                -0.7094726813093166,
                0.13618393387053088,
                3.019481245050229
            ]
        }
    ]
}