{
    "goal": {
        "global_pose": {
            "orientation": {
                "w": 0.5084816217422485,
                "x": -0.49083608388900757,
                "y": 0.5182115435600281,
                "z": -0.4816462993621826
            },
            "position": {
                "x": 0.5540239810943604,
                "y": 0.030875300988554955,
                "z": 0.16403168439865112
            }
        },
        "name": "move_to_storage_A"
    },
    "id": "PRMstar_move_to_storage_A_144",
    "joint_names": [
        "shoulder_pan_joint",
        "shoulder_lift_joint",
        "elbow_joint",
        "wrist_1_joint",
        "wrist_2_joint",
        "wrist_3_joint"
    ],
    "metrics": {
        "cart_traj_len": 0.3529100512973473,
        "distance_elbow_joint": 0.4507788819594234,
        "distance_shoulder_lift_joint": 0.2349964949204666,
        "distance_shoulder_pan_joint": 0.46295242612696724,
        "distance_wrist_1_joint": 0.24509515816226657,
        "distance_wrist_2_joint": 1.0925362973306876,
        "distance_wrist_3_joint": 0.09455630766189138,
        "smoothness": 2.2204460668324854e-16,
        "time": 5.012481001,
        "traj_len": 1.6065228184379152,
        "weighted_distance": 2.0267362031054854
    },
    "planner": "PRMstar",
    "start": {
        "state": {
            "elbow_joint": 1.9715477243005601,
            "shoulder_lift_joint": -1.1394853015351272,
            "shoulder_pan_joint": 0.12281154014795169,
            "wrist_1_joint": -0.7804696478968182,
            "wrist_2_joint": 0.12958648046900423,
            "wrist_3_joint": -3.192491284697111
        }
    },
    "waypoints": [
        {
            "positions": [
                0.12281154014795169,
                -1.1394853015351272,
                1.9715477243005601,
                -0.7804696478968182,
                0.12958648046900423,
                -3.192491284697111
            ]
        },
        {
            "positions": [
                0.056675479272670665,
                -1.1730562293809081,
                2.0359447074376207,
                -0.8154832419199991,
                0.28566309437338816,
                -3.1789832407454126
            ]
        },
        {
            "positions": [
                -0.00946058160261036,
                -1.2066271572266891,
                2.1003416905746812,
                -0.85049683594318,
                0.4417397082777721,
                -3.1654751967937136
            ]
        },
        {
            "positions": [
                -0.0755966424778914,
                -1.24019808507247,
                2.164738673711742,
                -0.885510429966361,
                0.597816322182156,
                -3.151967152842015
            ]
        },
        {
            "positions": [
                -0.1417327033531724,
                -1.2737690129182508,
                2.229135656848802,
                -0.9205240239895419,
                0.75389293608654,
                -3.138459108890316
            ]
        },
        {
            "positions": [
                -0.20786876422845346,
                -1.3073399407640318,
                2.2935326399858624,
                -0.9555376180127229,
                0.9099695499909239,
                -3.1249510649386174
            ]
        },
        {
            "positions": [
                -0.2740048251037345,
                -1.3409108686098128,
                2.357929623122923,
                -0.9905512120359038,
                1.0660461638953078,
                -3.1114430209869184
            ]
        },
        {
            "positions": [
                -0.34014088597901554,
                -1.3744817964555938,
                2.4223266062599835,
                -1.0255648060590847,
                1.2221227777996917,
                -3.09793497703522
            ]
        }
    ]
}