{
    "goal": {
        "global_pose": {
            "orientation": {
                "w": 0.5084816217422485,
                "x": -0.49083608388900757,
                "y": 0.5182115435600281,
                "z": -0.4816462993621826
            },
            "position": {
                "x": 0.5540239810943604,
                "y": 0.030875300988554955,
                "z": 0.16403168439865112
            }
        },
        "name": "move_to_storage_A"
    },
    "id": "PRMstar_move_to_storage_A_138",
    "joint_names": [
        "shoulder_pan_joint",
        "shoulder_lift_joint",
        "elbow_joint",
        "wrist_1_joint",
        "wrist_2_joint",
        "wrist_3_joint"
    ],
    "metrics": {
        "cart_traj_len": 0.3534939741371335,
        "distance_elbow_joint": 0.4497745810185032,
        "distance_shoulder_lift_joint": 0.23547564959944878,
        "distance_shoulder_pan_joint": 0.4632339034797804,
        "distance_wrist_1_joint": 0.23678854881066502,
        "distance_wrist_2_joint": 1.0961947302304629,
        "distance_wrist_3_joint": 0.09090903883364998,
        "smoothness": 9.992007159366741e-16,
        "time": 5.006814744,
        "traj_len": 1.6038629779293836,
        "weighted_distance": 2.021676979312209
    },
    "planner": "PRMstar",
    "start": {
        "state": {
            "elbow_joint": 1.9715477243005601,
            "shoulder_lift_joint": -1.1394853015351272,
            "shoulder_pan_joint": 0.12281154014795169,
            "wrist_1_joint": -0.7804696478968182,
            "wrist_2_joint": 0.12958648046900423,
            "wrist_3_joint": -3.192491284697111
        }
    },
    "waypoints": [
        {
            "positions": [
                0.12281154014795169,
                -1.1394853015351272,
                1.9715477243005601,
                -0.7804696478968182,
                0.12958648046900423,
                -3.192491284697111
            ]
        },
        {
            "positions": [
                0.056635268222268775,
                -1.1731246800493342,
                2.035801235874632,
                -0.8142965834411989,
                0.28618572764478467,
                -3.1795042791494468
            ]
        },
        {
            "positions": [
                -0.009541003703414139,
                -1.206764058563541,
                2.100054747448704,
                -0.8481235189855796,
                0.44278497482056506,
                -3.166517273601783
            ]
        },
        {
            "positions": [
                -0.07571727562909704,
                -1.2404034370777481,
                2.164308259022776,
                -0.8819504545299603,
                0.5993842219963454,
                -3.1535302680541184
            ]
        },
        {
            "positions": [
                -0.14189354755477995,
                -1.274042815591955,
                2.2285617705968477,
                -0.915777390074341,
                0.7559834691721259,
                -3.140543262506454
            ]
        },
        {
            "positions": [
                -0.20806981948046288,
                -1.307682194106162,
                2.2928152821709196,
                -0.9496043256187218,
                0.9125827163479063,
                -3.1275562569587896
            ]
        },
        {
            "positions": [
                -0.27424609140614575,
                -1.3413215726203689,
                2.3570687937449915,
                -0.9834312611631024,
                1.0691819635236866,
                -3.1145692514111256
            ]
        },
        {
            "positions": [
                -0.3404223633318287,
                -1.374960951134576,
                2.4213223053190633,
                -1.0172581967074832,
                1.2257812106994672,
                -3.101582245863461
            ]
        }
    ]
}