{
    "goal": {
        "global_pose": {
            "orientation": {
                "w": 0.5084816217422485,
                "x": -0.49083608388900757,
                "y": 0.5182115435600281,
                "z": -0.4816462993621826
            },
            "position": {
                "x": 0.5540239810943604,
                "y": 0.030875300988554955,
                "z": 0.16403168439865112
            }
        },
        "name": "move_to_storage_A"
    },
    "id": "PRMstar_move_to_storage_A_34",
    "joint_names": [
        "shoulder_pan_joint",
        "shoulder_lift_joint",
        "elbow_joint",
        "wrist_1_joint",
        "wrist_2_joint",
        "wrist_3_joint"
    ],
    "metrics": {
        "cart_traj_len": 0.35348653795258117,
        "distance_elbow_joint": 0.4486884287714781,
        "distance_shoulder_lift_joint": 0.2339617478915943,
        "distance_shoulder_pan_joint": 0.46408850360805864,
        "distance_wrist_1_joint": 0.2389321929189837,
        "distance_wrist_2_joint": 1.0911238311453015,
        "distance_wrist_3_joint": 0.08730571665922415,
        "smoothness": 1.2212453191034883e-15,
        "time": 5.005811399000001,
        "traj_len": 1.601280868865497,
        "weighted_distance": 2.017118707061479
    },
    "planner": "PRMstar",
    "start": {
        "state": {
            "elbow_joint": 1.9715477243005601,
            "shoulder_lift_joint": -1.1394853015351272,
            "shoulder_pan_joint": 0.12281154014795169,
            "wrist_1_joint": -0.7804696478968182,
            "wrist_2_joint": 0.12958648046900423,
            "wrist_3_joint": -3.192491284697111
        }
    },
    "waypoints": [
        {
            "positions": [
                0.12281154014795169,
                -1.1394853015351272,
                1.9715477243005601,
                -0.7804696478968182,
                0.12958648046900423,
                -3.192491284697111
            ]
        },
        {
            "positions": [
                0.0565131824896576,
                -1.1729084083767836,
                2.035646071267914,
                -0.8146028183138159,
                0.28546131348976156,
                -3.1800190394600794
            ]
        },
        {
            "positions": [
                -0.009785175168636487,
                -1.2063315152184397,
                2.099744418235268,
                -0.8487359887308135,
                0.44133614651051895,
                -3.167546794223047
            ]
        },
        {
            "positions": [
                -0.07608353282693057,
                -1.2397546220600961,
                2.163842765202622,
                -0.8828691591478112,
                0.5972109795312763,
                -3.1550745489860152
            ]
        },
        {
            "positions": [
                -0.14238189048522465,
                -1.2731777289017525,
                2.227941112169976,
                -0.9170023295648089,
                0.7530858125520337,
                -3.142602303748983
            ]
        },
        {
            "positions": [
                -0.20868024814351877,
                -1.306600835743409,
                2.2920394591373303,
                -0.9511354999818065,
                0.9089606455727911,
                -3.130130058511951
            ]
        },
        {
            "positions": [
                -0.2749786058018128,
                -1.340023942585065,
                2.3561378061046843,
                -0.9852686703988042,
                1.0648354785935483,
                -3.117657813274919
            ]
        },
        {
            "positions": [
                -0.34127696346010694,
                -1.3734470494267215,
                2.420236153072038,
                -1.0194018408158019,
                1.2207103116143059,
                -3.105185568037887
            ]
        }
    ]
}