{
    "goal": {
        "global_pose": {
            "orientation": {
                "w": 0.5084816217422485,
                "x": -0.49083608388900757,
                "y": 0.5182115435600281,
                "z": -0.4816462993621826
            },
            "position": {
                "x": 0.5540239810943604,
                "y": 0.030875300988554955,
                "z": 0.16403168439865112
            }
        },
        "name": "move_to_storage_A"
    },
    "id": "PRMstar_move_to_storage_A_30",
    "joint_names": [
        "shoulder_pan_joint",
        "shoulder_lift_joint",
        "elbow_joint",
        "wrist_1_joint",
        "wrist_2_joint",
        "wrist_3_joint"
    ],
    "metrics": {
        "cart_traj_len": 0.3534054334106258,
        "distance_elbow_joint": 0.4480282828259816,
        "distance_shoulder_lift_joint": 0.2337365528064379,
        "distance_shoulder_pan_joint": 0.4609144659287022,
        "distance_wrist_1_joint": 0.23573229195400802,
        "distance_wrist_2_joint": 1.104142247399603,
        "distance_wrist_3_joint": 0.08797633002526473,
        "smoothness": 1.1102230244806396e-15,
        "time": 5.0147219100000004,
        "traj_len": 1.6032873014341495,
        "weighted_distance": 2.02147405878585
    },
    "planner": "PRMstar",
    "start": {
        "state": {
            "elbow_joint": 1.9715477243005601,
            "shoulder_lift_joint": -1.1394853015351272,
            "shoulder_pan_joint": 0.12281154014795169,
            "wrist_1_joint": -0.7804696478968182,
            "wrist_2_joint": 0.12958648046900423,
            "wrist_3_joint": -3.192491284697111
        }
    },
    "waypoints": [
        {
            "positions": [
                0.12281154014795169,
                -1.1394853015351272,
                1.9715477243005601,
                -0.7804696478968182,
                0.12958648046900423,
                -3.192491284697111
            ]
        },
        {
            "positions": [
                0.05696661644385137,
                -1.1728762376503326,
                2.035551764704272,
                -0.8141456896045336,
                0.2873210872403761,
                -3.179923237550645
            ]
        },
        {
            "positions": [
                -0.00887830726024895,
                -1.206267173765538,
                2.0995558051079835,
                -0.847821731312249,
                0.44505569401174794,
                -3.1673551904041783
            ]
        },
        {
            "positions": [
                -0.07472323096434925,
                -1.2396581098807433,
                2.163559845511695,
                -0.8814977730199645,
                0.6027903007831198,
                -3.154787143257712
            ]
        },
        {
            "positions": [
                -0.14056815466844957,
                -1.2730490459959487,
                2.2275638859154068,
                -0.9151738147276799,
                0.7605249075544916,
                -3.1422190961112455
            ]
        },
        {
            "positions": [
                -0.2064130783725499,
                -1.3064399821111543,
                2.2915679263191184,
                -0.9488498564353953,
                0.9182595143258635,
                -3.1296510489647793
            ]
        },
        {
            "positions": [
                -0.2722580020766502,
                -1.3398309182263597,
                2.35557196672283,
                -0.9825258981431108,
                1.0759941210972355,
                -3.1170830018183127
            ]
        },
        {
            "positions": [
                -0.3381029257807505,
                -1.373221854341565,
                2.4195760071265418,
                -1.0162019398508262,
                1.2337287278686073,
                -3.1045149546718465
            ]
        }
    ]
}