{
    "goal": {
        "global_pose": {
            "orientation": {
                "w": 0.5084816217422485,
                "x": -0.49083608388900757,
                "y": 0.5182115435600281,
                "z": -0.4816462993621826
            },
            "position": {
                "x": 0.5540239810943604,
                "y": 0.030875300988554955,
                "z": 0.16403168439865112
            }
        },
        "name": "move_to_storage_A"
    },
    "id": "PRMstar_move_to_storage_A_96",
    "joint_names": [
        "shoulder_pan_joint",
        "shoulder_lift_joint",
        "elbow_joint",
        "wrist_1_joint",
        "wrist_2_joint",
        "wrist_3_joint"
    ],
    "metrics": {
        "cart_traj_len": 0.35244474264237974,
        "distance_elbow_joint": 0.447715687562138,
        "distance_shoulder_lift_joint": 0.23359291015111583,
        "distance_shoulder_pan_joint": 0.4611639400924812,
        "distance_wrist_1_joint": 0.23547901510107827,
        "distance_wrist_2_joint": 1.0956433804296073,
        "distance_wrist_3_joint": 0.0916431679476486,
        "smoothness": 0.0,
        "time": 5.004530034999999,
        "traj_len": 1.6016360701745167,
        "weighted_distance": 2.0198135638494095
    },
    "planner": "PRMstar",
    "start": {
        "state": {
            "elbow_joint": 1.9715477243005601,
            "shoulder_lift_joint": -1.1394853015351272,
            "shoulder_pan_joint": 0.12281154014795169,
            "wrist_1_joint": -0.7804696478968182,
            "wrist_2_joint": 0.12958648046900423,
            "wrist_3_joint": -3.192491284697111
        }
    },
    "waypoints": [
        {
            "positions": [
                0.12281154014795169,
                -1.1394853015351272,
                1.9715477243005601,
                -0.7804696478968182,
                0.12958648046900423,
                -3.192491284697111
            ]
        },
        {
            "positions": [
                0.056930977277597244,
                -1.1728557172710008,
                2.0355071082380083,
                -0.8141095071969722,
                0.2861069633875195,
                -3.179399403561733
            ]
        },
        {
            "positions": [
                -0.0089495855927572,
                -1.2062261330068746,
                2.099466492175457,
                -0.8477493664971263,
                0.44262744630603484,
                -3.1663075224263544
            ]
        },
        {
            "positions": [
                -0.07483014846311166,
                -1.2395965487427483,
                2.163425876112905,
                -0.8813892257972803,
                0.5991479292245502,
                -3.153215641290976
            ]
        },
        {
            "positions": [
                -0.14071071133346608,
                -1.272966964478622,
                2.227385260050353,
                -0.9150290850974343,
                0.7556684121430655,
                -3.1401237601555976
            ]
        },
        {
            "positions": [
                -0.20659127420382056,
                -1.3063373802144955,
                2.2913446439878014,
                -0.9486689443975884,
                0.9121888950615809,
                -3.1270318790202194
            ]
        },
        {
            "positions": [
                -0.272471837074175,
                -1.3397077959503694,
                2.35530402792525,
                -0.9823088036977423,
                1.0687093779800962,
                -3.1139399978848408
            ]
        },
        {
            "positions": [
                -0.3383523999445295,
                -1.373078211686243,
                2.419263411862698,
                -1.0159486629978964,
                1.2252298608986116,
                -3.1008481167494626
            ]
        }
    ]
}