{
    "goal": {
        "global_pose": {
            "orientation": {
                "w": 0.5084816217422485,
                "x": -0.49083608388900757,
                "y": 0.5182115435600281,
                "z": -0.4816462993621826
            },
            "position": {
                "x": 0.5540239810943604,
                "y": 0.030875300988554955,
                "z": 0.16403168439865112
            }
        },
        "name": "move_to_storage_A"
    },
    "id": "PRMstar_move_to_storage_A_79",
    "joint_names": [
        "shoulder_pan_joint",
        "shoulder_lift_joint",
        "elbow_joint",
        "wrist_1_joint",
        "wrist_2_joint",
        "wrist_3_joint"
    ],
    "metrics": {
        "cart_traj_len": 0.3525935244105193,
        "distance_elbow_joint": 0.45088578885958563,
        "distance_shoulder_lift_joint": 0.2337144394197812,
        "distance_shoulder_pan_joint": 0.4621345942236678,
        "distance_wrist_1_joint": 0.2469981892521399,
        "distance_wrist_2_joint": 1.0931126810676002,
        "distance_wrist_3_joint": 0.0951919295511292,
        "smoothness": 0.0,
        "time": 5.020534358,
        "traj_len": 1.6068719993745315,
        "weighted_distance": 2.0279379556080857
    },
    "planner": "PRMstar",
    "start": {
        "state": {
            "elbow_joint": 1.9715477243005601,
            "shoulder_lift_joint": -1.1394853015351272,
            "shoulder_pan_joint": 0.12281154014795169,
            "wrist_1_joint": -0.7804696478968182,
            "wrist_2_joint": 0.12958648046900423,
            "wrist_3_joint": -3.192491284697111
        }
    },
    "waypoints": [
        {
            "positions": [
                0.12281154014795169,
                -1.1394853015351272,
                1.9715477243005601,
                -0.7804696478968182,
                0.12958648046900423,
                -3.192491284697111
            ]
        },
        {
            "positions": [
                0.05679231240171344,
                -1.1728730785950958,
                2.0359599798519294,
                -0.8157551035042667,
                0.2857454349072328,
                -3.1788924376183783
            ]
        },
        {
            "positions": [
                -0.009226915344524814,
                -1.2062608556550647,
                2.1003722354032988,
                -0.8510405591117153,
                0.4419043893454614,
                -3.1652935905396458
            ]
        },
        {
            "positions": [
                -0.07524614309076307,
                -1.2396486327150333,
                2.164784490954668,
                -0.8863260147191638,
                0.59806334378369,
                -3.151694743460913
            ]
        },
        {
            "positions": [
                -0.1412653708370013,
                -1.2730364097750022,
                2.2291967465060374,
                -0.9216114703266124,
                0.7542222982219186,
                -3.1380958963821803
            ]
        },
        {
            "positions": [
                -0.2072845985832396,
                -1.3064241868349709,
                2.293609002057407,
                -0.956896925934061,
                0.9103812526601472,
                -3.1244970493034474
            ]
        },
        {
            "positions": [
                -0.2733038263294778,
                -1.3398119638949395,
                2.3580212576087765,
                -0.9921823815415095,
                1.0665402070983756,
                -3.110898202224715
            ]
        },
        {
            "positions": [
                -0.3393230540757161,
                -1.3731997409549084,
                2.4224335131601458,
                -1.027467837148958,
                1.2226991615366045,
                -3.097299355145982
            ]
        }
    ]
}