{
    "goal": {
        "global_pose": {
            "orientation": {
                "w": 0.5084816217422485,
                "x": -0.49083608388900757,
                "y": 0.5182115435600281,
                "z": -0.4816462993621826
            },
            "position": {
                "x": 0.5540239810943604,
                "y": 0.030875300988554955,
                "z": 0.16403168439865112
            }
        },
        "name": "move_to_storage_A"
    },
    "id": "PRMstar_move_to_storage_A_71",
    "joint_names": [
        "shoulder_pan_joint",
        "shoulder_lift_joint",
        "elbow_joint",
        "wrist_1_joint",
        "wrist_2_joint",
        "wrist_3_joint"
    ],
    "metrics": {
        "cart_traj_len": 0.35289274420559535,
        "distance_elbow_joint": 0.4478700694889146,
        "distance_shoulder_lift_joint": 0.23311982822583865,
        "distance_shoulder_pan_joint": 0.4607666474796591,
        "distance_wrist_1_joint": 0.2402963565955426,
        "distance_wrist_2_joint": 1.1001693161760553,
        "distance_wrist_3_joint": 0.09402369006705635,
        "smoothness": 4.440892098500626e-16,
        "time": 5.0069288720000005,
        "traj_len": 1.6050688172265593,
        "weighted_distance": 2.0260204739683103
    },
    "planner": "PRMstar",
    "start": {
        "state": {
            "elbow_joint": 1.9715477243005601,
            "shoulder_lift_joint": -1.1394853015351272,
            "shoulder_pan_joint": 0.12281154014795169,
            "wrist_1_joint": -0.7804696478968182,
            "wrist_2_joint": 0.12958648046900423,
            "wrist_3_joint": -3.192491284697111
        }
    },
    "waypoints": [
        {
            "positions": [
                0.12281154014795169,
                -1.1394853015351272,
                1.9715477243005601,
                -0.7804696478968182,
                0.12958648046900423,
                -3.192491284697111
            ]
        },
        {
            "positions": [
                0.05698773336514325,
                -1.1727881341388184,
                2.0355291627989764,
                -0.8147976988390385,
                0.2867535256370121,
                -3.179059328973246
            ]
        },
        {
            "positions": [
                -0.008836073417665194,
                -1.2060909667425097,
                2.0995106012973928,
                -0.8491257497812589,
                0.44392057080502,
                -3.165627373249381
            ]
        },
        {
            "positions": [
                -0.07465988020047364,
                -1.239393799346201,
                2.163492039795809,
                -0.8834538007234792,
                0.6010876159730278,
                -3.152195417525516
            ]
        },
        {
            "positions": [
                -0.14048368698328206,
                -1.272696631949892,
                2.2274734782942254,
                -0.9177818516656997,
                0.7582546611410358,
                -3.1387634618016502
            ]
        },
        {
            "positions": [
                -0.20630749376609053,
                -1.3059994645535833,
                2.291454916792642,
                -0.9521099026079201,
                0.9154217063090437,
                -3.125331506077785
            ]
        },
        {
            "positions": [
                -0.27213130054889895,
                -1.3393022971572746,
                2.3554363552910584,
                -0.9864379535501404,
                1.0725887514770516,
                -3.11189955035392
            ]
        },
        {
            "positions": [
                -0.3379551073317074,
                -1.3726051297609658,
                2.4194177937894747,
                -1.0207660044923608,
                1.2297557966450594,
                -3.098467594630055
            ]
        }
    ]
}