{
    "goal": {
        "global_pose": {
            "orientation": {
                "w": 0.7047431468963623,
                "x": -0.7094548344612122,
                "y": 0.0024358443915843964,
                "z": -0.0022348060738295317
            },
            "position": {
                "x": 0.6094750761985779,
                "y": 0.3671506643295288,
                "z": 0.19426114857196808
            }
        },
        "name": "move_to_magneteinheit_A"
    },
    "id": "PRMstar_move_to_magneteinheit_A_83",
    "joint_names": [
        "shoulder_pan_joint",
        "shoulder_lift_joint",
        "elbow_joint",
        "wrist_1_joint",
        "wrist_2_joint",
        "wrist_3_joint"
    ],
    "metrics": {
        "cart_traj_len": 2.9501642571283613,
        "distance_elbow_joint": 3.934660765258523,
        "distance_shoulder_lift_joint": 0.9231064920653455,
        "distance_shoulder_pan_joint": 2.8016123488451443,
        "distance_wrist_1_joint": 3.5449473212688405,
        "distance_wrist_2_joint": 1.610073759346228,
        "distance_wrist_3_joint": 0.5254768690617149,
        "smoothness": 0.07704958726138561,
        "time": 5.048498371,
        "traj_len": 3.652379711345166,
        "weighted_distance": 4.421069143836624
    },
    "planner": "PRMstar",
    "start": {
        "state": {
            "elbow_joint": -1.919618573717145,
            "shoulder_lift_joint": -1.2443395971678275,
            "shoulder_pan_joint": 2.6996025300909787,
            "wrist_1_joint": -1.548550951253194,
            "wrist_2_joint": -1.5709469090946802,
            "wrist_3_joint": 0.4420197732051276
        }
    },
    "waypoints": [
        {
            "positions": [
                2.6996025300909787,
                -1.2443395971678275,
                -1.919618573717145,
                -1.548550951253194,
                -1.5709469090946802,
                0.4420197732051276
            ]
        },
        {
            "positions": [
                2.602115367287845,
                -1.2529502095167895,
                -1.784640693644239,
                -1.4555874543104226,
                -1.5145165515218837,
                0.4368456647080827
            ]
        },
        {
            "positions": [
                2.504628204484711,
                -1.2615608218657515,
                -1.6496628135713332,
                -1.362623957367651,
                -1.4580861939490875,
                0.4316715562110379
            ]
        },
        {
            "positions": [
                2.407141041681577,
                -1.2701714342147135,
                -1.5146849334984274,
                -1.2696604604248793,
                -1.401655836376291,
                0.42649744771399306
            ]
        },
        {
            "positions": [
                2.3096538788784433,
                -1.2787820465636754,
                -1.3797070534255214,
                -1.1766969634821078,
                -1.3452254788034945,
                0.4213233392169482
            ]
        },
        {
            "positions": [
                2.212166716075309,
                -1.2873926589126372,
                -1.2447291733526153,
                -1.0837334665393363,
                -1.288795121230698,
                0.4161492307199034
            ]
        },
        {
            "positions": [
                2.1146795532721754,
                -1.2960032712615992,
                -1.1097512932797096,
                -0.9907699695965647,
                -1.2323647636579018,
                0.41097512222285854
            ]
        },
        {
            "positions": [
                2.0171923904690416,
                -1.3046138836105612,
                -0.9747734132068037,
                -0.8978064726537931,
                -1.1759344060851054,
                0.4058010137258137
            ]
        },
        {
            "positions": [
                1.9197052276659075,
                -1.3132244959595232,
                -0.8397955331338978,
                -0.8048429757110216,
                -1.119504048512309,
                0.4006269052287688
            ]
        },
        {
            "positions": [
                1.8222180648627737,
                -1.3218351083084852,
                -0.704817653060992,
                -0.71187947876825,
                -1.0630736909395124,
                0.395452796731724
            ]
        },
        {
            "positions": [
                1.7247309020596397,
                -1.3304457206574472,
                -0.569839772988086,
                -0.6189159818254785,
                -1.006643333366716,
                0.39027868823467915
            ]
        },
        {
            "positions": [
                1.6272437392565058,
                -1.3390563330064091,
                -0.4348618929151802,
                -0.5259524848827068,
                -0.9502129757939197,
                0.3851045797376343
            ]
        },
        {
            "positions": [
                1.5297565764533718,
                -1.3476669453553711,
                -0.2998840128422742,
                -0.43298898793993534,
                -0.8937826182211234,
                0.3799304712405895
            ]
        },
        {
            "positions": [
                1.432269413650238,
                -1.356277557704333,
                -0.16490613276936839,
                -0.3400254909971636,
                -0.8373522606483269,
                0.3747563627435446
            ]
        },
        {
            "positions": [
                1.3347822508471041,
                -1.3648881700532949,
                -0.029928252696462376,
                -0.2470619940543921,
                -0.7809219030755306,
                0.36958225424649976
            ]
        },
        {
            "positions": [
                1.2372950880439701,
                -1.3734987824022569,
                0.10504962737644363,
                -0.15409849711162038,
                -0.724491545502734,
                0.3644081457494549
            ]
        },
        {
            "positions": [
                1.1398079252408364,
                -1.3821093947512189,
                0.24002750744934942,
                -0.061135000168849096,
                -0.6680611879299377,
                0.3592340372524101
            ]
        },
        {
            "positions": [
                1.0423207624377022,
                -1.3907200071001808,
                0.37500538752225565,
                0.03182849677392263,
                -0.6116308303571413,
                0.35405992875536524
            ]
        },
        {
            "positions": [
                0.9448335996345685,
                -1.3993306194491428,
                0.509983267595161,
                0.12479199371669414,
                -0.5552004727843449,
                0.3488858202583204
            ]
        },
        {
            "positions": [
                0.8473464368314345,
                -1.4079412317981048,
                0.6449611476680672,
                0.21775549065946587,
                -0.49877011521154846,
                0.3437117117612756
            ]
        },
        {
            "positions": [
                0.7498592740283008,
                -1.4165518441470668,
                0.779939027740973,
                0.31071898760223715,
                -0.442339757638752,
                0.3385376032642307
            ]
        },
        {
            "positions": [
                0.6523721112251666,
                -1.4251624564960288,
                0.9149169078138792,
                0.4036824845450089,
                -0.38590940006595553,
                0.33336349476718585
            ]
        },
        {
            "positions": [
                0.5548849484220328,
                -1.4337730688449906,
                1.0498947878867846,
                0.4966459814877804,
                -0.3294790424931593,
                0.32818938627014105
            ]
        },
        {
            "positions": [
                0.45739778561889866,
                -1.4423836811939528,
                1.1848726679596908,
                0.5896094784305519,
                -0.2730486849203628,
                0.3230152777730962
            ]
        },
        {
            "positions": [
                0.3599106228157649,
                -1.4509942935429145,
                1.3198505480325966,
                0.6825729753733234,
                -0.21661832734756659,
                0.3178411692760513
            ]
        },
        {
            "positions": [
                0.26242346001263117,
                -1.4596049058918765,
                1.4548284281055028,
                0.7755364723160953,
                -0.1601879697747699,
                0.3126670607790065
            ]
        },
        {
            "positions": [
                0.16493629720949743,
                -1.4682155182408385,
                1.5898063081784082,
                0.8684999692588669,
                -0.10375761220197366,
                0.30749295228196166
            ]
        },
        {
            "positions": [
                0.06744913440636342,
                -1.4768261305898005,
                1.7247841882513144,
                0.9614634662016386,
                -0.04732725462917729,
                0.3023188437849168
            ]
        },
        {
            "positions": [
                0.053305440809456046,
                -1.3805479584159261,
                1.7744112157120369,
                1.074517532810998,
                -0.0537328009484689,
                0.27258303722577115
            ]
        },
        {
            "positions": [
                0.03916174721254867,
                -1.284269786242052,
                1.824038243172759,
                1.1875715994203573,
                -0.06013834726776051,
                0.24284723066662556
            ]
        },
        {
            "positions": [
                0.025018053615641286,
                -1.1879916140681777,
                1.8736652706334815,
                1.3006256660297166,
                -0.06654389358705212,
                0.21311142410747994
            ]
        },
        {
            "positions": [
                0.01087436001873391,
                -1.0917134418943033,
                1.923292298094204,
                1.413679732639076,
                -0.07294943990634373,
                0.1833756175483343
            ]
        },
        {
            "positions": [
                0.039095404711958964,
                -1.0153366244073345,
                1.9462297714559975,
                1.5593588919832186,
                -0.08815741980723335,
                0.11666743919710391
            ]
        },
        {
            "positions": [
                0.06731644940518403,
                -0.9389598069203657,
                1.9691672448177908,
                1.705038051327361,
                -0.10336539970812299,
                0.049959260845873515
            ]
        },
        {
            "positions": [
                0.09553749409840906,
                -0.8625829894333968,
                1.9921047181795841,
                1.8507172106715037,
                -0.11857337960901262,
                -0.016748917505356897
            ]
        },
        {
            "positions": [
                0.12375853879163412,
                -0.7862061719464281,
                2.0150421915413776,
                1.9963963700156464,
                -0.13378135950990225,
                -0.08345709585658728
            ]
        }
    ]
}{
    "goal": {
        "global_pose": {
            "orientation": {
                "w": 0.7047431468963623,
                "x": -0.7094548344612122,
                "y": 0.0024358443915843964,
                "z": -0.0022348060738295317
            },
            "position": {
                "x": 0.6094750761985779,
                "y": 0.3671506643295288,
                "z": 0.19426114857196808
            }
        },
        "name": "move_to_magneteinheit_A"
    },
    "id": "PRMstar_move_to_magneteinheit_A_83",
    "joint_names": [
        "shoulder_pan_joint",
        "shoulder_lift_joint",
        "elbow_joint",
        "wrist_1_joint",
        "wrist_2_joint",
        "wrist_3_joint"
    ],
    "metrics": {
        "cart_traj_len": 1.243018426841329,
        "distance_elbow_joint": 0.2665554214455679,
        "distance_shoulder_lift_joint": 0.7516753635907418,
        "distance_shoulder_pan_joint": 1.2419098132852342,
        "distance_wrist_1_joint": 2.457874002160973,
        "distance_wrist_2_joint": 1.4452518012256574,
        "distance_wrist_3_joint": 4.244425888435746,
        "smoothness": 0.22534644124944697,
        "time": 5.034669822,
        "traj_len": 3.2260955178270714,
        "weighted_distance": 4.774899985382107
    },
    "planner": "PRMstar",
    "start": {
        "state": {
            "elbow_joint": 1.919643534880228,
            "shoulder_lift_joint": -1.8972525353963687,
            "shoulder_pan_joint": -1.1188672234189438,
            "wrist_1_joint": -1.5931878212786155,
            "wrist_2_joint": 1.5706036197970081,
            "wrist_3_joint": 1.118896926603594
        }
    },
    "waypoints": [
        {
            "positions": [
                -1.1188672234189438,
                -1.8972525353963687,
                1.919643534880228,
                -1.5931878212786155,
                1.5706036197970081,
                1.118896926603594
            ]
        },
        {
            "positions": [
                -1.0932904283007647,
                -1.878290236086628,
                1.911921955392567,
                -1.6589740686703738,
                1.497387062325008,
                0.9284838458900899
            ]
        },
        {
            "positions": [
                -1.0677136331825856,
                -1.8593279367768873,
                1.904200375904906,
                -1.7247603160621319,
                1.424170504853008,
                0.7380707651765858
            ]
        },
        {
            "positions": [
                -1.0421368380644065,
                -1.8403656374671469,
                1.896478796417245,
                -1.7905465634538902,
                1.3509539473810077,
                0.5476576844630816
            ]
        },
        {
            "positions": [
                -1.0165600429462271,
                -1.8214033381574062,
                1.8887572169295839,
                -1.8563328108456485,
                1.2777373899090076,
                0.35724460374957756
            ]
        },
        {
            "positions": [
                -0.990983247828048,
                -1.8024410388476655,
                1.8810356374419228,
                -1.9221190582374066,
                1.2045208324370076,
                0.1668315230360734
            ]
        },
        {
            "positions": [
                -0.9654064527098689,
                -1.7834787395379248,
                1.8733140579542618,
                -1.987905305629165,
                1.1313042749650073,
                -0.023581557677430753
            ]
        },
        {
            "positions": [
                -0.9398296575916898,
                -1.7645164402281843,
                1.8655924784666007,
                -2.053691553020923,
                1.0580877174930072,
                -0.21399463839093458
            ]
        },
        {
            "positions": [
                -0.9142528624735107,
                -1.7455541409184436,
                1.8578708989789396,
                -2.1194778004126813,
                0.9848711600210072,
                -0.40440771910443885
            ]
        },
        {
            "positions": [
                -0.8886760673553314,
                -1.726591841608703,
                1.8501493194912786,
                -2.1852640478044396,
                0.9116546025490071,
                -0.5948207998179429
            ]
        },
        {
            "positions": [
                -0.8630992722371523,
                -1.7076295422989622,
                1.8424277400036175,
                -2.251050295196198,
                0.8384380450770069,
                -0.7852338805314472
            ]
        },
        {
            "positions": [
                -0.8375224771189731,
                -1.6886672429892218,
                1.8347061605159565,
                -2.316836542587956,
                0.7652214876050069,
                -0.9756469612449512
            ]
        },
        {
            "positions": [
                -0.811945682000794,
                -1.669704943679481,
                1.8269845810282954,
                -2.382622789979714,
                0.6920049301330067,
                -1.1660600419584555
            ]
        },
        {
            "positions": [
                -0.7863688868826149,
                -1.6507426443697404,
                1.8192630015406344,
                -2.4484090373714724,
                0.6187883726610066,
                -1.3564731226719595
            ]
        },
        {
            "positions": [
                -0.721410924257693,
                -1.6146593963294467,
                1.8311326364053468,
                -2.333933838366607,
                0.5835429045117454,
                -1.4828342540405448
            ]
        },
        {
            "positions": [
                -0.6564529616327712,
                -1.5785761482891527,
                1.8430022712700593,
                -2.2194586393617417,
                0.5482974363624843,
                -1.6091953854091299
            ]
        },
        {
            "positions": [
                -0.5914949990078494,
                -1.542492900248859,
                1.8548719061347716,
                -2.104983440356876,
                0.5130519682132231,
                -1.7355565167777152
            ]
        },
        {
            "positions": [
                -0.5265370363829276,
                -1.506409652208565,
                1.866741540999484,
                -1.990508241352011,
                0.47780650006396197,
                -1.8619176481463002
            ]
        },
        {
            "positions": [
                -0.46157907375800583,
                -1.4703264041682713,
                1.8786111758641966,
                -1.8760330423471454,
                0.44256103191470075,
                -1.9882787795148857
            ]
        },
        {
            "positions": [
                -0.396621111133084,
                -1.4342431561279776,
                1.890480810728909,
                -1.7615578433422803,
                0.40731556376543965,
                -2.114639910883471
            ]
        },
        {
            "positions": [
                -0.3316631485081622,
                -1.3981599080876836,
                1.9023504455936213,
                -1.6470826443374147,
                0.37207009561617843,
                -2.241001042252056
            ]
        },
        {
            "positions": [
                -0.26670518588324044,
                -1.36207666004739,
                1.9142200804583338,
                -1.5326074453325493,
                0.33682462746691727,
                -2.3673621736206414
            ]
        },
        {
            "positions": [
                -0.2017472232583185,
                -1.325993412007096,
                1.9260897153230463,
                -1.4181322463276838,
                0.30157915931765605,
                -2.493723304989227
            ]
        },
        {
            "positions": [
                -0.1367892606333968,
                -1.2899101639668022,
                1.9379593501877588,
                -1.3036570473228184,
                0.2663336911683949,
                -2.6200844363578115
            ]
        },
        {
            "positions": [
                -0.07183129800847499,
                -1.2538269159265083,
                1.9498289850524713,
                -1.1891818483179533,
                0.2310882230191338,
                -2.746445567726397
            ]
        },
        {
            "positions": [
                -0.00687333538355317,
                -1.2177436678862146,
                1.9616986199171835,
                -1.074706649313088,
                0.19584275486987263,
                -2.872806699094982
            ]
        },
        {
            "positions": [
                0.05808462724136865,
                -1.1816604198459206,
                1.973568254781896,
                -0.9602314503082223,
                0.1605972867206114,
                -2.9991678304635676
            ]
        },
        {
            "positions": [
                0.1230425898662905,
                -1.145577171805627,
                1.9854378896466085,
                -0.845756251303357,
                0.12535181857135025,
                -3.1255289618321527
            ]
        }
    ]
}