{
    "goal": {
        "global_pose": {
            "orientation": {
                "w": 0.7047431468963623,
                "x": -0.7094548344612122,
                "y": 0.0024358443915843964,
                "z": -0.0022348060738295317
            },
            "position": {
                "x": 0.6094750761985779,
                "y": 0.3671506643295288,
                "z": 0.19426114857196808
            }
        },
        "name": "move_to_magneteinheit_A"
    },
    "id": "PRMstar_move_to_magneteinheit_A_127",
    "joint_names": [
        "shoulder_pan_joint",
        "shoulder_lift_joint",
        "elbow_joint",
        "wrist_1_joint",
        "wrist_2_joint",
        "wrist_3_joint"
    ],
    "metrics": {
        "cart_traj_len": 3.2046616049259726,
        "distance_elbow_joint": 3.9123993024000017,
        "distance_shoulder_lift_joint": 0.46691067010196696,
        "distance_shoulder_pan_joint": 3.253477429822346,
        "distance_wrist_1_joint": 3.476453588902322,
        "distance_wrist_2_joint": 1.4443119030049805,
        "distance_wrist_3_joint": 0.47895756226556224,
        "smoothness": 0.17160641853760678,
        "time": 5.041659355,
        "traj_len": 3.610056849482731,
        "weighted_distance": 4.348699929051855
    },
    "planner": "PRMstar",
    "start": {
        "state": {
            "elbow_joint": -1.919618573717145,
            "shoulder_lift_joint": -1.2443395971678275,
            "shoulder_pan_joint": 2.6996025300909787,
            "wrist_1_joint": -1.548550951253194,
            "wrist_2_joint": -1.5709469090946802,
            "wrist_3_joint": 0.4420197732051276
        }
    },
    "waypoints": [
        {
            "positions": [
                2.6996025300909787,
                -1.2443395971678275,
                -1.919618573717145,
                -1.548550951253194,
                -1.5709469090946802,
                0.4420197732051276
            ]
        },
        {
            "positions": [
                2.573138352727823,
                -1.2396855136212663,
                -1.7999126089577244,
                -1.4776599492827835,
                -1.5498255809297714,
                0.4123168472542432
            ]
        },
        {
            "positions": [
                2.446674175364667,
                -1.2350314300747052,
                -1.680206644198304,
                -1.406768947312373,
                -1.5287042527648629,
                0.38261392130335886
            ]
        },
        {
            "positions": [
                2.320209998001511,
                -1.230377346528144,
                -1.5605006794388834,
                -1.3358779453419625,
                -1.5075829245999541,
                0.3529109953524745
            ]
        },
        {
            "positions": [
                2.1937458206383553,
                -1.2257232629815829,
                -1.440794714679463,
                -1.264986943371552,
                -1.4864615964350456,
                0.32320806940159014
            ]
        },
        {
            "positions": [
                2.0672816432751997,
                -1.2210691794350217,
                -1.3210887499200425,
                -1.1940959414011416,
                -1.4653402682701369,
                0.2935051434507058
            ]
        },
        {
            "positions": [
                1.9408174659120436,
                -1.2164150958884605,
                -1.201382785160622,
                -1.123204939430731,
                -1.444218940105228,
                0.2638022174998214
            ]
        },
        {
            "positions": [
                1.8143532885488876,
                -1.2117610123418994,
                -1.0816768204012015,
                -1.0523139374603205,
                -1.4230976119403196,
                0.23409929154893708
            ]
        },
        {
            "positions": [
                1.687889111185732,
                -1.2071069287953384,
                -0.961970855641781,
                -0.98142293548991,
                -1.4019762837754108,
                0.20439636559805271
            ]
        },
        {
            "positions": [
                1.561424933822576,
                -1.2024528452487773,
                -0.8422648908823605,
                -0.9105319335194996,
                -1.3808549556105023,
                0.17469343964716838
            ]
        },
        {
            "positions": [
                1.4349607564594202,
                -1.197798761702216,
                -0.7225589261229401,
                -0.839640931549089,
                -1.3597336274455936,
                0.14499051369628402
            ]
        },
        {
            "positions": [
                1.3084965790962644,
                -1.193144678155655,
                -0.6028529613635196,
                -0.7687499295786785,
                -1.338612299280685,
                0.11528758774539966
            ]
        },
        {
            "positions": [
                1.1820324017331083,
                -1.1884905946090938,
                -0.4831469966040989,
                -0.697858927608268,
                -1.3174909711157763,
                0.08558466179451524
            ]
        },
        {
            "positions": [
                1.0555682243699525,
                -1.1838365110625326,
                -0.36344103184467835,
                -0.6269679256378574,
                -1.2963696429508675,
                0.05588173584363093
            ]
        },
        {
            "positions": [
                0.9291040470067966,
                -1.1791824275159715,
                -0.24373506708525805,
                -0.556076923667447,
                -1.275248314785959,
                0.02617880989274657
            ]
        },
        {
            "positions": [
                0.8026398696436408,
                -1.1745283439694103,
                -0.12402910232583762,
                -0.48518592169703656,
                -1.2541269866210503,
                -0.0035241160581378087
            ]
        },
        {
            "positions": [
                0.7347409413942123,
                -1.1624664726754783,
                -0.005736435396809528,
                -0.36232901234919523,
                -1.2002532816906706,
                -0.004719777028895399
            ]
        },
        {
            "positions": [
                0.6668420131447838,
                -1.150404601381546,
                0.11255623153221857,
                -0.23947210300135394,
                -1.146379576760291,
                -0.005915437999652989
            ]
        },
        {
            "positions": [
                0.5989430848953552,
                -1.138342730087614,
                0.23084889846124668,
                -0.11661519365351258,
                -1.092505871829911,
                -0.007111098970410579
            ]
        },
        {
            "positions": [
                0.5310441566459267,
                -1.1262808587936821,
                0.34914156539027474,
                0.006241715694328687,
                -1.0386321668995313,
                -0.008306759941168168
            ]
        },
        {
            "positions": [
                0.46314522839649824,
                -1.11421898749975,
                0.4674342323193028,
                0.12909862504216996,
                -0.9847584619691516,
                -0.009502420911925758
            ]
        },
        {
            "positions": [
                0.3952463001470697,
                -1.102157116205818,
                0.585726899248331,
                0.2519555343900114,
                -0.9308847570387718,
                -0.010698081882683348
            ]
        },
        {
            "positions": [
                0.3273473718976412,
                -1.090095244911886,
                0.7040195661773591,
                0.3748124437378526,
                -0.877011052108392,
                -0.011893742853440938
            ]
        },
        {
            "positions": [
                0.25944844364821273,
                -1.0780333736179537,
                0.8223122331063871,
                0.49766935308569393,
                -0.8231373471780123,
                -0.013089403824198528
            ]
        },
        {
            "positions": [
                0.19154951539878418,
                -1.0659715023240217,
                0.9406049000354152,
                0.6205262624335351,
                -0.7692636422476327,
                -0.014285064794956118
            ]
        },
        {
            "positions": [
                0.12365058714935573,
                -1.0539096310300897,
                1.0588975669644434,
                0.7433831717813765,
                -0.715389937317253,
                -0.015480725765713708
            ]
        },
        {
            "positions": [
                0.05575165889992728,
                -1.0418477597361575,
                1.1771902338934714,
                0.8662400811292178,
                -0.6615162323868732,
                -0.0166763867364713
            ]
        },
        {
            "positions": [
                -0.012147269349501388,
                -1.0297858884422255,
                1.2954829008224997,
                0.9890969904770593,
                -0.6076425274564934,
                -0.01787204770722889
            ]
        },
        {
            "positions": [
                -0.08004619759892984,
                -1.0177240171482935,
                1.4137755677515278,
                1.1119538998249006,
                -0.5537688225261137,
                -0.01906770867798648
            ]
        },
        {
            "positions": [
                -0.1479451258483584,
                -1.0056621458543613,
                1.5320682346805559,
                1.2348108091727417,
                -0.4998951175957339,
                -0.02026336964874407
            ]
        },
        {
            "positions": [
                -0.21584405409778673,
                -0.9936002745604293,
                1.650360901609584,
                1.3576677185205832,
                -0.4460214126653542,
                -0.02145903061950166
            ]
        },
        {
            "positions": [
                -0.1482378849710705,
                -0.9503660050615156,
                1.7188448670242387,
                1.4717147023462922,
                -0.38214413135022335,
                -0.018363278931314987
            ]
        },
        {
            "positions": [
                -0.08063171584435425,
                -0.9071317355626018,
                1.7873288324388934,
                1.585761686172001,
                -0.3182668500350925,
                -0.015267527243128319
            ]
        },
        {
            "positions": [
                -0.013025546717638004,
                -0.863897466063688,
                1.8558127978535481,
                1.69980866999771,
                -0.25438956871996166,
                -0.012171775554941651
            ]
        },
        {
            "positions": [
                0.05458062240907824,
                -0.8206631965647743,
                1.9242967632682029,
                1.8138556538234187,
                -0.19051228740483078,
                -0.00907602386675498
            ]
        },
        {
            "positions": [
                0.12218679153579445,
                -0.7774289270658605,
                1.9927807286828576,
                1.9279026376491277,
                -0.12663500608969988,
                -0.00598027217856831
            ]
        }
    ]
}{
    "goal": {
        "global_pose": {
            "orientation": {
                "w": 0.7047431468963623,
                "x": -0.7094548344612122,
                "y": 0.0024358443915843964,
                "z": -0.0022348060738295317
            },
            "position": {
                "x": 0.6094750761985779,
                "y": 0.3671506643295288,
                "z": 0.19426114857196808
            }
        },
        "name": "move_to_magneteinheit_A"
    },
    "id": "PRMstar_move_to_magneteinheit_A_127",
    "joint_names": [
        "shoulder_pan_joint",
        "shoulder_lift_joint",
        "elbow_joint",
        "wrist_1_joint",
        "wrist_2_joint",
        "wrist_3_joint"
    ],
    "metrics": {
        "cart_traj_len": 1.182569727379049,
        "distance_elbow_joint": 0.28915441408887355,
        "distance_shoulder_lift_joint": 0.7515582414701198,
        "distance_shoulder_pan_joint": 1.241378959534745,
        "distance_wrist_1_joint": 0.7546747167944174,
        "distance_wrist_2_joint": 1.43562353369631,
        "distance_wrist_3_joint": 4.254210386148145,
        "smoothness": 0.02966584124206219,
        "time": 5.026038819,
        "traj_len": 2.954081964288163,
        "weighted_distance": 4.407416394501389
    },
    "planner": "PRMstar",
    "start": {
        "state": {
            "elbow_joint": 1.919643534880228,
            "shoulder_lift_joint": -1.8972525353963687,
            "shoulder_pan_joint": -1.1188672234189438,
            "wrist_1_joint": -1.5931878212786155,
            "wrist_2_joint": 1.5706036197970081,
            "wrist_3_joint": 1.118896926603594
        }
    },
    "waypoints": [
        {
            "positions": [
                -1.1188672234189438,
                -1.8972525353963687,
                1.919643534880228,
                -1.5931878212786155,
                1.5706036197970081,
                1.118896926603594
            ]
        },
        {
            "positions": [
                -1.0611831932642917,
                -1.8654352850047384,
                1.9280597988638024,
                -1.56184076363308,
                1.5124908693113979,
                0.9269112507842413
            ]
        },
        {
            "positions": [
                -1.0034991631096393,
                -1.8336180346131081,
                1.936476062847377,
                -1.5304937059875443,
                1.4543781188257876,
                0.7349255749648886
            ]
        },
        {
            "positions": [
                -0.9458151329549871,
                -1.8018007842214778,
                1.9448923268309513,
                -1.4991466483420088,
                1.3962653683401773,
                0.5429398991455359
            ]
        },
        {
            "positions": [
                -0.8881311028003349,
                -1.7699835338298473,
                1.9533085908145256,
                -1.4677995906964734,
                1.338152617854567,
                0.3509542233261832
            ]
        },
        {
            "positions": [
                -0.8304470726456827,
                -1.738166283438217,
                1.9617248547980999,
                -1.436452533050938,
                1.2800398673689568,
                0.15896854750683043
            ]
        },
        {
            "positions": [
                -0.7727630424910303,
                -1.7063490330465867,
                1.9701411187816744,
                -1.4051054754054022,
                1.2219271168833465,
                -0.03301712831252224
            ]
        },
        {
            "positions": [
                -0.7150790123363782,
                -1.6745317826549564,
                1.9785573827652487,
                -1.3737584177598667,
                1.1638143663977363,
                -0.225002804131875
            ]
        },
        {
            "positions": [
                -0.657394982181726,
                -1.642714532263326,
                1.986973646748823,
                -1.3424113601143313,
                1.105701615912126,
                -0.41698847995122756
            ]
        },
        {
            "positions": [
                -0.5997109520270737,
                -1.6108972818716958,
                1.9953899107323976,
                -1.3110643024687958,
                1.0475888654265155,
                -0.6089741557705803
            ]
        },
        {
            "positions": [
                -0.5420269218724215,
                -1.5790800314800655,
                2.003806174715972,
                -1.27971724482326,
                0.9894761149409054,
                -0.8009598315899331
            ]
        },
        {
            "positions": [
                -0.4843428917177691,
                -1.547262781088435,
                2.0122224386995464,
                -1.2483701871777246,
                0.9313633644552951,
                -0.9929455074092861
            ]
        },
        {
            "positions": [
                -0.42665886156311694,
                -1.5154455306968049,
                2.0206387026831205,
                -1.2170231295321892,
                0.8732506139696848,
                -1.1849311832286384
            ]
        },
        {
            "positions": [
                -0.36897483140846465,
                -1.4836282803051744,
                2.029054966666695,
                -1.1856760718866535,
                0.8151378634840746,
                -1.3769168590479912
            ]
        },
        {
            "positions": [
                -0.3112908012538125,
                -1.451811029913544,
                2.0374712306502696,
                -1.154329014241118,
                0.7570251129984643,
                -1.568902534867344
            ]
        },
        {
            "positions": [
                -0.2536067710991602,
                -1.4199937795219137,
                2.0458874946338437,
                -1.1229819565955825,
                0.6989123625128539,
                -1.7608882106866968
            ]
        },
        {
            "positions": [
                -0.195922740944508,
                -1.3881765291302834,
                2.054303758617418,
                -1.0916348989500468,
                0.6407996120272438,
                -1.952873886506049
            ]
        },
        {
            "positions": [
                -0.13823871078985572,
                -1.356359278738653,
                2.0627200226009923,
                -1.0602878413045114,
                0.5826868615416334,
                -2.1448595623254025
            ]
        },
        {
            "positions": [
                -0.08055468063520355,
                -1.3245420283470226,
                2.071136286584567,
                -1.028940783658976,
                0.5245741110560231,
                -2.336845238144755
            ]
        },
        {
            "positions": [
                -0.02287065048055137,
                -1.2927247779553923,
                2.0795525505681414,
                -0.9975937260134403,
                0.4664613605704129,
                -2.528830913964107
            ]
        },
        {
            "positions": [
                0.03481337967410081,
                -1.260907527563762,
                2.0879688145517155,
                -0.9662466683679048,
                0.4083486100848026,
                -2.7208165897834604
            ]
        },
        {
            "positions": [
                0.09249740982875321,
                -1.2290902771721317,
                2.09638507853529,
                -0.9348996107223693,
                0.35023585959919223,
                -2.9128022656028127
            ]
        },
        {
            "positions": [
                0.10750457297227721,
                -1.1873922855491903,
                2.0401786433183844,
                -0.8867063576032836,
                0.24260797284994523,
                -3.024057862573682
            ]
        },
        {
            "positions": [
                0.12251173611580121,
                -1.1456942939262489,
                1.9839722081014783,
                -0.838513104484198,
                0.13498008610069823,
                -3.1353134595445513
            ]
        }
    ]
}