{
    "goal": {
        "global_pose": {
            "orientation": {
                "w": 0.7047431468963623,
                "x": -0.7094548344612122,
                "y": 0.0024358443915843964,
                "z": -0.0022348060738295317
            },
            "position": {
                "x": 0.6094750761985779,
                "y": 0.3671506643295288,
                "z": 0.19426114857196808
            }
        },
        "name": "move_to_magneteinheit_A"
    },
    "id": "PRMstar_move_to_magneteinheit_A_102",
    "joint_names": [
        "shoulder_pan_joint",
        "shoulder_lift_joint",
        "elbow_joint",
        "wrist_1_joint",
        "wrist_2_joint",
        "wrist_3_joint"
    ],
    "metrics": {
        "cart_traj_len": 3.472376866375591,
        "distance_elbow_joint": 3.909271211166115,
        "distance_shoulder_lift_joint": 1.1743103093693368,
        "distance_shoulder_pan_joint": 3.114147498074246,
        "distance_wrist_1_joint": 3.4534750080987964,
        "distance_wrist_2_joint": 1.437384330067567,
        "distance_wrist_3_joint": 0.46545766189146626,
        "smoothness": 0.0731051923807526,
        "time": 5.063139693999999,
        "traj_len": 3.6815819994490866,
        "weighted_distance": 4.401797437481288
    },
    "planner": "PRMstar",
    "start": {
        "state": {
            "elbow_joint": -1.919618573717145,
            "shoulder_lift_joint": -1.2443395971678275,
            "shoulder_pan_joint": 2.6996025300909787,
            "wrist_1_joint": -1.548550951253194,
            "wrist_2_joint": -1.5709469090946802,
            "wrist_3_joint": 0.4420197732051276
        }
    },
    "waypoints": [
        {
            "positions": [
                2.6996025300909787,
                -1.2443395971678275,
                -1.919618573717145,
                -1.548550951253194,
                -1.5709469090946802,
                0.4420197732051276
            ]
        },
        {
            "positions": [
                2.5321919465436635,
                -1.1960153030015526,
                -1.854320555028659,
                -1.4886966858876507,
                -1.5232539379972245,
                0.4432817137728841
            ]
        },
        {
            "positions": [
                2.364781362996349,
                -1.1476910088352776,
                -1.7890225363401728,
                -1.4288424205221073,
                -1.4755609668997687,
                0.4445436543406407
            ]
        },
        {
            "positions": [
                2.1973707794490336,
                -1.099366714669003,
                -1.7237245176516869,
                -1.368988155156564,
                -1.427867995802313,
                0.4458055949083972
            ]
        },
        {
            "positions": [
                2.029960195901719,
                -1.051042420502728,
                -1.658426498963201,
                -1.3091338897910205,
                -1.3801750247048572,
                0.44706753547615374
            ]
        },
        {
            "positions": [
                1.8625496123544036,
                -1.002718126336453,
                -1.5931284802747148,
                -1.2492796244254771,
                -1.3324820536074016,
                0.4483294760439103
            ]
        },
        {
            "positions": [
                1.6951390288070887,
                -0.9543938321701781,
                -1.5278304615862288,
                -1.1894253590599337,
                -1.284789082509946,
                0.44959141661166685
            ]
        },
        {
            "positions": [
                1.5277284452597737,
                -0.9060695380039032,
                -1.4625324428977429,
                -1.1295710936943903,
                -1.23709611141249,
                0.4508533571794234
            ]
        },
        {
            "positions": [
                1.3603178617124587,
                -0.8577452438376284,
                -1.3972344242092567,
                -1.069716828328847,
                -1.1894031403150345,
                0.45211529774717996
            ]
        },
        {
            "positions": [
                1.1929072781651435,
                -0.8094209496713535,
                -1.331936405520771,
                -1.0098625629633036,
                -1.1417101692175786,
                0.4533772383149365
            ]
        },
        {
            "positions": [
                1.0254966946178286,
                -0.7610966555050787,
                -1.2666383868322848,
                -0.9500082975977603,
                -1.094017198120123,
                0.45463917888269306
            ]
        },
        {
            "positions": [
                0.8580861110705136,
                -0.7127723613388037,
                -1.2013403681437986,
                -0.8901540322322169,
                -1.0463242270226671,
                0.4559011194504496
            ]
        },
        {
            "positions": [
                0.6906755275231986,
                -0.6644480671725288,
                -1.1360423494553127,
                -0.8302997668666735,
                -0.9986312559252115,
                0.4571630600182061
            ]
        },
        {
            "positions": [
                0.5232649439758839,
                -0.616123773006254,
                -1.0707443307668267,
                -0.7704455015011302,
                -0.9509382848277559,
                0.4584250005859627
            ]
        },
        {
            "positions": [
                0.35585436042856866,
                -0.567799478839979,
                -1.0054463120783408,
                -0.7105912361355868,
                -0.9032453137303001,
                0.4596869411537192
            ]
        },
        {
            "positions": [
                0.18844377688125347,
                -0.5194751846737041,
                -0.9401482933898547,
                -0.6507369707700434,
                -0.8555523426328444,
                0.46094888172147575
            ]
        },
        {
            "positions": [
                0.021033193333938716,
                -0.4711508905074293,
                -0.8748502747013687,
                -0.5908827054045,
                -0.8078593715353887,
                0.4622108222892323
            ]
        },
        {
            "positions": [
                -0.14637739021337662,
                -0.42282659634115444,
                -0.8095522560128827,
                -0.5310284400389567,
                -0.7601664004379329,
                0.46347276285698885
            ]
        },
        {
            "positions": [
                -0.13422329635109453,
                -0.44125185638652653,
                -0.6570036023522788,
                -0.3982330776983644,
                -0.7255497096876329,
                0.43944038726872015
            ]
        },
        {
            "positions": [
                -0.12206920248881245,
                -0.45967711643189857,
                -0.504454948691675,
                -0.26543771535777216,
                -0.6909330189373328,
                0.4154080116804514
            ]
        },
        {
            "positions": [
                -0.10991510862653037,
                -0.47810237647727066,
                -0.35190629503107096,
                -0.13264235301717986,
                -0.6563163281870328,
                0.3913756360921827
            ]
        },
        {
            "positions": [
                -0.09776101476424828,
                -0.49652763652264276,
                -0.19935764137046708,
                0.0001530093234123342,
                -0.6216996374367327,
                0.36734326050391397
            ]
        },
        {
            "positions": [
                -0.08560692090196621,
                -0.5149528965680148,
                -0.04680898770986319,
                0.13294837166400453,
                -0.5870829466864327,
                0.34331088491564526
            ]
        },
        {
            "positions": [
                -0.07345282703968413,
                -0.5333781566133869,
                0.1057396659507408,
                0.26574373400459694,
                -0.5524662559361326,
                0.31927850932737656
            ]
        },
        {
            "positions": [
                -0.061298733177402046,
                -0.551803416658759,
                0.2582883196113448,
                0.39853909634518914,
                -0.5178495651858326,
                0.2952461337391078
            ]
        },
        {
            "positions": [
                -0.04914463931511996,
                -0.5702286767041311,
                0.41083697327194857,
                0.5313344586857813,
                -0.4832328744355326,
                0.2712137581508391
            ]
        },
        {
            "positions": [
                -0.03699054545283788,
                -0.5886539367495032,
                0.5633856269325526,
                0.6641298210263735,
                -0.44861618368523254,
                0.24718138256257036
            ]
        },
        {
            "positions": [
                -0.024836451590555808,
                -0.6070791967948752,
                0.7159342805931563,
                0.7969251833669657,
                -0.41399949293493254,
                0.22314900697430165
            ]
        },
        {
            "positions": [
                -0.012682357728273724,
                -0.6255044568402472,
                0.8684829342537603,
                0.9297205457075579,
                -0.3793828021846325,
                0.19911663138603292
            ]
        },
        {
            "positions": [
                -0.0005282638659916405,
                -0.6439297168856194,
                1.0210315879143643,
                1.0625159080481505,
                -0.3447661114343324,
                0.1750842557977642
            ]
        },
        {
            "positions": [
                0.011625829996290443,
                -0.6623549769309914,
                1.1735802415749683,
                1.1953112703887427,
                -0.31014942068403234,
                0.15105188020949545
            ]
        },
        {
            "positions": [
                0.023779923858572527,
                -0.6807802369763636,
                1.3261288952355723,
                1.328106632729335,
                -0.27553272993373235,
                0.12701950462122674
            ]
        },
        {
            "positions": [
                0.03593401772085461,
                -0.6992054970217356,
                1.4786775488961763,
                1.4609019950699271,
                -0.2409160391834323,
                0.10298712903295805
            ]
        },
        {
            "positions": [
                0.05739806017976931,
                -0.7183100989872564,
                1.606421321034375,
                1.5719075105138465,
                -0.21407767414435244,
                0.08210736942906449
            ]
        },
        {
            "positions": [
                0.07886210263868401,
                -0.7374147009527771,
                1.7341650931725736,
                1.6829130259577658,
                -0.1872393091052726,
                0.06122760982517094
            ]
        },
        {
            "positions": [
                0.10032614509759873,
                -0.7565193029182977,
                1.861908865310772,
                1.7939185414016852,
                -0.16040094406619274,
                0.04034785022127739
            ]
        },
        {
            "positions": [
                0.12179018755651343,
                -0.7756239048838185,
                1.9896526374489707,
                1.9049240568456045,
                -0.13356257902711288,
                0.019468090617383832
            ]
        }
    ]
}{
    "goal": {
        "global_pose": {
            "orientation": {
                "w": 0.7047431468963623,
                "x": -0.7094548344612122,
                "y": 0.0024358443915843964,
                "z": -0.0022348060738295317
            },
            "position": {
                "x": 0.6094750761985779,
                "y": 0.3671506643295288,
                "z": 0.19426114857196808
            }
        },
        "name": "move_to_magneteinheit_A"
    },
    "id": "PRMstar_move_to_magneteinheit_A_102",
    "joint_names": [
        "shoulder_pan_joint",
        "shoulder_lift_joint",
        "elbow_joint",
        "wrist_1_joint",
        "wrist_2_joint",
        "wrist_3_joint"
    ],
    "metrics": {
        "cart_traj_len": 1.2273203152952001,
        "distance_elbow_joint": 0.16044878483363068,
        "distance_shoulder_lift_joint": 0.7513136987263267,
        "distance_shoulder_pan_joint": 1.2429250161355176,
        "distance_wrist_1_joint": 0.7561160203411993,
        "distance_wrist_2_joint": 1.4363813730188004,
        "distance_wrist_3_joint": 4.256209428783346,
        "smoothness": 0.010370128407143051,
        "time": 5.017583399,
        "traj_len": 2.933154329700164,
        "weighted_distance": 4.394122275581951
    },
    "planner": "PRMstar",
    "start": {
        "state": {
            "elbow_joint": 1.919643534880228,
            "shoulder_lift_joint": -1.8972525353963687,
            "shoulder_pan_joint": -1.1188672234189438,
            "wrist_1_joint": -1.5931878212786155,
            "wrist_2_joint": 1.5706036197970081,
            "wrist_3_joint": 1.118896926603594
        }
    },
    "waypoints": [
        {
            "positions": [
                -1.1188672234189438,
                -1.8972525353963687,
                1.919643534880228,
                -1.5931878212786155,
                1.5706036197970081,
                1.118896926603594
            ]
        },
        {
            "positions": [
                -1.0642283861551791,
                -1.8628142406856698,
                1.917239514262394,
                -1.5554171033445634,
                1.501479892510939,
                0.9218823503538056
            ]
        },
        {
            "positions": [
                -1.0095895488914146,
                -1.828375945974971,
                1.9148354936445595,
                -1.5176463854105111,
                1.4323561652248697,
                0.7248677741040173
            ]
        },
        {
            "positions": [
                -0.95495071162765,
                -1.7939376512642722,
                1.9124314730267253,
                -1.4798756674764588,
                1.3632324379388006,
                0.5278531978542289
            ]
        },
        {
            "positions": [
                -0.9003118743638854,
                -1.7594993565535733,
                1.9100274524088912,
                -1.4421049495424068,
                1.2941087106527314,
                0.33083862160444055
            ]
        },
        {
            "positions": [
                -0.8456730371001207,
                -1.7250610618428746,
                1.907623431791057,
                -1.4043342316083547,
                1.2249849833666622,
                0.1338240453546522
            ]
        },
        {
            "positions": [
                -0.7910341998363561,
                -1.6906227671321756,
                1.9052194111732228,
                -1.3665635136743024,
                1.155861256080593,
                -0.06319053089513615
            ]
        },
        {
            "positions": [
                -0.7363953625725914,
                -1.6561844724214767,
                1.9028153905553884,
                -1.32879279574025,
                1.0867375287945238,
                -0.2602051071449245
            ]
        },
        {
            "positions": [
                -0.6817565253088268,
                -1.621746177710778,
                1.9004113699375542,
                -1.291022077806198,
                1.0176138015084546,
                -0.45721968339471286
            ]
        },
        {
            "positions": [
                -0.6271176880450622,
                -1.587307883000079,
                1.89800734931972,
                -1.253251359872146,
                0.9484900742223853,
                -0.6542342596445012
            ]
        },
        {
            "positions": [
                -0.5724788507812976,
                -1.5528695882893802,
                1.8956033287018856,
                -1.2154806419380937,
                0.8793663469363161,
                -0.8512488358942896
            ]
        },
        {
            "positions": [
                -0.5178400135175328,
                -1.5184312935786815,
                1.8931993080840515,
                -1.1777099240040414,
                0.8102426196502468,
                -1.0482634121440781
            ]
        },
        {
            "positions": [
                -0.46320117625376833,
                -1.4839929988679825,
                1.8907952874662173,
                -1.1399392060699893,
                0.7411188923641777,
                -1.2452779883938663
            ]
        },
        {
            "positions": [
                -0.4085623389900036,
                -1.4495547041572836,
                1.888391266848383,
                -1.1021684881359373,
                0.6719951650781084,
                -1.4422925646436549
            ]
        },
        {
            "positions": [
                -0.3539235017262391,
                -1.415116409446585,
                1.885987246230549,
                -1.064397770201885,
                0.6028714377920393,
                -1.639307140893443
            ]
        },
        {
            "positions": [
                -0.2992846644624745,
                -1.380678114735886,
                1.8835832256127145,
                -1.0266270522678327,
                0.53374771050597,
                -1.8363217171432311
            ]
        },
        {
            "positions": [
                -0.24464582719870975,
                -1.346239820025187,
                1.8811792049948803,
                -0.9888563343337806,
                0.46462398321990084,
                -2.0333362933930195
            ]
        },
        {
            "positions": [
                -0.19000698993494525,
                -1.3118015253144883,
                1.8787751843770462,
                -0.9510856163997284,
                0.39550025593383165,
                -2.230350869642808
            ]
        },
        {
            "positions": [
                -0.13536815267118052,
                -1.2773632306037894,
                1.8763711637592118,
                -0.9133148984656763,
                0.32637652864776245,
                -2.4273654458925966
            ]
        },
        {
            "positions": [
                -0.08072931540741601,
                -1.2429249358930907,
                1.8739671431413776,
                -0.8755441805316241,
                0.25725280136169326,
                -2.6243800221423843
            ]
        },
        {
            "positions": [
                -0.02609047814365123,
                -1.2084866411823918,
                1.8715631225235434,
                -0.8377734625975719,
                0.18812907407562415,
                -2.821394598392173
            ]
        },
        {
            "positions": [
                0.048983657286461424,
                -1.177212738926217,
                1.9277473087620165,
                -0.8381242934276498,
                0.16117566042691595,
                -2.9793535502859623
            ]
        },
        {
            "positions": [
                0.12405779271657406,
                -1.145938836670042,
                1.9839314950004894,
                -0.8384751242577276,
                0.1342222467782077,
                -3.1373125021797517
            ]
        }
    ]
}