{
    "goal": {
        "global_pose": {
            "orientation": {
                "w": 0.7047431468963623,
                "x": -0.7094548344612122,
                "y": 0.0024358443915843964,
                "z": -0.0022348060738295317
            },
            "position": {
                "x": 0.6094750761985779,
                "y": 0.3671506643295288,
                "z": 0.19426114857196808
            }
        },
        "name": "move_to_magneteinheit_A"
    },
    "id": "PRMstar_move_to_magneteinheit_A_9",
    "joint_names": [
        "shoulder_pan_joint",
        "shoulder_lift_joint",
        "elbow_joint",
        "wrist_1_joint",
        "wrist_2_joint",
        "wrist_3_joint"
    ],
    "metrics": {
        "cart_traj_len": 3.654034216145164,
        "distance_elbow_joint": 3.901476124797579,
        "distance_shoulder_lift_joint": 0.7146480977769296,
        "distance_shoulder_pan_joint": 2.5759639165256254,
        "distance_wrist_1_joint": 1.2723720342623115,
        "distance_wrist_2_joint": 1.7102023316400905,
        "distance_wrist_3_joint": 3.705612478175674,
        "smoothness": 0.25035867035790943,
        "time": 5.046917778,
        "traj_len": 3.7256241065327846,
        "weighted_distance": 4.926872669902475
    },
    "planner": "PRMstar",
    "start": {
        "state": {
            "elbow_joint": -1.919618573717145,
            "shoulder_lift_joint": -1.2443395971678275,
            "shoulder_pan_joint": 2.6996025300909787,
            "wrist_1_joint": -1.548550951253194,
            "wrist_2_joint": -1.5709469090946802,
            "wrist_3_joint": 0.4420197732051276
        }
    },
    "waypoints": [
        {
            "positions": [
                2.6996025300909787,
                -1.2443395971678275,
                -1.919618573717145,
                -1.548550951253194,
                -1.5709469090946802,
                0.4420197732051276
            ]
        },
        {
            "positions": [
                2.597908408782789,
                -1.2552268655037553,
                -1.8567027643232248,
                -1.563036421611458,
                -1.5415990361843204,
                0.27316602518339594
            ]
        },
        {
            "positions": [
                2.496214287474599,
                -1.2661141338396829,
                -1.7937869549293046,
                -1.577521891969722,
                -1.5122511632739604,
                0.1043122771616643
            ]
        },
        {
            "positions": [
                2.3945201661664086,
                -1.2770014021756106,
                -1.7308711455353842,
                -1.5920073623279862,
                -1.4829032903636006,
                -0.0645414708600674
            ]
        },
        {
            "positions": [
                2.2928260448582187,
                -1.2878886705115384,
                -1.667955336141464,
                -1.6064928326862502,
                -1.4535554174532408,
                -0.23339521888179898
            ]
        },
        {
            "positions": [
                2.191131923550029,
                -1.2987759388474662,
                -1.605039526747544,
                -1.6209783030445142,
                -1.424207544542881,
                -0.4022489669035307
            ]
        },
        {
            "positions": [
                2.0894378022418385,
                -1.3096632071833938,
                -1.5421237173536237,
                -1.6354637734027782,
                -1.394859671632521,
                -0.5711027149252623
            ]
        },
        {
            "positions": [
                1.9877436809336486,
                -1.3205504755193216,
                -1.4792079079597036,
                -1.6499492437610421,
                -1.3655117987221612,
                -0.7399564629469939
            ]
        },
        {
            "positions": [
                1.8860495596254587,
                -1.3314377438552494,
                -1.4162920985657834,
                -1.6644347141193063,
                -1.3361639258118014,
                -0.9088102109687255
            ]
        },
        {
            "positions": [
                1.7843554383172688,
                -1.3423250121911772,
                -1.353376289171863,
                -1.6789201844775703,
                -1.3068160529014414,
                -1.077663958990457
            ]
        },
        {
            "positions": [
                1.6826613170090787,
                -1.3532122805271047,
                -1.2904604797779429,
                -1.6934056548358343,
                -1.2774681799910816,
                -1.246517707012189
            ]
        },
        {
            "positions": [
                1.5809671957008886,
                -1.3640995488630325,
                -1.2275446703840225,
                -1.7078911251940982,
                -1.2481203070807219,
                -1.4153714550339207
            ]
        },
        {
            "positions": [
                1.4792730743926987,
                -1.3749868171989603,
                -1.1646288609901023,
                -1.7223765955523622,
                -1.2187724341703619,
                -1.5842252030556523
            ]
        },
        {
            "positions": [
                1.3775789530845086,
                -1.3858740855348881,
                -1.1017130515961822,
                -1.7368620659106264,
                -1.189424561260002,
                -1.7530789510773839
            ]
        },
        {
            "positions": [
                1.2758848317763187,
                -1.3967613538708157,
                -1.038797242202262,
                -1.7513475362688904,
                -1.1600766883496423,
                -1.9219326990991155
            ]
        },
        {
            "positions": [
                1.1741907104681286,
                -1.4076486222067435,
                -0.9758814328083418,
                -1.7658330066271544,
                -1.1307288154392823,
                -2.090786447120847
            ]
        },
        {
            "positions": [
                1.0724965891599387,
                -1.4185358905426713,
                -0.9129656234144217,
                -1.7803184769854183,
                -1.1013809425289225,
                -2.2596401951425786
            ]
        },
        {
            "positions": [
                0.9708024678517486,
                -1.429423158878599,
                -0.8500498140205013,
                -1.7948039473436825,
                -1.0720330696185627,
                -2.4284939431643107
            ]
        },
        {
            "positions": [
                0.8691083465435587,
                -1.4403104272145266,
                -0.7871340046265811,
                -1.8092894177019465,
                -1.0426851967082027,
                -2.597347691186042
            ]
        },
        {
            "positions": [
                0.7674142252353685,
                -1.4511976955504544,
                -0.724218195232661,
                -1.8237748880602105,
                -1.013337323797843,
                -2.766201439207774
            ]
        },
        {
            "positions": [
                0.7215944277572631,
                -1.428150473087174,
                -0.5666929650057488,
                -1.7839284173921535,
                -0.9392137704355332,
                -2.7972168824040846
            ]
        },
        {
            "positions": [
                0.6757746302791576,
                -1.4051032506238934,
                -0.4091677347788366,
                -1.7440819467240964,
                -0.8650902170732236,
                -2.8282323256003954
            ]
        },
        {
            "positions": [
                0.6299548328010522,
                -1.382056028160613,
                -0.25164250455192444,
                -1.7042354760560396,
                -0.7909666637109141,
                -2.859247768796706
            ]
        },
        {
            "positions": [
                0.5841350353229467,
                -1.3590088056973322,
                -0.09411727432501227,
                -1.6643890053879826,
                -0.7168431103486044,
                -2.8902632119930165
            ]
        },
        {
            "positions": [
                0.5383152378448414,
                -1.3359615832340517,
                0.06340795590189996,
                -1.6245425347199256,
                -0.6427195569862947,
                -2.9212786551893273
            ]
        },
        {
            "positions": [
                0.4924954403667359,
                -1.3129143607707712,
                0.22093318612881208,
                -1.5846960640518686,
                -0.5685960036239851,
                -2.952294098385638
            ]
        },
        {
            "positions": [
                0.44667564288863054,
                -1.2898671383074907,
                0.3784584163557241,
                -1.5448495933838118,
                -0.4944724502616755,
                -2.983309541581949
            ]
        },
        {
            "positions": [
                0.40085584541052505,
                -1.2668199158442102,
                0.5359836465826364,
                -1.5050031227157548,
                -0.42034889689936583,
                -3.0143249847782596
            ]
        },
        {
            "positions": [
                0.35503604793241966,
                -1.2437726933809297,
                0.6935088768095485,
                -1.4651566520476977,
                -0.34622534353705625,
                -3.0453404279745704
            ]
        },
        {
            "positions": [
                0.3092162504543142,
                -1.220725470917649,
                0.8510341070364609,
                -1.4253101813796407,
                -0.27210179017474656,
                -3.0763558711708807
            ]
        },
        {
            "positions": [
                0.26339645297620884,
                -1.1976782484543684,
                1.0085593372633728,
                -1.385463710711584,
                -0.19797823681243698,
                -3.1073713143671915
            ]
        },
        {
            "positions": [
                0.21757665549810334,
                -1.174631025991088,
                1.166084567490285,
                -1.345617240043527,
                -0.12385468345012729,
                -3.1383867575635023
            ]
        },
        {
            "positions": [
                0.17175685801999796,
                -1.1515838035278074,
                1.3236097977171974,
                -1.3057707693754699,
                -0.04973113008781768,
                -3.169402200759813
            ]
        },
        {
            "positions": [
                0.1608610829368651,
                -1.1157082527668485,
                1.4878233089678876,
                -1.2104302346163847,
                0.006561984448708633,
                -3.1507470754326143
            ]
        },
        {
            "positions": [
                0.14996530785373227,
                -1.0798327020058893,
                1.6520368202185778,
                -1.1150896998572994,
                0.06285509898523495,
                -3.1320919501054156
            ]
        },
        {
            "positions": [
                0.1390695327705994,
                -1.0439571512449304,
                1.8162503314692682,
                -1.0197491650982142,
                0.11914821352176128,
                -3.113436824778217
            ]
        },
        {
            "positions": [
                0.13135407316797715,
                -1.0942318787893197,
                1.8990539412748513,
                -0.9231879778515648,
                0.1292018180335855,
                -3.1325493888927856
            ]
        },
        {
            "positions": [
                0.12363861356535491,
                -1.144506606333709,
                1.9818575510804342,
                -0.8266267906049153,
                0.1392554225454097,
                -3.151661953007354
            ]
        }
    ]
}{
    "goal": {
        "global_pose": {
            "orientation": {
                "w": 0.7047431468963623,
                "x": -0.7094548344612122,
                "y": 0.0024358443915843964,
                "z": -0.0022348060738295317
            },
            "position": {
                "x": 0.6094750761985779,
                "y": 0.3671506643295288,
                "z": 0.19426114857196808
            }
        },
        "name": "move_to_magneteinheit_A"
    },
    "id": "PRMstar_move_to_magneteinheit_A_9",
    "joint_names": [
        "shoulder_pan_joint",
        "shoulder_lift_joint",
        "elbow_joint",
        "wrist_1_joint",
        "wrist_2_joint",
        "wrist_3_joint"
    ],
    "metrics": {
        "cart_traj_len": 1.2033587518666788,
        "distance_elbow_joint": 0.04029864261923688,
        "distance_shoulder_lift_joint": 0.7629360179627664,
        "distance_shoulder_pan_joint": 1.2419979826176273,
        "distance_wrist_1_joint": 0.8713859586484789,
        "distance_wrist_2_joint": 1.4349170544207526,
        "distance_wrist_3_joint": 1.9113790108058566,
        "smoothness": 1.0449157961564637e-16,
        "time": 5.007223075000001,
        "traj_len": 2.5025816004827335,
        "weighted_distance": 3.5202238141566604
    },
    "planner": "PRMstar",
    "start": {
        "state": {
            "elbow_joint": 1.919643534880228,
            "shoulder_lift_joint": -1.8972525353963687,
            "shoulder_pan_joint": -1.1188672234189438,
            "wrist_1_joint": -1.5931878212786155,
            "wrist_2_joint": 1.5706036197970081,
            "wrist_3_joint": 1.118896926603594
        }
    },
    "waypoints": [
        {
            "positions": [
                -1.1188672234189438,
                -1.8972525353963687,
                1.919643534880228,
                -1.5931878212786155,
                1.5706036197970081,
                1.118896926603594
            ]
        },
        {
            "positions": [
                -1.0412423495053422,
                -1.849569034273696,
                1.9221622000439305,
                -1.5387261988630856,
                1.4809213038957112,
                1.23835811477896
            ]
        },
        {
            "positions": [
                -0.9636174755917404,
                -1.8018855331510228,
                1.9246808652076326,
                -1.4842645764475555,
                1.391238987994414,
                1.357819302954326
            ]
        },
        {
            "positions": [
                -0.8859926016781388,
                -1.75420203202835,
                1.927199530371335,
                -1.4298029540320256,
                1.301556672093117,
                1.477280491129692
            ]
        },
        {
            "positions": [
                -0.808367727764537,
                -1.7065185309056772,
                1.9297181955350373,
                -1.3753413316164957,
                1.21187435619182,
                1.5967416793050582
            ]
        },
        {
            "positions": [
                -0.7307428538509353,
                -1.6588350297830043,
                1.9322368606987397,
                -1.3208797092009659,
                1.122192040290523,
                1.7162028674804242
            ]
        },
        {
            "positions": [
                -0.6531179799373337,
                -1.6111515286603313,
                1.934755525862442,
                -1.266418086785436,
                1.032509724389226,
                1.8356640556557902
            ]
        },
        {
            "positions": [
                -0.5754931060237319,
                -1.5634680275376585,
                1.9372741910261442,
                -1.211956464369906,
                0.9428274084879289,
                1.9551252438311564
            ]
        },
        {
            "positions": [
                -0.4978682321101302,
                -1.5157845264149854,
                1.9397928561898465,
                -1.157494841954376,
                0.8531450925866318,
                2.074586432006522
            ]
        },
        {
            "positions": [
                -0.42024335819652847,
                -1.4681010252923126,
                1.942311521353549,
                -1.1030332195388461,
                0.7634627766853348,
                2.1940476201818884
            ]
        },
        {
            "positions": [
                -0.34261848428292674,
                -1.4204175241696397,
                1.944830186517251,
                -1.048571597123316,
                0.6737804607840377,
                2.3135088083572546
            ]
        },
        {
            "positions": [
                -0.2649936103693251,
                -1.372734023046967,
                1.9473488516809534,
                -0.9941099747077862,
                0.5840981448827407,
                2.4329699965326204
            ]
        },
        {
            "positions": [
                -0.18736873645572338,
                -1.3250505219242938,
                1.9498675168446558,
                -0.9396483522922563,
                0.49441582898144376,
                2.552431184707986
            ]
        },
        {
            "positions": [
                -0.10974386254212165,
                -1.277367020801621,
                1.9523861820083581,
                -0.8851867298767264,
                0.4047335130801466,
                2.6718923728833524
            ]
        },
        {
            "positions": [
                -0.03211898862852003,
                -1.229683519678948,
                1.9549048471720605,
                -0.8307251074611964,
                0.31505119717884966,
                2.7913535610587186
            ]
        },
        {
            "positions": [
                0.045505885285081815,
                -1.1820000185562751,
                1.9574235123357626,
                -0.7762634850456664,
                0.2253688812775525,
                2.910814749234085
            ]
        },
        {
            "positions": [
                0.12313075919868355,
                -1.1343165174336023,
                1.959942177499465,
                -0.7218018626301366,
                0.13568656537625565,
                3.0302759374094506
            ]
        }
    ]
}