{
    "goal": {
        "global_pose": {
            "orientation": {
                "w": 0.5084816217422485,
                "x": -0.49083608388900757,
                "y": 0.5182115435600281,
                "z": -0.4816462993621826
            },
            "position": {
                "x": 0.5540239810943604,
                "y": 0.030875300988554955,
                "z": 0.16403168439865112
            }
        },
        "name": "move_to_storage_A"
    },
    "id": "PRMstar_move_to_storage_A_87",
    "joint_names": [
        "shoulder_pan_joint",
        "shoulder_lift_joint",
        "elbow_joint",
        "wrist_1_joint",
        "wrist_2_joint",
        "wrist_3_joint"
    ],
    "metrics": {
        "cart_traj_len": 0.3531579442983861,
        "distance_elbow_joint": 0.44802351135002416,
        "distance_shoulder_lift_joint": 0.23521311454643024,
        "distance_shoulder_pan_joint": 0.4614270771619324,
        "distance_wrist_1_joint": 0.23647852024929195,
        "distance_wrist_2_joint": 1.1004911480598842,
        "distance_wrist_3_joint": 0.10160833525407709,
        "smoothness": 2.2204460668324854e-16,
        "time": 5.002217191,
        "traj_len": 1.6072466228372173,
        "weighted_distance": 2.030622575822245
    },
    "planner": "PRMstar",
    "start": {
        "state": {
            "elbow_joint": 1.9715477243005601,
            "shoulder_lift_joint": -1.1394853015351272,
            "shoulder_pan_joint": 0.12281154014795169,
            "wrist_1_joint": -0.7804696478968182,
            "wrist_2_joint": 0.12958648046900423,
            "wrist_3_joint": -3.192491284697111
        }
    },
    "waypoints": [
        {
            "positions": [
                0.12281154014795169,
                -1.1394853015351272,
                1.9715477243005601,
                -0.7804696478968182,
                0.12958648046900423,
                -3.192491284697111
            ]
        },
        {
            "positions": [
                0.056893386267675636,
                -1.17308717504176,
                2.035551083064849,
                -0.814252293646717,
                0.28679950162041623,
                -3.177975808232243
            ]
        },
        {
            "positions": [
                -0.009024767612600418,
                -1.206689048548393,
                2.0995544418291385,
                -0.8480349393966159,
                0.4440125227718283,
                -3.163460331767375
            ]
        },
        {
            "positions": [
                -0.07494292149287647,
                -1.2402909220550258,
                2.1635578005934275,
                -0.8818175851465146,
                0.6012255439232403,
                -3.148944855302507
            ]
        },
        {
            "positions": [
                -0.1408610753731525,
                -1.2738927955616588,
                2.227561159357717,
                -0.9156002308964135,
                0.7584385650746523,
                -3.1344293788376385
            ]
        },
        {
            "positions": [
                -0.20677922925342856,
                -1.3074946690682916,
                2.291564518122006,
                -0.9493828766463124,
                0.9156515862260645,
                -3.11991390237277
            ]
        },
        {
            "positions": [
                -0.2726973831337046,
                -1.3410965425749244,
                2.355567876886295,
                -0.9831655223962112,
                1.0728646073774764,
                -3.1053984259079024
            ]
        },
        {
            "positions": [
                -0.33861553701398067,
                -1.3746984160815574,
                2.4195712356505843,
                -1.01694816814611,
                1.2300776285288886,
                -3.090882949443034
            ]
        }
    ]
}