{
    "goal": {
        "global_pose": {
            "orientation": {
                "w": 0.7047431468963623,
                "x": -0.7094548344612122,
                "y": 0.0024358443915843964,
                "z": -0.0022348060738295317
            },
            "position": {
                "x": 0.6094750761985779,
                "y": 0.3671506643295288,
                "z": 0.19426114857196808
            }
        },
        "name": "move_to_magneteinheit_A"
    },
    "id": "PRMstar_move_to_magneteinheit_A_111",
    "joint_names": [
        "shoulder_pan_joint",
        "shoulder_lift_joint",
        "elbow_joint",
        "wrist_1_joint",
        "wrist_2_joint",
        "wrist_3_joint"
    ],
    "metrics": {
        "cart_traj_len": 3.00658818880739,
        "distance_elbow_joint": 3.916178326910111,
        "distance_shoulder_lift_joint": 0.9402282653160426,
        "distance_shoulder_pan_joint": 3.145426744454734,
        "distance_wrist_1_joint": 3.4733263146897118,
        "distance_wrist_2_joint": 1.4351687065033771,
        "distance_wrist_3_joint": 1.027046576483922,
        "smoothness": 0.19236877100573943,
        "time": 5.0600975,
        "traj_len": 3.733279380699748,
        "weighted_distance": 4.571647745454457
    },
    "planner": "PRMstar",
    "start": {
        "state": {
            "elbow_joint": -1.919618573717145,
            "shoulder_lift_joint": -1.2443395971678275,
            "shoulder_pan_joint": 2.6996025300909787,
            "wrist_1_joint": -1.548550951253194,
            "wrist_2_joint": -1.5709469090946802,
            "wrist_3_joint": 0.4420197732051276
        }
    },
    "waypoints": [
        {
            "positions": [
                2.6996025300909787,
                -1.2443395971678275,
                -1.919618573717145,
                -1.548550951253194,
                -1.5709469090946802,
                0.4420197732051276
            ]
        },
        {
            "positions": [
                2.5051441855331475,
                -1.1913336835760013,
                -1.8920405277176198,
                -1.4638502625804055,
                -1.5464929218988464,
                0.4532702611503281
            ]
        },
        {
            "positions": [
                2.310685840975316,
                -1.1383277699841752,
                -1.8644624817180948,
                -1.3791495739076172,
                -1.5220389347030125,
                0.4645207490955286
            ]
        },
        {
            "positions": [
                2.1162274964174848,
                -1.085321856392349,
                -1.8368844357185696,
                -1.2944488852348286,
                -1.4975849475071787,
                0.4757712370407291
            ]
        },
        {
            "positions": [
                1.9217691518596536,
                -1.032315942800523,
                -1.8093063897190445,
                -1.2097481965620402,
                -1.4731309603113447,
                0.4870217249859296
            ]
        },
        {
            "positions": [
                1.727310807301822,
                -0.9793100292086969,
                -1.7817283437195195,
                -1.1250475078892517,
                -1.448676973115511,
                0.4982722129311301
            ]
        },
        {
            "positions": [
                1.5328524627439908,
                -0.9263041156168708,
                -1.7541502977199943,
                -1.040346819216463,
                -1.424222985919677,
                0.5095227008763306
            ]
        },
        {
            "positions": [
                1.3383941181861596,
                -0.8732982020250446,
                -1.7265722517204694,
                -0.9556461305436749,
                -1.3997689987238433,
                0.5207731888215311
            ]
        },
        {
            "positions": [
                1.1439357736283282,
                -0.8202922884332184,
                -1.6989942057209442,
                -0.8709454418708863,
                -1.3753150115280095,
                0.5320236767667317
            ]
        },
        {
            "positions": [
                0.949477429070497,
                -0.7672863748413924,
                -1.671416159721419,
                -0.7862447531980978,
                -1.3508610243321757,
                0.5432741647119321
            ]
        },
        {
            "positions": [
                0.7550190845126654,
                -0.7142804612495662,
                -1.643838113721894,
                -0.7015440645253094,
                -1.3264070371363417,
                0.5545246526571326
            ]
        },
        {
            "positions": [
                0.5605607399548345,
                -0.6612745476577401,
                -1.6162600677223689,
                -0.6168433758525209,
                -1.3019530499405079,
                0.5657751406023331
            ]
        },
        {
            "positions": [
                0.36610239539700284,
                -0.6082686340659139,
                -1.588682021722844,
                -0.5321426871797323,
                -1.277499062744674,
                0.5770256285475337
            ]
        },
        {
            "positions": [
                0.17164405083917164,
                -0.5552627204740879,
                -1.5611039757233187,
                -0.447441998506944,
                -1.2530450755488403,
                0.5882761164927341
            ]
        },
        {
            "positions": [
                0.15413871259743858,
                -0.5677369380353666,
                -1.4004663650195652,
                -0.3291567809801857,
                -1.2074620014231683,
                0.5493818868490121
            ]
        },
        {
            "positions": [
                0.13663337435570555,
                -0.5802111555966454,
                -1.2398287543158115,
                -0.21087156345342736,
                -1.1618789272974963,
                0.5104876572052901
            ]
        },
        {
            "positions": [
                0.11912803611397249,
                -0.592685373157924,
                -1.079191143612058,
                -0.09258634592666903,
                -1.1162958531718243,
                0.4715934275615681
            ]
        },
        {
            "positions": [
                0.10162269787223943,
                -0.6051595907192028,
                -0.9185535329083044,
                0.025698871600089268,
                -1.0707127790461526,
                0.43269919791784606
            ]
        },
        {
            "positions": [
                0.08411735963050637,
                -0.6176338082804815,
                -0.757915922204551,
                0.14398408912684757,
                -1.0251297049204806,
                0.39380496827412403
            ]
        },
        {
            "positions": [
                0.06661202138877333,
                -0.6301080258417603,
                -0.5972783115007974,
                0.2622693066536059,
                -0.9795466307948086,
                0.35491073863040207
            ]
        },
        {
            "positions": [
                0.04910668314704027,
                -0.642582243403039,
                -0.43664070079704387,
                0.3805545241803642,
                -0.9339635566691367,
                0.31601650898668004
            ]
        },
        {
            "positions": [
                0.03160134490530722,
                -0.6550564609643178,
                -0.27600309009329016,
                0.49883974170712253,
                -0.8883804825434647,
                0.277122279342958
            ]
        },
        {
            "positions": [
                0.014096006663574162,
                -0.6675306785255966,
                -0.11536547938953667,
                0.6171249592338808,
                -0.8427974084177928,
                0.238228049699236
            ]
        },
        {
            "positions": [
                -0.0034093315781588973,
                -0.6800048960868752,
                0.04527213131421681,
                0.7354101767606391,
                -0.797214334292121,
                0.19933382005551398
            ]
        },
        {
            "positions": [
                -0.020914669819891957,
                -0.692479113648154,
                0.20590974201797052,
                0.8536953942873975,
                -0.7516312601664489,
                0.16043959041179195
            ]
        },
        {
            "positions": [
                -0.03842000806162499,
                -0.7049533312094327,
                0.366547352721724,
                0.9719806118141558,
                -0.706048186040777,
                0.12154536076806999
            ]
        },
        {
            "positions": [
                -0.05592534630335805,
                -0.7174275487707115,
                0.5271849634254777,
                1.0902658293409142,
                -0.660465111915105,
                0.08265113112434797
            ]
        },
        {
            "positions": [
                -0.07343068454509111,
                -0.7299017663319902,
                0.687822574129231,
                1.2085510468676723,
                -0.6148820377894332,
                0.04375690148062594
            ]
        },
        {
            "positions": [
                -0.09093602278682414,
                -0.742375983893269,
                0.8484601848329847,
                1.326836264394431,
                -0.5692989636637612,
                0.00486267183690392
            ]
        },
        {
            "positions": [
                -0.1084413610285572,
                -0.7548502014545476,
                1.0090977955367384,
                1.445121481921189,
                -0.5237158895380892,
                -0.0340315578068181
            ]
        },
        {
            "positions": [
                -0.12594669927029026,
                -0.7673244190158264,
                1.169735406240492,
                1.5634066994479474,
                -0.47813281541241726,
                -0.07292578745054012
            ]
        },
        {
            "positions": [
                -0.14345203751202332,
                -0.7797986365771051,
                1.3303730169442454,
                1.6816919169747055,
                -0.4325497412867454,
                -0.11182001709426215
            ]
        },
        {
            "positions": [
                -0.1609573757537564,
                -0.7922728541383839,
                1.4910106276479989,
                1.7999771345014641,
                -0.3869666671610735,
                -0.15071424673798414
            ]
        },
        {
            "positions": [
                -0.08974066610125722,
                -0.7887375403988821,
                1.6173979090342405,
                1.8311766917352275,
                -0.3241695510186309,
                -0.1152642792465848
            ]
        },
        {
            "positions": [
                -0.01852395644875804,
                -0.7852022266593803,
                1.743785190420482,
                1.8623762489689906,
                -0.2613724348761882,
                -0.07981431175518548
            ]
        },
        {
            "positions": [
                0.052692753203741144,
                -0.7816669129198787,
                1.8701724718067236,
                1.893575806202754,
                -0.1985753187337456,
                -0.04436434426378616
            ]
        },
        {
            "positions": [
                0.12390946285624033,
                -0.7781315991803769,
                1.9965597531929653,
                1.9247753634365172,
                -0.13577820259130297,
                -0.00891437677238682
            ]
        }
    ]
}{
    "goal": {
        "global_pose": {
            "orientation": {
                "w": 0.7047431468963623,
                "x": -0.7094548344612122,
                "y": 0.0024358443915843964,
                "z": -0.0022348060738295317
            },
            "position": {
                "x": 0.6094750761985779,
                "y": 0.3671506643295288,
                "z": 0.19426114857196808
            }
        },
        "name": "move_to_magneteinheit_A"
    },
    "id": "PRMstar_move_to_magneteinheit_A_111",
    "joint_names": [
        "shoulder_pan_joint",
        "shoulder_lift_joint",
        "elbow_joint",
        "wrist_1_joint",
        "wrist_2_joint",
        "wrist_3_joint"
    ],
    "metrics": {
        "cart_traj_len": 1.2513863412212016,
        "distance_elbow_joint": 0.0331632388233134,
        "distance_shoulder_lift_joint": 0.8717081813456322,
        "distance_shoulder_pan_joint": 1.2413596166311789,
        "distance_wrist_1_joint": 1.0755189431110828,
        "distance_wrist_2_joint": 1.4424913952418519,
        "distance_wrist_3_joint": 4.37962868669554,
        "smoothness": 0.3031469932160202,
        "time": 5.04324763,
        "traj_len": 3.007302788521402,
        "weighted_distance": 4.507897267417772
    },
    "planner": "PRMstar",
    "start": {
        "state": {
            "elbow_joint": 1.919643534880228,
            "shoulder_lift_joint": -1.8972525353963687,
            "shoulder_pan_joint": -1.1188672234189438,
            "wrist_1_joint": -1.5931878212786155,
            "wrist_2_joint": 1.5706036197970081,
            "wrist_3_joint": 1.118896926603594
        }
    },
    "waypoints": [
        {
            "positions": [
                -1.1188672234189438,
                -1.8972525353963687,
                1.919643534880228,
                -1.5931878212786155,
                1.5706036197970081,
                1.118896926603594
            ]
        },
        {
            "positions": [
                -1.0639405097633163,
                -1.859977031217648,
                1.9203796515030207,
                -1.5485287375666965,
                1.5055902769032434,
                0.9340856303252719
            ]
        },
        {
            "positions": [
                -1.009013796107689,
                -1.8227015270389275,
                1.9211157681258133,
                -1.5038696538547776,
                1.4405769340094787,
                0.7492743340469499
            ]
        },
        {
            "positions": [
                -0.9540870824520615,
                -1.7854260228602068,
                1.921851884748606,
                -1.4592105701428588,
                1.3755635911157142,
                0.5644630377686279
            ]
        },
        {
            "positions": [
                -0.899160368796434,
                -1.748150518681486,
                1.9225880013713985,
                -1.4145514864309399,
                1.3105502482219493,
                0.3796517414903058
            ]
        },
        {
            "positions": [
                -0.8442336551408067,
                -1.7108750145027656,
                1.9233241179941911,
                -1.369892402719021,
                1.2455369053281848,
                0.19484044521198385
            ]
        },
        {
            "positions": [
                -0.7893069414851792,
                -1.6735995103240449,
                1.9240602346169837,
                -1.325233319007102,
                1.1805235624344201,
                0.010029148933661913
            ]
        },
        {
            "positions": [
                -0.7343802278295517,
                -1.6363240061453244,
                1.9247963512397763,
                -1.280574235295183,
                1.1155102195406554,
                -0.17478214734466024
            ]
        },
        {
            "positions": [
                -0.6794535141739243,
                -1.5990485019666036,
                1.925532467862569,
                -1.235915151583264,
                1.0504968766468907,
                -0.3595934436229824
            ]
        },
        {
            "positions": [
                -0.6245268005182969,
                -1.561772997787883,
                1.9262685844853615,
                -1.191256067871345,
                0.985483533753126,
                -0.5444047399013046
            ]
        },
        {
            "positions": [
                -0.5696000868626695,
                -1.5244974936091624,
                1.9270047011081541,
                -1.1465969841594261,
                0.9204701908593614,
                -0.7292160361796263
            ]
        },
        {
            "positions": [
                -0.514673373207042,
                -1.4872219894304417,
                1.927740817730947,
                -1.1019379004475072,
                0.8554568479655967,
                -0.9140273324579484
            ]
        },
        {
            "positions": [
                -0.4597466595514146,
                -1.4499464852517212,
                1.9284769343537396,
                -1.0572788167355884,
                0.7904435050718321,
                -1.0988386287362701
            ]
        },
        {
            "positions": [
                -0.40481994589578707,
                -1.4126709810730005,
                1.9292130509765322,
                -1.0126197330236693,
                0.7254301621780673,
                -1.2836499250145927
            ]
        },
        {
            "positions": [
                -0.34989323224015967,
                -1.3753954768942798,
                1.9299491675993248,
                -0.9679606493117505,
                0.6604168192843027,
                -1.4684612212929145
            ]
        },
        {
            "positions": [
                -0.29496651858453227,
                -1.338119972715559,
                1.9306852842221174,
                -0.9233015655998317,
                0.5954034763905381,
                -1.6532725175712362
            ]
        },
        {
            "positions": [
                -0.24003980492890475,
                -1.3008444685368383,
                1.93142140084491,
                -0.8786424818879126,
                0.5303901334967733,
                -1.8380838138495588
            ]
        },
        {
            "positions": [
                -0.18511309127327735,
                -1.263568964358118,
                1.9321575174677026,
                -0.8339833981759938,
                0.4653767906030086,
                -2.0228951101278803
            ]
        },
        {
            "positions": [
                -0.13018637761764984,
                -1.2262934601793973,
                1.9328936340904952,
                -0.7893243144640747,
                0.4003634477092439,
                -2.207706406406203
            ]
        },
        {
            "positions": [
                -0.07525966396202244,
                -1.1890179560006766,
                1.9336297507132878,
                -0.7446652307521558,
                0.33535010481547944,
                -2.3925177026845246
            ]
        },
        {
            "positions": [
                -0.020332950306395148,
                -1.151742451821956,
                1.9343658673360804,
                -0.700006147040237,
                0.27033676192171474,
                -2.5773289989628463
            ]
        },
        {
            "positions": [
                0.03459376334923259,
                -1.1144669476432352,
                1.935101983958873,
                -0.6553470633283179,
                0.20532341902795004,
                -2.762140295241169
            ]
        },
        {
            "positions": [
                0.08952047700485992,
                -1.0771914434645147,
                1.9358381005816656,
                -0.6106879796163991,
                0.14031007613418525,
                -2.9469515915194906
            ]
        },
        {
            "positions": [
                0.10600643510854756,
                -1.1030149881714038,
                1.9443224371426036,
                -0.6571975303408324,
                0.1342111503446708,
                -3.103841675805718
            ]
        },
        {
            "positions": [
                0.12249239321223519,
                -1.1288385328782928,
                1.9528067737035415,
                -0.7037070810652656,
                0.12811222455515633,
                -3.260731760091946
            ]
        }
    ]
}