{
    "goal": {
        "global_pose": {
            "orientation": {
                "w": 0.7047431468963623,
                "x": -0.7094548344612122,
                "y": 0.0024358443915843964,
                "z": -0.0022348060738295317
            },
            "position": {
                "x": 0.6094750761985779,
                "y": 0.3671506643295288,
                "z": 0.19426114857196808
            }
        },
        "name": "move_to_magneteinheit_A"
    },
    "id": "PRMstar_move_to_magneteinheit_A_96",
    "joint_names": [
        "shoulder_pan_joint",
        "shoulder_lift_joint",
        "elbow_joint",
        "wrist_1_joint",
        "wrist_2_joint",
        "wrist_3_joint"
    ],
    "metrics": {
        "cart_traj_len": 3.3897383022980514,
        "distance_elbow_joint": 3.9091894112205448,
        "distance_shoulder_lift_joint": 0.9276139270070519,
        "distance_shoulder_pan_joint": 2.662429907376632,
        "distance_wrist_1_joint": 3.4633168291390826,
        "distance_wrist_2_joint": 1.4475735524867162,
        "distance_wrist_3_joint": 0.42502383423362694,
        "smoothness": 0.050903662672703534,
        "time": 5.043835314,
        "traj_len": 3.5826174037236598,
        "weighted_distance": 4.312317881552414
    },
    "planner": "PRMstar",
    "start": {
        "state": {
            "elbow_joint": -1.919618573717145,
            "shoulder_lift_joint": -1.2443395971678275,
            "shoulder_pan_joint": 2.6996025300909787,
            "wrist_1_joint": -1.548550951253194,
            "wrist_2_joint": -1.5709469090946802,
            "wrist_3_joint": 0.4420197732051276
        }
    },
    "waypoints": [
        {
            "positions": [
                2.6996025300909787,
                -1.2443395971678275,
                -1.919618573717145,
                -1.548550951253194,
                -1.5709469090946802,
                0.4420197732051276
            ]
        },
        {
            "positions": [
                2.5510205932540577,
                -1.2032996350249132,
                -1.8327301313123323,
                -1.489043049178721,
                -1.5209504325795133,
                0.43620153891387436
            ]
        },
        {
            "positions": [
                2.4024386564171367,
                -1.1622596728819992,
                -1.74584168890752,
                -1.429535147104248,
                -1.4709539560643465,
                0.43038330462262114
            ]
        },
        {
            "positions": [
                2.2538567195802153,
                -1.1212197107390849,
                -1.6589532465027073,
                -1.3700272450297746,
                -1.4209574795491795,
                0.42456507033136787
            ]
        },
        {
            "positions": [
                2.1052747827432943,
                -1.0801797485961706,
                -1.5720648040978948,
                -1.3105193429553015,
                -1.3709610030340127,
                0.41874683604011464
            ]
        },
        {
            "positions": [
                1.9566928459063733,
                -1.0391397864532566,
                -1.4851763616930822,
                -1.2510114408808284,
                -1.3209645265188459,
                0.4129286017488614
            ]
        },
        {
            "positions": [
                1.808110909069452,
                -0.9980998243103423,
                -1.3982879192882698,
                -1.1915035388063553,
                -1.270968050003679,
                0.4071103674576082
            ]
        },
        {
            "positions": [
                1.659528972232531,
                -0.9570598621674281,
                -1.3113994768834574,
                -1.1319956367318822,
                -1.2209715734885123,
                0.4012921331663549
            ]
        },
        {
            "positions": [
                1.5109470353956098,
                -0.9160199000245139,
                -1.2245110344786447,
                -1.0724877346574089,
                -1.1709750969733452,
                0.3954738988751017
            ]
        },
        {
            "positions": [
                1.3623650985586888,
                -0.8749799378815997,
                -1.137622592073832,
                -1.012979832582936,
                -1.1209786204581786,
                0.3896556645838485
            ]
        },
        {
            "positions": [
                1.2137831617217676,
                -0.8339399757386855,
                -1.0507341496690197,
                -0.9534719305084627,
                -1.0709821439430116,
                0.38383743029259526
            ]
        },
        {
            "positions": [
                1.0652012248848464,
                -0.7929000135957713,
                -0.963845707264207,
                -0.8939640284339896,
                -1.0209856674278448,
                0.378019196001342
            ]
        },
        {
            "positions": [
                0.9166192880479254,
                -0.7518600514528571,
                -0.8769572648593944,
                -0.8344561263595164,
                -0.9709891909126779,
                0.37220096171008876
            ]
        },
        {
            "positions": [
                0.7680373512110044,
                -0.710820089309943,
                -0.790068822454582,
                -0.7749482242850434,
                -0.9209927143975112,
                0.36638272741883554
            ]
        },
        {
            "positions": [
                0.6194554143740834,
                -0.6697801271670287,
                -0.7031803800497696,
                -0.7154403222105702,
                -0.8709962378823443,
                0.3605644931275823
            ]
        },
        {
            "positions": [
                0.47087347753716235,
                -0.6287401650241146,
                -0.6162919376449569,
                -0.6559324201360971,
                -0.8209997613671774,
                0.35474625883632904
            ]
        },
        {
            "positions": [
                0.3222915407002409,
                -0.5877002028812003,
                -0.5294034952401445,
                -0.5964245180616239,
                -0.7710032848520105,
                0.3489280245450758
            ]
        },
        {
            "positions": [
                0.17370960386331993,
                -0.5466602407382861,
                -0.4425150528353319,
                -0.5369166159871508,
                -0.7210068083368437,
                0.3431097902538226
            ]
        },
        {
            "positions": [
                0.16703767363877953,
                -0.5605007352065932,
                -0.28639375893633967,
                -0.37909731908248967,
                -0.6822298990468193,
                0.3224407166268253
            ]
        },
        {
            "positions": [
                0.16036574341423915,
                -0.5743412296749003,
                -0.13027246503734752,
                -0.2212780221778285,
                -0.643452989756795,
                0.30177164299982795
            ]
        },
        {
            "positions": [
                0.15369381318969874,
                -0.5881817241432074,
                0.025848828861644635,
                -0.06345872527316732,
                -0.6046760804667706,
                0.2811025693728306
            ]
        },
        {
            "positions": [
                0.14702188296515833,
                -0.6020222186115144,
                0.18197012276063684,
                0.0943605716314938,
                -0.5658991711767462,
                0.2604334957458333
            ]
        },
        {
            "positions": [
                0.14034995274061793,
                -0.6158627130798215,
                0.33809141665962905,
                0.25217986853615504,
                -0.5271222618867217,
                0.23976442211883597
            ]
        },
        {
            "positions": [
                0.13367802251607752,
                -0.6297032075481286,
                0.49421271055862115,
                0.40999916544081616,
                -0.4883453525966974,
                0.21909534849183865
            ]
        },
        {
            "positions": [
                0.12700609229153714,
                -0.6435437020164356,
                0.6503340044576134,
                0.5678184623454774,
                -0.449568443306673,
                0.19842627486484132
            ]
        },
        {
            "positions": [
                0.12033416206699674,
                -0.6573841964847427,
                0.8064552983566056,
                0.7256377592501384,
                -0.41079153401664864,
                0.177757201237844
            ]
        },
        {
            "positions": [
                0.11366223184245633,
                -0.6712246909530498,
                0.9625765922555978,
                0.8834570561547999,
                -0.3720146247266242,
                0.15708812761084667
            ]
        },
        {
            "positions": [
                0.10699030161791594,
                -0.6850651854213569,
                1.11869788615459,
                1.0412763530594609,
                -0.33323771543659986,
                0.13641905398384935
            ]
        },
        {
            "positions": [
                0.10031837139337554,
                -0.6989056798896639,
                1.274819180053582,
                1.199095649964122,
                -0.29446080614657544,
                0.11574998035685202
            ]
        },
        {
            "positions": [
                0.09364644116883514,
                -0.7127461743579709,
                1.4309404739525742,
                1.3569149468687831,
                -0.2556838968565511,
                0.0950809067298547
            ]
        },
        {
            "positions": [
                0.08697451094429473,
                -0.7265866688262781,
                1.5870617678515666,
                1.5147342437734443,
                -0.2169069875665267,
                0.07441183310285737
            ]
        },
        {
            "positions": [
                0.08030258071975434,
                -0.7404271632945851,
                1.7431830617505588,
                1.6725535406781054,
                -0.17813007827650235,
                0.053742759475860054
            ]
        },
        {
            "positions": [
                0.10186755972245806,
                -0.758510987305191,
                1.86637694962698,
                1.7936597092819966,
                -0.15075171744223298,
                0.035369349223680374
            ]
        },
        {
            "positions": [
                0.1234325387251618,
                -0.7765948113157967,
                1.9895708375034014,
                1.9147658778858878,
                -0.12337335660796364,
                0.016995938971500698
            ]
        }
    ]
}{
    "goal": {
        "global_pose": {
            "orientation": {
                "w": 0.7047431468963623,
                "x": -0.7094548344612122,
                "y": 0.0024358443915843964,
                "z": -0.0022348060738295317
            },
            "position": {
                "x": 0.6094750761985779,
                "y": 0.3671506643295288,
                "z": 0.19426114857196808
            }
        },
        "name": "move_to_magneteinheit_A"
    },
    "id": "PRMstar_move_to_magneteinheit_A_96",
    "joint_names": [
        "shoulder_pan_joint",
        "shoulder_lift_joint",
        "elbow_joint",
        "wrist_1_joint",
        "wrist_2_joint",
        "wrist_3_joint"
    ],
    "metrics": {
        "cart_traj_len": 1.2313722206586422,
        "distance_elbow_joint": 0.1799851037407174,
        "distance_shoulder_lift_joint": 0.7551872137262239,
        "distance_shoulder_pan_joint": 1.241859615102884,
        "distance_wrist_1_joint": 0.8089870588410735,
        "distance_wrist_2_joint": 1.4341062752499996,
        "distance_wrist_3_joint": 4.311831357324877,
        "smoothness": 0.021166022908200122,
        "time": 5.028188705,
        "traj_len": 2.9549884304317966,
        "weighted_distance": 4.427043333052727
    },
    "planner": "PRMstar",
    "start": {
        "state": {
            "elbow_joint": 1.919643534880228,
            "shoulder_lift_joint": -1.8972525353963687,
            "shoulder_pan_joint": -1.1188672234189438,
            "wrist_1_joint": -1.5931878212786155,
            "wrist_2_joint": 1.5706036197970081,
            "wrist_3_joint": 1.118896926603594
        }
    },
    "waypoints": [
        {
            "positions": [
                -1.1188672234189438,
                -1.8972525353963687,
                1.919643534880228,
                -1.5931878212786155,
                1.5706036197970081,
                1.118896926603594
            ]
        },
        {
            "positions": [
                -1.0633622353660626,
                -1.8597832189048418,
                1.925536176344983,
                -1.561315420858844,
                1.5062319977688072,
                0.9318136337850933
            ]
        },
        {
            "positions": [
                -1.007857247313181,
                -1.8223139024133146,
                1.931428817809738,
                -1.5294430204390728,
                1.4418603757406063,
                0.7447303409665926
            ]
        },
        {
            "positions": [
                -0.9523522592602998,
                -1.7848445859217876,
                1.937321459274493,
                -1.4975706200193013,
                1.3774887537124054,
                0.5576470481480921
            ]
        },
        {
            "positions": [
                -0.8968472712074185,
                -1.7473752694302604,
                1.943214100739248,
                -1.4656982195995298,
                1.3131171316842045,
                0.3705637553295914
            ]
        },
        {
            "positions": [
                -0.8413422831545371,
                -1.7099059529387335,
                1.949106742204003,
                -1.4338258191797584,
                1.2487455096560036,
                0.18348046251109085
            ]
        },
        {
            "positions": [
                -0.7858372951016557,
                -1.6724366364472063,
                1.954999383668758,
                -1.401953418759987,
                1.1843738876278027,
                -0.003602830307409821
            ]
        },
        {
            "positions": [
                -0.7303323070487744,
                -1.6349673199556793,
                1.960892025133513,
                -1.3700810183402157,
                1.1200022655996018,
                -0.19068612312591027
            ]
        },
        {
            "positions": [
                -0.674827318995893,
                -1.5974980034641522,
                1.966784666598268,
                -1.3382086179204442,
                1.0556306435714007,
                -0.37776941594441116
            ]
        },
        {
            "positions": [
                -0.6193223309430116,
                -1.5600286869726252,
                1.9726773080630229,
                -1.3063362175006727,
                0.9912590215431998,
                -0.5648527087629116
            ]
        },
        {
            "positions": [
                -0.5638173428901303,
                -1.522559370481098,
                1.978569949527778,
                -1.2744638170809015,
                0.9268873995149989,
                -0.7519360015814123
            ]
        },
        {
            "positions": [
                -0.5083123548372489,
                -1.485090053989571,
                1.9844625909925329,
                -1.24259141666113,
                0.8625157774867979,
                -0.9390192943999132
            ]
        },
        {
            "positions": [
                -0.4528073667843676,
                -1.447620737498044,
                1.9903552324572877,
                -1.2107190162413586,
                0.7981441554585971,
                -1.1261025872184136
            ]
        },
        {
            "positions": [
                -0.3973023787314862,
                -1.410151421006517,
                1.9962478739220428,
                -1.1788466158215871,
                0.7337725334303961,
                -1.313185880036914
            ]
        },
        {
            "positions": [
                -0.34179739067860493,
                -1.37268210451499,
                2.002140515386798,
                -1.1469742154018159,
                0.6694009114021953,
                -1.5002691728554145
            ]
        },
        {
            "positions": [
                -0.28629240262572353,
                -1.3352127880234628,
                2.008033156851553,
                -1.1151018149820444,
                0.6050292893739943,
                -1.6873524656739154
            ]
        },
        {
            "positions": [
                -0.23078741457284213,
                -1.2977434715319358,
                2.0139257983163077,
                -1.083229414562273,
                0.5406576673457932,
                -1.8744357584924163
            ]
        },
        {
            "positions": [
                -0.17528242651996084,
                -1.2602741550404088,
                2.0198184397810626,
                -1.0513570141425017,
                0.47628604531759233,
                -2.061519051310917
            ]
        },
        {
            "positions": [
                -0.11977743846707944,
                -1.2228048385488817,
                2.025711081245818,
                -1.0194846137227302,
                0.41191442328939143,
                -2.2486023441294174
            ]
        },
        {
            "positions": [
                -0.06427245041419827,
                -1.1853355220573545,
                2.0316037227105728,
                -0.9876122133029588,
                0.3475428012611905,
                -2.435685636947918
            ]
        },
        {
            "positions": [
                -0.008767462361316836,
                -1.1478662055658275,
                2.0374963641753276,
                -0.9557398128831873,
                0.28317117923298973,
                -2.6227689297664187
            ]
        },
        {
            "positions": [
                0.03515248898710221,
                -1.1459325776006,
                2.0167856060267884,
                -0.8985601294013056,
                0.2342799010043294,
                -2.812824096751373
            ]
        },
        {
            "positions": [
                0.07907244033552124,
                -1.1439989496353724,
                1.996074847878249,
                -0.8413804459194237,
                0.1853886227756691,
                -3.0028792637363275
            ]
        },
        {
            "positions": [
                0.12299239168394031,
                -1.1420653216701449,
                1.9753640897297098,
                -0.784200762437542,
                0.13649734454700876,
                -3.192934430721282
            ]
        }
    ]
}