{
    "goal": {
        "global_pose": {
            "orientation": {
                "w": 0.7047431468963623,
                "x": -0.7094548344612122,
                "y": 0.0024358443915843964,
                "z": -0.0022348060738295317
            },
            "position": {
                "x": 0.6094750761985779,
                "y": 0.3671506643295288,
                "z": 0.19426114857196808
            }
        },
        "name": "move_to_magneteinheit_A"
    },
    "id": "PRMstar_move_to_magneteinheit_A_60",
    "joint_names": [
        "shoulder_pan_joint",
        "shoulder_lift_joint",
        "elbow_joint",
        "wrist_1_joint",
        "wrist_2_joint",
        "wrist_3_joint"
    ],
    "metrics": {
        "cart_traj_len": 3.6844858433398673,
        "distance_elbow_joint": 3.8945362513709725,
        "distance_shoulder_lift_joint": 0.5052522724947361,
        "distance_shoulder_pan_joint": 2.959563981811034,
        "distance_wrist_1_joint": 1.636788752106994,
        "distance_wrist_2_joint": 1.689703467078794,
        "distance_wrist_3_joint": 2.740983911050208,
        "smoothness": 0.33857427735300705,
        "time": 5.0321144659999995,
        "traj_len": 3.6642637235756848,
        "weighted_distance": 4.715430911083201
    },
    "planner": "PRMstar",
    "start": {
        "state": {
            "elbow_joint": -1.919618573717145,
            "shoulder_lift_joint": -1.2443395971678275,
            "shoulder_pan_joint": 2.6996025300909787,
            "wrist_1_joint": -1.548550951253194,
            "wrist_2_joint": -1.5709469090946802,
            "wrist_3_joint": 0.4420197732051276
        }
    },
    "waypoints": [
        {
            "positions": [
                2.6996025300909787,
                -1.2443395971678275,
                -1.919618573717145,
                -1.548550951253194,
                -1.5709469090946802,
                0.4420197732051276
            ]
        },
        {
            "positions": [
                2.600835658763859,
                -1.2373305229647387,
                -1.81058879928392,
                -1.5162336242030865,
                -1.5206600240945565,
                0.5343218639045703
            ]
        },
        {
            "positions": [
                2.5020687874367393,
                -1.2303214487616498,
                -1.7015590248506953,
                -1.483916297152979,
                -1.4703731390944328,
                0.626623954604013
            ]
        },
        {
            "positions": [
                2.403301916109619,
                -1.223312374558561,
                -1.5925292504174704,
                -1.4515989701028713,
                -1.420086254094309,
                0.7189260453034556
            ]
        },
        {
            "positions": [
                2.3045350447824995,
                -1.2163033003554722,
                -1.4834994759842455,
                -1.4192816430527637,
                -1.3697993690941854,
                0.8112281360028983
            ]
        },
        {
            "positions": [
                2.20576817345538,
                -1.2092942261523834,
                -1.3744697015510208,
                -1.3869643160026563,
                -1.3195124840940617,
                0.9035302267023411
            ]
        },
        {
            "positions": [
                2.10700130212826,
                -1.2022851519492943,
                -1.265439927117796,
                -1.3546469889525488,
                -1.269225599093938,
                0.9958323174017838
            ]
        },
        {
            "positions": [
                2.0082344308011404,
                -1.1952760777462055,
                -1.156410152684571,
                -1.3223296619024412,
                -1.2189387140938144,
                1.0881344081012265
            ]
        },
        {
            "positions": [
                1.9094675594740202,
                -1.1882670035431167,
                -1.0473803782513462,
                -1.2900123348523336,
                -1.1686518290936907,
                1.180436498800669
            ]
        },
        {
            "positions": [
                1.8107006881469005,
                -1.1812579293400278,
                -0.9383506038181214,
                -1.257695007802226,
                -1.118364944093567,
                1.2727385895001118
            ]
        },
        {
            "positions": [
                1.7119338168197809,
                -1.174248855136939,
                -0.8293208293848966,
                -1.2253776807521184,
                -1.0680780590934433,
                1.3650406801995545
            ]
        },
        {
            "positions": [
                1.613166945492661,
                -1.1672397809338502,
                -0.7202910549516717,
                -1.1930603537020108,
                -1.0177911740933197,
                1.4573427708989972
            ]
        },
        {
            "positions": [
                1.5144000741655412,
                -1.1602307067307613,
                -0.611261280518447,
                -1.1607430266519034,
                -0.967504289093196,
                1.54964486159844
            ]
        },
        {
            "positions": [
                1.4156332028384215,
                -1.1532216325276725,
                -0.5022315060852223,
                -1.1284256996017958,
                -0.9172174040930723,
                1.6419469522978825
            ]
        },
        {
            "positions": [
                1.3168663315113016,
                -1.1462125583245837,
                -0.3932017316519971,
                -1.0961083725516882,
                -0.8669305190929486,
                1.7342490429973254
            ]
        },
        {
            "positions": [
                1.2180994601841817,
                -1.1392034841214949,
                -0.2841719572187724,
                -1.0637910455015807,
                -0.8166436340928249,
                1.826551133696768
            ]
        },
        {
            "positions": [
                1.119332588857062,
                -1.132194409918406,
                -0.1751421827855475,
                -1.031473718451473,
                -0.7663567490927012,
                1.9188532243962106
            ]
        },
        {
            "positions": [
                1.0205657175299423,
                -1.1251853357153172,
                -0.0661124083523228,
                -0.9991563914013656,
                -0.7160698640925777,
                2.011155315095653
            ]
        },
        {
            "positions": [
                0.9217988462028224,
                -1.1181762615122282,
                0.04291736608090213,
                -0.9668390643512579,
                -0.6657829790924539,
                2.103457405795096
            ]
        },
        {
            "positions": [
                0.8230319748757027,
                -1.1111671873091393,
                0.15194714051412705,
                -0.9345217373011504,
                -0.6154960940923302,
                2.1957594964945386
            ]
        },
        {
            "positions": [
                0.724265103548583,
                -1.1041581131060505,
                0.26097691494735176,
                -0.9022044102510428,
                -0.5652092090922065,
                2.2880615871939813
            ]
        },
        {
            "positions": [
                0.6254982322214633,
                -1.0971490389029617,
                0.37000668938057646,
                -0.8698870832009353,
                -0.5149223240920828,
                2.380363677893424
            ]
        },
        {
            "positions": [
                0.5267313608943431,
                -1.0901399646998728,
                0.4790364638138016,
                -0.8375697561508277,
                -0.46463543909195915,
                2.472665768592867
            ]
        },
        {
            "positions": [
                0.42796448956722344,
                -1.083130890496784,
                0.5880662382470263,
                -0.8052524291007201,
                -0.4143485540918355,
                2.5649678592923095
            ]
        },
        {
            "positions": [
                0.34514532042128876,
                -1.0634009360139154,
                0.7088114126786322,
                -0.7312362195008713,
                -0.3536457604248442,
                2.5603707906199857
            ]
        },
        {
            "positions": [
                0.262326151275354,
                -1.0436709815310465,
                0.8295565871102382,
                -0.6572200099010224,
                -0.2929429667578529,
                2.555773721947662
            ]
        },
        {
            "positions": [
                0.1795069821294193,
                -1.023941027048178,
                0.9503017615418441,
                -0.5832038003011735,
                -0.23224017309086156,
                2.5511766532753386
            ]
        },
        {
            "positions": [
                0.09668781298348461,
                -1.004211072565309,
                1.07104693597345,
                -0.5091875907013246,
                -0.17153737942387026,
                2.546579584603015
            ]
        },
        {
            "positions": [
                0.013868643837549821,
                -0.9844811180824404,
                1.191792110405056,
                -0.4351713811014756,
                -0.11083458575687893,
                2.541982515930691
            ]
        },
        {
            "positions": [
                -0.06895052530838483,
                -0.9647511635995717,
                1.3125372848366619,
                -0.3611551715016267,
                -0.050131792089887606,
                2.5373854472583672
            ]
        },
        {
            "positions": [
                -0.030048075987811923,
                -0.9585619894130125,
                1.4135576127693215,
                -0.4473042675604427,
                -0.04820324270358252,
                2.6354548064296472
            ]
        },
        {
            "positions": [
                0.008854373332760984,
                -0.9523728152264532,
                1.5145779407019813,
                -0.5334533636192589,
                -0.046274693317277425,
                2.7335241656009273
            ]
        },
        {
            "positions": [
                0.04775682265333389,
                -0.946183641039894,
                1.6155982686346408,
                -0.6196024596780749,
                -0.04434614393097233,
                2.8315935247722073
            ]
        },
        {
            "positions": [
                0.08665927197390681,
                -0.9399944668533349,
                1.7166185965673004,
                -0.705751555736891,
                -0.042417594544667245,
                2.9296628839434873
            ]
        },
        {
            "positions": [
                0.09845964835036629,
                -1.0069635142467495,
                1.8027182902628094,
                -0.7406837517769451,
                0.01130712296492671,
                2.9957215426914754
            ]
        },
        {
            "positions": [
                0.11026002472682576,
                -1.0739325616401638,
                1.8888179839583183,
                -0.7756159478169992,
                0.06503184047452067,
                3.061780201439463
            ]
        },
        {
            "positions": [
                0.12206040110328524,
                -1.1409016090335784,
                1.9749176776538273,
                -0.8105481438570533,
                0.11875655798411462,
                3.127838860187451
            ]
        }
    ]
}{
    "goal": {
        "global_pose": {
            "orientation": {
                "w": 0.7047431468963623,
                "x": -0.7094548344612122,
                "y": 0.0024358443915843964,
                "z": -0.0022348060738295317
            },
            "position": {
                "x": 0.6094750761985779,
                "y": 0.3671506643295288,
                "z": 0.19426114857196808
            }
        },
        "name": "move_to_magneteinheit_A"
    },
    "id": "PRMstar_move_to_magneteinheit_A_60",
    "joint_names": [
        "shoulder_pan_joint",
        "shoulder_lift_joint",
        "elbow_joint",
        "wrist_1_joint",
        "wrist_2_joint",
        "wrist_3_joint"
    ],
    "metrics": {
        "cart_traj_len": 1.324530574380407,
        "distance_elbow_joint": 0.34277485257140206,
        "distance_shoulder_lift_joint": 0.8791961496657159,
        "distance_shoulder_pan_joint": 1.2410740372205478,
        "distance_wrist_1_joint": 0.7313793216968723,
        "distance_wrist_2_joint": 1.4487376693862015,
        "distance_wrist_3_joint": 4.2434724481878545,
        "smoothness": 0.13604473117257307,
        "time": 5.021487499,
        "traj_len": 2.981045869947089,
        "weighted_distance": 4.421956169636622
    },
    "planner": "PRMstar",
    "start": {
        "state": {
            "elbow_joint": 1.919643534880228,
            "shoulder_lift_joint": -1.8972525353963687,
            "shoulder_pan_joint": -1.1188672234189438,
            "wrist_1_joint": -1.5931878212786155,
            "wrist_2_joint": 1.5706036197970081,
            "wrist_3_joint": 1.118896926603594
        }
    },
    "waypoints": [
        {
            "positions": [
                -1.1188672234189438,
                -1.8972525353963687,
                1.919643534880228,
                -1.5931878212786155,
                1.5706036197970081,
                1.118896926603594
            ]
        },
        {
            "positions": [
                -1.0647104898575575,
                -1.8584723995345716,
                1.9130856126755436,
                -1.5643697648697177,
                1.5083249855089034,
                0.9235514707618343
            ]
        },
        {
            "positions": [
                -1.0105537562961713,
                -1.8196922636727744,
                1.906527690470859,
                -1.53555170846082,
                1.4460463512207984,
                0.7282060149200746
            ]
        },
        {
            "positions": [
                -0.956397022734785,
                -1.7809121278109772,
                1.8999697682661743,
                -1.5067336520519223,
                1.3837677169326934,
                0.5328605590783151
            ]
        },
        {
            "positions": [
                -0.9022402891733987,
                -1.74213199194918,
                1.8934118460614897,
                -1.4779155956430245,
                1.3214890826445886,
                0.3375151032365554
            ]
        },
        {
            "positions": [
                -0.8480835556120123,
                -1.7033518560873828,
                1.8868539238568052,
                -1.4490975392341268,
                1.2592104483564839,
                0.14216964739479587
            ]
        },
        {
            "positions": [
                -0.7939268220506261,
                -1.6645717202255854,
                1.8802960016521206,
                -1.420279482825229,
                1.196931814068379,
                -0.05317580844696379
            ]
        },
        {
            "positions": [
                -0.7397700884892398,
                -1.6257915843637885,
                1.8737380794474359,
                -1.3914614264163312,
                1.134653179780274,
                -0.24852126428872334
            ]
        },
        {
            "positions": [
                -0.6856133549278535,
                -1.587011448501991,
                1.8671801572427513,
                -1.3626433700074336,
                1.0723745454921692,
                -0.4438667201304831
            ]
        },
        {
            "positions": [
                -0.6314566213664672,
                -1.5482313126401939,
                1.8606222350380668,
                -1.3338253135985358,
                1.0100959112040644,
                -0.6392121759722427
            ]
        },
        {
            "positions": [
                -0.5772998878050809,
                -1.5094511767783967,
                1.8540643128333822,
                -1.305007257189638,
                0.9478172769159594,
                -0.8345576318140022
            ]
        },
        {
            "positions": [
                -0.5231431542436945,
                -1.4706710409165995,
                1.8475063906286975,
                -1.2761892007807403,
                0.8855386426278544,
                -1.029903087655762
            ]
        },
        {
            "positions": [
                -0.46898642068230834,
                -1.4318909050548023,
                1.840948468424013,
                -1.2473711443718427,
                0.8232600083397497,
                -1.2252485434975215
            ]
        },
        {
            "positions": [
                -0.41482968712092194,
                -1.393110769193005,
                1.8343905462193284,
                -1.218553087962945,
                0.7609813740516447,
                -1.4205939993392815
            ]
        },
        {
            "positions": [
                -0.36067295355953566,
                -1.354330633331208,
                1.8278326240146439,
                -1.1897350315540471,
                0.6987027397635399,
                -1.6159394551810407
            ]
        },
        {
            "positions": [
                -0.3065162199981494,
                -1.3155504974694106,
                1.821274701809959,
                -1.1609169751451494,
                0.6364241054754349,
                -1.8112849110228006
            ]
        },
        {
            "positions": [
                -0.2523594864367631,
                -1.2767703616076136,
                1.8147167796052746,
                -1.1320989187362516,
                0.5741454711873302,
                -2.0066303668645604
            ]
        },
        {
            "positions": [
                -0.1982027528753767,
                -1.2379902257458162,
                1.80815885740059,
                -1.1032808623273538,
                0.5118668368992252,
                -2.20197582270632
            ]
        },
        {
            "positions": [
                -0.14404601931399053,
                -1.1992100898840192,
                1.8016009351959055,
                -1.0744628059184562,
                0.4495882026111204,
                -2.3973212785480795
            ]
        },
        {
            "positions": [
                -0.08988928575260413,
                -1.1604299540222218,
                1.7950430129912207,
                -1.0456447495095584,
                0.38730956832301544,
                -2.592666734389839
            ]
        },
        {
            "positions": [
                -0.03573255219121796,
                -1.1216498181604249,
                1.7884850907865362,
                -1.0168266931006609,
                0.3250309340349107,
                -2.7880121902315986
            ]
        },
        {
            "positions": [
                0.01842418137016842,
                -1.0828696822986275,
                1.7819271685818516,
                -0.988008636691763,
                0.26275229974680575,
                -2.983357646073358
            ]
        },
        {
            "positions": [
                0.07031549758588626,
                -1.1152763305826148,
                1.8844564117183644,
                -0.924908568136753,
                0.1923091250788062,
                -3.0539665838288093
            ]
        },
        {
            "positions": [
                0.12220681380160411,
                -1.147682978866602,
                1.9869856548548772,
                -0.8618084995817432,
                0.12186595041080664,
                -3.1245755215842603
            ]
        }
    ]
}