{
    "goal": {
        "global_pose": {
            "orientation": {
                "w": 0.7047431468963623,
                "x": -0.7094548344612122,
                "y": 0.0024358443915843964,
                "z": -0.0022348060738295317
            },
            "position": {
                "x": 0.6094750761985779,
                "y": 0.3671506643295288,
                "z": 0.19426114857196808
            }
        },
        "name": "move_to_magneteinheit_A"
    },
    "id": "PRMstar_move_to_magneteinheit_A_24",
    "joint_names": [
        "shoulder_pan_joint",
        "shoulder_lift_joint",
        "elbow_joint",
        "wrist_1_joint",
        "wrist_2_joint",
        "wrist_3_joint"
    ],
    "metrics": {
        "cart_traj_len": 3.759752799303246,
        "distance_elbow_joint": 3.9037909494595584,
        "distance_shoulder_lift_joint": 0.6473534498491278,
        "distance_shoulder_pan_joint": 2.684474786493464,
        "distance_wrist_1_joint": 0.8778830216657536,
        "distance_wrist_2_joint": 1.6902873157479046,
        "distance_wrist_3_joint": 2.7026316114260935,
        "smoothness": 0.11939635224418871,
        "time": 5.038299992000001,
        "traj_len": 3.5364418749135274,
        "weighted_distance": 4.525467345469167
    },
    "planner": "PRMstar",
    "start": {
        "state": {
            "elbow_joint": -1.919618573717145,
            "shoulder_lift_joint": -1.2443395971678275,
            "shoulder_pan_joint": 2.6996025300909787,
            "wrist_1_joint": -1.548550951253194,
            "wrist_2_joint": -1.5709469090946802,
            "wrist_3_joint": 0.4420197732051276
        }
    },
    "waypoints": [
        {
            "positions": [
                2.6996025300909787,
                -1.2443395971678275,
                -1.919618573717145,
                -1.548550951253194,
                -1.5709469090946802,
                0.4420197732051276
            ]
        },
        {
            "positions": [
                2.596455550398912,
                -1.2281005704765822,
                -1.7976256416921448,
                -1.5523559100306632,
                -1.5173592356931642,
                0.5373253357384271
            ]
        },
        {
            "positions": [
                2.4933085707068448,
                -1.2118615437853368,
                -1.6756327096671444,
                -1.5561608688081323,
                -1.4637715622916485,
                0.6326308982717266
            ]
        },
        {
            "positions": [
                2.390161591014778,
                -1.1956225170940915,
                -1.5536397776421442,
                -1.5599658275856014,
                -1.4101838888901326,
                0.727936460805026
            ]
        },
        {
            "positions": [
                2.287014611322711,
                -1.1793834904028462,
                -1.431646845617144,
                -1.5637707863630705,
                -1.3565962154886169,
                0.8232420233383255
            ]
        },
        {
            "positions": [
                2.183867631630644,
                -1.1631444637116009,
                -1.3096539135921437,
                -1.5675757451405397,
                -1.303008542087101,
                0.918547585871625
            ]
        },
        {
            "positions": [
                2.0807206519385772,
                -1.1469054370203555,
                -1.1876609815671433,
                -1.571380703918009,
                -1.249420868685585,
                1.0138531484049245
            ]
        },
        {
            "positions": [
                1.9775736722465103,
                -1.1306664103291102,
                -1.0656680495421431,
                -1.575185662695478,
                -1.1958331952840693,
                1.1091587109382242
            ]
        },
        {
            "positions": [
                1.8744266925544433,
                -1.114427383637865,
                -0.943675117517143,
                -1.5789906214729472,
                -1.1422455218825533,
                1.2044642734715236
            ]
        },
        {
            "positions": [
                1.7712797128623765,
                -1.0981883569466198,
                -0.8216821854921426,
                -1.5827955802504163,
                -1.0886578484810374,
                1.299769836004823
            ]
        },
        {
            "positions": [
                1.6681327331703095,
                -1.0819493302553744,
                -0.6996892534671424,
                -1.5866005390278854,
                -1.0350701750795217,
                1.3950753985381226
            ]
        },
        {
            "positions": [
                1.5649857534782425,
                -1.065710303564129,
                -0.5776963214421422,
                -1.5904054978053546,
                -0.9814825016780058,
                1.4903809610714223
            ]
        },
        {
            "positions": [
                1.4618387737861758,
                -1.0494712768728838,
                -0.45570338941714184,
                -1.5942104565828237,
                -0.9278948282764901,
                1.5856865236047215
            ]
        },
        {
            "positions": [
                1.3586917940941088,
                -1.0332322501816384,
                -0.33371045739214167,
                -1.5980154153602928,
                -0.8743071548749742,
                1.680992086138021
            ]
        },
        {
            "positions": [
                1.2555448144020418,
                -1.0169932234903931,
                -0.21171752536714128,
                -1.601820374137762,
                -0.8207194814734583,
                1.7762976486713207
            ]
        },
        {
            "positions": [
                1.1523978347099748,
                -1.0007541967991478,
                -0.08972459334214111,
                -1.605625332915231,
                -0.7671318080719425,
                1.8716032112046201
            ]
        },
        {
            "positions": [
                1.049250855017908,
                -0.9845151701079025,
                0.032268338682859055,
                -1.6094302916927001,
                -0.7135441346704267,
                1.9669087737379196
            ]
        },
        {
            "positions": [
                0.9461038753258413,
                -0.9682761434166571,
                0.15426127070785944,
                -1.6132352504701692,
                -0.6599564612689108,
                2.062214336271219
            ]
        },
        {
            "positions": [
                0.8429568956337741,
                -0.9520371167254118,
                0.27625420273285983,
                -1.6170402092476386,
                -0.6063687878673949,
                2.1575198988045186
            ]
        },
        {
            "positions": [
                0.7398099159417073,
                -0.9357980900341665,
                0.3982471347578598,
                -1.6208451680251077,
                -0.552781114465879,
                2.2528254613378182
            ]
        },
        {
            "positions": [
                0.6366629362496403,
                -0.9195590633429211,
                0.5202400667828602,
                -1.6246501268025768,
                -0.49919344106436325,
                2.3481310238711175
            ]
        },
        {
            "positions": [
                0.5335159565575736,
                -0.9033200366516759,
                0.6422329988078601,
                -1.628455085580046,
                -0.44560576766284754,
                2.443436586404417
            ]
        },
        {
            "positions": [
                0.43036897686550635,
                -0.8870810099604306,
                0.7642259308328605,
                -1.632260044357515,
                -0.3920180942613314,
                2.538742148937717
            ]
        },
        {
            "positions": [
                0.3272219971734398,
                -0.8708419832691853,
                0.886218862857861,
                -1.6360650031349842,
                -0.33843042085981573,
                2.634047711471016
            ]
        },
        {
            "positions": [
                0.29030348679393575,
                -0.8947064741798131,
                1.0139166191951565,
                -1.5642645735120357,
                -0.28624812947771905,
                2.7044746679454357
            ]
        },
        {
            "positions": [
                0.2533849764144317,
                -0.9185709650904408,
                1.1416143755324522,
                -1.4924641438890873,
                -0.2340658380956224,
                2.7749016244198557
            ]
        },
        {
            "positions": [
                0.21646646603492764,
                -0.9424354560010686,
                1.2693121318697478,
                -1.420663714266139,
                -0.18188354671352572,
                2.845328580894275
            ]
        },
        {
            "positions": [
                0.17954795565542359,
                -0.9662999469116963,
                1.3970098882070432,
                -1.3488632846431905,
                -0.12970125533142907,
                2.915755537368695
            ]
        },
        {
            "positions": [
                0.14262944527591953,
                -0.9901644378223241,
                1.524707644544339,
                -1.277062855020242,
                -0.07751896394933239,
                2.9861824938431147
            ]
        },
        {
            "positions": [
                0.10571093489641548,
                -1.0140289287329518,
                1.6524054008816345,
                -1.2052624253972937,
                -0.025336672567235707,
                3.0566094503175343
            ]
        },
        {
            "positions": [
                0.06879242451691142,
                -1.0378934196435796,
                1.78010315721893,
                -1.1334619957743453,
                0.026845618814860972,
                3.1270364067919543
            ]
        },
        {
            "positions": [
                0.09562476497660986,
                -1.0912956194316252,
                1.882137766480672,
                -0.9895790145626829,
                0.0730930127340429,
                3.135843895711588
            ]
        },
        {
            "positions": [
                0.1224571054363083,
                -1.1446978192196708,
                1.9841723757424137,
                -0.8456960333510206,
                0.11934040665322483,
                3.144651384631221
            ]
        }
    ]
}{
    "goal": {
        "global_pose": {
            "orientation": {
                "w": 0.7047431468963623,
                "x": -0.7094548344612122,
                "y": 0.0024358443915843964,
                "z": -0.0022348060738295317
            },
            "position": {
                "x": 0.6094750761985779,
                "y": 0.3671506643295288,
                "z": 0.19426114857196808
            }
        },
        "name": "move_to_magneteinheit_A"
    },
    "id": "PRMstar_move_to_magneteinheit_A_24",
    "joint_names": [
        "shoulder_pan_joint",
        "shoulder_lift_joint",
        "elbow_joint",
        "wrist_1_joint",
        "wrist_2_joint",
        "wrist_3_joint"
    ],
    "metrics": {
        "cart_traj_len": 1.1173985536453805,
        "distance_elbow_joint": 0.05086603139163093,
        "distance_shoulder_lift_joint": 0.9844487944157618,
        "distance_shoulder_pan_joint": 1.242350070610392,
        "distance_wrist_1_joint": 0.9105743468359918,
        "distance_wrist_2_joint": 1.5701619380402194,
        "distance_wrist_3_joint": 4.373777885205508,
        "smoothness": 0.053814288735482795,
        "time": 5.047574796999999,
        "traj_len": 3.0219495473120497,
        "weighted_distance": 4.5122578740345425
    },
    "planner": "PRMstar",
    "start": {
        "state": {
            "elbow_joint": 1.919643534880228,
            "shoulder_lift_joint": -1.8972525353963687,
            "shoulder_pan_joint": -1.1188672234189438,
            "wrist_1_joint": -1.5931878212786155,
            "wrist_2_joint": 1.5706036197970081,
            "wrist_3_joint": 1.118896926603594
        }
    },
    "waypoints": [
        {
            "positions": [
                -1.1188672234189438,
                -1.8972525353963687,
                1.919643534880228,
                -1.5931878212786155,
                1.5706036197970081,
                1.118896926603594
            ]
        },
        {
            "positions": [
                -1.1127934874447252,
                -1.9050090612733723,
                1.9190614051898343,
                -1.5289497505874583,
                1.463071204882658,
                0.9311456273451688
            ]
        },
        {
            "positions": [
                -1.1067197514705065,
                -1.912765587150376,
                1.9184792754994404,
                -1.4647116798963011,
                1.3555387899683078,
                0.7433943280867435
            ]
        },
        {
            "positions": [
                -1.1006460154962878,
                -1.9205221130273797,
                1.9178971458090468,
                -1.400473609205144,
                1.2480063750539576,
                0.5556430288283184
            ]
        },
        {
            "positions": [
                -1.0945722795220691,
                -1.9282786389043833,
                1.917315016118653,
                -1.336235538513987,
                1.1404739601396074,
                0.36789172956989313
            ]
        },
        {
            "positions": [
                -1.0884985435478505,
                -1.936035164781387,
                1.9167328864282591,
                -1.2719974678228296,
                1.0329415452252573,
                0.18014043031146787
            ]
        },
        {
            "positions": [
                -1.0824248075736318,
                -1.9437916906583905,
                1.9161507567378653,
                -1.2077593971316727,
                0.9254091303109071,
                -0.007610868946957172
            ]
        },
        {
            "positions": [
                -1.0763510715994133,
                -1.9515482165353943,
                1.9155686270474717,
                -1.1435213264405155,
                0.8178767153965569,
                -0.19536216820538255
            ]
        },
        {
            "positions": [
                -1.0702773356251947,
                -1.959304742412398,
                1.9149864973570778,
                -1.0792832557493584,
                0.7103443004822068,
                -0.3831134674638077
            ]
        },
        {
            "positions": [
                -1.064203599650976,
                -1.9670612682894015,
                1.914404367666684,
                -1.0150451850582012,
                0.6028118855678565,
                -0.5708647667222331
            ]
        },
        {
            "positions": [
                -1.0581298636767573,
                -1.9748177941664051,
                1.9138222379762901,
                -0.950807114367044,
                0.4952794706535064,
                -0.7586160659806582
            ]
        },
        {
            "positions": [
                -1.0520561277025386,
                -1.9825743200434087,
                1.9132401082858963,
                -0.8865690436758868,
                0.38774705573915624,
                -0.9463673652390832
            ]
        },
        {
            "positions": [
                -1.04598239172832,
                -1.9903308459204125,
                1.9126579785955027,
                -0.8223309729847298,
                0.28021464082480607,
                -1.1341186644975083
            ]
        },
        {
            "positions": [
                -1.0399086557541013,
                -1.9980873717974161,
                1.9120758489051088,
                -0.7580929022935726,
                0.1726822259104559,
                -1.321869963755934
            ]
        },
        {
            "positions": [
                -1.0338349197798826,
                -2.0058438976744197,
                1.911493719214715,
                -0.6938548316024155,
                0.06514981099610581,
                -1.5096212630143588
            ]
        },
        {
            "positions": [
                -0.9181031430827495,
                -1.9182581544606487,
                1.9157653407873267,
                -0.6949789673183946,
                0.07162062392003753,
                -1.6841472325731144
            ]
        },
        {
            "positions": [
                -0.8023713663856165,
                -1.8306724112468775,
                1.9200369623599385,
                -0.6961031030343738,
                0.07809143684396926,
                -1.8586732021318697
            ]
        },
        {
            "positions": [
                -0.6866395896884834,
                -1.7430866680331065,
                1.9243085839325504,
                -0.697227238750353,
                0.08456224976790097,
                -2.033199171690625
            ]
        },
        {
            "positions": [
                -0.5709078129913503,
                -1.6555009248193353,
                1.9285802055051622,
                -0.6983513744663322,
                0.0910330626918327,
                -2.2077251412493806
            ]
        },
        {
            "positions": [
                -0.4551760362942172,
                -1.5679151816055643,
                1.932851827077774,
                -0.6994755101823114,
                0.09750387561576442,
                -2.382251110808136
            ]
        },
        {
            "positions": [
                -0.33944425959708413,
                -1.4803294383917933,
                1.9371234486503857,
                -0.7005996458982905,
                0.10397468853969613,
                -2.556777080366891
            ]
        },
        {
            "positions": [
                -0.22371248289995105,
                -1.392743695178022,
                1.9413950702229974,
                -0.7017237816142697,
                0.11044550146362786,
                -2.7313030499256463
            ]
        },
        {
            "positions": [
                -0.10798070620281797,
                -1.3051579519642509,
                1.9456666917956094,
                -0.7028479173302489,
                0.11691631438755959,
                -2.9058290194844023
            ]
        },
        {
            "positions": [
                0.007751070494315115,
                -1.2175722087504801,
                1.949938313368221,
                -0.7039720530462281,
                0.12338712731149129,
                -3.0803549890431574
            ]
        },
        {
            "positions": [
                0.12348284719144816,
                -1.129986465536709,
                1.9542099349408328,
                -0.7050961887622073,
                0.12985794023542302,
                -3.254880958601913
            ]
        }
    ]
}