{
    "goal": {
        "global_pose": {
            "orientation": {
                "w": 0.5084816217422485,
                "x": -0.49083608388900757,
                "y": 0.5182115435600281,
                "z": -0.4816462993621826
            },
            "position": {
                "x": 0.5540239810943604,
                "y": 0.030875300988554955,
                "z": 0.16403168439865112
            }
        },
        "name": "move_to_storage_A"
    },
    "id": "PRMstar_move_to_storage_A_26",
    "joint_names": [
        "shoulder_pan_joint",
        "shoulder_lift_joint",
        "elbow_joint",
        "wrist_1_joint",
        "wrist_2_joint",
        "wrist_3_joint"
    ],
    "metrics": {
        "cart_traj_len": 0.3535363113281104,
        "distance_elbow_joint": 0.44966028618876397,
        "distance_shoulder_lift_joint": 0.23661021828880635,
        "distance_shoulder_pan_joint": 0.4603956942760408,
        "distance_wrist_1_joint": 0.23606973008564835,
        "distance_wrist_2_joint": 1.109153601578881,
        "distance_wrist_3_joint": 0.0879251117051032,
        "smoothness": 0.0,
        "time": 5.011919823,
        "traj_len": 1.6061801399977662,
        "weighted_distance": 2.025064985919706
    },
    "planner": "PRMstar",
    "start": {
        "state": {
            "elbow_joint": 1.9715477243005601,
            "shoulder_lift_joint": -1.1394853015351272,
            "shoulder_pan_joint": 0.12281154014795169,
            "wrist_1_joint": -0.7804696478968182,
            "wrist_2_joint": 0.12958648046900423,
            "wrist_3_joint": -3.192491284697111
        }
    },
    "waypoints": [
        {
            "positions": [
                0.12281154014795169,
                -1.1394853015351272,
                1.9715477243005601,
                -0.7804696478968182,
                0.12958648046900423,
                -3.192491284697111
            ]
        },
        {
            "positions": [
                0.05704072667994586,
                -1.173286761290671,
                2.035784908041812,
                -0.8141938950519108,
                0.2880369949802729,
                -3.179930554453525
            ]
        },
        {
            "positions": [
                -0.008730086788059963,
                -1.2070882210462146,
                2.1000220917830643,
                -0.8479181422070035,
                0.44648750949154165,
                -3.167369824209939
            ]
        },
        {
            "positions": [
                -0.0745009002560658,
                -1.2408896808017584,
                2.164259275524316,
                -0.881642389362096,
                0.6049380240028104,
                -3.1548090939663527
            ]
        },
        {
            "positions": [
                -0.1402717137240716,
                -1.2746911405573023,
                2.228496459265568,
                -0.9153666365171886,
                0.7633885385140791,
                -3.1422483637227665
            ]
        },
        {
            "positions": [
                -0.20604252719207744,
                -1.308492600312846,
                2.2927336430068204,
                -0.9490908836722813,
                0.9218390530253479,
                -3.1296876334791803
            ]
        },
        {
            "positions": [
                -0.2718133406600833,
                -1.3422940600683897,
                2.3569708267480722,
                -0.9828151308273738,
                1.0802895675366164,
                -3.117126903235594
            ]
        },
        {
            "positions": [
                -0.3375841541280891,
                -1.3760955198239335,
                2.421208010489324,
                -1.0165393779824665,
                1.2387400820478853,
                -3.104566172992008
            ]
        }
    ]
}