{
    "goal": {
        "global_pose": {
            "orientation": {
                "w": 0.5084816217422485,
                "x": -0.49083608388900757,
                "y": 0.5182115435600281,
                "z": -0.4816462993621826
            },
            "position": {
                "x": 0.5540239810943604,
                "y": 0.030875300988554955,
                "z": 0.16403168439865112
            }
        },
        "name": "move_to_storage_A"
    },
    "id": "PRMstar_move_to_storage_A_10",
    "joint_names": [
        "shoulder_pan_joint",
        "shoulder_lift_joint",
        "elbow_joint",
        "wrist_1_joint",
        "wrist_2_joint",
        "wrist_3_joint"
    ],
    "metrics": {
        "cart_traj_len": 0.3525963806420962,
        "distance_elbow_joint": 0.44856029910976636,
        "distance_shoulder_lift_joint": 0.2359267028864951,
        "distance_shoulder_pan_joint": 0.46232464089474495,
        "distance_wrist_1_joint": 0.23722942226870536,
        "distance_wrist_2_joint": 1.09282431799947,
        "distance_wrist_3_joint": 0.09576336051470946,
        "smoothness": 2.2204460668324854e-16,
        "time": 5.005508997,
        "traj_len": 1.6039416272651232,
        "weighted_distance": 2.0234152329592376
    },
    "planner": "PRMstar",
    "start": {
        "state": {
            "elbow_joint": 1.9715477243005601,
            "shoulder_lift_joint": -1.1394853015351272,
            "shoulder_pan_joint": 0.12281154014795169,
            "wrist_1_joint": -0.7804696478968182,
            "wrist_2_joint": 0.12958648046900423,
            "wrist_3_joint": -3.192491284697111
        }
    },
    "waypoints": [
        {
            "positions": [
                0.12281154014795169,
                -1.1394853015351272,
                1.9715477243005601,
                -0.7804696478968182,
                0.12958648046900423,
                -3.192491284697111
            ]
        },
        {
            "positions": [
                0.056765162877273845,
                -1.173189116233198,
                2.035627767030527,
                -0.8143595653637761,
                0.2857042401832143,
                -3.1788108046235815
            ]
        },
        {
            "positions": [
                -0.009281214393404,
                -1.2068929309312686,
                2.0997078097604933,
                -0.848249482830734,
                0.44182199989742427,
                -3.1651303245500513
            ]
        },
        {
            "positions": [
                -0.07532759166408186,
                -1.2405967456293394,
                2.16378785249046,
                -0.8821394002976919,
                0.5979397596116343,
                -3.1514498444765215
            ]
        },
        {
            "positions": [
                -0.14137396893475968,
                -1.27430056032741,
                2.2278678952204265,
                -0.9160293177646498,
                0.7540575193258443,
                -3.1377693644029914
            ]
        },
        {
            "positions": [
                -0.20742034620543753,
                -1.3080043750254808,
                2.2919479379503933,
                -0.9499192352316077,
                0.9101752790400544,
                -3.1240888843294616
            ]
        },
        {
            "positions": [
                -0.2734667234761154,
                -1.3417081897235514,
                2.3560279806803597,
                -0.9838091526985656,
                1.0662930387542642,
                -3.1104084042559315
            ]
        },
        {
            "positions": [
                -0.33951310074679325,
                -1.3754120044216223,
                2.4201080234103265,
                -1.0176990701655235,
                1.2224107984684744,
                -3.0967279241824017
            ]
        }
    ]
}