{
    "goal": {
        "global_pose": {
            "orientation": {
                "w": 0.5084816217422485,
                "x": -0.49083608388900757,
                "y": 0.5182115435600281,
                "z": -0.4816462993621826
            },
            "position": {
                "x": 0.5540239810943604,
                "y": 0.030875300988554955,
                "z": 0.16403168439865112
            }
        },
        "name": "move_to_storage_A"
    },
    "id": "PRMstar_move_to_storage_A_117",
    "joint_names": [
        "shoulder_pan_joint",
        "shoulder_lift_joint",
        "elbow_joint",
        "wrist_1_joint",
        "wrist_2_joint",
        "wrist_3_joint"
    ],
    "metrics": {
        "cart_traj_len": 0.35316204201213613,
        "distance_elbow_joint": 0.44908002464704744,
        "distance_shoulder_lift_joint": 0.23364746983507478,
        "distance_shoulder_pan_joint": 0.46205717319031026,
        "distance_wrist_1_joint": 0.24352664901426058,
        "distance_wrist_2_joint": 1.097106468908224,
        "distance_wrist_3_joint": 0.08861609296049178,
        "smoothness": 1.3322676311638882e-15,
        "time": 5.011257098,
        "traj_len": 1.6043795930375733,
        "weighted_distance": 2.0228443297492955
    },
    "planner": "PRMstar",
    "start": {
        "state": {
            "elbow_joint": 1.9715477243005601,
            "shoulder_lift_joint": -1.1394853015351272,
            "shoulder_pan_joint": 0.12281154014795169,
            "wrist_1_joint": -0.7804696478968182,
            "wrist_2_joint": 0.12958648046900423,
            "wrist_3_joint": -3.192491284697111
        }
    },
    "waypoints": [
        {
            "positions": [
                0.12281154014795169,
                -1.1394853015351272,
                1.9715477243005601,
                -0.7804696478968182,
                0.12958648046900423,
                -3.192491284697111
            ]
        },
        {
            "positions": [
                0.05680337254933594,
                -1.1728635115115664,
                2.0357020135358526,
                -0.8152591691845696,
                0.28631597602732195,
                -3.1798318428456125
            ]
        },
        {
            "positions": [
                -0.009204795049279804,
                -1.2062417214880057,
                2.099856302771145,
                -0.8500486904723212,
                0.4430454715856396,
                -3.1671724009941133
            ]
        },
        {
            "positions": [
                -0.07521296264789555,
                -1.239619931464445,
                2.1640105920064374,
                -0.8848382117600727,
                0.5997749671439574,
                -3.1545129591426146
            ]
        },
        {
            "positions": [
                -0.14122113024651128,
                -1.2729981414408842,
                2.22816488124173,
                -0.9196277330478242,
                0.756504462702275,
                -3.141853517291116
            ]
        },
        {
            "positions": [
                -0.20722929784512706,
                -1.3063763514173234,
                2.2923191704770227,
                -0.9544172543355758,
                0.9132339582605927,
                -3.1291940754396173
            ]
        },
        {
            "positions": [
                -0.2732374654437428,
                -1.3397545613937627,
                2.356473459712315,
                -0.9892067756233272,
                1.0699634538189104,
                -3.116534633588118
            ]
        },
        {
            "positions": [
                -0.33924563304235855,
                -1.373132771370202,
                2.4206277489476076,
                -1.0239962969110787,
                1.2266929493772283,
                -3.1038751917366194
            ]
        }
    ]
}