{
    "goal": {
        "global_pose": {
            "orientation": {
                "w": 0.7047431468963623,
                "x": -0.7094548344612122,
                "y": 0.0024358443915843964,
                "z": -0.0022348060738295317
            },
            "position": {
                "x": 0.6094750761985779,
                "y": 0.3671506643295288,
                "z": 0.19426114857196808
            }
        },
        "name": "move_to_magneteinheit_A"
    },
    "id": "PRMstar_move_to_magneteinheit_A_54",
    "joint_names": [
        "shoulder_pan_joint",
        "shoulder_lift_joint",
        "elbow_joint",
        "wrist_1_joint",
        "wrist_2_joint",
        "wrist_3_joint"
    ],
    "metrics": {
        "cart_traj_len": 3.417196793480424,
        "distance_elbow_joint": 3.9379257146403917,
        "distance_shoulder_lift_joint": 1.2141236606318477,
        "distance_shoulder_pan_joint": 2.579030918098027,
        "distance_wrist_1_joint": 3.5630546178352414,
        "distance_wrist_2_joint": 1.4989268632284198,
        "distance_wrist_3_joint": 0.5401305287188238,
        "smoothness": 0.05426294623081734,
        "time": 5.048572118,
        "traj_len": 3.6514644052972427,
        "weighted_distance": 4.413098100162069
    },
    "planner": "PRMstar",
    "start": {
        "state": {
            "elbow_joint": -1.919618573717145,
            "shoulder_lift_joint": -1.2443395971678275,
            "shoulder_pan_joint": 2.6996025300909787,
            "wrist_1_joint": -1.548550951253194,
            "wrist_2_joint": -1.5709469090946802,
            "wrist_3_joint": 0.4420197732051276
        }
    },
    "waypoints": [
        {
            "positions": [
                2.6996025300909787,
                -1.2443395971678275,
                -1.919618573717145,
                -1.548550951253194,
                -1.5709469090946802,
                0.4420197732051276
            ]
        },
        {
            "positions": [
                2.585579616001724,
                -1.2025717221626278,
                -1.8478779680511135,
                -1.4744205756930182,
                -1.4983891234406206,
                0.43971605135405545
            ]
        },
        {
            "positions": [
                2.471556701912469,
                -1.160803847157428,
                -1.7761373623850822,
                -1.4002902001328423,
                -1.425831337786561,
                0.4374123295029833
            ]
        },
        {
            "positions": [
                2.3575337878232143,
                -1.1190359721522283,
                -1.7043967567190508,
                -1.3261598245726667,
                -1.3532735521325017,
                0.43510860765191117
            ]
        },
        {
            "positions": [
                2.2435108737339595,
                -1.0772680971470285,
                -1.6326561510530193,
                -1.2520294490124908,
                -1.280715766478442,
                0.4328048858008391
            ]
        },
        {
            "positions": [
                2.1294879596447043,
                -1.0355002221418288,
                -1.560915545386988,
                -1.177899073452315,
                -1.2081579808243825,
                0.43050116394976695
            ]
        },
        {
            "positions": [
                2.01546504555545,
                -0.9937323471366293,
                -1.4891749397209568,
                -1.103768697892139,
                -1.135600195170323,
                0.4281974420986948
            ]
        },
        {
            "positions": [
                1.901442131466195,
                -0.9519644721314295,
                -1.4174343340549254,
                -1.0296383223319632,
                -1.0630424095162634,
                0.4258937202476227
            ]
        },
        {
            "positions": [
                1.7874192173769399,
                -0.9101965971262298,
                -1.345693728388894,
                -0.9555079467717874,
                -0.9904846238622039,
                0.42358999839655054
            ]
        },
        {
            "positions": [
                1.673396303287685,
                -0.8684287221210301,
                -1.2739531227228627,
                -0.8813775712116115,
                -0.9179268382081444,
                0.4212862765454784
            ]
        },
        {
            "positions": [
                1.5593733891984303,
                -0.8266608471158303,
                -1.2022125170568312,
                -0.8072471956514358,
                -0.8453690525540849,
                0.41898255469440626
            ]
        },
        {
            "positions": [
                1.4453504751091752,
                -0.7848929721106306,
                -1.1304719113907997,
                -0.7331168200912599,
                -0.7728112669000253,
                0.4166788328433342
            ]
        },
        {
            "positions": [
                1.3313275610199207,
                -0.743125097105431,
                -1.0587313057247685,
                -0.6589864445310841,
                -0.7002534812459659,
                0.41437511099226204
            ]
        },
        {
            "positions": [
                1.2173046469306656,
                -0.7013572221002311,
                -0.986990700058737,
                -0.5848560689709082,
                -0.6276956955919063,
                0.4120713891411899
            ]
        },
        {
            "positions": [
                1.103281732841411,
                -0.6595893470950315,
                -0.9152500943927058,
                -0.5107256934107325,
                -0.5551379099378468,
                0.40976766729011777
            ]
        },
        {
            "positions": [
                0.989258818752156,
                -0.6178214720898317,
                -0.8435094887266743,
                -0.4365953178505566,
                -0.48258012428378727,
                0.4074639454390456
            ]
        },
        {
            "positions": [
                0.875235904662901,
                -0.576053597084632,
                -0.7717688830606428,
                -0.36246494229038073,
                -0.4100223386297277,
                0.4051602235879735
            ]
        },
        {
            "positions": [
                0.7612129905736464,
                -0.5342857220794324,
                -0.7000282773946116,
                -0.2883345667302051,
                -0.33746455297566835,
                0.4028565017369014
            ]
        },
        {
            "positions": [
                0.6471900764843914,
                -0.4925178470742325,
                -0.6282876717285801,
                -0.21420419117002898,
                -0.26490676732160856,
                0.40055277988582927
            ]
        },
        {
            "positions": [
                0.5331671623951366,
                -0.4507499720690329,
                -0.5565470660625489,
                -0.14007381560985332,
                -0.1923489816675492,
                0.39824905803475713
            ]
        },
        {
            "positions": [
                0.4191442483058816,
                -0.4089820970638331,
                -0.4848064603965173,
                -0.06594344004967734,
                -0.11979119601348953,
                0.395945336183685
            ]
        },
        {
            "positions": [
                0.39383287342102147,
                -0.43013508023487784,
                -0.3225571728582158,
                0.0724866309475824,
                -0.11796071204774802,
                0.36556949876507894
            ]
        },
        {
            "positions": [
                0.3685214985361613,
                -0.45128806340592253,
                -0.16030788531991425,
                0.21091670194484213,
                -0.11613022808200653,
                0.3351936613464729
            ]
        },
        {
            "positions": [
                0.34321012365130116,
                -0.4724410465769673,
                0.0019414022183872892,
                0.3493467729421018,
                -0.11429974411626502,
                0.3048178239278668
            ]
        },
        {
            "positions": [
                0.317898748766441,
                -0.493594029748012,
                0.16419068975668882,
                0.4877768439393616,
                -0.11246926015052351,
                0.2744419865092607
            ]
        },
        {
            "positions": [
                0.29258737388158085,
                -0.5147470129190567,
                0.3264399772949903,
                0.6262069149366213,
                -0.11063877618478202,
                0.24406614909065466
            ]
        },
        {
            "positions": [
                0.2672759989967207,
                -0.5358999960901014,
                0.4886892648332919,
                0.764636985933881,
                -0.10880829221904051,
                0.2136903116720486
            ]
        },
        {
            "positions": [
                0.24196462411186054,
                -0.5570529792611462,
                0.6509385523715935,
                0.9030670569311406,
                -0.106977808253299,
                0.18331447425344255
            ]
        },
        {
            "positions": [
                0.21665324922700038,
                -0.5782059624321909,
                0.813187839909895,
                1.0414971279284004,
                -0.1051473242875575,
                0.15293863683483647
            ]
        },
        {
            "positions": [
                0.1913418743421402,
                -0.5993589456032355,
                0.9754371274481967,
                1.1799271989256601,
                -0.103316840321816,
                0.12256279941623038
            ]
        },
        {
            "positions": [
                0.1660304994572801,
                -0.6205119287742803,
                1.137686414986498,
                1.3183572699229198,
                -0.1014863563560745,
                0.09218696199762433
            ]
        },
        {
            "positions": [
                0.14071912457241992,
                -0.641664911945325,
                1.2999357025247997,
                1.4567873409201795,
                -0.099655872390333,
                0.06181112457901825
            ]
        },
        {
            "positions": [
                0.1310109928541749,
                -0.6647952252927093,
                1.4305268968672584,
                1.5623029234705874,
                -0.10246962341047117,
                0.034579744933141726
            ]
        },
        {
            "positions": [
                0.12130286113592986,
                -0.6879255386400935,
                1.5611180912097171,
                1.6678185060209951,
                -0.10528337443060934,
                0.007348365287265193
            ]
        },
        {
            "positions": [
                0.12154661085025532,
                -0.7211997782906245,
                1.713514441114227,
                1.7833802262080127,
                -0.1126194825918748,
                -0.027804674979722013
            ]
        },
        {
            "positions": [
                0.12179036056458079,
                -0.7544740179411554,
                1.8659107910187367,
                1.8989419463950306,
                -0.11995559075314029,
                -0.06295771524670922
            ]
        },
        {
            "positions": [
                0.12203411027890625,
                -0.7877482575916864,
                2.0183071409232465,
                2.014503666582048,
                -0.12729169891440575,
                -0.09811075551369643
            ]
        }
    ]
}{
    "goal": {
        "global_pose": {
            "orientation": {
                "w": 0.7047431468963623,
                "x": -0.7094548344612122,
                "y": 0.0024358443915843964,
                "z": -0.0022348060738295317
            },
            "position": {
                "x": 0.6094750761985779,
                "y": 0.3671506643295288,
                "z": 0.19426114857196808
            }
        },
        "name": "move_to_magneteinheit_A"
    },
    "id": "PRMstar_move_to_magneteinheit_A_54",
    "joint_names": [
        "shoulder_pan_joint",
        "shoulder_lift_joint",
        "elbow_joint",
        "wrist_1_joint",
        "wrist_2_joint",
        "wrist_3_joint"
    ],
    "metrics": {
        "cart_traj_len": 1.468830826654162,
        "distance_elbow_joint": 0.27054401613417056,
        "distance_shoulder_lift_joint": 0.7501997622290388,
        "distance_shoulder_pan_joint": 1.2419613611223974,
        "distance_wrist_1_joint": 1.57340774474891,
        "distance_wrist_2_joint": 1.4423664359723447,
        "distance_wrist_3_joint": 4.247592513708575,
        "smoothness": 0.23189873192963692,
        "time": 5.04101174,
        "traj_len": 3.086433513606836,
        "weighted_distance": 4.586614333258667
    },
    "planner": "PRMstar",
    "start": {
        "state": {
            "elbow_joint": 1.919643534880228,
            "shoulder_lift_joint": -1.8972525353963687,
            "shoulder_pan_joint": -1.1188672234189438,
            "wrist_1_joint": -1.5931878212786155,
            "wrist_2_joint": 1.5706036197970081,
            "wrist_3_joint": 1.118896926603594
        }
    },
    "waypoints": [
        {
            "positions": [
                -1.1188672234189438,
                -1.8972525353963687,
                1.919643534880228,
                -1.5931878212786155,
                1.5706036197970081,
                1.118896926603594
            ]
        },
        {
            "positions": [
                -1.1082988984603124,
                -1.8272794754223753,
                1.9051597219678287,
                -1.652921826465821,
                1.5074227778204394,
                0.9633645683283975
            ]
        },
        {
            "positions": [
                -1.097730573501681,
                -1.7573064154483817,
                1.8906759090554293,
                -1.7126558316530265,
                1.444241935843871,
                0.8078322100532009
            ]
        },
        {
            "positions": [
                -1.0871622485430494,
                -1.6873333554743883,
                1.8761920961430298,
                -1.772389836840232,
                1.3810610938673022,
                0.6522998517780045
            ]
        },
        {
            "positions": [
                -1.0765939235844177,
                -1.6173602955003947,
                1.8617082832306302,
                -1.8321238420274377,
                1.3178802518907335,
                0.496767493502808
            ]
        },
        {
            "positions": [
                -1.0660255986257863,
                -1.5473872355264013,
                1.8472244703182308,
                -1.8918578472146432,
                1.2546994099141648,
                0.3412351352276115
            ]
        },
        {
            "positions": [
                -1.0554572736671548,
                -1.4774141755524077,
                1.8327406574058314,
                -1.9515918524018487,
                1.1915185679375964,
                0.185702776952415
            ]
        },
        {
            "positions": [
                -1.0448889487085233,
                -1.4074411155784143,
                1.818256844493432,
                -2.0113258575890542,
                1.1283377259610277,
                0.03017041867721837
            ]
        },
        {
            "positions": [
                -0.9800009994634136,
                -1.3929750965555763,
                1.8276544737016194,
                -1.9471442071202503,
                1.0727765847312296,
                -0.14532213719957054
            ]
        },
        {
            "positions": [
                -0.9151130502183037,
                -1.3785090775327382,
                1.8370521029098068,
                -1.8829625566514463,
                1.0172154435014318,
                -0.32081469307635946
            ]
        },
        {
            "positions": [
                -0.8502251009731938,
                -1.3640430585099002,
                1.8464497321179945,
                -1.8187809061826423,
                0.9616543022716337,
                -0.49630724895314837
            ]
        },
        {
            "positions": [
                -0.785337151728084,
                -1.3495770394870623,
                1.8558473613261819,
                -1.7545992557138383,
                0.9060931610418358,
                -0.6717998048299373
            ]
        },
        {
            "positions": [
                -0.7204492024829742,
                -1.3351110204642243,
                1.8652449905343693,
                -1.6904176052450346,
                0.8505320198120377,
                -0.8472923607067263
            ]
        },
        {
            "positions": [
                -0.6555612532378644,
                -1.3206450014413862,
                1.8746426197425567,
                -1.6262359547762306,
                0.7949708785822398,
                -1.022784916583515
            ]
        },
        {
            "positions": [
                -0.5906733039927545,
                -1.3061789824185481,
                1.8840402489507442,
                -1.5620543043074266,
                0.7394097373524418,
                -1.1982774724603042
            ]
        },
        {
            "positions": [
                -0.5257853547476448,
                -1.29171296339571,
                1.8934378781589316,
                -1.4978726538386227,
                0.6838485961226439,
                -1.373770028337093
            ]
        },
        {
            "positions": [
                -0.4608974055025349,
                -1.2772469443728722,
                1.902835507367119,
                -1.4336910033698187,
                0.6282874548928459,
                -1.5492625842138819
            ]
        },
        {
            "positions": [
                -0.396009456257425,
                -1.2627809253500342,
                1.9122331365753067,
                -1.3695093529010147,
                0.5727263136630478,
                -1.724755140090671
            ]
        },
        {
            "positions": [
                -0.33112150701231513,
                -1.248314906327196,
                1.9216307657834941,
                -1.3053277024322107,
                0.5171651724332499,
                -1.90024769596746
            ]
        },
        {
            "positions": [
                -0.2662335577672055,
                -1.233848887304358,
                1.9310283949916816,
                -1.241146051963407,
                0.46160403120345195,
                -2.0757402518442487
            ]
        },
        {
            "positions": [
                -0.2013456085220956,
                -1.21938286828152,
                1.940426024199869,
                -1.1769644014946028,
                0.406042889973654,
                -2.251232807721038
            ]
        },
        {
            "positions": [
                -0.13645765927698572,
                -1.204916849258682,
                1.9498236534080564,
                -1.112782751025799,
                0.35048174874385596,
                -2.4267253635978268
            ]
        },
        {
            "positions": [
                -0.07156971003187584,
                -1.1904508302358439,
                1.959221282616244,
                -1.0486011005569948,
                0.294920607514058,
                -2.6022179194746156
            ]
        },
        {
            "positions": [
                -0.006681760786766189,
                -1.175984811213006,
                1.9686189118244315,
                -0.9844194500881911,
                0.23935946628426008,
                -2.7777104753514044
            ]
        },
        {
            "positions": [
                0.0582061884583438,
                -1.161518792190168,
                1.978016541032619,
                -0.9202377996193871,
                0.18379832505446214,
                -2.9532030312281936
            ]
        },
        {
            "positions": [
                0.12309413770345352,
                -1.14705277316733,
                1.9874141702408064,
                -0.856056149150583,
                0.12823718382466404,
                -3.1286955871049824
            ]
        }
    ]
}