{
    "goal": {
        "global_pose": {
            "orientation": {
                "w": 0.7047431468963623,
                "x": -0.7094548344612122,
                "y": 0.0024358443915843964,
                "z": -0.0022348060738295317
            },
            "position": {
                "x": 0.6094750761985779,
                "y": 0.3671506643295288,
                "z": 0.19426114857196808
            }
        },
        "name": "move_to_magneteinheit_A"
    },
    "id": "PRMstar_move_to_magneteinheit_A_23",
    "joint_names": [
        "shoulder_pan_joint",
        "shoulder_lift_joint",
        "elbow_joint",
        "wrist_1_joint",
        "wrist_2_joint",
        "wrist_3_joint"
    ],
    "metrics": {
        "cart_traj_len": 3.25933438503441,
        "distance_elbow_joint": 3.8828950311418033,
        "distance_shoulder_lift_joint": 0.8720598818141656,
        "distance_shoulder_pan_joint": 2.9087701584680032,
        "distance_wrist_1_joint": 2.7309440395555953,
        "distance_wrist_2_joint": 1.704508073823684,
        "distance_wrist_3_joint": 3.750893189766851,
        "smoothness": 0.3451556122617694,
        "time": 5.038804264,
        "traj_len": 3.9812146858176476,
        "weighted_distance": 5.2713668879601885
    },
    "planner": "PRMstar",
    "start": {
        "state": {
            "elbow_joint": -1.919618573717145,
            "shoulder_lift_joint": -1.2443395971678275,
            "shoulder_pan_joint": 2.6996025300909787,
            "wrist_1_joint": -1.548550951253194,
            "wrist_2_joint": -1.5709469090946802,
            "wrist_3_joint": 0.4420197732051276
        }
    },
    "waypoints": [
        {
            "positions": [
                2.6996025300909787,
                -1.2443395971678275,
                -1.919618573717145,
                -1.548550951253194,
                -1.5709469090946802,
                0.4420197732051276
            ]
        },
        {
            "positions": [
                2.6119357009900717,
                -1.2280597526766843,
                -1.879894728981241,
                -1.4829089231818158,
                -1.5230423869413974,
                0.30714554978396996
            ]
        },
        {
            "positions": [
                2.524268871889165,
                -1.2117799081855414,
                -1.8401708842453373,
                -1.4172668951104377,
                -1.4751378647881146,
                0.17227132636281234
            ]
        },
        {
            "positions": [
                2.436602042788258,
                -1.1955000636943982,
                -1.8004470395094332,
                -1.3516248670390594,
                -1.4272333426348318,
                0.037397102941654714
            ]
        },
        {
            "positions": [
                2.3489352136873514,
                -1.179220219203255,
                -1.7607231947735293,
                -1.2859828389676813,
                -1.3793288204815493,
                -0.09747712047950291
            ]
        },
        {
            "positions": [
                2.2612683845864443,
                -1.162940374712112,
                -1.7209993500376255,
                -1.220340810896303,
                -1.3314242983282665,
                -0.23235134390066053
            ]
        },
        {
            "positions": [
                2.1736015554855372,
                -1.146660530220969,
                -1.6812755053017217,
                -1.1546987828249247,
                -1.2835197761749837,
                -0.36722556732181816
            ]
        },
        {
            "positions": [
                2.0859347263846306,
                -1.1303806857298258,
                -1.6415516605658178,
                -1.0890567547535466,
                -1.235615254021701,
                -0.5020997907429758
            ]
        },
        {
            "positions": [
                1.9982678972837236,
                -1.1141008412386828,
                -1.601827815829914,
                -1.0234147266821685,
                -1.1877107318684181,
                -0.6369740141641334
            ]
        },
        {
            "positions": [
                1.910601068182817,
                -1.0978209967475396,
                -1.5621039710940101,
                -0.9577726986107902,
                -1.1398062097151356,
                -0.7718482375852909
            ]
        },
        {
            "positions": [
                1.8229342390819099,
                -1.0815411522563965,
                -1.522380126358106,
                -0.8921306705394119,
                -1.0919016875618528,
                -0.9067224610064486
            ]
        },
        {
            "positions": [
                1.735267409981003,
                -1.0652613077652533,
                -1.4826562816222022,
                -0.8264886424680337,
                -1.04399716540857,
                -1.0415966844276061
            ]
        },
        {
            "positions": [
                1.6476005808800962,
                -1.0489814632741103,
                -1.4429324368862984,
                -0.7608466143966555,
                -0.9960926432552872,
                -1.1764709078487638
            ]
        },
        {
            "positions": [
                1.5599337517791894,
                -1.0327016187829672,
                -1.4032085921503943,
                -0.6952045863252773,
                -0.9481881211020045,
                -1.3113451312699214
            ]
        },
        {
            "positions": [
                1.4722669226782825,
                -1.0164217742918242,
                -1.3634847474144904,
                -0.6295625582538991,
                -0.9002835989487217,
                -1.446219354691079
            ]
        },
        {
            "positions": [
                1.3846000935773755,
                -1.000141929800681,
                -1.3237609026785866,
                -0.5639205301825208,
                -0.8523790767954389,
                -1.5810935781122368
            ]
        },
        {
            "positions": [
                1.2969332644764686,
                -0.9838620853095379,
                -1.2840370579426827,
                -0.49827850211114266,
                -0.8044745546421562,
                -1.7159678015333943
            ]
        },
        {
            "positions": [
                1.2092664353755618,
                -0.9675822408183947,
                -1.244313213206779,
                -0.43263647403976435,
                -0.7565700324888734,
                -1.8508420249545523
            ]
        },
        {
            "positions": [
                1.121599606274655,
                -0.9513023963272518,
                -1.204589368470875,
                -0.36699444596838626,
                -0.7086655103355908,
                -1.9857162483757094
            ]
        },
        {
            "positions": [
                1.0339327771737479,
                -0.9350225518361086,
                -1.1648655237349712,
                -0.30135241789700795,
                -0.6607609881823079,
                -2.1205904717968673
            ]
        },
        {
            "positions": [
                0.9462659480728413,
                -0.9187427073449655,
                -1.1251416789990674,
                -0.23571038982562964,
                -0.6128564660290252,
                -2.255464695218025
            ]
        },
        {
            "positions": [
                0.8585991189719342,
                -0.9024628628538224,
                -1.0854178342631633,
                -0.17006836175425133,
                -0.5649519438757424,
                -2.390338918639183
            ]
        },
        {
            "positions": [
                0.7709322898710274,
                -0.8861830183626793,
                -1.0456939895272594,
                -0.10442633368287324,
                -0.5170474217224599,
                -2.52521314206034
            ]
        },
        {
            "positions": [
                0.6832654607701203,
                -0.8699031738715362,
                -1.0059701447913554,
                -0.03878430561149493,
                -0.4691428995691769,
                -2.660087365481498
            ]
        },
        {
            "positions": [
                0.5955986316692137,
                -0.8536233293803932,
                -0.9662463000554518,
                0.02685772245988316,
                -0.4212383774158943,
                -2.7949615889026553
            ]
        },
        {
            "positions": [
                0.5079318025683066,
                -0.83734348488925,
                -0.9265224553195478,
                0.09249975053126147,
                -0.37333385526261154,
                -2.9298358123238133
            ]
        },
        {
            "positions": [
                0.4202649734674,
                -0.8210636403981069,
                -0.8867986105836438,
                0.15814177860263956,
                -0.32542933310932876,
                -3.0647100357449704
            ]
        },
        {
            "positions": [
                0.3325981443664928,
                -0.8047837959069638,
                -0.84707476584774,
                0.2237838066740179,
                -0.2775248109560461,
                -3.1995842591661283
            ]
        },
        {
            "positions": [
                0.3036689008925501,
                -0.8340859488832213,
                -0.6326935833170984,
                0.1507011970964356,
                -0.2518466562321189,
                -3.1966864644323962
            ]
        },
        {
            "positions": [
                0.27473965741860745,
                -0.8633881018594788,
                -0.4183124007864568,
                0.07761858751885331,
                -0.22616850150819162,
                -3.193788669698664
            ]
        },
        {
            "positions": [
                0.24581041394466474,
                -0.8926902548357363,
                -0.20393121825581528,
                0.00453597794127103,
                -0.2004903467842644,
                -3.190890874964932
            ]
        },
        {
            "positions": [
                0.21688117047072208,
                -0.9219924078119937,
                0.010449964274826362,
                -0.06854663163631128,
                -0.17481219206033716,
                -3.1879930802311995
            ]
        },
        {
            "positions": [
                0.18795192699677937,
                -0.9512945607882511,
                0.224831146805468,
                -0.14162924121389356,
                -0.14913403733640992,
                -3.1850952854974675
            ]
        },
        {
            "positions": [
                0.1590226835228367,
                -0.9805967137645086,
                0.43921232933610943,
                -0.21471185079147584,
                -0.12345588261248269,
                -3.1821974907637354
            ]
        },
        {
            "positions": [
                0.13009344004889403,
                -1.009898866740766,
                0.6535935118667511,
                -0.2877944603690581,
                -0.09777772788855549,
                -3.1792996960300033
            ]
        },
        {
            "positions": [
                0.10116419657495132,
                -1.0392010197170236,
                0.8679746943973927,
                -0.3608770699466405,
                -0.07209957316462823,
                -3.176401901296271
            ]
        },
        {
            "positions": [
                0.07223495310100864,
                -1.068503172693281,
                1.0823558769280341,
                -0.43395967952422276,
                -0.04642141844070102,
                -3.173504106562539
            ]
        },
        {
            "positions": [
                0.043305709627065925,
                -1.0978053256695386,
                1.296737059458676,
                -0.507042289101805,
                -0.020743263716773763,
                -3.1706063118288066
            ]
        },
        {
            "positions": [
                0.014376466153123268,
                -1.127107478645796,
                1.5111182419893172,
                -0.5801248986793873,
                0.004934891007153441,
                -3.1677085170950745
            ]
        },
        {
            "positions": [
                -0.014552777320819443,
                -1.1564096316220536,
                1.7254994245199589,
                -0.6532075082569696,
                0.0306130457310807,
                -3.1648107223613424
            ]
        },
        {
            "positions": [
                -0.04348202079476208,
                -1.185711784598311,
                1.9398806070506005,
                -0.7262901178345519,
                0.05629120045500789,
                -3.1619129276276103
            ]
        },
        {
            "positions": [
                0.03936078299637028,
                -1.1599237386673336,
                1.9515785322376296,
                -0.7305577963944583,
                0.09492618259200539,
                -3.1977218405561487
            ]
        },
        {
            "positions": [
                0.12220358678750265,
                -1.1341356927363562,
                1.9632764574246584,
                -0.7348254749543647,
                0.1335611647290029,
                -3.2335307534846875
            ]
        }
    ]
}{
    "goal": {
        "global_pose": {
            "orientation": {
                "w": 0.7047431468963623,
                "x": -0.7094548344612122,
                "y": 0.0024358443915843964,
                "z": -0.0022348060738295317
            },
            "position": {
                "x": 0.6094750761985779,
                "y": 0.3671506643295288,
                "z": 0.19426114857196808
            }
        },
        "name": "move_to_magneteinheit_A"
    },
    "id": "PRMstar_move_to_magneteinheit_A_23",
    "joint_names": [
        "shoulder_pan_joint",
        "shoulder_lift_joint",
        "elbow_joint",
        "wrist_1_joint",
        "wrist_2_joint",
        "wrist_3_joint"
    ],
    "metrics": {
        "cart_traj_len": 1.1995643583610438,
        "distance_elbow_joint": 0.13907533079977918,
        "distance_shoulder_lift_joint": 0.7496801266710198,
        "distance_shoulder_pan_joint": 1.2407212203085027,
        "distance_wrist_1_joint": 0.8679882853827718,
        "distance_wrist_2_joint": 1.4328590101218166,
        "distance_wrist_3_joint": 4.267264622317743,
        "smoothness": 0.07745002456692827,
        "time": 5.025114157,
        "traj_len": 2.9491674410927624,
        "weighted_distance": 4.419611423614265
    },
    "planner": "PRMstar",
    "start": {
        "state": {
            "elbow_joint": 1.919643534880228,
            "shoulder_lift_joint": -1.8972525353963687,
            "shoulder_pan_joint": -1.1188672234189438,
            "wrist_1_joint": -1.5931878212786155,
            "wrist_2_joint": 1.5706036197970081,
            "wrist_3_joint": 1.118896926603594
        }
    },
    "waypoints": [
        {
            "positions": [
                -1.1188672234189438,
                -1.8972525353963687,
                1.919643534880228,
                -1.5931878212786155,
                1.5706036197970081,
                1.118896926603594
            ]
        },
        {
            "positions": [
                -1.1064408675792403,
                -1.8844863802500422,
                1.9537831391578797,
                -1.6109720738927236,
                1.5324403658338472,
                0.9305792638998722
            ]
        },
        {
            "positions": [
                -1.094014511739537,
                -1.871720225103716,
                1.9879227434355315,
                -1.6287563265068319,
                1.4942771118706866,
                0.7422616011961505
            ]
        },
        {
            "positions": [
                -1.0815881558998335,
                -1.8589540699573894,
                2.022062347713183,
                -1.64654057912094,
                1.4561138579075257,
                0.5539439384924287
            ]
        },
        {
            "positions": [
                -1.0214160482603638,
                -1.8233849868957874,
                2.020229521814842,
                -1.6058088027439177,
                1.390195395495909,
                0.3688283567820998
            ]
        },
        {
            "positions": [
                -0.9612439406208942,
                -1.7878159038341854,
                2.018396695916501,
                -1.5650770263668952,
                1.3242769330842923,
                0.18371277507177092
            ]
        },
        {
            "positions": [
                -0.9010718329814247,
                -1.7522468207725834,
                2.0165638700181594,
                -1.5243452499898729,
                1.2583584706726756,
                -0.001402806638557963
            ]
        },
        {
            "positions": [
                -0.840899725341955,
                -1.7166777377109814,
                2.0147310441198183,
                -1.4836134736128506,
                1.192440008261059,
                -0.1865183883488869
            ]
        },
        {
            "positions": [
                -0.7807276177024853,
                -1.6811086546493792,
                2.012898218221477,
                -1.442881697235828,
                1.1265215458494422,
                -0.3716339700592157
            ]
        },
        {
            "positions": [
                -0.7205555100630158,
                -1.6455395715877772,
                2.011065392323136,
                -1.4021499208588057,
                1.0606030834378255,
                -0.5567495517695447
            ]
        },
        {
            "positions": [
                -0.6603834024235462,
                -1.6099704885261752,
                2.0092325664247945,
                -1.3614181444817834,
                0.9946846210262088,
                -0.7418651334798734
            ]
        },
        {
            "positions": [
                -0.6002112947840765,
                -1.5744014054645732,
                2.0073997405264534,
                -1.3206863681047611,
                0.928766158614592,
                -0.9269807151902025
            ]
        },
        {
            "positions": [
                -0.5400391871446069,
                -1.5388323224029712,
                2.0055669146281123,
                -1.2799545917277386,
                0.8628476962029753,
                -1.1120962969005312
            ]
        },
        {
            "positions": [
                -0.4798670795051373,
                -1.5032632393413692,
                2.003734088729771,
                -1.2392228153507163,
                0.7969292337913586,
                -1.2972118786108602
            ]
        },
        {
            "positions": [
                -0.4196949718656676,
                -1.4676941562797672,
                2.00190126283143,
                -1.1984910389736938,
                0.7310107713797418,
                -1.4823274603211891
            ]
        },
        {
            "positions": [
                -0.35952286422619806,
                -1.4321250732181652,
                2.0000684369330886,
                -1.1577592625966715,
                0.6650923089681252,
                -1.667443042031518
            ]
        },
        {
            "positions": [
                -0.2993507565867284,
                -1.3965559901565632,
                1.9982356110347474,
                -1.1170274862196492,
                0.5991738465565084,
                -1.852558623741847
            ]
        },
        {
            "positions": [
                -0.23917864894725882,
                -1.3609869070949612,
                1.9964027851364063,
                -1.076295709842627,
                0.5332553841448918,
                -2.0376742054521753
            ]
        },
        {
            "positions": [
                -0.17900654130778926,
                -1.3254178240333592,
                1.994569959238065,
                -1.0355639334656046,
                0.467336921733275,
                -2.2227897871625046
            ]
        },
        {
            "positions": [
                -0.11883443366831958,
                -1.289848740971757,
                1.992737133339724,
                -0.9948321570885821,
                0.4014184593216583,
                -2.407905368872834
            ]
        },
        {
            "positions": [
                -0.05866232602884991,
                -1.2542796579101552,
                1.9909043074413826,
                -0.9541003807115598,
                0.3354999969100416,
                -2.5930209505831625
            ]
        },
        {
            "positions": [
                0.0015097816106197648,
                -1.218710574848553,
                1.9890714815430415,
                -0.9133686043345374,
                0.2695815344984249,
                -2.778136532293491
            ]
        },
        {
            "positions": [
                0.06168188925008922,
                -1.183141491786951,
                1.9872386556447001,
                -0.8726368279575151,
                0.20366307208680823,
                -2.9632521140038204
            ]
        },
        {
            "positions": [
                0.1218539968895588,
                -1.147572408725349,
                1.985405829746359,
                -0.8319050515804927,
                0.13774460967519156,
                -3.1483676957141493
            ]
        }
    ]
}