{
    "goal": {
        "global_pose": {
            "orientation": {
                "w": 0.7047431468963623,
                "x": -0.7094548344612122,
                "y": 0.0024358443915843964,
                "z": -0.0022348060738295317
            },
            "position": {
                "x": 0.6094750761985779,
                "y": 0.3671506643295288,
                "z": 0.19426114857196808
            }
        },
        "name": "move_to_magneteinheit_A"
    },
    "id": "PRMstar_move_to_magneteinheit_A_68",
    "joint_names": [
        "shoulder_pan_joint",
        "shoulder_lift_joint",
        "elbow_joint",
        "wrist_1_joint",
        "wrist_2_joint",
        "wrist_3_joint"
    ],
    "metrics": {
        "cart_traj_len": 3.652010051686311,
        "distance_elbow_joint": 3.8980646644306387,
        "distance_shoulder_lift_joint": 0.47499354678471173,
        "distance_shoulder_pan_joint": 2.7296205597085987,
        "distance_wrist_1_joint": 0.7425428068479556,
        "distance_wrist_2_joint": 1.695108981432891,
        "distance_wrist_3_joint": 2.6674030743335666,
        "smoothness": 0.08074809121284637,
        "time": 5.039524391,
        "traj_len": 3.493956730347181,
        "weighted_distance": 4.469920756622688
    },
    "planner": "PRMstar",
    "start": {
        "state": {
            "elbow_joint": -1.919618573717145,
            "shoulder_lift_joint": -1.2443395971678275,
            "shoulder_pan_joint": 2.6996025300909787,
            "wrist_1_joint": -1.548550951253194,
            "wrist_2_joint": -1.5709469090946802,
            "wrist_3_joint": 0.4420197732051276
        }
    },
    "waypoints": [
        {
            "positions": [
                2.6996025300909787,
                -1.2443395971678275,
                -1.919618573717145,
                -1.548550951253194,
                -1.5709469090946802,
                0.4420197732051276
            ]
        },
        {
            "positions": [
                2.602556388584291,
                -1.2322839265289862,
                -1.81056777081824,
                -1.5218572954276979,
                -1.5185225956371409,
                0.5285845151364785
            ]
        },
        {
            "positions": [
                2.5055102470776025,
                -1.2202282558901447,
                -1.7015169679193347,
                -1.4951636396022017,
                -1.4660982821796018,
                0.6151492570678295
            ]
        },
        {
            "positions": [
                2.4084641055709146,
                -1.2081725852513034,
                -1.5924661650204297,
                -1.4684699837767055,
                -1.4136739687220625,
                0.7017139989991805
            ]
        },
        {
            "positions": [
                2.3114179640642267,
                -1.1961169146124622,
                -1.4834153621215245,
                -1.4417763279512092,
                -1.3612496552645235,
                0.7882787409305314
            ]
        },
        {
            "positions": [
                2.2143718225575384,
                -1.1840612439736207,
                -1.3743645592226195,
                -1.415082672125713,
                -1.3088253418069842,
                0.8748434828618823
            ]
        },
        {
            "positions": [
                2.1173256810508505,
                -1.1720055733347794,
                -1.2653137563237142,
                -1.3883890163002168,
                -1.2564010283494451,
                0.9614082247932334
            ]
        },
        {
            "positions": [
                2.0202795395441626,
                -1.1599499026959381,
                -1.1562629534248092,
                -1.3616953604747204,
                -1.2039767148919058,
                1.0479729667245843
            ]
        },
        {
            "positions": [
                1.9232333980374743,
                -1.1478942320570968,
                -1.0472121505259042,
                -1.3350017046492244,
                -1.1515524014343668,
                1.1345377086559352
            ]
        },
        {
            "positions": [
                1.8261872565307864,
                -1.1358385614182553,
                -0.938161347626999,
                -1.308308048823728,
                -1.0991280879768275,
                1.2211024505872863
            ]
        },
        {
            "positions": [
                1.7291411150240983,
                -1.123782890779414,
                -0.829110544728094,
                -1.281614392998232,
                -1.0467037745192882,
                1.3076671925186372
            ]
        },
        {
            "positions": [
                1.6320949735174102,
                -1.1117272201405728,
                -0.7200597418291887,
                -1.2549207371727356,
                -0.994279461061749,
                1.394231934449988
            ]
        },
        {
            "positions": [
                1.5350488320107223,
                -1.0996715495017313,
                -0.6110089389302837,
                -1.2282270813472393,
                -0.94185514760421,
                1.4807966763813392
            ]
        },
        {
            "positions": [
                1.4380026905040342,
                -1.08761587886289,
                -0.5019581360313787,
                -1.2015334255217431,
                -0.8894308341466708,
                1.56736141831269
            ]
        },
        {
            "positions": [
                1.340956548997346,
                -1.0755602082240487,
                -0.3929073331324733,
                -1.174839769696247,
                -0.8370065206891315,
                1.6539261602440412
            ]
        },
        {
            "positions": [
                1.243910407490658,
                -1.0635045375852072,
                -0.28385653023356827,
                -1.1481461138707507,
                -0.7845822072315923,
                1.740490902175392
            ]
        },
        {
            "positions": [
                1.14686426598397,
                -1.051448866946366,
                -0.17480572733466326,
                -1.1214524580452545,
                -0.7321578937740532,
                1.827055644106743
            ]
        },
        {
            "positions": [
                1.0498181244772822,
                -1.0393931963075247,
                -0.06575492443575826,
                -1.0947588022197583,
                -0.679733580316514,
                1.9136203860380938
            ]
        },
        {
            "positions": [
                0.9527719829705938,
                -1.0273375256686834,
                0.043295878463146975,
                -1.068065146394262,
                -0.6273092668589747,
                2.000185127969445
            ]
        },
        {
            "positions": [
                0.855725841463906,
                -1.015281855029842,
                0.15234668136205198,
                -1.0413714905687659,
                -0.5748849534014355,
                2.0867498699007956
            ]
        },
        {
            "positions": [
                0.7586796999572178,
                -1.0032261843910006,
                0.261397484260957,
                -1.0146778347432697,
                -0.5224606399438965,
                2.1733146118321467
            ]
        },
        {
            "positions": [
                0.66163355845053,
                -0.9911705137521594,
                0.370448287159862,
                -0.9879841789177735,
                -0.4700363264863572,
                2.2598793537634974
            ]
        },
        {
            "positions": [
                0.5645874169438416,
                -0.9791148431133179,
                0.47949909005876745,
                -0.9612905230922771,
                -0.4176120130288179,
                2.3464440956948485
            ]
        },
        {
            "positions": [
                0.4675412754371539,
                -0.9670591724744766,
                0.5885498929576723,
                -0.9345968672667809,
                -0.36518769957127895,
                2.4330088376261996
            ]
        },
        {
            "positions": [
                0.4229908070624063,
                -0.9616229682217325,
                0.6954212728027953,
                -0.9247590480251138,
                -0.3148094933533636,
                2.4514677783813617
            ]
        },
        {
            "positions": [
                0.3784403386876588,
                -0.9561867639689885,
                0.8022926526479182,
                -0.9149212287834467,
                -0.26443128713544833,
                2.4699267191365237
            ]
        },
        {
            "positions": [
                0.3230496511088019,
                -0.9576058718790303,
                0.9672614630130905,
                -0.8971258476705978,
                -0.19993594558234196,
                2.4980608453903197
            ]
        },
        {
            "positions": [
                0.267658963529945,
                -0.9590249797890722,
                1.1322302733782628,
                -0.8793304665577487,
                -0.13544060402923558,
                2.526194971644115
            ]
        },
        {
            "positions": [
                0.21226827595108805,
                -0.960444087699114,
                1.2971990837434353,
                -0.8615350854448998,
                -0.0709452624761292,
                2.554329097897911
            ]
        },
        {
            "positions": [
                0.15687758837223115,
                -0.9618631956091559,
                1.4621678941086076,
                -0.8437397043320508,
                -0.006449920923022823,
                2.582463224151707
            ]
        },
        {
            "positions": [
                0.10148690079337419,
                -0.9632823035191977,
                1.62713670447378,
                -0.8259443232192017,
                0.058045420630083555,
                2.6105973504055027
            ]
        },
        {
            "positions": [
                0.04609621321451732,
                -0.9647014114292396,
                1.7921055148389522,
                -0.8081489421063528,
                0.1225407621831899,
                2.6387314766592986
            ]
        },
        {
            "positions": [
                0.07146762749189638,
                -1.0241434334711135,
                1.8542190401304661,
                -0.8088625413400575,
                0.12308119890153005,
                2.795628600285764
            ]
        },
        {
            "positions": [
                0.09683904176927544,
                -1.0835854555129873,
                1.91633256542198,
                -0.8095761405737624,
                0.1236216356198702,
                2.952525723912229
            ]
        },
        {
            "positions": [
                0.12221045604665451,
                -1.1430274775548612,
                1.978446090713494,
                -0.8102897398074671,
                0.12416207233821035,
                3.1094228475386942
            ]
        }
    ]
}{
    "goal": {
        "global_pose": {
            "orientation": {
                "w": 0.7047431468963623,
                "x": -0.7094548344612122,
                "y": 0.0024358443915843964,
                "z": -0.0022348060738295317
            },
            "position": {
                "x": 0.6094750761985779,
                "y": 0.3671506643295288,
                "z": 0.19426114857196808
            }
        },
        "name": "move_to_magneteinheit_A"
    },
    "id": "PRMstar_move_to_magneteinheit_A_68",
    "joint_names": [
        "shoulder_pan_joint",
        "shoulder_lift_joint",
        "elbow_joint",
        "wrist_1_joint",
        "wrist_2_joint",
        "wrist_3_joint"
    ],
    "metrics": {
        "cart_traj_len": 1.3616058541945442,
        "distance_elbow_joint": 0.38615723170003347,
        "distance_shoulder_lift_joint": 0.7542111455421769,
        "distance_shoulder_pan_joint": 1.2418932748306533,
        "distance_wrist_1_joint": 0.7716692376074793,
        "distance_wrist_2_joint": 1.4488747177921883,
        "distance_wrist_3_joint": 4.270168945532864,
        "smoothness": 0.03539847699423026,
        "time": 5.0406461160000005,
        "traj_len": 2.9787538590835925,
        "weighted_distance": 4.431010764991526
    },
    "planner": "PRMstar",
    "start": {
        "state": {
            "elbow_joint": 1.919643534880228,
            "shoulder_lift_joint": -1.8972525353963687,
            "shoulder_pan_joint": -1.1188672234189438,
            "wrist_1_joint": -1.5931878212786155,
            "wrist_2_joint": 1.5706036197970081,
            "wrist_3_joint": 1.118896926603594
        }
    },
    "waypoints": [
        {
            "positions": [
                -1.1188672234189438,
                -1.8972525353963687,
                1.919643534880228,
                -1.5931878212786155,
                1.5706036197970081,
                1.118896926603594
            ]
        },
        {
            "positions": [
                -1.0990569315094412,
                -1.853884780933123,
                1.9515443419662752,
                -1.5186619993063695,
                1.54691604465586,
                0.928879561503428
            ]
        },
        {
            "positions": [
                -1.0792466395999385,
                -1.8105170264698771,
                1.9834451490523226,
                -1.4441361773341235,
                1.523228469514712,
                0.7388621964032621
            ]
        },
        {
            "positions": [
                -1.0594363476904358,
                -1.7671492720066313,
                2.0153459561383698,
                -1.3696103553618775,
                1.499540894373564,
                0.5488448313030961
            ]
        },
        {
            "positions": [
                -1.039626055780933,
                -1.7237815175433853,
                2.047246763224417,
                -1.2950845333896313,
                1.475853319232416,
                0.35882746620293027
            ]
        },
        {
            "positions": [
                -1.0198157638714302,
                -1.6804137630801395,
                2.0791475703104645,
                -1.2205587114173853,
                1.4521657440912679,
                0.16881010110276418
            ]
        },
        {
            "positions": [
                -1.0000054719619276,
                -1.6370460086168936,
                2.1110483773965116,
                -1.1460328894451393,
                1.4284781689501198,
                -0.021207263997401693
            ]
        },
        {
            "positions": [
                -0.9801951800524249,
                -1.5936782541536478,
                2.1429491844825588,
                -1.0715070674728933,
                1.4047905938089718,
                -0.21122462909756762
            ]
        },
        {
            "positions": [
                -0.9112438530859165,
                -1.565513450134932,
                2.1327709606014524,
                -1.0558827872352834,
                1.3245992380712122,
                -0.394977590962049
            ]
        },
        {
            "positions": [
                -0.8422925261194081,
                -1.5373486461162158,
                2.122592736720346,
                -1.0402585069976735,
                1.2444078823334528,
                -0.5787305528265303
            ]
        },
        {
            "positions": [
                -0.7733411991528998,
                -1.5091838420975,
                2.1124145128392393,
                -1.0246342267600639,
                1.1642165265956932,
                -0.7624835146910118
            ]
        },
        {
            "positions": [
                -0.7043898721863913,
                -1.4810190380787838,
                2.102236288958133,
                -1.009009946522454,
                1.0840251708579338,
                -0.9462364765554931
            ]
        },
        {
            "positions": [
                -0.635438545219883,
                -1.4528542340600679,
                2.0920580650770266,
                -0.9933856662848441,
                1.0038338151201742,
                -1.1299894384199745
            ]
        },
        {
            "positions": [
                -0.5664872182533746,
                -1.4246894300413517,
                2.0818798411959203,
                -0.9777613860472344,
                0.9236424593824147,
                -1.313742400284456
            ]
        },
        {
            "positions": [
                -0.49753589128686615,
                -1.3965246260226358,
                2.071701617314814,
                -0.9621371058096245,
                0.8434511036446553,
                -1.4974953621489373
            ]
        },
        {
            "positions": [
                -0.42858456432035774,
                -1.36835982200392,
                2.061523393433707,
                -0.9465128255720148,
                0.7632597479068958,
                -1.6812483240134186
            ]
        },
        {
            "positions": [
                -0.35963323735384933,
                -1.3401950179852038,
                2.051345169552601,
                -0.9308885453344049,
                0.6830683921691363,
                -1.8650012858779
            ]
        },
        {
            "positions": [
                -0.2906819103873409,
                -1.3120302139664877,
                2.0411669456714945,
                -0.915264265096795,
                0.6028770364313768,
                -2.048754247742381
            ]
        },
        {
            "positions": [
                -0.22173058342083252,
                -1.2838654099477718,
                2.030988721790388,
                -0.8996399848591853,
                0.5226856806936173,
                -2.2325072096068626
            ]
        },
        {
            "positions": [
                -0.15277925645432422,
                -1.2557006059290559,
                2.020810497909282,
                -0.8840157046215754,
                0.4424943249558577,
                -2.416260171471344
            ]
        },
        {
            "positions": [
                -0.08382792948781581,
                -1.2275358019103397,
                2.0106322740281755,
                -0.8683914243839657,
                0.36230296921809835,
                -2.600013133335825
            ]
        },
        {
            "positions": [
                -0.014876602521307403,
                -1.1993709978916238,
                2.0004540501470687,
                -0.8527671441463558,
                0.28211161348033875,
                -2.7837660952003067
            ]
        },
        {
            "positions": [
                0.05407472444520112,
                -1.1712061938729077,
                1.9902758262659623,
                -0.8371428639087459,
                0.20192025774257938,
                -2.967519057064788
            ]
        },
        {
            "positions": [
                0.12302605141170937,
                -1.1430413898541918,
                1.980097602384856,
                -0.8215185836711362,
                0.12172890200481987,
                -3.1512720189292693
            ]
        }
    ]
}