{
    "goal": {
        "global_pose": {
            "orientation": {
                "w": 0.7047431468963623,
                "x": -0.7094548344612122,
                "y": 0.0024358443915843964,
                "z": -0.0022348060738295317
            },
            "position": {
                "x": 0.6094750761985779,
                "y": 0.3671506643295288,
                "z": 0.19426114857196808
            }
        },
        "name": "move_to_magneteinheit_A"
    },
    "id": "PRMstar_move_to_magneteinheit_A_39",
    "joint_names": [
        "shoulder_pan_joint",
        "shoulder_lift_joint",
        "elbow_joint",
        "wrist_1_joint",
        "wrist_2_joint",
        "wrist_3_joint"
    ],
    "metrics": {
        "cart_traj_len": 3.3403495251462623,
        "distance_elbow_joint": 3.9099235966968546,
        "distance_shoulder_lift_joint": 1.0666556170496913,
        "distance_shoulder_pan_joint": 2.969369232806048,
        "distance_wrist_1_joint": 0.6911364029595654,
        "distance_wrist_2_joint": 2.1623065282764005,
        "distance_wrist_3_joint": 3.8464028780795583,
        "smoothness": 0.5067791794682602,
        "time": 5.030635183,
        "traj_len": 3.8269823955524167,
        "weighted_distance": 5.019167554810578
    },
    "planner": "PRMstar",
    "start": {
        "state": {
            "elbow_joint": -1.919618573717145,
            "shoulder_lift_joint": -1.2443395971678275,
            "shoulder_pan_joint": 2.6996025300909787,
            "wrist_1_joint": -1.548550951253194,
            "wrist_2_joint": -1.5709469090946802,
            "wrist_3_joint": 0.4420197732051276
        }
    },
    "waypoints": [
        {
            "positions": [
                2.6996025300909787,
                -1.2443395971678275,
                -1.919618573717145,
                -1.548550951253194,
                -1.5709469090946802,
                0.4420197732051276
            ]
        },
        {
            "positions": [
                2.611773716494596,
                -1.2645719883114215,
                -1.8324916383971042,
                -1.5250260363012047,
                -1.5269316321787931,
                0.3217023469305612
            ]
        },
        {
            "positions": [
                2.5239449028982133,
                -1.2848043794550155,
                -1.7453647030770632,
                -1.5015011213492153,
                -1.482916355262906,
                0.2013849206559949
            ]
        },
        {
            "positions": [
                2.4361160893018305,
                -1.3050367705986092,
                -1.6582377677570224,
                -1.477976206397226,
                -1.438901078347019,
                0.08106749438142852
            ]
        },
        {
            "positions": [
                2.348287275705448,
                -1.3252691617422032,
                -1.5711108324369816,
                -1.4544512914452365,
                -1.394885801431132,
                -0.0392499318931378
            ]
        },
        {
            "positions": [
                2.260458462109065,
                -1.3455015528857972,
                -1.4839838971169406,
                -1.4309263764932472,
                -1.350870524515245,
                -0.15956735816770423
            ]
        },
        {
            "positions": [
                2.1726296485126824,
                -1.3657339440293912,
                -1.3968569617968996,
                -1.4074014615412578,
                -1.306855247599358,
                -0.27988478444227055
            ]
        },
        {
            "positions": [
                2.0848008349162996,
                -1.3859663351729852,
                -1.3097300264768588,
                -1.3838765465892684,
                -1.262839970683471,
                -0.400202210716837
            ]
        },
        {
            "positions": [
                1.996972021319917,
                -1.406198726316579,
                -1.222603091156818,
                -1.3603516316372792,
                -1.218824693767584,
                -0.5205196369914031
            ]
        },
        {
            "positions": [
                1.9091432077235342,
                -1.426431117460173,
                -1.135476155836777,
                -1.3368267166852899,
                -1.174809416851697,
                -0.6408370632659697
            ]
        },
        {
            "positions": [
                1.8213143941271515,
                -1.446663508603767,
                -1.048349220516736,
                -1.3133018017333005,
                -1.13079413993581,
                -0.761154489540536
            ]
        },
        {
            "positions": [
                1.7334855805307687,
                -1.466895899747361,
                -0.9612222851966953,
                -1.289776886781311,
                -1.0867788630199229,
                -0.8814719158151023
            ]
        },
        {
            "positions": [
                1.645656766934386,
                -1.4871282908909547,
                -0.8740953498766544,
                -1.2662519718293217,
                -1.0427635861040359,
                -1.0017893420896686
            ]
        },
        {
            "positions": [
                1.5578279533380033,
                -1.5073606820345486,
                -0.7869684145566136,
                -1.2427270568773323,
                -0.9987483091881488,
                -1.122106768364235
            ]
        },
        {
            "positions": [
                1.4699991397416206,
                -1.5275930731781426,
                -0.6998414792365726,
                -1.219202141925343,
                -0.9547330322722618,
                -1.2424241946388015
            ]
        },
        {
            "positions": [
                1.3821703261452378,
                -1.5478254643217366,
                -0.6127145439165318,
                -1.1956772269733535,
                -0.9107177553563748,
                -1.3627416209133676
            ]
        },
        {
            "positions": [
                1.294341512548855,
                -1.5680578554653306,
                -0.525587608596491,
                -1.1721523120213644,
                -0.8667024784404878,
                -1.483059047187934
            ]
        },
        {
            "positions": [
                1.2065126989524724,
                -1.5882902466089246,
                -0.43846067327645,
                -1.1486273970693748,
                -0.8226872015246007,
                -1.6033764734625007
            ]
        },
        {
            "positions": [
                1.1186838853560896,
                -1.6085226377525184,
                -0.351333737956409,
                -1.1251024821173856,
                -0.7786719246087137,
                -1.723693899737067
            ]
        },
        {
            "positions": [
                1.030855071759707,
                -1.6287550288961123,
                -0.2642068026363682,
                -1.1015775671653962,
                -0.7346566476928267,
                -1.8440113260116329
            ]
        },
        {
            "positions": [
                0.9430262581633242,
                -1.6489874200397063,
                -0.1770798673163272,
                -1.0780526522134068,
                -0.6906413707769397,
                -1.9643287522861996
            ]
        },
        {
            "positions": [
                0.8551974445669415,
                -1.6692198111833,
                -0.0899529319962864,
                -1.0545277372614175,
                -0.6466260938610526,
                -2.084646178560766
            ]
        },
        {
            "positions": [
                0.7673686309705587,
                -1.689452202326894,
                -0.0028259966762456123,
                -1.031002822309428,
                -0.6026108169451656,
                -2.2049636048353323
            ]
        },
        {
            "positions": [
                0.679539817374176,
                -1.709684593470488,
                0.08430093864379518,
                -1.0074779073574387,
                -0.5585955400292786,
                -2.3252810311098986
            ]
        },
        {
            "positions": [
                0.5917110037777933,
                -1.729916984614082,
                0.17142787396383624,
                -0.9839529924054493,
                -0.5145802631133916,
                -2.445598457384465
            ]
        },
        {
            "positions": [
                0.5362808496479379,
                -1.6975372243561626,
                0.3178070334490799,
                -0.9808801519950865,
                -0.4413583374795232,
                -2.513668828022315
            ]
        },
        {
            "positions": [
                0.48085069551808246,
                -1.6651574640982432,
                0.4641861929343236,
                -0.9778073115847237,
                -0.3681364118456548,
                -2.5817391986601654
            ]
        },
        {
            "positions": [
                0.42542054138822705,
                -1.6327777038403237,
                0.6105653524195673,
                -0.974734471174361,
                -0.29491448621178645,
                -2.6498095692980157
            ]
        },
        {
            "positions": [
                0.3699903872583717,
                -1.6003979435824043,
                0.756944511904811,
                -0.9716616307639981,
                -0.22169256057791809,
                -2.717879939935866
            ]
        },
        {
            "positions": [
                0.3145602331285163,
                -1.5680181833244848,
                0.9033236713900548,
                -0.9685887903536353,
                -0.14847063494404972,
                -2.7859503105737167
            ]
        },
        {
            "positions": [
                0.25913007899866086,
                -1.5356384230665654,
                1.0497028308752985,
                -0.9655159499432726,
                -0.07524870931018135,
                -2.8540206812115665
            ]
        },
        {
            "positions": [
                0.20369992486880545,
                -1.503258662808646,
                1.1960819903605422,
                -0.9624431095329098,
                -0.0020267836763129266,
                -2.922091051849417
            ]
        },
        {
            "positions": [
                0.1482697707389501,
                -1.4708789025507265,
                1.3424611498457857,
                -0.959370269122547,
                0.07119514195755539,
                -2.990161422487267
            ]
        },
        {
            "positions": [
                0.09283961660909468,
                -1.438499142292807,
                1.4888403093310294,
                -0.9562974287121841,
                0.1444170675914238,
                -3.0582317931251177
            ]
        },
        {
            "positions": [
                0.037409462479239264,
                -1.4061193820348876,
                1.6352194688162731,
                -0.9532245883018213,
                0.21763899322529212,
                -3.126302163762968
            ]
        },
        {
            "positions": [
                -0.01802069165061615,
                -1.3737396217769682,
                1.7815986283015168,
                -0.9501517478914586,
                0.29086091885916043,
                -3.1943725344008183
            ]
        },
        {
            "positions": [
                -0.0734508457804716,
                -1.3413598615190487,
                1.9279777877867605,
                -0.9470789074810958,
                0.3640828444930289,
                -3.2624429050386685
            ]
        },
        {
            "positions": [
                -0.00801222680227233,
                -1.277186159349581,
                1.948753532851077,
                -0.9171907877519401,
                0.28832391959679854,
                -3.2151295050934143
            ]
        },
        {
            "positions": [
                0.057426392175926946,
                -1.213012457180113,
                1.9695292779153932,
                -0.8873026680227845,
                0.21256499470056817,
                -3.1678161051481606
            ]
        },
        {
            "positions": [
                0.12286501115412626,
                -1.1488387550106454,
                1.9903050229797097,
                -0.8574145482936287,
                0.13680606980433777,
                -3.1205027052029064
            ]
        }
    ]
}{
    "goal": {
        "global_pose": {
            "orientation": {
                "w": 0.7047431468963623,
                "x": -0.7094548344612122,
                "y": 0.0024358443915843964,
                "z": -0.0022348060738295317
            },
            "position": {
                "x": 0.6094750761985779,
                "y": 0.3671506643295288,
                "z": 0.19426114857196808
            }
        },
        "name": "move_to_magneteinheit_A"
    },
    "id": "PRMstar_move_to_magneteinheit_A_39",
    "joint_names": [
        "shoulder_pan_joint",
        "shoulder_lift_joint",
        "elbow_joint",
        "wrist_1_joint",
        "wrist_2_joint",
        "wrist_3_joint"
    ],
    "metrics": {
        "cart_traj_len": 1.2125912819730333,
        "distance_elbow_joint": 0.10707843079556234,
        "distance_shoulder_lift_joint": 0.7493553463059031,
        "distance_shoulder_pan_joint": 1.2422111481097313,
        "distance_wrist_1_joint": 0.7356813056120752,
        "distance_wrist_2_joint": 1.494992207054523,
        "distance_wrist_3_joint": 4.24979707252875,
        "smoothness": 0.0887749464888352,
        "time": 5.047973593,
        "traj_len": 2.929012719399925,
        "weighted_distance": 4.394244322762521
    },
    "planner": "PRMstar",
    "start": {
        "state": {
            "elbow_joint": 1.919643534880228,
            "shoulder_lift_joint": -1.8972525353963687,
            "shoulder_pan_joint": -1.1188672234189438,
            "wrist_1_joint": -1.5931878212786155,
            "wrist_2_joint": 1.5706036197970081,
            "wrist_3_joint": 1.118896926603594
        }
    },
    "waypoints": [
        {
            "positions": [
                -1.1188672234189438,
                -1.8972525353963687,
                1.919643534880228,
                -1.5931878212786155,
                1.5706036197970081,
                1.118896926603594
            ]
        },
        {
            "positions": [
                -1.0634431435869682,
                -1.861602852434509,
                1.9238612378412556,
                -1.5596870368326254,
                1.5008221159833297,
                0.9316404526897425
            ]
        },
        {
            "positions": [
                -1.0080190637549928,
                -1.8259531694726492,
                1.9280789408022831,
                -1.5261862523866352,
                1.4310406121696513,
                0.744383978775891
            ]
        },
        {
            "positions": [
                -0.9525949839230172,
                -1.7903034865107892,
                1.9322966437633107,
                -1.4926854679406452,
                1.3612591083559726,
                0.5571275048620395
            ]
        },
        {
            "positions": [
                -0.8971709040910417,
                -1.7546538035489294,
                1.9365143467243382,
                -1.4591846834946551,
                1.2914776045422942,
                0.3698710309481882
            ]
        },
        {
            "positions": [
                -0.8417468242590662,
                -1.7190041205870696,
                1.9407320496853657,
                -1.425683899048665,
                1.2216961007286158,
                0.1826145570343367
            ]
        },
        {
            "positions": [
                -0.7863227444270906,
                -1.6833544376252099,
                1.9449497526463935,
                -1.392183114602675,
                1.1519145969149374,
                -0.0046419168795148735
            ]
        },
        {
            "positions": [
                -0.7308986645951152,
                -1.6477047546633499,
                1.949167455607421,
                -1.3586823301566848,
                1.082133093101259,
                -0.19189839079336624
            ]
        },
        {
            "positions": [
                -0.6754745847631396,
                -1.61205507170149,
                1.9533851585684485,
                -1.3251815457106948,
                1.0123515892875803,
                -0.3791548647072176
            ]
        },
        {
            "positions": [
                -0.6200505049311641,
                -1.5764053887396303,
                1.957602861529476,
                -1.2916807612647048,
                0.942570085473902,
                -0.5664113386210692
            ]
        },
        {
            "positions": [
                -0.5646264250991886,
                -1.5407557057777705,
                1.9618205644905036,
                -1.2581799768187145,
                0.8727885816602236,
                -0.7536678125349205
            ]
        },
        {
            "positions": [
                -0.509202345267213,
                -1.5051060228159105,
                1.966038267451531,
                -1.2246791923727245,
                0.8030070778465449,
                -0.9409242864487724
            ]
        },
        {
            "positions": [
                -0.45377826543523747,
                -1.4694563398540508,
                1.9702559704125586,
                -1.1911784079267345,
                0.7332255740328666,
                -1.1281807603626237
            ]
        },
        {
            "positions": [
                -0.39835418560326197,
                -1.433806656892191,
                1.9744736733735861,
                -1.1576776234807444,
                0.663444070219188,
                -1.315437234276475
            ]
        },
        {
            "positions": [
                -0.34293010577128646,
                -1.3981569739303312,
                1.9786913763346137,
                -1.1241768390347544,
                0.5936625664055096,
                -1.5026937081903264
            ]
        },
        {
            "positions": [
                -0.28750602593931085,
                -1.3625072909684715,
                1.9829090792956412,
                -1.0906760545887642,
                0.5238810625918311,
                -1.6899501821041782
            ]
        },
        {
            "positions": [
                -0.23208194610733546,
                -1.3268576080066117,
                1.9871267822566687,
                -1.0571752701427741,
                0.45409955877815267,
                -1.8772066560180292
            ]
        },
        {
            "positions": [
                -0.17665786627535984,
                -1.2912079250447517,
                1.9913444852176965,
                -1.0236744856967839,
                0.38431805496447424,
                -2.064463129931881
            ]
        },
        {
            "positions": [
                -0.12123378644338434,
                -1.255558242082892,
                1.995562188178724,
                -0.990173701250794,
                0.3145365511507958,
                -2.251719603845732
            ]
        },
        {
            "positions": [
                -0.06580970661140872,
                -1.219908559121032,
                1.9997798911397515,
                -0.9566729168048038,
                0.24475504733711717,
                -2.438976077759584
            ]
        },
        {
            "positions": [
                -0.010385626779433332,
                -1.1842588761591721,
                2.003997594100779,
                -0.9231721323588138,
                0.17497354352343897,
                -2.626232551673435
            ]
        },
        {
            "positions": [
                0.045038453052542365,
                -1.1486091931973124,
                2.0082152970618066,
                -0.8896713479128237,
                0.1051920397097604,
                -2.8134890255872866
            ]
        },
        {
            "positions": [
                0.08419118887166493,
                -1.1489651952507356,
                1.9989619627548145,
                -0.8735889317896819,
                0.11998235319339803,
                -2.9721945857562218
            ]
        },
        {
            "positions": [
                0.12334392469078752,
                -1.149321197304159,
                1.9897086284478227,
                -0.8575065156665402,
                0.13477266667703566,
                -3.130900145925157
            ]
        }
    ]
}