{
    "goal": {
        "global_pose": {
            "orientation": {
                "w": 0.7047431468963623,
                "x": -0.7094548344612122,
                "y": 0.0024358443915843964,
                "z": -0.0022348060738295317
            },
            "position": {
                "x": 0.6094750761985779,
                "y": 0.3671506643295288,
                "z": 0.19426114857196808
            }
        },
        "name": "move_to_magneteinheit_A"
    },
    "id": "PRMstar_move_to_magneteinheit_A_43",
    "joint_names": [
        "shoulder_pan_joint",
        "shoulder_lift_joint",
        "elbow_joint",
        "wrist_1_joint",
        "wrist_2_joint",
        "wrist_3_joint"
    ],
    "metrics": {
        "cart_traj_len": 4.201315671491797,
        "distance_elbow_joint": 3.8755600626494076,
        "distance_shoulder_lift_joint": 1.701413031708263,
        "distance_shoulder_pan_joint": 8.995049192961561,
        "distance_wrist_1_joint": 5.110185698880842,
        "distance_wrist_2_joint": 1.7048944345480321,
        "distance_wrist_3_joint": 2.5727418467740883,
        "smoothness": 0.34341089088360677,
        "time": 5.057960284,
        "traj_len": 4.894879392540964,
        "weighted_distance": 5.993363671136539
    },
    "planner": "PRMstar",
    "start": {
        "state": {
            "elbow_joint": -1.919618573717145,
            "shoulder_lift_joint": -1.2443395971678275,
            "shoulder_pan_joint": 2.6996025300909787,
            "wrist_1_joint": -1.548550951253194,
            "wrist_2_joint": -1.5709469090946802,
            "wrist_3_joint": 0.4420197732051276
        }
    },
    "waypoints": [
        {
            "positions": [
                2.6996025300909787,
                -1.2443395971678275,
                -1.919618573717145,
                -1.548550951253194,
                -1.5709469090946802,
                0.4420197732051276
            ]
        },
        {
            "positions": [
                2.5584928514056404,
                -1.2636966488184533,
                -1.8279766231161105,
                -1.475944109607844,
                -1.5437446403492114,
                0.48457036914619117
            ]
        },
        {
            "positions": [
                2.4173831727203026,
                -1.283053700469079,
                -1.7363346725150761,
                -1.403337267962494,
                -1.516542371603743,
                0.5271209650872547
            ]
        },
        {
            "positions": [
                2.2762734940349647,
                -1.3024107521197048,
                -1.6446927219140417,
                -1.3307304263171442,
                -1.4893401028582742,
                0.5696715610283183
            ]
        },
        {
            "positions": [
                2.1351638153496264,
                -1.3217678037703307,
                -1.553050771313007,
                -1.2581235846717942,
                -1.4621378341128057,
                0.6122221569693819
            ]
        },
        {
            "positions": [
                1.9940541366642885,
                -1.3411248554209565,
                -1.4614088207119726,
                -1.1855167430264442,
                -1.434935565367337,
                0.6547727529104455
            ]
        },
        {
            "positions": [
                1.8529444579789502,
                -1.3604819070715821,
                -1.3697668701109382,
                -1.1129099013810944,
                -1.4077332966218683,
                0.6973233488515089
            ]
        },
        {
            "positions": [
                1.7118347792936122,
                -1.379838958722208,
                -1.2781249195099038,
                -1.040303059735744,
                -1.3805310278763998,
                0.7398739447925726
            ]
        },
        {
            "positions": [
                1.570725100608274,
                -1.3991960103728338,
                -1.1864829689088694,
                -0.9676962180903942,
                -1.353328759130931,
                0.7824245407336361
            ]
        },
        {
            "positions": [
                1.4296154219229362,
                -1.4185530620234597,
                -1.094841018307835,
                -0.8950893764450443,
                -1.3261264903854626,
                0.8249751366746998
            ]
        },
        {
            "positions": [
                1.2885057432375981,
                -1.4379101136740853,
                -1.0031990677068006,
                -0.8224825347996944,
                -1.2989242216399939,
                0.8675257326157633
            ]
        },
        {
            "positions": [
                1.1473960645522598,
                -1.4572671653247111,
                -0.9115571171057661,
                -0.7498756931543442,
                -1.2717219528945254,
                0.910076328556827
            ]
        },
        {
            "positions": [
                1.006286385866922,
                -1.476624216975337,
                -0.8199151665047317,
                -0.6772688515089944,
                -1.2445196841490567,
                0.9526269244978904
            ]
        },
        {
            "positions": [
                0.8651767071815839,
                -1.4959812686259628,
                -0.7282732159036973,
                -0.6046620098636444,
                -1.217317415403588,
                0.9951775204389539
            ]
        },
        {
            "positions": [
                0.7240670284962456,
                -1.5153383202765884,
                -0.6366312653026627,
                -0.5320551682182943,
                -1.1901151466581195,
                1.0377281163800176
            ]
        },
        {
            "positions": [
                0.5829573498109077,
                -1.5346953719272143,
                -0.5449893147016285,
                -0.4594483265729443,
                -1.1629128779126507,
                1.080278712321081
            ]
        },
        {
            "positions": [
                0.44184767112556944,
                -1.5540524235778401,
                -0.45334736410059384,
                -0.3868414849275943,
                -1.135710609167182,
                1.1228293082621448
            ]
        },
        {
            "positions": [
                0.3007379924402316,
                -1.5734094752284657,
                -0.36170541349955965,
                -0.3142346432822445,
                -1.1085083404217135,
                1.1653799042032083
            ]
        },
        {
            "positions": [
                0.15962831375489372,
                -1.5927665268790916,
                -0.270063462898525,
                -0.24162780163689446,
                -1.081306071676245,
                1.207930500144272
            ]
        },
        {
            "positions": [
                0.018518635069555422,
                -1.6121235785297174,
                -0.1784215122974906,
                -0.16902095999154443,
                -1.0541038029307763,
                1.2504810960853354
            ]
        },
        {
            "positions": [
                -0.12259104361578244,
                -1.6314806301803433,
                -0.08677956169645618,
                -0.09641411834619462,
                -1.0269015341853076,
                1.293031692026399
            ]
        },
        {
            "positions": [
                -0.26370072230112074,
                -1.6508376818309691,
                0.004862388904578241,
                -0.02380727670084437,
                -0.999699265439839,
                1.3355822879674626
            ]
        },
        {
            "positions": [
                -0.40481040098645904,
                -1.6701947334815948,
                0.09650433950561266,
                0.04879956494450566,
                -0.9724969966943704,
                1.3781328839085263
            ]
        },
        {
            "positions": [
                -0.5459200796717969,
                -1.6895517851322206,
                0.18814629010664752,
                0.12140640658985569,
                -0.9452947279489018,
                1.4206834798495898
            ]
        },
        {
            "positions": [
                -0.6870297583571348,
                -1.7089088367828462,
                0.2797882407076815,
                0.19401324823520527,
                -0.9180924592034332,
                1.4632340757906532
            ]
        },
        {
            "positions": [
                -0.8281394370424726,
                -1.728265888433472,
                0.3714301913087159,
                0.2666200898805553,
                -0.8908901904579646,
                1.505784671731717
            ]
        },
        {
            "positions": [
                -0.9692491157278109,
                -1.747622940084098,
                0.4630721419097503,
                0.33922693152590533,
                -0.8636879217124959,
                1.5483352676727804
            ]
        },
        {
            "positions": [
                -1.1103587944131492,
                -1.7669799917347238,
                0.5547140925107852,
                0.41183377317125536,
                -0.8364856529670273,
                1.590885863613844
            ]
        },
        {
            "positions": [
                -1.2514684730984875,
                -1.7863370433853496,
                0.6463560431118196,
                0.4844406148166054,
                -0.8092833842215587,
                1.6334364595549078
            ]
        },
        {
            "positions": [
                -1.392578151783825,
                -1.8056940950359752,
                0.7379979937128536,
                0.5570474564619552,
                -0.78208111547609,
                1.675987055495971
            ]
        },
        {
            "positions": [
                -1.5336878304691632,
                -1.825051146686601,
                0.829639944313888,
                0.6296542981073054,
                -0.7548788467306214,
                1.7185376514370347
            ]
        },
        {
            "positions": [
                -1.6747975091545015,
                -1.8444081983372267,
                0.9212818949149228,
                0.7022611397526553,
                -0.7276765779851528,
                1.7610882473780984
            ]
        },
        {
            "positions": [
                -1.8159071878398398,
                -1.8637652499878525,
                1.0129238455159573,
                0.7748679813980055,
                -0.7004743092396841,
                1.803638843319162
            ]
        },
        {
            "positions": [
                -1.9570168665251773,
                -1.8831223016384784,
                1.1045657961169917,
                0.8474748230433553,
                -0.6732720404942155,
                1.8461894392602256
            ]
        },
        {
            "positions": [
                -2.0981265452105156,
                -1.9024793532891042,
                1.1962077467180257,
                0.9200816646887051,
                -0.646069771748747,
                1.888740035201289
            ]
        },
        {
            "positions": [
                -2.239236223895853,
                -1.92183640493973,
                1.2878496973190605,
                0.9926885063340554,
                -0.6188675030032783,
                1.9312906311423526
            ]
        },
        {
            "positions": [
                -2.3803459025811913,
                -1.941193456590356,
                1.379491647920095,
                1.0652953479794052,
                -0.5916652342578097,
                1.9738412270834162
            ]
        },
        {
            "positions": [
                -2.5214555812665296,
                -1.9605505082409815,
                1.4711335985211293,
                1.1379021896247554,
                -0.564462965512341,
                2.0163918230244797
            ]
        },
        {
            "positions": [
                -2.662565259951868,
                -1.9799075598916074,
                1.5627755491221638,
                1.2105090312701052,
                -0.5372606967668725,
                2.058942418965543
            ]
        },
        {
            "positions": [
                -2.8036749386372053,
                -1.999264611542233,
                1.6544174997231982,
                1.283115872915455,
                -0.5100584280214038,
                2.1014930149066067
            ]
        },
        {
            "positions": [
                -2.9447846173225436,
                -2.018621663192859,
                1.7460594503242326,
                1.3557227145608048,
                -0.4828561592759353,
                2.14404361084767
            ]
        },
        {
            "positions": [
                -3.0858942960078823,
                -2.0379787148434847,
                1.8377014009252672,
                1.428329556206155,
                -0.45565389053046657,
                2.186594206788734
            ]
        },
        {
            "positions": [
                -2.9254166776647477,
                -1.9925900191418544,
                1.843613405325617,
                1.3216642966350804,
                -0.42617381973127555,
                2.228002577448258
            ]
        },
        {
            "positions": [
                -2.7649390593216125,
                -1.9472013234402241,
                1.8495254097259668,
                1.2149990370640058,
                -0.3966937489320846,
                2.269410948107782
            ]
        },
        {
            "positions": [
                -2.604461440978478,
                -1.9018126277385938,
                1.8554374141263166,
                1.108333777492931,
                -0.3672136781328936,
                2.3108193187673063
            ]
        },
        {
            "positions": [
                -2.443983822635343,
                -1.8564239320369635,
                1.8613494185266664,
                1.0016685179218563,
                -0.3377336073337026,
                2.3522276894268304
            ]
        },
        {
            "positions": [
                -2.283506204292208,
                -1.8110352363353333,
                1.8672614229270161,
                0.8950032583507816,
                -0.3082535365345116,
                2.3936360600863544
            ]
        },
        {
            "positions": [
                -2.1230285859490734,
                -1.765646540633703,
                1.873173427327366,
                0.788337998779707,
                -0.2787734657353206,
                2.4350444307458785
            ]
        },
        {
            "positions": [
                -1.9625509676059387,
                -1.7202578449320727,
                1.8790854317277157,
                0.6816727392086324,
                -0.24929339493612962,
                2.4764528014054026
            ]
        },
        {
            "positions": [
                -1.8020733492628038,
                -1.6748691492304424,
                1.8849974361280655,
                0.5750074796375575,
                -0.2198133241369386,
                2.5178611720649267
            ]
        },
        {
            "positions": [
                -1.641595730919669,
                -1.629480453528812,
                1.8909094405284153,
                0.46834222006648285,
                -0.1903332533377476,
                2.5592695427244507
            ]
        },
        {
            "positions": [
                -1.4811181125765343,
                -1.5840917578271818,
                1.896821444928765,
                0.3616769604954082,
                -0.16085318253855663,
                2.600677913383975
            ]
        },
        {
            "positions": [
                -1.3206404942333994,
                -1.5387030621255515,
                1.9027334493291148,
                0.25501170092433334,
                -0.1313731117393656,
                2.6420862840434993
            ]
        },
        {
            "positions": [
                -1.1601628758902647,
                -1.4933143664239212,
                1.9086454537294644,
                0.14834644135325892,
                -0.10189304094017465,
                2.683494654703023
            ]
        },
        {
            "positions": [
                -0.9996852575471298,
                -1.447925670722291,
                1.9145574581298141,
                0.04168118178218405,
                -0.07241297014098363,
                2.7249030253625475
            ]
        },
        {
            "positions": [
                -0.8392076392039951,
                -1.4025369750206607,
                1.920469462530164,
                -0.06498407778889037,
                -0.042932899341792674,
                2.766311396022071
            ]
        },
        {
            "positions": [
                -0.67873002086086,
                -1.3571482793190304,
                1.9263814669305137,
                -0.17164933735996524,
                -0.013452828542601658,
                2.8077197666815956
            ]
        },
        {
            "positions": [
                -0.5182524025177253,
                -1.3117595836174,
                1.9322934713308635,
                -0.2783145969310401,
                0.016027242256589358,
                2.8491281373411197
            ]
        },
        {
            "positions": [
                -0.35777478417459063,
                -1.2663708879157698,
                1.9382054757312133,
                -0.3849798565021145,
                0.04550731305578026,
                2.8905365080006438
            ]
        },
        {
            "positions": [
                -0.1972971658314555,
                -1.2209821922141395,
                1.944117480131563,
                -0.4916451160731894,
                0.07498738385497139,
                2.931944878660168
            ]
        },
        {
            "positions": [
                -0.03681954748832128,
                -1.1755934965125092,
                1.9500294845319128,
                -0.5983103756442638,
                0.1044674546541623,
                2.973353249319692
            ]
        },
        {
            "positions": [
                0.12365807085481385,
                -1.130204800810879,
                1.9559414889322626,
                -0.7049756352153389,
                0.1339475254533533,
                3.014761619979216
            ]
        }
    ]
}{
    "goal": {
        "global_pose": {
            "orientation": {
                "w": 0.7047431468963623,
                "x": -0.7094548344612122,
                "y": 0.0024358443915843964,
                "z": -0.0022348060738295317
            },
            "position": {
                "x": 0.6094750761985779,
                "y": 0.3671506643295288,
                "z": 0.19426114857196808
            }
        },
        "name": "move_to_magneteinheit_A"
    },
    "id": "PRMstar_move_to_magneteinheit_A_43",
    "joint_names": [
        "shoulder_pan_joint",
        "shoulder_lift_joint",
        "elbow_joint",
        "wrist_1_joint",
        "wrist_2_joint",
        "wrist_3_joint"
    ],
    "metrics": {
        "cart_traj_len": 1.3846309165260102,
        "distance_elbow_joint": 0.6836829409993026,
        "distance_shoulder_lift_joint": 0.7520043476194465,
        "distance_shoulder_pan_joint": 1.2411638452286986,
        "distance_wrist_1_joint": 0.7586385797115754,
        "distance_wrist_2_joint": 1.4357525565709006,
        "distance_wrist_3_joint": 4.261842808944199,
        "smoothness": 0.07507745826310701,
        "time": 5.026090829,
        "traj_len": 3.0220994489053674,
        "weighted_distance": 4.455464266857607
    },
    "planner": "PRMstar",
    "start": {
        "state": {
            "elbow_joint": 1.919643534880228,
            "shoulder_lift_joint": -1.8972525353963687,
            "shoulder_pan_joint": -1.1188672234189438,
            "wrist_1_joint": -1.5931878212786155,
            "wrist_2_joint": 1.5706036197970081,
            "wrist_3_joint": 1.118896926603594
        }
    },
    "waypoints": [
        {
            "positions": [
                -1.1188672234189438,
                -1.8972525353963687,
                1.919643534880228,
                -1.5931878212786155,
                1.5706036197970081,
                1.118896926603594
            ]
        },
        {
            "positions": [
                -1.0749299619845378,
                -1.852728173806874,
                1.8975346291314505,
                -1.5407125856055994,
                1.512423019347173,
                0.9600695599015435
            ]
        },
        {
            "positions": [
                -1.030992700550132,
                -1.8082038122173791,
                1.875425723382673,
                -1.4882373499325834,
                1.4542424188973377,
                0.8012421931994931
            ]
        },
        {
            "positions": [
                -0.987055439115726,
                -1.7636794506278846,
                1.8533168176338952,
                -1.4357621142595673,
                1.3960618184475027,
                0.6424148264974427
            ]
        },
        {
            "positions": [
                -0.9431181776813201,
                -1.7191550890383898,
                1.8312079118851177,
                -1.3832868785865513,
                1.3378812179976673,
                0.4835874597953923
            ]
        },
        {
            "positions": [
                -0.8991809162469141,
                -1.674630727448895,
                1.8090990061363401,
                -1.3308116429135353,
                1.2797006175478323,
                0.32476009309334186
            ]
        },
        {
            "positions": [
                -0.8552436548125082,
                -1.6301063658594002,
                1.7869901003875626,
                -1.2783364072405192,
                1.2215200170979972,
                0.16593272639129142
            ]
        },
        {
            "positions": [
                -0.8113063933781022,
                -1.5855820042699054,
                1.764881194638785,
                -1.2258611715675032,
                1.1633394166481619,
                0.007105359689240975
            ]
        },
        {
            "positions": [
                -0.7673691319436964,
                -1.5410576426804108,
                1.7427722888900072,
                -1.1733859358944874,
                1.1051588161983268,
                -0.15172200701280936
            ]
        },
        {
            "positions": [
                -0.7234318705092904,
                -1.496533281090916,
                1.7206633831412297,
                -1.120910700221471,
                1.0469782157484917,
                -0.3105493737148599
            ]
        },
        {
            "positions": [
                -0.6794946090748843,
                -1.4520089195014212,
                1.6985544773924521,
                -1.0684354645484553,
                0.9887976152986564,
                -0.46937674041691024
            ]
        },
        {
            "positions": [
                -0.6355573476404784,
                -1.4074845579119266,
                1.6764455716436746,
                -1.0159602288754392,
                0.9306170148488212,
                -0.6282041071189608
            ]
        },
        {
            "positions": [
                -0.5916200862060725,
                -1.3629601963224318,
                1.6543366658948968,
                -0.9634849932024231,
                0.8724364143989861,
                -0.7870314738210111
            ]
        },
        {
            "positions": [
                -0.5476828247716665,
                -1.318435834732937,
                1.6322277601461193,
                -0.911009757529407,
                0.8142558139491509,
                -0.9458588405230615
            ]
        },
        {
            "positions": [
                -0.5037455633372606,
                -1.2739114731434422,
                1.6101188543973417,
                -0.858534521856391,
                0.7560752134993157,
                -1.1046862072251118
            ]
        },
        {
            "positions": [
                -0.44114134482255907,
                -1.2610451446067903,
                1.6475346804489832,
                -0.8561359938274559,
                0.6939527984719949,
                -1.308512174736661
            ]
        },
        {
            "positions": [
                -0.3785371263078576,
                -1.2481788160701381,
                1.684950506500625,
                -0.8537374657985208,
                0.6318303834446741,
                -1.5123381422482105
            ]
        },
        {
            "positions": [
                -0.3159329077931561,
                -1.2353124875334862,
                1.7223663325522667,
                -0.8513389377695857,
                0.5697079684173533,
                -1.7161641097597597
            ]
        },
        {
            "positions": [
                -0.25332868927845453,
                -1.2224461589968343,
                1.7597821586039082,
                -0.8489404097406507,
                0.5075855533900324,
                -1.9199900772713092
            ]
        },
        {
            "positions": [
                -0.19072447076375304,
                -1.2095798304601821,
                1.7971979846555497,
                -0.8465418817117155,
                0.4454631383627117,
                -2.1238160447828585
            ]
        },
        {
            "positions": [
                -0.12812025224905155,
                -1.1967135019235302,
                1.8346138107071914,
                -0.8441433536827804,
                0.3833407233353909,
                -2.3276420122944077
            ]
        },
        {
            "positions": [
                -0.06551603373435005,
                -1.1838471733868783,
                1.8720296367588332,
                -0.8417448256538453,
                0.3212183083080701,
                -2.531467979805957
            ]
        },
        {
            "positions": [
                -0.0029118152196484504,
                -1.1709808448502264,
                1.9094454628104747,
                -0.8393462976249102,
                0.2590958932807492,
                -2.7352939473175066
            ]
        },
        {
            "positions": [
                0.05969240329505299,
                -1.1581145163135742,
                1.9468612888621162,
                -0.8369477695959752,
                0.19697347825342837,
                -2.939119914829056
            ]
        },
        {
            "positions": [
                0.12229662180975455,
                -1.1452481877769223,
                1.984277114913758,
                -0.83454924156704,
                0.1348510632261076,
                -3.142945882340605
            ]
        }
    ]
}