{
    "goal": {
        "global_pose": {
            "orientation": {
                "w": 0.7047431468963623,
                "x": -0.7094548344612122,
                "y": 0.0024358443915843964,
                "z": -0.0022348060738295317
            },
            "position": {
                "x": 0.6094750761985779,
                "y": 0.3671506643295288,
                "z": 0.19426114857196808
            }
        },
        "name": "move_to_magneteinheit_A"
    },
    "id": "PRMstar_move_to_magneteinheit_A_28",
    "joint_names": [
        "shoulder_pan_joint",
        "shoulder_lift_joint",
        "elbow_joint",
        "wrist_1_joint",
        "wrist_2_joint",
        "wrist_3_joint"
    ],
    "metrics": {
        "cart_traj_len": 3.280954924052532,
        "distance_elbow_joint": 3.9077506412470093,
        "distance_shoulder_lift_joint": 1.3744810131805243,
        "distance_shoulder_pan_joint": 3.951344080550456,
        "distance_wrist_1_joint": 3.4596175097898816,
        "distance_wrist_2_joint": 1.4497748680860263,
        "distance_wrist_3_joint": 0.47130237245113243,
        "smoothness": 0.18371541818462533,
        "time": 5.033595571999999,
        "traj_len": 3.8228615571721964,
        "weighted_distance": 4.523965915884337
    },
    "planner": "PRMstar",
    "start": {
        "state": {
            "elbow_joint": -1.919618573717145,
            "shoulder_lift_joint": -1.2443395971678275,
            "shoulder_pan_joint": 2.6996025300909787,
            "wrist_1_joint": -1.548550951253194,
            "wrist_2_joint": -1.5709469090946802,
            "wrist_3_joint": 0.4420197732051276
        }
    },
    "waypoints": [
        {
            "positions": [
                2.6996025300909787,
                -1.2443395971678275,
                -1.919618573717145,
                -1.548550951253194,
                -1.5709469090946802,
                0.4420197732051276
            ]
        },
        {
            "positions": [
                2.563616406947736,
                -1.2059505272301878,
                -1.91696872901098,
                -1.4168230247543359,
                -1.5154409167503813,
                0.42330269384977104
            ]
        },
        {
            "positions": [
                2.4276302838044934,
                -1.1675614572925481,
                -1.9143188843048153,
                -1.2850950982554774,
                -1.4599349244060824,
                0.4045856144944145
            ]
        },
        {
            "positions": [
                2.291644160661251,
                -1.1291723873549082,
                -1.9116690395986504,
                -1.1533671717566192,
                -1.4044289320617835,
                0.38586853513905794
            ]
        },
        {
            "positions": [
                2.1556580375180086,
                -1.0907833174172685,
                -1.9090191948924855,
                -1.0216392452577607,
                -1.3489229397174847,
                0.36715145578370134
            ]
        },
        {
            "positions": [
                2.019671914374766,
                -1.0523942474796288,
                -1.9063693501863206,
                -0.8899113187589025,
                -1.2934169473731858,
                0.3484343764283448
            ]
        },
        {
            "positions": [
                1.8836857912315235,
                -1.0140051775419892,
                -1.903719505480156,
                -0.7581833922600442,
                -1.237910955028887,
                0.32971729707298825
            ]
        },
        {
            "positions": [
                1.7476996680882808,
                -0.9756161076043494,
                -1.901069660773991,
                -0.6264554657611858,
                -1.182404962684588,
                0.3110002177176317
            ]
        },
        {
            "positions": [
                1.6117135449450384,
                -0.9372270376667097,
                -1.898419816067826,
                -0.4947275392623276,
                -1.1268989703402892,
                0.29228313836227515
            ]
        },
        {
            "positions": [
                1.4757274218017957,
                -0.8988379677290699,
                -1.8957699713616614,
                -0.36299961276346915,
                -1.0713929779959903,
                0.2735660590069186
            ]
        },
        {
            "positions": [
                1.3397412986585533,
                -0.8604488977914302,
                -1.8931201266554964,
                -0.23127168626461092,
                -1.0158869856516914,
                0.25484897965156206
            ]
        },
        {
            "positions": [
                1.2037551755153109,
                -0.8220598278537905,
                -1.8904702819493315,
                -0.09954375976575269,
                -0.9603809933073925,
                0.2361319002962055
            ]
        },
        {
            "positions": [
                1.0677690523720682,
                -0.7836707579161507,
                -1.8878204372431666,
                0.03218416673310576,
                -0.9048750009630936,
                0.21741482094084894
            ]
        },
        {
            "positions": [
                0.9317829292288258,
                -0.745281687978511,
                -1.885170592537002,
                0.16391209323196398,
                -0.8493690086187947,
                0.1986977415854924
            ]
        },
        {
            "positions": [
                0.7957968060855829,
                -0.7068926180408712,
                -1.882520747830837,
                0.29564001973082243,
                -0.7938630162744957,
                0.1799806622301358
            ]
        },
        {
            "positions": [
                0.6598106829423407,
                -0.6685035481032315,
                -1.879870903124672,
                0.42736794622968066,
                -0.738357023930197,
                0.16126358287477927
            ]
        },
        {
            "positions": [
                0.523824559799098,
                -0.6301144781655919,
                -1.8772210584185074,
                0.5590958727285389,
                -0.6828510315858981,
                0.14254650351942272
            ]
        },
        {
            "positions": [
                0.3878384366558554,
                -0.591725408227952,
                -1.8745712137123425,
                0.6908237992273976,
                -0.6273450392415991,
                0.12382942416406617
            ]
        },
        {
            "positions": [
                0.2518523135126127,
                -0.5533363382903123,
                -1.8719213690061776,
                0.8225517257262558,
                -0.5718390468973003,
                0.10511234480870962
            ]
        },
        {
            "positions": [
                0.11586619036937051,
                -0.5149472683526726,
                -1.8692715243000129,
                0.954279652225114,
                -0.5163330545530014,
                0.08639526545335308
            ]
        },
        {
            "positions": [
                -0.02011993277387214,
                -0.4765581984150328,
                -1.866621679593848,
                1.0860075787239722,
                -0.4608270622087025,
                0.06767818609799647
            ]
        },
        {
            "positions": [
                -0.1561060559171148,
                -0.4381691284773931,
                -1.863971834887683,
                1.2177355052228305,
                -0.40532106986440364,
                0.048961106742639926
            ]
        },
        {
            "positions": [
                -0.292092179060357,
                -0.3997800585397534,
                -1.8613219901815181,
                1.3494634317216887,
                -0.34981507752010477,
                0.030244027387283434
            ]
        },
        {
            "positions": [
                -0.4280783022036001,
                -0.3613909886021136,
                -1.8586721454753534,
                1.4811913582205474,
                -0.2943090851758059,
                0.011526948031926831
            ]
        },
        {
            "positions": [
                -0.5640644253468425,
                -0.3230019186644739,
                -1.8560223007691885,
                1.6129192847194056,
                -0.23880309283150702,
                -0.007190131323429716
            ]
        },
        {
            "positions": [
                -0.5149446306959402,
                -0.35536929971284326,
                -1.5814398458906849,
                1.634215518563497,
                -0.23040087484416033,
                -0.005612097900388642
            ]
        },
        {
            "positions": [
                -0.4658248360450379,
                -0.38773668076121265,
                -1.3068573910121812,
                1.6555117524075886,
                -0.2219986568568136,
                -0.004034064477347568
            ]
        },
        {
            "positions": [
                -0.41670504139413556,
                -0.42010406180958204,
                -1.0322749361336774,
                1.67680798625168,
                -0.21359643886946691,
                -0.002456031054306494
            ]
        },
        {
            "positions": [
                -0.36758524674323323,
                -0.4524714428579514,
                -0.7576924812551737,
                1.6981042200957717,
                -0.20519422088212022,
                -0.0008779976312654203
            ]
        },
        {
            "positions": [
                -0.3184654520923309,
                -0.48483882390632077,
                -0.4831100263766699,
                1.719400453939863,
                -0.1967920028947735,
                0.0007000357917756536
            ]
        },
        {
            "positions": [
                -0.2693456574414286,
                -0.5172062049546902,
                -0.20852757149816625,
                1.7406966877839545,
                -0.1883897849074268,
                0.0022780692148167275
            ]
        },
        {
            "positions": [
                -0.22022586279052625,
                -0.5495735860030595,
                0.0660548833803376,
                1.761992921628046,
                -0.1799875669200801,
                0.0038561026378578014
            ]
        },
        {
            "positions": [
                -0.17110606813962392,
                -0.5819409670514288,
                0.340637338258841,
                1.7832891554721375,
                -0.17158534893273342,
                0.005434136060898875
            ]
        },
        {
            "positions": [
                -0.12198627348872154,
                -0.6143083480997983,
                0.6152197931373453,
                1.8045853893162291,
                -0.16318313094538667,
                0.007012169483939951
            ]
        },
        {
            "positions": [
                -0.07286647883781927,
                -0.6466757291481676,
                0.8898022480158487,
                1.8258816231603205,
                -0.15478091295803997,
                0.008590202906981023
            ]
        },
        {
            "positions": [
                -0.023746684186916944,
                -0.679043110196537,
                1.1643847028943526,
                1.8471778570044122,
                -0.14637869497069328,
                0.010168236330022097
            ]
        },
        {
            "positions": [
                0.025373110463985382,
                -0.7114104912449063,
                1.438967157772856,
                1.8684740908485036,
                -0.13797647698334659,
                0.011746269753063171
            ]
        },
        {
            "positions": [
                0.07449290511488771,
                -0.7437778722932757,
                1.7135496126513603,
                1.889770324692595,
                -0.12957425899599986,
                0.013324303176104245
            ]
        },
        {
            "positions": [
                0.12361269976579004,
                -0.7761452533416451,
                1.988132067529864,
                1.9110665585366866,
                -0.12117204100865317,
                0.014902336599145319
            ]
        }
    ]
}{
    "goal": {
        "global_pose": {
            "orientation": {
                "w": 0.7047431468963623,
                "x": -0.7094548344612122,
                "y": 0.0024358443915843964,
                "z": -0.0022348060738295317
            },
            "position": {
                "x": 0.6094750761985779,
                "y": 0.3671506643295288,
                "z": 0.19426114857196808
            }
        },
        "name": "move_to_magneteinheit_A"
    },
    "id": "PRMstar_move_to_magneteinheit_A_28",
    "joint_names": [
        "shoulder_pan_joint",
        "shoulder_lift_joint",
        "elbow_joint",
        "wrist_1_joint",
        "wrist_2_joint",
        "wrist_3_joint"
    ],
    "metrics": {
        "cart_traj_len": 1.247798057766847,
        "distance_elbow_joint": 0.06247735769833662,
        "distance_shoulder_lift_joint": 0.7583552361108405,
        "distance_shoulder_pan_joint": 1.2417896648947004,
        "distance_wrist_1_joint": 0.8827849666309437,
        "distance_wrist_2_joint": 1.4494329892221034,
        "distance_wrist_3_joint": 4.281832206499903,
        "smoothness": 0.10343981567962533,
        "time": 5.0587448870000005,
        "traj_len": 2.9456191914531025,
        "weighted_distance": 4.424088017875513
    },
    "planner": "PRMstar",
    "start": {
        "state": {
            "elbow_joint": 1.919643534880228,
            "shoulder_lift_joint": -1.8972525353963687,
            "shoulder_pan_joint": -1.1188672234189438,
            "wrist_1_joint": -1.5931878212786155,
            "wrist_2_joint": 1.5706036197970081,
            "wrist_3_joint": 1.118896926603594
        }
    },
    "waypoints": [
        {
            "positions": [
                -1.1188672234189438,
                -1.8972525353963687,
                1.919643534880228,
                -1.5931878212786155,
                1.5706036197970081,
                1.118896926603594
            ]
        },
        {
            "positions": [
                -1.0691806891149604,
                -1.8612003783898878,
                1.922514516145052,
                -1.553618594557384,
                1.5100334294933015,
                0.9271685179221779
            ]
        },
        {
            "positions": [
                -1.0194941548109773,
                -1.825148221383407,
                1.9253854974098763,
                -1.5140493678361524,
                1.4494632391895947,
                0.7354401092407619
            ]
        },
        {
            "positions": [
                -0.9698076205069939,
                -1.789096064376926,
                1.9282564786747003,
                -1.4744801411149209,
                1.3888930488858882,
                0.5437117005593458
            ]
        },
        {
            "positions": [
                -0.9201210862030105,
                -1.7530439073704451,
                1.9311274599395245,
                -1.4349109143936893,
                1.3283228585821814,
                0.35198329187792965
            ]
        },
        {
            "positions": [
                -0.8704345518990272,
                -1.7169917503639642,
                1.9339984412043485,
                -1.3953416876724578,
                1.2677526682784748,
                0.1602548831965136
            ]
        },
        {
            "positions": [
                -0.8207480175950439,
                -1.6809395933574833,
                1.9368694224691725,
                -1.355772460951226,
                1.2071824779747682,
                -0.03147352548490234
            ]
        },
        {
            "positions": [
                -0.7710614832910605,
                -1.6448874363510027,
                1.9397404037339967,
                -1.3162032342299947,
                1.1466122876710614,
                -0.2232019341663185
            ]
        },
        {
            "positions": [
                -0.7213749489870772,
                -1.6088352793445218,
                1.9426113849988207,
                -1.276634007508763,
                1.0860420973673548,
                -0.41493034284773467
            ]
        },
        {
            "positions": [
                -0.6716884146830939,
                -1.5727831223380409,
                1.9454823662636447,
                -1.2370647807875315,
                1.0254719070636482,
                -0.6066587515291506
            ]
        },
        {
            "positions": [
                -0.6220018803791105,
                -1.53673096533156,
                1.948353347528469,
                -1.1974955540663,
                0.9649017167599415,
                -0.7983871602105668
            ]
        },
        {
            "positions": [
                -0.5723153460751271,
                -1.500678808325079,
                1.9512243287932929,
                -1.1579263273450684,
                0.9043315264562347,
                -0.9901155688919829
            ]
        },
        {
            "positions": [
                -0.5226288117711438,
                -1.4646266513185981,
                1.954095310058117,
                -1.1183571006238369,
                0.8437613361525281,
                -1.1818439775733987
            ]
        },
        {
            "positions": [
                -0.47294227746716044,
                -1.4285744943121172,
                1.956966291322941,
                -1.078787873902605,
                0.7831911458488214,
                -1.3735723862548153
            ]
        },
        {
            "positions": [
                -0.42325574316317716,
                -1.3925223373056363,
                1.959837272587765,
                -1.0392186471813738,
                0.7226209555451149,
                -1.565300794936231
            ]
        },
        {
            "positions": [
                -0.37356920885919376,
                -1.3564701802991554,
                1.9627082538525893,
                -0.9996494204601422,
                0.662050765241408,
                -1.7570292036176471
            ]
        },
        {
            "positions": [
                -0.3238826745552106,
                -1.3204180232926745,
                1.9655792351174133,
                -0.9600801937389106,
                0.6014805749377015,
                -1.9487576122990633
            ]
        },
        {
            "positions": [
                -0.2741961402512272,
                -1.2843658662861936,
                1.9684502163822373,
                -0.9205109670176791,
                0.5409103846339947,
                -2.1404860209804797
            ]
        },
        {
            "positions": [
                -0.2245096059472439,
                -1.2483137092797127,
                1.9713211976470615,
                -0.8809417402964476,
                0.4803401943302881,
                -2.332214429661895
            ]
        },
        {
            "positions": [
                -0.1748230716432605,
                -1.2122615522732318,
                1.9741921789118855,
                -0.8413725135752159,
                0.4197700040265815,
                -2.523942838343311
            ]
        },
        {
            "positions": [
                -0.1251365373392772,
                -1.176209395266751,
                1.9770631601767097,
                -0.8018032868539845,
                0.3591998137228749,
                -2.7156712470247273
            ]
        },
        {
            "positions": [
                -0.07545000303529376,
                -1.14015723826027,
                1.9799341414415337,
                -0.7622340601327529,
                0.2986296234191681,
                -2.9073996557061434
            ]
        },
        {
            "positions": [
                0.023736219220231447,
                -1.1407872077476409,
                1.9788407658730183,
                -0.7881496628752934,
                0.2099001269970364,
                -3.0351674678012257
            ]
        },
        {
            "positions": [
                0.12292244147575664,
                -1.141417177235012,
                1.9777473903045026,
                -0.814065265617834,
                0.1211706305749047,
                -3.1629352798963084
            ]
        }
    ]
}