{
    "goal": {
        "global_pose": {
            "orientation": {
                "w": 0.5084816217422485,
                "x": -0.49083608388900757,
                "y": 0.5182115435600281,
                "z": -0.4816462993621826
            },
            "position": {
                "x": 0.5540239810943604,
                "y": 0.030875300988554955,
                "z": 0.16403168439865112
            }
        },
        "name": "move_to_storage_A"
    },
    "id": "PRMstar_move_to_storage_A_8",
    "joint_names": [
        "shoulder_pan_joint",
        "shoulder_lift_joint",
        "elbow_joint",
        "wrist_1_joint",
        "wrist_2_joint",
        "wrist_3_joint"
    ],
    "metrics": {
        "cart_traj_len": 0.35344097420777676,
        "distance_elbow_joint": 0.44820729748947974,
        "distance_shoulder_lift_joint": 0.23295803309614183,
        "distance_shoulder_pan_joint": 0.46036359947592614,
        "distance_wrist_1_joint": 0.23822041516994752,
        "distance_wrist_2_joint": 1.1063633806868065,
        "distance_wrist_3_joint": 0.09058088251843532,
        "smoothness": 4.440892098500626e-16,
        "time": 5.012018247,
        "traj_len": 1.6052082757189914,
        "weighted_distance": 2.0254478935115467
    },
    "planner": "PRMstar",
    "start": {
        "state": {
            "elbow_joint": 1.9715477243005601,
            "shoulder_lift_joint": -1.1394853015351272,
            "shoulder_pan_joint": 0.12281154014795169,
            "wrist_1_joint": -0.7804696478968182,
            "wrist_2_joint": 0.12958648046900423,
            "wrist_3_joint": -3.192491284697111
        }
    },
    "waypoints": [
        {
            "positions": [
                0.12281154014795169,
                -1.1394853015351272,
                1.9715477243005601,
                -0.7804696478968182,
                0.12958648046900423,
                -3.192491284697111
            ]
        },
        {
            "positions": [
                0.05704531165139082,
                -1.1727650205488618,
                2.0355773382276285,
                -0.8145011357782392,
                0.28763839199569086,
                -3.179551158623049
            ]
        },
        {
            "positions": [
                -0.008720916845170054,
                -1.2060447395625962,
                2.0996069521546974,
                -0.8485326236596603,
                0.4456903035223775,
                -3.1666110325489867
            ]
        },
        {
            "positions": [
                -0.07448714534173094,
                -1.2393244585763308,
                2.163636566081766,
                -0.8825641115410814,
                0.6037422150490641,
                -3.1536709064749244
            ]
        },
        {
            "positions": [
                -0.14025337383829178,
                -1.2726041775900654,
                2.227666180008834,
                -0.9165955994225025,
                0.7617941265757507,
                -3.1407307804008626
            ]
        },
        {
            "positions": [
                -0.20601960233485267,
                -1.3058838966038,
                2.2916957939359026,
                -0.9506270873039235,
                0.9198460381024375,
                -3.1277906543268004
            ]
        },
        {
            "positions": [
                -0.27178583083141356,
                -1.3391636156175344,
                2.3557254078629715,
                -0.9846585751853446,
                1.0778979496291239,
                -3.114850528252738
            ]
        },
        {
            "positions": [
                -0.33755205932797444,
                -1.372443334631269,
                2.41975502179004,
                -1.0186900630667657,
                1.2359498611558106,
                -3.101910402178676
            ]
        }
    ]
}