{
    "goal": {
        "global_pose": {
            "orientation": {
                "w": 0.5084816217422485,
                "x": -0.49083608388900757,
                "y": 0.5182115435600281,
                "z": -0.4816462993621826
            },
            "position": {
                "x": 0.5540239810943604,
                "y": 0.030875300988554955,
                "z": 0.16403168439865112
            }
        },
        "name": "move_to_storage_A"
    },
    "id": "PRMstar_move_to_storage_A_38",
    "joint_names": [
        "shoulder_pan_joint",
        "shoulder_lift_joint",
        "elbow_joint",
        "wrist_1_joint",
        "wrist_2_joint",
        "wrist_3_joint"
    ],
    "metrics": {
        "cart_traj_len": 0.35318172339598514,
        "distance_elbow_joint": 0.44915275559435885,
        "distance_shoulder_lift_joint": 0.2362448332831395,
        "distance_shoulder_pan_joint": 0.4609193244536175,
        "distance_wrist_1_joint": 0.23654816664969747,
        "distance_wrist_2_joint": 1.1037987963302096,
        "distance_wrist_3_joint": 0.08961017797251136,
        "smoothness": 4.440892098500626e-16,
        "time": 5.003047929,
        "traj_len": 1.6050775851289976,
        "weighted_distance": 2.023818512912772
    },
    "planner": "PRMstar",
    "start": {
        "state": {
            "elbow_joint": 1.9715477243005601,
            "shoulder_lift_joint": -1.1394853015351272,
            "shoulder_pan_joint": 0.12281154014795169,
            "wrist_1_joint": -0.7804696478968182,
            "wrist_2_joint": 0.12958648046900423,
            "wrist_3_joint": -3.192491284697111
        }
    },
    "waypoints": [
        {
            "positions": [
                0.12281154014795169,
                -1.1394853015351272,
                1.9715477243005601,
                -0.7804696478968182,
                0.12958648046900423,
                -3.192491284697111
            ]
        },
        {
            "positions": [
                0.056965922368863484,
                -1.1732345634327186,
                2.035712403671183,
                -0.8142622431324892,
                0.28727202280189135,
                -3.179689830701038
            ]
        },
        {
            "positions": [
                -0.008879695410224722,
                -1.2069838253303098,
                2.0998770830418056,
                -0.8480548383681603,
                0.4449575651347784,
                -3.166888376704965
            ]
        },
        {
            "positions": [
                -0.07472531318931293,
                -1.2407330872279012,
                2.1640417624124284,
                -0.8818474336038313,
                0.6026431074676655,
                -3.154086922708892
            ]
        },
        {
            "positions": [
                -0.14057093096840112,
                -1.2744823491254926,
                2.2282064417830507,
                -0.9156400288395025,
                0.7603286498005526,
                -3.141285468712819
            ]
        },
        {
            "positions": [
                -0.20641654874748938,
                -1.308231611023084,
                2.2923711211536735,
                -0.9494326240751735,
                0.9180141921334397,
                -3.128484014716746
            ]
        },
        {
            "positions": [
                -0.27226216652657753,
                -1.3419808729206752,
                2.3565358005242962,
                -0.9832252193108446,
                1.0756997344663266,
                -3.115682560720673
            ]
        },
        {
            "positions": [
                -0.3381077843056658,
                -1.3757301348182667,
                2.420700479894919,
                -1.0170178145465156,
                1.233385276799214,
                -3.1028811067246
            ]
        }
    ]
}