{
    "goal": {
        "global_pose": {
            "orientation": {
                "w": 0.7047431468963623,
                "x": -0.7094548344612122,
                "y": 0.0024358443915843964,
                "z": -0.0022348060738295317
            },
            "position": {
                "x": 0.6094750761985779,
                "y": 0.3671506643295288,
                "z": 0.19426114857196808
            }
        },
        "name": "move_to_magneteinheit_A"
    },
    "id": "PRMstar_move_to_magneteinheit_A_101",
    "joint_names": [
        "shoulder_pan_joint",
        "shoulder_lift_joint",
        "elbow_joint",
        "wrist_1_joint",
        "wrist_2_joint",
        "wrist_3_joint"
    ],
    "metrics": {
        "cart_traj_len": 3.6095516093219797,
        "distance_elbow_joint": 3.8768992607281136,
        "distance_shoulder_lift_joint": 0.5862533848665508,
        "distance_shoulder_pan_joint": 2.5771040845103923,
        "distance_wrist_1_joint": 0.8955438021670371,
        "distance_wrist_2_joint": 1.6986641463743088,
        "distance_wrist_3_joint": 3.6947091309107565,
        "smoothness": 0.0782527911069622,
        "time": 5.042191318,
        "traj_len": 3.6509141060229227,
        "weighted_distance": 4.828333047742255
    },
    "planner": "PRMstar",
    "start": {
        "state": {
            "elbow_joint": -1.919618573717145,
            "shoulder_lift_joint": -1.2443395971678275,
            "shoulder_pan_joint": 2.6996025300909787,
            "wrist_1_joint": -1.548550951253194,
            "wrist_2_joint": -1.5709469090946802,
            "wrist_3_joint": 0.4420197732051276
        }
    },
    "waypoints": [
        {
            "positions": [
                2.6996025300909787,
                -1.2443395971678275,
                -1.919618573717145,
                -1.548550951253194,
                -1.5709469090946802,
                0.4420197732051276
            ]
        },
        {
            "positions": [
                2.6003677167471335,
                -1.2303782838223636,
                -1.8270908673945065,
                -1.5247792074801847,
                -1.5184426865223424,
                0.3380188308741582
            ]
        },
        {
            "positions": [
                2.5011329034032883,
                -1.2164169704768997,
                -1.7345631610718681,
                -1.5010074637071753,
                -1.4659384639500048,
                0.23401788854318878
            ]
        },
        {
            "positions": [
                2.401898090059443,
                -1.2024556571314358,
                -1.64203545474923,
                -1.4772357199341661,
                -1.413434241377667,
                0.13001694621221938
            ]
        },
        {
            "positions": [
                2.302663276715598,
                -1.1884943437859719,
                -1.5495077484265916,
                -1.4534639761611567,
                -1.3609300188053293,
                0.02601600388124997
            ]
        },
        {
            "positions": [
                2.2034284633717527,
                -1.174533030440508,
                -1.4569800421039532,
                -1.4296922323881474,
                -1.3084257962329917,
                -0.07798493844971949
            ]
        },
        {
            "positions": [
                2.1041936500279075,
                -1.160571717095044,
                -1.3644523357813148,
                -1.4059204886151382,
                -1.255921573660654,
                -0.18198588078068884
            ]
        },
        {
            "positions": [
                2.0049588366840623,
                -1.14661040374958,
                -1.2719246294586763,
                -1.3821487448421288,
                -1.2034173510883162,
                -0.2859868231116583
            ]
        },
        {
            "positions": [
                1.905724023340217,
                -1.132649090404116,
                -1.179396923136038,
                -1.3583770010691194,
                -1.1509131285159784,
                -0.38998776544262764
            ]
        },
        {
            "positions": [
                1.8064892099963719,
                -1.118687777058652,
                -1.0868692168133998,
                -1.33460525729611,
                -1.0984089059436408,
                -0.493988707773597
            ]
        },
        {
            "positions": [
                1.7072543966525267,
                -1.1047264637131882,
                -0.9943415104907614,
                -1.3108335135231006,
                -1.045904683371303,
                -0.5979896501045665
            ]
        },
        {
            "positions": [
                1.6080195833086814,
                -1.0907651503677243,
                -0.901813804168123,
                -1.2870617697500915,
                -0.9934004607989654,
                -0.7019905924355359
            ]
        },
        {
            "positions": [
                1.5087847699648362,
                -1.0768038370222603,
                -0.8092860978454848,
                -1.263290025977082,
                -0.9408962382266277,
                -0.8059915347665052
            ]
        },
        {
            "positions": [
                1.409549956620991,
                -1.0628425236767964,
                -0.7167583915228461,
                -1.2395182822040727,
                -0.8883920156542899,
                -0.9099924770974746
            ]
        },
        {
            "positions": [
                1.3103151432771456,
                -1.0488812103313325,
                -0.6242306852002077,
                -1.2157465384310633,
                -0.8358877930819522,
                -1.0139934194284441
            ]
        },
        {
            "positions": [
                1.2110803299333006,
                -1.0349198969858686,
                -0.5317029788775696,
                -1.1919747946580541,
                -0.7833835705096146,
                -1.1179943617594132
            ]
        },
        {
            "positions": [
                1.1118455165894554,
                -1.0209585836404047,
                -0.43917527255493116,
                -1.1682030508850447,
                -0.7308793479372768,
                -1.2219953040903828
            ]
        },
        {
            "positions": [
                1.01261070324561,
                -1.0069972702949408,
                -0.34664756623229276,
                -1.1444313071120353,
                -0.678375125364939,
                -1.3259962464213524
            ]
        },
        {
            "positions": [
                0.913375889901765,
                -0.9930359569494768,
                -0.2541198599096546,
                -1.120659563339026,
                -0.6258709027926015,
                -1.4299971887523215
            ]
        },
        {
            "positions": [
                0.8141410765579198,
                -0.9790746436040129,
                -0.16159215358701617,
                -1.0968878195660166,
                -0.5733666802202637,
                -1.533998131083291
            ]
        },
        {
            "positions": [
                0.7149062632140746,
                -0.9651133302585488,
                -0.06906444726437777,
                -1.0731160757930074,
                -0.5208624576479259,
                -1.6379990734142607
            ]
        },
        {
            "positions": [
                0.6156714498702294,
                -0.9511520169130849,
                0.02346325905826041,
                -1.049344332019998,
                -0.4683582350755884,
                -1.7420000157452296
            ]
        },
        {
            "positions": [
                0.5164366365263842,
                -0.937190703567621,
                0.11599096538089904,
                -1.0255725882469888,
                -0.4158540125032506,
                -1.8460009580761993
            ]
        },
        {
            "positions": [
                0.41720182318253896,
                -0.9232293902221571,
                0.20851867170353722,
                -1.0018008444739794,
                -0.3633497899309128,
                -1.9500019004071687
            ]
        },
        {
            "positions": [
                0.31796700983869375,
                -0.9092680768766932,
                0.3010463780261754,
                -0.97802910070097,
                -0.31084556735857527,
                -2.054002842738138
            ]
        },
        {
            "positions": [
                0.21873219649484854,
                -0.8953067635312293,
                0.3935740843488138,
                -0.9542573569279607,
                -0.2583413447862374,
                -2.1580037850691074
            ]
        },
        {
            "positions": [
                0.20880079032049578,
                -0.9113873970951496,
                0.5634702961758965,
                -0.9208407439031132,
                -0.22091053436472663,
                -2.2790055289037867
            ]
        },
        {
            "positions": [
                0.19886938414614302,
                -0.9274680306590699,
                0.7333665080029792,
                -0.8874241308782659,
                -0.18347972394321588,
                -2.400007272738466
            ]
        },
        {
            "positions": [
                0.18893797797179027,
                -0.9435486642229903,
                0.9032627198300619,
                -0.8540075178534186,
                -0.14604891352170515,
                -2.521009016573146
            ]
        },
        {
            "positions": [
                0.1790065717974375,
                -0.9596292977869106,
                1.0731589316571446,
                -0.8205909048285711,
                -0.1086181031001944,
                -2.642010760407825
            ]
        },
        {
            "positions": [
                0.16907516562308472,
                -0.975709931350831,
                1.2430551434842272,
                -0.7871742918037237,
                -0.07118729267868365,
                -2.7630125042425044
            ]
        },
        {
            "positions": [
                0.15914375944873196,
                -0.9917905649147514,
                1.41295135531131,
                -0.7537576787788763,
                -0.033756482257172926,
                -2.884014248077184
            ]
        },
        {
            "positions": [
                0.1492123532743792,
                -1.0078711984786717,
                1.5828475671383928,
                -0.720341065754029,
                0.0036743281643378256,
                -3.0050159919118635
            ]
        },
        {
            "positions": [
                0.13928094710002645,
                -1.023951832042592,
                1.7527437789654754,
                -0.6869244527291816,
                0.041105138585848564,
                -3.126017735746543
            ]
        },
        {
            "positions": [
                0.13088969634030612,
                -1.0782395734018868,
                1.8550122329882224,
                -0.7038831045506939,
                0.08441118793273872,
                -3.189353546726086
            ]
        },
        {
            "positions": [
                0.12249844558058581,
                -1.1325273147611818,
                1.9572806870109691,
                -0.7208417563722062,
                0.1277172372796289,
                -3.252689357705629
            ]
        }
    ]
}{
    "goal": {
        "global_pose": {
            "orientation": {
                "w": 0.7047431468963623,
                "x": -0.7094548344612122,
                "y": 0.0024358443915843964,
                "z": -0.0022348060738295317
            },
            "position": {
                "x": 0.6094750761985779,
                "y": 0.3671506643295288,
                "z": 0.19426114857196808
            }
        },
        "name": "move_to_magneteinheit_A"
    },
    "id": "PRMstar_move_to_magneteinheit_A_101",
    "joint_names": [
        "shoulder_pan_joint",
        "shoulder_lift_joint",
        "elbow_joint",
        "wrist_1_joint",
        "wrist_2_joint",
        "wrist_3_joint"
    ],
    "metrics": {
        "cart_traj_len": 1.2162110951459169,
        "distance_elbow_joint": 0.048035401209227224,
        "distance_shoulder_lift_joint": 0.7918530942047102,
        "distance_shoulder_pan_joint": 1.2419650317574102,
        "distance_wrist_1_joint": 0.8281743524018716,
        "distance_wrist_2_joint": 1.505054829530095,
        "distance_wrist_3_joint": 4.3194768365469685,
        "smoothness": 0.3139262863751428,
        "time": 5.046026314000001,
        "traj_len": 2.955428826016672,
        "weighted_distance": 4.439227680653042
    },
    "planner": "PRMstar",
    "start": {
        "state": {
            "elbow_joint": 1.919643534880228,
            "shoulder_lift_joint": -1.8972525353963687,
            "shoulder_pan_joint": -1.1188672234189438,
            "wrist_1_joint": -1.5931878212786155,
            "wrist_2_joint": 1.5706036197970081,
            "wrist_3_joint": 1.118896926603594
        }
    },
    "waypoints": [
        {
            "positions": [
                -1.1188672234189438,
                -1.8972525353963687,
                1.919643534880228,
                -1.5931878212786155,
                1.5706036197970081,
                1.118896926603594
            ]
        },
        {
            "positions": [
                -1.0630339663553536,
                -1.8619736628952723,
                1.92155477583001,
                -1.5557004965914605,
                1.5034467431461518,
                0.925563040276518
            ]
        },
        {
            "positions": [
                -1.0072007092917634,
                -1.8266947903941761,
                1.9234660167797921,
                -1.5182131719043053,
                1.4362898664952952,
                0.7322291539494422
            ]
        },
        {
            "positions": [
                -0.9513674522281733,
                -1.7914159178930797,
                1.925377257729574,
                -1.4807258472171503,
                1.3691329898444389,
                0.5388952676223664
            ]
        },
        {
            "positions": [
                -0.8955341951645831,
                -1.7561370453919836,
                1.927288498679356,
                -1.443238522529995,
                1.3019761131935825,
                0.34556138129529046
            ]
        },
        {
            "positions": [
                -0.8397009381009929,
                -1.7208581728908872,
                1.929199739629138,
                -1.40575119784284,
                1.2348192365427262,
                0.15222749496821464
            ]
        },
        {
            "positions": [
                -0.7838676810374028,
                -1.685579300389791,
                1.93111098057892,
                -1.368263873155685,
                1.1676623598918696,
                -0.04110639135886118
            ]
        },
        {
            "positions": [
                -0.7280344239738126,
                -1.6503004278886946,
                1.9330222215287018,
                -1.3307765484685299,
                1.1005054832410133,
                -0.23444027768593712
            ]
        },
        {
            "positions": [
                -0.6722011669102224,
                -1.6150215553875982,
                1.934933462478484,
                -1.293289223781375,
                1.033348606590157,
                -0.42777416401301305
            ]
        },
        {
            "positions": [
                -0.616367909846632,
                -1.579742682886502,
                1.9368447034282659,
                -1.2558018990942197,
                0.9661917299393004,
                -0.621108050340089
            ]
        },
        {
            "positions": [
                -0.5605346527830419,
                -1.5444638103854058,
                1.9387559443780478,
                -1.2183145744070647,
                0.899034853288444,
                -0.8144419366671647
            ]
        },
        {
            "positions": [
                -0.5047013957194517,
                -1.5091849378843094,
                1.94066718532783,
                -1.1808272497199095,
                0.8318779766375876,
                -1.0077758229942406
            ]
        },
        {
            "positions": [
                -0.4488681386558616,
                -1.473906065383213,
                1.9425784262776118,
                -1.1433399250327545,
                0.7647210999867312,
                -1.2011097093213163
            ]
        },
        {
            "positions": [
                -0.3930348815922713,
                -1.4386271928821168,
                1.9444896672273937,
                -1.1058526003455995,
                0.6975642233358746,
                -1.3944435956483925
            ]
        },
        {
            "positions": [
                -0.3372016245286812,
                -1.4033483203810206,
                1.9464009081771756,
                -1.0683652756584445,
                0.6304073466850183,
                -1.5877774819754682
            ]
        },
        {
            "positions": [
                -0.281368367465091,
                -1.3680694478799242,
                1.9483121491269577,
                -1.0308779509712893,
                0.5632504700341621,
                -1.781111368302544
            ]
        },
        {
            "positions": [
                -0.22553511040150076,
                -1.3327905753788278,
                1.9502233900767396,
                -0.9933906262841342,
                0.4960935933833055,
                -1.97444525462962
            ]
        },
        {
            "positions": [
                -0.16970185333791055,
                -1.2975117028777317,
                1.9521346310265215,
                -0.9559033015969791,
                0.42893671673244915,
                -2.1677791409566955
            ]
        },
        {
            "positions": [
                -0.11386859627432022,
                -1.2622328303766353,
                1.9540458719763036,
                -0.918415976909824,
                0.3617798400815926,
                -2.361113027283772
            ]
        },
        {
            "positions": [
                -0.05803533921073023,
                -1.2269539578755388,
                1.9559571129260855,
                -0.8809286522226689,
                0.29462296343073624,
                -2.554446913610848
            ]
        },
        {
            "positions": [
                -0.0022020821471400165,
                -1.1916750853744427,
                1.9578683538758674,
                -0.8434413275355139,
                0.2274660867798799,
                -2.7477807999379236
            ]
        },
        {
            "positions": [
                0.0536311749164502,
                -1.1563962128733465,
                1.9597795948256496,
                -0.8059540028483588,
                0.16030921012902333,
                -2.9411146862649993
            ]
        },
        {
            "positions": [
                0.10946443198004041,
                -1.12111734037225,
                1.9616908357754315,
                -0.7684666781612037,
                0.09315233347816693,
                -3.134448572592075
            ]
        },
        {
            "positions": [
                0.12309780833846645,
                -1.1368352395528416,
                1.9676789360894553,
                -0.7650134688767438,
                0.12075587668942071,
                -3.2005799099433743
            ]
        }
    ]
}