{
    "goal": {
        "global_pose": {
            "orientation": {
                "w": 0.7047431468963623,
                "x": -0.7094548344612122,
                "y": 0.0024358443915843964,
                "z": -0.0022348060738295317
            },
            "position": {
                "x": 0.6094750761985779,
                "y": 0.3671506643295288,
                "z": 0.19426114857196808
            }
        },
        "name": "move_to_magneteinheit_A"
    },
    "id": "PRMstar_move_to_magneteinheit_A_143",
    "joint_names": [
        "shoulder_pan_joint",
        "shoulder_lift_joint",
        "elbow_joint",
        "wrist_1_joint",
        "wrist_2_joint",
        "wrist_3_joint"
    ],
    "metrics": {
        "cart_traj_len": 3.5983309824932537,
        "distance_elbow_joint": 3.876166042664724,
        "distance_shoulder_lift_joint": 0.14552914337703626,
        "distance_shoulder_pan_joint": 3.238099664894554,
        "distance_wrist_1_joint": 0.8291143735784787,
        "distance_wrist_2_joint": 1.6938086656101274,
        "distance_wrist_3_joint": 2.597366445237645,
        "smoothness": 0.03950603606450883,
        "time": 5.037454185,
        "traj_len": 3.5185344016170386,
        "weighted_distance": 4.483050330414155
    },
    "planner": "PRMstar",
    "start": {
        "state": {
            "elbow_joint": -1.919618573717145,
            "shoulder_lift_joint": -1.2443395971678275,
            "shoulder_pan_joint": 2.6996025300909787,
            "wrist_1_joint": -1.548550951253194,
            "wrist_2_joint": -1.5709469090946802,
            "wrist_3_joint": 0.4420197732051276
        }
    },
    "waypoints": [
        {
            "positions": [
                2.6996025300909787,
                -1.2443395971678275,
                -1.919618573717145,
                -1.548550951253194,
                -1.5709469090946802,
                0.4420197732051276
            ]
        },
        {
            "positions": [
                2.54655686349487,
                -1.2374950400848332,
                -1.816299856635793,
                -1.5291204738868651,
                -1.5222853321950194,
                0.5057826164055391
            ]
        },
        {
            "positions": [
                2.3935111968987615,
                -1.2306504830018392,
                -1.7129811395544414,
                -1.5096899965205364,
                -1.4736237552953586,
                0.5695454596059507
            ]
        },
        {
            "positions": [
                2.2404655303026524,
                -1.223805925918845,
                -1.6096624224730895,
                -1.4902595191542074,
                -1.4249621783956978,
                0.6333083028063623
            ]
        },
        {
            "positions": [
                2.0874198637065438,
                -1.2169613688358507,
                -1.5063437053917377,
                -1.4708290417878787,
                -1.3763006014960368,
                0.6970711460067739
            ]
        },
        {
            "positions": [
                1.9343741971104351,
                -1.2101168117528567,
                -1.4030249883103858,
                -1.4513985644215497,
                -1.327639024596376,
                0.7608339892071855
            ]
        },
        {
            "positions": [
                1.7813285305143263,
                -1.2032722546698624,
                -1.299706271229034,
                -1.4319680870552207,
                -1.2789774476967153,
                0.824596832407597
            ]
        },
        {
            "positions": [
                1.6282828639182176,
                -1.1964276975868682,
                -1.196387554147682,
                -1.412537609688892,
                -1.2303158707970545,
                0.8883596756080085
            ]
        },
        {
            "positions": [
                1.4752371973221088,
                -1.1895831405038741,
                -1.0930688370663304,
                -1.393107132322563,
                -1.1816542938973937,
                0.9521225188084201
            ]
        },
        {
            "positions": [
                1.3221915307260002,
                -1.18273858342088,
                -0.9897501199849785,
                -1.373676654956234,
                -1.132992716997733,
                1.0158853620088317
            ]
        },
        {
            "positions": [
                1.1691458641298913,
                -1.1758940263378856,
                -0.8864314029036267,
                -1.3542461775899053,
                -1.084331140098072,
                1.0796482052092433
            ]
        },
        {
            "positions": [
                1.0161001975337824,
                -1.1690494692548914,
                -0.7831126858222748,
                -1.3348157002235763,
                -1.0356695631984112,
                1.143411048409655
            ]
        },
        {
            "positions": [
                0.8630545309376738,
                -1.1622049121718974,
                -0.6797939687409231,
                -1.3153852228572473,
                -0.9870079862987505,
                1.2071738916100665
            ]
        },
        {
            "positions": [
                0.710008864341565,
                -1.1553603550889031,
                -0.5764752516595713,
                -1.2959547454909186,
                -0.9383464093990896,
                1.270936734810478
            ]
        },
        {
            "positions": [
                0.5569631977454566,
                -1.1485157980059089,
                -0.4731565345782194,
                -1.2765242681245896,
                -0.8896848324994289,
                1.3346995780108897
            ]
        },
        {
            "positions": [
                0.4039175311493475,
                -1.1416712409229148,
                -0.3698378174968675,
                -1.2570937907582609,
                -0.841023255599768,
                1.3984624212113013
            ]
        },
        {
            "positions": [
                0.25087186455323884,
                -1.1348266838399206,
                -0.26651910041551585,
                -1.237663313391932,
                -0.7923616787001072,
                1.4622252644117129
            ]
        },
        {
            "positions": [
                0.09782619795712977,
                -1.1279821267569263,
                -0.16320038333416398,
                -1.218232836025603,
                -0.7437001018004464,
                1.5259881076121244
            ]
        },
        {
            "positions": [
                -0.05521946863897842,
                -1.1211375696739323,
                -0.059881666252812105,
                -1.1988023586592742,
                -0.6950385249007857,
                1.589750950812536
            ]
        },
        {
            "positions": [
                -0.20826513523508752,
                -1.114293012590938,
                0.04343705082853977,
                -1.1793718812929452,
                -0.6463769480011248,
                1.6535137940129476
            ]
        },
        {
            "positions": [
                -0.19325852257501083,
                -1.115019438530397,
                0.19877356719712413,
                -1.1424007742532898,
                -0.5834261636072348,
                1.765275096712535
            ]
        },
        {
            "positions": [
                -0.17825190991493414,
                -1.1157458644698561,
                0.3541100835657085,
                -1.1054296672136346,
                -0.5204753792133447,
                1.8770363994121224
            ]
        },
        {
            "positions": [
                -0.16324529725485748,
                -1.1164722904093154,
                0.5094465999342929,
                -1.068458560173979,
                -0.4575245948194547,
                1.9887977021117098
            ]
        },
        {
            "positions": [
                -0.1482386845947808,
                -1.1171987163487744,
                0.6647831163028772,
                -1.0314874531343237,
                -0.3945738104255646,
                2.100559004811297
            ]
        },
        {
            "positions": [
                -0.1332320719347041,
                -1.1179251422882335,
                0.8201196326714616,
                -0.9945163460946683,
                -0.3316230260316746,
                2.2123203075108844
            ]
        },
        {
            "positions": [
                -0.11822545927462742,
                -1.1186515682276925,
                0.975456149040046,
                -0.957545239055013,
                -0.2686722416377846,
                2.324081610210472
            ]
        },
        {
            "positions": [
                -0.10321884661455073,
                -1.1193779941671516,
                1.1307926654086302,
                -0.9205741320153575,
                -0.20572145724389457,
                2.4358429129100596
            ]
        },
        {
            "positions": [
                -0.08821223395447404,
                -1.1201044201066108,
                1.2861291817772147,
                -0.8836030249757021,
                -0.14277067285000444,
                2.547604215609647
            ]
        },
        {
            "positions": [
                -0.07320562129439737,
                -1.1208308460460699,
                1.4414656981457992,
                -0.8466319179360469,
                -0.07981988845611443,
                2.659365518309234
            ]
        },
        {
            "positions": [
                -0.05819900863432068,
                -1.121557271985529,
                1.5968022145143834,
                -0.8096608108963914,
                -0.016869104062224374,
                2.7711268210088216
            ]
        },
        {
            "positions": [
                0.0018562823549200733,
                -1.1242967051207142,
                1.7167172993254485,
                -0.7795860664891661,
                0.029707849463666114,
                2.860546620153472
            ]
        },
        {
            "positions": [
                0.06191157334416083,
                -1.1270361382558995,
                1.8366323841365138,
                -0.7495113220819407,
                0.0762848029895566,
                2.9499664192981223
            ]
        },
        {
            "positions": [
                0.12196686433340158,
                -1.1297755713910849,
                1.9565474689475788,
                -0.7194365776747154,
                0.12286175651544712,
                3.0393862184427727
            ]
        }
    ]
}{
    "goal": {
        "global_pose": {
            "orientation": {
                "w": 0.7047431468963623,
                "x": -0.7094548344612122,
                "y": 0.0024358443915843964,
                "z": -0.0022348060738295317
            },
            "position": {
                "x": 0.6094750761985779,
                "y": 0.3671506643295288,
                "z": 0.19426114857196808
            }
        },
        "name": "move_to_magneteinheit_A"
    },
    "id": "PRMstar_move_to_magneteinheit_A_143",
    "joint_names": [
        "shoulder_pan_joint",
        "shoulder_lift_joint",
        "elbow_joint",
        "wrist_1_joint",
        "wrist_2_joint",
        "wrist_3_joint"
    ],
    "metrics": {
        "cart_traj_len": 1.2001894516110696,
        "distance_elbow_joint": 0.05456487510239816,
        "distance_shoulder_lift_joint": 0.7554722274939512,
        "distance_shoulder_pan_joint": 1.2411449648285626,
        "distance_wrist_1_joint": 0.8127720197938929,
        "distance_wrist_2_joint": 1.431791402703031,
        "distance_wrist_3_joint": 1.965481927339997,
        "smoothness": 5.747036864124084e-16,
        "time": 5.013483847,
        "traj_len": 2.502244475917937,
        "weighted_distance": 3.5265783267125586
    },
    "planner": "PRMstar",
    "start": {
        "state": {
            "elbow_joint": 1.919643534880228,
            "shoulder_lift_joint": -1.8972525353963687,
            "shoulder_pan_joint": -1.1188672234189438,
            "wrist_1_joint": -1.5931878212786155,
            "wrist_2_joint": 1.5706036197970081,
            "wrist_3_joint": 1.118896926603594
        }
    },
    "waypoints": [
        {
            "positions": [
                -1.1188672234189438,
                -1.8972525353963687,
                1.919643534880228,
                -1.5931878212786155,
                1.5706036197970081,
                1.118896926603594
            ]
        },
        {
            "positions": [
                -1.0412956631171586,
                -1.8500355211779969,
                1.923053839574128,
                -1.5423895700414971,
                1.4811166571280687,
                1.2417395470623438
            ]
        },
        {
            "positions": [
                -0.9637241028153736,
                -1.8028185069596248,
                1.926464144268028,
                -1.4915913188043788,
                1.3916296944591293,
                1.3645821675210936
            ]
        },
        {
            "positions": [
                -0.8861525425135883,
                -1.7556014927412529,
                1.9298744489619277,
                -1.4407930675672604,
                1.3021427317901897,
                1.4874247879798435
            ]
        },
        {
            "positions": [
                -0.8085809822118032,
                -1.708384478522881,
                1.9332847536558275,
                -1.3899948163301423,
                1.2126557691212505,
                1.6102674084385933
            ]
        },
        {
            "positions": [
                -0.731009421910018,
                -1.661167464304509,
                1.9366950583497275,
                -1.339196565093024,
                1.1231688064523109,
                1.7331100288973431
            ]
        },
        {
            "positions": [
                -0.6534378616082328,
                -1.613950450086137,
                1.9401053630436274,
                -1.2883983138559056,
                1.0336818437833715,
                1.8559526493560927
            ]
        },
        {
            "positions": [
                -0.5758663013064477,
                -1.5667334358677651,
                1.9435156677375274,
                -1.2376000626187873,
                0.9441948811144321,
                1.9787952698148428
            ]
        },
        {
            "positions": [
                -0.49829474100466253,
                -1.519516421649393,
                1.9469259724314272,
                -1.186801811381669,
                0.8547079184454927,
                2.1016378902735924
            ]
        },
        {
            "positions": [
                -0.4207231807028774,
                -1.4722994074310212,
                1.950336277125327,
                -1.1360035601445508,
                0.7652209557765532,
                2.2244805107323424
            ]
        },
        {
            "positions": [
                -0.34315162040109226,
                -1.4250823932126493,
                1.953746581819227,
                -1.0852053089074323,
                0.6757339931076138,
                2.347323131191092
            ]
        },
        {
            "positions": [
                -0.265580060099307,
                -1.3778653789942772,
                1.9571568865131268,
                -1.0344070576703142,
                0.5862470304386743,
                2.4701657516498416
            ]
        },
        {
            "positions": [
                -0.18800849979752188,
                -1.3306483647759053,
                1.9605671912070268,
                -0.9836088064331958,
                0.4967600677697348,
                2.5930083721085917
            ]
        },
        {
            "positions": [
                -0.11043693949573674,
                -1.2834313505575334,
                1.9639774959009266,
                -0.9328105551960775,
                0.4072731051007954,
                2.7158509925673417
            ]
        },
        {
            "positions": [
                -0.032865379193951494,
                -1.2362143363391613,
                1.9673878005948264,
                -0.8820123039589591,
                0.317786142431856,
                2.8386936130260914
            ]
        },
        {
            "positions": [
                0.04470618110783353,
                -1.1889973221207897,
                1.9707981052887265,
                -0.8312140527218409,
                0.22829917976291658,
                2.961536233484841
            ]
        },
        {
            "positions": [
                0.1222777414096188,
                -1.1417803079024176,
                1.9742084099826263,
                -0.7804158014847226,
                0.13881221709397726,
                3.084378853943591
            ]
        }
    ]
}