{
    "goal": {
        "global_pose": {
            "orientation": {
                "w": 0.7047431468963623,
                "x": -0.7094548344612122,
                "y": 0.0024358443915843964,
                "z": -0.0022348060738295317
            },
            "position": {
                "x": 0.6094750761985779,
                "y": 0.3671506643295288,
                "z": 0.19426114857196808
            }
        },
        "name": "move_to_magneteinheit_A"
    },
    "id": "PRMstar_move_to_magneteinheit_A_42",
    "joint_names": [
        "shoulder_pan_joint",
        "shoulder_lift_joint",
        "elbow_joint",
        "wrist_1_joint",
        "wrist_2_joint",
        "wrist_3_joint"
    ],
    "metrics": {
        "cart_traj_len": 3.7195740331022824,
        "distance_elbow_joint": 3.8757138820889114,
        "distance_shoulder_lift_joint": 1.253219550739664,
        "distance_shoulder_pan_joint": 2.6671395877585575,
        "distance_wrist_1_joint": 0.831620720162097,
        "distance_wrist_2_joint": 1.7131748173238595,
        "distance_wrist_3_joint": 2.5898865559597173,
        "smoothness": 0.09719381165396948,
        "time": 5.023956213,
        "traj_len": 3.5959359162856064,
        "weighted_distance": 4.544812841409226
    },
    "planner": "PRMstar",
    "start": {
        "state": {
            "elbow_joint": -1.919618573717145,
            "shoulder_lift_joint": -1.2443395971678275,
            "shoulder_pan_joint": 2.6996025300909787,
            "wrist_1_joint": -1.548550951253194,
            "wrist_2_joint": -1.5709469090946802,
            "wrist_3_joint": 0.4420197732051276
        }
    },
    "waypoints": [
        {
            "positions": [
                2.6996025300909787,
                -1.2443395971678275,
                -1.919618573717145,
                -1.548550951253194,
                -1.5709469090946802,
                0.4420197732051276
            ]
        },
        {
            "positions": [
                2.5615702407167156,
                -1.2083455613530456,
                -1.8363829584532396,
                -1.535034090839218,
                -1.4813200092415708,
                0.4665239436557819
            ]
        },
        {
            "positions": [
                2.423537951342452,
                -1.1723515255382635,
                -1.7531473431893345,
                -1.521517230425242,
                -1.3916931093884612,
                0.4910281141064362
            ]
        },
        {
            "positions": [
                2.285505661968189,
                -1.1363574897234816,
                -1.6699117279254292,
                -1.5080003700112659,
                -1.302066209535352,
                0.5155322845570905
            ]
        },
        {
            "positions": [
                2.1474733725939252,
                -1.1003634539086995,
                -1.5866761126615239,
                -1.49448350959729,
                -1.2124393096822426,
                0.5400364550077449
            ]
        },
        {
            "positions": [
                2.009441083219662,
                -1.0643694180939176,
                -1.5034404973976185,
                -1.4809666491833138,
                -1.122812409829133,
                0.5645406254583991
            ]
        },
        {
            "positions": [
                1.8714087938453987,
                -1.0283753822791355,
                -1.4202048821337134,
                -1.4674497887693378,
                -1.0331855099760237,
                0.5890447959090535
            ]
        },
        {
            "positions": [
                1.7333765044711353,
                -0.9923813464643536,
                -1.336969266869808,
                -1.4539329283553617,
                -0.9435586101229143,
                0.6135489663597078
            ]
        },
        {
            "positions": [
                1.5953442150968722,
                -0.9563873106495715,
                -1.253733651605903,
                -1.4404160679413855,
                -0.8539317102698049,
                0.6380531368103621
            ]
        },
        {
            "positions": [
                1.4573119257226088,
                -0.9203932748347896,
                -1.1704980363419977,
                -1.4268992075274096,
                -0.7643048104166955,
                0.6625573072610165
            ]
        },
        {
            "positions": [
                1.3192796363483454,
                -0.8843992390200075,
                -1.0872624210780923,
                -1.4133823471134335,
                -0.6746779105635861,
                0.6870614777116708
            ]
        },
        {
            "positions": [
                1.1812473469740818,
                -0.8484052032052256,
                -1.004026805814187,
                -1.3998654866994575,
                -0.5850510107104766,
                0.7115656481623251
            ]
        },
        {
            "positions": [
                1.0432150575998187,
                -0.8124111673904436,
                -0.9207911905502818,
                -1.3863486262854814,
                -0.49542411085736715,
                0.7360698186129794
            ]
        },
        {
            "positions": [
                0.9051827682255553,
                -0.7764171315756616,
                -0.8375555752863764,
                -1.3728317658715055,
                -0.4057972110042578,
                0.7605739890636337
            ]
        },
        {
            "positions": [
                0.7671504788512922,
                -0.7404230957608796,
                -0.7543199600224713,
                -1.3593149054575293,
                -0.31617031115114846,
                0.7850781595142879
            ]
        },
        {
            "positions": [
                0.6291181894770288,
                -0.7044290599460976,
                -0.6710843447585659,
                -1.3457980450435532,
                -0.2265434112980389,
                0.8095823299649424
            ]
        },
        {
            "positions": [
                0.49108590010276565,
                -0.6684350241313156,
                -0.5878487294946608,
                -1.3322811846295772,
                -0.13691651144492956,
                0.8340865004155966
            ]
        },
        {
            "positions": [
                0.35305361072850205,
                -0.6324409883165336,
                -0.5046131142307553,
                -1.318764324215601,
                -0.04728961159182021,
                0.858590670866251
            ]
        },
        {
            "positions": [
                0.2150213213542389,
                -0.5964469525017516,
                -0.4213774989668502,
                -1.3052474638016252,
                0.04233728826128913,
                0.8830948413169053
            ]
        },
        {
            "positions": [
                0.07698903197997538,
                -0.5604529166869696,
                -0.3381418837029449,
                -1.291730603387649,
                0.13196418811439872,
                0.9075990117675596
            ]
        },
        {
            "positions": [
                0.07995743795647904,
                -0.59840844137089,
                -0.18519273756463084,
                -1.2534105785678789,
                0.13127994010674673,
                1.0492194995940454
            ]
        },
        {
            "positions": [
                0.0829258439329827,
                -0.6363639660548104,
                -0.032243591426316776,
                -1.2150905537481087,
                0.13059569209909472,
                1.190839987420531
            ]
        },
        {
            "positions": [
                0.08589424990948637,
                -0.6743194907387309,
                0.12070555471199734,
                -1.1767705289283386,
                0.12991144409144273,
                1.3324604752470166
            ]
        },
        {
            "positions": [
                0.08886265588599003,
                -0.7122750154226513,
                0.27365470085031135,
                -1.1384505041085684,
                0.12922719608379074,
                1.4740809630735023
            ]
        },
        {
            "positions": [
                0.09183106186249369,
                -0.7502305401065716,
                0.42660384698862547,
                -1.1001304792887985,
                0.12854294807613872,
                1.615701450899988
            ]
        },
        {
            "positions": [
                0.09479946783899736,
                -0.788186064790492,
                0.5795529931269396,
                -1.061810454469028,
                0.12785870006848674,
                1.7573219387264738
            ]
        },
        {
            "positions": [
                0.09776787381550102,
                -0.8261415894744124,
                0.7325021392652538,
                -1.0234904296492582,
                0.12717445206083472,
                1.8989424265529595
            ]
        },
        {
            "positions": [
                0.10073627979200468,
                -0.8640971141583329,
                0.8854512854035677,
                -0.985170404829488,
                0.12649020405318273,
                2.040562914379445
            ]
        },
        {
            "positions": [
                0.10370468576850835,
                -0.9020526388422532,
                1.0384004315418818,
                -0.9468503800097179,
                0.12580595604553074,
                2.182183402205931
            ]
        },
        {
            "positions": [
                0.10667309174501201,
                -0.9400081635261737,
                1.191349577680196,
                -0.9085303551899477,
                0.12512170803787873,
                2.3238038900324165
            ]
        },
        {
            "positions": [
                0.10964149772151567,
                -0.977963688210094,
                1.3442987238185098,
                -0.8702103303701776,
                0.12443746003022674,
                2.465424377858902
            ]
        },
        {
            "positions": [
                0.11260990369801933,
                -1.0159192128940144,
                1.4972478699568241,
                -0.8318903055504074,
                0.12375321202257474,
                2.607044865685388
            ]
        },
        {
            "positions": [
                0.115578309674523,
                -1.053874737577935,
                1.6501970160951382,
                -0.7935702807306373,
                0.12306896401492273,
                2.748665353511874
            ]
        },
        {
            "positions": [
                0.11854671565102666,
                -1.0918302622618552,
                1.8031461622334524,
                -0.7552502559108673,
                0.12238471600727074,
                2.8902858413383594
            ]
        },
        {
            "positions": [
                0.12151512162753032,
                -1.1297857869457757,
                1.956095308371766,
                -0.7169302310910971,
                0.12170046799961874,
                3.031906329164845
            ]
        }
    ]
}{
    "goal": {
        "global_pose": {
            "orientation": {
                "w": 0.7047431468963623,
                "x": -0.7094548344612122,
                "y": 0.0024358443915843964,
                "z": -0.0022348060738295317
            },
            "position": {
                "x": 0.6094750761985779,
                "y": 0.3671506643295288,
                "z": 0.19426114857196808
            }
        },
        "name": "move_to_magneteinheit_A"
    },
    "id": "PRMstar_move_to_magneteinheit_A_42",
    "joint_names": [
        "shoulder_pan_joint",
        "shoulder_lift_joint",
        "elbow_joint",
        "wrist_1_joint",
        "wrist_2_joint",
        "wrist_3_joint"
    ],
    "metrics": {
        "cart_traj_len": 1.1439840647905275,
        "distance_elbow_joint": 0.5416060986765936,
        "distance_shoulder_lift_joint": 0.7525820501663101,
        "distance_shoulder_pan_joint": 1.2412782885923128,
        "distance_wrist_1_joint": 1.2836296358008612,
        "distance_wrist_2_joint": 1.4450555612004583,
        "distance_wrist_3_joint": 4.259078223523356,
        "smoothness": 0.17826235633618148,
        "time": 5.036153038999999,
        "traj_len": 3.0859730812111588,
        "weighted_distance": 4.55741939062096
    },
    "planner": "PRMstar",
    "start": {
        "state": {
            "elbow_joint": 1.919643534880228,
            "shoulder_lift_joint": -1.8972525353963687,
            "shoulder_pan_joint": -1.1188672234189438,
            "wrist_1_joint": -1.5931878212786155,
            "wrist_2_joint": 1.5706036197970081,
            "wrist_3_joint": 1.118896926603594
        }
    },
    "waypoints": [
        {
            "positions": [
                -1.1188672234189438,
                -1.8972525353963687,
                1.919643534880228,
                -1.5931878212786155,
                1.5706036197970081,
                1.118896926603594
            ]
        },
        {
            "positions": [
                -1.069524077044349,
                -1.8755089616218683,
                1.936446466519822,
                -1.5363961391040375,
                1.5240792365225995,
                0.9318560849831079
            ]
        },
        {
            "positions": [
                -1.0201809306697545,
                -1.8537653878473677,
                1.9532493981594161,
                -1.4796044569294597,
                1.4775548532481908,
                0.7448152433626217
            ]
        },
        {
            "positions": [
                -0.9708377842951597,
                -1.832021814072867,
                1.97005232979901,
                -1.4228127747548818,
                1.4310304699737821,
                0.5577744017421356
            ]
        },
        {
            "positions": [
                -0.9214946379205649,
                -1.8102782402983666,
                1.986855261438604,
                -1.3660210925803038,
                1.3845060866993735,
                0.3707335601216495
            ]
        },
        {
            "positions": [
                -0.87215149154597,
                -1.7885346665238662,
                2.003658193078198,
                -1.3092294104057258,
                1.337981703424965,
                0.1836927185011632
            ]
        },
        {
            "positions": [
                -0.8228083451713754,
                -1.7667910927493655,
                2.0204611247177917,
                -1.252437728231148,
                1.2914573201505564,
                -0.0033481231193228655
            ]
        },
        {
            "positions": [
                -0.7734651987967806,
                -1.7450475189748649,
                2.037264056357386,
                -1.19564604605657,
                1.2449329368761477,
                -0.19038896473980893
            ]
        },
        {
            "positions": [
                -0.7241220524221859,
                -1.7233039452003645,
                2.05406698799698,
                -1.1388543638819921,
                1.198408553601739,
                -0.377429806360295
            ]
        },
        {
            "positions": [
                -0.674778906047591,
                -1.701560371425864,
                2.0708699196365736,
                -1.0820626817074142,
                1.1518841703273304,
                -0.5644706479807813
            ]
        },
        {
            "positions": [
                -0.6254357596729962,
                -1.6798167976513634,
                2.0876728512761678,
                -1.0252709995328364,
                1.1053597870529217,
                -0.7515114896012676
            ]
        },
        {
            "positions": [
                -0.5760926132984014,
                -1.6580732238768627,
                2.104475782915762,
                -0.9684793173582584,
                1.058835403778513,
                -0.9385523312217539
            ]
        },
        {
            "positions": [
                -0.5267494669238069,
                -1.6363296501023623,
                2.1212787145553555,
                -0.9116876351836806,
                1.0123110205041046,
                -1.1255931728422397
            ]
        },
        {
            "positions": [
                -0.47740632054921206,
                -1.6145860763278619,
                2.1380816461949497,
                -0.8548959530091026,
                0.9657866372296958,
                -1.312634014462726
            ]
        },
        {
            "positions": [
                -0.42806317417461726,
                -1.5928425025533612,
                2.1548845778345433,
                -0.7981042708345247,
                0.9192622539552872,
                -1.4996748560832118
            ]
        },
        {
            "positions": [
                -0.37872002780002245,
                -1.5710989287788606,
                2.1716875094741375,
                -0.7413125886599468,
                0.8727378706808785,
                -1.6867156977036981
            ]
        },
        {
            "positions": [
                -0.32937688142542787,
                -1.5493553550043602,
                2.1884904411137316,
                -0.6845209064853689,
                0.8262134874064699,
                -1.873756539324184
            ]
        },
        {
            "positions": [
                -0.28003373505083307,
                -1.5276117812298597,
                2.2052933727533253,
                -0.627729224310791,
                0.7796891041320613,
                -2.0607973809446705
            ]
        },
        {
            "positions": [
                -0.23069058867623826,
                -1.505868207455359,
                2.2220963043929194,
                -0.5709375421362131,
                0.7331647208576526,
                -2.2478382225651563
            ]
        },
        {
            "positions": [
                -0.18024749526915154,
                -1.4542685328517448,
                2.1879315430837907,
                -0.6082774502302787,
                0.6463623405346379,
                -2.375315804615814
            ]
        },
        {
            "positions": [
                -0.12980440186206482,
                -1.4026688582481304,
                2.1537667817746615,
                -0.6456173583243442,
                0.5595599602116232,
                -2.502793386666472
            ]
        },
        {
            "positions": [
                -0.07936130845497807,
                -1.3510691836445161,
                2.119602020465533,
                -0.6829572664184098,
                0.4727575798886085,
                -2.63027096871713
            ]
        },
        {
            "positions": [
                -0.028918215047891355,
                -1.2994695090409016,
                2.0854372591564037,
                -0.7202971745124754,
                0.38595519956559377,
                -2.757748550767788
            ]
        },
        {
            "positions": [
                0.02152487835919542,
                -1.2478698344372874,
                2.051272497847275,
                -0.7576370826065411,
                0.299152819242579,
                -2.885226132818446
            ]
        },
        {
            "positions": [
                0.07196797176628211,
                -1.1962701598336731,
                2.017107736538146,
                -0.7949769907006066,
                0.2123504389195644,
                -3.0127037148691036
            ]
        },
        {
            "positions": [
                0.12241106517336885,
                -1.1446704852300587,
                1.982942975229017,
                -0.8323168987946722,
                0.12554805859654963,
                -3.1401812969197618
            ]
        }
    ]
}