{
    "goal": {
        "global_pose": {
            "orientation": {
                "w": 0.5084816217422485,
                "x": -0.49083608388900757,
                "y": 0.5182115435600281,
                "z": -0.4816462993621826
            },
            "position": {
                "x": 0.5540239810943604,
                "y": 0.030875300988554955,
                "z": 0.16403168439865112
            }
        },
        "name": "move_to_storage_A"
    },
    "id": "PRMstar_move_to_storage_A_135",
    "joint_names": [
        "shoulder_pan_joint",
        "shoulder_lift_joint",
        "elbow_joint",
        "wrist_1_joint",
        "wrist_2_joint",
        "wrist_3_joint"
    ],
    "metrics": {
        "cart_traj_len": 0.3533769970263121,
        "distance_elbow_joint": 0.44882145308454113,
        "distance_shoulder_lift_joint": 0.23396587808906344,
        "distance_shoulder_pan_joint": 0.4595526219502525,
        "distance_wrist_1_joint": 0.23839598622271596,
        "distance_wrist_2_joint": 1.1100307846977095,
        "distance_wrist_3_joint": 0.09594152181682336,
        "smoothness": 4.440892098500626e-16,
        "time": 5.0143438730000005,
        "traj_len": 1.6083246705379812,
        "weighted_distance": 2.031506352541182
    },
    "planner": "PRMstar",
    "start": {
        "state": {
            "elbow_joint": 1.9715477243005601,
            "shoulder_lift_joint": -1.1394853015351272,
            "shoulder_pan_joint": 0.12281154014795169,
            "wrist_1_joint": -0.7804696478968182,
            "wrist_2_joint": 0.12958648046900423,
            "wrist_3_joint": -3.192491284697111
        }
    },
    "waypoints": [
        {
            "positions": [
                0.12281154014795169,
                -1.1394853015351272,
                1.9715477243005601,
                -0.7804696478968182,
                0.12958648046900423,
                -3.192491284697111
            ]
        },
        {
            "positions": [
                0.05716116558362991,
                -1.1729089984049934,
                2.035665074741209,
                -0.8145262173572062,
                0.28816230685439126,
                -3.1787853530089936
            ]
        },
        {
            "positions": [
                -0.008489208980691873,
                -1.2063326952748596,
                2.0997824251818575,
                -0.8485827868175941,
                0.44673813323977835,
                -3.165079421320876
            ]
        },
        {
            "positions": [
                -0.07413958354501364,
                -1.2397563921447259,
                2.1638997756225065,
                -0.8826393562779822,
                0.6053139596251654,
                -3.1513734896327583
            ]
        },
        {
            "positions": [
                -0.13978995810933542,
                -1.273180089014592,
                2.228017126063155,
                -0.9166959257383701,
                0.7638897860105525,
                -3.1376675579446407
            ]
        },
        {
            "positions": [
                -0.20544033267365724,
                -1.3066037858844581,
                2.292134476503804,
                -0.9507524951987582,
                0.9224656123959396,
                -3.123961626256523
            ]
        },
        {
            "positions": [
                -0.27109070723797896,
                -1.3400274827543244,
                2.3562518269444523,
                -0.9848090646591461,
                1.0810414387813267,
                -3.1102556945684054
            ]
        },
        {
            "positions": [
                -0.3367410818023008,
                -1.3734511796241906,
                2.4203691773851013,
                -1.0188656341195341,
                1.2396172651667137,
                -3.096549762880288
            ]
        }
    ]
}