{
    "goal": {
        "global_pose": {
            "orientation": {
                "w": 0.5084816217422485,
                "x": -0.49083608388900757,
                "y": 0.5182115435600281,
                "z": -0.4816462993621826
            },
            "position": {
                "x": 0.5540239810943604,
                "y": 0.030875300988554955,
                "z": 0.16403168439865112
            }
        },
        "name": "move_to_storage_A"
    },
    "id": "PRMstar_move_to_storage_A_25",
    "joint_names": [
        "shoulder_pan_joint",
        "shoulder_lift_joint",
        "elbow_joint",
        "wrist_1_joint",
        "wrist_2_joint",
        "wrist_3_joint"
    ],
    "metrics": {
        "cart_traj_len": 0.3526840636648157,
        "distance_elbow_joint": 0.44812727171412226,
        "distance_shoulder_lift_joint": 0.23477001904888484,
        "distance_shoulder_pan_joint": 0.4619641101681861,
        "distance_wrist_1_joint": 0.2350273952531735,
        "distance_wrist_2_joint": 1.0946505189109028,
        "distance_wrist_3_joint": 0.08969110623379839,
        "smoothness": 0.0,
        "time": 5.003108611,
        "traj_len": 1.6013214609593753,
        "weighted_distance": 2.018239467446998
    },
    "planner": "PRMstar",
    "start": {
        "state": {
            "elbow_joint": 1.9715477243005601,
            "shoulder_lift_joint": -1.1394853015351272,
            "shoulder_pan_joint": 0.12281154014795169,
            "wrist_1_joint": -0.7804696478968182,
            "wrist_2_joint": 0.12958648046900423,
            "wrist_3_joint": -3.192491284697111
        }
    },
    "waypoints": [
        {
            "positions": [
                0.12281154014795169,
                -1.1394853015351272,
                1.9715477243005601,
                -0.7804696478968182,
                0.12958648046900423,
                -3.192491284697111
            ]
        },
        {
            "positions": [
                0.05681666726678225,
                -1.1730238756849678,
                2.035565905974006,
                -0.814044990075843,
                0.28596512602770463,
                -3.179678269520854
            ]
        },
        {
            "positions": [
                -0.009178205614387189,
                -1.2065624498348086,
                2.099584087647452,
                -0.8476203322548678,
                0.44234377158640503,
                -3.1668652543445974
            ]
        },
        {
            "positions": [
                -0.07517307849555664,
                -1.2401010239846493,
                2.163602269320898,
                -0.8811956744338925,
                0.5987224171451054,
                -3.1540522391683403
            ]
        },
        {
            "positions": [
                -0.14116795137672605,
                -1.27363959813449,
                2.227620450994344,
                -0.9147710166129173,
                0.7551010627038058,
                -3.1412392239920837
            ]
        },
        {
            "positions": [
                -0.2071628242578955,
                -1.3071781722843308,
                2.2916386326677904,
                -0.9483463587919421,
                0.9114797082625062,
                -3.1284262088158266
            ]
        },
        {
            "positions": [
                -0.27315769713906496,
                -1.3407167464341714,
                2.3556568143412364,
                -0.9819217009709669,
                1.0678583538212068,
                -3.11561319363957
            ]
        },
        {
            "positions": [
                -0.3391525700202344,
                -1.374255320584012,
                2.4196749960146824,
                -1.0154970431499917,
                1.224236999379907,
                -3.102800178463313
            ]
        }
    ]
}