{
    "goal": {
        "global_pose": {
            "orientation": {
                "w": 0.5084816217422485,
                "x": -0.49083608388900757,
                "y": 0.5182115435600281,
                "z": -0.4816462993621826
            },
            "position": {
                "x": 0.5540239810943604,
                "y": 0.030875300988554955,
                "z": 0.16403168439865112
            }
        },
        "name": "move_to_storage_A"
    },
    "id": "PRMstar_move_to_storage_A_5",
    "joint_names": [
        "shoulder_pan_joint",
        "shoulder_lift_joint",
        "elbow_joint",
        "wrist_1_joint",
        "wrist_2_joint",
        "wrist_3_joint"
    ],
    "metrics": {
        "cart_traj_len": 0.35325449703508527,
        "distance_elbow_joint": 0.44928882610651844,
        "distance_shoulder_lift_joint": 0.23327516238078294,
        "distance_shoulder_pan_joint": 0.4627190472612302,
        "distance_wrist_1_joint": 0.23814393032877568,
        "distance_wrist_2_joint": 1.095464098618209,
        "distance_wrist_3_joint": 0.08657015411511848,
        "smoothness": 0.0,
        "time": 5.007811545,
        "traj_len": 1.601705721663825,
        "weighted_distance": 2.0179716439999487
    },
    "planner": "PRMstar",
    "start": {
        "state": {
            "elbow_joint": 1.9715477243005601,
            "shoulder_lift_joint": -1.1394853015351272,
            "shoulder_pan_joint": 0.12281154014795169,
            "wrist_1_joint": -0.7804696478968182,
            "wrist_2_joint": 0.12958648046900423,
            "wrist_3_joint": -3.192491284697111
        }
    },
    "waypoints": [
        {
            "positions": [
                0.12281154014795169,
                -1.1394853015351272,
                1.9715477243005601,
                -0.7804696478968182,
                0.12958648046900423,
                -3.192491284697111
            ]
        },
        {
            "positions": [
                0.056708819110633094,
                -1.1728103247323818,
                2.035731842315777,
                -0.8144902093723575,
                0.2860813517001769,
                -3.180124119823523
            ]
        },
        {
            "positions": [
                -0.009393901926685502,
                -1.2061353479296366,
                2.099915960330994,
                -0.848510770847897,
                0.4425762229313496,
                -3.1677569549499345
            ]
        },
        {
            "positions": [
                -0.0754966229640041,
                -1.2394603711268912,
                2.1641000783462108,
                -0.8825313323234363,
                0.5990710941625224,
                -3.155389790076346
            ]
        },
        {
            "positions": [
                -0.14159934400132268,
                -1.272785394324146,
                2.228284196361428,
                -0.9165518937989757,
                0.755565965393695,
                -3.1430226252027578
            ]
        },
        {
            "positions": [
                -0.2077020650386413,
                -1.3061104175214007,
                2.2924683143766447,
                -0.9505724552745151,
                0.9120608366248678,
                -3.1306554603291694
            ]
        },
        {
            "positions": [
                -0.27380478607595987,
                -1.3394354407186553,
                2.3566524323918614,
                -0.9845930167500545,
                1.0685557078560404,
                -3.118288295455581
            ]
        },
        {
            "positions": [
                -0.3399075071132785,
                -1.3727604639159101,
                2.4208365504070786,
                -1.0186135782255938,
                1.225050579087213,
                -3.1059211305819927
            ]
        }
    ]
}