{
    "goal": {
        "global_pose": {
            "orientation": {
                "w": 0.5084816217422485,
                "x": -0.49083608388900757,
                "y": 0.5182115435600281,
                "z": -0.4816462993621826
            },
            "position": {
                "x": 0.5540239810943604,
                "y": 0.030875300988554955,
                "z": 0.16403168439865112
            }
        },
        "name": "move_to_storage_A"
    },
    "id": "ProjEST_move_to_storage_A_122",
    "joint_names": [
        "shoulder_pan_joint",
        "shoulder_lift_joint",
        "elbow_joint",
        "wrist_1_joint",
        "wrist_2_joint",
        "wrist_3_joint"
    ],
    "metrics": {
        "cart_traj_len": 0.3535009643723699,
        "distance_elbow_joint": 0.4548462982456556,
        "distance_shoulder_lift_joint": 0.2351883597344797,
        "distance_shoulder_pan_joint": 0.46360588885217463,
        "distance_wrist_1_joint": 0.2614223454917678,
        "distance_wrist_2_joint": 1.0947308551765778,
        "distance_wrist_3_joint": 0.09273072732291121,
        "smoothness": 8.881784197001252e-16,
        "time": 0.15359224800000001,
        "traj_len": 1.6132341661468634,
        "weighted_distance": 2.035715876574561
    },
    "planner": "ProjEST",
    "start": {
        "state": {
            "elbow_joint": 1.9715477243005601,
            "shoulder_lift_joint": -1.1394853015351272,
            "shoulder_pan_joint": 0.12281154014795169,
            "wrist_1_joint": -0.7804696478968182,
            "wrist_2_joint": 0.12958648046900423,
            "wrist_3_joint": -3.192491284697111
        }
    },
    "waypoints": [
        {
            "positions": [
                0.12281154014795169,
                -1.1394853015351272,
                1.9715477243005601,
                -0.7804696478968182,
                0.12958648046900423,
                -3.192491284697111
            ]
        },
        {
            "positions": [
                0.05658212745478389,
                -1.173083638640053,
                2.0365257669070824,
                -0.817815697252785,
                0.2859766026370868,
                -3.1792440379366953
            ]
        },
        {
            "positions": [
                -0.009647285238383915,
                -1.2066819757449785,
                2.1015038095136047,
                -0.8551617466087518,
                0.4423667248051693,
                -3.1659967911762794
            ]
        },
        {
            "positions": [
                -0.0758766979315517,
                -1.2402803128499043,
                2.166481852120127,
                -0.8925077959647186,
                0.5987568469732518,
                -3.1527495444158635
            ]
        },
        {
            "positions": [
                -0.1421061106247195,
                -1.2738786499548298,
                2.231459894726649,
                -0.9298538453206855,
                0.7551469691413344,
                -3.1395022976554476
            ]
        },
        {
            "positions": [
                -0.20833552331788735,
                -1.3074769870597556,
                2.296437937333171,
                -0.9671998946766522,
                0.911537091309417,
                -3.1262550508950318
            ]
        },
        {
            "positions": [
                -0.2745649360110551,
                -1.3410753241646811,
                2.3614159799396934,
                -1.0045459440326192,
                1.0679272134774993,
                -3.113007804134616
            ]
        },
        {
            "positions": [
                -0.3407943487042229,
                -1.3746736612696069,
                2.4263940225462157,
                -1.041891993388586,
                1.2243173356455819,
                -3.0997605573742
            ]
        }
    ]
}