{
    "goal": {
        "global_pose": {
            "orientation": {
                "w": 0.5084816217422485,
                "x": -0.49083608388900757,
                "y": 0.5182115435600281,
                "z": -0.4816462993621826
            },
            "position": {
                "x": 0.5540239810943604,
                "y": 0.030875300988554955,
                "z": 0.16403168439865112
            }
        },
        "name": "move_to_storage_A"
    },
    "id": "ProjEST_move_to_storage_A_7",
    "joint_names": [
        "shoulder_pan_joint",
        "shoulder_lift_joint",
        "elbow_joint",
        "wrist_1_joint",
        "wrist_2_joint",
        "wrist_3_joint"
    ],
    "metrics": {
        "cart_traj_len": 0.35281056272070754,
        "distance_elbow_joint": 0.45061411982371524,
        "distance_shoulder_lift_joint": 0.23402091123490387,
        "distance_shoulder_pan_joint": 0.4606260545910805,
        "distance_wrist_1_joint": 0.24530877311269716,
        "distance_wrist_2_joint": 1.10140436235785,
        "distance_wrist_3_joint": 0.1044586067139206,
        "smoothness": 0.0,
        "time": 0.018156028,
        "traj_len": 1.6113450368664581,
        "weighted_distance": 2.037661202637121
    },
    "planner": "ProjEST",
    "start": {
        "state": {
            "elbow_joint": 1.9715477243005601,
            "shoulder_lift_joint": -1.1394853015351272,
            "shoulder_pan_joint": 0.12281154014795169,
            "wrist_1_joint": -0.7804696478968182,
            "wrist_2_joint": 0.12958648046900423,
            "wrist_3_joint": -3.192491284697111
        }
    },
    "waypoints": [
        {
            "positions": [
                0.12281154014795169,
                -1.1394853015351272,
                1.9715477243005601,
                -0.7804696478968182,
                0.12958648046900423,
                -3.192491284697111
            ]
        },
        {
            "positions": [
                0.057007818063511614,
                -1.1729168602829705,
                2.0359211699896624,
                -0.8155137583414892,
                0.28692996080583993,
                -3.1775686265951224
            ]
        },
        {
            "positions": [
                -0.00879590402092846,
                -1.206348419030814,
                2.1002946156787643,
                -0.8505578687861602,
                0.44427344114267564,
                -3.162645968493134
            ]
        },
        {
            "positions": [
                -0.07459962610536854,
                -1.2397799777786573,
                2.1646680613678666,
                -0.8856019792308312,
                0.6016169214795113,
                -3.1477233103911453
            ]
        },
        {
            "positions": [
                -0.1404033481898086,
                -1.2732115365265009,
                2.229041507056969,
                -0.9206460896755022,
                0.758960401816347,
                -3.1328006522891565
            ]
        },
        {
            "positions": [
                -0.20620707027424867,
                -1.3066430952743442,
                2.293414952746071,
                -0.9556902001201732,
                0.9163038821531828,
                -3.1178779941871677
            ]
        },
        {
            "positions": [
                -0.27201079235868875,
                -1.3400746540221875,
                2.357788398435173,
                -0.9907343105648443,
                1.0736473624900185,
                -3.1029553360851794
            ]
        },
        {
            "positions": [
                -0.3378145144431288,
                -1.373506212770031,
                2.4221618441242754,
                -1.0257784210095153,
                1.2309908428268543,
                -3.0880326779831906
            ]
        }
    ]
}