{
    "goal": {
        "global_pose": {
            "orientation": {
                "w": 0.7047431468963623,
                "x": -0.7094548344612122,
                "y": 0.0024358443915843964,
                "z": -0.0022348060738295317
            },
            "position": {
                "x": 0.6094750761985779,
                "y": 0.3671506643295288,
                "z": 0.19426114857196808
            }
        },
        "name": "move_to_magneteinheit_A"
    },
    "id": "ProjEST_move_to_magneteinheit_A_139",
    "joint_names": [
        "shoulder_pan_joint",
        "shoulder_lift_joint",
        "elbow_joint",
        "wrist_1_joint",
        "wrist_2_joint",
        "wrist_3_joint"
    ],
    "metrics": {
        "cart_traj_len": 3.6016331469903893,
        "distance_elbow_joint": 3.882882277082004,
        "distance_shoulder_lift_joint": 1.915426097921011,
        "distance_shoulder_pan_joint": 3.0285970643922684,
        "distance_wrist_1_joint": 1.7901877654074654,
        "distance_wrist_2_joint": 1.8132411787207425,
        "distance_wrist_3_joint": 3.6576628338088506,
        "smoothness": 0.3145387896243049,
        "time": 0.080120125,
        "traj_len": 4.010984569570462,
        "weighted_distance": 5.196802077150742
    },
    "planner": "ProjEST",
    "start": {
        "state": {
            "elbow_joint": -1.919618573717145,
            "shoulder_lift_joint": -1.2443395971678275,
            "shoulder_pan_joint": 2.6996025300909787,
            "wrist_1_joint": -1.548550951253194,
            "wrist_2_joint": -1.5709469090946802,
            "wrist_3_joint": 0.4420197732051276
        }
    },
    "waypoints": [
        {
            "positions": [
                2.6996025300909787,
                -1.2443395971678275,
                -1.919618573717145,
                -1.548550951253194,
                -1.5709469090946802,
                0.4420197732051276
            ]
        },
        {
            "positions": [
                2.6122153643759707,
                -1.2853830811746827,
                -1.8113485927823934,
                -1.4922349497395515,
                -1.4928227709058084,
                0.42581572582263794
            ]
        },
        {
            "positions": [
                2.524828198660962,
                -1.326426565181538,
                -1.7030786118476418,
                -1.4359189482259087,
                -1.4146986327169366,
                0.4096116784401483
            ]
        },
        {
            "positions": [
                2.437441032945954,
                -1.367470049188393,
                -1.5948086309128904,
                -1.3796029467122661,
                -1.3365744945280649,
                0.3934076310576587
            ]
        },
        {
            "positions": [
                2.350053867230946,
                -1.408513533195248,
                -1.4865386499781388,
                -1.3232869451986233,
                -1.258450356339193,
                0.37720358367516904
            ]
        },
        {
            "positions": [
                2.262666701515938,
                -1.4495570172021033,
                -1.3782686690433872,
                -1.2669709436849808,
                -1.1803262181503213,
                0.3609995362926794
            ]
        },
        {
            "positions": [
                2.1752795358009296,
                -1.4906005012089585,
                -1.2699986881086356,
                -1.2106549421713382,
                -1.1022020799614496,
                0.34479548891018974
            ]
        },
        {
            "positions": [
                2.0878923700859215,
                -1.5316439852158137,
                -1.161728707173884,
                -1.1543389406576954,
                -1.0240779417725778,
                0.3285914415277001
            ]
        },
        {
            "positions": [
                2.0005052043709135,
                -1.5726874692226689,
                -1.0534587262391324,
                -1.0980229391440528,
                -0.9459538035837058,
                0.31238739414521044
            ]
        },
        {
            "positions": [
                1.9131180386559052,
                -1.613730953229524,
                -0.9451887453043809,
                -1.0417069376304102,
                -0.8678296653948341,
                0.29618334676272084
            ]
        },
        {
            "positions": [
                1.825730872940897,
                -1.6547744372363793,
                -0.8369187643696294,
                -0.9853909361167675,
                -0.7897055272059623,
                0.2799792993802312
            ]
        },
        {
            "positions": [
                1.738343707225889,
                -1.6958179212432345,
                -0.7286487834348778,
                -0.9290749346031248,
                -0.7115813890170906,
                0.26377525199774154
            ]
        },
        {
            "positions": [
                1.650956541510881,
                -1.7368614052500895,
                -0.6203788025001264,
                -0.8727589330894823,
                -0.6334572508282188,
                0.24757120461525192
            ]
        },
        {
            "positions": [
                1.5635693757958726,
                -1.777904889256945,
                -0.5121088215653746,
                -0.8164429315758395,
                -0.555333112639347,
                0.23136715723276224
            ]
        },
        {
            "positions": [
                1.4761822100808644,
                -1.8189483732637999,
                -0.40383884063062325,
                -0.7601269300621969,
                -0.4772089744504753,
                0.21516310985027262
            ]
        },
        {
            "positions": [
                1.3887950443658563,
                -1.8599918572706549,
                -0.29556885969587166,
                -0.7038109285485543,
                -0.3990848362616035,
                0.198959062467783
            ]
        },
        {
            "positions": [
                1.301407878650848,
                -1.9010353412775103,
                -0.18729887876112006,
                -0.6474949270349115,
                -0.32096069807273153,
                0.18275501508529335
            ]
        },
        {
            "positions": [
                1.21402071293584,
                -1.9420788252843653,
                -0.07902889782636846,
                -0.5911789255212689,
                -0.24283655988386,
                0.1665509677028037
            ]
        },
        {
            "positions": [
                1.1266335472208318,
                -1.9831223092912207,
                0.029241083108383137,
                -0.5348629240076261,
                -0.164712421694988,
                0.15034692032031405
            ]
        },
        {
            "positions": [
                1.0392463815058237,
                -2.0241657932980757,
                0.1375110640431345,
                -0.47854692249398356,
                -0.08658828350611625,
                0.1341428729378244
            ]
        },
        {
            "positions": [
                0.9518592157908154,
                -2.065209277304931,
                0.2457810449778861,
                -0.422230920980341,
                -0.008464145317244487,
                0.1179388255553348
            ]
        },
        {
            "positions": [
                0.8644720500758072,
                -2.106252761311786,
                0.3540510259126377,
                -0.3659149194666982,
                0.06965999287162727,
                0.10173477817284515
            ]
        },
        {
            "positions": [
                0.7770848843607993,
                -2.1472962453186413,
                0.4623210068473893,
                -0.30959891795305555,
                0.14778413106049906,
                0.08553073079035547
            ]
        },
        {
            "positions": [
                0.7281764520502929,
                -2.091674194791419,
                0.5319639329942109,
                -0.3370766669777167,
                0.14438684601643167,
                -0.08508753718827075
            ]
        },
        {
            "positions": [
                0.6792680197397865,
                -2.036052144264197,
                0.6016068591410325,
                -0.3645544160023779,
                0.1409895609723643,
                -0.255705805166897
            ]
        },
        {
            "positions": [
                0.6303595874292801,
                -1.9804300937369745,
                0.6712497852878541,
                -0.3920321650270391,
                0.13759227592829687,
                -0.42632407314552323
            ]
        },
        {
            "positions": [
                0.5814511551187738,
                -1.9248080432097523,
                0.7408927114346757,
                -0.41950991405170024,
                0.13419499088422948,
                -0.5969423411241495
            ]
        },
        {
            "positions": [
                0.5325427228082673,
                -1.86918599268253,
                0.8105356375814974,
                -0.4469876630763614,
                0.1307977058401621,
                -0.7675606091027758
            ]
        },
        {
            "positions": [
                0.48363429049776097,
                -1.8135639421553078,
                0.8801785637283188,
                -0.47446541210102255,
                0.1274004207960947,
                -0.9381788770814019
            ]
        },
        {
            "positions": [
                0.4347258581872545,
                -1.7579418916280856,
                0.9498214898751405,
                -0.5019431611256837,
                0.12400313575202732,
                -1.1087971450600282
            ]
        },
        {
            "positions": [
                0.38581742587674817,
                -1.7023198411008633,
                1.019464416021962,
                -0.5294209101503449,
                0.12060585070795993,
                -1.2794154130386544
            ]
        },
        {
            "positions": [
                0.33690899356624177,
                -1.646697790573641,
                1.0891073421687838,
                -0.5568986591750061,
                0.11720856566389252,
                -1.4500336810172807
            ]
        },
        {
            "positions": [
                0.28800056125573537,
                -1.5910757400464188,
                1.1587502683156052,
                -0.5843764081996673,
                0.11381128061982512,
                -1.620651948995907
            ]
        },
        {
            "positions": [
                0.2390921289452289,
                -1.5354536895191966,
                1.228393194462427,
                -0.6118541572243285,
                0.11041399557575773,
                -1.7912702169745334
            ]
        },
        {
            "positions": [
                0.19018369663472268,
                -1.4798316389919743,
                1.2980361206092486,
                -0.6393319062489896,
                0.10701671053169035,
                -1.9618884849531593
            ]
        },
        {
            "positions": [
                0.14127526432421622,
                -1.424209588464752,
                1.36767904675607,
                -0.6668096552736509,
                0.10361942548762296,
                -2.1325067529317856
            ]
        },
        {
            "positions": [
                0.09236683201370977,
                -1.3685875379375299,
                1.4373219729028917,
                -0.694287404298312,
                0.10022214044355557,
                -2.3031250209104117
            ]
        },
        {
            "positions": [
                0.04345839970320342,
                -1.3129654874103076,
                1.5069648990497133,
                -0.7217651533229732,
                0.09682485539948817,
                -2.473743288889038
            ]
        },
        {
            "positions": [
                -0.005450032607302924,
                -1.2573434368830854,
                1.5766078251965348,
                -0.7492429023476344,
                0.09342757035542078,
                -2.644361556867664
            ]
        },
        {
            "positions": [
                -0.05435846491780927,
                -1.2017213863558631,
                1.6462507513433564,
                -0.7767206513722955,
                0.09003028531135338,
                -2.8149798248462905
            ]
        },
        {
            "positions": [
                -0.10326689722831575,
                -1.1460993358286409,
                1.715893677490178,
                -0.8041984003969567,
                0.08663300026728599,
                -2.9855980928249166
            ]
        },
        {
            "positions": [
                -0.028024351537324937,
                -1.1423418224019086,
                1.798350352781739,
                -0.785319650509148,
                0.0977526695247364,
                -3.0622797487511852
            ]
        },
        {
            "positions": [
                0.04721819415366588,
                -1.1385843089751764,
                1.8808070280733,
                -0.7664409006213393,
                0.1088723387821868,
                -3.1389614046774543
            ]
        },
        {
            "positions": [
                0.12246073984465668,
                -1.1348267955484441,
                1.963263703364861,
                -0.7475621507335306,
                0.11999200803963721,
                -3.215643060603723
            ]
        }
    ]
}{
    "goal": {
        "global_pose": {
            "orientation": {
                "w": 0.7047431468963623,
                "x": -0.7094548344612122,
                "y": 0.0024358443915843964,
                "z": -0.0022348060738295317
            },
            "position": {
                "x": 0.6094750761985779,
                "y": 0.3671506643295288,
                "z": 0.19426114857196808
            }
        },
        "name": "move_to_magneteinheit_A"
    },
    "id": "ProjEST_move_to_magneteinheit_A_139",
    "joint_names": [
        "shoulder_pan_joint",
        "shoulder_lift_joint",
        "elbow_joint",
        "wrist_1_joint",
        "wrist_2_joint",
        "wrist_3_joint"
    ],
    "metrics": {
        "cart_traj_len": 1.0747897536354916,
        "distance_elbow_joint": 0.5660156825892382,
        "distance_shoulder_lift_joint": 1.069965504716799,
        "distance_shoulder_pan_joint": 1.2423391668185528,
        "distance_wrist_1_joint": 0.7295211626451152,
        "distance_wrist_2_joint": 1.4352853994512422,
        "distance_wrist_3_joint": 4.232800503504493,
        "smoothness": 0.11728102530010386,
        "time": 0.103124407,
        "traj_len": 3.0456407240062706,
        "weighted_distance": 4.4616515987726775
    },
    "planner": "ProjEST",
    "start": {
        "state": {
            "elbow_joint": 1.919643534880228,
            "shoulder_lift_joint": -1.8972525353963687,
            "shoulder_pan_joint": -1.1188672234189438,
            "wrist_1_joint": -1.5931878212786155,
            "wrist_2_joint": 1.5706036197970081,
            "wrist_3_joint": 1.118896926603594
        }
    },
    "waypoints": [
        {
            "positions": [
                -1.1188672234189438,
                -1.8972525353963687,
                1.919643534880228,
                -1.5931878212786155,
                1.5706036197970081,
                1.118896926603594
            ]
        },
        {
            "positions": [
                -1.0816467326533805,
                -1.909614210469505,
                1.9441498927353047,
                -1.559353377632562,
                1.4785993025190438,
                0.9300694480086438
            ]
        },
        {
            "positions": [
                -1.0444262418878172,
                -1.9219758855426414,
                1.9686562505903813,
                -1.5255189339865087,
                1.3865949852410795,
                0.7412419694136936
            ]
        },
        {
            "positions": [
                -1.0072057511222539,
                -1.9343375606157778,
                1.993162608445458,
                -1.4916844903404554,
                1.2945906679631154,
                0.5524144908187434
            ]
        },
        {
            "positions": [
                -0.9699852603566905,
                -1.9466992356889141,
                2.0176689663005343,
                -1.457850046694402,
                1.202586350685151,
                0.3635870122237932
            ]
        },
        {
            "positions": [
                -0.9327647695911273,
                -1.9590609107620505,
                2.042175324155611,
                -1.4240156030483486,
                1.1105820334071868,
                0.174759533628843
            ]
        },
        {
            "positions": [
                -0.895544278825564,
                -1.971422585835187,
                2.066681682010688,
                -1.390181159402295,
                1.0185777161292224,
                -0.014067944966107193
            ]
        },
        {
            "positions": [
                -0.8583237880600006,
                -1.9837842609083234,
                2.0911880398657643,
                -1.3563467157562417,
                0.9265733988512583,
                -0.2028954235610574
            ]
        },
        {
            "positions": [
                -0.8211032972944373,
                -1.9961459359814597,
                2.1156943977208407,
                -1.3225122721101883,
                0.8345690815732939,
                -0.3917229021560076
            ]
        },
        {
            "positions": [
                -0.7838828065288741,
                -2.008507611054596,
                2.1402007555759175,
                -1.288677828464135,
                0.7425647642953297,
                -0.5805503807509578
            ]
        },
        {
            "positions": [
                -0.7466623157633108,
                -2.0208692861277324,
                2.1647071134309943,
                -1.2548433848180816,
                0.6505604470173654,
                -0.769377859345908
            ]
        },
        {
            "positions": [
                -0.7094418249977474,
                -2.0332309612008688,
                2.1892134712860707,
                -1.2210089411720282,
                0.5585561297394013,
                -0.9582053379408582
            ]
        },
        {
            "positions": [
                -0.6722213342321841,
                -2.045592636274005,
                2.213719829141147,
                -1.1871744975259748,
                0.46655181246143673,
                -1.1470328165358084
            ]
        },
        {
            "positions": [
                -0.6350008434666208,
                -2.0579543113471415,
                2.238226186996224,
                -1.1533400538799214,
                0.3745474951834727,
                -1.3358602951307583
            ]
        },
        {
            "positions": [
                -0.5660487719333271,
                -1.9752939723684118,
                2.21573227513502,
                -1.1270061088575196,
                0.3527993792891357,
                -1.4975005934734984
            ]
        },
        {
            "positions": [
                -0.49709670040003356,
                -1.892633633389682,
                2.1932383632738164,
                -1.1006721638351176,
                0.3310512633947987,
                -1.6591408918162385
            ]
        },
        {
            "positions": [
                -0.42814462886674,
                -1.8099732944109526,
                2.170744451412612,
                -1.0743382188127157,
                0.3093031475004617,
                -1.8207811901589785
            ]
        },
        {
            "positions": [
                -0.35919255733344635,
                -1.7273129554322229,
                2.1482505395514084,
                -1.0480042737903137,
                0.2875550316061246,
                -1.9824214885017188
            ]
        },
        {
            "positions": [
                -0.29024048580015277,
                -1.6446526164534931,
                2.1257566276902047,
                -1.0216703287679119,
                0.2658069157117876,
                -2.1440617868444587
            ]
        },
        {
            "positions": [
                -0.2212884142668592,
                -1.5619922774747634,
                2.103262715829001,
                -0.9953363837455099,
                0.24405879981745063,
                -2.3057020851871988
            ]
        },
        {
            "positions": [
                -0.15233634273356556,
                -1.479331938496034,
                2.0807688039677967,
                -0.969002438723108,
                0.22231068392311362,
                -2.467342383529939
            ]
        },
        {
            "positions": [
                -0.08338427120027192,
                -1.3966715995173042,
                2.058274892106593,
                -0.942668493700706,
                0.2005625680287766,
                -2.6289826818726794
            ]
        },
        {
            "positions": [
                -0.014432199666978285,
                -1.3140112605385745,
                2.0357809802453892,
                -0.9163345486783041,
                0.17881445213443958,
                -2.7906229802154194
            ]
        },
        {
            "positions": [
                0.05451987186631524,
                -1.2313509215598448,
                2.0132870683841855,
                -0.8900006036559022,
                0.15706633624010258,
                -2.9522632785581595
            ]
        },
        {
            "positions": [
                0.12347194339960885,
                -1.1486905825811151,
                1.9907931565229815,
                -0.8636666586335002,
                0.13531822034576557,
                -3.1139035769008996
            ]
        }
    ]
}