{
    "goal": {
        "global_pose": {
            "orientation": {
                "w": 0.5084816217422485,
                "x": -0.49083608388900757,
                "y": 0.5182115435600281,
                "z": -0.4816462993621826
            },
            "position": {
                "x": 0.5540239810943604,
                "y": 0.030875300988554955,
                "z": 0.16403168439865112
            }
        },
        "name": "move_to_storage_A"
    },
    "id": "ProjEST_move_to_storage_A_44",
    "joint_names": [
        "shoulder_pan_joint",
        "shoulder_lift_joint",
        "elbow_joint",
        "wrist_1_joint",
        "wrist_2_joint",
        "wrist_3_joint"
    ],
    "metrics": {
        "cart_traj_len": 0.35308940168112884,
        "distance_elbow_joint": 0.45445902380168723,
        "distance_shoulder_lift_joint": 0.23442400904710747,
        "distance_shoulder_pan_joint": 0.4606151410988046,
        "distance_wrist_1_joint": 0.25948440611499823,
        "distance_wrist_2_joint": 1.1042736403925906,
        "distance_wrist_3_joint": 0.10900042909270091,
        "smoothness": 1.1102230263833737e-15,
        "time": 0.14804841500000002,
        "traj_len": 1.6193383369598489,
        "weighted_distance": 2.0503696140552026
    },
    "planner": "ProjEST",
    "start": {
        "state": {
            "elbow_joint": 1.9715477243005601,
            "shoulder_lift_joint": -1.1394853015351272,
            "shoulder_pan_joint": 0.12281154014795169,
            "wrist_1_joint": -0.7804696478968182,
            "wrist_2_joint": 0.12958648046900423,
            "wrist_3_joint": -3.192491284697111
        }
    },
    "waypoints": [
        {
            "positions": [
                0.12281154014795169,
                -1.1394853015351272,
                1.9715477243005601,
                -0.7804696478968182,
                0.12958648046900423,
                -3.192491284697111
            ]
        },
        {
            "positions": [
                0.05700937713383675,
                -1.172974445684714,
                2.0364704419865154,
                -0.8175388487703893,
                0.28733985766794573,
                -3.176919794826725
            ]
        },
        {
            "positions": [
                -0.008792785880278195,
                -1.2064635898343008,
                2.1013931596724706,
                -0.8546080496439605,
                0.44509323486688723,
                -3.1613483049563396
            ]
        },
        {
            "positions": [
                -0.07459494889439312,
                -1.2399527339838876,
                2.166315877358426,
                -0.8916772505175317,
                0.6028466120658287,
                -3.1457768150859535
            ]
        },
        {
            "positions": [
                -0.14039711190850807,
                -1.2734418781334742,
                2.231238595044381,
                -0.9287464513911029,
                0.7605999892647702,
                -3.130205325215568
            ]
        },
        {
            "positions": [
                -0.20619927492262302,
                -1.306931022283061,
                2.296161312730337,
                -0.965815652264674,
                0.9183533664637118,
                -3.114633835345182
            ]
        },
        {
            "positions": [
                -0.2720014379367379,
                -1.3404201664326478,
                2.361084030416292,
                -1.0028848531382453,
                1.0761067436626532,
                -3.0990623454747963
            ]
        },
        {
            "positions": [
                -0.3378036009508529,
                -1.3739093105822346,
                2.4260067481022474,
                -1.0399540540118164,
                1.2338601208615947,
                -3.0834908556044103
            ]
        }
    ]
}