{
    "goal": {
        "global_pose": {
            "orientation": {
                "w": 0.5084816217422485,
                "x": -0.49083608388900757,
                "y": 0.5182115435600281,
                "z": -0.4816462993621826
            },
            "position": {
                "x": 0.5540239810943604,
                "y": 0.030875300988554955,
                "z": 0.16403168439865112
            }
        },
        "name": "move_to_storage_A"
    },
    "id": "ProjEST_move_to_storage_A_141",
    "joint_names": [
        "shoulder_pan_joint",
        "shoulder_lift_joint",
        "elbow_joint",
        "wrist_1_joint",
        "wrist_2_joint",
        "wrist_3_joint"
    ],
    "metrics": {
        "cart_traj_len": 0.35347463776343746,
        "distance_elbow_joint": 0.45463387019191703,
        "distance_shoulder_lift_joint": 0.23336796296159368,
        "distance_shoulder_pan_joint": 0.4643992760378623,
        "distance_wrist_1_joint": 0.2595978705676193,
        "distance_wrist_2_joint": 1.0905472773985867,
        "distance_wrist_3_joint": 0.09404444007637824,
        "smoothness": 6.661338200497456e-16,
        "time": 0.036638488999999996,
        "traj_len": 1.6113940229608514,
        "weighted_distance": 2.033426842881966
    },
    "planner": "ProjEST",
    "start": {
        "state": {
            "elbow_joint": 1.9715477243005601,
            "shoulder_lift_joint": -1.1394853015351272,
            "shoulder_pan_joint": 0.12281154014795169,
            "wrist_1_joint": -0.7804696478968182,
            "wrist_2_joint": 0.12958648046900423,
            "wrist_3_joint": -3.192491284697111
        }
    },
    "waypoints": [
        {
            "positions": [
                0.12281154014795169,
                -1.1394853015351272,
                1.9715477243005601,
                -0.7804696478968182,
                0.12958648046900423,
                -3.192491284697111
            ]
        },
        {
            "positions": [
                0.056468786428257076,
                -1.172823581958212,
                2.0364954200422627,
                -0.8175550579779066,
                0.2853789486688023,
                -3.1790563646862
            ]
        },
        {
            "positions": [
                -0.009873967291437538,
                -1.2061618623812969,
                2.101443115783965,
                -0.8546404680589951,
                0.4411714168686004,
                -3.165621444675289
            ]
        },
        {
            "positions": [
                -0.07621672101113215,
                -1.2395001428043817,
                2.1663908115256674,
                -0.8917258781400835,
                0.5969638850683985,
                -3.1521865246643777
            ]
        },
        {
            "positions": [
                -0.14255947473082675,
                -1.2728384232274663,
                2.23133850726737,
                -0.9288112882211721,
                0.7527563532681966,
                -3.1387516046534665
            ]
        },
        {
            "positions": [
                -0.20890222845052137,
                -1.3061767036505512,
                2.2962862030090725,
                -0.9658966983022605,
                0.9085488214679948,
                -3.1253166846425553
            ]
        },
        {
            "positions": [
                -0.275244982170216,
                -1.339514984073636,
                2.3612338987507746,
                -1.002982108383349,
                1.0643412896677926,
                -3.111881764631644
            ]
        },
        {
            "positions": [
                -0.3415877358899106,
                -1.3728532644967208,
                2.426181594492477,
                -1.0400675184644375,
                1.2201337578675908,
                -3.098446844620733
            ]
        }
    ]
}