{
    "goal": {
        "global_pose": {
            "orientation": {
                "w": 0.5084816217422485,
                "x": -0.49083608388900757,
                "y": 0.5182115435600281,
                "z": -0.4816462993621826
            },
            "position": {
                "x": 0.5540239810943604,
                "y": 0.030875300988554955,
                "z": 0.16403168439865112
            }
        },
        "name": "move_to_storage_A"
    },
    "id": "ProjEST_move_to_storage_A_128",
    "joint_names": [
        "shoulder_pan_joint",
        "shoulder_lift_joint",
        "elbow_joint",
        "wrist_1_joint",
        "wrist_2_joint",
        "wrist_3_joint"
    ],
    "metrics": {
        "cart_traj_len": 0.3530996708287706,
        "distance_elbow_joint": 0.45084874531591,
        "distance_shoulder_lift_joint": 0.23409284243880624,
        "distance_shoulder_pan_joint": 0.463819692793527,
        "distance_wrist_1_joint": 0.2412079465794591,
        "distance_wrist_2_joint": 1.090329135154223,
        "distance_wrist_3_joint": 0.0874836895198472,
        "smoothness": 4.440892098500626e-16,
        "time": 0.014630121000000001,
        "traj_len": 1.602430045837188,
        "weighted_distance": 2.0184861933080316
    },
    "planner": "ProjEST",
    "start": {
        "state": {
            "elbow_joint": 1.9715477243005601,
            "shoulder_lift_joint": -1.1394853015351272,
            "shoulder_pan_joint": 0.12281154014795169,
            "wrist_1_joint": -0.7804696478968182,
            "wrist_2_joint": 0.12958648046900423,
            "wrist_3_joint": -3.192491284697111
        }
    },
    "waypoints": [
        {
            "positions": [
                0.12281154014795169,
                -1.1394853015351272,
                1.9715477243005601,
                -0.7804696478968182,
                0.12958648046900423,
                -3.192491284697111
            ]
        },
        {
            "positions": [
                0.05655158403459069,
                -1.1729271361692424,
                2.0359546879171186,
                -0.8149279259795981,
                0.2853477854910361,
                -3.1799936147657046
            ]
        },
        {
            "positions": [
                -0.009708372078770303,
                -1.2063689708033576,
                2.100361651533677,
                -0.8493862040623779,
                0.44110909051306796,
                -3.1674959448342976
            ]
        },
        {
            "positions": [
                -0.0759683281921313,
                -1.2398108054374728,
                2.1647686151502357,
                -0.8838444821451578,
                0.5968703955350998,
                -3.154998274902891
            ]
        },
        {
            "positions": [
                -0.14222828430549228,
                -1.2732526400715878,
                2.229175578766794,
                -0.9183027602279377,
                0.7526317005571317,
                -3.142500604971484
            ]
        },
        {
            "positions": [
                -0.20848824041885333,
                -1.306694474705703,
                2.293582542383353,
                -0.9527610383107175,
                0.9083930055791636,
                -3.1300029350400775
            ]
        },
        {
            "positions": [
                -0.2747481965322143,
                -1.3401363093398182,
                2.3579895059999116,
                -0.9872193163934974,
                1.0641543106011953,
                -3.1175052651086705
            ]
        },
        {
            "positions": [
                -0.3410081526455753,
                -1.3735781439739334,
                2.42239646961647,
                -1.0216775944762773,
                1.2199156156232271,
                -3.105007595177264
            ]
        }
    ]
}