{
    "goal": {
        "global_pose": {
            "orientation": {
                "w": 0.5084816217422485,
                "x": -0.49083608388900757,
                "y": 0.5182115435600281,
                "z": -0.4816462993621826
            },
            "position": {
                "x": 0.5540239810943604,
                "y": 0.030875300988554955,
                "z": 0.16403168439865112
            }
        },
        "name": "move_to_storage_A"
    },
    "id": "ProjEST_move_to_storage_A_130",
    "joint_names": [
        "shoulder_pan_joint",
        "shoulder_lift_joint",
        "elbow_joint",
        "wrist_1_joint",
        "wrist_2_joint",
        "wrist_3_joint"
    ],
    "metrics": {
        "cart_traj_len": 0.3535076172602325,
        "distance_elbow_joint": 0.4515185752428077,
        "distance_shoulder_lift_joint": 0.23497434321377497,
        "distance_shoulder_pan_joint": 0.4645369980232723,
        "distance_wrist_1_joint": 0.24659146975147028,
        "distance_wrist_2_joint": 1.0904196459057336,
        "distance_wrist_3_joint": 0.10214690840263341,
        "smoothness": 0.0,
        "time": 0.163110747,
        "traj_len": 1.609406083168475,
        "weighted_distance": 2.03260740749466
    },
    "planner": "ProjEST",
    "start": {
        "state": {
            "elbow_joint": 1.9715477243005601,
            "shoulder_lift_joint": -1.1394853015351272,
            "shoulder_pan_joint": 0.12281154014795169,
            "wrist_1_joint": -0.7804696478968182,
            "wrist_2_joint": 0.12958648046900423,
            "wrist_3_joint": -3.192491284697111
        }
    },
    "waypoints": [
        {
            "positions": [
                0.12281154014795169,
                -1.1394853015351272,
                1.9715477243005601,
                -0.7804696478968182,
                0.12958648046900423,
                -3.192491284697111
            ]
        },
        {
            "positions": [
                0.0564491118589128,
                -1.1730530648513808,
                2.0360503779066756,
                -0.8156970007184567,
                0.2853607155983947,
                -3.177898869211021
            ]
        },
        {
            "positions": [
                -0.009913316430126093,
                -1.2066208281676343,
                2.1005530315127907,
                -0.8509243535400954,
                0.44113495072778525,
                -3.16330645372493
            ]
        },
        {
            "positions": [
                -0.076275744719165,
                -1.240188591483888,
                2.1650556851189062,
                -0.886151706361734,
                0.5969091858571758,
                -3.1487140382388397
            ]
        },
        {
            "positions": [
                -0.14263817300820386,
                -1.2737563548001414,
                2.2295583387250217,
                -0.9213790591833726,
                0.7526834209865663,
                -3.1341216227527493
            ]
        },
        {
            "positions": [
                -0.2090006012972428,
                -1.307324118116395,
                2.2940609923311372,
                -0.9566064120050113,
                0.9084576561159569,
                -3.119529207266659
            ]
        },
        {
            "positions": [
                -0.27536302958628167,
                -1.3408918814326485,
                2.3585636459372523,
                -0.9918337648266498,
                1.0642318912453472,
                -3.104936791780568
            ]
        },
        {
            "positions": [
                -0.3417254578753206,
                -1.3744596447489021,
                2.423066299543368,
                -1.0270611176482884,
                1.220006126374738,
                -3.090344376294478
            ]
        }
    ]
}