{
    "goal": {
        "global_pose": {
            "orientation": {
                "w": 0.5084816217422485,
                "x": -0.49083608388900757,
                "y": 0.5182115435600281,
                "z": -0.4816462993621826
            },
            "position": {
                "x": 0.5540239810943604,
                "y": 0.030875300988554955,
                "z": 0.16403168439865112
            }
        },
        "name": "move_to_storage_A"
    },
    "id": "ProjEST_move_to_storage_A_96",
    "joint_names": [
        "shoulder_pan_joint",
        "shoulder_lift_joint",
        "elbow_joint",
        "wrist_1_joint",
        "wrist_2_joint",
        "wrist_3_joint"
    ],
    "metrics": {
        "cart_traj_len": 0.3531327321330647,
        "distance_elbow_joint": 0.4508848962984482,
        "distance_shoulder_lift_joint": 0.23534727139040523,
        "distance_shoulder_pan_joint": 0.4636586637023719,
        "distance_wrist_1_joint": 0.24802927783476736,
        "distance_wrist_2_joint": 1.0910315118556784,
        "distance_wrist_3_joint": 0.10627022812875175,
        "smoothness": 8.881784232165597e-16,
        "time": 0.175766009,
        "traj_len": 1.6109692266491071,
        "weighted_distance": 2.036374988836381
    },
    "planner": "ProjEST",
    "start": {
        "state": {
            "elbow_joint": 1.9715477243005601,
            "shoulder_lift_joint": -1.1394853015351272,
            "shoulder_pan_joint": 0.12281154014795169,
            "wrist_1_joint": -0.7804696478968182,
            "wrist_2_joint": 0.12958648046900423,
            "wrist_3_joint": -3.192491284697111
        }
    },
    "waypoints": [
        {
            "positions": [
                0.12281154014795169,
                -1.1394853015351272,
                1.9715477243005601,
                -0.7804696478968182,
                0.12958648046900423,
                -3.192491284697111
            ]
        },
        {
            "positions": [
                0.056574588190469996,
                -1.1731063403051851,
                2.0359598523431957,
                -0.8159024018732135,
                0.2854481250198154,
                -3.177309823535861
            ]
        },
        {
            "positions": [
                -0.009662363767011697,
                -1.2067273790752429,
                2.100371980385831,
                -0.8513351558496088,
                0.4413097695706266,
                -3.162128362374611
            ]
        },
        {
            "positions": [
                -0.07589931572449339,
                -1.2403484178453008,
                2.1647841084284667,
                -0.8867679098260042,
                0.5971714141214378,
                -3.1469469012133606
            ]
        },
        {
            "positions": [
                -0.14213626768197507,
                -1.2739694566153588,
                2.2291962364711018,
                -0.9222006638023995,
                0.753033058672249,
                -3.13176544005211
            ]
        },
        {
            "positions": [
                -0.20837321963945682,
                -1.3075904953854167,
                2.2936083645137373,
                -0.9576334177787948,
                0.9088947032230602,
                -3.11658397889086
            ]
        },
        {
            "positions": [
                -0.27461017159693846,
                -1.3412115341554744,
                2.358020492556373,
                -0.9930661717551902,
                1.0647563477738715,
                -3.1014025177296096
            ]
        },
        {
            "positions": [
                -0.3408471235544202,
                -1.3748325729255324,
                2.4224326205990083,
                -1.0284989257315855,
                1.2206179923246825,
                -3.0862210565683594
            ]
        }
    ]
}