{
    "goal": {
        "global_pose": {
            "orientation": {
                "w": 0.7047431468963623,
                "x": -0.7094548344612122,
                "y": 0.0024358443915843964,
                "z": -0.0022348060738295317
            },
            "position": {
                "x": 0.6094750761985779,
                "y": 0.3671506643295288,
                "z": 0.19426114857196808
            }
        },
        "name": "move_to_magneteinheit_A"
    },
    "id": "ProjEST_move_to_magneteinheit_A_66",
    "joint_names": [
        "shoulder_pan_joint",
        "shoulder_lift_joint",
        "elbow_joint",
        "wrist_1_joint",
        "wrist_2_joint",
        "wrist_3_joint"
    ],
    "metrics": {
        "cart_traj_len": 4.031017061636103,
        "distance_elbow_joint": 3.901803913894901,
        "distance_shoulder_lift_joint": 0.1937202263358555,
        "distance_shoulder_pan_joint": 4.363628385545898,
        "distance_wrist_1_joint": 0.7214041832696027,
        "distance_wrist_2_joint": 1.9127342898468003,
        "distance_wrist_3_joint": 4.002075618538781,
        "smoothness": 0.13534985594689558,
        "time": 0.088480173,
        "traj_len": 3.8852756166624576,
        "weighted_distance": 5.072835137043762
    },
    "planner": "ProjEST",
    "start": {
        "state": {
            "elbow_joint": -1.919618573717145,
            "shoulder_lift_joint": -1.2443395971678275,
            "shoulder_pan_joint": 2.6996025300909787,
            "wrist_1_joint": -1.548550951253194,
            "wrist_2_joint": -1.5709469090946802,
            "wrist_3_joint": 0.4420197732051276
        }
    },
    "waypoints": [
        {
            "positions": [
                2.6996025300909787,
                -1.2443395971678275,
                -1.919618573717145,
                -1.548550951253194,
                -1.5709469090946802,
                0.4420197732051276
            ]
        },
        {
            "positions": [
                2.5169639618219493,
                -1.246838657079896,
                -1.867690887237084,
                -1.5136947837124999,
                -1.4759696360997752,
                0.4530226296519549
            ]
        },
        {
            "positions": [
                2.3343253935529202,
                -1.2493377169919646,
                -1.8157632007570235,
                -1.4788386161718055,
                -1.3809923631048702,
                0.4640254860987822
            ]
        },
        {
            "positions": [
                2.1516868252838908,
                -1.251836776904033,
                -1.7638355142769626,
                -1.4439824486311112,
                -1.2860150901099652,
                0.4750283425456095
            ]
        },
        {
            "positions": [
                1.9690482570148615,
                -1.2543358368161017,
                -1.711907827796902,
                -1.4091262810904168,
                -1.1910378171150602,
                0.4860311989924368
            ]
        },
        {
            "positions": [
                1.7864096887458323,
                -1.2568348967281702,
                -1.6599801413168411,
                -1.3742701135497226,
                -1.0960605441201552,
                0.4970340554392641
            ]
        },
        {
            "positions": [
                1.603771120476803,
                -1.2593339566402388,
                -1.6080524548367805,
                -1.3394139460090284,
                -1.0010832711252502,
                0.5080369118860915
            ]
        },
        {
            "positions": [
                1.4211325522077736,
                -1.2618330165523073,
                -1.5561247683567196,
                -1.3045577784683342,
                -0.9061059981303452,
                0.5190397683329188
            ]
        },
        {
            "positions": [
                1.2384939839387443,
                -1.2643320764643757,
                -1.5041970818766588,
                -1.2697016109276398,
                -0.8111287251354402,
                0.5300426247797461
            ]
        },
        {
            "positions": [
                1.055855415669715,
                -1.2668311363764444,
                -1.4522693953965982,
                -1.2348454433869456,
                -0.7161514521405352,
                0.5410454812265734
            ]
        },
        {
            "positions": [
                0.8732168474006858,
                -1.2693301962885128,
                -1.4003417089165375,
                -1.1999892758462511,
                -0.6211741791456302,
                0.5520483376734007
            ]
        },
        {
            "positions": [
                0.6905782791316564,
                -1.2718292562005815,
                -1.3484140224364767,
                -1.165133108305557,
                -0.5261969061507252,
                0.563051194120228
            ]
        },
        {
            "positions": [
                0.5079397108626273,
                -1.27432831611265,
                -1.2964863359564158,
                -1.1302769407648627,
                -0.43121963315582024,
                0.5740540505670553
            ]
        },
        {
            "positions": [
                0.3253011425935979,
                -1.2768273760247184,
                -1.244558649476355,
                -1.0954207732241683,
                -0.33624236016091524,
                0.5850569070138826
            ]
        },
        {
            "positions": [
                0.14266257432456841,
                -1.279326435936787,
                -1.1926309629962943,
                -1.060564605683474,
                -0.24126508716601025,
                0.5960597634607099
            ]
        },
        {
            "positions": [
                -0.03997599394446105,
                -1.2818254958488555,
                -1.1407032765162337,
                -1.0257084381427797,
                -0.14628781417110526,
                0.6070626199075372
            ]
        },
        {
            "positions": [
                -0.22261456221349007,
                -1.2843245557609242,
                -1.0887755900361729,
                -0.9908522706020855,
                -0.051310541176200264,
                0.6180654763543645
            ]
        },
        {
            "positions": [
                -0.40525313048251954,
                -1.2868236156729926,
                -1.036847903556112,
                -0.9559961030613912,
                0.04366673181870473,
                0.6290683328011918
            ]
        },
        {
            "positions": [
                -0.5878916987515486,
                -1.2893226755850613,
                -0.9849202170760514,
                -0.921139935520697,
                0.13864400481360972,
                0.6400711892480191
            ]
        },
        {
            "positions": [
                -0.7705302670205778,
                -1.2918217354971298,
                -0.9329925305959905,
                -0.8862837679800026,
                0.23362127780851474,
                0.6510740456948464
            ]
        },
        {
            "positions": [
                -0.7258554875988609,
                -1.2845098310968022,
                -0.7872336370573032,
                -0.883326917980182,
                0.22821297266133447,
                0.4614229783923933
            ]
        },
        {
            "positions": [
                -0.6811807081771439,
                -1.2771979266964744,
                -0.6414747435186159,
                -0.8803700679803615,
                0.22280466751415418,
                0.2717719110899402
            ]
        },
        {
            "positions": [
                -0.636505928755427,
                -1.2698860222961468,
                -0.49571584997992857,
                -0.877413217980541,
                0.2173963623669739,
                0.08212084378748719
            ]
        },
        {
            "positions": [
                -0.5918311493337101,
                -1.2625741178958192,
                -0.34995695644124125,
                -0.8744563679807204,
                0.2119880572197936,
                -0.107530223514966
            ]
        },
        {
            "positions": [
                -0.5471563699119932,
                -1.2552622134954914,
                -0.20419806290255393,
                -0.8714995179808999,
                0.20657975207261334,
                -0.29718129081741906
            ]
        },
        {
            "positions": [
                -0.5024815904902762,
                -1.2479503090951638,
                -0.058439169363866617,
                -0.8685426679810793,
                0.20117144692543304,
                -0.486832358119872
            ]
        },
        {
            "positions": [
                -0.45780681106855936,
                -1.2406384046948362,
                0.0873197241748207,
                -0.8655858179812587,
                0.19576314177825277,
                -0.6764834254223252
            ]
        },
        {
            "positions": [
                -0.41313203164684237,
                -1.2333265002945084,
                0.23307861771350802,
                -0.8626289679814382,
                0.19035483663107247,
                -0.8661344927247784
            ]
        },
        {
            "positions": [
                -0.3684572522251255,
                -1.2260145958941808,
                0.37883751125219534,
                -0.8596721179816176,
                0.1849465314838922,
                -1.0557855600272315
            ]
        },
        {
            "positions": [
                -0.32378247280340855,
                -1.2187026914938532,
                0.5245964047908827,
                -0.8567152679817971,
                0.1795382263367119,
                -1.2454366273296844
            ]
        },
        {
            "positions": [
                -0.27910769338169156,
                -1.2113907870935254,
                0.6703552983295702,
                -0.8537584179819765,
                0.17412992118953163,
                -1.4350876946321378
            ]
        },
        {
            "positions": [
                -0.23443291395997468,
                -1.2040788826931978,
                0.8161141918682573,
                -0.8508015679821559,
                0.16872161604235136,
                -1.6247387619345903
            ]
        },
        {
            "positions": [
                -0.18975813453825774,
                -1.19676697829287,
                0.9618730854069446,
                -0.8478447179823354,
                0.16331331089517107,
                -1.8143898292370437
            ]
        },
        {
            "positions": [
                -0.1450833551165409,
                -1.1894550738925425,
                1.107631978945632,
                -0.8448878679825148,
                0.1579050057479908,
                -2.0040408965394967
            ]
        },
        {
            "positions": [
                -0.10040857569482387,
                -1.1821431694922149,
                1.2533908724843192,
                -0.8419310179826942,
                0.1524967006008105,
                -2.1936919638419496
            ]
        },
        {
            "positions": [
                -0.05573379627310693,
                -1.174831265091887,
                1.3991497660230066,
                -0.8389741679828737,
                0.14708839545363023,
                -2.383343031144403
            ]
        },
        {
            "positions": [
                -0.011059016851390102,
                -1.1675193606915595,
                1.5449086595616939,
                -0.8360173179830531,
                0.14168009030644996,
                -2.572994098446856
            ]
        },
        {
            "positions": [
                0.033615762570326835,
                -1.160207456291232,
                1.6906675531003812,
                -0.8330604679832325,
                0.13627178515926966,
                -2.7626451657493094
            ]
        },
        {
            "positions": [
                0.07829054199204377,
                -1.152895551890904,
                1.8364264466390685,
                -0.830103617983412,
                0.13086348001208936,
                -2.952296233051762
            ]
        },
        {
            "positions": [
                0.12296532141376075,
                -1.1455836474905765,
                1.9821853401777558,
                -0.8271467679835914,
                0.1254551748649091,
                -3.1419473003542153
            ]
        }
    ]
}{
    "goal": {
        "global_pose": {
            "orientation": {
                "w": 0.7047431468963623,
                "x": -0.7094548344612122,
                "y": 0.0024358443915843964,
                "z": -0.0022348060738295317
            },
            "position": {
                "x": 0.6094750761985779,
                "y": 0.3671506643295288,
                "z": 0.19426114857196808
            }
        },
        "name": "move_to_magneteinheit_A"
    },
    "id": "ProjEST_move_to_magneteinheit_A_66",
    "joint_names": [
        "shoulder_pan_joint",
        "shoulder_lift_joint",
        "elbow_joint",
        "wrist_1_joint",
        "wrist_2_joint",
        "wrist_3_joint"
    ],
    "metrics": {
        "cart_traj_len": 1.6678848681079956,
        "distance_elbow_joint": 1.482791679370041,
        "distance_shoulder_lift_joint": 0.7577174507544746,
        "distance_shoulder_pan_joint": 1.2416994112337778,
        "distance_wrist_1_joint": 1.0186520906212242,
        "distance_wrist_2_joint": 1.4507860107873438,
        "distance_wrist_3_joint": 4.287230603606288,
        "smoothness": 0.18073526168965165,
        "time": 0.09792194900000001,
        "traj_len": 3.199824564936826,
        "weighted_distance": 4.613325975366828
    },
    "planner": "ProjEST",
    "start": {
        "state": {
            "elbow_joint": 1.919643534880228,
            "shoulder_lift_joint": -1.8972525353963687,
            "shoulder_pan_joint": -1.1188672234189438,
            "wrist_1_joint": -1.5931878212786155,
            "wrist_2_joint": 1.5706036197970081,
            "wrist_3_joint": 1.118896926603594
        }
    },
    "waypoints": [
        {
            "positions": [
                -1.1188672234189438,
                -1.8972525353963687,
                1.919643534880228,
                -1.5931878212786155,
                1.5706036197970081,
                1.118896926603594
            ]
        },
        {
            "positions": [
                -1.1089314435983335,
                -1.8714698858316645,
                1.8545971180483376,
                -1.6032732985232405,
                1.4700721992446313,
                0.9640508187645067
            ]
        },
        {
            "positions": [
                -1.0989956637777234,
                -1.8456872362669605,
                1.7895507012164469,
                -1.6133587757678656,
                1.3695407786922542,
                0.8092047109254195
            ]
        },
        {
            "positions": [
                -1.089059883957113,
                -1.8199045867022563,
                1.7245042843845564,
                -1.6234442530124906,
                1.2690093581398774,
                0.6543586030863323
            ]
        },
        {
            "positions": [
                -1.0791241041365027,
                -1.794121937137552,
                1.6594578675526659,
                -1.6335297302571157,
                1.1684779375875003,
                0.49951249524724506
            ]
        },
        {
            "positions": [
                -1.0691883243158926,
                -1.768339287572848,
                1.5944114507207754,
                -1.6436152075017407,
                1.0679465170351234,
                0.3446663874081578
            ]
        },
        {
            "positions": [
                -1.0592525444952823,
                -1.7425566380081439,
                1.529365033888885,
                -1.6537006847463658,
                0.9674150964827465,
                0.18982027956907066
            ]
        },
        {
            "positions": [
                -1.0493167646746722,
                -1.7167739884434399,
                1.4643186170569942,
                -1.6637861619909908,
                0.8668836759303695,
                0.034974171729983405
            ]
        },
        {
            "positions": [
                -1.0393809848540618,
                -1.6909913388787357,
                1.3992722002251037,
                -1.6738716392356159,
                0.7663522553779926,
                -0.11987193610910385
            ]
        },
        {
            "positions": [
                -1.0294452050334515,
                -1.6652086893140314,
                1.334225783393213,
                -1.683957116480241,
                0.6658208348256155,
                -0.2747180439481913
            ]
        },
        {
            "positions": [
                -1.0195094252128414,
                -1.6394260397493274,
                1.2691793665613225,
                -1.694042593724866,
                0.5652894142732388,
                -0.42956415178727836
            ]
        },
        {
            "positions": [
                -1.009573645392231,
                -1.6136433901846232,
                1.204132949729432,
                -1.704128070969491,
                0.4647579937208617,
                -0.5844102596263656
            ]
        },
        {
            "positions": [
                -0.9387982808167895,
                -1.5840116210882027,
                1.2520880181181349,
                -1.6473960809113442,
                0.4431992196764118,
                -0.7459054732123862
            ]
        },
        {
            "positions": [
                -0.868022916241348,
                -1.554379851991782,
                1.3000430865068375,
                -1.5906640908531975,
                0.4216404456319619,
                -0.9074006867984068
            ]
        },
        {
            "positions": [
                -0.7972475516659063,
                -1.5247480828953615,
                1.3479981548955404,
                -1.5339321007950506,
                0.40008167158751207,
                -1.0688959003844274
            ]
        },
        {
            "positions": [
                -0.7264721870904648,
                -1.495116313798941,
                1.395953223284243,
                -1.477200110736904,
                0.3785228975430621,
                -1.230391113970448
            ]
        },
        {
            "positions": [
                -0.6556968225150233,
                -1.4654845447025204,
                1.443908291672946,
                -1.420468120678757,
                0.3569641234986123,
                -1.3918863275564686
            ]
        },
        {
            "positions": [
                -0.5849214579395816,
                -1.4358527756061,
                1.4918633600616489,
                -1.3637361306206104,
                0.3354053494541624,
                -1.5533815411424892
            ]
        },
        {
            "positions": [
                -0.5141460933641401,
                -1.4062210065096792,
                1.5398184284503516,
                -1.3070041405624635,
                0.3138465754097125,
                -1.7148767547285098
            ]
        },
        {
            "positions": [
                -0.44337072878869854,
                -1.3765892374132587,
                1.5877734968390544,
                -1.2502721505043168,
                0.2922878013652626,
                -1.8763719683145303
            ]
        },
        {
            "positions": [
                -0.372595364213257,
                -1.3469574683168382,
                1.6357285652277573,
                -1.19354016044617,
                0.2707290273208127,
                -2.037867181900551
            ]
        },
        {
            "positions": [
                -0.3018199996378155,
                -1.3173256992204174,
                1.68368363361646,
                -1.136808170388023,
                0.24917025327636283,
                -2.1993623954865713
            ]
        },
        {
            "positions": [
                -0.23104463506237383,
                -1.287693930123997,
                1.731638702005163,
                -1.0800761803298764,
                0.22761147923191297,
                -2.360857609072592
            ]
        },
        {
            "positions": [
                -0.1602692704869323,
                -1.2580621610275764,
                1.7795937703938658,
                -1.0233441902717297,
                0.2060527051874631,
                -2.522352822658613
            ]
        },
        {
            "positions": [
                -0.08949390591149076,
                -1.2284303919311559,
                1.8275488387825685,
                -0.9666122002135829,
                0.1844939311430132,
                -2.6838480362446333
            ]
        },
        {
            "positions": [
                -0.01871854133604911,
                -1.1987986228347354,
                1.8755039071712714,
                -0.9098802101554361,
                0.16293515709856332,
                -2.8453432498306537
            ]
        },
        {
            "positions": [
                0.052056823239392314,
                -1.1691668537383146,
                1.9234589755599742,
                -0.8531482200972893,
                0.14137638305411343,
                -3.006838463416675
            ]
        },
        {
            "positions": [
                0.12283218781483406,
                -1.1395350846418941,
                1.971414043948677,
                -0.7964162300391425,
                0.11981760900966351,
                -3.168333677002695
            ]
        }
    ]
}