{
    "goal": {
        "global_pose": {
            "orientation": {
                "w": 0.7047431468963623,
                "x": -0.7094548344612122,
                "y": 0.0024358443915843964,
                "z": -0.0022348060738295317
            },
            "position": {
                "x": 0.6094750761985779,
                "y": 0.3671506643295288,
                "z": 0.19426114857196808
            }
        },
        "name": "move_to_magneteinheit_A"
    },
    "id": "ProjEST_move_to_magneteinheit_A_142",
    "joint_names": [
        "shoulder_pan_joint",
        "shoulder_lift_joint",
        "elbow_joint",
        "wrist_1_joint",
        "wrist_2_joint",
        "wrist_3_joint"
    ],
    "metrics": {
        "cart_traj_len": 3.4373052234283987,
        "distance_elbow_joint": 3.9292992353376084,
        "distance_shoulder_lift_joint": 0.47169798518302086,
        "distance_shoulder_pan_joint": 2.6634651964766447,
        "distance_wrist_1_joint": 3.5195682270402107,
        "distance_wrist_2_joint": 2.9701771322053703,
        "distance_wrist_3_joint": 1.7127555259198857,
        "smoothness": 0.14495649472298058,
        "time": 0.209353035,
        "traj_len": 3.9072961625864426,
        "weighted_distance": 5.01818888776101
    },
    "planner": "ProjEST",
    "start": {
        "state": {
            "elbow_joint": -1.919618573717145,
            "shoulder_lift_joint": -1.2443395971678275,
            "shoulder_pan_joint": 2.6996025300909787,
            "wrist_1_joint": -1.548550951253194,
            "wrist_2_joint": -1.5709469090946802,
            "wrist_3_joint": 0.4420197732051276
        }
    },
    "waypoints": [
        {
            "positions": [
                2.6996025300909787,
                -1.2443395971678275,
                -1.919618573717145,
                -1.548550951253194,
                -1.5709469090946802,
                0.4420197732051276
            ]
        },
        {
            "positions": [
                2.6186068599652543,
                -1.2445879027804565,
                -1.8273690760177828,
                -1.473273426978801,
                -1.4751287179532413,
                0.3938557737226129
            ]
        },
        {
            "positions": [
                2.5376111898395295,
                -1.2448362083930855,
                -1.7351195783184206,
                -1.397995902704408,
                -1.3793105268118024,
                0.34569177424009817
            ]
        },
        {
            "positions": [
                2.456615519713805,
                -1.2450845140057143,
                -1.6428700806190584,
                -1.322718378430015,
                -1.2834923356703638,
                0.2975277747575834
            ]
        },
        {
            "positions": [
                2.3756198495880807,
                -1.2453328196183433,
                -1.5506205829196964,
                -1.247440854155622,
                -1.187674144528925,
                0.24936377527506873
            ]
        },
        {
            "positions": [
                2.294624179462356,
                -1.2455811252309723,
                -1.4583710852203342,
                -1.1721633298812288,
                -1.091855953387486,
                0.20119977579255402
            ]
        },
        {
            "positions": [
                2.2136285093366315,
                -1.2458294308436013,
                -1.366121587520972,
                -1.0968858056068358,
                -0.9960377622460473,
                0.15303577631003928
            ]
        },
        {
            "positions": [
                2.132632839210907,
                -1.2460777364562303,
                -1.2738720898216096,
                -1.0216082813324427,
                -0.9002195711046085,
                0.10487177682752452
            ]
        },
        {
            "positions": [
                2.0516371690851822,
                -1.2463260420688593,
                -1.1816225921222476,
                -0.9463307570580496,
                -0.8044013799631697,
                0.05670777734500987
            ]
        },
        {
            "positions": [
                1.9706414989594578,
                -1.2465743476814881,
                -1.0893730944228854,
                -0.8710532327836565,
                -0.7085831888217309,
                0.008543777862495106
            ]
        },
        {
            "positions": [
                1.8896458288337332,
                -1.2468226532941171,
                -0.9971235967235234,
                -0.7957757085092635,
                -0.6127649976802921,
                -0.03962022162001955
            ]
        },
        {
            "positions": [
                1.8086501587080086,
                -1.2470709589067461,
                -0.904874099024161,
                -0.7204981842348704,
                -0.5169468065388532,
                -0.08778422110253431
            ]
        },
        {
            "positions": [
                1.7276544885822842,
                -1.2473192645193751,
                -0.8126246013247991,
                -0.6452206599604774,
                -0.42112861539741453,
                -0.13594822058504902
            ]
        },
        {
            "positions": [
                1.6466588184565596,
                -1.2475675701320041,
                -0.7203751036254369,
                -0.5699431356860845,
                -0.32531042425597567,
                -0.18411222006756373
            ]
        },
        {
            "positions": [
                1.565663148330835,
                -1.2478158757446332,
                -0.6281256059260745,
                -0.4946656114116912,
                -0.22949223311453681,
                -0.23227621955007854
            ]
        },
        {
            "positions": [
                1.4846674782051104,
                -1.248064181357262,
                -0.5358761082267125,
                -0.41938808713729814,
                -0.13367404197309796,
                -0.28044021903259314
            ]
        },
        {
            "positions": [
                1.403671808079386,
                -1.248312486969891,
                -0.4436266105273503,
                -0.3441105628629051,
                -0.03785585083165932,
                -0.32860421851510785
            ]
        },
        {
            "positions": [
                1.3226761379536616,
                -1.24856079258252,
                -0.35137711282798834,
                -0.26883303858851226,
                0.057962340309779536,
                -0.37676821799762256
            ]
        },
        {
            "positions": [
                1.2416804678279367,
                -1.248809098195149,
                -0.2591276151286259,
                -0.193555514314119,
                0.1537805314512184,
                -0.4249322174801374
            ]
        },
        {
            "positions": [
                1.1606847977022123,
                -1.249057403807778,
                -0.16687811742926373,
                -0.11827799003972594,
                0.24959872259265725,
                -0.4730962169626521
            ]
        },
        {
            "positions": [
                1.0796891275764877,
                -1.249305709420407,
                -0.07462861972990176,
                -0.043000465765332896,
                0.3454169137340959,
                -0.5212602164451667
            ]
        },
        {
            "positions": [
                0.9986934574507633,
                -1.2495540150330358,
                0.017620877969460436,
                0.03227705850905993,
                0.44123510487553474,
                -0.5694242159276814
            ]
        },
        {
            "positions": [
                0.9176977873250385,
                -1.2498023206456648,
                0.10987037566882285,
                0.1075545827834532,
                0.5370532960169738,
                -0.6175882154101962
            ]
        },
        {
            "positions": [
                0.8367021171993142,
                -1.2500506262582938,
                0.2021198733681847,
                0.18283210705784622,
                0.6328714871584122,
                -0.6657522148927109
            ]
        },
        {
            "positions": [
                0.7476168375127765,
                -1.2083119275301872,
                0.3224497940813244,
                0.2197761890678861,
                0.621960519797075,
                -0.6178056130798548
            ]
        },
        {
            "positions": [
                0.6585315578262387,
                -1.166573228802081,
                0.4427797147944641,
                0.25672027107792594,
                0.6110495524357378,
                -0.5698590112669987
            ]
        },
        {
            "positions": [
                0.5694462781397011,
                -1.1248345300739744,
                0.5631096355076038,
                0.2936643530879658,
                0.6001385850744005,
                -0.5219124094541426
            ]
        },
        {
            "positions": [
                0.4803609984531633,
                -1.083095831345868,
                0.6834395562207436,
                0.33060843509800564,
                0.5892276177130633,
                -0.4739658076412866
            ]
        },
        {
            "positions": [
                0.3912757187666256,
                -1.0413571326177615,
                0.8037694769338833,
                0.36755251710804554,
                0.5783166503517261,
                -0.42601920582843045
            ]
        },
        {
            "positions": [
                0.3021904390800879,
                -0.9996184338896552,
                0.924099397647023,
                0.4044965991180854,
                0.5674056829903888,
                -0.3780726040155744
            ]
        },
        {
            "positions": [
                0.21310515939355018,
                -0.9578797351615487,
                1.0444293183601627,
                0.44144068112812523,
                0.5564947156290516,
                -0.3301260022027183
            ]
        },
        {
            "positions": [
                0.16438961818221404,
                -0.9219709338247385,
                1.1403731512938828,
                0.5211779465949974,
                0.5160410143273682,
                -0.28742821846051936
            ]
        },
        {
            "positions": [
                0.11567407697087792,
                -0.8860621324879283,
                1.236316984227603,
                0.6009152120618695,
                0.4755873130256846,
                -0.24473043471832046
            ]
        },
        {
            "positions": [
                0.10672690743781339,
                -0.8686805259883473,
                1.332842118553633,
                0.7538728715277585,
                0.4065891165833929,
                -0.217794702205115
            ]
        },
        {
            "positions": [
                0.09777973790474886,
                -0.8512989194887663,
                1.4293672528796628,
                0.9068305309936476,
                0.3375909201411012,
                -0.19085896969190955
            ]
        },
        {
            "positions": [
                0.08883256837168434,
                -0.8339173129891855,
                1.5258923872056926,
                1.0597881904595368,
                0.2685927236988095,
                -0.1639232371787041
            ]
        },
        {
            "positions": [
                0.07988539883861981,
                -0.8165357064896045,
                1.6224175215317227,
                1.2127458499254258,
                0.19959452725651783,
                -0.13698750466549864
            ]
        },
        {
            "positions": [
                0.08863501188347683,
                -0.8100412992248315,
                1.6998701495494706,
                1.364400135097744,
                0.1329781720464412,
                -0.12174373914653168
            ]
        },
        {
            "positions": [
                0.09738462492833386,
                -0.8035468919600584,
                1.7773227775672185,
                1.5160544202700619,
                0.06636181683636458,
                -0.10649997362756472
            ]
        },
        {
            "positions": [
                0.10613423797319088,
                -0.7970524846952853,
                1.8547754055849661,
                1.6677087054423798,
                -0.0002545383737120044,
                -0.09125620810859775
            ]
        },
        {
            "positions": [
                0.1148838510180479,
                -0.7905580774305122,
                1.932228033602714,
                1.819362990614698,
                -0.06687089358378867,
                -0.07601244258963079
            ]
        },
        {
            "positions": [
                0.12363346406290493,
                -0.7840636701657392,
                2.009680661620462,
                1.971017275787016,
                -0.13348724879386525,
                -0.06076867707066382
            ]
        }
    ]
}{
    "goal": {
        "global_pose": {
            "orientation": {
                "w": 0.7047431468963623,
                "x": -0.7094548344612122,
                "y": 0.0024358443915843964,
                "z": -0.0022348060738295317
            },
            "position": {
                "x": 0.6094750761985779,
                "y": 0.3671506643295288,
                "z": 0.19426114857196808
            }
        },
        "name": "move_to_magneteinheit_A"
    },
    "id": "ProjEST_move_to_magneteinheit_A_142",
    "joint_names": [
        "shoulder_pan_joint",
        "shoulder_lift_joint",
        "elbow_joint",
        "wrist_1_joint",
        "wrist_2_joint",
        "wrist_3_joint"
    ],
    "metrics": {
        "cart_traj_len": 2.2123101637332656,
        "distance_elbow_joint": 1.7830979535557894,
        "distance_shoulder_lift_joint": 0.756201876861665,
        "distance_shoulder_pan_joint": 2.0209039705576894,
        "distance_wrist_1_joint": 0.7852034990327419,
        "distance_wrist_2_joint": 1.4507640134054913,
        "distance_wrist_3_joint": 4.2862286419913955,
        "smoothness": 0.28666999746191835,
        "time": 0.049460932,
        "traj_len": 3.3290238742617593,
        "weighted_distance": 4.678763164750465
    },
    "planner": "ProjEST",
    "start": {
        "state": {
            "elbow_joint": 1.919643534880228,
            "shoulder_lift_joint": -1.8972525353963687,
            "shoulder_pan_joint": -1.1188672234189438,
            "wrist_1_joint": -1.5931878212786155,
            "wrist_2_joint": 1.5706036197970081,
            "wrist_3_joint": 1.118896926603594
        }
    },
    "waypoints": [
        {
            "positions": [
                -1.1188672234189438,
                -1.8972525353963687,
                1.919643534880228,
                -1.5931878212786155,
                1.5706036197970081,
                1.118896926603594
            ]
        },
        {
            "positions": [
                -1.1745638931938396,
                -1.8551876824106708,
                1.7963050079711553,
                -1.5613240448239074,
                1.5211569702511156,
                1.0467303640861354
            ]
        },
        {
            "positions": [
                -1.230260562968735,
                -1.8131228294249728,
                1.6729664810620826,
                -1.5294602683691996,
                1.4717103207052231,
                0.9745638015686767
            ]
        },
        {
            "positions": [
                -1.2859572327436308,
                -1.771057976439275,
                1.54962795415301,
                -1.4975964919144915,
                1.4222636711593308,
                0.902397239051218
            ]
        },
        {
            "positions": [
                -1.3416539025185263,
                -1.7289931234535771,
                1.4262894272439373,
                -1.4657327154597837,
                1.3728170216134383,
                0.8302306765337595
            ]
        },
        {
            "positions": [
                -1.397350572293422,
                -1.6869282704678792,
                1.3029509003348645,
                -1.4338689390050756,
                1.3233703720675458,
                0.7580641140163007
            ]
        },
        {
            "positions": [
                -1.4530472420683176,
                -1.6448634174821812,
                1.1796123734257917,
                -1.4020051625503678,
                1.2739237225216533,
                0.6858975514988421
            ]
        },
        {
            "positions": [
                -1.5087439118432133,
                -1.6027985644964833,
                1.056273846516719,
                -1.3701413860956597,
                1.2244770729757608,
                0.6137309889813835
            ]
        },
        {
            "positions": [
                -1.434606308109876,
                -1.5818100233164023,
                1.0980796767527317,
                -1.3445887922843058,
                1.1742662790401133,
                0.44186450241914776
            ]
        },
        {
            "positions": [
                -1.3604687043765387,
                -1.5608214821363215,
                1.1398855069887444,
                -1.319036198472952,
                1.124055485104466,
                0.26999801585691213
            ]
        },
        {
            "positions": [
                -1.2863311006432014,
                -1.5398329409562406,
                1.1816913372247573,
                -1.293483604661598,
                1.0738446911688184,
                0.0981315292946765
            ]
        },
        {
            "positions": [
                -1.2121934969098642,
                -1.5188443997761598,
                1.22349716746077,
                -1.267931010850244,
                1.0236338972331709,
                -0.07373495726755919
            ]
        },
        {
            "positions": [
                -1.138055893176527,
                -1.4978558585960788,
                1.2653029976967827,
                -1.24237841703889,
                0.9734231032975236,
                -0.24560144382979487
            ]
        },
        {
            "positions": [
                -1.0639182894431896,
                -1.4768673174159979,
                1.3071088279327954,
                -1.2168258232275362,
                0.923212309361876,
                -0.41746793039203045
            ]
        },
        {
            "positions": [
                -0.9897806857098523,
                -1.455878776235917,
                1.348914658168808,
                -1.1912732294161823,
                0.8730015154262286,
                -0.5893344169542661
            ]
        },
        {
            "positions": [
                -0.915643081976515,
                -1.4348902350558361,
                1.390720488404821,
                -1.1657206356048284,
                0.8227907214905812,
                -0.7612009035165018
            ]
        },
        {
            "positions": [
                -0.8415054782431778,
                -1.4139016938757554,
                1.4325263186408337,
                -1.1401680417934745,
                0.7725799275549337,
                -0.9330673900787377
            ]
        },
        {
            "positions": [
                -0.7673678745098406,
                -1.3929131526956744,
                1.4743321488768464,
                -1.1146154479821206,
                0.7223691336192862,
                -1.104933876640973
            ]
        },
        {
            "positions": [
                -0.6932302707765032,
                -1.3719246115155936,
                1.516137979112859,
                -1.0890628541707668,
                0.6721583396836388,
                -1.276800363203209
            ]
        },
        {
            "positions": [
                -0.619092667043166,
                -1.3509360703355127,
                1.5579438093488718,
                -1.0635102603594127,
                0.6219475457479914,
                -1.4486668497654445
            ]
        },
        {
            "positions": [
                -0.5449550633098286,
                -1.3299475291554317,
                1.5997496395848847,
                -1.0379576665480588,
                0.5717367518123438,
                -1.6205333363276804
            ]
        },
        {
            "positions": [
                -0.47081745957649135,
                -1.308958987975351,
                1.6415554698208972,
                -1.0124050727367049,
                0.5215259578766964,
                -1.7923998228899158
            ]
        },
        {
            "positions": [
                -0.39667985584315413,
                -1.28797044679527,
                1.68336130005691,
                -0.986852478925351,
                0.471315163941049,
                -1.9642663094521513
            ]
        },
        {
            "positions": [
                -0.3225422521098167,
                -1.266981905615189,
                1.7251671302929228,
                -0.9612998851139971,
                0.42110437000540146,
                -2.136132796014387
            ]
        },
        {
            "positions": [
                -0.2484046483764797,
                -1.2459933644351082,
                1.7669729605289355,
                -0.9357472913026432,
                0.37089357606975415,
                -2.307999282576623
            ]
        },
        {
            "positions": [
                -0.17426704464314224,
                -1.2250048232550272,
                1.8087787907649484,
                -0.9101946974912892,
                0.3206827821341066,
                -2.479865769138859
            ]
        },
        {
            "positions": [
                -0.10012944090980502,
                -1.2040162820749465,
                1.8505846210009609,
                -0.8846421036799353,
                0.2704719881984592,
                -2.6517322557010945
            ]
        },
        {
            "positions": [
                -0.025991837176467802,
                -1.1830277408948655,
                1.8923904512369738,
                -0.8590895098685815,
                0.22026119426281165,
                -2.82359874226333
            ]
        },
        {
            "positions": [
                0.04814576655686964,
                -1.1620391997147848,
                1.9341962814729865,
                -0.8335369160572275,
                0.17005040032716412,
                -2.995465228825566
            ]
        },
        {
            "positions": [
                0.12228337029020682,
                -1.1410506585347038,
                1.9760021117089992,
                -0.8079843222458736,
                0.11983960639151689,
                -3.1673317153878013
            ]
        }
    ]
}