{
    "goal": {
        "global_pose": {
            "orientation": {
                "w": 0.5084816217422485,
                "x": -0.49083608388900757,
                "y": 0.5182115435600281,
                "z": -0.4816462993621826
            },
            "position": {
                "x": 0.5540239810943604,
                "y": 0.030875300988554955,
                "z": 0.16403168439865112
            }
        },
        "name": "move_to_storage_A"
    },
    "id": "ProjEST_move_to_storage_A_17",
    "joint_names": [
        "shoulder_pan_joint",
        "shoulder_lift_joint",
        "elbow_joint",
        "wrist_1_joint",
        "wrist_2_joint",
        "wrist_3_joint"
    ],
    "metrics": {
        "cart_traj_len": 0.3529596948918265,
        "distance_elbow_joint": 0.45399760262555056,
        "distance_shoulder_lift_joint": 0.23312072378240778,
        "distance_shoulder_pan_joint": 0.4611907999272275,
        "distance_wrist_1_joint": 0.2616726542948008,
        "distance_wrist_2_joint": 1.0999118507998413,
        "distance_wrist_3_joint": 0.10742072776386857,
        "smoothness": 0.0,
        "time": 0.117430997,
        "traj_len": 1.6178115957038064,
        "weighted_distance": 2.0478623781436283
    },
    "planner": "ProjEST",
    "start": {
        "state": {
            "elbow_joint": 1.9715477243005601,
            "shoulder_lift_joint": -1.1394853015351272,
            "shoulder_pan_joint": 0.12281154014795169,
            "wrist_1_joint": -0.7804696478968182,
            "wrist_2_joint": 0.12958648046900423,
            "wrist_3_joint": -3.192491284697111
        }
    },
    "waypoints": [
        {
            "positions": [
                0.12281154014795169,
                -1.1394853015351272,
                1.9715477243005601,
                -0.7804696478968182,
                0.12958648046900423,
                -3.192491284697111
            ]
        },
        {
            "positions": [
                0.056927140158347767,
                -1.172788262075471,
                2.0364045246756386,
                -0.8178514556532183,
                0.2867167448689816,
                -3.17714546644513
            ]
        },
        {
            "positions": [
                -0.008957259831256156,
                -1.2060912226158151,
                2.1012613250507175,
                -0.8552332634096184,
                0.44384700926895887,
                -3.1617996481931487
            ]
        },
        {
            "positions": [
                -0.07484165982086009,
                -1.239394183156159,
                2.166118125425796,
                -0.8926150711660185,
                0.6009772736689363,
                -3.1464538299411675
            ]
        },
        {
            "positions": [
                -0.140726059810464,
                -1.272697143696503,
                2.230974925800875,
                -0.9299968789224187,
                0.7581075380689135,
                -3.1311080116891863
            ]
        },
        {
            "positions": [
                -0.20661045980006792,
                -1.306000104236847,
                2.2958317261759533,
                -0.9673786866788188,
                0.9152378024688909,
                -3.115762193437205
            ]
        },
        {
            "positions": [
                -0.27249485978967186,
                -1.3393030647771909,
                2.360688526551032,
                -1.0047604944352189,
                1.0723680668688682,
                -3.100416375185224
            ]
        },
        {
            "positions": [
                -0.3383792597792758,
                -1.372606025317535,
                2.4255453269261107,
                -1.042142302191619,
                1.2294983312688454,
                -3.0850705569332426
            ]
        }
    ]
}