{
    "goal": {
        "global_pose": {
            "orientation": {
                "w": 0.5084816217422485,
                "x": -0.49083608388900757,
                "y": 0.5182115435600281,
                "z": -0.4816462993621826
            },
            "position": {
                "x": 0.5540239810943604,
                "y": 0.030875300988554955,
                "z": 0.16403168439865112
            }
        },
        "name": "move_to_storage_A"
    },
    "id": "ProjEST_move_to_storage_A_112",
    "joint_names": [
        "shoulder_pan_joint",
        "shoulder_lift_joint",
        "elbow_joint",
        "wrist_1_joint",
        "wrist_2_joint",
        "wrist_3_joint"
    ],
    "metrics": {
        "cart_traj_len": 0.3535672369623583,
        "distance_elbow_joint": 0.4506499094435208,
        "distance_shoulder_lift_joint": 0.23444389608466,
        "distance_shoulder_pan_joint": 0.4612086020942077,
        "distance_wrist_1_joint": 0.24247102052773883,
        "distance_wrist_2_joint": 1.1050253508435448,
        "distance_wrist_3_joint": 0.10561253900971712,
        "smoothness": 8.881784197001252e-16,
        "time": 0.094810045,
        "traj_len": 1.6122689967878774,
        "weighted_distance": 2.0391500110080445
    },
    "planner": "ProjEST",
    "start": {
        "state": {
            "elbow_joint": 1.9715477243005601,
            "shoulder_lift_joint": -1.1394853015351272,
            "shoulder_pan_joint": 0.12281154014795169,
            "wrist_1_joint": -0.7804696478968182,
            "wrist_2_joint": 0.12958648046900423,
            "wrist_3_joint": -3.192491284697111
        }
    },
    "waypoints": [
        {
            "positions": [
                0.12281154014795169,
                -1.1394853015351272,
                1.9715477243005601,
                -0.7804696478968182,
                0.12958648046900423,
                -3.192491284697111
            ]
        },
        {
            "positions": [
                0.05692459699163631,
                -1.1729772866900785,
                2.0359262827924915,
                -0.8151083651150666,
                0.2874472448752249,
                -3.1774037791242944
            ]
        },
        {
            "positions": [
                -0.008962346164679072,
                -1.20646927184503,
                2.1003048412844234,
                -0.849747082333315,
                0.4453080092814456,
                -3.1623162735514776
            ]
        },
        {
            "positions": [
                -0.07484928932099445,
                -1.2399612569999814,
                2.164683399776355,
                -0.8843857995515634,
                0.6031687736876663,
                -3.147228767978661
            ]
        },
        {
            "positions": [
                -0.14073623247730982,
                -1.273453242154933,
                2.2290619582682862,
                -0.9190245167698118,
                0.761029538093887,
                -3.1321412624058445
            ]
        },
        {
            "positions": [
                -0.20662317563362526,
                -1.3069452273098843,
                2.293440516760218,
                -0.9536632339880602,
                0.9188903025001077,
                -3.1170537568330277
            ]
        },
        {
            "positions": [
                -0.2725101187899406,
                -1.3404372124648356,
                2.3578190752521495,
                -0.9883019512063086,
                1.0767510669063283,
                -3.101966251260211
            ]
        },
        {
            "positions": [
                -0.338397061946256,
                -1.3739291976197872,
                2.422197633744081,
                -1.022940668424557,
                1.234611831312549,
                -3.086878745687394
            ]
        }
    ]
}