{
    "goal": {
        "global_pose": {
            "orientation": {
                "w": 0.5084816217422485,
                "x": -0.49083608388900757,
                "y": 0.5182115435600281,
                "z": -0.4816462993621826
            },
            "position": {
                "x": 0.5540239810943604,
                "y": 0.030875300988554955,
                "z": 0.16403168439865112
            }
        },
        "name": "move_to_storage_A"
    },
    "id": "ProjEST_move_to_storage_A_32",
    "joint_names": [
        "shoulder_pan_joint",
        "shoulder_lift_joint",
        "elbow_joint",
        "wrist_1_joint",
        "wrist_2_joint",
        "wrist_3_joint"
    ],
    "metrics": {
        "cart_traj_len": 0.3525248133592247,
        "distance_elbow_joint": 0.45039859861112586,
        "distance_shoulder_lift_joint": 0.23480180011003715,
        "distance_shoulder_pan_joint": 0.45899232180274424,
        "distance_wrist_1_joint": 0.24522395811383857,
        "distance_wrist_2_joint": 1.1064727280056998,
        "distance_wrist_3_joint": 0.09565400903962074,
        "smoothness": 4.440892133664971e-16,
        "time": 0.05764742,
        "traj_len": 1.6098271384478107,
        "weighted_distance": 2.0333588271335303
    },
    "planner": "ProjEST",
    "start": {
        "state": {
            "elbow_joint": 1.9715477243005601,
            "shoulder_lift_joint": -1.1394853015351272,
            "shoulder_pan_joint": 0.12281154014795169,
            "wrist_1_joint": -0.7804696478968182,
            "wrist_2_joint": 0.12958648046900423,
            "wrist_3_joint": -3.192491284697111
        }
    },
    "waypoints": [
        {
            "positions": [
                0.12281154014795169,
                -1.1394853015351272,
                1.9715477243005601,
                -0.7804696478968182,
                0.12958648046900423,
                -3.192491284697111
            ]
        },
        {
            "positions": [
                0.05724120846184537,
                -1.1730284158365611,
                2.035890381245007,
                -0.8155016419130808,
                0.28765401304124705,
                -3.1788264262628796
            ]
        },
        {
            "positions": [
                -0.00832912322426095,
                -1.206571530137995,
                2.100233038189453,
                -0.8505336359293435,
                0.44572154561348987,
                -3.165161567828648
            ]
        },
        {
            "positions": [
                -0.07389945491036727,
                -1.2401146444394289,
                2.1645756951339,
                -0.8855656299456061,
                0.6037890781857327,
                -3.1514967093944164
            ]
        },
        {
            "positions": [
                -0.13946978659647358,
                -1.2736577587408626,
                2.228918352078346,
                -0.9205976239618687,
                0.7618566107579755,
                -3.1378318509601852
            ]
        },
        {
            "positions": [
                -0.2050401182825799,
                -1.3072008730422966,
                2.293261009022793,
                -0.9556296179781314,
                0.9199241433302184,
                -3.1241669925259536
            ]
        },
        {
            "positions": [
                -0.2706104499686862,
                -1.3407439873437303,
                2.3576036659672392,
                -0.9906616119943941,
                1.077991675902461,
                -3.110502134091722
            ]
        },
        {
            "positions": [
                -0.33618078165479254,
                -1.3742871016451643,
                2.421946322911686,
                -1.0256936060106567,
                1.2360592084747042,
                -3.0968372756574905
            ]
        }
    ]
}