{
    "goal": {
        "global_pose": {
            "orientation": {
                "w": 0.5084816217422485,
                "x": -0.49083608388900757,
                "y": 0.5182115435600281,
                "z": -0.4816462993621826
            },
            "position": {
                "x": 0.5540239810943604,
                "y": 0.030875300988554955,
                "z": 0.16403168439865112
            }
        },
        "name": "move_to_storage_A"
    },
    "id": "ProjEST_move_to_storage_A_95",
    "joint_names": [
        "shoulder_pan_joint",
        "shoulder_lift_joint",
        "elbow_joint",
        "wrist_1_joint",
        "wrist_2_joint",
        "wrist_3_joint"
    ],
    "metrics": {
        "cart_traj_len": 0.35365794822305074,
        "distance_elbow_joint": 0.45141998158358154,
        "distance_shoulder_lift_joint": 0.23413730900282936,
        "distance_shoulder_pan_joint": 0.46040177316335174,
        "distance_wrist_1_joint": 0.24878994345319272,
        "distance_wrist_2_joint": 1.1088542444667664,
        "distance_wrist_3_joint": 0.09663462237116693,
        "smoothness": 6.661338165333112e-16,
        "time": 0.032225444,
        "traj_len": 1.6125253095814926,
        "weighted_distance": 2.0374374362672296
    },
    "planner": "ProjEST",
    "start": {
        "state": {
            "elbow_joint": 1.9715477243005601,
            "shoulder_lift_joint": -1.1394853015351272,
            "shoulder_pan_joint": 0.12281154014795169,
            "wrist_1_joint": -0.7804696478968182,
            "wrist_2_joint": 0.12958648046900423,
            "wrist_3_joint": -3.192491284697111
        }
    },
    "waypoints": [
        {
            "positions": [
                0.12281154014795169,
                -1.1394853015351272,
                1.9715477243005601,
                -0.7804696478968182,
                0.12958648046900423,
                -3.192491284697111
            ]
        },
        {
            "positions": [
                0.057039858267472876,
                -1.1729334885355314,
                2.0360362930982148,
                -0.8160110683901314,
                0.28799422967854227,
                -3.1786863386440873
            ]
        },
        {
            "positions": [
                -0.008731823613005937,
                -1.2063816755359356,
                2.100524861895869,
                -0.8515524888834447,
                0.4464019788880803,
                -3.1648813925910635
            ]
        },
        {
            "positions": [
                -0.07450350549348476,
                -1.2398298625363398,
                2.1650134306935236,
                -0.8870939093767579,
                0.6048097280976183,
                -3.1510764465380396
            ]
        },
        {
            "positions": [
                -0.14027518737396355,
                -1.273278049536744,
                2.229501999491178,
                -0.9226353298700711,
                0.7632174773071564,
                -3.137271500485016
            ]
        },
        {
            "positions": [
                -0.20604686925444238,
                -1.3067262365371481,
                2.293990568288833,
                -0.9581767503633845,
                0.9216252265166945,
                -3.123466554431992
            ]
        },
        {
            "positions": [
                -0.2718185511349212,
                -1.3401744235375523,
                2.358479137086487,
                -0.9937181708566976,
                1.0800329757262324,
                -3.109661608378968
            ]
        },
        {
            "positions": [
                -0.33759023301540003,
                -1.3736226105379565,
                2.4229677058841417,
                -1.0292595913500109,
                1.2384407249357705,
                -3.0958566623259443
            ]
        }
    ]
}