{
    "goal": {
        "global_pose": {
            "orientation": {
                "w": 0.7047431468963623,
                "x": -0.7094548344612122,
                "y": 0.0024358443915843964,
                "z": -0.0022348060738295317
            },
            "position": {
                "x": 0.6094750761985779,
                "y": 0.3671506643295288,
                "z": 0.19426114857196808
            }
        },
        "name": "move_to_magneteinheit_A"
    },
    "id": "ProjEST_move_to_magneteinheit_A_60",
    "joint_names": [
        "shoulder_pan_joint",
        "shoulder_lift_joint",
        "elbow_joint",
        "wrist_1_joint",
        "wrist_2_joint",
        "wrist_3_joint"
    ],
    "metrics": {
        "cart_traj_len": 4.682162685547893,
        "distance_elbow_joint": 3.9355146694278744,
        "distance_shoulder_lift_joint": 0.45835090623219166,
        "distance_shoulder_pan_joint": 6.145288793026535,
        "distance_wrist_1_joint": 3.5542141425477696,
        "distance_wrist_2_joint": 4.009220694359839,
        "distance_wrist_3_joint": 1.7161687506298886,
        "smoothness": 0.31518888227187686,
        "time": 0.10059832999999999,
        "traj_len": 4.451826361868138,
        "weighted_distance": 5.551083704502345
    },
    "planner": "ProjEST",
    "start": {
        "state": {
            "elbow_joint": -1.919618573717145,
            "shoulder_lift_joint": -1.2443395971678275,
            "shoulder_pan_joint": 2.6996025300909787,
            "wrist_1_joint": -1.548550951253194,
            "wrist_2_joint": -1.5709469090946802,
            "wrist_3_joint": 0.4420197732051276
        }
    },
    "waypoints": [
        {
            "positions": [
                2.6996025300909787,
                -1.2443395971678275,
                -1.919618573717145,
                -1.548550951253194,
                -1.5709469090946802,
                0.4420197732051276
            ]
        },
        {
            "positions": [
                2.558935414168227,
                -1.2405480865877319,
                -1.8664734251435942,
                -1.48359697927941,
                -1.4830218534944155,
                0.40564257710893437
            ]
        },
        {
            "positions": [
                2.418268298245475,
                -1.2367565760076362,
                -1.8133282765700434,
                -1.4186430073056255,
                -1.395096797894151,
                0.3692653810127412
            ]
        },
        {
            "positions": [
                2.2776011823227225,
                -1.2329650654275406,
                -1.7601831279964926,
                -1.3536890353318414,
                -1.3071717422938864,
                0.332888184916548
            ]
        },
        {
            "positions": [
                2.1369340663999705,
                -1.2291735548474452,
                -1.7070379794229418,
                -1.2887350633580572,
                -1.2192466866936218,
                0.29651098882035476
            ]
        },
        {
            "positions": [
                1.9962669504772186,
                -1.2253820442673495,
                -1.653892830849391,
                -1.2237810913842728,
                -1.1313216310933574,
                0.26013379272416154
            ]
        },
        {
            "positions": [
                1.8555998345544664,
                -1.221590533687254,
                -1.6007476822758402,
                -1.1588271194104887,
                -1.0433965754930927,
                0.22375659662796835
            ]
        },
        {
            "positions": [
                1.7149327186317143,
                -1.2177990231071583,
                -1.5476025337022894,
                -1.0938731474367045,
                -0.9554715198928282,
                0.18737940053177515
            ]
        },
        {
            "positions": [
                1.5742656027089623,
                -1.2140075125270626,
                -1.4944573851287386,
                -1.0289191754629203,
                -0.8675464642925635,
                0.15100220443558193
            ]
        },
        {
            "positions": [
                1.4335984867862102,
                -1.210216001946967,
                -1.4413122365551878,
                -0.963965203489136,
                -0.7796214086922989,
                0.11462500833938871
            ]
        },
        {
            "positions": [
                1.2929313708634582,
                -1.2064244913668714,
                -1.3881670879816368,
                -0.8990112315153518,
                -0.6916963530920345,
                0.07824781224319549
            ]
        },
        {
            "positions": [
                1.152264254940706,
                -1.2026329807867757,
                -1.3350219394080862,
                -0.8340572595415675,
                -0.6037712974917698,
                0.04187061614700227
            ]
        },
        {
            "positions": [
                1.0115971390179541,
                -1.1988414702066803,
                -1.2818767908345352,
                -0.7691032875677832,
                -0.5158462418915053,
                0.005493420050809106
            ]
        },
        {
            "positions": [
                0.870930023095202,
                -1.1950499596265847,
                -1.2287316422609846,
                -0.704149315593999,
                -0.42792118629124065,
                -0.030883776045384115
            ]
        },
        {
            "positions": [
                0.73026290717245,
                -1.191258449046489,
                -1.1755864936874336,
                -0.6391953436202148,
                -0.33999613069097623,
                -0.06726097214157728
            ]
        },
        {
            "positions": [
                0.5895957912496979,
                -1.1874669384663934,
                -1.122441345113883,
                -0.5742413716464305,
                -0.2520710750907116,
                -0.10363816823777056
            ]
        },
        {
            "positions": [
                0.4489286753269459,
                -1.1836754278862978,
                -1.069296196540332,
                -0.5092873996726464,
                -0.16414601949044694,
                -0.14001536433396372
            ]
        },
        {
            "positions": [
                0.308261559404194,
                -1.1798839173062021,
                -1.0161510479667815,
                -0.4443334276988622,
                -0.07622096389018251,
                -0.17639256043015689
            ]
        },
        {
            "positions": [
                0.1675944434814416,
                -1.1760924067261065,
                -0.9630058993932304,
                -0.3793794557250778,
                0.011704091710082354,
                -0.21276975652635016
            ]
        },
        {
            "positions": [
                0.02692732755868965,
                -1.1723008961460109,
                -0.9098607508196797,
                -0.31442548375129364,
                0.09962914731034678,
                -0.24914695262254333
            ]
        },
        {
            "positions": [
                -0.11373978836406229,
                -1.1685093855659154,
                -0.8567156022461289,
                -0.24947151177750948,
                0.1875542029106112,
                -0.2855241487187366
            ]
        },
        {
            "positions": [
                -0.25440690428681423,
                -1.1647178749858198,
                -0.8035704536725783,
                -0.18451753980372532,
                0.27547925851087585,
                -0.32190134481492977
            ]
        },
        {
            "positions": [
                -0.3950740202095666,
                -1.1609263644057242,
                -0.7504253050990273,
                -0.11956356782994093,
                0.3634043141111405,
                -0.35827854091112304
            ]
        },
        {
            "positions": [
                -0.5357411361323186,
                -1.1571348538256285,
                -0.6972801565254765,
                -0.05460959585615677,
                0.4513293697114049,
                -0.3946557370073162
            ]
        },
        {
            "positions": [
                -0.6764082520550705,
                -1.153343343245533,
                -0.6441350079519257,
                0.010344376117627618,
                0.5392544253116696,
                -0.4310329331035094
            ]
        },
        {
            "positions": [
                -0.8170753679778224,
                -1.1495518326654373,
                -0.5909898593783751,
                0.07529834809141178,
                0.6271794809119342,
                -0.46741012919970254
            ]
        },
        {
            "positions": [
                -0.9577424839005748,
                -1.1457603220853416,
                -0.5378447108048241,
                0.14025232006519617,
                0.7151045365121989,
                -0.5037873252958958
            ]
        },
        {
            "positions": [
                -1.0984095998233268,
                -1.141968811505246,
                -0.4846995622312733,
                0.20520629203898033,
                0.8030295921124635,
                -0.5401645213920889
            ]
        },
        {
            "positions": [
                -1.2390767157460787,
                -1.1381773009251506,
                -0.4315544136577225,
                0.2701602640127645,
                0.8909546477127277,
                -0.5765417174882821
            ]
        },
        {
            "positions": [
                -1.3797438316688302,
                -1.134385790345055,
                -0.3784092650841717,
                0.33511423598654866,
                0.9788797033129923,
                -0.6129189135844753
            ]
        },
        {
            "positions": [
                -1.520410947591583,
                -1.1305942797649593,
                -0.3252641165106209,
                0.40006820796033304,
                1.066804758913257,
                -0.6492961096806686
            ]
        },
        {
            "positions": [
                -1.661078063514335,
                -1.1268027691848637,
                -0.27211896793707013,
                0.4650221799341171,
                1.1547298145135216,
                -0.6856733057768619
            ]
        },
        {
            "positions": [
                -1.571847653543274,
                -1.1097620652724023,
                -0.15771821475468017,
                0.5420542305021401,
                1.0905526159759398,
                -0.656249522194467
            ]
        },
        {
            "positions": [
                -1.482617243572213,
                -1.092721361359941,
                -0.043317461572290245,
                0.619086281070163,
                1.0263754174383577,
                -0.6268257386120721
            ]
        },
        {
            "positions": [
                -1.3933868336011521,
                -1.0756806574474795,
                0.07108329161009969,
                0.6961183316381858,
                0.9621982189007758,
                -0.5974019550296772
            ]
        },
        {
            "positions": [
                -1.304156423630091,
                -1.0586399535350182,
                0.18548404479248964,
                0.7731503822062088,
                0.8980210203631938,
                -0.5679781714472824
            ]
        },
        {
            "positions": [
                -1.21492601365903,
                -1.0415992496225568,
                0.29988479797487955,
                0.8501824327742317,
                0.8338438218256119,
                -0.5385543878648874
            ]
        },
        {
            "positions": [
                -1.1256956036879693,
                -1.0245585457100954,
                0.4142855511572695,
                0.9272144833422545,
                0.76966662328803,
                -0.5091306042824926
            ]
        },
        {
            "positions": [
                -1.0364651937169085,
                -1.0075178417976338,
                0.5286863043396594,
                1.0042465339102775,
                0.705489424750448,
                -0.4797068207000976
            ]
        },
        {
            "positions": [
                -0.9472347837458472,
                -0.9904771378851726,
                0.6430870575220494,
                1.0812785844783006,
                0.641312226212866,
                -0.45028303711770273
            ]
        },
        {
            "positions": [
                -0.8580043737747863,
                -0.9734364339727111,
                0.7574878107044394,
                1.1583106350463233,
                0.5771350276752841,
                -0.42085925353530784
            ]
        },
        {
            "positions": [
                -0.7687739638037254,
                -0.9563957300602497,
                0.8718885638868292,
                1.2353426856143463,
                0.5129578291377022,
                -0.39143546995291295
            ]
        },
        {
            "positions": [
                -0.6795435538326644,
                -0.9393550261477883,
                0.9862893170692193,
                1.3123747361823692,
                0.4487806306001202,
                -0.362011686370518
            ]
        },
        {
            "positions": [
                -0.5903131438616036,
                -0.9223143222353269,
                1.1006900702516091,
                1.389406786750392,
                0.38460343206253833,
                -0.33258790278812317
            ]
        },
        {
            "positions": [
                -0.5010827338905426,
                -0.9052736183228656,
                1.215090823433999,
                1.4664388373184152,
                0.32042623352495625,
                -0.3031641192057282
            ]
        },
        {
            "positions": [
                -0.4118523239194818,
                -0.8882329144104042,
                1.3294915766163888,
                1.5434708878864378,
                0.2562490349873744,
                -0.2737403356233334
            ]
        },
        {
            "positions": [
                -0.32262191394842077,
                -0.8711922104979428,
                1.443892329798779,
                1.620502938454461,
                0.19207183644979242,
                -0.2443165520409385
            ]
        },
        {
            "positions": [
                -0.23339150397735953,
                -0.8541515065854814,
                1.558293082981169,
                1.697534989022484,
                0.12789463791221034,
                -0.21489276845854355
            ]
        },
        {
            "positions": [
                -0.14416109400629873,
                -0.8371108026730201,
                1.6726938361635588,
                1.7745670395905067,
                0.06371743937462848,
                -0.1854689848761487
            ]
        },
        {
            "positions": [
                -0.05493068403523771,
                -0.8200700987605586,
                1.787094589345949,
                1.8515990901585297,
                -0.00045975916295337704,
                -0.15604520129375377
            ]
        },
        {
            "positions": [
                0.03429972593582309,
                -0.8030293948480973,
                1.9014953425283385,
                1.9286311407265524,
                -0.06463695770053524,
                -0.12662141771135893
            ]
        },
        {
            "positions": [
                0.1235301359068842,
                -0.7859886909356358,
                2.0158960957107284,
                2.0056631912945755,
                -0.1288141562381173,
                -0.09719763412896394
            ]
        }
    ]
}{
    "goal": {
        "global_pose": {
            "orientation": {
                "w": 0.7047431468963623,
                "x": -0.7094548344612122,
                "y": 0.0024358443915843964,
                "z": -0.0022348060738295317
            },
            "position": {
                "x": 0.6094750761985779,
                "y": 0.3671506643295288,
                "z": 0.19426114857196808
            }
        },
        "name": "move_to_magneteinheit_A"
    },
    "id": "ProjEST_move_to_magneteinheit_A_60",
    "joint_names": [
        "shoulder_pan_joint",
        "shoulder_lift_joint",
        "elbow_joint",
        "wrist_1_joint",
        "wrist_2_joint",
        "wrist_3_joint"
    ],
    "metrics": {
        "cart_traj_len": 1.8962834405289777,
        "distance_elbow_joint": 1.7854692779257304,
        "distance_shoulder_lift_joint": 1.859109961500846,
        "distance_shoulder_pan_joint": 1.2412623125813165,
        "distance_wrist_1_joint": 0.737489439637568,
        "distance_wrist_2_joint": 1.4365276107444571,
        "distance_wrist_3_joint": 4.241053941628929,
        "smoothness": 0.2688261478653943,
        "time": 0.19644813,
        "traj_len": 3.361682992790791,
        "weighted_distance": 4.685833701451507
    },
    "planner": "ProjEST",
    "start": {
        "state": {
            "elbow_joint": 1.919643534880228,
            "shoulder_lift_joint": -1.8972525353963687,
            "shoulder_pan_joint": -1.1188672234189438,
            "wrist_1_joint": -1.5931878212786155,
            "wrist_2_joint": 1.5706036197970081,
            "wrist_3_joint": 1.118896926603594
        }
    },
    "waypoints": [
        {
            "positions": [
                -1.1188672234189438,
                -1.8972525353963687,
                1.919643534880228,
                -1.5931878212786155,
                1.5706036197970081,
                1.118896926603594
            ]
        },
        {
            "positions": [
                -1.083271556021068,
                -1.840582593437063,
                1.882328602063577,
                -1.5614833750817192,
                1.5145593035806377,
                0.9460483648137115
            ]
        },
        {
            "positions": [
                -1.0476758886231918,
                -1.7839126514777575,
                1.845013669246926,
                -1.529778928884823,
                1.4585149873642673,
                0.773199803023829
            ]
        },
        {
            "positions": [
                -1.012080221225316,
                -1.727242709518452,
                1.8076987364302748,
                -1.4980744826879266,
                1.402470671147897,
                0.6003512412339465
            ]
        },
        {
            "positions": [
                -0.9764845538274399,
                -1.6705727675591462,
                1.7703838036136237,
                -1.4663700364910306,
                1.3464263549315265,
                0.42750267944406395
            ]
        },
        {
            "positions": [
                -0.9408888864295639,
                -1.6139028255998404,
                1.7330688707969726,
                -1.4346655902941343,
                1.290382038715156,
                0.25465411765418144
            ]
        },
        {
            "positions": [
                -0.9052932190316879,
                -1.557232883640535,
                1.6957539379803215,
                -1.402961144097238,
                1.2343377224987857,
                0.08180555586429894
            ]
        },
        {
            "positions": [
                -0.8696975516338119,
                -1.5005629416812292,
                1.6584390051636704,
                -1.3712566979003418,
                1.1782934062824153,
                -0.09104300592558379
            ]
        },
        {
            "positions": [
                -0.834101884235936,
                -1.4438929997219236,
                1.6211240723470195,
                -1.3395522517034455,
                1.122249090066045,
                -0.26389156771546607
            ]
        },
        {
            "positions": [
                -0.79850621683806,
                -1.387223057762618,
                1.5838091395303682,
                -1.3078478055065492,
                1.0662047738496745,
                -0.4367401295053488
            ]
        },
        {
            "positions": [
                -0.762910549440184,
                -1.3305531158033124,
                1.5464942067137173,
                -1.276143359309653,
                1.010160457633304,
                -0.6095886912952311
            ]
        },
        {
            "positions": [
                -0.7273148820423081,
                -1.2738831738440066,
                1.509179273897066,
                -1.2444389131127567,
                0.9541161414169337,
                -0.7824372530851138
            ]
        },
        {
            "positions": [
                -0.691719214644432,
                -1.217213231884701,
                1.471864341080415,
                -1.2127344669158604,
                0.8980718252005633,
                -0.9552858148749961
            ]
        },
        {
            "positions": [
                -0.6561235472465561,
                -1.1605432899253953,
                1.434549408263764,
                -1.1810300207189641,
                0.842027508984193,
                -1.1281343766648784
            ]
        },
        {
            "positions": [
                -0.6205278798486801,
                -1.1038733479660898,
                1.3972344754471129,
                -1.1493255745220678,
                0.7859831927678225,
                -1.3009829384547615
            ]
        },
        {
            "positions": [
                -0.5849322124508041,
                -1.047203406006784,
                1.3599195426304616,
                -1.1176211283251716,
                0.7299388765514521,
                -1.4738315002446438
            ]
        },
        {
            "positions": [
                -0.5493365450529282,
                -0.9905334640474786,
                1.3226046098138107,
                -1.0859166821282755,
                0.6738945603350817,
                -1.646680062034526
            ]
        },
        {
            "positions": [
                -0.5137408776550522,
                -0.9338635220881729,
                1.2852896769971596,
                -1.0542122359313792,
                0.6178502441187114,
                -1.8195286238244084
            ]
        },
        {
            "positions": [
                -0.47814521025717616,
                -0.8771935801288671,
                1.2479747441805085,
                -1.022507789734483,
                0.5618059279023409,
                -1.9923771856142916
            ]
        },
        {
            "positions": [
                -0.44254954285930015,
                -0.8205236381695615,
                1.2106598113638574,
                -0.9908033435375867,
                0.5057616116859704,
                -2.1652257474041736
            ]
        },
        {
            "positions": [
                -0.40695387546142425,
                -0.763853696210256,
                1.1733448785472063,
                -0.9590988973406905,
                0.44971729546960004,
                -2.338074309194056
            ]
        },
        {
            "positions": [
                -0.37135820806354825,
                -0.7071837542509503,
                1.1360299457305552,
                -0.9273944511437943,
                0.39367297925322964,
                -2.510922870983938
            ]
        },
        {
            "positions": [
                -0.33576254066567224,
                -0.6505138122916445,
                1.098715012913904,
                -0.895690004946898,
                0.33762866303685923,
                -2.6837714327738214
            ]
        },
        {
            "positions": [
                -0.30016687326779623,
                -0.593843870332339,
                1.061400080097253,
                -0.8639855587500017,
                0.28158434682048894,
                -2.856619994563704
            ]
        },
        {
            "positions": [
                -0.22973987952943478,
                -0.6864607530718083,
                1.2159377172877122,
                -0.862604362565176,
                0.256999623859166,
                -2.9008761646406427
            ]
        },
        {
            "positions": [
                -0.15931288579107333,
                -0.7790776358112776,
                1.3704753544781714,
                -0.8612231663803503,
                0.2324149008978431,
                -2.9451323347175813
            ]
        },
        {
            "positions": [
                -0.08888589205271186,
                -0.8716945185507471,
                1.5250129916686306,
                -0.8598419701955247,
                0.2078301779365202,
                -2.98938850479452
            ]
        },
        {
            "positions": [
                -0.018458898314350436,
                -0.9643114012902164,
                1.6795506288590898,
                -0.8584607740106989,
                0.1832454549751973,
                -3.033644674871458
            ]
        },
        {
            "positions": [
                0.051968095424011096,
                -1.0569282840296859,
                1.834088266049549,
                -0.8570795778258732,
                0.15866073201387437,
                -3.0779008449483967
            ]
        },
        {
            "positions": [
                0.12239508916237249,
                -1.1495451667691552,
                1.9886259032400082,
                -0.8556983816410475,
                0.1340760090525515,
                -3.1221570150253353
            ]
        }
    ]
}