{
    "goal": {
        "global_pose": {
            "orientation": {
                "w": 0.5084816217422485,
                "x": -0.49083608388900757,
                "y": 0.5182115435600281,
                "z": -0.4816462993621826
            },
            "position": {
                "x": 0.5540239810943604,
                "y": 0.030875300988554955,
                "z": 0.16403168439865112
            }
        },
        "name": "move_to_storage_A"
    },
    "id": "ProjEST_move_to_storage_A_109",
    "joint_names": [
        "shoulder_pan_joint",
        "shoulder_lift_joint",
        "elbow_joint",
        "wrist_1_joint",
        "wrist_2_joint",
        "wrist_3_joint"
    ],
    "metrics": {
        "cart_traj_len": 0.3527258634807131,
        "distance_elbow_joint": 0.4541611722187531,
        "distance_shoulder_lift_joint": 0.23380078797593917,
        "distance_shoulder_pan_joint": 0.46234669589789945,
        "distance_wrist_1_joint": 0.2591470878852803,
        "distance_wrist_2_joint": 1.0937227614008704,
        "distance_wrist_3_joint": 0.1063856052329668,
        "smoothness": 2.2204460668324854e-16,
        "time": 0.035119027,
        "traj_len": 1.6154145321284283,
        "weighted_distance": 2.0433318796426083
    },
    "planner": "ProjEST",
    "start": {
        "state": {
            "elbow_joint": 1.9715477243005601,
            "shoulder_lift_joint": -1.1394853015351272,
            "shoulder_pan_joint": 0.12281154014795169,
            "wrist_1_joint": -0.7804696478968182,
            "wrist_2_joint": 0.12958648046900423,
            "wrist_3_joint": -3.192491284697111
        }
    },
    "waypoints": [
        {
            "positions": [
                0.12281154014795169,
                -1.1394853015351272,
                1.9715477243005601,
                -0.7804696478968182,
                0.12958648046900423,
                -3.192491284697111
            ]
        },
        {
            "positions": [
                0.056762012162537484,
                -1.1728854141031184,
                2.036427891760382,
                -0.8174906604518583,
                0.2858325892405571,
                -3.1772933410924016
            ]
        },
        {
            "positions": [
                -0.009287515822876721,
                -1.2062855266711099,
                2.101308059220204,
                -0.8545116730068982,
                0.44207869801211,
                -3.162095397487692
            ]
        },
        {
            "positions": [
                -0.07533704380829091,
                -1.2396856392391011,
                2.166188226680026,
                -0.8915326855619383,
                0.598324806783663,
                -3.1468974538829824
            ]
        },
        {
            "positions": [
                -0.14138657179370512,
                -1.2730857518070924,
                2.2310683941398475,
                -0.9285536981169783,
                0.7545709155552158,
                -3.131699510278273
            ]
        },
        {
            "positions": [
                -0.20743609977911937,
                -1.3064858643750838,
                2.2959485615996695,
                -0.9655747106720184,
                0.9108170243267688,
                -3.1165015666735636
            ]
        },
        {
            "positions": [
                -0.2734856277645335,
                -1.339885976943075,
                2.360828729059491,
                -1.0025957232270584,
                1.0670631330983218,
                -3.101303623068854
            ]
        },
        {
            "positions": [
                -0.33953515574994775,
                -1.3732860895110663,
                2.425708896519313,
                -1.0396167357820985,
                1.2233092418698748,
                -3.0861056794641444
            ]
        }
    ]
}