{
    "goal": {
        "global_pose": {
            "orientation": {
                "w": 0.5084816217422485,
                "x": -0.49083608388900757,
                "y": 0.5182115435600281,
                "z": -0.4816462993621826
            },
            "position": {
                "x": 0.5540239810943604,
                "y": 0.030875300988554955,
                "z": 0.16403168439865112
            }
        },
        "name": "move_to_storage_A"
    },
    "id": "ProjEST_move_to_storage_A_75",
    "joint_names": [
        "shoulder_pan_joint",
        "shoulder_lift_joint",
        "elbow_joint",
        "wrist_1_joint",
        "wrist_2_joint",
        "wrist_3_joint"
    ],
    "metrics": {
        "cart_traj_len": 0.3530056619252727,
        "distance_elbow_joint": 0.4492720705154607,
        "distance_shoulder_lift_joint": 0.23426955928562254,
        "distance_shoulder_pan_joint": 0.4621552554154487,
        "distance_wrist_1_joint": 0.2439745773993317,
        "distance_wrist_2_joint": 1.095772615387769,
        "distance_wrist_3_joint": 0.0935466973760617,
        "smoothness": 0.0,
        "time": 0.030648565000000003,
        "traj_len": 1.6059236517903628,
        "weighted_distance": 2.0262851139262015
    },
    "planner": "ProjEST",
    "start": {
        "state": {
            "elbow_joint": 1.9715477243005601,
            "shoulder_lift_joint": -1.1394853015351272,
            "shoulder_pan_joint": 0.12281154014795169,
            "wrist_1_joint": -0.7804696478968182,
            "wrist_2_joint": 0.12958648046900423,
            "wrist_3_joint": -3.192491284697111
        }
    },
    "waypoints": [
        {
            "positions": [
                0.12281154014795169,
                -1.1394853015351272,
                1.9715477243005601,
                -0.7804696478968182,
                0.12958648046900423,
                -3.192491284697111
            ]
        },
        {
            "positions": [
                0.05678936080288759,
                -1.1729523814330733,
                2.035729448659912,
                -0.8153231589538655,
                0.2861254255243998,
                -3.1791274707862454
            ]
        },
        {
            "positions": [
                -0.009232818542176516,
                -1.2064194613310193,
                2.099911173019263,
                -0.8501766700109129,
                0.44266437057979535,
                -3.165763656875379
            ]
        },
        {
            "positions": [
                -0.07525499788724062,
                -1.2398865412289655,
                2.1640928973786147,
                -0.8850301810679603,
                0.5992033156351909,
                -3.1523998429645133
            ]
        },
        {
            "positions": [
                -0.1412771772323047,
                -1.2733536211269114,
                2.2282746217379663,
                -0.9198836921250078,
                0.7557422606905865,
                -3.1390360290536474
            ]
        },
        {
            "positions": [
                -0.2072993565773688,
                -1.3068207010248576,
                2.292456346097318,
                -0.9547372031820551,
                0.912281205745982,
                -3.1256722151427816
            ]
        },
        {
            "positions": [
                -0.2733215359224329,
                -1.3402877809228035,
                2.356638070456669,
                -0.9895907142391025,
                1.0688201508013777,
                -3.1123084012319153
            ]
        },
        {
            "positions": [
                -0.339343715267497,
                -1.3737548608207497,
                2.420819794816021,
                -1.0244442252961499,
                1.2253590958567733,
                -3.0989445873210495
            ]
        }
    ]
}