{
    "goal": {
        "global_pose": {
            "orientation": {
                "w": 0.5084816217422485,
                "x": -0.49083608388900757,
                "y": 0.5182115435600281,
                "z": -0.4816462993621826
            },
            "position": {
                "x": 0.5540239810943604,
                "y": 0.030875300988554955,
                "z": 0.16403168439865112
            }
        },
        "name": "move_to_storage_A"
    },
    "id": "ProjEST_move_to_storage_A_62",
    "joint_names": [
        "shoulder_pan_joint",
        "shoulder_lift_joint",
        "elbow_joint",
        "wrist_1_joint",
        "wrist_2_joint",
        "wrist_3_joint"
    ],
    "metrics": {
        "cart_traj_len": 0.3522120657483158,
        "distance_elbow_joint": 0.4518837969050393,
        "distance_shoulder_lift_joint": 0.23310532044366794,
        "distance_shoulder_pan_joint": 0.45899542983513647,
        "distance_wrist_1_joint": 0.2585884123401986,
        "distance_wrist_2_joint": 1.102974929356332,
        "distance_wrist_3_joint": 0.10957157832755016,
        "smoothness": 4.440892133664971e-16,
        "time": 0.051736769,
        "traj_len": 1.6171331012652992,
        "weighted_distance": 2.048371539921299
    },
    "planner": "ProjEST",
    "start": {
        "state": {
            "elbow_joint": 1.9715477243005601,
            "shoulder_lift_joint": -1.1394853015351272,
            "shoulder_pan_joint": 0.12281154014795169,
            "wrist_1_joint": -0.7804696478968182,
            "wrist_2_joint": 0.12958648046900423,
            "wrist_3_joint": -3.192491284697111
        }
    },
    "waypoints": [
        {
            "positions": [
                0.12281154014795169,
                -1.1394853015351272,
                1.9715477243005601,
                -0.7804696478968182,
                0.12958648046900423,
                -3.192491284697111
            ]
        },
        {
            "positions": [
                0.057240764457217916,
                -1.1727860615985084,
                2.0361025524298513,
                -0.8174108496597037,
                0.28715432751990877,
                -3.1768382020788897
            ]
        },
        {
            "positions": [
                -0.008330011233515858,
                -1.2060868216618894,
                2.100657380559143,
                -0.8543520514225892,
                0.44472217457081337,
                -3.161185119460668
            ]
        },
        {
            "positions": [
                -0.07390078692424963,
                -1.2393875817252706,
                2.165212208688434,
                -0.8912932531854747,
                0.602290021621718,
                -3.1455320368424466
            ]
        },
        {
            "positions": [
                -0.1394715626149834,
                -1.2726883417886516,
                2.2297670368177256,
                -0.9282344549483602,
                0.7598578686726225,
                -3.1298789542242256
            ]
        },
        {
            "positions": [
                -0.20504233830571722,
                -1.3059891018520329,
                2.2943218649470167,
                -0.9651756567112457,
                0.9174257157235272,
                -3.114225871606004
            ]
        },
        {
            "positions": [
                -0.27061311399645094,
                -1.3392898619154139,
                2.358876693076308,
                -1.0021168584741313,
                1.0749935627744316,
                -3.0985727889877825
            ]
        },
        {
            "positions": [
                -0.33618388968718477,
                -1.3725906219787951,
                2.4234315212055995,
                -1.0390580602370167,
                1.2325614098253364,
                -3.082919706369561
            ]
        }
    ]
}