{
    "goal": {
        "global_pose": {
            "orientation": {
                "w": 0.5084816217422485,
                "x": -0.49083608388900757,
                "y": 0.5182115435600281,
                "z": -0.4816462993621826
            },
            "position": {
                "x": 0.5540239810943604,
                "y": 0.030875300988554955,
                "z": 0.16403168439865112
            }
        },
        "name": "move_to_storage_A"
    },
    "id": "ProjEST_move_to_storage_A_101",
    "joint_names": [
        "shoulder_pan_joint",
        "shoulder_lift_joint",
        "elbow_joint",
        "wrist_1_joint",
        "wrist_2_joint",
        "wrist_3_joint"
    ],
    "metrics": {
        "cart_traj_len": 0.3522583058128923,
        "distance_elbow_joint": 0.44760548342228024,
        "distance_shoulder_lift_joint": 0.2352175692696643,
        "distance_shoulder_pan_joint": 0.4611281730687646,
        "distance_wrist_1_joint": 0.23530243451759436,
        "distance_wrist_2_joint": 1.0949075400450359,
        "distance_wrist_3_joint": 0.10313032948470546,
        "smoothness": 6.661338165333112e-16,
        "time": 0.110467017,
        "traj_len": 1.605394509087422,
        "weighted_distance": 2.028241150193952
    },
    "planner": "ProjEST",
    "start": {
        "state": {
            "elbow_joint": 1.9715477243005601,
            "shoulder_lift_joint": -1.1394853015351272,
            "shoulder_pan_joint": 0.12281154014795169,
            "wrist_1_joint": -0.7804696478968182,
            "wrist_2_joint": 0.12958648046900423,
            "wrist_3_joint": -3.192491284697111
        }
    },
    "waypoints": [
        {
            "positions": [
                0.12281154014795169,
                -1.1394853015351272,
                1.9715477243005601,
                -0.7804696478968182,
                0.12958648046900423,
                -3.192491284697111
            ]
        },
        {
            "positions": [
                0.0569360868524139,
                -1.1730878114307934,
                2.0354913647894572,
                -0.8140842813993316,
                0.2860018433325808,
                -3.1777583804850105
            ]
        },
        {
            "positions": [
                -0.008939366443123889,
                -1.20669032132646,
                2.0994350052783544,
                -0.8476989149018451,
                0.4424172061961573,
                -3.1630254762729098
            ]
        },
        {
            "positions": [
                -0.07481481973866168,
                -1.2402928312221262,
                2.1633786457672515,
                -0.8813135484043586,
                0.5988325690597338,
                -3.148292572060809
            ]
        },
        {
            "positions": [
                -0.14069027303419945,
                -1.2738953411177925,
                2.2273222862561486,
                -0.9149281819068721,
                0.7552479319233104,
                -3.133559667848708
            ]
        },
        {
            "positions": [
                -0.2065657263297373,
                -1.307497851013459,
                2.291265926745046,
                -0.9485428154093856,
                0.911663294786887,
                -3.118826763636607
            ]
        },
        {
            "positions": [
                -0.27244117962527503,
                -1.3411003609091252,
                2.3552095672339433,
                -0.982157448911899,
                1.0680786576504635,
                -3.1040938594245064
            ]
        },
        {
            "positions": [
                -0.3383166329208129,
                -1.3747028708047915,
                2.4191532077228404,
                -1.0157720824144125,
                1.22449402051404,
                -3.0893609552124057
            ]
        }
    ]
}