{
    "goal": {
        "global_pose": {
            "orientation": {
                "w": 0.5084816217422485,
                "x": -0.49083608388900757,
                "y": 0.5182115435600281,
                "z": -0.4816462993621826
            },
            "position": {
                "x": 0.5540239810943604,
                "y": 0.030875300988554955,
                "z": 0.16403168439865112
            }
        },
        "name": "move_to_storage_A"
    },
    "id": "ProjEST_move_to_storage_A_34",
    "joint_names": [
        "shoulder_pan_joint",
        "shoulder_lift_joint",
        "elbow_joint",
        "wrist_1_joint",
        "wrist_2_joint",
        "wrist_3_joint"
    ],
    "metrics": {
        "cart_traj_len": 0.353405189035333,
        "distance_elbow_joint": 0.45043058805336367,
        "distance_shoulder_lift_joint": 0.2345366438809069,
        "distance_shoulder_pan_joint": 0.46216464731861595,
        "distance_wrist_1_joint": 0.24684874854722605,
        "distance_wrist_2_joint": 1.099156246503032,
        "distance_wrist_3_joint": 0.10336437721170766,
        "smoothness": 2.2204460668324854e-16,
        "time": 0.017365351999999997,
        "traj_len": 1.6113662685791994,
        "weighted_distance": 2.0369671084699736
    },
    "planner": "ProjEST",
    "start": {
        "state": {
            "elbow_joint": 1.9715477243005601,
            "shoulder_lift_joint": -1.1394853015351272,
            "shoulder_pan_joint": 0.12281154014795169,
            "wrist_1_joint": -0.7804696478968182,
            "wrist_2_joint": 0.12958648046900423,
            "wrist_3_joint": -3.192491284697111
        }
    },
    "waypoints": [
        {
            "positions": [
                0.12281154014795169,
                -1.1394853015351272,
                1.9715477243005601,
                -0.7804696478968182,
                0.12958648046900423,
                -3.192491284697111
            ]
        },
        {
            "positions": [
                0.056788019102435125,
                -1.1729905363752566,
                2.0358949511653264,
                -0.8157337548321362,
                0.2866088013980088,
                -3.177724945095439
            ]
        },
        {
            "positions": [
                -0.00923550194308144,
                -1.2064957712153863,
                2.1002421780300926,
                -0.8509978617674542,
                0.44363112232701335,
                -3.162958605493766
            ]
        },
        {
            "positions": [
                -0.075259022988598,
                -1.2400010060555158,
                2.164589404894859,
                -0.8862619687027722,
                0.600653443256018,
                -3.1481922658920936
            ]
        },
        {
            "positions": [
                -0.14128254403411455,
                -1.2735062408956455,
                2.228936631759625,
                -0.9215260756380902,
                0.7576757641850225,
                -3.133425926290421
            ]
        },
        {
            "positions": [
                -0.20730606507963112,
                -1.307011475735775,
                2.2932838586243913,
                -0.9567901825734082,
                0.9146980851140271,
                -3.1186595866887488
            ]
        },
        {
            "positions": [
                -0.2733295861251477,
                -1.3405167105759044,
                2.3576310854891576,
                -0.9920542895087262,
                1.0717204060430316,
                -3.103893247087076
            ]
        },
        {
            "positions": [
                -0.33935310717066425,
                -1.374021945416034,
                2.421978312353924,
                -1.0273183964440442,
                1.2287427269720363,
                -3.0891269074854035
            ]
        }
    ]
}