{
    "goal": {
        "global_pose": {
            "orientation": {
                "w": 0.5084816217422485,
                "x": -0.49083608388900757,
                "y": 0.5182115435600281,
                "z": -0.4816462993621826
            },
            "position": {
                "x": 0.5540239810943604,
                "y": 0.030875300988554955,
                "z": 0.16403168439865112
            }
        },
        "name": "move_to_storage_A"
    },
    "id": "ProjEST_move_to_storage_A_78",
    "joint_names": [
        "shoulder_pan_joint",
        "shoulder_lift_joint",
        "elbow_joint",
        "wrist_1_joint",
        "wrist_2_joint",
        "wrist_3_joint"
    ],
    "metrics": {
        "cart_traj_len": 0.35308466077469924,
        "distance_elbow_joint": 0.4537354074667239,
        "distance_shoulder_lift_joint": 0.23367651588063976,
        "distance_shoulder_pan_joint": 0.46348769135718365,
        "distance_wrist_1_joint": 0.2566691136026332,
        "distance_wrist_2_joint": 1.0914761431874438,
        "distance_wrist_3_joint": 0.1097879030074691,
        "smoothness": 1.5543122409985865e-15,
        "time": 0.049604118,
        "traj_len": 1.6151881545201145,
        "weighted_distance": 2.0436618696122673
    },
    "planner": "ProjEST",
    "start": {
        "state": {
            "elbow_joint": 1.9715477243005601,
            "shoulder_lift_joint": -1.1394853015351272,
            "shoulder_pan_joint": 0.12281154014795169,
            "wrist_1_joint": -0.7804696478968182,
            "wrist_2_joint": 0.12958648046900423,
            "wrist_3_joint": -3.192491284697111
        }
    },
    "waypoints": [
        {
            "positions": [
                0.12281154014795169,
                -1.1394853015351272,
                1.9715477243005601,
                -0.7804696478968182,
                0.12958648046900423,
                -3.192491284697111
            ]
        },
        {
            "positions": [
                0.05659901281121117,
                -1.172867660946647,
                2.036367068224378,
                -0.8171366641257658,
                0.2855116437814962,
                -3.176807298553187
            ]
        },
        {
            "positions": [
                -0.009613514525529346,
                -1.2062500203581672,
                2.1011864121481953,
                -0.8538036803547133,
                0.44143680709398814,
                -3.161123312409263
            ]
        },
        {
            "positions": [
                -0.07582604186226986,
                -1.239632379769687,
                2.166005756072013,
                -0.890470696583661,
                0.5973619704064801,
                -3.145439326265339
            ]
        },
        {
            "positions": [
                -0.14203856919901037,
                -1.273014739181207,
                2.230825099995831,
                -0.9271377128126086,
                0.753287133718972,
                -3.1297553401214144
            ]
        },
        {
            "positions": [
                -0.2082510965357509,
                -1.306397098592727,
                2.295644443919649,
                -0.9638047290415561,
                0.9092122970314641,
                -3.1140713539774905
            ]
        },
        {
            "positions": [
                -0.2744636238724914,
                -1.339779458004247,
                2.360463787843466,
                -1.0004717452705039,
                1.0651374603439558,
                -3.098387367833566
            ]
        },
        {
            "positions": [
                -0.34067615120923195,
                -1.373161817415767,
                2.425283131767284,
                -1.0371387614994514,
                1.221062623656448,
                -3.082703381689642
            ]
        }
    ]
}