{
    "goal": {
        "global_pose": {
            "orientation": {
                "w": 0.5084816217422485,
                "x": -0.49083608388900757,
                "y": 0.5182115435600281,
                "z": -0.4816462993621826
            },
            "position": {
                "x": 0.5540239810943604,
                "y": 0.030875300988554955,
                "z": 0.16403168439865112
            }
        },
        "name": "move_to_storage_A"
    },
    "id": "ProjEST_move_to_storage_A_53",
    "joint_names": [
        "shoulder_pan_joint",
        "shoulder_lift_joint",
        "elbow_joint",
        "wrist_1_joint",
        "wrist_2_joint",
        "wrist_3_joint"
    ],
    "metrics": {
        "cart_traj_len": 0.3527195506158092,
        "distance_elbow_joint": 0.4500691973075446,
        "distance_shoulder_lift_joint": 0.23459518917619127,
        "distance_shoulder_pan_joint": 0.4626627259283227,
        "distance_wrist_1_joint": 0.24303574019287633,
        "distance_wrist_2_joint": 1.0920490399739382,
        "distance_wrist_3_joint": 0.10256634961744204,
        "smoothness": 6.661338200497456e-16,
        "time": 0.08005467899999999,
        "traj_len": 1.6077867527120366,
        "weighted_distance": 2.0310577839140898
    },
    "planner": "ProjEST",
    "start": {
        "state": {
            "elbow_joint": 1.9715477243005601,
            "shoulder_lift_joint": -1.1394853015351272,
            "shoulder_pan_joint": 0.12281154014795169,
            "wrist_1_joint": -0.7804696478968182,
            "wrist_2_joint": 0.12958648046900423,
            "wrist_3_joint": -3.192491284697111
        }
    },
    "waypoints": [
        {
            "positions": [
                0.12281154014795169,
                -1.1394853015351272,
                1.9715477243005601,
                -0.7804696478968182,
                0.12958648046900423,
                -3.192491284697111
            ]
        },
        {
            "positions": [
                0.05671686501533417,
                -1.1729988999888687,
                2.0358433239159237,
                -0.8151890393529434,
                0.2855934861795668,
                -3.1778389490374765
            ]
        },
        {
            "positions": [
                -0.00937781011728335,
                -1.2065124984426103,
                2.1001389235312873,
                -0.8499084308090685,
                0.4416004918901294,
                -3.163186613377842
            ]
        },
        {
            "positions": [
                -0.07547248524990087,
                -1.240026096896352,
                2.164434523146651,
                -0.8846278222651938,
                0.597607497600692,
                -3.1485342777182073
            ]
        },
        {
            "positions": [
                -0.14156716038251838,
                -1.2735396953500935,
                2.228730122762014,
                -0.9193472137213189,
                0.7536145033112546,
                -3.133881942058573
            ]
        },
        {
            "positions": [
                -0.20766183551513595,
                -1.3070532938038353,
                2.2930257223773776,
                -0.9540666051774441,
                0.9096215090218173,
                -3.1192296063989384
            ]
        },
        {
            "positions": [
                -0.2737565106477534,
                -1.3405668922575769,
                2.357321321992741,
                -0.9887859966335693,
                1.0656285147323796,
                -3.104577270739304
            ]
        },
        {
            "positions": [
                -0.339851185780371,
                -1.3740804907113184,
                2.4216169216081047,
                -1.0235053880896945,
                1.2216355204429425,
                -3.089924935079669
            ]
        }
    ]
}