{
    "goal": {
        "global_pose": {
            "orientation": {
                "w": 0.7047431468963623,
                "x": -0.7094548344612122,
                "y": 0.0024358443915843964,
                "z": -0.0022348060738295317
            },
            "position": {
                "x": 0.6094750761985779,
                "y": 0.3671506643295288,
                "z": 0.19426114857196808
            }
        },
        "name": "move_to_magneteinheit_A"
    },
    "id": "ProjEST_move_to_magneteinheit_A_74",
    "joint_names": [
        "shoulder_pan_joint",
        "shoulder_lift_joint",
        "elbow_joint",
        "wrist_1_joint",
        "wrist_2_joint",
        "wrist_3_joint"
    ],
    "metrics": {
        "cart_traj_len": 3.667162738125893,
        "distance_elbow_joint": 3.907930718419603,
        "distance_shoulder_lift_joint": 0.46993672788436636,
        "distance_shoulder_pan_joint": 4.144757257180256,
        "distance_wrist_1_joint": 3.4562159653815456,
        "distance_wrist_2_joint": 1.4416723794398174,
        "distance_wrist_3_joint": 1.4494973552589847,
        "smoothness": 0.146891231777922,
        "time": 0.231712053,
        "traj_len": 3.8561652458841245,
        "weighted_distance": 4.760976103584632
    },
    "planner": "ProjEST",
    "start": {
        "state": {
            "elbow_joint": -1.919618573717145,
            "shoulder_lift_joint": -1.2443395971678275,
            "shoulder_pan_joint": 2.6996025300909787,
            "wrist_1_joint": -1.548550951253194,
            "wrist_2_joint": -1.5709469090946802,
            "wrist_3_joint": 0.4420197732051276
        }
    },
    "waypoints": [
        {
            "positions": [
                2.6996025300909787,
                -1.2443395971678275,
                -1.919618573717145,
                -1.548550951253194,
                -1.5709469090946802,
                0.4420197732051276
            ]
        },
        {
            "positions": [
                2.5395733209321243,
                -1.2409427254754675,
                -1.8099648263001764,
                -1.4912877904492052,
                -1.5369945468134367,
                0.46672099535504624
            ]
        },
        {
            "positions": [
                2.3795441117732703,
                -1.2375458537831072,
                -1.7003110788832079,
                -1.4340246296452164,
                -1.503042184532193,
                0.4914222175049649
            ]
        },
        {
            "positions": [
                2.219514902614416,
                -1.2341489820907472,
                -1.5906573314662396,
                -1.3767614688412277,
                -1.4690898222509496,
                0.5161234396548835
            ]
        },
        {
            "positions": [
                2.059485693455562,
                -1.2307521103983872,
                -1.481003584049271,
                -1.3194983080372389,
                -1.435137459969706,
                0.5408246618048022
            ]
        },
        {
            "positions": [
                1.8994564842967074,
                -1.227355238706027,
                -1.3713498366323025,
                -1.26223514723325,
                -1.4011850976884626,
                0.5655258839547208
            ]
        },
        {
            "positions": [
                1.739427275137853,
                -1.223958367013667,
                -1.261696089215334,
                -1.2049719864292612,
                -1.3672327354072191,
                0.5902271061046395
            ]
        },
        {
            "positions": [
                1.5793980659789988,
                -1.2205614953213069,
                -1.1520423417983654,
                -1.1477088256252723,
                -1.3332803731259755,
                0.6149283282545581
            ]
        },
        {
            "positions": [
                1.4193688568201446,
                -1.2171646236289466,
                -1.0423885943813969,
                -1.0904456648212837,
                -1.299328010844732,
                0.6396295504044768
            ]
        },
        {
            "positions": [
                1.2593396476612901,
                -1.2137677519365866,
                -0.9327348469644285,
                -1.0331825040172948,
                -1.2653756485634884,
                0.6643307725543954
            ]
        },
        {
            "positions": [
                1.099310438502436,
                -1.2103708802442266,
                -0.82308109954746,
                -0.975919343213306,
                -1.231423286282245,
                0.6890319947043141
            ]
        },
        {
            "positions": [
                0.9392812293435815,
                -1.2069740085518663,
                -0.7134273521304915,
                -0.9186561824093171,
                -1.1974709240010013,
                0.7137332168542327
            ]
        },
        {
            "positions": [
                0.7792520201847273,
                -1.2035771368595063,
                -0.6037736047135231,
                -0.8613930216053284,
                -1.1635185617197579,
                0.7384344390041514
            ]
        },
        {
            "positions": [
                0.6192228110258728,
                -1.2001802651671463,
                -0.4941198572965544,
                -0.8041298608013395,
                -1.1295661994385142,
                0.76313566115407
            ]
        },
        {
            "positions": [
                0.45919360186701885,
                -1.196783393474786,
                -0.38446610987958607,
                -0.7468666999973508,
                -1.0956138371572708,
                0.7878368833039886
            ]
        },
        {
            "positions": [
                0.2991643927081644,
                -1.193386521782426,
                -0.27481236246261753,
                -0.6896035391933619,
                -1.0616614748760274,
                0.8125381054539074
            ]
        },
        {
            "positions": [
                0.13913518354931043,
                -1.189989650090066,
                -0.165158615045649,
                -0.6323403783893732,
                -1.027709112594784,
                0.8372393276038259
            ]
        },
        {
            "positions": [
                -0.02089402560954401,
                -1.1865927783977057,
                -0.055504867628680454,
                -0.5750772175853842,
                -0.9937567503135402,
                0.8619405497537447
            ]
        },
        {
            "positions": [
                -0.18092323476839844,
                -1.1831959067053457,
                0.05414887978828786,
                -0.5178140567813956,
                -0.9598043880322967,
                0.8866417719036632
            ]
        },
        {
            "positions": [
                -0.3409524439272529,
                -1.1797990350129857,
                0.1638026272052564,
                -0.4605508959774067,
                -0.9258520257510532,
                0.911342994053582
            ]
        },
        {
            "positions": [
                -0.5009816530861069,
                -1.1764021633206254,
                0.27345637462222494,
                -0.40328773517341787,
                -0.8918996634698096,
                0.9360442162035005
            ]
        },
        {
            "positions": [
                -0.6610108622449613,
                -1.1730052916282654,
                0.3831101220391936,
                -0.34602457436942896,
                -0.8579473011885661,
                0.9607454383534193
            ]
        },
        {
            "positions": [
                -0.6172711177480619,
                -1.1507768876836741,
                0.4749034198966316,
                -0.21791751279022245,
                -0.8162615255366539,
                0.9084496777870616
            ]
        },
        {
            "positions": [
                -0.5735313732511623,
                -1.1285484837390831,
                0.5666967177540696,
                -0.08981045121101594,
                -0.7745757498847418,
                0.856153917220704
            ]
        },
        {
            "positions": [
                -0.5297916287542629,
                -1.1063200797944919,
                0.6584900156115077,
                0.0382966103681906,
                -0.7328899742328295,
                0.8038581566543463
            ]
        },
        {
            "positions": [
                -0.4860518842573634,
                -1.0840916758499006,
                0.7502833134689457,
                0.16640367194739708,
                -0.6912041985809174,
                0.7515623960879887
            ]
        },
        {
            "positions": [
                -0.4423121397604639,
                -1.0618632719053094,
                0.8420766113263838,
                0.2945107335266037,
                -0.6495184229290052,
                0.699266635521631
            ]
        },
        {
            "positions": [
                -0.3985723952635644,
                -1.0396348679607184,
                0.9338699091838217,
                0.42261779510581016,
                -0.607832647277093,
                0.6469708749552733
            ]
        },
        {
            "positions": [
                -0.354832650766665,
                -1.017406464016127,
                1.0256632070412597,
                0.5507248566850167,
                -0.5661468716251807,
                0.5946751143889157
            ]
        },
        {
            "positions": [
                -0.3110929062697655,
                -0.995178060071536,
                1.1174565048986977,
                0.6788319182642231,
                -0.5244610959732686,
                0.542379353822558
            ]
        },
        {
            "positions": [
                -0.26735316177286605,
                -0.9729496561269447,
                1.2092498027561358,
                0.8069389798434297,
                -0.4827753203213564,
                0.4900835932562003
            ]
        },
        {
            "positions": [
                -0.22361341727596656,
                -0.9507212521823536,
                1.3010431006135739,
                0.9350460414226363,
                -0.4410895446694442,
                0.43778783268984267
            ]
        },
        {
            "positions": [
                -0.17987367277906707,
                -0.9284928482377623,
                1.3928363984710117,
                1.0631531030018426,
                -0.399403769017532,
                0.3854920721234849
            ]
        },
        {
            "positions": [
                -0.13613392828216753,
                -0.9062644442931712,
                1.48462969632845,
                1.1912601645810492,
                -0.3577179933656198,
                0.33319631155712726
            ]
        },
        {
            "positions": [
                -0.0923941837852682,
                -0.8840360403485801,
                1.5764229941858878,
                1.3193672261602556,
                -0.3160322177137077,
                0.2809005509907697
            ]
        },
        {
            "positions": [
                -0.048654439288368656,
                -0.8618076364039888,
                1.6682162920433257,
                1.4474742877394622,
                -0.2743464420617955,
                0.22860479042441206
            ]
        },
        {
            "positions": [
                -0.004914694791469221,
                -0.8395792324593977,
                1.760009589900764,
                1.5755813493186686,
                -0.23266066640988325,
                0.1763090298580543
            ]
        },
        {
            "positions": [
                0.038825049705430326,
                -0.8173508285148066,
                1.8518028877582018,
                1.7036884108978751,
                -0.19097489075797114,
                0.12401326929169665
            ]
        },
        {
            "positions": [
                0.0825647942023297,
                -0.7951224245702153,
                1.94359618561564,
                1.831795472477082,
                -0.14928911510605888,
                0.071717508725339
            ]
        },
        {
            "positions": [
                0.12313300259935367,
                -0.7744028692834611,
                1.9883121447024577,
                1.9076650141283504,
                -0.12927452965486325,
                0.029973748242726465
            ]
        }
    ]
}{
    "goal": {
        "global_pose": {
            "orientation": {
                "w": 0.7047431468963623,
                "x": -0.7094548344612122,
                "y": 0.0024358443915843964,
                "z": -0.0022348060738295317
            },
            "position": {
                "x": 0.6094750761985779,
                "y": 0.3671506643295288,
                "z": 0.19426114857196808
            }
        },
        "name": "move_to_magneteinheit_A"
    },
    "id": "ProjEST_move_to_magneteinheit_A_74",
    "joint_names": [
        "shoulder_pan_joint",
        "shoulder_lift_joint",
        "elbow_joint",
        "wrist_1_joint",
        "wrist_2_joint",
        "wrist_3_joint"
    ],
    "metrics": {
        "cart_traj_len": 1.2898671692974568,
        "distance_elbow_joint": 0.7948606642215001,
        "distance_shoulder_lift_joint": 0.7654018475442554,
        "distance_shoulder_pan_joint": 1.2406708312473025,
        "distance_wrist_1_joint": 4.706043228899836,
        "distance_wrist_2_joint": 1.4408923745659765,
        "distance_wrist_3_joint": 4.37133051568072,
        "smoothness": 0.3475461272835441,
        "time": 0.145244912,
        "traj_len": 3.649547843522481,
        "weighted_distance": 5.311195354812968
    },
    "planner": "ProjEST",
    "start": {
        "state": {
            "elbow_joint": 1.919643534880228,
            "shoulder_lift_joint": -1.8972525353963687,
            "shoulder_pan_joint": -1.1188672234189438,
            "wrist_1_joint": -1.5931878212786155,
            "wrist_2_joint": 1.5706036197970081,
            "wrist_3_joint": 1.118896926603594
        }
    },
    "waypoints": [
        {
            "positions": [
                -1.1188672234189438,
                -1.8972525353963687,
                1.919643534880228,
                -1.5931878212786155,
                1.5706036197970081,
                1.118896926603594
            ]
        },
        {
            "positions": [
                -1.0874606893758558,
                -1.8864050041165592,
                1.8996934405036028,
                -1.4460118262349488,
                1.5221486940244284,
                0.9951391521172414
            ]
        },
        {
            "positions": [
                -1.0560541553327678,
                -1.8755574728367497,
                1.8797433461269772,
                -1.2988358311912824,
                1.4736937682518485,
                0.8713813776308889
            ]
        },
        {
            "positions": [
                -1.0246476212896798,
                -1.8647099415569401,
                1.859793251750352,
                -1.1516598361476158,
                1.4252388424792688,
                0.7476236031445362
            ]
        },
        {
            "positions": [
                -0.9932410872465919,
                -1.8538624102771306,
                1.8398431573737266,
                -1.0044838411039492,
                1.3767839167066889,
                0.6238658286581837
            ]
        },
        {
            "positions": [
                -0.961834553203504,
                -1.8430148789973209,
                1.819893062997101,
                -0.8573078460602827,
                1.3283289909341092,
                0.5001080541718311
            ]
        },
        {
            "positions": [
                -0.930428019160416,
                -1.8321673477175113,
                1.7999429686204758,
                -0.7101318510166161,
                1.2798740651615292,
                0.3763502796854785
            ]
        },
        {
            "positions": [
                -0.8990214851173279,
                -1.8213198164377018,
                1.7799928742438504,
                -0.5629558559729495,
                1.2314191393889495,
                0.2525925051991259
            ]
        },
        {
            "positions": [
                -0.8676149510742399,
                -1.8104722851578923,
                1.760042779867225,
                -0.4157798609292829,
                1.1829642136163696,
                0.1288347307127734
            ]
        },
        {
            "positions": [
                -0.8362084170311519,
                -1.7996247538780827,
                1.7400926854905996,
                -0.26860386588561647,
                1.13450928784379,
                0.005076956226420792
            ]
        },
        {
            "positions": [
                -0.804801882988064,
                -1.7887772225982732,
                1.7201425911139743,
                -0.12142787084194984,
                1.0860543620712102,
                -0.11868081825993171
            ]
        },
        {
            "positions": [
                -0.773395348944976,
                -1.7779296913184637,
                1.700192496737349,
                0.025748124201716793,
                1.0375994362986303,
                -0.24243859274628443
            ]
        },
        {
            "positions": [
                -0.7419888149018881,
                -1.7670821600386541,
                1.6802424023607234,
                0.1729241192453832,
                0.9891445105260505,
                -0.36619636723263693
            ]
        },
        {
            "positions": [
                -0.7105822808588,
                -1.7562346287588446,
                1.660292307984098,
                0.32010011428905005,
                0.9406895847534706,
                -0.48995414171898966
            ]
        },
        {
            "positions": [
                -0.679175746815712,
                -1.745387097479035,
                1.6403422136074728,
                0.46727610933271646,
                0.8922346589808908,
                -0.6137119162053422
            ]
        },
        {
            "positions": [
                -0.647769212772624,
                -1.7345395661992253,
                1.6203921192308472,
                0.6144521043763833,
                0.843779733208311,
                -0.7374696906916949
            ]
        },
        {
            "positions": [
                -0.616362678729536,
                -1.7236920349194158,
                1.600442024854222,
                0.7616280994200497,
                0.7953248074357312,
                -0.8612274651780472
            ]
        },
        {
            "positions": [
                -0.584956144686448,
                -1.7128445036396063,
                1.5804919304775966,
                0.9088040944637161,
                0.7468698816631514,
                -0.9849852396644001
            ]
        },
        {
            "positions": [
                -0.5535496106433601,
                -1.7019969723597967,
                1.5605418361009713,
                1.0559800895073825,
                0.6984149558905716,
                -1.1087430141507524
            ]
        },
        {
            "positions": [
                -0.522143076600272,
                -1.6911494410799872,
                1.5405917417243458,
                1.2031560845510496,
                0.6499600301179917,
                -1.2325007886371049
            ]
        },
        {
            "positions": [
                -0.4818964088234826,
                -1.656193269003245,
                1.566579796165947,
                1.083799876859164,
                0.6174444810625567,
                -1.3587465886646062
            ]
        },
        {
            "positions": [
                -0.4416497410466932,
                -1.621237096926503,
                1.592567850607548,
                0.9644436691672781,
                0.5849289320071216,
                -1.4849923886921075
            ]
        },
        {
            "positions": [
                -0.40140307326990377,
                -1.586280924849761,
                1.6185559050491491,
                0.8450874614753923,
                0.5524133829516865,
                -1.611238188719609
            ]
        },
        {
            "positions": [
                -0.36115640549311434,
                -1.5513247527730187,
                1.6445439594907503,
                0.7257312537835066,
                0.5198978338962514,
                -1.7374839887471103
            ]
        },
        {
            "positions": [
                -0.3209097377163249,
                -1.5163685806962766,
                1.6705320139323514,
                0.6063750460916209,
                0.48738228484081636,
                -1.8637297887746116
            ]
        },
        {
            "positions": [
                -0.2806630699395355,
                -1.4814124086195344,
                1.6965200683739525,
                0.48701883839973503,
                0.4548667357853813,
                -1.9899755888021131
            ]
        },
        {
            "positions": [
                -0.24041640216274607,
                -1.4464562365427924,
                1.7225081228155537,
                0.3676626307078492,
                0.4223511867299462,
                -2.116221388829614
            ]
        },
        {
            "positions": [
                -0.20016973438595664,
                -1.4115000644660503,
                1.7484961772571546,
                0.2483064230159635,
                0.3898356376745111,
                -2.2424671888571157
            ]
        },
        {
            "positions": [
                -0.15992306660916722,
                -1.376543892389308,
                1.774484231698756,
                0.1289502153240778,
                0.35732008861907605,
                -2.3687129888846172
            ]
        },
        {
            "positions": [
                -0.1196763988323778,
                -1.3415877203125661,
                1.8004722861403568,
                0.009594007632192092,
                0.32480453956364097,
                -2.4949587889121183
            ]
        },
        {
            "positions": [
                -0.07942973105558837,
                -1.306631548235824,
                1.826460340581958,
                -0.10976220005969384,
                0.2922889905082059,
                -2.62120458893962
            ]
        },
        {
            "positions": [
                -0.039183063278798946,
                -1.2716753761590818,
                1.852448395023559,
                -0.22911840775157954,
                0.2597734414527708,
                -2.7474503889671213
            ]
        },
        {
            "positions": [
                0.001063604497990478,
                -1.2367192040823396,
                1.8784364494651602,
                -0.34847461544346525,
                0.22725789239733574,
                -2.8736961889946224
            ]
        },
        {
            "positions": [
                0.0413102722747799,
                -1.2017630320055974,
                1.9044245039067613,
                -0.4678308231353512,
                0.19474234334190066,
                -2.999941989022124
            ]
        },
        {
            "positions": [
                0.08155694005156933,
                -1.1668068599288555,
                1.9304125583483625,
                -0.5871870308272369,
                0.16222679428646558,
                -3.1261877890496255
            ]
        },
        {
            "positions": [
                0.12180360782835876,
                -1.1318506878521133,
                1.9564006127899636,
                -0.7065432385191225,
                0.12971124523103048,
                -3.2524335890771265
            ]
        }
    ]
}