{
    "goal": {
        "global_pose": {
            "orientation": {
                "w": 0.7047431468963623,
                "x": -0.7094548344612122,
                "y": 0.0024358443915843964,
                "z": -0.0022348060738295317
            },
            "position": {
                "x": 0.6094750761985779,
                "y": 0.3671506643295288,
                "z": 0.19426114857196808
            }
        },
        "name": "move_to_magneteinheit_A"
    },
    "id": "ProjEST_move_to_magneteinheit_A_48",
    "joint_names": [
        "shoulder_pan_joint",
        "shoulder_lift_joint",
        "elbow_joint",
        "wrist_1_joint",
        "wrist_2_joint",
        "wrist_3_joint"
    ],
    "metrics": {
        "cart_traj_len": 3.6440995110020276,
        "distance_elbow_joint": 3.887635791333861,
        "distance_shoulder_lift_joint": 0.1872692295105467,
        "distance_shoulder_pan_joint": 2.5757517998578208,
        "distance_wrist_1_joint": 0.7916101249734924,
        "distance_wrist_2_joint": 2.5031886355316155,
        "distance_wrist_3_joint": 2.624420902276099,
        "smoothness": 0.20200234768920025,
        "time": 0.090997096,
        "traj_len": 3.545402161036662,
        "weighted_distance": 4.594944727473959
    },
    "planner": "ProjEST",
    "start": {
        "state": {
            "elbow_joint": -1.919618573717145,
            "shoulder_lift_joint": -1.2443395971678275,
            "shoulder_pan_joint": 2.6996025300909787,
            "wrist_1_joint": -1.548550951253194,
            "wrist_2_joint": -1.5709469090946802,
            "wrist_3_joint": 0.4420197732051276
        }
    },
    "waypoints": [
        {
            "positions": [
                2.6996025300909787,
                -1.2443395971678275,
                -1.919618573717145,
                -1.548550951253194,
                -1.5709469090946802,
                0.4420197732051276
            ]
        },
        {
            "positions": [
                2.610842637664828,
                -1.2392704642544763,
                -1.8109304906310653,
                -1.5224231835849746,
                -1.4983930676173132,
                0.5235960768580112
            ]
        },
        {
            "positions": [
                2.5220827452386767,
                -1.2342013313411253,
                -1.7022424075449856,
                -1.4962954159167552,
                -1.4258392261399462,
                0.605172380510895
            ]
        },
        {
            "positions": [
                2.433322852812526,
                -1.229132198427774,
                -1.593554324458906,
                -1.4701676482485357,
                -1.3532853846625792,
                0.6867486841637787
            ]
        },
        {
            "positions": [
                2.344562960386375,
                -1.2240630655144231,
                -1.4848662413728264,
                -1.444039880580316,
                -1.2807315431852122,
                0.7683249878166624
            ]
        },
        {
            "positions": [
                2.255803067960224,
                -1.218993932601072,
                -1.3761781582867467,
                -1.4179121129120966,
                -1.208177701707845,
                0.8499012914695461
            ]
        },
        {
            "positions": [
                2.167043175534073,
                -1.2139247996877207,
                -1.267490075200667,
                -1.3917843452438772,
                -1.135623860230478,
                0.9314775951224298
            ]
        },
        {
            "positions": [
                2.078283283107922,
                -1.2088556667743697,
                -1.1588019921145873,
                -1.3656565775756577,
                -1.063070018753111,
                1.0130538987753135
            ]
        },
        {
            "positions": [
                1.989523390681771,
                -1.2037865338610185,
                -1.0501139090285077,
                -1.3395288099074383,
                -0.990516177275744,
                1.094630202428197
            ]
        },
        {
            "positions": [
                1.9007634982556203,
                -1.1987174009476673,
                -0.9414258259424281,
                -1.3134010422392188,
                -0.9179623357983769,
                1.176206506081081
            ]
        },
        {
            "positions": [
                1.8120036058294693,
                -1.1936482680343163,
                -0.8327377428563485,
                -1.2872732745709992,
                -0.84540849432101,
                1.2577828097339645
            ]
        },
        {
            "positions": [
                1.7232437134033183,
                -1.1885791351209651,
                -0.724049659770269,
                -1.2611455069027797,
                -0.772854652843643,
                1.339359113386848
            ]
        },
        {
            "positions": [
                1.6344838209771675,
                -1.1835100022076142,
                -0.6153615766841893,
                -1.2350177392345603,
                -0.700300811366276,
                1.420935417039732
            ]
        },
        {
            "positions": [
                1.5457239285510165,
                -1.178440869294263,
                -0.5066734935981096,
                -1.2088899715663408,
                -0.6277469698889089,
                1.5025117206926157
            ]
        },
        {
            "positions": [
                1.4569640361248655,
                -1.1733717363809117,
                -0.39798541051202996,
                -1.1827622038981214,
                -0.5551931284115419,
                1.5840880243454996
            ]
        },
        {
            "positions": [
                1.3682041436987145,
                -1.1683026034675608,
                -0.28929732742595027,
                -1.156634436229902,
                -0.4826392869341749,
                1.6656643279983832
            ]
        },
        {
            "positions": [
                1.2794442512725637,
                -1.1632334705542096,
                -0.18060924433987058,
                -1.1305066685616825,
                -0.4100854454568079,
                1.7472406316512668
            ]
        },
        {
            "positions": [
                1.1906843588464129,
                -1.1581643376408586,
                -0.07192116125379111,
                -1.104378900893463,
                -0.33753160397944093,
                1.8288169353041503
            ]
        },
        {
            "positions": [
                1.1019244664202617,
                -1.1530952047275074,
                0.0367669218322888,
                -1.0782511332252436,
                -0.2649777625020737,
                1.9103932389570342
            ]
        },
        {
            "positions": [
                1.0131645739941109,
                -1.1480260718141562,
                0.14545500491836827,
                -1.0521233655570241,
                -0.19242392102470696,
                1.9919695426099178
            ]
        },
        {
            "positions": [
                0.9244046815679599,
                -1.1429569389008052,
                0.25414308800444796,
                -1.0259955978888045,
                -0.11987007954733975,
                2.0735458462628014
            ]
        },
        {
            "positions": [
                0.8356447891418088,
                -1.137887805987454,
                0.36283117109052765,
                -0.999867830220585,
                -0.04731623806997276,
                2.155122149915685
            ]
        },
        {
            "positions": [
                0.746884896715658,
                -1.1328186730741028,
                0.4715192541766069,
                -0.9737400625523656,
                0.025237603407394227,
                2.2366984535685686
            ]
        },
        {
            "positions": [
                0.658125004289507,
                -1.1277495401607518,
                0.580207337262687,
                -0.947612294884146,
                0.09779144488476121,
                2.318274757221453
            ]
        },
        {
            "positions": [
                0.5693651118633563,
                -1.1226804072474006,
                0.6888954203487663,
                -0.9214845272159266,
                0.1703452863621282,
                2.399851060874336
            ]
        },
        {
            "positions": [
                0.48060521943720547,
                -1.1176112743340494,
                0.797583503434846,
                -0.8953567595477071,
                0.2428991278394952,
                2.48142736452722
            ]
        },
        {
            "positions": [
                0.39184532701105423,
                -1.1125421414206984,
                0.9062715865209257,
                -0.8692289918794877,
                0.3154529693168624,
                2.563003668180104
            ]
        },
        {
            "positions": [
                0.30308543458490345,
                -1.1074730085073472,
                1.0149596696070053,
                -0.8431012242112682,
                0.38800681079422916,
                2.644579971832987
            ]
        },
        {
            "positions": [
                0.2143255421587522,
                -1.1024038755939962,
                1.123647752693085,
                -0.8169734565430486,
                0.46056065227159637,
                2.7261562754858715
            ]
        },
        {
            "positions": [
                0.12556564973260145,
                -1.097334742680645,
                1.232335835779165,
                -0.7908456888748292,
                0.5331144937489635,
                2.807732579138755
            ]
        },
        {
            "positions": [
                0.12513691985774078,
                -1.107400836436486,
                1.4162561812385528,
                -0.7823694732260473,
                0.4333326855769704,
                2.872409603224373
            ]
        },
        {
            "positions": [
                0.12470818998288008,
                -1.117466930192327,
                1.6001765266979406,
                -0.7738932575772655,
                0.33355087740497735,
                2.9370866273099905
            ]
        },
        {
            "positions": [
                0.12427946010801941,
                -1.1275330239481682,
                1.7840968721573283,
                -0.7654170419284836,
                0.2337690692329843,
                3.0017636513956085
            ]
        },
        {
            "positions": [
                0.12385073023315872,
                -1.1375991177040092,
                1.968017217616716,
                -0.7569408262797017,
                0.13398726106099124,
                3.0664406754812266
            ]
        }
    ]
}{
    "goal": {
        "global_pose": {
            "orientation": {
                "w": 0.7047431468963623,
                "x": -0.7094548344612122,
                "y": 0.0024358443915843964,
                "z": -0.0022348060738295317
            },
            "position": {
                "x": 0.6094750761985779,
                "y": 0.3671506643295288,
                "z": 0.19426114857196808
            }
        },
        "name": "move_to_magneteinheit_A"
    },
    "id": "ProjEST_move_to_magneteinheit_A_48",
    "joint_names": [
        "shoulder_pan_joint",
        "shoulder_lift_joint",
        "elbow_joint",
        "wrist_1_joint",
        "wrist_2_joint",
        "wrist_3_joint"
    ],
    "metrics": {
        "cart_traj_len": 1.4502150969784924,
        "distance_elbow_joint": 0.29362590880032746,
        "distance_shoulder_lift_joint": 0.9416048554280634,
        "distance_shoulder_pan_joint": 1.5659386760945166,
        "distance_wrist_1_joint": 0.8359369221992555,
        "distance_wrist_2_joint": 1.4311293432304195,
        "distance_wrist_3_joint": 4.679885050125872,
        "smoothness": 0.5865849725460796,
        "time": 0.052271397,
        "traj_len": 3.1221980648060197,
        "weighted_distance": 4.623305865023411
    },
    "planner": "ProjEST",
    "start": {
        "state": {
            "elbow_joint": 1.919643534880228,
            "shoulder_lift_joint": -1.8972525353963687,
            "shoulder_pan_joint": -1.1188672234189438,
            "wrist_1_joint": -1.5931878212786155,
            "wrist_2_joint": 1.5706036197970081,
            "wrist_3_joint": 1.118896926603594
        }
    },
    "waypoints": [
        {
            "positions": [
                -1.1188672234189438,
                -1.8972525353963687,
                1.919643534880228,
                -1.5931878212786155,
                1.5706036197970081,
                1.118896926603594
            ]
        },
        {
            "positions": [
                -1.1729493103299629,
                -1.9274767392373895,
                1.8788477619472386,
                -1.5224862297682729,
                1.5340476682562982,
                1.1768142334697451
            ]
        },
        {
            "positions": [
                -1.227031397240982,
                -1.9577009430784105,
                1.8380519890142488,
                -1.4517846382579302,
                1.4974917167155881,
                1.2347315403358963
            ]
        },
        {
            "positions": [
                -1.281113484152001,
                -1.9879251469194312,
                1.7972562160812593,
                -1.3810830467475876,
                1.4609357651748782,
                1.2926488472020474
            ]
        },
        {
            "positions": [
                -1.2200833791362855,
                -1.950928092836605,
                1.804701372168275,
                -1.3539599098924473,
                1.403480917844083,
                1.096730015483464
            ]
        },
        {
            "positions": [
                -1.15905327412057,
                -1.913931038753779,
                1.8121465282552904,
                -1.326836773037307,
                1.3460260705132878,
                0.9008111837648807
            ]
        },
        {
            "positions": [
                -1.0980231691048543,
                -1.876933984670953,
                1.8195916843423061,
                -1.2997136361821666,
                1.2885712231824926,
                0.7048923520462972
            ]
        },
        {
            "positions": [
                -1.0369930640891387,
                -1.8399369305881268,
                1.8270368404293216,
                -1.2725904993270263,
                1.2311163758516974,
                0.5089735203277138
            ]
        },
        {
            "positions": [
                -0.975962959073423,
                -1.8029398765053006,
                1.8344819965163373,
                -1.245467362471886,
                1.1736615285209022,
                0.31305468860913044
            ]
        },
        {
            "positions": [
                -0.9149328540577073,
                -1.7659428224224745,
                1.841927152603353,
                -1.2183442256167456,
                1.116206681190107,
                0.11713585689054695
            ]
        },
        {
            "positions": [
                -0.8539027490419917,
                -1.7289457683396483,
                1.8493723086903684,
                -1.1912210887616053,
                1.0587518338593118,
                -0.07878297482803642
            ]
        },
        {
            "positions": [
                -0.7928726440262761,
                -1.6919487142568221,
                1.856817464777384,
                -1.164097951906465,
                1.0012969865285166,
                -0.2747018065466198
            ]
        },
        {
            "positions": [
                -0.7318425390105604,
                -1.654951660173996,
                1.8642626208643995,
                -1.1369748150513246,
                0.9438421391977213,
                -0.4706206382652034
            ]
        },
        {
            "positions": [
                -0.6708124339948449,
                -1.61795460609117,
                1.8717077769514152,
                -1.1098516781961842,
                0.8863872918669261,
                -0.6665394699837865
            ]
        },
        {
            "positions": [
                -0.6097823289791292,
                -1.5809575520083439,
                1.879152933038431,
                -1.082728541341044,
                0.8289324445361309,
                -0.8624583017023699
            ]
        },
        {
            "positions": [
                -0.5487522239634136,
                -1.5439604979255177,
                1.8865980891254464,
                -1.0556054044859036,
                0.7714775972053357,
                -1.0583771334209535
            ]
        },
        {
            "positions": [
                -0.487722118947698,
                -1.5069634438426918,
                1.894043245212462,
                -1.0284822676307632,
                0.7140227498745405,
                -1.2542959651395367
            ]
        },
        {
            "positions": [
                -0.4266920139319823,
                -1.4699663897598656,
                1.9014884012994777,
                -1.0013591307756229,
                0.6565679025437452,
                -1.4502147968581203
            ]
        },
        {
            "positions": [
                -0.3656619089162667,
                -1.4329693356770394,
                1.9089335573864932,
                -0.9742359939204825,
                0.5991130552129501,
                -1.6461336285767039
            ]
        },
        {
            "positions": [
                -0.3046318039005511,
                -1.3959722815942133,
                1.9163787134735089,
                -0.9471128570653423,
                0.5416582078821549,
                -1.842052460295287
            ]
        },
        {
            "positions": [
                -0.24360169888483552,
                -1.358975227511387,
                1.9238238695605243,
                -0.919989720210202,
                0.4842033605513597,
                -2.03797129201387
            ]
        },
        {
            "positions": [
                -0.1825715938691197,
                -1.321978173428561,
                1.93126902564754,
                -0.8928665833550615,
                0.4267485132205644,
                -2.233890123732454
            ]
        },
        {
            "positions": [
                -0.1215414888534041,
                -1.2849811193457348,
                1.9387141817345557,
                -0.8657434464999213,
                0.3692936658897692,
                -2.4298089554510374
            ]
        },
        {
            "positions": [
                -0.060511383837688726,
                -1.2479840652629086,
                1.9461593378215711,
                -0.838620309644781,
                0.311838818558974,
                -2.6257277871696205
            ]
        },
        {
            "positions": [
                0.0005187211780268708,
                -1.2109870111800827,
                1.9536044939085868,
                -0.8114971727896406,
                0.2543839712281788,
                -2.8216466188882037
            ]
        },
        {
            "positions": [
                0.06154882619374269,
                -1.1739899570972563,
                1.9610496499956023,
                -0.7843740359345003,
                0.1969291238973836,
                -3.0175654506067873
            ]
        },
        {
            "positions": [
                0.12257893120945837,
                -1.1369929030144303,
                1.968494806082618,
                -0.7572508990793599,
                0.13947427656658842,
                -3.2134842823253704
            ]
        }
    ]
}