{
    "goal": {
        "global_pose": {
            "orientation": {
                "w": 0.7047431468963623,
                "x": -0.7094548344612122,
                "y": 0.0024358443915843964,
                "z": -0.0022348060738295317
            },
            "position": {
                "x": 0.6094750761985779,
                "y": 0.3671506643295288,
                "z": 0.19426114857196808
            }
        },
        "name": "move_to_magneteinheit_A"
    },
    "id": "ProjEST_move_to_magneteinheit_A_20",
    "joint_names": [
        "shoulder_pan_joint",
        "shoulder_lift_joint",
        "elbow_joint",
        "wrist_1_joint",
        "wrist_2_joint",
        "wrist_3_joint"
    ],
    "metrics": {
        "cart_traj_len": 3.5059211749228725,
        "distance_elbow_joint": 3.879912386884164,
        "distance_shoulder_lift_joint": 0.16425339661184668,
        "distance_shoulder_pan_joint": 2.6404883485844297,
        "distance_wrist_1_joint": 0.8247804953091966,
        "distance_wrist_2_joint": 2.194876420771935,
        "distance_wrist_3_joint": 2.5882620571951915,
        "smoothness": 0.04624175962179799,
        "time": 0.10878269200000001,
        "traj_len": 3.5060765971890513,
        "weighted_distance": 4.526450500759759
    },
    "planner": "ProjEST",
    "start": {
        "state": {
            "elbow_joint": -1.919618573717145,
            "shoulder_lift_joint": -1.2443395971678275,
            "shoulder_pan_joint": 2.6996025300909787,
            "wrist_1_joint": -1.548550951253194,
            "wrist_2_joint": -1.5709469090946802,
            "wrist_3_joint": 0.4420197732051276
        }
    },
    "waypoints": [
        {
            "positions": [
                2.6996025300909787,
                -1.2443395971678275,
                -1.919618573717145,
                -1.548550951253194,
                -1.5709469090946802,
                0.4420197732051276
            ]
        },
        {
            "positions": [
                2.5982603285621395,
                -1.2455404414079807,
                -1.7978532370802913,
                -1.5279645334111902,
                -1.484877390396404,
                0.5017292167144114
            ]
        },
        {
            "positions": [
                2.4969181270333,
                -1.2467412856481337,
                -1.6760879004434375,
                -1.5073781155691863,
                -1.3988078716981278,
                0.5614386602236953
            ]
        },
        {
            "positions": [
                2.3955759255044606,
                -1.247942129888287,
                -1.5543225638065838,
                -1.4867916977271824,
                -1.3127383529998515,
                0.621148103732979
            ]
        },
        {
            "positions": [
                2.2942337239756214,
                -1.2491429741284399,
                -1.4325572271697302,
                -1.4662052798851786,
                -1.2266688343015755,
                0.6808575472422629
            ]
        },
        {
            "positions": [
                2.192891522446782,
                -1.250343818368593,
                -1.3107918905328764,
                -1.4456188620431747,
                -1.1405993156032994,
                0.7405669907515466
            ]
        },
        {
            "positions": [
                2.0915493209179425,
                -1.251544662608746,
                -1.189026553896023,
                -1.425032444201171,
                -1.0545297969050231,
                0.8002764342608305
            ]
        },
        {
            "positions": [
                1.9902071193891033,
                -1.2527455068488993,
                -1.0672612172591691,
                -1.4044460263591672,
                -0.968460278206747,
                0.8599858777701144
            ]
        },
        {
            "positions": [
                1.8888649178602641,
                -1.2539463510890523,
                -0.9454958806223154,
                -1.3838596085171633,
                -0.8823907595084708,
                0.9196953212793981
            ]
        },
        {
            "positions": [
                1.7875227163314247,
                -1.2551471953292055,
                -0.8237305439854616,
                -1.3632731906751594,
                -0.7963212408101946,
                0.9794047647886821
            ]
        },
        {
            "positions": [
                1.6861805148025855,
                -1.2563480395693585,
                -0.701965207348608,
                -1.3426867728331555,
                -0.7102517221119184,
                1.0391142082979659
            ]
        },
        {
            "positions": [
                1.584838313273746,
                -1.2575488838095117,
                -0.5801998707117544,
                -1.3221003549911516,
                -0.6241822034136423,
                1.0988236518072496
            ]
        },
        {
            "positions": [
                1.4834961117449068,
                -1.258749728049665,
                -0.45843453407490076,
                -1.3015139371491478,
                -0.5381126847153661,
                1.1585330953165334
            ]
        },
        {
            "positions": [
                1.3821539102160674,
                -1.2599505722898179,
                -0.3366691974380469,
                -1.2809275193071439,
                -0.4520431660170898,
                1.2182425388258173
            ]
        },
        {
            "positions": [
                1.280811708687228,
                -1.261151416529971,
                -0.21490386080119328,
                -1.26034110146514,
                -0.36597364731881377,
                1.277951982335101
            ]
        },
        {
            "positions": [
                1.1794695071583887,
                -1.262352260770124,
                -0.09313852416433988,
                -1.2397546836231363,
                -0.2799041286205377,
                1.3376614258443849
            ]
        },
        {
            "positions": [
                1.0781273056295493,
                -1.2635531050102773,
                0.028626812472514196,
                -1.2191682657811325,
                -0.19383460992226142,
                1.3973708693536688
            ]
        },
        {
            "positions": [
                0.9767851041007101,
                -1.2647539492504303,
                0.15039214910936782,
                -1.1985818479391286,
                -0.10776509122398537,
                1.4570803128629526
            ]
        },
        {
            "positions": [
                0.8754429025718706,
                -1.2659547934905835,
                0.2721574857462217,
                -1.1779954300971247,
                -0.021695572525709084,
                1.5167897563722366
            ]
        },
        {
            "positions": [
                0.7741007010430314,
                -1.2671556377307365,
                0.3939228223830751,
                -1.1574090122551208,
                0.0643739461725672,
                1.5764991998815203
            ]
        },
        {
            "positions": [
                0.6727584995141922,
                -1.2683564819708897,
                0.5156881590199289,
                -1.136822594413117,
                0.15044346487084326,
                1.636208643390804
            ]
        },
        {
            "positions": [
                0.5714162979853525,
                -1.2695573262110427,
                0.6374534956567828,
                -1.116236176571113,
                0.23651298356911954,
                1.695918086900088
            ]
        },
        {
            "positions": [
                0.47007409645651355,
                -1.2707581704511959,
                0.759218832293636,
                -1.0956497587291092,
                0.32258250226739554,
                1.7556275304093718
            ]
        },
        {
            "positions": [
                0.40948664688943137,
                -1.2543605594003155,
                0.885916074633258,
                -1.0452169003555096,
                0.33256993189328277,
                1.8524679109472166
            ]
        },
        {
            "positions": [
                0.34889919732234925,
                -1.237962948349435,
                1.0126133169728802,
                -0.99478404198191,
                0.34255736151917004,
                1.9493082914850617
            ]
        },
        {
            "positions": [
                0.28831174775526713,
                -1.2215653372985544,
                1.1393105593125024,
                -0.9443511836083104,
                0.35254479114505727,
                2.0461486720229067
            ]
        },
        {
            "positions": [
                0.22772429818818496,
                -1.205167726247674,
                1.2660078016521243,
                -0.8939183252347108,
                0.3625322207709445,
                2.1429890525607513
            ]
        },
        {
            "positions": [
                0.16713684862110278,
                -1.1887701151967938,
                1.3927050439917465,
                -0.8434854668611111,
                0.37251965039683177,
                2.2398294330985964
            ]
        },
        {
            "positions": [
                0.10654939905402068,
                -1.1723725041459132,
                1.5194022863313688,
                -0.7930526084875116,
                0.382507080022719,
                2.3366698136364414
            ]
        },
        {
            "positions": [
                0.10279331150509219,
                -1.1627621033155493,
                1.620141887742247,
                -0.7823985983105206,
                0.32694050842416156,
                2.4998561452410466
            ]
        },
        {
            "positions": [
                0.09903722395616371,
                -1.1531517024851854,
                1.7208814891531257,
                -0.7717445881335296,
                0.27137393682560407,
                2.6630424768456518
            ]
        },
        {
            "positions": [
                0.09528113640723522,
                -1.1435413016548217,
                1.8216210905640042,
                -0.7610905779565386,
                0.21580736522704663,
                2.826228808450257
            ]
        },
        {
            "positions": [
                0.09152504885830673,
                -1.1339309008244578,
                1.9223606919748826,
                -0.7504365677795476,
                0.16024079362848917,
                2.989415140054862
            ]
        },
        {
            "positions": [
                0.12393591621006363,
                -1.1329233471227176,
                1.9602938131670187,
                -0.7237704559439975,
                0.1410846483681839,
                3.030281830400319
            ]
        }
    ]
}{
    "goal": {
        "global_pose": {
            "orientation": {
                "w": 0.7047431468963623,
                "x": -0.7094548344612122,
                "y": 0.0024358443915843964,
                "z": -0.0022348060738295317
            },
            "position": {
                "x": 0.6094750761985779,
                "y": 0.3671506643295288,
                "z": 0.19426114857196808
            }
        },
        "name": "move_to_magneteinheit_A"
    },
    "id": "ProjEST_move_to_magneteinheit_A_20",
    "joint_names": [
        "shoulder_pan_joint",
        "shoulder_lift_joint",
        "elbow_joint",
        "wrist_1_joint",
        "wrist_2_joint",
        "wrist_3_joint"
    ],
    "metrics": {
        "cart_traj_len": 1.2375949964465496,
        "distance_elbow_joint": 0.18493964959608244,
        "distance_shoulder_lift_joint": 0.7523580822265867,
        "distance_shoulder_pan_joint": 1.24292224580205,
        "distance_wrist_1_joint": 0.7522387638243363,
        "distance_wrist_2_joint": 1.7542082585866556,
        "distance_wrist_3_joint": 4.26082283604842,
        "smoothness": 0.26686004639216226,
        "time": 0.586978863,
        "traj_len": 2.99123550328023,
        "weighted_distance": 4.469405165186075
    },
    "planner": "ProjEST",
    "start": {
        "state": {
            "elbow_joint": 1.919643534880228,
            "shoulder_lift_joint": -1.8972525353963687,
            "shoulder_pan_joint": -1.1188672234189438,
            "wrist_1_joint": -1.5931878212786155,
            "wrist_2_joint": 1.5706036197970081,
            "wrist_3_joint": 1.118896926603594
        }
    },
    "waypoints": [
        {
            "positions": [
                -1.1188672234189438,
                -1.8972525353963687,
                1.919643534880228,
                -1.5931878212786155,
                1.5706036197970081,
                1.118896926603594
            ]
        },
        {
            "positions": [
                -1.063026187066777,
                -1.8640379815255994,
                1.9168611490956504,
                -1.5590106996369286,
                1.4978626137491569,
                0.9287431571838232
            ]
        },
        {
            "positions": [
                -1.0071851507146101,
                -1.83082342765483,
                1.914078763311073,
                -1.5248335779952416,
                1.4251216077013056,
                0.7385893877640523
            ]
        },
        {
            "positions": [
                -0.9513441143624433,
                -1.7976088737840608,
                1.9112963775264953,
                -1.4906564563535547,
                1.3523806016534543,
                0.5484356183442815
            ]
        },
        {
            "positions": [
                -0.8955030780102764,
                -1.7643943199132917,
                1.9085139917419178,
                -1.4564793347118676,
                1.279639595605603,
                0.35828184892451054
            ]
        },
        {
            "positions": [
                -0.8396620416581095,
                -1.7311797660425223,
                1.9057316059573401,
                -1.4223022130701808,
                1.2068985895577518,
                0.16812807950473974
            ]
        },
        {
            "positions": [
                -0.7838210053059428,
                -1.697965212171753,
                1.9029492201727625,
                -1.388125091428494,
                1.1341575835099007,
                -0.022025689915031066
            ]
        },
        {
            "positions": [
                -0.7279799689537758,
                -1.6647506583009837,
                1.900166834388185,
                -1.3539479697868069,
                1.0614165774620492,
                -0.2121794593348021
            ]
        },
        {
            "positions": [
                -0.672138932601609,
                -1.6315361044302144,
                1.8973844486036073,
                -1.31977084814512,
                0.988675571414198,
                -0.4023332287545729
            ]
        },
        {
            "positions": [
                -0.6162978962494422,
                -1.598321550559445,
                1.8946020628190299,
                -1.285593726503433,
                0.9159345653663468,
                -0.5924869981743439
            ]
        },
        {
            "positions": [
                -0.5604568598972753,
                -1.5651069966886757,
                1.8918196770344522,
                -1.251416604861746,
                0.8431935593184956,
                -0.7826407675941145
            ]
        },
        {
            "positions": [
                -0.5046158235451085,
                -1.5318924428179064,
                1.8890372912498745,
                -1.2172394832200593,
                0.7704525532706443,
                -0.9727945370138855
            ]
        },
        {
            "positions": [
                -0.4487747871929417,
                -1.4986778889471373,
                1.886254905465297,
                -1.1830623615783722,
                0.6977115472227932,
                -1.162948306433656
            ]
        },
        {
            "positions": [
                -0.39293375084077475,
                -1.465463335076368,
                1.8834725196807194,
                -1.1488852399366853,
                0.6249705411749418,
                -1.3531020758534276
            ]
        },
        {
            "positions": [
                -0.3370927144886079,
                -1.4322487812055986,
                1.880690133896142,
                -1.1147081182949985,
                0.5522295351270905,
                -1.5432558452731981
            ]
        },
        {
            "positions": [
                -0.28125167813644114,
                -1.3990342273348293,
                1.8779077481115642,
                -1.0805309966533114,
                0.47948852907923944,
                -1.7334096146929687
            ]
        },
        {
            "positions": [
                -0.22541064178427417,
                -1.36581967346406,
                1.8751253623269868,
                -1.0463538750116244,
                0.40674752303138795,
                -1.9235633841127397
            ]
        },
        {
            "positions": [
                -0.16956960543210742,
                -1.3326051195932909,
                1.872342976542409,
                -1.0121767533699377,
                0.3340065169835369,
                -2.1137171535325106
            ]
        },
        {
            "positions": [
                -0.11372856907994056,
                -1.2993905657225215,
                1.8695605907578314,
                -0.9779996317282507,
                0.2612655109356854,
                -2.3038709229522816
            ]
        },
        {
            "positions": [
                -0.057887532727773694,
                -1.2661760118517522,
                1.866778204973254,
                -0.9438225100865637,
                0.18852450488783434,
                -2.4940246923720526
            ]
        },
        {
            "positions": [
                -0.002046496375606832,
                -1.2329614579809829,
                1.8639958191886763,
                -0.9096453884448769,
                0.11578349883998307,
                -2.6841784617918227
            ]
        },
        {
            "positions": [
                0.05379453997656003,
                -1.1997469041102136,
                1.8612134334040988,
                -0.8754682668031898,
                0.04304249279213179,
                -2.8743322312115946
            ]
        },
        {
            "positions": [
                0.10963557632872686,
                -1.1665323502394442,
                1.8584310476195212,
                -0.8412911451615029,
                -0.029698513255719428,
                -3.064486000631365
            ]
        },
        {
            "positions": [
                0.12405502238310594,
                -1.144894453169782,
                1.9821582099548967,
                -0.8409490574542792,
                0.12420761227820865,
                -3.1419259094448257
            ]
        }
    ]
}