{
    "goal": {
        "global_pose": {
            "orientation": {
                "w": 0.5084816217422485,
                "x": -0.49083608388900757,
                "y": 0.5182115435600281,
                "z": -0.4816462993621826
            },
            "position": {
                "x": 0.5540239810943604,
                "y": 0.030875300988554955,
                "z": 0.16403168439865112
            }
        },
        "name": "move_to_storage_A"
    },
    "id": "ProjEST_move_to_storage_A_4",
    "joint_names": [
        "shoulder_pan_joint",
        "shoulder_lift_joint",
        "elbow_joint",
        "wrist_1_joint",
        "wrist_2_joint",
        "wrist_3_joint"
    ],
    "metrics": {
        "cart_traj_len": 0.35393330366333176,
        "distance_elbow_joint": 0.45075612850428737,
        "distance_shoulder_lift_joint": 0.23299940504901917,
        "distance_shoulder_pan_joint": 0.4621631976858834,
        "distance_wrist_1_joint": 0.24738182467379966,
        "distance_wrist_2_joint": 1.1027255971281673,
        "distance_wrist_3_joint": 0.088492799379158,
        "smoothness": 4.440892133664971e-16,
        "time": 0.04370075700000001,
        "traj_len": 1.607643913439887,
        "weighted_distance": 2.027711018113922
    },
    "planner": "ProjEST",
    "start": {
        "state": {
            "elbow_joint": 1.9715477243005601,
            "shoulder_lift_joint": -1.1394853015351272,
            "shoulder_pan_joint": 0.12281154014795169,
            "wrist_1_joint": -0.7804696478968182,
            "wrist_2_joint": 0.12958648046900423,
            "wrist_3_joint": -3.192491284697111
        }
    },
    "waypoints": [
        {
            "positions": [
                0.12281154014795169,
                -1.1394853015351272,
                1.9715477243005601,
                -0.7804696478968182,
                0.12958648046900423,
                -3.192491284697111
            ]
        },
        {
            "positions": [
                0.0567882261928255,
                -1.1727709308278442,
                2.03594145694403,
                -0.8158099085645039,
                0.28711870863017097,
                -3.179849456214374
            ]
        },
        {
            "positions": [
                -0.009235087762300684,
                -1.2060565601205613,
                2.1003351895874993,
                -0.8511501692321894,
                0.4446509367913377,
                -3.1672076277316377
            ]
        },
        {
            "positions": [
                -0.07525840171742688,
                -1.2393421894132783,
                2.164728922230969,
                -0.8864904298998751,
                0.6021831649525045,
                -3.1545657992489007
            ]
        },
        {
            "positions": [
                -0.14128171567255304,
                -1.2726278187059952,
                2.2291226548744385,
                -0.9218306905675608,
                0.7597153931136712,
                -3.1419239707661637
            ]
        },
        {
            "positions": [
                -0.20730502962767927,
                -1.3059134479987122,
                2.2935163875179083,
                -0.9571709512352464,
                0.917247621274838,
                -3.1292821422834267
            ]
        },
        {
            "positions": [
                -0.27332834358280544,
                -1.3391990772914293,
                2.3579101201613777,
                -0.9925112119029321,
                1.0747798494360046,
                -3.11664031380069
            ]
        },
        {
            "positions": [
                -0.3393516575379317,
                -1.3724847065841463,
                2.4223038528048475,
                -1.0278514725706178,
                1.2323120775971714,
                -3.103998485317953
            ]
        }
    ]
}