{
    "goal": {
        "global_pose": {
            "orientation": {
                "w": 0.5084816217422485,
                "x": -0.49083608388900757,
                "y": 0.5182115435600281,
                "z": -0.4816462993621826
            },
            "position": {
                "x": 0.5540239810943604,
                "y": 0.030875300988554955,
                "z": 0.16403168439865112
            }
        },
        "name": "move_to_storage_A"
    },
    "id": "ProjEST_move_to_storage_A_70",
    "joint_names": [
        "shoulder_pan_joint",
        "shoulder_lift_joint",
        "elbow_joint",
        "wrist_1_joint",
        "wrist_2_joint",
        "wrist_3_joint"
    ],
    "metrics": {
        "cart_traj_len": 0.35383928903906886,
        "distance_elbow_joint": 0.4508246210886342,
        "distance_shoulder_lift_joint": 0.2353103733274744,
        "distance_shoulder_pan_joint": 0.46113065648522455,
        "distance_wrist_1_joint": 0.24004677370690886,
        "distance_wrist_2_joint": 1.108029893948971,
        "distance_wrist_3_joint": 0.10559536052025198,
        "smoothness": 1.3322676295501878e-15,
        "time": 0.061651406000000006,
        "traj_len": 1.612742285387676,
        "weighted_distance": 2.0396580761916563
    },
    "planner": "ProjEST",
    "start": {
        "state": {
            "elbow_joint": 1.9715477243005601,
            "shoulder_lift_joint": -1.1394853015351272,
            "shoulder_pan_joint": 0.12281154014795169,
            "wrist_1_joint": -0.7804696478968182,
            "wrist_2_joint": 0.12958648046900423,
            "wrist_3_joint": -3.192491284697111
        }
    },
    "waypoints": [
        {
            "positions": [
                0.12281154014795169,
                -1.1394853015351272,
                1.9715477243005601,
                -0.7804696478968182,
                0.12958648046900423,
                -3.192491284697111
            ]
        },
        {
            "positions": [
                0.056935732078633894,
                -1.173101069153338,
                2.0359512415989363,
                -0.8147620441406623,
                0.28787646531885724,
                -3.177406233194218
            ]
        },
        {
            "positions": [
                -0.008940075990683902,
                -1.2067168367715484,
                2.100354758897313,
                -0.8490544403845064,
                0.4461664501687102,
                -3.162321181691325
            ]
        },
        {
            "positions": [
                -0.07481588406000168,
                -1.2403326043897591,
                2.164758276195689,
                -0.8833468366283506,
                0.6044564350185633,
                -3.147236130188432
            ]
        },
        {
            "positions": [
                -0.14069169212931948,
                -1.2739483720079696,
                2.2291617934940655,
                -0.9176392328721946,
                0.7627464198684162,
                -3.1321510786855384
            ]
        },
        {
            "positions": [
                -0.2065675001986373,
                -1.3075641396261803,
                2.2935653107924416,
                -0.9519316291160388,
                0.9210364047182692,
                -3.1170660271826454
            ]
        },
        {
            "positions": [
                -0.27244330826795504,
                -1.3411799072443908,
                2.3579688280908178,
                -0.9862240253598828,
                1.0793263895681222,
                -3.1019809756797523
            ]
        },
        {
            "positions": [
                -0.33831911633727285,
                -1.3747956748626016,
                2.4223723453891943,
                -1.020516421603727,
                1.2376163744179751,
                -3.086895924176859
            ]
        }
    ]
}