{
    "goal": {
        "global_pose": {
            "orientation": {
                "w": 0.5084816217422485,
                "x": -0.49083608388900757,
                "y": 0.5182115435600281,
                "z": -0.4816462993621826
            },
            "position": {
                "x": 0.5540239810943604,
                "y": 0.030875300988554955,
                "z": 0.16403168439865112
            }
        },
        "name": "move_to_storage_A"
    },
    "id": "ProjEST_move_to_storage_A_10",
    "joint_names": [
        "shoulder_pan_joint",
        "shoulder_lift_joint",
        "elbow_joint",
        "wrist_1_joint",
        "wrist_2_joint",
        "wrist_3_joint"
    ],
    "metrics": {
        "cart_traj_len": 0.35284716560949214,
        "distance_elbow_joint": 0.44870541981259127,
        "distance_shoulder_lift_joint": 0.2343846971716359,
        "distance_shoulder_pan_joint": 0.4628677071929986,
        "distance_wrist_1_joint": 0.2373979129889211,
        "distance_wrist_2_joint": 1.0919012985391983,
        "distance_wrist_3_joint": 0.09311242855307134,
        "smoothness": 6.661338165333112e-16,
        "time": 0.015264566,
        "traj_len": 1.6026133233747986,
        "weighted_distance": 2.0208645508525995
    },
    "planner": "ProjEST",
    "start": {
        "state": {
            "elbow_joint": 1.9715477243005601,
            "shoulder_lift_joint": -1.1394853015351272,
            "shoulder_pan_joint": 0.12281154014795169,
            "wrist_1_joint": -0.7804696478968182,
            "wrist_2_joint": 0.12958648046900423,
            "wrist_3_joint": -3.192491284697111
        }
    },
    "waypoints": [
        {
            "positions": [
                0.12281154014795169,
                -1.1394853015351272,
                1.9715477243005601,
                -0.7804696478968182,
                0.12958648046900423,
                -3.192491284697111
            ]
        },
        {
            "positions": [
                0.05668758197752333,
                -1.1729688297025038,
                2.035648498559502,
                -0.814383635466664,
                0.2855723802603183,
                -3.1791895091895297
            ]
        },
        {
            "positions": [
                -0.009436376192905035,
                -1.2064523578698803,
                2.0997492728184435,
                -0.8482976230365099,
                0.4415582800516323,
                -3.1658877336819478
            ]
        },
        {
            "positions": [
                -0.07556033436333341,
                -1.239935886037257,
                2.163850047077385,
                -0.8822116106063558,
                0.5975441798429464,
                -3.1525859581743663
            ]
        },
        {
            "positions": [
                -0.14168429253376175,
                -1.2734194142046333,
                2.2279508213363264,
                -0.9161255981762016,
                0.7535300796342603,
                -3.1392841826667848
            ]
        },
        {
            "positions": [
                -0.20780825070419012,
                -1.30690294237201,
                2.292051595595268,
                -0.9500395857460475,
                0.9095159794255744,
                -3.1259824071592033
            ]
        },
        {
            "positions": [
                -0.2739322088746185,
                -1.3403864705393864,
                2.3561523698542097,
                -0.9839535733158934,
                1.0655018792168884,
                -3.1126806316516213
            ]
        },
        {
            "positions": [
                -0.3400561670450469,
                -1.373869998706763,
                2.4202531441131514,
                -1.0178675608857393,
                1.2214877790082026,
                -3.09937885614404
            ]
        }
    ]
}