{
    "goal": {
        "global_pose": {
            "orientation": {
                "w": 0.7047431468963623,
                "x": -0.7094548344612122,
                "y": 0.0024358443915843964,
                "z": -0.0022348060738295317
            },
            "position": {
                "x": 0.6094750761985779,
                "y": 0.3671506643295288,
                "z": 0.19426114857196808
            }
        },
        "name": "move_to_magneteinheit_A"
    },
    "id": "ProjEST_move_to_magneteinheit_A_29",
    "joint_names": [
        "shoulder_pan_joint",
        "shoulder_lift_joint",
        "elbow_joint",
        "wrist_1_joint",
        "wrist_2_joint",
        "wrist_3_joint"
    ],
    "metrics": {
        "cart_traj_len": 3.520599383538503,
        "distance_elbow_joint": 3.9079693314411488,
        "distance_shoulder_lift_joint": 1.1538743574653647,
        "distance_shoulder_pan_joint": 4.18267274382467,
        "distance_wrist_1_joint": 0.7702794035891019,
        "distance_wrist_2_joint": 1.709105124241826,
        "distance_wrist_3_joint": 3.5708156352389904,
        "smoothness": 0.14829829478206952,
        "time": 0.12362374599999999,
        "traj_len": 3.9108460204668116,
        "weighted_distance": 4.991566126388592
    },
    "planner": "ProjEST",
    "start": {
        "state": {
            "elbow_joint": -1.919618573717145,
            "shoulder_lift_joint": -1.2443395971678275,
            "shoulder_pan_joint": 2.6996025300909787,
            "wrist_1_joint": -1.548550951253194,
            "wrist_2_joint": -1.5709469090946802,
            "wrist_3_joint": 0.4420197732051276
        }
    },
    "waypoints": [
        {
            "positions": [
                2.6996025300909787,
                -1.2443395971678275,
                -1.919618573717145,
                -1.548550951253194,
                -1.5709469090946802,
                0.4420197732051276
            ]
        },
        {
            "positions": [
                2.530594985417839,
                -1.2707792459505685,
                -1.7884099203858799,
                -1.5503409903453098,
                -1.5447108431030028,
                0.40248023053642307
            ]
        },
        {
            "positions": [
                2.3615874407447,
                -1.2972188947333094,
                -1.6572012670546148,
                -1.5521310294374255,
                -1.5184747771113254,
                0.3629406878677186
            ]
        },
        {
            "positions": [
                2.1925798960715603,
                -1.3236585435160504,
                -1.5259926137233497,
                -1.5539210685295413,
                -1.492238711119648,
                0.3234011451990141
            ]
        },
        {
            "positions": [
                2.023572351398421,
                -1.3500981922987914,
                -1.3947839603920844,
                -1.555711107621657,
                -1.4660026451279706,
                0.28386160253030956
            ]
        },
        {
            "positions": [
                1.8545648067252816,
                -1.3765378410815323,
                -1.2635753070608193,
                -1.5575011467137727,
                -1.4397665791362932,
                0.24432205986160507
            ]
        },
        {
            "positions": [
                1.6855572620521424,
                -1.4029774898642733,
                -1.1323666537295543,
                -1.5592911858058884,
                -1.4135305131446156,
                0.20478251719290058
            ]
        },
        {
            "positions": [
                1.516549717379003,
                -1.4294171386470143,
                -1.0011580003982892,
                -1.5610812248980042,
                -1.3872944471529383,
                0.16524297452419606
            ]
        },
        {
            "positions": [
                1.3475421727058634,
                -1.4558567874297552,
                -0.8699493470670241,
                -1.5628712639901199,
                -1.3610583811612609,
                0.12570343185549154
            ]
        },
        {
            "positions": [
                1.178534628032724,
                -1.4822964362124962,
                -0.738740693735759,
                -1.5646613030822356,
                -1.3348223151695835,
                0.08616388918678708
            ]
        },
        {
            "positions": [
                1.0095270833595846,
                -1.508736084995237,
                -0.6075320404044939,
                -1.5664513421743513,
                -1.3085862491779061,
                0.04662434651808256
            ]
        },
        {
            "positions": [
                0.840519538686445,
                -1.5351757337779781,
                -0.47632338707322863,
                -1.568241381266467,
                -1.2823501831862287,
                0.007084803849378041
            ]
        },
        {
            "positions": [
                0.6715119940133061,
                -1.5616153825607189,
                -0.3451147337419638,
                -1.5700314203585828,
                -1.2561141171945513,
                -0.03245473881932642
            ]
        },
        {
            "positions": [
                0.5025044493401665,
                -1.58805503134346,
                -0.21390608041069847,
                -1.5718214594506985,
                -1.229878051202874,
                -0.07199428148803094
            ]
        },
        {
            "positions": [
                0.3334969046670273,
                -1.6144946801262008,
                -0.08269742707943362,
                -1.5736114985428142,
                -1.2036419852111966,
                -0.11153382415673546
            ]
        },
        {
            "positions": [
                0.1644893599938877,
                -1.6409343289089418,
                0.048511226251831685,
                -1.57540153763493,
                -1.177405919219519,
                -0.15107336682543998
            ]
        },
        {
            "positions": [
                -0.004518184679251913,
                -1.6673739776916827,
                0.17971987958309676,
                -1.5771915767270457,
                -1.1511698532278416,
                -0.1906129094941445
            ]
        },
        {
            "positions": [
                -0.17352572935239108,
                -1.6938136264744237,
                0.31092853291436184,
                -1.5789816158191614,
                -1.1249337872361642,
                -0.2301524521628489
            ]
        },
        {
            "positions": [
                -0.3425332740255307,
                -1.7202532752571646,
                0.4421371862456269,
                -1.5807716549112771,
                -1.0986977212444868,
                -0.2696919948315534
            ]
        },
        {
            "positions": [
                -0.5115408186986699,
                -1.7466929240399056,
                0.573345839576892,
                -1.5825616940033929,
                -1.0724616552528095,
                -0.30923153750025795
            ]
        },
        {
            "positions": [
                -0.6805483633718095,
                -1.7731325728226466,
                0.7045544929081571,
                -1.5843517330955086,
                -1.046225589261132,
                -0.34877108016896247
            ]
        },
        {
            "positions": [
                -0.6383103712474999,
                -1.7402335527273547,
                0.7721227173721491,
                -1.5456949635298882,
                -0.9838895995554332,
                -0.49508817395132565
            ]
        },
        {
            "positions": [
                -0.5960723791231903,
                -1.7073345326320628,
                0.839690941836141,
                -1.5070381939642679,
                -0.9215536098497344,
                -0.6414052677336888
            ]
        },
        {
            "positions": [
                -0.5538343869988809,
                -1.674435512536771,
                0.907259166300133,
                -1.4683814243986475,
                -0.8592176201440356,
                -0.787722361516052
            ]
        },
        {
            "positions": [
                -0.5115963948745713,
                -1.641536492441479,
                0.974827390764125,
                -1.4297246548330271,
                -0.7968816304383367,
                -0.9340394552984153
            ]
        },
        {
            "positions": [
                -0.46935840275026175,
                -1.6086374723461871,
                1.0423956152281169,
                -1.3910678852674065,
                -0.7345456407326378,
                -1.0803565490807783
            ]
        },
        {
            "positions": [
                -0.4271204106259522,
                -1.5757384522508953,
                1.109963839692109,
                -1.3524111157017862,
                -0.6722096510269391,
                -1.2266736428631415
            ]
        },
        {
            "positions": [
                -0.3848824185016427,
                -1.5428394321556034,
                1.177532064156101,
                -1.3137543461361658,
                -0.6098736613212402,
                -1.3729907366455048
            ]
        },
        {
            "positions": [
                -0.3426444263773331,
                -1.5099404120603115,
                1.245100288620093,
                -1.2750975765705455,
                -0.5475376716155413,
                -1.519307830427868
            ]
        },
        {
            "positions": [
                -0.30040643425302355,
                -1.4770413919650198,
                1.312668513084085,
                -1.236440807004925,
                -0.4852016819098426,
                -1.665624924210231
            ]
        },
        {
            "positions": [
                -0.25816844212871404,
                -1.4441423718697277,
                1.3802367375480769,
                -1.1977840374393047,
                -0.4228656922041437,
                -1.8119420179925942
            ]
        },
        {
            "positions": [
                -0.21593045000440442,
                -1.411243351774436,
                1.4478049620120688,
                -1.1591272678736844,
                -0.36052970249844485,
                -1.9582591117749575
            ]
        },
        {
            "positions": [
                -0.1736924578800949,
                -1.3783443316791442,
                1.5153731864760607,
                -1.120470498308064,
                -0.2981937127927461,
                -2.1045762055573203
            ]
        },
        {
            "positions": [
                -0.13145446575578534,
                -1.3454453115838523,
                1.5829414109400528,
                -1.0818137287424436,
                -0.2358577230870471,
                -2.2508932993396837
            ]
        },
        {
            "positions": [
                -0.08921647363147589,
                -1.3125462914885604,
                1.6505096354040447,
                -1.043156959176823,
                -0.17352173338134835,
                -2.3972103931220468
            ]
        },
        {
            "positions": [
                -0.046978481507166214,
                -1.2796472713932685,
                1.7180778598680368,
                -1.004500189611203,
                -0.11118574367564948,
                -2.54352748690441
            ]
        },
        {
            "positions": [
                -0.004740489382856761,
                -1.2467482512979766,
                1.7856460843320288,
                -0.9658434200455824,
                -0.04884975396995073,
                -2.6898445806867732
            ]
        },
        {
            "positions": [
                0.037497502741452804,
                -1.2138492312026847,
                1.8532143087960207,
                -0.927186650479962,
                0.013486235735748142,
                -2.8361616744691363
            ]
        },
        {
            "positions": [
                0.07973549486576237,
                -1.1809502111073928,
                1.9207825332600126,
                -0.8885298809143417,
                0.0758222254414469,
                -2.9824787682514993
            ]
        },
        {
            "positions": [
                0.12197348699007195,
                -1.148051191012101,
                1.9883507577240047,
                -0.8498731113487212,
                0.13815821514714594,
                -3.1287958620338627
            ]
        }
    ]
}{
    "goal": {
        "global_pose": {
            "orientation": {
                "w": 0.7047431468963623,
                "x": -0.7094548344612122,
                "y": 0.0024358443915843964,
                "z": -0.0022348060738295317
            },
            "position": {
                "x": 0.6094750761985779,
                "y": 0.3671506643295288,
                "z": 0.19426114857196808
            }
        },
        "name": "move_to_magneteinheit_A"
    },
    "id": "ProjEST_move_to_magneteinheit_A_29",
    "joint_names": [
        "shoulder_pan_joint",
        "shoulder_lift_joint",
        "elbow_joint",
        "wrist_1_joint",
        "wrist_2_joint",
        "wrist_3_joint"
    ],
    "metrics": {
        "cart_traj_len": 1.5470390278595578,
        "distance_elbow_joint": 2.064842132707489,
        "distance_shoulder_lift_joint": 0.7648703047941179,
        "distance_shoulder_pan_joint": 1.2409961834390721,
        "distance_wrist_1_joint": 1.7933515350910443,
        "distance_wrist_2_joint": 1.4466666940994335,
        "distance_wrist_3_joint": 4.3390217644555,
        "smoothness": 0.2652457103607745,
        "time": 0.115616466,
        "traj_len": 3.4131728076068244,
        "weighted_distance": 4.854668925136722
    },
    "planner": "ProjEST",
    "start": {
        "state": {
            "elbow_joint": 1.919643534880228,
            "shoulder_lift_joint": -1.8972525353963687,
            "shoulder_pan_joint": -1.1188672234189438,
            "wrist_1_joint": -1.5931878212786155,
            "wrist_2_joint": 1.5706036197970081,
            "wrist_3_joint": 1.118896926603594
        }
    },
    "waypoints": [
        {
            "positions": [
                -1.1188672234189438,
                -1.8972525353963687,
                1.919643534880228,
                -1.5931878212786155,
                1.5706036197970081,
                1.118896926603594
            ]
        },
        {
            "positions": [
                -1.1046922100781684,
                -1.8661004675513357,
                1.8601029643704747,
                -1.5153132506425198,
                1.4914044369796269,
                0.9945411494126226
            ]
        },
        {
            "positions": [
                -1.0905171967373932,
                -1.834948399706303,
                1.8005623938607214,
                -1.437438680006424,
                1.4122052541622454,
                0.8701853722216513
            ]
        },
        {
            "positions": [
                -1.0763421833966178,
                -1.80379633186127,
                1.741021823350968,
                -1.3595641093703281,
                1.3330060713448642,
                0.7458295950306799
            ]
        },
        {
            "positions": [
                -1.0621671700558426,
                -1.7726442640162372,
                1.6814812528412146,
                -1.2816895387342324,
                1.2538068885274827,
                0.6214738178397086
            ]
        },
        {
            "positions": [
                -1.0479921567150672,
                -1.7414921961712042,
                1.6219406823314613,
                -1.2038149680981367,
                1.1746077057101014,
                0.4971180406487371
            ]
        },
        {
            "positions": [
                -1.0338171433742918,
                -1.7103401283261714,
                1.562400111821708,
                -1.125940397462041,
                1.0954085228927202,
                0.37276226345776575
            ]
        },
        {
            "positions": [
                -1.0196421300335166,
                -1.6791880604811384,
                1.5028595413119545,
                -1.0480658268259453,
                1.0162093400753387,
                0.2484064862667945
            ]
        },
        {
            "positions": [
                -1.0054671166927411,
                -1.6480359926361057,
                1.4433189708022012,
                -0.9701912561898495,
                0.9370101572579573,
                0.12405070907582305
            ]
        },
        {
            "positions": [
                -0.9912921033519659,
                -1.6168839247910727,
                1.3837784002924478,
                -0.8923166855537538,
                0.8578109744405761,
                -0.00030506811514841026
            ]
        },
        {
            "positions": [
                -0.9771170900111905,
                -1.58573185694604,
                1.3242378297826944,
                -0.8144421149176579,
                0.7786117916231947,
                -0.12466084530611976
            ]
        },
        {
            "positions": [
                -0.9629420766704152,
                -1.554579789101007,
                1.264697259272941,
                -0.7365675442815622,
                0.6994126088058134,
                -0.2490166224970911
            ]
        },
        {
            "positions": [
                -0.9487670633296399,
                -1.523427721255974,
                1.2051566887631877,
                -0.6586929736454664,
                0.620213425988432,
                -0.37337239968806246
            ]
        },
        {
            "positions": [
                -0.9345920499888646,
                -1.4922756534109411,
                1.1456161182534343,
                -0.5808184030093708,
                0.5410142431710507,
                -0.4977281768790336
            ]
        },
        {
            "positions": [
                -0.9204170366480893,
                -1.4611235855659084,
                1.086075547743681,
                -0.5029438323732751,
                0.46181506035366926,
                -0.6220839540700049
            ]
        },
        {
            "positions": [
                -0.9062420233073138,
                -1.4299715177208754,
                1.0265349772339276,
                -0.4250692617371794,
                0.382615877536288,
                -0.7464397312609765
            ]
        },
        {
            "positions": [
                -0.8920670099665385,
                -1.3988194498758424,
                0.9669944067241742,
                -0.3471946911010835,
                0.30341669471890653,
                -0.8707955084519479
            ]
        },
        {
            "positions": [
                -0.8778919966257632,
                -1.3676673820308096,
                0.9074538362144209,
                -0.26932012046498777,
                0.22421751190152528,
                -0.9951512856429192
            ]
        },
        {
            "positions": [
                -0.8009673076530023,
                -1.3495685242286128,
                0.9884271003714733,
                -0.3054342615632505,
                0.21650362065506756,
                -1.1663030973513029
            ]
        },
        {
            "positions": [
                -0.7240426186802414,
                -1.331469666426416,
                1.0694003645285257,
                -0.3415484026615132,
                0.20878972940860985,
                -1.3374549090596866
            ]
        },
        {
            "positions": [
                -0.6471179297074805,
                -1.313370808624219,
                1.1503736286855781,
                -0.3776625437597759,
                0.20107583816215213,
                -1.50860672076807
            ]
        },
        {
            "positions": [
                -0.5701932407347197,
                -1.2952719508220223,
                1.2313468928426308,
                -0.41377668485803865,
                0.19336194691569442,
                -1.6797585324764537
            ]
        },
        {
            "positions": [
                -0.49326855176195866,
                -1.2771730930198255,
                1.3123201569996832,
                -0.44989082595630137,
                0.1856480556692367,
                -1.8509103441848374
            ]
        },
        {
            "positions": [
                -0.41634386278919777,
                -1.2590742352176287,
                1.3932934211567356,
                -0.4860049670545641,
                0.17793416442277898,
                -2.022062155893221
            ]
        },
        {
            "positions": [
                -0.33941917381643694,
                -1.2409753774154317,
                1.474266685313788,
                -0.5221191081528268,
                0.1702202731763213,
                -2.1932139676016047
            ]
        },
        {
            "positions": [
                -0.262494484843676,
                -1.222876519613235,
                1.5552399494708404,
                -0.5582332492510895,
                0.16250638192986358,
                -2.3643657793099884
            ]
        },
        {
            "positions": [
                -0.18556979587091516,
                -1.2047776618110382,
                1.6362132136278928,
                -0.5943473903493522,
                0.15479249068340586,
                -2.5355175910183716
            ]
        },
        {
            "positions": [
                -0.1086451068981541,
                -1.1866788040088414,
                1.7171864777849453,
                -0.630461531447615,
                0.14707859943694815,
                -2.7066694027267557
            ]
        },
        {
            "positions": [
                -0.03172041792539326,
                -1.1685799462066444,
                1.7981597419419977,
                -0.6665756725458777,
                0.13936470819049046,
                -2.877821214435139
            ]
        },
        {
            "positions": [
                0.04520427104736768,
                -1.1504810884044476,
                1.87913300609905,
                -0.7026898136441404,
                0.13165081694403272,
                -3.048973026143523
            ]
        },
        {
            "positions": [
                0.12212896002012853,
                -1.1323822306022508,
                1.9601062702561025,
                -0.7388039547424031,
                0.12393692569757501,
                -3.2201248378519063
            ]
        }
    ]
}