{
    "goal": {
        "global_pose": {
            "orientation": {
                "w": 0.7047431468963623,
                "x": -0.7094548344612122,
                "y": 0.0024358443915843964,
                "z": -0.0022348060738295317
            },
            "position": {
                "x": 0.6094750761985779,
                "y": 0.3671506643295288,
                "z": 0.19426114857196808
            }
        },
        "name": "move_to_magneteinheit_A"
    },
    "id": "ProjEST_move_to_magneteinheit_A_91",
    "joint_names": [
        "shoulder_pan_joint",
        "shoulder_lift_joint",
        "elbow_joint",
        "wrist_1_joint",
        "wrist_2_joint",
        "wrist_3_joint"
    ],
    "metrics": {
        "cart_traj_len": 3.9757576670371724,
        "distance_elbow_joint": 3.9086865006744977,
        "distance_shoulder_lift_joint": 0.674218154523013,
        "distance_shoulder_pan_joint": 3.3097550929865047,
        "distance_wrist_1_joint": 0.6847255248508916,
        "distance_wrist_2_joint": 1.694251002553221,
        "distance_wrist_3_joint": 2.71808043813009,
        "smoothness": 0.14482240164007962,
        "time": 0.071447179,
        "traj_len": 3.604124958116494,
        "weighted_distance": 4.561233837174159
    },
    "planner": "ProjEST",
    "start": {
        "state": {
            "elbow_joint": -1.919618573717145,
            "shoulder_lift_joint": -1.2443395971678275,
            "shoulder_pan_joint": 2.6996025300909787,
            "wrist_1_joint": -1.548550951253194,
            "wrist_2_joint": -1.5709469090946802,
            "wrist_3_joint": 0.4420197732051276
        }
    },
    "waypoints": [
        {
            "positions": [
                2.6996025300909787,
                -1.2443395971678275,
                -1.919618573717145,
                -1.548550951253194,
                -1.5709469090946802,
                0.4420197732051276
            ]
        },
        {
            "positions": [
                2.586392326773325,
                -1.2295221446356888,
                -1.8196226258135177,
                -1.5275512231429376,
                -1.5324039533327398,
                0.5364455465860052
            ]
        },
        {
            "positions": [
                2.473182123455671,
                -1.21470469210355,
                -1.7196266779098903,
                -1.506551495032681,
                -1.4938609975707995,
                0.6308713199668827
            ]
        },
        {
            "positions": [
                2.359971920138017,
                -1.1998872395714113,
                -1.6196307300062631,
                -1.4855517669224245,
                -1.4553180418088594,
                0.7252970933477604
            ]
        },
        {
            "positions": [
                2.2467617168203633,
                -1.1850697870392726,
                -1.5196347821026357,
                -1.464552038812168,
                -1.416775086046919,
                0.819722866728638
            ]
        },
        {
            "positions": [
                2.1335515135027094,
                -1.1702523345071338,
                -1.4196388341990085,
                -1.4435523107019115,
                -1.3782321302849787,
                0.9141486401095156
            ]
        },
        {
            "positions": [
                2.0203413101850556,
                -1.1554348819749953,
                -1.319642886295381,
                -1.422552582591655,
                -1.3396891745230384,
                1.0085744134903931
            ]
        },
        {
            "positions": [
                1.9071311068674015,
                -1.1406174294428566,
                -1.219646938391754,
                -1.4015528544813984,
                -1.3011462187610983,
                1.1030001868712707
            ]
        },
        {
            "positions": [
                1.7939209035497474,
                -1.1257999769107179,
                -1.1196509904881267,
                -1.380553126371142,
                -1.262603262999158,
                1.1974259602521484
            ]
        },
        {
            "positions": [
                1.6807107002320938,
                -1.1109825243785791,
                -1.0196550425844992,
                -1.3595533982608854,
                -1.2240603072372176,
                1.291851733633026
            ]
        },
        {
            "positions": [
                1.5675004969144397,
                -1.0961650718464404,
                -0.919659094680872,
                -1.3385536701506289,
                -1.1855173514752773,
                1.3862775070139035
            ]
        },
        {
            "positions": [
                1.4542902935967859,
                -1.0813476193143017,
                -0.8196631467772448,
                -1.3175539420403724,
                -1.146974395713337,
                1.480703280394781
            ]
        },
        {
            "positions": [
                1.341080090279132,
                -1.066530166782163,
                -0.7196671988736174,
                -1.2965542139301158,
                -1.1084314399513968,
                1.5751290537756588
            ]
        },
        {
            "positions": [
                1.2278698869614781,
                -1.0517127142500242,
                -0.6196712509699902,
                -1.275554485819859,
                -1.0698884841894565,
                1.6695548271565364
            ]
        },
        {
            "positions": [
                1.1146596836438243,
                -1.0368952617178855,
                -0.519675303066363,
                -1.2545547577096028,
                -1.0313455284275164,
                1.763980600537414
            ]
        },
        {
            "positions": [
                1.0014494803261704,
                -1.0220778091857468,
                -0.4196793551627358,
                -1.233555029599346,
                -0.9928025726655759,
                1.8584063739182914
            ]
        },
        {
            "positions": [
                0.8882392770085163,
                -1.007260356653608,
                -0.31968340725910815,
                -1.2125553014890895,
                -0.9542596169036356,
                1.9528321472991692
            ]
        },
        {
            "positions": [
                0.7750290736908625,
                -0.9924429041214694,
                -0.21968745935548095,
                -1.191555573378833,
                -0.9157166611416954,
                2.0472579206800465
            ]
        },
        {
            "positions": [
                0.6618188703732089,
                -0.9776254515893308,
                -0.11969151145185375,
                -1.1705558452685765,
                -0.877173705379755,
                2.1416836940609243
            ]
        },
        {
            "positions": [
                0.548608667055555,
                -0.962807999057192,
                -0.019695563548226547,
                -1.14955611715832,
                -0.8386307496178148,
                2.2361094674418016
            ]
        },
        {
            "positions": [
                0.4353984637379007,
                -0.9479905465250533,
                0.08030038435540088,
                -1.1285563890480634,
                -0.8000877938558745,
                2.3305352408226794
            ]
        },
        {
            "positions": [
                0.32218826042024684,
                -0.9331730939929146,
                0.1802963322590283,
                -1.107556660937807,
                -0.7615448380939343,
                2.424961014203557
            ]
        },
        {
            "positions": [
                0.20897805710259298,
                -0.9183556414607759,
                0.2802922801626553,
                -1.0865569328275504,
                -0.7230018823319939,
                2.5193867875844345
            ]
        },
        {
            "positions": [
                0.09576785378493913,
                -0.9035381889286371,
                0.3802882280662827,
                -1.0655572047172939,
                -0.6844589265700537,
                2.6138125609653122
            ]
        },
        {
            "positions": [
                -0.01744234953271473,
                -0.8887207363964984,
                0.48028417596991013,
                -1.0445574766070373,
                -0.6459159708081134,
                2.70823833434619
            ]
        },
        {
            "positions": [
                -0.1306525528503686,
                -0.8739032838643597,
                0.5802801238735371,
                -1.0235577484967808,
                -0.607373015046173,
                2.8026641077270678
            ]
        },
        {
            "positions": [
                -0.2438627561680225,
                -0.859085831332221,
                0.6802760717771643,
                -1.0025580203865243,
                -0.5688300592842328,
                2.897089881107945
            ]
        },
        {
            "positions": [
                -0.19943605577161028,
                -0.8950696625457044,
                0.8459458946182735,
                -0.9837545911187162,
                -0.4811818541210988,
                2.930689597850739
            ]
        },
        {
            "positions": [
                -0.15500935537519805,
                -0.9310534937591877,
                1.0116157174593827,
                -0.964951161850908,
                -0.39353364895796483,
                2.964289314593532
            ]
        },
        {
            "positions": [
                -0.1105826549787858,
                -0.967037324972671,
                1.177285540300492,
                -0.9461477325830999,
                -0.30588544379483085,
                2.997889031336326
            ]
        },
        {
            "positions": [
                -0.06615595458237358,
                -1.0030211561861544,
                1.3429553631416011,
                -0.9273443033152917,
                -0.21823723863169686,
                3.031488748079119
            ]
        },
        {
            "positions": [
                -0.021729254185961333,
                -1.0390049873996376,
                1.5086251859827104,
                -0.9085408740474836,
                -0.13058903346856288,
                3.0650884648219128
            ]
        },
        {
            "positions": [
                0.02269744621045089,
                -1.0749888186131211,
                1.6742950088238198,
                -0.8897374447796755,
                -0.04294082830542889,
                3.098688181564706
            ]
        },
        {
            "positions": [
                0.06712414660686308,
                -1.1109726498266044,
                1.839964831664929,
                -0.8709340155118673,
                0.04470737685770507,
                3.1322878983074998
            ]
        },
        {
            "positions": [
                0.12242705055948226,
                -1.1480502200196276,
                1.9890679269573524,
                -0.8638254264023025,
                0.1233040934585407,
                3.1601002113352177
            ]
        }
    ]
}{
    "goal": {
        "global_pose": {
            "orientation": {
                "w": 0.7047431468963623,
                "x": -0.7094548344612122,
                "y": 0.0024358443915843964,
                "z": -0.0022348060738295317
            },
            "position": {
                "x": 0.6094750761985779,
                "y": 0.3671506643295288,
                "z": 0.19426114857196808
            }
        },
        "name": "move_to_magneteinheit_A"
    },
    "id": "ProjEST_move_to_magneteinheit_A_91",
    "joint_names": [
        "shoulder_pan_joint",
        "shoulder_lift_joint",
        "elbow_joint",
        "wrist_1_joint",
        "wrist_2_joint",
        "wrist_3_joint"
    ],
    "metrics": {
        "cart_traj_len": 1.2057036300604949,
        "distance_elbow_joint": 0.03222687921795897,
        "distance_shoulder_lift_joint": 0.7701737813792473,
        "distance_shoulder_pan_joint": 1.240529139304302,
        "distance_wrist_1_joint": 0.8974096047357473,
        "distance_wrist_2_joint": 1.4497884806704247,
        "distance_wrist_3_joint": 1.888402494806862,
        "smoothness": 1.0449157961564637e-16,
        "time": 0.072758763,
        "traj_len": 2.5056995789827923,
        "weighted_distance": 3.521723080415954
    },
    "planner": "ProjEST",
    "start": {
        "state": {
            "elbow_joint": 1.919643534880228,
            "shoulder_lift_joint": -1.8972525353963687,
            "shoulder_pan_joint": -1.1188672234189438,
            "wrist_1_joint": -1.5931878212786155,
            "wrist_2_joint": 1.5706036197970081,
            "wrist_3_joint": 1.118896926603594
        }
    },
    "waypoints": [
        {
            "positions": [
                -1.1188672234189438,
                -1.8972525353963687,
                1.919643534880228,
                -1.5931878212786155,
                1.5706036197970081,
                1.118896926603594
            ]
        },
        {
            "positions": [
                -1.0413341522124249,
                -1.8491166740601659,
                1.9216577148313505,
                -1.5370997209826314,
                1.4799918397551066,
                1.2369220825290228
            ]
        },
        {
            "positions": [
                -0.9638010810059061,
                -1.8009808127239628,
                1.923671894782473,
                -1.481011620686647,
                1.389380059713205,
                1.3549472384544516
            ]
        },
        {
            "positions": [
                -0.8862680097993871,
                -1.7528449513877598,
                1.9256860747335953,
                -1.424923520390663,
                1.2987682796713034,
                1.4729723943798807
            ]
        },
        {
            "positions": [
                -0.8087349385928684,
                -1.704709090051557,
                1.927700254684718,
                -1.3688354200946786,
                1.208156499629402,
                1.5909975503053095
            ]
        },
        {
            "positions": [
                -0.7312018673863494,
                -1.656573228715354,
                1.9297144346358404,
                -1.3127473197986945,
                1.1175447195875003,
                1.7090227062307384
            ]
        },
        {
            "positions": [
                -0.6536687961798305,
                -1.608437367379151,
                1.9317286145869628,
                -1.2566592195027102,
                1.0269329395455988,
                1.8270478621561672
            ]
        },
        {
            "positions": [
                -0.5761357249733117,
                -1.560301506042948,
                1.9337427945380852,
                -1.200571119206726,
                0.9363211595036973,
                1.945073018081596
            ]
        },
        {
            "positions": [
                -0.4986026537667928,
                -1.512165644706745,
                1.9357569744892076,
                -1.1444830189107418,
                0.8457093794617958,
                2.063098174007025
            ]
        },
        {
            "positions": [
                -0.42106958256027394,
                -1.4640297833705422,
                1.93777115444033,
                -1.0883949186147577,
                0.7550975994198943,
                2.181123329932454
            ]
        },
        {
            "positions": [
                -0.34353651135375507,
                -1.4158939220343392,
                1.9397853343914524,
                -1.0323068183187734,
                0.6644858193779928,
                2.2991484858578826
            ]
        },
        {
            "positions": [
                -0.2660034401472362,
                -1.367758060698136,
                1.9417995143425748,
                -0.9762187180227893,
                0.5738740393360912,
                2.417173641783312
            ]
        },
        {
            "positions": [
                -0.18847036894071723,
                -1.3196221993619333,
                1.9438136942936972,
                -0.920130617726805,
                0.48326225929418953,
                2.5351987977087402
            ]
        },
        {
            "positions": [
                -0.11093729773419847,
                -1.2714863380257304,
                1.9458278742448198,
                -0.8640425174308208,
                0.392650479252288,
                2.6532239536341695
            ]
        },
        {
            "positions": [
                -0.03340422652767949,
                -1.2233504766895273,
                1.9478420541959423,
                -0.8079544171348366,
                0.3020386992103865,
                2.7712491095595984
            ]
        },
        {
            "positions": [
                0.04412884467883926,
                -1.1752146153533243,
                1.9498562341470647,
                -0.7518663168388524,
                0.211426919168485,
                2.889274265485027
            ]
        },
        {
            "positions": [
                0.1216619158853583,
                -1.1270787540171214,
                1.951870414098187,
                -0.6957782165428682,
                0.12081513912658359,
                3.007299421410456
            ]
        }
    ]
}