{
    "goal": {
        "global_pose": {
            "orientation": {
                "w": 0.7047431468963623,
                "x": -0.7094548344612122,
                "y": 0.0024358443915843964,
                "z": -0.0022348060738295317
            },
            "position": {
                "x": 0.6094750761985779,
                "y": 0.3671506643295288,
                "z": 0.19426114857196808
            }
        },
        "name": "move_to_magneteinheit_A"
    },
    "id": "ProjEST_move_to_magneteinheit_A_120",
    "joint_names": [
        "shoulder_pan_joint",
        "shoulder_lift_joint",
        "elbow_joint",
        "wrist_1_joint",
        "wrist_2_joint",
        "wrist_3_joint"
    ],
    "metrics": {
        "cart_traj_len": 3.6017466899712134,
        "distance_elbow_joint": 3.876533965394188,
        "distance_shoulder_lift_joint": 0.11231660722409043,
        "distance_shoulder_pan_joint": 2.8004905237523467,
        "distance_wrist_1_joint": 0.8339546060704337,
        "distance_wrist_2_joint": 2.0292149753875934,
        "distance_wrist_3_joint": 2.5864953706544784,
        "smoothness": 0.19691296518332652,
        "time": 0.119507232,
        "traj_len": 3.4984290829575393,
        "weighted_distance": 4.502795395223963
    },
    "planner": "ProjEST",
    "start": {
        "state": {
            "elbow_joint": -1.919618573717145,
            "shoulder_lift_joint": -1.2443395971678275,
            "shoulder_pan_joint": 2.6996025300909787,
            "wrist_1_joint": -1.548550951253194,
            "wrist_2_joint": -1.5709469090946802,
            "wrist_3_joint": 0.4420197732051276
        }
    },
    "waypoints": [
        {
            "positions": [
                2.6996025300909787,
                -1.2443395971678275,
                -1.919618573717145,
                -1.548550951253194,
                -1.5709469090946802,
                0.4420197732051276
            ]
        },
        {
            "positions": [
                2.6035895532332494,
                -1.2429208955777211,
                -1.7992762423838158,
                -1.5299539276631864,
                -1.5042497161608033,
                0.5310817901256681
            ]
        },
        {
            "positions": [
                2.50757657637552,
                -1.2415021939876147,
                -1.6789339110504868,
                -1.5113569040731785,
                -1.4375525232269264,
                0.6201438070462086
            ]
        },
        {
            "positions": [
                2.411563599517791,
                -1.2400834923975084,
                -1.5585915797171577,
                -1.4927598804831708,
                -1.3708553302930495,
                0.7092058239667491
            ]
        },
        {
            "positions": [
                2.3155506226600617,
                -1.238664790807402,
                -1.4382492483838285,
                -1.474162856893163,
                -1.3041581373591726,
                0.7982678408872896
            ]
        },
        {
            "positions": [
                2.2195376458023324,
                -1.2372460892172958,
                -1.3179069170504993,
                -1.4555658333031554,
                -1.2374609444252958,
                0.8873298578078301
            ]
        },
        {
            "positions": [
                2.1235246689446035,
                -1.2358273876271895,
                -1.1975645857171704,
                -1.4369688097131474,
                -1.1707637514914189,
                0.9763918747283706
            ]
        },
        {
            "positions": [
                2.027511692086874,
                -1.234408686037083,
                -1.0772222543838412,
                -1.4183717861231397,
                -1.1040665585575418,
                1.0654538916489111
            ]
        },
        {
            "positions": [
                1.9314987152291447,
                -1.2329899844469767,
                -0.9568799230505122,
                -1.399774762533132,
                -1.037369365623665,
                1.1545159085694516
            ]
        },
        {
            "positions": [
                1.8354857383714154,
                -1.2315712828568703,
                -0.8365375917171829,
                -1.3811777389431241,
                -0.970672172689788,
                1.2435779254899921
            ]
        },
        {
            "positions": [
                1.7394727615136862,
                -1.230152581266764,
                -0.716195260383854,
                -1.3625807153531164,
                -0.9039749797559111,
                1.3326399424105326
            ]
        },
        {
            "positions": [
                1.643459784655957,
                -1.2287338796766576,
                -0.5958529290505248,
                -1.3439836917631087,
                -0.8372777868220342,
                1.4217019593310731
            ]
        },
        {
            "positions": [
                1.5474468077982277,
                -1.2273151780865512,
                -0.47551059771719584,
                -1.325386668173101,
                -0.7705805938881574,
                1.5107639762516136
            ]
        },
        {
            "positions": [
                1.4514338309404984,
                -1.2258964764964448,
                -0.35516826638386645,
                -1.306789644583093,
                -0.7038834009542804,
                1.5998259931721541
            ]
        },
        {
            "positions": [
                1.3554208540827692,
                -1.2244777749063385,
                -0.2348259350505375,
                -1.2881926209930854,
                -0.6371862080204035,
                1.6888880100926946
            ]
        },
        {
            "positions": [
                1.25940787722504,
                -1.2230590733162323,
                -0.11448360371720856,
                -1.2695955974030777,
                -0.5704890150865267,
                1.7779500270132351
            ]
        },
        {
            "positions": [
                1.1633949003673107,
                -1.221640371726126,
                0.005858727616120607,
                -1.25099857381307,
                -0.5037918221526498,
                1.8670120439337756
            ]
        },
        {
            "positions": [
                1.0673819235095816,
                -1.2202216701360196,
                0.12620105894944955,
                -1.232401550223062,
                -0.43709462921877296,
                1.956074060854316
            ]
        },
        {
            "positions": [
                0.971368946651852,
                -1.2188029685459132,
                0.24654339028277916,
                -1.2138045266330544,
                -0.37039743628489585,
                2.0451360777748566
            ]
        },
        {
            "positions": [
                0.8753559697941229,
                -1.2173842669558068,
                0.36688572161610833,
                -1.1952075030430467,
                -0.303700243351019,
                2.134198094695397
            ]
        },
        {
            "positions": [
                0.7793429929363938,
                -1.2159655653657004,
                0.48722805294943705,
                -1.1766104794530388,
                -0.2370030504171421,
                2.2232601116159376
            ]
        },
        {
            "positions": [
                0.6833300160786644,
                -1.214546863775594,
                0.6075703842827662,
                -1.158013455863031,
                -0.1703058574832652,
                2.312322128536478
            ]
        },
        {
            "positions": [
                0.5873170392209355,
                -1.2131281621854877,
                0.7279127156160954,
                -1.1394164322730234,
                -0.10360866454938833,
                2.4013841454570186
            ]
        },
        {
            "positions": [
                0.4913040623632061,
                -1.2117094605953813,
                0.8482550469494241,
                -1.1208194086830154,
                -0.03691147161551145,
                2.490446162377559
            ]
        },
        {
            "positions": [
                0.39529108550547676,
                -1.2102907590052752,
                0.9685973782827533,
                -1.1022223850930077,
                0.029785721318365432,
                2.5795081792980996
            ]
        },
        {
            "positions": [
                0.2992781086477474,
                -1.2088720574151688,
                1.0889397096160829,
                -1.083625361503,
                0.09648291425224254,
                2.6685701962186403
            ]
        },
        {
            "positions": [
                0.20326513179001804,
                -1.2074533558250624,
                1.209282040949412,
                -1.0650283379129921,
                0.16318010718611942,
                2.7576322131391806
            ]
        },
        {
            "positions": [
                0.10725215493228912,
                -1.206034654234956,
                1.3296243722827408,
                -1.0464313143229844,
                0.2298773001199963,
                2.8466942300597213
            ]
        },
        {
            "positions": [
                0.011239178074559809,
                -1.2046159526448497,
                1.4499667036160702,
                -1.0278342907329767,
                0.2965744930538732,
                2.9357562469802616
            ]
        },
        {
            "positions": [
                0.03927097100854164,
                -1.1864677119695715,
                1.5767038756313132,
                -0.9495248043454226,
                0.2561510997441131,
                2.9589459712000976
            ]
        },
        {
            "positions": [
                0.06730276394252348,
                -1.1683194712942933,
                1.7034410476465562,
                -0.8712153179578686,
                0.21572770643435307,
                2.9821356954199336
            ]
        },
        {
            "positions": [
                0.09533455687650531,
                -1.1501712306190153,
                1.8301782196617993,
                -0.7929058315703145,
                0.175304313124593,
                3.00532541963977
            ]
        },
        {
            "positions": [
                0.12336634981048715,
                -1.132022989943737,
                1.9569153916770423,
                -0.7145963451827604,
                0.13488091981483294,
                3.028515143859606
            ]
        }
    ]
}{
    "goal": {
        "global_pose": {
            "orientation": {
                "w": 0.7047431468963623,
                "x": -0.7094548344612122,
                "y": 0.0024358443915843964,
                "z": -0.0022348060738295317
            },
            "position": {
                "x": 0.6094750761985779,
                "y": 0.3671506643295288,
                "z": 0.19426114857196808
            }
        },
        "name": "move_to_magneteinheit_A"
    },
    "id": "ProjEST_move_to_magneteinheit_A_120",
    "joint_names": [
        "shoulder_pan_joint",
        "shoulder_lift_joint",
        "elbow_joint",
        "wrist_1_joint",
        "wrist_2_joint",
        "wrist_3_joint"
    ],
    "metrics": {
        "cart_traj_len": 1.3954571500700135,
        "distance_elbow_joint": 0.359760097453544,
        "distance_shoulder_lift_joint": 0.7677404362213947,
        "distance_shoulder_pan_joint": 1.3793014014201996,
        "distance_wrist_1_joint": 0.8946621483000212,
        "distance_wrist_2_joint": 1.446118241397217,
        "distance_wrist_3_joint": 4.375306925087319,
        "smoothness": 0.17365488919527178,
        "time": 0.061150964,
        "traj_len": 3.0369210147581542,
        "weighted_distance": 4.507136950410046
    },
    "planner": "ProjEST",
    "start": {
        "state": {
            "elbow_joint": 1.919643534880228,
            "shoulder_lift_joint": -1.8972525353963687,
            "shoulder_pan_joint": -1.1188672234189438,
            "wrist_1_joint": -1.5931878212786155,
            "wrist_2_joint": 1.5706036197970081,
            "wrist_3_joint": 1.118896926603594
        }
    },
    "waypoints": [
        {
            "positions": [
                -1.1188672234189438,
                -1.8972525353963687,
                1.919643534880228,
                -1.5931878212786155,
                1.5706036197970081,
                1.118896926603594
            ]
        },
        {
            "positions": [
                -1.1536244458925595,
                -1.884872564050704,
                1.8382675595034805,
                -1.5178948174028264,
                1.527012817036199,
                1.0817253779978135
            ]
        },
        {
            "positions": [
                -1.1883816683661754,
                -1.872492592705039,
                1.7568915841267332,
                -1.4426018135270373,
                1.4834220142753898,
                1.0445538293920333
            ]
        },
        {
            "positions": [
                -1.128845897617404,
                -1.8387207520900362,
                1.7658464998858263,
                -1.4087801707748353,
                1.4216521671901352,
                0.8490554735794988
            ]
        },
        {
            "positions": [
                -1.069310126868633,
                -1.8049489114750332,
                1.7748014156449194,
                -1.3749585280226333,
                1.3598823201048809,
                0.6535571177669645
            ]
        },
        {
            "positions": [
                -1.0097743561198615,
                -1.7711770708600303,
                1.7837563314040126,
                -1.3411368852704315,
                1.2981124730196263,
                0.45805876195443007
            ]
        },
        {
            "positions": [
                -0.9502385853710903,
                -1.7374052302450274,
                1.7927112471631057,
                -1.3073152425182295,
                1.236342625934372,
                0.2625604061418956
            ]
        },
        {
            "positions": [
                -0.890702814622319,
                -1.7036333896300244,
                1.8016661629221988,
                -1.2734935997660275,
                1.1745727788491174,
                0.06706205032936119
            ]
        },
        {
            "positions": [
                -0.8311670438735478,
                -1.6698615490150215,
                1.810621078681292,
                -1.2396719570138255,
                1.1128029317638628,
                -0.1284363054831732
            ]
        },
        {
            "positions": [
                -0.7716312731247765,
                -1.6360897084000183,
                1.819575994440385,
                -1.2058503142616237,
                1.0510330846786085,
                -0.3239346612957077
            ]
        },
        {
            "positions": [
                -0.7120955023760052,
                -1.6023178677850154,
                1.8285309101994782,
                -1.1720286715094217,
                0.9892632375933539,
                -0.5194330171082422
            ]
        },
        {
            "positions": [
                -0.6525597316272339,
                -1.5685460271700125,
                1.8374858259585714,
                -1.1382070287572197,
                0.9274933905080994,
                -0.7149313729207767
            ]
        },
        {
            "positions": [
                -0.5930239608784627,
                -1.5347741865550095,
                1.8464407417176645,
                -1.1043853860050177,
                0.865723543422845,
                -0.910429728733311
            ]
        },
        {
            "positions": [
                -0.5334881901296914,
                -1.5010023459400066,
                1.8553956574767576,
                -1.0705637432528157,
                0.8039536963375905,
                -1.1059280845458455
            ]
        },
        {
            "positions": [
                -0.47395241938092014,
                -1.4672305053250037,
                1.8643505732358507,
                -1.0367421005006139,
                0.742183849252336,
                -1.3014264403583797
            ]
        },
        {
            "positions": [
                -0.4144166486321488,
                -1.4334586647100007,
                1.873305488994944,
                -1.0029204577484119,
                0.6804140021670815,
                -1.4969247961709145
            ]
        },
        {
            "positions": [
                -0.35488087788337763,
                -1.3996868240949978,
                1.8822604047540372,
                -0.9690988149962099,
                0.6186441550818271,
                -1.6924231519834487
            ]
        },
        {
            "positions": [
                -0.2953451071346064,
                -1.3659149834799948,
                1.8912153205131303,
                -0.935277172244008,
                0.5568743079965727,
                -1.887921507795983
            ]
        },
        {
            "positions": [
                -0.235809336385835,
                -1.3321431428649917,
                1.9001702362722235,
                -0.901455529491806,
                0.4951044609113181,
                -2.0834198636085177
            ]
        },
        {
            "positions": [
                -0.17627356563706376,
                -1.298371302249989,
                1.9091251520313166,
                -0.8676338867396041,
                0.43333461382606364,
                -2.278918219421052
            ]
        },
        {
            "positions": [
                -0.11673779488829239,
                -1.2645994616349858,
                1.9180800677904097,
                -0.8338122439874021,
                0.37156476674080907,
                -2.4744165752335867
            ]
        },
        {
            "positions": [
                -0.057202024139521246,
                -1.2308276210199829,
                1.9270349835495029,
                -0.7999906012352002,
                0.3097949196555547,
                -2.669914931046121
            ]
        },
        {
            "positions": [
                0.0023337466092501202,
                -1.19705578040498,
                1.935989899308596,
                -0.7661689584829982,
                0.24802507257030015,
                -2.8654132868586553
            ]
        },
        {
            "positions": [
                0.061869517358021486,
                -1.163283939789977,
                1.9449448150676891,
                -0.7323473157307961,
                0.18625522548504558,
                -3.0609116426711904
            ]
        },
        {
            "positions": [
                0.1214052881067927,
                -1.129512099174974,
                1.9538997308267823,
                -0.6985256729785942,
                0.12448537839979126,
                -3.2564099984837243
            ]
        }
    ]
}