{
    "goal": {
        "global_pose": {
            "orientation": {
                "w": 0.7047431468963623,
                "x": -0.7094548344612122,
                "y": 0.0024358443915843964,
                "z": -0.0022348060738295317
            },
            "position": {
                "x": 0.6094750761985779,
                "y": 0.3671506643295288,
                "z": 0.19426114857196808
            }
        },
        "name": "move_to_magneteinheit_A"
    },
    "id": "ProjEST_move_to_magneteinheit_A_103",
    "joint_names": [
        "shoulder_pan_joint",
        "shoulder_lift_joint",
        "elbow_joint",
        "wrist_1_joint",
        "wrist_2_joint",
        "wrist_3_joint"
    ],
    "metrics": {
        "cart_traj_len": 3.3346660916852744,
        "distance_elbow_joint": 3.8760715471410547,
        "distance_shoulder_lift_joint": 1.2235555355545078,
        "distance_shoulder_pan_joint": 4.811813586737098,
        "distance_wrist_1_joint": 2.077062265090863,
        "distance_wrist_2_joint": 1.7002453657491485,
        "distance_wrist_3_joint": 2.5813641683502517,
        "smoothness": 0.331520986947422,
        "time": 0.106022811,
        "traj_len": 4.033622747434733,
        "weighted_distance": 5.020970865894706
    },
    "planner": "ProjEST",
    "start": {
        "state": {
            "elbow_joint": -1.919618573717145,
            "shoulder_lift_joint": -1.2443395971678275,
            "shoulder_pan_joint": 2.6996025300909787,
            "wrist_1_joint": -1.548550951253194,
            "wrist_2_joint": -1.5709469090946802,
            "wrist_3_joint": 0.4420197732051276
        }
    },
    "waypoints": [
        {
            "positions": [
                2.6996025300909787,
                -1.2443395971678275,
                -1.919618573717145,
                -1.548550951253194,
                -1.5709469090946802,
                0.4420197732051276
            ]
        },
        {
            "positions": [
                2.5764584385130123,
                -1.2628580944054606,
                -1.8103636073913338,
                -1.4999192606748157,
                -1.5519377028285994,
                0.5103882693497063
            ]
        },
        {
            "positions": [
                2.453314346935046,
                -1.2813765916430935,
                -1.701108641065523,
                -1.4512875700964374,
                -1.5329284965625185,
                0.578756765494285
            ]
        },
        {
            "positions": [
                2.3301702553570793,
                -1.2998950888807266,
                -1.5918536747397118,
                -1.402655879518059,
                -1.5139192902964378,
                0.6471252616388636
            ]
        },
        {
            "positions": [
                2.207026163779113,
                -1.3184135861183595,
                -1.482598708413901,
                -1.3540241889396807,
                -1.494910084030357,
                0.7154937577834424
            ]
        },
        {
            "positions": [
                2.0838820722011464,
                -1.3369320833559926,
                -1.3733437420880898,
                -1.3053924983613021,
                -1.4759008777642761,
                0.7838622539280211
            ]
        },
        {
            "positions": [
                1.9607379806231802,
                -1.3554505805936257,
                -1.264088775762279,
                -1.2567608077829238,
                -1.4568916714981954,
                0.8522307500725999
            ]
        },
        {
            "positions": [
                1.837593889045214,
                -1.3739690778312585,
                -1.1548338094364679,
                -1.2081291172045454,
                -1.4378824652321147,
                0.9205992462171785
            ]
        },
        {
            "positions": [
                1.7144497974672475,
                -1.3924875750688916,
                -1.045578843110657,
                -1.159497426626167,
                -1.4188732589660338,
                0.9889677423617571
            ]
        },
        {
            "positions": [
                1.591305705889281,
                -1.4110060723065245,
                -0.936323876784846,
                -1.1108657360477887,
                -1.399864052699953,
                1.0573362385063358
            ]
        },
        {
            "positions": [
                1.4681616143113145,
                -1.4295245695441576,
                -0.827068910459035,
                -1.0622340454694104,
                -1.3808548464338724,
                1.1257047346509146
            ]
        },
        {
            "positions": [
                1.3450175227333483,
                -1.4480430667817905,
                -0.7178139441332241,
                -1.0136023548910318,
                -1.3618456401677914,
                1.194073230795493
            ]
        },
        {
            "positions": [
                1.2218734311553816,
                -1.4665615640194236,
                -0.6085589778074127,
                -0.9649706643126535,
                -1.3428364339017107,
                1.262441726940072
            ]
        },
        {
            "positions": [
                1.0987293395774151,
                -1.4850800612570567,
                -0.49930401148160186,
                -0.9163389737342751,
                -1.32382722763563,
                1.3308102230846506
            ]
        },
        {
            "positions": [
                0.9755852479994489,
                -1.5035985584946898,
                -0.39004904515579075,
                -0.8677072831558967,
                -1.304818021369549,
                1.3991787192292293
            ]
        },
        {
            "positions": [
                0.8524411564214824,
                -1.5221170557323227,
                -0.28079407882997987,
                -0.8190755925775184,
                -1.2858088151034683,
                1.467547215373808
            ]
        },
        {
            "positions": [
                0.729297064843516,
                -1.5406355529699556,
                -0.17153911250416898,
                -0.77044390199914,
                -1.2667996088373876,
                1.5359157115183868
            ]
        },
        {
            "positions": [
                0.6061529732655497,
                -1.5591540502075887,
                -0.06228414617835787,
                -0.7218122114207617,
                -1.2477904025713067,
                1.6042842076629653
            ]
        },
        {
            "positions": [
                0.48300888168758327,
                -1.5776725474452218,
                0.04697082014745302,
                -0.6731805208423832,
                -1.228781196305226,
                1.672652703807544
            ]
        },
        {
            "positions": [
                0.3598647901096168,
                -1.5961910446828547,
                0.15622578647326413,
                -0.6245488302640049,
                -1.2097719900391453,
                1.7410211999521228
            ]
        },
        {
            "positions": [
                0.23672069853165034,
                -1.6147095419204878,
                0.265480752799075,
                -0.5759171396856265,
                -1.1907627837730645,
                1.8093896960967015
            ]
        },
        {
            "positions": [
                0.11357660695368388,
                -1.6332280391581206,
                0.3747357191248859,
                -0.5272854491072481,
                -1.1717535775069836,
                1.87775819224128
            ]
        },
        {
            "positions": [
                -0.009567484624282141,
                -1.6517465363957538,
                0.4839906854506968,
                -0.4786537585288697,
                -1.152744371240903,
                1.9461266883858588
            ]
        },
        {
            "positions": [
                -0.13271157620224905,
                -1.6702650336333869,
                0.5932456517765086,
                -0.43002206795049136,
                -1.133735164974822,
                2.0144951845304377
            ]
        },
        {
            "positions": [
                -0.2558556677802155,
                -1.68878353087102,
                0.7025006181023195,
                -0.381390377372113,
                -1.1147259587087412,
                2.0828636806750165
            ]
        },
        {
            "positions": [
                -0.378999759358182,
                -1.7073020281086528,
                0.8117555844281303,
                -0.33275868679373444,
                -1.0957167524426605,
                2.1512321768195948
            ]
        },
        {
            "positions": [
                -0.5021438509361484,
                -1.725820525346286,
                0.9210105507539412,
                -0.2841269962153561,
                -1.0767075461765796,
                2.2196006729641735
            ]
        },
        {
            "positions": [
                -0.6252879425141145,
                -1.7443390225839188,
                1.0302655170797521,
                -0.23549530563697774,
                -1.0576983399104989,
                2.2879691691087523
            ]
        },
        {
            "positions": [
                -0.7484320340920809,
                -1.762857519821552,
                1.1395204834055634,
                -0.18686361505859939,
                -1.038689133644418,
                2.356337665253331
            ]
        },
        {
            "positions": [
                -0.8715761256700474,
                -1.781376017059185,
                1.2487754497313743,
                -0.13823192448022104,
                -1.0196799273783372,
                2.4247061613979097
            ]
        },
        {
            "positions": [
                -0.9947202172480137,
                -1.799894514296818,
                1.3580304160571852,
                -0.08960023390184271,
                -1.0006707211122565,
                2.4930746575424885
            ]
        },
        {
            "positions": [
                -0.901595980631505,
                -1.7442277960946915,
                1.4078989625044123,
                -0.141109529546802,
                -0.9065066229650295,
                2.537267097876896
            ]
        },
        {
            "positions": [
                -0.8084717440149964,
                -1.688561077892565,
                1.4577675089516395,
                -0.1926188251917613,
                -0.8123425248178024,
                2.5814595382113037
            ]
        },
        {
            "positions": [
                -0.7153475073984876,
                -1.6328943596904386,
                1.5076360553988666,
                -0.24412812083672059,
                -0.7181784266705753,
                2.625651978545711
            ]
        },
        {
            "positions": [
                -0.622223270781979,
                -1.5772276414883122,
                1.5575046018460939,
                -0.29563741648167985,
                -0.6240143285233484,
                2.669844418880119
            ]
        },
        {
            "positions": [
                -0.5290990341654702,
                -1.5215609232861858,
                1.607373148293321,
                -0.34714671212663917,
                -0.5298502303761212,
                2.7140368592145263
            ]
        },
        {
            "positions": [
                -0.4359747975489616,
                -1.465894205084059,
                1.6572416947405482,
                -0.3986560077715985,
                -0.4356861322288942,
                2.758229299548934
            ]
        },
        {
            "positions": [
                -0.3428505609324529,
                -1.4102274868819327,
                1.7071102411877752,
                -0.4501653034165578,
                -0.34152203408166704,
                2.8024217398833415
            ]
        },
        {
            "positions": [
                -0.24972632431594433,
                -1.3545607686798062,
                1.7569787876350023,
                -0.501674599061517,
                -0.2473579359344401,
                2.846614180217749
            ]
        },
        {
            "positions": [
                -0.1566020876994355,
                -1.2988940504776798,
                1.8068473340822295,
                -0.5531838947064763,
                -0.15319383778721307,
                2.8908066205521568
            ]
        },
        {
            "positions": [
                -0.0634778510829268,
                -1.2432273322755534,
                1.8567158805294566,
                -0.6046931903514356,
                -0.05902973963998592,
                2.934999060886564
            ]
        },
        {
            "positions": [
                0.029646385533581676,
                -1.187560614073427,
                1.9065844269766838,
                -0.6562024859963949,
                0.035134358507241004,
                2.9791915012209715
            ]
        },
        {
            "positions": [
                0.12277062215009045,
                -1.1318938958713005,
                1.956452973423911,
                -0.7077117816413542,
                0.12929845665446815,
                3.0233839415553794
            ]
        }
    ]
}{
    "goal": {
        "global_pose": {
            "orientation": {
                "w": 0.7047431468963623,
                "x": -0.7094548344612122,
                "y": 0.0024358443915843964,
                "z": -0.0022348060738295317
            },
            "position": {
                "x": 0.6094750761985779,
                "y": 0.3671506643295288,
                "z": 0.19426114857196808
            }
        },
        "name": "move_to_magneteinheit_A"
    },
    "id": "ProjEST_move_to_magneteinheit_A_103",
    "joint_names": [
        "shoulder_pan_joint",
        "shoulder_lift_joint",
        "elbow_joint",
        "wrist_1_joint",
        "wrist_2_joint",
        "wrist_3_joint"
    ],
    "metrics": {
        "cart_traj_len": 2.39342305019535,
        "distance_elbow_joint": 3.7361136827305357,
        "distance_shoulder_lift_joint": 0.7659984156218196,
        "distance_shoulder_pan_joint": 1.7775314307611216,
        "distance_wrist_1_joint": 0.8674406653584684,
        "distance_wrist_2_joint": 2.555733701006806,
        "distance_wrist_3_joint": 4.352722427639066,
        "smoothness": 0.30490269505701595,
        "time": 0.074342527,
        "traj_len": 3.7490719282400833,
        "weighted_distance": 5.117045978370842
    },
    "planner": "ProjEST",
    "start": {
        "state": {
            "elbow_joint": 1.919643534880228,
            "shoulder_lift_joint": -1.8972525353963687,
            "shoulder_pan_joint": -1.1188672234189438,
            "wrist_1_joint": -1.5931878212786155,
            "wrist_2_joint": 1.5706036197970081,
            "wrist_3_joint": 1.118896926603594
        }
    },
    "waypoints": [
        {
            "positions": [
                -1.1188672234189438,
                -1.8972525353963687,
                1.919643534880228,
                -1.5931878212786155,
                1.5706036197970081,
                1.118896926603594
            ]
        },
        {
            "positions": [
                -1.1380178677109003,
                -1.8548992477231037,
                1.7875676967691552,
                -1.5726965683341734,
                1.4275344671058985,
                1.0801766091707146
            ]
        },
        {
            "positions": [
                -1.1571685120028565,
                -1.8125459600498386,
                1.6554918586580825,
                -1.5522053153897313,
                1.2844653144147888,
                1.0414562917378354
            ]
        },
        {
            "positions": [
                -1.176319156294813,
                -1.7701926723765735,
                1.5234160205470095,
                -1.5317140624452892,
                1.141396161723679,
                1.002735974304956
            ]
        },
        {
            "positions": [
                -1.1954698005867694,
                -1.7278393847033084,
                1.3913401824359366,
                -1.511222809500847,
                0.9983270090325693,
                0.9640156568720767
            ]
        },
        {
            "positions": [
                -1.2146204448787257,
                -1.6854860970300434,
                1.2592643443248637,
                -1.490731556556405,
                0.8552578563414596,
                0.9252953394391974
            ]
        },
        {
            "positions": [
                -1.2337710891706821,
                -1.6431328093567783,
                1.127188506213791,
                -1.470240303611963,
                0.7121887036503499,
                0.8865750220063181
            ]
        },
        {
            "positions": [
                -1.2529217334626384,
                -1.6007795216835132,
                0.995112668102718,
                -1.449749050667521,
                0.5691195509592402,
                0.8478547045734388
            ]
        },
        {
            "positions": [
                -1.2720723777545948,
                -1.5584262340102482,
                0.8630368299916453,
                -1.429257797723079,
                0.4260503982681305,
                0.8091343871405594
            ]
        },
        {
            "positions": [
                -1.2912230220465513,
                -1.516072946336983,
                0.7309609918805722,
                -1.4087665447786368,
                0.28298124557702065,
                0.7704140697076801
            ]
        },
        {
            "positions": [
                -1.3103736663385077,
                -1.473719658663718,
                0.5988851537694995,
                -1.3882752918341947,
                0.139912092885911,
                0.7316937522748008
            ]
        },
        {
            "positions": [
                -1.329524310630464,
                -1.431366370990453,
                0.46680931565842654,
                -1.3677840388897526,
                -0.0031570598051986476,
                0.6929734348419214
            ]
        },
        {
            "positions": [
                -1.3486749549224204,
                -1.3890130833171879,
                0.33473347754735383,
                -1.3472927859453105,
                -0.1462262124963083,
                0.6542531174090422
            ]
        },
        {
            "positions": [
                -1.3678255992143766,
                -1.3466597956439228,
                0.20265763943628068,
                -1.3268015330008684,
                -0.28929536518741816,
                0.6155327999761628
            ]
        },
        {
            "positions": [
                -1.386976243506333,
                -1.3043065079706577,
                0.07058180132520807,
                -1.3063102800564264,
                -0.4323645178785277,
                0.5768124825432835
            ]
        },
        {
            "positions": [
                -1.3183661339302544,
                -1.2964404903253801,
                0.15635688992409508,
                -1.2799210471411409,
                -0.4072388104543792,
                0.40360166510788553
            ]
        },
        {
            "positions": [
                -1.2497560243541757,
                -1.2885744726801025,
                0.24213197852298207,
                -1.2535318142258556,
                -0.38211310303023077,
                0.23039084767248752
            ]
        },
        {
            "positions": [
                -1.181145914778097,
                -1.2807084550348247,
                0.32790706712186907,
                -1.22714258131057,
                -0.3569873956060823,
                0.05718003023708962
            ]
        },
        {
            "positions": [
                -1.1125358052020182,
                -1.272842437389547,
                0.4136821557207561,
                -1.2007533483952846,
                -0.33186168818193384,
                -0.1160307871983085
            ]
        },
        {
            "positions": [
                -1.0439256956259393,
                -1.2649764197442694,
                0.4994572443196431,
                -1.1743641154799993,
                -0.30673598075778535,
                -0.2892416046337064
            ]
        },
        {
            "positions": [
                -0.9753155860498606,
                -1.2571104020989918,
                0.58523233291853,
                -1.1479748825647138,
                -0.28161027333363686,
                -0.4624524220691043
            ]
        },
        {
            "positions": [
                -0.9067054764737819,
                -1.249244384453714,
                0.6710074215174171,
                -1.1215856496494283,
                -0.2564845659094884,
                -0.6356632395045024
            ]
        },
        {
            "positions": [
                -0.8380953668977031,
                -1.2413783668084364,
                0.7567825101163042,
                -1.095196416734143,
                -0.23135885848533994,
                -0.8088740569399006
            ]
        },
        {
            "positions": [
                -0.7694852573216243,
                -1.2335123491631588,
                0.8425575987151912,
                -1.0688071838188575,
                -0.20623315106119144,
                -0.9820848743752987
            ]
        },
        {
            "positions": [
                -0.7008751477455456,
                -1.2256463315178812,
                0.9283326873140781,
                -1.0424179509035723,
                -0.181107443637043,
                -1.1552956918106965
            ]
        },
        {
            "positions": [
                -0.6322650381694669,
                -1.2177803138726033,
                1.014107775912965,
                -1.0160287179882868,
                -0.15598173621289452,
                -1.3285065092460946
            ]
        },
        {
            "positions": [
                -0.5636549285933882,
                -1.2099142962273257,
                1.099882864511852,
                -0.9896394850730013,
                -0.13085602878874608,
                -1.5017173266814923
            ]
        },
        {
            "positions": [
                -0.49504481901730935,
                -1.202048278582048,
                1.1856579531107392,
                -0.9632502521577158,
                -0.10573032136459753,
                -1.6749281441168908
            ]
        },
        {
            "positions": [
                -0.42643470944123063,
                -1.1941822609367705,
                1.271433041709626,
                -0.9368610192424305,
                -0.0806046139404491,
                -1.8481389615522885
            ]
        },
        {
            "positions": [
                -0.3578245998651519,
                -1.1863162432914929,
                1.357208130308513,
                -0.910471786327145,
                -0.05547890651630066,
                -2.021349778987686
            ]
        },
        {
            "positions": [
                -0.2892144902890732,
                -1.178450225646215,
                1.4429832189074001,
                -0.8840825534118596,
                -0.030353199092152172,
                -2.1945605964230848
            ]
        },
        {
            "positions": [
                -0.22060438071299449,
                -1.1705842080009374,
                1.5287583075062872,
                -0.8576933204965742,
                -0.005227491668003681,
                -2.3677714138584824
            ]
        },
        {
            "positions": [
                -0.15199427113691555,
                -1.1627181903556598,
                1.6145333961051742,
                -0.8313040875812887,
                0.01989821575614481,
                -2.540982231293881
            ]
        },
        {
            "positions": [
                -0.08338416156083683,
                -1.1548521727103822,
                1.7003084847040613,
                -0.8049148546660033,
                0.045023923180293246,
                -2.7141930487292787
            ]
        },
        {
            "positions": [
                -0.014774051984758119,
                -1.1469861550651044,
                1.786083573302948,
                -0.7785256217507179,
                0.07014963060444168,
                -2.8874038661646764
            ]
        },
        {
            "positions": [
                0.053836057591320596,
                -1.1391201374198268,
                1.8718586619018354,
                -0.7521363888354324,
                0.09527533802859023,
                -3.060614683600075
            ]
        },
        {
            "positions": [
                0.12244616716739931,
                -1.1312541197745491,
                1.9576337505007222,
                -0.725747155920147,
                0.12040104545273862,
                -3.2338255010354726
            ]
        }
    ]
}