{
    "goal": {
        "global_pose": {
            "orientation": {
                "w": 0.7047431468963623,
                "x": -0.7094548344612122,
                "y": 0.0024358443915843964,
                "z": -0.0022348060738295317
            },
            "position": {
                "x": 0.6094750761985779,
                "y": 0.3671506643295288,
                "z": 0.19426114857196808
            }
        },
        "name": "move_to_magneteinheit_A"
    },
    "id": "ProjEST_move_to_magneteinheit_A_79",
    "joint_names": [
        "shoulder_pan_joint",
        "shoulder_lift_joint",
        "elbow_joint",
        "wrist_1_joint",
        "wrist_2_joint",
        "wrist_3_joint"
    ],
    "metrics": {
        "cart_traj_len": 3.5972002681396438,
        "distance_elbow_joint": 3.875871627339566,
        "distance_shoulder_lift_joint": 1.0677009260061254,
        "distance_shoulder_pan_joint": 2.5772223088950392,
        "distance_wrist_1_joint": 0.8339999521983505,
        "distance_wrist_2_joint": 3.5789859561565107,
        "distance_wrist_3_joint": 2.6490927312495054,
        "smoothness": 0.12869241882432184,
        "time": 0.051452043,
        "traj_len": 3.81875287258093,
        "weighted_distance": 4.9288989513581
    },
    "planner": "ProjEST",
    "start": {
        "state": {
            "elbow_joint": -1.919618573717145,
            "shoulder_lift_joint": -1.2443395971678275,
            "shoulder_pan_joint": 2.6996025300909787,
            "wrist_1_joint": -1.548550951253194,
            "wrist_2_joint": -1.5709469090946802,
            "wrist_3_joint": 0.4420197732051276
        }
    },
    "waypoints": [
        {
            "positions": [
                2.6996025300909787,
                -1.2443395971678275,
                -1.919618573717145,
                -1.548550951253194,
                -1.5709469090946802,
                0.4420197732051276
            ]
        },
        {
            "positions": [
                2.588336379128234,
                -1.2095968673054138,
                -1.8410768125305086,
                -1.5433487837457482,
                -1.4156346562935194,
                0.44042668334881124
            ]
        },
        {
            "positions": [
                2.477070228165489,
                -1.1748541374430002,
                -1.7625350513438722,
                -1.5381466162383024,
                -1.2603224034923588,
                0.43883359349249484
            ]
        },
        {
            "positions": [
                2.3658040772027444,
                -1.1401114075805865,
                -1.6839932901572359,
                -1.5329444487308566,
                -1.105010150691198,
                0.4372405036361785
            ]
        },
        {
            "positions": [
                2.2545379262399994,
                -1.1053686777181728,
                -1.6054515289705997,
                -1.5277422812234107,
                -0.9496978978900374,
                0.43564741377986216
            ]
        },
        {
            "positions": [
                2.1432717752772548,
                -1.0706259478557592,
                -1.5269097677839634,
                -1.5225401137159646,
                -0.7943856450888767,
                0.4340543239235458
            ]
        },
        {
            "positions": [
                2.03200562431451,
                -1.0358832179933455,
                -1.448368006597327,
                -1.5173379462085188,
                -0.639073392287716,
                0.4324612340672294
            ]
        },
        {
            "positions": [
                1.920739473351765,
                -1.0011404881309318,
                -1.3698262454106906,
                -1.512135778701073,
                -0.4837611394865555,
                0.4308681442109131
            ]
        },
        {
            "positions": [
                1.8094733223890205,
                -0.966397758268518,
                -1.2912844842240543,
                -1.5069336111936271,
                -0.32844888668539474,
                0.42927505435459673
            ]
        },
        {
            "positions": [
                1.6982071714262756,
                -0.9316550284061044,
                -1.212742723037418,
                -1.5017314436861813,
                -0.17313663388423395,
                0.42768196449828033
            ]
        },
        {
            "positions": [
                1.5869410204635308,
                -0.8969122985436906,
                -1.1342009618507816,
                -1.4965292761787354,
                -0.01782438108307316,
                0.426088874641964
            ]
        },
        {
            "positions": [
                1.475674869500786,
                -0.8621695686812769,
                -1.0556592006641452,
                -1.4913271086712896,
                0.1374878717180874,
                0.42449578478564765
            ]
        },
        {
            "positions": [
                1.3644087185380411,
                -0.8274268388188633,
                -0.9771174394775088,
                -1.4861249411638437,
                0.2928001245192482,
                0.42290269492933125
            ]
        },
        {
            "positions": [
                1.2531425675752965,
                -0.7926841089564496,
                -0.8985756782908727,
                -1.4809227736563977,
                0.44811237732040876,
                0.4213096050730149
            ]
        },
        {
            "positions": [
                1.1418764166125517,
                -0.7579413790940359,
                -0.8200339171042363,
                -1.4757206061489518,
                0.6034246301215691,
                0.41971651521669856
            ]
        },
        {
            "positions": [
                1.0306102656498068,
                -0.7231986492316222,
                -0.7414921559176,
                -1.470518438641506,
                0.7587368829227299,
                0.4181234253603822
            ]
        },
        {
            "positions": [
                0.919344114687062,
                -0.6884559193692086,
                -0.6629503947309636,
                -1.4653162711340602,
                0.9140491357238907,
                0.4165303355040658
            ]
        },
        {
            "positions": [
                0.8080779637243172,
                -0.6537131895067949,
                -0.5844086335443273,
                -1.4601141036266143,
                1.0693613885250515,
                0.4149372456477495
            ]
        },
        {
            "positions": [
                0.7709847849409719,
                -0.6746312427918223,
                -0.46159824694950363,
                -1.4254578465158305,
                1.0321638221449858,
                0.5383345479547633
            ]
        },
        {
            "positions": [
                0.7338916061576267,
                -0.6955492960768498,
                -0.33878786035468,
                -1.3908015894050467,
                0.9949662557649201,
                0.6617318502617772
            ]
        },
        {
            "positions": [
                0.6967984273742814,
                -0.7164673493618772,
                -0.21597747375985643,
                -1.356145332294263,
                0.9577686893848545,
                0.785129152568791
            ]
        },
        {
            "positions": [
                0.6597052485909363,
                -0.7373854026469046,
                -0.0931670871650328,
                -1.3214890751834794,
                0.9205711230047888,
                0.9085264548758049
            ]
        },
        {
            "positions": [
                0.622612069807591,
                -0.758303455931932,
                0.029643299429790826,
                -1.2868328180726956,
                0.8833735566247232,
                1.0319237571828186
            ]
        },
        {
            "positions": [
                0.5855188910242457,
                -0.7792215092169594,
                0.1524536860246144,
                -1.2521765609619118,
                0.8461759902446575,
                1.1553210594898324
            ]
        },
        {
            "positions": [
                0.5484257122409004,
                -0.8001395625019868,
                0.2752640726194381,
                -1.217520303851128,
                0.8089784238645918,
                1.2787183617968463
            ]
        },
        {
            "positions": [
                0.5113325334575554,
                -0.8210576157870142,
                0.39807445921426166,
                -1.1828640467403442,
                0.7717808574845262,
                1.4021156641038601
            ]
        },
        {
            "positions": [
                0.47423935467421,
                -0.8419756690720417,
                0.5208848458090853,
                -1.1482077896295604,
                0.7345832911044605,
                1.525512966410874
            ]
        },
        {
            "positions": [
                0.43714617589086474,
                -0.8628937223570692,
                0.6436952324039089,
                -1.1135515325187766,
                0.6973857247243949,
                1.6489102687178878
            ]
        },
        {
            "positions": [
                0.4000529971075195,
                -0.8838117756420966,
                0.7665056189987327,
                -1.078895275407993,
                0.6601881583443292,
                1.7723075710249017
            ]
        },
        {
            "positions": [
                0.36295981832417434,
                -0.904729828927124,
                0.8893160055935561,
                -1.0442390182972092,
                0.6229905919642637,
                1.8957048733319155
            ]
        },
        {
            "positions": [
                0.32586663954082906,
                -0.9256478822121514,
                1.0121263921883799,
                -1.0095827611864254,
                0.585793025584198,
                2.0191021756389294
            ]
        },
        {
            "positions": [
                0.2887734607574838,
                -0.9465659354971787,
                1.1349367787832034,
                -0.9749265040756416,
                0.5485954592041323,
                2.142499477945943
            ]
        },
        {
            "positions": [
                0.2516802819741386,
                -0.9674839887822062,
                1.2577471653780272,
                -0.9402702469648578,
                0.5113978928240667,
                2.265896780252957
            ]
        },
        {
            "positions": [
                0.21458710319079344,
                -0.9884020420672336,
                1.3805575519728506,
                -0.9056139898540742,
                0.474200326444001,
                2.389294082559971
            ]
        },
        {
            "positions": [
                0.17749392440744816,
                -1.009320095352261,
                1.5033679385676744,
                -0.8709577327432904,
                0.43700276006393535,
                2.5126913848669847
            ]
        },
        {
            "positions": [
                0.14040074562410287,
                -1.0302381486372885,
                1.6261783251624982,
                -0.8363014756325066,
                0.3998051936838697,
                2.6360886871739986
            ]
        },
        {
            "positions": [
                0.13589561451706156,
                -1.0553755384409382,
                1.708697007277479,
                -0.8058638564880908,
                0.3325248277599694,
                2.736303377715468
            ]
        },
        {
            "positions": [
                0.13139048341002021,
                -1.080512928244588,
                1.79121568939246,
                -0.7754262373436751,
                0.2652444618360691,
                2.8365180682569378
            ]
        },
        {
            "positions": [
                0.12688535230297887,
                -1.105650318048238,
                1.873734371507441,
                -0.7449886181992593,
                0.1979640959121688,
                2.9367327587984073
            ]
        },
        {
            "positions": [
                0.12238022119593756,
                -1.1307877078518878,
                1.9562530536224219,
                -0.7145509990548435,
                0.13068372998826852,
                3.036947449339877
            ]
        }
    ]
}{
    "goal": {
        "global_pose": {
            "orientation": {
                "w": 0.7047431468963623,
                "x": -0.7094548344612122,
                "y": 0.0024358443915843964,
                "z": -0.0022348060738295317
            },
            "position": {
                "x": 0.6094750761985779,
                "y": 0.3671506643295288,
                "z": 0.19426114857196808
            }
        },
        "name": "move_to_magneteinheit_A"
    },
    "id": "ProjEST_move_to_magneteinheit_A_79",
    "joint_names": [
        "shoulder_pan_joint",
        "shoulder_lift_joint",
        "elbow_joint",
        "wrist_1_joint",
        "wrist_2_joint",
        "wrist_3_joint"
    ],
    "metrics": {
        "cart_traj_len": 1.3158003030291303,
        "distance_elbow_joint": 1.028874973159667,
        "distance_shoulder_lift_joint": 0.7638792044960743,
        "distance_shoulder_pan_joint": 1.2427523863981398,
        "distance_wrist_1_joint": 2.193637307727645,
        "distance_wrist_2_joint": 2.0294005279911262,
        "distance_wrist_3_joint": 4.3527316222358365,
        "smoothness": 0.38389368282365255,
        "time": 0.279582364,
        "traj_len": 3.407532248124512,
        "weighted_distance": 4.953763932829149
    },
    "planner": "ProjEST",
    "start": {
        "state": {
            "elbow_joint": 1.919643534880228,
            "shoulder_lift_joint": -1.8972525353963687,
            "shoulder_pan_joint": -1.1188672234189438,
            "wrist_1_joint": -1.5931878212786155,
            "wrist_2_joint": 1.5706036197970081,
            "wrist_3_joint": 1.118896926603594
        }
    },
    "waypoints": [
        {
            "positions": [
                -1.1188672234189438,
                -1.8972525353963687,
                1.919643534880228,
                -1.5931878212786155,
                1.5706036197970081,
                1.118896926603594
            ]
        },
        {
            "positions": [
                -1.0758292601402089,
                -1.8693320773569255,
                1.8990741006605716,
                -1.5295531531604687,
                1.4982924238489455,
                0.9556193218131506
            ]
        },
        {
            "positions": [
                -1.0327912968614739,
                -1.8414116193174823,
                1.878504666440915,
                -1.4659184850423217,
                1.425981227900883,
                0.7923417170227072
            ]
        },
        {
            "positions": [
                -0.989753333582739,
                -1.813491161278039,
                1.8579352322212586,
                -1.402283816924175,
                1.3536700319528203,
                0.6290641122322638
            ]
        },
        {
            "positions": [
                -0.946715370304004,
                -1.785570703238596,
                1.837365798001602,
                -1.3386491488060281,
                1.2813588360047579,
                0.4657865074418204
            ]
        },
        {
            "positions": [
                -0.903677407025269,
                -1.7576502451991527,
                1.8167963637819455,
                -1.2750144806878811,
                1.2090476400566952,
                0.302508902651377
            ]
        },
        {
            "positions": [
                -0.8606394437465341,
                -1.7297297871597095,
                1.796226929562289,
                -1.2113798125697341,
                1.1367364441086325,
                0.13923129786093358
            ]
        },
        {
            "positions": [
                -0.8176014804677991,
                -1.7018093291202663,
                1.7756574953426325,
                -1.1477451444515874,
                1.06442524816057,
                -0.02404630692950982
            ]
        },
        {
            "positions": [
                -0.7745635171890641,
                -1.673888871080823,
                1.755088061122976,
                -1.0841104763334406,
                0.9921140522125075,
                -0.18732391171995322
            ]
        },
        {
            "positions": [
                -0.7315255539103291,
                -1.64596841304138,
                1.7345186269033195,
                -1.0204758082152936,
                0.9198028562644449,
                -0.3506015165103966
            ]
        },
        {
            "positions": [
                -0.6884875906315941,
                -1.6180479550019367,
                1.713949192683663,
                -0.9568411400971467,
                0.8474916603163822,
                -0.51387912130084
            ]
        },
        {
            "positions": [
                -0.6454496273528593,
                -1.5901274969624937,
                1.6933797584640065,
                -0.8932064719789999,
                0.7751804643683197,
                -0.6771567260912834
            ]
        },
        {
            "positions": [
                -0.6024116640741243,
                -1.5622070389230505,
                1.6728103242443502,
                -0.829571803860853,
                0.7028692684202571,
                -0.8404343308817268
            ]
        },
        {
            "positions": [
                -0.5593737007953894,
                -1.5342865808836073,
                1.6522408900246934,
                -0.7659371357427063,
                0.6305580724721945,
                -1.0037119356721702
            ]
        },
        {
            "positions": [
                -0.5163357375166543,
                -1.506366122844164,
                1.6316714558050371,
                -0.7023024676245593,
                0.558246876524132,
                -1.1669895404626136
            ]
        },
        {
            "positions": [
                -0.4732977742379194,
                -1.4784456648047208,
                1.6111020215853804,
                -0.6386677995064125,
                0.4859356805760693,
                -1.330267145253057
            ]
        },
        {
            "positions": [
                -0.4302598109591844,
                -1.4505252067652776,
                1.5905325873657241,
                -0.5750331313882657,
                0.4136244846280068,
                -1.4935447500435004
            ]
        },
        {
            "positions": [
                -0.3872218476804494,
                -1.4226047487258344,
                1.5699631531460676,
                -0.5113984632701187,
                0.34131328867994415,
                -1.6568223548339438
            ]
        },
        {
            "positions": [
                -0.34418388440171443,
                -1.3946842906863912,
                1.549393718926411,
                -0.44776379515197173,
                0.2690020927318817,
                -1.8200999596243872
            ]
        },
        {
            "positions": [
                -0.30114592112297955,
                -1.366763832646948,
                1.5288242847067546,
                -0.38412912703382496,
                0.196690896783819,
                -1.9833775644148306
            ]
        },
        {
            "positions": [
                -0.25810795784424456,
                -1.3388433746075048,
                1.508254850487098,
                -0.32049445891567796,
                0.12437970083575633,
                -2.1466551692052738
            ]
        },
        {
            "positions": [
                -0.21506999456550957,
                -1.3109229165680616,
                1.4876854162674416,
                -0.2568597907975312,
                0.05206850488769388,
                -2.309932773995717
            ]
        },
        {
            "positions": [
                -0.1720320312867747,
                -1.2830024585286184,
                1.467115982047785,
                -0.1932251226793844,
                -0.0202426910603688,
                -2.4732103787861606
            ]
        },
        {
            "positions": [
                -0.1289940680080396,
                -1.2550820004891752,
                1.4465465478281285,
                -0.1295904545612374,
                -0.09255388700843148,
                -2.636487983576604
            ]
        },
        {
            "positions": [
                -0.08595610472930479,
                -1.227161542449732,
                1.425977113608472,
                -0.06595578644309068,
                -0.164865082956494,
                -2.7997655883670474
            ]
        },
        {
            "positions": [
                -0.050982560111221306,
                -1.211530173858159,
                1.5151785389231238,
                -0.17702333192511072,
                -0.11587644541688999,
                -2.872110439577913
            ]
        },
        {
            "positions": [
                -0.016009015493137824,
                -1.1958988052665862,
                1.6043799642377756,
                -0.28809087740713074,
                -0.06688780787728597,
                -2.944455290788779
            ]
        },
        {
            "positions": [
                0.01896452912494566,
                -1.1802674366750132,
                1.6935813895524274,
                -0.39915842288915077,
                -0.017899170337681958,
                -3.016800141999645
            ]
        },
        {
            "positions": [
                0.05393807374302914,
                -1.1646360680834402,
                1.7827828148670792,
                -0.5102259683711707,
                0.031089467201922044,
                -3.0891449932105104
            ]
        },
        {
            "positions": [
                0.08891161836111264,
                -1.1490046994918675,
                1.871984240181731,
                -0.6212935138531908,
                0.08007810474152607,
                -3.161489844421376
            ]
        },
        {
            "positions": [
                0.1238851629791961,
                -1.1333733309002945,
                1.9611856654963828,
                -0.7323610593352108,
                0.12906674228113008,
                -3.233834695632242
            ]
        }
    ]
}