{
    "goal": {
        "global_pose": {
            "orientation": {
                "w": 0.7047431468963623,
                "x": -0.7094548344612122,
                "y": 0.0024358443915843964,
                "z": -0.0022348060738295317
            },
            "position": {
                "x": 0.6094750761985779,
                "y": 0.3671506643295288,
                "z": 0.19426114857196808
            }
        },
        "name": "move_to_magneteinheit_A"
    },
    "id": "ProjEST_move_to_magneteinheit_A_96",
    "joint_names": [
        "shoulder_pan_joint",
        "shoulder_lift_joint",
        "elbow_joint",
        "wrist_1_joint",
        "wrist_2_joint",
        "wrist_3_joint"
    ],
    "metrics": {
        "cart_traj_len": 3.3104522573518187,
        "distance_elbow_joint": 3.9327577928357145,
        "distance_shoulder_lift_joint": 1.2193975274462487,
        "distance_shoulder_pan_joint": 4.17777553451186,
        "distance_wrist_1_joint": 3.5337077128472734,
        "distance_wrist_2_joint": 1.432315573128801,
        "distance_wrist_3_joint": 0.8164445373347048,
        "smoothness": 0.17096775118361723,
        "time": 0.1068336,
        "traj_len": 3.8874668716407856,
        "weighted_distance": 4.659539788299921
    },
    "planner": "ProjEST",
    "start": {
        "state": {
            "elbow_joint": -1.919618573717145,
            "shoulder_lift_joint": -1.2443395971678275,
            "shoulder_pan_joint": 2.6996025300909787,
            "wrist_1_joint": -1.548550951253194,
            "wrist_2_joint": -1.5709469090946802,
            "wrist_3_joint": 0.4420197732051276
        }
    },
    "waypoints": [
        {
            "positions": [
                2.6996025300909787,
                -1.2443395971678275,
                -1.919618573717145,
                -1.548550951253194,
                -1.5709469090946802,
                0.4420197732051276
            ]
        },
        {
            "positions": [
                2.5645092850795828,
                -1.259529435003148,
                -1.7869920454704906,
                -1.4946065626921599,
                -1.5500680086630239,
                0.4153781243936685
            ]
        },
        {
            "positions": [
                2.429416040068187,
                -1.2747192728384686,
                -1.6543655172238365,
                -1.4406621741311254,
                -1.5291891082313676,
                0.3887364755822095
            ]
        },
        {
            "positions": [
                2.2943227950567913,
                -1.2899091106737892,
                -1.5217389889771822,
                -1.3867177855700912,
                -1.5083102077997113,
                0.3620948267707504
            ]
        },
        {
            "positions": [
                2.1592295500453953,
                -1.3050989485091098,
                -1.3891124607305279,
                -1.332773397009057,
                -1.487431307368055,
                0.33545317795929136
            ]
        },
        {
            "positions": [
                2.0241363050339993,
                -1.3202887863444304,
                -1.2564859324838735,
                -1.2788290084480227,
                -1.4665524069363987,
                0.3088115291478323
            ]
        },
        {
            "positions": [
                1.8890430600226038,
                -1.335478624179751,
                -1.1238594042372194,
                -1.2248846198869883,
                -1.4456735065047424,
                0.28216988033637325
            ]
        },
        {
            "positions": [
                1.7539498150112078,
                -1.3506684620150715,
                -0.991232875990565,
                -1.170940231325954,
                -1.4247946060730858,
                0.25552823152491416
            ]
        },
        {
            "positions": [
                1.6188565699998119,
                -1.365858299850392,
                -0.8586063477439108,
                -1.1169958427649198,
                -1.4039157056414295,
                0.2288865827134551
            ]
        },
        {
            "positions": [
                1.4837633249884161,
                -1.3810481376857127,
                -0.7259798194972567,
                -1.0630514542038854,
                -1.3830368052097732,
                0.20224493390199605
            ]
        },
        {
            "positions": [
                1.3486700799770202,
                -1.3962379755210335,
                -0.5933532912506021,
                -1.0091070656428511,
                -1.362157904778117,
                0.17560328509053696
            ]
        },
        {
            "positions": [
                1.2135768349656244,
                -1.411427813356354,
                -0.460726763003948,
                -0.9551626770818169,
                -1.3412790043464606,
                0.14896163627907794
            ]
        },
        {
            "positions": [
                1.0784835899542287,
                -1.4266176511916746,
                -0.3281002347572939,
                -0.9012182885207826,
                -1.3204001039148043,
                0.12231998746761885
            ]
        },
        {
            "positions": [
                0.9433903449428327,
                -1.4418074890269952,
                -0.19547370651063933,
                -0.8472738999597483,
                -1.299521203483148,
                0.09567833865615982
            ]
        },
        {
            "positions": [
                0.8082970999314367,
                -1.4569973268623158,
                -0.062847178263985,
                -0.793329511398714,
                -1.2786423030514917,
                0.06903668984470074
            ]
        },
        {
            "positions": [
                0.673203854920041,
                -1.4721871646976363,
                0.06977934998266888,
                -0.7393851228376798,
                -1.2577634026198354,
                0.04239504103324171
            ]
        },
        {
            "positions": [
                0.538110609908645,
                -1.487377002532957,
                0.20240587822932343,
                -0.6854407342766454,
                -1.2368845021881791,
                0.015753392221782625
            ]
        },
        {
            "positions": [
                0.40301736489724904,
                -1.5025668403682775,
                0.33503240647597754,
                -0.6314963457156111,
                -1.2160056017565228,
                -0.01088825658967646
            ]
        },
        {
            "positions": [
                0.2679241198858535,
                -1.517756678203598,
                0.46765893472263165,
                -0.5775519571545769,
                -1.1951267013248663,
                -0.03752990540113549
            ]
        },
        {
            "positions": [
                0.13283087487445755,
                -1.5329465160389186,
                0.6002854629692862,
                -0.5236075685935426,
                -1.1742478008932102,
                -0.06417155421259452
            ]
        },
        {
            "positions": [
                -0.0022623701369384186,
                -1.5481363538742392,
                0.7329119912159408,
                -0.4696631800325082,
                -1.1533689004615537,
                -0.09081320302405366
            ]
        },
        {
            "positions": [
                -0.13735561514833394,
                -1.5633261917095598,
                0.8655385194625944,
                -0.41571879147147395,
                -1.1324900000298976,
                -0.11745485183551269
            ]
        },
        {
            "positions": [
                -0.2724488601597299,
                -1.5785160295448804,
                0.998165047709249,
                -0.3617744029104397,
                -1.1116110995982411,
                -0.14409650064697171
            ]
        },
        {
            "positions": [
                -0.4075421051711259,
                -1.593705867380201,
                1.1307915759559035,
                -0.30783001434940527,
                -1.0907321991665848,
                -0.17073814945843085
            ]
        },
        {
            "positions": [
                -0.5426353501825214,
                -1.6088957052155215,
                1.2634181042025572,
                -0.25388562578837104,
                -1.0698532987349285,
                -0.19737979826988988
            ]
        },
        {
            "positions": [
                -0.6777285951939173,
                -1.624085543050842,
                1.396044632449212,
                -0.1999412372273368,
                -1.0489743983032722,
                -0.2240214470813489
            ]
        },
        {
            "positions": [
                -0.6227791946130035,
                -1.5658505136186465,
                1.4396780237667224,
                -0.048062516371611436,
                -0.9855388033597349,
                -0.2131354376066771
            ]
        },
        {
            "positions": [
                -0.5678297940320897,
                -1.5076154841864509,
                1.4833114150842328,
                0.10381620448411394,
                -0.9221032084161975,
                -0.20224942813200528
            ]
        },
        {
            "positions": [
                -0.5128803934511759,
                -1.4493804547542553,
                1.5269448064017432,
                0.2556949253398393,
                -0.8586676134726602,
                -0.19136341865733347
            ]
        },
        {
            "positions": [
                -0.457930992870262,
                -1.3911454253220596,
                1.5705781977192537,
                0.4075736461955647,
                -0.7952320185291228,
                -0.18047740918266167
            ]
        },
        {
            "positions": [
                -0.4029815922893482,
                -1.3329103958898643,
                1.614211589036764,
                0.55945236705129,
                -0.7317964235855854,
                -0.16959139970798984
            ]
        },
        {
            "positions": [
                -0.3480321917084344,
                -1.2746753664576687,
                1.6578449803542745,
                0.7113310879070154,
                -0.6683608286420482,
                -0.15870539023331803
            ]
        },
        {
            "positions": [
                -0.2930827911275206,
                -1.216440337025473,
                1.701478371671785,
                0.8632098087627407,
                -0.6049252336985107,
                -0.14781938075864623
            ]
        },
        {
            "positions": [
                -0.23813339054660676,
                -1.1582053075932774,
                1.7451117629892954,
                1.0150885296184662,
                -0.5414896387549734,
                -0.13693337128397443
            ]
        },
        {
            "positions": [
                -0.18318398996569302,
                -1.099970278161082,
                1.7887451543068058,
                1.1669672504741915,
                -0.478054043811436,
                -0.1260473618093026
            ]
        },
        {
            "positions": [
                -0.12823458938477916,
                -1.0417352487288865,
                1.8323785456243162,
                1.3188459713299168,
                -0.41461844886789867,
                -0.11516135233463078
            ]
        },
        {
            "positions": [
                -0.07328518880386536,
                -0.9835002192966907,
                1.8760119369418267,
                1.470724692185642,
                -0.3511828539243613,
                -0.10427534285995897
            ]
        },
        {
            "positions": [
                -0.018335788222951566,
                -0.9252651898644951,
                1.919645328259337,
                1.6226034130413676,
                -0.287747258980824,
                -0.09338933338528715
            ]
        },
        {
            "positions": [
                0.03661361235796223,
                -0.8670301604322996,
                1.9632787195768475,
                1.7744821338970929,
                -0.22431166403728658,
                -0.08250332391061535
            ]
        },
        {
            "positions": [
                0.07966471319550383,
                -0.825732060959954,
                1.9882089693477072,
                1.879819447745586,
                -0.18147150000158258,
                -0.0780607269718678
            ]
        },
        {
            "positions": [
                0.12271581403304545,
                -0.7844339614876084,
                2.013139219118567,
                1.9851567615940793,
                -0.1386313359658786,
                -0.07361813003312027
            ]
        }
    ]
}{
    "goal": {
        "global_pose": {
            "orientation": {
                "w": 0.7047431468963623,
                "x": -0.7094548344612122,
                "y": 0.0024358443915843964,
                "z": -0.0022348060738295317
            },
            "position": {
                "x": 0.6094750761985779,
                "y": 0.3671506643295288,
                "z": 0.19426114857196808
            }
        },
        "name": "move_to_magneteinheit_A"
    },
    "id": "ProjEST_move_to_magneteinheit_A_96",
    "joint_names": [
        "shoulder_pan_joint",
        "shoulder_lift_joint",
        "elbow_joint",
        "wrist_1_joint",
        "wrist_2_joint",
        "wrist_3_joint"
    ],
    "metrics": {
        "cart_traj_len": 3.277898840746781,
        "distance_elbow_joint": 4.99787941215631,
        "distance_shoulder_lift_joint": 0.7685370287364612,
        "distance_shoulder_pan_joint": 1.240335960435845,
        "distance_wrist_1_joint": 1.1134165270228165,
        "distance_wrist_2_joint": 1.6892872768423142,
        "distance_wrist_3_joint": 4.3880320482627955,
        "smoothness": 0.31099558318234577,
        "time": 0.11522261,
        "traj_len": 3.7679554473821124,
        "weighted_distance": 5.077032219106675
    },
    "planner": "ProjEST",
    "start": {
        "state": {
            "elbow_joint": 1.919643534880228,
            "shoulder_lift_joint": -1.8972525353963687,
            "shoulder_pan_joint": -1.1188672234189438,
            "wrist_1_joint": -1.5931878212786155,
            "wrist_2_joint": 1.5706036197970081,
            "wrist_3_joint": 1.118896926603594
        }
    },
    "waypoints": [
        {
            "positions": [
                -1.1188672234189438,
                -1.8972525353963687,
                1.919643534880228,
                -1.5931878212786155,
                1.5706036197970081,
                1.118896926603594
            ]
        },
        {
            "positions": [
                -1.0962533088052087,
                -1.8807025223804512,
                1.8014341921733414,
                -1.5452074607579744,
                1.4959851837442062,
                1.0031084938256092
            ]
        },
        {
            "positions": [
                -1.0736393941914735,
                -1.864152509364534,
                1.6832248494664546,
                -1.4972271002373332,
                1.421366747691404,
                0.8873200610476244
            ]
        },
        {
            "positions": [
                -1.0510254795777383,
                -1.8476024963486164,
                1.565015506759568,
                -1.4492467397166922,
                1.346748311638602,
                0.7715316282696396
            ]
        },
        {
            "positions": [
                -1.0284115649640029,
                -1.831052483332699,
                1.446806164052681,
                -1.4012663791960511,
                1.2721298755858,
                0.6557431954916549
            ]
        },
        {
            "positions": [
                -1.0057976503502677,
                -1.8145024703167816,
                1.3285968213457944,
                -1.3532860186754099,
                1.197511439532998,
                0.5399547627136702
            ]
        },
        {
            "positions": [
                -0.9831837357365325,
                -1.7979524573008643,
                1.2103874786389075,
                -1.3053056581547688,
                1.122893003480196,
                0.42416632993568537
            ]
        },
        {
            "positions": [
                -0.9605698211227973,
                -1.7814024442849468,
                1.0921781359320208,
                -1.2573252976341278,
                1.048274567427394,
                0.3083778971577007
            ]
        },
        {
            "positions": [
                -0.9379559065090621,
                -1.7648524312690295,
                0.9739687932251341,
                -1.2093449371134866,
                0.973656131374592,
                0.1925894643797159
            ]
        },
        {
            "positions": [
                -0.915341991895327,
                -1.748302418253112,
                0.8557594505182473,
                -1.1613645765928455,
                0.8990376953217899,
                0.07680103160173113
            ]
        },
        {
            "positions": [
                -0.8927280772815916,
                -1.7317524052371946,
                0.7375501078113607,
                -1.1133842160722045,
                0.824419259268988,
                -0.038987401176253655
            ]
        },
        {
            "positions": [
                -0.8701141626678565,
                -1.7152023922212771,
                0.6193407651044736,
                -1.0654038555515633,
                0.7498008232161858,
                -0.15477583395423844
            ]
        },
        {
            "positions": [
                -0.8475002480541212,
                -1.6986523792053598,
                0.5011314223975871,
                -1.0174234950309222,
                0.6751823871633839,
                -0.2705642667322232
            ]
        },
        {
            "positions": [
                -0.824886333440386,
                -1.6821023661894423,
                0.38292207969070025,
                -0.9694431345102811,
                0.6005639511105818,
                -0.386352699510208
            ]
        },
        {
            "positions": [
                -0.8022724188266508,
                -1.665552353173525,
                0.2647127369838136,
                -0.92146277398964,
                0.5259455150577799,
                -0.5021411322881926
            ]
        },
        {
            "positions": [
                -0.7796585042129156,
                -1.6490023401576075,
                0.1465033942769267,
                -0.8734824134689989,
                0.4513270790049777,
                -0.6179295650661776
            ]
        },
        {
            "positions": [
                -0.7570445895991804,
                -1.6324523271416902,
                0.028294051570040057,
                -0.8255020529483579,
                0.37670864295217577,
                -0.7337179978441621
            ]
        },
        {
            "positions": [
                -0.7344306749854451,
                -1.6159023141257727,
                -0.08991529113684682,
                -0.7775216924277167,
                0.3020902068993736,
                -0.8495064306221469
            ]
        },
        {
            "positions": [
                -0.7118167603717099,
                -1.5993523011098554,
                -0.20812463384373348,
                -0.7295413319070756,
                0.22747177084657166,
                -0.9652948634001317
            ]
        },
        {
            "positions": [
                -0.6892028457579746,
                -1.5828022880939379,
                -0.3263339765506206,
                -0.6815609713864345,
                0.15285333479376972,
                -1.0810832961781165
            ]
        },
        {
            "positions": [
                -0.6665889311442394,
                -1.5662522750780203,
                -0.4445433192575068,
                -0.6335806108657934,
                0.07823489874096778,
                -1.1968717289561013
            ]
        },
        {
            "positions": [
                -0.6439750165305043,
                -1.549702262062103,
                -0.5627526619643937,
                -0.5856002503451522,
                0.00361646268816568,
                -1.3126601617340858
            ]
        },
        {
            "positions": [
                -0.5929454329606773,
                -1.5216364783686234,
                -0.39505378094361454,
                -0.5926555140844424,
                0.011769804003730427,
                -1.4430918257290934
            ]
        },
        {
            "positions": [
                -0.5419158493908502,
                -1.4935706946751437,
                -0.22735489992283536,
                -0.5997107778237325,
                0.019923145319295177,
                -1.573523489724101
            ]
        },
        {
            "positions": [
                -0.4908862658210231,
                -1.465504910981664,
                -0.059656018902056185,
                -0.6067660415630227,
                0.028076486634859926,
                -1.7039551537191089
            ]
        },
        {
            "positions": [
                -0.4398566822511961,
                -1.4374391272881843,
                0.10804286211872294,
                -0.6138213053023129,
                0.03622982795042467,
                -1.8343868177141165
            ]
        },
        {
            "positions": [
                -0.3888270986813691,
                -1.4093733435947045,
                0.27574174313950206,
                -0.620876569041603,
                0.04438316926598941,
                -1.964818481709124
            ]
        },
        {
            "positions": [
                -0.337797515111542,
                -1.3813075599012248,
                0.4434406241602813,
                -0.6279318327808933,
                0.05253651058155417,
                -2.095250145704132
            ]
        },
        {
            "positions": [
                -0.286767931541715,
                -1.353241776207745,
                0.6111395051810604,
                -0.6349870965201835,
                0.06068985189711891,
                -2.2256818096991395
            ]
        },
        {
            "positions": [
                -0.23573834797188797,
                -1.3251759925142654,
                0.7788383862018395,
                -0.6420423602594736,
                0.06884319321268366,
                -2.356113473694147
            ]
        },
        {
            "positions": [
                -0.18470876440206097,
                -1.2971102088207858,
                0.9465372672226187,
                -0.6490976239987638,
                0.07699653452824841,
                -2.4865451376891547
            ]
        },
        {
            "positions": [
                -0.13367918083223396,
                -1.269044425127306,
                1.1142361482433978,
                -0.656152887738054,
                0.08514987584381314,
                -2.6169768016841624
            ]
        },
        {
            "positions": [
                -0.08264959726240684,
                -1.2409786414338264,
                1.281935029264177,
                -0.6632081514773441,
                0.0933032171593779,
                -2.74740846567917
            ]
        },
        {
            "positions": [
                -0.03162001369257972,
                -1.2129128577403465,
                1.4496339102849563,
                -0.6702634152166344,
                0.10145655847494266,
                -2.877840129674178
            ]
        },
        {
            "positions": [
                0.01940956987724729,
                -1.1848470740468668,
                1.6173327913057354,
                -0.6773186789559246,
                0.1096098997905074,
                -3.0082717936691856
            ]
        },
        {
            "positions": [
                0.0704391534470743,
                -1.1567812903533872,
                1.7850316723265145,
                -0.6843739426952147,
                0.11776324110607214,
                -3.1387034576641932
            ]
        },
        {
            "positions": [
                0.12146873701690131,
                -1.1287155066599075,
                1.9527305533472938,
                -0.6914292064345049,
                0.1259165824216369,
                -3.269135121659201
            ]
        }
    ]
}