{
    "goal": {
        "global_pose": {
            "orientation": {
                "w": 0.5084816217422485,
                "x": -0.49083608388900757,
                "y": 0.5182115435600281,
                "z": -0.4816462993621826
            },
            "position": {
                "x": 0.5540239810943604,
                "y": 0.030875300988554955,
                "z": 0.16403168439865112
            }
        },
        "name": "move_to_storage_A"
    },
    "id": "ProjEST_move_to_storage_A_22",
    "joint_names": [
        "shoulder_pan_joint",
        "shoulder_lift_joint",
        "elbow_joint",
        "wrist_1_joint",
        "wrist_2_joint",
        "wrist_3_joint"
    ],
    "metrics": {
        "cart_traj_len": 0.35257985970763217,
        "distance_elbow_joint": 0.4493638661773862,
        "distance_shoulder_lift_joint": 0.23448274202829134,
        "distance_shoulder_pan_joint": 0.4619460314215219,
        "distance_wrist_1_joint": 0.24096479887076672,
        "distance_wrist_2_joint": 1.0938970189870316,
        "distance_wrist_3_joint": 0.10090515865626992,
        "smoothness": 4.440892133664971e-16,
        "time": 0.039478150000000004,
        "traj_len": 1.6067232543724719,
        "weighted_distance": 2.0293426894715454
    },
    "planner": "ProjEST",
    "start": {
        "state": {
            "elbow_joint": 1.9715477243005601,
            "shoulder_lift_joint": -1.1394853015351272,
            "shoulder_pan_joint": 0.12281154014795169,
            "wrist_1_joint": -0.7804696478968182,
            "wrist_2_joint": 0.12958648046900423,
            "wrist_3_joint": -3.192491284697111
        }
    },
    "waypoints": [
        {
            "positions": [
                0.12281154014795169,
                -1.1394853015351272,
                1.9715477243005601,
                -0.7804696478968182,
                0.12958648046900423,
                -3.192491284697111
            ]
        },
        {
            "positions": [
                0.05681924994487714,
                -1.1729828361105974,
                2.035742562325901,
                -0.814893190592642,
                0.28585748318143733,
                -3.17807626203193
            ]
        },
        {
            "positions": [
                -0.009173040258197415,
                -1.2064803706860676,
                2.099937400351242,
                -0.8493167332884658,
                0.4421284858938704,
                -3.1636612393667485
            ]
        },
        {
            "positions": [
                -0.07516533046127198,
                -1.2399779052615378,
                2.164132238376583,
                -0.8837402759842896,
                0.5983994886063035,
                -3.149246216701567
            ]
        },
        {
            "positions": [
                -0.1411576206643465,
                -1.2734754398370078,
                2.2283270764019236,
                -0.9181638186801134,
                0.7546704913187365,
                -3.1348311940363853
            ]
        },
        {
            "positions": [
                -0.20714991086742107,
                -1.306972974412478,
                2.2925219144272644,
                -0.9525873613759372,
                0.9109414940311696,
                -3.120416171371204
            ]
        },
        {
            "positions": [
                -0.27314220107049564,
                -1.3404705089879483,
                2.3567167524526056,
                -0.9870109040717611,
                1.0672124967436027,
                -3.1060011487060226
            ]
        },
        {
            "positions": [
                -0.3391344912735702,
                -1.3739680435634185,
                2.4209115904779464,
                -1.0214344467675849,
                1.2234834994560357,
                -3.0915861260408413
            ]
        }
    ]
}