{
    "goal": {
        "global_pose": {
            "orientation": {
                "w": 0.7047431468963623,
                "x": -0.7094548344612122,
                "y": 0.0024358443915843964,
                "z": -0.0022348060738295317
            },
            "position": {
                "x": 0.6094750761985779,
                "y": 0.3671506643295288,
                "z": 0.19426114857196808
            }
        },
        "name": "move_to_magneteinheit_A"
    },
    "id": "ProjEST_move_to_magneteinheit_A_94",
    "joint_names": [
        "shoulder_pan_joint",
        "shoulder_lift_joint",
        "elbow_joint",
        "wrist_1_joint",
        "wrist_2_joint",
        "wrist_3_joint"
    ],
    "metrics": {
        "cart_traj_len": 3.486762479774702,
        "distance_elbow_joint": 3.8838154057628067,
        "distance_shoulder_lift_joint": 0.6566197846153448,
        "distance_shoulder_pan_joint": 3.0215618420735963,
        "distance_wrist_1_joint": 0.8099817762141294,
        "distance_wrist_2_joint": 2.065910088345628,
        "distance_wrist_3_joint": 2.6054389637416473,
        "smoothness": 0.11899007648339313,
        "time": 0.081510717,
        "traj_len": 3.6115547705597866,
        "weighted_distance": 4.596748595779
    },
    "planner": "ProjEST",
    "start": {
        "state": {
            "elbow_joint": -1.919618573717145,
            "shoulder_lift_joint": -1.2443395971678275,
            "shoulder_pan_joint": 2.6996025300909787,
            "wrist_1_joint": -1.548550951253194,
            "wrist_2_joint": -1.5709469090946802,
            "wrist_3_joint": 0.4420197732051276
        }
    },
    "waypoints": [
        {
            "positions": [
                2.6996025300909787,
                -1.2443395971678275,
                -1.919618573717145,
                -1.548550951253194,
                -1.5709469090946802,
                0.4420197732051276
            ]
        },
        {
            "positions": [
                2.5876291272666156,
                -1.2552980043449131,
                -1.807245040141702,
                -1.5331291614926064,
                -1.4954746355761421,
                0.4984344906846225
            ]
        },
        {
            "positions": [
                2.4756557244422526,
                -1.2662564115219987,
                -1.694871506566259,
                -1.5177073717320184,
                -1.4200023620576043,
                0.5548492081641174
            ]
        },
        {
            "positions": [
                2.3636823216178895,
                -1.2772148186990844,
                -1.582497972990816,
                -1.5022855819714307,
                -1.3445300885390663,
                0.6112639256436123
            ]
        },
        {
            "positions": [
                2.2517089187935264,
                -1.2881732258761702,
                -1.4701244394153727,
                -1.4868637922108427,
                -1.2690578150205283,
                0.6676786431231072
            ]
        },
        {
            "positions": [
                2.1397355159691633,
                -1.2991316330532559,
                -1.3577509058399297,
                -1.471442002450255,
                -1.1935855415019905,
                0.7240933606026021
            ]
        },
        {
            "positions": [
                2.0277621131448003,
                -1.3100900402303415,
                -1.2453773722644867,
                -1.456020212689667,
                -1.1181132679834525,
                0.780508078082097
            ]
        },
        {
            "positions": [
                1.9157887103204374,
                -1.321048447407427,
                -1.1330038386890435,
                -1.4405984229290794,
                -1.0426409944649144,
                0.8369227955615919
            ]
        },
        {
            "positions": [
                1.8038153074960743,
                -1.3320068545845127,
                -1.0206303051136008,
                -1.4251766331684914,
                -0.9671687209463765,
                0.8933375130410868
            ]
        },
        {
            "positions": [
                1.6918419046717115,
                -1.3429652617615984,
                -0.9082567715381575,
                -1.4097548434079037,
                -0.8916964474278386,
                0.9497522305205817
            ]
        },
        {
            "positions": [
                1.5798685018473482,
                -1.3539236689386842,
                -0.7958832379627145,
                -1.394333053647316,
                -0.8162241739093006,
                1.0061669480000766
            ]
        },
        {
            "positions": [
                1.4678950990229853,
                -1.3648820761157698,
                -0.6835097043872715,
                -1.378911263886728,
                -0.7407519003907627,
                1.0625816654795714
            ]
        },
        {
            "positions": [
                1.3559216961986222,
                -1.3758404832928555,
                -0.5711361708118285,
                -1.3634894741261403,
                -0.6652796268722247,
                1.1189963829590663
            ]
        },
        {
            "positions": [
                1.2439482933742592,
                -1.386798890469941,
                -0.45876263723638533,
                -1.3480676843655524,
                -0.5898073533536867,
                1.1754111004385612
            ]
        },
        {
            "positions": [
                1.131974890549896,
                -1.3977572976470267,
                -0.34638910366094233,
                -1.3326458946049646,
                -0.5143350798351487,
                1.2318258179180561
            ]
        },
        {
            "positions": [
                1.0200014877255332,
                -1.4087157048241123,
                -0.23401557008549934,
                -1.3172241048443767,
                -0.4388628063166109,
                1.288240535397551
            ]
        },
        {
            "positions": [
                0.9080280849011699,
                -1.4196741120011982,
                -0.12164203651005634,
                -1.301802315083789,
                -0.3633905327980729,
                1.344655252877046
            ]
        },
        {
            "positions": [
                0.7960546820768069,
                -1.4306325191782838,
                -0.009268502934613121,
                -1.2863805253232012,
                -0.28791825927953485,
                1.4010699703565408
            ]
        },
        {
            "positions": [
                0.6840812792524442,
                -1.4415909263553695,
                0.10310503064082988,
                -1.2709587355626133,
                -0.21244598576099705,
                1.4574846878360357
            ]
        },
        {
            "positions": [
                0.5721078764280807,
                -1.452549333532455,
                0.21547856421627265,
                -1.2555369458020254,
                -0.13697371224245902,
                1.5138994053155306
            ]
        },
        {
            "positions": [
                0.4601344736037176,
                -1.4635077407095407,
                0.32785209779171587,
                -1.2401151560414376,
                -0.061501438723921,
                1.5703141227950255
            ]
        },
        {
            "positions": [
                0.348161070779355,
                -1.4744661478866263,
                0.44022563136715864,
                -1.22469336628085,
                0.013970834794616804,
                1.6267288402745204
            ]
        },
        {
            "positions": [
                0.2361876679549919,
                -1.485424555063712,
                0.5525991649426019,
                -1.209271576520262,
                0.08944310831315483,
                1.6831435577540153
            ]
        },
        {
            "positions": [
                0.12421426513062883,
                -1.4963829622407978,
                0.6649726985180451,
                -1.1938497867596742,
                0.16491538183169285,
                1.7395582752335101
            ]
        },
        {
            "positions": [
                0.012240862306265754,
                -1.5073413694178834,
                0.7773462320934879,
                -1.1784279969990865,
                0.24038765535023066,
                1.795972992713005
            ]
        },
        {
            "positions": [
                -0.0997325405180974,
                -1.518299776594969,
                0.8897197656689311,
                -1.1630062072384986,
                0.3158599288687687,
                1.8523877101925
            ]
        },
        {
            "positions": [
                -0.07886508073392923,
                -1.4782325977191686,
                1.0054798373833767,
                -1.117937620384637,
                0.2987059538755033,
                1.9795810024881244
            ]
        },
        {
            "positions": [
                -0.05799762094976103,
                -1.4381654188433683,
                1.1212399090978222,
                -1.0728690335307753,
                0.28155197888223793,
                2.1067742947837487
            ]
        },
        {
            "positions": [
                -0.03713016116559284,
                -1.3980982399675679,
                1.2369999808122678,
                -1.0278004466769137,
                0.2643980038889726,
                2.233967587079373
            ]
        },
        {
            "positions": [
                -0.01626270138142466,
                -1.3580310610917676,
                1.3527600525267132,
                -0.9827318598230521,
                0.24724402889570724,
                2.3611608793749976
            ]
        },
        {
            "positions": [
                0.004604758402743547,
                -1.3179638822159672,
                1.468520124241159,
                -0.9376632729691905,
                0.23009005390244186,
                2.488354171670622
            ]
        },
        {
            "positions": [
                0.025472218186911727,
                -1.277896703340167,
                1.5842801959556043,
                -0.8925946861153289,
                0.2129360789091765,
                2.615547463966246
            ]
        },
        {
            "positions": [
                0.04633967797107991,
                -1.2378295244643664,
                1.7000402676700501,
                -0.8475260992614673,
                0.19578210391591114,
                2.7427407562618704
            ]
        },
        {
            "positions": [
                0.06720713775524809,
                -1.1977623455885662,
                1.8158003393844955,
                -0.8024575124076057,
                0.1786281289226458,
                2.8699340485574947
            ]
        },
        {
            "positions": [
                0.08807459753941628,
                -1.1576951667127657,
                1.931560411098941,
                -0.757388925553744,
                0.16147415392938042,
                2.9971273408531194
            ]
        },
        {
            "positions": [
                0.12249423094642439,
                -1.1356401714067659,
                1.964196832045661,
                -0.7385691750390647,
                0.13675667848658976,
                3.047458736946775
            ]
        }
    ]
}{
    "goal": {
        "global_pose": {
            "orientation": {
                "w": 0.7047431468963623,
                "x": -0.7094548344612122,
                "y": 0.0024358443915843964,
                "z": -0.0022348060738295317
            },
            "position": {
                "x": 0.6094750761985779,
                "y": 0.3671506643295288,
                "z": 0.19426114857196808
            }
        },
        "name": "move_to_magneteinheit_A"
    },
    "id": "ProjEST_move_to_magneteinheit_A_94",
    "joint_names": [
        "shoulder_pan_joint",
        "shoulder_lift_joint",
        "elbow_joint",
        "wrist_1_joint",
        "wrist_2_joint",
        "wrist_3_joint"
    ],
    "metrics": {
        "cart_traj_len": 1.2507645813218247,
        "distance_elbow_joint": 0.06910229335188256,
        "distance_shoulder_lift_joint": 1.122634824352699,
        "distance_shoulder_pan_joint": 1.2426304917846573,
        "distance_wrist_1_joint": 3.500096502156798,
        "distance_wrist_2_joint": 1.704515716774413,
        "distance_wrist_3_joint": 1.1057191465245633,
        "smoothness": 0.0,
        "time": 0.38936259900000003,
        "traj_len": 2.957143719020943,
        "weighted_distance": 4.020043468288042
    },
    "planner": "ProjEST",
    "start": {
        "state": {
            "elbow_joint": 1.919643534880228,
            "shoulder_lift_joint": -1.8972525353963687,
            "shoulder_pan_joint": -1.1188672234189438,
            "wrist_1_joint": -1.5931878212786155,
            "wrist_2_joint": 1.5706036197970081,
            "wrist_3_joint": 1.118896926603594
        }
    },
    "waypoints": [
        {
            "positions": [
                -1.1188672234189438,
                -1.8972525353963687,
                1.919643534880228,
                -1.5931878212786155,
                1.5706036197970081,
                1.118896926603594
            ]
        },
        {
            "positions": [
                -1.0648398107326544,
                -1.8484423256419036,
                1.9226479824172664,
                -1.4410097124891894,
                1.4964942408068163,
                1.070822181102526
            ]
        },
        {
            "positions": [
                -1.010812398046365,
                -1.7996321158874384,
                1.9256524299543047,
                -1.2888316036997636,
                1.4223848618166244,
                1.022747435601458
            ]
        },
        {
            "positions": [
                -0.9567849853600755,
                -1.7508219061329733,
                1.9286568774913433,
                -1.1366534949103375,
                1.3482754828264325,
                0.97467269010039
            ]
        },
        {
            "positions": [
                -0.9027575726737861,
                -1.7020116963785081,
                1.9316613250283816,
                -0.9844753861209115,
                1.2741661038362406,
                0.9265979445993221
            ]
        },
        {
            "positions": [
                -0.8487301599874966,
                -1.653201486624043,
                1.93466577256542,
                -0.8322972773314855,
                1.2000567248460488,
                0.8785231990982542
            ]
        },
        {
            "positions": [
                -0.7947027473012072,
                -1.6043912768695776,
                1.9376702201024583,
                -0.6801191685420594,
                1.1259473458558569,
                0.8304484535971861
            ]
        },
        {
            "positions": [
                -0.7406753346149177,
                -1.5555810671151125,
                1.9406746676394968,
                -0.5279410597526335,
                1.051837966865665,
                0.7823737080961182
            ]
        },
        {
            "positions": [
                -0.6866479219286283,
                -1.5067708573606473,
                1.9436791151765351,
                -0.37576295096320744,
                0.9777285878754732,
                0.7342989625950502
            ]
        },
        {
            "positions": [
                -0.6326205092423387,
                -1.4579606476061822,
                1.9466835627135735,
                -0.22358484217378138,
                0.9036192088852814,
                0.6862242170939823
            ]
        },
        {
            "positions": [
                -0.5785930965560494,
                -1.409150437851717,
                1.9496880102506118,
                -0.07140673338435555,
                0.8295098298950895,
                0.6381494715929144
            ]
        },
        {
            "positions": [
                -0.5245656838697599,
                -1.3603402280972519,
                1.95269245778765,
                0.08077137540507051,
                0.7554004509048976,
                0.5900747260918463
            ]
        },
        {
            "positions": [
                -0.47053827118347047,
                -1.3115300183427867,
                1.9556969053246887,
                0.23294948419449657,
                0.6812910719147057,
                0.5419999805907784
            ]
        },
        {
            "positions": [
                -0.41651085849718106,
                -1.2627198085883216,
                1.958701352861727,
                0.3851275929839224,
                0.607181692924514,
                0.4939252350897104
            ]
        },
        {
            "positions": [
                -0.36248344581089154,
                -1.2139095988338564,
                1.9617058003987653,
                0.5373057017733485,
                0.5330723139343219,
                0.4458504895886424
            ]
        },
        {
            "positions": [
                -0.3084560331246021,
                -1.165099389079391,
                1.9647102479358036,
                0.6894838105627745,
                0.4589629349441302,
                0.39777574408757443
            ]
        },
        {
            "positions": [
                -0.2544286204383127,
                -1.116289179324926,
                1.967714695472842,
                0.8416619193522006,
                0.38485355595393833,
                0.3497009985865065
            ]
        },
        {
            "positions": [
                -0.2004012077520233,
                -1.067478969570461,
                1.9707191430098805,
                0.9938400281416262,
                0.31074417696374645,
                0.30162625308543856
            ]
        },
        {
            "positions": [
                -0.14637379506573367,
                -1.0186687598159958,
                1.9737235905469188,
                1.1460181369310527,
                0.23663479797355458,
                0.2535515075843705
            ]
        },
        {
            "positions": [
                -0.09234638237944437,
                -0.9698585500615305,
                1.9767280380839571,
                1.2981962457204788,
                0.1625254189833627,
                0.20547676208330257
            ]
        },
        {
            "positions": [
                -0.03831896969315496,
                -0.9210483403070654,
                1.9797324856209955,
                1.4503743545099044,
                0.08841603999317083,
                0.15740201658223463
            ]
        },
        {
            "positions": [
                0.015708442993134453,
                -0.8722381305526001,
                1.982736933158034,
                1.6025524632993304,
                0.014306661002978949,
                0.1093272710811668
            ]
        },
        {
            "positions": [
                0.06973585567942409,
                -0.823427920798135,
                1.9857413806950723,
                1.7547305720887565,
                -0.05980271798721293,
                0.06125252558009864
            ]
        },
        {
            "positions": [
                0.12376326836571341,
                -0.7746177110436698,
                1.9887458282321107,
                1.9069086808781828,
                -0.13391209697740478,
                0.013177780079030685
            ]
        }
    ]
}