{
    "goal": {
        "global_pose": {
            "orientation": {
                "w": 0.7047431468963623,
                "x": -0.7094548344612122,
                "y": 0.0024358443915843964,
                "z": -0.0022348060738295317
            },
            "position": {
                "x": 0.6094750761985779,
                "y": 0.3671506643295288,
                "z": 0.19426114857196808
            }
        },
        "name": "move_to_magneteinheit_A"
    },
    "id": "ProjEST_move_to_magneteinheit_A_49",
    "joint_names": [
        "shoulder_pan_joint",
        "shoulder_lift_joint",
        "elbow_joint",
        "wrist_1_joint",
        "wrist_2_joint",
        "wrist_3_joint"
    ],
    "metrics": {
        "cart_traj_len": 3.9239063483313905,
        "distance_elbow_joint": 4.0816908959838285,
        "distance_shoulder_lift_joint": 1.0824638907489763,
        "distance_shoulder_pan_joint": 3.5947015169749914,
        "distance_wrist_1_joint": 0.6932146119185092,
        "distance_wrist_2_joint": 1.918445620485033,
        "distance_wrist_3_joint": 3.957814563375627,
        "smoothness": 0.5463667575760527,
        "time": 0.061047051,
        "traj_len": 3.9151412617537784,
        "weighted_distance": 5.084842225540704
    },
    "planner": "ProjEST",
    "start": {
        "state": {
            "elbow_joint": -1.919618573717145,
            "shoulder_lift_joint": -1.2443395971678275,
            "shoulder_pan_joint": 2.6996025300909787,
            "wrist_1_joint": -1.548550951253194,
            "wrist_2_joint": -1.5709469090946802,
            "wrist_3_joint": 0.4420197732051276
        }
    },
    "waypoints": [
        {
            "positions": [
                2.6996025300909787,
                -1.2443395971678275,
                -1.919618573717145,
                -1.548550951253194,
                -1.5709469090946802,
                0.4420197732051276
            ]
        },
        {
            "positions": [
                2.552631558036568,
                -1.2678401796527556,
                -1.8454582277626295,
                -1.544342348609906,
                -1.548000951037221,
                0.32980805242642114
            ]
        },
        {
            "positions": [
                2.405660585982157,
                -1.2913407621376838,
                -1.7712978818081142,
                -1.5401337459666178,
                -1.5250549929797619,
                0.21759633164771472
            ]
        },
        {
            "positions": [
                2.2586896139277464,
                -1.314841344622612,
                -1.6971375358535987,
                -1.5359251433233296,
                -1.5021090349223027,
                0.1053846108690083
            ]
        },
        {
            "positions": [
                2.1117186418733356,
                -1.33834192710754,
                -1.6229771898990835,
                -1.5317165406800415,
                -1.4791630768648436,
                -0.006827109909698148
            ]
        },
        {
            "positions": [
                1.9647476698189246,
                -1.3618425095924682,
                -1.548816843944568,
                -1.5275079380367533,
                -1.4562171188073845,
                -0.11903883068840454
            ]
        },
        {
            "positions": [
                1.8177766977645136,
                -1.3853430920773964,
                -1.4746564979900527,
                -1.5232993353934652,
                -1.4332711607499253,
                -0.231250551467111
            ]
        },
        {
            "positions": [
                1.6708057257101028,
                -1.4088436745623245,
                -1.4004961520355372,
                -1.519090732750177,
                -1.4103252026924662,
                -0.34346227224581743
            ]
        },
        {
            "positions": [
                1.523834753655692,
                -1.4323442570472527,
                -1.3263358060810218,
                -1.5148821301068889,
                -1.387379244635007,
                -0.4556739930245239
            ]
        },
        {
            "positions": [
                1.3768637816012812,
                -1.4558448395321806,
                -1.2521754601265065,
                -1.5106735274636007,
                -1.364433286577548,
                -0.5678857138032303
            ]
        },
        {
            "positions": [
                1.2298928095468704,
                -1.4793454220171087,
                -1.1780151141719912,
                -1.5064649248203126,
                -1.3414873285200888,
                -0.6800974345819366
            ]
        },
        {
            "positions": [
                1.0829218374924592,
                -1.5028460045020369,
                -1.1038547682174755,
                -1.5022563221770246,
                -1.3185413704626296,
                -0.7923091553606434
            ]
        },
        {
            "positions": [
                0.9359508654380486,
                -1.526346586986965,
                -1.0296944222629603,
                -1.4980477195337365,
                -1.2955954124051705,
                -0.9045208761393495
            ]
        },
        {
            "positions": [
                0.7889798933836376,
                -1.5498471694718932,
                -0.9555340763084449,
                -1.4938391168904483,
                -1.2726494543477114,
                -1.016732596918056
            ]
        },
        {
            "positions": [
                0.6420089213292268,
                -1.5733477519568213,
                -0.8813737303539295,
                -1.4896305142471602,
                -1.2497034962902522,
                -1.1289443176967624
            ]
        },
        {
            "positions": [
                0.49503794927481604,
                -1.5968483344417495,
                -0.807213384399414,
                -1.485421911603872,
                -1.226757538232793,
                -1.241156038475469
            ]
        },
        {
            "positions": [
                0.34806697722040525,
                -1.6203489169266776,
                -0.7330530384448988,
                -1.481213308960584,
                -1.203811580175334,
                -1.3533677592541753
            ]
        },
        {
            "positions": [
                0.20109600516599402,
                -1.6438494994116057,
                -0.6588926924903833,
                -1.4770047063172957,
                -1.1808656221178748,
                -1.4655794800328819
            ]
        },
        {
            "positions": [
                0.054125033111583676,
                -1.6673500818965339,
                -0.584732346535868,
                -1.4727961036740076,
                -1.1579196640604157,
                -1.5777912008115882
            ]
        },
        {
            "positions": [
                -0.09284593894282755,
                -1.690850664381462,
                -0.5105720005813525,
                -1.4685875010307194,
                -1.1349737060029566,
                -1.690002921590295
            ]
        },
        {
            "positions": [
                -0.2398169109972379,
                -1.7143512468663902,
                -0.4364116546268373,
                -1.4643788983874313,
                -1.1120277479454974,
                -1.8022146423690009
            ]
        },
        {
            "positions": [
                -0.3867878830516492,
                -1.7378518293513183,
                -0.3622513086723219,
                -1.4601702957441431,
                -1.0890817898880383,
                -1.9144263631477079
            ]
        },
        {
            "positions": [
                -0.360336517398632,
                -1.7059912701837898,
                -0.21886678657861525,
                -1.4334694266201993,
                -1.0110420285715453,
                -1.9973587709254483
            ]
        },
        {
            "positions": [
                -0.33388515174561484,
                -1.6741307110162613,
                -0.07548226448490858,
                -1.4067685574962554,
                -0.9330022672550524,
                -2.0802911787031886
            ]
        },
        {
            "positions": [
                -0.30743378609259764,
                -1.6422701518487326,
                0.06790225760879814,
                -1.3800676883723115,
                -0.8549625059385594,
                -2.163223586480929
            ]
        },
        {
            "positions": [
                -0.28098242043958044,
                -1.610409592681204,
                0.21128677970250476,
                -1.3533668192483679,
                -0.7769227446220665,
                -2.2461559942586695
            ]
        },
        {
            "positions": [
                -0.25453105478656324,
                -1.5785490335136756,
                0.3546713017962114,
                -1.326665950124424,
                -0.6988829833055734,
                -2.32908840203641
            ]
        },
        {
            "positions": [
                -0.22807968913354607,
                -1.5466884743461469,
                0.4980558238899182,
                -1.2999650810004801,
                -0.6208432219890805,
                -2.4120208098141505
            ]
        },
        {
            "positions": [
                -0.2016283234805289,
                -1.5148279151786184,
                0.6414403459836248,
                -1.2732642118765363,
                -0.5428034606725877,
                -2.494953217591891
            ]
        },
        {
            "positions": [
                -0.17517695782751172,
                -1.4829673560110899,
                0.7848248680773314,
                -1.2465633427525924,
                -0.46476369935609463,
                -2.5778856253696314
            ]
        },
        {
            "positions": [
                -0.14872559217449452,
                -1.4511067968435614,
                0.9282093901710381,
                -1.2198624736286487,
                -0.3867239380396017,
                -2.660818033147372
            ]
        },
        {
            "positions": [
                -0.12227422652147735,
                -1.4192462376760329,
                1.0715939122647447,
                -1.1931616045047049,
                -0.30868417672310866,
                -2.7437504409251123
            ]
        },
        {
            "positions": [
                -0.09582286086846015,
                -1.3873856785085041,
                1.2149784343584513,
                -1.166460735380761,
                -0.23064441540661573,
                -2.826682848702853
            ]
        },
        {
            "positions": [
                -0.06937149521544295,
                -1.3555251193409756,
                1.3583629564521584,
                -1.1397598662568171,
                -0.1526046540901228,
                -2.9096152564805933
            ]
        },
        {
            "positions": [
                -0.0429201295624258,
                -1.3236645601734471,
                1.5017474785458647,
                -1.1130589971328733,
                -0.07456489277362999,
                -2.9925476642583337
            ]
        },
        {
            "positions": [
                -0.0164687639094086,
                -1.2918040010059186,
                1.6451320006395713,
                -1.0863581280089294,
                0.003474868542862941,
                -3.075480072036074
            ]
        },
        {
            "positions": [
                0.009982601743608543,
                -1.2599434418383901,
                1.788516522733278,
                -1.0596572588849857,
                0.08151462985935609,
                -3.1584124798138147
            ]
        },
        {
            "positions": [
                0.036433967396625744,
                -1.2280828826708614,
                1.9319010448269847,
                -1.0329563897610419,
                0.15955439117584902,
                -3.241344887591555
            ]
        },
        {
            "positions": [
                0.06288533304964294,
                -1.196222323503333,
                2.0752855669206913,
                -1.006255520637098,
                0.2375941524923419,
                -3.3242772953692956
            ]
        },
        {
            "positions": [
                0.09220427691518021,
                -1.172561247144583,
                2.031892189247695,
                -0.9307959299858914,
                0.1826418730433362,
                -3.2285185479686938
            ]
        },
        {
            "positions": [
                0.12152322078071749,
                -1.1489001707858328,
                1.9884988115746987,
                -0.8553363393346849,
                0.12768959359433052,
                -3.1327598005680923
            ]
        }
    ]
}{
    "goal": {
        "global_pose": {
            "orientation": {
                "w": 0.7047431468963623,
                "x": -0.7094548344612122,
                "y": 0.0024358443915843964,
                "z": -0.0022348060738295317
            },
            "position": {
                "x": 0.6094750761985779,
                "y": 0.3671506643295288,
                "z": 0.19426114857196808
            }
        },
        "name": "move_to_magneteinheit_A"
    },
    "id": "ProjEST_move_to_magneteinheit_A_49",
    "joint_names": [
        "shoulder_pan_joint",
        "shoulder_lift_joint",
        "elbow_joint",
        "wrist_1_joint",
        "wrist_2_joint",
        "wrist_3_joint"
    ],
    "metrics": {
        "cart_traj_len": 1.386413849530763,
        "distance_elbow_joint": 0.12969017233726587,
        "distance_shoulder_lift_joint": 1.0681069581123288,
        "distance_shoulder_pan_joint": 1.2621890206175133,
        "distance_wrist_1_joint": 0.8208162035573768,
        "distance_wrist_2_joint": 1.4355707512217917,
        "distance_wrist_3_joint": 4.320067024008681,
        "smoothness": 0.1777711197285261,
        "time": 0.134809122,
        "traj_len": 3.0060672197831764,
        "weighted_distance": 4.4646344903756106
    },
    "planner": "ProjEST",
    "start": {
        "state": {
            "elbow_joint": 1.919643534880228,
            "shoulder_lift_joint": -1.8972525353963687,
            "shoulder_pan_joint": -1.1188672234189438,
            "wrist_1_joint": -1.5931878212786155,
            "wrist_2_joint": 1.5706036197970081,
            "wrist_3_joint": 1.118896926603594
        }
    },
    "waypoints": [
        {
            "positions": [
                -1.1188672234189438,
                -1.8972525353963687,
                1.919643534880228,
                -1.5931878212786155,
                1.5706036197970081,
                1.118896926603594
            ]
        },
        {
            "positions": [
                -1.0592548589850628,
                -1.8537968120734007,
                1.9177911344989358,
                -1.5550531474297602,
                1.5147425054801287,
                0.9237303754788396
            ]
        },
        {
            "positions": [
                -0.9996424945511818,
                -1.810341088750433,
                1.9159387341176435,
                -1.5169184735809051,
                1.4588813911632492,
                0.7285638243540853
            ]
        },
        {
            "positions": [
                -0.9400301301173007,
                -1.766885365427465,
                1.9140863337363512,
                -1.4787837997320499,
                1.40302027684637,
                0.5333972732293311
            ]
        },
        {
            "positions": [
                -0.8804177656834197,
                -1.723429642104497,
                1.9122339333550589,
                -1.4406491258831946,
                1.3471591625294905,
                0.3382307221045767
            ]
        },
        {
            "positions": [
                -0.8208054012495387,
                -1.679973918781529,
                1.9103815329737666,
                -1.4025144520343396,
                1.291298048212611,
                0.1430641709798225
            ]
        },
        {
            "positions": [
                -0.7611930368156576,
                -1.6365181954585613,
                1.9085291325924745,
                -1.3643797781854843,
                1.2354369338957318,
                -0.05210238014493185
            ]
        },
        {
            "positions": [
                -0.7015806723817766,
                -1.5930624721355933,
                1.9066767322111822,
                -1.326245104336629,
                1.1795758195788524,
                -0.24726893126968608
            ]
        },
        {
            "positions": [
                -0.6419683079478955,
                -1.5496067488126253,
                1.9048243318298899,
                -1.288110430487774,
                1.123714705261973,
                -0.4424354823944405
            ]
        },
        {
            "positions": [
                -0.5823559435140145,
                -1.5061510254896575,
                1.9029719314485976,
                -1.2499757566389187,
                1.0678535909450937,
                -0.6376020335191948
            ]
        },
        {
            "positions": [
                -0.5227435790801335,
                -1.4626953021666895,
                1.9011195310673052,
                -1.2118410827900634,
                1.011992476628214,
                -0.832768584643949
            ]
        },
        {
            "positions": [
                -0.4631312146462524,
                -1.4192395788437215,
                1.899267130686013,
                -1.1737064089412081,
                0.9561313623113347,
                -1.0279351357687034
            ]
        },
        {
            "positions": [
                -0.40351885021237144,
                -1.3757838555207536,
                1.8974147303047206,
                -1.135571735092353,
                0.9002702479944553,
                -1.2231016868934577
            ]
        },
        {
            "positions": [
                -0.34390648577849026,
                -1.3323281321977856,
                1.8955623299234283,
                -1.0974370612434978,
                0.8444091336775759,
                -1.4182682380182123
            ]
        },
        {
            "positions": [
                -0.2842941213446093,
                -1.2888724088748178,
                1.893709929542136,
                -1.0593023873946428,
                0.7885480193606965,
                -1.6134347891429661
            ]
        },
        {
            "positions": [
                -0.22468175691072823,
                -1.2454166855518498,
                1.8918575291608437,
                -1.0211677135457875,
                0.7326869050438171,
                -1.8086013402677208
            ]
        },
        {
            "positions": [
                -0.16506939247684727,
                -1.201960962228882,
                1.8900051287795516,
                -0.9830330396969322,
                0.6768257907269377,
                -2.0037678913924752
            ]
        },
        {
            "positions": [
                -0.10545702804296608,
                -1.158505238905914,
                1.8881527283982593,
                -0.944898365848077,
                0.6209646764100583,
                -2.1989344425172295
            ]
        },
        {
            "positions": [
                -0.045844663609085234,
                -1.115049515582946,
                1.886300328016967,
                -0.9067636919992218,
                0.565103562093179,
                -2.3941009936419837
            ]
        },
        {
            "positions": [
                0.013767700824795837,
                -1.071593792259978,
                1.8844479276356747,
                -0.8686290181503666,
                0.5092424477762993,
                -2.589267544766738
            ]
        },
        {
            "positions": [
                0.07338006525867691,
                -1.0281380689370103,
                1.8825955272543824,
                -0.8304943443015115,
                0.4533813334594201,
                -2.784434095891492
            ]
        },
        {
            "positions": [
                0.13299242969255795,
                -0.9846823456140423,
                1.88074312687309,
                -0.7923596704526562,
                0.3975202191425406,
                -2.9796006470162464
            ]
        },
        {
            "positions": [
                0.1278277459395523,
                -1.0624507297790435,
                1.9261380090381541,
                -0.7823656440869474,
                0.26627654385887856,
                -3.0903853722106662
            ]
        },
        {
            "positions": [
                0.12266306218654663,
                -1.1402191139440447,
                1.971532891203218,
                -0.7723716177212386,
                0.1350328685752165,
                -3.2011700974050865
            ]
        }
    ]
}