{
    "goal": {
        "global_pose": {
            "orientation": {
                "w": 0.7047431468963623,
                "x": -0.7094548344612122,
                "y": 0.0024358443915843964,
                "z": -0.0022348060738295317
            },
            "position": {
                "x": 0.6094750761985779,
                "y": 0.3671506643295288,
                "z": 0.19426114857196808
            }
        },
        "name": "move_to_magneteinheit_A"
    },
    "id": "ProjEST_move_to_magneteinheit_A_149",
    "joint_names": [
        "shoulder_pan_joint",
        "shoulder_lift_joint",
        "elbow_joint",
        "wrist_1_joint",
        "wrist_2_joint",
        "wrist_3_joint"
    ],
    "metrics": {
        "cart_traj_len": 3.30332214115335,
        "distance_elbow_joint": 3.920742978690992,
        "distance_shoulder_lift_joint": 1.4731057100287517,
        "distance_shoulder_pan_joint": 3.3966192560724515,
        "distance_wrist_1_joint": 3.498274280733921,
        "distance_wrist_2_joint": 2.62204444262143,
        "distance_wrist_3_joint": 1.5953529767549408,
        "smoothness": 0.2104820160048422,
        "time": 0.08097611199999999,
        "traj_len": 4.0627748700737145,
        "weighted_distance": 5.081059370029808
    },
    "planner": "ProjEST",
    "start": {
        "state": {
            "elbow_joint": -1.919618573717145,
            "shoulder_lift_joint": -1.2443395971678275,
            "shoulder_pan_joint": 2.6996025300909787,
            "wrist_1_joint": -1.548550951253194,
            "wrist_2_joint": -1.5709469090946802,
            "wrist_3_joint": 0.4420197732051276
        }
    },
    "waypoints": [
        {
            "positions": [
                2.6996025300909787,
                -1.2443395971678275,
                -1.919618573717145,
                -1.548550951253194,
                -1.5709469090946802,
                0.4420197732051276
            ]
        },
        {
            "positions": [
                2.592924571832793,
                -1.2623618754967516,
                -1.7878681867589328,
                -1.5069802796949443,
                -1.4984834759078831,
                0.4621079233425359
            ]
        },
        {
            "positions": [
                2.4862466135746075,
                -1.2803841538256757,
                -1.6561177998007206,
                -1.4654096081366945,
                -1.426020042721086,
                0.48219607347994425
            ]
        },
        {
            "positions": [
                2.379568655316422,
                -1.2984064321545998,
                -1.5243674128425084,
                -1.4238389365784447,
                -1.353556609534289,
                0.5022842236173526
            ]
        },
        {
            "positions": [
                2.2728906970582363,
                -1.316428710483524,
                -1.3926170258842965,
                -1.382268265020195,
                -1.281093176347492,
                0.522372373754761
            ]
        },
        {
            "positions": [
                2.1662127388000503,
                -1.3344509888124478,
                -1.260866638926084,
                -1.3406975934619454,
                -1.2086297431606947,
                0.5424605238921693
            ]
        },
        {
            "positions": [
                2.059534780541865,
                -1.352473267141372,
                -1.1291162519678721,
                -1.2991269219036956,
                -1.1361663099738977,
                0.5625486740295776
            ]
        },
        {
            "positions": [
                1.952856822283679,
                -1.370495545470296,
                -0.99736586500966,
                -1.2575562503454458,
                -1.0637028767871006,
                0.5826368241669859
            ]
        },
        {
            "positions": [
                1.8461788640254935,
                -1.3885178237992202,
                -0.8656154780514478,
                -1.215985578787196,
                -0.9912394436003036,
                0.6027249743043943
            ]
        },
        {
            "positions": [
                1.7395009057673079,
                -1.4065401021281443,
                -0.7338650910932356,
                -1.1744149072289463,
                -0.9187760104135064,
                0.6228131244418027
            ]
        },
        {
            "positions": [
                1.6328229475091223,
                -1.4245623804570684,
                -0.6021147041350234,
                -1.1328442356706965,
                -0.8463125772267094,
                0.642901274579211
            ]
        },
        {
            "positions": [
                1.5261449892509367,
                -1.4425846587859925,
                -0.4703643171768115,
                -1.0912735641124467,
                -0.7738491440399123,
                0.6629894247166194
            ]
        },
        {
            "positions": [
                1.419467030992751,
                -1.4606069371149166,
                -0.3386139302185993,
                -1.0497028925541971,
                -0.7013857108531153,
                0.6830775748540276
            ]
        },
        {
            "positions": [
                1.3127890727345652,
                -1.4786292154438407,
                -0.20686354326038714,
                -1.0081322209959471,
                -0.6289222776663181,
                0.703165724991436
            ]
        },
        {
            "positions": [
                1.2061111144763796,
                -1.4966514937727649,
                -0.07511315630217497,
                -0.9665615494376975,
                -0.5564588444795211,
                0.7232538751288444
            ]
        },
        {
            "positions": [
                1.099433156218194,
                -1.5146737721016887,
                0.05663723065603721,
                -0.9249908778794477,
                -0.48399541129272405,
                0.7433420252662527
            ]
        },
        {
            "positions": [
                0.9927551979600084,
                -1.5326960504306129,
                0.18838761761424938,
                -0.883420206321198,
                -0.411531978105927,
                0.763430175403661
            ]
        },
        {
            "positions": [
                0.8860772397018228,
                -1.550718328759537,
                0.32013800457246133,
                -0.8418495347629482,
                -0.33906854491912997,
                0.7835183255410694
            ]
        },
        {
            "positions": [
                0.779399281443637,
                -1.568740607088461,
                0.4518883915306737,
                -0.8002788632046983,
                -0.2666051117323327,
                0.8036064756784778
            ]
        },
        {
            "positions": [
                0.6727213231854514,
                -1.5867628854173852,
                0.5836387784888857,
                -0.7587081916464486,
                -0.19414167854553566,
                0.8236946258158862
            ]
        },
        {
            "positions": [
                0.5660433649272658,
                -1.6047851637463093,
                0.7153891654470981,
                -0.7171375200881989,
                -0.12167824535873861,
                0.8437827759532944
            ]
        },
        {
            "positions": [
                0.4593654066690802,
                -1.6228074420752334,
                0.84713955240531,
                -0.6755668485299491,
                -0.04921481217194157,
                0.8638709260907027
            ]
        },
        {
            "positions": [
                0.3526874484108946,
                -1.6408297204041573,
                0.978889939363522,
                -0.6339961769716994,
                0.023248621014855475,
                0.8839590762281111
            ]
        },
        {
            "positions": [
                0.246009490152709,
                -1.6588519987330814,
                1.1106403263217344,
                -0.5924255054134496,
                0.09571205420165252,
                0.9040472263655195
            ]
        },
        {
            "positions": [
                0.1393315318945234,
                -1.6768742770620055,
                1.2423907132799463,
                -0.5508548338552,
                0.16817548738844956,
                0.9241353765029278
            ]
        },
        {
            "positions": [
                0.03265357363633736,
                -1.6948965553909296,
                1.3741411002381587,
                -0.50928416229695,
                0.24063892057524683,
                0.9442235266403363
            ]
        },
        {
            "positions": [
                -0.07402438462184824,
                -1.7129188337198538,
                1.5058914871963707,
                -0.4677134907387004,
                0.3131023537620439,
                0.9643116767777444
            ]
        },
        {
            "positions": [
                -0.18070234288003384,
                -1.7309411120487779,
                1.637641874154583,
                -0.4261428191804506,
                0.3855657869488409,
                0.9843998269151528
            ]
        },
        {
            "positions": [
                -0.2873803011382194,
                -1.748963390377702,
                1.7693922611127948,
                -0.3845721476222008,
                0.45802922013563785,
                1.0044879770525612
            ]
        },
        {
            "positions": [
                -0.26007120614866935,
                -1.6843979292564435,
                1.7848410707035318,
                -0.22895244914867235,
                0.4184913325762304,
                0.9356289921920607
            ]
        },
        {
            "positions": [
                -0.23276211115911927,
                -1.619832468135185,
                1.8002898802942688,
                -0.07333275067514389,
                0.3789534450168229,
                0.8667700073315603
            ]
        },
        {
            "positions": [
                -0.2054530161695692,
                -1.5552670070139265,
                1.8157386898850056,
                0.08228694779838458,
                0.33941555745741536,
                0.7979110224710597
            ]
        },
        {
            "positions": [
                -0.17814392118001915,
                -1.490701545892668,
                1.8311874994757427,
                0.23790664627191305,
                0.2998776698980079,
                0.7290520376105593
            ]
        },
        {
            "positions": [
                -0.15083482619046912,
                -1.4261360847714095,
                1.8466363090664797,
                0.39352634474544146,
                0.26033978233860045,
                0.6601930527500588
            ]
        },
        {
            "positions": [
                -0.12352573120091903,
                -1.361570623650151,
                1.8620851186572167,
                0.54914604321897,
                0.2208018947791929,
                0.5913340678895582
            ]
        },
        {
            "positions": [
                -0.09621663621136897,
                -1.2970051625288928,
                1.8775339282479537,
                0.7047657416924984,
                0.18126400721978542,
                0.5224750830290579
            ]
        },
        {
            "positions": [
                -0.06890754122181894,
                -1.2324397014076343,
                1.8929827378386905,
                0.8603854401660269,
                0.14172611966037796,
                0.4536160981685573
            ]
        },
        {
            "positions": [
                -0.04159844623226888,
                -1.1678742402863758,
                1.9084315474294276,
                1.0160051386395552,
                0.10218823210097044,
                0.38475711330805684
            ]
        },
        {
            "positions": [
                -0.01428935124271885,
                -1.1033087791651173,
                1.9238803570201646,
                1.1716248371130837,
                0.06265034454156299,
                0.3158981284475564
            ]
        },
        {
            "positions": [
                0.013019743746831236,
                -1.038743318043859,
                1.9393291666109016,
                1.3272445355866123,
                0.023112456982155527,
                0.24703914358705592
            ]
        },
        {
            "positions": [
                0.04032883873638132,
                -0.9741778569226003,
                1.9547779762016386,
                1.4828642340601408,
                -0.016425430577252043,
                0.17818015872655535
            ]
        },
        {
            "positions": [
                0.06763793372593135,
                -0.9096123958013418,
                1.9702267857923754,
                1.638483932533669,
                -0.05596331813665956,
                0.10932117386605489
            ]
        },
        {
            "positions": [
                0.09494702871548144,
                -0.8450469346800834,
                1.9856755953831124,
                1.7941036310071976,
                -0.09550120569606702,
                0.04046218900555443
            ]
        },
        {
            "positions": [
                0.12225612370503149,
                -0.7804814735588249,
                2.0011244049738495,
                1.949723329480726,
                -0.1350390932554745,
                -0.028396795854946116
            ]
        }
    ]
}{
    "goal": {
        "global_pose": {
            "orientation": {
                "w": 0.7047431468963623,
                "x": -0.7094548344612122,
                "y": 0.0024358443915843964,
                "z": -0.0022348060738295317
            },
            "position": {
                "x": 0.6094750761985779,
                "y": 0.3671506643295288,
                "z": 0.19426114857196808
            }
        },
        "name": "move_to_magneteinheit_A"
    },
    "id": "ProjEST_move_to_magneteinheit_A_149",
    "joint_names": [
        "shoulder_pan_joint",
        "shoulder_lift_joint",
        "elbow_joint",
        "wrist_1_joint",
        "wrist_2_joint",
        "wrist_3_joint"
    ],
    "metrics": {
        "cart_traj_len": 1.2586307131754166,
        "distance_elbow_joint": 0.48376072374206247,
        "distance_shoulder_lift_joint": 0.7665367111139998,
        "distance_shoulder_pan_joint": 1.2432349067712112,
        "distance_wrist_1_joint": 1.0155680505213485,
        "distance_wrist_2_joint": 1.4352406350055178,
        "distance_wrist_3_joint": 4.37165444956432,
        "smoothness": 0.0928832276185069,
        "time": 0.05596554299999999,
        "traj_len": 3.052211571421362,
        "weighted_distance": 4.528809232168426
    },
    "planner": "ProjEST",
    "start": {
        "state": {
            "elbow_joint": 1.919643534880228,
            "shoulder_lift_joint": -1.8972525353963687,
            "shoulder_pan_joint": -1.1188672234189438,
            "wrist_1_joint": -1.5931878212786155,
            "wrist_2_joint": 1.5706036197970081,
            "wrist_3_joint": 1.118896926603594
        }
    },
    "waypoints": [
        {
            "positions": [
                -1.1188672234189438,
                -1.8972525353963687,
                1.919643534880228,
                -1.5931878212786155,
                1.5706036197970081,
                1.118896926603594
            ]
        },
        {
            "positions": [
                -1.0693065143452332,
                -1.8663782056716143,
                1.9084583067431233,
                -1.5456212724518685,
                1.5018025106302788,
                0.9348323356387053
            ]
        },
        {
            "positions": [
                -1.0197458052715223,
                -1.8355038759468596,
                1.8972730786060186,
                -1.4980547236251216,
                1.4330014014635495,
                0.7507677446738166
            ]
        },
        {
            "positions": [
                -0.9701850961978116,
                -1.8046295462221051,
                1.8860878504689138,
                -1.4504881747983747,
                1.3642002922968202,
                0.5667031537089279
            ]
        },
        {
            "positions": [
                -0.9206243871241008,
                -1.7737552164973507,
                1.874902622331809,
                -1.4029216259716277,
                1.2953991831300908,
                0.38263856274403907
            ]
        },
        {
            "positions": [
                -0.8710636780503901,
                -1.742880886772596,
                1.8637173941947043,
                -1.3553550771448808,
                1.2265980739633615,
                0.19857397177915037
            ]
        },
        {
            "positions": [
                -0.8215029689766793,
                -1.7120065570478415,
                1.8525321660575995,
                -1.3077885283181339,
                1.1577969647966322,
                0.014509380814261785
            ]
        },
        {
            "positions": [
                -0.7719422599029686,
                -1.681132227323087,
                1.8413469379204948,
                -1.260221979491387,
                1.0889958556299029,
                -0.16955521015062702
            ]
        },
        {
            "positions": [
                -0.7223815508292577,
                -1.6502578975983324,
                1.83016170978339,
                -1.21265543066464,
                1.0201947464631735,
                -0.35361980111551583
            ]
        },
        {
            "positions": [
                -0.672820841755547,
                -1.619383567873578,
                1.8189764816462852,
                -1.165088881837893,
                0.9513936372964442,
                -0.5376843920804046
            ]
        },
        {
            "positions": [
                -0.6232601326818363,
                -1.5885092381488235,
                1.8077912535091807,
                -1.1175223330111461,
                0.8825925281297149,
                -0.7217489830452932
            ]
        },
        {
            "positions": [
                -0.5736994236081254,
                -1.5576349084240688,
                1.7966060253720757,
                -1.0699557841843992,
                0.8137914189629855,
                -0.905813574010182
            ]
        },
        {
            "positions": [
                -0.5241387145344147,
                -1.5267605786993144,
                1.7854207972349712,
                -1.0223892353576522,
                0.7449903097962562,
                -1.0898781649750704
            ]
        },
        {
            "positions": [
                -0.47457800546070394,
                -1.4958862489745597,
                1.7742355690978664,
                -0.9748226865309053,
                0.6761892006295269,
                -1.2739427559399596
            ]
        },
        {
            "positions": [
                -0.42501729638699326,
                -1.4650119192498052,
                1.7630503409607616,
                -0.9272561377041584,
                0.6073880914627977,
                -1.458007346904848
            ]
        },
        {
            "positions": [
                -0.37545658731328246,
                -1.4341375895250508,
                1.7518651128236569,
                -0.8796895888774114,
                0.5385869822960683,
                -1.6420719378697368
            ]
        },
        {
            "positions": [
                -0.32589587823957167,
                -1.403263259800296,
                1.740679884686552,
                -0.8321230400506645,
                0.46978587312933895,
                -1.8261365288346256
            ]
        },
        {
            "positions": [
                -0.276335169165861,
                -1.3723889300755416,
                1.7294946565494473,
                -0.7845564912239176,
                0.4009847639626096,
                -2.0102011197995138
            ]
        },
        {
            "positions": [
                -0.2267744600921502,
                -1.341514600350787,
                1.7183094284123426,
                -0.7369899423971706,
                0.3321836547958803,
                -2.1942657107644035
            ]
        },
        {
            "positions": [
                -0.1772137510184395,
                -1.3106402706260325,
                1.7071242002752378,
                -0.6894233935704237,
                0.263382545629151,
                -2.3783303017292914
            ]
        },
        {
            "positions": [
                -0.1276530419447287,
                -1.279765940901278,
                1.695938972138133,
                -0.6418568447436768,
                0.19458143646242154,
                -2.56239489269418
            ]
        },
        {
            "positions": [
                -0.06464786062047967,
                -1.2425034117465508,
                1.760953012388125,
                -0.6579161132402792,
                0.17977682354468863,
                -2.7349855502608165
            ]
        },
        {
            "positions": [
                -0.0016426792962306314,
                -1.2052408825918235,
                1.8259670526381169,
                -0.6739753817368817,
                0.16497221062695572,
                -2.9075762078274527
            ]
        },
        {
            "positions": [
                0.061362502028018406,
                -1.1679783534370962,
                1.8909810928881086,
                -0.690034650233484,
                0.15016759770922283,
                -3.0801668653940895
            ]
        },
        {
            "positions": [
                0.12436768335226742,
                -1.130715824282369,
                1.9559951331381005,
                -0.7060939187300864,
                0.13536298479148992,
                -3.2527575229607257
            ]
        }
    ]
}