{
    "goal": {
        "global_pose": {
            "orientation": {
                "w": 0.5084816217422485,
                "x": -0.49083608388900757,
                "y": 0.5182115435600281,
                "z": -0.4816462993621826
            },
            "position": {
                "x": 0.5540239810943604,
                "y": 0.030875300988554955,
                "z": 0.16403168439865112
            }
        },
        "name": "move_to_storage_A"
    },
    "id": "ProjEST_move_to_storage_A_38",
    "joint_names": [
        "shoulder_pan_joint",
        "shoulder_lift_joint",
        "elbow_joint",
        "wrist_1_joint",
        "wrist_2_joint",
        "wrist_3_joint"
    ],
    "metrics": {
        "cart_traj_len": 0.35312534070833834,
        "distance_elbow_joint": 0.45061327152440356,
        "distance_shoulder_lift_joint": 0.2354505363788677,
        "distance_shoulder_pan_joint": 0.46231092830447584,
        "distance_wrist_1_joint": 0.2452294470153088,
        "distance_wrist_2_joint": 1.096987502591817,
        "distance_wrist_3_joint": 0.1068890896990835,
        "smoothness": 2.2204460668324854e-16,
        "time": 0.09027591300000001,
        "traj_len": 1.6116701819894652,
        "weighted_distance": 2.038007827394009
    },
    "planner": "ProjEST",
    "start": {
        "state": {
            "elbow_joint": 1.9715477243005601,
            "shoulder_lift_joint": -1.1394853015351272,
            "shoulder_pan_joint": 0.12281154014795169,
            "wrist_1_joint": -0.7804696478968182,
            "wrist_2_joint": 0.12958648046900423,
            "wrist_3_joint": -3.192491284697111
        }
    },
    "waypoints": [
        {
            "positions": [
                0.12281154014795169,
                -1.1394853015351272,
                1.9715477243005601,
                -0.7804696478968182,
                0.12958648046900423,
                -3.192491284697111
            ]
        },
        {
            "positions": [
                0.05676712181874086,
                -1.173121092446394,
                2.0359210488040462,
                -0.8155024260418623,
                0.28629898083926375,
                -3.1772214147400994
            ]
        },
        {
            "positions": [
                -0.009277296510469976,
                -1.2067568833576607,
                2.1002943733075328,
                -0.8505352041869064,
                0.44301148120952333,
                -3.1619515447830873
            ]
        },
        {
            "positions": [
                -0.0753217148396808,
                -1.2403926742689275,
                2.164667697811019,
                -0.8855679823319504,
                0.5997239815797829,
                -3.1466816748260755
            ]
        },
        {
            "positions": [
                -0.14136613316889163,
                -1.2740284651801943,
                2.229041022314505,
                -0.9206007604769946,
                0.7564364819500424,
                -3.1314118048690633
            ]
        },
        {
            "positions": [
                -0.2074105514981025,
                -1.3076642560914613,
                2.2934143468179915,
                -0.9556335386220387,
                0.9131489823203021,
                -3.1161419349120516
            ]
        },
        {
            "positions": [
                -0.27345496982731327,
                -1.341300047002728,
                2.3577876713214776,
                -0.9906663167670828,
                1.0698614826905617,
                -3.1008720649550394
            ]
        },
        {
            "positions": [
                -0.33949938815652414,
                -1.3749358379139949,
                2.4221609958249637,
                -1.025699094912127,
                1.2265739830608213,
                -3.0856021949980277
            ]
        }
    ]
}