{
    "goal": {
        "global_pose": {
            "orientation": {
                "w": 0.7047431468963623,
                "x": -0.7094548344612122,
                "y": 0.0024358443915843964,
                "z": -0.0022348060738295317
            },
            "position": {
                "x": 0.6094750761985779,
                "y": 0.3671506643295288,
                "z": 0.19426114857196808
            }
        },
        "name": "move_to_magneteinheit_A"
    },
    "id": "ProjEST_move_to_magneteinheit_A_4",
    "joint_names": [
        "shoulder_pan_joint",
        "shoulder_lift_joint",
        "elbow_joint",
        "wrist_1_joint",
        "wrist_2_joint",
        "wrist_3_joint"
    ],
    "metrics": {
        "cart_traj_len": 3.7699590029929317,
        "distance_elbow_joint": 3.9085913054229136,
        "distance_shoulder_lift_joint": 0.20171234142189554,
        "distance_shoulder_pan_joint": 3.2034681773261426,
        "distance_wrist_1_joint": 0.8463099698579243,
        "distance_wrist_2_joint": 2.136210787241161,
        "distance_wrist_3_joint": 3.633208053498311,
        "smoothness": 0.23492508059431083,
        "time": 0.220527076,
        "traj_len": 3.7322246227643303,
        "weighted_distance": 4.917157461263982
    },
    "planner": "ProjEST",
    "start": {
        "state": {
            "elbow_joint": -1.919618573717145,
            "shoulder_lift_joint": -1.2443395971678275,
            "shoulder_pan_joint": 2.6996025300909787,
            "wrist_1_joint": -1.548550951253194,
            "wrist_2_joint": -1.5709469090946802,
            "wrist_3_joint": 0.4420197732051276
        }
    },
    "waypoints": [
        {
            "positions": [
                2.6996025300909787,
                -1.2443395971678275,
                -1.919618573717145,
                -1.548550951253194,
                -1.5709469090946802,
                0.4420197732051276
            ]
        },
        {
            "positions": [
                2.5124133094162393,
                -1.239180739222356,
                -1.85105726387086,
                -1.55493419030261,
                -1.464358216630387,
                0.4461165387864399
            ]
        },
        {
            "positions": [
                2.3252240887415,
                -1.2340218812768842,
                -1.782495954024575,
                -1.5613174293520258,
                -1.357769524166094,
                0.45021330436775225
            ]
        },
        {
            "positions": [
                2.1380348680667605,
                -1.2288630233314126,
                -1.7139346441782901,
                -1.5677006684014416,
                -1.251180831701801,
                0.4543100699490646
            ]
        },
        {
            "positions": [
                1.950845647392021,
                -1.2237041653859408,
                -1.645373334332005,
                -1.5740839074508575,
                -1.144592139237508,
                0.4584068355303769
            ]
        },
        {
            "positions": [
                1.7636564267172816,
                -1.2185453074404693,
                -1.57681202448572,
                -1.5804671465002733,
                -1.0380034467732149,
                0.4625036011116892
            ]
        },
        {
            "positions": [
                1.5764672060425422,
                -1.2133864494949977,
                -1.508250714639435,
                -1.5868503855496892,
                -0.9314147543089218,
                0.46660036669300153
            ]
        },
        {
            "positions": [
                1.3892779853678028,
                -1.208227591549526,
                -1.43968940479315,
                -1.593233624599105,
                -0.8248260618446288,
                0.47069713227431387
            ]
        },
        {
            "positions": [
                1.2020887646930634,
                -1.2030687336040544,
                -1.3711280949468652,
                -1.5996168636485208,
                -0.7182373693803357,
                0.4747938978556262
            ]
        },
        {
            "positions": [
                1.014899544018324,
                -1.1979098756585826,
                -1.3025667851005802,
                -1.6060001026979367,
                -0.6116486769160426,
                0.47889066343693854
            ]
        },
        {
            "positions": [
                0.8277103233435844,
                -1.192751017713111,
                -1.2340054752542953,
                -1.6123833417473525,
                -0.5050599844517497,
                0.48298742901825087
            ]
        },
        {
            "positions": [
                0.7834287353016254,
                -1.1950672757483152,
                -1.1029721959061876,
                -1.5791226136104515,
                -0.46821635376108967,
                0.3402697861809057
            ]
        },
        {
            "positions": [
                0.7391471472596663,
                -1.197383533783519,
                -0.9719389165580798,
                -1.5458618854735504,
                -0.4313727230704296,
                0.19755214334356053
            ]
        },
        {
            "positions": [
                0.6948655592177073,
                -1.199699791818723,
                -0.8409056372099721,
                -1.5126011573366491,
                -0.39452909237976963,
                0.054834500506215356
            ]
        },
        {
            "positions": [
                0.6505839711757483,
                -1.2020160498539272,
                -0.7098723578618643,
                -1.479340429199748,
                -0.35768546168910953,
                -0.08788314233112982
            ]
        },
        {
            "positions": [
                0.6063023831337893,
                -1.2043323078891313,
                -0.5788390785137566,
                -1.446079701062847,
                -0.32084183099844954,
                -0.23060078516847504
            ]
        },
        {
            "positions": [
                0.5620207950918302,
                -1.2066485659243351,
                -0.4478057991656489,
                -1.412818972925946,
                -0.2839982003077895,
                -0.37331842800582016
            ]
        },
        {
            "positions": [
                0.5177392070498712,
                -1.2089648239595392,
                -0.31677251981754107,
                -1.3795582447890447,
                -0.24715456961712945,
                -0.5160360708431655
            ]
        },
        {
            "positions": [
                0.4734576190079121,
                -1.2112810819947433,
                -0.18573924046943335,
                -1.3462975166521436,
                -0.2103109389264694,
                -0.6587537136805105
            ]
        },
        {
            "positions": [
                0.4291760309659531,
                -1.2135973400299473,
                -0.05470596112132564,
                -1.3130367885152425,
                -0.17346730823580936,
                -0.8014713565178558
            ]
        },
        {
            "positions": [
                0.38489444292399405,
                -1.2159135980651512,
                0.07632731822678207,
                -1.2797760603783415,
                -0.1366236775451493,
                -0.944188999355201
            ]
        },
        {
            "positions": [
                0.340612854882035,
                -1.2182298561003553,
                0.20736059757488978,
                -1.2465153322414402,
                -0.09978004685448927,
                -1.0869066421925462
            ]
        },
        {
            "positions": [
                0.29633126684007605,
                -1.2205461141355594,
                0.3383938769229975,
                -1.2132546041045393,
                -0.06293641616382928,
                -1.229624285029891
            ]
        },
        {
            "positions": [
                0.252049678798117,
                -1.2228623721707634,
                0.4694271562711052,
                -1.179993875967638,
                -0.026092785473169233,
                -1.3723419278672364
            ]
        },
        {
            "positions": [
                0.20776809075615787,
                -1.2251786302059673,
                0.6004604356192131,
                -1.146733147830737,
                0.010750845217490812,
                -1.5150595707045817
            ]
        },
        {
            "positions": [
                0.16348650271419884,
                -1.2274948882411714,
                0.7314937149673206,
                -1.113472419693836,
                0.04759447590815091,
                -1.657777213541927
            ]
        },
        {
            "positions": [
                0.11920491467223981,
                -1.2298111462763754,
                0.8625269943154286,
                -1.0802116915569346,
                0.0844381065988109,
                -1.800494856379272
            ]
        },
        {
            "positions": [
                0.0749233266302809,
                -1.2321274043115795,
                0.9935602736635358,
                -1.0469509634200338,
                0.12128173728947089,
                -1.9432124992166173
            ]
        },
        {
            "positions": [
                0.030641738588321754,
                -1.2344436623467834,
                1.124593553011644,
                -1.0136902352831325,
                0.158125367980131,
                -2.0859301420539627
            ]
        },
        {
            "positions": [
                -0.013639849453637276,
                -1.2367599203819875,
                1.2556268323597517,
                -0.9804295071462314,
                0.19496899867079098,
                -2.2286477848913075
            ]
        },
        {
            "positions": [
                -0.057921437495596306,
                -1.2390761784171915,
                1.3866601117078594,
                -0.9471687790093303,
                0.23181262936145108,
                -2.371365427728653
            ]
        },
        {
            "positions": [
                -0.10220302553755523,
                -1.2413924364523954,
                1.5176933910559671,
                -0.9139080508724292,
                0.2686562600521111,
                -2.514083070565998
            ]
        },
        {
            "positions": [
                -0.14648461357951437,
                -1.2437086944875995,
                1.6487266704040748,
                -0.880647322735528,
                0.3054998907427712,
                -2.6568007134033436
            ]
        },
        {
            "positions": [
                -0.1907662016214734,
                -1.2460249525228035,
                1.7797599497521825,
                -0.847386594598627,
                0.34234352143343116,
                -2.7995183562406885
            ]
        },
        {
            "positions": [
                -0.0863997197502425,
                -1.2137416768036413,
                1.8494975437367112,
                -0.853213538670307,
                0.26803673586241494,
                -2.902763227049438
            ]
        },
        {
            "positions": [
                0.017966762120988383,
                -1.181458401084479,
                1.9192351377212395,
                -0.8590404827419872,
                0.1937299502913987,
                -3.0060080978581873
            ]
        },
        {
            "positions": [
                0.12233324399221929,
                -1.1491751253653169,
                1.9889727317057682,
                -0.8648674268136672,
                0.11942316472038243,
                -3.109252968666937
            ]
        }
    ]
}{
    "goal": {
        "global_pose": {
            "orientation": {
                "w": 0.7047431468963623,
                "x": -0.7094548344612122,
                "y": 0.0024358443915843964,
                "z": -0.0022348060738295317
            },
            "position": {
                "x": 0.6094750761985779,
                "y": 0.3671506643295288,
                "z": 0.19426114857196808
            }
        },
        "name": "move_to_magneteinheit_A"
    },
    "id": "ProjEST_move_to_magneteinheit_A_4",
    "joint_names": [
        "shoulder_pan_joint",
        "shoulder_lift_joint",
        "elbow_joint",
        "wrist_1_joint",
        "wrist_2_joint",
        "wrist_3_joint"
    ],
    "metrics": {
        "cart_traj_len": 2.0577663025343575,
        "distance_elbow_joint": 1.9292849298715826,
        "distance_shoulder_lift_joint": 0.7573330211124771,
        "distance_shoulder_pan_joint": 1.9546449102144723,
        "distance_wrist_1_joint": 0.8083050822673596,
        "distance_wrist_2_joint": 1.4489379014978327,
        "distance_wrist_3_joint": 4.308214862241839,
        "smoothness": 0.2507096429347624,
        "time": 0.229353377,
        "traj_len": 3.347644053241856,
        "weighted_distance": 4.698977911786183
    },
    "planner": "ProjEST",
    "start": {
        "state": {
            "elbow_joint": 1.919643534880228,
            "shoulder_lift_joint": -1.8972525353963687,
            "shoulder_pan_joint": -1.1188672234189438,
            "wrist_1_joint": -1.5931878212786155,
            "wrist_2_joint": 1.5706036197970081,
            "wrist_3_joint": 1.118896926603594
        }
    },
    "waypoints": [
        {
            "positions": [
                -1.1188672234189438,
                -1.8972525353963687,
                1.919643534880228,
                -1.5931878212786155,
                1.5706036197970081,
                1.118896926603594
            ]
        },
        {
            "positions": [
                -1.1544953025517808,
                -1.871290870387364,
                1.8257393099093313,
                -1.5419055445439929,
                1.4705240386575815,
                1.0309552494460958
            ]
        },
        {
            "positions": [
                -1.1901233816846177,
                -1.8453292053783592,
                1.7318350849384345,
                -1.4906232678093705,
                1.370444457518155,
                0.9430135722885977
            ]
        },
        {
            "positions": [
                -1.2257514608174547,
                -1.8193675403693546,
                1.6379308599675375,
                -1.439340991074748,
                1.270364876378728,
                0.8550718951310996
            ]
        },
        {
            "positions": [
                -1.2613795399502916,
                -1.79340587536035,
                1.5440266349966407,
                -1.3880587143401255,
                1.1702852952393015,
                0.7671302179736015
            ]
        },
        {
            "positions": [
                -1.2970076190831286,
                -1.767444210351345,
                1.450122410025744,
                -1.336776437605503,
                1.0702057140998749,
                0.6791885408161034
            ]
        },
        {
            "positions": [
                -1.3326356982159655,
                -1.7414825453423404,
                1.3562181850548471,
                -1.2854941608708805,
                0.9701261329604483,
                0.5912468636586052
            ]
        },
        {
            "positions": [
                -1.3682637773488024,
                -1.7155208803333357,
                1.2623139600839504,
                -1.2342118841362582,
                0.8700465518210216,
                0.5033051865011071
            ]
        },
        {
            "positions": [
                -1.4038918564816394,
                -1.6895592153243308,
                1.1684097351130536,
                -1.1829296074016356,
                0.7699669706815948,
                0.4153635093436089
            ]
        },
        {
            "positions": [
                -1.4395199356144763,
                -1.6635975503153262,
                1.0745055101421568,
                -1.131647330667013,
                0.6698873895421682,
                0.32742183218611076
            ]
        },
        {
            "positions": [
                -1.4751480147473133,
                -1.6376358853063215,
                0.9806012851712599,
                -1.0803650539323906,
                0.5698078084027417,
                0.23948015502861264
            ]
        },
        {
            "positions": [
                -1.3910235874375183,
                -1.6114402868314568,
                1.0327193209692922,
                -1.0648133531470676,
                0.5462213826078172,
                0.059017097625093884
            ]
        },
        {
            "positions": [
                -1.3068991601277236,
                -1.585244688356592,
                1.0848373567673246,
                -1.0492616523617448,
                0.5226349568128926,
                -0.12144595977842487
            ]
        },
        {
            "positions": [
                -1.2227747328179286,
                -1.5590490898817273,
                1.1369553925653568,
                -1.0337099515764219,
                0.4990485310179681,
                -0.30190901718194363
            ]
        },
        {
            "positions": [
                -1.1386503055081336,
                -1.5328534914068626,
                1.1890734283633893,
                -1.0181582507910991,
                0.47546210522304355,
                -0.4823720745854624
            ]
        },
        {
            "positions": [
                -1.0545258781983389,
                -1.5066578929319978,
                1.2411914641614215,
                -1.0026065500057761,
                0.451875679428119,
                -0.6628351319889811
            ]
        },
        {
            "positions": [
                -0.970401450888544,
                -1.480462294457133,
                1.2933094999594539,
                -0.9870548492204533,
                0.4282892536331945,
                -0.8432981893924999
            ]
        },
        {
            "positions": [
                -0.886277023578749,
                -1.4542666959822683,
                1.3454275357574863,
                -0.9715031484351304,
                0.40470282783826994,
                -1.0237612467960187
            ]
        },
        {
            "positions": [
                -0.8021525962689542,
                -1.4280710975074036,
                1.3975455715555185,
                -0.9559514476498076,
                0.3811164020433454,
                -1.2042243041995375
            ]
        },
        {
            "positions": [
                -0.7180281689591593,
                -1.4018754990325388,
                1.449663607353551,
                -0.9403997468644847,
                0.35752997624842087,
                -1.3846873616030564
            ]
        },
        {
            "positions": [
                -0.6339037416493645,
                -1.375679900557674,
                1.5017816431515834,
                -0.9248480460791617,
                0.33394355045349633,
                -1.5651504190065748
            ]
        },
        {
            "positions": [
                -0.5497793143395695,
                -1.3494843020828093,
                1.5538996789496156,
                -0.9092963452938388,
                0.3103571246585718,
                -1.7456134764100941
            ]
        },
        {
            "positions": [
                -0.46565488702977476,
                -1.3232887036079448,
                1.6060177147476478,
                -0.893744644508516,
                0.28677069886364726,
                -1.9260765338136125
            ]
        },
        {
            "positions": [
                -0.3815304597199798,
                -1.29709310513308,
                1.6581357505456804,
                -0.8781929437231931,
                0.2631842730687227,
                -2.1065395912171314
            ]
        },
        {
            "positions": [
                -0.2974060324101848,
                -1.2708975066582153,
                1.7102537863437126,
                -0.8626412429378703,
                0.23959784727379818,
                -2.2870026486206503
            ]
        },
        {
            "positions": [
                -0.21328160510038985,
                -1.2447019081833506,
                1.7623718221417448,
                -0.8470895421525473,
                0.21601142147887364,
                -2.467465706024169
            ]
        },
        {
            "positions": [
                -0.1291571777905951,
                -1.2185063097084858,
                1.8144898579397772,
                -0.8315378413672245,
                0.1924249956839491,
                -2.6479287634276876
            ]
        },
        {
            "positions": [
                -0.04503275048080013,
                -1.192310711233621,
                1.8666078937378097,
                -0.8159861405819016,
                0.16883856988902457,
                -2.8283918208312064
            ]
        },
        {
            "positions": [
                0.039091676828994615,
                -1.1661151127587563,
                1.9187259295358419,
                -0.8004344397965788,
                0.14525214409410003,
                -3.0088548782347253
            ]
        },
        {
            "positions": [
                0.12321610413878963,
                -1.1399195142838916,
                1.9708439653338743,
                -0.7848827390112558,
                0.12166571829917548,
                -3.189317935638244
            ]
        }
    ]
}