{
    "goal": {
        "global_pose": {
            "orientation": {
                "w": 0.5084816217422485,
                "x": -0.49083608388900757,
                "y": 0.5182115435600281,
                "z": -0.4816462993621826
            },
            "position": {
                "x": 0.5540239810943604,
                "y": 0.030875300988554955,
                "z": 0.16403168439865112
            }
        },
        "name": "move_to_storage_A"
    },
    "id": "ProjEST_move_to_storage_A_52",
    "joint_names": [
        "shoulder_pan_joint",
        "shoulder_lift_joint",
        "elbow_joint",
        "wrist_1_joint",
        "wrist_2_joint",
        "wrist_3_joint"
    ],
    "metrics": {
        "cart_traj_len": 0.35279056683453147,
        "distance_elbow_joint": 0.44951453889316406,
        "distance_shoulder_lift_joint": 0.23518592348943113,
        "distance_shoulder_pan_joint": 0.4602811252181906,
        "distance_wrist_1_joint": 0.24373813532070188,
        "distance_wrist_2_joint": 1.1027237821344382,
        "distance_wrist_3_joint": 0.10611534669273492,
        "smoothness": 1.4432899335161698e-15,
        "time": 0.049304483999999996,
        "traj_len": 1.6116944039577292,
        "weighted_distance": 2.0386886624958875
    },
    "planner": "ProjEST",
    "start": {
        "state": {
            "elbow_joint": 1.9715477243005601,
            "shoulder_lift_joint": -1.1394853015351272,
            "shoulder_pan_joint": 0.12281154014795169,
            "wrist_1_joint": -0.7804696478968182,
            "wrist_2_joint": 0.12958648046900423,
            "wrist_3_joint": -3.192491284697111
        }
    },
    "waypoints": [
        {
            "positions": [
                0.12281154014795169,
                -1.1394853015351272,
                1.9715477243005601,
                -0.7804696478968182,
                0.12958648046900423,
                -3.192491284697111
            ]
        },
        {
            "positions": [
                0.057057093688210186,
                -1.173083290605046,
                2.0357640869995834,
                -0.8152893815140613,
                0.2871184493453526,
                -3.177331949455292
            ]
        },
        {
            "positions": [
                -0.008697352771531316,
                -1.2066812796749646,
                2.099980449698607,
                -0.8501091151313044,
                0.44465041822170087,
                -3.1621726142134725
            ]
        },
        {
            "positions": [
                -0.07445179923127283,
                -1.2402792687448834,
                2.1641968123976305,
                -0.8849288487485475,
                0.6021823870980492,
                -3.147013278971653
            ]
        },
        {
            "positions": [
                -0.1402062456910143,
                -1.273877257814802,
                2.228413175096654,
                -0.9197485823657907,
                0.7597143559743975,
                -3.1318539437298343
            ]
        },
        {
            "positions": [
                -0.20596069215075585,
                -1.3074752468847208,
                2.292629537795677,
                -0.9545683159830338,
                0.9172463248507459,
                -3.116694608488015
            ]
        },
        {
            "positions": [
                -0.27171513861049734,
                -1.3410732359546396,
                2.356845900494701,
                -0.9893880496002769,
                1.074778293727094,
                -3.1015352732461956
            ]
        },
        {
            "positions": [
                -0.3374695850702389,
                -1.3746712250245583,
                2.421062263193724,
                -1.02420778321752,
                1.2323102626034423,
                -3.0863759380043763
            ]
        }
    ]
}