{
    "goal": {
        "global_pose": {
            "orientation": {
                "w": 0.5084816217422485,
                "x": -0.49083608388900757,
                "y": 0.5182115435600281,
                "z": -0.4816462993621826
            },
            "position": {
                "x": 0.5540239810943604,
                "y": 0.030875300988554955,
                "z": 0.16403168439865112
            }
        },
        "name": "move_to_storage_A"
    },
    "id": "ProjEST_move_to_storage_A_14",
    "joint_names": [
        "shoulder_pan_joint",
        "shoulder_lift_joint",
        "elbow_joint",
        "wrist_1_joint",
        "wrist_2_joint",
        "wrist_3_joint"
    ],
    "metrics": {
        "cart_traj_len": 0.35346307733392673,
        "distance_elbow_joint": 0.4485092399115107,
        "distance_shoulder_lift_joint": 0.23303423731016526,
        "distance_shoulder_pan_joint": 0.46179790553747596,
        "distance_wrist_1_joint": 0.23865254777044698,
        "distance_wrist_2_joint": 1.1004745333255457,
        "distance_wrist_3_joint": 0.10340362680204107,
        "smoothness": 2.2204460668324854e-16,
        "time": 0.049298733,
        "traj_len": 1.6080647035045528,
        "weighted_distance": 2.0326845366060273
    },
    "planner": "ProjEST",
    "start": {
        "state": {
            "elbow_joint": 1.9715477243005601,
            "shoulder_lift_joint": -1.1394853015351272,
            "shoulder_pan_joint": 0.12281154014795169,
            "wrist_1_joint": -0.7804696478968182,
            "wrist_2_joint": 0.12958648046900423,
            "wrist_3_joint": -3.192491284697111
        }
    },
    "waypoints": [
        {
            "positions": [
                0.12281154014795169,
                -1.1394853015351272,
                1.9715477243005601,
                -0.7804696478968182,
                0.12958648046900423,
                -3.192491284697111
            ]
        },
        {
            "positions": [
                0.056840410785455125,
                -1.1727759068651509,
                2.0356204728593474,
                -0.814562869006882,
                0.28679712808693936,
                -3.1777193380111055
            ]
        },
        {
            "positions": [
                -0.009130718577041438,
                -1.2060665121951744,
                2.0996932214181347,
                -0.8486560901169459,
                0.44400777570487443,
                -3.1629473913250994
            ]
        },
        {
            "positions": [
                -0.07510184793953799,
                -1.239357117525198,
                2.163765969976922,
                -0.8827493112270097,
                0.6012184233228095,
                -3.1481754446390937
            ]
        },
        {
            "positions": [
                -0.14107297730203455,
                -1.2726477228552215,
                2.227838718535709,
                -0.9168425323370736,
                0.7584290709407446,
                -3.1334034979530876
            ]
        },
        {
            "positions": [
                -0.20704410666453116,
                -1.3059383281852452,
                2.2919114670944962,
                -0.9509357534471374,
                0.9156397185586798,
                -3.118631551267082
            ]
        },
        {
            "positions": [
                -0.27301523602702765,
                -1.3392289335152687,
                2.3559842156532835,
                -0.9850289745572013,
                1.0728503661766147,
                -3.103859604581076
            ]
        },
        {
            "positions": [
                -0.33898636538952426,
                -1.3725195388452924,
                2.420056964212071,
                -1.0191221956672651,
                1.2300610137945498,
                -3.08908765789507
            ]
        }
    ]
}