{
    "goal": {
        "global_pose": {
            "orientation": {
                "w": 0.7047431468963623,
                "x": -0.7094548344612122,
                "y": 0.0024358443915843964,
                "z": -0.0022348060738295317
            },
            "position": {
                "x": 0.6094750761985779,
                "y": 0.3671506643295288,
                "z": 0.19426114857196808
            }
        },
        "name": "move_to_magneteinheit_A"
    },
    "id": "ProjEST_move_to_magneteinheit_A_45",
    "joint_names": [
        "shoulder_pan_joint",
        "shoulder_lift_joint",
        "elbow_joint",
        "wrist_1_joint",
        "wrist_2_joint",
        "wrist_3_joint"
    ],
    "metrics": {
        "cart_traj_len": 3.4846202001089943,
        "distance_elbow_joint": 3.8996787908139554,
        "distance_shoulder_lift_joint": 0.5032130878634933,
        "distance_shoulder_pan_joint": 2.868206799661844,
        "distance_wrist_1_joint": 0.7341430392448415,
        "distance_wrist_2_joint": 2.6946305501279735,
        "distance_wrist_3_joint": 2.674324690978397,
        "smoothness": 0.17427688467156505,
        "time": 0.12532750399999998,
        "traj_len": 3.6570749183863462,
        "weighted_distance": 4.706550746568034
    },
    "planner": "ProjEST",
    "start": {
        "state": {
            "elbow_joint": -1.919618573717145,
            "shoulder_lift_joint": -1.2443395971678275,
            "shoulder_pan_joint": 2.6996025300909787,
            "wrist_1_joint": -1.548550951253194,
            "wrist_2_joint": -1.5709469090946802,
            "wrist_3_joint": 0.4420197732051276
        }
    },
    "waypoints": [
        {
            "positions": [
                2.6996025300909787,
                -1.2443395971678275,
                -1.919618573717145,
                -1.548550951253194,
                -1.5709469090946802,
                0.4420197732051276
            ]
        },
        {
            "positions": [
                2.5861979370833392,
                -1.252747236812775,
                -1.7635517852795517,
                -1.5404483605983748,
                -1.4791729277098438,
                0.46036212490654016
            ]
        },
        {
            "positions": [
                2.4727933440756997,
                -1.2611548764577223,
                -1.6074849968419582,
                -1.5323457699435554,
                -1.3873989463250076,
                0.4787044766079528
            ]
        },
        {
            "positions": [
                2.35938875106806,
                -1.2695625161026698,
                -1.451418208404365,
                -1.5242431792887363,
                -1.2956249649401712,
                0.49704682830936536
            ]
        },
        {
            "positions": [
                2.2459841580604203,
                -1.2779701557476173,
                -1.2953514199667717,
                -1.516140588633917,
                -1.203850983555335,
                0.5153891800107779
            ]
        },
        {
            "positions": [
                2.132579565052781,
                -1.2863777953925648,
                -1.1392846315291782,
                -1.5080379979790977,
                -1.1120770021704987,
                0.5337315317121906
            ]
        },
        {
            "positions": [
                2.0191749720451413,
                -1.2947854350375123,
                -0.983217843091585,
                -1.4999354073242785,
                -1.0203030207856623,
                0.5520738834136032
            ]
        },
        {
            "positions": [
                1.9057703790375016,
                -1.3031930746824596,
                -0.8271510546539915,
                -1.4918328166694592,
                -0.9285290394008259,
                0.5704162351150157
            ]
        },
        {
            "positions": [
                1.792365786029862,
                -1.311600714327407,
                -0.6710842662163985,
                -1.4837302260146399,
                -0.8367550580159897,
                0.5887585868164283
            ]
        },
        {
            "positions": [
                1.6789611930222224,
                -1.3200083539723546,
                -0.515017477778805,
                -1.4756276353598206,
                -0.7449810766311533,
                0.607100938517841
            ]
        },
        {
            "positions": [
                1.5655566000145829,
                -1.328415993617302,
                -0.35895068934121155,
                -1.4675250447050012,
                -0.6532070952463169,
                0.6254432902192535
            ]
        },
        {
            "positions": [
                1.4521520070069434,
                -1.3368236332622494,
                -0.20288390090361852,
                -1.4594224540501821,
                -0.5614331138614808,
                0.6437856419206661
            ]
        },
        {
            "positions": [
                1.3387474139993036,
                -1.345231272907197,
                -0.046817112466025046,
                -1.4513198633953628,
                -0.46965913247664437,
                0.6621279936220787
            ]
        },
        {
            "positions": [
                1.2253428209916641,
                -1.3536389125521444,
                0.10924967597156798,
                -1.4432172727405435,
                -0.3778851510918082,
                0.6804703453234913
            ]
        },
        {
            "positions": [
                1.1119382279840244,
                -1.362046552197092,
                0.2653164644091619,
                -1.4351146820857241,
                -0.2861111697069716,
                0.698812697024904
            ]
        },
        {
            "positions": [
                0.9985336349763849,
                -1.3704541918420392,
                0.42138325284675493,
                -1.427012091430905,
                -0.19433718832213542,
                0.7171550487263165
            ]
        },
        {
            "positions": [
                0.8851290419687454,
                -1.3788618314869867,
                0.577450041284348,
                -1.4189095007760857,
                -0.10256320693729926,
                0.735497400427729
            ]
        },
        {
            "positions": [
                0.7717244489611055,
                -1.3872694711319342,
                0.7335168297219419,
                -1.4108069101212664,
                -0.010789225552462645,
                0.7538397521291418
            ]
        },
        {
            "positions": [
                0.658319855953466,
                -1.3956771107768815,
                0.8895836181595349,
                -1.402704319466447,
                0.08098475583237352,
                0.7721821038305543
            ]
        },
        {
            "positions": [
                0.5449152629458265,
                -1.404084750421829,
                1.045650406597128,
                -1.394601728811628,
                0.1727587372172097,
                0.7905244555319668
            ]
        },
        {
            "positions": [
                0.431510669938187,
                -1.4124923900667765,
                1.2017171950347219,
                -1.3864991381568086,
                0.2645327186020463,
                0.8088668072333796
            ]
        },
        {
            "positions": [
                0.3181060769305475,
                -1.420900029711724,
                1.3577839834723149,
                -1.3783965475019893,
                0.35630669998688247,
                0.8272091589347921
            ]
        },
        {
            "positions": [
                0.204701483922908,
                -1.4293076693566715,
                1.513850771909908,
                -1.3702939568471701,
                0.44808068137171864,
                0.8455515106362046
            ]
        },
        {
            "positions": [
                0.09129689091526805,
                -1.4377153090016188,
                1.6699175603475018,
                -1.3621913661923508,
                0.539854662756555,
                0.8638938623376173
            ]
        },
        {
            "positions": [
                -0.022107702092371645,
                -1.4461229486465663,
                1.825984348785095,
                -1.3540887755375315,
                0.6316286441413916,
                0.8822362140390299
            ]
        },
        {
            "positions": [
                -0.007458045344522088,
                -1.4159799750080908,
                1.8413919356162665,
                -1.3001206891846135,
                0.5824231444522012,
                1.1056470390534794
            ]
        },
        {
            "positions": [
                0.007191611403327469,
                -1.3858370013696155,
                1.856799522447438,
                -1.2461526028316956,
                0.5332176447630109,
                1.329057864067929
            ]
        },
        {
            "positions": [
                0.021841268151177026,
                -1.35569402773114,
                1.8722071092786097,
                -1.1921845164787779,
                0.48401214507382057,
                1.5524686890823785
            ]
        },
        {
            "positions": [
                0.03649092489902658,
                -1.3255510540926645,
                1.887614696109781,
                -1.13821643012586,
                0.4348066453846302,
                1.775879514096828
            ]
        },
        {
            "positions": [
                0.05114058164687614,
                -1.2954080804541892,
                1.9030222829409524,
                -1.084248343772942,
                0.3856011456954398,
                1.9992903391112773
            ]
        },
        {
            "positions": [
                0.0657902383947257,
                -1.2652651068157137,
                1.918429869772124,
                -1.0302802574200243,
                0.3363956460062495,
                2.222701164125727
            ]
        },
        {
            "positions": [
                0.08043989514257525,
                -1.2351221331772382,
                1.9338374566032956,
                -0.9763121710671063,
                0.28719014631705914,
                2.446111989140176
            ]
        },
        {
            "positions": [
                0.09508955189042481,
                -1.2049791595387627,
                1.949245043434467,
                -0.9223440847141884,
                0.23798464662786872,
                2.669522814154626
            ]
        },
        {
            "positions": [
                0.10973920863827438,
                -1.1748361859002874,
                1.9646526302656384,
                -0.8683759983612704,
                0.18877914693867837,
                2.892933639169075
            ]
        },
        {
            "positions": [
                0.12438886538612393,
                -1.1446932122618119,
                1.98006021709681,
                -0.8144079120083526,
                0.139573647249488,
                3.1163444641835247
            ]
        }
    ]
}{
    "goal": {
        "global_pose": {
            "orientation": {
                "w": 0.7047431468963623,
                "x": -0.7094548344612122,
                "y": 0.0024358443915843964,
                "z": -0.0022348060738295317
            },
            "position": {
                "x": 0.6094750761985779,
                "y": 0.3671506643295288,
                "z": 0.19426114857196808
            }
        },
        "name": "move_to_magneteinheit_A"
    },
    "id": "ProjEST_move_to_magneteinheit_A_45",
    "joint_names": [
        "shoulder_pan_joint",
        "shoulder_lift_joint",
        "elbow_joint",
        "wrist_1_joint",
        "wrist_2_joint",
        "wrist_3_joint"
    ],
    "metrics": {
        "cart_traj_len": 1.229231456657583,
        "distance_elbow_joint": 0.3366036006957289,
        "distance_shoulder_lift_joint": 0.7514905534239911,
        "distance_shoulder_pan_joint": 1.2422680040435585,
        "distance_wrist_1_joint": 1.0512416809710263,
        "distance_wrist_2_joint": 1.803834693221672,
        "distance_wrist_3_joint": 4.263475877468135,
        "smoothness": 0.3862825615035018,
        "time": 0.121407128,
        "traj_len": 3.073908653461275,
        "weighted_distance": 4.564092739959726
    },
    "planner": "ProjEST",
    "start": {
        "state": {
            "elbow_joint": 1.919643534880228,
            "shoulder_lift_joint": -1.8972525353963687,
            "shoulder_pan_joint": -1.1188672234189438,
            "wrist_1_joint": -1.5931878212786155,
            "wrist_2_joint": 1.5706036197970081,
            "wrist_3_joint": 1.118896926603594
        }
    },
    "waypoints": [
        {
            "positions": [
                -1.1188672234189438,
                -1.8972525353963687,
                1.919643534880228,
                -1.5931878212786155,
                1.5706036197970081,
                1.118896926603594
            ]
        },
        {
            "positions": [
                -1.0650258023547492,
                -1.86740080054776,
                1.9131813255294228,
                -1.5502597424073772,
                1.4935168447901483,
                0.9332351433480688
            ]
        },
        {
            "positions": [
                -1.0111843812905545,
                -1.8375490656991513,
                1.9067191161786174,
                -1.5073316635361387,
                1.4164300697832888,
                0.7475733600925436
            ]
        },
        {
            "positions": [
                -0.9573429602263599,
                -1.8076973308505426,
                1.9002569068278121,
                -1.4644035846649004,
                1.339343294776429,
                0.5619115768370185
            ]
        },
        {
            "positions": [
                -0.9035015391621651,
                -1.777845596001934,
                1.8937946974770068,
                -1.421475505793662,
                1.2622565197695692,
                0.37624979358149335
            ]
        },
        {
            "positions": [
                -0.8496601180979705,
                -1.7479938611533252,
                1.8873324881262015,
                -1.3785474269224238,
                1.1851697447627094,
                0.19058801032596817
            ]
        },
        {
            "positions": [
                -0.7958186970337758,
                -1.7181421263047167,
                1.8808702787753961,
                -1.3356193480511855,
                1.1080829697558499,
                0.004926227070443101
            ]
        },
        {
            "positions": [
                -0.7419772759695812,
                -1.688290391456108,
                1.8744080694245908,
                -1.292691269179947,
                1.03099619474899,
                -0.18073555618508208
            ]
        },
        {
            "positions": [
                -0.6881358549053864,
                -1.6584386566074993,
                1.8679458600737855,
                -1.2497631903087087,
                0.9539094197421304,
                -0.36639733944060726
            ]
        },
        {
            "positions": [
                -0.6342944338411918,
                -1.6285869217588906,
                1.8614836507229802,
                -1.2068351114374705,
                0.8768226447352706,
                -0.5520591226961324
            ]
        },
        {
            "positions": [
                -0.5804530127769971,
                -1.598735186910282,
                1.8550214413721748,
                -1.163907032566232,
                0.7997358697284109,
                -0.7377209059516576
            ]
        },
        {
            "positions": [
                -0.5266115917128025,
                -1.5688834520616732,
                1.8485592320213695,
                -1.1209789536949937,
                0.7226490947215511,
                -0.9233826892071828
            ]
        },
        {
            "positions": [
                -0.4727701706486078,
                -1.5390317172130645,
                1.8420970226705642,
                -1.0780508748237554,
                0.6455623197146915,
                -1.1090444724627078
            ]
        },
        {
            "positions": [
                -0.41892874958441306,
                -1.5091799823644558,
                1.8356348133197589,
                -1.035122795952517,
                0.5684755447078318,
                -1.2947062557182332
            ]
        },
        {
            "positions": [
                -0.3650873285202185,
                -1.4793282475158471,
                1.8291726039689535,
                -0.9921947170812787,
                0.491388769700972,
                -1.4803680389737581
            ]
        },
        {
            "positions": [
                -0.31124590745602376,
                -1.4494765126672386,
                1.8227103946181482,
                -0.9492666382100403,
                0.4143019946941122,
                -1.6660298222292835
            ]
        },
        {
            "positions": [
                -0.2574044863918291,
                -1.41962477781863,
                1.8162481852673429,
                -0.906338559338802,
                0.33721521968725265,
                -1.8516916054848085
            ]
        },
        {
            "positions": [
                -0.20356306532763446,
                -1.3897730429700212,
                1.8097859759165376,
                -0.8634104804675636,
                0.26012844468039287,
                -2.0373533887403337
            ]
        },
        {
            "positions": [
                -0.1497216442634398,
                -1.3599213081214125,
                1.8033237665657322,
                -0.8204824015963254,
                0.18304166967353308,
                -2.2230151719958586
            ]
        },
        {
            "positions": [
                -0.09588022319924505,
                -1.3300695732728038,
                1.796861557214927,
                -0.777554322725087,
                0.1059548946666733,
                -2.4086769552513845
            ]
        },
        {
            "positions": [
                -0.0420388021350504,
                -1.3002178384241951,
                1.7903993478641216,
                -0.7346262438538487,
                0.02886811965981373,
                -2.5943387385069094
            ]
        },
        {
            "positions": [
                0.011802618929144304,
                -1.2703661035755864,
                1.7839371385133163,
                -0.6916981649826103,
                -0.04821865534704606,
                -2.7800005217624344
            ]
        },
        {
            "positions": [
                0.04900200616096778,
                -1.2288313963745168,
                1.8509028732895887,
                -0.7416155065409507,
                0.013452150678826442,
                -2.9015266647964704
            ]
        },
        {
            "positions": [
                0.08620139339279126,
                -1.1872966891734473,
                1.917868608065861,
                -0.791532848099291,
                0.07512295670469894,
                -3.023052807830506
            ]
        },
        {
            "positions": [
                0.12340078062461475,
                -1.1457619819723777,
                1.9848343428421333,
                -0.8414501896576314,
                0.13679376273057145,
                -3.144578950864542
            ]
        }
    ]
}