{
    "goal": {
        "global_pose": {
            "orientation": {
                "w": 0.5084816217422485,
                "x": -0.49083608388900757,
                "y": 0.5182115435600281,
                "z": -0.4816462993621826
            },
            "position": {
                "x": 0.5540239810943604,
                "y": 0.030875300988554955,
                "z": 0.16403168439865112
            }
        },
        "name": "move_to_storage_A"
    },
    "id": "ProjEST_move_to_storage_A_51",
    "joint_names": [
        "shoulder_pan_joint",
        "shoulder_lift_joint",
        "elbow_joint",
        "wrist_1_joint",
        "wrist_2_joint",
        "wrist_3_joint"
    ],
    "metrics": {
        "cart_traj_len": 0.35375240352268394,
        "distance_elbow_joint": 0.4544719276083229,
        "distance_shoulder_lift_joint": 0.23377747017617967,
        "distance_shoulder_pan_joint": 0.4602916159211039,
        "distance_wrist_1_joint": 0.2602784025086734,
        "distance_wrist_2_joint": 1.1103551126208129,
        "distance_wrist_3_joint": 0.1102232643492651,
        "smoothness": 0.0,
        "time": 0.015289365000000001,
        "traj_len": 1.6215417950778692,
        "weighted_distance": 2.0543801588343804
    },
    "planner": "ProjEST",
    "start": {
        "state": {
            "elbow_joint": 1.9715477243005601,
            "shoulder_lift_joint": -1.1394853015351272,
            "shoulder_pan_joint": 0.12281154014795169,
            "wrist_1_joint": -0.7804696478968182,
            "wrist_2_joint": 0.12958648046900423,
            "wrist_3_joint": -3.192491284697111
        }
    },
    "waypoints": [
        {
            "positions": [
                0.12281154014795169,
                -1.1394853015351272,
                1.9715477243005601,
                -0.7804696478968182,
                0.12958648046900423,
                -3.192491284697111
            ]
        },
        {
            "positions": [
                0.057055595016365424,
                -1.172882082988867,
                2.0364722853874633,
                -0.8176522768266287,
                0.28820863941483466,
                -3.1767451040757875
            ]
        },
        {
            "positions": [
                -0.008700350115220842,
                -1.206278864442607,
                2.101396846474367,
                -0.8548349057564392,
                0.446830798360665,
                -3.160998923454464
            ]
        },
        {
            "positions": [
                -0.07445629524680712,
                -1.239675645896347,
                2.16632140756127,
                -0.8920175346862496,
                0.6054529573064955,
                -3.1452527428331405
            ]
        },
        {
            "positions": [
                -0.14021224037839336,
                -1.2730724273500869,
                2.231245968648173,
                -0.9292001636160601,
                0.7640751162523258,
                -3.1295065622118168
            ]
        },
        {
            "positions": [
                -0.20596818550997964,
                -1.306469208803827,
                2.2961705297350763,
                -0.9663827925458706,
                0.9226972751981563,
                -3.113760381590493
            ]
        },
        {
            "positions": [
                -0.2717241306415659,
                -1.339865990257567,
                2.36109509082198,
                -1.003565421475681,
                1.0813194341439867,
                -3.09801420096917
            ]
        },
        {
            "positions": [
                -0.3374800757731522,
                -1.3732627717113068,
                2.426019651908883,
                -1.0407480504054916,
                1.2399415930898172,
                -3.082268020347846
            ]
        }
    ]
}