{
    "goal": {
        "global_pose": {
            "orientation": {
                "w": 0.5084816217422485,
                "x": -0.49083608388900757,
                "y": 0.5182115435600281,
                "z": -0.4816462993621826
            },
            "position": {
                "x": 0.5540239810943604,
                "y": 0.030875300988554955,
                "z": 0.16403168439865112
            }
        },
        "name": "move_to_storage_A"
    },
    "id": "ProjEST_move_to_storage_A_89",
    "joint_names": [
        "shoulder_pan_joint",
        "shoulder_lift_joint",
        "elbow_joint",
        "wrist_1_joint",
        "wrist_2_joint",
        "wrist_3_joint"
    ],
    "metrics": {
        "cart_traj_len": 0.3533082283554847,
        "distance_elbow_joint": 0.4523471879706804,
        "distance_shoulder_lift_joint": 0.23246660552771803,
        "distance_shoulder_pan_joint": 0.46303706146751444,
        "distance_wrist_1_joint": 0.2622625912696769,
        "distance_wrist_2_joint": 1.0933848418758783,
        "distance_wrist_3_joint": 0.10826970355519183,
        "smoothness": 4.440892133664971e-16,
        "time": 0.052718502,
        "traj_len": 1.6160965291920715,
        "weighted_distance": 2.045471787124574
    },
    "planner": "ProjEST",
    "start": {
        "state": {
            "elbow_joint": 1.9715477243005601,
            "shoulder_lift_joint": -1.1394853015351272,
            "shoulder_pan_joint": 0.12281154014795169,
            "wrist_1_joint": -0.7804696478968182,
            "wrist_2_joint": 0.12958648046900423,
            "wrist_3_joint": -3.192491284697111
        }
    },
    "waypoints": [
        {
            "positions": [
                0.12281154014795169,
                -1.1394853015351272,
                1.9715477243005601,
                -0.7804696478968182,
                0.12958648046900423,
                -3.192491284697111
            ]
        },
        {
            "positions": [
                0.056663388509735346,
                -1.1726948166105156,
                2.0361687511535145,
                -0.8179357323639148,
                0.2857843150227011,
                -3.177024184189227
            ]
        },
        {
            "positions": [
                -0.009484763128480997,
                -1.2059043316859037,
                2.100789778006469,
                -0.8554018168310116,
                0.441982149576398,
                -3.161557083681342
            ]
        },
        {
            "positions": [
                -0.07563291476669735,
                -1.239113846761292,
                2.165410804859423,
                -0.8928679012981082,
                0.5981799841300949,
                -3.1460899831734577
            ]
        },
        {
            "positions": [
                -0.14178106640491367,
                -1.2723233618366803,
                2.2300318317123775,
                -0.930333985765205,
                0.7543778186837917,
                -3.130622882665573
            ]
        },
        {
            "positions": [
                -0.20792921804313003,
                -1.3055328769120687,
                2.294652858565332,
                -0.9678000702323016,
                0.9105756532374887,
                -3.1151557821576885
            ]
        },
        {
            "positions": [
                -0.2740773696813464,
                -1.3387423919874568,
                2.359273885418286,
                -1.0052661546993984,
                1.0667734877911856,
                -3.0996886816498037
            ]
        },
        {
            "positions": [
                -0.34022552131956274,
                -1.3719519070628452,
                2.4238949122712405,
                -1.042732239166495,
                1.2229713223448824,
                -3.0842215811419194
            ]
        }
    ]
}