{
    "goal": {
        "global_pose": {
            "orientation": {
                "w": 0.5084816217422485,
                "x": -0.49083608388900757,
                "y": 0.5182115435600281,
                "z": -0.4816462993621826
            },
            "position": {
                "x": 0.5540239810943604,
                "y": 0.030875300988554955,
                "z": 0.16403168439865112
            }
        },
        "name": "move_to_storage_A"
    },
    "id": "ProjEST_move_to_storage_A_50",
    "joint_names": [
        "shoulder_pan_joint",
        "shoulder_lift_joint",
        "elbow_joint",
        "wrist_1_joint",
        "wrist_2_joint",
        "wrist_3_joint"
    ],
    "metrics": {
        "cart_traj_len": 0.3541026849998274,
        "distance_elbow_joint": 0.4533515556469716,
        "distance_shoulder_lift_joint": 0.23413590042094845,
        "distance_shoulder_pan_joint": 0.4626881380173542,
        "distance_wrist_1_joint": 0.2571559913397029,
        "distance_wrist_2_joint": 1.1025081357857918,
        "distance_wrist_3_joint": 0.1026624376037959,
        "smoothness": 2.2204460668324854e-16,
        "time": 0.065523026,
        "traj_len": 1.6163236553408988,
        "weighted_distance": 2.0438911813371208
    },
    "planner": "ProjEST",
    "start": {
        "state": {
            "elbow_joint": 1.9715477243005601,
            "shoulder_lift_joint": -1.1394853015351272,
            "shoulder_pan_joint": 0.12281154014795169,
            "wrist_1_joint": -0.7804696478968182,
            "wrist_2_joint": 0.12958648046900423,
            "wrist_3_joint": -3.192491284697111
        }
    },
    "waypoints": [
        {
            "positions": [
                0.12281154014795169,
                -1.1394853015351272,
                1.9715477243005601,
                -0.7804696478968182,
                0.12958648046900423,
                -3.192491284697111
            ]
        },
        {
            "positions": [
                0.056713234716901095,
                -1.1729332873095484,
                2.0363122322501277,
                -0.8172062180882043,
                0.28708764272411735,
                -3.177825222182283
            ]
        },
        {
            "positions": [
                -0.009385070714149499,
                -1.2063812730839696,
                2.101076740199695,
                -0.8539427882795905,
                0.4445888049792304,
                -3.163159159667455
            ]
        },
        {
            "positions": [
                -0.0754833761452001,
                -1.2398292588583908,
                2.1658412481492624,
                -0.8906793584709766,
                0.6020899672343436,
                -3.148493097152627
            ]
        },
        {
            "positions": [
                -0.14158168157625067,
                -1.273277244632812,
                2.2306057560988295,
                -0.9274159286623627,
                0.7595911294894566,
                -3.1338270346377994
            ]
        },
        {
            "positions": [
                -0.20767998700730128,
                -1.3067252304072332,
                2.295370264048397,
                -0.9641524988537489,
                0.9170922917445697,
                -3.1191609721229714
            ]
        },
        {
            "positions": [
                -0.2737782924383519,
                -1.3401732161816544,
                2.360134771997964,
                -1.0008890690451349,
                1.0745934539996829,
                -3.1044949096081433
            ]
        },
        {
            "positions": [
                -0.3398765978694025,
                -1.3736212019560756,
                2.4248992799475317,
                -1.037625639236521,
                1.2320946162547959,
                -3.0898288470933153
            ]
        }
    ]
}