{
    "goal": {
        "global_pose": {
            "orientation": {
                "w": 0.5084816217422485,
                "x": -0.49083608388900757,
                "y": 0.5182115435600281,
                "z": -0.4816462993621826
            },
            "position": {
                "x": 0.5540239810943604,
                "y": 0.030875300988554955,
                "z": 0.16403168439865112
            }
        },
        "name": "move_to_storage_A"
    },
    "id": "ProjEST_move_to_storage_A_16",
    "joint_names": [
        "shoulder_pan_joint",
        "shoulder_lift_joint",
        "elbow_joint",
        "wrist_1_joint",
        "wrist_2_joint",
        "wrist_3_joint"
    ],
    "metrics": {
        "cart_traj_len": 0.35290445838700807,
        "distance_elbow_joint": 0.45197424982516976,
        "distance_shoulder_lift_joint": 0.23200345499760489,
        "distance_shoulder_pan_joint": 0.45972066285098523,
        "distance_wrist_1_joint": 0.2617468359302225,
        "distance_wrist_2_joint": 1.1043981559967788,
        "distance_wrist_3_joint": 0.10631998978076052,
        "smoothness": 8.881784197001252e-16,
        "time": 0.058477898,
        "traj_len": 1.6174558260989762,
        "weighted_distance": 2.048157298859158
    },
    "planner": "ProjEST",
    "start": {
        "state": {
            "elbow_joint": 1.9715477243005601,
            "shoulder_lift_joint": -1.1394853015351272,
            "shoulder_pan_joint": 0.12281154014795169,
            "wrist_1_joint": -0.7804696478968182,
            "wrist_2_joint": 0.12958648046900423,
            "wrist_3_joint": -3.192491284697111
        }
    },
    "waypoints": [
        {
            "positions": [
                0.12281154014795169,
                -1.1394853015351272,
                1.9715477243005601,
                -0.7804696478968182,
                0.12958648046900423,
                -3.192491284697111
            ]
        },
        {
            "positions": [
                0.05713715974066809,
                -1.1726286522490708,
                2.0361154742755843,
                -0.817862053029707,
                0.2873576456114012,
                -3.177302714728431
            ]
        },
        {
            "positions": [
                -0.008537220666615511,
                -1.2057720029630143,
                2.100683224250609,
                -0.855254458162596,
                0.4451288107537982,
                -3.162114144759751
            ]
        },
        {
            "positions": [
                -0.07421160107389911,
                -1.238915353676958,
                2.165250974225633,
                -0.8926468632954849,
                0.6028999758961952,
                -3.146925574791071
            ]
        },
        {
            "positions": [
                -0.1398859814811827,
                -1.2720587043909013,
                2.229818724200657,
                -0.9300392684283739,
                0.7606711410385921,
                -3.1317370048223907
            ]
        },
        {
            "positions": [
                -0.20556036188846633,
                -1.3052020551048449,
                2.294386474175681,
                -0.9674316735612628,
                0.9184423061809891,
                -3.1165484348537107
            ]
        },
        {
            "positions": [
                -0.2712347422957499,
                -1.3383454058187885,
                2.3589542241507058,
                -1.0048240786941518,
                1.0762134713233862,
                -3.1013598648850307
            ]
        },
        {
            "positions": [
                -0.3369091227030335,
                -1.371488756532732,
                2.42352197412573,
                -1.0422164838270407,
                1.2339846364657832,
                -3.0861712949163507
            ]
        }
    ]
}