{
    "goal": {
        "global_pose": {
            "orientation": {
                "w": 0.5084816217422485,
                "x": -0.49083608388900757,
                "y": 0.5182115435600281,
                "z": -0.4816462993621826
            },
            "position": {
                "x": 0.5540239810943604,
                "y": 0.030875300988554955,
                "z": 0.16403168439865112
            }
        },
        "name": "move_to_storage_A"
    },
    "id": "ProjEST_move_to_storage_A_113",
    "joint_names": [
        "shoulder_pan_joint",
        "shoulder_lift_joint",
        "elbow_joint",
        "wrist_1_joint",
        "wrist_2_joint",
        "wrist_3_joint"
    ],
    "metrics": {
        "cart_traj_len": 0.35254402913389826,
        "distance_elbow_joint": 0.44769114662472553,
        "distance_shoulder_lift_joint": 0.23563264346791857,
        "distance_shoulder_pan_joint": 0.45986179972529334,
        "distance_wrist_1_joint": 0.2347880977499438,
        "distance_wrist_2_joint": 1.1027763605569723,
        "distance_wrist_3_joint": 0.0970465385096353,
        "smoothness": 4.440892133664971e-16,
        "time": 0.10060259099999999,
        "traj_len": 1.6055518012927794,
        "weighted_distance": 2.0271788579108345
    },
    "planner": "ProjEST",
    "start": {
        "state": {
            "elbow_joint": 1.9715477243005601,
            "shoulder_lift_joint": -1.1394853015351272,
            "shoulder_pan_joint": 0.12281154014795169,
            "wrist_1_joint": -0.7804696478968182,
            "wrist_2_joint": 0.12958648046900423,
            "wrist_3_joint": -3.192491284697111
        }
    },
    "waypoints": [
        {
            "positions": [
                0.12281154014795169,
                -1.1394853015351272,
                1.9715477243005601,
                -0.7804696478968182,
                0.12958648046900423,
                -3.192491284697111
            ]
        },
        {
            "positions": [
                0.05711699733005264,
                -1.1731471077448299,
                2.0355036023898068,
                -0.8140108047182387,
                0.28712596054857165,
                -3.178627493481449
            ]
        },
        {
            "positions": [
                -0.008577545487846408,
                -1.2068089139545324,
                2.099459480479053,
                -0.8475519615396593,
                0.4446654406281391,
                -3.1647637022657866
            ]
        },
        {
            "positions": [
                -0.07427208830574546,
                -1.240470720164235,
                2.1634153585682996,
                -0.8810931183610797,
                0.6022049207077066,
                -3.1508999110501246
            ]
        },
        {
            "positions": [
                -0.1399666311236445,
                -1.2741325263739378,
                2.227371236657546,
                -0.9146342751825003,
                0.759744400787274,
                -3.1370361198344625
            ]
        },
        {
            "positions": [
                -0.20566117394154354,
                -1.3077943325836405,
                2.291327114746793,
                -0.9481754320039208,
                0.9172838808668415,
                -3.1231723286188005
            ]
        },
        {
            "positions": [
                -0.2713557167594426,
                -1.341456138793343,
                2.355282992836039,
                -0.9817165888253414,
                1.074823360946409,
                -3.109308537403138
            ]
        },
        {
            "positions": [
                -0.33705025957734164,
                -1.3751179450030457,
                2.4192388709252857,
                -1.015257745646762,
                1.2323628410259764,
                -3.095444746187476
            ]
        }
    ]
}