{
    "goal": {
        "global_pose": {
            "orientation": {
                "w": 0.7047431468963623,
                "x": -0.7094548344612122,
                "y": 0.0024358443915843964,
                "z": -0.0022348060738295317
            },
            "position": {
                "x": 0.6094750761985779,
                "y": 0.3671506643295288,
                "z": 0.19426114857196808
            }
        },
        "name": "move_to_magneteinheit_A"
    },
    "id": "ProjEST_move_to_magneteinheit_A_83",
    "joint_names": [
        "shoulder_pan_joint",
        "shoulder_lift_joint",
        "elbow_joint",
        "wrist_1_joint",
        "wrist_2_joint",
        "wrist_3_joint"
    ],
    "metrics": {
        "cart_traj_len": 3.4402555111028312,
        "distance_elbow_joint": 3.943000496956755,
        "distance_shoulder_lift_joint": 0.6138599243952715,
        "distance_shoulder_pan_joint": 3.6549518020884855,
        "distance_wrist_1_joint": 3.5636643238820005,
        "distance_wrist_2_joint": 1.4783935541853408,
        "distance_wrist_3_joint": 2.1317648900542667,
        "smoothness": 0.3012982354241472,
        "time": 0.321346269,
        "traj_len": 3.922452675503188,
        "weighted_distance": 4.969026328138943
    },
    "planner": "ProjEST",
    "start": {
        "state": {
            "elbow_joint": -1.919618573717145,
            "shoulder_lift_joint": -1.2443395971678275,
            "shoulder_pan_joint": 2.6996025300909787,
            "wrist_1_joint": -1.548550951253194,
            "wrist_2_joint": -1.5709469090946802,
            "wrist_3_joint": 0.4420197732051276
        }
    },
    "waypoints": [
        {
            "positions": [
                2.6996025300909787,
                -1.2443395971678275,
                -1.919618573717145,
                -1.548550951253194,
                -1.5709469090946802,
                0.4420197732051276
            ]
        },
        {
            "positions": [
                2.5820132050088613,
                -1.2479628161393463,
                -1.809665004441209,
                -1.4874722294779865,
                -1.5208509177796625,
                0.38949496769261865
            ]
        },
        {
            "positions": [
                2.4644238799267435,
                -1.2515860351108652,
                -1.6997114351652733,
                -1.426393507702779,
                -1.470754926464645,
                0.3369701621801097
            ]
        },
        {
            "positions": [
                2.346834554844626,
                -1.2552092540823838,
                -1.5897578658893374,
                -1.3653147859275714,
                -1.4206589351496275,
                0.28444535666760085
            ]
        },
        {
            "positions": [
                2.2292452297625083,
                -1.2588324730539027,
                -1.4798042966134015,
                -1.3042360641523638,
                -1.3705629438346099,
                0.2319205511550919
            ]
        },
        {
            "positions": [
                2.111655904680391,
                -1.2624556920254215,
                -1.3698507273374658,
                -1.2431573423771562,
                -1.3204669525195922,
                0.17939574564258298
            ]
        },
        {
            "positions": [
                1.9940665795982735,
                -1.2660789109969404,
                -1.2598971580615301,
                -1.1820786206019487,
                -1.2703709612045746,
                0.1268709401300741
            ]
        },
        {
            "positions": [
                1.8764772545161557,
                -1.2697021299684592,
                -1.149943588785594,
                -1.1209998988267411,
                -1.220274969889557,
                0.07434613461756512
            ]
        },
        {
            "positions": [
                1.7588879294340383,
                -1.273325348939978,
                -1.0399900195096583,
                -1.0599211770515335,
                -1.1701789785745396,
                0.021821329105056186
            ]
        },
        {
            "positions": [
                1.6412986043519204,
                -1.2769485679114967,
                -0.9300364502337224,
                -0.9988424552763259,
                -1.1200829872595217,
                -0.030703476407452746
            ]
        },
        {
            "positions": [
                1.523709279269803,
                -1.2805717868830155,
                -0.8200828809577867,
                -0.9377637335011183,
                -1.0699869959445043,
                -0.08322828191996162
            ]
        },
        {
            "positions": [
                1.4061199541876854,
                -1.2841950058545344,
                -0.7101293116818508,
                -0.8766850117259107,
                -1.0198910046294867,
                -0.13575308743247055
            ]
        },
        {
            "positions": [
                1.288530629105568,
                -1.2878182248260532,
                -0.6001757424059151,
                -0.8156062899507032,
                -0.9697950133144692,
                -0.18827789294497937
            ]
        },
        {
            "positions": [
                1.1709413040234502,
                -1.291441443797572,
                -0.49022217312997896,
                -0.7545275681754955,
                -0.9196990219994514,
                -0.24080269845748842
            ]
        },
        {
            "positions": [
                1.0533519789413328,
                -1.2950646627690907,
                -0.38026860385404326,
                -0.693448846400288,
                -0.8696030306844339,
                -0.29332750396999735
            ]
        },
        {
            "positions": [
                0.9357626538592152,
                -1.2986878817406096,
                -0.27031503457810757,
                -0.6323701246250805,
                -0.8195070393694164,
                -0.34585230948250617
            ]
        },
        {
            "positions": [
                0.8181733287770976,
                -1.3023111007121284,
                -0.16036146530217166,
                -0.5712914028498728,
                -0.7694110480543987,
                -0.3983771149950152
            ]
        },
        {
            "positions": [
                0.70058400369498,
                -1.3059343196836473,
                -0.05040789602623574,
                -0.5102126810746652,
                -0.7193150567393811,
                -0.45090192050752403
            ]
        },
        {
            "positions": [
                0.5829946786128621,
                -1.309557538655166,
                0.05954567324970017,
                -0.44913395929945765,
                -0.6692190654243635,
                -0.5034267260200331
            ]
        },
        {
            "positions": [
                0.46540535353074475,
                -1.313180757626685,
                0.16949924252563586,
                -0.3880552375242501,
                -0.619123074109346,
                -0.5559515315325418
            ]
        },
        {
            "positions": [
                0.34781602844862736,
                -1.3168039765982036,
                0.27945281180157155,
                -0.3269765157490425,
                -0.5690270827943285,
                -0.6084763370450508
            ]
        },
        {
            "positions": [
                0.23022670336650952,
                -1.3204271955697224,
                0.3894063810775077,
                -0.26589779397383495,
                -0.5189310914793108,
                -0.6610011425575597
            ]
        },
        {
            "positions": [
                0.11263737828439224,
                -1.3240504145412413,
                0.49935995035344327,
                -0.2048190721986274,
                -0.46883510016429314,
                -0.7135259480700687
            ]
        },
        {
            "positions": [
                0.0719354782033022,
                -1.2995072782090278,
                0.6032191374753889,
                -0.07887900149933327,
                -0.44159296052587244,
                -0.6529522189410251
            ]
        },
        {
            "positions": [
                0.03123357812221217,
                -1.2749641418768143,
                0.7070783245973347,
                0.047061069199960864,
                -0.41435082088745173,
                -0.5923784898119815
            ]
        },
        {
            "positions": [
                -0.009468321958877868,
                -1.2504210055446006,
                0.8109375117192803,
                0.17300113989925495,
                -0.38710868124903103,
                -0.5318047606829379
            ]
        },
        {
            "positions": [
                -0.050170222039967904,
                -1.225877869212387,
                0.9147966988412259,
                0.29894121059854917,
                -0.3598665416106103,
                -0.47123103155389423
            ]
        },
        {
            "positions": [
                -0.09087212212105794,
                -1.2013347328801736,
                1.0186558859631716,
                0.4248812812978433,
                -0.3326244019721896,
                -0.4106573024248506
            ]
        },
        {
            "positions": [
                -0.13157402220214798,
                -1.17679159654796,
                1.1225150730851172,
                0.5508213519971373,
                -0.305382262333769,
                -0.35008357329580697
            ]
        },
        {
            "positions": [
                -0.17227592228323796,
                -1.1522484602157463,
                1.2263742602070629,
                0.6767614226964315,
                -0.27814012269534827,
                -0.2895098441667634
            ]
        },
        {
            "positions": [
                -0.21297782236432805,
                -1.1277053238835328,
                1.3302334473290087,
                0.8027014933957257,
                -0.25089798305692756,
                -0.2289361150377197
            ]
        },
        {
            "positions": [
                -0.25367972244541803,
                -1.1031621875513193,
                1.4340926344509541,
                0.9286415640950196,
                -0.22365584341850686,
                -0.16836238590867614
            ]
        },
        {
            "positions": [
                -0.2943816225265081,
                -1.0786190512191058,
                1.5379518215729,
                1.054581634794314,
                -0.1964137037800861,
                -0.10778865677963245
            ]
        },
        {
            "positions": [
                -0.3350835226075981,
                -1.0540759148868921,
                1.6418110086948454,
                1.180521705493608,
                -0.16917156414166545,
                -0.04721492765058888
            ]
        },
        {
            "positions": [
                -0.3757854226886882,
                -1.0295327785546786,
                1.7456701958167913,
                1.306461776192902,
                -0.14192942450324475,
                0.013358801478454807
            ]
        },
        {
            "positions": [
                -0.4164873227697782,
                -1.0049896422224651,
                1.8495293829387367,
                1.4324018468921962,
                -0.11468728486482405,
                0.07393253060749838
            ]
        },
        {
            "positions": [
                -0.30871493292423224,
                -0.9619719752818489,
                1.8842998909989115,
                1.548944152039518,
                -0.1191140708559212,
                0.03618039258719773
            ]
        },
        {
            "positions": [
                -0.20094254307868625,
                -0.9189543083412325,
                1.919070399059086,
                1.66548645718684,
                -0.12354085684701835,
                -0.001571745433102928
            ]
        },
        {
            "positions": [
                -0.09317015323314032,
                -0.8759366414006162,
                1.9538409071192608,
                1.7820287623341617,
                -0.1279676428381155,
                -0.03932388345340357
            ]
        },
        {
            "positions": [
                0.014602236612405672,
                -0.8329189744599999,
                1.9886114151794354,
                1.8985710674814837,
                -0.13239442882921265,
                -0.07707602147370424
            ]
        },
        {
            "positions": [
                0.12237462645795164,
                -0.7899013075193836,
                2.02338192323961,
                2.0151133726288055,
                -0.1368212148203098,
                -0.11482815949400488
            ]
        }
    ]
}{
    "goal": {
        "global_pose": {
            "orientation": {
                "w": 0.7047431468963623,
                "x": -0.7094548344612122,
                "y": 0.0024358443915843964,
                "z": -0.0022348060738295317
            },
            "position": {
                "x": 0.6094750761985779,
                "y": 0.3671506643295288,
                "z": 0.19426114857196808
            }
        },
        "name": "move_to_magneteinheit_A"
    },
    "id": "ProjEST_move_to_magneteinheit_A_83",
    "joint_names": [
        "shoulder_pan_joint",
        "shoulder_lift_joint",
        "elbow_joint",
        "wrist_1_joint",
        "wrist_2_joint",
        "wrist_3_joint"
    ],
    "metrics": {
        "cart_traj_len": 2.541860680323404,
        "distance_elbow_joint": 4.938235515852958,
        "distance_shoulder_lift_joint": 0.7519846151062091,
        "distance_shoulder_pan_joint": 1.7534564489929803,
        "distance_wrist_1_joint": 2.419741888785577,
        "distance_wrist_2_joint": 3.9773948160758006,
        "distance_wrist_3_joint": 4.237567363402148,
        "smoothness": 0.4027519048513,
        "time": 0.209716509,
        "traj_len": 4.2518679010777936,
        "weighted_distance": 5.740265854460172
    },
    "planner": "ProjEST",
    "start": {
        "state": {
            "elbow_joint": 1.919643534880228,
            "shoulder_lift_joint": -1.8972525353963687,
            "shoulder_pan_joint": -1.1188672234189438,
            "wrist_1_joint": -1.5931878212786155,
            "wrist_2_joint": 1.5706036197970081,
            "wrist_3_joint": 1.118896926603594
        }
    },
    "waypoints": [
        {
            "positions": [
                -1.1188672234189438,
                -1.8972525353963687,
                1.919643534880228,
                -1.5931878212786155,
                1.5706036197970081,
                1.118896926603594
            ]
        },
        {
            "positions": [
                -1.128337525731565,
                -1.8763069336303237,
                1.8293804012875954,
                -1.5346586814784327,
                1.4700997062315773,
                1.005467928715179
            ]
        },
        {
            "positions": [
                -1.1378078280441866,
                -1.855361331864279,
                1.7391172676949624,
                -1.4761295416782496,
                1.3695957926661464,
                0.8920389308267642
            ]
        },
        {
            "positions": [
                -1.1472781303568078,
                -1.834415730098234,
                1.6488541341023297,
                -1.4176004018780668,
                1.2690918791007153,
                0.7786099329383493
            ]
        },
        {
            "positions": [
                -1.1567484326694293,
                -1.8134701283321892,
                1.5585910005096968,
                -1.3590712620778838,
                1.1685879655352844,
                0.6651809350499345
            ]
        },
        {
            "positions": [
                -1.1662187349820505,
                -1.7925245265661442,
                1.468327866917064,
                -1.300542122277701,
                1.0680840519698536,
                0.5517519371615196
            ]
        },
        {
            "positions": [
                -1.175689037294672,
                -1.7715789248000995,
                1.3780647333244311,
                -1.242012982477518,
                0.9675801384044226,
                0.4383229392731046
            ]
        },
        {
            "positions": [
                -1.1851593396072932,
                -1.7506333230340545,
                1.2878015997317984,
                -1.183483842677335,
                0.8670762248389917,
                0.32489394138468974
            ]
        },
        {
            "positions": [
                -1.1946296419199147,
                -1.7296877212680097,
                1.1975384661391657,
                -1.1249547028771523,
                0.7665723112735607,
                0.21146494349627487
            ]
        },
        {
            "positions": [
                -1.204099944232536,
                -1.7087421195019648,
                1.1072753325465328,
                -1.0664255630769692,
                0.6660683977081299,
                0.09803594560786011
            ]
        },
        {
            "positions": [
                -1.2135702465451572,
                -1.68779651773592,
                1.0170121989539,
                -1.0078964232767862,
                0.565564484142699,
                -0.015393052280554764
            ]
        },
        {
            "positions": [
                -1.2230405488577787,
                -1.666850915969875,
                0.9267490653612672,
                -0.9493672834766035,
                0.4650605705772679,
                -0.12882205016896986
            ]
        },
        {
            "positions": [
                -1.2325108511704,
                -1.64590531420383,
                0.8364859317686344,
                -0.8908381436764206,
                0.36455665701183704,
                -0.24225104805738473
            ]
        },
        {
            "positions": [
                -1.2419811534830214,
                -1.6249597124377853,
                0.7462227981760017,
                -0.8323090038762376,
                0.26405274344640617,
                -0.3556800459457996
            ]
        },
        {
            "positions": [
                -1.2514514557956427,
                -1.6040141106717403,
                0.6559596645833687,
                -0.7737798640760547,
                0.1635488298809753,
                -0.4691090438342145
            ]
        },
        {
            "positions": [
                -1.2609217581082641,
                -1.5830685089056953,
                0.5656965309907358,
                -0.7152507242758717,
                0.06304491631554421,
                -0.5825380417226294
            ]
        },
        {
            "positions": [
                -1.2703920604208854,
                -1.5621229071396505,
                0.4754333973981031,
                -0.6567215844756888,
                -0.03745899724988666,
                -0.6959670396110442
            ]
        },
        {
            "positions": [
                -1.2798623627335068,
                -1.5411773053736058,
                0.38517026380547015,
                -0.5981924446755059,
                -0.13796291081531775,
                -0.8093960374994593
            ]
        },
        {
            "positions": [
                -1.289332665046128,
                -1.5202317036075608,
                0.29490713021283743,
                -0.539663304875323,
                -0.2384668243807484,
                -0.9228250353878737
            ]
        },
        {
            "positions": [
                -1.2988029673587493,
                -1.4992861018415158,
                0.2046439966202045,
                -0.48113416507513995,
                -0.3389707379461795,
                -1.036254033276289
            ]
        },
        {
            "positions": [
                -1.3082732696713708,
                -1.478340500075471,
                0.114380863027572,
                -0.42260502527495714,
                -0.43947465151161014,
                -1.1496830311647035
            ]
        },
        {
            "positions": [
                -1.317743571983992,
                -1.457394898309426,
                0.02411772943493906,
                -0.3640758854747743,
                -0.5399785650770412,
                -1.2631120290531188
            ]
        },
        {
            "positions": [
                -1.3272138742966135,
                -1.4364492965433813,
                -0.06614540415769365,
                -0.3055467456745915,
                -0.6404824786424723,
                -1.3765410269415337
            ]
        },
        {
            "positions": [
                -1.3366841766092348,
                -1.4155036947773363,
                -0.1564085377503266,
                -0.24701760587440846,
                -0.7409863922079034,
                -1.4899700248299486
            ]
        },
        {
            "positions": [
                -1.3461544789218562,
                -1.3945580930112915,
                -0.2466716713429593,
                -0.18848846607422565,
                -0.8414903057733341,
                -1.6033990227183634
            ]
        },
        {
            "positions": [
                -1.3556247812344775,
                -1.3736124912452465,
                -0.33693480493559247,
                -0.1299593262740426,
                -0.9419942193387651,
                -1.7168280206067783
            ]
        },
        {
            "positions": [
                -1.3650950835470987,
                -1.3526668894792016,
                -0.42719793852822474,
                -0.07143018647385979,
                -1.0424981329041958,
                -1.8302570184951932
            ]
        },
        {
            "positions": [
                -1.3745653858597202,
                -1.3317212877131568,
                -0.5174610721208579,
                -0.012901046673676753,
                -1.1430020464696269,
                -1.9436860163836083
            ]
        },
        {
            "positions": [
                -1.2957360023569726,
                -1.3219079525856305,
                -0.38582260323391715,
                -0.05708289478844712,
                -1.0764868280586182,
                -2.0055273016686055
            ]
        },
        {
            "positions": [
                -1.216906618854225,
                -1.3120946174581045,
                -0.2541841343469764,
                -0.10126474290321749,
                -1.0099716096476095,
                -2.0673685869536027
            ]
        },
        {
            "positions": [
                -1.1380772353514774,
                -1.3022812823305783,
                -0.12254566546003565,
                -0.14544659101798788,
                -0.9434563912366007,
                -2.1292098722386
            ]
        },
        {
            "positions": [
                -1.05924785184873,
                -1.292467947203052,
                0.009092803426905105,
                -0.18962843913275823,
                -0.876941172825592,
                -2.191051157523597
            ]
        },
        {
            "positions": [
                -0.9804184683459825,
                -1.282654612075526,
                0.14073127231384586,
                -0.23381028724752861,
                -0.8104259544145833,
                -2.2528924428085944
            ]
        },
        {
            "positions": [
                -0.9015890848432349,
                -1.2728412769479998,
                0.2723697412007866,
                -0.277992135362299,
                -0.7439107360035747,
                -2.3147337280935916
            ]
        },
        {
            "positions": [
                -0.8227597013404873,
                -1.2630279418204737,
                0.40400821008772736,
                -0.3221739834770694,
                -0.677395517592566,
                -2.376575013378589
            ]
        },
        {
            "positions": [
                -0.7439303178377398,
                -1.2532146066929475,
                0.5356466789746681,
                -0.3663558315918397,
                -0.6108802991815573,
                -2.438416298663586
            ]
        },
        {
            "positions": [
                -0.6651009343349922,
                -1.2434012715654212,
                0.6672851478616089,
                -0.4105376797066101,
                -0.5443650807705486,
                -2.500257583948583
            ]
        },
        {
            "positions": [
                -0.5862715508322447,
                -1.2335879364378952,
                0.7989236167485496,
                -0.4547195278213805,
                -0.47784986235953986,
                -2.562098869233581
            ]
        },
        {
            "positions": [
                -0.507442167329497,
                -1.223774601310369,
                0.9305620856354906,
                -0.4989013759361509,
                -0.41133464394853114,
                -2.623940154518578
            ]
        },
        {
            "positions": [
                -0.4286127838267495,
                -1.2139612661828427,
                1.0622005545224311,
                -0.5430832240509212,
                -0.34481942553752254,
                -2.6857814398035753
            ]
        },
        {
            "positions": [
                -0.3497834003240019,
                -1.2041479310553167,
                1.193839023409372,
                -0.5872650721656917,
                -0.2783042071265137,
                -2.7476227250885725
            ]
        },
        {
            "positions": [
                -0.2709540168212543,
                -1.1943345959277905,
                1.3254774922963126,
                -0.631446920280462,
                -0.2117889887155051,
                -2.8094640103735697
            ]
        },
        {
            "positions": [
                -0.1921246333185067,
                -1.1845212608002642,
                1.4571159611832536,
                -0.6756287683952323,
                -0.14527377030449629,
                -2.871305295658567
            ]
        },
        {
            "positions": [
                -0.11329524981575934,
                -1.1747079256727382,
                1.5887544300701941,
                -0.7198106165100027,
                -0.07875855189348768,
                -2.933146580943564
            ]
        },
        {
            "positions": [
                -0.03446586631301174,
                -1.164894590545212,
                1.720392898957135,
                -0.7639924646247731,
                -0.012243333482478969,
                -2.9949878662285614
            ]
        },
        {
            "positions": [
                0.04436351718973586,
                -1.155081255417686,
                1.8520313678440756,
                -0.8081743127395434,
                0.054271884928529746,
                -3.0568291515135586
            ]
        },
        {
            "positions": [
                0.12319290069248348,
                -1.1452679202901597,
                1.9836698367310168,
                -0.8523561608543139,
                0.12078710333953845,
                -3.118670436798556
            ]
        }
    ]
}