{
    "goal": {
        "global_pose": {
            "orientation": {
                "w": 0.5084816217422485,
                "x": -0.49083608388900757,
                "y": 0.5182115435600281,
                "z": -0.4816462993621826
            },
            "position": {
                "x": 0.5540239810943604,
                "y": 0.030875300988554955,
                "z": 0.16403168439865112
            }
        },
        "name": "move_to_storage_A"
    },
    "id": "ProjEST_move_to_storage_A_99",
    "joint_names": [
        "shoulder_pan_joint",
        "shoulder_lift_joint",
        "elbow_joint",
        "wrist_1_joint",
        "wrist_2_joint",
        "wrist_3_joint"
    ],
    "metrics": {
        "cart_traj_len": 0.353461419205765,
        "distance_elbow_joint": 0.4514611453939019,
        "distance_shoulder_lift_joint": 0.2327082848232529,
        "distance_shoulder_pan_joint": 0.4641259377360755,
        "distance_wrist_1_joint": 0.2487953600685967,
        "distance_wrist_2_joint": 1.0908116787130409,
        "distance_wrist_3_joint": 0.10265668488644053,
        "smoothness": 4.440892133664971e-16,
        "time": 0.046691551000000005,
        "traj_len": 1.6095213858850428,
        "weighted_distance": 2.0335878393066347
    },
    "planner": "ProjEST",
    "start": {
        "state": {
            "elbow_joint": 1.9715477243005601,
            "shoulder_lift_joint": -1.1394853015351272,
            "shoulder_pan_joint": 0.12281154014795169,
            "wrist_1_joint": -0.7804696478968182,
            "wrist_2_joint": 0.12958648046900423,
            "wrist_3_joint": -3.192491284697111
        }
    },
    "waypoints": [
        {
            "positions": [
                0.12281154014795169,
                -1.1394853015351272,
                1.9715477243005601,
                -0.7804696478968182,
                0.12958648046900423,
                -3.192491284697111
            ]
        },
        {
            "positions": [
                0.056507834757083764,
                -1.1727293422241634,
                2.0360421736425462,
                -0.816011842192332,
                0.2854167202851529,
                -3.1778260439990484
            ]
        },
        {
            "positions": [
                -0.009795870633784162,
                -1.2059733829131993,
                2.100536622984532,
                -0.8515540364878458,
                0.4412469601013016,
                -3.1631608033009853
            ]
        },
        {
            "positions": [
                -0.0760995760246521,
                -1.2392174236022355,
                2.165031072326518,
                -0.8870962307833596,
                0.5970771999174502,
                -3.1484955626029225
            ]
        },
        {
            "positions": [
                -0.14240328141552,
                -1.2724614642912717,
                2.229525521668504,
                -0.9226384250788734,
                0.752907439733599,
                -3.1338303219048593
            ]
        },
        {
            "positions": [
                -0.20870698680638794,
                -1.305705504980308,
                2.2940199710104903,
                -0.9581806193743873,
                0.9087376795497477,
                -3.1191650812067966
            ]
        },
        {
            "positions": [
                -0.2750106921972559,
                -1.3389495456693439,
                2.358514420352476,
                -0.993722813669901,
                1.0645679193658963,
                -3.1044998405087334
            ]
        },
        {
            "positions": [
                -0.3413143975881238,
                -1.37219358635838,
                2.423008869694462,
                -1.0292650079654149,
                1.2203981591820452,
                -3.0898345998106707
            ]
        }
    ]
}