{
    "goal": {
        "global_pose": {
            "orientation": {
                "w": 0.7047431468963623,
                "x": -0.7094548344612122,
                "y": 0.0024358443915843964,
                "z": -0.0022348060738295317
            },
            "position": {
                "x": 0.6094750761985779,
                "y": 0.3671506643295288,
                "z": 0.19426114857196808
            }
        },
        "name": "move_to_magneteinheit_A"
    },
    "id": "ProjEST_move_to_magneteinheit_A_3",
    "joint_names": [
        "shoulder_pan_joint",
        "shoulder_lift_joint",
        "elbow_joint",
        "wrist_1_joint",
        "wrist_2_joint",
        "wrist_3_joint"
    ],
    "metrics": {
        "cart_traj_len": 3.3940053152953165,
        "distance_elbow_joint": 3.874481204524192,
        "distance_shoulder_lift_joint": 0.36045023249512775,
        "distance_shoulder_pan_joint": 2.6794437865655363,
        "distance_wrist_1_joint": 0.9076663846609984,
        "distance_wrist_2_joint": 1.6936012834936716,
        "distance_wrist_3_joint": 2.6680972718963405,
        "smoothness": 0.09789593640295417,
        "time": 0.121945101,
        "traj_len": 3.4905214744556243,
        "weighted_distance": 4.485666324592503
    },
    "planner": "ProjEST",
    "start": {
        "state": {
            "elbow_joint": -1.919618573717145,
            "shoulder_lift_joint": -1.2443395971678275,
            "shoulder_pan_joint": 2.6996025300909787,
            "wrist_1_joint": -1.548550951253194,
            "wrist_2_joint": -1.5709469090946802,
            "wrist_3_joint": 0.4420197732051276
        }
    },
    "waypoints": [
        {
            "positions": [
                2.6996025300909787,
                -1.2443395971678275,
                -1.919618573717145,
                -1.548550951253194,
                -1.5709469090946802,
                0.4420197732051276
            ]
        },
        {
            "positions": [
                2.5466031256583825,
                -1.2284853309885535,
                -1.8119265856801676,
                -1.5082409603617033,
                -1.4953182952481339,
                0.43905737157718794
            ]
        },
        {
            "positions": [
                2.3936037212257864,
                -1.2126310648092795,
                -1.7042345976431903,
                -1.4679309694702125,
                -1.4196896814015876,
                0.4360949699492483
            ]
        },
        {
            "positions": [
                2.24060431679319,
                -1.1967767986300055,
                -1.596542609606213,
                -1.4276209785787217,
                -1.344061067555041,
                0.43313256832130864
            ]
        },
        {
            "positions": [
                2.087604912360594,
                -1.1809225324507315,
                -1.4888506215692359,
                -1.387310987687231,
                -1.2684324537084948,
                0.43017016669336894
            ]
        },
        {
            "positions": [
                1.9346055079279978,
                -1.1650682662714575,
                -1.3811586335322585,
                -1.3470009967957404,
                -1.1928038398619485,
                0.4272077650654293
            ]
        },
        {
            "positions": [
                1.7816061034954014,
                -1.1492140000921836,
                -1.2734666454952812,
                -1.3066910059042496,
                -1.1171752260154022,
                0.42424536343748964
            ]
        },
        {
            "positions": [
                1.6286066990628052,
                -1.1333597339129096,
                -1.1657746574583039,
                -1.2663810150127588,
                -1.041546612168856,
                0.42128296180955
            ]
        },
        {
            "positions": [
                1.475607294630209,
                -1.1175054677336356,
                -1.0580826694213266,
                -1.226071024121268,
                -0.9659179983223095,
                0.41832056018161035
            ]
        },
        {
            "positions": [
                1.3226078901976128,
                -1.1016512015543616,
                -0.9503906813843493,
                -1.1857610332297772,
                -0.8902893844757632,
                0.4153581585536707
            ]
        },
        {
            "positions": [
                1.1696084857650166,
                -1.0857969353750876,
                -0.8426986933473721,
                -1.1454510423382867,
                -0.8146607706292168,
                0.41239575692573105
            ]
        },
        {
            "positions": [
                1.0166090813324205,
                -1.0699426691958136,
                -0.7350067053103948,
                -1.1051410514467959,
                -0.7390321567826705,
                0.4094333552977914
            ]
        },
        {
            "positions": [
                0.863609676899824,
                -1.0540884030165396,
                -0.6273147172734173,
                -1.064831060555305,
                -0.6634035429361241,
                0.4064709536698517
            ]
        },
        {
            "positions": [
                0.7106102724672279,
                -1.0382341368372656,
                -0.5196227292364402,
                -1.0245210696638143,
                -0.5877749290895777,
                0.40350855204191205
            ]
        },
        {
            "positions": [
                0.5576108680346317,
                -1.0223798706579916,
                -0.4119307411994628,
                -0.9842110787723235,
                -0.5121463152430314,
                0.4005461504139724
            ]
        },
        {
            "positions": [
                0.40461146360203554,
                -1.0065256044787176,
                -0.3042387531624855,
                -0.9439010878808327,
                -0.4365177013964852,
                0.39758374878603275
            ]
        },
        {
            "positions": [
                0.3807639468695098,
                -1.0104277954079028,
                -0.16513368004274542,
                -0.9246273813282345,
                -0.402808932717874,
                0.5583178490948302
            ]
        },
        {
            "positions": [
                0.3569164301369841,
                -1.014329986337088,
                -0.02602860692300535,
                -0.9053536747756362,
                -0.3691001640392627,
                0.7190519494036277
            ]
        },
        {
            "positions": [
                0.33306891340445843,
                -1.0182321772662732,
                0.11307646619673473,
                -0.886079968223038,
                -0.3353913953606515,
                0.8797860497124252
            ]
        },
        {
            "positions": [
                0.3092213966719327,
                -1.0221343681954582,
                0.2521815393164748,
                -0.8668062616704397,
                -0.30168262668204027,
                1.0405201500212227
            ]
        },
        {
            "positions": [
                0.285373879939407,
                -1.0260365591246434,
                0.3912866124362149,
                -0.8475325551178415,
                -0.267973858003429,
                1.2012542503300203
            ]
        },
        {
            "positions": [
                0.2615263632068813,
                -1.0299387500538286,
                0.530391685555955,
                -0.8282588485652433,
                -0.23426508932481774,
                1.3619883506388177
            ]
        },
        {
            "positions": [
                0.23767884647435555,
                -1.0338409409830138,
                0.669496758675695,
                -0.808985142012645,
                -0.2005563206462065,
                1.5227224509476152
            ]
        },
        {
            "positions": [
                0.21383132974182986,
                -1.037743131912199,
                0.8086018317954351,
                -0.7897114354600469,
                -0.16684755196759526,
                1.6834565512564126
            ]
        },
        {
            "positions": [
                0.18998381300930411,
                -1.0416453228413842,
                0.9477069049151752,
                -0.7704377289074485,
                -0.133138783288984,
                1.8441906515652102
            ]
        },
        {
            "positions": [
                0.16613629627677842,
                -1.0455475137705694,
                1.0868119780349152,
                -0.7511640223548504,
                -0.09943001461037276,
                2.0049247518740074
            ]
        },
        {
            "positions": [
                0.14228877954425273,
                -1.0494497046997544,
                1.2259170511546553,
                -0.7318903158022521,
                -0.06572124593176148,
                2.165658852182805
            ]
        },
        {
            "positions": [
                0.11844126281172701,
                -1.0533518956289396,
                1.3650221242743954,
                -0.7126166092496539,
                -0.03201247725315026,
                2.3263929524916023
            ]
        },
        {
            "positions": [
                0.09459374607920129,
                -1.0572540865581248,
                1.5041271973941355,
                -0.6933429026970557,
                0.0016962914254610162,
                2.4871270528004
            ]
        },
        {
            "positions": [
                0.07074622934667557,
                -1.06115627748731,
                1.6432322705138755,
                -0.6740691961444574,
                0.03540506010407221,
                2.6478611531091976
            ]
        },
        {
            "positions": [
                0.08760872462042024,
                -1.0838247997531185,
                1.7471090572782653,
                -0.6851307393285446,
                0.06448816486904507,
                2.7723224341605577
            ]
        },
        {
            "positions": [
                0.10447121989416491,
                -1.106493322018927,
                1.850985844042655,
                -0.6961922825126318,
                0.09357126963401793,
                2.8967837152119182
            ]
        },
        {
            "positions": [
                0.12133371516790958,
                -1.1291618442847355,
                1.9548626308070447,
                -0.707253825696719,
                0.12265437439899081,
                3.0212449962632784
            ]
        }
    ]
}{
    "goal": {
        "global_pose": {
            "orientation": {
                "w": 0.7047431468963623,
                "x": -0.7094548344612122,
                "y": 0.0024358443915843964,
                "z": -0.0022348060738295317
            },
            "position": {
                "x": 0.6094750761985779,
                "y": 0.3671506643295288,
                "z": 0.19426114857196808
            }
        },
        "name": "move_to_magneteinheit_A"
    },
    "id": "ProjEST_move_to_magneteinheit_A_3",
    "joint_names": [
        "shoulder_pan_joint",
        "shoulder_lift_joint",
        "elbow_joint",
        "wrist_1_joint",
        "wrist_2_joint",
        "wrist_3_joint"
    ],
    "metrics": {
        "cart_traj_len": 1.9958942825718962,
        "distance_elbow_joint": 1.1310448844914596,
        "distance_shoulder_lift_joint": 0.9140624925264464,
        "distance_shoulder_pan_joint": 3.5132482743833484,
        "distance_wrist_1_joint": 4.45201803005745,
        "distance_wrist_2_joint": 1.4485078752680671,
        "distance_wrist_3_joint": 4.371730266530291,
        "smoothness": 0.36787185403303685,
        "time": 0.110935163,
        "traj_len": 3.9787701395352135,
        "weighted_distance": 5.520380264224843
    },
    "planner": "ProjEST",
    "start": {
        "state": {
            "elbow_joint": 1.919643534880228,
            "shoulder_lift_joint": -1.8972525353963687,
            "shoulder_pan_joint": -1.1188672234189438,
            "wrist_1_joint": -1.5931878212786155,
            "wrist_2_joint": 1.5706036197970081,
            "wrist_3_joint": 1.118896926603594
        }
    },
    "waypoints": [
        {
            "positions": [
                -1.1188672234189438,
                -1.8972525353963687,
                1.919643534880228,
                -1.5931878212786155,
                1.5706036197970081,
                1.118896926603594
            ]
        },
        {
            "positions": [
                -1.1786707438907957,
                -1.9011479103658875,
                1.8908360243653282,
                -1.4530181869943668,
                1.5111411072733716,
                1.0334357759470019
            ]
        },
        {
            "positions": [
                -1.2384742643626476,
                -1.9050432853354062,
                1.8620285138504282,
                -1.3128485527101184,
                1.451678594749735,
                0.9479746252904098
            ]
        },
        {
            "positions": [
                -1.2982777848344995,
                -1.908938660304925,
                1.833221003335528,
                -1.1726789184258697,
                1.3922160822260985,
                0.8625134746338177
            ]
        },
        {
            "positions": [
                -1.3580813053063516,
                -1.9128340352744437,
                1.8044134928206281,
                -1.032509284141621,
                1.332753569702462,
                0.7770523239772256
            ]
        },
        {
            "positions": [
                -1.4178848257782035,
                -1.9167294102439627,
                1.7756059823057282,
                -0.8923396498573726,
                1.2732910571788254,
                0.6915911733206335
            ]
        },
        {
            "positions": [
                -1.4776883462500554,
                -1.9206247852134815,
                1.7467984717908283,
                -0.752170015573124,
                1.2138285446551889,
                0.6061300226640414
            ]
        },
        {
            "positions": [
                -1.5374918667219073,
                -1.9245201601830002,
                1.7179909612759283,
                -0.6120003812888755,
                1.1543660321315523,
                0.5206688720074493
            ]
        },
        {
            "positions": [
                -1.5972953871937592,
                -1.928415535152519,
                1.6891834507610282,
                -0.4718307470046268,
                1.0949035196079158,
                0.43520772135085717
            ]
        },
        {
            "positions": [
                -1.657098907665611,
                -1.9323109101220377,
                1.6603759402461282,
                -0.33166111272037835,
                1.035441007084279,
                0.34974657069426507
            ]
        },
        {
            "positions": [
                -1.716902428137463,
                -1.9362062850915565,
                1.6315684297312283,
                -0.19149147843612968,
                0.9759784945606426,
                0.26428542003767297
            ]
        },
        {
            "positions": [
                -1.776705948609315,
                -1.9401016600610752,
                1.6027609192163284,
                -0.05132184415188101,
                0.916515982037006,
                0.17882426938108087
            ]
        },
        {
            "positions": [
                -1.8365094690811667,
                -1.943997035030594,
                1.5739534087014282,
                0.08884779013236743,
                0.8570534695133695,
                0.09336311872448877
            ]
        },
        {
            "positions": [
                -1.8963129895530189,
                -1.9478924100001127,
                1.5451458981865283,
                0.2290174244166161,
                0.7975909569897328,
                0.00790196806789667
            ]
        },
        {
            "positions": [
                -1.9561165100248707,
                -1.9517877849696315,
                1.5163383876716283,
                0.36918705870086455,
                0.7381284444660964,
                -0.07755918258869543
            ]
        },
        {
            "positions": [
                -2.015920030496723,
                -1.9556831599391504,
                1.4875308771567284,
                0.5093566929851134,
                0.6786659319424597,
                -0.16302033324528753
            ]
        },
        {
            "positions": [
                -2.0757235509685747,
                -1.9595785349086692,
                1.4587233666418284,
                0.6495263272693619,
                0.6192034194188233,
                -0.24848148390187963
            ]
        },
        {
            "positions": [
                -2.1355270714404266,
                -1.963473909878188,
                1.4299158561269283,
                0.7896959615536103,
                0.5597409068951866,
                -0.33394263455847173
            ]
        },
        {
            "positions": [
                -2.1953305919122785,
                -1.9673692848477067,
                1.4011083456120286,
                0.9298655958378588,
                0.5002783943715501,
                -0.41940378521506383
            ]
        },
        {
            "positions": [
                -2.2551341123841304,
                -1.9712646598172254,
                1.3723008350971284,
                1.0700352301221074,
                0.44081588184791354,
                -0.5048649358716559
            ]
        },
        {
            "positions": [
                -2.1470895039560323,
                -1.9330805521760623,
                1.398832752583872,
                0.9887263674558926,
                0.4263286028788694,
                -0.6297725906014304
            ]
        },
        {
            "positions": [
                -2.0390448955279337,
                -1.894896444534899,
                1.4253646700706157,
                0.9074175047896776,
                0.41184132390982525,
                -0.7546802453312049
            ]
        },
        {
            "positions": [
                -1.9310002870998355,
                -1.856712336893736,
                1.4518965875573593,
                0.8261086421234628,
                0.39735404494078114,
                -0.8795879000609794
            ]
        },
        {
            "positions": [
                -1.8229556786717374,
                -1.8185282292525726,
                1.4784285050441028,
                0.7447997794572478,
                0.38286676597173697,
                -1.0044955547907541
            ]
        },
        {
            "positions": [
                -1.7149110702436392,
                -1.7803441216114095,
                1.5049604225308466,
                0.663490916791033,
                0.36837948700269285,
                -1.1294032095205284
            ]
        },
        {
            "positions": [
                -1.6068664618155408,
                -1.7421600139702464,
                1.5314923400175902,
                0.5821820541248182,
                0.35389220803364874,
                -1.2543108642503031
            ]
        },
        {
            "positions": [
                -1.4988218533874424,
                -1.7039759063290831,
                1.558024257504334,
                0.5008731914586033,
                0.33940492906460457,
                -1.3792185189800774
            ]
        },
        {
            "positions": [
                -1.3907772449593443,
                -1.66579179868792,
                1.5845561749910775,
                0.41956432879238836,
                0.32491765009556045,
                -1.5041261737098521
            ]
        },
        {
            "positions": [
                -1.282732636531246,
                -1.627607691046757,
                1.611088092477821,
                0.3382554661261734,
                0.3104303711265163,
                -1.6290338284396266
            ]
        },
        {
            "positions": [
                -1.1746880281031478,
                -1.5894235834055936,
                1.6376200099645648,
                0.2569466034599587,
                0.29594309215747217,
                -1.7539414831694011
            ]
        },
        {
            "positions": [
                -1.0666434196750494,
                -1.5512394757644306,
                1.6641519274513084,
                0.17563774079374372,
                0.28145581318842805,
                -1.8788491378991756
            ]
        },
        {
            "positions": [
                -0.9585988112469512,
                -1.5130553681232675,
                1.690683844938052,
                0.09432887812752888,
                0.26696853421938394,
                -2.00375679262895
            ]
        },
        {
            "positions": [
                -0.8505542028188529,
                -1.4748712604821042,
                1.7172157624247957,
                0.013020015461313816,
                0.2524812552503397,
                -2.128664447358725
            ]
        },
        {
            "positions": [
                -0.7425095943907545,
                -1.436687152840941,
                1.7437476799115392,
                -0.0682888472049008,
                0.23799397628129562,
                -2.253572102088499
            ]
        },
        {
            "positions": [
                -0.6344649859626563,
                -1.398503045199778,
                1.7702795973982828,
                -0.14959770987111565,
                0.22350669731225148,
                -2.3784797568182734
            ]
        },
        {
            "positions": [
                -0.526420377534558,
                -1.3603189375586147,
                1.7968115148850266,
                -0.2309065725373307,
                0.20901941834320734,
                -2.503387411548048
            ]
        },
        {
            "positions": [
                -0.4183757691064598,
                -1.3221348299174516,
                1.82334343237177,
                -0.31221543520354555,
                0.1945321393741632,
                -2.628295066277823
            ]
        },
        {
            "positions": [
                -0.3103311606783614,
                -1.2839507222762885,
                1.8498753498585139,
                -0.3935242978697606,
                0.18004486040511902,
                -2.7532027210075976
            ]
        },
        {
            "positions": [
                -0.20228655225026326,
                -1.2457666146351252,
                1.8764072673452574,
                -0.47483316053597546,
                0.1655575814360749,
                -2.8781103757373714
            ]
        },
        {
            "positions": [
                -0.09424194382216511,
                -1.207582506993962,
                1.902939184832001,
                -0.5561420232021901,
                0.1510703024670308,
                -3.003018030467146
            ]
        },
        {
            "positions": [
                0.01380266460593349,
                -1.1693983993527988,
                1.9294711023187445,
                -0.6374508858684051,
                0.13658302349798662,
                -3.127925685196921
            ]
        },
        {
            "positions": [
                0.1218472730340315,
                -1.1312142917116357,
                1.9560030198054883,
                -0.71875974853462,
                0.1220957445289425,
                -3.252833339926695
            ]
        }
    ]
}