{
    "goal": {
        "global_pose": {
            "orientation": {
                "w": 0.7047431468963623,
                "x": -0.7094548344612122,
                "y": 0.0024358443915843964,
                "z": -0.0022348060738295317
            },
            "position": {
                "x": 0.6094750761985779,
                "y": 0.3671506643295288,
                "z": 0.19426114857196808
            }
        },
        "name": "move_to_magneteinheit_A"
    },
    "id": "ProjEST_move_to_magneteinheit_A_18",
    "joint_names": [
        "shoulder_pan_joint",
        "shoulder_lift_joint",
        "elbow_joint",
        "wrist_1_joint",
        "wrist_2_joint",
        "wrist_3_joint"
    ],
    "metrics": {
        "cart_traj_len": 3.2450152209268466,
        "distance_elbow_joint": 3.9038569549719133,
        "distance_shoulder_lift_joint": 0.41448689670357086,
        "distance_shoulder_pan_joint": 2.6780851022884424,
        "distance_wrist_1_joint": 0.7110697188937026,
        "distance_wrist_2_joint": 1.7011406175777117,
        "distance_wrist_3_joint": 3.576642497251335,
        "smoothness": 0.05381351185712837,
        "time": 0.13999031099999998,
        "traj_len": 3.6035096486185063,
        "weighted_distance": 4.748765852162093
    },
    "planner": "ProjEST",
    "start": {
        "state": {
            "elbow_joint": -1.919618573717145,
            "shoulder_lift_joint": -1.2443395971678275,
            "shoulder_pan_joint": 2.6996025300909787,
            "wrist_1_joint": -1.548550951253194,
            "wrist_2_joint": -1.5709469090946802,
            "wrist_3_joint": 0.4420197732051276
        }
    },
    "waypoints": [
        {
            "positions": [
                2.6996025300909787,
                -1.2443395971678275,
                -1.919618573717145,
                -1.548550951253194,
                -1.5709469090946802,
                0.4420197732051276
            ]
        },
        {
            "positions": [
                2.603769204311316,
                -1.2504001644777125,
                -1.8015186633238882,
                -1.534616163624277,
                -1.5424174772953847,
                0.32146633935846053
            ]
        },
        {
            "positions": [
                2.507935878531653,
                -1.2564607317875975,
                -1.6834187529306315,
                -1.52068137599536,
                -1.5138880454960892,
                0.20091290551179347
            ]
        },
        {
            "positions": [
                2.41210255275199,
                -1.2625212990974828,
                -1.5653188425373745,
                -1.506746588366443,
                -1.4853586136967938,
                0.08035947166512641
            ]
        },
        {
            "positions": [
                2.3162692269723273,
                -1.2685818664073678,
                -1.4472189321441178,
                -1.492811800737526,
                -1.4568291818974983,
                -0.04019396218154064
            ]
        },
        {
            "positions": [
                2.2204359011926647,
                -1.2746424337172528,
                -1.329119021750861,
                -1.4788770131086089,
                -1.428299750098203,
                -0.1607473960282077
            ]
        },
        {
            "positions": [
                2.1246025754130016,
                -1.2807030010271379,
                -1.2110191113576043,
                -1.4649422254796918,
                -1.3997703182989074,
                -0.28130082987487476
            ]
        },
        {
            "positions": [
                2.0287692496333385,
                -1.2867635683370229,
                -1.0929192009643476,
                -1.451007437850775,
                -1.3712408864996122,
                -0.4018542637215417
            ]
        },
        {
            "positions": [
                1.9329359238536759,
                -1.2928241356469081,
                -0.9748192905710907,
                -1.4370726502218578,
                -1.3427114547003167,
                -0.5224076975682088
            ]
        },
        {
            "positions": [
                1.837102598074013,
                -1.2988847029567931,
                -0.8567193801778341,
                -1.4231378625929407,
                -1.3141820229010213,
                -0.6429611314148758
            ]
        },
        {
            "positions": [
                1.7412692722943501,
                -1.3049452702666782,
                -0.7386194697845772,
                -1.4092030749640236,
                -1.2856525911017258,
                -0.7635145652615429
            ]
        },
        {
            "positions": [
                1.6454359465146873,
                -1.3110058375765632,
                -0.6205195593913204,
                -1.3952682873351065,
                -1.2571231593024303,
                -0.8840679991082099
            ]
        },
        {
            "positions": [
                1.5496026207350244,
                -1.3170664048864482,
                -0.5024196489980637,
                -1.3813334997061897,
                -1.228593727503135,
                -1.004621432954877
            ]
        },
        {
            "positions": [
                1.4537692949553616,
                -1.3231269721963335,
                -0.38431973860480695,
                -1.3673987120772726,
                -1.2000642957038394,
                -1.125174866801544
            ]
        },
        {
            "positions": [
                1.3579359691756987,
                -1.3291875395062185,
                -0.2662198282115502,
                -1.3534639244483555,
                -1.1715348639045442,
                -1.245728300648211
            ]
        },
        {
            "positions": [
                1.262102643396036,
                -1.3352481068161035,
                -0.14811991781829348,
                -1.3395291368194386,
                -1.1430054321052485,
                -1.3662817344948779
            ]
        },
        {
            "positions": [
                1.166269317616373,
                -1.3413086741259885,
                -0.03002000742503652,
                -1.3255943491905215,
                -1.1144760003059533,
                -1.4868351683415453
            ]
        },
        {
            "positions": [
                1.0704359918367101,
                -1.3473692414358736,
                0.08807990296821999,
                -1.3116595615616045,
                -1.0859465685066576,
                -1.607388602188212
            ]
        },
        {
            "positions": [
                0.9746026660570473,
                -1.3534298087457586,
                0.20617981336147673,
                -1.2977247739326874,
                -1.0574171367073624,
                -1.7279420360348792
            ]
        },
        {
            "positions": [
                0.8787693402773844,
                -1.3594903760556438,
                0.32427972375473346,
                -1.2837899863037703,
                -1.028887704908067,
                -1.8484954698815463
            ]
        },
        {
            "positions": [
                0.7829360144977215,
                -1.3655509433655288,
                0.44237963414799064,
                -1.2698551986748532,
                -1.0003582731087715,
                -1.9690489037282135
            ]
        },
        {
            "positions": [
                0.6871026887180585,
                -1.3716115106754139,
                0.5604795445412474,
                -1.2559204110459363,
                -0.971828841309476,
                -2.0896023375748802
            ]
        },
        {
            "positions": [
                0.5912693629383958,
                -1.377672077985299,
                0.6785794549345041,
                -1.2419856234170192,
                -0.9432994095101805,
                -2.2101557714215474
            ]
        },
        {
            "positions": [
                0.4954360371587332,
                -1.383732645295184,
                0.7966793653277608,
                -1.2280508357881021,
                -0.9147699777108852,
                -2.3307092052682146
            ]
        },
        {
            "positions": [
                0.3996027113790701,
                -1.3897932126050692,
                0.9147792757210176,
                -1.2141160481591853,
                -0.8862405459115896,
                -2.4512626391148817
            ]
        },
        {
            "positions": [
                0.303769385599407,
                -1.3958537799149542,
                1.0328791861142743,
                -1.2001812605302682,
                -0.8577111141122943,
                -2.5718160729615485
            ]
        },
        {
            "positions": [
                0.20793605981974445,
                -1.4019143472248392,
                1.1509790965075308,
                -1.186246472901351,
                -0.8291816823129988,
                -2.6923695068082156
            ]
        },
        {
            "positions": [
                0.17842562715473606,
                -1.3817426867561229,
                1.2566033122530558,
                -1.1424194214785384,
                -0.7198458497709789,
                -2.7755461791452993
            ]
        },
        {
            "positions": [
                0.14891519448972768,
                -1.3615710262874068,
                1.362227527998581,
                -1.0985923700557259,
                -0.6105100172289589,
                -2.858722851482383
            ]
        },
        {
            "positions": [
                0.11940476182471929,
                -1.3413993658186905,
                1.4678517437441059,
                -1.0547653186329131,
                -0.501174184686939,
                -2.9418995238194667
            ]
        },
        {
            "positions": [
                0.10355897297186517,
                -1.3146536238132622,
                1.5686141548181567,
                -1.0045446672718117,
                -0.3820648172101888,
                -3.0022587417803184
            ]
        },
        {
            "positions": [
                0.08771318411901104,
                -1.2879078818078342,
                1.6693765658922073,
                -0.9543240159107101,
                -0.2629554497334386,
                -3.06261795974117
            ]
        },
        {
            "positions": [
                0.0718673952661569,
                -1.261162139802406,
                1.770138976966258,
                -0.9041033645496086,
                -0.1438460822566884,
                -3.1229771777020217
            ]
        },
        {
            "positions": [
                0.0970423789979671,
                -1.203082170190343,
                1.8771886791105128,
                -0.87079229845455,
                -0.006826186886828678,
                -3.1287999508741144
            ]
        },
        {
            "positions": [
                0.12221736272977729,
                -1.14500220057828,
                1.9842383812547675,
                -0.8374812323594915,
                0.13019370848303105,
                -3.1346227240462072
            ]
        }
    ]
}{
    "goal": {
        "global_pose": {
            "orientation": {
                "w": 0.7047431468963623,
                "x": -0.7094548344612122,
                "y": 0.0024358443915843964,
                "z": -0.0022348060738295317
            },
            "position": {
                "x": 0.6094750761985779,
                "y": 0.3671506643295288,
                "z": 0.19426114857196808
            }
        },
        "name": "move_to_magneteinheit_A"
    },
    "id": "ProjEST_move_to_magneteinheit_A_18",
    "joint_names": [
        "shoulder_pan_joint",
        "shoulder_lift_joint",
        "elbow_joint",
        "wrist_1_joint",
        "wrist_2_joint",
        "wrist_3_joint"
    ],
    "metrics": {
        "cart_traj_len": 2.090601184281207,
        "distance_elbow_joint": 3.530264931322982,
        "distance_shoulder_lift_joint": 1.0018402839828375,
        "distance_shoulder_pan_joint": 1.2426069681166951,
        "distance_wrist_1_joint": 0.7290016946796822,
        "distance_wrist_2_joint": 1.4711736844332972,
        "distance_wrist_3_joint": 4.235537393549179,
        "smoothness": 0.3142192534812464,
        "time": 0.185039087,
        "traj_len": 3.494341848772766,
        "weighted_distance": 4.783479394990223
    },
    "planner": "ProjEST",
    "start": {
        "state": {
            "elbow_joint": 1.919643534880228,
            "shoulder_lift_joint": -1.8972525353963687,
            "shoulder_pan_joint": -1.1188672234189438,
            "wrist_1_joint": -1.5931878212786155,
            "wrist_2_joint": 1.5706036197970081,
            "wrist_3_joint": 1.118896926603594
        }
    },
    "waypoints": [
        {
            "positions": [
                -1.1188672234189438,
                -1.8972525353963687,
                1.919643534880228,
                -1.5931878212786155,
                1.5706036197970081,
                1.118896926603594
            ]
        },
        {
            "positions": [
                -1.1090104715863116,
                -1.8425363909220458,
                1.811480838444224,
                -1.5901722728857428,
                1.4796870759386829,
                0.9998463001597004
            ]
        },
        {
            "positions": [
                -1.0991537197536796,
                -1.7878202464477226,
                1.7033181420082197,
                -1.5871567244928702,
                1.3887705320803574,
                0.8807956737158069
            ]
        },
        {
            "positions": [
                -1.0892969679210474,
                -1.7331041019733995,
                1.5951554455722157,
                -1.5841411760999975,
                1.2978539882220321,
                0.7617450472719133
            ]
        },
        {
            "positions": [
                -1.0794402160884151,
                -1.6783879574990765,
                1.4869927491362116,
                -1.5811256277071248,
                1.2069374443637069,
                0.6426944208280198
            ]
        },
        {
            "positions": [
                -1.0695834642557829,
                -1.6236718130247536,
                1.3788300527002075,
                -1.5781100793142522,
                1.1160209005053816,
                0.5236437943841262
            ]
        },
        {
            "positions": [
                -1.0597267124231509,
                -1.5689556685504304,
                1.2706673562642032,
                -1.5750945309213795,
                1.0251043566470561,
                0.4045931679402326
            ]
        },
        {
            "positions": [
                -1.0498699605905186,
                -1.5142395240761073,
                1.1625046598281992,
                -1.5720789825285069,
                0.9341878127887309,
                0.28554254149633906
            ]
        },
        {
            "positions": [
                -1.0400132087578864,
                -1.4595233796017844,
                1.0543419633921949,
                -1.569063434135634,
                0.8432712689304055,
                0.16649191505244554
            ]
        },
        {
            "positions": [
                -1.0301564569252544,
                -1.4048072351274614,
                0.9461792669561908,
                -1.5660478857427613,
                0.7523547250720801,
                0.04744128860855201
            ]
        },
        {
            "positions": [
                -1.0202997050926221,
                -1.3500910906531383,
                0.8380165705201867,
                -1.5630323373498887,
                0.6614381812137549,
                -0.07160933783534151
            ]
        },
        {
            "positions": [
                -1.01044295325999,
                -1.295374946178815,
                0.7298538740841827,
                -1.560016788957016,
                0.5705216373554296,
                -0.19065996427923504
            ]
        },
        {
            "positions": [
                -1.0005862014273577,
                -1.2406588017044922,
                0.6216911776481784,
                -1.5570012405641434,
                0.4796050934971041,
                -0.3097105907231288
            ]
        },
        {
            "positions": [
                -0.9907294495947255,
                -1.1859426572301692,
                0.5135284812121743,
                -1.5539856921712707,
                0.38868854963877886,
                -0.4287612171670223
            ]
        },
        {
            "positions": [
                -0.9808726977620934,
                -1.131226512755846,
                0.40536578477617025,
                -1.550970143778398,
                0.2977720057804536,
                -0.5478118436109158
            ]
        },
        {
            "positions": [
                -0.9710159459294612,
                -1.076510368281523,
                0.29720308834016596,
                -1.5479545953855254,
                0.20685546192212811,
                -0.6668624700548094
            ]
        },
        {
            "positions": [
                -0.961159194096829,
                -1.0217942238072,
                0.1890403919041618,
                -1.5449390469926527,
                0.11593891806380283,
                -0.7859130964987029
            ]
        },
        {
            "positions": [
                -0.8933530104221677,
                -1.0296930970818043,
                0.3015192536758441,
                -1.5023919894680453,
                0.11697072948255863,
                -0.9315835571516331
            ]
        },
        {
            "positions": [
                -0.8255468267475065,
                -1.0375919703564085,
                0.4139981154475263,
                -1.459844931943438,
                0.11800254090131443,
                -1.0772540178045633
            ]
        },
        {
            "positions": [
                -0.7577406430728453,
                -1.0454908436310129,
                0.5264769772192086,
                -1.4172978744188303,
                0.11903435232007023,
                -1.2229244784574935
            ]
        },
        {
            "positions": [
                -0.689934459398184,
                -1.0533897169056172,
                0.6389558389908908,
                -1.3747508168942228,
                0.12006616373882603,
                -1.3685949391104237
            ]
        },
        {
            "positions": [
                -0.6221282757235227,
                -1.0612885901802214,
                0.7514347007625731,
                -1.3322037593696154,
                0.12109797515758182,
                -1.514265399763354
            ]
        },
        {
            "positions": [
                -0.5543220920488614,
                -1.0691874634548257,
                0.8639135625342553,
                -1.2896567018450078,
                0.12212978657633762,
                -1.6599358604162842
            ]
        },
        {
            "positions": [
                -0.4865159083742001,
                -1.07708633672943,
                0.9763924243059375,
                -1.2471096443204004,
                0.12316159799509342,
                -1.8056063210692144
            ]
        },
        {
            "positions": [
                -0.4187097246995388,
                -1.0849852100040343,
                1.08887128607762,
                -1.204562586795793,
                0.12419340941384922,
                -1.9512767817221446
            ]
        },
        {
            "positions": [
                -0.35090354102487753,
                -1.0928840832786386,
                1.2013501478493023,
                -1.1620155292711856,
                0.125225220832605,
                -2.096947242375075
            ]
        },
        {
            "positions": [
                -0.28309735735021624,
                -1.100782956553243,
                1.3138290096209846,
                -1.1194684717465782,
                0.1262570322513608,
                -2.242617703028005
            ]
        },
        {
            "positions": [
                -0.21529117367555495,
                -1.1086818298278474,
                1.4263078713926667,
                -1.0769214142219705,
                0.1272888436701166,
                -2.388288163680935
            ]
        },
        {
            "positions": [
                -0.14748499000089377,
                -1.1165807031024515,
                1.538786733164349,
                -1.034374356697363,
                0.12832065508887242,
                -2.5339586243338657
            ]
        },
        {
            "positions": [
                -0.07967880632623248,
                -1.1244795763770559,
                1.6512655949360313,
                -0.9918272991727557,
                0.12935246650762822,
                -2.6796290849867956
            ]
        },
        {
            "positions": [
                -0.011872622651571185,
                -1.1323784496516602,
                1.7637444567077134,
                -0.9492802416481482,
                0.13038427792638402,
                -2.8252995456397256
            ]
        },
        {
            "positions": [
                0.055933561023090106,
                -1.1402773229262644,
                1.8762233184793957,
                -0.9067331841235406,
                0.13141608934513982,
                -2.9709700062926565
            ]
        },
        {
            "positions": [
                0.12373974469775145,
                -1.1481761962008687,
                1.988702180251078,
                -0.8641861265989332,
                0.13244790076389562,
                -3.1166404669455865
            ]
        }
    ]
}