{
    "goal": {
        "global_pose": {
            "orientation": {
                "w": 0.7047431468963623,
                "x": -0.7094548344612122,
                "y": 0.0024358443915843964,
                "z": -0.0022348060738295317
            },
            "position": {
                "x": 0.6094750761985779,
                "y": 0.3671506643295288,
                "z": 0.19426114857196808
            }
        },
        "name": "move_to_magneteinheit_A"
    },
    "id": "ProjEST_move_to_magneteinheit_A_102",
    "joint_names": [
        "shoulder_pan_joint",
        "shoulder_lift_joint",
        "elbow_joint",
        "wrist_1_joint",
        "wrist_2_joint",
        "wrist_3_joint"
    ],
    "metrics": {
        "cart_traj_len": 3.8061031883213965,
        "distance_elbow_joint": 3.952951062693711,
        "distance_shoulder_lift_joint": 0.5704341919562232,
        "distance_shoulder_pan_joint": 3.523628161883137,
        "distance_wrist_1_joint": 2.304162814874397,
        "distance_wrist_2_joint": 3.1854274916110348,
        "distance_wrist_3_joint": 2.6356730492943115,
        "smoothness": 0.4904509237855933,
        "time": 0.162047847,
        "traj_len": 4.021476939174564,
        "weighted_distance": 5.189721878616123
    },
    "planner": "ProjEST",
    "start": {
        "state": {
            "elbow_joint": -1.919618573717145,
            "shoulder_lift_joint": -1.2443395971678275,
            "shoulder_pan_joint": 2.6996025300909787,
            "wrist_1_joint": -1.548550951253194,
            "wrist_2_joint": -1.5709469090946802,
            "wrist_3_joint": 0.4420197732051276
        }
    },
    "waypoints": [
        {
            "positions": [
                2.6996025300909787,
                -1.2443395971678275,
                -1.919618573717145,
                -1.548550951253194,
                -1.5709469090946802,
                0.4420197732051276
            ]
        },
        {
            "positions": [
                2.6014659625542946,
                -1.254464136747644,
                -1.818086463211388,
                -1.5013544598583852,
                -1.468120569683717,
                0.47056772320989193
            ]
        },
        {
            "positions": [
                2.5033293950176105,
                -1.2645886763274603,
                -1.7165543527056308,
                -1.4541579684635764,
                -1.3652942302727538,
                0.4991156732146562
            ]
        },
        {
            "positions": [
                2.405192827480927,
                -1.274713215907277,
                -1.615022242199874,
                -1.4069614770687675,
                -1.2624678908617908,
                0.5276636232194205
            ]
        },
        {
            "positions": [
                2.307056259944243,
                -1.2848377554870933,
                -1.513490131694117,
                -1.3597649856739589,
                -1.1596415514508276,
                0.5562115732241849
            ]
        },
        {
            "positions": [
                2.2089196924075587,
                -1.2949622950669097,
                -1.4119580211883598,
                -1.31256849427915,
                -1.0568152120398646,
                0.5847595232289492
            ]
        },
        {
            "positions": [
                2.1107831248708746,
                -1.3050868346467261,
                -1.310425910682603,
                -1.2653720028843412,
                -0.9539888726289013,
                0.6133074732337136
            ]
        },
        {
            "positions": [
                2.0126465573341905,
                -1.3152113742265426,
                -1.208893800176846,
                -1.2181755114895323,
                -0.8511625332179381,
                0.6418554232384779
            ]
        },
        {
            "positions": [
                1.9145099897975066,
                -1.325335913806359,
                -1.1073616896710887,
                -1.1709790200947237,
                -0.748336193806975,
                0.6704033732432422
            ]
        },
        {
            "positions": [
                1.8163734222608225,
                -1.3354604533861756,
                -1.0058295791653318,
                -1.1237825286999148,
                -0.6455098543960118,
                0.6989513232480065
            ]
        },
        {
            "positions": [
                1.7182368547241387,
                -1.345584992965992,
                -0.9042974686595748,
                -1.076586037305106,
                -0.5426835149850489,
                0.7274992732527709
            ]
        },
        {
            "positions": [
                1.6201002871874546,
                -1.3557095325458084,
                -0.8027653581538177,
                -1.029389545910297,
                -0.43985717557408566,
                0.7560472232575353
            ]
        },
        {
            "positions": [
                1.5219637196507705,
                -1.3658340721256248,
                -0.7012332476480609,
                -0.9821930545154882,
                -0.33703083616312246,
                0.7845951732622996
            ]
        },
        {
            "positions": [
                1.4238271521140866,
                -1.3759586117054412,
                -0.599701137142304,
                -0.9349965631206795,
                -0.23420449675215949,
                0.8131431232670638
            ]
        },
        {
            "positions": [
                1.3256905845774023,
                -1.3860831512852578,
                -0.4981690266365466,
                -0.8878000717258705,
                -0.13137815734119607,
                0.8416910732718281
            ]
        },
        {
            "positions": [
                1.2275540170407184,
                -1.3962076908650742,
                -0.39663691613078966,
                -0.8406035803310618,
                -0.028551817930233092,
                0.8702390232765925
            ]
        },
        {
            "positions": [
                1.1294174495040346,
                -1.4063322304448906,
                -0.2951048056250327,
                -0.793407088936253,
                0.0742745214807301,
                0.8987869732813568
            ]
        },
        {
            "positions": [
                1.0312808819673505,
                -1.416456770024707,
                -0.19357269511927577,
                -0.7462105975414441,
                0.17710086089169308,
                0.9273349232861211
            ]
        },
        {
            "positions": [
                0.9331443144306664,
                -1.4265813096045235,
                -0.0920405846135186,
                -0.6990141061466353,
                0.2799272003026565,
                0.9558828732908855
            ]
        },
        {
            "positions": [
                0.8350077468939825,
                -1.4367058491843399,
                0.00949152589223834,
                -0.6518176147518265,
                0.3827535397136195,
                0.9844308232956498
            ]
        },
        {
            "positions": [
                0.7368711793572984,
                -1.4468303887641563,
                0.11102363639799528,
                -0.6046211233570177,
                0.48557987912458245,
                1.012978773300414
            ]
        },
        {
            "positions": [
                0.6387346118206145,
                -1.4569549283439729,
                0.212555746903752,
                -0.5574246319622089,
                0.5884062185355456,
                1.0415267233051784
            ]
        },
        {
            "positions": [
                0.5405980442839304,
                -1.4670794679237893,
                0.3140878574095096,
                -0.5102281405674001,
                0.6912325579465088,
                1.0700746733099429
            ]
        },
        {
            "positions": [
                0.44246147674724623,
                -1.4772040075036057,
                0.41561996791526656,
                -0.46303164917259115,
                0.7940588973574719,
                1.0986226233147072
            ]
        },
        {
            "positions": [
                0.392875741118621,
                -1.4580950933806127,
                0.5148027840402535,
                -0.5109072710933992,
                0.7477123681687067,
                1.2093105793400625
            ]
        },
        {
            "positions": [
                0.3432900054899958,
                -1.43898617925762,
                0.6139856001652404,
                -0.5587828930142071,
                0.7013658389799415,
                1.319998535365418
            ]
        },
        {
            "positions": [
                0.29370426986137055,
                -1.419877265134627,
                0.7131684162902274,
                -0.6066585149350151,
                0.6550193097911763,
                1.4306864913907735
            ]
        },
        {
            "positions": [
                0.24411853423274535,
                -1.400768351011634,
                0.8123512324152143,
                -0.6545341368558231,
                0.608672780602411,
                1.5413744474161288
            ]
        },
        {
            "positions": [
                0.19453279860412012,
                -1.3816594368886412,
                0.9115340485402013,
                -0.7024097587766311,
                0.5623262514136459,
                1.6520624034414841
            ]
        },
        {
            "positions": [
                0.14494706297549492,
                -1.3625505227656483,
                1.0107168646651883,
                -0.7502853806974391,
                0.5159797222248806,
                1.7627503594668397
            ]
        },
        {
            "positions": [
                0.0953613273468697,
                -1.3434416086426553,
                1.1098996807901753,
                -0.7981610026182471,
                0.46963319303611545,
                1.8734383154921952
            ]
        },
        {
            "positions": [
                0.04577559171824447,
                -1.3243326945196623,
                1.2090824969151621,
                -0.8460366245390551,
                0.42328666384735025,
                1.9841262715175505
            ]
        },
        {
            "positions": [
                -0.003810143910380759,
                -1.3052237803966695,
                1.308265313040149,
                -0.893912246459863,
                0.37694013465858506,
                2.094814227542906
            ]
        },
        {
            "positions": [
                -0.053395879539005986,
                -1.2861148662736765,
                1.407448129165136,
                -0.9417878683806711,
                0.33059360546981986,
                2.205502183568261
            ]
        },
        {
            "positions": [
                -0.10298161516763116,
                -1.2670059521506838,
                1.506630945290123,
                -0.9896634903014792,
                0.2842470762810546,
                2.316190139593617
            ]
        },
        {
            "positions": [
                -0.15256735079625638,
                -1.2478970380276908,
                1.60581376141511,
                -1.037539112222287,
                0.23790054709228936,
                2.426878095618972
            ]
        },
        {
            "positions": [
                -0.2021530864248816,
                -1.2287881239046978,
                1.7049965775400968,
                -1.085414734143095,
                0.19155401790352422,
                2.5375660516443275
            ]
        },
        {
            "positions": [
                -0.25173882205350684,
                -1.2096792097817048,
                1.8041793936650838,
                -1.1332903560639032,
                0.14520748871475897,
                2.648254007669683
            ]
        },
        {
            "positions": [
                -0.30132455768213207,
                -1.190570295658712,
                1.9033622097900706,
                -1.181165977984711,
                0.09886095952599383,
                2.7589419636950385
            ]
        },
        {
            "positions": [
                -0.3509102933107573,
                -1.171461381535719,
                2.0025450259150577,
                -1.229041599905519,
                0.052514430337228524,
                2.869629919720394
            ]
        },
        {
            "positions": [
                -0.23263145869040647,
                -1.1635045926225795,
                1.9948481601496808,
                -1.1158832093903028,
                0.07223373487188857,
                2.921645645415155
            ]
        },
        {
            "positions": [
                -0.11435262407005564,
                -1.1555478037094398,
                1.987151294384304,
                -1.0027248188750866,
                0.09195303940654861,
                2.9736613711099165
            ]
        },
        {
            "positions": [
                0.003926210550295184,
                -1.1475910147963002,
                1.9794544286189273,
                -0.8895664283598702,
                0.11167234394120866,
                3.025677096804678
            ]
        },
        {
            "positions": [
                0.12220504517064598,
                -1.1396342258831607,
                1.9717575628535504,
                -0.776408037844654,
                0.1313916484758687,
                3.077692822499439
            ]
        }
    ]
}{
    "goal": {
        "global_pose": {
            "orientation": {
                "w": 0.7047431468963623,
                "x": -0.7094548344612122,
                "y": 0.0024358443915843964,
                "z": -0.0022348060738295317
            },
            "position": {
                "x": 0.6094750761985779,
                "y": 0.3671506643295288,
                "z": 0.19426114857196808
            }
        },
        "name": "move_to_magneteinheit_A"
    },
    "id": "ProjEST_move_to_magneteinheit_A_102",
    "joint_names": [
        "shoulder_pan_joint",
        "shoulder_lift_joint",
        "elbow_joint",
        "wrist_1_joint",
        "wrist_2_joint",
        "wrist_3_joint"
    ],
    "metrics": {
        "cart_traj_len": 1.19983934384159,
        "distance_elbow_joint": 0.062101730630750085,
        "distance_shoulder_lift_joint": 0.7533278608078626,
        "distance_shoulder_pan_joint": 1.2422702909906314,
        "distance_wrist_1_joint": 0.7562390880162236,
        "distance_wrist_2_joint": 1.4448995563158376,
        "distance_wrist_3_joint": 2.012331229613049,
        "smoothness": 2.0898315923129273e-16,
        "time": 0.104543057,
        "traj_len": 2.5042303720653085,
        "weighted_distance": 3.5351054948802467
    },
    "planner": "ProjEST",
    "start": {
        "state": {
            "elbow_joint": 1.919643534880228,
            "shoulder_lift_joint": -1.8972525353963687,
            "shoulder_pan_joint": -1.1188672234189438,
            "wrist_1_joint": -1.5931878212786155,
            "wrist_2_joint": 1.5706036197970081,
            "wrist_3_joint": 1.118896926603594
        }
    },
    "waypoints": [
        {
            "positions": [
                -1.1188672234189438,
                -1.8972525353963687,
                1.919643534880228,
                -1.5931878212786155,
                1.5706036197970081,
                1.118896926603594
            ]
        },
        {
            "positions": [
                -1.0412253302320293,
                -1.8501695440958774,
                1.92352489304465,
                -1.5459228782776016,
                1.4802973975272682,
                1.2446676284544096
            ]
        },
        {
            "positions": [
                -0.963583437045115,
                -1.8030865527953859,
                1.927406251209072,
                -1.4986579352765874,
                1.3899911752575285,
                1.370438330305225
            ]
        },
        {
            "positions": [
                -0.8859415438582005,
                -1.7560035614948946,
                1.9312876093734936,
                -1.4513929922755735,
                1.2996849529877885,
                1.4962090321560406
            ]
        },
        {
            "positions": [
                -0.8082996506712861,
                -1.708920570194403,
                1.9351689675379156,
                -1.4041280492745596,
                1.2093787307180488,
                1.6219797340068562
            ]
        },
        {
            "positions": [
                -0.7306577574843716,
                -1.6618375788939117,
                1.9390503257023375,
                -1.3568631062735457,
                1.1190725084483089,
                1.7477504358576719
            ]
        },
        {
            "positions": [
                -0.6530158642974571,
                -1.6147545875934202,
                1.9429316838667594,
                -1.3095981632725315,
                1.028766286178569,
                1.8735211377084875
            ]
        },
        {
            "positions": [
                -0.5753739711105427,
                -1.5676715962929288,
                1.9468130420311813,
                -1.2623332202715176,
                0.9384600639088292,
                1.999291839559303
            ]
        },
        {
            "positions": [
                -0.49773207792362817,
                -1.5205886049924375,
                1.9506944001956033,
                -1.2150682772705037,
                0.8481538416390894,
                2.1250625414101183
            ]
        },
        {
            "positions": [
                -0.42009018473671367,
                -1.473505613691946,
                1.954575758360025,
                -1.1678033342694896,
                0.7578476193693495,
                2.250833243260934
            ]
        },
        {
            "positions": [
                -0.3424482915497993,
                -1.4264226223914545,
                1.9584571165244469,
                -1.1205383912684757,
                0.6675413970996097,
                2.37660394511175
            ]
        },
        {
            "positions": [
                -0.2648063983628848,
                -1.3793396310909631,
                1.9623384746888688,
                -1.0732734482674617,
                0.5772351748298699,
                2.502374646962565
            ]
        },
        {
            "positions": [
                -0.18716450517597027,
                -1.3322566397904718,
                1.9662198328532907,
                -1.0260085052664478,
                0.4869289525601299,
                2.628145348813381
            ]
        },
        {
            "positions": [
                -0.10952261198905577,
                -1.2851736484899803,
                1.9701011910177126,
                -0.9787435622654338,
                0.3966227302903902,
                2.7539160506641966
            ]
        },
        {
            "positions": [
                -0.031880718802141494,
                -1.238090657189489,
                1.9739825491821343,
                -0.9314786192644198,
                0.30631650802065025,
                2.8796867525150116
            ]
        },
        {
            "positions": [
                0.04576117438477301,
                -1.1910076658889976,
                1.9778639073465563,
                -0.8842136762634059,
                0.21601028575091052,
                3.0054574543658275
            ]
        },
        {
            "positions": [
                0.12340306757168747,
                -1.143924674588506,
                1.9817452655109782,
                -0.8369487332623918,
                0.12570406348117064,
                3.131228156216643
            ]
        }
    ]
}