{
    "goal": {
        "global_pose": {
            "orientation": {
                "w": 0.5084816217422485,
                "x": -0.49083608388900757,
                "y": 0.5182115435600281,
                "z": -0.4816462993621826
            },
            "position": {
                "x": 0.5540239810943604,
                "y": 0.030875300988554955,
                "z": 0.16403168439865112
            }
        },
        "name": "move_to_storage_A"
    },
    "id": "ProjEST_move_to_storage_A_124",
    "joint_names": [
        "shoulder_pan_joint",
        "shoulder_lift_joint",
        "elbow_joint",
        "wrist_1_joint",
        "wrist_2_joint",
        "wrist_3_joint"
    ],
    "metrics": {
        "cart_traj_len": 0.35329431533261346,
        "distance_elbow_joint": 0.4511225327788977,
        "distance_shoulder_lift_joint": 0.23537961992384715,
        "distance_shoulder_pan_joint": 0.46195654165145683,
        "distance_wrist_1_joint": 0.24276293692676643,
        "distance_wrist_2_joint": 1.1002820463982599,
        "distance_wrist_3_joint": 0.10365489561045838,
        "smoothness": 0.0,
        "time": 0.041387703,
        "traj_len": 1.610949587445146,
        "weighted_distance": 2.0360533754878896
    },
    "planner": "ProjEST",
    "start": {
        "state": {
            "elbow_joint": 1.9715477243005601,
            "shoulder_lift_joint": -1.1394853015351272,
            "shoulder_pan_joint": 0.12281154014795169,
            "wrist_1_joint": -0.7804696478968182,
            "wrist_2_joint": 0.12958648046900423,
            "wrist_3_joint": -3.192491284697111
        }
    },
    "waypoints": [
        {
            "positions": [
                0.12281154014795169,
                -1.1394853015351272,
                1.9715477243005601,
                -0.7804696478968182,
                0.12958648046900423,
                -3.192491284697111
            ]
        },
        {
            "positions": [
                0.05681774848345786,
                -1.173110961524248,
                2.0359938004118314,
                -0.8151500674577848,
                0.2867696299544699,
                -3.1776834424670457
            ]
        },
        {
            "positions": [
                -0.009176043181035973,
                -1.2067366215133692,
                2.1004398765231023,
                -0.8498304870187514,
                0.4439527794399356,
                -3.1628756002369802
            ]
        },
        {
            "positions": [
                -0.07516983484552979,
                -1.2403622815024902,
                2.1648859526343736,
                -0.8845109065797181,
                0.6011359289254012,
                -3.1480677580069147
            ]
        },
        {
            "positions": [
                -0.14116362651002362,
                -1.2739879414916113,
                2.2293320287456444,
                -0.9191913261406847,
                0.758319078410867,
                -3.1332599157768493
            ]
        },
        {
            "positions": [
                -0.2071574181745175,
                -1.3076136014807322,
                2.2937781048569157,
                -0.9538717457016513,
                0.9155022278963327,
                -3.1184520735467838
            ]
        },
        {
            "positions": [
                -0.27315120983901126,
                -1.3412392614698532,
                2.3582241809681865,
                -0.9885521652626179,
                1.0726853773817984,
                -3.1036442313167183
            ]
        },
        {
            "positions": [
                -0.33914500150350513,
                -1.3748649214589743,
                2.422670257079458,
                -1.0232325848235846,
                1.229868526867264,
                -3.088836389086653
            ]
        }
    ]
}