{
    "goal": {
        "global_pose": {
            "orientation": {
                "w": 0.5084816217422485,
                "x": -0.49083608388900757,
                "y": 0.5182115435600281,
                "z": -0.4816462993621826
            },
            "position": {
                "x": 0.5540239810943604,
                "y": 0.030875300988554955,
                "z": 0.16403168439865112
            }
        },
        "name": "move_to_storage_A"
    },
    "id": "RRT_move_to_storage_A_49",
    "joint_names": [
        "shoulder_pan_joint",
        "shoulder_lift_joint",
        "elbow_joint",
        "wrist_1_joint",
        "wrist_2_joint",
        "wrist_3_joint"
    ],
    "metrics": {
        "cart_traj_len": 0.35317820167826386,
        "distance_elbow_joint": 0.4519827302550974,
        "distance_shoulder_lift_joint": 0.23526601424785798,
        "distance_shoulder_pan_joint": 0.4639234007351318,
        "distance_wrist_1_joint": 0.24846349567447967,
        "distance_wrist_2_joint": 1.0907451321502037,
        "distance_wrist_3_joint": 0.09883544848224446,
        "smoothness": 2.2204460668324854e-16,
        "time": 0.01354972,
        "traj_len": 1.6091041674003008,
        "weighted_distance": 2.031279337347325
    },
    "planner": "RRT",
    "start": {
        "state": {
            "elbow_joint": 1.9715477243005601,
            "shoulder_lift_joint": -1.1394853015351272,
            "shoulder_pan_joint": 0.12281154014795169,
            "wrist_1_joint": -0.7804696478968182,
            "wrist_2_joint": 0.12958648046900423,
            "wrist_3_joint": -3.192491284697111
        }
    },
    "waypoints": [
        {
            "positions": [
                0.12281154014795169,
                -1.1394853015351272,
                1.9715477243005601,
                -0.7804696478968182,
                0.12958648046900423,
                -3.192491284697111
            ]
        },
        {
            "positions": [
                0.05653676861436144,
                -1.173094732141964,
                2.036116685765574,
                -0.8159644329931725,
                0.285407213633319,
                -3.178371934913933
            ]
        },
        {
            "positions": [
                -0.009738002919228814,
                -1.2067041627488009,
                2.100685647230588,
                -0.8514592180895266,
                0.44122794679763383,
                -3.1642525851307557
            ]
        },
        {
            "positions": [
                -0.07601277445281905,
                -1.2403135933556377,
                2.165254608695602,
                -0.8869540031858809,
                0.5970486799619487,
                -3.1501332353475777
            ]
        },
        {
            "positions": [
                -0.1422875459864093,
                -1.2739230239624746,
                2.2298235701606157,
                -0.9224487882822351,
                0.7528694131262634,
                -3.1360138855644
            ]
        },
        {
            "positions": [
                -0.2085623175199996,
                -1.3075324545693114,
                2.29439253162563,
                -0.9579435733785894,
                0.9086901462905783,
                -3.1218945357812222
            ]
        },
        {
            "positions": [
                -0.2748370890535898,
                -1.3411418851761483,
                2.3589614930906437,
                -0.9934383584749436,
                1.0645108794548932,
                -3.1077751859980447
            ]
        },
        {
            "positions": [
                -0.34111186058718007,
                -1.3747513157829852,
                2.4235304545556575,
                -1.0289331435712978,
                1.220331612619208,
                -3.0936558362148667
            ]
        }
    ]
}