{
    "goal": {
        "global_pose": {
            "orientation": {
                "w": 0.5084816217422485,
                "x": -0.49083608388900757,
                "y": 0.5182115435600281,
                "z": -0.4816462993621826
            },
            "position": {
                "x": 0.5540239810943604,
                "y": 0.030875300988554955,
                "z": 0.16403168439865112
            }
        },
        "name": "move_to_storage_A"
    },
    "id": "RRT_move_to_storage_A_140",
    "joint_names": [
        "shoulder_pan_joint",
        "shoulder_lift_joint",
        "elbow_joint",
        "wrist_1_joint",
        "wrist_2_joint",
        "wrist_3_joint"
    ],
    "metrics": {
        "cart_traj_len": 0.35314157057565587,
        "distance_elbow_joint": 0.4539288172042619,
        "distance_shoulder_lift_joint": 0.2329881657709667,
        "distance_shoulder_pan_joint": 0.4618823181506605,
        "distance_wrist_1_joint": 0.26238527222821195,
        "distance_wrist_2_joint": 1.098140599658016,
        "distance_wrist_3_joint": 0.09301364761716346,
        "smoothness": 8.881784267329941e-16,
        "time": 0.020096613,
        "traj_len": 1.613176624126844,
        "weighted_distance": 2.036882909680828
    },
    "planner": "RRT",
    "start": {
        "state": {
            "elbow_joint": 1.9715477243005601,
            "shoulder_lift_joint": -1.1394853015351272,
            "shoulder_pan_joint": 0.12281154014795169,
            "wrist_1_joint": -0.7804696478968182,
            "wrist_2_joint": 0.12958648046900423,
            "wrist_3_joint": -3.192491284697111
        }
    },
    "waypoints": [
        {
            "positions": [
                0.12281154014795169,
                -1.1394853015351272,
                1.9715477243005601,
                -0.7804696478968182,
                0.12958648046900423,
                -3.192491284697111
            ]
        },
        {
            "positions": [
                0.05682835184071448,
                -1.1727693252166937,
                2.0363946981868835,
                -0.8179532582151342,
                0.2864637089915779,
                -3.179203620751802
            ]
        },
        {
            "positions": [
                -0.009154836466522723,
                -1.2060533488982605,
                2.1012416720732063,
                -0.8554368685334501,
                0.44334093751415166,
                -3.165915956806493
            ]
        },
        {
            "positions": [
                -0.07513802477375993,
                -1.2393373725798271,
                2.1660886459595297,
                -0.8929204788517662,
                0.6002181660367254,
                -3.152628292861184
            ]
        },
        {
            "positions": [
                -0.14112121308099712,
                -1.272621396261394,
                2.2309356198458525,
                -0.9304040891700821,
                0.7570953945592991,
                -3.1393406289158747
            ]
        },
        {
            "positions": [
                -0.20710440138823438,
                -1.3059054199429605,
                2.295782593732176,
                -0.9678876994883981,
                0.9139726230818729,
                -3.1260529649705657
            ]
        },
        {
            "positions": [
                -0.27308758969547153,
                -1.339189443624527,
                2.3606295676184987,
                -1.005371309806714,
                1.0708498516044465,
                -3.1127653010252567
            ]
        },
        {
            "positions": [
                -0.3390707780027088,
                -1.3724734673060939,
                2.425476541504822,
                -1.0428549201250301,
                1.2277270801270204,
                -3.0994776370799477
            ]
        }
    ]
}