{
    "goal": {
        "global_pose": {
            "orientation": {
                "w": 0.5084816217422485,
                "x": -0.49083608388900757,
                "y": 0.5182115435600281,
                "z": -0.4816462993621826
            },
            "position": {
                "x": 0.5540239810943604,
                "y": 0.030875300988554955,
                "z": 0.16403168439865112
            }
        },
        "name": "move_to_storage_A"
    },
    "id": "RRT_move_to_storage_A_97",
    "joint_names": [
        "shoulder_pan_joint",
        "shoulder_lift_joint",
        "elbow_joint",
        "wrist_1_joint",
        "wrist_2_joint",
        "wrist_3_joint"
    ],
    "metrics": {
        "cart_traj_len": 0.3527830800775106,
        "distance_elbow_joint": 0.4540804206950684,
        "distance_shoulder_lift_joint": 0.23499541716768957,
        "distance_shoulder_pan_joint": 0.4622620988079665,
        "distance_wrist_1_joint": 0.25881029361697194,
        "distance_wrist_2_joint": 1.0949215403227086,
        "distance_wrist_3_joint": 0.10487336515427703,
        "smoothness": 0.0,
        "time": 0.012659032,
        "traj_len": 1.6155318430054797,
        "weighted_distance": 2.042895420723468
    },
    "planner": "RRT",
    "start": {
        "state": {
            "elbow_joint": 1.9715477243005601,
            "shoulder_lift_joint": -1.1394853015351272,
            "shoulder_pan_joint": 0.12281154014795169,
            "wrist_1_joint": -0.7804696478968182,
            "wrist_2_joint": 0.12958648046900423,
            "wrist_3_joint": -3.192491284697111
        }
    },
    "waypoints": [
        {
            "positions": [
                0.12281154014795169,
                -1.1394853015351272,
                1.9715477243005601,
                -0.7804696478968182,
                0.12958648046900423,
                -3.192491284697111
            ]
        },
        {
            "positions": [
                0.056774097461099335,
                -1.1730560754162256,
                2.036416355828427,
                -0.817442546984957,
                0.28600384337224827,
                -3.1775093753893575
            ]
        },
        {
            "positions": [
                -0.00926334522575302,
                -1.2066268492973242,
                2.1012849873562938,
                -0.8544154460730958,
                0.44242120627549236,
                -3.1625274660816034
            ]
        },
        {
            "positions": [
                -0.07530078791260537,
                -1.2401976231784226,
                2.166153618884161,
                -0.8913883451612347,
                0.5988385691787365,
                -3.1475455567738497
            ]
        },
        {
            "positions": [
                -0.14133823059945771,
                -1.2737683970595213,
                2.231022250412028,
                -0.9283612442493736,
                0.7552559320819805,
                -3.1325636474660956
            ]
        },
        {
            "positions": [
                -0.20737567328631007,
                -1.3073391709406197,
                2.295890881939895,
                -0.9653341433375124,
                0.9116732949852246,
                -3.117581738158342
            ]
        },
        {
            "positions": [
                -0.2734131159731624,
                -1.340909944821718,
                2.3607595134677615,
                -1.0023070424256513,
                1.0680906578884688,
                -3.102599828850588
            ]
        },
        {
            "positions": [
                -0.3394505586600148,
                -1.3744807187028167,
                2.4256281449956285,
                -1.03927994151379,
                1.2245080207917127,
                -3.087617919542834
            ]
        }
    ]
}