{
    "goal": {
        "global_pose": {
            "orientation": {
                "w": 0.5084816217422485,
                "x": -0.49083608388900757,
                "y": 0.5182115435600281,
                "z": -0.4816462993621826
            },
            "position": {
                "x": 0.5540239810943604,
                "y": 0.030875300988554955,
                "z": 0.16403168439865112
            }
        },
        "name": "move_to_storage_A"
    },
    "id": "RRT_move_to_storage_A_38",
    "joint_names": [
        "shoulder_pan_joint",
        "shoulder_lift_joint",
        "elbow_joint",
        "wrist_1_joint",
        "wrist_2_joint",
        "wrist_3_joint"
    ],
    "metrics": {
        "cart_traj_len": 0.35336365369678024,
        "distance_elbow_joint": 0.45154332223200955,
        "distance_shoulder_lift_joint": 0.23504510290357938,
        "distance_shoulder_pan_joint": 0.4624021820337066,
        "distance_wrist_1_joint": 0.2502269805118139,
        "distance_wrist_2_joint": 1.0982361793795636,
        "distance_wrist_3_joint": 0.1056572486860401,
        "smoothness": 4.440892133664971e-16,
        "time": 0.017075099,
        "traj_len": 1.6134159462911954,
        "weighted_distance": 2.040315826780298
    },
    "planner": "RRT",
    "start": {
        "state": {
            "elbow_joint": 1.9715477243005601,
            "shoulder_lift_joint": -1.1394853015351272,
            "shoulder_pan_joint": 0.12281154014795169,
            "wrist_1_joint": -0.7804696478968182,
            "wrist_2_joint": 0.12958648046900423,
            "wrist_3_joint": -3.192491284697111
        }
    },
    "waypoints": [
        {
            "positions": [
                0.12281154014795169,
                -1.1394853015351272,
                1.9715477243005601,
                -0.7804696478968182,
                0.12958648046900423,
                -3.192491284697111
            ]
        },
        {
            "positions": [
                0.0567540855717079,
                -1.1730631733784957,
                2.0360539131908473,
                -0.8162163593985059,
                0.28647736323751327,
                -3.177397392027677
            ]
        },
        {
            "positions": [
                -0.009303369004535891,
                -1.206641045221864,
                2.1005601020811344,
                -0.8519630709001935,
                0.44336824600602237,
                -3.1623034993582424
            ]
        },
        {
            "positions": [
                -0.07536082358077968,
                -1.2402189170652327,
                2.1650662909714216,
                -0.8877097824018813,
                0.6002591287745315,
                -3.1472096066888082
            ]
        },
        {
            "positions": [
                -0.14141827815702346,
                -1.273796788908601,
                2.2295724798617083,
                -0.923456493903569,
                0.7571500115430405,
                -3.132115714019374
            ]
        },
        {
            "positions": [
                -0.2074757327332673,
                -1.3073746607519696,
                2.2940786687519954,
                -0.9592032054052566,
                0.9140408943115497,
                -3.11702182134994
            ]
        },
        {
            "positions": [
                -0.27353318730951104,
                -1.340952532595338,
                2.3585848576422825,
                -0.9949499169069443,
                1.0709317770800588,
                -3.1019279286805053
            ]
        },
        {
            "positions": [
                -0.3395906418857549,
                -1.3745304044387066,
                2.4230910465325697,
                -1.030696628408632,
                1.227822659848568,
                -3.086834036011071
            ]
        }
    ]
}