{
    "goal": {
        "global_pose": {
            "orientation": {
                "w": 0.5084816217422485,
                "x": -0.49083608388900757,
                "y": 0.5182115435600281,
                "z": -0.4816462993621826
            },
            "position": {
                "x": 0.5540239810943604,
                "y": 0.030875300988554955,
                "z": 0.16403168439865112
            }
        },
        "name": "move_to_storage_A"
    },
    "id": "RRT_move_to_storage_A_83",
    "joint_names": [
        "shoulder_pan_joint",
        "shoulder_lift_joint",
        "elbow_joint",
        "wrist_1_joint",
        "wrist_2_joint",
        "wrist_3_joint"
    ],
    "metrics": {
        "cart_traj_len": 0.35349471620529765,
        "distance_elbow_joint": 0.45267091983372065,
        "distance_shoulder_lift_joint": 0.23606676782673897,
        "distance_shoulder_pan_joint": 0.46352791505113267,
        "distance_wrist_1_joint": 0.25210017735121715,
        "distance_wrist_2_joint": 1.0951088114440144,
        "distance_wrist_3_joint": 0.10365428296954793,
        "smoothness": 1.3322676295501878e-15,
        "time": 0.013318702,
        "traj_len": 1.61342148072857,
        "weighted_distance": 2.0390307572988444
    },
    "planner": "RRT",
    "start": {
        "state": {
            "elbow_joint": 1.9715477243005601,
            "shoulder_lift_joint": -1.1394853015351272,
            "shoulder_pan_joint": 0.12281154014795169,
            "wrist_1_joint": -0.7804696478968182,
            "wrist_2_joint": 0.12958648046900423,
            "wrist_3_joint": -3.192491284697111
        }
    },
    "waypoints": [
        {
            "positions": [
                0.12281154014795169,
                -1.1394853015351272,
                1.9715477243005601,
                -0.7804696478968182,
                0.12958648046900423,
                -3.192491284697111
            ]
        },
        {
            "positions": [
                0.05659326656921845,
                -1.1732091255103756,
                2.0362149985625204,
                -0.816483958946992,
                0.28603059638957773,
                -3.177683529987176
            ]
        },
        {
            "positions": [
                -0.009625007009514783,
                -1.206932949485624,
                2.1008822728244803,
                -0.8524982699971659,
                0.4424747123101512,
                -3.1628757752772403
            ]
        },
        {
            "positions": [
                -0.075843280588248,
                -1.2406567734608724,
                2.1655495470864405,
                -0.8885125810473398,
                0.5989188282307247,
                -3.148068020567305
            ]
        },
        {
            "positions": [
                -0.14206155416698124,
                -1.2743805974361209,
                2.2302168213484004,
                -0.9245268920975137,
                0.7553629441512981,
                -3.1332602658573694
            ]
        },
        {
            "positions": [
                -0.20827982774571452,
                -1.3081044214113693,
                2.2948840956103607,
                -0.9605412031476875,
                0.9118070600718716,
                -3.118452511147434
            ]
        },
        {
            "positions": [
                -0.2744981013244477,
                -1.3418282453866177,
                2.3595513698723205,
                -0.9965555141978615,
                1.0682511759924451,
                -3.1036447564374985
            ]
        },
        {
            "positions": [
                -0.34071637490318096,
                -1.3755520693618661,
                2.424218644134281,
                -1.0325698252480353,
                1.2246952919130185,
                -3.0888370017275633
            ]
        }
    ]
}