{
    "goal": {
        "global_pose": {
            "orientation": {
                "w": 0.5084816217422485,
                "x": -0.49083608388900757,
                "y": 0.5182115435600281,
                "z": -0.4816462993621826
            },
            "position": {
                "x": 0.5540239810943604,
                "y": 0.030875300988554955,
                "z": 0.16403168439865112
            }
        },
        "name": "move_to_storage_A"
    },
    "id": "RRT_move_to_storage_A_119",
    "joint_names": [
        "shoulder_pan_joint",
        "shoulder_lift_joint",
        "elbow_joint",
        "wrist_1_joint",
        "wrist_2_joint",
        "wrist_3_joint"
    ],
    "metrics": {
        "cart_traj_len": 0.3530328789388849,
        "distance_elbow_joint": 0.45162389511903456,
        "distance_shoulder_lift_joint": 0.23432270546015221,
        "distance_shoulder_pan_joint": 0.4602040299421649,
        "distance_wrist_1_joint": 0.2504488050832935,
        "distance_wrist_2_joint": 1.1050167251808531,
        "distance_wrist_3_joint": 0.09198518587424953,
        "smoothness": 1.1102230298998083e-15,
        "time": 0.021820587,
        "traj_len": 1.6104661892320957,
        "weighted_distance": 2.032987272137333
    },
    "planner": "RRT",
    "start": {
        "state": {
            "elbow_joint": 1.9715477243005601,
            "shoulder_lift_joint": -1.1394853015351272,
            "shoulder_pan_joint": 0.12281154014795169,
            "wrist_1_joint": -0.7804696478968182,
            "wrist_2_joint": 0.12958648046900423,
            "wrist_3_joint": -3.192491284697111
        }
    },
    "waypoints": [
        {
            "positions": [
                0.12281154014795169,
                -1.1394853015351272,
                1.9715477243005601,
                -0.7804696478968182,
                0.12958648046900423,
                -3.192491284697111
            ]
        },
        {
            "positions": [
                0.057068107299071,
                -1.1729599737437204,
                2.0360654236032794,
                -0.8162480486230029,
                0.28744601263769753,
                -3.179350543857933
            ]
        },
        {
            "positions": [
                -0.008675325549809695,
                -1.2064346459523134,
                2.1005831229059986,
                -0.8520264493491877,
                0.44530554480639084,
                -3.166209803018754
            ]
        },
        {
            "positions": [
                -0.0744187583986904,
                -1.2399093181609067,
                2.165100822208718,
                -0.8878048500753725,
                0.6031650769750841,
                -3.1530690621795756
            ]
        },
        {
            "positions": [
                -0.14016219124757107,
                -1.2733839903695,
                2.229618521511437,
                -0.9235832508015573,
                0.7610246091437775,
                -3.1399283213403972
            ]
        },
        {
            "positions": [
                -0.2059056240964518,
                -1.3068586625780931,
                2.2941362208141562,
                -0.9593616515277421,
                0.9188841413124708,
                -3.126787580501219
            ]
        },
        {
            "positions": [
                -0.2716490569453325,
                -1.3403333347866861,
                2.3586539201168755,
                -0.9951400522539269,
                1.0767436734811642,
                -3.11364683966204
            ]
        },
        {
            "positions": [
                -0.3373924897942132,
                -1.3738080069952794,
                2.4231716194195947,
                -1.0309184529801116,
                1.2346032056498573,
                -3.1005060988228617
            ]
        }
    ]
}