{
    "goal": {
        "global_pose": {
            "orientation": {
                "w": 0.5084816217422485,
                "x": -0.49083608388900757,
                "y": 0.5182115435600281,
                "z": -0.4816462993621826
            },
            "position": {
                "x": 0.5540239810943604,
                "y": 0.030875300988554955,
                "z": 0.16403168439865112
            }
        },
        "name": "move_to_storage_A"
    },
    "id": "RRT_move_to_storage_A_45",
    "joint_names": [
        "shoulder_pan_joint",
        "shoulder_lift_joint",
        "elbow_joint",
        "wrist_1_joint",
        "wrist_2_joint",
        "wrist_3_joint"
    ],
    "metrics": {
        "cart_traj_len": 0.35302150920687964,
        "distance_elbow_joint": 0.44683488011380934,
        "distance_shoulder_lift_joint": 0.23547084923845785,
        "distance_shoulder_pan_joint": 0.4583997289724474,
        "distance_wrist_1_joint": 0.2329498341515771,
        "distance_wrist_2_joint": 1.112356881228354,
        "distance_wrist_3_joint": 0.08703892834811766,
        "smoothness": 2.2204460668324854e-16,
        "time": 0.013679925,
        "traj_len": 1.6040732845019154,
        "weighted_distance": 2.0229769336621044
    },
    "planner": "RRT",
    "start": {
        "state": {
            "elbow_joint": 1.9715477243005601,
            "shoulder_lift_joint": -1.1394853015351272,
            "shoulder_pan_joint": 0.12281154014795169,
            "wrist_1_joint": -0.7804696478968182,
            "wrist_2_joint": 0.12958648046900423,
            "wrist_3_joint": -3.192491284697111
        }
    },
    "waypoints": [
        {
            "positions": [
                0.12281154014795169,
                -1.1394853015351272,
                1.9715477243005601,
                -0.7804696478968182,
                0.12958648046900423,
                -3.192491284697111
            ]
        },
        {
            "positions": [
                0.05732586458045921,
                -1.1731239942834784,
                2.0353812786025327,
                -0.8137481956327578,
                0.2884946063587691,
                -3.1800571520759515
            ]
        },
        {
            "positions": [
                -0.008159810987033264,
                -1.2067626870318293,
                2.0992148329045057,
                -0.8470267433686973,
                0.44740273224853394,
                -3.167623019454792
            ]
        },
        {
            "positions": [
                -0.07364548655452575,
                -1.2404013797801805,
                2.1630483872064783,
                -0.880305291104637,
                0.6063108581382988,
                -3.155188886833632
            ]
        },
        {
            "positions": [
                -0.1391311621220182,
                -1.2740400725285317,
                2.2268819415084513,
                -0.9135838388405765,
                0.7652189840280637,
                -3.1427547542124725
            ]
        },
        {
            "positions": [
                -0.20461683768951072,
                -1.3076787652768829,
                2.290715495810424,
                -0.9468623865765161,
                0.9241271099178285,
                -3.130320621591313
            ]
        },
        {
            "positions": [
                -0.2701025132570032,
                -1.3413174580252338,
                2.3545490501123965,
                -0.9801409343124556,
                1.0830352358075932,
                -3.117886488970153
            ]
        },
        {
            "positions": [
                -0.3355881888244957,
                -1.374956150773585,
                2.4183826044143695,
                -1.0134194820483953,
                1.2419433616973583,
                -3.1054523563489935
            ]
        }
    ]
}