{
    "goal": {
        "global_pose": {
            "orientation": {
                "w": 0.7047431468963623,
                "x": -0.7094548344612122,
                "y": 0.0024358443915843964,
                "z": -0.0022348060738295317
            },
            "position": {
                "x": 0.6094750761985779,
                "y": 0.3671506643295288,
                "z": 0.19426114857196808
            }
        },
        "name": "move_to_magneteinheit_A"
    },
    "id": "RRT_move_to_magneteinheit_A_8",
    "joint_names": [
        "shoulder_pan_joint",
        "shoulder_lift_joint",
        "elbow_joint",
        "wrist_1_joint",
        "wrist_2_joint",
        "wrist_3_joint"
    ],
    "metrics": {
        "cart_traj_len": 3.4662079693150356,
        "distance_elbow_joint": 3.9301074146582127,
        "distance_shoulder_lift_joint": 0.4591319072441964,
        "distance_shoulder_pan_joint": 3.4359077274449614,
        "distance_wrist_1_joint": 3.526391434316843,
        "distance_wrist_2_joint": 2.052436744301265,
        "distance_wrist_3_joint": 0.8160327779269831,
        "smoothness": 0.32354712511457834,
        "time": 0.056950661,
        "traj_len": 3.770942588517155,
        "weighted_distance": 4.6293521944613945
    },
    "planner": "RRT",
    "start": {
        "state": {
            "elbow_joint": -1.919618573717145,
            "shoulder_lift_joint": -1.2443395971678275,
            "shoulder_pan_joint": 2.6996025300909787,
            "wrist_1_joint": -1.548550951253194,
            "wrist_2_joint": -1.5709469090946802,
            "wrist_3_joint": 0.4420197732051276
        }
    },
    "waypoints": [
        {
            "positions": [
                2.6996025300909787,
                -1.2443395971678275,
                -1.919618573717145,
                -1.548550951253194,
                -1.5709469090946802,
                0.4420197732051276
            ]
        },
        {
            "positions": [
                2.589699392761491,
                -1.238521286248195,
                -1.8655154733796027,
                -1.4411884770110723,
                -1.4751402903932755,
                0.4234882454148002
            ]
        },
        {
            "positions": [
                2.4797962554320034,
                -1.232702975328562,
                -1.8114123730420604,
                -1.3338260027689504,
                -1.379333671691871,
                0.40495671762447283
            ]
        },
        {
            "positions": [
                2.3698931181025156,
                -1.2268846644089295,
                -1.757309272704518,
                -1.2264635285268284,
                -1.283527052990466,
                0.3864251898341454
            ]
        },
        {
            "positions": [
                2.2599899807730277,
                -1.221066353489297,
                -1.7032061723669758,
                -1.1191010542847066,
                -1.1877204342890615,
                0.367893662043818
            ]
        },
        {
            "positions": [
                2.15008684344354,
                -1.2152480425696641,
                -1.6491030720294335,
                -1.0117385800425849,
                -1.0919138155876569,
                0.3493621342534906
            ]
        },
        {
            "positions": [
                2.0401837061140524,
                -1.2094297316500315,
                -1.5949999716918912,
                -0.9043761058004629,
                -0.9961071968862522,
                0.3308306064631632
            ]
        },
        {
            "positions": [
                1.9302805687845646,
                -1.203611420730399,
                -1.540896871354349,
                -0.7970136315583412,
                -0.9003005781848475,
                0.31229907867283585
            ]
        },
        {
            "positions": [
                1.820377431455077,
                -1.1977931098107661,
                -1.4867937710168067,
                -0.6896511573162193,
                -0.8044939594834428,
                0.29376755088250844
            ]
        },
        {
            "positions": [
                1.710474294125589,
                -1.1919747988911336,
                -1.4326906706792644,
                -0.5822886830740973,
                -0.7086873407820382,
                0.27523602309218104
            ]
        },
        {
            "positions": [
                1.6005711567961014,
                -1.1861564879715008,
                -1.378587570341722,
                -0.47492620883197545,
                -0.6128807220806335,
                0.25670449530185363
            ]
        },
        {
            "positions": [
                1.4906680194666135,
                -1.1803381770518682,
                -1.3244844700041798,
                -0.3675637345898537,
                -0.5170741033792288,
                0.23817296751152625
            ]
        },
        {
            "positions": [
                1.380764882137126,
                -1.1745198661322356,
                -1.2703813696666375,
                -0.2602012603477317,
                -0.42126748467782416,
                0.21964143972119884
            ]
        },
        {
            "positions": [
                1.2708617448076382,
                -1.1687015552126028,
                -1.2162782693290954,
                -0.15283878610560997,
                -0.32546086597641954,
                0.2011099119308715
            ]
        },
        {
            "positions": [
                1.1609586074781506,
                -1.1628832442929702,
                -1.1621751689915532,
                -0.04547631186348822,
                -0.22965424727501493,
                0.18257838414054411
            ]
        },
        {
            "positions": [
                1.0510554701486627,
                -1.1570649333733376,
                -1.1080720686540109,
                0.06188616237863376,
                -0.13384762857361032,
                0.1640468563502167
            ]
        },
        {
            "positions": [
                0.9411523328191751,
                -1.1512466224537048,
                -1.0539689683164686,
                0.1692486366207555,
                -0.03804100987220549,
                0.1455153285598893
            ]
        },
        {
            "positions": [
                0.8312491954896871,
                -1.1454283115340722,
                -0.9998658679789262,
                0.2766111108628776,
                0.057765608829199025,
                0.1269838007695619
            ]
        },
        {
            "positions": [
                0.7601564598860706,
                -1.1269196357034856,
                -0.8419885540492551,
                0.3598334682898573,
                0.0384436655860777,
                0.1054114255619035
            ]
        },
        {
            "positions": [
                0.6890637242824541,
                -1.108410959872899,
                -0.6841112401195839,
                0.44305582571683705,
                0.019121722342956372,
                0.0838390503542451
            ]
        },
        {
            "positions": [
                0.6179709886788376,
                -1.0899022840423123,
                -0.5262339261899128,
                0.5262781831438168,
                -0.00020022090016495742,
                0.06226667514658671
            ]
        },
        {
            "positions": [
                0.5468782530752212,
                -1.0713936082117257,
                -0.36835661226024174,
                0.6095005405707965,
                -0.01952216414328628,
                0.04069429993892831
            ]
        },
        {
            "positions": [
                0.47578551747160464,
                -1.0528849323811391,
                -0.21047929833057066,
                0.6927228979977762,
                -0.0388441073864076,
                0.019121924731269918
            ]
        },
        {
            "positions": [
                0.4046927818679882,
                -1.0343762565505525,
                -0.05260198440089947,
                0.7759452554247559,
                -0.05816605062952894,
                -0.002450450476388477
            ]
        },
        {
            "positions": [
                0.3336000462643717,
                -1.015867580719966,
                0.1052753295287715,
                0.8591676128517357,
                -0.07748799387265025,
                -0.024022825684046872
            ]
        },
        {
            "positions": [
                0.26250731066075517,
                -0.9973589048893793,
                0.2631526434584427,
                0.9423899702787154,
                -0.09680993711577159,
                -0.04559520089170527
            ]
        },
        {
            "positions": [
                0.19141457505713866,
                -0.9788502290587926,
                0.4210299573881139,
                1.0256123277056952,
                -0.11613188035889292,
                -0.06716757609936366
            ]
        },
        {
            "positions": [
                0.12032183945352215,
                -0.960341553228206,
                0.5789072713177849,
                1.108834685132675,
                -0.13545382360201424,
                -0.08873995130702206
            ]
        },
        {
            "positions": [
                0.04922910384990564,
                -0.9418328773976195,
                0.736784585247456,
                1.1920570425596546,
                -0.15477576684513555,
                -0.11031232651468045
            ]
        },
        {
            "positions": [
                -0.021863631753710755,
                -0.9233242015670329,
                0.8946618991771272,
                1.2752793999866343,
                -0.17409771008825692,
                -0.13188470172233885
            ]
        },
        {
            "positions": [
                -0.09295636735732726,
                -0.9048155257364462,
                1.0525392131067983,
                1.358501757413614,
                -0.19341965333137823,
                -0.15345707692999727
            ]
        },
        {
            "positions": [
                -0.16404910296094377,
                -0.8863068499058596,
                1.210416527036469,
                1.4417241148405937,
                -0.21274159657449954,
                -0.17502945213765564
            ]
        },
        {
            "positions": [
                -0.2351418385645604,
                -0.8677981740752729,
                1.3682938409661403,
                1.5249464722675734,
                -0.2320635398176209,
                -0.196601827345314
            ]
        },
        {
            "positions": [
                -0.30623457416817673,
                -0.8492894982446864,
                1.5261711548958117,
                1.608168829694553,
                -0.2513854830607422,
                -0.21817420255297243
            ]
        },
        {
            "positions": [
                -0.22022044953101516,
                -0.8364731365804753,
                1.6230346921048628,
                1.6821031603683723,
                -0.22847085616325324,
                -0.18700644211919593
            ]
        },
        {
            "positions": [
                -0.13420632489385356,
                -0.8236567749162642,
                1.7198982293139138,
                1.7560374910421914,
                -0.20555622926576428,
                -0.1558386816854194
            ]
        },
        {
            "positions": [
                -0.04819220025669202,
                -0.8108404132520532,
                1.816761766522965,
                1.8299718217160108,
                -0.1826416023682753,
                -0.12467092125164289
            ]
        },
        {
            "positions": [
                0.03782192438046961,
                -0.7980240515878422,
                1.9136253037320161,
                1.90390615238983,
                -0.15972697547078635,
                -0.09350316081786636
            ]
        },
        {
            "positions": [
                0.12383604901763115,
                -0.7852076899236311,
                2.010488840941067,
                1.9778404830636491,
                -0.1368123485732974,
                -0.062335400384089856
            ]
        }
    ]
}{
    "goal": {
        "global_pose": {
            "orientation": {
                "w": 0.7047431468963623,
                "x": -0.7094548344612122,
                "y": 0.0024358443915843964,
                "z": -0.0022348060738295317
            },
            "position": {
                "x": 0.6094750761985779,
                "y": 0.3671506643295288,
                "z": 0.19426114857196808
            }
        },
        "name": "move_to_magneteinheit_A"
    },
    "id": "RRT_move_to_magneteinheit_A_8",
    "joint_names": [
        "shoulder_pan_joint",
        "shoulder_lift_joint",
        "elbow_joint",
        "wrist_1_joint",
        "wrist_2_joint",
        "wrist_3_joint"
    ],
    "metrics": {
        "cart_traj_len": 1.9909675172523666,
        "distance_elbow_joint": 0.7275491564505285,
        "distance_shoulder_lift_joint": 0.7515648575872356,
        "distance_shoulder_pan_joint": 2.6176532157247974,
        "distance_wrist_1_joint": 0.7727222526994633,
        "distance_wrist_2_joint": 1.4330641948769067,
        "distance_wrist_3_joint": 4.283274783576353,
        "smoothness": 0.26155634470588346,
        "time": 0.049216133,
        "traj_len": 3.253587014498811,
        "weighted_distance": 4.621489421782155
    },
    "planner": "RRT",
    "start": {
        "state": {
            "elbow_joint": 1.919643534880228,
            "shoulder_lift_joint": -1.8972525353963687,
            "shoulder_pan_joint": -1.1188672234189438,
            "wrist_1_joint": -1.5931878212786155,
            "wrist_2_joint": 1.5706036197970081,
            "wrist_3_joint": 1.118896926603594
        }
    },
    "waypoints": [
        {
            "positions": [
                -1.1188672234189438,
                -1.8972525353963687,
                1.919643534880228,
                -1.5931878212786155,
                1.5706036197970081,
                1.118896926603594
            ]
        },
        {
            "positions": [
                -1.1813971384871547,
                -1.8948417746747628,
                1.8894496589834506,
                -1.5416476764895548,
                1.521493246234276,
                0.9443767724989106
            ]
        },
        {
            "positions": [
                -1.2439270535553655,
                -1.892431013953157,
                1.859255783086673,
                -1.490107531700494,
                1.472382872671544,
                0.7698566183942273
            ]
        },
        {
            "positions": [
                -1.3064569686235763,
                -1.890020253231551,
                1.8290619071898955,
                -1.4385673869114333,
                1.423272499108812,
                0.5953364642895439
            ]
        },
        {
            "positions": [
                -1.3689868836917871,
                -1.8876094925099451,
                1.7988680312931178,
                -1.3870272421223726,
                1.3741621255460796,
                0.42081631018486043
            ]
        },
        {
            "positions": [
                -1.431516798759998,
                -1.8851987317883392,
                1.7686741553963403,
                -1.3354870973333117,
                1.3250517519833476,
                0.24629615608017708
            ]
        },
        {
            "positions": [
                -1.4940467138282088,
                -1.8827879710667335,
                1.7384802794995626,
                -1.283946952544251,
                1.2759413784206155,
                0.07177600197549383
            ]
        },
        {
            "positions": [
                -1.5565766288964196,
                -1.8803772103451275,
                1.7082864036027852,
                -1.2324068077551904,
                1.2268310048578834,
                -0.10274415212918964
            ]
        },
        {
            "positions": [
                -1.6191065439646304,
                -1.8779664496235215,
                1.6780925277060075,
                -1.1808666629661295,
                1.1777206312951511,
                -0.2772643062338731
            ]
        },
        {
            "positions": [
                -1.6816364590328412,
                -1.8755556889019156,
                1.64789865180923,
                -1.1293265181770686,
                1.128610257732419,
                -0.45178446033855657
            ]
        },
        {
            "positions": [
                -1.744166374101052,
                -1.8731449281803099,
                1.6177047759124523,
                -1.0777863733880082,
                1.079499884169687,
                -0.6263046144432398
            ]
        },
        {
            "positions": [
                -1.8066962891692628,
                -1.870734167458704,
                1.5875109000156749,
                -1.0262462285989473,
                1.030389510606955,
                -0.8008247685479233
            ]
        },
        {
            "positions": [
                -1.6931772215237053,
                -1.8280843739499055,
                1.6107706954030852,
                -1.0141414838919005,
                0.9778689173312577,
                -0.9398573031611489
            ]
        },
        {
            "positions": [
                -1.5796581538781478,
                -1.7854345804411074,
                1.6340304907904954,
                -1.0020367391848537,
                0.9253483240555604,
                -1.0788898377743745
            ]
        },
        {
            "positions": [
                -1.46613908623259,
                -1.742784786932309,
                1.6572902861779057,
                -0.989931994477807,
                0.8728277307798632,
                -1.2179223723876003
            ]
        },
        {
            "positions": [
                -1.3526200185870325,
                -1.7001349934235108,
                1.680550081565316,
                -0.9778272497707602,
                0.820307137504166,
                -1.356954907000826
            ]
        },
        {
            "positions": [
                -1.239100950941475,
                -1.6574851999147124,
                1.7038098769527263,
                -0.9657225050637135,
                0.7677865442284686,
                -1.4959874416140515
            ]
        },
        {
            "positions": [
                -1.1255818832959172,
                -1.6148354064059143,
                1.7270696723401366,
                -0.9536177603566667,
                0.7152659509527715,
                -1.6350199762272772
            ]
        },
        {
            "positions": [
                -1.01206281565036,
                -1.572185612897116,
                1.750329467727547,
                -0.9415130156496199,
                0.6627453576770741,
                -1.7740525108405027
            ]
        },
        {
            "positions": [
                -0.8985437480048023,
                -1.5295358193883177,
                1.7735892631149572,
                -0.9294082709425732,
                0.610224764401377,
                -1.9130850454537285
            ]
        },
        {
            "positions": [
                -0.7850246803592447,
                -1.4868860258795193,
                1.7968490585023678,
                -0.9173035262355264,
                0.5577041711256796,
                -2.052117580066954
            ]
        },
        {
            "positions": [
                -0.6715056127136871,
                -1.4442362323707212,
                1.820108853889778,
                -0.9051987815284797,
                0.5051835778499824,
                -2.1911501146801795
            ]
        },
        {
            "positions": [
                -0.5579865450681296,
                -1.4015864388619228,
                1.8433686492771884,
                -0.8930940368214328,
                0.4526629845742851,
                -2.3301826492934055
            ]
        },
        {
            "positions": [
                -0.44446747742257187,
                -1.3589366453531246,
                1.8666284446645987,
                -0.880989292114386,
                0.40014239129858786,
                -2.4692151839066314
            ]
        },
        {
            "positions": [
                -0.33094840977701456,
                -1.3162868518443265,
                1.889888240052009,
                -0.8688845474073393,
                0.3476217980228907,
                -2.6082477185198565
            ]
        },
        {
            "positions": [
                -0.21742934213145704,
                -1.2736370583355279,
                1.9131480354394192,
                -0.8567798027002925,
                0.29510120474719337,
                -2.7472802531330824
            ]
        },
        {
            "positions": [
                -0.10391027448589951,
                -1.2309872648267297,
                1.9364078308268295,
                -0.8446750579932457,
                0.24258061147149612,
                -2.8863127877463075
            ]
        },
        {
            "positions": [
                0.009608793159658235,
                -1.1883374713179315,
                1.9596676262142398,
                -0.832570313286199,
                0.19006001819579887,
                -3.0253453223595335
            ]
        },
        {
            "positions": [
                0.1231278608052157,
                -1.1456876778091332,
                1.9829274216016501,
                -0.8204655685791522,
                0.13753942492010168,
                -3.1643778569727594
            ]
        }
    ]
}