{
    "goal": {
        "global_pose": {
            "orientation": {
                "w": 0.5084816217422485,
                "x": -0.49083608388900757,
                "y": 0.5182115435600281,
                "z": -0.4816462993621826
            },
            "position": {
                "x": 0.5540239810943604,
                "y": 0.030875300988554955,
                "z": 0.16403168439865112
            }
        },
        "name": "move_to_storage_A"
    },
    "id": "RRT_move_to_storage_A_62",
    "joint_names": [
        "shoulder_pan_joint",
        "shoulder_lift_joint",
        "elbow_joint",
        "wrist_1_joint",
        "wrist_2_joint",
        "wrist_3_joint"
    ],
    "metrics": {
        "cart_traj_len": 0.35304348481494524,
        "distance_elbow_joint": 0.4503376383214439,
        "distance_shoulder_lift_joint": 0.23424737979038035,
        "distance_shoulder_pan_joint": 0.46313747711688674,
        "distance_wrist_1_joint": 0.24735252605113411,
        "distance_wrist_2_joint": 1.0920197091995236,
        "distance_wrist_3_joint": 0.08938105336814761,
        "smoothness": 0.0,
        "time": 0.013362169,
        "traj_len": 1.6051404249621015,
        "weighted_distance": 2.0235143008722396
    },
    "planner": "RRT",
    "start": {
        "state": {
            "elbow_joint": 1.9715477243005601,
            "shoulder_lift_joint": -1.1394853015351272,
            "shoulder_pan_joint": 0.12281154014795169,
            "wrist_1_joint": -0.7804696478968182,
            "wrist_2_joint": 0.12958648046900423,
            "wrist_3_joint": -3.192491284697111
        }
    },
    "waypoints": [
        {
            "positions": [
                0.12281154014795169,
                -1.1394853015351272,
                1.9715477243005601,
                -0.7804696478968182,
                0.12958648046900423,
                -3.192491284697111
            ]
        },
        {
            "positions": [
                0.05664904341696787,
                -1.1729492129337529,
                2.035881672632195,
                -0.8158057230469802,
                0.2855892960689361,
                -3.1797225627873758
            ]
        },
        {
            "positions": [
                -0.009513453314015943,
                -1.2064131243323788,
                2.1002156209638296,
                -0.8511417981971422,
                0.4415921116688681,
                -3.1669538408776403
            ]
        },
        {
            "positions": [
                -0.07567595004499976,
                -1.2398770357310045,
                2.1645495692954646,
                -0.8864778733473042,
                0.5975949272688,
                -3.154185118967905
            ]
        },
        {
            "positions": [
                -0.14183844677598356,
                -1.2733409471296302,
                2.2288835176270996,
                -0.9218139484974662,
                0.7535977428687319,
                -3.14141639705817
            ]
        },
        {
            "positions": [
                -0.2080009435069674,
                -1.3068048585282561,
                2.2932174659587345,
                -0.9571500236476282,
                0.9096005584686639,
                -3.1286476751484344
            ]
        },
        {
            "positions": [
                -0.2741634402379512,
                -1.3402687699268818,
                2.357551414290369,
                -0.9924860987977903,
                1.065603374068596,
                -3.115878953238699
            ]
        },
        {
            "positions": [
                -0.34032593696893504,
                -1.3737326813255075,
                2.421885362622004,
                -1.0278221739479523,
                1.2216061896685277,
                -3.1031102313289636
            ]
        }
    ]
}