{
    "goal": {
        "global_pose": {
            "orientation": {
                "w": 0.5084816217422485,
                "x": -0.49083608388900757,
                "y": 0.5182115435600281,
                "z": -0.4816462993621826
            },
            "position": {
                "x": 0.5540239810943604,
                "y": 0.030875300988554955,
                "z": 0.16403168439865112
            }
        },
        "name": "move_to_storage_A"
    },
    "id": "RRT_move_to_storage_A_12",
    "joint_names": [
        "shoulder_pan_joint",
        "shoulder_lift_joint",
        "elbow_joint",
        "wrist_1_joint",
        "wrist_2_joint",
        "wrist_3_joint"
    ],
    "metrics": {
        "cart_traj_len": 0.35341858590111974,
        "distance_elbow_joint": 0.45227970798000827,
        "distance_shoulder_lift_joint": 0.23142438701502543,
        "distance_shoulder_pan_joint": 0.46078276234886084,
        "distance_wrist_1_joint": 0.2592120979921263,
        "distance_wrist_2_joint": 1.103885325461087,
        "distance_wrist_3_joint": 0.1006914494442901,
        "smoothness": 1.554312239749871e-15,
        "time": 0.014407693,
        "traj_len": 1.6150157058807193,
        "weighted_distance": 2.042732496579812
    },
    "planner": "RRT",
    "start": {
        "state": {
            "elbow_joint": 1.9715477243005601,
            "shoulder_lift_joint": -1.1394853015351272,
            "shoulder_pan_joint": 0.12281154014795169,
            "wrist_1_joint": -0.7804696478968182,
            "wrist_2_joint": 0.12958648046900423,
            "wrist_3_joint": -3.192491284697111
        }
    },
    "waypoints": [
        {
            "positions": [
                0.12281154014795169,
                -1.1394853015351272,
                1.9715477243005601,
                -0.7804696478968182,
                0.12958648046900423,
                -3.192491284697111
            ]
        },
        {
            "positions": [
                0.05698543124097158,
                -1.1725459282515593,
                2.036159111154847,
                -0.817499947609979,
                0.28728438410630236,
                -3.1781067919193555
            ]
        },
        {
            "positions": [
                -0.008840677666008531,
                -1.2056065549679915,
                2.1007704980091337,
                -0.85453024732314,
                0.4449822877436005,
                -3.1637222991416
            ]
        },
        {
            "positions": [
                -0.07466678657298866,
                -1.2386671816844237,
                2.1653818848634208,
                -0.8915605470363008,
                0.6026801913808986,
                -3.149337806363844
            ]
        },
        {
            "positions": [
                -0.14049289547996874,
                -1.2717278084008559,
                2.229993271717708,
                -0.9285908467494618,
                0.7603780950181968,
                -3.134953313586088
            ]
        },
        {
            "positions": [
                -0.2063190043869489,
                -1.3047884351172883,
                2.294604658571995,
                -0.9656211464626226,
                0.9180759986554949,
                -3.1205688208083324
            ]
        },
        {
            "positions": [
                -0.272145113293929,
                -1.3378490618337204,
                2.3592160454262814,
                -1.0026514461757836,
                1.075773902292793,
                -3.1061843280305768
            ]
        },
        {
            "positions": [
                -0.33797122220090914,
                -1.3709096885501526,
                2.4238274322805684,
                -1.0396817458889445,
                1.2334718059300913,
                -3.091799835252821
            ]
        }
    ]
}