{
    "goal": {
        "global_pose": {
            "orientation": {
                "w": 0.7047431468963623,
                "x": -0.7094548344612122,
                "y": 0.0024358443915843964,
                "z": -0.0022348060738295317
            },
            "position": {
                "x": 0.6094750761985779,
                "y": 0.3671506643295288,
                "z": 0.19426114857196808
            }
        },
        "name": "move_to_magneteinheit_A"
    },
    "id": "RRT_move_to_magneteinheit_A_99",
    "joint_names": [
        "shoulder_pan_joint",
        "shoulder_lift_joint",
        "elbow_joint",
        "wrist_1_joint",
        "wrist_2_joint",
        "wrist_3_joint"
    ],
    "metrics": {
        "cart_traj_len": 2.7103026107826618,
        "distance_elbow_joint": 3.9125073558301984,
        "distance_shoulder_lift_joint": 2.2740203843185647,
        "distance_shoulder_pan_joint": 3.0590002191951795,
        "distance_wrist_1_joint": 4.244724991373369,
        "distance_wrist_2_joint": 2.182490994042502,
        "distance_wrist_3_joint": 2.4500972599027766,
        "smoothness": 0.2725211904212163,
        "time": 0.09993469099999999,
        "traj_len": 4.257093046277305,
        "weighted_distance": 5.426808611871621
    },
    "planner": "RRT",
    "start": {
        "state": {
            "elbow_joint": -1.919618573717145,
            "shoulder_lift_joint": -1.2443395971678275,
            "shoulder_pan_joint": 2.6996025300909787,
            "wrist_1_joint": -1.548550951253194,
            "wrist_2_joint": -1.5709469090946802,
            "wrist_3_joint": 0.4420197732051276
        }
    },
    "waypoints": [
        {
            "positions": [
                2.6996025300909787,
                -1.2443395971678275,
                -1.919618573717145,
                -1.548550951253194,
                -1.5709469090946802,
                0.4420197732051276
            ]
        },
        {
            "positions": [
                2.621320098881338,
                -1.269410009516647,
                -1.8180246142207186,
                -1.4415721668865131,
                -1.5207269111316495,
                0.470211528195809
            ]
        },
        {
            "positions": [
                2.5430376676716975,
                -1.2944804218654666,
                -1.7164306547242925,
                -1.3345933825198322,
                -1.4705069131686188,
                0.4984032831864904
            ]
        },
        {
            "positions": [
                2.4647552364620564,
                -1.319550834214286,
                -1.614836695227866,
                -1.2276145981531514,
                -1.4202869152055881,
                0.5265950381771718
            ]
        },
        {
            "positions": [
                2.386472805252416,
                -1.3446212465631056,
                -1.5132427357314397,
                -1.1206358137864705,
                -1.3700669172425577,
                0.5547867931678533
            ]
        },
        {
            "positions": [
                2.308190374042775,
                -1.369691658911925,
                -1.4116487762350136,
                -1.0136570294197895,
                -1.319846919279527,
                0.5829785481585347
            ]
        },
        {
            "positions": [
                2.2299079428331345,
                -1.3947620712607447,
                -1.3100548167385873,
                -0.9066782450531086,
                -1.2696269213164963,
                0.6111703031492162
            ]
        },
        {
            "positions": [
                2.151625511623494,
                -1.4198324836095642,
                -1.208460857242161,
                -0.7996994606864276,
                -1.2194069233534657,
                0.6393620581398975
            ]
        },
        {
            "positions": [
                2.073343080413853,
                -1.4449028959583836,
                -1.1068668977457348,
                -0.6927206763197468,
                -1.169186925390435,
                0.6675538131305789
            ]
        },
        {
            "positions": [
                1.9950606492042122,
                -1.4699733083072033,
                -1.0052729382493084,
                -0.5857418919530658,
                -1.1189669274274043,
                0.6957455681212603
            ]
        },
        {
            "positions": [
                1.9167782179945716,
                -1.4950437206560228,
                -0.9036789787528821,
                -0.47876310758638474,
                -1.0687469294643739,
                0.7239373231119418
            ]
        },
        {
            "positions": [
                1.8384957867849308,
                -1.5201141330048422,
                -0.8020850192564557,
                -0.3717843232197038,
                -1.0185269315013432,
                0.7521290781026233
            ]
        },
        {
            "positions": [
                1.7602133555752901,
                -1.5451845453536617,
                -0.7004910597600296,
                -0.26480553885302305,
                -0.9683069335383125,
                0.7803208330933047
            ]
        },
        {
            "positions": [
                1.6819309243656493,
                -1.5702549577024814,
                -0.5988971002636032,
                -0.1578267544863421,
                -0.9180869355752819,
                0.8085125880839861
            ]
        },
        {
            "positions": [
                1.6036484931560087,
                -1.5953253700513008,
                -0.4973031407671771,
                -0.050847970119661134,
                -0.8678669376122512,
                0.8367043430746675
            ]
        },
        {
            "positions": [
                1.5253660619463678,
                -1.6203957824001205,
                -0.3957091812707507,
                0.05613081424701982,
                -0.8176469396492205,
                0.8648960980653488
            ]
        },
        {
            "positions": [
                1.4470836307367272,
                -1.64546619474894,
                -0.2941152217743246,
                0.16310959861370056,
                -0.76742694168619,
                0.8930878530560302
            ]
        },
        {
            "positions": [
                1.3688011995270866,
                -1.6705366070977594,
                -0.19252126227789823,
                0.2700883829803815,
                -0.7172069437231593,
                0.9212796080467117
            ]
        },
        {
            "positions": [
                1.2905187683174457,
                -1.6956070194465789,
                -0.09092730278147187,
                0.37706716734706247,
                -0.6669869457601286,
                0.9494713630373932
            ]
        },
        {
            "positions": [
                1.2122363371078049,
                -1.7206774317953986,
                0.010666656714954481,
                0.4840459517137434,
                -0.616766947797098,
                0.9776631180280746
            ]
        },
        {
            "positions": [
                1.1339539058981642,
                -1.745747844144218,
                0.11226061621138084,
                0.5910247360804246,
                -0.5665469498340674,
                1.005854873018756
            ]
        },
        {
            "positions": [
                1.0556714746885234,
                -1.7708182564930377,
                0.21385457570780697,
                0.6980035204471053,
                -0.5163269518710367,
                1.0340466280094374
            ]
        },
        {
            "positions": [
                0.9773890434788828,
                -1.7958886688418572,
                0.31544853520423355,
                0.8049823048137865,
                -0.46610695390800605,
                1.062238383000119
            ]
        },
        {
            "positions": [
                0.8991066122692422,
                -1.8209590811906766,
                0.41704249470065924,
                0.9119610891804668,
                -0.4158869559449756,
                1.0904301379908001
            ]
        },
        {
            "positions": [
                0.8208241810596015,
                -1.846029493539496,
                0.5186364541970858,
                1.018939873547148,
                -0.36566695798194493,
                1.1186218929814817
            ]
        },
        {
            "positions": [
                0.7425417498499607,
                -1.8710999058883155,
                0.620230413693512,
                1.1259186579138287,
                -0.31544696001891426,
                1.1468136479721631
            ]
        },
        {
            "positions": [
                0.6642593186403198,
                -1.8961703182371352,
                0.7218243731899385,
                1.23289744228051,
                -0.2652269620558836,
                1.1750054029628445
            ]
        },
        {
            "positions": [
                0.5859768874306792,
                -1.9212407305859547,
                0.8234183326863647,
                1.3398762266471906,
                -0.21500696409285291,
                1.2031971579535259
            ]
        },
        {
            "positions": [
                0.5076944562210386,
                -1.9463111429347744,
                0.9250122921827908,
                1.4468550110138718,
                -0.16478696612982224,
                1.2313889129442073
            ]
        },
        {
            "positions": [
                0.4294120250113975,
                -1.9713815552835938,
                1.0266062516792174,
                1.5538337953805526,
                -0.11456696816679157,
                1.2595806679348889
            ]
        },
        {
            "positions": [
                0.3511295938017569,
                -1.9964519676324133,
                1.1282002111756435,
                1.6608125797472337,
                -0.0643469702037609,
                1.2877724229255703
            ]
        },
        {
            "positions": [
                0.2728471625921163,
                -2.0215223799812327,
                1.22979417067207,
                1.7677913641139145,
                -0.014126972240730229,
                1.3159641779162516
            ]
        },
        {
            "positions": [
                0.19456473138247565,
                -2.046592792330052,
                1.3313881301684958,
                1.8747701484805952,
                0.03609302572230022,
                1.344155932906933
            ]
        },
        {
            "positions": [
                0.11628230017283503,
                -2.071663204678872,
                1.4329820896649224,
                1.981748932847276,
                0.08631302368533089,
                1.3723476878976144
            ]
        },
        {
            "positions": [
                0.037999868963194405,
                -2.0967336170276916,
                1.5345760491613485,
                2.088727717213957,
                0.13653302164836156,
                1.4005394428882958
            ]
        },
        {
            "positions": [
                -0.04028256224644666,
                -2.121804029376511,
                1.636170008657775,
                2.195706501580638,
                0.18675301961139223,
                1.4287311978789774
            ]
        },
        {
            "positions": [
                -0.1185649934560871,
                -2.1468744417253305,
                1.737763968154201,
                2.302685285947319,
                0.23697301757442282,
                1.4569229528696588
            ]
        },
        {
            "positions": [
                -0.09667111203353121,
                -2.0221939381106884,
                1.760957133059551,
                2.2669135810225143,
                0.20292110235865923,
                1.326450763757091
            ]
        },
        {
            "positions": [
                -0.07477723061097533,
                -1.8975134344960467,
                1.7841502979649013,
                2.231141876097709,
                0.16886918714289562,
                1.1959785746445233
            ]
        },
        {
            "positions": [
                -0.05288334918841943,
                -1.7728329308814048,
                1.8073434628702514,
                2.1953701711729043,
                0.13481727192713205,
                1.0655063855319558
            ]
        },
        {
            "positions": [
                -0.030989467765863532,
                -1.648152427266763,
                1.8305366277756017,
                2.1595984662480996,
                0.10076535671136844,
                0.9350341964193879
            ]
        },
        {
            "positions": [
                -0.009095586343307649,
                -1.5234719236521208,
                1.8537297926809517,
                2.1238267613232944,
                0.06671344149560485,
                0.8045620073068201
            ]
        },
        {
            "positions": [
                0.012798295079248248,
                -1.3987914200374791,
                1.876922957586302,
                2.0880550563984897,
                0.03266152627984126,
                0.6740898181942525
            ]
        },
        {
            "positions": [
                0.03469217650180413,
                -1.274110916422837,
                1.900116122491652,
                2.052283351473685,
                -0.0013903889359223598,
                0.5436176290816847
            ]
        },
        {
            "positions": [
                0.05658605792436004,
                -1.1494304128081951,
                1.9233092873970024,
                2.0165116465488797,
                -0.03544230415168595,
                0.413145439969117
            ]
        },
        {
            "positions": [
                0.07847993934691595,
                -1.0247499091935532,
                1.9465024523023524,
                1.980739941624075,
                -0.06949421936744957,
                0.28267325085654904
            ]
        },
        {
            "positions": [
                0.10037382076947181,
                -0.9000694055789114,
                1.9696956172077025,
                1.9449682366992702,
                -0.10354613458321313,
                0.15220106174398151
            ]
        },
        {
            "positions": [
                0.12226770219202772,
                -0.7753889019642694,
                1.9928887821130528,
                1.9091965317744652,
                -0.13759804979897675,
                0.021728872631413706
            ]
        }
    ]
}