{
    "goal": {
        "global_pose": {
            "orientation": {
                "w": 0.7047431468963623,
                "x": -0.7094548344612122,
                "y": 0.0024358443915843964,
                "z": -0.0022348060738295317
            },
            "position": {
                "x": 0.6094750761985779,
                "y": 0.3671506643295288,
                "z": 0.19426114857196808
            }
        },
        "name": "move_to_magneteinheit_A"
    },
    "id": "RRT_move_to_magneteinheit_A_17",
    "joint_names": [
        "shoulder_pan_joint",
        "shoulder_lift_joint",
        "elbow_joint",
        "wrist_1_joint",
        "wrist_2_joint",
        "wrist_3_joint"
    ],
    "metrics": {
        "cart_traj_len": 3.4427400698901405,
        "distance_elbow_joint": 3.8749219088747084,
        "distance_shoulder_lift_joint": 0.11437800716648283,
        "distance_shoulder_pan_joint": 2.643583459619336,
        "distance_wrist_1_joint": 2.2443391057792104,
        "distance_wrist_2_joint": 2.2883666075188773,
        "distance_wrist_3_joint": 2.5831670500600192,
        "smoothness": 0.22657881710463515,
        "time": 0.187000322,
        "traj_len": 3.7079315175740004,
        "weighted_distance": 4.842292427398077
    },
    "planner": "RRT",
    "start": {
        "state": {
            "elbow_joint": -1.919618573717145,
            "shoulder_lift_joint": -1.2443395971678275,
            "shoulder_pan_joint": 2.6996025300909787,
            "wrist_1_joint": -1.548550951253194,
            "wrist_2_joint": -1.5709469090946802,
            "wrist_3_joint": 0.4420197732051276
        }
    },
    "waypoints": [
        {
            "positions": [
                2.6996025300909787,
                -1.2443395971678275,
                -1.919618573717145,
                -1.548550951253194,
                -1.5709469090946802,
                0.4420197732051276
            ]
        },
        {
            "positions": [
                2.609901861925719,
                -1.2415771449566848,
                -1.8140304544367951,
                -1.495379612558465,
                -1.5021424648327504,
                0.5112234310417847
            ]
        },
        {
            "positions": [
                2.5202011937604594,
                -1.2388146927455421,
                -1.708442335156445,
                -1.4422082738637358,
                -1.4333380205708206,
                0.5804270888784417
            ]
        },
        {
            "positions": [
                2.4305005255951992,
                -1.2360522405343992,
                -1.6028542158760952,
                -1.3890369351690068,
                -1.3645335763088908,
                0.6496307467150988
            ]
        },
        {
            "positions": [
                2.3407998574299396,
                -1.2332897883232565,
                -1.4972660965957454,
                -1.3358655964742776,
                -1.295729132046961,
                0.7188344045517558
            ]
        },
        {
            "positions": [
                2.25109918926468,
                -1.2305273361121138,
                -1.3916779773153953,
                -1.2826942577795486,
                -1.2269246877850315,
                0.7880380623884129
            ]
        },
        {
            "positions": [
                2.1613985210994198,
                -1.2277648839009712,
                -1.2860898580350455,
                -1.2295229190848194,
                -1.1581202435231017,
                0.85724172022507
            ]
        },
        {
            "positions": [
                2.07169785293416,
                -1.2250024316898283,
                -1.1805017387546957,
                -1.1763515803900904,
                -1.089315799261172,
                0.926445378061727
            ]
        },
        {
            "positions": [
                1.9819971847689004,
                -1.2222399794786856,
                -1.0749136194743456,
                -1.1231802416953611,
                -1.0205113549992422,
                0.995649035898384
            ]
        },
        {
            "positions": [
                1.8922965166036407,
                -1.2194775272675429,
                -0.9693255001939958,
                -1.0700089030006321,
                -0.9517069107373124,
                1.064852693735041
            ]
        },
        {
            "positions": [
                1.8025958484383808,
                -1.2167150750564002,
                -0.8637373809136459,
                -1.016837564305903,
                -0.8829024664753826,
                1.1340563515716982
            ]
        },
        {
            "positions": [
                1.7128951802731212,
                -1.2139526228452573,
                -0.7581492616332961,
                -0.9636662256111739,
                -0.814098022213453,
                1.2032600094083552
            ]
        },
        {
            "positions": [
                1.6231945121078613,
                -1.2111901706341146,
                -0.652561142352946,
                -0.9104948869164448,
                -0.7452935779515232,
                1.2724636672450123
            ]
        },
        {
            "positions": [
                1.5334938439426016,
                -1.208427718422972,
                -0.5469730230725962,
                -0.8573235482217156,
                -0.6764891336895934,
                1.3416673250816693
            ]
        },
        {
            "positions": [
                1.4437931757773417,
                -1.2056652662118292,
                -0.44138490379224615,
                -0.8041522095269865,
                -0.6076846894276636,
                1.4108709829183264
            ]
        },
        {
            "positions": [
                1.3540925076120818,
                -1.2029028140006863,
                -0.3357967845118963,
                -0.7509808708322574,
                -0.5388802451657337,
                1.4800746407549834
            ]
        },
        {
            "positions": [
                1.264391839446822,
                -1.2001403617895436,
                -0.23020866523154648,
                -0.6978095321375284,
                -0.4700758009038042,
                1.5492782985916405
            ]
        },
        {
            "positions": [
                1.1746911712815624,
                -1.197377909578401,
                -0.12462054595119665,
                -0.6446381934427993,
                -0.4012713566418744,
                1.6184819564282975
            ]
        },
        {
            "positions": [
                1.0849905031163025,
                -1.1946154573672583,
                -0.01903242667084659,
                -0.5914668547480701,
                -0.33246691237994463,
                1.6876856142649546
            ]
        },
        {
            "positions": [
                0.9952898349510428,
                -1.1918530051561154,
                0.08655569260950302,
                -0.5382955160533411,
                -0.26366246811801486,
                1.7568892721016116
            ]
        },
        {
            "positions": [
                0.9055891667857829,
                -1.1890905529449727,
                0.19214381188985308,
                -0.4851241773586119,
                -0.19485802385608508,
                1.8260929299382687
            ]
        },
        {
            "positions": [
                0.8158884986205233,
                -1.18632810073383,
                0.29773193117020313,
                -0.4319528386638829,
                -0.1260535795941553,
                1.8952965877749257
            ]
        },
        {
            "positions": [
                0.7261878304552636,
                -1.1835656485226873,
                0.40332005045055275,
                -0.37878149996915367,
                -0.05724913533222575,
                1.9645002456115828
            ]
        },
        {
            "positions": [
                0.6364871622900035,
                -1.1808031963115444,
                0.5089081697309028,
                -0.32561016127442444,
                0.011555308929704244,
                2.03370390344824
            ]
        },
        {
            "positions": [
                0.5467864941247438,
                -1.1780407441004017,
                0.6144962890112529,
                -0.2724388225796954,
                0.0803597531916338,
                2.102907561284897
            ]
        },
        {
            "positions": [
                0.4570858259594841,
                -1.175278291889259,
                0.7200844082916025,
                -0.21926748388496642,
                0.14916419745356357,
                2.172111219121554
            ]
        },
        {
            "positions": [
                0.3673851577942244,
                -1.1725158396781163,
                0.8256725275719525,
                -0.1660961451902372,
                0.21796864171549335,
                2.241314876958211
            ]
        },
        {
            "positions": [
                0.27768448962896475,
                -1.1697533874669737,
                0.9312606468523026,
                -0.11292480649550818,
                0.2867730859774231,
                2.310518534794868
            ]
        },
        {
            "positions": [
                0.18798382146370463,
                -1.1669909352558308,
                1.0368487661326526,
                -0.05975346780077895,
                0.3555775302393529,
                2.379722192631525
            ]
        },
        {
            "positions": [
                0.09828315329844503,
                -1.164228483044688,
                1.1424368854130025,
                -0.006582129106049939,
                0.42438197450128273,
                2.448925850468182
            ]
        },
        {
            "positions": [
                0.09677130193849863,
                -1.1619242483641568,
                1.273883593163024,
                -0.11578029572503902,
                0.3848010387606965,
                2.5297539355422103
            ]
        },
        {
            "positions": [
                0.09525945057855223,
                -1.1596200136836257,
                1.4053303009130451,
                -0.2249784623440281,
                0.3452201030201102,
                2.6105820206162385
            ]
        },
        {
            "positions": [
                0.09374759921860584,
                -1.1573157790030946,
                1.5367770086630665,
                -0.3341766289630172,
                0.30563916727952395,
                2.6914101056902666
            ]
        },
        {
            "positions": [
                0.09223574785865944,
                -1.1550115443225633,
                1.6682237164130878,
                -0.44337479558200626,
                0.2660582315389377,
                2.772238190764295
            ]
        },
        {
            "positions": [
                0.09072389649871304,
                -1.152707309642032,
                1.7996704241631094,
                -0.5525729622009954,
                0.22647729579835144,
                2.853066275838323
            ]
        },
        {
            "positions": [
                0.08921204513876664,
                -1.1504030749615008,
                1.9311171319131306,
                -0.6617711288199845,
                0.1868963600577652,
                2.933894360912351
            ]
        },
        {
            "positions": [
                0.12240501980589077,
                -1.1299615900013447,
                1.9553033351575637,
                -0.7089524127381165,
                0.13134425057836854,
                3.025186823265147
            ]
        }
    ]
}