{
    "goal": {
        "global_pose": {
            "orientation": {
                "w": 0.5084816217422485,
                "x": -0.49083608388900757,
                "y": 0.5182115435600281,
                "z": -0.4816462993621826
            },
            "position": {
                "x": 0.5540239810943604,
                "y": 0.030875300988554955,
                "z": 0.16403168439865112
            }
        },
        "name": "move_to_storage_A"
    },
    "id": "RRT_move_to_storage_A_4",
    "joint_names": [
        "shoulder_pan_joint",
        "shoulder_lift_joint",
        "elbow_joint",
        "wrist_1_joint",
        "wrist_2_joint",
        "wrist_3_joint"
    ],
    "metrics": {
        "cart_traj_len": 0.35274097539761884,
        "distance_elbow_joint": 0.44975001995530617,
        "distance_shoulder_lift_joint": 0.2347129089708042,
        "distance_shoulder_pan_joint": 0.46253796636830335,
        "distance_wrist_1_joint": 0.24304148843835482,
        "distance_wrist_2_joint": 1.092621165916729,
        "distance_wrist_3_joint": 0.10531150285518054,
        "smoothness": 2.2204460668324854e-16,
        "time": 0.011759148,
        "traj_len": 1.6087184503525405,
        "weighted_distance": 2.0332881528622853
    },
    "planner": "RRT",
    "start": {
        "state": {
            "elbow_joint": 1.9715477243005601,
            "shoulder_lift_joint": -1.1394853015351272,
            "shoulder_pan_joint": 0.12281154014795169,
            "wrist_1_joint": -0.7804696478968182,
            "wrist_2_joint": 0.12958648046900423,
            "wrist_3_joint": -3.192491284697111
        }
    },
    "waypoints": [
        {
            "positions": [
                0.12281154014795169,
                -1.1394853015351272,
                1.9715477243005601,
                -0.7804696478968182,
                0.12958648046900423,
                -3.192491284697111
            ]
        },
        {
            "positions": [
                0.05673468780962264,
                -1.173015717102385,
                2.0357977271513183,
                -0.8151898605308688,
                0.2856752184571084,
                -3.1774467842892284
            ]
        },
        {
            "positions": [
                -0.009342164528706412,
                -1.2065461326696427,
                2.100047730002076,
                -0.8499100731649195,
                0.44176395644521255,
                -3.1624022838813453
            ]
        },
        {
            "positions": [
                -0.07541901686703546,
                -1.2400765482369005,
                2.1642977328528343,
                -0.8846302857989702,
                0.5978526944333167,
                -3.1473577834734625
            ]
        },
        {
            "positions": [
                -0.1414958692053645,
                -1.273606963804158,
                2.228547735703592,
                -0.919350498433021,
                0.7539414324214209,
                -3.1323132830655793
            ]
        },
        {
            "positions": [
                -0.20757272154369355,
                -1.3071373793714158,
                2.2927977385543503,
                -0.9540707110670716,
                0.910030170409525,
                -3.1172687826576966
            ]
        },
        {
            "positions": [
                -0.2736495738820226,
                -1.3406677949386736,
                2.357047741405108,
                -0.9887909237011223,
                1.066118908397629,
                -3.1022242822498134
            ]
        },
        {
            "positions": [
                -0.33972642622035165,
                -1.3741982105059314,
                2.4212977442558663,
                -1.023511136335173,
                1.2222076463857334,
                -3.0871797818419306
            ]
        }
    ]
}