{
    "goal": {
        "global_pose": {
            "orientation": {
                "w": 0.5084816217422485,
                "x": -0.49083608388900757,
                "y": 0.5182115435600281,
                "z": -0.4816462993621826
            },
            "position": {
                "x": 0.5540239810943604,
                "y": 0.030875300988554955,
                "z": 0.16403168439865112
            }
        },
        "name": "move_to_storage_A"
    },
    "id": "RRT_move_to_storage_A_98",
    "joint_names": [
        "shoulder_pan_joint",
        "shoulder_lift_joint",
        "elbow_joint",
        "wrist_1_joint",
        "wrist_2_joint",
        "wrist_3_joint"
    ],
    "metrics": {
        "cart_traj_len": 0.3539575403614217,
        "distance_elbow_joint": 0.4528691851818558,
        "distance_shoulder_lift_joint": 0.2352037740854036,
        "distance_shoulder_pan_joint": 0.4602716042050133,
        "distance_wrist_1_joint": 0.2547815773920933,
        "distance_wrist_2_joint": 1.1121812263384911,
        "distance_wrist_3_joint": 0.10327124194175052,
        "smoothness": 1.4432899335161698e-15,
        "time": 0.016066114,
        "traj_len": 1.6182022769556985,
        "weighted_distance": 2.0474579108637845
    },
    "planner": "RRT",
    "start": {
        "state": {
            "elbow_joint": 1.9715477243005601,
            "shoulder_lift_joint": -1.1394853015351272,
            "shoulder_pan_joint": 0.12281154014795169,
            "wrist_1_joint": -0.7804696478968182,
            "wrist_2_joint": 0.12958648046900423,
            "wrist_3_joint": -3.192491284697111
        }
    },
    "waypoints": [
        {
            "positions": [
                0.12281154014795169,
                -1.1394853015351272,
                1.9715477243005601,
                -0.7804696478968182,
                0.12958648046900423,
                -3.192491284697111
            ]
        },
        {
            "positions": [
                0.0570584538329498,
                -1.1730858406901847,
                2.036243322183682,
                -0.8168670160956887,
                0.2884695128030744,
                -3.177738250134004
            ]
        },
        {
            "positions": [
                -0.008694632482052086,
                -1.2066863798452425,
                2.1009389200668047,
                -0.8532643842945591,
                0.44735254513714456,
                -3.1629852155708966
            ]
        },
        {
            "positions": [
                -0.07444771879705399,
                -1.2402869190003,
                2.165634517949927,
                -0.8896617524934296,
                0.6062355774712147,
                -3.1482321810077893
            ]
        },
        {
            "positions": [
                -0.14020080511205585,
                -1.2738874581553579,
                2.2303301158330493,
                -0.9260591206923,
                0.7651186098052849,
                -3.1334791464446825
            ]
        },
        {
            "positions": [
                -0.20595389142705778,
                -1.3074879973104154,
                2.2950257137161714,
                -0.9624564888911705,
                0.9240016421393551,
                -3.1187261118815752
            ]
        },
        {
            "positions": [
                -0.27170697774205965,
                -1.341088536465473,
                2.3597213115992934,
                -0.9988538570900409,
                1.082884674473425,
                -3.103973077318468
            ]
        },
        {
            "positions": [
                -0.3374600640570616,
                -1.3746890756205308,
                2.424416909482416,
                -1.0352512252889114,
                1.2417677068074953,
                -3.0892200427553607
            ]
        }
    ]
}