{
    "goal": {
        "global_pose": {
            "orientation": {
                "w": 0.7047431468963623,
                "x": -0.7094548344612122,
                "y": 0.0024358443915843964,
                "z": -0.0022348060738295317
            },
            "position": {
                "x": 0.6094750761985779,
                "y": 0.3671506643295288,
                "z": 0.19426114857196808
            }
        },
        "name": "move_to_magneteinheit_A"
    },
    "id": "RRT_move_to_magneteinheit_A_39",
    "joint_names": [
        "shoulder_pan_joint",
        "shoulder_lift_joint",
        "elbow_joint",
        "wrist_1_joint",
        "wrist_2_joint",
        "wrist_3_joint"
    ],
    "metrics": {
        "cart_traj_len": 3.3828374710104145,
        "distance_elbow_joint": 3.97371517704328,
        "distance_shoulder_lift_joint": 0.6192379658823322,
        "distance_shoulder_pan_joint": 2.577826636242891,
        "distance_wrist_1_joint": 2.571063083731657,
        "distance_wrist_2_joint": 3.554556219083403,
        "distance_wrist_3_joint": 2.7097835006703592,
        "smoothness": 0.16846886166693845,
        "time": 0.583758825,
        "traj_len": 4.00077274818927,
        "weighted_distance": 5.248939786929328
    },
    "planner": "RRT",
    "start": {
        "state": {
            "elbow_joint": -1.919618573717145,
            "shoulder_lift_joint": -1.2443395971678275,
            "shoulder_pan_joint": 2.6996025300909787,
            "wrist_1_joint": -1.548550951253194,
            "wrist_2_joint": -1.5709469090946802,
            "wrist_3_joint": 0.4420197732051276
        }
    },
    "waypoints": [
        {
            "positions": [
                2.6996025300909787,
                -1.2443395971678275,
                -1.919618573717145,
                -1.548550951253194,
                -1.5709469090946802,
                0.4420197732051276
            ]
        },
        {
            "positions": [
                2.623817208799371,
                -1.2527695221635462,
                -1.7944427136685688,
                -1.5763389768972231,
                -1.488827303902689,
                0.5089229865609762
            ]
        },
        {
            "positions": [
                2.5480318875077637,
                -1.2611994471592647,
                -1.6692668536199924,
                -1.604127002541252,
                -1.406707698710698,
                0.5758261999168249
            ]
        },
        {
            "positions": [
                2.472246566216156,
                -1.2696293721549834,
                -1.5440909935714162,
                -1.631915028185281,
                -1.3245880935187067,
                0.6427294132726736
            ]
        },
        {
            "positions": [
                2.3964612449245486,
                -1.278059297150702,
                -1.41891513352284,
                -1.65970305382931,
                -1.2424684883267156,
                0.7096326266285222
            ]
        },
        {
            "positions": [
                2.320675923632941,
                -1.2864892221464206,
                -1.2937392734742639,
                -1.687491079473339,
                -1.1603488831347244,
                0.7765358399843709
            ]
        },
        {
            "positions": [
                2.244890602341333,
                -1.2949191471421393,
                -1.1685634134256877,
                -1.715279105117368,
                -1.0782292779427334,
                0.8434390533402196
            ]
        },
        {
            "positions": [
                2.1691052810497258,
                -1.3033490721378578,
                -1.0433875533771113,
                -1.743067130761397,
                -0.9961096727507421,
                0.9103422666960683
            ]
        },
        {
            "positions": [
                2.093319959758118,
                -1.3117789971335765,
                -0.9182116933285351,
                -1.770855156405426,
                -0.913990067558751,
                0.977245480051917
            ]
        },
        {
            "positions": [
                2.0175346384665103,
                -1.3202089221292952,
                -0.793035833279959,
                -1.7986431820494548,
                -0.8318704623667599,
                1.0441486934077657
            ]
        },
        {
            "positions": [
                1.941749317174903,
                -1.3286388471250137,
                -0.6678599732313828,
                -1.8264312076934839,
                -0.7497508571747687,
                1.1110519067636144
            ]
        },
        {
            "positions": [
                1.8659639958832952,
                -1.3370687721207324,
                -0.5426841131828064,
                -1.854219233337513,
                -0.6676312519827776,
                1.1779551201194631
            ]
        },
        {
            "positions": [
                1.790178674591688,
                -1.345498697116451,
                -0.41750825313423023,
                -1.8820072589815418,
                -0.5855116467907865,
                1.2448583334753116
            ]
        },
        {
            "positions": [
                1.7143933533000801,
                -1.3539286221121696,
                -0.29233239308565406,
                -1.9097952846255708,
                -0.5033920415987954,
                1.3117615468311605
            ]
        },
        {
            "positions": [
                1.6386080320084726,
                -1.3623585471078883,
                -0.1671565330370779,
                -1.9375833102695998,
                -0.4212724364068041,
                1.378664760187009
            ]
        },
        {
            "positions": [
                1.5628227107168648,
                -1.370788472103607,
                -0.0419806729885015,
                -1.965371335913629,
                -0.3391528312148131,
                1.445567973542858
            ]
        },
        {
            "positions": [
                1.4870373894252575,
                -1.3792183970993255,
                0.08319518706007467,
                -1.9931593615576577,
                -0.25703322602282186,
                1.5124711868987064
            ]
        },
        {
            "positions": [
                1.41125206813365,
                -1.3876483220950442,
                0.20837104710865062,
                -2.0209473872016868,
                -0.17491362083083084,
                1.579374400254555
            ]
        },
        {
            "positions": [
                1.3354667468420423,
                -1.396078247090763,
                0.333546907157227,
                -2.0487354128457156,
                -0.0927940156388396,
                1.646277613610404
            ]
        },
        {
            "positions": [
                1.2596814255504347,
                -1.4045081720864814,
                0.4587227672058034,
                -2.076523438489745,
                -0.01067441044684836,
                1.7131808269662525
            ]
        },
        {
            "positions": [
                1.1838961042588272,
                -1.4129380970822,
                0.5838986272543794,
                -2.1043114641337737,
                0.07144519474514266,
                1.7800840403221012
            ]
        },
        {
            "positions": [
                1.1081107829672197,
                -1.4213680220779188,
                0.7090744873029553,
                -2.1320994897778025,
                0.15356479993713368,
                1.84698725367795
            ]
        },
        {
            "positions": [
                1.032325461675612,
                -1.4297979470736373,
                0.8342503473515321,
                -2.1598875154218318,
                0.23568440512912492,
                1.9138904670337986
            ]
        },
        {
            "positions": [
                0.9565401403840044,
                -1.438227872069356,
                0.9594262074001081,
                -2.1876755410658606,
                0.31780401032111616,
                1.9807936803896473
            ]
        },
        {
            "positions": [
                0.8807548190923968,
                -1.4466577970650745,
                1.0846020674486845,
                -2.2154635667098894,
                0.3999236155131072,
                2.0476968937454956
            ]
        },
        {
            "positions": [
                0.8049694978007893,
                -1.4550877220607932,
                1.2097779274972604,
                -2.2432515923539187,
                0.4820432207050982,
                2.1146001071013445
            ]
        },
        {
            "positions": [
                0.7291841765091815,
                -1.4635176470565119,
                1.3349537875458368,
                -2.2710396179979475,
                0.5641628258970894,
                2.1815033204571934
            ]
        },
        {
            "positions": [
                0.6533988552175738,
                -1.4719475720522304,
                1.4601296475944132,
                -2.2988276436419763,
                0.6462824310890807,
                2.248406533813042
            ]
        },
        {
            "positions": [
                0.5776135339259665,
                -1.480377497047949,
                1.5853055076429892,
                -2.3266156692860056,
                0.7284020362810719,
                2.3153097471688904
            ]
        },
        {
            "positions": [
                0.5018282126343592,
                -1.4888074220436678,
                1.7104813676915651,
                -2.3544036949300344,
                0.8105216414730627,
                2.3822129605247393
            ]
        },
        {
            "positions": [
                0.426042891342751,
                -1.4972373470393863,
                1.835657227740142,
                -2.3821917205740637,
                0.892641246665054,
                2.449116173880588
            ]
        },
        {
            "positions": [
                0.35025757005114366,
                -1.505667272035105,
                1.960833087788718,
                -2.4099797462180925,
                0.9747608518570452,
                2.5160193872364367
            ]
        },
        {
            "positions": [
                0.2747382476561169,
                -1.4166731284530325,
                1.9880062019406464,
                -2.433585476602361,
                1.0155496548620502,
                2.624558270383
            ]
        },
        {
            "positions": [
                0.19921892526109009,
                -1.3276789848709603,
                2.0151793160925746,
                -2.45719120698663,
                1.0563384578670552,
                2.733097153529563
            ]
        },
        {
            "positions": [
                0.16932415129557907,
                -1.2693466647299767,
                2.0129916822459153,
                -2.470199756758218,
                0.9899484849003795,
                2.785565507684285
            ]
        },
        {
            "positions": [
                0.13942937733006805,
                -1.2110143445889932,
                2.0108040483992555,
                -2.4832083065298054,
                0.9235585119337038,
                2.838033861839006
            ]
        },
        {
            "positions": [
                0.13769407271647482,
                -1.2021389634173711,
                2.004871916563931,
                -2.2857393394066015,
                0.8349483173318061,
                2.859451054264046
            ]
        },
        {
            "positions": [
                0.13595876810288157,
                -1.1932635822457491,
                1.998939784728607,
                -2.088270372283397,
                0.7463381227299084,
                2.880868246689086
            ]
        },
        {
            "positions": [
                0.13422346348928835,
                -1.1843882010741273,
                1.9930076528932825,
                -1.8908014051601931,
                0.6577279281280108,
                2.9022854391141255
            ]
        },
        {
            "positions": [
                0.1324881588756951,
                -1.1755128199025053,
                1.9870755210579583,
                -1.6933324380369887,
                0.5691177335261132,
                2.9237026315391654
            ]
        },
        {
            "positions": [
                0.13075285426210187,
                -1.1666374387308833,
                1.981143389222634,
                -1.4958634709137848,
                0.48050753892421555,
                2.9451198239642054
            ]
        },
        {
            "positions": [
                0.128508614158598,
                -1.161917324303175,
                1.9823637293135388,
                -1.3335982477040285,
                0.3926475556295085,
                2.9967906864420257
            ]
        },
        {
            "positions": [
                0.1262643740550941,
                -1.1571972098754668,
                1.9835840694044435,
                -1.1713330244942721,
                0.3047875723348014,
                3.048461548919846
            ]
        },
        {
            "positions": [
                0.1240201339515902,
                -1.1524770954477586,
                1.984804409495348,
                -1.009067801284516,
                0.21692758904009435,
                3.1001324113976665
            ]
        },
        {
            "positions": [
                0.12177589384808632,
                -1.1477569810200503,
                1.9860247495862529,
                -0.8468025780747597,
                0.12906760574538728,
                3.151803273875487
            ]
        }
    ]
}{
    "goal": {
        "global_pose": {
            "orientation": {
                "w": 0.7047431468963623,
                "x": -0.7094548344612122,
                "y": 0.0024358443915843964,
                "z": -0.0022348060738295317
            },
            "position": {
                "x": 0.6094750761985779,
                "y": 0.3671506643295288,
                "z": 0.19426114857196808
            }
        },
        "name": "move_to_magneteinheit_A"
    },
    "id": "RRT_move_to_magneteinheit_A_39",
    "joint_names": [
        "shoulder_pan_joint",
        "shoulder_lift_joint",
        "elbow_joint",
        "wrist_1_joint",
        "wrist_2_joint",
        "wrist_3_joint"
    ],
    "metrics": {
        "cart_traj_len": 1.515116872761544,
        "distance_elbow_joint": 1.0557530549860918,
        "distance_shoulder_lift_joint": 1.1199045926060682,
        "distance_shoulder_pan_joint": 1.2403716784664827,
        "distance_wrist_1_joint": 0.7652278906417136,
        "distance_wrist_2_joint": 1.4398508425563321,
        "distance_wrist_3_joint": 4.273388868296822,
        "smoothness": 0.20598090646901657,
        "time": 0.074691079,
        "traj_len": 3.14555192733382,
        "weighted_distance": 4.543825854645532
    },
    "planner": "RRT",
    "start": {
        "state": {
            "elbow_joint": 1.919643534880228,
            "shoulder_lift_joint": -1.8972525353963687,
            "shoulder_pan_joint": -1.1188672234189438,
            "wrist_1_joint": -1.5931878212786155,
            "wrist_2_joint": 1.5706036197970081,
            "wrist_3_joint": 1.118896926603594
        }
    },
    "waypoints": [
        {
            "positions": [
                -1.1188672234189438,
                -1.8972525353963687,
                1.919643534880228,
                -1.5931878212786155,
                1.5706036197970081,
                1.118896926603594
            ]
        },
        {
            "positions": [
                -1.0688190219016156,
                -1.8547145642813048,
                1.8970939860411549,
                -1.562362910092789,
                1.5104640464033288,
                0.946725600814938
            ]
        },
        {
            "positions": [
                -1.0187708203842871,
                -1.8121765931662408,
                1.8745444372020816,
                -1.5315379989069624,
                1.4503244730096496,
                0.7745542750262819
            ]
        },
        {
            "positions": [
                -0.9687226188669589,
                -1.7696386220511768,
                1.8519948883630086,
                -1.5007130877211359,
                1.3901848996159702,
                0.6023829492376259
            ]
        },
        {
            "positions": [
                -0.9186744173496306,
                -1.7271006509361129,
                1.8294453395239354,
                -1.4698881765353091,
                1.330045326222291,
                0.4302116234489698
            ]
        },
        {
            "positions": [
                -0.8686262158323024,
                -1.684562679821049,
                1.8068957906848622,
                -1.4390632653494826,
                1.2699057528286117,
                0.2580402976603138
            ]
        },
        {
            "positions": [
                -0.818578014314974,
                -1.6420247087059852,
                1.784346241845789,
                -1.408238354163656,
                1.2097661794349326,
                0.08586897187165787
            ]
        },
        {
            "positions": [
                -0.7685298127976457,
                -1.5994867375909212,
                1.761796693006716,
                -1.3774134429778295,
                1.1496266060412532,
                -0.08630235391699825
            ]
        },
        {
            "positions": [
                -0.7184816112803174,
                -1.5569487664758572,
                1.7392471441676427,
                -1.346588531792003,
                1.089487032647574,
                -0.2584736797056544
            ]
        },
        {
            "positions": [
                -0.668433409762989,
                -1.5144107953607933,
                1.7166975953285695,
                -1.3157636206061765,
                1.0293474592538947,
                -0.4306450054943105
            ]
        },
        {
            "positions": [
                -0.6183852082456608,
                -1.4718728242457293,
                1.6941480464894962,
                -1.28493870942035,
                0.9692078858602154,
                -0.6028163312829664
            ]
        },
        {
            "positions": [
                -0.5683370067283324,
                -1.4293348531306653,
                1.671598497650423,
                -1.2541137982345232,
                0.9090683124665362,
                -0.7749876570716225
            ]
        },
        {
            "positions": [
                -0.5182888052110042,
                -1.3867968820156014,
                1.64904894881135,
                -1.2232888870486969,
                0.8489287390728569,
                -0.9471589828602782
            ]
        },
        {
            "positions": [
                -0.4682406036936758,
                -1.3442589109005374,
                1.6264993999722768,
                -1.1924639758628701,
                0.7887891656791776,
                -1.1193303086489348
            ]
        },
        {
            "positions": [
                -0.41819240217634746,
                -1.3017209397854734,
                1.6039498511332035,
                -1.1616390646770436,
                0.7286495922854984,
                -1.2915016344375905
            ]
        },
        {
            "positions": [
                -0.3681442006590192,
                -1.2591829686704097,
                1.5814003022941305,
                -1.130814153491217,
                0.6685100188918192,
                -1.4636729602262466
            ]
        },
        {
            "positions": [
                -0.31809599914169084,
                -1.2166449975553455,
                1.558850753455057,
                -1.0999892423053905,
                0.6083704454981398,
                -1.6358442860149027
            ]
        },
        {
            "positions": [
                -0.2680477976243626,
                -1.1741070264402818,
                1.536301204615984,
                -1.069164331119564,
                0.5482308721044606,
                -1.8080156118035589
            ]
        },
        {
            "positions": [
                -0.21799959610703423,
                -1.1315690553252176,
                1.5137516557769108,
                -1.0383394199337372,
                0.4880912987107813,
                -1.980186937592215
            ]
        },
        {
            "positions": [
                -0.16795139458970598,
                -1.0890310842101538,
                1.4912021069378376,
                -1.007514508747911,
                0.4279517253171021,
                -2.1523582633808713
            ]
        },
        {
            "positions": [
                -0.11790319307237773,
                -1.0464931130950899,
                1.4686525580987646,
                -0.9766895975620843,
                0.36781215192342276,
                -2.3245295891695266
            ]
        },
        {
            "positions": [
                -0.06785499155504926,
                -1.0039551419800259,
                1.4461030092596914,
                -0.9458646863762576,
                0.3076725785297434,
                -2.4967009149581836
            ]
        },
        {
            "positions": [
                -0.017806790037721065,
                -0.9614171708649619,
                1.4235534604206181,
                -0.9150397751904311,
                0.2475330051360642,
                -2.668872240746839
            ]
        },
        {
            "positions": [
                0.017021021233593822,
                -1.0074344778836273,
                1.5634692055522386,
                -0.8932698140520487,
                0.21833794816221708,
                -2.790277165983436
            ]
        },
        {
            "positions": [
                0.05184883250490871,
                -1.0534517849022926,
                1.703384950683859,
                -0.8714998529136665,
                0.18914289118836997,
                -2.911682091220033
            ]
        },
        {
            "positions": [
                0.0866766437762236,
                -1.099469091920958,
                1.8433006958154796,
                -0.8497298917752842,
                0.15994783421452283,
                -3.03308701645663
            ]
        },
        {
            "positions": [
                0.1215044550475385,
                -1.1454863989396233,
                1.9832164409471,
                -0.8279599306369019,
                0.13075277724067572,
                -3.154491941693227
            ]
        }
    ]
}