{
    "goal": {
        "global_pose": {
            "orientation": {
                "w": 0.7047431468963623,
                "x": -0.7094548344612122,
                "y": 0.0024358443915843964,
                "z": -0.0022348060738295317
            },
            "position": {
                "x": 0.6094750761985779,
                "y": 0.3671506643295288,
                "z": 0.19426114857196808
            }
        },
        "name": "move_to_magneteinheit_A"
    },
    "id": "RRT_move_to_magneteinheit_A_57",
    "joint_names": [
        "shoulder_pan_joint",
        "shoulder_lift_joint",
        "elbow_joint",
        "wrist_1_joint",
        "wrist_2_joint",
        "wrist_3_joint"
    ],
    "metrics": {
        "cart_traj_len": 3.4506655035240774,
        "distance_elbow_joint": 4.172652262198204,
        "distance_shoulder_lift_joint": 0.9744413158420846,
        "distance_shoulder_pan_joint": 2.882675825379419,
        "distance_wrist_1_joint": 1.9566714144459305,
        "distance_wrist_2_joint": 2.506250666942267,
        "distance_wrist_3_joint": 2.886150425627376,
        "smoothness": 0.35516524733503363,
        "time": 0.118434209,
        "traj_len": 3.921586657264541,
        "weighted_distance": 5.06103396976134
    },
    "planner": "RRT",
    "start": {
        "state": {
            "elbow_joint": -1.919618573717145,
            "shoulder_lift_joint": -1.2443395971678275,
            "shoulder_pan_joint": 2.6996025300909787,
            "wrist_1_joint": -1.548550951253194,
            "wrist_2_joint": -1.5709469090946802,
            "wrist_3_joint": 0.4420197732051276
        }
    },
    "waypoints": [
        {
            "positions": [
                2.6996025300909787,
                -1.2443395971678275,
                -1.919618573717145,
                -1.548550951253194,
                -1.5709469090946802,
                0.4420197732051276
            ]
        },
        {
            "positions": [
                2.5324683615924486,
                -1.255399517047897,
                -1.8777182263726062,
                -1.4892067491875185,
                -1.5211932689811953,
                0.4841157560379851
            ]
        },
        {
            "positions": [
                2.3653341930939185,
                -1.2664594369279665,
                -1.8358178790280673,
                -1.4298625471218427,
                -1.4714396288677107,
                0.5262117388708427
            ]
        },
        {
            "positions": [
                2.1982000245953883,
                -1.2775193568080359,
                -1.7939175316835285,
                -1.370518345056167,
                -1.421685988754226,
                0.5683077217037003
            ]
        },
        {
            "positions": [
                2.031065856096858,
                -1.2885792766881055,
                -1.7520171843389898,
                -1.3111741429904913,
                -1.371932348640741,
                0.6104037045365578
            ]
        },
        {
            "positions": [
                1.8639316875983283,
                -1.299639196568175,
                -1.7101168369944508,
                -1.2518299409248157,
                -1.3221787085272565,
                0.6524996873694153
            ]
        },
        {
            "positions": [
                1.6967975190997981,
                -1.3106991164482444,
                -1.668216489649912,
                -1.1924857388591399,
                -1.2724250684137717,
                0.6945956702022729
            ]
        },
        {
            "positions": [
                1.5296633506012682,
                -1.3217590363283138,
                -1.6263161423053734,
                -1.1331415367934643,
                -1.2226714283002869,
                0.7366916530351304
            ]
        },
        {
            "positions": [
                1.3625291821027379,
                -1.3328189562083834,
                -1.5844157949608344,
                -1.0737973347277885,
                -1.172917788186802,
                0.7787876358679879
            ]
        },
        {
            "positions": [
                1.195395013604208,
                -1.343878876088453,
                -1.5425154476162957,
                -1.014453132662113,
                -1.1231641480733174,
                0.8208836187008455
            ]
        },
        {
            "positions": [
                1.0282608451056778,
                -1.3549387959685224,
                -1.500615100271757,
                -0.9551089305964372,
                -1.0734105079598326,
                0.862979601533703
            ]
        },
        {
            "positions": [
                0.9891568896431298,
                -1.368600106907961,
                -1.3572581964771804,
                -0.9239671190414682,
                -1.006413768186297,
                0.9561868603963305
            ]
        },
        {
            "positions": [
                0.9500529341805818,
                -1.3822614178473995,
                -1.2139012926826038,
                -0.8928253074864992,
                -0.9394170284127615,
                1.049394119258958
            ]
        },
        {
            "positions": [
                0.9109489787180337,
                -1.3959227287868379,
                -1.0705443888880275,
                -0.8616834959315303,
                -0.872420288639226,
                1.1426013781215854
            ]
        },
        {
            "positions": [
                0.8718450232554857,
                -1.4095840397262764,
                -0.927187485093451,
                -0.8305416843765613,
                -0.8054235488656905,
                1.2358086369842127
            ]
        },
        {
            "positions": [
                0.8327410677929377,
                -1.423245350665715,
                -0.7838305812988743,
                -0.7993998728215923,
                -0.7384268090921549,
                1.3290158958468403
            ]
        },
        {
            "positions": [
                0.7936371123303897,
                -1.4369066616051533,
                -0.6404736775042978,
                -0.7682580612666233,
                -0.6714300693186194,
                1.4222231547094677
            ]
        },
        {
            "positions": [
                0.7545331568678416,
                -1.450567972544592,
                -0.4971167737097213,
                -0.7371162497116543,
                -0.6044333295450838,
                1.515430413572095
            ]
        },
        {
            "positions": [
                0.7154292014052936,
                -1.4642292834840305,
                -0.35375986991514496,
                -0.7059744381566854,
                -0.5374365897715483,
                1.6086376724347224
            ]
        },
        {
            "positions": [
                0.6763252459427456,
                -1.477890594423469,
                -0.2104029661205682,
                -0.6748326266017164,
                -0.4704398499980127,
                1.70184493129735
            ]
        },
        {
            "positions": [
                0.6372212904801975,
                -1.4915519053629076,
                -0.06704606232599164,
                -0.6436908150467474,
                -0.4034431102244772,
                1.7950521901599776
            ]
        },
        {
            "positions": [
                0.5981173350176495,
                -1.505213216302346,
                0.07631084146858469,
                -0.6125490034917784,
                -0.3364463704509417,
                1.8882594490226048
            ]
        },
        {
            "positions": [
                0.5590133795551016,
                -1.5188745272417845,
                0.21966774526316124,
                -0.5814071919368095,
                -0.2694496306774061,
                1.9814667078852324
            ]
        },
        {
            "positions": [
                0.5199094240925535,
                -1.532535838181223,
                0.36302464905773757,
                -0.5502653803818405,
                -0.20245289090387064,
                2.0746739667478598
            ]
        },
        {
            "positions": [
                0.4808054686300054,
                -1.5461971491206614,
                0.5063815528523143,
                -0.5191235688268715,
                -0.13545615113033493,
                2.167881225610487
            ]
        },
        {
            "positions": [
                0.4417015131674574,
                -1.5598584600601,
                0.6497384566468907,
                -0.4879817572719025,
                -0.06845941135679956,
                2.261088484473115
            ]
        },
        {
            "positions": [
                0.40259755770490946,
                -1.5735197709995385,
                0.793095360441467,
                -0.45683994571693354,
                -0.0014626715832639636,
                2.354295743335742
            ]
        },
        {
            "positions": [
                0.36349360224236127,
                -1.5871810819389771,
                0.9364522642360438,
                -0.42569813416196456,
                0.06553406819027163,
                2.4475030021983697
            ]
        },
        {
            "positions": [
                0.3243896467798133,
                -1.6008423928784157,
                1.0798091680306205,
                -0.3945563226069956,
                0.13253080796380723,
                2.540710261060997
            ]
        },
        {
            "positions": [
                0.28528569131726533,
                -1.614503703817854,
                1.2231660718251969,
                -0.3634145110520266,
                0.1995275477373426,
                2.6339175199236244
            ]
        },
        {
            "positions": [
                0.24618173585471725,
                -1.6281650147572926,
                1.3665229756197736,
                -0.3322726994970576,
                0.2665242875108782,
                2.7271247787862523
            ]
        },
        {
            "positions": [
                0.20707778039216929,
                -1.6418263256967311,
                1.50987987941435,
                -0.30113088794208864,
                0.3335210272844138,
                2.820332037648879
            ]
        },
        {
            "positions": [
                0.1679738249296212,
                -1.6554876366361695,
                1.6532367832089263,
                -0.26998907638711966,
                0.40051776705794917,
                2.9135392965115066
            ]
        },
        {
            "positions": [
                0.12886986946707313,
                -1.669148947575608,
                1.796593687003503,
                -0.23884726483215069,
                0.467514506831485,
                3.0067465553741344
            ]
        },
        {
            "positions": [
                0.0897659140045252,
                -1.6828102585150466,
                1.9399505907980796,
                -0.20770545327718176,
                0.5345112466050204,
                3.0999538142367618
            ]
        },
        {
            "positions": [
                0.049735480022536985,
                -1.518215887858573,
                1.9993042083952515,
                -0.2503400698138329,
                0.5189503534946257,
                3.14239801320148
            ]
        },
        {
            "positions": [
                0.009705046040548768,
                -1.3536215172020993,
                2.058657825992423,
                -0.29297468635048396,
                0.5033894603842309,
                3.1848422121661977
            ]
        },
        {
            "positions": [
                -0.030325387941439463,
                -1.1890271465456255,
                2.118011443589595,
                -0.3356093028871351,
                0.4878285672738363,
                3.227286411130916
            ]
        },
        {
            "positions": [
                0.007861588895310204,
                -1.1784802609142644,
                2.084255882366729,
                -0.4575898196021264,
                0.3993011092959908,
                3.202065464205519
            ]
        },
        {
            "positions": [
                0.04604856573205987,
                -1.1679333752829033,
                2.050500321143864,
                -0.5795703363171177,
                0.31077365131814527,
                3.176844517280122
            ]
        },
        {
            "positions": [
                0.08423554256880954,
                -1.1573864896515422,
                2.016744759920998,
                -0.7015508530321091,
                0.22224619334029977,
                3.151623570354725
            ]
        },
        {
            "positions": [
                0.1224225194055592,
                -1.1468396040201811,
                1.9829891986981325,
                -0.8235313697471004,
                0.13371873536245424,
                3.1264026234293283
            ]
        }
    ]
}{
    "goal": {
        "global_pose": {
            "orientation": {
                "w": 0.7047431468963623,
                "x": -0.7094548344612122,
                "y": 0.0024358443915843964,
                "z": -0.0022348060738295317
            },
            "position": {
                "x": 0.6094750761985779,
                "y": 0.3671506643295288,
                "z": 0.19426114857196808
            }
        },
        "name": "move_to_magneteinheit_A"
    },
    "id": "RRT_move_to_magneteinheit_A_57",
    "joint_names": [
        "shoulder_pan_joint",
        "shoulder_lift_joint",
        "elbow_joint",
        "wrist_1_joint",
        "wrist_2_joint",
        "wrist_3_joint"
    ],
    "metrics": {
        "cart_traj_len": 1.145327485598878,
        "distance_elbow_joint": 0.6650366889347135,
        "distance_shoulder_lift_joint": 1.0943278784495283,
        "distance_shoulder_pan_joint": 1.2421116271673596,
        "distance_wrist_1_joint": 1.5322375255892435,
        "distance_wrist_2_joint": 1.4357299427356203,
        "distance_wrist_3_joint": 4.271139045671964,
        "smoothness": 0.20940832715243332,
        "time": 0.086829529,
        "traj_len": 3.2000910469154515,
        "weighted_distance": 4.663778325372811
    },
    "planner": "RRT",
    "start": {
        "state": {
            "elbow_joint": 1.919643534880228,
            "shoulder_lift_joint": -1.8972525353963687,
            "shoulder_pan_joint": -1.1188672234189438,
            "wrist_1_joint": -1.5931878212786155,
            "wrist_2_joint": 1.5706036197970081,
            "wrist_3_joint": 1.118896926603594
        }
    },
    "waypoints": [
        {
            "positions": [
                -1.1188672234189438,
                -1.8972525353963687,
                1.919643534880228,
                -1.5931878212786155,
                1.5706036197970081,
                1.118896926603594
            ]
        },
        {
            "positions": [
                -1.0703281670462057,
                -1.9086001151792076,
                1.9438035501615354,
                -1.5163233421163067,
                1.483294514070693,
                0.9778811091561477
            ]
        },
        {
            "positions": [
                -1.0217891106734676,
                -1.9199476949620462,
                1.967963565442843,
                -1.4394588629539982,
                1.395985408344378,
                0.8368652917087015
            ]
        },
        {
            "positions": [
                -0.9732500543007294,
                -1.931295274744885,
                1.9921235807241502,
                -1.3625943837916894,
                1.3086763026180628,
                0.6958494742612552
            ]
        },
        {
            "positions": [
                -0.9247109979279913,
                -1.942642854527724,
                2.0162835960054575,
                -1.2857299046293809,
                1.2213671968917477,
                0.554833656813809
            ]
        },
        {
            "positions": [
                -0.8761719415552532,
                -1.9539904343105625,
                2.040443611286765,
                -1.208865425467072,
                1.1340580911654325,
                0.41381783936636274
            ]
        },
        {
            "positions": [
                -0.827632885182515,
                -1.9653380140934014,
                2.064603626568072,
                -1.1320009463047636,
                1.0467489854391172,
                0.27280202191891645
            ]
        },
        {
            "positions": [
                -0.779093828809777,
                -1.9766855938762402,
                2.0887636418493796,
                -1.0551364671424548,
                0.9594398797128021,
                0.13178620447147027
            ]
        },
        {
            "positions": [
                -0.7305547724370388,
                -1.9880331736590788,
                2.112923657130687,
                -0.9782719879801463,
                0.872130773986487,
                -0.00922961297597591
            ]
        },
        {
            "positions": [
                -0.6820157160643008,
                -1.9993807534419177,
                2.137083672411994,
                -0.9014075088178376,
                0.7848216682601719,
                -0.1502454304234222
            ]
        },
        {
            "positions": [
                -0.6334766596915626,
                -2.0107283332247565,
                2.1612436876933017,
                -0.824543029655529,
                0.6975125625338567,
                -0.2912612478708685
            ]
        },
        {
            "positions": [
                -0.5849376033188245,
                -2.0220759130075954,
                2.1854037029746087,
                -0.7476785504932203,
                0.6102034568075416,
                -0.43227706531831456
            ]
        },
        {
            "positions": [
                -0.5363985469460862,
                -2.033423492790434,
                2.2095637182559162,
                -0.6708140713309115,
                0.5228943510812263,
                -0.5732928827657611
            ]
        },
        {
            "positions": [
                -0.4878594905733482,
                -2.0447710725732726,
                2.2337237335372238,
                -0.5939495921686029,
                0.43558524535491117,
                -0.7143087002132074
            ]
        },
        {
            "positions": [
                -0.43932043420061007,
                -2.0561186523561115,
                2.257883748818531,
                -0.5170851130062941,
                0.34827613962859605,
                -0.8553245176606534
            ]
        },
        {
            "positions": [
                -0.3907813778278719,
                -2.0674662321389503,
                2.2820437640998383,
                -0.4402206338439856,
                0.2609670339022808,
                -0.9963403351080999
            ]
        },
        {
            "positions": [
                -0.34794589602984793,
                -1.9904567169967047,
                2.2568240591235798,
                -0.47182649535687005,
                0.2504592541655397,
                -1.175998817104789
            ]
        },
        {
            "positions": [
                -0.305110414231824,
                -1.9134472018544593,
                2.231604354147321,
                -0.5034323568697545,
                0.2399514744287986,
                -1.3556572991014781
            ]
        },
        {
            "positions": [
                -0.2622749324338,
                -1.8364376867122136,
                2.2063846491710626,
                -0.535038218382639,
                0.22944369469205747,
                -1.5353157810981675
            ]
        },
        {
            "positions": [
                -0.21943945063577605,
                -1.7594281715699682,
                2.181164944194804,
                -0.5666440798955235,
                0.21893591495531636,
                -1.7149742630948566
            ]
        },
        {
            "positions": [
                -0.17660396883775206,
                -1.6824186564277226,
                2.1559452392185454,
                -0.5982499414084079,
                0.20842813521857526,
                -1.8946327450915459
            ]
        },
        {
            "positions": [
                -0.1337684870397281,
                -1.605409141285477,
                2.130725534242287,
                -0.6298558029212924,
                0.19792035548183412,
                -2.074291227088235
            ]
        },
        {
            "positions": [
                -0.09093300524170411,
                -1.5283996261432313,
                2.1055058292660283,
                -0.661461664434177,
                0.187412575745093,
                -2.2539497090849245
            ]
        },
        {
            "positions": [
                -0.04809752344368018,
                -1.451390111000986,
                2.0802861242897697,
                -0.6930675259470613,
                0.1769047960083519,
                -2.433608191081613
            ]
        },
        {
            "positions": [
                -0.00526204164565619,
                -1.3743805958587403,
                2.055066419313511,
                -0.7246733874599459,
                0.1663970162716108,
                -2.6132666730783027
            ]
        },
        {
            "positions": [
                0.0375734401523678,
                -1.2973710807164947,
                2.0298467143372525,
                -0.7562792489728304,
                0.1558892365348697,
                -2.792925155074992
            ]
        },
        {
            "positions": [
                0.08040892195039173,
                -1.2203615655742492,
                2.004627009360994,
                -0.7878851104857149,
                0.14538145679812858,
                -2.972583637071681
            ]
        },
        {
            "positions": [
                0.12324440374841576,
                -1.1433520504320036,
                1.9794073043847351,
                -0.8194909719985993,
                0.13487367706138745,
                -3.15224211906837
            ]
        }
    ]
}