{
    "goal": {
        "global_pose": {
            "orientation": {
                "w": 0.5084816217422485,
                "x": -0.49083608388900757,
                "y": 0.5182115435600281,
                "z": -0.4816462993621826
            },
            "position": {
                "x": 0.5540239810943604,
                "y": 0.030875300988554955,
                "z": 0.16403168439865112
            }
        },
        "name": "move_to_storage_A"
    },
    "id": "RRT_move_to_storage_A_74",
    "joint_names": [
        "shoulder_pan_joint",
        "shoulder_lift_joint",
        "elbow_joint",
        "wrist_1_joint",
        "wrist_2_joint",
        "wrist_3_joint"
    ],
    "metrics": {
        "cart_traj_len": 0.35245216695020626,
        "distance_elbow_joint": 0.4535220182463551,
        "distance_shoulder_lift_joint": 0.23370086841945348,
        "distance_shoulder_pan_joint": 0.4578002825331944,
        "distance_wrist_1_joint": 0.2578550110381609,
        "distance_wrist_2_joint": 1.111047551738158,
        "distance_wrist_3_joint": 0.10439125171524699,
        "smoothness": 2.2204460668324854e-16,
        "time": 0.018705656,
        "traj_len": 1.6181214366327914,
        "weighted_distance": 2.048414521013113
    },
    "planner": "RRT",
    "start": {
        "state": {
            "elbow_joint": 1.9715477243005601,
            "shoulder_lift_joint": -1.1394853015351272,
            "shoulder_pan_joint": 0.12281154014795169,
            "wrist_1_joint": -0.7804696478968182,
            "wrist_2_joint": 0.12958648046900423,
            "wrist_3_joint": -3.192491284697111
        }
    },
    "waypoints": [
        {
            "positions": [
                0.12281154014795169,
                -1.1394853015351272,
                1.9715477243005601,
                -0.7804696478968182,
                0.12958648046900423,
                -3.192491284697111
            ]
        },
        {
            "positions": [
                0.057411499786066786,
                -1.1728711398807634,
                2.0363365840500394,
                -0.8173060780451269,
                0.2883075592887411,
                -3.1775782487377904
            ]
        },
        {
            "positions": [
                -0.007988540575818118,
                -1.2062569782263997,
                2.1011254437995186,
                -0.8541425081934355,
                0.4470286381084779,
                -3.162665212778469
            ]
        },
        {
            "positions": [
                -0.07338858093770302,
                -1.239642816572036,
                2.165914303548998,
                -0.8909789383417442,
                0.6057497169282148,
                -3.1477521768191483
            ]
        },
        {
            "positions": [
                -0.1387886212995879,
                -1.273028654917672,
                2.230703163298477,
                -0.927815368490053,
                0.7644707957479516,
                -3.132839140859827
            ]
        },
        {
            "positions": [
                -0.20418866166147287,
                -1.3064144932633082,
                2.2954920230479567,
                -0.9646517986383616,
                0.9231918745676885,
                -3.1179261049005063
            ]
        },
        {
            "positions": [
                -0.2695887020233577,
                -1.3398003316089444,
                2.360280882797436,
                -1.0014882287866704,
                1.0819129533874254,
                -3.103013068941185
            ]
        },
        {
            "positions": [
                -0.3349887423852427,
                -1.3731861699545806,
                2.425069742546915,
                -1.038324658934979,
                1.240634032207162,
                -3.088100032981864
            ]
        }
    ]
}