{
    "goal": {
        "global_pose": {
            "orientation": {
                "w": 0.7047431468963623,
                "x": -0.7094548344612122,
                "y": 0.0024358443915843964,
                "z": -0.0022348060738295317
            },
            "position": {
                "x": 0.6094750761985779,
                "y": 0.3671506643295288,
                "z": 0.19426114857196808
            }
        },
        "name": "move_to_magneteinheit_A"
    },
    "id": "RRT_move_to_magneteinheit_A_142",
    "joint_names": [
        "shoulder_pan_joint",
        "shoulder_lift_joint",
        "elbow_joint",
        "wrist_1_joint",
        "wrist_2_joint",
        "wrist_3_joint"
    ],
    "metrics": {
        "cart_traj_len": 3.00367413333393,
        "distance_elbow_joint": 3.898205367390345,
        "distance_shoulder_lift_joint": 0.10183833233338513,
        "distance_shoulder_pan_joint": 3.115333743126106,
        "distance_wrist_1_joint": 4.701534203016452,
        "distance_wrist_2_joint": 1.703507360613651,
        "distance_wrist_3_joint": 2.66992218946544,
        "smoothness": 0.237917681484306,
        "time": 0.14201067,
        "traj_len": 4.023722306017822,
        "weighted_distance": 5.285378618273847
    },
    "planner": "RRT",
    "start": {
        "state": {
            "elbow_joint": -1.919618573717145,
            "shoulder_lift_joint": -1.2443395971678275,
            "shoulder_pan_joint": 2.6996025300909787,
            "wrist_1_joint": -1.548550951253194,
            "wrist_2_joint": -1.5709469090946802,
            "wrist_3_joint": 0.4420197732051276
        }
    },
    "waypoints": [
        {
            "positions": [
                2.6996025300909787,
                -1.2443395971678275,
                -1.919618573717145,
                -1.548550951253194,
                -1.5709469090946802,
                0.4420197732051276
            ]
        },
        {
            "positions": [
                2.5901198304060014,
                -1.2431598757927795,
                -1.837712116905401,
                -1.4438404626293921,
                -1.532773389423791,
                0.4890760477520903
            ]
        },
        {
            "positions": [
                2.4806371307210244,
                -1.2419801544177316,
                -1.7558056600936567,
                -1.3391299740055904,
                -1.4945998697529015,
                0.536132322299053
            ]
        },
        {
            "positions": [
                2.371154431036047,
                -1.2408004330426836,
                -1.6738992032819127,
                -1.2344194853817885,
                -1.4564263500820123,
                0.5831885968460158
            ]
        },
        {
            "positions": [
                2.26167173135107,
                -1.2396207116676354,
                -1.5919927464701686,
                -1.1297089967579867,
                -1.418252830411123,
                0.6302448713929785
            ]
        },
        {
            "positions": [
                2.1521890316660928,
                -1.2384409902925875,
                -1.5100862896584244,
                -1.0249985081341848,
                -1.3800793107402336,
                0.6773011459399412
            ]
        },
        {
            "positions": [
                2.0427063319811154,
                -1.2372612689175395,
                -1.4281798328466802,
                -0.920288019510383,
                -1.3419057910693444,
                0.7243574204869039
            ]
        },
        {
            "positions": [
                1.9332236322961385,
                -1.2360815475424916,
                -1.3462733760349361,
                -0.8155775308865812,
                -1.3037322713984552,
                0.7714136950338666
            ]
        },
        {
            "positions": [
                1.823740932611161,
                -1.2349018261674436,
                -1.264366919223192,
                -0.7108670422627793,
                -1.2655587517275657,
                0.8184699695808293
            ]
        },
        {
            "positions": [
                1.714258232926184,
                -1.2337221047923956,
                -1.182460462411448,
                -0.6061565536389776,
                -1.2273852320566765,
                0.865526244127792
            ]
        },
        {
            "positions": [
                1.6047755332412066,
                -1.2325423834173475,
                -1.1005540055997038,
                -0.5014460650151755,
                -1.189211712385787,
                0.9125825186747547
            ]
        },
        {
            "positions": [
                1.4952928335562297,
                -1.2313626620422995,
                -1.0186475487879598,
                -0.3967355763913738,
                -1.1510381927148978,
                0.9596387932217174
            ]
        },
        {
            "positions": [
                1.3858101338712523,
                -1.2301829406672515,
                -0.9367410919762156,
                -0.29202508776757186,
                -1.1128646730440086,
                1.0066950677686801
            ]
        },
        {
            "positions": [
                1.2763274341862751,
                -1.2290032192922036,
                -0.8548346351644716,
                -0.18731459914377013,
                -1.0746911533731192,
                1.0537513423156428
            ]
        },
        {
            "positions": [
                1.166844734501298,
                -1.2278234979171556,
                -0.7729281783527275,
                -0.08260411051996841,
                -1.0365176337022302,
                1.1008076168626055
            ]
        },
        {
            "positions": [
                1.0573620348163209,
                -1.2266437765421077,
                -0.6910217215409835,
                0.022106378103833313,
                -0.9983441140313407,
                1.1478638914095682
            ]
        },
        {
            "positions": [
                0.9478793351313435,
                -1.2254640551670597,
                -0.6091152647292393,
                0.12681686672763548,
                -0.9601705943604514,
                1.1949201659565312
            ]
        },
        {
            "positions": [
                0.8383966354463663,
                -1.2242843337920115,
                -0.527208807917495,
                0.2315273553514372,
                -0.921997074689562,
                1.2419764405034937
            ]
        },
        {
            "positions": [
                0.7289139357613892,
                -1.2231046124169636,
                -0.445302351105751,
                0.3362378439752389,
                -0.8838235550186728,
                1.2890327150504564
            ]
        },
        {
            "positions": [
                0.6194312360764123,
                -1.2219248910419156,
                -0.363395894294007,
                0.44094833259904087,
                -0.8456500353477835,
                1.336088989597419
            ]
        },
        {
            "positions": [
                0.5099485363914344,
                -1.2207451696668676,
                -0.28148943748226274,
                0.545658821222843,
                -0.8074765156768942,
                1.383145264144382
            ]
        },
        {
            "positions": [
                0.4004658367064575,
                -1.2195654482918197,
                -0.19958298067051872,
                0.6503693098466448,
                -0.7693029960060048,
                1.4302015386913447
            ]
        },
        {
            "positions": [
                0.2909831370214806,
                -1.2183857269167717,
                -0.1176765238587747,
                0.7550797984704465,
                -0.7311294763351156,
                1.4772578132383074
            ]
        },
        {
            "positions": [
                0.18150043733650323,
                -1.2172060055417235,
                -0.03577006704703045,
                0.8597902870942482,
                -0.6929559566642263,
                1.5243140877852701
            ]
        },
        {
            "positions": [
                0.07201773765152586,
                -1.2160262841666756,
                0.04613638976471379,
                0.9645007757180504,
                -0.6547824369933369,
                1.5713703623322328
            ]
        },
        {
            "positions": [
                -0.03746496203345151,
                -1.2148465627916276,
                0.12804284657645781,
                1.069211264341852,
                -0.6166089173224476,
                1.6184266368791955
            ]
        },
        {
            "positions": [
                -0.14694766171842838,
                -1.2136668414165797,
                0.20994930338820197,
                1.1739217529656538,
                -0.5784353976515584,
                1.6654829114261582
            ]
        },
        {
            "positions": [
                -0.1348604885966126,
                -1.2099607405955197,
                0.32179192092607267,
                1.0637421902011057,
                -0.5375002860022425,
                1.7587034365335208
            ]
        },
        {
            "positions": [
                -0.12277331547479681,
                -1.2062546397744596,
                0.4336345384639433,
                0.9535626274365577,
                -0.4965651743529268,
                1.8519239616408834
            ]
        },
        {
            "positions": [
                -0.11068614235298102,
                -1.2025485389533996,
                0.545477156001814,
                0.8433830646720097,
                -0.455630062703611,
                1.9451444867482457
            ]
        },
        {
            "positions": [
                -0.09859896923116523,
                -1.1988424381323395,
                0.6573197735396846,
                0.7332035019074616,
                -0.4146949510542952,
                2.0383650118556083
            ]
        },
        {
            "positions": [
                -0.08651179610934945,
                -1.1951363373112796,
                0.7691623910775554,
                0.6230239391429137,
                -0.37375983940497937,
                2.131585536962971
            ]
        },
        {
            "positions": [
                -0.07442462298753366,
                -1.1914302364902194,
                0.881005008615426,
                0.5128443763783656,
                -0.33282472775566363,
                2.2248060620703334
            ]
        },
        {
            "positions": [
                -0.062337449865717875,
                -1.1877241356691595,
                0.9928476261532966,
                0.4026648136138177,
                -0.29188961610634784,
                2.3180265871776955
            ]
        },
        {
            "positions": [
                -0.05025027674390209,
                -1.1840180348480993,
                1.1046902436911674,
                0.29248525084926946,
                -0.250954504457032,
                2.4112471122850585
            ]
        },
        {
            "positions": [
                -0.0381631036220863,
                -1.1803119340270394,
                1.216532861229038,
                0.18230568808472158,
                -0.2100193928077162,
                2.5044676373924206
            ]
        },
        {
            "positions": [
                -0.026075930500270517,
                -1.1766058332059792,
                1.3283754787669089,
                0.07212612532017348,
                -0.1690842811584004,
                2.597688162499783
            ]
        },
        {
            "positions": [
                -0.01398875737845473,
                -1.1728997323849193,
                1.4402180963047793,
                -0.038053437444374616,
                -0.12814916950908462,
                2.6909086876071457
            ]
        },
        {
            "positions": [
                -0.001901584256638944,
                -1.1691936315638591,
                1.55206071384265,
                -0.14823300020892272,
                -0.08721405785976882,
                2.7841292127145083
            ]
        },
        {
            "positions": [
                0.010185588865176842,
                -1.1654875307427992,
                1.6639033313805207,
                -0.2584125629734706,
                -0.04627894621045303,
                2.877349737821871
            ]
        },
        {
            "positions": [
                0.03809816404845047,
                -1.15974096426571,
                1.7425741969536905,
                -0.3950943586880903,
                -0.0015690967780968637,
                2.935997794034045
            ]
        },
        {
            "positions": [
                0.0660107392317241,
                -1.1539943977886207,
                1.8212450625268604,
                -0.53177615440271,
                0.043140752654259304,
                2.9946458502462194
            ]
        },
        {
            "positions": [
                0.09392331441499774,
                -1.1482478313115316,
                1.89991592810003,
                -0.6684579501173296,
                0.08785060208661546,
                3.0532939064583933
            ]
        },
        {
            "positions": [
                0.12183588959827137,
                -1.1425012648344424,
                1.9785867936731998,
                -0.8051397458319492,
                0.13256045151897164,
                3.1119419626705676
            ]
        }
    ]
}{
    "goal": {
        "global_pose": {
            "orientation": {
                "w": 0.7047431468963623,
                "x": -0.7094548344612122,
                "y": 0.0024358443915843964,
                "z": -0.0022348060738295317
            },
            "position": {
                "x": 0.6094750761985779,
                "y": 0.3671506643295288,
                "z": 0.19426114857196808
            }
        },
        "name": "move_to_magneteinheit_A"
    },
    "id": "RRT_move_to_magneteinheit_A_142",
    "joint_names": [
        "shoulder_pan_joint",
        "shoulder_lift_joint",
        "elbow_joint",
        "wrist_1_joint",
        "wrist_2_joint",
        "wrist_3_joint"
    ],
    "metrics": {
        "cart_traj_len": 1.2980005822847704,
        "distance_elbow_joint": 0.6910766870159841,
        "distance_shoulder_lift_joint": 0.7495387765284098,
        "distance_shoulder_pan_joint": 1.2414197397234106,
        "distance_wrist_1_joint": 0.7267174652407613,
        "distance_wrist_2_joint": 2.478785531224048,
        "distance_wrist_3_joint": 4.243109086727662,
        "smoothness": 0.2563272669345451,
        "time": 0.047154978,
        "traj_len": 3.182867777093525,
        "weighted_distance": 4.671441796317322
    },
    "planner": "RRT",
    "start": {
        "state": {
            "elbow_joint": 1.919643534880228,
            "shoulder_lift_joint": -1.8972525353963687,
            "shoulder_pan_joint": -1.1188672234189438,
            "wrist_1_joint": -1.5931878212786155,
            "wrist_2_joint": 1.5706036197970081,
            "wrist_3_joint": 1.118896926603594
        }
    },
    "waypoints": [
        {
            "positions": [
                -1.1188672234189438,
                -1.8972525353963687,
                1.919643534880228,
                -1.5931878212786155,
                1.5706036197970081,
                1.118896926603594
            ]
        },
        {
            "positions": [
                -1.0611351220420369,
                -1.8629167045095951,
                1.9033073131060632,
                -1.5720319823597062,
                1.4673203573108635,
                0.9754121290610427
            ]
        },
        {
            "positions": [
                -1.0034030206651299,
                -1.8285808736228215,
                1.886971091331898,
                -1.5508761434407967,
                1.3640370948247187,
                0.8319273315184913
            ]
        },
        {
            "positions": [
                -0.945670919288223,
                -1.794245042736048,
                1.870634869557733,
                -1.5297203045218875,
                1.2607538323385739,
                0.6884425339759399
            ]
        },
        {
            "positions": [
                -0.8879388179113161,
                -1.759909211849274,
                1.854298647783568,
                -1.508564465602978,
                1.1574705698524292,
                0.5449577364333886
            ]
        },
        {
            "positions": [
                -0.8302067165344091,
                -1.7255733809625005,
                1.837962426009403,
                -1.4874086266840687,
                1.0541873073662846,
                0.40147293889083735
            ]
        },
        {
            "positions": [
                -0.7724746151575022,
                -1.6912375500757268,
                1.8216262042352378,
                -1.4662527877651592,
                0.9509040448801398,
                0.25798814134828596
            ]
        },
        {
            "positions": [
                -0.7147425137805953,
                -1.6569017191889532,
                1.8052899824610729,
                -1.44509694884625,
                0.8476207823939951,
                0.11450334380573457
            ]
        },
        {
            "positions": [
                -0.6570104124036884,
                -1.6225658883021796,
                1.788953760686908,
                -1.4239411099273405,
                0.7443375199078504,
                -0.02898145373681671
            ]
        },
        {
            "positions": [
                -0.5992783110267814,
                -1.588230057415406,
                1.7726175389127428,
                -1.4027852710084312,
                0.6410542574217056,
                -0.172466251279368
            ]
        },
        {
            "positions": [
                -0.5415462096498744,
                -1.5538942265286324,
                1.7562813171385778,
                -1.3816294320895217,
                0.5377709949355609,
                -0.31595104882191927
            ]
        },
        {
            "positions": [
                -0.48381410827296745,
                -1.5195583956418586,
                1.7399450953644127,
                -1.3604735931706124,
                0.4344877324494161,
                -0.45943584636447077
            ]
        },
        {
            "positions": [
                -0.42608200689606057,
                -1.485222564755085,
                1.7236088735902477,
                -1.3393177542517032,
                0.33120446996327146,
                -0.602920643907022
            ]
        },
        {
            "positions": [
                -0.3683499055191536,
                -1.4508867338683114,
                1.7072726518160826,
                -1.3181619153327937,
                0.22792120747712663,
                -0.7464054414495735
            ]
        },
        {
            "positions": [
                -0.3106178041422467,
                -1.4165509029815377,
                1.6909364300419176,
                -1.2970060764138842,
                0.12463794499098202,
                -0.8898902389921248
            ]
        },
        {
            "positions": [
                -0.2528857027653397,
                -1.382215072094764,
                1.6746002082677527,
                -1.275850237494975,
                0.021354682504837186,
                -1.0333750365346763
            ]
        },
        {
            "positions": [
                -0.19515360138843285,
                -1.3478792412079903,
                1.6582639864935875,
                -1.2546943985760657,
                -0.08192857998130743,
                -1.1768598340772274
            ]
        },
        {
            "positions": [
                -0.13742150001152587,
                -1.3135434103212167,
                1.6419277647194226,
                -1.2335385596571562,
                -0.18521184246745226,
                -1.3203446316197789
            ]
        },
        {
            "positions": [
                -0.07968939863461899,
                -1.279207579434443,
                1.6255915429452577,
                -1.2123827207382467,
                -0.28849510495359687,
                -1.46382942916233
            ]
        },
        {
            "positions": [
                -0.021957297257712047,
                -1.2448717485476695,
                1.6092553211710925,
                -1.1912268818193374,
                -0.3917783674397416,
                -1.6073142267048814
            ]
        },
        {
            "positions": [
                -0.0038935705624397257,
                -1.2327269998377057,
                1.6568413803344486,
                -1.150632316096652,
                -0.32722792444132925,
                -1.7969264683822797
            ]
        },
        {
            "positions": [
                0.014170156132832595,
                -1.2205822511277418,
                1.7044274394978047,
                -1.1100377503739667,
                -0.2626774814429169,
                -1.9865387100596779
            ]
        },
        {
            "positions": [
                0.032233882828104916,
                -1.208437502417778,
                1.7520134986611606,
                -1.0694431846512813,
                -0.19812703844450458,
                -2.176150951737076
            ]
        },
        {
            "positions": [
                0.05029760952337724,
                -1.196292753707814,
                1.7995995578245167,
                -1.028848618928596,
                -0.13357659544609224,
                -2.365763193414474
            ]
        },
        {
            "positions": [
                0.06836133621864955,
                -1.1841480049978503,
                1.8471856169878729,
                -0.9882540532059104,
                -0.0690261524476799,
                -2.5553754350918725
            ]
        },
        {
            "positions": [
                0.08642506291392188,
                -1.1720032562878866,
                1.8947716761512288,
                -0.9476594874832249,
                -0.004475709449267562,
                -2.7449876767692705
            ]
        },
        {
            "positions": [
                0.10448878960919421,
                -1.1598585075779226,
                1.9423577353145849,
                -0.9070649217605395,
                0.060074733549144776,
                -2.9345999184466685
            ]
        },
        {
            "positions": [
                0.12255251630446652,
                -1.147713758867959,
                1.989943794477941,
                -0.8664703560378542,
                0.12462517654755711,
                -3.124212160124067
            ]
        }
    ]
}