{
    "goal": {
        "global_pose": {
            "orientation": {
                "w": 0.5084816217422485,
                "x": -0.49083608388900757,
                "y": 0.5182115435600281,
                "z": -0.4816462993621826
            },
            "position": {
                "x": 0.5540239810943604,
                "y": 0.030875300988554955,
                "z": 0.16403168439865112
            }
        },
        "name": "move_to_storage_A"
    },
    "id": "RRT_move_to_storage_A_23",
    "joint_names": [
        "shoulder_pan_joint",
        "shoulder_lift_joint",
        "elbow_joint",
        "wrist_1_joint",
        "wrist_2_joint",
        "wrist_3_joint"
    ],
    "metrics": {
        "cart_traj_len": 0.3536998974381768,
        "distance_elbow_joint": 0.45015385535945374,
        "distance_shoulder_lift_joint": 0.23298871877240246,
        "distance_shoulder_pan_joint": 0.46109600788901095,
        "distance_wrist_1_joint": 0.24470219946256322,
        "distance_wrist_2_joint": 1.1055268151394806,
        "distance_wrist_3_joint": 0.1006048351316653,
        "smoothness": 9.992007271825419e-16,
        "time": 0.020388382,
        "traj_len": 1.610922850962943,
        "weighted_distance": 2.0362983859493555
    },
    "planner": "RRT",
    "start": {
        "state": {
            "elbow_joint": 1.9715477243005601,
            "shoulder_lift_joint": -1.1394853015351272,
            "shoulder_pan_joint": 0.12281154014795169,
            "wrist_1_joint": -0.7804696478968182,
            "wrist_2_joint": 0.12958648046900423,
            "wrist_3_joint": -3.192491284697111
        }
    },
    "waypoints": [
        {
            "positions": [
                0.12281154014795169,
                -1.1394853015351272,
                1.9715477243005601,
                -0.7804696478968182,
                0.12958648046900423,
                -3.192491284697111
            ]
        },
        {
            "positions": [
                0.05694068187809298,
                -1.172769404216899,
                2.0358554179233392,
                -0.8154271049628986,
                0.28751888263178715,
                -3.1781191653925878
            ]
        },
        {
            "positions": [
                -0.008930176391765729,
                -1.2060535068986706,
                2.1001631115461183,
                -0.850384562028979,
                0.4454512847945701,
                -3.163747046088064
            ]
        },
        {
            "positions": [
                -0.07480103466162442,
                -1.2393376095804425,
                2.1644708051688974,
                -0.8853420190950595,
                0.603383686957353,
                -3.1493749267835405
            ]
        },
        {
            "positions": [
                -0.14067189293148313,
                -1.2726217122622143,
                2.2287784987916766,
                -0.92029947616114,
                0.7613160891201359,
                -3.1350028074790166
            ]
        },
        {
            "positions": [
                -0.20654275120134186,
                -1.3059058149439862,
                2.2930861924144557,
                -0.9552569332272205,
                0.919248491282919,
                -3.120630688174493
            ]
        },
        {
            "positions": [
                -0.2724136094712005,
                -1.3391899176257578,
                2.3573938860372348,
                -0.9902143902933009,
                1.0771808934457017,
                -3.1062585688699693
            ]
        },
        {
            "positions": [
                -0.33828446774105925,
                -1.3724740203075296,
                2.421701579660014,
                -1.0251718473593814,
                1.2351132956084847,
                -3.091886449565446
            ]
        }
    ]
}