{
    "goal": {
        "global_pose": {
            "orientation": {
                "w": 0.5084816217422485,
                "x": -0.49083608388900757,
                "y": 0.5182115435600281,
                "z": -0.4816462993621826
            },
            "position": {
                "x": 0.5540239810943604,
                "y": 0.030875300988554955,
                "z": 0.16403168439865112
            }
        },
        "name": "move_to_storage_A"
    },
    "id": "RRT_move_to_storage_A_31",
    "joint_names": [
        "shoulder_pan_joint",
        "shoulder_lift_joint",
        "elbow_joint",
        "wrist_1_joint",
        "wrist_2_joint",
        "wrist_3_joint"
    ],
    "metrics": {
        "cart_traj_len": 0.35365430023570876,
        "distance_elbow_joint": 0.45071106533792893,
        "distance_shoulder_lift_joint": 0.23514456625477886,
        "distance_shoulder_pan_joint": 0.46236108741381254,
        "distance_wrist_1_joint": 0.23940818920821727,
        "distance_wrist_2_joint": 1.1012839809340864,
        "distance_wrist_3_joint": 0.10421281667694249,
        "smoothness": 4.440892133664971e-16,
        "time": 0.017785909,
        "traj_len": 1.6103172686852012,
        "weighted_distance": 2.0352492499254127
    },
    "planner": "RRT",
    "start": {
        "state": {
            "elbow_joint": 1.9715477243005601,
            "shoulder_lift_joint": -1.1394853015351272,
            "shoulder_pan_joint": 0.12281154014795169,
            "wrist_1_joint": -0.7804696478968182,
            "wrist_2_joint": 0.12958648046900423,
            "wrist_3_joint": -3.192491284697111
        }
    },
    "waypoints": [
        {
            "positions": [
                0.12281154014795169,
                -1.1394853015351272,
                1.9715477243005601,
                -0.7804696478968182,
                0.12958648046900423,
                -3.192491284697111
            ]
        },
        {
            "positions": [
                0.05675995623169276,
                -1.173077382428667,
                2.0359350193488357,
                -0.8146708177837063,
                0.286912763459588,
                -3.177603739457548
            ]
        },
        {
            "positions": [
                -0.009291627684566164,
                -1.2066694633222068,
                2.1003223143971113,
                -0.8488719876705946,
                0.44423904645017176,
                -3.162716194217985
            ]
        },
        {
            "positions": [
                -0.07534321160082509,
                -1.2402615442157467,
                2.164709609445387,
                -0.8830731575574827,
                0.6015653294407555,
                -3.1478286489784217
            ]
        },
        {
            "positions": [
                -0.141394795517084,
                -1.2738536251092865,
                2.2290969044936624,
                -0.9172743274443709,
                0.7588916124313393,
                -3.132941103738858
            ]
        },
        {
            "positions": [
                -0.207446379433343,
                -1.3074457060028264,
                2.293484199541938,
                -0.9514754973312591,
                0.9162178954219231,
                -3.118053558499295
            ]
        },
        {
            "positions": [
                -0.27349796334960186,
                -1.341037786896366,
                2.3578714945902135,
                -0.9856766672181472,
                1.0735441784125068,
                -3.103166013259732
            ]
        },
        {
            "positions": [
                -0.33954954726586084,
                -1.374629867789906,
                2.422258789638489,
                -1.0198778371050354,
                1.2308704614030905,
                -3.0882784680201687
            ]
        }
    ]
}