{
    "goal": {
        "global_pose": {
            "orientation": {
                "w": 0.5084816217422485,
                "x": -0.49083608388900757,
                "y": 0.5182115435600281,
                "z": -0.4816462993621826
            },
            "position": {
                "x": 0.5540239810943604,
                "y": 0.030875300988554955,
                "z": 0.16403168439865112
            }
        },
        "name": "move_to_storage_A"
    },
    "id": "RRT_move_to_storage_A_101",
    "joint_names": [
        "shoulder_pan_joint",
        "shoulder_lift_joint",
        "elbow_joint",
        "wrist_1_joint",
        "wrist_2_joint",
        "wrist_3_joint"
    ],
    "metrics": {
        "cart_traj_len": 0.35331785775032837,
        "distance_elbow_joint": 0.4523855984282519,
        "distance_shoulder_lift_joint": 0.23178786921279726,
        "distance_shoulder_pan_joint": 0.46197485858609916,
        "distance_wrist_1_joint": 0.26090536331004766,
        "distance_wrist_2_joint": 1.0979852009411442,
        "distance_wrist_3_joint": 0.0924479347714473,
        "smoothness": 1.3322676330666221e-15,
        "time": 0.013689425,
        "traj_len": 1.61167205884131,
        "weighted_distance": 2.035011857224393
    },
    "planner": "RRT",
    "start": {
        "state": {
            "elbow_joint": 1.9715477243005601,
            "shoulder_lift_joint": -1.1394853015351272,
            "shoulder_pan_joint": 0.12281154014795169,
            "wrist_1_joint": -0.7804696478968182,
            "wrist_2_joint": 0.12958648046900423,
            "wrist_3_joint": -3.192491284697111
        }
    },
    "waypoints": [
        {
            "positions": [
                0.12281154014795169,
                -1.1394853015351272,
                1.9715477243005601,
                -0.7804696478968182,
                0.12958648046900423,
                -3.192491284697111
            ]
        },
        {
            "positions": [
                0.05681513177850896,
                -1.1725978542798126,
                2.036174238361739,
                -0.8177418426553964,
                0.286441509174882,
                -3.1792844368726185
            ]
        },
        {
            "positions": [
                -0.009181276590933776,
                -1.2057104070244977,
                2.1008007524229177,
                -0.8550140374139746,
                0.4432965378807597,
                -3.1660775890481263
            ]
        },
        {
            "positions": [
                -0.07517768496037651,
                -1.238822959769183,
                2.165427266484097,
                -0.8922862321725529,
                0.6001515665866375,
                -3.1528707412236336
            ]
        },
        {
            "positions": [
                -0.14117409332981923,
                -1.2719355125138685,
                2.2300537805452754,
                -0.9295584269311311,
                0.7570065952925151,
                -3.1396638933991414
            ]
        },
        {
            "positions": [
                -0.207170501699262,
                -1.3050480652585539,
                2.2946802946064544,
                -0.9668306216897093,
                0.9138616239983929,
                -3.1264570455746488
            ]
        },
        {
            "positions": [
                -0.2731669100687047,
                -1.338160618003239,
                2.359306808667633,
                -1.0041028164482877,
                1.0707166527042706,
                -3.1132501977501565
            ]
        },
        {
            "positions": [
                -0.33916331843814745,
                -1.3712731707479244,
                2.423933322728812,
                -1.0413750112068658,
                1.2275716814101483,
                -3.100043349925664
            ]
        }
    ]
}