{
    "goal": {
        "global_pose": {
            "orientation": {
                "w": 0.5084816217422485,
                "x": -0.49083608388900757,
                "y": 0.5182115435600281,
                "z": -0.4816462993621826
            },
            "position": {
                "x": 0.5540239810943604,
                "y": 0.030875300988554955,
                "z": 0.16403168439865112
            }
        },
        "name": "move_to_storage_A"
    },
    "id": "RRT_move_to_storage_A_147",
    "joint_names": [
        "shoulder_pan_joint",
        "shoulder_lift_joint",
        "elbow_joint",
        "wrist_1_joint",
        "wrist_2_joint",
        "wrist_3_joint"
    ],
    "metrics": {
        "cart_traj_len": 0.3536196624239607,
        "distance_elbow_joint": 0.4479448824444461,
        "distance_shoulder_lift_joint": 0.2340891310413744,
        "distance_shoulder_pan_joint": 0.4605097530677659,
        "distance_wrist_1_joint": 0.23911342059124074,
        "distance_wrist_2_joint": 1.1072343327169984,
        "distance_wrist_3_joint": 0.10210443903432154,
        "smoothness": 9.992007236661072e-16,
        "time": 0.031192828,
        "traj_len": 1.6096570935749475,
        "weighted_distance": 2.035080487418871
    },
    "planner": "RRT",
    "start": {
        "state": {
            "elbow_joint": 1.9715477243005601,
            "shoulder_lift_joint": -1.1394853015351272,
            "shoulder_pan_joint": 0.12281154014795169,
            "wrist_1_joint": -0.7804696478968182,
            "wrist_2_joint": 0.12958648046900423,
            "wrist_3_joint": -3.192491284697111
        }
    },
    "waypoints": [
        {
            "positions": [
                0.12281154014795169,
                -1.1394853015351272,
                1.9715477243005601,
                -0.7804696478968182,
                0.12958648046900423,
                -3.192491284697111
            ]
        },
        {
            "positions": [
                0.05702443256684228,
                -1.1729266059696093,
                2.0355398503640525,
                -0.8146287079812812,
                0.2877628137142897,
                -3.1779049362636367
            ]
        },
        {
            "positions": [
                -0.008762675014267127,
                -1.2063679104040912,
                2.099531976427545,
                -0.8487877680657441,
                0.4459391469595752,
                -3.163318587830162
            ]
        },
        {
            "positions": [
                -0.07454978259537655,
                -1.2398092148385733,
                2.163524102491037,
                -0.8829468281502071,
                0.6041154802048607,
                -3.1487322393966877
            ]
        },
        {
            "positions": [
                -0.14033689017648593,
                -1.2732505192730554,
                2.227516228554529,
                -0.91710588823467,
                0.7622918134501462,
                -3.134145890963213
            ]
        },
        {
            "positions": [
                -0.20612399775759538,
                -1.3066918237075376,
                2.2915083546180215,
                -0.951264948319133,
                0.9204681466954318,
                -3.1195595425297387
            ]
        },
        {
            "positions": [
                -0.2719111053387048,
                -1.3401331281420195,
                2.355500480681514,
                -0.9854240084035959,
                1.078644479940717,
                -3.104973194096264
            ]
        },
        {
            "positions": [
                -0.3376982129198142,
                -1.3735744325765016,
                2.419492606745006,
                -1.019583068488059,
                1.2368208131860028,
                -3.0903868456627896
            ]
        }
    ]
}