{
    "goal": {
        "global_pose": {
            "orientation": {
                "w": 0.7047431468963623,
                "x": -0.7094548344612122,
                "y": 0.0024358443915843964,
                "z": -0.0022348060738295317
            },
            "position": {
                "x": 0.6094750761985779,
                "y": 0.3671506643295288,
                "z": 0.19426114857196808
            }
        },
        "name": "move_to_magneteinheit_A"
    },
    "id": "RRT_move_to_magneteinheit_A_32",
    "joint_names": [
        "shoulder_pan_joint",
        "shoulder_lift_joint",
        "elbow_joint",
        "wrist_1_joint",
        "wrist_2_joint",
        "wrist_3_joint"
    ],
    "metrics": {
        "cart_traj_len": 3.852063739380383,
        "distance_elbow_joint": 3.883777781363053,
        "distance_shoulder_lift_joint": 0.708103528531878,
        "distance_shoulder_pan_joint": 2.889806394803898,
        "distance_wrist_1_joint": 0.789382909765605,
        "distance_wrist_2_joint": 1.6975625450522598,
        "distance_wrist_3_joint": 2.633052884792099,
        "smoothness": 0.08184531863337455,
        "time": 0.031066059,
        "traj_len": 3.549885356502205,
        "weighted_distance": 4.511622465223664
    },
    "planner": "RRT",
    "start": {
        "state": {
            "elbow_joint": -1.919618573717145,
            "shoulder_lift_joint": -1.2443395971678275,
            "shoulder_pan_joint": 2.6996025300909787,
            "wrist_1_joint": -1.548550951253194,
            "wrist_2_joint": -1.5709469090946802,
            "wrist_3_joint": 0.4420197732051276
        }
    },
    "waypoints": [
        {
            "positions": [
                2.6996025300909787,
                -1.2443395971678275,
                -1.919618573717145,
                -1.548550951253194,
                -1.5709469090946802,
                0.4420197732051276
            ]
        },
        {
            "positions": [
                2.562910664675814,
                -1.2239087875459733,
                -1.7754971587196133,
                -1.534002921463569,
                -1.5711335225096437,
                0.5125051946489024
            ]
        },
        {
            "positions": [
                2.426218799260649,
                -1.2034779779241194,
                -1.6313757437220817,
                -1.519454891673944,
                -1.571320135924607,
                0.5829906160926773
            ]
        },
        {
            "positions": [
                2.2895269338454844,
                -1.1830471683022652,
                -1.48725432872455,
                -1.504906861884319,
                -1.5715067493395705,
                0.6534760375364521
            ]
        },
        {
            "positions": [
                2.1528350684303197,
                -1.162616358680411,
                -1.3431329137270187,
                -1.490358832094694,
                -1.571693362754534,
                0.723961458980227
            ]
        },
        {
            "positions": [
                2.0161432030151545,
                -1.1421855490585568,
                -1.199011498729487,
                -1.4758108023050691,
                -1.5718799761694973,
                0.7944468804240019
            ]
        },
        {
            "positions": [
                1.87945133759999,
                -1.121754739436703,
                -1.0548900837319555,
                -1.4612627725154441,
                -1.5720665895844608,
                0.8649323018677767
            ]
        },
        {
            "positions": [
                1.7427594721848252,
                -1.1013239298148487,
                -0.9107686687344239,
                -1.4467147427258191,
                -1.5722532029994243,
                0.9354177233115515
            ]
        },
        {
            "positions": [
                1.6060676067696602,
                -1.0808931201929945,
                -0.7666472537368922,
                -1.4321667129361941,
                -1.5724398164143876,
                1.0059031447553264
            ]
        },
        {
            "positions": [
                1.4693757413544954,
                -1.0604623105711406,
                -0.6225258387393606,
                -1.4176186831465691,
                -1.572626429829351,
                1.0763885661991013
            ]
        },
        {
            "positions": [
                1.3326838759393307,
                -1.0400315009492864,
                -0.478404423741829,
                -1.4030706533569441,
                -1.5728130432443144,
                1.1468739876428762
            ]
        },
        {
            "positions": [
                1.1959920105241657,
                -1.0196006913274323,
                -0.3342830087442974,
                -1.3885226235673191,
                -1.5729996566592779,
                1.217359409086651
            ]
        },
        {
            "positions": [
                1.0593001451090012,
                -0.9991698817055782,
                -0.19016159374676578,
                -1.3739745937776944,
                -1.5731862700742414,
                1.2878448305304258
            ]
        },
        {
            "positions": [
                0.9226082796938362,
                -0.9787390720837241,
                -0.04604017874923416,
                -1.3594265639880694,
                -1.5733728834892047,
                1.3583302519742007
            ]
        },
        {
            "positions": [
                0.7859164142786716,
                -0.95830826246187,
                0.09808123624829723,
                -1.3448785341984444,
                -1.5735594969041682,
                1.4288156734179756
            ]
        },
        {
            "positions": [
                0.6492245488635069,
                -0.9378774528400159,
                0.24220265124582885,
                -1.3303305044088194,
                -1.5737461103191317,
                1.4993010948617504
            ]
        },
        {
            "positions": [
                0.5125326834483417,
                -0.9174466432181618,
                0.38632406624336046,
                -1.3157824746191944,
                -1.573932723734095,
                1.5697865163055253
            ]
        },
        {
            "positions": [
                0.3758408180331769,
                -0.8970158335963077,
                0.5304454812408921,
                -1.3012344448295694,
                -1.5741193371490585,
                1.6402719377493
            ]
        },
        {
            "positions": [
                0.23914895261801217,
                -0.8765850239744535,
                0.6745668962384237,
                -1.2866864150399444,
                -1.574305950564022,
                1.7107573591930751
            ]
        },
        {
            "positions": [
                0.10245708720284741,
                -0.8561542143525995,
                0.8186883112359553,
                -1.2721383852503194,
                -1.5744925639789853,
                1.7812427806368498
            ]
        },
        {
            "positions": [
                -0.034234778212317206,
                -0.8357234047307454,
                0.9628097262334868,
                -1.2575903554606944,
                -1.5746791773939488,
                1.8517282020806247
            ]
        },
        {
            "positions": [
                -0.022237156173809492,
                -0.8587608921226527,
                1.0398366094190576,
                -1.2192501774627633,
                -1.4443845407206417,
                1.9458316217665172
            ]
        },
        {
            "positions": [
                -0.010239534135301778,
                -0.8817983795145601,
                1.1168634926046284,
                -1.180909999464832,
                -1.3140899040473348,
                2.03993504145241
            ]
        },
        {
            "positions": [
                0.0017580879032059321,
                -0.9048358669064674,
                1.1938903757901993,
                -1.142569821466901,
                -1.1837952673740277,
                2.134038461138302
            ]
        },
        {
            "positions": [
                0.01375570994171365,
                -0.9278733542983748,
                1.27091725897577,
                -1.1042296434689698,
                -1.0535006307007206,
                2.2281418808241944
            ]
        },
        {
            "positions": [
                0.02575333198022136,
                -0.9509108416902823,
                1.347944142161341,
                -1.0658894654710385,
                -0.9232059940274138,
                2.322245300510087
            ]
        },
        {
            "positions": [
                0.03775095401872907,
                -0.9739483290821895,
                1.4249710253469117,
                -1.0275492874731074,
                -0.7929113573541067,
                2.4163487201959795
            ]
        },
        {
            "positions": [
                0.04974857605723678,
                -0.996985816474097,
                1.5019979085324824,
                -0.9892091094751763,
                -0.6626167206807998,
                2.5104521398818718
            ]
        },
        {
            "positions": [
                0.061746198095744505,
                -1.0200233038660043,
                1.5790247917180533,
                -0.9508689314772449,
                -0.5323220840074927,
                2.604555559567764
            ]
        },
        {
            "positions": [
                0.07374382013425221,
                -1.0430607912579117,
                1.656051674903624,
                -0.9125287534793138,
                -0.40202744733418583,
                2.698658979253657
            ]
        },
        {
            "positions": [
                0.08574144217275992,
                -1.066098278649819,
                1.7330785580891948,
                -0.8741885754813826,
                -0.27173281066087873,
                2.792762398939549
            ]
        },
        {
            "positions": [
                0.09773906421126763,
                -1.0891357660417265,
                1.8101054412747657,
                -0.8358483974834514,
                -0.14143817398757164,
                2.8868658186254414
            ]
        },
        {
            "positions": [
                0.10973668624977534,
                -1.112173253433634,
                1.8871323244603366,
                -0.7975082194855203,
                -0.01114353731426454,
                2.980969238311334
            ]
        },
        {
            "positions": [
                0.12173430828828306,
                -1.1352107408255412,
                1.9641592076459071,
                -0.7591680414875891,
                0.11915109935904225,
                3.0750726579972265
            ]
        }
    ]
}{
    "goal": {
        "global_pose": {
            "orientation": {
                "w": 0.7047431468963623,
                "x": -0.7094548344612122,
                "y": 0.0024358443915843964,
                "z": -0.0022348060738295317
            },
            "position": {
                "x": 0.6094750761985779,
                "y": 0.3671506643295288,
                "z": 0.19426114857196808
            }
        },
        "name": "move_to_magneteinheit_A"
    },
    "id": "RRT_move_to_magneteinheit_A_32",
    "joint_names": [
        "shoulder_pan_joint",
        "shoulder_lift_joint",
        "elbow_joint",
        "wrist_1_joint",
        "wrist_2_joint",
        "wrist_3_joint"
    ],
    "metrics": {
        "cart_traj_len": 1.197669417135728,
        "distance_elbow_joint": 0.068692587573429,
        "distance_shoulder_lift_joint": 0.7496777562009795,
        "distance_shoulder_pan_joint": 1.2408190404745756,
        "distance_wrist_1_joint": 0.7416129866762345,
        "distance_wrist_2_joint": 1.4325120004273417,
        "distance_wrist_3_joint": 2.03286879237747,
        "smoothness": 1.0449157961564637e-16,
        "time": 0.089335151,
        "traj_len": 2.5032345402958214,
        "weighted_distance": 3.536388798702505
    },
    "planner": "RRT",
    "start": {
        "state": {
            "elbow_joint": 1.919643534880228,
            "shoulder_lift_joint": -1.8972525353963687,
            "shoulder_pan_joint": -1.1188672234189438,
            "wrist_1_joint": -1.5931878212786155,
            "wrist_2_joint": 1.5706036197970081,
            "wrist_3_joint": 1.118896926603594
        }
    },
    "waypoints": [
        {
            "positions": [
                -1.1188672234189438,
                -1.8972525353963687,
                1.919643534880228,
                -1.5931878212786155,
                1.5706036197970081,
                1.118896926603594
            ]
        },
        {
            "positions": [
                -1.0413160333892828,
                -1.8503976756338074,
                1.9239368216035675,
                -1.5468370096113508,
                1.4810716197702993,
                1.245951226127186
            ]
        },
        {
            "positions": [
                -0.9637648433596219,
                -1.8035428158712463,
                1.9282301083269067,
                -1.5004861979440862,
                1.3915396197435905,
                1.3730055256507776
            ]
        },
        {
            "positions": [
                -0.8862136533299609,
                -1.756687956108685,
                1.932523395050246,
                -1.4541353862768216,
                1.3020076197168815,
                1.5000598251743695
            ]
        },
        {
            "positions": [
                -0.8086624633002999,
                -1.709833096346124,
                1.9368166817735855,
                -1.4077845746095567,
                1.2124756196901727,
                1.6271141246979615
            ]
        },
        {
            "positions": [
                -0.731111273270639,
                -1.6629782365835626,
                1.9411099684969246,
                -1.3614337629422921,
                1.122943619663464,
                1.7541684242215534
            ]
        },
        {
            "positions": [
                -0.653560083240978,
                -1.6161233768210015,
                1.945403255220264,
                -1.3150829512750275,
                1.0334116196367549,
                1.8812227237451453
            ]
        },
        {
            "positions": [
                -0.576008893211317,
                -1.5692685170584402,
                1.9496965419436032,
                -1.2687321396077629,
                0.9438796196100461,
                2.008277023268737
            ]
        },
        {
            "positions": [
                -0.49845770318165605,
                -1.5224136572958789,
                1.9539898286669426,
                -1.2223813279404983,
                0.8543476195833373,
                2.1353313227923287
            ]
        },
        {
            "positions": [
                -0.4209065131519951,
                -1.4755587975333178,
                1.958283115390282,
                -1.1760305162732334,
                0.7648156195566285,
                2.2623856223159207
            ]
        },
        {
            "positions": [
                -0.3433553231223341,
                -1.4287039377707567,
                1.9625764021136212,
                -1.129679704605969,
                0.6752836195299196,
                2.3894399218395126
            ]
        },
        {
            "positions": [
                -0.26580413309267314,
                -1.3818490780081953,
                1.9668696888369606,
                -1.0833288929387042,
                0.5857516195032106,
                2.5164942213631045
            ]
        },
        {
            "positions": [
                -0.1882529430630122,
                -1.334994218245634,
                1.9711629755602997,
                -1.0369780812714395,
                0.49621961947650184,
                2.6435485208866965
            ]
        },
        {
            "positions": [
                -0.11070175303335117,
                -1.2881393584830727,
                1.9754562622836391,
                -0.9906272696041749,
                0.40668761944979304,
                2.7706028204102884
            ]
        },
        {
            "positions": [
                -0.033150563003690126,
                -1.2412844987205116,
                1.9797495490069785,
                -0.9442764579369103,
                0.317155619423084,
                2.8976571199338803
            ]
        },
        {
            "positions": [
                0.044400627025970696,
                -1.1944296389579505,
                1.9840428357303177,
                -0.8979256462696455,
                0.2276236193963752,
                3.0247114194574722
            ]
        },
        {
            "positions": [
                0.12195181705563177,
                -1.1475747791953892,
                1.988336122453657,
                -0.8515748346023809,
                0.1380916193696664,
                3.151765718981064
            ]
        }
    ]
}