{
    "goal": {
        "global_pose": {
            "orientation": {
                "w": 0.7047431468963623,
                "x": -0.7094548344612122,
                "y": 0.0024358443915843964,
                "z": -0.0022348060738295317
            },
            "position": {
                "x": 0.6094750761985779,
                "y": 0.3671506643295288,
                "z": 0.19426114857196808
            }
        },
        "name": "move_to_magneteinheit_A"
    },
    "id": "RRT_move_to_magneteinheit_A_74",
    "joint_names": [
        "shoulder_pan_joint",
        "shoulder_lift_joint",
        "elbow_joint",
        "wrist_1_joint",
        "wrist_2_joint",
        "wrist_3_joint"
    ],
    "metrics": {
        "cart_traj_len": 3.978147063833408,
        "distance_elbow_joint": 3.8867354901052993,
        "distance_shoulder_lift_joint": 0.1094005366782429,
        "distance_shoulder_pan_joint": 4.140395923168769,
        "distance_wrist_1_joint": 1.7027398783444467,
        "distance_wrist_2_joint": 1.7094126434319608,
        "distance_wrist_3_joint": 2.6306863136811947,
        "smoothness": 0.3607169306743876,
        "time": 0.085685393,
        "traj_len": 3.765550528861605,
        "weighted_distance": 4.780470262908107
    },
    "planner": "RRT",
    "start": {
        "state": {
            "elbow_joint": -1.919618573717145,
            "shoulder_lift_joint": -1.2443395971678275,
            "shoulder_pan_joint": 2.6996025300909787,
            "wrist_1_joint": -1.548550951253194,
            "wrist_2_joint": -1.5709469090946802,
            "wrist_3_joint": 0.4420197732051276
        }
    },
    "waypoints": [
        {
            "positions": [
                2.6996025300909787,
                -1.2443395971678275,
                -1.919618573717145,
                -1.548550951253194,
                -1.5709469090946802,
                0.4420197732051276
            ]
        },
        {
            "positions": [
                2.591262836527504,
                -1.2443628239972493,
                -1.809417773676503,
                -1.5083437932413015,
                -1.5239874065328276,
                0.5242094631948823
            ]
        },
        {
            "positions": [
                2.48292314296403,
                -1.2443860508266709,
                -1.699216973635861,
                -1.4681366352294087,
                -1.477027903970975,
                0.6063991531846369
            ]
        },
        {
            "positions": [
                2.3745834494005553,
                -1.2444092776560927,
                -1.589016173595219,
                -1.4279294772175162,
                -1.4300684014091223,
                0.6885888431743916
            ]
        },
        {
            "positions": [
                2.2662437558370807,
                -1.2444325044855142,
                -1.4788153735545773,
                -1.3877223192056236,
                -1.3831088988472697,
                0.7707785331641464
            ]
        },
        {
            "positions": [
                2.157904062273606,
                -1.244455731314936,
                -1.3686145735139355,
                -1.3475151611937308,
                -1.3361493962854172,
                0.852968223153901
            ]
        },
        {
            "positions": [
                2.049564368710132,
                -1.2444789581443576,
                -1.2584137734732934,
                -1.3073080031818383,
                -1.2891898937235644,
                0.9351579131436556
            ]
        },
        {
            "positions": [
                1.9412246751466573,
                -1.2445021849737794,
                -1.1482129734326514,
                -1.2671008451699457,
                -1.2422303911617119,
                1.0173476031334103
            ]
        },
        {
            "positions": [
                1.832884981583183,
                -1.244525411803201,
                -1.0380121733920094,
                -1.226893687158053,
                -1.1952708885998593,
                1.099537293123165
            ]
        },
        {
            "positions": [
                1.7245452880197083,
                -1.2445486386326228,
                -0.9278113733513675,
                -1.1866865291461604,
                -1.1483113860380065,
                1.1817269831129198
            ]
        },
        {
            "positions": [
                1.616205594456234,
                -1.2445718654620443,
                -0.8176105733107257,
                -1.1464793711342676,
                -1.1013518834761542,
                1.2639166731026743
            ]
        },
        {
            "positions": [
                1.5078659008927593,
                -1.2445950922914661,
                -0.7074097732700837,
                -1.106272213122375,
                -1.0543923809143014,
                1.346106363092429
            ]
        },
        {
            "positions": [
                1.399526207329285,
                -1.244618319120888,
                -0.5972089732294419,
                -1.0660650551104824,
                -1.0074328783524489,
                1.4282960530821838
            ]
        },
        {
            "positions": [
                1.2911865137658103,
                -1.2446415459503095,
                -0.48700817318879985,
                -1.0258578970985899,
                -0.9604733757905962,
                1.5104857430719385
            ]
        },
        {
            "positions": [
                1.182846820202336,
                -1.2446647727797313,
                -0.37680737314815804,
                -0.9856507390866971,
                -0.9135138732287437,
                1.592675433061693
            ]
        },
        {
            "positions": [
                1.0745071266388613,
                -1.2446879996091529,
                -0.266606573107516,
                -0.9454435810748044,
                -0.866554370666891,
                1.6748651230514477
            ]
        },
        {
            "positions": [
                0.9661674330753871,
                -1.2447112264385747,
                -0.15640577306687398,
                -0.9052364230629119,
                -0.8195948681050385,
                1.7570548130412025
            ]
        },
        {
            "positions": [
                0.8578277395119127,
                -1.2447344532679963,
                -0.046204973026232166,
                -0.8650292650510192,
                -0.7726353655431859,
                1.839244503030957
            ]
        },
        {
            "positions": [
                0.7494880459484379,
                -1.244757680097418,
                0.06399582701440987,
                -0.8248221070391265,
                -0.7256758629813331,
                1.921434193020712
            ]
        },
        {
            "positions": [
                0.6411483523849633,
                -1.2447809069268396,
                0.1741966270550519,
                -0.7846149490272338,
                -0.6787163604194806,
                2.0036238830104662
            ]
        },
        {
            "positions": [
                0.5328086588214891,
                -1.2448041337562614,
                0.2843974270956935,
                -0.7444077910153413,
                -0.631756857857628,
                2.085813573000221
            ]
        },
        {
            "positions": [
                0.4244689652580145,
                -1.2448273605856832,
                0.3945982271363355,
                -0.7042006330034487,
                -0.5847973552957755,
                2.1680032629899757
            ]
        },
        {
            "positions": [
                0.31612927169453986,
                -1.2448505874151048,
                0.5047990271769776,
                -0.6639934749915559,
                -0.5378378527339227,
                2.2501929529797304
            ]
        },
        {
            "positions": [
                0.2077895781310657,
                -1.2448738142445266,
                0.6149998272176196,
                -0.6237863169796634,
                -0.49087835017207015,
                2.332382642969485
            ]
        },
        {
            "positions": [
                0.09944988456759107,
                -1.2448970410739482,
                0.7252006272582612,
                -0.5835791589677707,
                -0.4439188476102176,
                2.41457233295924
            ]
        },
        {
            "positions": [
                -0.008889808995883097,
                -1.24492026790337,
                0.8354014272989032,
                -0.543372000955878,
                -0.39695934504836505,
                2.496762022948994
            ]
        },
        {
            "positions": [
                -0.11722950255935816,
                -1.2449434947327915,
                0.9456022273395452,
                -0.5031648429439854,
                -0.3499998424865123,
                2.5789517129387494
            ]
        },
        {
            "positions": [
                -0.22556919612283233,
                -1.2449667215622133,
                1.0558030273801873,
                -0.46295768493209266,
                -0.30304033992465973,
                2.661141402928504
            ]
        },
        {
            "positions": [
                -0.33390888968630694,
                -1.244989948391635,
                1.1660038274208289,
                -0.4227505269202001,
                -0.2560808373628072,
                2.7433310929182584
            ]
        },
        {
            "positions": [
                -0.4422485832497811,
                -1.2450131752210567,
                1.276204627461471,
                -0.38254336890830754,
                -0.20912133480095463,
                2.825520782908013
            ]
        },
        {
            "positions": [
                -0.5505882768132562,
                -1.2450364020504783,
                1.386405427502113,
                -0.34233621089641475,
                -0.16216183223910186,
                2.907710472897768
            ]
        },
        {
            "positions": [
                -0.6589279703767306,
                -1.2450596288799,
                1.4966062275427552,
                -0.3021290528845222,
                -0.1152023296772493,
                2.9899001628875226
            ]
        },
        {
            "positions": [
                -0.5286170665932206,
                -1.2269462113855383,
                1.5750246756836552,
                -0.3781820495471514,
                -0.07292431900816104,
                3.003701150220656
            ]
        },
        {
            "positions": [
                -0.39830616280971076,
                -1.2088327938911767,
                1.653443123824555,
                -0.4542350462097806,
                -0.030646308339072767,
                3.017502137553789
            ]
        },
        {
            "positions": [
                -0.2679952590262008,
                -1.190719376396815,
                1.7318615719654549,
                -0.5302880428724098,
                0.011631702330015509,
                3.0313031248869224
            ]
        },
        {
            "positions": [
                -0.13768435524269096,
                -1.1726059589024531,
                1.810280020106355,
                -0.606341039535039,
                0.05390971299910377,
                3.0451041122200557
            ]
        },
        {
            "positions": [
                -0.007373451459180891,
                -1.1544925414080915,
                1.888698468247255,
                -0.6823940361976683,
                0.09618772366819206,
                3.058905099553189
            ]
        },
        {
            "positions": [
                0.12293745232432891,
                -1.1363791239137297,
                1.9671169163881548,
                -0.7584470328602975,
                0.13846573433728032,
                3.0727060868863223
            ]
        }
    ]
}{
    "goal": {
        "global_pose": {
            "orientation": {
                "w": 0.7047431468963623,
                "x": -0.7094548344612122,
                "y": 0.0024358443915843964,
                "z": -0.0022348060738295317
            },
            "position": {
                "x": 0.6094750761985779,
                "y": 0.3671506643295288,
                "z": 0.19426114857196808
            }
        },
        "name": "move_to_magneteinheit_A"
    },
    "id": "RRT_move_to_magneteinheit_A_74",
    "joint_names": [
        "shoulder_pan_joint",
        "shoulder_lift_joint",
        "elbow_joint",
        "wrist_1_joint",
        "wrist_2_joint",
        "wrist_3_joint"
    ],
    "metrics": {
        "cart_traj_len": 2.249750603497187,
        "distance_elbow_joint": 4.363630950381148,
        "distance_shoulder_lift_joint": 1.4924738595767164,
        "distance_shoulder_pan_joint": 1.2425527693761378,
        "distance_wrist_1_joint": 0.9250075803827306,
        "distance_wrist_2_joint": 1.4341521681829297,
        "distance_wrist_3_joint": 4.240148512148819,
        "smoothness": 0.35317553628890597,
        "time": 0.10755630099999999,
        "traj_len": 3.7010763083255234,
        "weighted_distance": 4.953526280631989
    },
    "planner": "RRT",
    "start": {
        "state": {
            "elbow_joint": 1.919643534880228,
            "shoulder_lift_joint": -1.8972525353963687,
            "shoulder_pan_joint": -1.1188672234189438,
            "wrist_1_joint": -1.5931878212786155,
            "wrist_2_joint": 1.5706036197970081,
            "wrist_3_joint": 1.118896926603594
        }
    },
    "waypoints": [
        {
            "positions": [
                -1.1188672234189438,
                -1.8972525353963687,
                1.919643534880228,
                -1.5931878212786155,
                1.5706036197970081,
                1.118896926603594
            ]
        },
        {
            "positions": [
                -1.076072020591044,
                -1.8350195654656076,
                1.8003739954729305,
                -1.598317777672808,
                1.5426791495255512,
                0.9980817311817629
            ]
        },
        {
            "positions": [
                -1.033276817763144,
                -1.7727865955348463,
                1.6811044560656332,
                -1.6034477340670006,
                1.5147546792540945,
                0.8772665357599317
            ]
        },
        {
            "positions": [
                -0.990481614935244,
                -1.7105536256040852,
                1.5618349166583356,
                -1.608577690461193,
                1.4868302089826375,
                0.7564513403381007
            ]
        },
        {
            "positions": [
                -0.9476864121073441,
                -1.648320655673324,
                1.442565377251038,
                -1.6137076468553857,
                1.4589057387111806,
                0.6356361449162695
            ]
        },
        {
            "positions": [
                -0.9048912092794441,
                -1.5860876857425628,
                1.3232958378437405,
                -1.6188376032495781,
                1.4309812684397236,
                0.5148209494944385
            ]
        },
        {
            "positions": [
                -0.8620960064515443,
                -1.5238547158118017,
                1.2040262984364432,
                -1.6239675596437708,
                1.403056798168267,
                0.3940057540726074
            ]
        },
        {
            "positions": [
                -0.8193008036236442,
                -1.4616217458810403,
                1.0847567590291458,
                -1.6290975160379633,
                1.37513232789681,
                0.27319055865077624
            ]
        },
        {
            "positions": [
                -0.7765056007957444,
                -1.3993887759502792,
                0.9654872196218482,
                -1.634227472432156,
                1.347207857625353,
                0.15237536322894518
            ]
        },
        {
            "positions": [
                -0.7337103979678444,
                -1.337155806019518,
                0.8462176802145507,
                -1.6393574288263484,
                1.319283387353896,
                0.031560167807114015
            ]
        },
        {
            "positions": [
                -0.6909151951399445,
                -1.2749228360887568,
                0.7269481408072531,
                -1.6444873852205408,
                1.2913589170824393,
                -0.08925502761471704
            ]
        },
        {
            "positions": [
                -0.6481199923120445,
                -1.2126898661579957,
                0.6076786013999556,
                -1.6496173416147335,
                1.2634344468109824,
                -0.21007022303654832
            ]
        },
        {
            "positions": [
                -0.6053247894841447,
                -1.1504568962272343,
                0.4884090619926582,
                -1.654747298008926,
                1.2355099765395257,
                -0.33088541845837915
            ]
        },
        {
            "positions": [
                -0.5625295866562448,
                -1.0882239262964732,
                0.36913952258536065,
                -1.6598772544031186,
                1.2075855062680687,
                -0.45170061388021043
            ]
        },
        {
            "positions": [
                -0.5197343838283447,
                -1.0259909563657121,
                0.2498699831780633,
                -1.665007210797311,
                1.1796610359966118,
                -0.5725158093020415
            ]
        },
        {
            "positions": [
                -0.47693918100044475,
                -0.9637579864349508,
                0.13060044377076574,
                -1.6701371671915037,
                1.1517365657251548,
                -0.6933310047238728
            ]
        },
        {
            "positions": [
                -0.4341439781725449,
                -0.9015250165041897,
                0.011330904363468397,
                -1.6752671235856962,
                1.1238120954536979,
                -0.8141462001457036
            ]
        },
        {
            "positions": [
                -0.39134877534464496,
                -0.8392920465734286,
                -0.10793863504382917,
                -1.6803970799798889,
                1.0958876251822411,
                -0.9349613955675349
            ]
        },
        {
            "positions": [
                -0.34855357251674496,
                -0.7770590766426673,
                -0.22720817445112684,
                -1.6855270363740813,
                1.0679631549107842,
                -1.0557765909893657
            ]
        },
        {
            "positions": [
                -0.3223180659348595,
                -0.7977413211328348,
                -0.10405377217058276,
                -1.639267682747011,
                1.0162125047276338,
                -1.1705252017980246
            ]
        },
        {
            "positions": [
                -0.296082559352974,
                -0.8184235656230022,
                0.019100630109961325,
                -1.5930083291199408,
                0.9644618545444835,
                -1.2852738126066834
            ]
        },
        {
            "positions": [
                -0.26984705277108856,
                -0.8391058101131698,
                0.1422550323905054,
                -1.5467489754928705,
                0.9127112043613332,
                -1.4000224234153422
            ]
        },
        {
            "positions": [
                -0.24361154618920305,
                -0.8597880546033372,
                0.2654094346710495,
                -1.5004896218658001,
                0.8609605541781828,
                -1.514771034224001
            ]
        },
        {
            "positions": [
                -0.21737603960731758,
                -0.8804702990935047,
                0.3885638369515937,
                -1.45423026823873,
                0.8092099039950325,
                -1.62951964503266
            ]
        },
        {
            "positions": [
                -0.19114053302543213,
                -0.9011525435836721,
                0.5117182392321377,
                -1.4079709146116597,
                0.7574592538118822,
                -1.7442682558413185
            ]
        },
        {
            "positions": [
                -0.16490502644354665,
                -0.9218347880738397,
                0.6348726415126819,
                -1.3617115609845896,
                0.7057086036287319,
                -1.8590168666499776
            ]
        },
        {
            "positions": [
                -0.13866951986166118,
                -0.9425170325640071,
                0.7580270437932258,
                -1.3154522073575192,
                0.6539579534455815,
                -1.9737654774586362
            ]
        },
        {
            "positions": [
                -0.1124340132797757,
                -0.9631992770541746,
                0.88118144607377,
                -1.2691928537304489,
                0.6022073032624311,
                -2.088514088267295
            ]
        },
        {
            "positions": [
                -0.0861985066978902,
                -0.9838815215443422,
                1.004335848354314,
                -1.2229335001033785,
                0.5504566530792808,
                -2.203262699075954
            ]
        },
        {
            "positions": [
                -0.05996300011600475,
                -1.0045637660345097,
                1.1274902506348585,
                -1.1766741464763084,
                0.49870600289613043,
                -2.3180113098846125
            ]
        },
        {
            "positions": [
                -0.0337274935341193,
                -1.025246010524677,
                1.250644652915402,
                -1.1304147928492383,
                0.44695535271298015,
                -2.4327599206932713
            ]
        },
        {
            "positions": [
                -0.007491986952233798,
                -1.0459282550148445,
                1.3737990551959465,
                -1.084155439222168,
                0.39520470252982987,
                -2.54750853150193
            ]
        },
        {
            "positions": [
                0.01874351962965165,
                -1.066610499505012,
                1.4969534574764904,
                -1.0378960855950976,
                0.3434540523466795,
                -2.6622571423105894
            ]
        },
        {
            "positions": [
                0.044979026211537154,
                -1.0872927439951796,
                1.6201078597570349,
                -0.9916367319680274,
                0.2917034021635291,
                -2.777005753119248
            ]
        },
        {
            "positions": [
                0.0712145327934226,
                -1.107974988485347,
                1.7432622620375784,
                -0.9453773783409571,
                0.2399527519803788,
                -2.8917543639279066
            ]
        },
        {
            "positions": [
                0.09745003937530805,
                -1.1286572329755145,
                1.8664166643181228,
                -0.8991180247138868,
                0.18820210179722852,
                -3.0065029747365655
            ]
        },
        {
            "positions": [
                0.12368554595719355,
                -1.149339477465682,
                1.989571066598667,
                -0.8528586710868166,
                0.13645145161407812,
                -3.1212515855452243
            ]
        }
    ]
}