{
    "goal": {
        "global_pose": {
            "orientation": {
                "w": 0.7047431468963623,
                "x": -0.7094548344612122,
                "y": 0.0024358443915843964,
                "z": -0.0022348060738295317
            },
            "position": {
                "x": 0.6094750761985779,
                "y": 0.3671506643295288,
                "z": 0.19426114857196808
            }
        },
        "name": "move_to_magneteinheit_A"
    },
    "id": "RRT_move_to_magneteinheit_A_127",
    "joint_names": [
        "shoulder_pan_joint",
        "shoulder_lift_joint",
        "elbow_joint",
        "wrist_1_joint",
        "wrist_2_joint",
        "wrist_3_joint"
    ],
    "metrics": {
        "cart_traj_len": 3.430219986240234,
        "distance_elbow_joint": 3.908037197089652,
        "distance_shoulder_lift_joint": 0.468910981317892,
        "distance_shoulder_pan_joint": 3.1764888384872427,
        "distance_wrist_1_joint": 3.457675664737472,
        "distance_wrist_2_joint": 1.939715084214788,
        "distance_wrist_3_joint": 0.42570985758313606,
        "smoothness": 0.19547189380942454,
        "time": 0.227813998,
        "traj_len": 3.6573949230880425,
        "weighted_distance": 4.430050573926749
    },
    "planner": "RRT",
    "start": {
        "state": {
            "elbow_joint": -1.919618573717145,
            "shoulder_lift_joint": -1.2443395971678275,
            "shoulder_pan_joint": 2.6996025300909787,
            "wrist_1_joint": -1.548550951253194,
            "wrist_2_joint": -1.5709469090946802,
            "wrist_3_joint": 0.4420197732051276
        }
    },
    "waypoints": [
        {
            "positions": [
                2.6996025300909787,
                -1.2443395971678275,
                -1.919618573717145,
                -1.548550951253194,
                -1.5709469090946802,
                0.4420197732051276
            ]
        },
        {
            "positions": [
                2.563433927319071,
                -1.236342797528487,
                -1.853175366280746,
                -1.4825955386949632,
                -1.473519849446139,
                0.43882580845672364
            ]
        },
        {
            "positions": [
                2.4272653245471636,
                -1.228345997889147,
                -1.786732158844347,
                -1.4166401261367325,
                -1.376092789797598,
                0.43563184370831975
            ]
        },
        {
            "positions": [
                2.291096721775256,
                -1.2203491982498065,
                -1.720288951407948,
                -1.3506847135785018,
                -1.278665730149057,
                0.4324378789599158
            ]
        },
        {
            "positions": [
                2.1549281190033485,
                -1.2123523986104663,
                -1.6538457439715493,
                -1.284729301020271,
                -1.181238670500516,
                0.42924391421151187
            ]
        },
        {
            "positions": [
                2.018759516231441,
                -1.2043555989711259,
                -1.5874025365351503,
                -1.21877388846204,
                -1.0838116108519746,
                0.4260499494631079
            ]
        },
        {
            "positions": [
                1.882590913459533,
                -1.1963587993317857,
                -1.5209593290987513,
                -1.1528184759038094,
                -0.9863845512034337,
                0.422855984714704
            ]
        },
        {
            "positions": [
                1.7464223106876253,
                -1.1883619996924453,
                -1.4545161216623523,
                -1.0868630633455785,
                -0.8889574915548926,
                0.4196620199663001
            ]
        },
        {
            "positions": [
                1.610253707915718,
                -1.1803652000531049,
                -1.3880729142259534,
                -1.0209076507873478,
                -0.7915304319063516,
                0.41646805521789615
            ]
        },
        {
            "positions": [
                1.4740851051438102,
                -1.1723684004137647,
                -1.3216297067895546,
                -0.954952238229117,
                -0.6941033722578105,
                0.4132740904694922
            ]
        },
        {
            "positions": [
                1.3379165023719026,
                -1.1643716007744243,
                -1.2551864993531554,
                -0.8889968256708862,
                -0.5966763126092693,
                0.4100801257210883
            ]
        },
        {
            "positions": [
                1.201747899599995,
                -1.156374801135084,
                -1.1887432919167567,
                -0.8230414131126554,
                -0.4992492529607284,
                0.4068861609726844
            ]
        },
        {
            "positions": [
                1.0655792968280875,
                -1.1483780014957436,
                -1.1223000844803577,
                -0.7570860005544247,
                -0.4018221933121874,
                0.40369219622428043
            ]
        },
        {
            "positions": [
                0.9924346407127337,
                -1.137003680368269,
                -0.9799976624405852,
                -0.6441919252998178,
                -0.3708109845466456,
                0.3860811480232287
            ]
        },
        {
            "positions": [
                0.9192899845973798,
                -1.1256293592407944,
                -0.8376952404008127,
                -0.5312978500452109,
                -0.33979977578110376,
                0.3684700998221769
            ]
        },
        {
            "positions": [
                0.846145328482026,
                -1.1142550381133198,
                -0.6953928183610403,
                -0.41840377479060403,
                -0.3087885670155619,
                0.3508590516211251
            ]
        },
        {
            "positions": [
                0.773000672366672,
                -1.102880716985845,
                -0.5530903963212678,
                -0.30550969953599716,
                -0.2777773582500201,
                0.3332480034200733
            ]
        },
        {
            "positions": [
                0.6998560162513182,
                -1.0915063958583704,
                -0.41078797428149527,
                -0.19261562428139023,
                -0.24676614948447828,
                0.3156369552190216
            ]
        },
        {
            "positions": [
                0.6267113601359644,
                -1.0801320747308958,
                -0.26848555224172277,
                -0.07972154902678341,
                -0.21575494071893644,
                0.29802590701796977
            ]
        },
        {
            "positions": [
                0.5535667040206105,
                -1.0687577536034212,
                -0.12618313020195038,
                0.03317252622782341,
                -0.18474373195339466,
                0.280414858816918
            ]
        },
        {
            "positions": [
                0.48042204790525667,
                -1.0573834324759466,
                0.016119291837822125,
                0.14606660148243034,
                -0.15373252318785283,
                0.2628038106158662
            ]
        },
        {
            "positions": [
                0.40727739178990274,
                -1.046009111348472,
                0.15842171387759452,
                0.25896067673703715,
                -0.12272131442231099,
                0.24519276241481444
            ]
        },
        {
            "positions": [
                0.33413273567454893,
                -1.0346347902209971,
                0.30072413591736713,
                0.3718547519916442,
                -0.09171010565676918,
                0.22758171421376266
            ]
        },
        {
            "positions": [
                0.260988079559195,
                -1.0232604690935225,
                0.4430265579571395,
                0.484748827246251,
                -0.06069889689122737,
                0.2099706660127109
            ]
        },
        {
            "positions": [
                0.1878434234438412,
                -1.011886147966048,
                0.5853289799969121,
                0.5976429025008578,
                -0.029687688125685507,
                0.1923596178116591
            ]
        },
        {
            "positions": [
                0.11469876732848738,
                -1.0005118268385733,
                0.7276314020366843,
                0.7105369777554646,
                0.001323520639856246,
                0.17474856961060736
            ]
        },
        {
            "positions": [
                0.04155411121313346,
                -0.9891375057110987,
                0.8699338240764569,
                0.8234310530100715,
                0.032334729405398055,
                0.15713752140955559
            ]
        },
        {
            "positions": [
                -0.03159054490222024,
                -0.9777631845836241,
                1.0122362461162295,
                0.9363251282646783,
                0.06334593817093986,
                0.1395264732085038
            ]
        },
        {
            "positions": [
                -0.10473520101757416,
                -0.9663888634561494,
                1.154538668156002,
                1.0492192035192853,
                0.09435714693648173,
                0.12191542500745206
            ]
        },
        {
            "positions": [
                -0.17787985713292798,
                -0.9550145423286748,
                1.296841090195774,
                1.1621132787738921,
                0.12536835570202357,
                0.10430437680640028
            ]
        },
        {
            "positions": [
                -0.12804544858903827,
                -0.9250835545822182,
                1.4121040123918962,
                1.2866151845589566,
                0.08480171913234298,
                0.0896386332756655
            ]
        },
        {
            "positions": [
                -0.07821104004514856,
                -0.8951525668357617,
                1.5273669345880185,
                1.4111170903440209,
                0.0442350825626624,
                0.07497288974493072
            ]
        },
        {
            "positions": [
                -0.028376631501258853,
                -0.8652215790893052,
                1.6426298567841406,
                1.5356189961290854,
                0.003668445992981814,
                0.06030714621419594
            ]
        },
        {
            "positions": [
                0.021457777042630855,
                -0.8352905913428486,
                1.7578927789802627,
                1.6601209019141496,
                -0.03689819057669877,
                0.04564140268346116
            ]
        },
        {
            "positions": [
                0.07129218558652056,
                -0.805359603596392,
                1.873155701176385,
                1.7846228076992143,
                -0.07746482714637937,
                0.030975659152726376
            ]
        },
        {
            "positions": [
                0.1211265941304103,
                -0.7754286158499355,
                1.9884186233725072,
                1.9091247134842786,
                -0.11803146371605994,
                0.01630991562199159
            ]
        }
    ]
}{
    "goal": {
        "global_pose": {
            "orientation": {
                "w": 0.7047431468963623,
                "x": -0.7094548344612122,
                "y": 0.0024358443915843964,
                "z": -0.0022348060738295317
            },
            "position": {
                "x": 0.6094750761985779,
                "y": 0.3671506643295288,
                "z": 0.19426114857196808
            }
        },
        "name": "move_to_magneteinheit_A"
    },
    "id": "RRT_move_to_magneteinheit_A_127",
    "joint_names": [
        "shoulder_pan_joint",
        "shoulder_lift_joint",
        "elbow_joint",
        "wrist_1_joint",
        "wrist_2_joint",
        "wrist_3_joint"
    ],
    "metrics": {
        "cart_traj_len": 1.2508348635540552,
        "distance_elbow_joint": 0.07663703285430001,
        "distance_shoulder_lift_joint": 1.1194268363512778,
        "distance_shoulder_pan_joint": 1.2426214344612576,
        "distance_wrist_1_joint": 3.5209185521872,
        "distance_wrist_2_joint": 1.7031920594555927,
        "distance_wrist_3_joint": 1.1153611177861598,
        "smoothness": 7.401486889441618e-17,
        "time": 0.0290892,
        "traj_len": 2.962795476082645,
        "weighted_distance": 4.029018476044867
    },
    "planner": "RRT",
    "start": {
        "state": {
            "elbow_joint": 1.919643534880228,
            "shoulder_lift_joint": -1.8972525353963687,
            "shoulder_pan_joint": -1.1188672234189438,
            "wrist_1_joint": -1.5931878212786155,
            "wrist_2_joint": 1.5706036197970081,
            "wrist_3_joint": 1.118896926603594
        }
    },
    "waypoints": [
        {
            "positions": [
                -1.1188672234189438,
                -1.8972525353963687,
                1.919643534880228,
                -1.5931878212786155,
                1.5706036197970081,
                1.118896926603594
            ]
        },
        {
            "positions": [
                -1.064840204529324,
                -1.8485818033810957,
                1.9229755797869368,
                -1.4401044059661285,
                1.496551791125026,
                1.0704029649607174
            ]
        },
        {
            "positions": [
                -1.010813185639704,
                -1.7999110713658228,
                1.9263076246936455,
                -1.2870209906536416,
                1.4224999624530437,
                1.0219090033178408
            ]
        },
        {
            "positions": [
                -0.9567861667500841,
                -1.75124033935055,
                1.9296396696003542,
                -1.1339375753411547,
                1.3484481337810612,
                0.9734150416749644
            ]
        },
        {
            "positions": [
                -0.9027591478604643,
                -1.702569607335277,
                1.9329717145070628,
                -0.9808541600286677,
                1.274396305109079,
                0.924921080032088
            ]
        },
        {
            "positions": [
                -0.8487321289708444,
                -1.653898875320004,
                1.9363037594137715,
                -0.8277707447161807,
                1.2003444764370967,
                0.8764271183892114
            ]
        },
        {
            "positions": [
                -0.7947051100812245,
                -1.605228143304731,
                1.9396358043204802,
                -0.6746873294036938,
                1.1262926477651143,
                0.8279331567463348
            ]
        },
        {
            "positions": [
                -0.7406780911916045,
                -1.556557411289458,
                1.942967849227189,
                -0.5216039140912068,
                1.052240819093132,
                0.7794391951034584
            ]
        },
        {
            "positions": [
                -0.6866510723019847,
                -1.5078866792741852,
                1.9462998941338976,
                -0.36852049877871984,
                0.9781889904211498,
                0.7309452334605819
            ]
        },
        {
            "positions": [
                -0.6326240534123648,
                -1.4592159472589121,
                1.9496319390406063,
                -0.21543708346623291,
                0.9041371617491675,
                0.6824512718177054
            ]
        },
        {
            "positions": [
                -0.5785970345227449,
                -1.4105452152436393,
                1.952963983947315,
                -0.06235366815374599,
                0.8300853330771852,
                0.6339573101748288
            ]
        },
        {
            "positions": [
                -0.524570015633125,
                -1.3618744832283662,
                1.9562960288540236,
                0.09072974715874116,
                0.7560335044052029,
                0.5854633485319524
            ]
        },
        {
            "positions": [
                -0.4705429967435051,
                -1.3132037512130934,
                1.9596280737607326,
                0.24381316247122786,
                0.6819816757332207,
                0.5369693868890758
            ]
        },
        {
            "positions": [
                -0.4165159778538853,
                -1.2645330191978204,
                1.9629601186674412,
                0.3968965777837148,
                0.6079298470612384,
                0.48847542524619936
            ]
        },
        {
            "positions": [
                -0.36248895896426525,
                -1.2158622871825475,
                1.96629216357415,
                0.5499799930962019,
                0.533878018389256,
                0.4399814636033228
            ]
        },
        {
            "positions": [
                -0.30846194007464545,
                -1.1671915551672745,
                1.9696242084808586,
                0.7030634084086891,
                0.45982618971727374,
                0.39148750196044624
            ]
        },
        {
            "positions": [
                -0.25443492118502553,
                -1.1185208231520014,
                1.9729562533875673,
                0.8561468237211758,
                0.3857743610452915,
                0.3429935403175698
            ]
        },
        {
            "positions": [
                -0.20040790229540562,
                -1.0698500911367286,
                1.976288298294276,
                1.0092302390336625,
                0.31172253237330927,
                0.29449957867469334
            ]
        },
        {
            "positions": [
                -0.1463808834057857,
                -1.0211793591214557,
                1.9796203432009847,
                1.1623136543461496,
                0.2376707037013268,
                0.24600561703181667
            ]
        },
        {
            "positions": [
                -0.0923538645161659,
                -0.9725086271061827,
                1.9829523881076934,
                1.3153970696586368,
                0.16361887502934458,
                0.19751165538894022
            ]
        },
        {
            "positions": [
                -0.03832684562654598,
                -0.9238378950909097,
                1.986284433014402,
                1.4684804849711235,
                0.08956704635736235,
                0.14901769374606377
            ]
        },
        {
            "positions": [
                0.015700173263073935,
                -0.8751671630756368,
                1.9896164779211107,
                1.6215639002836102,
                0.015515217685380112,
                0.10052373210318732
            ]
        },
        {
            "positions": [
                0.06972719215269385,
                -0.8264964310603637,
                1.9929485228278194,
                1.7746473155960978,
                -0.058536610986602344,
                0.052029770460310765
            ]
        },
        {
            "positions": [
                0.12375421104231368,
                -0.7778256990450909,
                1.996280567734528,
                1.9277307309085847,
                -0.1325884396585845,
                0.003535808817434311
            ]
        }
    ]
}