{
    "goal": {
        "global_pose": {
            "orientation": {
                "w": 0.5084816217422485,
                "x": -0.49083608388900757,
                "y": 0.5182115435600281,
                "z": -0.4816462993621826
            },
            "position": {
                "x": 0.5540239810943604,
                "y": 0.030875300988554955,
                "z": 0.16403168439865112
            }
        },
        "name": "move_to_storage_A"
    },
    "id": "RRT_move_to_storage_A_133",
    "joint_names": [
        "shoulder_pan_joint",
        "shoulder_lift_joint",
        "elbow_joint",
        "wrist_1_joint",
        "wrist_2_joint",
        "wrist_3_joint"
    ],
    "metrics": {
        "cart_traj_len": 0.3537689708057783,
        "distance_elbow_joint": 0.4504764978731175,
        "distance_shoulder_lift_joint": 0.23585960354733548,
        "distance_shoulder_pan_joint": 0.4641696256350799,
        "distance_wrist_1_joint": 0.24244802277778332,
        "distance_wrist_2_joint": 1.0941475170090365,
        "distance_wrist_3_joint": 0.10429861288222897,
        "smoothness": 4.440892098500626e-16,
        "time": 0.01810735,
        "traj_len": 1.6097825566593091,
        "weighted_distance": 2.0338615108398748
    },
    "planner": "RRT",
    "start": {
        "state": {
            "elbow_joint": 1.9715477243005601,
            "shoulder_lift_joint": -1.1394853015351272,
            "shoulder_pan_joint": 0.12281154014795169,
            "wrist_1_joint": -0.7804696478968182,
            "wrist_2_joint": 0.12958648046900423,
            "wrist_3_joint": -3.192491284697111
        }
    },
    "waypoints": [
        {
            "positions": [
                0.12281154014795169,
                -1.1394853015351272,
                1.9715477243005601,
                -0.7804696478968182,
                0.12958648046900423,
                -3.192491284697111
            ]
        },
        {
            "positions": [
                0.05650159362865456,
                -1.173179530613318,
                2.0359015097110054,
                -0.8151050797222158,
                0.2858932686131523,
                -3.177591482856793
            ]
        },
        {
            "positions": [
                -0.009808352890642566,
                -1.2068737596915087,
                2.100255295121451,
                -0.8497405115476134,
                0.44220005675730034,
                -3.1626916810164745
            ]
        },
        {
            "positions": [
                -0.07611829940993968,
                -1.2405679887696994,
                2.1646090805318963,
                -0.884375943373011,
                0.5985068449014483,
                -3.147791879176156
            ]
        },
        {
            "positions": [
                -0.1424282459292368,
                -1.2742622178478902,
                2.2289628659423415,
                -0.9190113751984086,
                0.7548136330455965,
                -3.1328920773358373
            ]
        },
        {
            "positions": [
                -0.20873819244853398,
                -1.3079564469260812,
                2.2933166513527867,
                -0.9536468070238062,
                0.9111204211897446,
                -3.117992275495519
            ]
        },
        {
            "positions": [
                -0.27504813896783104,
                -1.341650676004272,
                2.3576704367632324,
                -0.9882822388492039,
                1.0674272093338926,
                -3.1030924736552006
            ]
        },
        {
            "positions": [
                -0.3413580854871282,
                -1.3753449050824627,
                2.4220242221736776,
                -1.0229176706746015,
                1.2237339974780406,
                -3.088192671814882
            ]
        }
    ]
}