{
    "goal": {
        "global_pose": {
            "orientation": {
                "w": 0.5084816217422485,
                "x": -0.49083608388900757,
                "y": 0.5182115435600281,
                "z": -0.4816462993621826
            },
            "position": {
                "x": 0.5540239810943604,
                "y": 0.030875300988554955,
                "z": 0.16403168439865112
            }
        },
        "name": "move_to_storage_A"
    },
    "id": "RRT_move_to_storage_A_111",
    "joint_names": [
        "shoulder_pan_joint",
        "shoulder_lift_joint",
        "elbow_joint",
        "wrist_1_joint",
        "wrist_2_joint",
        "wrist_3_joint"
    ],
    "metrics": {
        "cart_traj_len": 0.35365708283710834,
        "distance_elbow_joint": 0.452078911385144,
        "distance_shoulder_lift_joint": 0.23299139573281757,
        "distance_shoulder_pan_joint": 0.4605848223962777,
        "distance_wrist_1_joint": 0.25609194409415836,
        "distance_wrist_2_joint": 1.1072822986901074,
        "distance_wrist_3_joint": 0.0977699159606038,
        "smoothness": 2.2204460668324854e-16,
        "time": 0.010906368999999999,
        "traj_len": 1.6145585428404596,
        "weighted_distance": 2.0410079281973847
    },
    "planner": "RRT",
    "start": {
        "state": {
            "elbow_joint": 1.9715477243005601,
            "shoulder_lift_joint": -1.1394853015351272,
            "shoulder_pan_joint": 0.12281154014795169,
            "wrist_1_joint": -0.7804696478968182,
            "wrist_2_joint": 0.12958648046900423,
            "wrist_3_joint": -3.192491284697111
        }
    },
    "waypoints": [
        {
            "positions": [
                0.12281154014795169,
                -1.1394853015351272,
                1.9715477243005601,
                -0.7804696478968182,
                0.12958648046900423,
                -3.192491284697111
            ]
        },
        {
            "positions": [
                0.057013708377054884,
                -1.1727697866398155,
                2.036130425927009,
                -0.8170542113388408,
                0.2877696659961624,
                -3.178524153845596
            ]
        },
        {
            "positions": [
                -0.008784123393841922,
                -1.2060542717445035,
                2.1007131275534583,
                -0.8536387747808634,
                0.4459528515233206,
                -3.1645570229940816
            ]
        },
        {
            "positions": [
                -0.07458195516473874,
                -1.2393387568491918,
                2.1652958291799074,
                -0.890223338222886,
                0.6041360370504788,
                -3.1505898921425666
            ]
        },
        {
            "positions": [
                -0.14037978693563552,
                -1.27262324195388,
                2.2298785308063565,
                -0.9268079016649087,
                0.762319222577637,
                -3.136622761291052
            ]
        },
        {
            "positions": [
                -0.20617761870653234,
                -1.3059077270585684,
                2.294461232432806,
                -0.9633924651069312,
                0.9205024081047952,
                -3.122655630439537
            ]
        },
        {
            "positions": [
                -0.27197545047742916,
                -1.3391922121632565,
                2.359043934059255,
                -0.9999770285489539,
                1.0786855936319535,
                -3.1086884995880224
            ]
        },
        {
            "positions": [
                -0.337773282248326,
                -1.3724766972679447,
                2.423626635685704,
                -1.0365615919909765,
                1.2368687791591115,
                -3.0947213687365074
            ]
        }
    ]
}