{
    "goal": {
        "global_pose": {
            "orientation": {
                "w": 0.7047431468963623,
                "x": -0.7094548344612122,
                "y": 0.0024358443915843964,
                "z": -0.0022348060738295317
            },
            "position": {
                "x": 0.6094750761985779,
                "y": 0.3671506643295288,
                "z": 0.19426114857196808
            }
        },
        "name": "move_to_magneteinheit_A"
    },
    "id": "RRT_move_to_magneteinheit_A_37",
    "joint_names": [
        "shoulder_pan_joint",
        "shoulder_lift_joint",
        "elbow_joint",
        "wrist_1_joint",
        "wrist_2_joint",
        "wrist_3_joint"
    ],
    "metrics": {
        "cart_traj_len": 3.4399061331892864,
        "distance_elbow_joint": 3.913828217790792,
        "distance_shoulder_lift_joint": 0.47440654015144634,
        "distance_shoulder_pan_joint": 3.1851181734738576,
        "distance_wrist_1_joint": 3.4694934376699917,
        "distance_wrist_2_joint": 1.7645813694951453,
        "distance_wrist_3_joint": 0.47815788052654706,
        "smoothness": 0.19640687037370588,
        "time": 0.06402251,
        "traj_len": 3.6449397277743536,
        "weighted_distance": 4.41315943370801
    },
    "planner": "RRT",
    "start": {
        "state": {
            "elbow_joint": -1.919618573717145,
            "shoulder_lift_joint": -1.2443395971678275,
            "shoulder_pan_joint": 2.6996025300909787,
            "wrist_1_joint": -1.548550951253194,
            "wrist_2_joint": -1.5709469090946802,
            "wrist_3_joint": 0.4420197732051276
        }
    },
    "waypoints": [
        {
            "positions": [
                2.6996025300909787,
                -1.2443395971678275,
                -1.919618573717145,
                -1.548550951253194,
                -1.5709469090946802,
                0.4420197732051276
            ]
        },
        {
            "positions": [
                2.598949806701391,
                -1.2318367855470465,
                -1.8160028823978238,
                -1.4435598362981037,
                -1.5150211019052455,
                0.4363939950097411
            ]
        },
        {
            "positions": [
                2.4982970833118032,
                -1.2193339739262654,
                -1.712387191078503,
                -1.338568721343013,
                -1.459095294715811,
                0.43076821681435457
            ]
        },
        {
            "positions": [
                2.3976443599222157,
                -1.2068311623054846,
                -1.6087714997591818,
                -1.2335776063879227,
                -1.403169487526376,
                0.42514243861896805
            ]
        },
        {
            "positions": [
                2.2969916365326277,
                -1.1943283506847036,
                -1.5051558084398606,
                -1.128586491432832,
                -1.3472436803369414,
                0.41951666042358154
            ]
        },
        {
            "positions": [
                2.19633891314304,
                -1.1818255390639225,
                -1.4015401171205397,
                -1.0235953764777417,
                -1.2913178731475068,
                0.413890882228195
            ]
        },
        {
            "positions": [
                2.0956861897534527,
                -1.1693227274431415,
                -1.2979244258012186,
                -0.9186042615226512,
                -1.235392065958072,
                0.40826510403280847
            ]
        },
        {
            "positions": [
                1.9950334663638647,
                -1.1568199158223607,
                -1.1943087344818974,
                -0.8136131465675607,
                -1.1794662587686373,
                0.40263932583742196
            ]
        },
        {
            "positions": [
                1.8943807429742772,
                -1.1443171042015796,
                -1.0906930431625765,
                -0.7086220316124703,
                -1.1235404515792027,
                0.39701354764203545
            ]
        },
        {
            "positions": [
                1.7937280195846892,
                -1.1318142925807986,
                -0.9870773518432553,
                -0.6036309166573797,
                -1.067614644389768,
                0.39138776944664894
            ]
        },
        {
            "positions": [
                1.6930752961951014,
                -1.1193114809600175,
                -0.8834616605239343,
                -0.4986398017022893,
                -1.0116888372003334,
                0.3857619912512624
            ]
        },
        {
            "positions": [
                1.592422572805514,
                -1.1068086693392365,
                -0.7798459692046131,
                -0.39364868674719866,
                -0.9557630300108987,
                0.3801362130558759
            ]
        },
        {
            "positions": [
                1.4917698494159262,
                -1.0943058577184557,
                -0.6762302778852922,
                -0.28865757179210827,
                -0.8998372228214639,
                0.3745104348604894
            ]
        },
        {
            "positions": [
                1.3911171260263384,
                -1.0818030460976746,
                -0.5726145865659711,
                -0.18366645683701766,
                -0.8439114156320292,
                0.36888465666510284
            ]
        },
        {
            "positions": [
                1.2904644026367507,
                -1.0693002344768936,
                -0.46899889524664995,
                -0.07867534188192726,
                -0.7879856084425946,
                0.3632588784697164
            ]
        },
        {
            "positions": [
                1.189811679247163,
                -1.0567974228561126,
                -0.3653832039273288,
                0.02631577307316313,
                -0.73205980125316,
                0.3576331002743298
            ]
        },
        {
            "positions": [
                1.0891589558575754,
                -1.0442946112353315,
                -0.2617675126080079,
                0.13130688802825352,
                -0.6761339940637252,
                0.35200732207894336
            ]
        },
        {
            "positions": [
                0.9885062324679876,
                -1.0317917996145507,
                -0.15815182128868677,
                0.23629800298334414,
                -0.6202081868742906,
                0.3463815438835568
            ]
        },
        {
            "positions": [
                0.8878535090783997,
                -1.0192889879937697,
                -0.05453612996936563,
                0.34128911793843475,
                -0.5642823796848557,
                0.3407557656881703
            ]
        },
        {
            "positions": [
                0.7872007856888119,
                -1.0067861763729886,
                0.0490795613499555,
                0.44628023289352536,
                -0.5083565724954211,
                0.3351299874927838
            ]
        },
        {
            "positions": [
                0.6865480622992242,
                -0.9942833647522076,
                0.15269525266927642,
                0.5512713478486155,
                -0.45243076530598647,
                0.32950420929739727
            ]
        },
        {
            "positions": [
                0.5858953389096366,
                -0.9817805531314266,
                0.25631094398859733,
                0.6562624628037064,
                -0.39650495811655184,
                0.32387843110201076
            ]
        },
        {
            "positions": [
                0.4852426155200491,
                -0.9692777415106457,
                0.3599266353079187,
                0.7612535777587968,
                -0.3405791509271172,
                0.31825265290662424
            ]
        },
        {
            "positions": [
                0.38458989213046113,
                -0.9567749298898647,
                0.4635423266272396,
                0.8662446927138872,
                -0.28465334373768236,
                0.31262687471123773
            ]
        },
        {
            "positions": [
                0.2839371687408736,
                -0.9442721182690836,
                0.5671580179465605,
                0.9712358076689775,
                -0.22872753654824773,
                0.30700109651585117
            ]
        },
        {
            "positions": [
                0.18328444535128563,
                -0.9317693066483026,
                0.6707737092658819,
                1.0762269226240684,
                -0.17280172935881288,
                0.30137531832046466
            ]
        },
        {
            "positions": [
                0.0826317219616981,
                -0.9192664950275217,
                0.7743894005852028,
                1.1812180375791588,
                -0.11687592216937825,
                0.29574954012507815
            ]
        },
        {
            "positions": [
                -0.01802100142788987,
                -0.9067636834067407,
                0.8780050919045241,
                1.2862091525342492,
                -0.060950114979943626,
                0.29012376192969164
            ]
        },
        {
            "positions": [
                -0.11867372481747746,
                -0.8942608717859597,
                0.9816207832238453,
                1.3912002674893398,
                -0.005024307790509011,
                0.2844979837343051
            ]
        },
        {
            "positions": [
                -0.1497953951457422,
                -0.8960707422476184,
                1.1050929015767528,
                1.4789138759216585,
                0.013078566889867554,
                0.2965831501103372
            ]
        },
        {
            "positions": [
                -0.18091706547400693,
                -0.8978806127092772,
                1.2285650199296603,
                1.5666274843539771,
                0.031181441570244123,
                0.3086683164863692
            ]
        },
        {
            "positions": [
                -0.12264198900293508,
                -0.8746279297805665,
                1.3779757667752743,
                1.6361201140147226,
                -0.00011827036489228324,
                0.25149310294631716
            ]
        },
        {
            "positions": [
                -0.06436691253186322,
                -0.8513752468518557,
                1.5273865136208884,
                1.7056127436754682,
                -0.03141798230002869,
                0.19431788940626507
            ]
        },
        {
            "positions": [
                -0.006091836060791389,
                -0.8281225639231451,
                1.6767972604665022,
                1.7751053733362137,
                -0.06271769423516509,
                0.137142675866213
            ]
        },
        {
            "positions": [
                0.052183240410280496,
                -0.8048698809944344,
                1.8262080073121165,
                1.8445980029969593,
                -0.0940174061703015,
                0.07996746232616092
            ]
        },
        {
            "positions": [
                0.11045831688135233,
                -0.7816171980657236,
                1.9756187541577304,
                1.9140906326577047,
                -0.12531711810543789,
                0.022792248786108835
            ]
        },
        {
            "positions": [
                0.12368151243486582,
                -0.7771725388630162,
                1.994209644073647,
                1.9209424864167974,
                -0.13127157725997698,
                0.012202558182708644
            ]
        }
    ]
}{
    "goal": {
        "global_pose": {
            "orientation": {
                "w": 0.7047431468963623,
                "x": -0.7094548344612122,
                "y": 0.0024358443915843964,
                "z": -0.0022348060738295317
            },
            "position": {
                "x": 0.6094750761985779,
                "y": 0.3671506643295288,
                "z": 0.19426114857196808
            }
        },
        "name": "move_to_magneteinheit_A"
    },
    "id": "RRT_move_to_magneteinheit_A_37",
    "joint_names": [
        "shoulder_pan_joint",
        "shoulder_lift_joint",
        "elbow_joint",
        "wrist_1_joint",
        "wrist_2_joint",
        "wrist_3_joint"
    ],
    "metrics": {
        "cart_traj_len": 1.2462293205891566,
        "distance_elbow_joint": 0.527010344198372,
        "distance_shoulder_lift_joint": 0.7810954505457388,
        "distance_shoulder_pan_joint": 1.2405460482708697,
        "distance_wrist_1_joint": 2.28053134162462,
        "distance_wrist_2_joint": 1.7633950924738508,
        "distance_wrist_3_joint": 4.3373196658506075,
        "smoothness": 0.31507869009552636,
        "time": 0.076926884,
        "traj_len": 3.3060396160608927,
        "weighted_distance": 4.862968610711335
    },
    "planner": "RRT",
    "start": {
        "state": {
            "elbow_joint": 1.919643534880228,
            "shoulder_lift_joint": -1.8972525353963687,
            "shoulder_pan_joint": -1.1188672234189438,
            "wrist_1_joint": -1.5931878212786155,
            "wrist_2_joint": 1.5706036197970081,
            "wrist_3_joint": 1.118896926603594
        }
    },
    "waypoints": [
        {
            "positions": [
                -1.1188672234189438,
                -1.8972525353963687,
                1.919643534880228,
                -1.5931878212786155,
                1.5706036197970081,
                1.118896926603594
            ]
        },
        {
            "positions": [
                -1.0707635308094858,
                -1.862202534212394,
                1.9087176249643358,
                -1.522414480169713,
                1.4975856949970847,
                0.9785713080611546
            ]
        },
        {
            "positions": [
                -1.022659838200028,
                -1.8271525330284193,
                1.8977917150484438,
                -1.4516411390608104,
                1.424567770197161,
                0.8382456895187151
            ]
        },
        {
            "positions": [
                -0.97455614559057,
                -1.7921025318444446,
                1.8868658051325515,
                -1.380867797951908,
                1.3515498453972377,
                0.6979200709762758
            ]
        },
        {
            "positions": [
                -0.9264524529811121,
                -1.7570525306604698,
                1.8759398952166595,
                -1.3100944568430053,
                1.278531920597314,
                0.5575944524338364
            ]
        },
        {
            "positions": [
                -0.8783487603716542,
                -1.7220025294764951,
                1.8650139853007672,
                -1.2393211157341029,
                1.2055139957973906,
                0.41726883389139713
            ]
        },
        {
            "positions": [
                -0.8302450677621962,
                -1.6869525282925204,
                1.8540880753848752,
                -1.1685477746252002,
                1.1324960709974672,
                0.2769432153489577
            ]
        },
        {
            "positions": [
                -0.7821413751527383,
                -1.6519025271085457,
                1.843162165468983,
                -1.0977744335162978,
                1.0594781461975435,
                0.1366175968065183
            ]
        },
        {
            "positions": [
                -0.7340376825432804,
                -1.6168525259245707,
                1.8322362555530907,
                -1.0270010924073953,
                0.98646022139762,
                -0.0037080217359211076
            ]
        },
        {
            "positions": [
                -0.6859339899338224,
                -1.581802524740596,
                1.8213103456371986,
                -0.9562277512984926,
                0.9134422965976964,
                -0.14403364027836063
            ]
        },
        {
            "positions": [
                -0.6378302973243646,
                -1.5467525235566213,
                1.8103844357213064,
                -0.8854544101895901,
                0.840424371797773,
                -0.2843592588207997
            ]
        },
        {
            "positions": [
                -0.5897266047149066,
                -1.5117025223726466,
                1.7994585258054143,
                -0.8146810690806876,
                0.7674064469978494,
                -0.42468487736323923
            ]
        },
        {
            "positions": [
                -0.5416229121054487,
                -1.4766525211886719,
                1.788532615889522,
                -0.7439077279717852,
                0.694388522197926,
                -0.5650104959056785
            ]
        },
        {
            "positions": [
                -0.49351921949599065,
                -1.4416025200046971,
                1.7776067059736298,
                -0.6731343868628825,
                0.6213705973980024,
                -0.7053361144481181
            ]
        },
        {
            "positions": [
                -0.44541552688653274,
                -1.4065525188207224,
                1.7666807960577378,
                -0.60236104575398,
                0.548352672598079,
                -0.8456617329905574
            ]
        },
        {
            "positions": [
                -0.39731183427707484,
                -1.3715025176367477,
                1.7557548861418455,
                -0.5315877046450777,
                0.47533474779815554,
                -0.9859873515329964
            ]
        },
        {
            "positions": [
                -0.3492081416676168,
                -1.336452516452773,
                1.7448289762259535,
                -0.460814363536175,
                0.4023168229982319,
                -1.1263129700754362
            ]
        },
        {
            "positions": [
                -0.30110444905815903,
                -1.3014025152687982,
                1.7339030663100612,
                -0.39004102242727234,
                0.32929889819830827,
                -1.2666385886178755
            ]
        },
        {
            "positions": [
                -0.253000756448701,
                -1.2663525140848235,
                1.722977156394169,
                -0.3192676813183697,
                0.2562809733983846,
                -1.4069642071603152
            ]
        },
        {
            "positions": [
                -0.2048970638392431,
                -1.2313025129008488,
                1.7120512464782769,
                -0.24849434020946726,
                0.1832630485984612,
                -1.5472898257027545
            ]
        },
        {
            "positions": [
                -0.1567933712297852,
                -1.196252511716874,
                1.7011253365623846,
                -0.17772099910056482,
                0.11024512379853779,
                -1.6876154442451934
            ]
        },
        {
            "positions": [
                -0.10868967862032708,
                -1.1612025105328994,
                1.6901994266464926,
                -0.10694765799166217,
                0.03722719899861415,
                -1.8279410627876331
            ]
        },
        {
            "positions": [
                -0.06058598601086926,
                -1.1261525093489246,
                1.6792735167306003,
                -0.03617431688275963,
                -0.03579072580130932,
                -1.9682666813300724
            ]
        },
        {
            "positions": [
                -0.034548155887612814,
                -1.1275804271343952,
                1.7202221347375637,
                -0.13953400791544018,
                -0.013362047676233096,
                -2.1468604038896353
            ]
        },
        {
            "positions": [
                -0.008510325764356362,
                -1.129008344919866,
                1.7611707527445273,
                -0.24289369894812074,
                0.009066630448843128,
                -2.3254541264491984
            ]
        },
        {
            "positions": [
                0.01752750435890009,
                -1.1304362627053366,
                1.8021193707514906,
                -0.3462533899808013,
                0.031495308573919356,
                -2.5040478490087614
            ]
        },
        {
            "positions": [
                0.043565334482156534,
                -1.1318641804908074,
                1.8430679887584542,
                -0.44961308101348185,
                0.05392398669899558,
                -2.6826415715683245
            ]
        },
        {
            "positions": [
                0.06960316460541299,
                -1.133292098276278,
                1.8840166067654176,
                -0.5529727720461625,
                0.07635266482407181,
                -2.861235294127887
            ]
        },
        {
            "positions": [
                0.09564099472866944,
                -1.1347200160617488,
                1.924965224772381,
                -0.656332463078843,
                0.09878134294914803,
                -3.03982901668745
            ]
        },
        {
            "positions": [
                0.12167882485192588,
                -1.1361479338472193,
                1.9659138427793446,
                -0.7596921541115236,
                0.12121002107422427,
                -3.2184227392470133
            ]
        }
    ]
}