{
    "goal": {
        "global_pose": {
            "orientation": {
                "w": 0.7047431468963623,
                "x": -0.7094548344612122,
                "y": 0.0024358443915843964,
                "z": -0.0022348060738295317
            },
            "position": {
                "x": 0.6094750761985779,
                "y": 0.3671506643295288,
                "z": 0.19426114857196808
            }
        },
        "name": "move_to_magneteinheit_A"
    },
    "id": "RRT_move_to_magneteinheit_A_133",
    "joint_names": [
        "shoulder_pan_joint",
        "shoulder_lift_joint",
        "elbow_joint",
        "wrist_1_joint",
        "wrist_2_joint",
        "wrist_3_joint"
    ],
    "metrics": {
        "cart_traj_len": 3.8208031695898437,
        "distance_elbow_joint": 3.8826908872023234,
        "distance_shoulder_lift_joint": 0.16917559410421878,
        "distance_shoulder_pan_joint": 3.7044328663350004,
        "distance_wrist_1_joint": 1.9002878557174177,
        "distance_wrist_2_joint": 2.1615542568039774,
        "distance_wrist_3_joint": 3.66854279518757,
        "smoothness": 0.28196728753137906,
        "time": 0.13977047199999998,
        "traj_len": 3.935312472390282,
        "weighted_distance": 5.185133745454117
    },
    "planner": "RRT",
    "start": {
        "state": {
            "elbow_joint": -1.919618573717145,
            "shoulder_lift_joint": -1.2443395971678275,
            "shoulder_pan_joint": 2.6996025300909787,
            "wrist_1_joint": -1.548550951253194,
            "wrist_2_joint": -1.5709469090946802,
            "wrist_3_joint": 0.4420197732051276
        }
    },
    "waypoints": [
        {
            "positions": [
                2.6996025300909787,
                -1.2443395971678275,
                -1.919618573717145,
                -1.548550951253194,
                -1.5709469090946802,
                0.4420197732051276
            ]
        },
        {
            "positions": [
                2.5982926931506882,
                -1.2452933720685415,
                -1.8093044485236904,
                -1.5048759007332522,
                -1.508565297160973,
                0.37579078283578926
            ]
        },
        {
            "positions": [
                2.4969828562103977,
                -1.2462471469692555,
                -1.6989903233302357,
                -1.46120085021331,
                -1.4461836852272663,
                0.3095617924664509
            ]
        },
        {
            "positions": [
                2.3956730192701072,
                -1.2472009218699696,
                -1.5886761981367812,
                -1.4175257996933681,
                -1.3838020732935592,
                0.24333280209711253
            ]
        },
        {
            "positions": [
                2.2943631823298167,
                -1.2481546967706834,
                -1.4783620729433264,
                -1.373850749173426,
                -1.3214204613598521,
                0.17710381172777417
            ]
        },
        {
            "positions": [
                2.193053345389526,
                -1.2491084716713974,
                -1.368047947749872,
                -1.330175698653484,
                -1.2590388494261453,
                0.1108748213584358
            ]
        },
        {
            "positions": [
                2.0917435084492353,
                -1.2500622465721114,
                -1.2577338225564172,
                -1.2865006481335421,
                -1.1966572374924382,
                0.04464583098909747
            ]
        },
        {
            "positions": [
                1.9904336715089448,
                -1.2510160214728254,
                -1.1474196973629627,
                -1.2428255976136,
                -1.1342756255587312,
                -0.021583159380240913
            ]
        },
        {
            "positions": [
                1.8891238345686543,
                -1.2519697963735394,
                -1.0371055721695082,
                -1.199150547093658,
                -1.0718940136250243,
                -0.08781214974957924
            ]
        },
        {
            "positions": [
                1.7878139976283638,
                -1.2529235712742535,
                -0.9267914469760533,
                -1.155475496573716,
                -1.009512401691317,
                -0.15404114011891762
            ]
        },
        {
            "positions": [
                1.6865041606880733,
                -1.2538773461749673,
                -0.8164773217825989,
                -1.111800446053774,
                -0.9471307897576103,
                -0.220270130488256
            ]
        },
        {
            "positions": [
                1.5851943237477826,
                -1.2548311210756813,
                -0.7061631965891442,
                -1.068125395533832,
                -0.8847491778239033,
                -0.2864991208575944
            ]
        },
        {
            "positions": [
                1.483884486807492,
                -1.2557848959763953,
                -0.5958490713956897,
                -1.02445034501389,
                -0.8223675658901963,
                -0.35272811122693265
            ]
        },
        {
            "positions": [
                1.3825746498672014,
                -1.2567386708771093,
                -0.4855349462022349,
                -0.980775294493948,
                -0.7599859539564893,
                -0.41895710159627103
            ]
        },
        {
            "positions": [
                1.281264812926911,
                -1.2576924457778234,
                -0.3752208210087804,
                -0.9371002439740059,
                -0.6976043420227823,
                -0.4851860919656094
            ]
        },
        {
            "positions": [
                1.1799549759866204,
                -1.2586462206785374,
                -0.26490669581532567,
                -0.8934251934540639,
                -0.6352227300890753,
                -0.5514150823349477
            ]
        },
        {
            "positions": [
                1.0786451390463299,
                -1.2595999955792512,
                -0.15459257062187115,
                -0.849750142934122,
                -0.5728411181553684,
                -0.617644072704286
            ]
        },
        {
            "positions": [
                0.9773353021060394,
                -1.2605537704799652,
                -0.044278445428416635,
                -0.80607509241418,
                -0.5104595062216615,
                -0.6838730630736243
            ]
        },
        {
            "positions": [
                0.8760254651657486,
                -1.2615075453806792,
                0.06603567976503832,
                -0.7624000418942378,
                -0.4480778942879542,
                -0.7501020534429628
            ]
        },
        {
            "positions": [
                0.7747156282254581,
                -1.2624613202813932,
                0.17634980495849262,
                -0.7187249913742959,
                -0.38569628235424736,
                -0.816331043812301
            ]
        },
        {
            "positions": [
                0.6734057912851679,
                -1.2634150951821073,
                0.28666393015194713,
                -0.6750499408543539,
                -0.3233146704205405,
                -0.8825600341816395
            ]
        },
        {
            "positions": [
                0.5720959543448774,
                -1.2643688700828213,
                0.39697805534540165,
                -0.631374890334412,
                -0.26093305848683346,
                -0.9487890245509778
            ]
        },
        {
            "positions": [
                0.4707861174045864,
                -1.265322644983535,
                0.5072921805388566,
                -0.5876998398144698,
                -0.1985514465531264,
                -1.0150180149203163
            ]
        },
        {
            "positions": [
                0.3694762804642959,
                -1.266276419884249,
                0.6176063057323111,
                -0.5440247892945278,
                -0.13616983461941934,
                -1.0812470052896546
            ]
        },
        {
            "positions": [
                0.2681664435240054,
                -1.2672301947849631,
                0.7279204309257656,
                -0.5003497387745859,
                -0.0737882226857125,
                -1.1474759956589928
            ]
        },
        {
            "positions": [
                0.16685660658371493,
                -1.2681839696856771,
                0.8382345561192202,
                -0.45667468825464397,
                -0.011406610752005664,
                -1.213704986028331
            ]
        },
        {
            "positions": [
                0.06554676964342399,
                -1.2691377445863912,
                0.9485486813126751,
                -0.41299963773470183,
                0.05097500118170162,
                -1.2799339763976696
            ]
        },
        {
            "positions": [
                -0.03576306729686651,
                -1.2700915194871052,
                1.0588628065061296,
                -0.3693245872147599,
                0.11335661311540846,
                -1.3461629667670079
            ]
        },
        {
            "positions": [
                -0.13707290423715657,
                -1.271045294387819,
                1.1691769316995841,
                -0.3256495366948178,
                0.17573822504911552,
                -1.4123919571363464
            ]
        },
        {
            "positions": [
                -0.23838274117744707,
                -1.271999069288533,
                1.2794910568930387,
                -0.28197448617487586,
                0.23811983698282235,
                -1.4786209475056846
            ]
        },
        {
            "positions": [
                -0.339692578117738,
                -1.272952844189247,
                1.3898051820864936,
                -0.23829943565493372,
                0.30050144891652963,
                -1.5448499378750231
            ]
        },
        {
            "positions": [
                -0.44100241505802856,
                -1.273906619089961,
                1.5001193072799481,
                -0.1946243851349918,
                0.3628830608502365,
                -1.6110789282443614
            ]
        },
        {
            "positions": [
                -0.37835486825958486,
                -1.2583945555141738,
                1.5515585301916404,
                -0.2553311950904602,
                0.3375803623103409,
                -1.7905727164374814
            ]
        },
        {
            "positions": [
                -0.3157073214611411,
                -1.2428824919383865,
                1.6029977531033326,
                -0.3160380050459286,
                0.3122776637704452,
                -1.9700665046306016
            ]
        },
        {
            "positions": [
                -0.2530597746626974,
                -1.2273704283625992,
                1.654436976015025,
                -0.37674481500139695,
                0.28697496523054955,
                -2.149560292823722
            ]
        },
        {
            "positions": [
                -0.1904122278642537,
                -1.211858364786812,
                1.7058761989267173,
                -0.43745162495686535,
                0.2616722666906539,
                -2.329054081016842
            ]
        },
        {
            "positions": [
                -0.12776468106580996,
                -1.196346301211025,
                1.7573154218384095,
                -0.49815843491233375,
                0.23636956815075824,
                -2.508547869209962
            ]
        },
        {
            "positions": [
                -0.06511713426736626,
                -1.1808342376352376,
                1.8087546447501017,
                -0.5588652448678021,
                0.2110668696108626,
                -2.688041657403082
            ]
        },
        {
            "positions": [
                -0.0024695874689225628,
                -1.1653221740594504,
                1.8601938676617942,
                -0.6195720548232706,
                0.18576417107096693,
                -2.867535445596202
            ]
        },
        {
            "positions": [
                0.060177959329521136,
                -1.149810110483663,
                1.9116330905734864,
                -0.6802788647787389,
                0.1604614725310713,
                -3.0470292337893223
            ]
        },
        {
            "positions": [
                0.12282550612796492,
                -1.1342980469078758,
                1.9630723134851786,
                -0.7409856747342073,
                0.13515877399117562,
                -3.2265230219824423
            ]
        }
    ]
}{
    "goal": {
        "global_pose": {
            "orientation": {
                "w": 0.7047431468963623,
                "x": -0.7094548344612122,
                "y": 0.0024358443915843964,
                "z": -0.0022348060738295317
            },
            "position": {
                "x": 0.6094750761985779,
                "y": 0.3671506643295288,
                "z": 0.19426114857196808
            }
        },
        "name": "move_to_magneteinheit_A"
    },
    "id": "RRT_move_to_magneteinheit_A_133",
    "joint_names": [
        "shoulder_pan_joint",
        "shoulder_lift_joint",
        "elbow_joint",
        "wrist_1_joint",
        "wrist_2_joint",
        "wrist_3_joint"
    ],
    "metrics": {
        "cart_traj_len": 1.2184794760345687,
        "distance_elbow_joint": 0.14696804424103727,
        "distance_shoulder_lift_joint": 0.7665065377243057,
        "distance_shoulder_pan_joint": 1.241652645236006,
        "distance_wrist_1_joint": 1.186212994205147,
        "distance_wrist_2_joint": 1.619115661766054,
        "distance_wrist_3_joint": 4.373002732318961,
        "smoothness": 0.2876861238233018,
        "time": 0.278485712,
        "traj_len": 3.0550709673412677,
        "weighted_distance": 4.569988264328545
    },
    "planner": "RRT",
    "start": {
        "state": {
            "elbow_joint": 1.919643534880228,
            "shoulder_lift_joint": -1.8972525353963687,
            "shoulder_pan_joint": -1.1188672234189438,
            "wrist_1_joint": -1.5931878212786155,
            "wrist_2_joint": 1.5706036197970081,
            "wrist_3_joint": 1.118896926603594
        }
    },
    "waypoints": [
        {
            "positions": [
                -1.1188672234189438,
                -1.8972525353963687,
                1.919643534880228,
                -1.5931878212786155,
                1.5706036197970081,
                1.118896926603594
            ]
        },
        {
            "positions": [
                -1.0657746530868262,
                -1.8736845234664803,
                1.9170929050752796,
                -1.5459711167194712,
                1.5010793980062669,
                0.9360152103651721
            ]
        },
        {
            "positions": [
                -1.0126820827547087,
                -1.850116511536592,
                1.9145422752703312,
                -1.498754412160327,
                1.4315551762155254,
                0.7531334941267502
            ]
        },
        {
            "positions": [
                -0.9595895124225912,
                -1.8265484996067036,
                1.9119916454653827,
                -1.4515377076011824,
                1.3620309544247842,
                0.5702517778883285
            ]
        },
        {
            "positions": [
                -0.9064969420904736,
                -1.8029804876768152,
                1.9094410156604342,
                -1.404321003042038,
                1.2925067326340427,
                0.3873700616499065
            ]
        },
        {
            "positions": [
                -0.8534043717583559,
                -1.779412475746927,
                1.9068903858554858,
                -1.3571042984828938,
                1.2229825108433015,
                0.20448834541148475
            ]
        },
        {
            "positions": [
                -0.8003118014262385,
                -1.7558444638170385,
                1.9043397560505375,
                -1.3098875939237495,
                1.1534582890525602,
                0.021606629173062997
            ]
        },
        {
            "positions": [
                -0.7472192310941208,
                -1.73227645188715,
                1.901789126245589,
                -1.262670889364605,
                1.0839340672618187,
                -0.16127508706535898
            ]
        },
        {
            "positions": [
                -0.6941266607620032,
                -1.7087084399572618,
                1.8992384964406406,
                -1.2154541848054607,
                1.0144098454710773,
                -0.34415680330378096
            ]
        },
        {
            "positions": [
                -0.6410340904298857,
                -1.6851404280273734,
                1.896687866635692,
                -1.1682374802463165,
                0.944885623680336,
                -0.5270385195422029
            ]
        },
        {
            "positions": [
                -0.5879415200977681,
                -1.661572416097485,
                1.8941372368307436,
                -1.1210207756871722,
                0.8753614018895948,
                -0.7099202357806245
            ]
        },
        {
            "positions": [
                -0.5348489497656506,
                -1.6380044041675967,
                1.8915866070257952,
                -1.073804071128028,
                0.8058371800988534,
                -0.8928019520190464
            ]
        },
        {
            "positions": [
                -0.481756379433533,
                -1.6144363922377083,
                1.8890359772208467,
                -1.0265873665688834,
                0.7363129583081122,
                -1.075683668257468
            ]
        },
        {
            "positions": [
                -0.4286638091014153,
                -1.5908683803078199,
                1.8864853474158982,
                -0.9793706620097391,
                0.6667887365173707,
                -1.2585653844958904
            ]
        },
        {
            "positions": [
                -0.3755712387692979,
                -1.5673003683779316,
                1.8839347176109498,
                -0.9321539574505948,
                0.5972645147266294,
                -1.441447100734312
            ]
        },
        {
            "positions": [
                -0.3224786684371803,
                -1.5437323564480432,
                1.8813840878060013,
                -0.8849372528914505,
                0.5277402929358881,
                -1.6243288169727335
            ]
        },
        {
            "positions": [
                -0.26938609810506264,
                -1.5201643445181547,
                1.8788334580010528,
                -0.8377205483323061,
                0.4582160711451466,
                -1.8072105332111559
            ]
        },
        {
            "positions": [
                -0.2162935277729452,
                -1.4965963325882665,
                1.8762828281961046,
                -0.7905038437731617,
                0.38869184935440537,
                -1.9900922494495774
            ]
        },
        {
            "positions": [
                -0.16320095744082752,
                -1.4730283206583779,
                1.8737321983911561,
                -0.7432871392140173,
                0.3191676275636639,
                -2.1729739656879996
            ]
        },
        {
            "positions": [
                -0.11010838710871007,
                -1.4494603087284896,
                1.8711815685862077,
                -0.6960704346548731,
                0.24964340577292266,
                -2.355855681926421
            ]
        },
        {
            "positions": [
                -0.0570158167765924,
                -1.4258922967986014,
                1.8686309387812592,
                -0.6488537300957288,
                0.1801191839821814,
                -2.5387373981648427
            ]
        },
        {
            "positions": [
                -0.003923246444474726,
                -1.4023242848687127,
                1.8660803089763107,
                -0.6016370255365844,
                0.11059496219143994,
                -2.721619114403265
            ]
        },
        {
            "positions": [
                0.0491693238876428,
                -1.3787562729388245,
                1.8635296791713623,
                -0.5544203209774401,
                0.04107074040069876,
                -2.9045008306416866
            ]
        },
        {
            "positions": [
                0.07370802319744915,
                -1.2960861811832374,
                1.893814408682086,
                -0.6035688189454306,
                0.07093166785728025,
                -3.0210358223329137
            ]
        },
        {
            "positions": [
                0.0982467225072555,
                -1.2134160894276502,
                1.9240991381928099,
                -0.652717316913421,
                0.10079259531386175,
                -3.1375708140241407
            ]
        },
        {
            "positions": [
                0.12278542181706187,
                -1.130745997672063,
                1.9543838677035337,
                -0.7018658148814115,
                0.13065352277044326,
                -3.254105805715368
            ]
        }
    ]
}