{
    "goal": {
        "global_pose": {
            "orientation": {
                "w": 0.5084816217422485,
                "x": -0.49083608388900757,
                "y": 0.5182115435600281,
                "z": -0.4816462993621826
            },
            "position": {
                "x": 0.5540239810943604,
                "y": 0.030875300988554955,
                "z": 0.16403168439865112
            }
        },
        "name": "move_to_storage_A"
    },
    "id": "RRT_move_to_storage_A_8",
    "joint_names": [
        "shoulder_pan_joint",
        "shoulder_lift_joint",
        "elbow_joint",
        "wrist_1_joint",
        "wrist_2_joint",
        "wrist_3_joint"
    ],
    "metrics": {
        "cart_traj_len": 0.35330654624968844,
        "distance_elbow_joint": 0.4511370390565945,
        "distance_shoulder_lift_joint": 0.23551349319858828,
        "distance_shoulder_pan_joint": 0.4630534292144964,
        "distance_wrist_1_joint": 0.24445964656528696,
        "distance_wrist_2_joint": 1.095519160420332,
        "distance_wrist_3_joint": 0.09200968701775203,
        "smoothness": 1.1102230263833737e-15,
        "time": 0.020087539,
        "traj_len": 1.6067645924257388,
        "weighted_distance": 2.0262503884007455
    },
    "planner": "RRT",
    "start": {
        "state": {
            "elbow_joint": 1.9715477243005601,
            "shoulder_lift_joint": -1.1394853015351272,
            "shoulder_pan_joint": 0.12281154014795169,
            "wrist_1_joint": -0.7804696478968182,
            "wrist_2_joint": 0.12958648046900423,
            "wrist_3_joint": -3.192491284697111
        }
    },
    "waypoints": [
        {
            "positions": [
                0.12281154014795169,
                -1.1394853015351272,
                1.9715477243005601,
                -0.7804696478968182,
                0.12958648046900423,
                -3.192491284697111
            ]
        },
        {
            "positions": [
                0.05666105026016649,
                -1.1731300862777827,
                2.0359958727372165,
                -0.815392454549002,
                0.28608921767190876,
                -3.179347043694575
            ]
        },
        {
            "positions": [
                -0.00948943962761871,
                -1.206774871020438,
                2.100444021173873,
                -0.8503152612011858,
                0.44259195487481334,
                -3.1662028026920392
            ]
        },
        {
            "positions": [
                -0.0756399295154039,
                -1.2404196557630935,
                2.164892169610529,
                -0.8852380678533697,
                0.5990946920777179,
                -3.153058561689503
            ]
        },
        {
            "positions": [
                -0.1417904194031891,
                -1.274064440505749,
                2.2293403180471856,
                -0.9201608745055536,
                0.7555974292806225,
                -3.1399143206869673
            ]
        },
        {
            "positions": [
                -0.2079409092909743,
                -1.3077092252484046,
                2.293788466483842,
                -0.9550836811577375,
                0.9121001664835271,
                -3.126770079684431
            ]
        },
        {
            "positions": [
                -0.27409139917875947,
                -1.34135400999106,
                2.3582366149204983,
                -0.9900064878099213,
                1.0686029036864317,
                -3.1136258386818954
            ]
        },
        {
            "positions": [
                -0.3402418890665447,
                -1.3749987947337154,
                2.4226847633571547,
                -1.0249292944621051,
                1.2251056408893362,
                -3.100481597679359
            ]
        }
    ]
}