{
    "goal": {
        "global_pose": {
            "orientation": {
                "w": 0.5084816217422485,
                "x": -0.49083608388900757,
                "y": 0.5182115435600281,
                "z": -0.4816462993621826
            },
            "position": {
                "x": 0.5540239810943604,
                "y": 0.030875300988554955,
                "z": 0.16403168439865112
            }
        },
        "name": "move_to_storage_A"
    },
    "id": "RRT_move_to_storage_A_32",
    "joint_names": [
        "shoulder_pan_joint",
        "shoulder_lift_joint",
        "elbow_joint",
        "wrist_1_joint",
        "wrist_2_joint",
        "wrist_3_joint"
    ],
    "metrics": {
        "cart_traj_len": 0.35301789580635073,
        "distance_elbow_joint": 0.4511093033807332,
        "distance_shoulder_lift_joint": 0.2362660907071743,
        "distance_shoulder_pan_joint": 0.46358889663896874,
        "distance_wrist_1_joint": 0.2421775743243676,
        "distance_wrist_2_joint": 1.0914965525454061,
        "distance_wrist_3_joint": 0.10577871705167041,
        "smoothness": 0.0,
        "time": 0.019047896,
        "traj_len": 1.6094772861548312,
        "weighted_distance": 2.0336294391116185
    },
    "planner": "RRT",
    "start": {
        "state": {
            "elbow_joint": 1.9715477243005601,
            "shoulder_lift_joint": -1.1394853015351272,
            "shoulder_pan_joint": 0.12281154014795169,
            "wrist_1_joint": -0.7804696478968182,
            "wrist_2_joint": 0.12958648046900423,
            "wrist_3_joint": -3.192491284697111
        }
    },
    "waypoints": [
        {
            "positions": [
                0.12281154014795169,
                -1.1394853015351272,
                1.9715477243005601,
                -0.7804696478968182,
                0.12958648046900423,
                -3.192491284697111
            ]
        },
        {
            "positions": [
                0.0565845549138133,
                -1.1732376002075806,
                2.035991910497808,
                -0.8150664442288706,
                0.28551455940406223,
                -3.1773800394040155
            ]
        },
        {
            "positions": [
                -0.009642430320325093,
                -1.206989898880034,
                2.1004360966950553,
                -0.8496632405609232,
                0.44144263833912023,
                -3.1622687941109198
            ]
        },
        {
            "positions": [
                -0.07586941555446348,
                -1.2407421975524875,
                2.164880282892303,
                -0.8842600368929757,
                0.5973707172741782,
                -3.147157548817824
            ]
        },
        {
            "positions": [
                -0.14209640078860186,
                -1.274494496224941,
                2.2293244690895504,
                -0.9188568332250282,
                0.7532987962092362,
                -3.132046303524728
            ]
        },
        {
            "positions": [
                -0.20832338602274025,
                -1.3082467948973946,
                2.293768655286798,
                -0.9534536295570808,
                0.9092268751442943,
                -3.116935058231632
            ]
        },
        {
            "positions": [
                -0.27455037125687864,
                -1.341999093569848,
                2.3582128414840455,
                -0.9880504258891332,
                1.0651549540793521,
                -3.1018238129385365
            ]
        },
        {
            "positions": [
                -0.34077735649101704,
                -1.3757513922423015,
                2.4226570276812933,
                -1.0226472222211858,
                1.2210830330144105,
                -3.0867125676454408
            ]
        }
    ]
}