{
    "goal": {
        "global_pose": {
            "orientation": {
                "w": 0.5084816217422485,
                "x": -0.49083608388900757,
                "y": 0.5182115435600281,
                "z": -0.4816462993621826
            },
            "position": {
                "x": 0.5540239810943604,
                "y": 0.030875300988554955,
                "z": 0.16403168439865112
            }
        },
        "name": "move_to_storage_A"
    },
    "id": "RRT_move_to_storage_A_15",
    "joint_names": [
        "shoulder_pan_joint",
        "shoulder_lift_joint",
        "elbow_joint",
        "wrist_1_joint",
        "wrist_2_joint",
        "wrist_3_joint"
    ],
    "metrics": {
        "cart_traj_len": 0.3532933086098364,
        "distance_elbow_joint": 0.44928362210903305,
        "distance_shoulder_lift_joint": 0.2368200554913753,
        "distance_shoulder_pan_joint": 0.45918126640515783,
        "distance_wrist_1_joint": 0.2362393111827904,
        "distance_wrist_2_joint": 1.1124188046636854,
        "distance_wrist_3_joint": 0.09942428738757414,
        "smoothness": 4.440892133664971e-16,
        "time": 0.028006802,
        "traj_len": 1.6103935380023158,
        "weighted_distance": 2.034913766689203
    },
    "planner": "RRT",
    "start": {
        "state": {
            "elbow_joint": 1.9715477243005601,
            "shoulder_lift_joint": -1.1394853015351272,
            "shoulder_pan_joint": 0.12281154014795169,
            "wrist_1_joint": -0.7804696478968182,
            "wrist_2_joint": 0.12958648046900423,
            "wrist_3_joint": -3.192491284697111
        }
    },
    "waypoints": [
        {
            "positions": [
                0.12281154014795169,
                -1.1394853015351272,
                1.9715477243005601,
                -0.7804696478968182,
                0.12958648046900423,
                -3.192491284697111
            ]
        },
        {
            "positions": [
                0.05721421637578629,
                -1.1733167380338951,
                2.035731098887565,
                -0.8142181209229311,
                0.2885034525638164,
                -3.178287815070315
            ]
        },
        {
            "positions": [
                -0.00838310739637911,
                -1.2071481745326629,
                2.0999144734745694,
                -0.847966593949044,
                0.4474204246586286,
                -3.1640843454435186
            ]
        },
        {
            "positions": [
                -0.07398043116854451,
                -1.2409796110314308,
                2.1640978480615742,
                -0.8817150669751569,
                0.6063373967534408,
                -3.1498808758167223
            ]
        },
        {
            "positions": [
                -0.1395777549407099,
                -1.2748110475301988,
                2.228281222648579,
                -0.9154635400012698,
                0.7652543688482529,
                -3.135677406189926
            ]
        },
        {
            "positions": [
                -0.20517507871287533,
                -1.3086424840289668,
                2.292464597235584,
                -0.9492120130273827,
                0.9241713409430652,
                -3.1214739365631297
            ]
        },
        {
            "positions": [
                -0.2707724024850407,
                -1.3424739205277345,
                2.3566479718225883,
                -0.9829604860534956,
                1.0830883130378774,
                -3.1072704669363334
            ]
        },
        {
            "positions": [
                -0.3363697262572061,
                -1.3763053570265025,
                2.420831346409593,
                -1.0167089590796086,
                1.2420052851326897,
                -3.093066997309537
            ]
        }
    ]
}