{
    "goal": {
        "global_pose": {
            "orientation": {
                "w": 0.5084816217422485,
                "x": -0.49083608388900757,
                "y": 0.5182115435600281,
                "z": -0.4816462993621826
            },
            "position": {
                "x": 0.5540239810943604,
                "y": 0.030875300988554955,
                "z": 0.16403168439865112
            }
        },
        "name": "move_to_storage_A"
    },
    "id": "RRT_move_to_storage_A_68",
    "joint_names": [
        "shoulder_pan_joint",
        "shoulder_lift_joint",
        "elbow_joint",
        "wrist_1_joint",
        "wrist_2_joint",
        "wrist_3_joint"
    ],
    "metrics": {
        "cart_traj_len": 0.35301437672049485,
        "distance_elbow_joint": 0.4474760212003135,
        "distance_shoulder_lift_joint": 0.2355106372507425,
        "distance_shoulder_pan_joint": 0.4590896647065605,
        "distance_wrist_1_joint": 0.23609820728150177,
        "distance_wrist_2_joint": 1.1093587429496767,
        "distance_wrist_3_joint": 0.09434177324839466,
        "smoothness": 1.1102230263833737e-15,
        "time": 0.016607940999999998,
        "traj_len": 1.6068214109343917,
        "weighted_distance": 2.028796575156109
    },
    "planner": "RRT",
    "start": {
        "state": {
            "elbow_joint": 1.9715477243005601,
            "shoulder_lift_joint": -1.1394853015351272,
            "shoulder_pan_joint": 0.12281154014795169,
            "wrist_1_joint": -0.7804696478968182,
            "wrist_2_joint": 0.12958648046900423,
            "wrist_3_joint": -3.192491284697111
        }
    },
    "waypoints": [
        {
            "positions": [
                0.12281154014795169,
                -1.1394853015351272,
                1.9715477243005601,
                -0.7804696478968182,
                0.12958648046900423,
                -3.192491284697111
            ]
        },
        {
            "positions": [
                0.05722730233272877,
                -1.1731296782852332,
                2.0354728701863194,
                -0.814197963222747,
                0.28806630089038665,
                -3.179013888518769
            ]
        },
        {
            "positions": [
                -0.008356935482494152,
                -1.2067740550353394,
                2.099398016072078,
                -0.8479262785486759,
                0.446546121311769,
                -3.165536492340427
            ]
        },
        {
            "positions": [
                -0.07394117329771709,
                -1.2404184317854454,
                2.1633231619578375,
                -0.8816545938746047,
                0.6050259417331514,
                -3.152059096162085
            ]
        },
        {
            "positions": [
                -0.13952541111293998,
                -1.2740628085355514,
                2.2272483078435963,
                -0.9153829092005334,
                0.7635057621545338,
                -3.138581699983743
            ]
        },
        {
            "positions": [
                -0.2051096489281629,
                -1.3077071852856577,
                2.2911734537293555,
                -0.9491112245264623,
                0.9219855825759162,
                -3.1251043038054007
            ]
        },
        {
            "positions": [
                -0.27069388674338585,
                -1.3413515620357637,
                2.3550985996151144,
                -0.982839539852391,
                1.0804654029972984,
                -3.1116269076270586
            ]
        },
        {
            "positions": [
                -0.3362781245586088,
                -1.3749959387858697,
                2.4190237455008736,
                -1.01656785517832,
                1.238945223418681,
                -3.0981495114487165
            ]
        }
    ]
}