{
    "goal": {
        "global_pose": {
            "orientation": {
                "w": 0.5084816217422485,
                "x": -0.49083608388900757,
                "y": 0.5182115435600281,
                "z": -0.4816462993621826
            },
            "position": {
                "x": 0.5540239810943604,
                "y": 0.030875300988554955,
                "z": 0.16403168439865112
            }
        },
        "name": "move_to_storage_A"
    },
    "id": "RRT_move_to_storage_A_7",
    "joint_names": [
        "shoulder_pan_joint",
        "shoulder_lift_joint",
        "elbow_joint",
        "wrist_1_joint",
        "wrist_2_joint",
        "wrist_3_joint"
    ],
    "metrics": {
        "cart_traj_len": 0.3524495747741458,
        "distance_elbow_joint": 0.45382897342664297,
        "distance_shoulder_lift_joint": 0.2325784389396821,
        "distance_shoulder_pan_joint": 0.4601469277280247,
        "distance_wrist_1_joint": 0.26215037549176257,
        "distance_wrist_2_joint": 1.1002577682978387,
        "distance_wrist_3_joint": 0.09733546799580672,
        "smoothness": 4.440892098500626e-16,
        "time": 0.02075859,
        "traj_len": 1.6144032804351451,
        "weighted_distance": 2.040435500490269
    },
    "planner": "RRT",
    "start": {
        "state": {
            "elbow_joint": 1.9715477243005601,
            "shoulder_lift_joint": -1.1394853015351272,
            "shoulder_pan_joint": 0.12281154014795169,
            "wrist_1_joint": -0.7804696478968182,
            "wrist_2_joint": 0.12958648046900423,
            "wrist_3_joint": -3.192491284697111
        }
    },
    "waypoints": [
        {
            "positions": [
                0.12281154014795169,
                -1.1394853015351272,
                1.9715477243005601,
                -0.7804696478968182,
                0.12958648046900423,
                -3.192491284697111
            ]
        },
        {
            "positions": [
                0.05707626475823388,
                -1.1727107928122247,
                2.0363804347900807,
                -0.8179197015384986,
                0.2867661616544097,
                -3.1785862178405675
            ]
        },
        {
            "positions": [
                -0.00865901063148393,
                -1.205936284089322,
                2.101213145279601,
                -0.8553697551801789,
                0.44394584283981525,
                -3.1646811509840234
            ]
        },
        {
            "positions": [
                -0.07439428602120172,
                -1.2391617753664195,
                2.1660458557691213,
                -0.8928198088218593,
                0.6011255240252208,
                -3.1507760841274797
            ]
        },
        {
            "positions": [
                -0.14012956141091953,
                -1.272387266643517,
                2.230878566258642,
                -0.9302698624635396,
                0.7583052052106263,
                -3.136871017270936
            ]
        },
        {
            "positions": [
                -0.20586483680063739,
                -1.3056127579206145,
                2.2957112767481624,
                -0.96771991610522,
                0.9154848863960319,
                -3.1229659504143923
            ]
        },
        {
            "positions": [
                -0.2716001121903551,
                -1.3388382491977118,
                2.3605439872376826,
                -1.0051699697469003,
                1.0726645675814375,
                -3.109060883557848
            ]
        },
        {
            "positions": [
                -0.337335387580073,
                -1.3720637404748093,
                2.425376697727203,
                -1.0426200233885807,
                1.229844248766843,
                -3.0951558167013045
            ]
        }
    ]
}