{
    "goal": {
        "global_pose": {
            "orientation": {
                "w": 0.7047431468963623,
                "x": -0.7094548344612122,
                "y": 0.0024358443915843964,
                "z": -0.0022348060738295317
            },
            "position": {
                "x": 0.6094750761985779,
                "y": 0.3671506643295288,
                "z": 0.19426114857196808
            }
        },
        "name": "move_to_magneteinheit_A"
    },
    "id": "RRT_move_to_magneteinheit_A_88",
    "joint_names": [
        "shoulder_pan_joint",
        "shoulder_lift_joint",
        "elbow_joint",
        "wrist_1_joint",
        "wrist_2_joint",
        "wrist_3_joint"
    ],
    "metrics": {
        "cart_traj_len": 4.5480434320947145,
        "distance_elbow_joint": 3.879846018573305,
        "distance_shoulder_lift_joint": 0.8276470664139852,
        "distance_shoulder_pan_joint": 3.565702576756565,
        "distance_wrist_1_joint": 0.8245610107520075,
        "distance_wrist_2_joint": 2.410840163081466,
        "distance_wrist_3_joint": 2.5882487920326973,
        "smoothness": 0.24020977589545153,
        "time": 0.44850018799999997,
        "traj_len": 3.7545766242826937,
        "weighted_distance": 4.744338139878828
    },
    "planner": "RRT",
    "start": {
        "state": {
            "elbow_joint": -1.919618573717145,
            "shoulder_lift_joint": -1.2443395971678275,
            "shoulder_pan_joint": 2.6996025300909787,
            "wrist_1_joint": -1.548550951253194,
            "wrist_2_joint": -1.5709469090946802,
            "wrist_3_joint": 0.4420197732051276
        }
    },
    "waypoints": [
        {
            "positions": [
                2.6996025300909787,
                -1.2443395971678275,
                -1.919618573717145,
                -1.548550951253194,
                -1.5709469090946802,
                0.4420197732051276
            ]
        },
        {
            "positions": [
                2.5858760035906116,
                -1.2269570834809886,
                -1.7918419526131295,
                -1.5389678165584653,
                -1.4946073558565822,
                0.48516514057449556
            ]
        },
        {
            "positions": [
                2.472149477090244,
                -1.20957456979415,
                -1.6640653315091138,
                -1.5293846818637367,
                -1.4182678026184843,
                0.5283105079438636
            ]
        },
        {
            "positions": [
                2.358422950589877,
                -1.1921920561073112,
                -1.5362887104050984,
                -1.5198015471690078,
                -1.3419282493803864,
                0.5714558753132315
            ]
        },
        {
            "positions": [
                2.2446964240895095,
                -1.1748095424204723,
                -1.4085120893010827,
                -1.510218412474279,
                -1.2655886961422884,
                0.6146012426825995
            ]
        },
        {
            "positions": [
                2.1309698975891425,
                -1.1574270287336335,
                -1.2807354681970673,
                -1.5006352777795504,
                -1.1892491429041905,
                0.6577466100519676
            ]
        },
        {
            "positions": [
                2.017243371088775,
                -1.1400445150467948,
                -1.1529588470930516,
                -1.4910521430848216,
                -1.1129095896660925,
                0.7008919774213355
            ]
        },
        {
            "positions": [
                1.9035168445884079,
                -1.122662001359956,
                -1.0251822259890362,
                -1.4814690083900928,
                -1.0365700364279946,
                0.7440373447907035
            ]
        },
        {
            "positions": [
                1.7897903180880403,
                -1.1052794876731171,
                -0.8974056048850205,
                -1.4718858736953642,
                -0.9602304831898967,
                0.7871827121600714
            ]
        },
        {
            "positions": [
                1.6760637915876733,
                -1.0878969739862783,
                -0.7696289837810051,
                -1.4623027390006353,
                -0.8838909299517987,
                0.8303280795294394
            ]
        },
        {
            "positions": [
                1.562337265087306,
                -1.0705144602994396,
                -0.6418523626769896,
                -1.4527196043059065,
                -0.8075513767137008,
                0.8734734468988075
            ]
        },
        {
            "positions": [
                1.4486107385869387,
                -1.0531319466126008,
                -0.514075741572974,
                -1.443136469611178,
                -0.7312118234756029,
                0.9166188142681754
            ]
        },
        {
            "positions": [
                1.3348842120865714,
                -1.035749432925762,
                -0.38629912046895853,
                -1.433553334916449,
                -0.6548722702375049,
                0.9597641816375433
            ]
        },
        {
            "positions": [
                1.221157685586204,
                -1.018366919238923,
                -0.25852249936494287,
                -1.4239702002217203,
                -0.578532716999407,
                1.0029095490069113
            ]
        },
        {
            "positions": [
                1.1074311590858368,
                -1.0009844055520845,
                -0.13074587826092743,
                -1.4143870655269917,
                -0.5021931637613091,
                1.0460549163762793
            ]
        },
        {
            "positions": [
                0.9937046325854693,
                -0.9836018918652456,
                -0.0029692571569115422,
                -1.4048039308322628,
                -0.42585361052321113,
                1.0892002837456474
            ]
        },
        {
            "positions": [
                0.8799781060851022,
                -0.9662193781784068,
                0.1248073639471039,
                -1.395220796137534,
                -0.3495140572851132,
                1.1323456511150154
            ]
        },
        {
            "positions": [
                0.7662515795847347,
                -0.9488368644915679,
                0.25258398505111956,
                -1.3856376614428054,
                -0.27317450404701527,
                1.1754910184843834
            ]
        },
        {
            "positions": [
                0.6525250530843678,
                -0.9314543508047293,
                0.3803606061551348,
                -1.3760545267480766,
                -0.19683495080891733,
                1.2186363858537512
            ]
        },
        {
            "positions": [
                0.5387985265840003,
                -0.9140718371178904,
                0.5081372272591504,
                -1.3664713920533478,
                -0.1204953975708194,
                1.2617817532231193
            ]
        },
        {
            "positions": [
                0.4250720000836332,
                -0.8966893234310516,
                0.6359138483631657,
                -1.3568882573586192,
                -0.04415584433272146,
                1.3049271205924873
            ]
        },
        {
            "positions": [
                0.3113454735832657,
                -0.8793068097442128,
                0.7636904694671818,
                -1.3473051226638904,
                0.032183708905376474,
                1.3480724879618553
            ]
        },
        {
            "positions": [
                0.19761894708289862,
                -0.8619242960573741,
                0.891467090571197,
                -1.3377219879691615,
                0.10852326214347441,
                1.391217855331223
            ]
        },
        {
            "positions": [
                0.0838924205825311,
                -0.8445417823705352,
                1.0192437116752127,
                -1.328138853274433,
                0.18486281538157234,
                1.4343632227005914
            ]
        },
        {
            "positions": [
                -0.029834105917835974,
                -0.8271592686836964,
                1.1470203327792279,
                -1.318555718579704,
                0.2612023686196703,
                1.4775085900699592
            ]
        },
        {
            "positions": [
                -0.1435606324182035,
                -0.8097767549968576,
                1.274796953883244,
                -1.3089725838849753,
                0.3375419218577682,
                1.5206539574393272
            ]
        },
        {
            "positions": [
                -0.25728715891857057,
                -0.7923942413100189,
                1.4025735749872592,
                -1.2993894491902467,
                0.41388147509586615,
                1.5637993248086952
            ]
        },
        {
            "positions": [
                -0.3710136854189383,
                -0.77501172762318,
                1.5303501960912749,
                -1.2898063144955179,
                0.4902210283339641,
                1.6069446921780632
            ]
        },
        {
            "positions": [
                -0.3215050492942736,
                -0.8108436473101138,
                1.5733379209677634,
                -1.2332246770960846,
                0.45525380576868196,
                1.7492770794840393
            ]
        },
        {
            "positions": [
                -0.2719964131696088,
                -0.8466755669970476,
                1.6163256458442516,
                -1.1766430396966516,
                0.4202865832033999,
                1.8916094667900156
            ]
        },
        {
            "positions": [
                -0.22248777704494407,
                -0.8825074866839814,
                1.65931337072074,
                -1.1200614022972184,
                0.3853193606381178,
                2.0339418540959917
            ]
        },
        {
            "positions": [
                -0.17297914092027933,
                -0.9183394063709152,
                1.7023010955972284,
                -1.0634797648977854,
                0.3503521380728357,
                2.176274241401968
            ]
        },
        {
            "positions": [
                -0.12347050479561458,
                -0.9541713260578489,
                1.745288820473717,
                -1.0068981274983522,
                0.3153849155075536,
                2.3186066287079443
            ]
        },
        {
            "positions": [
                -0.07396186867094984,
                -0.9900032457447827,
                1.7882765453502052,
                -0.9503164900989192,
                0.2804176929422715,
                2.46093901601392
            ]
        },
        {
            "positions": [
                -0.02445323254628512,
                -1.0258351654317166,
                1.8312642702266935,
                -0.8937348526994859,
                0.24545047037698942,
                2.6032714033198965
            ]
        },
        {
            "positions": [
                0.025055403578379654,
                -1.0616670851186503,
                1.874251995103182,
                -0.8371532153000528,
                0.2104832478117073,
                2.7456037906258723
            ]
        },
        {
            "positions": [
                0.07456403970304443,
                -1.097499004805584,
                1.9172397199796705,
                -0.7805715779006197,
                0.17551602524642518,
                2.8879361779318486
            ]
        },
        {
            "positions": [
                0.12407267582770916,
                -1.1333309244925178,
                1.9602274448561587,
                -0.7239899405011866,
                0.1405488026811431,
                3.030268565237825
            ]
        }
    ]
}{
    "goal": {
        "global_pose": {
            "orientation": {
                "w": 0.7047431468963623,
                "x": -0.7094548344612122,
                "y": 0.0024358443915843964,
                "z": -0.0022348060738295317
            },
            "position": {
                "x": 0.6094750761985779,
                "y": 0.3671506643295288,
                "z": 0.19426114857196808
            }
        },
        "name": "move_to_magneteinheit_A"
    },
    "id": "RRT_move_to_magneteinheit_A_88",
    "joint_names": [
        "shoulder_pan_joint",
        "shoulder_lift_joint",
        "elbow_joint",
        "wrist_1_joint",
        "wrist_2_joint",
        "wrist_3_joint"
    ],
    "metrics": {
        "cart_traj_len": 1.2575730417440352,
        "distance_elbow_joint": 0.20791128221646749,
        "distance_shoulder_lift_joint": 0.7564479880407302,
        "distance_shoulder_pan_joint": 1.2412276645669165,
        "distance_wrist_1_joint": 0.8121455782093571,
        "distance_wrist_2_joint": 1.4416397164397843,
        "distance_wrist_3_joint": 4.298901639139713,
        "smoothness": 0.05527333541554036,
        "time": 0.185188203,
        "traj_len": 2.959438100148906,
        "weighted_distance": 4.428302433387036
    },
    "planner": "RRT",
    "start": {
        "state": {
            "elbow_joint": 1.919643534880228,
            "shoulder_lift_joint": -1.8972525353963687,
            "shoulder_pan_joint": -1.1188672234189438,
            "wrist_1_joint": -1.5931878212786155,
            "wrist_2_joint": 1.5706036197970081,
            "wrist_3_joint": 1.118896926603594
        }
    },
    "waypoints": [
        {
            "positions": [
                -1.1188672234189438,
                -1.8972525353963687,
                1.919643534880228,
                -1.5931878212786155,
                1.5706036197970081,
                1.118896926603594
            ]
        },
        {
            "positions": [
                -1.0632282922795202,
                -1.8628894014787996,
                1.9161732628568913,
                -1.5566912854435113,
                1.5054396245453814,
                0.9275994484575338
            ]
        },
        {
            "positions": [
                -1.0075893611400968,
                -1.8285262675612306,
                1.9127029908335547,
                -1.5201947496084074,
                1.4402756292937544,
                0.7363019703114737
            ]
        },
        {
            "positions": [
                -0.9519504300006731,
                -1.7941631336436614,
                1.9092327188102178,
                -1.4836982137733032,
                1.3751116340421277,
                0.5450044921654137
            ]
        },
        {
            "positions": [
                -0.8963114988612495,
                -1.7597999997260925,
                1.9057624467868812,
                -1.4472016779381993,
                1.3099476387905007,
                0.35370701401935356
            ]
        },
        {
            "positions": [
                -0.8406725677218261,
                -1.7254368658085233,
                1.9022921747635444,
                -1.4107051421030952,
                1.244783643538874,
                0.16240953587329354
            ]
        },
        {
            "positions": [
                -0.7850336365824024,
                -1.6910737318909543,
                1.8988219027402076,
                -1.3742086062679912,
                1.1796196482872472,
                -0.028887942272766587
            ]
        },
        {
            "positions": [
                -0.7293947054429788,
                -1.6567105979733852,
                1.895351630716871,
                -1.337712070432887,
                1.1144556530356202,
                -0.22018542041882672
            ]
        },
        {
            "positions": [
                -0.6737557743035553,
                -1.622347464055816,
                1.8918813586935341,
                -1.301215534597783,
                1.0492916577839932,
                -0.41148289856488685
            ]
        },
        {
            "positions": [
                -0.6181168431641316,
                -1.587984330138247,
                1.8884110866701975,
                -1.264718998762679,
                0.9841276625323664,
                -0.602780376710947
            ]
        },
        {
            "positions": [
                -0.5624779120247082,
                -1.553621196220678,
                1.8849408146468607,
                -1.2282224629275749,
                0.9189636672807396,
                -0.7940778548570069
            ]
        },
        {
            "positions": [
                -0.5068389808852846,
                -1.519258062303109,
                1.881470542623524,
                -1.1917259270924707,
                0.8537996720291128,
                -0.985375333003067
            ]
        },
        {
            "positions": [
                -0.45120004974586103,
                -1.4848949283855397,
                1.8780002706001873,
                -1.1552293912573668,
                0.788635676777486,
                -1.1766728111491271
            ]
        },
        {
            "positions": [
                -0.3955611186064374,
                -1.4505317944679708,
                1.8745299985768504,
                -1.1187328554222626,
                0.7234716815258591,
                -1.3679702892951873
            ]
        },
        {
            "positions": [
                -0.33992218746701386,
                -1.4161686605504018,
                1.8710597265535138,
                -1.0822363195871587,
                0.6583076862742322,
                -1.5592677674412474
            ]
        },
        {
            "positions": [
                -0.28428325632759033,
                -1.3818055266328326,
                1.867589454530177,
                -1.0457397837520546,
                0.5931436910226054,
                -1.750565245587307
            ]
        },
        {
            "positions": [
                -0.22864432518816669,
                -1.3474423927152634,
                1.8641191825068404,
                -1.0092432479169506,
                0.5279796957709786,
                -1.9418627237333677
            ]
        },
        {
            "positions": [
                -0.17300539404874316,
                -1.3130792587976945,
                1.8606489104835036,
                -0.9727467120818465,
                0.4628157005193516,
                -2.133160201879427
            ]
        },
        {
            "positions": [
                -0.1173664629093194,
                -1.2787161248801253,
                1.8571786384601667,
                -0.9362501762467423,
                0.39765170526772464,
                -2.324457680025488
            ]
        },
        {
            "positions": [
                -0.06172753176989598,
                -1.2443529909625561,
                1.8537083664368301,
                -0.8997536404116383,
                0.3324877100160979,
                -2.5157551581715474
            ]
        },
        {
            "positions": [
                -0.006088600630472563,
                -1.2099898570449872,
                1.8502380944134933,
                -0.8632571045765344,
                0.26732371476447114,
                -2.7070526363176075
            ]
        },
        {
            "positions": [
                0.0495503305089513,
                -1.1756267231274182,
                1.8467678223901567,
                -0.8267605687414302,
                0.20215971951284417,
                -2.8983501144636676
            ]
        },
        {
            "positions": [
                0.1051892616483747,
                -1.141263589209849,
                1.8432975503668199,
                -0.7902640329063262,
                0.13699572426121753,
                -3.0896475926097278
            ]
        },
        {
            "positions": [
                0.12236044114797258,
                -1.1408045473556385,
                1.974862848069879,
                -0.799485822743394,
                0.12896390335722405,
                -3.180004712536119
            ]
        }
    ]
}