{
    "goal": {
        "global_pose": {
            "orientation": {
                "w": 0.5084816217422485,
                "x": -0.49083608388900757,
                "y": 0.5182115435600281,
                "z": -0.4816462993621826
            },
            "position": {
                "x": 0.5540239810943604,
                "y": 0.030875300988554955,
                "z": 0.16403168439865112
            }
        },
        "name": "move_to_storage_A"
    },
    "id": "RRT_move_to_storage_A_113",
    "joint_names": [
        "shoulder_pan_joint",
        "shoulder_lift_joint",
        "elbow_joint",
        "wrist_1_joint",
        "wrist_2_joint",
        "wrist_3_joint"
    ],
    "metrics": {
        "cart_traj_len": 0.35322767750990625,
        "distance_elbow_joint": 0.4529029511976699,
        "distance_shoulder_lift_joint": 0.23517895515260956,
        "distance_shoulder_pan_joint": 0.45967149871701524,
        "distance_wrist_1_joint": 0.25674705723276514,
        "distance_wrist_2_joint": 1.1091046882498716,
        "distance_wrist_3_joint": 0.09621699558007712,
        "smoothness": 4.440892133664971e-16,
        "time": 0.01306622,
        "traj_len": 1.6154943968117033,
        "weighted_distance": 2.0415944462044364
    },
    "planner": "RRT",
    "start": {
        "state": {
            "elbow_joint": 1.9715477243005601,
            "shoulder_lift_joint": -1.1394853015351272,
            "shoulder_pan_joint": 0.12281154014795169,
            "wrist_1_joint": -0.7804696478968182,
            "wrist_2_joint": 0.12958648046900423,
            "wrist_3_joint": -3.192491284697111
        }
    },
    "waypoints": [
        {
            "positions": [
                0.12281154014795169,
                -1.1394853015351272,
                1.9715477243005601,
                -0.7804696478968182,
                0.12958648046900423,
                -3.192491284697111
            ]
        },
        {
            "positions": [
                0.05714418318837809,
                -1.173082295128357,
                2.036248145900227,
                -0.8171477989300703,
                0.28803000736184303,
                -3.178745999614243
            ]
        },
        {
            "positions": [
                -0.008523173771195505,
                -1.2066792887215871,
                2.1009485674998944,
                -0.8538259499633225,
                0.44647353425468184,
                -3.165000714531375
            ]
        },
        {
            "positions": [
                -0.0741905307307691,
                -1.240276282314817,
                2.1656489890995614,
                -0.8905041009965746,
                0.6049170611475206,
                -3.151255429448507
            ]
        },
        {
            "positions": [
                -0.13985788769034269,
                -1.2738732759080469,
                2.2303494106992288,
                -0.9271822520298268,
                0.7633605880403594,
                -3.1375101443656384
            ]
        },
        {
            "positions": [
                -0.20552524464991634,
                -1.3074702695012768,
                2.2950498322988957,
                -0.963860403063079,
                0.9218041149331982,
                -3.1237648592827703
            ]
        },
        {
            "positions": [
                -0.2711926016094899,
                -1.3410672630945069,
                2.3597502538985626,
                -1.0005385540963312,
                1.0802476418260372,
                -3.110019574199902
            ]
        },
        {
            "positions": [
                -0.33685995856906353,
                -1.3746642566877367,
                2.42445067549823,
                -1.0372167051295833,
                1.238691168718876,
                -3.096274289117034
            ]
        }
    ]
}