{
    "goal": {
        "global_pose": {
            "orientation": {
                "w": 0.7047431468963623,
                "x": -0.7094548344612122,
                "y": 0.0024358443915843964,
                "z": -0.0022348060738295317
            },
            "position": {
                "x": 0.6094750761985779,
                "y": 0.3671506643295288,
                "z": 0.19426114857196808
            }
        },
        "name": "move_to_magneteinheit_A"
    },
    "id": "RRT_move_to_magneteinheit_A_100",
    "joint_names": [
        "shoulder_pan_joint",
        "shoulder_lift_joint",
        "elbow_joint",
        "wrist_1_joint",
        "wrist_2_joint",
        "wrist_3_joint"
    ],
    "metrics": {
        "cart_traj_len": 2.884347731752779,
        "distance_elbow_joint": 3.92949488668151,
        "distance_shoulder_lift_joint": 1.114622637615005,
        "distance_shoulder_pan_joint": 2.7453218455110844,
        "distance_wrist_1_joint": 3.5201647939933878,
        "distance_wrist_2_joint": 1.4327125060156303,
        "distance_wrist_3_joint": 1.5940088750466024,
        "smoothness": 0.11954155004277822,
        "time": 0.318497459,
        "traj_len": 3.786334050881302,
        "weighted_distance": 4.741014722078539
    },
    "planner": "RRT",
    "start": {
        "state": {
            "elbow_joint": -1.919618573717145,
            "shoulder_lift_joint": -1.2443395971678275,
            "shoulder_pan_joint": 2.6996025300909787,
            "wrist_1_joint": -1.548550951253194,
            "wrist_2_joint": -1.5709469090946802,
            "wrist_3_joint": 0.4420197732051276
        }
    },
    "waypoints": [
        {
            "positions": [
                2.6996025300909787,
                -1.2443395971678275,
                -1.919618573717145,
                -1.548550951253194,
                -1.5709469090946802,
                0.4420197732051276
            ]
        },
        {
            "positions": [
                2.5913656095974016,
                -1.2592280678201486,
                -1.826229252411196,
                -1.458177348485192,
                -1.5357744614021476,
                0.39431200537703603
            ]
        },
        {
            "positions": [
                2.4831286891038244,
                -1.2741165384724698,
                -1.732839931105247,
                -1.36780374571719,
                -1.5006020137096148,
                0.3466042375489445
            ]
        },
        {
            "positions": [
                2.3748917686102473,
                -1.289005009124791,
                -1.639450609799298,
                -1.2774301429491883,
                -1.4654295660170822,
                0.29889646972085293
            ]
        },
        {
            "positions": [
                2.2666548481166697,
                -1.3038934797771122,
                -1.5460612884933491,
                -1.1870565401811861,
                -1.4302571183245496,
                0.2511887018927613
            ]
        },
        {
            "positions": [
                2.1584179276230926,
                -1.3187819504294334,
                -1.4526719671874002,
                -1.0966829374131843,
                -1.3950846706320168,
                0.2034809340646698
            ]
        },
        {
            "positions": [
                2.0501810071295155,
                -1.3336704210817545,
                -1.3592826458814513,
                -1.0063093346451824,
                -1.3599122229394842,
                0.15577316623657828
            ]
        },
        {
            "positions": [
                1.9419440866359383,
                -1.3485588917340758,
                -1.2658933245755022,
                -0.9159357318771804,
                -1.3247397752469516,
                0.10806539840848667
            ]
        },
        {
            "positions": [
                1.833707166142361,
                -1.363447362386397,
                -1.172504003269553,
                -0.8255621291091784,
                -1.289567327554419,
                0.060357630580395116
            ]
        },
        {
            "positions": [
                1.7254702456487836,
                -1.378335833038718,
                -1.0791146819636044,
                -0.7351885263411764,
                -1.2543948798618862,
                0.012649862752303564
            ]
        },
        {
            "positions": [
                1.6172333251552067,
                -1.3932243036910392,
                -0.9857253606576554,
                -0.6448149235731745,
                -1.2192224321693537,
                -0.03505790507578799
            ]
        },
        {
            "positions": [
                1.5089964046616293,
                -1.4081127743433606,
                -0.8923360393517064,
                -0.5544413208051725,
                -1.184049984476821,
                -0.08276567290387954
            ]
        },
        {
            "positions": [
                1.4007594841680522,
                -1.4230012449956817,
                -0.7989467180457575,
                -0.4640677180371706,
                -1.1488775367842883,
                -0.13047344073197104
            ]
        },
        {
            "positions": [
                1.2925225636744748,
                -1.4378897156480028,
                -0.7055573967398083,
                -0.3736941152691686,
                -1.1137050890917557,
                -0.17818120856006264
            ]
        },
        {
            "positions": [
                1.1842856431808977,
                -1.452778186300324,
                -0.6121680754338594,
                -0.28332051250116663,
                -1.0785326413992231,
                -0.22588897638815425
            ]
        },
        {
            "positions": [
                1.0760487226873205,
                -1.467666656952645,
                -0.5187787541279105,
                -0.19294690973316464,
                -1.0433601937066905,
                -0.27359674421624575
            ]
        },
        {
            "positions": [
                0.9678118021937432,
                -1.4825551276049664,
                -0.4253894328219614,
                -0.10257330696516265,
                -1.0081877460141577,
                -0.32130451204433735
            ]
        },
        {
            "positions": [
                0.859574881700166,
                -1.4974435982572876,
                -0.3320001115160127,
                -0.012199704197160655,
                -0.9730152983216251,
                -0.36901227987242885
            ]
        },
        {
            "positions": [
                0.7513379612065887,
                -1.5123320689096087,
                -0.2386107902100636,
                0.07817389857084134,
                -0.9378428506290925,
                -0.41672004770052046
            ]
        },
        {
            "positions": [
                0.6431010407130113,
                -1.5272205395619298,
                -0.1452214689041147,
                0.1685475013388431,
                -0.9026704029365599,
                -0.46442781552861195
            ]
        },
        {
            "positions": [
                0.5348641202194346,
                -1.5421090102142512,
                -0.05183214759816579,
                0.2589211041068451,
                -0.8674979552440272,
                -0.5121355833567036
            ]
        },
        {
            "positions": [
                0.42662719972585705,
                -1.5569974808665723,
                0.041557173707783335,
                0.3492947068748471,
                -0.8323255075514945,
                -0.5598433511847951
            ]
        },
        {
            "positions": [
                0.3183902792322797,
                -1.5718859515188934,
                0.13494649501373207,
                0.43966830964284903,
                -0.7971530598589619,
                -0.6075511190128866
            ]
        },
        {
            "positions": [
                0.2961121741157803,
                -1.5190055890069043,
                0.260710386827626,
                0.5498265625017744,
                -0.7476757097773341,
                -0.5747532185166406
            ]
        },
        {
            "positions": [
                0.2738340689992809,
                -1.4661252264949152,
                0.3864742786415199,
                0.6599848153606998,
                -0.6981983596957063,
                -0.5419553180203946
            ]
        },
        {
            "positions": [
                0.2515559638827815,
                -1.413244863982926,
                0.5122381704554138,
                0.7701430682196251,
                -0.6487210096140785,
                -0.5091574175241487
            ]
        },
        {
            "positions": [
                0.22927785876628215,
                -1.360364501470937,
                0.6380020622693077,
                0.8803013210785504,
                -0.5992436595324507,
                -0.4763595170279028
            ]
        },
        {
            "positions": [
                0.20699975364978274,
                -1.3074841389589478,
                0.7637659540832016,
                0.9904595739374757,
                -0.5497663094508229,
                -0.4435616165316568
            ]
        },
        {
            "positions": [
                0.18472164853328335,
                -1.2546037764469586,
                0.8895298458970955,
                1.100617826796401,
                -0.500288959369195,
                -0.41076371603541084
            ]
        },
        {
            "positions": [
                0.16244354341678394,
                -1.2017234139349695,
                1.0152937377109896,
                1.2107760796553266,
                -0.45081160928756725,
                -0.37796581553916486
            ]
        },
        {
            "positions": [
                0.14016543830028458,
                -1.1488430514229804,
                1.1410576295248833,
                1.3209343325142517,
                -0.4013342592059395,
                -0.34516791504291894
            ]
        },
        {
            "positions": [
                0.11788733318378519,
                -1.0959626889109912,
                1.2668215213387772,
                1.4310925853731773,
                -0.35185690912431167,
                -0.31237001454667296
            ]
        },
        {
            "positions": [
                0.09560922806728578,
                -1.0430823263990021,
                1.3925854131526711,
                1.5412508382321026,
                -0.3023795590426839,
                -0.279572114050427
            ]
        },
        {
            "positions": [
                0.07333112295078642,
                -0.990201963887013,
                1.518349304966565,
                1.651409091091028,
                -0.2529022089610561,
                -0.24677421355418105
            ]
        },
        {
            "positions": [
                0.05105301783428699,
                -0.9373216013750238,
                1.644113196780459,
                1.7615673439499533,
                -0.20342485887942827,
                -0.2139763130579351
            ]
        },
        {
            "positions": [
                0.04493559720766149,
                -0.8998313480005593,
                1.7352274249493225,
                1.8349846395632077,
                -0.17353993648651622,
                -0.18981175867537003
            ]
        },
        {
            "positions": [
                0.03881817658103599,
                -0.8623410946260947,
                1.826341653118186,
                1.9084019351764623,
                -0.1436550140936042,
                -0.16564720429280494
            ]
        },
        {
            "positions": [
                0.09055579281358526,
                -0.81563361250906,
                1.9408073197808284,
                1.954082729173269,
                -0.13999118013500073,
                -0.10941686301055596
            ]
        },
        {
            "positions": [
                0.12335566858217606,
                -0.7848096682549545,
                2.009876312964365,
                1.9716138427401955,
                -0.13823440307905002,
                -0.06311313618429859
            ]
        }
    ]
}{
    "goal": {
        "global_pose": {
            "orientation": {
                "w": 0.7047431468963623,
                "x": -0.7094548344612122,
                "y": 0.0024358443915843964,
                "z": -0.0022348060738295317
            },
            "position": {
                "x": 0.6094750761985779,
                "y": 0.3671506643295288,
                "z": 0.19426114857196808
            }
        },
        "name": "move_to_magneteinheit_A"
    },
    "id": "RRT_move_to_magneteinheit_A_100",
    "joint_names": [
        "shoulder_pan_joint",
        "shoulder_lift_joint",
        "elbow_joint",
        "wrist_1_joint",
        "wrist_2_joint",
        "wrist_3_joint"
    ],
    "metrics": {
        "cart_traj_len": 1.4329104538101645,
        "distance_elbow_joint": 0.7059438776410805,
        "distance_shoulder_lift_joint": 0.7502633132256962,
        "distance_shoulder_pan_joint": 1.6745811678729383,
        "distance_wrist_1_joint": 1.8715896076034526,
        "distance_wrist_2_joint": 1.436905205921229,
        "distance_wrist_3_joint": 4.247688095351253,
        "smoothness": 0.2549601709475097,
        "time": 0.055151567,
        "traj_len": 3.26909334030334,
        "weighted_distance": 4.742451082704262
    },
    "planner": "RRT",
    "start": {
        "state": {
            "elbow_joint": 1.919643534880228,
            "shoulder_lift_joint": -1.8972525353963687,
            "shoulder_pan_joint": -1.1188672234189438,
            "wrist_1_joint": -1.5931878212786155,
            "wrist_2_joint": 1.5706036197970081,
            "wrist_3_joint": 1.118896926603594
        }
    },
    "waypoints": [
        {
            "positions": [
                -1.1188672234189438,
                -1.8972525353963687,
                1.919643534880228,
                -1.5931878212786155,
                1.5706036197970081,
                1.118896926603594
            ]
        },
        {
            "positions": [
                -1.1324080823965612,
                -1.8842993124283278,
                1.9437419657782418,
                -1.5112729781408056,
                1.511510298390891,
                0.9188475661180449
            ]
        },
        {
            "positions": [
                -1.1459489413741786,
                -1.8713460894602867,
                1.9678403966762552,
                -1.4293581350029958,
                1.452416976984774,
                0.7187982056324959
            ]
        },
        {
            "positions": [
                -1.159489800351796,
                -1.8583928664922458,
                1.9919388275742689,
                -1.347443291865186,
                1.3933236555786568,
                0.5187488451469469
            ]
        },
        {
            "positions": [
                -1.1730306593294133,
                -1.8454396435242049,
                2.0160372584722825,
                -1.2655284487273764,
                1.3342303341725397,
                0.31869948466139775
            ]
        },
        {
            "positions": [
                -1.1865715183070307,
                -1.8324864205561637,
                2.040135689370296,
                -1.1836136055895663,
                1.2751370127664226,
                0.11865012417584864
            ]
        },
        {
            "positions": [
                -1.200112377284648,
                -1.8195331975881228,
                2.06423412026831,
                -1.1016987624517567,
                1.2160436913603054,
                -0.08139923630970025
            ]
        },
        {
            "positions": [
                -1.2136532362622654,
                -1.8065799746200817,
                2.088332551166323,
                -1.0197839193139469,
                1.1569503699541883,
                -0.28144859679524936
            ]
        },
        {
            "positions": [
                -1.2271940952398825,
                -1.7936267516520408,
                2.1124309820643368,
                -0.937869076176137,
                1.0978570485480712,
                -0.48149795728079847
            ]
        },
        {
            "positions": [
                -1.2407349542175,
                -1.7806735286839999,
                2.1365294129623504,
                -0.8559542330383272,
                1.038763727141954,
                -0.6815473177663476
            ]
        },
        {
            "positions": [
                -1.2542758131951173,
                -1.7677203057159587,
                2.160627843860364,
                -0.7740393899005173,
                0.9796704057358371,
                -0.8815966782518967
            ]
        },
        {
            "positions": [
                -1.2678166721727346,
                -1.7547670827479178,
                2.1847262747583778,
                -0.6921245467627076,
                0.92057708432972,
                -1.0816460387374456
            ]
        },
        {
            "positions": [
                -1.281357531150352,
                -1.7418138597798767,
                2.2088247056563914,
                -0.6102097036248978,
                0.8614837629236028,
                -1.2816953992229945
            ]
        },
        {
            "positions": [
                -1.2948983901279694,
                -1.7288606368118358,
                2.2329231365544047,
                -0.5282948604870881,
                0.8023904415174857,
                -1.4817447597085438
            ]
        },
        {
            "positions": [
                -1.3084392491055867,
                -1.7159074138437949,
                2.2570215674524183,
                -0.44638001734927824,
                0.7432971201113686,
                -1.6817941201940927
            ]
        },
        {
            "positions": [
                -1.321980108083204,
                -1.7029541908757537,
                2.281119998350432,
                -0.3644651742114684,
                0.6842037987052515,
                -1.881843480679642
            ]
        },
        {
            "positions": [
                -1.3355209670608215,
                -1.6900009679077128,
                2.3052184292484457,
                -0.2825503310736585,
                0.6251104772991344,
                -2.0818928411651907
            ]
        },
        {
            "positions": [
                -1.2140270150415664,
                -1.6447499890962929,
                2.2785210139757073,
                -0.3292963408568665,
                0.5841594720138548,
                -2.1691343684637294
            ]
        },
        {
            "positions": [
                -1.0925330630223113,
                -1.5994990102848727,
                2.2518235987029684,
                -0.3760423506400744,
                0.5432084667285751,
                -2.2563758957622686
            ]
        },
        {
            "positions": [
                -0.9710391110030563,
                -1.5542480314734528,
                2.22512618343023,
                -0.4227883604232824,
                0.5022574614432955,
                -2.343617423060808
            ]
        },
        {
            "positions": [
                -0.8495451589838012,
                -1.5089970526620327,
                2.198428768157491,
                -0.46953437020649036,
                0.4613064561580159,
                -2.4308589503593465
            ]
        },
        {
            "positions": [
                -0.7280512069645462,
                -1.4637460738506127,
                2.171731352884753,
                -0.5162803799896983,
                0.42035545087273624,
                -2.5181004776578852
            ]
        },
        {
            "positions": [
                -0.6065572549452911,
                -1.4184950950391926,
                2.1450339376120144,
                -0.5630263897729062,
                0.3794044455874566,
                -2.6053420049564244
            ]
        },
        {
            "positions": [
                -0.48506330292603606,
                -1.3732441162277726,
                2.1183365223392756,
                -0.6097723995561142,
                0.338453440302177,
                -2.6925835322549636
            ]
        },
        {
            "positions": [
                -0.363569350906781,
                -1.3279931374163527,
                2.091639107066537,
                -0.6565184093393222,
                0.2975024350168974,
                -2.7798250595535023
            ]
        },
        {
            "positions": [
                -0.24207539888752594,
                -1.2827421586049326,
                2.0649416917937984,
                -0.7032644191225301,
                0.2565514297316177,
                -2.867066586852041
            ]
        },
        {
            "positions": [
                -0.12058144686827088,
                -1.2374911797935126,
                2.03824427652106,
                -0.7500104289057381,
                0.2156004244463381,
                -2.9543081141505803
            ]
        },
        {
            "positions": [
                0.0009125051509841775,
                -1.1922402009820927,
                2.0115468612483216,
                -0.7967564386889461,
                0.17464941916105847,
                -3.0415496414491194
            ]
        },
        {
            "positions": [
                0.12240645717023921,
                -1.1469892221706726,
                1.9848494459755828,
                -0.8435024484721539,
                0.13369841387577883,
                -3.128791168747658
            ]
        }
    ]
}