{
    "goal": {
        "global_pose": {
            "orientation": {
                "w": 0.7047431468963623,
                "x": -0.7094548344612122,
                "y": 0.0024358443915843964,
                "z": -0.0022348060738295317
            },
            "position": {
                "x": 0.6094750761985779,
                "y": 0.3671506643295288,
                "z": 0.19426114857196808
            }
        },
        "name": "move_to_magneteinheit_A"
    },
    "id": "RRT_move_to_magneteinheit_A_45",
    "joint_names": [
        "shoulder_pan_joint",
        "shoulder_lift_joint",
        "elbow_joint",
        "wrist_1_joint",
        "wrist_2_joint",
        "wrist_3_joint"
    ],
    "metrics": {
        "cart_traj_len": 3.715967041125621,
        "distance_elbow_joint": 3.879630171763016,
        "distance_shoulder_lift_joint": 0.8511093179957663,
        "distance_shoulder_pan_joint": 3.0564932200238544,
        "distance_wrist_1_joint": 0.8271314300396136,
        "distance_wrist_2_joint": 2.437075908086599,
        "distance_wrist_3_joint": 2.6398940975438876,
        "smoothness": 0.18587586973277573,
        "time": 0.092033537,
        "traj_len": 3.7001802855337647,
        "weighted_distance": 4.7154352586656
    },
    "planner": "RRT",
    "start": {
        "state": {
            "elbow_joint": -1.919618573717145,
            "shoulder_lift_joint": -1.2443395971678275,
            "shoulder_pan_joint": 2.6996025300909787,
            "wrist_1_joint": -1.548550951253194,
            "wrist_2_joint": -1.5709469090946802,
            "wrist_3_joint": 0.4420197732051276
        }
    },
    "waypoints": [
        {
            "positions": [
                2.6996025300909787,
                -1.2443395971678275,
                -1.919618573717145,
                -1.548550951253194,
                -1.5709469090946802,
                0.4420197732051276
            ]
        },
        {
            "positions": [
                2.5851121526564413,
                -1.2540504144027713,
                -1.7650953188988632,
                -1.5283573531749313,
                -1.4808688172068432,
                0.4409868024677282
            ]
        },
        {
            "positions": [
                2.470621775221904,
                -1.2637612316377154,
                -1.6105720640805814,
                -1.5081637550966687,
                -1.3907907253190062,
                0.4399538317303288
            ]
        },
        {
            "positions": [
                2.3561313977873666,
                -1.2734720488726592,
                -1.4560488092622996,
                -1.4879701570184058,
                -1.3007126334311692,
                0.43892086099292943
            ]
        },
        {
            "positions": [
                2.241641020352829,
                -1.2831828661076032,
                -1.3015255544440176,
                -1.467776558940143,
                -1.2106345415433322,
                0.43788789025553004
            ]
        },
        {
            "positions": [
                2.1271506429182923,
                -1.292893683342547,
                -1.1470022996257359,
                -1.4475829608618804,
                -1.1205564496554952,
                0.43685491951813066
            ]
        },
        {
            "positions": [
                2.012660265483755,
                -1.3026045005774909,
                -0.9924790448074542,
                -1.4273893627836176,
                -1.0304783577676582,
                0.43582194878073127
            ]
        },
        {
            "positions": [
                1.8981698880492175,
                -1.312315317812435,
                -0.8379557899891723,
                -1.4071957647053548,
                -0.9404002658798213,
                0.4347889780433319
            ]
        },
        {
            "positions": [
                1.78367951061468,
                -1.3220261350473788,
                -0.6834325351708905,
                -1.3870021666270922,
                -0.8503221739919844,
                0.4337560073059325
            ]
        },
        {
            "positions": [
                1.6691891331801427,
                -1.3317369522823228,
                -0.5289092803526088,
                -1.3668085685488294,
                -0.7602440821041473,
                0.4327230365685331
            ]
        },
        {
            "positions": [
                1.5546987557456056,
                -1.3414477695172666,
                -0.374386025534327,
                -1.3466149704705668,
                -0.6701659902163104,
                0.43169006583113373
            ]
        },
        {
            "positions": [
                1.4402083783110682,
                -1.3511585867522105,
                -0.2198627707160452,
                -1.326421372392304,
                -0.5800878983284734,
                0.43065709509373434
            ]
        },
        {
            "positions": [
                1.3257180008765308,
                -1.3608694039871545,
                -0.06533951589776343,
                -1.3062277743140411,
                -0.4900098064406364,
                0.42962412435633496
            ]
        },
        {
            "positions": [
                1.2112276234419936,
                -1.3705802212220983,
                0.08918373892051812,
                -1.2860341762357783,
                -0.39993171455279963,
                0.42859115361893557
            ]
        },
        {
            "positions": [
                1.096737246007456,
                -1.3802910384570422,
                0.24370699373880034,
                -1.2658405781575157,
                -0.3098536226649624,
                0.4275581828815362
            ]
        },
        {
            "positions": [
                0.9822468685729189,
                -1.3900018556919862,
                0.3982302485570821,
                -1.245646980079253,
                -0.21977553077712542,
                0.4265252121441368
            ]
        },
        {
            "positions": [
                0.8677564911383815,
                -1.39971267292693,
                0.5527535033753639,
                -1.2254533820009903,
                -0.12969743888928864,
                0.4254922414067374
            ]
        },
        {
            "positions": [
                0.7532661137038443,
                -1.409423490161874,
                0.7072767581936452,
                -1.2052597839227275,
                -0.039619347001451644,
                0.42445927066933803
            ]
        },
        {
            "positions": [
                0.6387757362693067,
                -1.419134307396818,
                0.8618000130119274,
                -1.1850661858444647,
                0.050458744886385576,
                0.42342629993193864
            ]
        },
        {
            "positions": [
                0.5242853588347693,
                -1.4288451246317617,
                1.0163232678302092,
                -1.1648725877662018,
                0.14053683677422235,
                0.42239332919453926
            ]
        },
        {
            "positions": [
                0.4097949814002324,
                -1.4385559418667058,
                1.170846522648491,
                -1.1446789896879392,
                0.23061492866205935,
                0.42136035845713987
            ]
        },
        {
            "positions": [
                0.295304603965695,
                -1.4482667591016496,
                1.3253697774667723,
                -1.1244853916096766,
                0.32069302054989635,
                0.4203273877197405
            ]
        },
        {
            "positions": [
                0.18081422653115764,
                -1.4579775763365936,
                1.4798930322850545,
                -1.1042917935314138,
                0.41077111243773334,
                0.4192944169823411
            ]
        },
        {
            "positions": [
                0.0663238490966203,
                -1.4676883935715375,
                1.6344162871033365,
                -1.084098195453151,
                0.5008492043255703,
                0.4182614462449417
            ]
        },
        {
            "positions": [
                0.04588031354933598,
                -1.4142422931014946,
                1.6459513572704918,
                -1.0696019822802567,
                0.4915614214810817,
                0.669867777245271
            ]
        },
        {
            "positions": [
                0.025436778002051658,
                -1.3607961926314516,
                1.657486427437647,
                -1.0551057691073624,
                0.482273638636593,
                0.9214741082456002
            ]
        },
        {
            "positions": [
                0.00499324245476733,
                -1.3073500921614087,
                1.6690214976048021,
                -1.0406095559344684,
                0.4729858557921043,
                1.1730804392459295
            ]
        },
        {
            "positions": [
                -0.015450293092516984,
                -1.2539039916913657,
                1.6805565677719574,
                -1.026113342761574,
                0.4636980729476156,
                1.4246867702462587
            ]
        },
        {
            "positions": [
                -0.035893828639801326,
                -1.2004578912213228,
                1.6920916379391127,
                -1.0116171295886798,
                0.45441029010312695,
                1.6762931012465883
            ]
        },
        {
            "positions": [
                -0.05633736418708564,
                -1.14701179075128,
                1.703626708106268,
                -0.9971209164157856,
                0.4451225072586383,
                1.9278994322469174
            ]
        },
        {
            "positions": [
                -0.07678089973436995,
                -1.093565690281237,
                1.715161778273423,
                -0.9826247032428913,
                0.4358347244141496,
                2.179505763247247
            ]
        },
        {
            "positions": [
                -0.09722443528165427,
                -1.0401195898111941,
                1.7266968484405782,
                -0.9681284900699971,
                0.4265469415696609,
                2.4311120942475757
            ]
        },
        {
            "positions": [
                -0.11766797082893862,
                -0.9866734893411512,
                1.7382319186077335,
                -0.9536322768971028,
                0.4172591587251722,
                2.6827184252479053
            ]
        },
        {
            "positions": [
                -0.0578622910529549,
                -1.0233598936815687,
                1.793676838467268,
                -0.8955790879762222,
                0.3468367214586848,
                2.77063812314309
            ]
        },
        {
            "positions": [
                0.0019433887230288216,
                -1.0600462980219862,
                1.8491217583268027,
                -0.8375258990553416,
                0.2764142841921975,
                2.858557821038274
            ]
        },
        {
            "positions": [
                0.061749068499012544,
                -1.0967327023624036,
                1.9045666781863373,
                -0.7794727101344611,
                0.2059918469257101,
                2.9464775189334587
            ]
        },
        {
            "positions": [
                0.12155474827499625,
                -1.1334191067028212,
                1.9600115980458719,
                -0.7214195212135804,
                0.1355694096592227,
                3.0343972168286433
            ]
        }
    ]
}{
    "goal": {
        "global_pose": {
            "orientation": {
                "w": 0.7047431468963623,
                "x": -0.7094548344612122,
                "y": 0.0024358443915843964,
                "z": -0.0022348060738295317
            },
            "position": {
                "x": 0.6094750761985779,
                "y": 0.3671506643295288,
                "z": 0.19426114857196808
            }
        },
        "name": "move_to_magneteinheit_A"
    },
    "id": "RRT_move_to_magneteinheit_A_45",
    "joint_names": [
        "shoulder_pan_joint",
        "shoulder_lift_joint",
        "elbow_joint",
        "wrist_1_joint",
        "wrist_2_joint",
        "wrist_3_joint"
    ],
    "metrics": {
        "cart_traj_len": 1.1879603426397396,
        "distance_elbow_joint": 0.06825114349816097,
        "distance_shoulder_lift_joint": 0.7505940751522562,
        "distance_shoulder_pan_joint": 1.2420294563494916,
        "distance_wrist_1_joint": 0.7278675259522022,
        "distance_wrist_2_joint": 1.4678684226720875,
        "distance_wrist_3_joint": 4.228786879780173,
        "smoothness": 0.040473609618747644,
        "time": 0.082390478,
        "traj_len": 2.9129705634290866,
        "weighted_distance": 4.3747808186912645
    },
    "planner": "RRT",
    "start": {
        "state": {
            "elbow_joint": 1.919643534880228,
            "shoulder_lift_joint": -1.8972525353963687,
            "shoulder_pan_joint": -1.1188672234189438,
            "wrist_1_joint": -1.5931878212786155,
            "wrist_2_joint": 1.5706036197970081,
            "wrist_3_joint": 1.118896926603594
        }
    },
    "waypoints": [
        {
            "positions": [
                -1.1188672234189438,
                -1.8972525353963687,
                1.919643534880228,
                -1.5931878212786155,
                1.5706036197970081,
                1.118896926603594
            ]
        },
        {
            "positions": [
                -1.0652300425959798,
                -1.8657464238259611,
                1.922417588157896,
                -1.5619239698415608,
                1.5011773344443378,
                0.9179998291490038
            ]
        },
        {
            "positions": [
                -1.0115928617730159,
                -1.8342403122555533,
                1.9251916414355639,
                -1.530660118404506,
                1.4317510490916672,
                0.7171027316944136
            ]
        },
        {
            "positions": [
                -0.9579556809500518,
                -1.8027342006851457,
                1.9279656947132318,
                -1.4993962669674514,
                1.3623247637389968,
                0.5162056342398235
            ]
        },
        {
            "positions": [
                -0.9043185001270877,
                -1.771228089114738,
                1.9307397479908996,
                -1.4681324155303965,
                1.2928984783863264,
                0.3153085367852334
            ]
        },
        {
            "positions": [
                -0.8506813193041237,
                -1.7397219775443302,
                1.9335138012685675,
                -1.4368685640933418,
                1.2234721930336558,
                0.11441143933064324
            ]
        },
        {
            "positions": [
                -0.7970441384811597,
                -1.7082158659739226,
                1.9362878545462354,
                -1.4056047126562872,
                1.1540459076809855,
                -0.08648565812394704
            ]
        },
        {
            "positions": [
                -0.7434069576581956,
                -1.6767097544035148,
                1.9390619078239033,
                -1.3743408612192325,
                1.084619622328315,
                -0.2873827555785371
            ]
        },
        {
            "positions": [
                -0.6897697768352317,
                -1.6452036428331072,
                1.9418359611015712,
                -1.3430770097821778,
                1.0151933369756447,
                -0.48827985303312715
            ]
        },
        {
            "positions": [
                -0.6361325960122677,
                -1.6136975312626995,
                1.944610014379239,
                -1.3118131583451231,
                0.9457670516229741,
                -0.6891769504877174
            ]
        },
        {
            "positions": [
                -0.5824954151893036,
                -1.5821914196922917,
                1.947384067656907,
                -1.2805493069080685,
                0.8763407662703038,
                -0.8900740479423075
            ]
        },
        {
            "positions": [
                -0.5288582343663395,
                -1.550685308121884,
                1.9501581209345746,
                -1.2492854554710136,
                0.8069144809176332,
                -1.090971145396898
            ]
        },
        {
            "positions": [
                -0.4752210535433755,
                -1.5191791965514763,
                1.9529321742122425,
                -1.218021604033959,
                0.7374881955649628,
                -1.291868242851488
            ]
        },
        {
            "positions": [
                -0.4215838727204114,
                -1.4876730849810686,
                1.9557062274899104,
                -1.1867577525969042,
                0.6680619102122923,
                -1.492765340306078
            ]
        },
        {
            "positions": [
                -0.36794669189744744,
                -1.456166973410661,
                1.9584802807675783,
                -1.1554939011598495,
                0.598635624859622,
                -1.6936624377606682
            ]
        },
        {
            "positions": [
                -0.31430951107448335,
                -1.4246608618402532,
                1.9612543340452462,
                -1.1242300497227948,
                0.5292093395069515,
                -1.8945595352152587
            ]
        },
        {
            "positions": [
                -0.2606723302515195,
                -1.3931547502698456,
                1.964028387322914,
                -1.0929661982857402,
                0.4597830541542811,
                -2.0954566326698485
            ]
        },
        {
            "positions": [
                -0.2070351494285554,
                -1.361648638699438,
                1.966802440600582,
                -1.0617023468486853,
                0.3903567688016105,
                -2.296353730124439
            ]
        },
        {
            "positions": [
                -0.1533979686055914,
                -1.3301425271290301,
                1.9695764938782498,
                -1.0304384954116306,
                0.32093048344894015,
                -2.4972508275790286
            ]
        },
        {
            "positions": [
                -0.0997607877826272,
                -1.2986364155586223,
                1.9723505471559177,
                -0.999174643974576,
                0.2515041980962698,
                -2.698147925033619
            ]
        },
        {
            "positions": [
                -0.04612360695966333,
                -1.267130303988215,
                1.9751246004335856,
                -0.9679107925375213,
                0.1820779127435994,
                -2.8990450224882087
            ]
        },
        {
            "positions": [
                0.0075135738633006766,
                -1.235624192417807,
                1.9778986537112535,
                -0.9366469411004665,
                0.11265162739092885,
                -3.0999421199427992
            ]
        },
        {
            "positions": [
                0.12316223293054758,
                -1.1466584602441126,
                1.987894678378389,
                -0.8653202953264133,
                0.12256805765693712,
                -3.1098899531765785
            ]
        }
    ]
}