{
    "goal": {
        "global_pose": {
            "orientation": {
                "w": 0.5084816217422485,
                "x": -0.49083608388900757,
                "y": 0.5182115435600281,
                "z": -0.4816462993621826
            },
            "position": {
                "x": 0.5540239810943604,
                "y": 0.030875300988554955,
                "z": 0.16403168439865112
            }
        },
        "name": "move_to_storage_A"
    },
    "id": "RRT_move_to_storage_A_56",
    "joint_names": [
        "shoulder_pan_joint",
        "shoulder_lift_joint",
        "elbow_joint",
        "wrist_1_joint",
        "wrist_2_joint",
        "wrist_3_joint"
    ],
    "metrics": {
        "cart_traj_len": 0.3536266956604111,
        "distance_elbow_joint": 0.4539097408507886,
        "distance_shoulder_lift_joint": 0.23144336544173738,
        "distance_shoulder_pan_joint": 0.46232678862562393,
        "distance_wrist_1_joint": 0.26438659955712096,
        "distance_wrist_2_joint": 1.0991229834159424,
        "distance_wrist_3_joint": 0.10356736632180974,
        "smoothness": 1.332267634315338e-15,
        "time": 0.015822576,
        "traj_len": 1.6170209782847664,
        "weighted_distance": 2.0458253004178304
    },
    "planner": "RRT",
    "start": {
        "state": {
            "elbow_joint": 1.9715477243005601,
            "shoulder_lift_joint": -1.1394853015351272,
            "shoulder_pan_joint": 0.12281154014795169,
            "wrist_1_joint": -0.7804696478968182,
            "wrist_2_joint": 0.12958648046900423,
            "wrist_3_joint": -3.192491284697111
        }
    },
    "waypoints": [
        {
            "positions": [
                0.12281154014795169,
                -1.1394853015351272,
                1.9715477243005601,
                -0.7804696478968182,
                0.12958648046900423,
                -3.192491284697111
            ]
        },
        {
            "positions": [
                0.05676485605857684,
                -1.1725486394553755,
                2.03639197299353,
                -0.8182391621192641,
                0.28660404952842455,
                -3.1776959466511383
            ]
        },
        {
            "positions": [
                -0.009281828030798009,
                -1.2056119773756235,
                2.1012362216865,
                -0.8560086763417099,
                0.4436216185878449,
                -3.1629006086051654
            ]
        },
        {
            "positions": [
                -0.07532851212017284,
                -1.2386753152958718,
                2.1660804703794696,
                -0.8937781905641558,
                0.6006391876472652,
                -3.1481052705591925
            ]
        },
        {
            "positions": [
                -0.1413751962095477,
                -1.27173865321612,
                2.2309247190724393,
                -0.9315477047866015,
                0.7576567567066855,
                -3.13330993251322
            ]
        },
        {
            "positions": [
                -0.20742188029892256,
                -1.3048019911363682,
                2.295768967765409,
                -0.9693172190090474,
                0.914674325766106,
                -3.118514594467247
            ]
        },
        {
            "positions": [
                -0.27346856438829736,
                -1.3378653290566163,
                2.360613216458379,
                -1.0070867332314932,
                1.071691894825526,
                -3.1037192564212743
            ]
        },
        {
            "positions": [
                -0.3395152484776722,
                -1.3709286669768646,
                2.4254574651513487,
                -1.0448562474539391,
                1.2287094638849467,
                -3.0889239183753014
            ]
        }
    ]
}