{
    "goal": {
        "global_pose": {
            "orientation": {
                "w": 0.7047431468963623,
                "x": -0.7094548344612122,
                "y": 0.0024358443915843964,
                "z": -0.0022348060738295317
            },
            "position": {
                "x": 0.6094750761985779,
                "y": 0.3671506643295288,
                "z": 0.19426114857196808
            }
        },
        "name": "move_to_magneteinheit_A"
    },
    "id": "RRT_move_to_magneteinheit_A_16",
    "joint_names": [
        "shoulder_pan_joint",
        "shoulder_lift_joint",
        "elbow_joint",
        "wrist_1_joint",
        "wrist_2_joint",
        "wrist_3_joint"
    ],
    "metrics": {
        "cart_traj_len": 3.3845521065205597,
        "distance_elbow_joint": 3.8983465833332303,
        "distance_shoulder_lift_joint": 0.25000062152196545,
        "distance_shoulder_pan_joint": 2.5771394834466888,
        "distance_wrist_1_joint": 1.8578396441997485,
        "distance_wrist_2_joint": 4.58407473186079,
        "distance_wrist_3_joint": 3.2657048805460533,
        "smoothness": 0.11371914933904073,
        "time": 0.076346451,
        "traj_len": 4.053776750748427,
        "weighted_distance": 5.4227695951479555
    },
    "planner": "RRT",
    "start": {
        "state": {
            "elbow_joint": -1.919618573717145,
            "shoulder_lift_joint": -1.2443395971678275,
            "shoulder_pan_joint": 2.6996025300909787,
            "wrist_1_joint": -1.548550951253194,
            "wrist_2_joint": -1.5709469090946802,
            "wrist_3_joint": 0.4420197732051276
        }
    },
    "waypoints": [
        {
            "positions": [
                2.6996025300909787,
                -1.2443395971678275,
                -1.919618573717145,
                -1.548550951253194,
                -1.5709469090946802,
                0.4420197732051276
            ]
        },
        {
            "positions": [
                2.6136416024382414,
                -1.2475577559793822,
                -1.7988462723756036,
                -1.5720688032417316,
                -1.4345507491788492,
                0.4291179978996917
            ]
        },
        {
            "positions": [
                2.527680674785504,
                -1.250775914790937,
                -1.678073971034062,
                -1.595586655230269,
                -1.2981545892630182,
                0.4162162225942558
            ]
        },
        {
            "positions": [
                2.4417197471327663,
                -1.2539940736024915,
                -1.5573016696925206,
                -1.6191045072188066,
                -1.1617584293471872,
                0.4033144472888199
            ]
        },
        {
            "positions": [
                2.355758819480029,
                -1.2572122324140462,
                -1.4365293683509792,
                -1.6426223592073441,
                -1.0253622694313562,
                0.390412671983384
            ]
        },
        {
            "positions": [
                2.2697978918272916,
                -1.260430391225601,
                -1.3157570670094376,
                -1.6661402111958816,
                -0.8889661095155252,
                0.377510896677948
            ]
        },
        {
            "positions": [
                2.1838369641745543,
                -1.2636485500371557,
                -1.1949847656678965,
                -1.6896580631844191,
                -0.7525699495996943,
                0.3646091213725121
            ]
        },
        {
            "positions": [
                2.097876036521817,
                -1.2668667088487104,
                -1.0742124643263549,
                -1.7131759151729566,
                -0.6161737896838632,
                0.3517073460670762
            ]
        },
        {
            "positions": [
                2.011915108869079,
                -1.2700848676602652,
                -0.9534401629848134,
                -1.736693767161494,
                -0.4797776297680323,
                0.3388055707616403
            ]
        },
        {
            "positions": [
                1.9259541812163419,
                -1.2733030264718197,
                -0.8326678616432719,
                -1.7602116191500314,
                -0.3433814698522011,
                0.3259037954562044
            ]
        },
        {
            "positions": [
                1.8399932535636045,
                -1.2765211852833744,
                -0.7118955603017305,
                -1.783729471138569,
                -0.20698530993637032,
                0.3130020201507685
            ]
        },
        {
            "positions": [
                1.7540323259108672,
                -1.2797393440949292,
                -0.5911232589601889,
                -1.8072473231271065,
                -0.07058915002053912,
                0.3001002448453326
            ]
        },
        {
            "positions": [
                1.6680713982581297,
                -1.282957502906484,
                -0.47035095761864776,
                -1.830765175115644,
                0.06580700989529165,
                0.2871984695398967
            ]
        },
        {
            "positions": [
                1.5821104706053923,
                -1.2861756617180387,
                -0.3495786562771064,
                -1.8542830271041815,
                0.20220316981112263,
                0.2742966942344608
            ]
        },
        {
            "positions": [
                1.4961495429526548,
                -1.2893938205295934,
                -0.22880635493556456,
                -1.877800879092719,
                0.33859932972695383,
                0.2613949189290249
            ]
        },
        {
            "positions": [
                1.4101886152999175,
                -1.292611979341148,
                -0.10803405359402318,
                -1.9013187310812565,
                0.4749954896427848,
                0.24849314362358896
            ]
        },
        {
            "positions": [
                1.3242276876471801,
                -1.2958301381527026,
                0.012738247747518194,
                -1.9248365830697938,
                0.6113916495586156,
                0.23559136831815305
            ]
        },
        {
            "positions": [
                1.2382667599944428,
                -1.2990482969642574,
                0.13351054908905957,
                -1.9483544350583313,
                0.7477878094744468,
                0.22268959301271718
            ]
        },
        {
            "positions": [
                1.1523058323417052,
                -1.3022664557758121,
                0.25428285043060117,
                -1.9718722870468688,
                0.884183969390278,
                0.20978781770728125
            ]
        },
        {
            "positions": [
                1.066344904688968,
                -1.3054846145873669,
                0.3750551517721423,
                -1.9953901390354063,
                1.0205801293061088,
                0.19688604240184535
            ]
        },
        {
            "positions": [
                0.9803839770362304,
                -1.3087027733989216,
                0.4958274531136839,
                -2.018907991023944,
                1.1569762892219395,
                0.18398426709640942
            ]
        },
        {
            "positions": [
                0.894423049383493,
                -1.3119209322104761,
                0.6165997544552251,
                -2.0424258430124813,
                1.2933724491377707,
                0.1710824917909735
            ]
        },
        {
            "positions": [
                0.8084621217307555,
                -1.3151390910220309,
                0.7373720557967671,
                -2.065943695001019,
                1.429768609053602,
                0.1581807164855376
            ]
        },
        {
            "positions": [
                0.7225011940780182,
                -1.3183572498335856,
                0.8581443571383081,
                -2.0894615469895563,
                1.5661647689694327,
                0.1452789411801017
            ]
        },
        {
            "positions": [
                0.6635483295047057,
                -1.3023849438252006,
                0.9679293490034857,
                -2.0923211500245484,
                1.5279038909553295,
                0.28635837047753177
            ]
        },
        {
            "positions": [
                0.6045954649313932,
                -1.2864126378168157,
                1.0777143408686634,
                -2.09518075305954,
                1.4896430129412264,
                0.4274377997749618
            ]
        },
        {
            "positions": [
                0.5456426003580808,
                -1.2704403318084307,
                1.1874993327338412,
                -2.0980403560945318,
                1.4513821349271234,
                0.5685172290723919
            ]
        },
        {
            "positions": [
                0.4866897357847682,
                -1.2544680258000458,
                1.2972843245990187,
                -2.100899959129524,
                1.4131212569130203,
                0.7095966583698219
            ]
        },
        {
            "positions": [
                0.4277368712114557,
                -1.2384957197916608,
                1.4070693164641965,
                -2.103759562164516,
                1.374860378898917,
                0.8506760876672519
            ]
        },
        {
            "positions": [
                0.36878400663814326,
                -1.222523413783276,
                1.5168543083293742,
                -2.1066191651995076,
                1.3365995008848142,
                0.9917555169646821
            ]
        },
        {
            "positions": [
                0.30983114206483076,
                -1.206551107774891,
                1.6266393001945518,
                -2.1094787682344993,
                1.298338622870711,
                1.1328349462621121
            ]
        },
        {
            "positions": [
                0.25087827749151825,
                -1.190578801766506,
                1.7364242920597295,
                -2.1123383712694914,
                1.2600777448566078,
                1.2739143755595421
            ]
        },
        {
            "positions": [
                0.24017700825424945,
                -1.186561758367412,
                1.756616268522759,
                -2.0045006859208705,
                1.1650047423829533,
                1.4272750934046745
            ]
        },
        {
            "positions": [
                0.22947573901698062,
                -1.182544714968318,
                1.7768082449857885,
                -1.8966630005722496,
                1.069931739909299,
                1.5806358112498067
            ]
        },
        {
            "positions": [
                0.21877446977971182,
                -1.1785276715692241,
                1.797000221448818,
                -1.7888253152236286,
                0.9748587374356443,
                1.7339965290949388
            ]
        },
        {
            "positions": [
                0.20807320054244302,
                -1.17451062817013,
                1.8171921979118475,
                -1.6809876298750077,
                0.8797857349619899,
                1.8873572469400712
            ]
        },
        {
            "positions": [
                0.1973719313051742,
                -1.170493584771036,
                1.837384174374877,
                -1.5731499445263868,
                0.7847127324883353,
                2.0407179647852036
            ]
        },
        {
            "positions": [
                0.1866706620679054,
                -1.1664765413719422,
                1.8575761508379065,
                -1.4653122591777659,
                0.6896397300146808,
                2.1940786826303356
            ]
        },
        {
            "positions": [
                0.17596939283063656,
                -1.1624594979728482,
                1.8777681273009361,
                -1.357474573829145,
                0.5945667275410262,
                2.3474394004754684
            ]
        },
        {
            "positions": [
                0.1652681235933678,
                -1.1584424545737542,
                1.8979601037639657,
                -1.249636888480524,
                0.4994937250673719,
                2.5008001183206003
            ]
        },
        {
            "positions": [
                0.15456685435609896,
                -1.1544254111746601,
                1.9181520802269951,
                -1.141799203131903,
                0.4044207225937173,
                2.6541608361657327
            ]
        },
        {
            "positions": [
                0.14386558511883013,
                -1.150408367775566,
                1.9383440566900247,
                -1.0339615177832822,
                0.30934772012006273,
                2.807521554010865
            ]
        },
        {
            "positions": [
                0.13316431588156136,
                -1.1463913243764723,
                1.9585360331530541,
                -0.9261238324346612,
                0.21427471764640837,
                2.960882271855997
            ]
        },
        {
            "positions": [
                0.12246304664429254,
                -1.1423742809773783,
                1.9787280096160837,
                -0.8182861470860403,
                0.1192017151727537,
                3.1142429897011294
            ]
        }
    ]
}{
    "goal": {
        "global_pose": {
            "orientation": {
                "w": 0.7047431468963623,
                "x": -0.7094548344612122,
                "y": 0.0024358443915843964,
                "z": -0.0022348060738295317
            },
            "position": {
                "x": 0.6094750761985779,
                "y": 0.3671506643295288,
                "z": 0.19426114857196808
            }
        },
        "name": "move_to_magneteinheit_A"
    },
    "id": "RRT_move_to_magneteinheit_A_16",
    "joint_names": [
        "shoulder_pan_joint",
        "shoulder_lift_joint",
        "elbow_joint",
        "wrist_1_joint",
        "wrist_2_joint",
        "wrist_3_joint"
    ],
    "metrics": {
        "cart_traj_len": 1.4194200217764192,
        "distance_elbow_joint": 0.6791672738140324,
        "distance_shoulder_lift_joint": 0.9425935626720165,
        "distance_shoulder_pan_joint": 1.241694548921909,
        "distance_wrist_1_joint": 0.7381985800556528,
        "distance_wrist_2_joint": 1.435364587623113,
        "distance_wrist_3_joint": 4.251700026178996,
        "smoothness": 0.134557523754734,
        "time": 0.064678718,
        "traj_len": 3.0477399133235963,
        "weighted_distance": 4.468297416164515
    },
    "planner": "RRT",
    "start": {
        "state": {
            "elbow_joint": 1.919643534880228,
            "shoulder_lift_joint": -1.8972525353963687,
            "shoulder_pan_joint": -1.1188672234189438,
            "wrist_1_joint": -1.5931878212786155,
            "wrist_2_joint": 1.5706036197970081,
            "wrist_3_joint": 1.118896926603594
        }
    },
    "waypoints": [
        {
            "positions": [
                -1.1188672234189438,
                -1.8972525353963687,
                1.919643534880228,
                -1.5931878212786155,
                1.5706036197970081,
                1.118896926603594
            ]
        },
        {
            "positions": [
                -1.0670809911868788,
                -1.8549388335648664,
                1.904396385740463,
                -1.5690574806710076,
                1.5095873369102744,
                0.923325163845557
            ]
        },
        {
            "positions": [
                -1.0152947589548138,
                -1.8126251317333641,
                1.889149236600698,
                -1.5449271400633997,
                1.4485710540235406,
                0.72775340108752
            ]
        },
        {
            "positions": [
                -0.9635085267227489,
                -1.7703114299018619,
                1.873902087460933,
                -1.520796799455792,
                1.3875547711368068,
                0.5321816383294831
            ]
        },
        {
            "positions": [
                -0.9117222944906839,
                -1.7279977280703593,
                1.858654938321168,
                -1.4966664588481842,
                1.326538488250073,
                0.33660987557144595
            ]
        },
        {
            "positions": [
                -0.859936062258619,
                -1.685684026238857,
                1.843407789181403,
                -1.4725361182405763,
                1.2655222053633393,
                0.14103811281340906
            ]
        },
        {
            "positions": [
                -0.8081498300265539,
                -1.6433703244073548,
                1.828160640041638,
                -1.4484057776329684,
                1.2045059224766055,
                -0.05453364994462784
            ]
        },
        {
            "positions": [
                -0.7563635977944889,
                -1.6010566225758525,
                1.8129134909018727,
                -1.4242754370253605,
                1.1434896395898717,
                -0.25010541270266473
            ]
        },
        {
            "positions": [
                -0.7045773655624239,
                -1.5587429207443502,
                1.7976663417621077,
                -1.4001450964177526,
                1.082473356703138,
                -0.44567717546070207
            ]
        },
        {
            "positions": [
                -0.6527911333303589,
                -1.5164292189128479,
                1.7824191926223427,
                -1.376014755810145,
                1.021457073816404,
                -0.641248938218739
            ]
        },
        {
            "positions": [
                -0.601004901098294,
                -1.4741155170813456,
                1.7671720434825775,
                -1.351884415202537,
                0.9604407909296703,
                -0.8368207009767759
            ]
        },
        {
            "positions": [
                -0.5492186688662289,
                -1.4318018152498433,
                1.7519248943428125,
                -1.3277540745949292,
                0.8994245080429364,
                -1.0323924637348132
            ]
        },
        {
            "positions": [
                -0.49743243663416403,
                -1.389488113418341,
                1.7366777452030475,
                -1.3036237339873216,
                0.8384082251562027,
                -1.2279642264928496
            ]
        },
        {
            "positions": [
                -0.445646204402099,
                -1.3471744115868387,
                1.7214305960632825,
                -1.2794933933797137,
                0.7773919422694688,
                -1.423535989250887
            ]
        },
        {
            "positions": [
                -0.3938599721700341,
                -1.3048607097553364,
                1.7061834469235175,
                -1.2553630527721058,
                0.7163756593827352,
                -1.6191077520089234
            ]
        },
        {
            "positions": [
                -0.34207373993796897,
                -1.2625470079238341,
                1.6909362977837523,
                -1.231232712164498,
                0.6553593764960013,
                -1.8146795147669608
            ]
        },
        {
            "positions": [
                -0.29028750770590395,
                -1.2202333060923316,
                1.6756891486439873,
                -1.20710237155689,
                0.5943430936092675,
                -2.010251277524998
            ]
        },
        {
            "positions": [
                -0.23850127547383904,
                -1.1779196042608295,
                1.6604419995042223,
                -1.1829720309492822,
                0.5333268107225337,
                -2.2058230402830343
            ]
        },
        {
            "positions": [
                -0.18671504324177401,
                -1.135605902429327,
                1.6451948503644571,
                -1.1588416903416743,
                0.47231052783579996,
                -2.4013948030410717
            ]
        },
        {
            "positions": [
                -0.1349288110097091,
                -1.093292200597825,
                1.6299477012246921,
                -1.1347113497340666,
                0.4112942449490662,
                -2.596966565799108
            ]
        },
        {
            "positions": [
                -0.08314257877764406,
                -1.0509784987663224,
                1.6147005520849271,
                -1.1105810091264587,
                0.3502779620623324,
                -2.7925383285571455
            ]
        },
        {
            "positions": [
                -0.03165010270749179,
                -1.075058380276815,
                1.70825662483961,
                -1.0466830671505847,
                0.29651822959022317,
                -2.8776045213117096
            ]
        },
        {
            "positions": [
                0.01984237336266048,
                -1.0991382617873076,
                1.801812697594293,
                -0.9827851251747107,
                0.24275849711811393,
                -2.962670714066274
            ]
        },
        {
            "positions": [
                0.07133484943281274,
                -1.1232181432978001,
                1.8953687703489757,
                -0.9188871831988368,
                0.1889987646460047,
                -3.047736906820838
            ]
        },
        {
            "positions": [
                0.122827325502965,
                -1.1472980248082927,
                1.9889248431036586,
                -0.8549892412229627,
                0.13523903217389546,
                -3.132803099575402
            ]
        }
    ]
}