{
    "goal": {
        "global_pose": {
            "orientation": {
                "w": 0.7047431468963623,
                "x": -0.7094548344612122,
                "y": 0.0024358443915843964,
                "z": -0.0022348060738295317
            },
            "position": {
                "x": 0.6094750761985779,
                "y": 0.3671506643295288,
                "z": 0.19426114857196808
            }
        },
        "name": "move_to_magneteinheit_A"
    },
    "id": "RRT_move_to_magneteinheit_A_84",
    "joint_names": [
        "shoulder_pan_joint",
        "shoulder_lift_joint",
        "elbow_joint",
        "wrist_1_joint",
        "wrist_2_joint",
        "wrist_3_joint"
    ],
    "metrics": {
        "cart_traj_len": 2.927226561374618,
        "distance_elbow_joint": 3.918560233373929,
        "distance_shoulder_lift_joint": 0.7467149508468074,
        "distance_shoulder_pan_joint": 2.8588495911685787,
        "distance_wrist_1_joint": 3.7972735483537483,
        "distance_wrist_2_joint": 1.830948903037362,
        "distance_wrist_3_joint": 0.488190481486007,
        "smoothness": 0.3204773740121205,
        "time": 0.075819761,
        "traj_len": 3.693309858144376,
        "weighted_distance": 4.499460092347698
    },
    "planner": "RRT",
    "start": {
        "state": {
            "elbow_joint": -1.919618573717145,
            "shoulder_lift_joint": -1.2443395971678275,
            "shoulder_pan_joint": 2.6996025300909787,
            "wrist_1_joint": -1.548550951253194,
            "wrist_2_joint": -1.5709469090946802,
            "wrist_3_joint": 0.4420197732051276
        }
    },
    "waypoints": [
        {
            "positions": [
                2.6996025300909787,
                -1.2443395971678275,
                -1.919618573717145,
                -1.548550951253194,
                -1.5709469090946802,
                0.4420197732051276
            ]
        },
        {
            "positions": [
                2.610059376455336,
                -1.2492137568836794,
                -1.8089539766383496,
                -1.4316689489081202,
                -1.5187596171288367,
                0.43184613766003965
            ]
        },
        {
            "positions": [
                2.5205162228196927,
                -1.2540879165995311,
                -1.6982893795595542,
                -1.3147869465630464,
                -1.4665723251629932,
                0.4216725021149517
            ]
        },
        {
            "positions": [
                2.43097306918405,
                -1.258962076315383,
                -1.5876247824807588,
                -1.1979049442179726,
                -1.41438503319715,
                0.4114988665698638
            ]
        },
        {
            "positions": [
                2.341429915548407,
                -1.263836236031235,
                -1.4769601854019636,
                -1.0810229418728987,
                -1.3621977412313064,
                0.40132523102477585
            ]
        },
        {
            "positions": [
                2.251886761912764,
                -1.2687103957470867,
                -1.366295588323168,
                -0.9641409395278249,
                -1.310010449265463,
                0.3911515954796879
            ]
        },
        {
            "positions": [
                2.162343608277121,
                -1.2735845554629386,
                -1.2556309912443728,
                -0.8472589371827511,
                -1.2578231572996197,
                0.3809779599346
            ]
        },
        {
            "positions": [
                2.072800454641478,
                -1.2784587151787905,
                -1.1449663941655774,
                -0.7303769348376773,
                -1.2056358653337762,
                0.37080432438951205
            ]
        },
        {
            "positions": [
                1.9832573010058354,
                -1.2833328748946422,
                -1.034301797086782,
                -0.6134949324926035,
                -1.1534485733679327,
                0.3606306888444241
            ]
        },
        {
            "positions": [
                1.8937141473701924,
                -1.2882070346104941,
                -0.9236372000079868,
                -0.4966129301475295,
                -1.1012612814020892,
                0.3504570532993362
            ]
        },
        {
            "positions": [
                1.8041709937345494,
                -1.293081194326346,
                -0.8129726029291913,
                -0.37973092780245565,
                -1.0490739894362457,
                0.34028341775424825
            ]
        },
        {
            "positions": [
                1.7146278400989066,
                -1.2979553540421978,
                -0.7023080058503961,
                -0.26284892545738203,
                -0.9968866974704025,
                0.3301097822091603
            ]
        },
        {
            "positions": [
                1.6250846864632635,
                -1.3028295137580497,
                -0.5916434087716007,
                -0.1459669231123082,
                -0.944699405504559,
                0.31993614666407244
            ]
        },
        {
            "positions": [
                1.5355415328276207,
                -1.3077036734739016,
                -0.4809788116928053,
                -0.029084920767234346,
                -0.8925121135387155,
                0.30976251111898445
            ]
        },
        {
            "positions": [
                1.4459983791919777,
                -1.3125778331897533,
                -0.37031421461400993,
                0.0877970815778395,
                -0.840324821572872,
                0.2995888755738966
            ]
        },
        {
            "positions": [
                1.3564552255563347,
                -1.3174519929056052,
                -0.25964961753521454,
                0.20467908392291334,
                -0.7881375296070287,
                0.2894152400288086
            ]
        },
        {
            "positions": [
                1.2669120719206919,
                -1.3223261526214571,
                -0.14898502045641937,
                0.3215610862679872,
                -0.7359502376411853,
                0.2792416044837207
            ]
        },
        {
            "positions": [
                1.177368918285049,
                -1.3272003123373088,
                -0.0383204233776242,
                0.4384430886130608,
                -0.6837629456753419,
                0.2690679689386328
            ]
        },
        {
            "positions": [
                1.087825764649406,
                -1.3320744720531608,
                0.07234417370117141,
                0.5553250909581351,
                -0.6315756537094983,
                0.25889433339354484
            ]
        },
        {
            "positions": [
                0.9982826110137633,
                -1.3369486317690125,
                0.1830087707799668,
                0.6722070933032085,
                -0.5793883617436549,
                0.2487206978484569
            ]
        },
        {
            "positions": [
                0.90873945737812,
                -1.3418227914848644,
                0.2936733678587624,
                0.7890890956482828,
                -0.5272010697778116,
                0.23854706230336895
            ]
        },
        {
            "positions": [
                0.8191963037424772,
                -1.3466969512007163,
                0.4043379649375576,
                0.9059710979933562,
                -0.4750137778119681,
                0.228373426758281
            ]
        },
        {
            "positions": [
                0.7296531501068344,
                -1.351571110916568,
                0.5150025620163527,
                1.02285310033843,
                -0.4228264858461248,
                0.2181997912131931
            ]
        },
        {
            "positions": [
                0.6401099964711912,
                -1.35644527063242,
                0.6256671590951484,
                1.1397351026835039,
                -0.3706391938802811,
                0.20802615566810514
            ]
        },
        {
            "positions": [
                0.5505668428355484,
                -1.3613194303482719,
                0.7363317561739435,
                1.2566171050285777,
                -0.31845190191443784,
                0.19785252012301724
            ]
        },
        {
            "positions": [
                0.46102368919990555,
                -1.3661935900641236,
                0.8469963532527387,
                1.3734991073736516,
                -0.26626460994859436,
                0.1876788845779293
            ]
        },
        {
            "positions": [
                0.37148053556426275,
                -1.3710677497799755,
                0.9576609503315343,
                1.4903811097187254,
                -0.21407731798275087,
                0.17750524903284137
            ]
        },
        {
            "positions": [
                0.28193738192861995,
                -1.3759419094958274,
                1.0683255474103295,
                1.6072631120637992,
                -0.1618900260169076,
                0.16733161348775344
            ]
        },
        {
            "positions": [
                0.1923942282929767,
                -1.380816069211679,
                1.178990144489125,
                1.724145114408873,
                -0.1097027340510639,
                0.1571579779426655
            ]
        },
        {
            "positions": [
                0.102851074657334,
                -1.385690228927531,
                1.28965474156792,
                1.841027116753947,
                -0.05751544208522068,
                0.14698434239757757
            ]
        },
        {
            "positions": [
                0.07266095649720863,
                -1.3008768600785698,
                1.4641207224171593,
                1.9053104637520517,
                -0.026267956991670994,
                0.14984613887045403
            ]
        },
        {
            "positions": [
                0.042470838337083275,
                -1.2160634912296089,
                1.6385867032663983,
                1.9695938107501565,
                0.00497952810187869,
                0.1527079353433305
            ]
        },
        {
            "positions": [
                0.012280720176957916,
                -1.131250122380648,
                1.8130526841156374,
                2.033877157748261,
                0.03622701319542837,
                0.15556973181620698
            ]
        },
        {
            "positions": [
                -0.017909397983167444,
                -1.0464367535316867,
                1.9875186649648766,
                2.098160504746366,
                0.06747449828897806,
                0.15843152828908344
            ]
        },
        {
            "positions": [
                0.029203156381643135,
                -0.9577331389679336,
                1.9913263298621788,
                2.0479731406283035,
                0.0032986664044101777,
                0.09786224002676638
            ]
        },
        {
            "positions": [
                0.07631571074645371,
                -0.8690295244041804,
                1.9951339947594813,
                1.9977857765102407,
                -0.0608771654801577,
                0.037292951764449314
            ]
        },
        {
            "positions": [
                0.12342826511126431,
                -0.7803259098404272,
                1.9989416596567835,
                1.9475984123921781,
                -0.1250529973647256,
                -0.023276336497867763
            ]
        }
    ]
}{
    "goal": {
        "global_pose": {
            "orientation": {
                "w": 0.7047431468963623,
                "x": -0.7094548344612122,
                "y": 0.0024358443915843964,
                "z": -0.0022348060738295317
            },
            "position": {
                "x": 0.6094750761985779,
                "y": 0.3671506643295288,
                "z": 0.19426114857196808
            }
        },
        "name": "move_to_magneteinheit_A"
    },
    "id": "RRT_move_to_magneteinheit_A_84",
    "joint_names": [
        "shoulder_pan_joint",
        "shoulder_lift_joint",
        "elbow_joint",
        "wrist_1_joint",
        "wrist_2_joint",
        "wrist_3_joint"
    ],
    "metrics": {
        "cart_traj_len": 1.836956078538127,
        "distance_elbow_joint": 1.8922489400871472,
        "distance_shoulder_lift_joint": 0.7561857586020295,
        "distance_shoulder_pan_joint": 1.2416620402258376,
        "distance_wrist_1_joint": 1.1052370022795106,
        "distance_wrist_2_joint": 1.4497240542256096,
        "distance_wrist_3_joint": 4.293086287711473,
        "smoothness": 0.2081990112080808,
        "time": 0.548944382,
        "traj_len": 3.2769107530006987,
        "weighted_distance": 4.677529018088468
    },
    "planner": "RRT",
    "start": {
        "state": {
            "elbow_joint": 1.919643534880228,
            "shoulder_lift_joint": -1.8972525353963687,
            "shoulder_pan_joint": -1.1188672234189438,
            "wrist_1_joint": -1.5931878212786155,
            "wrist_2_joint": 1.5706036197970081,
            "wrist_3_joint": 1.118896926603594
        }
    },
    "waypoints": [
        {
            "positions": [
                -1.1188672234189438,
                -1.8972525353963687,
                1.919643534880228,
                -1.5931878212786155,
                1.5706036197970081,
                1.118896926603594
            ]
        },
        {
            "positions": [
                -1.092809691219083,
                -1.8944140813181998,
                1.8621814454482246,
                -1.5336990595541231,
                1.4899919206935186,
                0.9668345927684223
            ]
        },
        {
            "positions": [
                -1.0667521590192224,
                -1.8915756272400306,
                1.8047193560162214,
                -1.474210297829631,
                1.4093802215900293,
                0.8147722589332507
            ]
        },
        {
            "positions": [
                -1.0406946268193615,
                -1.8887371731618616,
                1.7472572665842179,
                -1.4147215361051386,
                1.32876852248654,
                0.662709925098079
            ]
        },
        {
            "positions": [
                -1.0146370946195007,
                -1.8858987190836927,
                1.6897951771522144,
                -1.3552327743806465,
                1.2481568233830505,
                0.5106475912629074
            ]
        },
        {
            "positions": [
                -0.9885795624196398,
                -1.8830602650055235,
                1.632333087720211,
                -1.2957440126561541,
                1.167545124279561,
                0.3585852574277357
            ]
        },
        {
            "positions": [
                -0.9625220302197791,
                -1.8802218109273545,
                1.5748709982882074,
                -1.236255250931662,
                1.0869334251760716,
                0.20652292359256408
            ]
        },
        {
            "positions": [
                -0.9364644980199184,
                -1.8773833568491856,
                1.5174089088562042,
                -1.1767664892071696,
                1.0063217260725823,
                0.05446058975739243
            ]
        },
        {
            "positions": [
                -0.9104069658200575,
                -1.8745449027710164,
                1.4599468194242007,
                -1.1172777274826773,
                0.9257100269690928,
                -0.09760174407777922
            ]
        },
        {
            "positions": [
                -0.8843494336201967,
                -1.8717064486928474,
                1.4024847299921972,
                -1.0577889657581852,
                0.8450983278656033,
                -0.24966407791295087
            ]
        },
        {
            "positions": [
                -0.858291901420336,
                -1.8688679946146785,
                1.345022640560194,
                -0.9983002040336929,
                0.7644866287621139,
                -0.4017264117481225
            ]
        },
        {
            "positions": [
                -0.8322343692204752,
                -1.8660295405365095,
                1.2875605511281905,
                -0.9388114423092007,
                0.6838749296586245,
                -0.5537887455832942
            ]
        },
        {
            "positions": [
                -0.8061768370206144,
                -1.8631910864583403,
                1.230098461696187,
                -0.8793226805847083,
                0.6032632305551351,
                -0.7058510794184658
            ]
        },
        {
            "positions": [
                -0.7801193048207535,
                -1.8603526323801713,
                1.1726363722641835,
                -0.8198339188602161,
                0.5226515314516456,
                -0.8579134132536375
            ]
        },
        {
            "positions": [
                -0.7540617726208928,
                -1.8575141783020024,
                1.11517428283218,
                -0.7603451571357238,
                0.44203983234815625,
                -1.009975747088809
            ]
        },
        {
            "positions": [
                -0.7280042404210321,
                -1.8546757242238332,
                1.0577121934001767,
                -0.7008563954112316,
                0.36142813324466694,
                -1.1620380809239805
            ]
        },
        {
            "positions": [
                -0.7019467082211712,
                -1.8518372701456642,
                1.0002501039681733,
                -0.6413676336867393,
                0.2808164341411773,
                -1.3141004147591526
            ]
        },
        {
            "positions": [
                -0.6332182478021658,
                -1.7926063956997205,
                1.081321396399431,
                -0.6541523682440422,
                0.26748836176036234,
                -1.4691078269548798
            ]
        },
        {
            "positions": [
                -0.5644897873831605,
                -1.7333755212537767,
                1.1623926888306886,
                -0.6669371028013451,
                0.2541602893795474,
                -1.624115239150607
            ]
        },
        {
            "positions": [
                -0.495761326964155,
                -1.674144646807833,
                1.2434639812619463,
                -0.6797218373586479,
                0.24083221699873242,
                -1.7791226513463343
            ]
        },
        {
            "positions": [
                -0.4270328665451496,
                -1.6149137723618892,
                1.3245352736932041,
                -0.6925065719159508,
                0.22750414461791746,
                -1.9341300635420613
            ]
        },
        {
            "positions": [
                -0.3583044061261441,
                -1.5556828979159454,
                1.4056065661244617,
                -0.7052913064732537,
                0.2141760722371025,
                -2.0891374757377887
            ]
        },
        {
            "positions": [
                -0.28957594570713874,
                -1.4964520234700016,
                1.4866778585557194,
                -0.7180760410305564,
                0.20084799985628754,
                -2.2441448879335155
            ]
        },
        {
            "positions": [
                -0.2208474852881333,
                -1.437221149024058,
                1.5677491509869772,
                -0.7308607755878593,
                0.18751992747547258,
                -2.399152300129243
            ]
        },
        {
            "positions": [
                -0.15211902486912798,
                -1.3779902745781143,
                1.6488204434182347,
                -0.7436455101451622,
                0.17419185509465762,
                -2.55415971232497
            ]
        },
        {
            "positions": [
                -0.0833905644501225,
                -1.3187594001321705,
                1.7298917358494925,
                -0.7564302447024651,
                0.16086378271384266,
                -2.709167124520697
            ]
        },
        {
            "positions": [
                -0.014662104031117007,
                -1.2595285256862265,
                1.8109630282807503,
                -0.769214979259768,
                0.1475357103330277,
                -2.8641745367164244
            ]
        },
        {
            "positions": [
                0.05406635638788826,
                -1.200297651240283,
                1.8920343207120078,
                -0.7819997138170708,
                0.13420763795221274,
                -3.0191819489121516
            ]
        },
        {
            "positions": [
                0.12279481680689375,
                -1.1410667767943392,
                1.9731056131432656,
                -0.7947844483743737,
                0.12087956557139778,
                -3.174189361107879
            ]
        }
    ]
}