{
    "goal": {
        "global_pose": {
            "orientation": {
                "w": 0.7047431468963623,
                "x": -0.7094548344612122,
                "y": 0.0024358443915843964,
                "z": -0.0022348060738295317
            },
            "position": {
                "x": 0.6094750761985779,
                "y": 0.3671506643295288,
                "z": 0.19426114857196808
            }
        },
        "name": "move_to_magneteinheit_A"
    },
    "id": "RRT_move_to_magneteinheit_A_54",
    "joint_names": [
        "shoulder_pan_joint",
        "shoulder_lift_joint",
        "elbow_joint",
        "wrist_1_joint",
        "wrist_2_joint",
        "wrist_3_joint"
    ],
    "metrics": {
        "cart_traj_len": 3.7295704402796273,
        "distance_elbow_joint": 3.919301176614999,
        "distance_shoulder_lift_joint": 1.4245344438762721,
        "distance_shoulder_pan_joint": 2.8187907247602864,
        "distance_wrist_1_joint": 6.6498580373072365,
        "distance_wrist_2_joint": 2.105760915131823,
        "distance_wrist_3_joint": 6.357650510572532,
        "smoothness": 0.3645368976302155,
        "time": 0.129159142,
        "traj_len": 4.824509903426787,
        "weighted_distance": 6.689306076256885
    },
    "planner": "RRT",
    "start": {
        "state": {
            "elbow_joint": -1.919618573717145,
            "shoulder_lift_joint": -1.2443395971678275,
            "shoulder_pan_joint": 2.6996025300909787,
            "wrist_1_joint": -1.548550951253194,
            "wrist_2_joint": -1.5709469090946802,
            "wrist_3_joint": 0.4420197732051276
        }
    },
    "waypoints": [
        {
            "positions": [
                2.6996025300909787,
                -1.2443395971678275,
                -1.919618573717145,
                -1.548550951253194,
                -1.5709469090946802,
                0.4420197732051276
            ]
        },
        {
            "positions": [
                2.603049188398207,
                -1.2050001681061353,
                -1.8573855158927093,
                -1.6142268283339551,
                -1.5744891152767395,
                0.5641269902307916
            ]
        },
        {
            "positions": [
                2.5064958467054357,
                -1.1656607390444433,
                -1.7951524580682734,
                -1.6799027054147162,
                -1.5780313214587987,
                0.6862342072564556
            ]
        },
        {
            "positions": [
                2.4099425050126646,
                -1.1263213099827512,
                -1.7329194002438377,
                -1.7455785824954773,
                -1.581573527640858,
                0.8083414242821195
            ]
        },
        {
            "positions": [
                2.313389163319893,
                -1.086981880921059,
                -1.670686342419402,
                -1.8112544595762383,
                -1.5851157338229174,
                0.9304486413077835
            ]
        },
        {
            "positions": [
                2.2168358216271216,
                -1.0476424518593668,
                -1.6084532845949662,
                -1.8769303366569996,
                -1.5886579400049765,
                1.0525558583334476
            ]
        },
        {
            "positions": [
                2.12028247993435,
                -1.0083030227976748,
                -1.5462202267705305,
                -1.9426062137377607,
                -1.5922001461870359,
                1.1746630753591114
            ]
        },
        {
            "positions": [
                2.0237291382415785,
                -0.9689635937359826,
                -1.4839871689460946,
                -2.008282090818522,
                -1.5957423523690952,
                1.2967702923847755
            ]
        },
        {
            "positions": [
                1.9271757965488072,
                -0.9296241646742905,
                -1.421754111121659,
                -2.0739579678992826,
                -1.5992845585511544,
                1.4188775094104393
            ]
        },
        {
            "positions": [
                1.8306224548560357,
                -0.8902847356125984,
                -1.359521053297223,
                -2.139633844980044,
                -1.6028267647332137,
                1.5409847264361034
            ]
        },
        {
            "positions": [
                1.7340691131632642,
                -0.8509453065509063,
                -1.2972879954727874,
                -2.205309722060805,
                -1.606368970915273,
                1.6630919434617675
            ]
        },
        {
            "positions": [
                1.6375157714704929,
                -0.8116058774892141,
                -1.2350549376483517,
                -2.270985599141566,
                -1.6099111770973322,
                1.7851991604874313
            ]
        },
        {
            "positions": [
                1.5409624297777214,
                -0.772266448427522,
                -1.1728218798239158,
                -2.3366614762223272,
                -1.6134533832793916,
                1.9073063775130954
            ]
        },
        {
            "positions": [
                1.44440908808495,
                -0.7329270193658299,
                -1.1105888219994804,
                -2.4023373533030883,
                -1.616995589461451,
                2.029413594538759
            ]
        },
        {
            "positions": [
                1.3478557463921783,
                -0.6935875903041377,
                -1.0483557641750445,
                -2.4680132303838493,
                -1.62053779564351,
                2.1515208115644233
            ]
        },
        {
            "positions": [
                1.251302404699407,
                -0.6542481612424457,
                -0.9861227063506087,
                -2.5336891074646104,
                -1.6240800018255694,
                2.273628028590087
            ]
        },
        {
            "positions": [
                1.1547490630066357,
                -0.6149087321807536,
                -0.923889648526173,
                -2.5993649845453715,
                -1.6276222080076288,
                2.395735245615751
            ]
        },
        {
            "positions": [
                1.058195721313864,
                -0.5755693031190614,
                -0.8616565907017371,
                -2.6650408616261325,
                -1.631164414189688,
                2.5178424626414153
            ]
        },
        {
            "positions": [
                0.9616423796210927,
                -0.5362298740573692,
                -0.7994235328773014,
                -2.730716738706894,
                -1.6347066203717473,
                2.639949679667079
            ]
        },
        {
            "positions": [
                0.8650890379283214,
                -0.49689044499567714,
                -0.7371904750528657,
                -2.7963926157876546,
                -1.6382488265538067,
                2.762056896692743
            ]
        },
        {
            "positions": [
                0.7685356962355496,
                -0.45755101593398495,
                -0.6749574172284298,
                -2.862068492868416,
                -1.6417910327358658,
                2.8841641137184073
            ]
        },
        {
            "positions": [
                0.6719823545427781,
                -0.4182115868722929,
                -0.6127243594039942,
                -2.927744369949177,
                -1.6453332389179252,
                3.006271330744071
            ]
        },
        {
            "positions": [
                0.575429012850007,
                -0.3788721578106008,
                -0.5504913015795585,
                -2.9934202470299383,
                -1.6488754450999845,
                3.128378547769735
            ]
        },
        {
            "positions": [
                0.4788756711572355,
                -0.3395327287489086,
                -0.4882582437551226,
                -3.0590961241106993,
                -1.6524176512820437,
                3.2504857647953993
            ]
        },
        {
            "positions": [
                0.382322329464464,
                -0.30019329968721653,
                -0.42602518593068694,
                -3.1247720011914604,
                -1.655959857464103,
                3.372592981821063
            ]
        },
        {
            "positions": [
                0.3711295803318414,
                -0.3132696277831048,
                -0.36529662365917703,
                -2.975781152221789,
                -1.603730513658364,
                3.2720870320436966
            ]
        },
        {
            "positions": [
                0.3599368311992189,
                -0.3263459558789931,
                -0.3045680613876672,
                -2.826790303252117,
                -1.5515011698526249,
                3.1715810822663295
            ]
        },
        {
            "positions": [
                0.3487440820665963,
                -0.3394222839748814,
                -0.24383949911615727,
                -2.6777994542824457,
                -1.4992718260468858,
                3.0710751324889625
            ]
        },
        {
            "positions": [
                0.33755133293397377,
                -0.35249861207076966,
                -0.1831109368446474,
                -2.5288086053127743,
                -1.447042482241147,
                2.970569182711596
            ]
        },
        {
            "positions": [
                0.3263585838013512,
                -0.3655749401666579,
                -0.1223823745731375,
                -2.379817756343103,
                -1.3948131384354079,
                2.8700632329342293
            ]
        },
        {
            "positions": [
                0.3151658346687286,
                -0.37865126826254625,
                -0.061653812301627586,
                -2.230826907373431,
                -1.3425837946296688,
                2.7695572831568622
            ]
        },
        {
            "positions": [
                0.3039730855361061,
                -0.3917275963584345,
                -0.0009252500301177857,
                -2.0818360584037596,
                -1.2903544508239297,
                2.6690513333794956
            ]
        },
        {
            "positions": [
                0.2927803364034835,
                -0.4048039244543228,
                0.059803312241392126,
                -1.932845209434088,
                -1.238125107018191,
                2.5685453836021286
            ]
        },
        {
            "positions": [
                0.281587587270861,
                -0.4178802525502111,
                0.12053187451290204,
                -1.7838543604644166,
                -1.1858957632124518,
                2.468039433824762
            ]
        },
        {
            "positions": [
                0.2703948381382384,
                -0.4309565806460994,
                0.18126043678441195,
                -1.634863511494745,
                -1.1336664194067128,
                2.367533484047395
            ]
        },
        {
            "positions": [
                0.2592020890056158,
                -0.44403290874198764,
                0.24198899905592186,
                -1.4858726625250733,
                -1.0814370756009737,
                2.267027534270028
            ]
        },
        {
            "positions": [
                0.24800933987299328,
                -0.45710923683787597,
                0.30271756132743177,
                -1.3368818135554017,
                -1.0292077317952346,
                2.1665215844926613
            ]
        },
        {
            "positions": [
                0.23681659074037073,
                -0.4701855649337642,
                0.36344612359894146,
                -1.1878909645857305,
                -0.9769783879894957,
                2.0660156347152947
            ]
        },
        {
            "positions": [
                0.22562384160774818,
                -0.4832618930296525,
                0.4241746858704514,
                -1.0389001156160589,
                -0.9247490441837566,
                1.9655096849379279
            ]
        },
        {
            "positions": [
                0.21443109247512562,
                -0.4963382211255408,
                0.4849032481419613,
                -0.8899092666463875,
                -0.8725197003780176,
                1.865003735160561
            ]
        },
        {
            "positions": [
                0.20323834334250304,
                -0.509414549221429,
                0.5456318104134712,
                -0.7409184176767156,
                -0.8202903565722786,
                1.7644977853831942
            ]
        },
        {
            "positions": [
                0.1920455942098805,
                -0.5224908773173174,
                0.6063603726849811,
                -0.5919275687070442,
                -0.7680610127665395,
                1.6639918356058274
            ]
        },
        {
            "positions": [
                0.18085284507725793,
                -0.5355672054132057,
                0.667088934956491,
                -0.4429367197373728,
                -0.7158316689608004,
                1.5634858858284606
            ]
        },
        {
            "positions": [
                0.16966009594463535,
                -0.5486435335090939,
                0.7278174972280009,
                -0.29394587076770096,
                -0.6636023251550613,
                1.4629799360510938
            ]
        },
        {
            "positions": [
                0.1584673468120128,
                -0.5617198616049822,
                0.7885460594995108,
                -0.14495502179802955,
                -0.6113729813493223,
                1.3624739862737267
            ]
        },
        {
            "positions": [
                0.14727459767939025,
                -0.5747961897008704,
                0.8492746217710208,
                0.004035827171641859,
                -0.5591436375435832,
                1.2619680364963601
            ]
        },
        {
            "positions": [
                0.1360818485467677,
                -0.5878725177967588,
                0.9100031840425307,
                0.1530266761413137,
                -0.5069142937378444,
                1.161462086718993
            ]
        },
        {
            "positions": [
                0.12488909941414511,
                -0.6009488458926471,
                0.9707317463140406,
                0.3020175251109851,
                -0.4546849499321053,
                1.0609561369416265
            ]
        },
        {
            "positions": [
                0.11369635028152258,
                -0.6140251739885354,
                1.0314603085855505,
                0.45100837408065697,
                -0.4024556061263662,
                0.9604501871642595
            ]
        },
        {
            "positions": [
                0.1025036011489,
                -0.6271015020844237,
                1.0921888708570604,
                0.5999992230503284,
                -0.35022626232062715,
                0.8599442373868929
            ]
        },
        {
            "positions": [
                0.09131085201627748,
                -0.6401778301803118,
                1.1529174331285699,
                0.7489900720199993,
                -0.2979969185148883,
                0.7594382876095263
            ]
        },
        {
            "positions": [
                0.0801181028836549,
                -0.6532541582762001,
                1.2136459954000798,
                0.8979809209896708,
                -0.24576757470914923,
                0.6589323378321597
            ]
        },
        {
            "positions": [
                0.06892535375103237,
                -0.6663304863720885,
                1.2743745576715897,
                1.0469717699593426,
                -0.19353823090341016,
                0.5584263880547926
            ]
        },
        {
            "positions": [
                0.05773260461840979,
                -0.6794068144679768,
                1.3351031199430996,
                1.1959626189290145,
                -0.1413088870976711,
                0.457920438277426
            ]
        },
        {
            "positions": [
                0.04653985548578726,
                -0.6924831425638651,
                1.3958316822146095,
                1.3449534678986854,
                -0.08907954329193224,
                0.35741448850005897
            ]
        },
        {
            "positions": [
                0.03534710635316468,
                -0.7055594706597533,
                1.4565602444861194,
                1.4939443168683573,
                -0.03685019948619317,
                0.25690853872269237
            ]
        },
        {
            "positions": [
                0.0241543572205421,
                -0.7186357987556415,
                1.5172888067576293,
                1.6429351658380291,
                0.015379144319545901,
                0.15640258894532533
            ]
        },
        {
            "positions": [
                0.012961608087919574,
                -0.7317121268515299,
                1.5780173690291392,
                1.7919260148077,
                0.06760848812528497,
                0.05589663916795873
            ]
        },
        {
            "positions": [
                0.0017688589552969716,
                -0.7447884549474182,
                1.6387459313006492,
                1.9409168637773724,
                0.11983783193102412,
                -0.04460931060940854
            ]
        },
        {
            "positions": [
                0.06224738576760081,
                -0.7626849505151478,
                1.8192142670992517,
                1.9448909249774404,
                -0.002637306752612409,
                -0.03967180584634657
            ]
        },
        {
            "positions": [
                0.12272591257990464,
                -0.7805814460828774,
                1.9996826028978543,
                1.9488649861775087,
                -0.12511244543624894,
                -0.03473430108328459
            ]
        }
    ]
}{
    "goal": {
        "global_pose": {
            "orientation": {
                "w": 0.7047431468963623,
                "x": -0.7094548344612122,
                "y": 0.0024358443915843964,
                "z": -0.0022348060738295317
            },
            "position": {
                "x": 0.6094750761985779,
                "y": 0.3671506643295288,
                "z": 0.19426114857196808
            }
        },
        "name": "move_to_magneteinheit_A"
    },
    "id": "RRT_move_to_magneteinheit_A_54",
    "joint_names": [
        "shoulder_pan_joint",
        "shoulder_lift_joint",
        "elbow_joint",
        "wrist_1_joint",
        "wrist_2_joint",
        "wrist_3_joint"
    ],
    "metrics": {
        "cart_traj_len": 1.5520174481614994,
        "distance_elbow_joint": 1.8177478288147855,
        "distance_shoulder_lift_joint": 0.7529179859773547,
        "distance_shoulder_pan_joint": 1.2421338515456226,
        "distance_wrist_1_joint": 0.7690582642619943,
        "distance_wrist_2_joint": 3.2501995882027668,
        "distance_wrist_3_joint": 4.268491727065049,
        "smoothness": 0.34049914937677,
        "time": 0.060140715,
        "traj_len": 3.4785843738319153,
        "weighted_distance": 4.965560446964918
    },
    "planner": "RRT",
    "start": {
        "state": {
            "elbow_joint": 1.919643534880228,
            "shoulder_lift_joint": -1.8972525353963687,
            "shoulder_pan_joint": -1.1188672234189438,
            "wrist_1_joint": -1.5931878212786155,
            "wrist_2_joint": 1.5706036197970081,
            "wrist_3_joint": 1.118896926603594
        }
    },
    "waypoints": [
        {
            "positions": [
                -1.1188672234189438,
                -1.8972525353963687,
                1.919643534880228,
                -1.5931878212786155,
                1.5706036197970081,
                1.118896926603594
            ]
        },
        {
            "positions": [
                -1.098787703801369,
                -1.8623780105830237,
                1.8778139729518384,
                -1.574990260866211,
                1.4587628777181487,
                0.9593201893358487
            ]
        },
        {
            "positions": [
                -1.0787081841837942,
                -1.8275034857696788,
                1.8359844110234484,
                -1.5567927004538062,
                1.3469221356392893,
                0.7997434520681034
            ]
        },
        {
            "positions": [
                -1.0586286645662193,
                -1.7926289609563337,
                1.7941548490950587,
                -1.5385951400414017,
                1.23508139356043,
                0.640166714800358
            ]
        },
        {
            "positions": [
                -1.0385491449486446,
                -1.7577544361429887,
                1.7523252871666688,
                -1.5203975796289972,
                1.1232406514815705,
                0.4805899775326128
            ]
        },
        {
            "positions": [
                -1.0184696253310697,
                -1.7228799113296438,
                1.710495725238279,
                -1.5022000192165925,
                1.011399909402711,
                0.32101324026486744
            ]
        },
        {
            "positions": [
                -0.9983901057134948,
                -1.6880053865162987,
                1.6686661633098891,
                -1.484002458804188,
                0.8995591673238517,
                0.1614365029971221
            ]
        },
        {
            "positions": [
                -0.97831058609592,
                -1.6531308617029536,
                1.6268366013814994,
                -1.4658048983917835,
                0.7877184252449922,
                0.00185976572937685
            ]
        },
        {
            "positions": [
                -0.9582310664783451,
                -1.6182563368896088,
                1.5850070394531095,
                -1.4476073379793788,
                0.6758776831661328,
                -0.1577169715383684
            ]
        },
        {
            "positions": [
                -0.9381515468607703,
                -1.5833818120762637,
                1.5431774775247198,
                -1.4294097775669743,
                0.5640369410872734,
                -0.31729370880611385
            ]
        },
        {
            "positions": [
                -0.9180720272431955,
                -1.5485072872629186,
                1.5013479155963299,
                -1.4112122171545698,
                0.452196199008414,
                -0.4768704460738591
            ]
        },
        {
            "positions": [
                -0.8979925076256206,
                -1.5136327624495736,
                1.4595183536679401,
                -1.393014656742165,
                0.3403554569295544,
                -0.6364471833416045
            ]
        },
        {
            "positions": [
                -0.8779129880080457,
                -1.4787582376362287,
                1.4176887917395504,
                -1.3748170963297606,
                0.2285147148506952,
                -0.7960239206093498
            ]
        },
        {
            "positions": [
                -0.8578334683904709,
                -1.4438837128228836,
                1.3758592298111605,
                -1.356619535917356,
                0.11667397277183555,
                -0.9556006578770952
            ]
        },
        {
            "positions": [
                -0.8377539487728961,
                -1.4090091880095388,
                1.3340296678827706,
                -1.3384219755049513,
                0.004833230692976365,
                -1.1151773951448403
            ]
        },
        {
            "positions": [
                -0.8176744291553213,
                -1.3741346631961937,
                1.2922001059543808,
                -1.3202244150925468,
                -0.10700751138588327,
                -1.2747541324125857
            ]
        },
        {
            "positions": [
                -0.7975949095377464,
                -1.3392601383828486,
                1.2503705440259911,
                -1.3020268546801423,
                -0.21884825346474246,
                -1.4343308696803307
            ]
        },
        {
            "positions": [
                -0.7775153899201716,
                -1.3043856135695036,
                1.2085409820976012,
                -1.2838292942677376,
                -0.3306889955436021,
                -1.5939076069480762
            ]
        },
        {
            "positions": [
                -0.7574358703025967,
                -1.2695110887561587,
                1.1667114201692113,
                -1.2656317338553331,
                -0.4425297376224613,
                -1.7534843442158217
            ]
        },
        {
            "positions": [
                -0.7373563506850218,
                -1.2346365639428138,
                1.1248818582408215,
                -1.2474341734429286,
                -0.5543704797013209,
                -1.9130610814835671
            ]
        },
        {
            "positions": [
                -0.7172768310674471,
                -1.1997620391294688,
                1.0830522963124318,
                -1.229236613030524,
                -0.6662112217801801,
                -2.0726378187513124
            ]
        },
        {
            "positions": [
                -0.6971973114498722,
                -1.1648875143161237,
                1.041222734384042,
                -1.2110390526181194,
                -0.7780519638590396,
                -2.232214556019058
            ]
        },
        {
            "positions": [
                -0.6226096805792767,
                -1.163019062961841,
                1.1266161005948236,
                -1.1758654621088922,
                -0.6960934179911561,
                -2.3156127600592757
            ]
        },
        {
            "positions": [
                -0.5480220497086811,
                -1.1611506116075583,
                1.2120094668056054,
                -1.1406918715996652,
                -0.6141348721232724,
                -2.3990109640994937
            ]
        },
        {
            "positions": [
                -0.47343441883808557,
                -1.1592821602532757,
                1.2974028330163871,
                -1.105518281090438,
                -0.5321763262553889,
                -2.4824091681397116
            ]
        },
        {
            "positions": [
                -0.39884678796748996,
                -1.1574137088989929,
                1.382796199227169,
                -1.0703446905812108,
                -0.4502177803875054,
                -2.5658073721799295
            ]
        },
        {
            "positions": [
                -0.32425915709689446,
                -1.1555452575447103,
                1.4681895654379506,
                -1.0351711000719839,
                -0.36825923451962184,
                -2.6492055762201474
            ]
        },
        {
            "positions": [
                -0.2496715262262989,
                -1.1536768061904275,
                1.5535829316487324,
                -0.9999975095627567,
                -0.2863006886517383,
                -2.732603780260365
            ]
        },
        {
            "positions": [
                -0.17508389535570335,
                -1.1518083548361449,
                1.6389762978595142,
                -0.9648239190535296,
                -0.20434214278385476,
                -2.816001984300583
            ]
        },
        {
            "positions": [
                -0.10049626448510773,
                -1.149939903481862,
                1.724369664070296,
                -0.9296503285443025,
                -0.12238359691597112,
                -2.8994001883408007
            ]
        },
        {
            "positions": [
                -0.025908633614512233,
                -1.1480714521275794,
                1.8097630302810777,
                -0.8944767380350753,
                -0.04042505104808758,
                -2.9827983923810186
            ]
        },
        {
            "positions": [
                0.04867899725608327,
                -1.1462030007732966,
                1.8951563964918594,
                -0.8593031475258484,
                0.04153349481979596,
                -3.0661965964212365
            ]
        },
        {
            "positions": [
                0.12326662812667892,
                -1.144334549419014,
                1.9805497627026412,
                -0.8241295570166212,
                0.12349204068767952,
                -3.1495948004614545
            ]
        }
    ]
}