{
    "goal": {
        "global_pose": {
            "orientation": {
                "w": 0.7047431468963623,
                "x": -0.7094548344612122,
                "y": 0.0024358443915843964,
                "z": -0.0022348060738295317
            },
            "position": {
                "x": 0.6094750761985779,
                "y": 0.3671506643295288,
                "z": 0.19426114857196808
            }
        },
        "name": "move_to_magneteinheit_A"
    },
    "id": "RRT_move_to_magneteinheit_A_102",
    "joint_names": [
        "shoulder_pan_joint",
        "shoulder_lift_joint",
        "elbow_joint",
        "wrist_1_joint",
        "wrist_2_joint",
        "wrist_3_joint"
    ],
    "metrics": {
        "cart_traj_len": 3.51512527671387,
        "distance_elbow_joint": 3.933705855562604,
        "distance_shoulder_lift_joint": 0.6365426589117326,
        "distance_shoulder_pan_joint": 3.3460400475045446,
        "distance_wrist_1_joint": 3.542542452407922,
        "distance_wrist_2_joint": 1.438871076472138,
        "distance_wrist_3_joint": 0.5134949843107259,
        "smoothness": 0.12553139502111588,
        "time": 0.105915238,
        "traj_len": 3.6621301281043612,
        "weighted_distance": 4.406767587775781
    },
    "planner": "RRT",
    "start": {
        "state": {
            "elbow_joint": -1.919618573717145,
            "shoulder_lift_joint": -1.2443395971678275,
            "shoulder_pan_joint": 2.6996025300909787,
            "wrist_1_joint": -1.548550951253194,
            "wrist_2_joint": -1.5709469090946802,
            "wrist_3_joint": 0.4420197732051276
        }
    },
    "waypoints": [
        {
            "positions": [
                2.6996025300909787,
                -1.2443395971678275,
                -1.919618573717145,
                -1.548550951253194,
                -1.5709469090946802,
                0.4420197732051276
            ]
        },
        {
            "positions": [
                2.5857067829406755,
                -1.223265608351824,
                -1.8418817898225917,
                -1.445757031315415,
                -1.5193825755597854,
                0.42399170675954767
            ]
        },
        {
            "positions": [
                2.471811035790372,
                -1.2021916195358204,
                -1.7641450059280386,
                -1.3429631113776361,
                -1.4678182420248906,
                0.4059636403139678
            ]
        },
        {
            "positions": [
                2.357915288640069,
                -1.181117630719817,
                -1.6864082220334853,
                -1.2401691914398572,
                -1.416253908489996,
                0.38793557386838795
            ]
        },
        {
            "positions": [
                2.2440195414897657,
                -1.1600436419038136,
                -1.608671438138932,
                -1.137375271502078,
                -1.3646895749551013,
                0.36990750742280804
            ]
        },
        {
            "positions": [
                2.1301237943394624,
                -1.13896965308781,
                -1.530934654244379,
                -1.034581351564299,
                -1.3131252414202066,
                0.3518794409772281
            ]
        },
        {
            "positions": [
                2.016228047189159,
                -1.1178956642718065,
                -1.4531978703498256,
                -0.93178743162652,
                -1.261560907885312,
                0.33385137453164826
            ]
        },
        {
            "positions": [
                1.902332300038856,
                -1.0968216754558031,
                -1.3754610864552725,
                -0.828993511688741,
                -1.2099965743504173,
                0.3158233080860684
            ]
        },
        {
            "positions": [
                1.7884365528885524,
                -1.0757476866397995,
                -1.2977243025607192,
                -0.7261995917509619,
                -1.1584322408155225,
                0.2977952416404885
            ]
        },
        {
            "positions": [
                1.6745408057382491,
                -1.054673697823796,
                -1.2199875186661662,
                -0.623405671813183,
                -1.1068679072806278,
                0.2797671751949086
            ]
        },
        {
            "positions": [
                1.5606450585879459,
                -1.0335997090077926,
                -1.1422507347716127,
                -0.5206117518754039,
                -1.055303573745733,
                0.2617391087493287
            ]
        },
        {
            "positions": [
                1.4467493114376426,
                -1.012525720191789,
                -1.0645139508770596,
                -0.4178178319376249,
                -1.0037392402108385,
                0.24371104230374885
            ]
        },
        {
            "positions": [
                1.3328535642873394,
                -0.9914517313757856,
                -0.9867771669825064,
                -0.3150239119998459,
                -0.9521749066759437,
                0.22568297585816893
            ]
        },
        {
            "positions": [
                1.218957817137036,
                -0.970377742559782,
                -0.9090403830879532,
                -0.21222999206206694,
                -0.9006105731410491,
                0.20765490941258907
            ]
        },
        {
            "positions": [
                1.1050620699867328,
                -0.9493037537437785,
                -0.8313035991934001,
                -0.10943607212428796,
                -0.8490462396061544,
                0.1896268429670092
            ]
        },
        {
            "positions": [
                0.9911663228364298,
                -0.9282297649277751,
                -0.7535668152988468,
                -0.006642152186508987,
                -0.7974819060712598,
                0.17159877652142935
            ]
        },
        {
            "positions": [
                0.8772705756861261,
                -0.9071557761117716,
                -0.6758300314042935,
                0.09615176775127021,
                -0.7459175725363649,
                0.15357071007584938
            ]
        },
        {
            "positions": [
                0.7633748285358231,
                -0.886081787295768,
                -0.5980932475097402,
                0.1989456876890492,
                -0.6943532390014703,
                0.13554264363026952
            ]
        },
        {
            "positions": [
                0.6494790813855196,
                -0.8650077984797646,
                -0.5203564636151872,
                0.30173960762682817,
                -0.6427889054665756,
                0.11751457718468966
            ]
        },
        {
            "positions": [
                0.5355833342352168,
                -0.8439338096637611,
                -0.4426196797206341,
                0.4045335275646069,
                -0.591224571931681,
                0.0994865107391098
            ]
        },
        {
            "positions": [
                0.42168758708491305,
                -0.8228598208477576,
                -0.3648828958260806,
                0.5073274475023863,
                -0.5396602383967861,
                0.08145844429352983
            ]
        },
        {
            "positions": [
                0.3077918399346098,
                -0.8017858320317541,
                -0.2871461119315275,
                0.6101213674401653,
                -0.4880959048618916,
                0.06343037784794997
            ]
        },
        {
            "positions": [
                0.19389609278430653,
                -0.7807118432157506,
                -0.20940932803697443,
                0.7129152873779443,
                -0.4365315713269968,
                0.04540231140237011
            ]
        },
        {
            "positions": [
                0.08000034563400327,
                -0.7596378543997471,
                -0.13167254414242113,
                0.8157092073157233,
                -0.38496723779210207,
                0.02737424495679025
            ]
        },
        {
            "positions": [
                -0.033895401516299994,
                -0.7385638655837435,
                -0.05393576024786784,
                0.9185031272535022,
                -0.3334029042572073,
                0.009346178511210279
            ]
        },
        {
            "positions": [
                -0.14779114866660326,
                -0.7174898767677401,
                0.02380102364668546,
                1.0212970471912812,
                -0.2818385707223128,
                -0.008681887934369581
            ]
        },
        {
            "positions": [
                -0.2616868958169067,
                -0.6964158879517366,
                0.10153780754123876,
                1.1240909671290604,
                -0.23027423718741796,
                -0.02670995437994944
            ]
        },
        {
            "positions": [
                -0.21893682675061127,
                -0.706262437917919,
                0.31404330468615216,
                1.2207465820208012,
                -0.21936330334687626,
                -0.031683871793910426
            ]
        },
        {
            "positions": [
                -0.17618675768431585,
                -0.7161089878841014,
                0.5265488018310656,
                1.317402196912542,
                -0.20845236950633453,
                -0.03665778920787142
            ]
        },
        {
            "positions": [
                -0.13343668861802044,
                -0.7259555378502838,
                0.739054298975979,
                1.414057811804283,
                -0.19754143566579282,
                -0.0416317066218324
            ]
        },
        {
            "positions": [
                -0.090686619551725,
                -0.7358020878164662,
                0.9515597961208924,
                1.5107134266960238,
                -0.1866305018252511,
                -0.046605624035793394
            ]
        },
        {
            "positions": [
                -0.04793655048542958,
                -0.7456486377826487,
                1.1640652932658058,
                1.6073690415877646,
                -0.1757195679847094,
                -0.05157954144975438
            ]
        },
        {
            "positions": [
                -0.005186481419134192,
                -0.7554951877488311,
                1.3765707904107192,
                1.7040246564795054,
                -0.1648086341441677,
                -0.056553458863715364
            ]
        },
        {
            "positions": [
                0.03756358764716128,
                -0.7653417377150135,
                1.5890762875556326,
                1.8006802713712462,
                -0.15389770030362596,
                -0.061527376277676356
            ]
        },
        {
            "positions": [
                0.0803136567134567,
                -0.7751882876811959,
                1.801581784700546,
                1.897335886262987,
                -0.14298676646308422,
                -0.06650129369163735
            ]
        },
        {
            "positions": [
                0.12306372577975211,
                -0.7850348376473782,
                2.0140872818454594,
                1.993991501154728,
                -0.13207583262254252,
                -0.07147521110559833
            ]
        }
    ]
}{
    "goal": {
        "global_pose": {
            "orientation": {
                "w": 0.7047431468963623,
                "x": -0.7094548344612122,
                "y": 0.0024358443915843964,
                "z": -0.0022348060738295317
            },
            "position": {
                "x": 0.6094750761985779,
                "y": 0.3671506643295288,
                "z": 0.19426114857196808
            }
        },
        "name": "move_to_magneteinheit_A"
    },
    "id": "RRT_move_to_magneteinheit_A_102",
    "joint_names": [
        "shoulder_pan_joint",
        "shoulder_lift_joint",
        "elbow_joint",
        "wrist_1_joint",
        "wrist_2_joint",
        "wrist_3_joint"
    ],
    "metrics": {
        "cart_traj_len": 1.1979565754802242,
        "distance_elbow_joint": 0.06594624792755965,
        "distance_shoulder_lift_joint": 0.7505913222575809,
        "distance_shoulder_pan_joint": 1.2409057705122009,
        "distance_wrist_1_joint": 0.744116457430472,
        "distance_wrist_2_joint": 1.4441870666501042,
        "distance_wrist_3_joint": 2.041576059310933,
        "smoothness": 0.0,
        "time": 0.034643521999999996,
        "traj_len": 2.5074534739629466,
        "weighted_distance": 3.5438367014848877
    },
    "planner": "RRT",
    "start": {
        "state": {
            "elbow_joint": 1.919643534880228,
            "shoulder_lift_joint": -1.8972525353963687,
            "shoulder_pan_joint": -1.1188672234189438,
            "wrist_1_joint": -1.5931878212786155,
            "wrist_2_joint": 1.5706036197970081,
            "wrist_3_joint": 1.118896926603594
        }
    },
    "waypoints": [
        {
            "positions": [
                -1.1188672234189438,
                -1.8972525353963687,
                1.919643534880228,
                -1.5931878212786155,
                1.5706036197970081,
                1.118896926603594
            ]
        },
        {
            "positions": [
                -1.0413106127619314,
                -1.85034057775527,
                1.9237651753757006,
                -1.546680542689211,
                1.4803419281313765,
                1.2464954303105273
            ]
        },
        {
            "positions": [
                -0.9637540021049187,
                -1.8034286201141712,
                1.927886815871173,
                -1.5001732640998064,
                1.3900802364657452,
                1.3740939340174605
            ]
        },
        {
            "positions": [
                -0.8861973914479062,
                -1.7565166624730724,
                1.9320084563666455,
                -1.453665985510402,
                1.2998185448001136,
                1.5016924377243939
            ]
        },
        {
            "positions": [
                -0.8086407807908936,
                -1.7096047048319736,
                1.936130096862118,
                -1.4071587069209974,
                1.209556853134482,
                1.6292909414313272
            ]
        },
        {
            "positions": [
                -0.731084170133881,
                -1.6626927471908748,
                1.9402517373575905,
                -1.360651428331593,
                1.1192951614688504,
                1.7568894451382606
            ]
        },
        {
            "positions": [
                -0.6535275594768686,
                -1.6157807895497758,
                1.944373377853063,
                -1.3141441497421886,
                1.029033469803219,
                1.884487948845194
            ]
        },
        {
            "positions": [
                -0.575970948819856,
                -1.5688688319086772,
                1.9484950183485354,
                -1.2676368711527841,
                0.9387717781375875,
                2.0120864525521274
            ]
        },
        {
            "positions": [
                -0.4984143381628434,
                -1.5219568742675782,
                1.952616658844008,
                -1.2211295925633796,
                0.848510086471956,
                2.1396849562590603
            ]
        },
        {
            "positions": [
                -0.42085772750583084,
                -1.4750449166264796,
                1.9567382993394804,
                -1.174622313973975,
                0.7582483948063246,
                2.267283459965994
            ]
        },
        {
            "positions": [
                -0.34330111684881826,
                -1.4281329589853806,
                1.9608599398349529,
                -1.1281150353845706,
                0.667986703140693,
                2.394881963672927
            ]
        },
        {
            "positions": [
                -0.2657445061918058,
                -1.381221001344282,
                1.9649815803304254,
                -1.081607756795166,
                0.5777250114750615,
                2.5224804673798604
            ]
        },
        {
            "positions": [
                -0.1881878955347932,
                -1.334309043703183,
                1.9691032208258978,
                -1.0351004782057616,
                0.48746331980943003,
                2.650078971086794
            ]
        },
        {
            "positions": [
                -0.11063128487778062,
                -1.2873970860620843,
                1.9732248613213703,
                -0.988593199616357,
                0.39720162814379845,
                2.777677474793727
            ]
        },
        {
            "positions": [
                -0.03307467422076815,
                -1.2404851284209855,
                1.9773465018168428,
                -0.9420859210269525,
                0.30693993647816686,
                2.9052759785006605
            ]
        },
        {
            "positions": [
                0.04448193643624454,
                -1.1935731707798867,
                1.9814681423123153,
                -0.895578642437548,
                0.2166782448125355,
                3.0328744822075935
            ]
        },
        {
            "positions": [
                0.12203854709325693,
                -1.1466612131387879,
                1.9855897828077878,
                -0.8490713638481435,
                0.12641655314690387,
                3.160472985914527
            ]
        }
    ]
}