{
    "goal": {
        "global_pose": {
            "orientation": {
                "w": 0.7047431468963623,
                "x": -0.7094548344612122,
                "y": 0.0024358443915843964,
                "z": -0.0022348060738295317
            },
            "position": {
                "x": 0.6094750761985779,
                "y": 0.3671506643295288,
                "z": 0.19426114857196808
            }
        },
        "name": "move_to_magneteinheit_A"
    },
    "id": "RRT_move_to_magneteinheit_A_130",
    "joint_names": [
        "shoulder_pan_joint",
        "shoulder_lift_joint",
        "elbow_joint",
        "wrist_1_joint",
        "wrist_2_joint",
        "wrist_3_joint"
    ],
    "metrics": {
        "cart_traj_len": 3.6653210519572395,
        "distance_elbow_joint": 3.8784685717123235,
        "distance_shoulder_lift_joint": 0.603333685090913,
        "distance_shoulder_pan_joint": 2.6625710159950113,
        "distance_wrist_1_joint": 0.8374152814778817,
        "distance_wrist_2_joint": 2.893362279667006,
        "distance_wrist_3_joint": 2.5829748302586037,
        "smoothness": 0.3229516645515141,
        "time": 0.065133952,
        "traj_len": 3.6685318131647353,
        "weighted_distance": 4.728091886360061
    },
    "planner": "RRT",
    "start": {
        "state": {
            "elbow_joint": -1.919618573717145,
            "shoulder_lift_joint": -1.2443395971678275,
            "shoulder_pan_joint": 2.6996025300909787,
            "wrist_1_joint": -1.548550951253194,
            "wrist_2_joint": -1.5709469090946802,
            "wrist_3_joint": 0.4420197732051276
        }
    },
    "waypoints": [
        {
            "positions": [
                2.6996025300909787,
                -1.2443395971678275,
                -1.919618573717145,
                -1.548550951253194,
                -1.5709469090946802,
                0.4420197732051276
            ]
        },
        {
            "positions": [
                2.6066776557418807,
                -1.2272999253297303,
                -1.8321171803077272,
                -1.5317041758775498,
                -1.4636508083158832,
                0.5078977011233409
            ]
        },
        {
            "positions": [
                2.5137527813927827,
                -1.2102602534916331,
                -1.7446157868983092,
                -1.5148574005019055,
                -1.3563547075370863,
                0.5737756290415541
            ]
        },
        {
            "positions": [
                2.4208279070436842,
                -1.193220581653536,
                -1.6571143934888914,
                -1.4980106251262615,
                -1.2490586067582892,
                0.6396535569597674
            ]
        },
        {
            "positions": [
                2.327903032694586,
                -1.1761809098154388,
                -1.5696130000794737,
                -1.4811638497506172,
                -1.1417625059794922,
                0.7055314848779806
            ]
        },
        {
            "positions": [
                2.234978158345488,
                -1.1591412379773418,
                -1.4821116066700557,
                -1.464317074374973,
                -1.0344664052006953,
                0.7714094127961939
            ]
        },
        {
            "positions": [
                2.1420532839963897,
                -1.1421015661392446,
                -1.394610213260638,
                -1.4474702989993287,
                -0.9271703044218983,
                0.8372873407144072
            ]
        },
        {
            "positions": [
                2.0491284096472917,
                -1.1250618943011474,
                -1.3071088198512202,
                -1.4306235236236844,
                -0.8198742036431014,
                0.9031652686326204
            ]
        },
        {
            "positions": [
                1.9562035352981937,
                -1.1080222224630503,
                -1.2196074264418022,
                -1.4137767482480403,
                -0.7125781028643045,
                0.9690431965508337
            ]
        },
        {
            "positions": [
                1.8632786609490957,
                -1.090982550624953,
                -1.1321060330323844,
                -1.396929972872396,
                -0.6052820020855074,
                1.034921124469047
            ]
        },
        {
            "positions": [
                1.7703537865999974,
                -1.073942878786856,
                -1.0446046396229667,
                -1.3800831974967518,
                -0.4979859013067105,
                1.1007990523872602
            ]
        },
        {
            "positions": [
                1.6774289122508992,
                -1.0569032069487587,
                -0.9571032462135486,
                -1.3632364221211075,
                -0.39068980052791336,
                1.1666769803054735
            ]
        },
        {
            "positions": [
                1.5845040379018012,
                -1.0398635351106615,
                -0.8696018528041309,
                -1.3463896467454632,
                -0.28339369974911643,
                1.2325549082236869
            ]
        },
        {
            "positions": [
                1.491579163552703,
                -1.0228238632725644,
                -0.782100459394713,
                -1.329542871369819,
                -0.1760975989703195,
                1.2984328361419002
            ]
        },
        {
            "positions": [
                1.398654289203605,
                -1.0057841914344672,
                -0.6945990659852952,
                -1.312696095994175,
                -0.06880149819152259,
                1.3643107640601133
            ]
        },
        {
            "positions": [
                1.3057294148545067,
                -0.9887445195963701,
                -0.6070976725758772,
                -1.2958493206185306,
                0.03849460258727455,
                1.4301886919783267
            ]
        },
        {
            "positions": [
                1.2128045405054086,
                -0.9717048477582729,
                -0.5195962791664595,
                -1.2790025452428864,
                0.14579070336607125,
                1.4960666198965398
            ]
        },
        {
            "positions": [
                1.1198796661563104,
                -0.9546651759201757,
                -0.43209488575704147,
                -1.262155769867242,
                0.2530868041448684,
                1.5619445478147531
            ]
        },
        {
            "positions": [
                1.0269547918072124,
                -0.9376255040820787,
                -0.34459349234762393,
                -1.245308994491598,
                0.3603829049236653,
                1.6278224757329665
            ]
        },
        {
            "positions": [
                0.9340299174581141,
                -0.9205858322439815,
                -0.25709209893820595,
                -1.2284622191159538,
                0.46767900570246246,
                1.6937004036511798
            ]
        },
        {
            "positions": [
                0.8411050431090161,
                -0.9035461604058843,
                -0.1695907055287882,
                -1.2116154437403095,
                0.5749751064812592,
                1.759578331569393
            ]
        },
        {
            "positions": [
                0.7481801687599179,
                -0.8865064885677871,
                -0.08208931211937014,
                -1.1947686683646652,
                0.6822712072600564,
                1.8254562594876063
            ]
        },
        {
            "positions": [
                0.6924995452625469,
                -0.8982026102162429,
                0.058439237435137445,
                -1.160915368653603,
                0.6370126638060365,
                1.9096644571683181
            ]
        },
        {
            "positions": [
                0.636818921765176,
                -0.9098987318646987,
                0.198967786989645,
                -1.1270620689425408,
                0.5917541203520167,
                1.9938726548490298
            ]
        },
        {
            "positions": [
                0.581138298267805,
                -0.9215948535131546,
                0.3394963365441526,
                -1.0932087692314785,
                0.5464955768979968,
                2.078080852529742
            ]
        },
        {
            "positions": [
                0.525457674770434,
                -0.9332909751616104,
                0.4800248860986602,
                -1.0593554695204161,
                0.5012370334439769,
                2.1622890502104535
            ]
        },
        {
            "positions": [
                0.4697770512730631,
                -0.9449870968100662,
                0.6205534356531679,
                -1.025502169809354,
                0.45597848998995694,
                2.246497247891165
            ]
        },
        {
            "positions": [
                0.4140964277756921,
                -0.956683218458522,
                0.7610819852076754,
                -0.9916488700982917,
                0.4107199465359371,
                2.330705445571877
            ]
        },
        {
            "positions": [
                0.35841580427832115,
                -0.9683793401069778,
                0.9016105347621831,
                -0.9577955703872294,
                0.36546140308191716,
                2.414913643252589
            ]
        },
        {
            "positions": [
                0.3027351807809502,
                -0.9800754617554336,
                1.0421390843166904,
                -0.9239422706761673,
                0.3202028596278973,
                2.4991218409333005
            ]
        },
        {
            "positions": [
                0.24705455728357917,
                -0.9917715834038894,
                1.182667633871198,
                -0.890088970965105,
                0.2749443161738774,
                2.5833300386140126
            ]
        },
        {
            "positions": [
                0.19137393378620826,
                -1.0034677050523453,
                1.3231961834257058,
                -0.8562356712540427,
                0.22968577271985752,
                2.667538236294724
            ]
        },
        {
            "positions": [
                0.13569331028883735,
                -1.015163826700801,
                1.4637247329802132,
                -0.8223823715429806,
                0.18442722926583766,
                2.751746433975436
            ]
        },
        {
            "positions": [
                0.08001268679146636,
                -1.0268599483492569,
                1.6042532825347209,
                -0.7885290718319182,
                0.13916868581181774,
                2.835954631656148
            ]
        },
        {
            "positions": [
                0.09917437646501769,
                -1.073227571663724,
                1.7464643918818759,
                -0.7512216406545814,
                0.16125787278641182,
                2.89478197554851
            ]
        },
        {
            "positions": [
                0.11833606613856901,
                -1.1195951949781913,
                1.8886755012290306,
                -0.7139142094772446,
                0.1833470597610059,
                2.953609319440872
            ]
        },
        {
            "positions": [
                0.12299385948696727,
                -1.1320070650586598,
                1.9588499979951797,
                -0.7166927491791768,
                0.13048379184616446,
                3.0249946034637314
            ]
        }
    ]
}{
    "goal": {
        "global_pose": {
            "orientation": {
                "w": 0.7047431468963623,
                "x": -0.7094548344612122,
                "y": 0.0024358443915843964,
                "z": -0.0022348060738295317
            },
            "position": {
                "x": 0.6094750761985779,
                "y": 0.3671506643295288,
                "z": 0.19426114857196808
            }
        },
        "name": "move_to_magneteinheit_A"
    },
    "id": "RRT_move_to_magneteinheit_A_130",
    "joint_names": [
        "shoulder_pan_joint",
        "shoulder_lift_joint",
        "elbow_joint",
        "wrist_1_joint",
        "wrist_2_joint",
        "wrist_3_joint"
    ],
    "metrics": {
        "cart_traj_len": 1.4662533638283899,
        "distance_elbow_joint": 1.3906053391316207,
        "distance_shoulder_lift_joint": 0.7600543764118706,
        "distance_shoulder_pan_joint": 1.241970781934476,
        "distance_wrist_1_joint": 0.9125517160342177,
        "distance_wrist_2_joint": 2.0493562717962885,
        "distance_wrist_3_joint": 4.312348684237,
        "smoothness": 0.19145714642893125,
        "time": 0.11203339400000001,
        "traj_len": 3.266020081007689,
        "weighted_distance": 4.717360758501513
    },
    "planner": "RRT",
    "start": {
        "state": {
            "elbow_joint": 1.919643534880228,
            "shoulder_lift_joint": -1.8972525353963687,
            "shoulder_pan_joint": -1.1188672234189438,
            "wrist_1_joint": -1.5931878212786155,
            "wrist_2_joint": 1.5706036197970081,
            "wrist_3_joint": 1.118896926603594
        }
    },
    "waypoints": [
        {
            "positions": [
                -1.1188672234189438,
                -1.8972525353963687,
                1.919643534880228,
                -1.5931878212786155,
                1.5706036197970081,
                1.118896926603594
            ]
        },
        {
            "positions": [
                -1.0598126783549209,
                -1.8539041886416365,
                1.8586785889192516,
                -1.5972301692791233,
                1.4116912766000684,
                1.0672109419193376
            ]
        },
        {
            "positions": [
                -1.0007581332908977,
                -1.8105558418869043,
                1.7977136429582752,
                -1.601272517279631,
                1.252778933403129,
                1.0155249572350815
            ]
        },
        {
            "positions": [
                -0.9417035882268747,
                -1.7672074951321721,
                1.7367486969972987,
                -1.6053148652801388,
                1.0938665902061893,
                0.9638389725508252
            ]
        },
        {
            "positions": [
                -0.8826490431628516,
                -1.72385914837744,
                1.6757837510363223,
                -1.6093572132806466,
                0.9349542470092497,
                0.912152987866569
            ]
        },
        {
            "positions": [
                -0.8235944980988286,
                -1.6805108016227077,
                1.6148188050753456,
                -1.6133995612811542,
                0.7760419038123101,
                0.8604670031823127
            ]
        },
        {
            "positions": [
                -0.7645399530348056,
                -1.6371624548679755,
                1.5538538591143691,
                -1.617441909281662,
                0.6171295606153705,
                0.8087810184980565
            ]
        },
        {
            "positions": [
                -0.7054854079707825,
                -1.5938141081132433,
                1.4928889131533927,
                -1.6214842572821697,
                0.4582172174184309,
                0.7570950338138003
            ]
        },
        {
            "positions": [
                -0.6464308629067594,
                -1.550465761358511,
                1.4319239671924162,
                -1.6255266052826776,
                0.2993048742214912,
                0.7054090491295439
            ]
        },
        {
            "positions": [
                -0.5873763178427364,
                -1.507117414603779,
                1.3709590212314398,
                -1.6295689532831854,
                0.14039253102455151,
                0.6537230644452877
            ]
        },
        {
            "positions": [
                -0.5283217727787134,
                -1.4637690678490467,
                1.3099940752704633,
                -1.633611301283693,
                -0.01851981217238796,
                0.6020370797610315
            ]
        },
        {
            "positions": [
                -0.4692672277146903,
                -1.4204207210943145,
                1.2490291293094868,
                -1.6376536492842009,
                -0.17743215536932766,
                0.5503510950767753
            ]
        },
        {
            "positions": [
                -0.43442188734820664,
                -1.4037605703819724,
                1.2913815371660091,
                -1.5865897735178107,
                -0.15970742027344814,
                0.3301273978585294
            ]
        },
        {
            "positions": [
                -0.399576546981723,
                -1.3871004196696302,
                1.3337339450225314,
                -1.5355258977514206,
                -0.1419826851775686,
                0.10990370064028349
            ]
        },
        {
            "positions": [
                -0.36473120661523933,
                -1.370440268957288,
                1.376086352879054,
                -1.4844620219850304,
                -0.12425795008168908,
                -0.11031999657796243
            ]
        },
        {
            "positions": [
                -0.3298858662487557,
                -1.353780118244946,
                1.4184387607355762,
                -1.4333981462186403,
                -0.10653321498580955,
                -0.3305436937962083
            ]
        },
        {
            "positions": [
                -0.29504052588227203,
                -1.3371199675326038,
                1.4607911685920985,
                -1.38233427045225,
                -0.08880847988993001,
                -0.5507673910144543
            ]
        },
        {
            "positions": [
                -0.26019518551578835,
                -1.3204598168202617,
                1.5031435764486207,
                -1.33127039468586,
                -0.07108374479405048,
                -0.7709910882327001
            ]
        },
        {
            "positions": [
                -0.2253498451493047,
                -1.3037996661079196,
                1.545495984305143,
                -1.28020651891947,
                -0.053359009698170964,
                -0.991214785450946
            ]
        },
        {
            "positions": [
                -0.19050450478282105,
                -1.2871395153955774,
                1.5878483921616655,
                -1.2291426431530799,
                -0.03563427460229143,
                -1.211438482669192
            ]
        },
        {
            "positions": [
                -0.15565916441633737,
                -1.2704793646832353,
                1.6302008000181876,
                -1.1780787673866897,
                -0.017909539506411915,
                -1.431662179887438
            ]
        },
        {
            "positions": [
                -0.12081382404985369,
                -1.253819213970893,
                1.67255320787471,
                -1.1270148916202996,
                -0.00018480441053236873,
                -1.6518858771056837
            ]
        },
        {
            "positions": [
                -0.08596848368337007,
                -1.237159063258551,
                1.7149056157312323,
                -1.0759510158539094,
                0.01753993068534715,
                -1.8721095743239298
            ]
        },
        {
            "positions": [
                -0.05112314331688639,
                -1.220498912546209,
                1.7572580235877546,
                -1.0248871400875192,
                0.035264665781226695,
                -2.0923332715421754
            ]
        },
        {
            "positions": [
                -0.016277802950402764,
                -1.2038387618338668,
                1.799610431444277,
                -0.9738232643211292,
                0.052989400877106185,
                -2.312556968760421
            ]
        },
        {
            "positions": [
                0.018567537416080915,
                -1.1871786111215246,
                1.8419628393007992,
                -0.922759388554739,
                0.07071413597298573,
                -2.532780665978667
            ]
        },
        {
            "positions": [
                0.05341287778256454,
                -1.1705184604091825,
                1.8843152471573217,
                -0.8716955127883489,
                0.08843887106886528,
                -2.753004363196913
            ]
        },
        {
            "positions": [
                0.08825821814904822,
                -1.1538583096968402,
                1.926667655013844,
                -0.8206316370219587,
                0.1061636061647448,
                -2.973228060415159
            ]
        },
        {
            "positions": [
                0.12310355851553186,
                -1.1371981589844982,
                1.9690200628703662,
                -0.7695677612555686,
                0.12388834126062431,
                -3.193451757633405
            ]
        }
    ]
}