{
    "goal": {
        "global_pose": {
            "orientation": {
                "w": 0.5084816217422485,
                "x": -0.49083608388900757,
                "y": 0.5182115435600281,
                "z": -0.4816462993621826
            },
            "position": {
                "x": 0.5540239810943604,
                "y": 0.030875300988554955,
                "z": 0.16403168439865112
            }
        },
        "name": "move_to_storage_A"
    },
    "id": "RRT_move_to_storage_A_28",
    "joint_names": [
        "shoulder_pan_joint",
        "shoulder_lift_joint",
        "elbow_joint",
        "wrist_1_joint",
        "wrist_2_joint",
        "wrist_3_joint"
    ],
    "metrics": {
        "cart_traj_len": 0.3538833836721384,
        "distance_elbow_joint": 0.4509868503903651,
        "distance_shoulder_lift_joint": 0.23433722371797217,
        "distance_shoulder_pan_joint": 0.462367603616966,
        "distance_wrist_1_joint": 0.24441935645355783,
        "distance_wrist_2_joint": 1.1023477183708486,
        "distance_wrist_3_joint": 0.10661387049924453,
        "smoothness": 6.661338165333112e-16,
        "time": 0.015812188,
        "traj_len": 1.6127841216508036,
        "weighted_distance": 2.0398694661354804
    },
    "planner": "RRT",
    "start": {
        "state": {
            "elbow_joint": 1.9715477243005601,
            "shoulder_lift_joint": -1.1394853015351272,
            "shoulder_pan_joint": 0.12281154014795169,
            "wrist_1_joint": -0.7804696478968182,
            "wrist_2_joint": 0.12958648046900423,
            "wrist_3_joint": -3.192491284697111
        }
    },
    "waypoints": [
        {
            "positions": [
                0.12281154014795169,
                -1.1394853015351272,
                1.9715477243005601,
                -0.7804696478968182,
                0.12958648046900423,
                -3.192491284697111
            ]
        },
        {
            "positions": [
                0.056759025345527986,
                -1.1729620477805518,
                2.0359744172134695,
                -0.815386698818755,
                0.287064725950554,
                -3.177260731768648
            ]
        },
        {
            "positions": [
                -0.009293489456895718,
                -1.2064387940259764,
                2.100401110126379,
                -0.8503037497406918,
                0.4445429714321038,
                -3.162030178840184
            ]
        },
        {
            "positions": [
                -0.07534600425931944,
                -1.239915540271401,
                2.1648278030392882,
                -0.8852208006626286,
                0.6020212169136536,
                -3.146799625911721
            ]
        },
        {
            "positions": [
                -0.1413985190617431,
                -1.2733922865168255,
                2.229254495952197,
                -0.9201378515845655,
                0.7594994623952034,
                -3.131569072983257
            ]
        },
        {
            "positions": [
                -0.20745103386416686,
                -1.30686903276225,
                2.2936811888651065,
                -0.9550549025065023,
                0.9169777078767533,
                -3.1163385200547937
            ]
        },
        {
            "positions": [
                -0.27350354866659055,
                -1.3403457790076747,
                2.358107881778016,
                -0.9899719534284391,
                1.074455953358303,
                -3.10110796712633
            ]
        },
        {
            "positions": [
                -0.3395560634690143,
                -1.3738225252530993,
                2.4225345746909253,
                -1.024889004350376,
                1.2319341988398527,
                -3.0858774141978667
            ]
        }
    ]
}