{
    "goal": {
        "global_pose": {
            "orientation": {
                "w": 0.7047431468963623,
                "x": -0.7094548344612122,
                "y": 0.0024358443915843964,
                "z": -0.0022348060738295317
            },
            "position": {
                "x": 0.6094750761985779,
                "y": 0.3671506643295288,
                "z": 0.19426114857196808
            }
        },
        "name": "move_to_magneteinheit_A"
    },
    "id": "RRT_move_to_magneteinheit_A_122",
    "joint_names": [
        "shoulder_pan_joint",
        "shoulder_lift_joint",
        "elbow_joint",
        "wrist_1_joint",
        "wrist_2_joint",
        "wrist_3_joint"
    ],
    "metrics": {
        "cart_traj_len": 4.030804303962717,
        "distance_elbow_joint": 3.908079741258029,
        "distance_shoulder_lift_joint": 2.102541620565442,
        "distance_shoulder_pan_joint": 2.8351781458703127,
        "distance_wrist_1_joint": 0.6882668456005682,
        "distance_wrist_2_joint": 2.0193034107120744,
        "distance_wrist_3_joint": 3.570525197912656,
        "smoothness": 0.24554078490697553,
        "time": 0.194831918,
        "traj_len": 3.8889452248545604,
        "weighted_distance": 4.9972508055987195
    },
    "planner": "RRT",
    "start": {
        "state": {
            "elbow_joint": -1.919618573717145,
            "shoulder_lift_joint": -1.2443395971678275,
            "shoulder_pan_joint": 2.6996025300909787,
            "wrist_1_joint": -1.548550951253194,
            "wrist_2_joint": -1.5709469090946802,
            "wrist_3_joint": 0.4420197732051276
        }
    },
    "waypoints": [
        {
            "positions": [
                2.6996025300909787,
                -1.2443395971678275,
                -1.919618573717145,
                -1.548550951253194,
                -1.5709469090946802,
                0.4420197732051276
            ]
        },
        {
            "positions": [
                2.5987246010198506,
                -1.287976909289685,
                -1.823219607150167,
                -1.547910784916236,
                -1.5166614057177636,
                0.3574516355655053
            ]
        },
        {
            "positions": [
                2.497846671948723,
                -1.3316142214115423,
                -1.726820640583189,
                -1.5472706185792777,
                -1.4623759023408471,
                0.272883497925883
            ]
        },
        {
            "positions": [
                2.3969687428775948,
                -1.3752515335333997,
                -1.630421674016211,
                -1.5466304522423195,
                -1.4080903989639304,
                0.18831536028626072
            ]
        },
        {
            "positions": [
                2.2960908138064666,
                -1.418888845655257,
                -1.534022707449233,
                -1.5459902859053614,
                -1.353804895587014,
                0.10374722264663844
            ]
        },
        {
            "positions": [
                2.195212884735339,
                -1.4625261577771145,
                -1.437623740882255,
                -1.5453501195684032,
                -1.2995193922100974,
                0.01917908500701615
            ]
        },
        {
            "positions": [
                2.094334955664211,
                -1.5061634698989717,
                -1.3412247743152772,
                -1.5447099532314452,
                -1.2452338888331809,
                -0.06538905263260614
            ]
        },
        {
            "positions": [
                1.9934570265930827,
                -1.5498007820208293,
                -1.244825807748299,
                -1.544069786894487,
                -1.1909483854562644,
                -0.14995719027222848
            ]
        },
        {
            "positions": [
                1.892579097521955,
                -1.5934380941426864,
                -1.1484268411813212,
                -1.5434296205575289,
                -1.1366628820793478,
                -0.2345253279118507
            ]
        },
        {
            "positions": [
                1.7917011684508268,
                -1.6370754062645438,
                -1.052027874614343,
                -1.5427894542205707,
                -1.0823773787024311,
                -0.31909346555147305
            ]
        },
        {
            "positions": [
                1.690823239379699,
                -1.6807127183864012,
                -0.9556289080473651,
                -1.5421492878836125,
                -1.0280918753255146,
                -0.4036616031910953
            ]
        },
        {
            "positions": [
                1.589945310308571,
                -1.7243500305082586,
                -0.859229941480387,
                -1.5415091215466543,
                -0.9738063719485981,
                -0.48822974083071763
            ]
        },
        {
            "positions": [
                1.4890673812374429,
                -1.767987342630116,
                -0.7628309749134092,
                -1.5408689552096961,
                -0.9195208685716816,
                -0.5727978784703398
            ]
        },
        {
            "positions": [
                1.388189452166315,
                -1.8116246547519732,
                -0.6664320083464312,
                -1.540228788872738,
                -0.8652353651947651,
                -0.6573660161099619
            ]
        },
        {
            "positions": [
                1.2873115230951868,
                -1.8552619668738308,
                -0.570033041779453,
                -1.5395886225357798,
                -0.8109498618178484,
                -0.7419341537495845
            ]
        },
        {
            "positions": [
                1.186433594024059,
                -1.898899278995688,
                -0.47363407521247525,
                -1.5389484561988216,
                -0.7566643584409319,
                -0.8265022913892066
            ]
        },
        {
            "positions": [
                1.085555664952931,
                -1.9425365911175456,
                -0.37723510864549725,
                -1.5383082898618634,
                -0.7023788550640154,
                -0.911070429028829
            ]
        },
        {
            "positions": [
                0.9846777358818031,
                -1.9861739032394028,
                -0.28083614207851926,
                -1.5376681235249052,
                -0.6480933516870989,
                -0.9956385666684511
            ]
        },
        {
            "positions": [
                0.8837998068106749,
                -2.0298112153612604,
                -0.18443717551154104,
                -1.5370279571879473,
                -0.5938078483101822,
                -1.0802067043080736
            ]
        },
        {
            "positions": [
                0.782921877739547,
                -2.0734485274831176,
                -0.08803820894456327,
                -1.536387790850989,
                -0.5395223449332658,
                -1.1647748419476958
            ]
        },
        {
            "positions": [
                0.6820439486684191,
                -2.117085839604975,
                0.008360757622414727,
                -1.535747624514031,
                -0.4852368415563493,
                -1.249342979587318
            ]
        },
        {
            "positions": [
                0.5811660195972914,
                -2.1607231517268324,
                0.10475972418939272,
                -1.5351074581770727,
                -0.43095133817943276,
                -1.3339111172269402
            ]
        },
        {
            "positions": [
                0.4802880905261633,
                -2.2043604638486896,
                0.20115869075637094,
                -1.5344672918401145,
                -0.37666583480251603,
                -1.4184792548665628
            ]
        },
        {
            "positions": [
                0.37941016145503537,
                -2.247997775970547,
                0.2975576573233487,
                -1.5338271255031564,
                -0.3223803314255996,
                -1.503047392506185
            ]
        },
        {
            "positions": [
                0.35370308286717445,
                -2.180972594569978,
                0.4050401464868782,
                -1.4960529568427654,
                -0.2815982154689919,
                -1.6067885009102876
            ]
        },
        {
            "positions": [
                0.3279960042793136,
                -2.1139474131694085,
                0.5125226356504077,
                -1.4582787881823744,
                -0.2408160995123842,
                -1.71052960931439
            ]
        },
        {
            "positions": [
                0.30228892569145266,
                -2.046922231768839,
                0.6200051248139371,
                -1.4205046195219835,
                -0.2000339835557765,
                -1.8142707177184927
            ]
        },
        {
            "positions": [
                0.27658184710359174,
                -1.9798970503682698,
                0.7274876139774666,
                -1.3827304508615925,
                -0.15925186759916884,
                -1.9180118261225954
            ]
        },
        {
            "positions": [
                0.2508747685157309,
                -1.9128718689677005,
                0.834970103140996,
                -1.3449562822012013,
                -0.11846975164256116,
                -2.021752934526698
            ]
        },
        {
            "positions": [
                0.22516768992786995,
                -1.845846687567131,
                0.9424525923045255,
                -1.3071821135408104,
                -0.07768763568595344,
                -2.1254940429308005
            ]
        },
        {
            "positions": [
                0.19946061134000906,
                -1.7788215061665618,
                1.049935081468055,
                -1.2694079448804194,
                -0.03690551972934575,
                -2.229235151334903
            ]
        },
        {
            "positions": [
                0.17375353275214814,
                -1.7117963247659924,
                1.1574175706315843,
                -1.2316337762200285,
                0.003876596227261886,
                -2.332976259739006
            ]
        },
        {
            "positions": [
                0.14804645416428724,
                -1.644771143365423,
                1.2649000597951139,
                -1.1938596075596375,
                0.044658712183869576,
                -2.4367173681431082
            ]
        },
        {
            "positions": [
                0.12233937557642638,
                -1.5777459619648537,
                1.3723825489586432,
                -1.1560854388992465,
                0.08544082814047727,
                -2.5404584765472107
            ]
        },
        {
            "positions": [
                0.09663229698856546,
                -1.5107207805642844,
                1.4798650381221727,
                -1.1183112702388556,
                0.12622294409708495,
                -2.6441995849513136
            ]
        },
        {
            "positions": [
                0.07092521840070454,
                -1.4436955991637148,
                1.5873475272857023,
                -1.0805371015784646,
                0.1670050600536927,
                -2.747940693355416
            ]
        },
        {
            "positions": [
                0.045218139812843616,
                -1.3766704177631455,
                1.6948300164492318,
                -1.0427629329180736,
                0.20778717601030033,
                -2.8516818017595185
            ]
        },
        {
            "positions": [
                0.01951106122498275,
                -1.3096452363625761,
                1.8023125056127611,
                -1.0049887642576825,
                0.24856929196690808,
                -2.9554229101636214
            ]
        },
        {
            "positions": [
                -0.006196017362878156,
                -1.2426200549620068,
                1.9097949947762907,
                -0.9672145955972916,
                0.28935140792351577,
                -3.059164018567724
            ]
        },
        {
            "positions": [
                0.05849378184535026,
                -1.1958671945849157,
                1.9491280811585887,
                -0.9137493506249588,
                0.2098488610765768,
                -3.0938347216376263
            ]
        },
        {
            "positions": [
                0.12318358105357867,
                -1.1491143342078247,
                1.9884611675408868,
                -0.8602841056526259,
                0.13034631422963786,
                -3.1285054247075283
            ]
        }
    ]
}{
    "goal": {
        "global_pose": {
            "orientation": {
                "w": 0.7047431468963623,
                "x": -0.7094548344612122,
                "y": 0.0024358443915843964,
                "z": -0.0022348060738295317
            },
            "position": {
                "x": 0.6094750761985779,
                "y": 0.3671506643295288,
                "z": 0.19426114857196808
            }
        },
        "name": "move_to_magneteinheit_A"
    },
    "id": "RRT_move_to_magneteinheit_A_122",
    "joint_names": [
        "shoulder_pan_joint",
        "shoulder_lift_joint",
        "elbow_joint",
        "wrist_1_joint",
        "wrist_2_joint",
        "wrist_3_joint"
    ],
    "metrics": {
        "cart_traj_len": 1.3393702592322065,
        "distance_elbow_joint": 0.05885250788876073,
        "distance_shoulder_lift_joint": 0.7548233411780543,
        "distance_shoulder_pan_joint": 1.5889285958723496,
        "distance_wrist_1_joint": 0.7865849135063611,
        "distance_wrist_2_joint": 1.4326976150898987,
        "distance_wrist_3_joint": 4.28455588418157,
        "smoothness": 0.20706681526203952,
        "time": 0.031154809000000002,
        "traj_len": 2.984366408086814,
        "weighted_distance": 4.437886563971232
    },
    "planner": "RRT",
    "start": {
        "state": {
            "elbow_joint": 1.919643534880228,
            "shoulder_lift_joint": -1.8972525353963687,
            "shoulder_pan_joint": -1.1188672234189438,
            "wrist_1_joint": -1.5931878212786155,
            "wrist_2_joint": 1.5706036197970081,
            "wrist_3_joint": 1.118896926603594
        }
    },
    "waypoints": [
        {
            "positions": [
                -1.1188672234189438,
                -1.8972525353963687,
                1.919643534880228,
                -1.5931878212786155,
                1.5706036197970081,
                1.118896926603594
            ]
        },
        {
            "positions": [
                -1.1765140509767158,
                -1.888657017760948,
                1.9353821095359225,
                -1.5633895124932606,
                1.4927507865664087,
                0.9356161877184294
            ]
        },
        {
            "positions": [
                -1.2341608785344875,
                -1.8800615001255274,
                1.9511206841916167,
                -1.5335912037079058,
                1.414897953335809,
                0.7523354488332648
            ]
        },
        {
            "positions": [
                -1.2918077060922595,
                -1.8714659824901068,
                1.966859258847311,
                -1.503792894922551,
                1.3370451201052096,
                0.5690547099481
            ]
        },
        {
            "positions": [
                -1.2210083004323078,
                -1.8350141430765172,
                1.967441098043395,
                -1.468933395565036,
                1.2770881643353045,
                0.38231902657179617
            ]
        },
        {
            "positions": [
                -1.150208894772356,
                -1.7985623036629275,
                1.9680229372394789,
                -1.4340738962075212,
                1.2171312085653996,
                0.19558334319549237
            ]
        },
        {
            "positions": [
                -1.0794094891124044,
                -1.762110464249338,
                1.9686047764355628,
                -1.3992143968500066,
                1.1571742527954945,
                0.008847659819188558
            ]
        },
        {
            "positions": [
                -1.0086100834524527,
                -1.7256586248357484,
                1.9691866156316467,
                -1.3643548974924917,
                1.0972172970255896,
                -0.1778880235571153
            ]
        },
        {
            "positions": [
                -0.937810677792501,
                -1.6892067854221586,
                1.9697684548277306,
                -1.3294953981349769,
                1.0372603412556844,
                -0.36462370693341906
            ]
        },
        {
            "positions": [
                -0.8670112721325494,
                -1.652754946008569,
                1.9703502940238145,
                -1.294635898777462,
                0.9773033854857796,
                -0.5513593903097229
            ]
        },
        {
            "positions": [
                -0.7962118664725977,
                -1.6163031065949793,
                1.9709321332198984,
                -1.2597763994199471,
                0.9173464297158744,
                -0.7380950736860266
            ]
        },
        {
            "positions": [
                -0.725412460812646,
                -1.5798512671813898,
                1.9715139724159823,
                -1.2249169000624323,
                0.8573894739459694,
                -0.9248307570623306
            ]
        },
        {
            "positions": [
                -0.6546130551526943,
                -1.5433994277678003,
                1.9720958116120662,
                -1.1900574007049176,
                0.7974325181760644,
                -1.1115664404386343
            ]
        },
        {
            "positions": [
                -0.5838136494927426,
                -1.5069475883542105,
                1.97267765080815,
                -1.1551979013474027,
                0.7374755624061594,
                -1.2983021238149381
            ]
        },
        {
            "positions": [
                -0.5130142438327908,
                -1.470495748940621,
                1.9732594900042337,
                -1.1203384019898879,
                0.6775186066362543,
                -1.4850378071912422
            ]
        },
        {
            "positions": [
                -0.44221483817283924,
                -1.4340439095270314,
                1.9738413292003176,
                -1.085478902632373,
                0.6175616508663494,
                -1.6717734905675459
            ]
        },
        {
            "positions": [
                -0.37141543251288756,
                -1.3975920701134417,
                1.9744231683964015,
                -1.0506194032748581,
                0.5576046950964443,
                -1.8585091739438495
            ]
        },
        {
            "positions": [
                -0.300616026852936,
                -1.3611402306998521,
                1.9750050075924854,
                -1.0157599039173433,
                0.4976477393265394,
                -2.045244857320153
            ]
        },
        {
            "positions": [
                -0.22981662119298418,
                -1.3246883912862626,
                1.9755868467885693,
                -0.9809004045598285,
                0.4376907835566344,
                -2.2319805406964575
            ]
        },
        {
            "positions": [
                -0.1590172155330325,
                -1.2882365518726728,
                1.9761686859846532,
                -0.9460409052023137,
                0.37773382778672926,
                -2.418716224072761
            ]
        },
        {
            "positions": [
                -0.08821780987308081,
                -1.2517847124590833,
                1.9767505251807371,
                -0.9111814058447989,
                0.31777687201682436,
                -2.6054519074490647
            ]
        },
        {
            "positions": [
                -0.017418404213129124,
                -1.2153328730454938,
                1.977332364376821,
                -0.876321906487284,
                0.25781991624691925,
                -2.7921875908253684
            ]
        },
        {
            "positions": [
                0.05338100144682256,
                -1.178881033631904,
                1.977914203572905,
                -0.8414624071297693,
                0.19786296047701435,
                -2.978923274201672
            ]
        },
        {
            "positions": [
                0.12418040710677428,
                -1.1424291942183145,
                1.9784960427689888,
                -0.8066029077722544,
                0.13790600470710918,
                -3.1656589575779766
            ]
        }
    ]
}