{
    "goal": {
        "global_pose": {
            "orientation": {
                "w": 0.5084816217422485,
                "x": -0.49083608388900757,
                "y": 0.5182115435600281,
                "z": -0.4816462993621826
            },
            "position": {
                "x": 0.5540239810943604,
                "y": 0.030875300988554955,
                "z": 0.16403168439865112
            }
        },
        "name": "move_to_storage_A"
    },
    "id": "RRT_move_to_storage_A_136",
    "joint_names": [
        "shoulder_pan_joint",
        "shoulder_lift_joint",
        "elbow_joint",
        "wrist_1_joint",
        "wrist_2_joint",
        "wrist_3_joint"
    ],
    "metrics": {
        "cart_traj_len": 0.3528193440449582,
        "distance_elbow_joint": 0.44896314594306475,
        "distance_shoulder_lift_joint": 0.2335199516674693,
        "distance_shoulder_pan_joint": 0.457688516304334,
        "distance_wrist_1_joint": 0.24089743741013636,
        "distance_wrist_2_joint": 1.1135552355599705,
        "distance_wrist_3_joint": 0.0932982125145907,
        "smoothness": 6.661338165333112e-16,
        "time": 0.020607204,
        "traj_len": 1.6087021164278879,
        "weighted_distance": 2.0319871056182555
    },
    "planner": "RRT",
    "start": {
        "state": {
            "elbow_joint": 1.9715477243005601,
            "shoulder_lift_joint": -1.1394853015351272,
            "shoulder_pan_joint": 0.12281154014795169,
            "wrist_1_joint": -0.7804696478968182,
            "wrist_2_joint": 0.12958648046900423,
            "wrist_3_joint": -3.192491284697111
        }
    },
    "waypoints": [
        {
            "positions": [
                0.12281154014795169,
                -1.1394853015351272,
                1.9715477243005601,
                -0.7804696478968182,
                0.12958648046900423,
                -3.192491284697111
            ]
        },
        {
            "positions": [
                0.057427466390189696,
                -1.17284529463048,
                2.035685316578141,
                -0.8148835675268377,
                0.2886657998347143,
                -3.179162968623598
            ]
        },
        {
            "positions": [
                -0.007956607367572296,
                -1.2062052877258327,
                2.0998229088557214,
                -0.8492974871568572,
                0.44774511920042437,
                -3.1658346525500853
            ]
        },
        {
            "positions": [
                -0.0733406811253343,
                -1.2395652808211854,
                2.1639605011333023,
                -0.8837114067868765,
                0.6068244385661344,
                -3.152506336476572
            ]
        },
        {
            "positions": [
                -0.13872475488309627,
                -1.2729252739165382,
                2.2280980934108827,
                -0.918125326416896,
                0.7659037579318445,
                -3.1391780204030595
            ]
        },
        {
            "positions": [
                -0.20410882864085828,
                -1.306285267011891,
                2.2922356856884636,
                -0.9525392460469155,
                0.9249830772975546,
                -3.1258497043295463
            ]
        },
        {
            "positions": [
                -0.2694929023986203,
                -1.3396452601072437,
                2.356373277966044,
                -0.986953165676935,
                1.0840623966632648,
                -3.1125213882560336
            ]
        },
        {
            "positions": [
                -0.3348769761563823,
                -1.3730052532025965,
                2.420510870243625,
                -1.0213670853069545,
                1.2431417160289748,
                -3.0991930721825205
            ]
        }
    ]
}