{
    "goal": {
        "global_pose": {
            "orientation": {
                "w": 0.5084816217422485,
                "x": -0.49083608388900757,
                "y": 0.5182115435600281,
                "z": -0.4816462993621826
            },
            "position": {
                "x": 0.5540239810943604,
                "y": 0.030875300988554955,
                "z": 0.16403168439865112
            }
        },
        "name": "move_to_storage_A"
    },
    "id": "RRT_move_to_storage_A_18",
    "joint_names": [
        "shoulder_pan_joint",
        "shoulder_lift_joint",
        "elbow_joint",
        "wrist_1_joint",
        "wrist_2_joint",
        "wrist_3_joint"
    ],
    "metrics": {
        "cart_traj_len": 0.35346750814534444,
        "distance_elbow_joint": 0.4531284254633805,
        "distance_shoulder_lift_joint": 0.23474366586305973,
        "distance_shoulder_pan_joint": 0.4632372726858032,
        "distance_wrist_1_joint": 0.25316317937183375,
        "distance_wrist_2_joint": 1.0958475538386905,
        "distance_wrist_3_joint": 0.09670552549311262,
        "smoothness": 4.440892098500626e-16,
        "time": 0.016227694,
        "traj_len": 1.611466916419906,
        "weighted_distance": 2.034514046870316
    },
    "planner": "RRT",
    "start": {
        "state": {
            "elbow_joint": 1.9715477243005601,
            "shoulder_lift_joint": -1.1394853015351272,
            "shoulder_pan_joint": 0.12281154014795169,
            "wrist_1_joint": -0.7804696478968182,
            "wrist_2_joint": 0.12958648046900423,
            "wrist_3_joint": -3.192491284697111
        }
    },
    "waypoints": [
        {
            "positions": [
                0.12281154014795169,
                -1.1394853015351272,
                1.9715477243005601,
                -0.7804696478968182,
                0.12958648046900423,
                -3.192491284697111
            ]
        },
        {
            "positions": [
                0.05663478690712266,
                -1.1730201109441356,
                2.0362803565096144,
                -0.8166358163785087,
                0.28613613101738855,
                -3.1786762096266665
            ]
        },
        {
            "positions": [
                -0.009541966333706367,
                -1.2065549203531443,
                2.101012988718669,
                -0.8528019848601992,
                0.44268578156577293,
                -3.164861134556222
            ]
        },
        {
            "positions": [
                -0.0757187195745354,
                -1.2400897297621527,
                2.1657456209277233,
                -0.8889681533418897,
                0.5992354321141573,
                -3.151046059485777
            ]
        },
        {
            "positions": [
                -0.1418954728153644,
                -1.2736245391711614,
                2.2304782531367775,
                -0.9251343218235804,
                0.7557850826625416,
                -3.1372309844153325
            ]
        },
        {
            "positions": [
                -0.20807222605619347,
                -1.3071593485801698,
                2.295210885345832,
                -0.9613004903052709,
                0.9123347332109261,
                -3.123415909344888
            ]
        },
        {
            "positions": [
                -0.27424897929702247,
                -1.3406941579891782,
                2.3599435175548864,
                -0.9974666587869614,
                1.0688843837593103,
                -3.1096008342744432
            ]
        },
        {
            "positions": [
                -0.3404257325378515,
                -1.374228967398187,
                2.4246761497639406,
                -1.033632827268652,
                1.2254340343076946,
                -3.0957857592039986
            ]
        }
    ]
}