{
    "goal": {
        "global_pose": {
            "orientation": {
                "w": 0.7047431468963623,
                "x": -0.7094548344612122,
                "y": 0.0024358443915843964,
                "z": -0.0022348060738295317
            },
            "position": {
                "x": 0.6094750761985779,
                "y": 0.3671506643295288,
                "z": 0.19426114857196808
            }
        },
        "name": "move_to_magneteinheit_A"
    },
    "id": "RRT_move_to_magneteinheit_A_43",
    "joint_names": [
        "shoulder_pan_joint",
        "shoulder_lift_joint",
        "elbow_joint",
        "wrist_1_joint",
        "wrist_2_joint",
        "wrist_3_joint"
    ],
    "metrics": {
        "cart_traj_len": 3.8188775993014965,
        "distance_elbow_joint": 3.9048802776028797,
        "distance_shoulder_lift_joint": 1.5141596046781414,
        "distance_shoulder_pan_joint": 2.772796169220705,
        "distance_wrist_1_joint": 1.861597564432944,
        "distance_wrist_2_joint": 1.8310782854389775,
        "distance_wrist_3_joint": 3.6652469126682052,
        "smoothness": 0.2877743373401695,
        "time": 0.078756533,
        "traj_len": 3.943318249145237,
        "weighted_distance": 5.154893644804923
    },
    "planner": "RRT",
    "start": {
        "state": {
            "elbow_joint": -1.919618573717145,
            "shoulder_lift_joint": -1.2443395971678275,
            "shoulder_pan_joint": 2.6996025300909787,
            "wrist_1_joint": -1.548550951253194,
            "wrist_2_joint": -1.5709469090946802,
            "wrist_3_joint": 0.4420197732051276
        }
    },
    "waypoints": [
        {
            "positions": [
                2.6996025300909787,
                -1.2443395971678275,
                -1.919618573717145,
                -1.548550951253194,
                -1.5709469090946802,
                0.4420197732051276
            ]
        },
        {
            "positions": [
                2.588830781773204,
                -1.2816324737973963,
                -1.8172798653908282,
                -1.5790009273445311,
                -1.4978232822335866,
                0.4165548172413653
            ]
        },
        {
            "positions": [
                2.4780590334554295,
                -1.3189253504269651,
                -1.7149411570645112,
                -1.609450903435868,
                -1.424699655372493,
                0.39108986127760303
            ]
        },
        {
            "positions": [
                2.367287285137655,
                -1.356218227056534,
                -1.6126024487381945,
                -1.639900879527205,
                -1.3515760285113996,
                0.36562490531384073
            ]
        },
        {
            "positions": [
                2.2565155368198804,
                -1.393511103686103,
                -1.5102637404118777,
                -1.670350855618542,
                -1.278452401650306,
                0.3401599493500784
            ]
        },
        {
            "positions": [
                2.145743788502106,
                -1.4308039803156718,
                -1.4079250320855607,
                -1.7008008317098788,
                -1.2053287747892123,
                0.3146949933863161
            ]
        },
        {
            "positions": [
                2.034972040184331,
                -1.4680968569452406,
                -1.3055863237592438,
                -1.7312508078012159,
                -1.1322051479281188,
                0.2892300374225538
            ]
        },
        {
            "positions": [
                1.9242002918665566,
                -1.5053897335748094,
                -1.203247615432927,
                -1.761700783892553,
                -1.0590815210670252,
                0.2637650814587915
            ]
        },
        {
            "positions": [
                1.813428543548782,
                -1.5426826102043782,
                -1.1009089071066103,
                -1.7921507599838897,
                -0.9859578942059317,
                0.23830012549502927
            ]
        },
        {
            "positions": [
                1.7026567952310074,
                -1.579975486833947,
                -0.9985701987802934,
                -1.8226007360752268,
                -0.9128342673448381,
                0.21283516953126697
            ]
        },
        {
            "positions": [
                1.5918850469132328,
                -1.6172683634635159,
                -0.8962314904539765,
                -1.8530507121665638,
                -0.8397106404837446,
                0.18737021356750466
            ]
        },
        {
            "positions": [
                1.4811132985954583,
                -1.654561240093085,
                -0.7938927821276596,
                -1.8835006882579006,
                -0.7665870136226509,
                0.16190525760374236
            ]
        },
        {
            "positions": [
                1.3703415502776837,
                -1.6918541167226537,
                -0.6915540738013428,
                -1.9139506643492377,
                -0.6934633867615575,
                0.1364403016399801
            ]
        },
        {
            "positions": [
                1.259569801959909,
                -1.7291469933522225,
                -0.5892153654750258,
                -1.9444006404405747,
                -0.6203397599004639,
                0.11097534567621781
            ]
        },
        {
            "positions": [
                1.1487980536421345,
                -1.7664398699817914,
                -0.4868766571487091,
                -1.9748506165319117,
                -0.5472161330393703,
                0.0855103897124555
            ]
        },
        {
            "positions": [
                1.03802630532436,
                -1.8037327466113604,
                -0.38453794882239234,
                -2.005300592623249,
                -0.4740925061782768,
                0.0600454337486932
            ]
        },
        {
            "positions": [
                0.9272545570065853,
                -1.8410256232409292,
                -0.2821992404960756,
                -2.0357505687145854,
                -0.4009688793171833,
                0.03458047778493095
            ]
        },
        {
            "positions": [
                0.8164828086888107,
                -1.878318499870498,
                -0.1798605321697586,
                -2.0662005448059224,
                -0.32784525245608953,
                0.009115521821168648
            ]
        },
        {
            "positions": [
                0.7057110603710361,
                -1.9156113765000669,
                -0.07752182384344186,
                -2.0966505208972595,
                -0.254721625594996,
                -0.016349434142593655
            ]
        },
        {
            "positions": [
                0.5949393120532613,
                -1.9529042531296357,
                0.02481688448287503,
                -2.1271004969885965,
                -0.18159799873390248,
                -0.04181439010635594
            ]
        },
        {
            "positions": [
                0.564957549921419,
                -1.9217428066985354,
                0.12665518006001697,
                -2.0693934862133223,
                -0.16157178087249013,
                0.10161000521301869
            ]
        },
        {
            "positions": [
                0.5349757877895766,
                -1.8905813602674353,
                0.2284934756371589,
                -2.0116864754380486,
                -0.14154556301107776,
                0.2450344005323933
            ]
        },
        {
            "positions": [
                0.5049940256577342,
                -1.859419913836335,
                0.3303317712143008,
                -1.9539794646627746,
                -0.12151934514966542,
                0.3884587958517679
            ]
        },
        {
            "positions": [
                0.4750122635258918,
                -1.828258467405235,
                0.43217006679144276,
                -1.8962724538875007,
                -0.10149312728825306,
                0.5318831911711426
            ]
        },
        {
            "positions": [
                0.4450305013940494,
                -1.7970970209741346,
                0.5340083623685847,
                -1.8385654431122267,
                -0.0814669094268407,
                0.6753075864905173
            ]
        },
        {
            "positions": [
                0.41504873926220703,
                -1.7659355745430345,
                0.6358466579457266,
                -1.7808584323369527,
                -0.06144069156542835,
                0.8187319818098918
            ]
        },
        {
            "positions": [
                0.38506697713036464,
                -1.7347741281119342,
                0.7376849535228686,
                -1.7231514215616788,
                -0.04141447370401599,
                0.9621563771292665
            ]
        },
        {
            "positions": [
                0.3550852149985223,
                -1.703612681680834,
                0.8395232491000105,
                -1.6654444107864048,
                -0.02138825584260365,
                1.105580772448641
            ]
        },
        {
            "positions": [
                0.3251034528666799,
                -1.6724512352497338,
                0.9413615446771525,
                -1.6077374000111306,
                -0.0013620379811913053,
                1.2490051677680158
            ]
        },
        {
            "positions": [
                0.2951216907348375,
                -1.6412897888186335,
                1.0431998402542946,
                -1.550030389235857,
                0.018664179880221066,
                1.3924295630873904
            ]
        },
        {
            "positions": [
                0.26513992860299507,
                -1.6101283423875334,
                1.1450381358314365,
                -1.4923233784605827,
                0.03869039774163344,
                1.5358539584067652
            ]
        },
        {
            "positions": [
                0.23515816647115273,
                -1.5789668959564331,
                1.2468764314085783,
                -1.434616367685309,
                0.05871661560304578,
                1.6792783537261395
            ]
        },
        {
            "positions": [
                0.20517640433931034,
                -1.5478054495253328,
                1.3487147269857205,
                -1.3769093569100348,
                0.07874283346445815,
                1.8227027490455143
            ]
        },
        {
            "positions": [
                0.175194642207468,
                -1.5166440030942328,
                1.4505530225628622,
                -1.319202346134761,
                0.0987690513258705,
                1.966127144364889
            ]
        },
        {
            "positions": [
                0.14521288007562555,
                -1.4854825566631324,
                1.5523913181400044,
                -1.2614953353594869,
                0.11879526918728284,
                2.1095515396842632
            ]
        },
        {
            "positions": [
                0.11523111794378321,
                -1.4543211102320324,
                1.6542296137171462,
                -1.2037883245842131,
                0.13882148704869518,
                2.252975935003638
            ]
        },
        {
            "positions": [
                0.08524935581194082,
                -1.423159663800932,
                1.7560679092942881,
                -1.146081313808939,
                0.15884770491010758,
                2.396400330323013
            ]
        },
        {
            "positions": [
                0.05526759368009848,
                -1.391998217369832,
                1.85790620487143,
                -1.088374303033665,
                0.17887392277151987,
                2.5398247256423874
            ]
        },
        {
            "positions": [
                0.025285831548256033,
                -1.3608367709387317,
                1.959744500448572,
                -1.030667292258391,
                0.19890014063293227,
                2.683249120961762
            ]
        },
        {
            "positions": [
                0.05811232177425056,
                -1.2896609487635886,
                1.9682502349276259,
                -0.9684623542692788,
                0.17848972872914376,
                2.8353655337246297
            ]
        },
        {
            "positions": [
                0.09093881200024509,
                -1.2184851265884455,
                1.9767559694066799,
                -0.9062574162801668,
                0.15807931682535525,
                2.9874819464874975
            ]
        },
        {
            "positions": [
                0.12376530222623962,
                -1.1473093044133025,
                1.9852617038857336,
                -0.8440524782910546,
                0.13766890492156672,
                3.1395983592503653
            ]
        }
    ]
}