{
    "goal": {
        "global_pose": {
            "orientation": {
                "w": 0.7047431468963623,
                "x": -0.7094548344612122,
                "y": 0.0024358443915843964,
                "z": -0.0022348060738295317
            },
            "position": {
                "x": 0.6094750761985779,
                "y": 0.3671506643295288,
                "z": 0.19426114857196808
            }
        },
        "name": "move_to_magneteinheit_A"
    },
    "id": "RRT_move_to_magneteinheit_A_35",
    "joint_names": [
        "shoulder_pan_joint",
        "shoulder_lift_joint",
        "elbow_joint",
        "wrist_1_joint",
        "wrist_2_joint",
        "wrist_3_joint"
    ],
    "metrics": {
        "cart_traj_len": 3.0967735613934724,
        "distance_elbow_joint": 3.8726389843589732,
        "distance_shoulder_lift_joint": 0.7325775252231652,
        "distance_shoulder_pan_joint": 2.832007577556775,
        "distance_wrist_1_joint": 2.007903438890736,
        "distance_wrist_2_joint": 1.696077797638797,
        "distance_wrist_3_joint": 2.57277968154885,
        "smoothness": 0.1640056941303787,
        "time": 0.064546192,
        "traj_len": 3.7032397985031023,
        "weighted_distance": 4.750107957177871
    },
    "planner": "RRT",
    "start": {
        "state": {
            "elbow_joint": -1.919618573717145,
            "shoulder_lift_joint": -1.2443395971678275,
            "shoulder_pan_joint": 2.6996025300909787,
            "wrist_1_joint": -1.548550951253194,
            "wrist_2_joint": -1.5709469090946802,
            "wrist_3_joint": 0.4420197732051276
        }
    },
    "waypoints": [
        {
            "positions": [
                2.6996025300909787,
                -1.2443395971678275,
                -1.919618573717145,
                -1.548550951253194,
                -1.5709469090946802,
                0.4420197732051276
            ]
        },
        {
            "positions": [
                2.6071912844906002,
                -1.2549653609375107,
                -1.7991038312471972,
                -1.499224463139291,
                -1.5200174819087038,
                0.509613908031234
            ]
        },
        {
            "positions": [
                2.514780038890222,
                -1.2655911247071936,
                -1.6785890887772492,
                -1.449897975025388,
                -1.4690880547227276,
                0.5772080428573403
            ]
        },
        {
            "positions": [
                2.4223687932898437,
                -1.2762168884768768,
                -1.5580743463073015,
                -1.400571486911485,
                -1.4181586275367513,
                0.6448021776834467
            ]
        },
        {
            "positions": [
                2.329957547689465,
                -1.2868426522465597,
                -1.4375596038373537,
                -1.3512449987975819,
                -1.3672292003507749,
                0.7123963125095532
            ]
        },
        {
            "positions": [
                2.237546302089087,
                -1.2974684160162429,
                -1.317044861367406,
                -1.3019185106836788,
                -1.3162997731647985,
                0.7799904473356595
            ]
        },
        {
            "positions": [
                2.1451350564887086,
                -1.3080941797859258,
                -1.1965301188974582,
                -1.2525920225697758,
                -1.2653703459788224,
                0.8475845821617658
            ]
        },
        {
            "positions": [
                2.05272381088833,
                -1.318719943555609,
                -1.0760153764275102,
                -1.2032655344558727,
                -1.214440918792846,
                0.9151787169878722
            ]
        },
        {
            "positions": [
                1.960312565287952,
                -1.329345707325292,
                -0.9555006339575625,
                -1.1539390463419696,
                -1.1635114916068696,
                0.9827728518139787
            ]
        },
        {
            "positions": [
                1.8679013196875736,
                -1.339971471094975,
                -0.8349858914876145,
                -1.1046125582280666,
                -1.1125820644208932,
                1.0503669866400849
            ]
        },
        {
            "positions": [
                1.775490074087195,
                -1.350597234864658,
                -0.7144711490176667,
                -1.0552860701141635,
                -1.0616526372349169,
                1.1179611214661913
            ]
        },
        {
            "positions": [
                1.683078828486817,
                -1.3612229986343412,
                -0.593956406547719,
                -1.0059595820002607,
                -1.0107232100489407,
                1.1855552562922977
            ]
        },
        {
            "positions": [
                1.5906675828864385,
                -1.371848762404024,
                -0.4734416640777712,
                -0.9566330938863575,
                -0.9597937828629645,
                1.253149391118404
            ]
        },
        {
            "positions": [
                1.4982563372860602,
                -1.3824745261737073,
                -0.35292692160782324,
                -0.9073066057724545,
                -0.9088643556769881,
                1.3207435259445104
            ]
        },
        {
            "positions": [
                1.4058450916856817,
                -1.3931002899433902,
                -0.23241217913787549,
                -0.8579801176585514,
                -0.8579349284910117,
                1.3883376607706168
            ]
        },
        {
            "positions": [
                1.3134338460853034,
                -1.4037260537130734,
                -0.11189743666792751,
                -0.8086536295446484,
                -0.8070055013050355,
                1.4559317955967233
            ]
        },
        {
            "positions": [
                1.2210226004849252,
                -1.4143518174827563,
                0.008617305802020025,
                -0.7593271414307453,
                -0.7560760741190592,
                1.5235259304228297
            ]
        },
        {
            "positions": [
                1.128611354884547,
                -1.4249775812524395,
                0.12913204827196778,
                -0.7100006533168424,
                -0.7051466469330829,
                1.591120065248936
            ]
        },
        {
            "positions": [
                1.0362001092841684,
                -1.4356033450221224,
                0.24964679074191598,
                -0.6606741652029392,
                -0.6542172197471066,
                1.6587142000750423
            ]
        },
        {
            "positions": [
                0.9437888636837901,
                -1.4462291087918056,
                0.3701615332118633,
                -0.6113476770890363,
                -0.6032877925611303,
                1.7263083349011488
            ]
        },
        {
            "positions": [
                0.8513776180834116,
                -1.4568548725614885,
                0.4906762756818115,
                -0.5620211889751331,
                -0.5523583653751538,
                1.7939024697272552
            ]
        },
        {
            "positions": [
                0.7589663724830333,
                -1.4674806363311717,
                0.6111910181517592,
                -0.5126947008612301,
                -0.5014289381891777,
                1.8614966045533614
            ]
        },
        {
            "positions": [
                0.6665551268826553,
                -1.4781064001008546,
                0.731705760621707,
                -0.4633682127473271,
                -0.4504995110032013,
                1.9290907393794678
            ]
        },
        {
            "positions": [
                0.5741438812822768,
                -1.4887321638705378,
                0.8522205030916548,
                -0.41404172463342404,
                -0.3995700838172249,
                1.9966848742055743
            ]
        },
        {
            "positions": [
                0.4817326356818983,
                -1.499357927640221,
                0.9727352455616025,
                -0.364715236519521,
                -0.34864065663124877,
                2.0642790090316803
            ]
        },
        {
            "positions": [
                0.3893213900815202,
                -1.5099836914099038,
                1.0932499880315503,
                -0.3153887484056179,
                -0.2977112294452724,
                2.1318731438577867
            ]
        },
        {
            "positions": [
                0.2969101444811417,
                -1.5206094551795868,
                1.2137647305014985,
                -0.26606226029171487,
                -0.24678180225929602,
                2.199467278683893
            ]
        },
        {
            "positions": [
                0.20449889888076322,
                -1.53123521894927,
                1.3342794729714462,
                -0.21673577217781181,
                -0.19585237507331987,
                2.2670614135099996
            ]
        },
        {
            "positions": [
                0.11208765328038472,
                -1.541860982718953,
                1.454794215441394,
                -0.16740928406390876,
                -0.14492294788734328,
                2.334655548336106
            ]
        },
        {
            "positions": [
                0.019676407680006745,
                -1.552486746488636,
                1.5753089579113415,
                -0.11808279595000576,
                -0.09399352070136704,
                2.4022496831622124
            ]
        },
        {
            "positions": [
                0.007425290339339769,
                -1.5343620686865829,
                1.6302019067973519,
                -0.14609348151696722,
                -0.062141800080051754,
                2.4630927166294168
            ]
        },
        {
            "positions": [
                -0.004825827001327207,
                -1.5162373908845295,
                1.685094855683362,
                -0.17410416708392867,
                -0.030290079458736463,
                2.523935750096621
            ]
        },
        {
            "positions": [
                0.01653905586792038,
                -1.4514286237273262,
                1.7366401424320328,
                -0.2767910156340923,
                -0.0008746331862318352,
                2.621937076246157
            ]
        },
        {
            "positions": [
                0.037903938737167964,
                -1.3866198565701229,
                1.7881854291807038,
                -0.379477864184256,
                0.028540813086272793,
                2.7199384023956927
            ]
        },
        {
            "positions": [
                0.05926882160641554,
                -1.3218110894129198,
                1.8397307159293748,
                -0.48216471273441963,
                0.05795625935877742,
                2.8179397285452286
            ]
        },
        {
            "positions": [
                0.08063370447566313,
                -1.2570023222557165,
                1.8912760026780455,
                -0.5848515612845833,
                0.08737170563128205,
                2.9159410546947644
            ]
        },
        {
            "positions": [
                0.10169354896940243,
                -1.192529346420998,
                1.9221482066599365,
                -0.6401848204110681,
                0.10625129708769936,
                2.965370254724371
            ]
        },
        {
            "positions": [
                0.12275339346314172,
                -1.1280563705862794,
                1.9530204106418274,
                -0.6955180795375528,
                0.12513088854411666,
                3.0147994547539776
            ]
        }
    ]
}{
    "goal": {
        "global_pose": {
            "orientation": {
                "w": 0.7047431468963623,
                "x": -0.7094548344612122,
                "y": 0.0024358443915843964,
                "z": -0.0022348060738295317
            },
            "position": {
                "x": 0.6094750761985779,
                "y": 0.3671506643295288,
                "z": 0.19426114857196808
            }
        },
        "name": "move_to_magneteinheit_A"
    },
    "id": "RRT_move_to_magneteinheit_A_35",
    "joint_names": [
        "shoulder_pan_joint",
        "shoulder_lift_joint",
        "elbow_joint",
        "wrist_1_joint",
        "wrist_2_joint",
        "wrist_3_joint"
    ],
    "metrics": {
        "cart_traj_len": 1.781960741190943,
        "distance_elbow_joint": 2.7410633082645237,
        "distance_shoulder_lift_joint": 0.764750197505421,
        "distance_shoulder_pan_joint": 1.2414811807976056,
        "distance_wrist_1_joint": 2.2393543246073833,
        "distance_wrist_2_joint": 1.4349638331283963,
        "distance_wrist_3_joint": 4.360143364749555,
        "smoothness": 0.27914290720149704,
        "time": 0.08318088800000001,
        "traj_len": 3.5751582075557,
        "weighted_distance": 5.0176051156191805
    },
    "planner": "RRT",
    "start": {
        "state": {
            "elbow_joint": 1.919643534880228,
            "shoulder_lift_joint": -1.8972525353963687,
            "shoulder_pan_joint": -1.1188672234189438,
            "wrist_1_joint": -1.5931878212786155,
            "wrist_2_joint": 1.5706036197970081,
            "wrist_3_joint": 1.118896926603594
        }
    },
    "waypoints": [
        {
            "positions": [
                -1.1188672234189438,
                -1.8972525353963687,
                1.919643534880228,
                -1.5931878212786155,
                1.5706036197970081,
                1.118896926603594
            ]
        },
        {
            "positions": [
                -1.1153605930553032,
                -1.86279072665597,
                1.8295979460118412,
                -1.4893237945805984,
                1.4839465689561324,
                1.0619438711583704
            ]
        },
        {
            "positions": [
                -1.1118539626916628,
                -1.8283289179155715,
                1.7395523571434546,
                -1.385459767882581,
                1.3972895181152565,
                1.0049908157131469
            ]
        },
        {
            "positions": [
                -1.1083473323280222,
                -1.7938671091751728,
                1.6495067682750677,
                -1.281595741184564,
                1.3106324672743805,
                0.9480377602679233
            ]
        },
        {
            "positions": [
                -1.1048407019643816,
                -1.759405300434774,
                1.5594611794066808,
                -1.177731714486547,
                1.2239754164335048,
                0.8910847048226997
            ]
        },
        {
            "positions": [
                -1.101334071600741,
                -1.7249434916943756,
                1.469415590538294,
                -1.0738676877885296,
                1.137318365592629,
                0.8341316493774762
            ]
        },
        {
            "positions": [
                -1.0978274412371005,
                -1.6904816829539768,
                1.379370001669907,
                -0.9700036610905125,
                1.050661314751753,
                0.7771785939322526
            ]
        },
        {
            "positions": [
                -1.09432081087346,
                -1.656019874213578,
                1.2893244128015204,
                -0.8661396343924953,
                0.9640042639108772,
                0.7202255384870291
            ]
        },
        {
            "positions": [
                -1.0908141805098193,
                -1.6215580654731796,
                1.1992788239331336,
                -0.7622756076944782,
                0.8773472130700015,
                0.6632724830418055
            ]
        },
        {
            "positions": [
                -1.0873075501461786,
                -1.5870962567327809,
                1.109233235064747,
                -0.658411580996461,
                0.7906901622291257,
                0.606319427596582
            ]
        },
        {
            "positions": [
                -1.0838009197825382,
                -1.5526344479923821,
                1.01918764619636,
                -0.5545475542984439,
                0.7040331113882499,
                0.5493663721513584
            ]
        },
        {
            "positions": [
                -1.0802942894188976,
                -1.5181726392519836,
                0.9291420573279732,
                -0.45068352760042685,
                0.617376060547374,
                0.49241331670613486
            ]
        },
        {
            "positions": [
                -1.076787659055257,
                -1.483710830511585,
                0.8390964684595863,
                -0.34681950090240954,
                0.530719009706498,
                0.4354602612609112
            ]
        },
        {
            "positions": [
                -1.0732810286916163,
                -1.4492490217711862,
                0.7490508795911994,
                -0.24295547420439223,
                0.4440619588656223,
                0.37850720581568764
            ]
        },
        {
            "positions": [
                -1.069774398327976,
                -1.4147872130307877,
                0.6590052907228128,
                -0.13909144750637514,
                0.35740490802474634,
                0.3215541503704641
            ]
        },
        {
            "positions": [
                -1.0662677679643353,
                -1.380325404290389,
                0.5689597018544259,
                -0.035227420808357945,
                0.2707478571838706,
                0.26460109492524053
            ]
        },
        {
            "positions": [
                -1.0036950455778617,
                -1.367282085006208,
                0.6421375689722534,
                -0.07109025892083827,
                0.26363690610412005,
                0.08008280371096682
            ]
        },
        {
            "positions": [
                -0.9411223231913882,
                -1.3542387657220267,
                0.7153154360900807,
                -0.1069530970333186,
                0.25652595502436953,
                -0.10443548750330689
            ]
        },
        {
            "positions": [
                -0.8785496008049147,
                -1.3411954464378457,
                0.7884933032079082,
                -0.14281593514579893,
                0.249415003944619,
                -0.28895377871758054
            ]
        },
        {
            "positions": [
                -0.8159768784184411,
                -1.3281521271536645,
                0.8616711703257356,
                -0.17867877325827924,
                0.24230405286486842,
                -0.4734720699318543
            ]
        },
        {
            "positions": [
                -0.7534041560319678,
                -1.3151088078694835,
                0.9348490374435631,
                -0.21454161137075956,
                0.23519310178511788,
                -0.657990361146128
            ]
        },
        {
            "positions": [
                -0.6908314336454942,
                -1.3020654885853022,
                1.0080269045613905,
                -0.2504044494832399,
                0.22808215070536733,
                -0.8425086523604016
            ]
        },
        {
            "positions": [
                -0.6282587112590206,
                -1.2890221693011212,
                1.081204771679218,
                -0.28626728759572023,
                0.2209711996256168,
                -1.0270269435746755
            ]
        },
        {
            "positions": [
                -0.5656859888725471,
                -1.27597885001694,
                1.1543826387970455,
                -0.32213012570820054,
                0.21386024854586624,
                -1.2115452347889493
            ]
        },
        {
            "positions": [
                -0.5031132664860736,
                -1.262935530732759,
                1.2275605059148726,
                -0.35799296382068085,
                0.2067492974661157,
                -1.396063526003223
            ]
        },
        {
            "positions": [
                -0.4405405440996001,
                -1.2498922114485778,
                1.3007383730327002,
                -0.39385580193316116,
                0.19963834638636513,
                -1.5805818172174964
            ]
        },
        {
            "positions": [
                -0.3779678217131265,
                -1.2368488921643968,
                1.3739162401505278,
                -0.42971864004564153,
                0.19252739530661458,
                -1.7651001084317706
            ]
        },
        {
            "positions": [
                -0.315395099326653,
                -1.2238055728802155,
                1.447094107268355,
                -0.46558147815812184,
                0.18541644422686404,
                -1.9496183996460439
            ]
        },
        {
            "positions": [
                -0.2528223769401794,
                -1.2107622535960345,
                1.5202719743861826,
                -0.5014443162706022,
                0.1783054931471135,
                -2.134136690860318
            ]
        },
        {
            "positions": [
                -0.1902496545537059,
                -1.1977189343118533,
                1.59344984150401,
                -0.5373071543830825,
                0.17119454206736295,
                -2.3186549820745914
            ]
        },
        {
            "positions": [
                -0.1276769321672323,
                -1.1846756150276723,
                1.6666277086218375,
                -0.5731699924955629,
                0.16408359098761238,
                -2.5031732732888656
            ]
        },
        {
            "positions": [
                -0.06510420978075881,
                -1.1716322957434913,
                1.7398055757396649,
                -0.6090328306080431,
                0.15697263990786187,
                -2.687691564503139
            ]
        },
        {
            "positions": [
                -0.0025314873942852145,
                -1.15858897645931,
                1.8129834428574922,
                -0.6448956687205235,
                0.1498616888281113,
                -2.8722098557174127
            ]
        },
        {
            "positions": [
                0.060041234992188164,
                -1.1455456571751288,
                1.8861613099753196,
                -0.6807585068330038,
                0.14275073774836075,
                -3.0567281469316865
            ]
        },
        {
            "positions": [
                0.12261395737866176,
                -1.1325023378909478,
                1.9593391770931472,
                -0.7166213449454841,
                0.1356397866686102,
                -3.2412464381459603
            ]
        }
    ]
}