{
    "goal": {
        "global_pose": {
            "orientation": {
                "w": 0.5084816217422485,
                "x": -0.49083608388900757,
                "y": 0.5182115435600281,
                "z": -0.4816462993621826
            },
            "position": {
                "x": 0.5540239810943604,
                "y": 0.030875300988554955,
                "z": 0.16403168439865112
            }
        },
        "name": "move_to_storage_A"
    },
    "id": "RRT_move_to_storage_A_52",
    "joint_names": [
        "shoulder_pan_joint",
        "shoulder_lift_joint",
        "elbow_joint",
        "wrist_1_joint",
        "wrist_2_joint",
        "wrist_3_joint"
    ],
    "metrics": {
        "cart_traj_len": 0.35337289126863125,
        "distance_elbow_joint": 0.4490093788134497,
        "distance_shoulder_lift_joint": 0.2354744389488026,
        "distance_shoulder_pan_joint": 0.45915355133938546,
        "distance_wrist_1_joint": 0.23896123662441615,
        "distance_wrist_2_joint": 1.1122742235295973,
        "distance_wrist_3_joint": 0.09708894440995719,
        "smoothness": 4.440892098500626e-16,
        "time": 0.012287197,
        "traj_len": 1.6099570719946568,
        "weighted_distance": 2.0340538642424235
    },
    "planner": "RRT",
    "start": {
        "state": {
            "elbow_joint": 1.9715477243005601,
            "shoulder_lift_joint": -1.1394853015351272,
            "shoulder_pan_joint": 0.12281154014795169,
            "wrist_1_joint": -0.7804696478968182,
            "wrist_2_joint": 0.12958648046900423,
            "wrist_3_joint": -3.192491284697111
        }
    },
    "waypoints": [
        {
            "positions": [
                0.12281154014795169,
                -1.1394853015351272,
                1.9715477243005601,
                -0.7804696478968182,
                0.12958648046900423,
                -3.192491284697111
            ]
        },
        {
            "positions": [
                0.057218175670896626,
                -1.1731245070992418,
                2.03569192127391,
                -0.8146069674145919,
                0.28848279811608957,
                -3.1786214354956885
            ]
        },
        {
            "positions": [
                -0.008375188806158437,
                -1.2067637126633566,
                2.0998361182472602,
                -0.8487442869323656,
                0.44737911576317485,
                -3.1647515862942663
            ]
        },
        {
            "positions": [
                -0.07396855328321349,
                -1.2404029182274712,
                2.16398031522061,
                -0.8828816064501394,
                0.6062754334102602,
                -3.1508817370928437
            ]
        },
        {
            "positions": [
                -0.13956191776026855,
                -1.2740421237915858,
                2.22812451219396,
                -0.9170189259679131,
                0.7651717510573455,
                -3.1370118878914215
            ]
        },
        {
            "positions": [
                -0.20515528223732366,
                -1.3076813293557006,
                2.2922687091673097,
                -0.9511562454856868,
                0.9240680687044308,
                -3.123142038689999
            ]
        },
        {
            "positions": [
                -0.27074864671437865,
                -1.3413205349198152,
                2.35641290614066,
                -0.9852935650034605,
                1.0829643863515162,
                -3.1092721894885766
            ]
        },
        {
            "positions": [
                -0.33634201119143375,
                -1.3749597404839298,
                2.42055710311401,
                -1.0194308845212343,
                1.2418607039986016,
                -3.095402340287154
            ]
        }
    ]
}