{
    "goal": {
        "global_pose": {
            "orientation": {
                "w": 0.7047431468963623,
                "x": -0.7094548344612122,
                "y": 0.0024358443915843964,
                "z": -0.0022348060738295317
            },
            "position": {
                "x": 0.6094750761985779,
                "y": 0.3671506643295288,
                "z": 0.19426114857196808
            }
        },
        "name": "move_to_magneteinheit_A"
    },
    "id": "RRT_move_to_magneteinheit_A_143",
    "joint_names": [
        "shoulder_pan_joint",
        "shoulder_lift_joint",
        "elbow_joint",
        "wrist_1_joint",
        "wrist_2_joint",
        "wrist_3_joint"
    ],
    "metrics": {
        "cart_traj_len": 3.3373665805166355,
        "distance_elbow_joint": 3.9135603142167312,
        "distance_shoulder_lift_joint": 0.799289478651539,
        "distance_shoulder_pan_joint": 3.9601981637956936,
        "distance_wrist_1_joint": 3.467434821552064,
        "distance_wrist_2_joint": 1.4373768154452995,
        "distance_wrist_3_joint": 1.4781043120848107,
        "smoothness": 0.2000817690742477,
        "time": 0.823401977,
        "traj_len": 3.8802015290118814,
        "weighted_distance": 4.787168700486034
    },
    "planner": "RRT",
    "start": {
        "state": {
            "elbow_joint": -1.919618573717145,
            "shoulder_lift_joint": -1.2443395971678275,
            "shoulder_pan_joint": 2.6996025300909787,
            "wrist_1_joint": -1.548550951253194,
            "wrist_2_joint": -1.5709469090946802,
            "wrist_3_joint": 0.4420197732051276
        }
    },
    "waypoints": [
        {
            "positions": [
                2.6996025300909787,
                -1.2443395971678275,
                -1.919618573717145,
                -1.548550951253194,
                -1.5709469090946802,
                0.4420197732051276
            ]
        },
        {
            "positions": [
                2.5739153024784573,
                -1.2507282760674674,
                -1.8161943751848257,
                -1.4724508453370015,
                -1.5249676542697994,
                0.40505651263856995
            ]
        },
        {
            "positions": [
                2.448228074865936,
                -1.257116954967107,
                -1.7127701766525065,
                -1.3963507394208092,
                -1.4789883994449189,
                0.3680932520720123
            ]
        },
        {
            "positions": [
                2.3225408472534146,
                -1.263505633866747,
                -1.6093459781201873,
                -1.3202506335046167,
                -1.4330091446200381,
                0.3311299915054547
            ]
        },
        {
            "positions": [
                2.196853619640893,
                -1.2698943127663869,
                -1.5059217795878683,
                -1.2441505275884244,
                -1.3870298897951574,
                0.2941667309388971
            ]
        },
        {
            "positions": [
                2.0711663920283714,
                -1.2762829916660268,
                -1.4024975810555491,
                -1.1680504216722318,
                -1.3410506349702769,
                0.2572034703723395
            ]
        },
        {
            "positions": [
                1.94547916441585,
                -1.2826716705656664,
                -1.29907338252323,
                -1.0919503157560395,
                -1.2950713801453961,
                0.22024020980578182
            ]
        },
        {
            "positions": [
                1.8197919368033286,
                -1.2890603494653063,
                -1.195649183990911,
                -1.0158502098398472,
                -1.2490921253205154,
                0.18327694923922422
            ]
        },
        {
            "positions": [
                1.6941047091908072,
                -1.2954490283649462,
                -1.0922249854585915,
                -0.9397501039236545,
                -1.2031128704956346,
                0.1463136886726666
            ]
        },
        {
            "positions": [
                1.5684174815782859,
                -1.3018377072645861,
                -0.9888007869262725,
                -0.8636499980074621,
                -1.1571336156707541,
                0.10935042810610901
            ]
        },
        {
            "positions": [
                1.4427302539657643,
                -1.3082263861642258,
                -0.8853765883939533,
                -0.7875498920912697,
                -1.1111543608458734,
                0.07238716753955132
            ]
        },
        {
            "positions": [
                1.317043026353243,
                -1.3146150650638657,
                -0.7819523898616343,
                -0.7114497861750773,
                -1.0651751060209929,
                0.035423906972993746
            ]
        },
        {
            "positions": [
                1.1913557987407215,
                -1.3210037439635056,
                -0.6785281913293149,
                -0.6353496802588848,
                -1.0191958511961121,
                -0.0015393535935639413
            ]
        },
        {
            "positions": [
                1.0656685711282001,
                -1.3273924228631455,
                -0.5751039927969959,
                -0.5592495743426924,
                -0.9732165963712314,
                -0.03850261416012152
            ]
        },
        {
            "positions": [
                0.9399813435156787,
                -1.3337811017627852,
                -0.4716797942646769,
                -0.4831494684265001,
                -0.9272373415463507,
                -0.07546587472667915
            ]
        },
        {
            "positions": [
                0.8142941159031574,
                -1.340169780662425,
                -0.36825559573235767,
                -0.40704936251030754,
                -0.8812580867214701,
                -0.11242913529323667
            ]
        },
        {
            "positions": [
                0.6886068882906358,
                -1.346558459562065,
                -0.26483139720003823,
                -0.330949256594115,
                -0.8352788318965892,
                -0.1493923958597944
            ]
        },
        {
            "positions": [
                0.5629196606781144,
                -1.3529471384617047,
                -0.16140719866771924,
                -0.2548491506779227,
                -0.7892995770717086,
                -0.18635565642635205
            ]
        },
        {
            "positions": [
                0.437232433065593,
                -1.3593358173613446,
                -0.05798300013540003,
                -0.17874904476173015,
                -0.743320322246828,
                -0.22331891699290957
            ]
        },
        {
            "positions": [
                0.3115452054530716,
                -1.3657244962609845,
                0.04544119839691896,
                -0.10264893884553783,
                -0.6973410674219473,
                -0.2602821775594672
            ]
        },
        {
            "positions": [
                0.1858579778405498,
                -1.3721131751606244,
                0.1488653969292384,
                -0.02654883292934529,
                -0.6513618125970666,
                -0.29724543812602494
            ]
        },
        {
            "positions": [
                0.060170750228028425,
                -1.378501854060264,
                0.2522895954615574,
                0.04955127298684703,
                -0.605382557772186,
                -0.3342086986925826
            ]
        },
        {
            "positions": [
                -0.06551647738449251,
                -1.384890532959904,
                0.35571379399387637,
                0.12565137890303957,
                -0.5594033029473053,
                -0.3711719592591401
            ]
        },
        {
            "positions": [
                -0.1912037049970139,
                -1.3912792118595438,
                0.4591379925261958,
                0.20175148481923189,
                -0.5134240481224246,
                -0.4081352198256977
            ]
        },
        {
            "positions": [
                -0.3168909326095357,
                -1.3976678907591837,
                0.5625621910585152,
                0.2778515907354244,
                -0.46744479329754385,
                -0.44509848039225547
            ]
        },
        {
            "positions": [
                -0.4425781602220571,
                -1.4040565696588234,
                0.6659863895908342,
                0.35395169665161696,
                -0.4214655384726633,
                -0.482061740958813
            ]
        },
        {
            "positions": [
                -0.5682653878345785,
                -1.4104452485584633,
                0.7694105881231534,
                0.4300518025678093,
                -0.3754862836477827,
                -0.5190250015253707
            ]
        },
        {
            "positions": [
                -0.5196003112951961,
                -1.3625794973584402,
                0.8681497344565845,
                0.5496292900739594,
                -0.35700839747051105,
                -0.4789302927189202
            ]
        },
        {
            "positions": [
                -0.4709352347558139,
                -1.3147137461584169,
                0.9668888807900156,
                0.6692067775801096,
                -0.33853051129323947,
                -0.43883558391246963
            ]
        },
        {
            "positions": [
                -0.4222701582164316,
                -1.2668479949583937,
                1.0656280271234466,
                0.7887842650862598,
                -0.3200526251159678,
                -0.3987408751060191
            ]
        },
        {
            "positions": [
                -0.3736050816770493,
                -1.2189822437583704,
                1.1643671734568777,
                0.9083617525924099,
                -0.3015747389386962,
                -0.3586461662995686
            ]
        },
        {
            "positions": [
                -0.324940005137667,
                -1.1711164925583473,
                1.263106319790309,
                1.02793924009856,
                -0.2830968527614246,
                -0.3185514574931181
            ]
        },
        {
            "positions": [
                -0.27627492859828473,
                -1.1232507413583241,
                1.3618454661237398,
                1.1475167276047102,
                -0.26461896658415296,
                -0.27845674868666753
            ]
        },
        {
            "positions": [
                -0.22760985205890244,
                -1.075384990158301,
                1.460584612457171,
                1.2670942151108602,
                -0.24614108040688132,
                -0.23836203988021704
            ]
        },
        {
            "positions": [
                -0.17894477551952015,
                -1.0275192389582777,
                1.5593237587906021,
                1.3866717026170106,
                -0.2276631942296097,
                -0.19826733107376648
            ]
        },
        {
            "positions": [
                -0.13027969898013786,
                -0.9796534877582546,
                1.6580629051240332,
                1.5062491901231605,
                -0.20918530805233806,
                -0.15817262226731593
            ]
        },
        {
            "positions": [
                -0.08161462244075557,
                -0.9317877365582313,
                1.7568020514574643,
                1.6258266776293107,
                -0.19070742187506645,
                -0.11807791346086544
            ]
        },
        {
            "positions": [
                -0.013054795615317139,
                -0.8802789648046743,
                1.8358486144715056,
                1.723512408519164,
                -0.17166164579983798,
                -0.07937376369759627
            ]
        },
        {
            "positions": [
                0.05550503121012129,
                -0.8287701930511172,
                1.9148951774855467,
                1.821198139409017,
                -0.1526158697246095,
                -0.04066961393432711
            ]
        },
        {
            "positions": [
                0.12406485803555972,
                -0.7772614212975602,
                1.993941740499588,
                1.9188838702988704,
                -0.133570093649381,
                -0.0019654641710579387
            ]
        }
    ]
}{
    "goal": {
        "global_pose": {
            "orientation": {
                "w": 0.7047431468963623,
                "x": -0.7094548344612122,
                "y": 0.0024358443915843964,
                "z": -0.0022348060738295317
            },
            "position": {
                "x": 0.6094750761985779,
                "y": 0.3671506643295288,
                "z": 0.19426114857196808
            }
        },
        "name": "move_to_magneteinheit_A"
    },
    "id": "RRT_move_to_magneteinheit_A_143",
    "joint_names": [
        "shoulder_pan_joint",
        "shoulder_lift_joint",
        "elbow_joint",
        "wrist_1_joint",
        "wrist_2_joint",
        "wrist_3_joint"
    ],
    "metrics": {
        "cart_traj_len": 1.2014386826449148,
        "distance_elbow_joint": 0.0473586181988912,
        "distance_shoulder_lift_joint": 0.7596319166006302,
        "distance_shoulder_pan_joint": 1.2405257143917217,
        "distance_wrist_1_joint": 0.8302652557576568,
        "distance_wrist_2_joint": 1.4520236391394947,
        "distance_wrist_3_joint": 1.9568004580690428,
        "smoothness": 2.6122894756546934e-16,
        "time": 2.336925373,
        "traj_len": 2.507310431948433,
        "weighted_distance": 3.533057516258782
    },
    "planner": "RRT",
    "start": {
        "state": {
            "elbow_joint": 1.919643534880228,
            "shoulder_lift_joint": -1.8972525353963687,
            "shoulder_pan_joint": -1.1188672234189438,
            "wrist_1_joint": -1.5931878212786155,
            "wrist_2_joint": 1.5706036197970081,
            "wrist_3_joint": 1.118896926603594
        }
    },
    "waypoints": [
        {
            "positions": [
                -1.1188672234189438,
                -1.8972525353963687,
                1.919643534880228,
                -1.5931878212786155,
                1.5706036197970081,
                1.118896926603594
            ]
        },
        {
            "positions": [
                -1.0413343662694612,
                -1.8497755406088294,
                1.9226034485176589,
                -1.541296242793762,
                1.4798521423507898,
                1.2411969552329092
            ]
        },
        {
            "positions": [
                -0.9638015091199786,
                -1.80229854582129,
                1.9255633621550894,
                -1.4894046643089083,
                1.3891006649045714,
                1.3634969838622244
            ]
        },
        {
            "positions": [
                -0.8862686519704961,
                -1.7548215510337506,
                1.9285232757925201,
                -1.4375130858240548,
                1.2983491874583528,
                1.4857970124915396
            ]
        },
        {
            "positions": [
                -0.8087357948210134,
                -1.7073445562462113,
                1.931483189429951,
                -1.3856215073392013,
                1.2075977100121345,
                1.6080970411208546
            ]
        },
        {
            "positions": [
                -0.7312029376715308,
                -1.6598675614586718,
                1.9344431030673817,
                -1.3337299288543476,
                1.116846232565916,
                1.7303970697501698
            ]
        },
        {
            "positions": [
                -0.6536700805220482,
                -1.6123905666711325,
                1.9374030167048124,
                -1.2818383503694941,
                1.0260947551196975,
                1.852697098379485
            ]
        },
        {
            "positions": [
                -0.5761372233725657,
                -1.5649135718835931,
                1.940362930342243,
                -1.2299467718846406,
                0.9353432776734791,
                1.9749971270088
            ]
        },
        {
            "positions": [
                -0.498604366223083,
                -1.5174365770960536,
                1.9433228439796737,
                -1.1780551933997871,
                0.8445918002272608,
                2.0972971556381155
            ]
        },
        {
            "positions": [
                -0.42107150907360036,
                -1.469959582308514,
                1.9462827576171045,
                -1.1261636149149337,
                0.7538403227810424,
                2.2195971842674305
            ]
        },
        {
            "positions": [
                -0.3435386519241178,
                -1.4224825875209748,
                1.949242671254535,
                -1.07427203643008,
                0.6630888453348239,
                2.341897212896746
            ]
        },
        {
            "positions": [
                -0.26600579477463526,
                -1.3750055927334355,
                1.9522025848919657,
                -1.0223804579452265,
                0.5723373678886055,
                2.464197241526061
            ]
        },
        {
            "positions": [
                -0.1884729376251526,
                -1.327528597945896,
                1.9551624985293965,
                -0.9704888794603729,
                0.4815858904423871,
                2.586497270155376
            ]
        },
        {
            "positions": [
                -0.11094008047566994,
                -1.2800516031583566,
                1.9581224121668273,
                -0.9185973009755194,
                0.3908344129961687,
                2.7087972987846913
            ]
        },
        {
            "positions": [
                -0.03340722332618751,
                -1.2325746083708173,
                1.961082325804258,
                -0.8667057224906658,
                0.30008293554995014,
                2.8310973274140063
            ]
        },
        {
            "positions": [
                0.04412563382329515,
                -1.1850976135832778,
                1.9640422394416885,
                -0.8148141440058123,
                0.20933145810373177,
                2.9533973560433218
            ]
        },
        {
            "positions": [
                0.1216584909727778,
                -1.1376206187957385,
                1.9670021530791193,
                -0.7629225655209587,
                0.11857998065751348,
                3.0756973846726368
            ]
        }
    ]
}