{
    "goal": {
        "global_pose": {
            "orientation": {
                "w": 0.5084816217422485,
                "x": -0.49083608388900757,
                "y": 0.5182115435600281,
                "z": -0.4816462993621826
            },
            "position": {
                "x": 0.5540239810943604,
                "y": 0.030875300988554955,
                "z": 0.16403168439865112
            }
        },
        "name": "move_to_storage_A"
    },
    "id": "RRT_move_to_storage_A_59",
    "joint_names": [
        "shoulder_pan_joint",
        "shoulder_lift_joint",
        "elbow_joint",
        "wrist_1_joint",
        "wrist_2_joint",
        "wrist_3_joint"
    ],
    "metrics": {
        "cart_traj_len": 0.3526877574498992,
        "distance_elbow_joint": 0.45088418067863767,
        "distance_shoulder_lift_joint": 0.23181258807773686,
        "distance_shoulder_pan_joint": 0.4604278911283571,
        "distance_wrist_1_joint": 0.2533136008277458,
        "distance_wrist_2_joint": 1.09991592083979,
        "distance_wrist_3_joint": 0.1048312289876443,
        "smoothness": 6.661338165333112e-16,
        "time": 0.0137949,
        "traj_len": 1.6128190879760542,
        "weighted_distance": 2.0406071131363666
    },
    "planner": "RRT",
    "start": {
        "state": {
            "elbow_joint": 1.9715477243005601,
            "shoulder_lift_joint": -1.1394853015351272,
            "shoulder_pan_joint": 0.12281154014795169,
            "wrist_1_joint": -0.7804696478968182,
            "wrist_2_joint": 0.12958648046900423,
            "wrist_3_joint": -3.192491284697111
        }
    },
    "waypoints": [
        {
            "positions": [
                0.12281154014795169,
                -1.1394853015351272,
                1.9715477243005601,
                -0.7804696478968182,
                0.12958648046900423,
                -3.192491284697111
            ]
        },
        {
            "positions": [
                0.057036127129614964,
                -1.1726013855462325,
                2.035959750111794,
                -0.8166573051579247,
                0.28671732630325997,
                -3.1775153948417336
            ]
        },
        {
            "positions": [
                -0.008739285888721762,
                -1.2057174695573376,
                2.100371775923028,
                -0.8528449624190313,
                0.44384817213751565,
                -3.1625395049863556
            ]
        },
        {
            "positions": [
                -0.07451469890705849,
                -1.238833553568443,
                2.164783801734262,
                -0.8890326196801378,
                0.6009790179717713,
                -3.147563615130978
            ]
        },
        {
            "positions": [
                -0.1402901119253952,
                -1.2719496375795483,
                2.229195827545496,
                -0.9252202769412443,
                0.7581098638060271,
                -3.1325877252756
            ]
        },
        {
            "positions": [
                -0.20606552494373193,
                -1.3050657215906536,
                2.29360785335673,
                -0.9614079342023509,
                0.9152407096402828,
                -3.1176118354202225
            ]
        },
        {
            "positions": [
                -0.27184093796206865,
                -1.3381818056017587,
                2.358019879167964,
                -0.9975955914634573,
                1.0723715554745383,
                -3.1026359455648445
            ]
        },
        {
            "positions": [
                -0.3376163509804054,
                -1.371297889612864,
                2.422431904979198,
                -1.033783248724564,
                1.229502401308794,
                -3.087660055709467
            ]
        }
    ]
}