{
    "goal": {
        "global_pose": {
            "orientation": {
                "w": 0.7047431468963623,
                "x": -0.7094548344612122,
                "y": 0.0024358443915843964,
                "z": -0.0022348060738295317
            },
            "position": {
                "x": 0.6094750761985779,
                "y": 0.3671506643295288,
                "z": 0.19426114857196808
            }
        },
        "name": "move_to_magneteinheit_A"
    },
    "id": "RRT_move_to_magneteinheit_A_23",
    "joint_names": [
        "shoulder_pan_joint",
        "shoulder_lift_joint",
        "elbow_joint",
        "wrist_1_joint",
        "wrist_2_joint",
        "wrist_3_joint"
    ],
    "metrics": {
        "cart_traj_len": 3.096226693960686,
        "distance_elbow_joint": 3.883428832044112,
        "distance_shoulder_lift_joint": 0.6894548173741752,
        "distance_shoulder_pan_joint": 2.9922826181828253,
        "distance_wrist_1_joint": 2.1105028132128862,
        "distance_wrist_2_joint": 1.7100330605619636,
        "distance_wrist_3_joint": 3.684755141867641,
        "smoothness": 0.18979474145997702,
        "time": 0.24370604799999998,
        "traj_len": 3.882068686054332,
        "weighted_distance": 5.12450031132341
    },
    "planner": "RRT",
    "start": {
        "state": {
            "elbow_joint": -1.919618573717145,
            "shoulder_lift_joint": -1.2443395971678275,
            "shoulder_pan_joint": 2.6996025300909787,
            "wrist_1_joint": -1.548550951253194,
            "wrist_2_joint": -1.5709469090946802,
            "wrist_3_joint": 0.4420197732051276
        }
    },
    "waypoints": [
        {
            "positions": [
                2.6996025300909787,
                -1.2443395971678275,
                -1.919618573717145,
                -1.548550951253194,
                -1.5709469090946802,
                0.4420197732051276
            ]
        },
        {
            "positions": [
                2.6125749957106668,
                -1.2534103044679044,
                -1.7993580942753602,
                -1.502836459411231,
                -1.5366280078555736,
                0.3537561494571848
            ]
        },
        {
            "positions": [
                2.5255474613303552,
                -1.262481011767981,
                -1.6790976148335757,
                -1.4571219675692677,
                -1.5023091066164673,
                0.2654925257092421
            ]
        },
        {
            "positions": [
                2.4385199269500433,
                -1.2715517190680579,
                -1.558837135391791,
                -1.4114074757273047,
                -1.4679902053773608,
                0.1772289019612993
            ]
        },
        {
            "positions": [
                2.3514923925697317,
                -1.2806224263681347,
                -1.4385766559500062,
                -1.3656929838853415,
                -1.4336713041382545,
                0.08896527821335654
            ]
        },
        {
            "positions": [
                2.26446485818942,
                -1.2896931336682116,
                -1.3183161765082216,
                -1.3199784920433784,
                -1.399352402899148,
                0.0007016544654137591
            ]
        },
        {
            "positions": [
                2.177437323809108,
                -1.2987638409682885,
                -1.1980556970664369,
                -1.2742640002014152,
                -1.3650335016600417,
                -0.08756196928252896
            ]
        },
        {
            "positions": [
                2.0904097894287963,
                -1.307834548268365,
                -1.0777952176246521,
                -1.228549508359452,
                -1.3307146004209351,
                -0.1758255930304718
            ]
        },
        {
            "positions": [
                2.0033822550484843,
                -1.316905255568442,
                -0.9575347381828676,
                -1.182835016517489,
                -1.2963956991818288,
                -0.2640892167784145
            ]
        },
        {
            "positions": [
                1.9163547206681726,
                -1.3259759628685188,
                -0.8372742587410829,
                -1.1371205246755258,
                -1.2620767979427223,
                -0.35235284052635724
            ]
        },
        {
            "positions": [
                1.8293271862878608,
                -1.3350466701685955,
                -0.7170137792992983,
                -1.0914060328335626,
                -1.2277578967036158,
                -0.44061646427430007
            ]
        },
        {
            "positions": [
                1.7422996519075489,
                -1.3441173774686723,
                -0.5967532998575136,
                -1.0456915409915997,
                -1.1934389954645095,
                -0.5288800880222428
            ]
        },
        {
            "positions": [
                1.6552721175272371,
                -1.3531880847687492,
                -0.4764928204157288,
                -0.9999770491496364,
                -1.159120094225403,
                -0.6171437117701855
            ]
        },
        {
            "positions": [
                1.5682445831469254,
                -1.362258792068826,
                -0.3562323409739443,
                -0.9542625573076733,
                -1.1248011929862967,
                -0.7054073355181283
            ]
        },
        {
            "positions": [
                1.4812170487666134,
                -1.371329499368903,
                -0.23597186153215954,
                -0.9085480654657101,
                -1.0904822917471901,
                -0.7936709592660711
            ]
        },
        {
            "positions": [
                1.3941895143863017,
                -1.3804002066689796,
                -0.11571138209037501,
                -0.862833573623747,
                -1.0561633905080838,
                -0.8819345830140137
            ]
        },
        {
            "positions": [
                1.30716198000599,
                -1.3894709139690564,
                0.004549097351409737,
                -0.8171190817817838,
                -1.0218444892689773,
                -0.9701982067619566
            ]
        },
        {
            "positions": [
                1.2201344456256782,
                -1.3985416212691333,
                0.12480957679319427,
                -0.7714045899398206,
                -0.9875255880298709,
                -1.0584618305098994
            ]
        },
        {
            "positions": [
                1.1331069112453664,
                -1.40761232856921,
                0.24507005623497924,
                -0.7256900980978576,
                -0.9532066867907645,
                -1.146725454257842
            ]
        },
        {
            "positions": [
                1.0460793768650545,
                -1.4166830358692868,
                0.36533053567676377,
                -0.6799756062558944,
                -0.9188877855516581,
                -1.2349890780057848
            ]
        },
        {
            "positions": [
                0.9590518424847427,
                -1.4257537431693637,
                0.4855910151185483,
                -0.6342611144139313,
                -0.8845688843125517,
                -1.3232527017537277
            ]
        },
        {
            "positions": [
                0.872024308104431,
                -1.4348244504694405,
                0.6058514945603333,
                -0.5885466225719681,
                -0.8502499830734451,
                -1.4115163255016703
            ]
        },
        {
            "positions": [
                0.784996773724119,
                -1.4438951577695174,
                0.7261119740021178,
                -0.542832130730005,
                -0.8159310818343387,
                -1.499779949249613
            ]
        },
        {
            "positions": [
                0.6979692393438075,
                -1.452965865069594,
                0.8463724534439023,
                -0.49711763888804184,
                -0.7816121805952323,
                -1.588043572997556
            ]
        },
        {
            "positions": [
                0.6109417049634955,
                -1.4620365723696709,
                0.9666329328856873,
                -0.45140314704607865,
                -0.7472932793561259,
                -1.6763071967454986
            ]
        },
        {
            "positions": [
                0.5239141705831836,
                -1.4711072796697477,
                1.0868934123274718,
                -0.40568865520411546,
                -0.7129743781170195,
                -1.7645708204934416
            ]
        },
        {
            "positions": [
                0.43688663620287205,
                -1.4801779869698244,
                1.2071538917692564,
                -0.3599741633621525,
                -0.678655476877913,
                -1.8528344442413842
            ]
        },
        {
            "positions": [
                0.3498591018225601,
                -1.4892486942699013,
                1.3274143712110409,
                -0.3142596715201893,
                -0.6443365756388066,
                -1.9410980679893268
            ]
        },
        {
            "positions": [
                0.2628315674422481,
                -1.4983194015699781,
                1.4476748506528259,
                -0.2685451796782261,
                -0.6100176743997001,
                -2.02936169173727
            ]
        },
        {
            "positions": [
                0.1758040330619366,
                -1.507390108870055,
                1.5679353300946104,
                -0.22283068783626292,
                -0.5756987731605937,
                -2.1176253154852125
            ]
        },
        {
            "positions": [
                0.08877649868162463,
                -1.5164608161701318,
                1.688195809536395,
                -0.17711619599429995,
                -0.5413798719214873,
                -2.205888939233155
            ]
        },
        {
            "positions": [
                0.001748964301313105,
                -1.5255315234702085,
                1.80845628897818,
                -0.13140170415233676,
                -0.507060970682381,
                -2.294152562981098
            ]
        },
        {
            "positions": [
                -0.08527857007899896,
                -1.5346022307702853,
                1.9287167684199646,
                -0.0856872123103736,
                -0.47274206944327435,
                -2.3824161867290408
            ]
        },
        {
            "positions": [
                -0.0713975306688969,
                -1.5005823263051816,
                1.9350180988614933,
                -0.14547675032641993,
                -0.42246917828267133,
                -2.4592857149818874
            ]
        },
        {
            "positions": [
                -0.05751649125879482,
                -1.4665624218400777,
                1.941319429303022,
                -0.20526628834246627,
                -0.3721962871220683,
                -2.5361552432347345
            ]
        },
        {
            "positions": [
                -0.027576584726687486,
                -1.4113703593664928,
                1.9450679008070129,
                -0.29327628804879513,
                -0.28698254735717643,
                -2.6539185974726975
            ]
        },
        {
            "positions": [
                0.0023633218054198504,
                -1.3561782968929077,
                1.9488163723110037,
                -0.38128628775512396,
                -0.20176880759228452,
                -2.771681951710661
            ]
        },
        {
            "positions": [
                0.03230322833752719,
                -1.3009862344193228,
                1.9525648438149945,
                -0.4692962874614529,
                -0.11655506782739261,
                -2.889445305948624
            ]
        },
        {
            "positions": [
                0.06224313486963452,
                -1.245794171945738,
                1.9563133153189851,
                -0.5573062871677817,
                -0.03134132806250073,
                -3.007208660186587
            ]
        },
        {
            "positions": [
                0.09218304140174188,
                -1.1906021094721528,
                1.960061786822976,
                -0.6453162868741107,
                0.05387241170239121,
                -3.1249720144245505
            ]
        },
        {
            "positions": [
                0.1221229479338492,
                -1.135410046998568,
                1.9638102583269668,
                -0.7333262865804395,
                0.1390861514672831,
                -3.2427353686625136
            ]
        }
    ]
}{
    "goal": {
        "global_pose": {
            "orientation": {
                "w": 0.7047431468963623,
                "x": -0.7094548344612122,
                "y": 0.0024358443915843964,
                "z": -0.0022348060738295317
            },
            "position": {
                "x": 0.6094750761985779,
                "y": 0.3671506643295288,
                "z": 0.19426114857196808
            }
        },
        "name": "move_to_magneteinheit_A"
    },
    "id": "RRT_move_to_magneteinheit_A_23",
    "joint_names": [
        "shoulder_pan_joint",
        "shoulder_lift_joint",
        "elbow_joint",
        "wrist_1_joint",
        "wrist_2_joint",
        "wrist_3_joint"
    ],
    "metrics": {
        "cart_traj_len": 1.286373429253067,
        "distance_elbow_joint": 0.35487407739615695,
        "distance_shoulder_lift_joint": 0.7526762030267007,
        "distance_shoulder_pan_joint": 1.2405313342037958,
        "distance_wrist_1_joint": 0.7819236738643344,
        "distance_wrist_2_joint": 1.4377796060912051,
        "distance_wrist_3_joint": 4.288034784637491,
        "smoothness": 0.026083763115511235,
        "time": 0.279664446,
        "traj_len": 2.975872927263475,
        "weighted_distance": 4.433011677003592
    },
    "planner": "RRT",
    "start": {
        "state": {
            "elbow_joint": 1.919643534880228,
            "shoulder_lift_joint": -1.8972525353963687,
            "shoulder_pan_joint": -1.1188672234189438,
            "wrist_1_joint": -1.5931878212786155,
            "wrist_2_joint": 1.5706036197970081,
            "wrist_3_joint": 1.118896926603594
        }
    },
    "waypoints": [
        {
            "positions": [
                -1.1188672234189438,
                -1.8972525353963687,
                1.919643534880228,
                -1.5931878212786155,
                1.5706036197970081,
                1.118896926603594
            ]
        },
        {
            "positions": [
                -1.069774010242558,
                -1.861979109876914,
                1.9126304570250094,
                -1.5560778682820007,
                1.508800262496625,
                0.9192748421385148
            ]
        },
        {
            "positions": [
                -1.020680797066172,
                -1.8267056843574594,
                1.9056173791697908,
                -1.518967915285386,
                1.446996905196242,
                0.7196527576734357
            ]
        },
        {
            "positions": [
                -0.971587583889786,
                -1.7914322588380047,
                1.8986043013145721,
                -1.4818579622887713,
                1.3851935478958588,
                0.5200306732083566
            ]
        },
        {
            "positions": [
                -0.9224943707134001,
                -1.75615883331855,
                1.8915912234593535,
                -1.4447480092921567,
                1.3233901905954757,
                0.3204085887432775
            ]
        },
        {
            "positions": [
                -0.8734011575370142,
                -1.7208854077990954,
                1.8845781456041348,
                -1.407638056295542,
                1.2615868332950926,
                0.12078650427819837
            ]
        },
        {
            "positions": [
                -0.8243079443606283,
                -1.6856119822796407,
                1.8775650677489164,
                -1.3705281032989274,
                1.1997834759947095,
                -0.07883558018688075
            ]
        },
        {
            "positions": [
                -0.7752147311842423,
                -1.650338556760186,
                1.8705519898936978,
                -1.3334181503023126,
                1.1379801186943266,
                -0.27845766465195987
            ]
        },
        {
            "positions": [
                -0.7261215180078564,
                -1.6150651312407316,
                1.863538912038479,
                -1.2963081973056978,
                1.0761767613939432,
                -0.478079749117039
            ]
        },
        {
            "positions": [
                -0.6770283048314705,
                -1.5797917057212767,
                1.8565258341832604,
                -1.2591982443090832,
                1.0143734040935604,
                -0.6777018335821181
            ]
        },
        {
            "positions": [
                -0.6279350916550845,
                -1.5445182802018222,
                1.8495127563280418,
                -1.2220882913124687,
                0.9525700467931771,
                -0.8773239180471972
            ]
        },
        {
            "positions": [
                -0.5788418784786985,
                -1.5092448546823674,
                1.8424996784728231,
                -1.1849783383158536,
                0.890766689492794,
                -1.0769460025122763
            ]
        },
        {
            "positions": [
                -0.5297486653023126,
                -1.473971429162913,
                1.8354866006176045,
                -1.147868385319239,
                0.828963332192411,
                -1.2765680869773555
            ]
        },
        {
            "positions": [
                -0.48065545212592664,
                -1.438698003643458,
                1.8284735227623858,
                -1.1107584323226245,
                0.7671599748920278,
                -1.4761901714424346
            ]
        },
        {
            "positions": [
                -0.4315622389495407,
                -1.4034245781240036,
                1.8214604449071672,
                -1.0736484793260097,
                0.7053566175916448,
                -1.6758122559075137
            ]
        },
        {
            "positions": [
                -0.38246902577315467,
                -1.3681511526045487,
                1.8144473670519485,
                -1.036538526329395,
                0.6435532602912616,
                -1.8754343403725928
            ]
        },
        {
            "positions": [
                -0.33337581259676885,
                -1.3328777270850942,
                1.80743428919673,
                -0.9994285733327803,
                0.5817499029908786,
                -2.0750564248376717
            ]
        },
        {
            "positions": [
                -0.2842825994203828,
                -1.2976043015656396,
                1.8004212113415115,
                -0.9623186203361656,
                0.5199465456904955,
                -2.274678509302751
            ]
        },
        {
            "positions": [
                -0.235189386243997,
                -1.2623308760461849,
                1.7934081334862928,
                -0.925208667339551,
                0.45814318839011237,
                -2.47430059376783
            ]
        },
        {
            "positions": [
                -0.18609617306761095,
                -1.2270574505267302,
                1.7863950556310741,
                -0.8880987143429362,
                0.39633983108972926,
                -2.673922678232909
            ]
        },
        {
            "positions": [
                -0.13700295989122513,
                -1.1917840250072755,
                1.7793819777758555,
                -0.8509887613463216,
                0.33453647378934614,
                -2.873544762697988
            ]
        },
        {
            "positions": [
                -0.08790974671483906,
                -1.1565105994878209,
                1.7723688999206368,
                -0.8138788083497068,
                0.272733116488963,
                -3.0731668471630673
            ]
        },
        {
            "positions": [
                0.01687718203500642,
                -1.1505434659287443,
                1.8761686211389197,
                -0.8125714778819939,
                0.20277856509738296,
                -3.121152352598482
            ]
        },
        {
            "positions": [
                0.1216641107848519,
                -1.144576332369668,
                1.9799683423572025,
                -0.8112641474142811,
                0.1328240137058029,
                -3.1691378580338965
            ]
        }
    ]
}