{
    "goal": {
        "global_pose": {
            "orientation": {
                "w": 0.5084816217422485,
                "x": -0.49083608388900757,
                "y": 0.5182115435600281,
                "z": -0.4816462993621826
            },
            "position": {
                "x": 0.5540239810943604,
                "y": 0.030875300988554955,
                "z": 0.16403168439865112
            }
        },
        "name": "move_to_storage_A"
    },
    "id": "RRTConnect_move_to_storage_A_2",
    "joint_names": [
        "shoulder_pan_joint",
        "shoulder_lift_joint",
        "elbow_joint",
        "wrist_1_joint",
        "wrist_2_joint",
        "wrist_3_joint"
    ],
    "metrics": {
        "cart_traj_len": 0.35363194150816796,
        "distance_elbow_joint": 0.45066261712690814,
        "distance_shoulder_lift_joint": 0.23297928638039767,
        "distance_shoulder_pan_joint": 0.46326500892284755,
        "distance_wrist_1_joint": 0.2480442817824543,
        "distance_wrist_2_joint": 1.0955712811217948,
        "distance_wrist_3_joint": 0.09856089054187311,
        "smoothness": 2.2204460668324854e-16,
        "time": 0.053579693,
        "traj_len": 1.6090628843759573,
        "weighted_distance": 2.032196031357278
    },
    "planner": "RRTConnect",
    "start": {
        "state": {
            "elbow_joint": 1.9715477243005601,
            "shoulder_lift_joint": -1.1394853015351272,
            "shoulder_pan_joint": 0.12281154014795169,
            "wrist_1_joint": -0.7804696478968182,
            "wrist_2_joint": 0.12958648046900423,
            "wrist_3_joint": -3.192491284697111
        }
    },
    "waypoints": [
        {
            "positions": [
                0.12281154014795169,
                -1.1394853015351272,
                1.9715477243005601,
                -0.7804696478968182,
                0.12958648046900423,
                -3.192491284697111
            ]
        },
        {
            "positions": [
                0.0566308245875449,
                -1.1727680567323269,
                2.0359280981758325,
                -0.8159045452943117,
                0.2860966634864035,
                -3.1784111574768437
            ]
        },
        {
            "positions": [
                -0.009549890972861894,
                -1.2060508119295266,
                2.1003084720511054,
                -0.8513394426918051,
                0.4426068465038027,
                -3.164331030256576
            ]
        },
        {
            "positions": [
                -0.07573060653326867,
                -1.2393335671267263,
                2.164688845926378,
                -0.8867743400892986,
                0.599117029521202,
                -3.1502509030363086
            ]
        },
        {
            "positions": [
                -0.14191132209367546,
                -1.2726163223239257,
                2.2290692198016506,
                -0.9222092374867921,
                0.7556272125386012,
                -3.1361707758160406
            ]
        },
        {
            "positions": [
                -0.2080920376540823,
                -1.3058990775211254,
                2.293449593676923,
                -0.9576441348842855,
                0.9121373955560005,
                -3.122090648595773
            ]
        },
        {
            "positions": [
                -0.274272753214489,
                -1.3391818327183251,
                2.3578299675521954,
                -0.993079032281779,
                1.0686475785733998,
                -3.1080105213755056
            ]
        },
        {
            "positions": [
                -0.34045346877489585,
                -1.3724645879155248,
                2.4222103414274683,
                -1.0285139296792725,
                1.2251577615907991,
                -3.093930394155238
            ]
        }
    ]
}