{
    "goal": {
        "global_pose": {
            "orientation": {
                "w": 0.7047431468963623,
                "x": -0.7094548344612122,
                "y": 0.0024358443915843964,
                "z": -0.0022348060738295317
            },
            "position": {
                "x": 0.6094750761985779,
                "y": 0.3671506643295288,
                "z": 0.19426114857196808
            }
        },
        "name": "move_to_magneteinheit_A"
    },
    "id": "RRTConnect_move_to_magneteinheit_A_129",
    "joint_names": [
        "shoulder_pan_joint",
        "shoulder_lift_joint",
        "elbow_joint",
        "wrist_1_joint",
        "wrist_2_joint",
        "wrist_3_joint"
    ],
    "metrics": {
        "cart_traj_len": 3.5929528258672723,
        "distance_elbow_joint": 3.916296747126707,
        "distance_shoulder_lift_joint": 0.4765812686569647,
        "distance_shoulder_pan_joint": 3.230567736294704,
        "distance_wrist_1_joint": 3.477016757229922,
        "distance_wrist_2_joint": 3.1040119052517468,
        "distance_wrist_3_joint": 1.6459671124406385,
        "smoothness": 0.20226077512031757,
        "time": 0.09802923599999999,
        "traj_len": 3.9812612985083855,
        "weighted_distance": 5.071824564627963
    },
    "planner": "RRTConnect",
    "start": {
        "state": {
            "elbow_joint": -1.919618573717145,
            "shoulder_lift_joint": -1.2443395971678275,
            "shoulder_pan_joint": 2.6996025300909787,
            "wrist_1_joint": -1.548550951253194,
            "wrist_2_joint": -1.5709469090946802,
            "wrist_3_joint": 0.4420197732051276
        }
    },
    "waypoints": [
        {
            "positions": [
                2.6996025300909787,
                -1.2443395971678275,
                -1.919618573717145,
                -1.548550951253194,
                -1.5709469090946802,
                0.4420197732051276
            ]
        },
        {
            "positions": [
                2.5786149983327187,
                -1.2249851639176534,
                -1.8692931721668469,
                -1.489735183443879,
                -1.4763432646878882,
                0.3982319535049906
            ]
        },
        {
            "positions": [
                2.457627466574459,
                -1.2056307306674794,
                -1.8189677706165488,
                -1.430919415634564,
                -1.3817396202810963,
                0.3544441338048535
            ]
        },
        {
            "positions": [
                2.3366399348161995,
                -1.1862762974173053,
                -1.768642369066251,
                -1.3721036478252489,
                -1.2871359758743046,
                0.3106563141047165
            ]
        },
        {
            "positions": [
                2.2156524030579394,
                -1.166921864167131,
                -1.7183169675159529,
                -1.3132878800159338,
                -1.1925323314675127,
                0.2668684944045795
            ]
        },
        {
            "positions": [
                2.0946648712996794,
                -1.147567430916957,
                -1.6679915659656548,
                -1.2544721122066187,
                -1.0979286870607208,
                0.22308067470444243
            ]
        },
        {
            "positions": [
                1.9736773395414198,
                -1.128212997666783,
                -1.6176661644153567,
                -1.1956563443973036,
                -1.0033250426539289,
                0.17929285500430542
            ]
        },
        {
            "positions": [
                1.85268980778316,
                -1.108858564416609,
                -1.5673407628650586,
                -1.1368405765879885,
                -0.9087213982471369,
                0.13550503530416835
            ]
        },
        {
            "positions": [
                1.7317022760249001,
                -1.0895041311664349,
                -1.5170153613147608,
                -1.0780248087786735,
                -0.8141177538403451,
                0.0917172156040314
            ]
        },
        {
            "positions": [
                1.6107147442666403,
                -1.0701496979162608,
                -1.4666899597644627,
                -1.0192090409693584,
                -0.7195141094335532,
                0.047929395903894334
            ]
        },
        {
            "positions": [
                1.4897272125083805,
                -1.0507952646660867,
                -1.4163645582141646,
                -0.9603932731600433,
                -0.6249104650267613,
                0.004141576203757269
            ]
        },
        {
            "positions": [
                1.3687396807501206,
                -1.0314408314159127,
                -1.3660391566638665,
                -0.9015775053507282,
                -0.5303068206199695,
                -0.039646243496379685
            ]
        },
        {
            "positions": [
                1.2477521489918608,
                -1.0120863981657386,
                -1.3157137551135687,
                -0.8427617375414131,
                -0.43570317621317756,
                -0.08343406319651675
            ]
        },
        {
            "positions": [
                1.126764617233601,
                -0.9927319649155645,
                -1.2653883535632706,
                -0.7839459697320981,
                -0.34109953180638586,
                -0.12722188289665376
            ]
        },
        {
            "positions": [
                1.0057770854753412,
                -0.9733775316653903,
                -1.2150629520129725,
                -0.725130201922783,
                -0.24649588739959372,
                -0.17100970259679088
            ]
        },
        {
            "positions": [
                0.8847895537170813,
                -0.9540230984152163,
                -1.1647375504626745,
                -0.6663144341134679,
                -0.15189224299280202,
                -0.2147975222969279
            ]
        },
        {
            "positions": [
                0.7638020219588215,
                -0.9346686651650422,
                -1.1144121489123764,
                -0.6074986663041528,
                -0.0572885985860101,
                -0.2585853419970648
            ]
        },
        {
            "positions": [
                0.6428144902005615,
                -0.9153142319148682,
                -1.0640867473620785,
                -0.5486828984948378,
                0.037315045820782045,
                -0.3023731616972019
            ]
        },
        {
            "positions": [
                0.5218269584423019,
                -0.8959597986646941,
                -1.0137613458117805,
                -0.4898671306855227,
                0.13191869022757374,
                -0.3461609813973389
            ]
        },
        {
            "positions": [
                0.40083942668404227,
                -0.87660536541452,
                -0.9634359442614824,
                -0.4310513628762076,
                0.22652233463436544,
                -0.38994880109747593
            ]
        },
        {
            "positions": [
                0.2798518949257822,
                -0.8572509321643459,
                -0.9131105427111843,
                -0.3722355950668925,
                0.3211259790411576,
                -0.43373662079761305
            ]
        },
        {
            "positions": [
                0.15886436316752217,
                -0.8378964989141718,
                -0.8627851411608862,
                -0.31341982725757744,
                0.4157296234479495,
                -0.47752444049774995
            ]
        },
        {
            "positions": [
                0.03787683140926257,
                -0.8185420656639977,
                -0.8124597396105884,
                -0.25460405944826237,
                0.5103332678547412,
                -0.521312260197887
            ]
        },
        {
            "positions": [
                -0.08311070034899748,
                -0.7991876324138236,
                -0.7621343380602903,
                -0.1957882916389473,
                0.6049369122615333,
                -0.5651000798980241
            ]
        },
        {
            "positions": [
                -0.20409823210725697,
                -0.7798331991636496,
                -0.7118089365099922,
                -0.1369725238296321,
                0.6995405566683248,
                -0.6088878995981611
            ]
        },
        {
            "positions": [
                -0.18583275128031457,
                -0.7793575319350537,
                -0.5472908879128212,
                -0.007975983874412229,
                0.6493892526703726,
                -0.5786928365015889
            ]
        },
        {
            "positions": [
                -0.16756727045337216,
                -0.7788818647064579,
                -0.3827728393156502,
                0.12102055608080764,
                0.5992379486724205,
                -0.5484977734050166
            ]
        },
        {
            "positions": [
                -0.14930178962642976,
                -0.7784061974778621,
                -0.21825479071847914,
                0.2500170960360275,
                0.5490866446744683,
                -0.5183027103084443
            ]
        },
        {
            "positions": [
                -0.13103630879948736,
                -0.7779305302492662,
                -0.05373674212130819,
                0.3790136359912474,
                0.49893534067651624,
                -0.48810764721187216
            ]
        },
        {
            "positions": [
                -0.11277082797254498,
                -0.7774548630206704,
                0.11078130647586282,
                0.5080101759464671,
                0.44878403667856404,
                -0.4579125841152999
            ]
        },
        {
            "positions": [
                -0.09450534714560256,
                -0.7769791957920745,
                0.27529935507303394,
                0.6370067159016871,
                0.39863273268061183,
                -0.4277175210187276
            ]
        },
        {
            "positions": [
                -0.07623986631866017,
                -0.7765035285634787,
                0.43981740367020494,
                0.766003255856907,
                0.3484814286826597,
                -0.39752245792215535
            ]
        },
        {
            "positions": [
                -0.05797438549171777,
                -0.7760278613348829,
                0.6043354522673758,
                0.8949997958121269,
                0.2983301246847076,
                -0.3673273948255832
            ]
        },
        {
            "positions": [
                -0.03970890466477536,
                -0.7755521941062871,
                0.768853500864547,
                1.0239963357673467,
                0.24817882068675545,
                -0.3371323317290109
            ]
        },
        {
            "positions": [
                -0.021443423837832987,
                -0.7750765268776912,
                0.9333715494617179,
                1.1529928757225663,
                0.19802751668880325,
                -0.30693726863243864
            ]
        },
        {
            "positions": [
                -0.0031779430108905826,
                -0.7746008596490954,
                1.0978895980588887,
                1.2819894156777862,
                0.14787621269085116,
                -0.2767422055358664
            ]
        },
        {
            "positions": [
                0.01508753781605185,
                -0.7741251924204995,
                1.26240764665606,
                1.4109859556330062,
                0.09772490869289885,
                -0.2465471424392941
            ]
        },
        {
            "positions": [
                0.03335301864299425,
                -0.7736495251919037,
                1.4269256952532312,
                1.5399824955882262,
                0.04757360469494676,
                -0.21635207934272188
            ]
        },
        {
            "positions": [
                0.05161849946993663,
                -0.7731738579633078,
                1.591443743850402,
                1.6689790355434462,
                -0.002577699303005443,
                -0.1861570162461496
            ]
        },
        {
            "positions": [
                0.06988398029687903,
                -0.772698190734712,
                1.755961792447573,
                1.7979755754986657,
                -0.05272900330095759,
                -0.15596195314957736
            ]
        },
        {
            "positions": [
                0.09632636114304641,
                -0.7751681218466366,
                1.8763199829285675,
                1.8632206907376967,
                -0.09335644306068691,
                -0.08489520655519452
            ]
        },
        {
            "positions": [
                0.1227687419892138,
                -0.7776380529585613,
                1.9966781734095622,
                1.9284658059767277,
                -0.13398388282041623,
                -0.013828459960811662
            ]
        }
    ]
}{
    "goal": {
        "global_pose": {
            "orientation": {
                "w": 0.7047431468963623,
                "x": -0.7094548344612122,
                "y": 0.0024358443915843964,
                "z": -0.0022348060738295317
            },
            "position": {
                "x": 0.6094750761985779,
                "y": 0.3671506643295288,
                "z": 0.19426114857196808
            }
        },
        "name": "move_to_magneteinheit_A"
    },
    "id": "RRTConnect_move_to_magneteinheit_A_129",
    "joint_names": [
        "shoulder_pan_joint",
        "shoulder_lift_joint",
        "elbow_joint",
        "wrist_1_joint",
        "wrist_2_joint",
        "wrist_3_joint"
    ],
    "metrics": {
        "cart_traj_len": 1.4128803684981255,
        "distance_elbow_joint": 1.4013507466811097,
        "distance_shoulder_lift_joint": 0.7518420763606486,
        "distance_shoulder_pan_joint": 1.2412399648352253,
        "distance_wrist_1_joint": 0.7447863111933077,
        "distance_wrist_2_joint": 2.826483139964033,
        "distance_wrist_3_joint": 4.2474029726466505,
        "smoothness": 0.351435861131584,
        "time": 0.078425612,
        "traj_len": 3.34859749920485,
        "weighted_distance": 4.824850319764501
    },
    "planner": "RRTConnect",
    "start": {
        "state": {
            "elbow_joint": 1.919643534880228,
            "shoulder_lift_joint": -1.8972525353963687,
            "shoulder_pan_joint": -1.1188672234189438,
            "wrist_1_joint": -1.5931878212786155,
            "wrist_2_joint": 1.5706036197970081,
            "wrist_3_joint": 1.118896926603594
        }
    },
    "waypoints": [
        {
            "positions": [
                -1.1188672234189438,
                -1.8972525353963687,
                1.919643534880228,
                -1.5931878212786155,
                1.5706036197970081,
                1.118896926603594
            ]
        },
        {
            "positions": [
                -1.0694564344629782,
                -1.8705692546754107,
                1.887805685637938,
                -1.5662227039293632,
                1.4688345046321345,
                0.9599133955071002
            ]
        },
        {
            "positions": [
                -1.0200456455070128,
                -1.8438859739544526,
                1.8559678363956476,
                -1.539257586580111,
                1.3670653894672606,
                0.8009298644106064
            ]
        },
        {
            "positions": [
                -0.9706348565510472,
                -1.8172026932334946,
                1.8241299871533574,
                -1.5122924692308588,
                1.265296274302387,
                0.6419463333141128
            ]
        },
        {
            "positions": [
                -0.9212240675950816,
                -1.7905194125125365,
                1.7922921379110672,
                -1.4853273518816066,
                1.1635271591375131,
                0.482962802217619
            ]
        },
        {
            "positions": [
                -0.871813278639116,
                -1.7638361317915785,
                1.7604542886687768,
                -1.4583622345323544,
                1.0617580439726395,
                0.32397927112112535
            ]
        },
        {
            "positions": [
                -0.8224024896831504,
                -1.7371528510706207,
                1.7286164394264867,
                -1.4313971171831021,
                0.9599889288077658,
                0.16499574002463158
            ]
        },
        {
            "positions": [
                -0.7729917007271849,
                -1.7104695703496626,
                1.6967785901841965,
                -1.40443199983385,
                0.858219813642892,
                0.006012208928137808
            ]
        },
        {
            "positions": [
                -0.7235809117712193,
                -1.6837862896287046,
                1.6649407409419061,
                -1.3774668824845977,
                0.7564506984780183,
                -0.15297132216835596
            ]
        },
        {
            "positions": [
                -0.6741701228152537,
                -1.6571030089077465,
                1.633102891699616,
                -1.3505017651353457,
                0.6546815833131445,
                -0.3119548532648495
            ]
        },
        {
            "positions": [
                -0.6247593338592882,
                -1.6304197281867885,
                1.6012650424573258,
                -1.3235366477860935,
                0.5529124681482707,
                -0.4709383843613433
            ]
        },
        {
            "positions": [
                -0.5753485449033225,
                -1.6037364474658304,
                1.5694271932150354,
                -1.2965715304368413,
                0.45114335298339703,
                -0.6299219154578373
            ]
        },
        {
            "positions": [
                -0.525937755947357,
                -1.5770531667448724,
                1.5375893439727453,
                -1.269606413087589,
                0.3493742378185234,
                -0.7889054465543308
            ]
        },
        {
            "positions": [
                -0.4765269669913914,
                -1.5503698860239143,
                1.5057514947304549,
                -1.2426412957383368,
                0.24760512265364953,
                -0.9478889776508248
            ]
        },
        {
            "positions": [
                -0.4271161780354259,
                -1.5236866053029563,
                1.4739136454881647,
                -1.2156761783890846,
                0.1458360074887759,
                -1.1068725087473184
            ]
        },
        {
            "positions": [
                -0.3777053890794603,
                -1.4970033245819985,
                1.4420757962458746,
                -1.1887110610398324,
                0.04406689232390204,
                -1.2658560398438123
            ]
        },
        {
            "positions": [
                -0.32829460012349476,
                -1.4703200438610404,
                1.4102379470035844,
                -1.1617459436905802,
                -0.057702222840971595,
                -1.4248395709403059
            ]
        },
        {
            "positions": [
                -0.27888381116752914,
                -1.4436367631400824,
                1.3784000977612942,
                -1.134780826341328,
                -0.15947133800584545,
                -1.5838231020367994
            ]
        },
        {
            "positions": [
                -0.22947302221156363,
                -1.4169534824191243,
                1.3465622485190039,
                -1.1078157089920757,
                -0.2612404531707191,
                -1.742806633133293
            ]
        },
        {
            "positions": [
                -0.180062233255598,
                -1.3902702016981663,
                1.3147243992767135,
                -1.0808505916428235,
                -0.36300956833559295,
                -1.901790164229787
            ]
        },
        {
            "positions": [
                -0.1306514442996325,
                -1.3635869209772082,
                1.2828865500344233,
                -1.0538854742935713,
                -0.4647786835004668,
                -2.0607736953262803
            ]
        },
        {
            "positions": [
                -0.08124065534366691,
                -1.3369036402562502,
                1.2510487007921332,
                -1.026920356944319,
                -0.5665477986653407,
                -2.2197572264227743
            ]
        },
        {
            "positions": [
                -0.0557889807486734,
                -1.312966992603684,
                1.34264318986626,
                -1.0046055010869426,
                -0.4803813334776302,
                -2.3333508288753095
            ]
        },
        {
            "positions": [
                -0.03033730615367989,
                -1.2890303449511178,
                1.4342376789403868,
                -0.9822906452295662,
                -0.3942148682899197,
                -2.446944431327845
            ]
        },
        {
            "positions": [
                -0.004885631558686376,
                -1.2650936972985514,
                1.5258321680145137,
                -0.9599757893721899,
                -0.3080484031022092,
                -2.56053803378038
            ]
        },
        {
            "positions": [
                0.02056604303630713,
                -1.2411570496459852,
                1.6174266570886404,
                -0.9376609335148134,
                -0.22188193791449873,
                -2.6741316362329153
            ]
        },
        {
            "positions": [
                0.04601771763130065,
                -1.217220401993419,
                1.7090211461627673,
                -0.9153460776574369,
                -0.13571547272678824,
                -2.78772523868545
            ]
        },
        {
            "positions": [
                0.07146939222629416,
                -1.1932837543408525,
                1.8006156352368943,
                -0.8930312218000606,
                -0.04954900753907776,
                -2.9013188411379853
            ]
        },
        {
            "positions": [
                0.09692106682128766,
                -1.1693471066882863,
                1.892210124311021,
                -0.8707163659426842,
                0.03661745764863267,
                -3.0149124435905206
            ]
        },
        {
            "positions": [
                0.12237274141628117,
                -1.1454104590357201,
                1.983804613385148,
                -0.8484015100853077,
                0.12278392283634318,
                -3.128506046043056
            ]
        }
    ]
}