{
    "goal": {
        "global_pose": {
            "orientation": {
                "w": 0.7047431468963623,
                "x": -0.7094548344612122,
                "y": 0.0024358443915843964,
                "z": -0.0022348060738295317
            },
            "position": {
                "x": 0.6094750761985779,
                "y": 0.3671506643295288,
                "z": 0.19426114857196808
            }
        },
        "name": "move_to_magneteinheit_A"
    },
    "id": "RRTConnect_move_to_magneteinheit_A_53",
    "joint_names": [
        "shoulder_pan_joint",
        "shoulder_lift_joint",
        "elbow_joint",
        "wrist_1_joint",
        "wrist_2_joint",
        "wrist_3_joint"
    ],
    "metrics": {
        "cart_traj_len": 3.1833485061666242,
        "distance_elbow_joint": 3.9496174317750983,
        "distance_shoulder_lift_joint": 1.2634877037158883,
        "distance_shoulder_pan_joint": 2.78865090433584,
        "distance_wrist_1_joint": 3.4524912652814144,
        "distance_wrist_2_joint": 3.012357428557342,
        "distance_wrist_3_joint": 2.0130024276332734,
        "smoothness": 0.19930513442494843,
        "time": 0.10718438000000001,
        "traj_len": 4.059508241314315,
        "weighted_distance": 5.193309225378761
    },
    "planner": "RRTConnect",
    "start": {
        "state": {
            "elbow_joint": -1.919618573717145,
            "shoulder_lift_joint": -1.2443395971678275,
            "shoulder_pan_joint": 2.6996025300909787,
            "wrist_1_joint": -1.548550951253194,
            "wrist_2_joint": -1.5709469090946802,
            "wrist_3_joint": 0.4420197732051276
        }
    },
    "waypoints": [
        {
            "positions": [
                2.6996025300909787,
                -1.2443395971678275,
                -1.919618573717145,
                -1.548550951253194,
                -1.5709469090946802,
                0.4420197732051276
            ]
        },
        {
            "positions": [
                2.608672261597534,
                -1.2580226503545828,
                -1.7976641881738833,
                -1.4937892388920562,
                -1.4939935052988251,
                0.4695733084123628
            ]
        },
        {
            "positions": [
                2.5177419931040896,
                -1.2717057035413382,
                -1.6757098026306219,
                -1.4390275265309183,
                -1.41704010150297,
                0.49712684361959797
            ]
        },
        {
            "positions": [
                2.426811724610645,
                -1.2853887567280935,
                -1.5537554170873602,
                -1.3842658141697803,
                -1.3400866977071153,
                0.5246803788268332
            ]
        },
        {
            "positions": [
                2.3358814561172005,
                -1.2990718099148488,
                -1.4318010315440985,
                -1.3295041018086424,
                -1.2631332939112603,
                0.5522339140340683
            ]
        },
        {
            "positions": [
                2.244951187623756,
                -1.3127548631016042,
                -1.309846646000837,
                -1.2747423894475045,
                -1.1861798901154053,
                0.5797874492413035
            ]
        },
        {
            "positions": [
                2.154020919130312,
                -1.3264379162883595,
                -1.1878922604575752,
                -1.2199806770863666,
                -1.1092264863195505,
                0.6073409844485387
            ]
        },
        {
            "positions": [
                2.0630906506368674,
                -1.3401209694751148,
                -1.0659378749143138,
                -1.1652189647252287,
                -1.0322730825236954,
                0.6348945196557738
            ]
        },
        {
            "positions": [
                1.9721603821434228,
                -1.35380402266187,
                -0.9439834893710521,
                -1.1104572523640908,
                -0.9553196787278404,
                0.6624480548630091
            ]
        },
        {
            "positions": [
                1.8812301136499783,
                -1.3674870758486253,
                -0.8220291038277905,
                -1.0556955400029528,
                -0.8783662749319855,
                0.6900015900702442
            ]
        },
        {
            "positions": [
                1.7902998451565337,
                -1.3811701290353806,
                -0.7000747182845288,
                -1.000933827641815,
                -0.8014128711361305,
                0.7175551252774794
            ]
        },
        {
            "positions": [
                1.6993695766630894,
                -1.394853182222136,
                -0.5781203327412674,
                -0.9461721152806771,
                -0.7244594673402756,
                0.7451086604847146
            ]
        },
        {
            "positions": [
                1.6084393081696449,
                -1.4085362354088913,
                -0.45616594719800574,
                -0.8914104029195392,
                -0.6475060635444206,
                0.7726621956919497
            ]
        },
        {
            "positions": [
                1.5175090396762003,
                -1.4222192885956466,
                -0.3342115616547441,
                -0.8366486905584013,
                -0.5705526597485657,
                0.800215730899185
            ]
        },
        {
            "positions": [
                1.4265787711827558,
                -1.435902341782402,
                -0.21225717611148243,
                -0.7818869781972634,
                -0.4935992559527107,
                0.8277692661064202
            ]
        },
        {
            "positions": [
                1.3356485026893112,
                -1.4495853949691573,
                -0.09030279056822077,
                -0.7271252658361255,
                -0.4166458521568557,
                0.8553228013136553
            ]
        },
        {
            "positions": [
                1.2447182341958667,
                -1.4632684481559126,
                0.031651594975040664,
                -0.6723635534749876,
                -0.33969244836100065,
                0.8828763365208905
            ]
        },
        {
            "positions": [
                1.1537879657024224,
                -1.476951501342668,
                0.1536059805183021,
                -0.6176018411138497,
                -0.26273904456514585,
                0.9104298717281256
            ]
        },
        {
            "positions": [
                1.0628576972089776,
                -1.4906345545294233,
                0.275560366061564,
                -0.5628401287527117,
                -0.18578564076929083,
                0.9379834069353609
            ]
        },
        {
            "positions": [
                0.9719274287155333,
                -1.5043176077161786,
                0.3975147516048254,
                -0.5080784163915739,
                -0.1088322369734358,
                0.9655369421425961
            ]
        },
        {
            "positions": [
                0.8809971602220887,
                -1.518000660902934,
                0.5194691371480873,
                -0.4533167040304358,
                -0.03187883317758078,
                0.9930904773498312
            ]
        },
        {
            "positions": [
                0.7900668917286442,
                -1.5316837140896893,
                0.6414235226913487,
                -0.3985549916692981,
                0.045074570618274024,
                1.0206440125570664
            ]
        },
        {
            "positions": [
                0.6991366232352001,
                -1.5453667672764446,
                0.7633779082346102,
                -0.34379327930816017,
                0.12202797441412905,
                1.0481975477643015
            ]
        },
        {
            "positions": [
                0.6082063547417551,
                -1.5590498204632,
                0.885332293777872,
                -0.28903156694702226,
                0.19898137820998407,
                1.0757510829715369
            ]
        },
        {
            "positions": [
                0.517276086248311,
                -1.572732873649955,
                1.0072866793211335,
                -0.23426985458588434,
                0.2759347820058389,
                1.103304618178772
            ]
        },
        {
            "positions": [
                0.42634581775486646,
                -1.5864159268367104,
                1.129241064864395,
                -0.17950814222474643,
                0.3528881858016939,
                1.1308581533860071
            ]
        },
        {
            "positions": [
                0.3354155492614219,
                -1.6000989800234657,
                1.2511954504076568,
                -0.12474642986360851,
                0.4298415895975487,
                1.1584116885932423
            ]
        },
        {
            "positions": [
                0.24448528076797738,
                -1.613782033210221,
                1.3731498359509182,
                -0.0699847175024706,
                0.5067949933934037,
                1.1859652238004774
            ]
        },
        {
            "positions": [
                0.15355501227453283,
                -1.6274650863969764,
                1.49510422149418,
                -0.01522300514133268,
                0.5837483971892587,
                1.2135187590077128
            ]
        },
        {
            "positions": [
                0.06262474378108841,
                -1.6411481395837317,
                1.6170586070374418,
                0.03953870721980514,
                0.6607018009851139,
                1.241072294214948
            ]
        },
        {
            "positions": [
                0.058481489093227826,
                -1.5798818607378884,
                1.6525311106711038,
                0.17635923240482593,
                0.6132157970180232,
                1.1520960860636755
            ]
        },
        {
            "positions": [
                0.054338234405367246,
                -1.5186155818920448,
                1.688003614304766,
                0.3131797575898467,
                0.5657297930509325,
                1.0631198779124031
            ]
        },
        {
            "positions": [
                0.050194979717506666,
                -1.4573493030462015,
                1.7234761179384281,
                0.4500002827748674,
                0.5182437890838419,
                0.9741436697611308
            ]
        },
        {
            "positions": [
                0.04605172502964608,
                -1.3960830242003581,
                1.7589486215720902,
                0.5868208079598882,
                0.47075778511675126,
                0.8851674616098584
            ]
        },
        {
            "positions": [
                0.0419084703417855,
                -1.3348167453545146,
                1.7944211252057523,
                0.723641333144909,
                0.4232717811496606,
                0.796191253458586
            ]
        },
        {
            "positions": [
                0.03776521565392492,
                -1.2735504665086712,
                1.8298936288394145,
                0.8604618583299297,
                0.37578577718256995,
                0.7072150453073136
            ]
        },
        {
            "positions": [
                0.03362196096606433,
                -1.2122841876628279,
                1.8653661324730766,
                0.9972823835149505,
                0.32829977321547926,
                0.6182388371560412
            ]
        },
        {
            "positions": [
                0.029478706278203745,
                -1.1510179088169843,
                1.9008386361067386,
                1.1341029086999714,
                0.2808137692483886,
                0.5292626290047688
            ]
        },
        {
            "positions": [
                0.025335451590343165,
                -1.0897516299711407,
                1.936311139740401,
                1.2709234338849922,
                0.2333277652812979,
                0.44028642085349645
            ]
        },
        {
            "positions": [
                0.021192196902482585,
                -1.0284853511252976,
                1.971783643374063,
                1.407743959070013,
                0.18584176131420727,
                0.35131021270222407
            ]
        },
        {
            "positions": [
                0.017048942214621998,
                -0.967219072279454,
                2.007256147007725,
                1.5445644842550337,
                0.13835575734711658,
                0.26233400455095174
            ]
        },
        {
            "positions": [
                0.05241471436778326,
                -0.9029690409475518,
                1.9996752433243161,
                1.6643564275127622,
                0.052234865733933517,
                0.18393013223113272
            ]
        },
        {
            "positions": [
                0.08778048652094453,
                -0.8387190096156497,
                1.9920943396409072,
                1.7841483707704908,
                -0.03388602587924955,
                0.1055262599113137
            ]
        },
        {
            "positions": [
                0.1231462586741058,
                -0.7744689782837475,
                1.9845134359574983,
                1.9039403140282194,
                -0.12000691749243267,
                0.027122387591494674
            ]
        }
    ]
}{
    "goal": {
        "global_pose": {
            "orientation": {
                "w": 0.7047431468963623,
                "x": -0.7094548344612122,
                "y": 0.0024358443915843964,
                "z": -0.0022348060738295317
            },
            "position": {
                "x": 0.6094750761985779,
                "y": 0.3671506643295288,
                "z": 0.19426114857196808
            }
        },
        "name": "move_to_magneteinheit_A"
    },
    "id": "RRTConnect_move_to_magneteinheit_A_53",
    "joint_names": [
        "shoulder_pan_joint",
        "shoulder_lift_joint",
        "elbow_joint",
        "wrist_1_joint",
        "wrist_2_joint",
        "wrist_3_joint"
    ],
    "metrics": {
        "cart_traj_len": 1.960231182529551,
        "distance_elbow_joint": 2.159943230533284,
        "distance_shoulder_lift_joint": 0.7489354834611859,
        "distance_shoulder_pan_joint": 1.2411908017517501,
        "distance_wrist_1_joint": 0.7389264903710875,
        "distance_wrist_2_joint": 1.4376670169337307,
        "distance_wrist_3_joint": 4.246439238902679,
        "smoothness": 0.2258176541266177,
        "time": 0.079920024,
        "traj_len": 3.251630708114579,
        "weighted_distance": 4.608966722277771
    },
    "planner": "RRTConnect",
    "start": {
        "state": {
            "elbow_joint": 1.919643534880228,
            "shoulder_lift_joint": -1.8972525353963687,
            "shoulder_pan_joint": -1.1188672234189438,
            "wrist_1_joint": -1.5931878212786155,
            "wrist_2_joint": 1.5706036197970081,
            "wrist_3_joint": 1.118896926603594
        }
    },
    "waypoints": [
        {
            "positions": [
                -1.1188672234189438,
                -1.8972525353963687,
                1.919643534880228,
                -1.5931878212786155,
                1.5706036197970081,
                1.118896926603594
            ]
        },
        {
            "positions": [
                -1.0777075325743284,
                -1.877188206879386,
                1.8449694426309402,
                -1.5458058683435376,
                1.555801970128642,
                0.9371621649939363
            ]
        },
        {
            "positions": [
                -1.036547841729713,
                -1.857123878362403,
                1.7702953503816525,
                -1.4984239154084598,
                1.5410003204602762,
                0.7554274033842787
            ]
        },
        {
            "positions": [
                -0.9953881508850976,
                -1.8370595498454199,
                1.6956212581323646,
                -1.4510419624733821,
                1.5261986707919102,
                0.5736926417746211
            ]
        },
        {
            "positions": [
                -0.9542284600404822,
                -1.816995221328437,
                1.6209471658830767,
                -1.4036600095383043,
                1.5113970211235443,
                0.39195788016496347
            ]
        },
        {
            "positions": [
                -0.9130687691958668,
                -1.7969308928114542,
                1.546273073633789,
                -1.3562780566032264,
                1.4965953714551783,
                0.21022311855530584
            ]
        },
        {
            "positions": [
                -0.8719090783512514,
                -1.7768665642944712,
                1.4715989813845012,
                -1.3088961036681486,
                1.4817937217868125,
                0.02848835694564822
            ]
        },
        {
            "positions": [
                -0.830749387506636,
                -1.7568022357774882,
                1.3969248891352133,
                -1.261514150733071,
                1.4669920721184464,
                -0.1532464046640094
            ]
        },
        {
            "positions": [
                -0.7895896966620206,
                -1.7367379072605054,
                1.3222507968859256,
                -1.214132197797993,
                1.4521904224500803,
                -0.33498116627366703
            ]
        },
        {
            "positions": [
                -0.7484300058174052,
                -1.7166735787435226,
                1.2475767046366377,
                -1.1667502448629152,
                1.4373887727817145,
                -0.5167159278833249
            ]
        },
        {
            "positions": [
                -0.7072703149727897,
                -1.6966092502265395,
                1.1729026123873498,
                -1.1193682919278374,
                1.4225871231133485,
                -0.6984506894929823
            ]
        },
        {
            "positions": [
                -0.6661106241281743,
                -1.6765449217095565,
                1.0982285201380622,
                -1.0719863389927595,
                1.4077854734449826,
                -0.8801854511026399
            ]
        },
        {
            "positions": [
                -0.624950933283559,
                -1.6564805931925737,
                1.0235544278887745,
                -1.024604386057682,
                1.3929838237766166,
                -1.0619202127122975
            ]
        },
        {
            "positions": [
                -0.5837912424389434,
                -1.6364162646755909,
                0.9488803356394865,
                -0.9772224331226039,
                1.3781821741082507,
                -1.2436549743219552
            ]
        },
        {
            "positions": [
                -0.5426315515943281,
                -1.6163519361586078,
                0.8742062433901987,
                -0.9298404801875262,
                1.3633805244398847,
                -1.4253897359316128
            ]
        },
        {
            "positions": [
                -0.49513475659953277,
                -1.5829208729997917,
                0.9538138104647169,
                -0.9244419695246692,
                1.2754916728986985,
                -1.5469720628150037
            ]
        },
        {
            "positions": [
                -0.44763796160473746,
                -1.5494898098409757,
                1.0334213775392351,
                -0.9190434588618122,
                1.1876028213575123,
                -1.6685543896983945
            ]
        },
        {
            "positions": [
                -0.40014116660994214,
                -1.5160587466821596,
                1.1130289446137533,
                -0.9136449481989551,
                1.099713969816326,
                -1.7901367165817854
            ]
        },
        {
            "positions": [
                -0.35264437161514683,
                -1.4826276835233436,
                1.1926365116882716,
                -0.9082464375360981,
                1.0118251182751399,
                -1.9117190434651763
            ]
        },
        {
            "positions": [
                -0.3051475766203515,
                -1.4491966203645275,
                1.2722440787627898,
                -0.9028479268732411,
                0.9239362667339536,
                -2.033301370348567
            ]
        },
        {
            "positions": [
                -0.2576507816255562,
                -1.4157655572057115,
                1.351851645837308,
                -0.8974494162103841,
                0.8360474151927674,
                -2.1548836972319583
            ]
        },
        {
            "positions": [
                -0.2101539866307609,
                -1.3823344940468953,
                1.4314592129118262,
                -0.8920509055475271,
                0.7481585636515812,
                -2.276466024115349
            ]
        },
        {
            "positions": [
                -0.1626571916359656,
                -1.3489034308880794,
                1.5110667799863444,
                -0.8866523948846701,
                0.660269712110395,
                -2.39804835099874
            ]
        },
        {
            "positions": [
                -0.11516039664117023,
                -1.3154723677292632,
                1.5906743470608626,
                -0.881253884221813,
                0.5723808605692087,
                -2.519630677882131
            ]
        },
        {
            "positions": [
                -0.06766360164637497,
                -1.282041304570447,
                1.6702819141353809,
                -0.875855373558956,
                0.4844920090280225,
                -2.641213004765522
            ]
        },
        {
            "positions": [
                -0.02016680665157966,
                -1.2486102414116311,
                1.749889481209899,
                -0.870456862896099,
                0.3966031574868364,
                -2.7627953316489124
            ]
        },
        {
            "positions": [
                0.02732998834321565,
                -1.215179178252815,
                1.8294970482844173,
                -0.865058352233242,
                0.3087143059456501,
                -2.884377658532303
            ]
        },
        {
            "positions": [
                0.07482678333801096,
                -1.181748115093999,
                1.9091046153589355,
                -0.859659841570385,
                0.22082545440446388,
                -3.0059599854156946
            ]
        },
        {
            "positions": [
                0.12232357833280633,
                -1.1483170519351829,
                1.9887121824334537,
                -0.854261330907528,
                0.13293660286327774,
                -3.1275423122990853
            ]
        }
    ]
}