{
    "goal": {
        "global_pose": {
            "orientation": {
                "w": 0.5084816217422485,
                "x": -0.49083608388900757,
                "y": 0.5182115435600281,
                "z": -0.4816462993621826
            },
            "position": {
                "x": 0.5540239810943604,
                "y": 0.030875300988554955,
                "z": 0.16403168439865112
            }
        },
        "name": "move_to_storage_A"
    },
    "id": "RRTConnect_move_to_storage_A_25",
    "joint_names": [
        "shoulder_pan_joint",
        "shoulder_lift_joint",
        "elbow_joint",
        "wrist_1_joint",
        "wrist_2_joint",
        "wrist_3_joint"
    ],
    "metrics": {
        "cart_traj_len": 0.3534450830478071,
        "distance_elbow_joint": 0.44911741621004087,
        "distance_shoulder_lift_joint": 0.23587488910763033,
        "distance_shoulder_pan_joint": 0.46367807577053977,
        "distance_wrist_1_joint": 0.23982140086903303,
        "distance_wrist_2_joint": 1.0933766231426287,
        "distance_wrist_3_joint": 0.09491771412828776,
        "smoothness": 4.440892133664971e-16,
        "time": 0.066255359,
        "traj_len": 1.6052370912822072,
        "weighted_distance": 2.0248011189982087
    },
    "planner": "RRTConnect",
    "start": {
        "state": {
            "elbow_joint": 1.9715477243005601,
            "shoulder_lift_joint": -1.1394853015351272,
            "shoulder_pan_joint": 0.12281154014795169,
            "wrist_1_joint": -0.7804696478968182,
            "wrist_2_joint": 0.12958648046900423,
            "wrist_3_joint": -3.192491284697111
        }
    },
    "waypoints": [
        {
            "positions": [
                0.12281154014795169,
                -1.1394853015351272,
                1.9715477243005601,
                -0.7804696478968182,
                0.12958648046900423,
                -3.192491284697111
            ]
        },
        {
            "positions": [
                0.05657181503787459,
                -1.1731817142647887,
                2.035707355187709,
                -0.8147298480209657,
                0.2857831409179512,
                -3.178931611250213
            ]
        },
        {
            "positions": [
                -0.00966791007220251,
                -1.2068781269944502,
                2.0998669860748573,
                -0.8489900481451134,
                0.44197980136689813,
                -3.1653719378033145
            ]
        },
        {
            "positions": [
                -0.07590763518227962,
                -1.2405745397241117,
                2.164026616962006,
                -0.8832502482692609,
                0.5981764618158452,
                -3.1518122643564164
            ]
        },
        {
            "positions": [
                -0.1421473602923567,
                -1.274270952453773,
                2.228186247849155,
                -0.9175104483934085,
                0.754373122264792,
                -3.1382525909095182
            ]
        },
        {
            "positions": [
                -0.20838708540243384,
                -1.3079673651834345,
                2.292345878736304,
                -0.9517706485175561,
                0.910569782713739,
                -3.12469291746262
            ]
        },
        {
            "positions": [
                -0.2746268105125109,
                -1.341663777913096,
                2.356505509623452,
                -0.9860308486417035,
                1.066766443162686,
                -3.1111332440157216
            ]
        },
        {
            "positions": [
                -0.34086653562258806,
                -1.3753601906427575,
                2.420665140510601,
                -1.0202910487658512,
                1.222963103611633,
                -3.0975735705688234
            ]
        }
    ]
}