{
    "goal": {
        "global_pose": {
            "orientation": {
                "w": 0.7047431468963623,
                "x": -0.7094548344612122,
                "y": 0.0024358443915843964,
                "z": -0.0022348060738295317
            },
            "position": {
                "x": 0.6094750761985779,
                "y": 0.3671506643295288,
                "z": 0.19426114857196808
            }
        },
        "name": "move_to_magneteinheit_A"
    },
    "id": "RRTConnect_move_to_magneteinheit_A_31",
    "joint_names": [
        "shoulder_pan_joint",
        "shoulder_lift_joint",
        "elbow_joint",
        "wrist_1_joint",
        "wrist_2_joint",
        "wrist_3_joint"
    ],
    "metrics": {
        "cart_traj_len": 3.716030884028096,
        "distance_elbow_joint": 3.902696052943239,
        "distance_shoulder_lift_joint": 0.09882037443586156,
        "distance_shoulder_pan_joint": 3.5082808838997726,
        "distance_wrist_1_joint": 0.9047519388979715,
        "distance_wrist_2_joint": 1.692208272293522,
        "distance_wrist_3_joint": 3.5776065005020414,
        "smoothness": 0.14983657804314,
        "time": 0.08635362099999999,
        "traj_len": 3.699238303079757,
        "weighted_distance": 4.84112974781383
    },
    "planner": "RRTConnect",
    "start": {
        "state": {
            "elbow_joint": -1.919618573717145,
            "shoulder_lift_joint": -1.2443395971678275,
            "shoulder_pan_joint": 2.6996025300909787,
            "wrist_1_joint": -1.548550951253194,
            "wrist_2_joint": -1.5709469090946802,
            "wrist_3_joint": 0.4420197732051276
        }
    },
    "waypoints": [
        {
            "positions": [
                2.6996025300909787,
                -1.2443395971678275,
                -1.919618573717145,
                -1.548550951253194,
                -1.5709469090946802,
                0.4420197732051276
            ]
        },
        {
            "positions": [
                2.5869051232242715,
                -1.2424257855694474,
                -1.8202095004882621,
                -1.5187123896884247,
                -1.5249307038927435,
                0.344920615050278
            ]
        },
        {
            "positions": [
                2.474207716357564,
                -1.2405119739710673,
                -1.720800427259379,
                -1.4888738281236553,
                -1.4789144986908072,
                0.24782145689542842
            ]
        },
        {
            "positions": [
                2.361510309490857,
                -1.2385981623726874,
                -1.6213913540304963,
                -1.459035266558886,
                -1.4328982934888708,
                0.15072229874057885
            ]
        },
        {
            "positions": [
                2.24881290262415,
                -1.2366843507743073,
                -1.5219822808016135,
                -1.4291967049941166,
                -1.3868820882869342,
                0.053623140585729256
            ]
        },
        {
            "positions": [
                2.136115495757443,
                -1.2347705391759272,
                -1.4225732075727304,
                -1.3993581434293474,
                -1.3408658830849975,
                -0.04347601756912034
            ]
        },
        {
            "positions": [
                2.0234180888907356,
                -1.232856727577547,
                -1.3231641343438474,
                -1.369519581864578,
                -1.2948496778830612,
                -0.14057517572396988
            ]
        },
        {
            "positions": [
                1.9107206820240283,
                -1.2309429159791672,
                -1.2237550611149648,
                -1.3396810202998086,
                -1.2488334726811248,
                -0.23767433387881948
            ]
        },
        {
            "positions": [
                1.798023275157321,
                -1.229029104380787,
                -1.1243459878860818,
                -1.3098424587350392,
                -1.2028172674791882,
                -0.3347734920336691
            ]
        },
        {
            "positions": [
                1.685325868290614,
                -1.227115292782407,
                -1.0249369146571987,
                -1.2800038971702699,
                -1.1568010622772515,
                -0.43187265018851867
            ]
        },
        {
            "positions": [
                1.5726284614239068,
                -1.2252014811840268,
                -0.9255278414283159,
                -1.2501653356055005,
                -1.1107848570753152,
                -0.5289718083433683
            ]
        },
        {
            "positions": [
                1.4599310545571997,
                -1.2232876695856467,
                -0.8261187681994331,
                -1.220326774040731,
                -1.0647686518733788,
                -0.6260709664982178
            ]
        },
        {
            "positions": [
                1.3472336476904925,
                -1.2213738579872668,
                -0.72670969497055,
                -1.1904882124759617,
                -1.0187524466714422,
                -0.7231701246530673
            ]
        },
        {
            "positions": [
                1.2345362408237852,
                -1.2194600463888867,
                -0.6273006217416672,
                -1.1606496509111923,
                -0.9727362414695057,
                -0.820269282807917
            ]
        },
        {
            "positions": [
                1.1218388339570782,
                -1.2175462347905066,
                -0.5278915485127844,
                -1.1308110893464232,
                -0.9267200362675692,
                -0.9173684409627665
            ]
        },
        {
            "positions": [
                1.0091414270903707,
                -1.2156324231921265,
                -0.4284824752839014,
                -1.1009725277816536,
                -0.8807038310656325,
                -1.0144675991176164
            ]
        },
        {
            "positions": [
                0.8964440202236637,
                -1.2137186115937466,
                -0.32907340205501856,
                -1.0711339662168844,
                -0.8346876258636962,
                -1.1115667572724657
            ]
        },
        {
            "positions": [
                0.7837466133569564,
                -1.2118047999953665,
                -0.22966432882613552,
                -1.0412954046521148,
                -0.7886714206617595,
                -1.2086659154273154
            ]
        },
        {
            "positions": [
                0.6710492064902494,
                -1.2098909883969864,
                -0.1302552555972527,
                -1.0114568430873456,
                -0.7426552154598232,
                -1.3057650735821649
            ]
        },
        {
            "positions": [
                0.5583517996235421,
                -1.2079771767986063,
                -0.030846182368369668,
                -0.9816182815225761,
                -0.6966390102578865,
                -1.4028642317370146
            ]
        },
        {
            "positions": [
                0.4456543927568348,
                -1.2060633652002262,
                0.06856289086051315,
                -0.9517797199578069,
                -0.6506228050559502,
                -1.499963389891864
            ]
        },
        {
            "positions": [
                0.33295698589012757,
                -1.2041495536018463,
                0.1679719640893962,
                -0.9219411583930375,
                -0.6046065998540135,
                -1.597062548046714
            ]
        },
        {
            "positions": [
                0.22025957902342075,
                -1.2022357420034662,
                0.2673810373182788,
                -0.8921025968282681,
                -0.5585903946520772,
                -1.6941617062015633
            ]
        },
        {
            "positions": [
                0.10756217215671304,
                -1.200321930405086,
                0.3667901105471618,
                -0.8622640352634987,
                -0.5125741894501405,
                -1.791260864356413
            ]
        },
        {
            "positions": [
                -0.0051352347099937745,
                -1.198408118806706,
                0.46619918377604486,
                -0.8324254736987294,
                -0.46655798424820416,
                -1.8883600225112622
            ]
        },
        {
            "positions": [
                -0.11783264157670104,
                -1.196494307208326,
                0.5656082570049279,
                -0.80258691213396,
                -0.42054177904626755,
                -1.9854591806661124
            ]
        },
        {
            "positions": [
                -0.2305300484434083,
                -1.194580495609946,
                0.6650173302338105,
                -0.7727483505691907,
                -0.37452557384433116,
                -2.0825583388209616
            ]
        },
        {
            "positions": [
                -0.34322745531011534,
                -1.1926666840115658,
                0.7644264034626933,
                -0.7429097890044213,
                -0.32850936864239455,
                -2.1796574969758113
            ]
        },
        {
            "positions": [
                -0.2915106888102623,
                -1.1874280772027215,
                0.8998320785475157,
                -0.7539220975209989,
                -0.27853484288225716,
                -2.2858718559003783
            ]
        },
        {
            "positions": [
                -0.23979392231040925,
                -1.182189470393877,
                1.035237753632338,
                -0.7649344060375766,
                -0.22856031712211977,
                -2.3920862148249453
            ]
        },
        {
            "positions": [
                -0.18807715581055623,
                -1.1769508635850325,
                1.1706434287171605,
                -0.7759467145541542,
                -0.17858579136198238,
                -2.4983005737495123
            ]
        },
        {
            "positions": [
                -0.13636038931070318,
                -1.1717122567761882,
                1.3060491038019828,
                -0.7869590230707318,
                -0.128611265601845,
                -2.6045149326740793
            ]
        },
        {
            "positions": [
                -0.08464362281085014,
                -1.1664736499673436,
                1.4414547788868053,
                -0.7979713315873094,
                -0.07863673984170755,
                -2.7107292915986463
            ]
        },
        {
            "positions": [
                -0.03292685631099712,
                -1.1612350431584992,
                1.5768604539716276,
                -0.808983640103887,
                -0.028662214081570214,
                -2.816943650523213
            ]
        },
        {
            "positions": [
                0.01878991018885595,
                -1.1559964363496549,
                1.71226612905645,
                -0.8199959486204647,
                0.02131231167856723,
                -2.92315800944778
            ]
        },
        {
            "positions": [
                0.07050667668870897,
                -1.1507578295408103,
                1.8476718041412723,
                -0.8310082571370423,
                0.07128683743870456,
                -3.029372368372347
            ]
        },
        {
            "positions": [
                0.12222344318856201,
                -1.145519222731966,
                1.9830774792260948,
                -0.8420205656536199,
                0.12126136319884202,
                -3.135586727296914
            ]
        }
    ]
}{
    "goal": {
        "global_pose": {
            "orientation": {
                "w": 0.7047431468963623,
                "x": -0.7094548344612122,
                "y": 0.0024358443915843964,
                "z": -0.0022348060738295317
            },
            "position": {
                "x": 0.6094750761985779,
                "y": 0.3671506643295288,
                "z": 0.19426114857196808
            }
        },
        "name": "move_to_magneteinheit_A"
    },
    "id": "RRTConnect_move_to_magneteinheit_A_31",
    "joint_names": [
        "shoulder_pan_joint",
        "shoulder_lift_joint",
        "elbow_joint",
        "wrist_1_joint",
        "wrist_2_joint",
        "wrist_3_joint"
    ],
    "metrics": {
        "cart_traj_len": 1.650035034243993,
        "distance_elbow_joint": 1.7828267924737113,
        "distance_shoulder_lift_joint": 1.007231696708215,
        "distance_shoulder_pan_joint": 1.2419823454517138,
        "distance_wrist_1_joint": 0.7408138123076338,
        "distance_wrist_2_joint": 1.4373985075336104,
        "distance_wrist_3_joint": 4.240948836078642,
        "smoothness": 0.1853629989216756,
        "time": 0.077459265,
        "traj_len": 3.232831884053597,
        "weighted_distance": 4.59470477643037
    },
    "planner": "RRTConnect",
    "start": {
        "state": {
            "elbow_joint": 1.919643534880228,
            "shoulder_lift_joint": -1.8972525353963687,
            "shoulder_pan_joint": -1.1188672234189438,
            "wrist_1_joint": -1.5931878212786155,
            "wrist_2_joint": 1.5706036197970081,
            "wrist_3_joint": 1.118896926603594
        }
    },
    "waypoints": [
        {
            "positions": [
                -1.1188672234189438,
                -1.8972525353963687,
                1.919643534880228,
                -1.5931878212786155,
                1.5706036197970081,
                1.118896926603594
            ]
        },
        {
            "positions": [
                -1.0757375116314192,
                -1.850998060244764,
                1.8744844383547192,
                -1.576524089014688,
                1.5043483950327117,
                0.9502637254988836
            ]
        },
        {
            "positions": [
                -1.0326077998438947,
                -1.804743585093159,
                1.8293253418292101,
                -1.5598603567507607,
                1.4380931702684152,
                0.7816305243941732
            ]
        },
        {
            "positions": [
                -0.9894780880563702,
                -1.7584891099415543,
                1.7841662453037013,
                -1.5431966244868334,
                1.3718379455041185,
                0.6129973232894629
            ]
        },
        {
            "positions": [
                -0.9463483762688456,
                -1.7122346347899493,
                1.7390071487781922,
                -1.5265328922229058,
                1.305582720739822,
                0.4443641221847525
            ]
        },
        {
            "positions": [
                -0.9032186644813209,
                -1.6659801596383446,
                1.6938480522526833,
                -1.5098691599589784,
                1.2393274959755256,
                0.27573092108004216
            ]
        },
        {
            "positions": [
                -0.8600889526937965,
                -1.6197256844867396,
                1.6486889557271742,
                -1.493205427695051,
                1.173072271211229,
                0.1070977199753318
            ]
        },
        {
            "positions": [
                -0.8169592409062718,
                -1.5734712093351348,
                1.6035298592016654,
                -1.4765416954311237,
                1.1068170464469325,
                -0.06153548112937868
            ]
        },
        {
            "positions": [
                -0.7738295291187474,
                -1.5272167341835299,
                1.5583707626761563,
                -1.4598779631671963,
                1.040561821682636,
                -0.23016868223408893
            ]
        },
        {
            "positions": [
                -0.7306998173312227,
                -1.4809622590319251,
                1.5132116661506474,
                -1.443214230903269,
                0.9743065969183395,
                -0.3988018833387994
            ]
        },
        {
            "positions": [
                -0.6875701055436981,
                -1.4347077838803202,
                1.4680525696251383,
                -1.4265504986393416,
                0.908051372154043,
                -0.5674350844435097
            ]
        },
        {
            "positions": [
                -0.6444403937561736,
                -1.3884533087287152,
                1.4228934730996294,
                -1.409886766375414,
                0.8417961473897464,
                -0.7360682855482203
            ]
        },
        {
            "positions": [
                -0.601310681968649,
                -1.3421988335771107,
                1.3777343765741206,
                -1.3932230341114866,
                0.7755409226254499,
                -0.9047014866529304
            ]
        },
        {
            "positions": [
                -0.5581809701811244,
                -1.2959443584255057,
                1.3325752800486115,
                -1.3765593018475593,
                0.7092856978611534,
                -1.0733346877576408
            ]
        },
        {
            "positions": [
                -0.5150512583935999,
                -1.2496898832739007,
                1.2874161835231024,
                -1.359895569583632,
                0.6430304730968569,
                -1.2419678888623513
            ]
        },
        {
            "positions": [
                -0.4719215466060752,
                -1.203435408122296,
                1.2422570869975935,
                -1.3432318373197045,
                0.5767752483325603,
                -1.4106010899670618
            ]
        },
        {
            "positions": [
                -0.42879183481855077,
                -1.1571809329706912,
                1.1970979904720846,
                -1.326568105055777,
                0.5105200235682639,
                -1.5792342910717718
            ]
        },
        {
            "positions": [
                -0.3856621230310261,
                -1.1109264578190863,
                1.1519388939465756,
                -1.3099043727918496,
                0.4442647988039672,
                -1.7478674921764823
            ]
        },
        {
            "positions": [
                -0.34253241124350153,
                -1.0646719826674813,
                1.1067797974210665,
                -1.2932406405279222,
                0.37800957403967095,
                -1.9165006932811928
            ]
        },
        {
            "positions": [
                -0.299402699455977,
                -1.0184175075158766,
                1.0616207008955576,
                -1.2765769082639948,
                0.3117543492753742,
                -2.0851338943859035
            ]
        },
        {
            "positions": [
                -0.24658797176988356,
                -1.0344670911193419,
                1.1772211957066876,
                -1.2235515458523682,
                0.28943569464887714,
                -2.2147486462720467
            ]
        },
        {
            "positions": [
                -0.19377324408379015,
                -1.0505166747228074,
                1.2928216905178178,
                -1.1705261834407414,
                0.26711704002238007,
                -2.34436339815819
            ]
        },
        {
            "positions": [
                -0.14095851639769674,
                -1.0665662583262727,
                1.408422185328948,
                -1.1175008210291149,
                0.24479838539588303,
                -2.473978150044333
            ]
        },
        {
            "positions": [
                -0.08814378871160333,
                -1.082615841929738,
                1.524022680140078,
                -1.0644754586174883,
                0.22247973076938599,
                -2.603592901930476
            ]
        },
        {
            "positions": [
                -0.03532906102550992,
                -1.0986654255332033,
                1.639623174951208,
                -1.0114500962058617,
                0.20016107614288892,
                -2.7332076538166197
            ]
        },
        {
            "positions": [
                0.017485666660583488,
                -1.1147150091366687,
                1.7552236697623382,
                -0.958424733794235,
                0.17784242151639185,
                -2.8628224057027625
            ]
        },
        {
            "positions": [
                0.0703003943466769,
                -1.1307645927401342,
                1.8708241645734685,
                -0.9053993713826083,
                0.1555237668898948,
                -2.9924371575889057
            ]
        },
        {
            "positions": [
                0.12311512203277032,
                -1.1468141763435995,
                1.9864246593845984,
                -0.8523740089709817,
                0.13320511226339773,
                -3.122051909475049
            ]
        }
    ]
}