{
    "goal": {
        "global_pose": {
            "orientation": {
                "w": 0.7047431468963623,
                "x": -0.7094548344612122,
                "y": 0.0024358443915843964,
                "z": -0.0022348060738295317
            },
            "position": {
                "x": 0.6094750761985779,
                "y": 0.3671506643295288,
                "z": 0.19426114857196808
            }
        },
        "name": "move_to_magneteinheit_A"
    },
    "id": "RRTConnect_move_to_magneteinheit_A_30",
    "joint_names": [
        "shoulder_pan_joint",
        "shoulder_lift_joint",
        "elbow_joint",
        "wrist_1_joint",
        "wrist_2_joint",
        "wrist_3_joint"
    ],
    "metrics": {
        "cart_traj_len": 3.5119545530661678,
        "distance_elbow_joint": 3.9134497791379173,
        "distance_shoulder_lift_joint": 0.4671053468728301,
        "distance_shoulder_pan_joint": 4.0195794116808035,
        "distance_wrist_1_joint": 3.461014185722269,
        "distance_wrist_2_joint": 1.4372223097740275,
        "distance_wrist_3_joint": 1.356914693582831,
        "smoothness": 0.19838511397738026,
        "time": 0.07866310500000001,
        "traj_len": 3.828222267158828,
        "weighted_distance": 4.718829474502403
    },
    "planner": "RRTConnect",
    "start": {
        "state": {
            "elbow_joint": -1.919618573717145,
            "shoulder_lift_joint": -1.2443395971678275,
            "shoulder_pan_joint": 2.6996025300909787,
            "wrist_1_joint": -1.548550951253194,
            "wrist_2_joint": -1.5709469090946802,
            "wrist_3_joint": 0.4420197732051276
        }
    },
    "waypoints": [
        {
            "positions": [
                2.6996025300909787,
                -1.2443395971678275,
                -1.919618573717145,
                -1.548550951253194,
                -1.5709469090946802,
                0.4420197732051276
            ]
        },
        {
            "positions": [
                2.581793715767706,
                -1.2404745811824411,
                -1.82017306693033,
                -1.437771959784137,
                -1.5298127981053262,
                0.45860949532638845
            ]
        },
        {
            "positions": [
                2.4639849014444337,
                -1.2366095651970546,
                -1.720727560143515,
                -1.32699296831508,
                -1.4886786871159725,
                0.47519921744764937
            ]
        },
        {
            "positions": [
                2.3461760871211617,
                -1.2327445492116682,
                -1.6212820533567003,
                -1.216213976846023,
                -1.4475445761266186,
                0.49178893956891023
            ]
        },
        {
            "positions": [
                2.228367272797889,
                -1.2288795332262816,
                -1.5218365465698853,
                -1.105434985376966,
                -1.4064104651372649,
                0.5083786616901711
            ]
        },
        {
            "positions": [
                2.1105584584746166,
                -1.2250145172408953,
                -1.4223910397830704,
                -0.9946559939079089,
                -1.365276354147911,
                0.5249683838114321
            ]
        },
        {
            "positions": [
                1.9927496441513444,
                -1.2211495012555087,
                -1.3229455329962554,
                -0.8838770024388519,
                -1.3241422431585572,
                0.5415581059326929
            ]
        },
        {
            "positions": [
                1.874940829828072,
                -1.2172844852701223,
                -1.2235000262094404,
                -0.7730980109697949,
                -1.2830081321692033,
                0.5581478280539538
            ]
        },
        {
            "positions": [
                1.7571320155047996,
                -1.2134194692847358,
                -1.1240545194226255,
                -0.6623190195007379,
                -1.2418740211798496,
                0.5747375501752147
            ]
        },
        {
            "positions": [
                1.639323201181527,
                -1.2095544532993494,
                -1.0246090126358105,
                -0.5515400280316808,
                -1.2007399101904956,
                0.5913272722964756
            ]
        },
        {
            "positions": [
                1.5215143868582548,
                -1.2056894373139628,
                -0.9251635058489956,
                -0.4407610365626238,
                -1.1596057992011417,
                0.6079169944177365
            ]
        },
        {
            "positions": [
                1.4037055725349825,
                -1.2018244213285765,
                -0.8257179990621808,
                -0.3299820450935669,
                -1.118471688211788,
                0.6245067165389974
            ]
        },
        {
            "positions": [
                1.28589675821171,
                -1.19795940534319,
                -0.7262724922753658,
                -0.21920305362450976,
                -1.077337577222434,
                0.6410964386602582
            ]
        },
        {
            "positions": [
                1.1680879438884375,
                -1.1940943893578035,
                -0.6268269854885509,
                -0.10842406215545264,
                -1.0362034662330801,
                0.6576861607815192
            ]
        },
        {
            "positions": [
                1.0502791295651652,
                -1.190229373372417,
                -0.5273814787017359,
                0.0023549293136042593,
                -0.9950693552437264,
                0.6742758829027801
            ]
        },
        {
            "positions": [
                0.9324703152418929,
                -1.1863643573870306,
                -0.42793597191492094,
                0.11313392078266116,
                -0.9539352442543726,
                0.6908656050240409
            ]
        },
        {
            "positions": [
                0.8146615009186204,
                -1.1824993414016443,
                -0.3284904651281062,
                0.22391291225171828,
                -0.9128011332650188,
                0.7074553271453018
            ]
        },
        {
            "positions": [
                0.6968526865953484,
                -1.1786343254162577,
                -0.22904495834129124,
                0.3346919037207752,
                -0.871667022275665,
                0.7240450492665627
            ]
        },
        {
            "positions": [
                0.5790438722720754,
                -1.1747693094308713,
                -0.12959945155447605,
                0.4454708951898325,
                -0.830532911286311,
                0.7406347713878236
            ]
        },
        {
            "positions": [
                0.4612350579488034,
                -1.1709042934454847,
                -0.03015394476766109,
                0.5562498866588896,
                -0.7893988002969572,
                0.7572244935090845
            ]
        },
        {
            "positions": [
                0.34342624362553087,
                -1.1670392774600984,
                0.06929156201915365,
                0.6670288781279465,
                -0.7482646893076034,
                0.7738142156303454
            ]
        },
        {
            "positions": [
                0.22561742930225837,
                -1.1631742614747118,
                0.16873706880596884,
                0.7778078695970034,
                -0.7071305783182495,
                0.7904039377516063
            ]
        },
        {
            "positions": [
                0.1078086149789863,
                -1.1593092454893255,
                0.26818257559278336,
                0.8885868610660603,
                -0.6659964673288957,
                0.8069936598728671
            ]
        },
        {
            "positions": [
                -0.010000199344286198,
                -1.1554442295039389,
                0.3676280823795983,
                0.9993658525351172,
                -0.6248623563395419,
                0.8235833819941281
            ]
        },
        {
            "positions": [
                -0.1278090136675587,
                -1.1515792135185525,
                0.4670735891664133,
                1.1101448440041746,
                -0.5837282453501881,
                0.8401731041153889
            ]
        },
        {
            "positions": [
                -0.2456178279908312,
                -1.147714197533166,
                0.5665190959532287,
                1.2209238354732315,
                -0.542594134360834,
                0.8567628262366498
            ]
        },
        {
            "positions": [
                -0.3634266423141037,
                -1.1438491815477796,
                0.6659646027400432,
                1.3317028269422888,
                -0.5014600233714803,
                0.8733525483579108
            ]
        },
        {
            "positions": [
                -0.48123545663737577,
                -1.139984165562393,
                0.7654101095268582,
                1.4424818184113457,
                -0.4603259123821264,
                0.8899422704791716
            ]
        },
        {
            "positions": [
                -0.5990442709606483,
                -1.1361191495770067,
                0.864855616313673,
                1.5532608098804028,
                -0.4191918013927728,
                0.9065319926004325
            ]
        },
        {
            "positions": [
                -0.5269510098977308,
                -1.1002306596488056,
                0.9777531752243829,
                1.5891810523392702,
                -0.39064508118556085,
                0.8172917451816799
            ]
        },
        {
            "positions": [
                -0.4548577488348132,
                -1.0643421697206048,
                1.0906507341350928,
                1.6251012947981376,
                -0.36209836097834885,
                0.7280514977629273
            ]
        },
        {
            "positions": [
                -0.38276448777189576,
                -1.028453679792404,
                1.2035482930458026,
                1.6610215372570047,
                -0.3335516407711369,
                0.6388112503441747
            ]
        },
        {
            "positions": [
                -0.31067122670897823,
                -0.992565189864203,
                1.3164458519565125,
                1.6969417797158721,
                -0.305004920563925,
                0.549571002925422
            ]
        },
        {
            "positions": [
                -0.2385779656460607,
                -0.956676699936002,
                1.4293434108672223,
                1.7328620221747395,
                -0.276458200356713,
                0.46033075550666946
            ]
        },
        {
            "positions": [
                -0.16648470458314318,
                -0.9207882100078011,
                1.5422409697779322,
                1.7687822646336069,
                -0.24791148014950107,
                0.3710905080879169
            ]
        },
        {
            "positions": [
                -0.09439144352022566,
                -0.8848997200796002,
                1.6551385286886422,
                1.804702507092474,
                -0.2193647599422891,
                0.2818502606691643
            ]
        },
        {
            "positions": [
                -0.02229818245730819,
                -0.8490112301513992,
                1.7680360875993522,
                1.8406227495513416,
                -0.19081803973507713,
                0.1926100132504116
            ]
        },
        {
            "positions": [
                0.04979507860560939,
                -0.8131227402231983,
                1.8809336465100621,
                1.8765429920102088,
                -0.16227131952786517,
                0.10336976583165902
            ]
        },
        {
            "positions": [
                0.12188833966852688,
                -0.7772342502949974,
                1.9938312054207716,
                1.9124632344690762,
                -0.13372459932065323,
                0.014129518412906475
            ]
        }
    ]
}{
    "goal": {
        "global_pose": {
            "orientation": {
                "w": 0.7047431468963623,
                "x": -0.7094548344612122,
                "y": 0.0024358443915843964,
                "z": -0.0022348060738295317
            },
            "position": {
                "x": 0.6094750761985779,
                "y": 0.3671506643295288,
                "z": 0.19426114857196808
            }
        },
        "name": "move_to_magneteinheit_A"
    },
    "id": "RRTConnect_move_to_magneteinheit_A_30",
    "joint_names": [
        "shoulder_pan_joint",
        "shoulder_lift_joint",
        "elbow_joint",
        "wrist_1_joint",
        "wrist_2_joint",
        "wrist_3_joint"
    ],
    "metrics": {
        "cart_traj_len": 1.305309456999683,
        "distance_elbow_joint": 0.4076174193419082,
        "distance_shoulder_lift_joint": 0.7505514362954329,
        "distance_shoulder_pan_joint": 1.2404359414229809,
        "distance_wrist_1_joint": 0.7460125762688727,
        "distance_wrist_2_joint": 1.4508274139373203,
        "distance_wrist_3_joint": 4.2477573717853385,
        "smoothness": 0.029188036451959623,
        "time": 0.076869628,
        "traj_len": 2.973752202025558,
        "weighted_distance": 4.419904624856596
    },
    "planner": "RRTConnect",
    "start": {
        "state": {
            "elbow_joint": 1.919643534880228,
            "shoulder_lift_joint": -1.8972525353963687,
            "shoulder_pan_joint": -1.1188672234189438,
            "wrist_1_joint": -1.5931878212786155,
            "wrist_2_joint": 1.5706036197970081,
            "wrist_3_joint": 1.118896926603594
        }
    },
    "waypoints": [
        {
            "positions": [
                -1.1188672234189438,
                -1.8972525353963687,
                1.919643534880228,
                -1.5931878212786155,
                1.5706036197970081,
                1.118896926603594
            ]
        },
        {
            "positions": [
                -1.0622761165672876,
                -1.8640207068572352,
                1.9115061719362185,
                -1.5614133955442626,
                1.5088222225715864,
                0.9236244385028318
            ]
        },
        {
            "positions": [
                -1.0056850097156314,
                -1.8307888783181019,
                1.903368808992209,
                -1.5296389698099098,
                1.4470408253461646,
                0.7283519504020697
            ]
        },
        {
            "positions": [
                -0.9490939028639751,
                -1.7975570497789684,
                1.8952314460481994,
                -1.497864544075557,
                1.3852594281207429,
                0.5330794623013075
            ]
        },
        {
            "positions": [
                -0.8925027960123187,
                -1.7643252212398348,
                1.8870940831041898,
                -1.466090118341204,
                1.323478030895321,
                0.3378069742005454
            ]
        },
        {
            "positions": [
                -0.8359116891606625,
                -1.7310933927007013,
                1.8789567201601804,
                -1.4343156926068512,
                1.2616966336698991,
                0.14253448609978325
            ]
        },
        {
            "positions": [
                -0.7793205823090062,
                -1.6978615641615677,
                1.8708193572161709,
                -1.4025412668724981,
                1.1999152364444774,
                -0.05273800200097889
            ]
        },
        {
            "positions": [
                -0.72272947545735,
                -1.6646297356224344,
                1.8626819942721613,
                -1.3707668411381453,
                1.1381338392190556,
                -0.24801049010174103
            ]
        },
        {
            "positions": [
                -0.6661383686056936,
                -1.631397907083301,
                1.8545446313281517,
                -1.3389924154037924,
                1.0763524419936337,
                -0.4432829782025032
            ]
        },
        {
            "positions": [
                -0.6095472617540375,
                -1.5981660785441674,
                1.8464072683841422,
                -1.3072179896694396,
                1.014571044768212,
                -0.6385554663032653
            ]
        },
        {
            "positions": [
                -0.5529561549023811,
                -1.564934250005034,
                1.8382699054401326,
                -1.2754435639350867,
                0.9527896475427902,
                -0.8338279544040275
            ]
        },
        {
            "positions": [
                -0.4963650480507249,
                -1.5317024214659005,
                1.830132542496123,
                -1.2436691382007339,
                0.8910082503173684,
                -1.02910044250479
            ]
        },
        {
            "positions": [
                -0.43977394119906865,
                -1.498470592926767,
                1.8219951795521134,
                -1.211894712466381,
                0.8292268530919467,
                -1.2243729306055517
            ]
        },
        {
            "positions": [
                -0.3831828343474123,
                -1.4652387643876335,
                1.8138578166081039,
                -1.1801202867320282,
                0.7674454558665248,
                -1.4196454187063143
            ]
        },
        {
            "positions": [
                -0.32659172749575616,
                -1.4320069358485,
                1.8057204536640943,
                -1.1483458609976753,
                0.705664058641103,
                -1.614917906807076
            ]
        },
        {
            "positions": [
                -0.2700006206440998,
                -1.3987751073093664,
                1.7975830907200847,
                -1.1165714352633223,
                0.6438826614156812,
                -1.8101903949078386
            ]
        },
        {
            "positions": [
                -0.21340951379244355,
                -1.365543278770233,
                1.7894457277760751,
                -1.0847970095289696,
                0.5821012641902594,
                -2.0054628830086
            ]
        },
        {
            "positions": [
                -0.1568184069407873,
                -1.3323114502310995,
                1.7813083648320658,
                -1.0530225837946166,
                0.5203198669648377,
                -2.2007353711093627
            ]
        },
        {
            "positions": [
                -0.10022730008913117,
                -1.2990796216919662,
                1.7731710018880562,
                -1.021248158060264,
                0.4585384697394159,
                -2.3960078592101244
            ]
        },
        {
            "positions": [
                -0.043636193237474696,
                -1.2658477931528327,
                1.7650336389440466,
                -0.9894737323259108,
                0.39675707251399395,
                -2.591280347310887
            ]
        },
        {
            "positions": [
                0.012954913614181551,
                -1.2326159646136992,
                1.756896276000037,
                -0.9576993065915581,
                0.3349756752885722,
                -2.7865528354116487
            ]
        },
        {
            "positions": [
                0.06954602046583785,
                -1.1993841360745656,
                1.7487589130560275,
                -0.9259248808572051,
                0.27319427806315033,
                -2.9818253235124113
            ]
        },
        {
            "positions": [
                0.09555736923493757,
                -1.1730426175877509,
                1.8671253118148812,
                -0.8865500629334739,
                0.1964852419614191,
                -3.055342884347078
            ]
        },
        {
            "positions": [
                0.12156871800403728,
                -1.1467010991009359,
                1.985491710573735,
                -0.8471752450097427,
                0.11977620585968783,
                -3.1288604451817448
            ]
        }
    ]
}