{
    "goal": {
        "global_pose": {
            "orientation": {
                "w": 0.5084816217422485,
                "x": -0.49083608388900757,
                "y": 0.5182115435600281,
                "z": -0.4816462993621826
            },
            "position": {
                "x": 0.5540239810943604,
                "y": 0.030875300988554955,
                "z": 0.16403168439865112
            }
        },
        "name": "move_to_storage_A"
    },
    "id": "RRTConnect_move_to_storage_A_4",
    "joint_names": [
        "shoulder_pan_joint",
        "shoulder_lift_joint",
        "elbow_joint",
        "wrist_1_joint",
        "wrist_2_joint",
        "wrist_3_joint"
    ],
    "metrics": {
        "cart_traj_len": 0.35385740350411854,
        "distance_elbow_joint": 0.4540906913808236,
        "distance_shoulder_lift_joint": 0.2348697296509985,
        "distance_shoulder_pan_joint": 0.4626332746249932,
        "distance_wrist_1_joint": 0.26016034229136664,
        "distance_wrist_2_joint": 1.1012364744876257,
        "distance_wrist_3_joint": 0.10896149863644355,
        "smoothness": 9.992007271825419e-16,
        "time": 0.07022041600000001,
        "traj_len": 1.6192442715885245,
        "weighted_distance": 2.049700423262905
    },
    "planner": "RRTConnect",
    "start": {
        "state": {
            "elbow_joint": 1.9715477243005601,
            "shoulder_lift_joint": -1.1394853015351272,
            "shoulder_pan_joint": 0.12281154014795169,
            "wrist_1_joint": -0.7804696478968182,
            "wrist_2_joint": 0.12958648046900423,
            "wrist_3_joint": -3.192491284697111
        }
    },
    "waypoints": [
        {
            "positions": [
                0.12281154014795169,
                -1.1394853015351272,
                1.9715477243005601,
                -0.7804696478968182,
                0.12958648046900423,
                -3.192491284697111
            ]
        },
        {
            "positions": [
                0.05672107234438123,
                -1.1730381200566984,
                2.0364178230692493,
                -0.8176354110812991,
                0.28690597682437935,
                -3.1769253563204765
            ]
        },
        {
            "positions": [
                -0.009369395459189231,
                -1.2065909385782696,
                2.101287921837938,
                -0.8548011742657801,
                0.4442254731797544,
                -3.1613594279438417
            ]
        },
        {
            "positions": [
                -0.07545986326275968,
                -1.2401437570998408,
                2.1661580206066273,
                -0.891966937450261,
                0.6015449695351296,
                -3.145793499567207
            ]
        },
        {
            "positions": [
                -0.14155033106633014,
                -1.273696575621412,
                2.2310281193753165,
                -0.929132700634742,
                0.7588644658905046,
                -3.130227571190572
            ]
        },
        {
            "positions": [
                -0.2076407988699006,
                -1.3072493941429832,
                2.2958982181440057,
                -0.9662984638192229,
                0.9161839622458797,
                -3.114661642813937
            ]
        },
        {
            "positions": [
                -0.27373126667347103,
                -1.3408022126645545,
                2.3607683169126945,
                -1.003464227003704,
                1.0735034586012548,
                -3.0990957144373024
            ]
        },
        {
            "positions": [
                -0.3398217344770415,
                -1.3743550311861257,
                2.4256384156813837,
                -1.0406299901881848,
                1.23082295495663,
                -3.0835297860606676
            ]
        }
    ]
}