{
    "goal": {
        "global_pose": {
            "orientation": {
                "w": 0.7047431468963623,
                "x": -0.7094548344612122,
                "y": 0.0024358443915843964,
                "z": -0.0022348060738295317
            },
            "position": {
                "x": 0.6094750761985779,
                "y": 0.3671506643295288,
                "z": 0.19426114857196808
            }
        },
        "name": "move_to_magneteinheit_A"
    },
    "id": "RRTConnect_move_to_magneteinheit_A_35",
    "joint_names": [
        "shoulder_pan_joint",
        "shoulder_lift_joint",
        "elbow_joint",
        "wrist_1_joint",
        "wrist_2_joint",
        "wrist_3_joint"
    ],
    "metrics": {
        "cart_traj_len": 4.0300039674191765,
        "distance_elbow_joint": 3.9153066649559034,
        "distance_shoulder_lift_joint": 0.5495143756841806,
        "distance_shoulder_pan_joint": 4.023749314168978,
        "distance_wrist_1_joint": 3.4798198141028225,
        "distance_wrist_2_joint": 1.4378687713388616,
        "distance_wrist_3_joint": 1.0572699065386442,
        "smoothness": 0.23861375045777855,
        "time": 0.089932447,
        "traj_len": 3.8030946407878665,
        "weighted_distance": 4.636351717170341
    },
    "planner": "RRTConnect",
    "start": {
        "state": {
            "elbow_joint": -1.919618573717145,
            "shoulder_lift_joint": -1.2443395971678275,
            "shoulder_pan_joint": 2.6996025300909787,
            "wrist_1_joint": -1.548550951253194,
            "wrist_2_joint": -1.5709469090946802,
            "wrist_3_joint": 0.4420197732051276
        }
    },
    "waypoints": [
        {
            "positions": [
                2.6996025300909787,
                -1.2443395971678275,
                -1.919618573717145,
                -1.548550951253194,
                -1.5709469090946802,
                0.4420197732051276
            ]
        },
        {
            "positions": [
                2.5817488679747926,
                -1.2261973335683491,
                -1.8212342451651409,
                -1.4593908134181994,
                -1.53373068504395,
                0.4150607664171359
            ]
        },
        {
            "positions": [
                2.4638952058586066,
                -1.2080550699688708,
                -1.722849916613137,
                -1.370230675583205,
                -1.49651446099322,
                0.38810175962914417
            ]
        },
        {
            "positions": [
                2.346041543742421,
                -1.1899128063693925,
                -1.624465588061133,
                -1.2810705377482103,
                -1.4592982369424898,
                0.3611427528411525
            ]
        },
        {
            "positions": [
                2.228187881626235,
                -1.171770542769914,
                -1.5260812595091289,
                -1.1919103999132157,
                -1.4220820128917597,
                0.3341837460531608
            ]
        },
        {
            "positions": [
                2.1103342195100487,
                -1.1536282791704358,
                -1.4276969309571248,
                -1.1027502620782212,
                -1.3848657888410296,
                0.3072247392651691
            ]
        },
        {
            "positions": [
                1.9924805573938627,
                -1.1354860155709574,
                -1.329312602405121,
                -1.0135901242432266,
                -1.3476495647902995,
                0.2802657324771774
            ]
        },
        {
            "positions": [
                1.8746268952776768,
                -1.117343751971479,
                -1.2309282738531169,
                -0.9244299864082319,
                -1.3104333407395694,
                0.25330672568918566
            ]
        },
        {
            "positions": [
                1.756773233161491,
                -1.0992014883720007,
                -1.132543945301113,
                -0.8352698485732374,
                -1.2732171166888393,
                0.226347718901194
            ]
        },
        {
            "positions": [
                1.6389195710453048,
                -1.0810592247725224,
                -1.034159616749109,
                -0.7461097107382427,
                -1.2360008926381092,
                0.19938871211320228
            ]
        },
        {
            "positions": [
                1.5210659089291187,
                -1.062916961173044,
                -0.9357752881971049,
                -0.6569495729032482,
                -1.198784668587379,
                0.17242970532521057
            ]
        },
        {
            "positions": [
                1.4032122468129329,
                -1.0447746975735657,
                -0.8373909596451008,
                -0.5677894350682535,
                -1.161568444536649,
                0.1454706985372189
            ]
        },
        {
            "positions": [
                1.2853585846967468,
                -1.0266324339740873,
                -0.7390066310930969,
                -0.4786292972332591,
                -1.1243522204859189,
                0.11851169174922721
            ]
        },
        {
            "positions": [
                1.1675049225805607,
                -1.008490170374609,
                -0.6406223025410929,
                -0.38946915939826443,
                -1.0871359964351888,
                0.09155268496123548
            ]
        },
        {
            "positions": [
                1.0496512604643748,
                -0.9903479067751306,
                -0.5422379739890888,
                -0.3003090215632698,
                -1.0499197723844587,
                0.0645936781732438
            ]
        },
        {
            "positions": [
                0.931797598348189,
                -0.9722056431756523,
                -0.4438536454370847,
                -0.21114888372827512,
                -1.0127035483337286,
                0.037634671385252116
            ]
        },
        {
            "positions": [
                0.8139439362320029,
                -0.9540633795761739,
                -0.34546931688508087,
                -0.12198874589328068,
                -0.9754873242829984,
                0.010675664597260437
            ]
        },
        {
            "positions": [
                0.696090274115817,
                -0.9359211159766956,
                -0.2470849883330768,
                -0.032828608058286024,
                -0.9382711002322683,
                -0.016283342190731243
            ]
        },
        {
            "positions": [
                0.578236611999631,
                -0.9177788523772171,
                -0.14870065978107272,
                0.05633152977670863,
                -0.9010548761815382,
                -0.04324234897872303
            ]
        },
        {
            "positions": [
                0.46038294988344486,
                -0.8996365887777388,
                -0.050316331229068645,
                0.1454916676117033,
                -0.8638386521308081,
                -0.07020135576671477
            ]
        },
        {
            "positions": [
                0.34252928776725877,
                -0.8814943251782604,
                0.04806799732293521,
                0.23465180544669773,
                -0.826622428080078,
                -0.09716036255470645
            ]
        },
        {
            "positions": [
                0.22467562565107269,
                -0.8633520615787821,
                0.14645232587493928,
                0.3238119432816924,
                -0.7894062040293479,
                -0.12411936934269813
            ]
        },
        {
            "positions": [
                0.10682196353488704,
                -0.8452097979793038,
                0.24483665442694336,
                0.41297208111668704,
                -0.7521899799786178,
                -0.1510783761306898
            ]
        },
        {
            "positions": [
                -0.011031698581299043,
                -0.8270675343798255,
                0.34322098297894743,
                0.5021322189516817,
                -0.7149737559278877,
                -0.17803738291868149
            ]
        },
        {
            "positions": [
                -0.12888536069748513,
                -0.8089252707803471,
                0.44160531153095106,
                0.5912923567866759,
                -0.6777575318771576,
                -0.20499638970667317
            ]
        },
        {
            "positions": [
                -0.24673902281367122,
                -0.7907830071808687,
                0.5399896400829556,
                0.680452494621671,
                -0.6405413078264275,
                -0.23195539649466496
            ]
        },
        {
            "positions": [
                -0.3645926849298573,
                -0.7726407435813903,
                0.6383739686349592,
                0.7696126324566652,
                -0.6033250837756974,
                -0.25891440328265664
            ]
        },
        {
            "positions": [
                -0.48244634704604294,
                -0.754498479981912,
                0.7367582971869633,
                0.8587727702916599,
                -0.5661088597249673,
                -0.2858734100706483
            ]
        },
        {
            "positions": [
                -0.600300009162229,
                -0.7363562163824336,
                0.8351426257389674,
                0.9479329081266546,
                -0.5288926356742373,
                -0.31283241685864
            ]
        },
        {
            "positions": [
                -0.527915331670652,
                -0.7405093158723123,
                0.9511971722889465,
                1.046266503598952,
                -0.4893111858823954,
                -0.28259064521115235
            ]
        },
        {
            "positions": [
                -0.455530654179075,
                -0.744662415362191,
                1.0672517188389257,
                1.1446000990712493,
                -0.44972973609055356,
                -0.2523488735636647
            ]
        },
        {
            "positions": [
                -0.383145976687498,
                -0.7488155148520697,
                1.1833062653889048,
                1.2429336945435465,
                -0.4101482862987117,
                -0.22210710191617705
            ]
        },
        {
            "positions": [
                -0.310761299195921,
                -0.7529686143419484,
                1.299360811938884,
                1.3412672900158438,
                -0.37056683650686983,
                -0.1918653302686894
            ]
        },
        {
            "positions": [
                -0.23837662170434398,
                -0.757121713831827,
                1.415415358488863,
                1.439600885488141,
                -0.330985386715028,
                -0.16162355862120176
            ]
        },
        {
            "positions": [
                -0.16599194421276697,
                -0.7612748133217057,
                1.531469905038842,
                1.537934480960438,
                -0.29140393692318617,
                -0.1313817869737141
            ]
        },
        {
            "positions": [
                -0.09360726672119002,
                -0.7654279128115844,
                1.6475244515888212,
                1.6362680764327355,
                -0.2518224871313443,
                -0.10114001532622646
            ]
        },
        {
            "positions": [
                -0.021222589229612954,
                -0.769581012301463,
                1.7635789981388004,
                1.7346016719050328,
                -0.2122410373395024,
                -0.07089824367873881
            ]
        },
        {
            "positions": [
                0.05116208826196411,
                -0.7737341117913418,
                1.8796335446887795,
                1.83293526737733,
                -0.1726595875476606,
                -0.04065647203125117
            ]
        },
        {
            "positions": [
                0.1235467657535411,
                -0.7778872112812204,
                1.9956880912387587,
                1.9312688628496273,
                -0.13307813775581873,
                -0.010414700383763513
            ]
        }
    ]
}{
    "goal": {
        "global_pose": {
            "orientation": {
                "w": 0.7047431468963623,
                "x": -0.7094548344612122,
                "y": 0.0024358443915843964,
                "z": -0.0022348060738295317
            },
            "position": {
                "x": 0.6094750761985779,
                "y": 0.3671506643295288,
                "z": 0.19426114857196808
            }
        },
        "name": "move_to_magneteinheit_A"
    },
    "id": "RRTConnect_move_to_magneteinheit_A_35",
    "joint_names": [
        "shoulder_pan_joint",
        "shoulder_lift_joint",
        "elbow_joint",
        "wrist_1_joint",
        "wrist_2_joint",
        "wrist_3_joint"
    ],
    "metrics": {
        "cart_traj_len": 1.2197528946672578,
        "distance_elbow_joint": 0.06960567813857188,
        "distance_shoulder_lift_joint": 0.7689351131396678,
        "distance_shoulder_pan_joint": 1.2406574972622066,
        "distance_wrist_1_joint": 0.7293581820871917,
        "distance_wrist_2_joint": 1.443894985720501,
        "distance_wrist_3_joint": 4.235489851276576,
        "smoothness": 0.061398121724809324,
        "time": 0.09190356699999999,
        "traj_len": 2.913407164751387,
        "weighted_distance": 4.374034085142177
    },
    "planner": "RRTConnect",
    "start": {
        "state": {
            "elbow_joint": 1.919643534880228,
            "shoulder_lift_joint": -1.8972525353963687,
            "shoulder_pan_joint": -1.1188672234189438,
            "wrist_1_joint": -1.5931878212786155,
            "wrist_2_joint": 1.5706036197970081,
            "wrist_3_joint": 1.118896926603594
        }
    },
    "waypoints": [
        {
            "positions": [
                -1.1188672234189438,
                -1.8972525353963687,
                1.919643534880228,
                -1.5931878212786155,
                1.5706036197970081,
                1.118896926603594
            ]
        },
        {
            "positions": [
                -1.0634927258617888,
                -1.8627636605743867,
                1.920921733059011,
                -1.5609135121926478,
                1.5058336750103658,
                0.9284813721879741
            ]
        },
        {
            "positions": [
                -1.0081182283046337,
                -1.8282747857524044,
                1.9221999312377938,
                -1.5286392031066802,
                1.4410637302237235,
                0.7380658177723542
            ]
        },
        {
            "positions": [
                -0.9527437307474789,
                -1.7937859109304224,
                1.9234781294165766,
                -1.4963648940207126,
                1.376293785437081,
                0.5476502633567344
            ]
        },
        {
            "positions": [
                -0.8973692331903238,
                -1.7592970361084401,
                1.9247563275953592,
                -1.464090584934745,
                1.3115238406504386,
                0.35723470894111453
            ]
        },
        {
            "positions": [
                -0.8419947356331687,
                -1.724808161286458,
                1.926034525774142,
                -1.4318162758487774,
                1.2467538958637963,
                0.16681915452549467
            ]
        },
        {
            "positions": [
                -0.7866202380760138,
                -1.690319286464476,
                1.9273127239529249,
                -1.39954196676281,
                1.181983951077154,
                -0.023596399890125186
            ]
        },
        {
            "positions": [
                -0.7312457405188587,
                -1.6558304116424938,
                1.9285909221317077,
                -1.3672676576768423,
                1.1172140062905114,
                -0.21401195430574504
            ]
        },
        {
            "positions": [
                -0.6758712429617038,
                -1.6213415368205117,
                1.9298691203104905,
                -1.3349933485908747,
                1.052444061503869,
                -0.4044275087213649
            ]
        },
        {
            "positions": [
                -0.6204967454045487,
                -1.5868526619985295,
                1.9311473184892733,
                -1.302719039504907,
                0.9876741167172267,
                -0.5948430631369848
            ]
        },
        {
            "positions": [
                -0.5651222478473937,
                -1.5523637871765474,
                1.9324255166680562,
                -1.2704447304189395,
                0.9229041719305844,
                -0.7852586175526046
            ]
        },
        {
            "positions": [
                -0.5097477502902387,
                -1.5178749123545652,
                1.933703714846839,
                -1.2381704213329718,
                0.8581342271439419,
                -0.9756741719682245
            ]
        },
        {
            "positions": [
                -0.4543732527330837,
                -1.4833860375325831,
                1.9349819130256216,
                -1.2058961122470042,
                0.7933642823572996,
                -1.1660897263838443
            ]
        },
        {
            "positions": [
                -0.39899875517592864,
                -1.448897162710601,
                1.9362601112044044,
                -1.1736218031610366,
                0.7285943375706572,
                -1.3565052807994642
            ]
        },
        {
            "positions": [
                -0.3436242576187736,
                -1.4144082878886188,
                1.9375383093831873,
                -1.141347494075069,
                0.6638243927840148,
                -1.546920835215084
            ]
        },
        {
            "positions": [
                -0.2882497600616186,
                -1.3799194130666368,
                1.93881650756197,
                -1.1090731849891013,
                0.5990544479973725,
                -1.737336389630704
            ]
        },
        {
            "positions": [
                -0.23287526250446355,
                -1.3454305382446545,
                1.940094705740753,
                -1.0767988759031337,
                0.53428450321073,
                -1.9277519440463238
            ]
        },
        {
            "positions": [
                -0.1775007649473086,
                -1.3109416634226725,
                1.9413729039195358,
                -1.044524566817166,
                0.4695145584240876,
                -2.1181674984619434
            ]
        },
        {
            "positions": [
                -0.12212626739015353,
                -1.2764527886006904,
                1.9426511020983186,
                -1.0122502577311985,
                0.4047446136374453,
                -2.3085830528775633
            ]
        },
        {
            "positions": [
                -0.06675176983299846,
                -1.2419639137787082,
                1.9439293002771012,
                -0.979975948645231,
                0.33997466885080296,
                -2.498998607293183
            ]
        },
        {
            "positions": [
                -0.01137727227584362,
                -1.2074750389567261,
                1.945207498455884,
                -0.9477016395592633,
                0.27520472406416063,
                -2.689414161708803
            ]
        },
        {
            "positions": [
                0.04399722528131145,
                -1.1729861641347439,
                1.9464856966346669,
                -0.9154273304732957,
                0.21043477927751808,
                -2.879829716124423
            ]
        },
        {
            "positions": [
                0.09937172283846643,
                -1.1384972893127618,
                1.9477638948134497,
                -0.8831530213873281,
                0.1456648344908758,
                -3.0702452705400427
            ]
        },
        {
            "positions": [
                0.1217902738432627,
                -1.1486771563688227,
                1.9892492130188,
                -0.8638296391914237,
                0.12670863407650715,
                -3.116592924672982
            ]
        }
    ]
}