{
    "goal": {
        "global_pose": {
            "orientation": {
                "w": 0.5084816217422485,
                "x": -0.49083608388900757,
                "y": 0.5182115435600281,
                "z": -0.4816462993621826
            },
            "position": {
                "x": 0.5540239810943604,
                "y": 0.030875300988554955,
                "z": 0.16403168439865112
            }
        },
        "name": "move_to_storage_A"
    },
    "id": "RRTConnect_move_to_storage_A_71",
    "joint_names": [
        "shoulder_pan_joint",
        "shoulder_lift_joint",
        "elbow_joint",
        "wrist_1_joint",
        "wrist_2_joint",
        "wrist_3_joint"
    ],
    "metrics": {
        "cart_traj_len": 0.35224170028798296,
        "distance_elbow_joint": 0.44700708490816066,
        "distance_shoulder_lift_joint": 0.23507216976970402,
        "distance_shoulder_pan_joint": 0.4587523445299195,
        "distance_wrist_1_joint": 0.2333594485871654,
        "distance_wrist_2_joint": 1.1048944469874034,
        "distance_wrist_3_joint": 0.09628738921029134,
        "smoothness": 2.2204460668324854e-16,
        "time": 0.053988580999999994,
        "traj_len": 1.6047968357373603,
        "weighted_distance": 2.026376460085291
    },
    "planner": "RRTConnect",
    "start": {
        "state": {
            "elbow_joint": 1.9715477243005601,
            "shoulder_lift_joint": -1.1394853015351272,
            "shoulder_pan_joint": 0.12281154014795169,
            "wrist_1_joint": -0.7804696478968182,
            "wrist_2_joint": 0.12958648046900423,
            "wrist_3_joint": -3.192491284697111
        }
    },
    "waypoints": [
        {
            "positions": [
                0.12281154014795169,
                -1.1394853015351272,
                1.9715477243005601,
                -0.7804696478968182,
                0.12958648046900423,
                -3.192491284697111
            ]
        },
        {
            "positions": [
                0.05727549092939177,
                -1.1730670400736563,
                2.03540587928744,
                -0.813806711980699,
                0.28742854432434756,
                -3.1787359433813553
            ]
        },
        {
            "positions": [
                -0.008260558289168149,
                -1.2066487786121856,
                2.0992640342743205,
                -0.8471437760645797,
                0.4452706081796909,
                -3.1649806020655995
            ]
        },
        {
            "positions": [
                -0.07379660750772808,
                -1.2402305171507146,
                2.1631221892612005,
                -0.8804808401484605,
                0.6031126720350342,
                -3.1512252607498437
            ]
        },
        {
            "positions": [
                -0.13933265672628797,
                -1.2738122556892437,
                2.2269803442480804,
                -0.9138179042323412,
                0.7609547358903775,
                -3.1374699194340874
            ]
        },
        {
            "positions": [
                -0.2048687059448479,
                -1.3073939942277728,
                2.290838499234961,
                -0.947154968316222,
                0.9187967997457209,
                -3.1237145781183315
            ]
        },
        {
            "positions": [
                -0.27040475516340784,
                -1.340975732766302,
                2.354696654221841,
                -0.9804920324001027,
                1.0766388636010642,
                -3.1099592368025757
            ]
        },
        {
            "positions": [
                -0.3359408043819678,
                -1.3745574713048312,
                2.418554809208721,
                -1.0138290964839836,
                1.2344809274564075,
                -3.09620389548682
            ]
        }
    ]
}