{
    "goal": {
        "global_pose": {
            "orientation": {
                "w": 0.5084816217422485,
                "x": -0.49083608388900757,
                "y": 0.5182115435600281,
                "z": -0.4816462993621826
            },
            "position": {
                "x": 0.5540239810943604,
                "y": 0.030875300988554955,
                "z": 0.16403168439865112
            }
        },
        "name": "move_to_storage_A"
    },
    "id": "RRTConnect_move_to_storage_A_22",
    "joint_names": [
        "shoulder_pan_joint",
        "shoulder_lift_joint",
        "elbow_joint",
        "wrist_1_joint",
        "wrist_2_joint",
        "wrist_3_joint"
    ],
    "metrics": {
        "cart_traj_len": 0.35314916705570026,
        "distance_elbow_joint": 0.4538149144170629,
        "distance_shoulder_lift_joint": 0.23273744086986348,
        "distance_shoulder_pan_joint": 0.4590598012844264,
        "distance_wrist_1_joint": 0.26081293976095943,
        "distance_wrist_2_joint": 1.1103859652766541,
        "distance_wrist_3_joint": 0.11063873727373963,
        "smoothness": 4.440892098500626e-16,
        "time": 0.048052638999999994,
        "traj_len": 1.6209410226416956,
        "weighted_distance": 2.0542458904590264
    },
    "planner": "RRTConnect",
    "start": {
        "state": {
            "elbow_joint": 1.9715477243005601,
            "shoulder_lift_joint": -1.1394853015351272,
            "shoulder_pan_joint": 0.12281154014795169,
            "wrist_1_joint": -0.7804696478968182,
            "wrist_2_joint": 0.12958648046900423,
            "wrist_3_joint": -3.192491284697111
        }
    },
    "waypoints": [
        {
            "positions": [
                0.12281154014795169,
                -1.1394853015351272,
                1.9715477243005601,
                -0.7804696478968182,
                0.12958648046900423,
                -3.192491284697111
            ]
        },
        {
            "positions": [
                0.05723156853589077,
                -1.172733507373679,
                2.0363784263601405,
                -0.817728639291241,
                0.2882130469370977,
                -3.176685750800863
            ]
        },
        {
            "positions": [
                -0.008348403076170144,
                -1.205981713212231,
                2.101209128419721,
                -0.8549876306856637,
                0.4468396134051911,
                -3.160880216904614
            ]
        },
        {
            "positions": [
                -0.07392837468823106,
                -1.239229919050783,
                2.1660398304793014,
                -0.8922466220800864,
                0.6054661798732845,
                -3.1450746830083656
            ]
        },
        {
            "positions": [
                -0.13950834630029196,
                -1.2724781248893349,
                2.230870532538882,
                -0.9295056134745092,
                0.764092746341378,
                -3.129269149112117
            ]
        },
        {
            "positions": [
                -0.20508831791235288,
                -1.3057263307278868,
                2.295701234598462,
                -0.966764604868932,
                0.9227193128094715,
                -3.113463615215869
            ]
        },
        {
            "positions": [
                -0.2706682895244138,
                -1.3389745365664387,
                2.3605319366580426,
                -1.0040235962633548,
                1.0813458792775648,
                -3.09765808131962
            ]
        },
        {
            "positions": [
                -0.3362482611364747,
                -1.3722227424049906,
                2.425362638717623,
                -1.0412825876577776,
                1.2399724457456585,
                -3.0818525474233716
            ]
        }
    ]
}