{
    "goal": {
        "global_pose": {
            "orientation": {
                "w": 0.5084816217422485,
                "x": -0.49083608388900757,
                "y": 0.5182115435600281,
                "z": -0.4816462993621826
            },
            "position": {
                "x": 0.5540239810943604,
                "y": 0.030875300988554955,
                "z": 0.16403168439865112
            }
        },
        "name": "move_to_storage_A"
    },
    "id": "RRTConnect_move_to_storage_A_39",
    "joint_names": [
        "shoulder_pan_joint",
        "shoulder_lift_joint",
        "elbow_joint",
        "wrist_1_joint",
        "wrist_2_joint",
        "wrist_3_joint"
    ],
    "metrics": {
        "cart_traj_len": 0.3524346607180895,
        "distance_elbow_joint": 0.4503172972929068,
        "distance_shoulder_lift_joint": 0.23260415370380483,
        "distance_shoulder_pan_joint": 0.4612660450732551,
        "distance_wrist_1_joint": 0.24619429231315115,
        "distance_wrist_2_joint": 1.095070216178215,
        "distance_wrist_3_joint": 0.10092514245015183,
        "smoothness": 0.0,
        "time": 0.042138358,
        "traj_len": 1.6082217344046452,
        "weighted_distance": 2.032115139553651
    },
    "planner": "RRTConnect",
    "start": {
        "state": {
            "elbow_joint": 1.9715477243005601,
            "shoulder_lift_joint": -1.1394853015351272,
            "shoulder_pan_joint": 0.12281154014795169,
            "wrist_1_joint": -0.7804696478968182,
            "wrist_2_joint": 0.12958648046900423,
            "wrist_3_joint": -3.192491284697111
        }
    },
    "waypoints": [
        {
            "positions": [
                0.12281154014795169,
                -1.1394853015351272,
                1.9715477243005601,
                -0.7804696478968182,
                0.12958648046900423,
                -3.192491284697111
            ]
        },
        {
            "positions": [
                0.0569163908517724,
                -1.1727144663499565,
                2.0358787667709755,
                -0.8156402610844112,
                0.2860250827801778,
                -3.1780734072042325
            ]
        },
        {
            "positions": [
                -0.00897875844440689,
                -1.2059436311647858,
                2.100209809241391,
                -0.8508108742720042,
                0.44246368509135137,
                -3.1636555297113533
            ]
        },
        {
            "positions": [
                -0.07487390774058618,
                -1.239172795979615,
                2.164540851711806,
                -0.8859814874595973,
                0.5989022874025249,
                -3.1492376522184746
            ]
        },
        {
            "positions": [
                -0.14076905703676545,
                -1.2724019607944441,
                2.228871894182221,
                -0.9211521006471902,
                0.7553408897136985,
                -3.134819774725596
            ]
        },
        {
            "positions": [
                -0.2066642063329448,
                -1.3056311256092734,
                2.2932029366526363,
                -0.9563227138347833,
                0.9117794920248722,
                -3.120401897232717
            ]
        },
        {
            "positions": [
                -0.27255935562912403,
                -1.3388602904241027,
                2.3575339791230516,
                -0.9914933270223762,
                1.0682180943360455,
                -3.105984019739838
            ]
        },
        {
            "positions": [
                -0.3384545049253034,
                -1.372089455238932,
                2.421865021593467,
                -1.0266639402099693,
                1.2246566966472194,
                -3.0915661422469594
            ]
        }
    ]
}