{
    "goal": {
        "global_pose": {
            "orientation": {
                "w": 0.5084816217422485,
                "x": -0.49083608388900757,
                "y": 0.5182115435600281,
                "z": -0.4816462993621826
            },
            "position": {
                "x": 0.5540239810943604,
                "y": 0.030875300988554955,
                "z": 0.16403168439865112
            }
        },
        "name": "move_to_storage_A"
    },
    "id": "RRTConnect_move_to_storage_A_15",
    "joint_names": [
        "shoulder_pan_joint",
        "shoulder_lift_joint",
        "elbow_joint",
        "wrist_1_joint",
        "wrist_2_joint",
        "wrist_3_joint"
    ],
    "metrics": {
        "cart_traj_len": 0.35370655591207273,
        "distance_elbow_joint": 0.4497998312970899,
        "distance_shoulder_lift_joint": 0.23521295431949785,
        "distance_shoulder_pan_joint": 0.46196375298702796,
        "distance_wrist_1_joint": 0.24300287406860288,
        "distance_wrist_2_joint": 1.1025765558082132,
        "distance_wrist_3_joint": 0.104122179395985,
        "smoothness": 4.440892098500626e-16,
        "time": 0.049789922,
        "traj_len": 1.6114211578220068,
        "weighted_distance": 2.0372780705012272
    },
    "planner": "RRTConnect",
    "start": {
        "state": {
            "elbow_joint": 1.9715477243005601,
            "shoulder_lift_joint": -1.1394853015351272,
            "shoulder_pan_joint": 0.12281154014795169,
            "wrist_1_joint": -0.7804696478968182,
            "wrist_2_joint": 0.12958648046900423,
            "wrist_3_joint": -3.192491284697111
        }
    },
    "waypoints": [
        {
            "positions": [
                0.12281154014795169,
                -1.1394853015351272,
                1.9715477243005601,
                -0.7804696478968182,
                0.12958648046900423,
                -3.192491284697111
            ]
        },
        {
            "positions": [
                0.05681671829266198,
                -1.1730871521521984,
                2.0358048430572873,
                -0.8151843441923329,
                0.2870974170130347,
                -3.177616687640542
            ]
        },
        {
            "positions": [
                -0.009178103562627729,
                -1.2066890027692694,
                2.1000619618140144,
                -0.8498990404878476,
                0.44460835355706513,
                -3.1627420905839725
            ]
        },
        {
            "positions": [
                -0.07517292541791744,
                -1.2402908533863406,
                2.1643190805707415,
                -0.8846137367833622,
                0.6021192901010957,
                -3.147867493527403
            ]
        },
        {
            "positions": [
                -0.14116774727320713,
                -1.2738927040034116,
                2.2285761993274686,
                -0.9193284330788769,
                0.759630226645126,
                -3.1329928964708342
            ]
        },
        {
            "positions": [
                -0.20716256912849684,
                -1.3074945546204828,
                2.2928333180841958,
                -0.9540431293743916,
                0.9171411631891565,
                -3.118118299414265
            ]
        },
        {
            "positions": [
                -0.27315739098378655,
                -1.3410964052375538,
                2.357090436840923,
                -0.9887578256699063,
                1.074652099733187,
                -3.1032437023576955
            ]
        },
        {
            "positions": [
                -0.33915221283907626,
                -1.374698255854625,
                2.42134755559765,
                -1.023472521965421,
                1.2321630362772176,
                -3.088369105301126
            ]
        }
    ]
}