{
    "goal": {
        "global_pose": {
            "orientation": {
                "w": 0.7047431468963623,
                "x": -0.7094548344612122,
                "y": 0.0024358443915843964,
                "z": -0.0022348060738295317
            },
            "position": {
                "x": 0.6094750761985779,
                "y": 0.3671506643295288,
                "z": 0.19426114857196808
            }
        },
        "name": "move_to_magneteinheit_A"
    },
    "id": "RRTConnect_move_to_magneteinheit_A_26",
    "joint_names": [
        "shoulder_pan_joint",
        "shoulder_lift_joint",
        "elbow_joint",
        "wrist_1_joint",
        "wrist_2_joint",
        "wrist_3_joint"
    ],
    "metrics": {
        "cart_traj_len": 7.481526679411238,
        "distance_elbow_joint": 9.149105344119526,
        "distance_shoulder_lift_joint": 0.7769565641372975,
        "distance_shoulder_pan_joint": 9.257162851325146,
        "distance_wrist_1_joint": 5.759288996955907,
        "distance_wrist_2_joint": 3.0955563678793503,
        "distance_wrist_3_joint": 3.6693891198398223,
        "smoothness": 0.5015095310549751,
        "time": 0.087062387,
        "traj_len": 5.630937687832912,
        "weighted_distance": 6.9210608181673985
    },
    "planner": "RRTConnect",
    "start": {
        "state": {
            "elbow_joint": -1.919618573717145,
            "shoulder_lift_joint": -1.2443395971678275,
            "shoulder_pan_joint": 2.6996025300909787,
            "wrist_1_joint": -1.548550951253194,
            "wrist_2_joint": -1.5709469090946802,
            "wrist_3_joint": 0.4420197732051276
        }
    },
    "waypoints": [
        {
            "positions": [
                2.6996025300909787,
                -1.2443395971678275,
                -1.919618573717145,
                -1.548550951253194,
                -1.5709469090946802,
                0.4420197732051276
            ]
        },
        {
            "positions": [
                2.5967741339537715,
                -1.258846726291505,
                -1.7928502998961573,
                -1.4692130002744523,
                -1.5224160923778782,
                0.4182591928638998
            ]
        },
        {
            "positions": [
                2.493945737816565,
                -1.2733538554151824,
                -1.6660820260751694,
                -1.3898750492957106,
                -1.4738852756610763,
                0.39449861252267204
            ]
        },
        {
            "positions": [
                2.3911173416793576,
                -1.28786098453886,
                -1.5393137522541815,
                -1.3105370983169689,
                -1.4253544589442741,
                0.37073803218144424
            ]
        },
        {
            "positions": [
                2.288288945542151,
                -1.3023681136625374,
                -1.412545478433194,
                -1.231199147338227,
                -1.3768236422274722,
                0.34697745184021644
            ]
        },
        {
            "positions": [
                2.1854605494049437,
                -1.316875242786215,
                -1.2857772046122062,
                -1.1518611963594856,
                -1.3282928255106703,
                0.3232168714989887
            ]
        },
        {
            "positions": [
                2.0826321532677365,
                -1.3313823719098925,
                -1.1590089307912184,
                -1.0725232453807438,
                -1.2797620087938684,
                0.2994562911577609
            ]
        },
        {
            "positions": [
                1.9798037571305298,
                -1.3458895010335699,
                -1.0322406569702305,
                -0.9931852944020021,
                -1.2312311920770664,
                0.2756957108165331
            ]
        },
        {
            "positions": [
                1.8769753609933226,
                -1.3603966301572474,
                -0.9054723831492428,
                -0.9138473434232603,
                -1.1827003753602643,
                0.25193513047530536
            ]
        },
        {
            "positions": [
                1.7741469648561157,
                -1.374903759280925,
                -0.778704109328255,
                -0.8345093924445186,
                -1.1341695586434624,
                0.22817455013407753
            ]
        },
        {
            "positions": [
                1.6713185687189087,
                -1.3894108884046024,
                -0.6519358355072673,
                -0.755171441465777,
                -1.0856387419266604,
                0.20441396979284976
            ]
        },
        {
            "positions": [
                1.5684901725817015,
                -1.40391801752828,
                -0.5251675616862794,
                -0.6758334904870352,
                -1.0371079252098583,
                0.18065338945162196
            ]
        },
        {
            "positions": [
                1.4656617764444948,
                -1.4184251466519573,
                -0.39839928786529155,
                -0.5964955395082935,
                -0.9885771084930565,
                0.15689280911039422
            ]
        },
        {
            "positions": [
                1.3628333803072878,
                -1.4329322757756349,
                -0.2716310140443039,
                -0.5171575885295518,
                -0.9400462917762545,
                0.13313222876916642
            ]
        },
        {
            "positions": [
                1.2600049841700807,
                -1.4474394048993124,
                -0.14486274022331602,
                -0.4378196375508101,
                -0.8915154750594525,
                0.10937164842793862
            ]
        },
        {
            "positions": [
                1.1571765880328737,
                -1.4619465340229898,
                -0.018094466402328147,
                -0.35848168657206836,
                -0.8429846583426505,
                0.08561106808671082
            ]
        },
        {
            "positions": [
                1.0543481918956668,
                -1.4764536631466674,
                0.10867380741865929,
                -0.2791437355933266,
                -0.7944538416258485,
                0.061850487745483074
            ]
        },
        {
            "positions": [
                0.9515197957584598,
                -1.4909607922703447,
                0.23544208123964716,
                -0.1998057846145851,
                -0.7459230249090466,
                0.03808990740425533
            ]
        },
        {
            "positions": [
                0.8486913996212526,
                -1.5054679213940223,
                0.36221035506063504,
                -0.12046783363584312,
                -0.6973922081922446,
                0.014329327063027475
            ]
        },
        {
            "positions": [
                0.7458630034840457,
                -1.5199750505176999,
                0.4889786288816229,
                -0.04112988265710138,
                -0.6488613914754426,
                -0.009431253278200269
            ]
        },
        {
            "positions": [
                0.6430346073468387,
                -1.5344821796413772,
                0.6157469027026103,
                0.03820806832164014,
                -0.6003305747586407,
                -0.03319183361942807
            ]
        },
        {
            "positions": [
                0.540206211209632,
                -1.5489893087650548,
                0.7425151765235982,
                0.11754601930038189,
                -0.5517997580418388,
                -0.05695241396065581
            ]
        },
        {
            "positions": [
                0.43737781507242435,
                -1.5634964378887322,
                0.8692834503445861,
                0.19688397027912363,
                -0.5032689413250366,
                -0.08071299430188367
            ]
        },
        {
            "positions": [
                0.33454941893521745,
                -1.5780035670124097,
                0.9960517241655741,
                0.2762219212578654,
                -0.4547381246082348,
                -0.10447357464311138
            ]
        },
        {
            "positions": [
                0.21998523631302072,
                -1.5754781573406784,
                0.9110867723923473,
                0.19646492564965773,
                -0.4133240541145574,
                -0.16700784045917616
            ]
        },
        {
            "positions": [
                0.105421053690824,
                -1.572952747668947,
                0.8261218206191203,
                0.11670793004145005,
                -0.37190998362087996,
                -0.2295421062752409
            ]
        },
        {
            "positions": [
                -0.009143128931372757,
                -1.5704273379972158,
                0.7411568688458935,
                0.03695093443324238,
                -0.33049591312720256,
                -0.29207637209130566
            ]
        },
        {
            "positions": [
                -0.12370731155356945,
                -1.5679019283254845,
                0.6561919170726667,
                -0.04280606117496527,
                -0.2890818426335251,
                -0.35461063790737046
            ]
        },
        {
            "positions": [
                -0.23827149417576615,
                -1.5653765186537532,
                0.5712269652994397,
                -0.12256305678317292,
                -0.2476677721398477,
                -0.41714490372343527
            ]
        },
        {
            "positions": [
                -0.35283567679796296,
                -1.5628511089820218,
                0.4862620135262129,
                -0.20232005239138062,
                -0.2062537016461703,
                -0.47967916953949996
            ]
        },
        {
            "positions": [
                -0.46739985942015966,
                -1.5603256993102905,
                0.4012970617529861,
                -0.2820770479995882,
                -0.16483963115249284,
                -0.5422134353555648
            ]
        },
        {
            "positions": [
                -0.5819640420423564,
                -1.557800289638559,
                0.31633210997975925,
                -0.3618340436077959,
                -0.12342556065881544,
                -0.6047477011716295
            ]
        },
        {
            "positions": [
                -0.6965282246645532,
                -1.5552748799668277,
                0.2313671582065323,
                -0.4415910392160036,
                -0.08201149016513798,
                -0.6672819669876943
            ]
        },
        {
            "positions": [
                -0.8110924072867498,
                -1.5527494702950964,
                0.14640220643330548,
                -0.5213480348242112,
                -0.04059741967146058,
                -0.7298162328037591
            ]
        },
        {
            "positions": [
                -0.9256565899089466,
                -1.550224060623365,
                0.061437254660078544,
                -0.6011050304324189,
                0.00081665082221688,
                -0.7923504986198239
            ]
        },
        {
            "positions": [
                -1.0402207725311434,
                -1.5476986509516337,
                -0.023527697113148283,
                -0.6808620260406266,
                0.042230721315894226,
                -0.8548847644358886
            ]
        },
        {
            "positions": [
                -1.1547849551533402,
                -1.5451732412799024,
                -0.10849264888637522,
                -0.7606190216488342,
                0.08364479180957174,
                -0.9174190302519534
            ]
        },
        {
            "positions": [
                -1.2693491377755368,
                -1.542647831608171,
                -0.19345760065960194,
                -0.8403760172570418,
                0.12505886230324914,
                -0.9799532960680181
            ]
        },
        {
            "positions": [
                -1.3839133203977336,
                -1.5401224219364398,
                -0.2784225524328289,
                -0.9201330128652496,
                0.16647293279692654,
                -1.042487561884083
            ]
        },
        {
            "positions": [
                -1.4984775030199302,
                -1.5375970122647085,
                -0.3633875042060556,
                -0.9998900084734572,
                0.20788700329060394,
                -1.1050218277001476
            ]
        },
        {
            "positions": [
                -1.6130416856421268,
                -1.5350716025929771,
                -0.4483524559792823,
                -1.0796470040816648,
                0.24930107378428135,
                -1.1675560935162124
            ]
        },
        {
            "positions": [
                -1.7276058682643238,
                -1.5325461929212458,
                -0.5333174077525095,
                -1.1594039996898726,
                0.29071514427795886,
                -1.2300903593322772
            ]
        },
        {
            "positions": [
                -1.8421700508865204,
                -1.5300207832495145,
                -0.6182823595257362,
                -1.2391609952980802,
                0.33212921477163626,
                -1.292624625148342
            ]
        },
        {
            "positions": [
                -1.956734233508717,
                -1.5274953735777832,
                -0.7032473112989631,
                -1.3189179909062878,
                0.37354328526531366,
                -1.3551588909644068
            ]
        },
        {
            "positions": [
                -2.0712984161309134,
                -1.5249699639060519,
                -0.7882122630721898,
                -1.3986749865144954,
                0.41495735575899106,
                -1.4176931567804714
            ]
        },
        {
            "positions": [
                -2.1858625987531104,
                -1.5224445542343206,
                -0.873177214845417,
                -1.4784319821227032,
                0.4563714262526686,
                -1.4802274225965364
            ]
        },
        {
            "positions": [
                -2.300426781375307,
                -1.5199191445625893,
                -0.9581421666186437,
                -1.5581889777309108,
                0.497785496746346,
                -1.542761688412601
            ]
        },
        {
            "positions": [
                -2.414990963997504,
                -1.5173937348908577,
                -1.0431071183918705,
                -1.6379459733391186,
                0.5391995672400233,
                -1.6052959542286658
            ]
        },
        {
            "positions": [
                -2.5295551466197006,
                -1.5148683252191264,
                -1.1280720701650973,
                -1.7177029689473262,
                0.5806136377337007,
                -1.6678302200447306
            ]
        },
        {
            "positions": [
                -2.6441193292418976,
                -1.512342915547395,
                -1.2130370219383244,
                -1.7974599645555338,
                0.6220277082273783,
                -1.7303644858607954
            ]
        },
        {
            "positions": [
                -2.758683511864094,
                -1.5098175058756638,
                -1.2980019737115511,
                -1.8772169601637414,
                0.6634417787210557,
                -1.7928987516768602
            ]
        },
        {
            "positions": [
                -2.873247694486291,
                -1.5072920962039325,
                -1.3829669254847778,
                -1.956973955771949,
                0.7048558492147331,
                -1.8554330174929248
            ]
        },
        {
            "positions": [
                -2.9878118771084874,
                -1.5047666865322011,
                -1.4679318772580046,
                -2.0367309513801564,
                0.7462699197084103,
                -1.9179672833089896
            ]
        },
        {
            "positions": [
                -3.1023760597306844,
                -1.5022412768604698,
                -1.5528968290312317,
                -2.1164879469883644,
                0.7876839902020879,
                -1.9805015491250544
            ]
        },
        {
            "positions": [
                -3.216940242352881,
                -1.4997158671887385,
                -1.6378617808044584,
                -2.1962449425965724,
                0.8290980606957654,
                -2.043035814941119
            ]
        },
        {
            "positions": [
                -3.0932135727646854,
                -1.4861971673935888,
                -1.5045461681649483,
                -2.142094969982113,
                0.8033383792850652,
                -2.086900019818659
            ]
        },
        {
            "positions": [
                -2.96948690317649,
                -1.472678467598439,
                -1.3712305555254383,
                -2.087944997367653,
                0.7775786978743652,
                -2.130764224696199
            ]
        },
        {
            "positions": [
                -2.8457602335882943,
                -1.4591597678032893,
                -1.237914942885928,
                -2.0337950247531937,
                0.751819016463665,
                -2.174628429573739
            ]
        },
        {
            "positions": [
                -2.7220335640000988,
                -1.4456410680081393,
                -1.1045993302464179,
                -1.9796450521387343,
                0.7260593350529649,
                -2.2184926344512785
            ]
        },
        {
            "positions": [
                -2.5983068944119037,
                -1.4321223682129895,
                -0.9712837176069078,
                -1.9254950795242747,
                0.7002996536422648,
                -2.2623568393288185
            ]
        },
        {
            "positions": [
                -2.4745802248237077,
                -1.4186036684178398,
                -0.8379681049673976,
                -1.871345106909815,
                0.6745399722315646,
                -2.3062210442063584
            ]
        },
        {
            "positions": [
                -2.3508535552355125,
                -1.40508496862269,
                -0.7046524923278875,
                -1.8171951342953556,
                0.6487802908208645,
                -2.3500852490838984
            ]
        },
        {
            "positions": [
                -2.227126885647317,
                -1.3915662688275403,
                -0.5713368796883773,
                -1.763045161680896,
                0.6230206094101643,
                -2.3939494539614383
            ]
        },
        {
            "positions": [
                -2.1034002160591214,
                -1.3780475690323906,
                -0.43802126704886724,
                -1.7088951890664363,
                0.5972609279994643,
                -2.4378136588389783
            ]
        },
        {
            "positions": [
                -1.9796735464709259,
                -1.3645288692372408,
                -0.30470565440935715,
                -1.654745216451977,
                0.5715012465887641,
                -2.481677863716518
            ]
        },
        {
            "positions": [
                -1.8559468768827303,
                -1.3510101694420908,
                -0.17139004176984707,
                -1.6005952438375173,
                0.5457415651780639,
                -2.5255420685940577
            ]
        },
        {
            "positions": [
                -1.7322202072945347,
                -1.337491469646941,
                -0.03807442913033676,
                -1.5464452712230576,
                0.5199818837673638,
                -2.5694062734715977
            ]
        },
        {
            "positions": [
                -1.6084935377063392,
                -1.3239727698517914,
                0.09524118350917332,
                -1.4922952986085982,
                0.4942222023566637,
                -2.6132704783491376
            ]
        },
        {
            "positions": [
                -1.4847668681181438,
                -1.3104540700566416,
                0.2285567961486834,
                -1.4381453259941388,
                0.4684625209459636,
                -2.6571346832266776
            ]
        },
        {
            "positions": [
                -1.361040198529948,
                -1.2969353702614919,
                0.3618724087881937,
                -1.383995353379679,
                0.4427028395352634,
                -2.7009988881042175
            ]
        },
        {
            "positions": [
                -1.2373135289417527,
                -1.2834166704663421,
                0.4951880214277038,
                -1.3298453807652195,
                0.4169431581245633,
                -2.744863092981757
            ]
        },
        {
            "positions": [
                -1.113586859353557,
                -1.2698979706711921,
                0.6285036340672141,
                -1.2756954081507599,
                0.3911834767138631,
                -2.788727297859297
            ]
        },
        {
            "positions": [
                -0.9898601897653618,
                -1.2563792708760424,
                0.761819246706724,
                -1.2215454355363005,
                0.36542379530316305,
                -2.832591502736837
            ]
        },
        {
            "positions": [
                -0.8661335201771658,
                -1.2428605710808927,
                0.8951348593462343,
                -1.1673954629218408,
                0.33966411389246287,
                -2.876455707614377
            ]
        },
        {
            "positions": [
                -0.7424068505889707,
                -1.229341871285743,
                1.0284504719857441,
                -1.1132454903073814,
                0.3139044324817628,
                -2.920319912491917
            ]
        },
        {
            "positions": [
                -0.6186801810007747,
                -1.2158231714905932,
                1.1617660846252544,
                -1.0590955176929218,
                0.28814475107106263,
                -2.9641841173694568
            ]
        },
        {
            "positions": [
                -0.4949535114125796,
                -1.2023044716954434,
                1.2950816972647643,
                -1.0049455450784621,
                0.26238506966036246,
                -3.0080483222469967
            ]
        },
        {
            "positions": [
                -0.37122684182438404,
                -1.1887857719002937,
                1.428397309904275,
                -0.9507955724640025,
                0.23662538824966228,
                -3.0519125271245366
            ]
        },
        {
            "positions": [
                -0.24750017223618848,
                -1.175267072105144,
                1.561712922543785,
                -0.8966455998495431,
                0.21086570683896222,
                -3.0957767320020766
            ]
        },
        {
            "positions": [
                -0.12377350264799292,
                -1.161748372309994,
                1.6950285351832952,
                -0.8424956272350834,
                0.18510602542826204,
                -3.1396409368796165
            ]
        },
        {
            "positions": [
                -4.6833059797357635e-05,
                -1.1482296725148442,
                1.828344147822805,
                -0.788345654620624,
                0.15934634401756198,
                -3.183505141757156
            ]
        },
        {
            "positions": [
                0.12367983652839831,
                -1.1347109727196945,
                1.9616597604623154,
                -0.7341956820061644,
                0.13358666260686178,
                -3.227369346634696
            ]
        }
    ]
}{
    "goal": {
        "global_pose": {
            "orientation": {
                "w": 0.7047431468963623,
                "x": -0.7094548344612122,
                "y": 0.0024358443915843964,
                "z": -0.0022348060738295317
            },
            "position": {
                "x": 0.6094750761985779,
                "y": 0.3671506643295288,
                "z": 0.19426114857196808
            }
        },
        "name": "move_to_magneteinheit_A"
    },
    "id": "RRTConnect_move_to_magneteinheit_A_26",
    "joint_names": [
        "shoulder_pan_joint",
        "shoulder_lift_joint",
        "elbow_joint",
        "wrist_1_joint",
        "wrist_2_joint",
        "wrist_3_joint"
    ],
    "metrics": {
        "cart_traj_len": 1.3050816457094196,
        "distance_elbow_joint": 0.44937570702942664,
        "distance_shoulder_lift_joint": 0.7462540874735852,
        "distance_shoulder_pan_joint": 1.241693413976188,
        "distance_wrist_1_joint": 0.7288933901364016,
        "distance_wrist_2_joint": 1.5226703612520924,
        "distance_wrist_3_joint": 4.2462503123030935,
        "smoothness": 0.07222028948452779,
        "time": 0.058837271,
        "traj_len": 2.9891699972016963,
        "weighted_distance": 4.436124620450317
    },
    "planner": "RRTConnect",
    "start": {
        "state": {
            "elbow_joint": 1.919643534880228,
            "shoulder_lift_joint": -1.8972525353963687,
            "shoulder_pan_joint": -1.1188672234189438,
            "wrist_1_joint": -1.5931878212786155,
            "wrist_2_joint": 1.5706036197970081,
            "wrist_3_joint": 1.118896926603594
        }
    },
    "waypoints": [
        {
            "positions": [
                -1.1188672234189438,
                -1.8972525353963687,
                1.919643534880228,
                -1.5931878212786155,
                1.5706036197970081,
                1.118896926603594
            ]
        },
        {
            "positions": [
                -1.0470344454274987,
                -1.8392024566564724,
                1.90253384061069,
                -1.587076057157381,
                1.4362602364435784,
                1.0188203131676883
            ]
        },
        {
            "positions": [
                -0.9752016674360535,
                -1.7811523779165763,
                1.8854241463411516,
                -1.5809642930361465,
                1.3019168530901488,
                0.9187436997317827
            ]
        },
        {
            "positions": [
                -0.9033688894446085,
                -1.72310229917668,
                1.8683144520716135,
                -1.574852528914912,
                1.1675734697367193,
                0.8186670862958771
            ]
        },
        {
            "positions": [
                -0.8315361114531632,
                -1.6650522204367837,
                1.8512047578020754,
                -1.5687407647936775,
                1.0332300863832895,
                0.7185904728599715
            ]
        },
        {
            "positions": [
                -0.7597033334617181,
                -1.6070021416968876,
                1.834095063532537,
                -1.562629000672443,
                0.8988867030298598,
                0.6185138594240659
            ]
        },
        {
            "positions": [
                -0.6878705554702731,
                -1.5489520629569913,
                1.816985369262999,
                -1.5565172365512088,
                0.7645433196764302,
                0.5184372459881603
            ]
        },
        {
            "positions": [
                -0.6160377774788278,
                -1.490901984217095,
                1.7998756749934606,
                -1.5504054724299743,
                0.6301999363230004,
                0.41836063255225464
            ]
        },
        {
            "positions": [
                -0.5442049994873827,
                -1.4328519054771989,
                1.7827659807239224,
                -1.5442937083087398,
                0.4958565529695709,
                0.31828401911634896
            ]
        },
        {
            "positions": [
                -0.4723722214959375,
                -1.3748018267373026,
                1.7656562864543843,
                -1.5381819441875053,
                0.3615131696161411,
                0.21820740568044328
            ]
        },
        {
            "positions": [
                -0.40053944350449244,
                -1.3167517479974062,
                1.748546592184846,
                -1.5320701800662708,
                0.22716978626271156,
                0.11813079224453782
            ]
        },
        {
            "positions": [
                -0.3287066655130473,
                -1.2587016692575101,
                1.7314368979153079,
                -1.5259584159450363,
                0.0928264029092817,
                0.018054178808632054
            ]
        },
        {
            "positions": [
                -0.29107892750718967,
                -1.2497264008129496,
                1.7532009870873502,
                -1.470819750544801,
                0.0965674982729789,
                -0.24406311823371227
            ]
        },
        {
            "positions": [
                -0.25345118950133205,
                -1.240751132368389,
                1.7749650762593923,
                -1.4156810851445658,
                0.10030859363667612,
                -0.5061804152760566
            ]
        },
        {
            "positions": [
                -0.21582345149547438,
                -1.2317758639238285,
                1.7967291654314343,
                -1.3605424197443308,
                0.10404968900037333,
                -0.768297712318401
            ]
        },
        {
            "positions": [
                -0.17819571348961677,
                -1.222800595479268,
                1.8184932546034767,
                -1.3054037543440955,
                0.10779078436407054,
                -1.0304150093607451
            ]
        },
        {
            "positions": [
                -0.14056797548375913,
                -1.2138253270347075,
                1.840257343775519,
                -1.2502650889438602,
                0.11153187972776776,
                -1.2925323064030898
            ]
        },
        {
            "positions": [
                -0.10294023747790151,
                -1.204850058590147,
                1.862021432947561,
                -1.1951264235436252,
                0.11527297509146497,
                -1.554649603445434
            ]
        },
        {
            "positions": [
                -0.06531249947204387,
                -1.1958747901455862,
                1.8837855221196032,
                -1.13998775814339,
                0.11901407045516219,
                -1.8167669004877784
            ]
        },
        {
            "positions": [
                -0.02768476146618626,
                -1.1868995217010256,
                1.9055496112916455,
                -1.0848490927431547,
                0.1227551658188594,
                -2.0788841975301224
            ]
        },
        {
            "positions": [
                0.009942976539671355,
                -1.177924253256465,
                1.9273137004636878,
                -1.0297104273429194,
                0.1264962611825566,
                -2.341001494572467
            ]
        },
        {
            "positions": [
                0.047570714545529025,
                -1.1689489848119046,
                1.9490777896357299,
                -0.9745717619426842,
                0.13023735654625382,
                -2.6031187916148117
            ]
        },
        {
            "positions": [
                0.08519845255138658,
                -1.159973716367344,
                1.970841878807772,
                -0.9194330965424491,
                0.13397845190995103,
                -2.8652360886571557
            ]
        },
        {
            "positions": [
                0.12282619055724424,
                -1.1509984479227835,
                1.9926059679798143,
                -0.8642944311422138,
                0.13771954727364824,
                -3.1273533856995
            ]
        }
    ]
}