{
    "goal": {
        "global_pose": {
            "orientation": {
                "w": 0.5084816217422485,
                "x": -0.49083608388900757,
                "y": 0.5182115435600281,
                "z": -0.4816462993621826
            },
            "position": {
                "x": 0.5540239810943604,
                "y": 0.030875300988554955,
                "z": 0.16403168439865112
            }
        },
        "name": "move_to_storage_A"
    },
    "id": "RRTConnect_move_to_storage_A_74",
    "joint_names": [
        "shoulder_pan_joint",
        "shoulder_lift_joint",
        "elbow_joint",
        "wrist_1_joint",
        "wrist_2_joint",
        "wrist_3_joint"
    ],
    "metrics": {
        "cart_traj_len": 0.35266013743736435,
        "distance_elbow_joint": 0.4491379897006764,
        "distance_shoulder_lift_joint": 0.23497505127038654,
        "distance_shoulder_pan_joint": 0.4622017094960837,
        "distance_wrist_1_joint": 0.2408812298192483,
        "distance_wrist_2_joint": 1.0934514452923083,
        "distance_wrist_3_joint": 0.10682123717136305,
        "smoothness": 0.0,
        "time": 0.060771118,
        "traj_len": 1.6085610534729684,
        "weighted_distance": 2.033579064655306
    },
    "planner": "RRTConnect",
    "start": {
        "state": {
            "elbow_joint": 1.9715477243005601,
            "shoulder_lift_joint": -1.1394853015351272,
            "shoulder_pan_joint": 0.12281154014795169,
            "wrist_1_joint": -0.7804696478968182,
            "wrist_2_joint": 0.12958648046900423,
            "wrist_3_joint": -3.192491284697111
        }
    },
    "waypoints": [
        {
            "positions": [
                0.12281154014795169,
                -1.1394853015351272,
                1.9715477243005601,
                -0.7804696478968182,
                0.12958648046900423,
                -3.192491284697111
            ]
        },
        {
            "positions": [
                0.056782724505654025,
                -1.1730531660023253,
                2.0357102942578,
                -0.8148812521567108,
                0.28579382979647683,
                -3.177231107958345
            ]
        },
        {
            "positions": [
                -0.009246091136643639,
                -1.2066210304695233,
                2.099872864215039,
                -0.8492928564166033,
                0.44200117912394943,
                -3.161970931219579
            ]
        },
        {
            "positions": [
                -0.07527490677894132,
                -1.2401888949367215,
                2.1640354341722787,
                -0.883704460676496,
                0.598208528451422,
                -3.1467107544808126
            ]
        },
        {
            "positions": [
                -0.14130372242123895,
                -1.2737567594039194,
                2.228198004129518,
                -0.9181160649363886,
                0.7544158777788946,
                -3.1314505777420467
            ]
        },
        {
            "positions": [
                -0.20733253806353663,
                -1.3073246238711176,
                2.2923605740867576,
                -0.9525276691962812,
                0.9106232271063673,
                -3.1161904010032804
            ]
        },
        {
            "positions": [
                -0.2733613537058343,
                -1.3408924883383155,
                2.356523144043997,
                -0.9869392734561738,
                1.0668305764338397,
                -3.1009302242645145
            ]
        },
        {
            "positions": [
                -0.339390169348132,
                -1.3744603528055137,
                2.4206857140012366,
                -1.0213508777160665,
                1.2230379257613124,
                -3.085670047525748
            ]
        }
    ]
}