{
    "goal": {
        "global_pose": {
            "orientation": {
                "w": 0.7047431468963623,
                "x": -0.7094548344612122,
                "y": 0.0024358443915843964,
                "z": -0.0022348060738295317
            },
            "position": {
                "x": 0.6094750761985779,
                "y": 0.3671506643295288,
                "z": 0.19426114857196808
            }
        },
        "name": "move_to_magneteinheit_A"
    },
    "id": "RRTConnect_move_to_magneteinheit_A_80",
    "joint_names": [
        "shoulder_pan_joint",
        "shoulder_lift_joint",
        "elbow_joint",
        "wrist_1_joint",
        "wrist_2_joint",
        "wrist_3_joint"
    ],
    "metrics": {
        "cart_traj_len": 3.461335755050445,
        "distance_elbow_joint": 3.882116963669536,
        "distance_shoulder_lift_joint": 0.4744692610291701,
        "distance_shoulder_pan_joint": 3.3959136772023557,
        "distance_wrist_1_joint": 2.9552090749016893,
        "distance_wrist_2_joint": 1.7052449746610163,
        "distance_wrist_3_joint": 2.6126124370789774,
        "smoothness": 0.21849194742700703,
        "time": 0.071826405,
        "traj_len": 3.87628254756316,
        "weighted_distance": 4.991116639817527
    },
    "planner": "RRTConnect",
    "start": {
        "state": {
            "elbow_joint": -1.919618573717145,
            "shoulder_lift_joint": -1.2443395971678275,
            "shoulder_pan_joint": 2.6996025300909787,
            "wrist_1_joint": -1.548550951253194,
            "wrist_2_joint": -1.5709469090946802,
            "wrist_3_joint": 0.4420197732051276
        }
    },
    "waypoints": [
        {
            "positions": [
                2.6996025300909787,
                -1.2443395971678275,
                -1.919618573717145,
                -1.548550951253194,
                -1.5709469090946802,
                0.4420197732051276
            ]
        },
        {
            "positions": [
                2.5773009023352884,
                -1.2412946209367859,
                -1.7975699527753872,
                -1.4711883256535823,
                -1.5303736721621473,
                0.45943747974312116
            ]
        },
        {
            "positions": [
                2.4549992745795985,
                -1.2382496447057443,
                -1.6755213318336297,
                -1.3938257000539702,
                -1.4898004352296144,
                0.47685518628111473
            ]
        },
        {
            "positions": [
                2.3326976468239082,
                -1.2352046684747027,
                -1.5534727108918722,
                -1.3164630744543584,
                -1.4492271982970815,
                0.49427289281910824
            ]
        },
        {
            "positions": [
                2.210396019068218,
                -1.2321596922436608,
                -1.4314240899501145,
                -1.2391004488547466,
                -1.4086539613645486,
                0.5116905993571018
            ]
        },
        {
            "positions": [
                2.088094391312528,
                -1.2291147160126192,
                -1.3093754690083568,
                -1.1617378232551345,
                -1.3680807244320157,
                0.5291083058950954
            ]
        },
        {
            "positions": [
                1.9657927635568377,
                -1.2260697397815776,
                -1.1873268480665993,
                -1.0843751976555227,
                -1.3275074874994828,
                0.546526012433089
            ]
        },
        {
            "positions": [
                1.8434911358011474,
                -1.223024763550536,
                -1.0652782271248415,
                -1.0070125720559107,
                -1.2869342505669499,
                0.5639437189710825
            ]
        },
        {
            "positions": [
                1.7211895080454576,
                -1.2199797873194944,
                -0.943229606183084,
                -0.929649946456299,
                -1.246361013634417,
                0.5813614255090761
            ]
        },
        {
            "positions": [
                1.5988878802897672,
                -1.2169348110884526,
                -0.8211809852413263,
                -0.852287320856687,
                -1.2057877767018839,
                0.5987791320470697
            ]
        },
        {
            "positions": [
                1.476586252534077,
                -1.213889834857411,
                -0.6991323642995686,
                -0.7749246952570751,
                -1.165214539769351,
                0.6161968385850632
            ]
        },
        {
            "positions": [
                1.3542846247783868,
                -1.2108448586263694,
                -0.5770837433578109,
                -0.6975620696574631,
                -1.124641302836818,
                0.6336145451230568
            ]
        },
        {
            "positions": [
                1.2319829970226968,
                -1.2077998823953278,
                -0.4550351224160536,
                -0.6201994440578513,
                -1.0840680659042852,
                0.6510322516610503
            ]
        },
        {
            "positions": [
                1.1096813692670067,
                -1.2047549061642862,
                -0.33298650147429587,
                -0.5428368184582395,
                -1.0434948289717523,
                0.668449958199044
            ]
        },
        {
            "positions": [
                0.9873797415113164,
                -1.2017099299332445,
                -0.21093788053253815,
                -0.46547419285862746,
                -1.0029215920392194,
                0.6858676647370374
            ]
        },
        {
            "positions": [
                0.8650781137556263,
                -1.198664953702203,
                -0.08888925959078042,
                -0.38811156725901563,
                -0.9623483551066864,
                0.7032853712750311
            ]
        },
        {
            "positions": [
                0.7427764859999362,
                -1.195619977471161,
                0.03315936135097686,
                -0.3107489416594038,
                -0.9217751181741536,
                0.7207030778130246
            ]
        },
        {
            "positions": [
                0.6204748582442461,
                -1.1925750012401195,
                0.1552079822927348,
                -0.23338631605979177,
                -0.8812018812416206,
                0.7381207843510181
            ]
        },
        {
            "positions": [
                0.4981732304885559,
                -1.189530025009078,
                0.27725660323449236,
                -0.15602369046018005,
                -0.8406286443090877,
                0.7555384908890117
            ]
        },
        {
            "positions": [
                0.4196374709677235,
                -1.1658443573844974,
                0.3597443793125618,
                -0.10661710225603566,
                -0.8336891608995616,
                0.8820493806357519
            ]
        },
        {
            "positions": [
                0.34110171144689116,
                -1.142158689759917,
                0.4422321553906312,
                -0.05721051405189126,
                -0.8267496774900355,
                1.008560270382492
            ]
        },
        {
            "positions": [
                0.2625659519260588,
                -1.1184730221353365,
                0.5247199314687007,
                -0.007803925847746862,
                -0.8198101940805094,
                1.1350711601292325
            ]
        },
        {
            "positions": [
                0.1840301924052264,
                -1.094787354510756,
                0.6072077075467701,
                0.041602662356397535,
                -0.8128707106709833,
                1.2615820498759727
            ]
        },
        {
            "positions": [
                0.10549443288439403,
                -1.0711016868861756,
                0.6896954836248395,
                0.09100925056054193,
                -0.8059312272614572,
                1.3880929396227129
            ]
        },
        {
            "positions": [
                0.02695867336356167,
                -1.0474160192615949,
                0.7721832597029089,
                0.14041583876468633,
                -0.7989917438519312,
                1.514603829369453
            ]
        },
        {
            "positions": [
                -0.051577086157270635,
                -1.0237303516370144,
                0.8546710357809784,
                0.18982242696883073,
                -0.7920522604424051,
                1.6411147191161932
            ]
        },
        {
            "positions": [
                -0.1301128456781031,
                -1.000044684012434,
                0.9371588118590479,
                0.23922901517297512,
                -0.785112777032879,
                1.7676256088629336
            ]
        },
        {
            "positions": [
                -0.20864860519893547,
                -0.9763590163878535,
                1.0196465879371173,
                0.2886356033771195,
                -0.7781732936233529,
                1.8941364986096738
            ]
        },
        {
            "positions": [
                -0.2871843647197678,
                -0.952673348763273,
                1.1021343640151866,
                0.3380421915812639,
                -0.7712338102138268,
                2.020647388356414
            ]
        },
        {
            "positions": [
                -0.2530904661871339,
                -0.9679069331486576,
                1.1738313661766204,
                0.24899086390899472,
                -0.6957728205654798,
                2.1068127901837217
            ]
        },
        {
            "positions": [
                -0.21899656765449993,
                -0.9831405175340423,
                1.245528368338054,
                0.15993953623672552,
                -0.6203118309171329,
                2.1929781920110294
            ]
        },
        {
            "positions": [
                -0.18490266912186598,
                -0.998374101919427,
                1.3172253704994878,
                0.07088820856445632,
                -0.5448508412687861,
                2.2791435938383366
            ]
        },
        {
            "positions": [
                -0.15080877058923206,
                -1.0136076863048116,
                1.3889223726609217,
                -0.018163119107812875,
                -0.4693898516204392,
                2.3653089956656443
            ]
        },
        {
            "positions": [
                -0.11671487205659811,
                -1.0288412706901962,
                1.4606193748223553,
                -0.10721444678008207,
                -0.3939288619720923,
                2.451474397492952
            ]
        },
        {
            "positions": [
                -0.08262097352396416,
                -1.0440748550755807,
                1.532316376983789,
                -0.19626577445235127,
                -0.31846787232374546,
                2.5376397993202593
            ]
        },
        {
            "positions": [
                -0.048527074991330216,
                -1.0593084394609655,
                1.604013379145223,
                -0.28531710212462047,
                -0.2430068826753985,
                2.623805201147567
            ]
        },
        {
            "positions": [
                -0.014433176458696295,
                -1.0745420238463501,
                1.6757103813066565,
                -0.37436842979688967,
                -0.1675458930270517,
                2.7099706029748747
            ]
        },
        {
            "positions": [
                0.019660722073937653,
                -1.0897756082317347,
                1.7474073834680903,
                -0.46341975746915887,
                -0.09208490337870479,
                2.7961360048021824
            ]
        },
        {
            "positions": [
                0.0537546206065716,
                -1.1050091926171195,
                1.8191043856295241,
                -0.5524710851414281,
                -0.016623913730357875,
                2.88230140662949
            ]
        },
        {
            "positions": [
                0.08784851913920555,
                -1.120242777002504,
                1.8908013877909577,
                -0.6415224128136973,
                0.058837075917988924,
                2.9684668084567973
            ]
        },
        {
            "positions": [
                0.12194241767183948,
                -1.1354763613878887,
                1.9624983899523916,
                -0.7305737404859666,
                0.13429806556633586,
                3.054632210284105
            ]
        }
    ]
}{
    "goal": {
        "global_pose": {
            "orientation": {
                "w": 0.7047431468963623,
                "x": -0.7094548344612122,
                "y": 0.0024358443915843964,
                "z": -0.0022348060738295317
            },
            "position": {
                "x": 0.6094750761985779,
                "y": 0.3671506643295288,
                "z": 0.19426114857196808
            }
        },
        "name": "move_to_magneteinheit_A"
    },
    "id": "RRTConnect_move_to_magneteinheit_A_80",
    "joint_names": [
        "shoulder_pan_joint",
        "shoulder_lift_joint",
        "elbow_joint",
        "wrist_1_joint",
        "wrist_2_joint",
        "wrist_3_joint"
    ],
    "metrics": {
        "cart_traj_len": 1.6717025559209355,
        "distance_elbow_joint": 1.0133531206699489,
        "distance_shoulder_lift_joint": 0.7520905984503552,
        "distance_shoulder_pan_joint": 1.3421064003733114,
        "distance_wrist_1_joint": 0.8049467103267844,
        "distance_wrist_2_joint": 1.445763560311943,
        "distance_wrist_3_joint": 4.269264450077219,
        "smoothness": 0.14981381312864187,
        "time": 0.06317479000000001,
        "traj_len": 3.102825299659902,
        "weighted_distance": 4.518491342362263
    },
    "planner": "RRTConnect",
    "start": {
        "state": {
            "elbow_joint": 1.919643534880228,
            "shoulder_lift_joint": -1.8972525353963687,
            "shoulder_pan_joint": -1.1188672234189438,
            "wrist_1_joint": -1.5931878212786155,
            "wrist_2_joint": 1.5706036197970081,
            "wrist_3_joint": 1.118896926603594
        }
    },
    "waypoints": [
        {
            "positions": [
                -1.1188672234189438,
                -1.8972525353963687,
                1.919643534880228,
                -1.5931878212786155,
                1.5706036197970081,
                1.118896926603594
            ]
        },
        {
            "positions": [
                -1.1314967151902502,
                -1.8524253540360833,
                1.8007503409605246,
                -1.5986785206119907,
                1.5158392064929245,
                1.0117201021302538
            ]
        },
        {
            "positions": [
                -1.1441262069615565,
                -1.8075981726757981,
                1.6818571470408212,
                -1.604169219945366,
                1.4610747931888408,
                0.9045432776569137
            ]
        },
        {
            "positions": [
                -1.1567556987328629,
                -1.762770991315513,
                1.5629639531211177,
                -1.6096599192787413,
                1.4063103798847574,
                0.7973664531835736
            ]
        },
        {
            "positions": [
                -1.1693851905041692,
                -1.7179438099552276,
                1.4440707592014141,
                -1.6151506186121165,
                1.3515459665806737,
                0.6901896287102334
            ]
        },
        {
            "positions": [
                -1.1078809793952127,
                -1.6906684826690745,
                1.4696793470581349,
                -1.577865670374341,
                1.2931313995761209,
                0.5073059547967164
            ]
        },
        {
            "positions": [
                -1.0463767682862564,
                -1.6633931553829215,
                1.4952879349148556,
                -1.5405807221365657,
                1.2347168325715683,
                0.3244222808831993
            ]
        },
        {
            "positions": [
                -0.9848725571772998,
                -1.6361178280967683,
                1.5208965227715763,
                -1.5032957738987902,
                1.1763022655670154,
                0.14153860696968223
            ]
        },
        {
            "positions": [
                -0.9233683460683433,
                -1.6088425008106153,
                1.546505110628297,
                -1.466010825661015,
                1.1178876985624626,
                -0.041345066943834774
            ]
        },
        {
            "positions": [
                -0.8618641349593869,
                -1.5815671735244623,
                1.5721136984850177,
                -1.4287258774232394,
                1.0594731315579098,
                -0.22422874085735178
            ]
        },
        {
            "positions": [
                -0.8003599238504304,
                -1.5542918462383093,
                1.5977222863417384,
                -1.3914409291854641,
                1.001058564553357,
                -0.4071124147708689
            ]
        },
        {
            "positions": [
                -0.7388557127414739,
                -1.5270165189521563,
                1.6233308741984591,
                -1.3541559809476889,
                0.9426439975488043,
                -0.5899960886843858
            ]
        },
        {
            "positions": [
                -0.6773515016325174,
                -1.4997411916660033,
                1.6489394620551798,
                -1.3168710327099133,
                0.8842294305442515,
                -0.7728797625979029
            ]
        },
        {
            "positions": [
                -0.6158472905235609,
                -1.47246586437985,
                1.6745480499119005,
                -1.2795860844721378,
                0.8258148635396988,
                -0.95576343651142
            ]
        },
        {
            "positions": [
                -0.5543430794146045,
                -1.445190537093697,
                1.7001566377686212,
                -1.2423011362343626,
                0.767400296535146,
                -1.138647110424937
            ]
        },
        {
            "positions": [
                -0.49283886830564794,
                -1.417915209807544,
                1.725765225625342,
                -1.205016187996587,
                0.7089857295305931,
                -1.3215307843384543
            ]
        },
        {
            "positions": [
                -0.4313346571966915,
                -1.390639882521391,
                1.7513738134820627,
                -1.1677312397588118,
                0.6505711625260404,
                -1.5044144582519712
            ]
        },
        {
            "positions": [
                -0.36983044608773497,
                -1.363364555235238,
                1.7769824013387834,
                -1.1304462915210363,
                0.5921565955214876,
                -1.6872981321654885
            ]
        },
        {
            "positions": [
                -0.30832623497877854,
                -1.3360892279490848,
                1.802590989195504,
                -1.093161343283261,
                0.5337420285169349,
                -1.870181806079005
            ]
        },
        {
            "positions": [
                -0.246822023869822,
                -1.3088139006629318,
                1.8281995770522248,
                -1.0558763950454855,
                0.47532746151238203,
                -2.0530654799925223
            ]
        },
        {
            "positions": [
                -0.18531781276086567,
                -1.2815385733767788,
                1.8538081649089455,
                -1.0185914468077102,
                0.4169128945078293,
                -2.235949153906039
            ]
        },
        {
            "positions": [
                -0.12381360165190913,
                -1.2542632460906258,
                1.8794167527656662,
                -0.9813064985699347,
                0.3584983275032765,
                -2.4188328278195566
            ]
        },
        {
            "positions": [
                -0.06230939054295259,
                -1.2269879188044728,
                1.905025340622387,
                -0.9440215503321593,
                0.3000837604987239,
                -2.6017165017330734
            ]
        },
        {
            "positions": [
                -0.0008051794339960505,
                -1.1997125915183195,
                1.9306339284791076,
                -0.9067366020943839,
                0.24166919349417082,
                -2.7846001756465903
            ]
        },
        {
            "positions": [
                0.06069903167496027,
                -1.1724372642321668,
                1.9562425163358284,
                -0.8694516538566085,
                0.1832546264896182,
                -2.9674838495601072
            ]
        },
        {
            "positions": [
                0.12220324278391674,
                -1.1451619369460135,
                1.981851104192549,
                -0.8321667056188331,
                0.12484005948506535,
                -3.1503675234736246
            ]
        }
    ]
}