{
    "goal": {
        "global_pose": {
            "orientation": {
                "w": 0.7047431468963623,
                "x": -0.7094548344612122,
                "y": 0.0024358443915843964,
                "z": -0.0022348060738295317
            },
            "position": {
                "x": 0.6094750761985779,
                "y": 0.3671506643295288,
                "z": 0.19426114857196808
            }
        },
        "name": "move_to_magneteinheit_A"
    },
    "id": "RRTConnect_move_to_magneteinheit_A_38",
    "joint_names": [
        "shoulder_pan_joint",
        "shoulder_lift_joint",
        "elbow_joint",
        "wrist_1_joint",
        "wrist_2_joint",
        "wrist_3_joint"
    ],
    "metrics": {
        "cart_traj_len": 3.2875022731481005,
        "distance_elbow_joint": 3.9092845320285354,
        "distance_shoulder_lift_joint": 0.7341159172992014,
        "distance_shoulder_pan_joint": 2.576508679006945,
        "distance_wrist_1_joint": 3.452446374298586,
        "distance_wrist_2_joint": 1.873771332627422,
        "distance_wrist_3_joint": 0.5979142609794902,
        "smoothness": 0.06566077776370212,
        "time": 0.061406898,
        "traj_len": 3.6254711550693903,
        "weighted_distance": 4.434646245770363
    },
    "planner": "RRTConnect",
    "start": {
        "state": {
            "elbow_joint": -1.919618573717145,
            "shoulder_lift_joint": -1.2443395971678275,
            "shoulder_pan_joint": 2.6996025300909787,
            "wrist_1_joint": -1.548550951253194,
            "wrist_2_joint": -1.5709469090946802,
            "wrist_3_joint": 0.4420197732051276
        }
    },
    "waypoints": [
        {
            "positions": [
                2.6996025300909787,
                -1.2443395971678275,
                -1.919618573717145,
                -1.548550951253194,
                -1.5709469090946802,
                0.4420197732051276
            ]
        },
        {
            "positions": [
                2.5897474611363536,
                -1.2225582116389544,
                -1.8446230355336173,
                -1.4590412390812393,
                -1.4904024980748858,
                0.4462941247729972
            ]
        },
        {
            "positions": [
                2.4798923921817284,
                -1.200776826110081,
                -1.7696274973500894,
                -1.3695315269092845,
                -1.4098580870550912,
                0.45056847634086683
            ]
        },
        {
            "positions": [
                2.3700373232271033,
                -1.178995440581208,
                -1.6946319591665617,
                -1.2800218147373297,
                -1.3293136760352968,
                0.4548428279087364
            ]
        },
        {
            "positions": [
                2.260182254272478,
                -1.1572140550523347,
                -1.619636420983034,
                -1.1905121025653749,
                -1.2487692650155024,
                0.459117179476606
            ]
        },
        {
            "positions": [
                2.1503271853178534,
                -1.1354326695234616,
                -1.5446408827995062,
                -1.1010023903934203,
                -1.1682248539957079,
                0.46339153104447567
            ]
        },
        {
            "positions": [
                2.0404721163632282,
                -1.1136512839945882,
                -1.4696453446159785,
                -1.0114926782214655,
                -1.0876804429759135,
                0.46766588261234526
            ]
        },
        {
            "positions": [
                1.930617047408603,
                -1.0918698984657151,
                -1.3946498064324508,
                -0.9219829660495107,
                -1.0071360319561191,
                0.47194023418021486
            ]
        },
        {
            "positions": [
                1.820761978453978,
                -1.0700885129368418,
                -1.319654268248923,
                -0.8324732538775559,
                -0.9265916209363246,
                0.4762145857480845
            ]
        },
        {
            "positions": [
                1.7109069094993528,
                -1.0483071274079687,
                -1.2446587300653953,
                -0.7429635417056012,
                -0.8460472099165302,
                0.4804889373159541
            ]
        },
        {
            "positions": [
                1.6010518405447276,
                -1.0265257418790954,
                -1.1696631918818676,
                -0.6534538295336464,
                -0.7655027988967358,
                0.4847632888838237
            ]
        },
        {
            "positions": [
                1.4911967715901024,
                -1.0047443563502223,
                -1.0946676536983397,
                -0.5639441173616916,
                -0.6849583878769413,
                0.48903764045169335
            ]
        },
        {
            "positions": [
                1.3813417026354775,
                -0.9829629708213492,
                -1.019672115514812,
                -0.4744344051897369,
                -0.6044139768571469,
                0.49331199201956294
            ]
        },
        {
            "positions": [
                1.2714866336808521,
                -0.9611815852924759,
                -0.9446765773312843,
                -0.3849246930177821,
                -0.5238695658373524,
                0.4975863435874326
            ]
        },
        {
            "positions": [
                1.1616315647262272,
                -0.9394001997636028,
                -0.8696810391477565,
                -0.2954149808458273,
                -0.4433251548175581,
                0.5018606951553022
            ]
        },
        {
            "positions": [
                1.051776495771602,
                -0.9176188142347295,
                -0.7946855009642289,
                -0.2059052686738725,
                -0.3627807437977637,
                0.5061350467231718
            ]
        },
        {
            "positions": [
                0.9419214268169769,
                -0.8958374287058564,
                -0.719689962780701,
                -0.11639555650191769,
                -0.2822363327779691,
                0.5104093982910414
            ]
        },
        {
            "positions": [
                0.832066357862352,
                -0.8740560431769832,
                -0.6446944245971733,
                -0.026885844329963104,
                -0.20169192175817474,
                0.514683749858911
            ]
        },
        {
            "positions": [
                0.7222112889077266,
                -0.85227465764811,
                -0.5696988864136456,
                0.0626238678419917,
                -0.12114751073838015,
                0.5189581014267807
            ]
        },
        {
            "positions": [
                0.6123562199531016,
                -0.8304932721192367,
                -0.49470334823011797,
                0.1521335800139465,
                -0.040603099718586,
                0.5232324529946503
            ]
        },
        {
            "positions": [
                0.5025011509984763,
                -0.8087118865903635,
                -0.41970781004659014,
                0.2416432921859013,
                0.03994131130120859,
                0.5275068045625199
            ]
        },
        {
            "positions": [
                0.46232837926089737,
                -0.7902891389841769,
                -0.240852490877969,
                0.36909002976377936,
                0.04524370686295148,
                0.5022932163222281
            ]
        },
        {
            "positions": [
                0.4221556075233185,
                -0.7718663913779902,
                -0.061997171709347876,
                0.49653676734165747,
                0.05054610242469437,
                0.4770796280819364
            ]
        },
        {
            "positions": [
                0.38198283578573966,
                -0.7534436437718034,
                0.11685814745927331,
                0.6239835049195355,
                0.05584849798643726,
                0.45186603984164464
            ]
        },
        {
            "positions": [
                0.3418100640481608,
                -0.7350208961656167,
                0.2957134666278944,
                0.7514302424974136,
                0.06115089354818015,
                0.4266524516013529
            ]
        },
        {
            "positions": [
                0.3016372923105819,
                -0.71659814855943,
                0.4745687857965157,
                0.8788769800752917,
                0.06645328910992306,
                0.40143886336106116
            ]
        },
        {
            "positions": [
                0.26146452057300307,
                -0.6981754009532434,
                0.6534241049651368,
                1.0063237176531699,
                0.07175568467166593,
                0.3762252751207694
            ]
        },
        {
            "positions": [
                0.22129174883542413,
                -0.6797526533470566,
                0.8322794241337579,
                1.133770455231048,
                0.07705808023340883,
                0.3510116868804777
            ]
        },
        {
            "positions": [
                0.1811189770978453,
                -0.6613299057408699,
                1.011134743302379,
                1.261217192808926,
                0.08236047579515171,
                0.32579809864018594
            ]
        },
        {
            "positions": [
                0.14094620536026642,
                -0.6429071581346832,
                1.1899900624710003,
                1.388663930386804,
                0.08766287135689461,
                0.3005845103998942
            ]
        },
        {
            "positions": [
                0.13737573450501991,
                -0.6694438537878947,
                1.3499252416390786,
                1.4917102289185213,
                0.04463056092172506,
                0.24348352330799974
            ]
        },
        {
            "positions": [
                0.13380526364977344,
                -0.6959805494411061,
                1.5098604208071567,
                1.5947565274502387,
                0.0015982504865554997,
                0.1863825362161053
            ]
        },
        {
            "positions": [
                0.13023479279452693,
                -0.7225172450943176,
                1.669795599975235,
                1.697802825981956,
                -0.04143405994861403,
                0.12928154912421086
            ]
        },
        {
            "positions": [
                0.12666432193928043,
                -0.749053940747529,
                1.829730779143313,
                1.8008491245136733,
                -0.08446637038378361,
                0.07218056203231638
            ]
        },
        {
            "positions": [
                0.12309385108403394,
                -0.7755906364007404,
                1.9896659583113914,
                1.9038954230453906,
                -0.12749868081895313,
                0.01507957494042193
            ]
        }
    ]
}{
    "goal": {
        "global_pose": {
            "orientation": {
                "w": 0.7047431468963623,
                "x": -0.7094548344612122,
                "y": 0.0024358443915843964,
                "z": -0.0022348060738295317
            },
            "position": {
                "x": 0.6094750761985779,
                "y": 0.3671506643295288,
                "z": 0.19426114857196808
            }
        },
        "name": "move_to_magneteinheit_A"
    },
    "id": "RRTConnect_move_to_magneteinheit_A_38",
    "joint_names": [
        "shoulder_pan_joint",
        "shoulder_lift_joint",
        "elbow_joint",
        "wrist_1_joint",
        "wrist_2_joint",
        "wrist_3_joint"
    ],
    "metrics": {
        "cart_traj_len": 1.2012205016920867,
        "distance_elbow_joint": 0.06752861750674577,
        "distance_shoulder_lift_joint": 0.7496992649932628,
        "distance_shoulder_pan_joint": 1.2406549964604023,
        "distance_wrist_1_joint": 0.7407176325571427,
        "distance_wrist_2_joint": 1.474774001141876,
        "distance_wrist_3_joint": 4.251688439833715,
        "smoothness": 0.19671354175113095,
        "time": 0.086270654,
        "traj_len": 2.9197710445329688,
        "weighted_distance": 4.386790565534168
    },
    "planner": "RRTConnect",
    "start": {
        "state": {
            "elbow_joint": 1.919643534880228,
            "shoulder_lift_joint": -1.8972525353963687,
            "shoulder_pan_joint": -1.1188672234189438,
            "wrist_1_joint": -1.5931878212786155,
            "wrist_2_joint": 1.5706036197970081,
            "wrist_3_joint": 1.118896926603594
        }
    },
    "waypoints": [
        {
            "positions": [
                -1.1188672234189438,
                -1.8972525353963687,
                1.919643534880228,
                -1.5931878212786155,
                1.5706036197970081,
                1.118896926603594
            ]
        },
        {
            "positions": [
                -1.062713078232112,
                -1.863408558697389,
                1.9221118439737732,
                -1.5596008607663334,
                1.5041776413509458,
                0.9264040539050528
            ]
        },
        {
            "positions": [
                -1.00655893304528,
                -1.8295645819984094,
                1.9245801530673183,
                -1.5260139002540511,
                1.4377516629048834,
                0.7339111812065116
            ]
        },
        {
            "positions": [
                -0.9504047878584481,
                -1.7957206052994297,
                1.9270484621608637,
                -1.492426939741769,
                1.3713256844588213,
                0.5414183085079705
            ]
        },
        {
            "positions": [
                -0.8942506426716161,
                -1.76187662860045,
                1.9295167712544088,
                -1.458839979229487,
                1.304899706012759,
                0.34892543580942925
            ]
        },
        {
            "positions": [
                -0.8380964974847842,
                -1.7280326519014702,
                1.931985080347954,
                -1.425253018717205,
                1.2384737275666966,
                0.15643256311088816
            ]
        },
        {
            "positions": [
                -0.7819423522979523,
                -1.6941886752024906,
                1.934453389441499,
                -1.391666058204923,
                1.1720477491206345,
                -0.03606030958765305
            ]
        },
        {
            "positions": [
                -0.7257882071111204,
                -1.6603446985035109,
                1.9369216985350444,
                -1.3580790976926407,
                1.1056217706745721,
                -0.22855318228619415
            ]
        },
        {
            "positions": [
                -0.6696340619242883,
                -1.626500721804531,
                1.9393900076285895,
                -1.3244921371803586,
                1.0391957922285098,
                -0.42104605498473546
            ]
        },
        {
            "positions": [
                -0.6134799167374564,
                -1.5926567451055513,
                1.9418583167221346,
                -1.2909051766680766,
                0.9727698137824475,
                -0.6135389276832768
            ]
        },
        {
            "positions": [
                -0.5573257715506245,
                -1.5588127684065718,
                1.9443266258156797,
                -1.2573182161557943,
                0.9063438353363853,
                -0.8060318003818177
            ]
        },
        {
            "positions": [
                -0.5011716263637925,
                -1.524968791707592,
                1.9467949349092248,
                -1.2237312556435123,
                0.839917856890323,
                -0.998524673080359
            ]
        },
        {
            "positions": [
                -0.4450174811769606,
                -1.4911248150086123,
                1.9492632440027702,
                -1.1901442951312302,
                0.7734918784442607,
                -1.1910175457789
            ]
        },
        {
            "positions": [
                -0.38886333599012857,
                -1.4572808383096327,
                1.9517315530963153,
                -1.1565573346189482,
                0.7070658999981984,
                -1.3835104184774416
            ]
        },
        {
            "positions": [
                -0.33270919080329675,
                -1.423436861610653,
                1.9541998621898604,
                -1.1229703741066661,
                0.6406399215521361,
                -1.5760032911759823
            ]
        },
        {
            "positions": [
                -0.2765550456164648,
                -1.3895928849116732,
                1.9566681712834055,
                -1.0893834135943838,
                0.5742139431060739,
                -1.7684961638745234
            ]
        },
        {
            "positions": [
                -0.22040090042963278,
                -1.3557489082126937,
                1.9591364803769509,
                -1.0557964530821018,
                0.5077879646600114,
                -1.960989036573065
            ]
        },
        {
            "positions": [
                -0.16424675524280097,
                -1.3219049315137137,
                1.961604789470496,
                -1.0222094925698197,
                0.4413619862139493,
                -2.1534819092716058
            ]
        },
        {
            "positions": [
                -0.10809261005596893,
                -1.2880609548147341,
                1.964073098564041,
                -0.9886225320575376,
                0.37493600776788694,
                -2.3459747819701473
            ]
        },
        {
            "positions": [
                -0.051938464869137,
                -1.2542169781157544,
                1.9665414076575862,
                -0.9550355715452554,
                0.3085100293218246,
                -2.538467654668689
            ]
        },
        {
            "positions": [
                0.004215680317694925,
                -1.2203730014167746,
                1.9690097167511316,
                -0.9214486110329734,
                0.24208405087576246,
                -2.7309605273672295
            ]
        },
        {
            "positions": [
                0.06036982550452685,
                -1.186529024717795,
                1.9714780258446767,
                -0.8878616505206912,
                0.17565807242969989,
                -2.923453400065771
            ]
        },
        {
            "positions": [
                0.11652397069135872,
                -1.1526850480188153,
                1.9739463349382218,
                -0.8542746900084092,
                0.10923209398363767,
                -3.1159462727643117
            ]
        },
        {
            "positions": [
                0.12178777304145834,
                -1.147553270403106,
                1.9871721523869739,
                -0.8524701887214727,
                0.12263456931214324,
                -3.1327915132301207
            ]
        }
    ]
}