{
    "goal": {
        "global_pose": {
            "orientation": {
                "w": 0.7047431468963623,
                "x": -0.7094548344612122,
                "y": 0.0024358443915843964,
                "z": -0.0022348060738295317
            },
            "position": {
                "x": 0.6094750761985779,
                "y": 0.3671506643295288,
                "z": 0.19426114857196808
            }
        },
        "name": "move_to_magneteinheit_A"
    },
    "id": "RRTConnect_move_to_magneteinheit_A_7",
    "joint_names": [
        "shoulder_pan_joint",
        "shoulder_lift_joint",
        "elbow_joint",
        "wrist_1_joint",
        "wrist_2_joint",
        "wrist_3_joint"
    ],
    "metrics": {
        "cart_traj_len": 3.450683985953367,
        "distance_elbow_joint": 3.907994842291899,
        "distance_shoulder_lift_joint": 0.46768774568987814,
        "distance_shoulder_pan_joint": 3.2906142309808137,
        "distance_wrist_1_joint": 3.4598930214498598,
        "distance_wrist_2_joint": 1.4481632887338618,
        "distance_wrist_3_joint": 0.4140139855555269,
        "smoothness": 0.00039461953885031823,
        "time": 0.09592951,
        "traj_len": 3.6039377234771752,
        "weighted_distance": 4.327175914611818
    },
    "planner": "RRTConnect",
    "start": {
        "state": {
            "elbow_joint": -1.919618573717145,
            "shoulder_lift_joint": -1.2443395971678275,
            "shoulder_pan_joint": 2.6996025300909787,
            "wrist_1_joint": -1.548550951253194,
            "wrist_2_joint": -1.5709469090946802,
            "wrist_3_joint": 0.4420197732051276
        }
    },
    "waypoints": [
        {
            "positions": [
                2.6996025300909787,
                -1.2443395971678275,
                -1.919618573717145,
                -1.548550951253194,
                -1.5709469090946802,
                0.4420197732051276
            ]
        },
        {
            "positions": [
                2.559915539099565,
                -1.241030811706876,
                -1.776901805649814,
                -1.489428250098329,
                -1.540770319403159,
                0.4381759954281482
            ]
        },
        {
            "positions": [
                2.420228548108151,
                -1.2377220262459245,
                -1.6341850375824833,
                -1.4303055489434637,
                -1.5105937297116376,
                0.4343322176511688
            ]
        },
        {
            "positions": [
                2.2805415571167376,
                -1.234413240784973,
                -1.4914682695151524,
                -1.3711828477885988,
                -1.4804171400201165,
                0.43048843987418944
            ]
        },
        {
            "positions": [
                2.140854566125324,
                -1.2311044553240218,
                -1.3487515014478215,
                -1.3120601466337336,
                -1.4502405503285953,
                0.42664466209721
            ]
        },
        {
            "positions": [
                2.00116757513391,
                -1.2277956698630703,
                -1.2060347333804908,
                -1.2529374454788684,
                -1.420063960637074,
                0.42280088432023066
            ]
        },
        {
            "positions": [
                1.8614805841424964,
                -1.2244868844021188,
                -1.06331796531316,
                -1.1938147443240035,
                -1.3898873709455528,
                0.41895710654325125
            ]
        },
        {
            "positions": [
                1.7217935931510828,
                -1.2211780989411674,
                -0.9206011972458291,
                -1.1346920431691383,
                -1.3597107812540317,
                0.4151133287662719
            ]
        },
        {
            "positions": [
                1.582106602159669,
                -1.2178693134802159,
                -0.7778844291784983,
                -1.0755693420142731,
                -1.3295341915625103,
                0.41126955098929247
            ]
        },
        {
            "positions": [
                1.4424196111682552,
                -1.2145605280192644,
                -0.6351676611111674,
                -1.016446640859408,
                -1.2993576018709891,
                0.4074257732123131
            ]
        },
        {
            "positions": [
                1.3027326201768417,
                -1.211251742558313,
                -0.4924508930438367,
                -0.9573239397045429,
                -1.269181012179468,
                0.4035819954353337
            ]
        },
        {
            "positions": [
                1.1630456291854276,
                -1.2079429570973617,
                -0.3497341249765056,
                -0.8982012385496777,
                -1.2390044224879466,
                0.3997382176583543
            ]
        },
        {
            "positions": [
                1.023358638194014,
                -1.2046341716364102,
                -0.2070173569091749,
                -0.8390785373948126,
                -1.2088278327964255,
                0.3958944398813749
            ]
        },
        {
            "positions": [
                0.8836716472026003,
                -1.2013253861754587,
                -0.06430058884184398,
                -0.7799558362399475,
                -1.178651243104904,
                0.39205066210439554
            ]
        },
        {
            "positions": [
                0.7439846562111867,
                -1.1980166007145072,
                0.07841617922548672,
                -0.7208331350850824,
                -1.1484746534133832,
                0.3882068843274161
            ]
        },
        {
            "positions": [
                0.6042976652197729,
                -1.1947078152535557,
                0.22113294729281763,
                -0.6617104339302172,
                -1.1182980637218618,
                0.38436310655043676
            ]
        },
        {
            "positions": [
                0.46461067422835933,
                -1.1913990297926043,
                0.3638497153601483,
                -0.6025877327753522,
                -1.0881214740303407,
                0.3805193287734574
            ]
        },
        {
            "positions": [
                0.3249236832369453,
                -1.1880902443316528,
                0.5065664834274795,
                -0.543465031620487,
                -1.0579448843388195,
                0.376675550996478
            ]
        },
        {
            "positions": [
                0.18523669224553174,
                -1.1847814588707015,
                0.6492832514948101,
                -0.48434233046562203,
                -1.0277682946472981,
                0.37283177321949856
            ]
        },
        {
            "positions": [
                0.04554970125411817,
                -1.18147267340975,
                0.7920000195621408,
                -0.42521962931075663,
                -0.9975917049557769,
                0.3689879954425192
            ]
        },
        {
            "positions": [
                -0.0941372897372954,
                -1.1781638879487986,
                0.9347167876294715,
                -0.3660969281558917,
                -0.9674151152642557,
                0.36514421766553984
            ]
        },
        {
            "positions": [
                -0.23382428072870953,
                -1.174855102487847,
                1.0774335556968027,
                -0.30697422700102645,
                -0.9372385255727345,
                0.3613004398885604
            ]
        },
        {
            "positions": [
                -0.23399244995208845,
                -1.1448109220126106,
                1.172801260972259,
                -0.13047215465581374,
                -0.872009216477172,
                0.3340517900262226
            ]
        },
        {
            "positions": [
                -0.2341606191754674,
                -1.1147667415373739,
                1.268168966247715,
                0.04602991768939896,
                -0.8067799073816095,
                0.30680314016388477
            ]
        },
        {
            "positions": [
                -0.23432878839884633,
                -1.0847225610621374,
                1.3635366715231712,
                0.22253199003461172,
                -0.7415505982860471,
                0.27955449030154694
            ]
        },
        {
            "positions": [
                -0.19866049714974726,
                -1.0539154901037187,
                1.4260206312283297,
                0.3914129980508172,
                -0.6796739004935243,
                0.2543996200363523
            ]
        },
        {
            "positions": [
                -0.16299220590064822,
                -1.0231084191452997,
                1.4885045909334882,
                0.5602940060670226,
                -0.6177972027010014,
                0.2292447497711577
            ]
        },
        {
            "positions": [
                -0.12732391465154919,
                -0.992301348186881,
                1.5509885506386467,
                0.729175014083228,
                -0.5559205049084786,
                0.20408987950596308
            ]
        },
        {
            "positions": [
                -0.09165562340245009,
                -0.9614942772284621,
                1.6134725103438052,
                0.8980560220994336,
                -0.49404380711595575,
                0.17893500924076844
            ]
        },
        {
            "positions": [
                -0.055987332153351055,
                -0.9306872062700433,
                1.6759564700489638,
                1.066937030115639,
                -0.4321671093234329,
                0.15378013897557383
            ]
        },
        {
            "positions": [
                -0.020319040904252017,
                -0.8998801353116246,
                1.7384404297541223,
                1.2358180381318442,
                -0.3702904115309101,
                0.12862526871037921
            ]
        },
        {
            "positions": [
                0.015349250344847049,
                -0.8690730643532057,
                1.8009243894592808,
                1.4046990461480497,
                -0.3084137137383872,
                0.1034703984451846
            ]
        },
        {
            "positions": [
                0.05101754159394614,
                -0.8382659933947869,
                1.8634083491644393,
                1.5735800541642553,
                -0.24653701594586436,
                0.07831552817998993
            ]
        },
        {
            "positions": [
                0.08668583284304518,
                -0.8074589224363682,
                1.9258923088695978,
                1.7424610621804608,
                -0.1846603181533415,
                0.05316065791479532
            ]
        },
        {
            "positions": [
                0.12235412409214423,
                -0.7766518514779494,
                1.9883762685747564,
                1.9113420701966661,
                -0.12278362036081865,
                0.02800578764960069
            ]
        }
    ]
}{
    "goal": {
        "global_pose": {
            "orientation": {
                "w": 0.7047431468963623,
                "x": -0.7094548344612122,
                "y": 0.0024358443915843964,
                "z": -0.0022348060738295317
            },
            "position": {
                "x": 0.6094750761985779,
                "y": 0.3671506643295288,
                "z": 0.19426114857196808
            }
        },
        "name": "move_to_magneteinheit_A"
    },
    "id": "RRTConnect_move_to_magneteinheit_A_7",
    "joint_names": [
        "shoulder_pan_joint",
        "shoulder_lift_joint",
        "elbow_joint",
        "wrist_1_joint",
        "wrist_2_joint",
        "wrist_3_joint"
    ],
    "metrics": {
        "cart_traj_len": 1.256568955253437,
        "distance_elbow_joint": 0.3663617766843712,
        "distance_shoulder_lift_joint": 0.7595766753919067,
        "distance_shoulder_pan_joint": 1.2407044736817405,
        "distance_wrist_1_joint": 3.323333631537831,
        "distance_wrist_2_joint": 1.4444717101910438,
        "distance_wrist_3_joint": 4.33172027429416,
        "smoothness": 0.24700759821090906,
        "time": 0.087230484,
        "traj_len": 3.386173141140461,
        "weighted_distance": 4.989730897763751
    },
    "planner": "RRTConnect",
    "start": {
        "state": {
            "elbow_joint": 1.919643534880228,
            "shoulder_lift_joint": -1.8972525353963687,
            "shoulder_pan_joint": -1.1188672234189438,
            "wrist_1_joint": -1.5931878212786155,
            "wrist_2_joint": 1.5706036197970081,
            "wrist_3_joint": 1.118896926603594
        }
    },
    "waypoints": [
        {
            "positions": [
                -1.1188672234189438,
                -1.8972525353963687,
                1.919643534880228,
                -1.5931878212786155,
                1.5706036197970081,
                1.118896926603594
            ]
        },
        {
            "positions": [
                -1.0944432528401542,
                -1.865510411853036,
                1.9344892827894848,
                -1.4449879441948346,
                1.496029765955895,
                1.0230295459123684
            ]
        },
        {
            "positions": [
                -1.0700192822613646,
                -1.8337682883097033,
                1.9493350306987416,
                -1.2967880671110534,
                1.4214559121147818,
                0.927162165221143
            ]
        },
        {
            "positions": [
                -1.0455953116825751,
                -1.8020261647663705,
                1.9641807786079983,
                -1.1485881900272725,
                1.346882058273669,
                0.8312947845299176
            ]
        },
        {
            "positions": [
                -1.0211713411037855,
                -1.7702840412230376,
                1.979026526517255,
                -1.0003883129434916,
                1.2723082044325558,
                0.7354274038386921
            ]
        },
        {
            "positions": [
                -0.9967473705249958,
                -1.738541917679705,
                1.9938722744265118,
                -0.8521884358597105,
                1.1977343505914426,
                0.6395600231474666
            ]
        },
        {
            "positions": [
                -0.9723233999462063,
                -1.7067997941363722,
                2.008718022335769,
                -0.7039885587759295,
                1.1231604967503295,
                0.5436926424562412
            ]
        },
        {
            "positions": [
                -0.9478994293674167,
                -1.6750576705930396,
                2.0235637702450253,
                -0.5557886816921485,
                1.0485866429092163,
                0.4478252617650157
            ]
        },
        {
            "positions": [
                -0.9234754587886271,
                -1.6433155470497067,
                2.0384095181542823,
                -0.40758880460836755,
                0.9740127890681033,
                0.3519578810737902
            ]
        },
        {
            "positions": [
                -0.8990514882098375,
                -1.611573423506374,
                2.053255266063539,
                -0.2593889275245864,
                0.89943893522699,
                0.25609050038256465
            ]
        },
        {
            "positions": [
                -0.8746275176310478,
                -1.579831299963041,
                2.0681010139727958,
                -0.11118905044080551,
                0.824865081385877,
                0.1602231196913393
            ]
        },
        {
            "positions": [
                -0.8502035470522583,
                -1.5480891764197084,
                2.0829467618820523,
                0.037010826642975614,
                0.7502912275447639,
                0.06435573900011393
            ]
        },
        {
            "positions": [
                -0.8257795764734688,
                -1.5163470528763758,
                2.0977925097913093,
                0.18521070372675652,
                0.6757173737036508,
                -0.03151164169111165
            ]
        },
        {
            "positions": [
                -0.8013556058946791,
                -1.484604929333043,
                2.1126382577005662,
                0.33341058081053765,
                0.6011435198625376,
                -0.12737902238233723
            ]
        },
        {
            "positions": [
                -0.7769316353158895,
                -1.4528628057897102,
                2.1274840056098228,
                0.4816104578943187,
                0.5265696660214245,
                -0.22324640307356255
            ]
        },
        {
            "positions": [
                -0.7207585799672216,
                -1.433163621678132,
                2.117576423987649,
                0.40357699837151273,
                0.5015423062454583,
                -0.41009496211212526
            ]
        },
        {
            "positions": [
                -0.6645855246185537,
                -1.4134644375665542,
                2.1076688423654755,
                0.3255435388487068,
                0.47651494646949205,
                -0.5969435211506879
            ]
        },
        {
            "positions": [
                -0.6084124692698859,
                -1.3937652534549763,
                2.0977612607433023,
                0.2475100793259008,
                0.4514875866935258,
                -0.7837920801892507
            ]
        },
        {
            "positions": [
                -0.552239413921218,
                -1.3740660693433981,
                2.0878536791211286,
                0.1694766198030948,
                0.4264602269175596,
                -0.9706406392278134
            ]
        },
        {
            "positions": [
                -0.4960663585725501,
                -1.35436688523182,
                2.077946097498955,
                0.09144316028028882,
                0.4014328671415933,
                -1.157489198266376
            ]
        },
        {
            "positions": [
                -0.43989330322388226,
                -1.3346677011202421,
                2.068038515876782,
                0.013409700757482879,
                0.37640550736562706,
                -1.3443377573049389
            ]
        },
        {
            "positions": [
                -0.3837202478752144,
                -1.3149685170086642,
                2.058130934254608,
                -0.06462375876532317,
                0.3513781475896608,
                -1.5311863163435016
            ]
        },
        {
            "positions": [
                -0.3275471925265465,
                -1.2952693328970861,
                2.0482233526324345,
                -0.1426572182881291,
                0.3263507878136946,
                -1.7180348753820642
            ]
        },
        {
            "positions": [
                -0.2713741371778786,
                -1.275570148785508,
                2.038315771010261,
                -0.22069067781093504,
                0.3013234280377284,
                -1.904883434420627
            ]
        },
        {
            "positions": [
                -0.21520108182921072,
                -1.2558709646739301,
                2.028408189388087,
                -0.2987241373337411,
                0.2762960682617621,
                -2.0917319934591894
            ]
        },
        {
            "positions": [
                -0.15902802648054293,
                -1.2361717805623522,
                2.018500607765914,
                -0.37675759685654703,
                0.25126870848579586,
                -2.2785805524977523
            ]
        },
        {
            "positions": [
                -0.10285497113187503,
                -1.216472596450774,
                2.0085930261437404,
                -0.45479105637935296,
                0.2262413487098296,
                -2.465429111536315
            ]
        },
        {
            "positions": [
                -0.04668191578320713,
                -1.196773412339196,
                1.9986854445215667,
                -0.532824515902159,
                0.20121398893386339,
                -2.6522776705748776
            ]
        },
        {
            "positions": [
                0.00949113956546066,
                -1.177074228227618,
                1.9887778628993933,
                -0.610857975424965,
                0.17618662915789712,
                -2.8391262296134405
            ]
        },
        {
            "positions": [
                0.06566419491412856,
                -1.1573750441160402,
                1.9788702812772199,
                -0.6888914349477708,
                0.15115926938193092,
                -3.025974788652003
            ]
        },
        {
            "positions": [
                0.12183725026279642,
                -1.137675860004462,
                1.9689626996550462,
                -0.766924894470577,
                0.12613190960596468,
                -3.212823347690566
            ]
        }
    ]
}