{
    "goal": {
        "global_pose": {
            "orientation": {
                "w": 0.5084816217422485,
                "x": -0.49083608388900757,
                "y": 0.5182115435600281,
                "z": -0.4816462993621826
            },
            "position": {
                "x": 0.5540239810943604,
                "y": 0.030875300988554955,
                "z": 0.16403168439865112
            }
        },
        "name": "move_to_storage_A"
    },
    "id": "RRTConnect_move_to_storage_A_37",
    "joint_names": [
        "shoulder_pan_joint",
        "shoulder_lift_joint",
        "elbow_joint",
        "wrist_1_joint",
        "wrist_2_joint",
        "wrist_3_joint"
    ],
    "metrics": {
        "cart_traj_len": 0.3540152176038287,
        "distance_elbow_joint": 0.4492365769827056,
        "distance_shoulder_lift_joint": 0.23435846511652625,
        "distance_shoulder_pan_joint": 0.4629465851056195,
        "distance_wrist_1_joint": 0.23907510516337316,
        "distance_wrist_2_joint": 1.1004627965512257,
        "distance_wrist_3_joint": 0.10544164956610746,
        "smoothness": 0.0,
        "time": 0.052462432,
        "traj_len": 1.6098202317294805,
        "weighted_distance": 2.035176252645547
    },
    "planner": "RRTConnect",
    "start": {
        "state": {
            "elbow_joint": 1.9715477243005601,
            "shoulder_lift_joint": -1.1394853015351272,
            "shoulder_pan_joint": 0.12281154014795169,
            "wrist_1_joint": -0.7804696478968182,
            "wrist_2_joint": 0.12958648046900423,
            "wrist_3_joint": -3.192491284697111
        }
    },
    "waypoints": [
        {
            "positions": [
                0.12281154014795169,
                -1.1394853015351272,
                1.9715477243005601,
                -0.7804696478968182,
                0.12958648046900423,
                -3.192491284697111
            ]
        },
        {
            "positions": [
                0.05667631370429177,
                -1.1729650822660596,
                2.0357243781552326,
                -0.8146232343487286,
                0.2867954514048936,
                -3.177428191901953
            ]
        },
        {
            "positions": [
                -0.00945891273936815,
                -1.2064448629969917,
                2.0999010320099045,
                -0.8487768208006391,
                0.44400442234078297,
                -3.1623650991067946
            ]
        },
        {
            "positions": [
                -0.07559413918302808,
                -1.239924643727924,
                2.164077685864577,
                -0.8829304072525495,
                0.6012133932766723,
                -3.1473020063116364
            ]
        },
        {
            "positions": [
                -0.14172936562668798,
                -1.2734044244588565,
                2.228254339719249,
                -0.9170839937044599,
                0.7584223642125617,
                -3.1322389135164785
            ]
        },
        {
            "positions": [
                -0.2078645920703479,
                -1.3068842051897889,
                2.2924309935739213,
                -0.9512375801563704,
                0.9156313351484512,
                -3.1171758207213203
            ]
        },
        {
            "positions": [
                -0.27399981851400784,
                -1.340363985920721,
                2.3566076474285933,
                -0.9853911666082809,
                1.0728403060843403,
                -3.102112727926162
            ]
        },
        {
            "positions": [
                -0.3401350449576678,
                -1.3738437666516534,
                2.4207843012832657,
                -1.0195447530601913,
                1.23004927702023,
                -3.0870496351310037
            ]
        }
    ]
}