{
    "goal": {
        "global_pose": {
            "orientation": {
                "w": 0.7047431468963623,
                "x": -0.7094548344612122,
                "y": 0.0024358443915843964,
                "z": -0.0022348060738295317
            },
            "position": {
                "x": 0.6094750761985779,
                "y": 0.3671506643295288,
                "z": 0.19426114857196808
            }
        },
        "name": "move_to_magneteinheit_A"
    },
    "id": "RRTConnect_move_to_magneteinheit_A_125",
    "joint_names": [
        "shoulder_pan_joint",
        "shoulder_lift_joint",
        "elbow_joint",
        "wrist_1_joint",
        "wrist_2_joint",
        "wrist_3_joint"
    ],
    "metrics": {
        "cart_traj_len": 3.45914955871219,
        "distance_elbow_joint": 3.907877499262491,
        "distance_shoulder_lift_joint": 0.7391651903841887,
        "distance_shoulder_pan_joint": 2.5770485516565538,
        "distance_wrist_1_joint": 3.4525135677539724,
        "distance_wrist_2_joint": 2.2319519155726333,
        "distance_wrist_3_joint": 0.7392613777939859,
        "smoothness": 0.06124353025138237,
        "time": 0.093695103,
        "traj_len": 3.6942953458574253,
        "weighted_distance": 4.561886270101262
    },
    "planner": "RRTConnect",
    "start": {
        "state": {
            "elbow_joint": -1.919618573717145,
            "shoulder_lift_joint": -1.2443395971678275,
            "shoulder_pan_joint": 2.6996025300909787,
            "wrist_1_joint": -1.548550951253194,
            "wrist_2_joint": -1.5709469090946802,
            "wrist_3_joint": 0.4420197732051276
        }
    },
    "waypoints": [
        {
            "positions": [
                2.6996025300909787,
                -1.2443395971678275,
                -1.919618573717145,
                -1.548550951253194,
                -1.5709469090946802,
                0.4420197732051276
            ]
        },
        {
            "positions": [
                2.598336161530151,
                -1.2179045042879253,
                -1.8414414912399137,
                -1.4725228890697721,
                -1.487619406510139,
                0.4143960296254558
            ]
        },
        {
            "positions": [
                2.497069792969323,
                -1.191469411408023,
                -1.7632644087626823,
                -1.3964948268863502,
                -1.4042919039255977,
                0.386772286045784
            ]
        },
        {
            "positions": [
                2.395803424408495,
                -1.165034318528121,
                -1.685087326285451,
                -1.3204667647029282,
                -1.3209644013410564,
                0.35914854246611216
            ]
        },
        {
            "positions": [
                2.294537055847667,
                -1.1385992256482187,
                -1.6069102438082197,
                -1.2444387025195063,
                -1.2376368987565152,
                0.3315247988864404
            ]
        },
        {
            "positions": [
                2.193270687286839,
                -1.1121641327683165,
                -1.5287331613309885,
                -1.1684106403360843,
                -1.154309396171974,
                0.3039010553067686
            ]
        },
        {
            "positions": [
                2.092004318726011,
                -1.0857290398884145,
                -1.450556078853757,
                -1.0923825781526624,
                -1.0709818935874327,
                0.2762773117270968
            ]
        },
        {
            "positions": [
                1.9907379501651832,
                -1.0592939470085123,
                -1.3723789963765258,
                -1.0163545159692404,
                -0.9876543910028914,
                0.248653568147425
            ]
        },
        {
            "positions": [
                1.8894715816043552,
                -1.0328588541286101,
                -1.2942019138992946,
                -0.9403264537858184,
                -0.9043268884183502,
                0.2210298245677532
            ]
        },
        {
            "positions": [
                1.7882052130435273,
                -1.006423761248708,
                -1.2160248314220632,
                -0.8642983916023964,
                -0.8209993858338089,
                0.1934060809880814
            ]
        },
        {
            "positions": [
                1.6869388444826994,
                -0.9799886683688057,
                -1.137847748944832,
                -0.7882703294189743,
                -0.7376718832492677,
                0.16578233740840959
            ]
        },
        {
            "positions": [
                1.5856724759218714,
                -0.9535535754889035,
                -1.0596706664676006,
                -0.7122422672355524,
                -0.6543443806647264,
                0.1381585938287378
            ]
        },
        {
            "positions": [
                1.4844061073610435,
                -0.9271184826090013,
                -0.9814935839903693,
                -0.6362142050521304,
                -0.5710168780801852,
                0.11053485024906601
            ]
        },
        {
            "positions": [
                1.3831397388002156,
                -0.9006833897290991,
                -0.9033165015131379,
                -0.5601861428687084,
                -0.48768937549564395,
                0.08291110666939416
            ]
        },
        {
            "positions": [
                1.2818733702393876,
                -0.8742482968491969,
                -0.8251394190359067,
                -0.48415808068528654,
                -0.4043618729111027,
                0.05528736308972243
            ]
        },
        {
            "positions": [
                1.1806070016785597,
                -0.8478132039692947,
                -0.7469623365586753,
                -0.40813001850186437,
                -0.32103437032656146,
                0.027663619510050586
            ]
        },
        {
            "positions": [
                1.0793406331177318,
                -0.8213781110893925,
                -0.6687852540814441,
                -0.33210195631844264,
                -0.2377068677420202,
                3.9875930378796554e-05
            ]
        },
        {
            "positions": [
                0.9780742645569038,
                -0.7949430182094903,
                -0.5906081716042129,
                -0.25607389413502046,
                -0.15437936515747896,
                -0.027583867649292992
            ]
        },
        {
            "positions": [
                0.8768078959960759,
                -0.7685079253295882,
                -0.5124310891269817,
                -0.18004583195159873,
                -0.07105186257293772,
                -0.05520761122896478
            ]
        },
        {
            "positions": [
                0.775541527435248,
                -0.742072832449686,
                -0.4342540066497502,
                -0.10401776976817656,
                0.012275640011603528,
                -0.08283135480863663
            ]
        },
        {
            "positions": [
                0.67427515887442,
                -0.7156377395697838,
                -0.356076924172519,
                -0.02798970758475461,
                0.09560314259614477,
                -0.11045509838830841
            ]
        },
        {
            "positions": [
                0.573008790313592,
                -0.6892026466898816,
                -0.2778998416952876,
                0.048038354598667454,
                0.17893064518068613,
                -0.13807884196798026
            ]
        },
        {
            "positions": [
                0.5169573661988024,
                -0.6822540278250471,
                -0.13307866126417311,
                0.17900217597487514,
                0.19188090127252264,
                -0.13248996975042932
            ]
        },
        {
            "positions": [
                0.46090594208401275,
                -0.6753054089602125,
                0.011742519166941356,
                0.3099659973510828,
                0.20483115736435917,
                -0.1269010975328784
            ]
        },
        {
            "positions": [
                0.4048545179692231,
                -0.668356790095378,
                0.15656369959805583,
                0.44092981872729053,
                0.21778141345619567,
                -0.12131222531532745
            ]
        },
        {
            "positions": [
                0.34880309385443353,
                -0.6614081712305433,
                0.3013848800291703,
                0.5718936401034982,
                0.2307316695480322,
                -0.11572335309777652
            ]
        },
        {
            "positions": [
                0.29275166973964384,
                -0.6544595523657087,
                0.4462060604602849,
                0.702857461479706,
                0.2436819256398687,
                -0.1101344808802256
            ]
        },
        {
            "positions": [
                0.23670024562485426,
                -0.6475109335008742,
                0.5910272408913992,
                0.8338212828559136,
                0.2566321817317052,
                -0.10454560866267465
            ]
        },
        {
            "positions": [
                0.18064882151006462,
                -0.6405623146360396,
                0.7358484213225139,
                0.9647851042321214,
                0.26958243782354174,
                -0.09895673644512372
            ]
        },
        {
            "positions": [
                0.17338696612560964,
                -0.6574858031175898,
                0.892399734350368,
                1.0821822932657037,
                0.2206546167417403,
                -0.083951654307871
            ]
        },
        {
            "positions": [
                0.16612511074115466,
                -0.6744092915991399,
                1.048951047378222,
                1.199579482299286,
                0.17172679565993887,
                -0.06894657217061828
            ]
        },
        {
            "positions": [
                0.15886325535669968,
                -0.69133278008069,
                1.2055023604060762,
                1.3169766713328683,
                0.12279897457813743,
                -0.053941490033365555
            ]
        },
        {
            "positions": [
                0.1516013999722447,
                -0.70825626856224,
                1.3620536734339304,
                1.4343738603664506,
                0.073871153496336,
                -0.038936407896112836
            ]
        },
        {
            "positions": [
                0.14433954458778975,
                -0.7251797570437901,
                1.5186049864617843,
                1.551771049400033,
                0.024943332414534558,
                -0.023931325758860117
            ]
        },
        {
            "positions": [
                0.13707768920333477,
                -0.7421032455253402,
                1.6751562994896383,
                1.6691682384336153,
                -0.02398448866726688,
                -0.008926243621607391
            ]
        },
        {
            "positions": [
                0.1298158338188798,
                -0.7590267340068904,
                1.8317076125174925,
                1.7865654274671976,
                -0.07291230974906832,
                0.006078838515645321
            ]
        },
        {
            "positions": [
                0.12255397843442481,
                -0.7759502224884405,
                1.9882589255453467,
                1.90396261650078,
                -0.12184013083086974,
                0.02108392065289805
            ]
        }
    ]
}{
    "goal": {
        "global_pose": {
            "orientation": {
                "w": 0.7047431468963623,
                "x": -0.7094548344612122,
                "y": 0.0024358443915843964,
                "z": -0.0022348060738295317
            },
            "position": {
                "x": 0.6094750761985779,
                "y": 0.3671506643295288,
                "z": 0.19426114857196808
            }
        },
        "name": "move_to_magneteinheit_A"
    },
    "id": "RRTConnect_move_to_magneteinheit_A_125",
    "joint_names": [
        "shoulder_pan_joint",
        "shoulder_lift_joint",
        "elbow_joint",
        "wrist_1_joint",
        "wrist_2_joint",
        "wrist_3_joint"
    ],
    "metrics": {
        "cart_traj_len": 1.191217218092033,
        "distance_elbow_joint": 0.1345469252563396,
        "distance_shoulder_lift_joint": 0.7488592274927446,
        "distance_shoulder_pan_joint": 1.2422020187130607,
        "distance_wrist_1_joint": 0.7269271458664954,
        "distance_wrist_2_joint": 1.540361261534334,
        "distance_wrist_3_joint": 4.2298037765277545,
        "smoothness": 0.2753579869268316,
        "time": 0.082285441,
        "traj_len": 2.9364434875186562,
        "weighted_distance": 4.39881760429403
    },
    "planner": "RRTConnect",
    "start": {
        "state": {
            "elbow_joint": 1.919643534880228,
            "shoulder_lift_joint": -1.8972525353963687,
            "shoulder_pan_joint": -1.1188672234189438,
            "wrist_1_joint": -1.5931878212786155,
            "wrist_2_joint": 1.5706036197970081,
            "wrist_3_joint": 1.118896926603594
        }
    },
    "waypoints": [
        {
            "positions": [
                -1.1188672234189438,
                -1.8972525353963687,
                1.919643534880228,
                -1.5931878212786155,
                1.5706036197970081,
                1.118896926603594
            ]
        },
        {
            "positions": [
                -1.0637630150077788,
                -1.8649768788329277,
                1.9243047433767475,
                -1.5621575479164065,
                1.5030066298332398,
                0.9283876056231884
            ]
        },
        {
            "positions": [
                -1.0086588065966136,
                -1.8327012222694865,
                1.928965951873267,
                -1.5311272745541975,
                1.4354096398694716,
                0.7378782846427829
            ]
        },
        {
            "positions": [
                -0.9535545981854485,
                -1.8004255657060455,
                1.9336271603697863,
                -1.5000970011919885,
                1.3678126499057033,
                0.5473689636623775
            ]
        },
        {
            "positions": [
                -0.8984503897742833,
                -1.7681499091426045,
                1.9382883688663057,
                -1.4690667278297795,
                1.300215659941935,
                0.356859642681972
            ]
        },
        {
            "positions": [
                -0.8433461813631182,
                -1.7358742525791633,
                1.9429495773628251,
                -1.4380364544675706,
                1.2326186699781665,
                0.1663503217015666
            ]
        },
        {
            "positions": [
                -0.7882419729519531,
                -1.7035985960157223,
                1.9476107858593446,
                -1.4070061811053616,
                1.1650216800143982,
                -0.02415899927883891
            ]
        },
        {
            "positions": [
                -0.7331377645407879,
                -1.6713229394522813,
                1.952271994355864,
                -1.3759759077431526,
                1.09742469005063,
                -0.21466832025924432
            ]
        },
        {
            "positions": [
                -0.6780335561296227,
                -1.63904728288884,
                1.9569332028523834,
                -1.3449456343809436,
                1.0298277000868616,
                -0.40517764123964994
            ]
        },
        {
            "positions": [
                -0.6229293477184576,
                -1.606771626325399,
                1.9615944113489028,
                -1.3139153610187346,
                0.9622307101230932,
                -0.5956869622200556
            ]
        },
        {
            "positions": [
                -0.5678251393072925,
                -1.574495969761958,
                1.9662556198454222,
                -1.2828850876565259,
                0.894633720159325,
                -0.7861962832004608
            ]
        },
        {
            "positions": [
                -0.5127209308961274,
                -1.5422203131985168,
                1.9709168283419416,
                -1.2518548142943167,
                0.8270367301955567,
                -0.9767056041808664
            ]
        },
        {
            "positions": [
                -0.4576167224849623,
                -1.5099446566350758,
                1.9755780368384608,
                -1.220824540932108,
                0.7594397402317884,
                -1.1672149251612718
            ]
        },
        {
            "positions": [
                -0.40251251407379707,
                -1.4776690000716346,
                1.9802392453349802,
                -1.1897942675698987,
                0.69184275026802,
                -1.3577242461416776
            ]
        },
        {
            "positions": [
                -0.3474083056626319,
                -1.4453933435081936,
                1.9849004538314996,
                -1.15876399420769,
                0.6242457603042517,
                -1.5482335671220826
            ]
        },
        {
            "positions": [
                -0.2923040972514669,
                -1.4131176869447526,
                1.989561662328019,
                -1.127733720845481,
                0.5566487703404834,
                -1.738742888102488
            ]
        },
        {
            "positions": [
                -0.23719988884030163,
                -1.3808420303813114,
                1.9942228708245384,
                -1.096703447483272,
                0.48905178037671515,
                -1.9292522090828939
            ]
        },
        {
            "positions": [
                -0.1820956804291366,
                -1.3485663738178704,
                1.9988840793210578,
                -1.065673174121063,
                0.42145479041294687,
                -2.1197615300632995
            ]
        },
        {
            "positions": [
                -0.12699147201797134,
                -1.3162907172544291,
                2.0035452878175772,
                -1.034642900758854,
                0.35385780044917836,
                -2.310270851043705
            ]
        },
        {
            "positions": [
                -0.0718872636068062,
                -1.2840150606909881,
                2.008206496314097,
                -1.003612627396645,
                0.2862608104854101,
                -2.5007801720241103
            ]
        },
        {
            "positions": [
                -0.01678305519564116,
                -1.2517394041275471,
                2.012867704810616,
                -0.972582354034436,
                0.2186638205216418,
                -2.6912894930045157
            ]
        },
        {
            "positions": [
                0.038321153215524095,
                -1.219463747564106,
                2.0175289133071357,
                -0.9415520806722271,
                0.1510668305578735,
                -2.881798813984921
            ]
        },
        {
            "positions": [
                0.09342536162668902,
                -1.187188091000665,
                2.022190121803655,
                -0.9105218073100181,
                0.08346984059410525,
                -3.072308134965327
            ]
        },
        {
            "positions": [
                0.12333479529411674,
                -1.1483933079036241,
                1.990189783470742,
                -0.86626067541212,
                0.1366973229255365,
                -3.110906849924161
            ]
        }
    ]
}