{
    "goal": {
        "global_pose": {
            "orientation": {
                "w": 0.5084816217422485,
                "x": -0.49083608388900757,
                "y": 0.5182115435600281,
                "z": -0.4816462993621826
            },
            "position": {
                "x": 0.5540239810943604,
                "y": 0.030875300988554955,
                "z": 0.16403168439865112
            }
        },
        "name": "move_to_storage_A"
    },
    "id": "RRTConnect_move_to_storage_A_92",
    "joint_names": [
        "shoulder_pan_joint",
        "shoulder_lift_joint",
        "elbow_joint",
        "wrist_1_joint",
        "wrist_2_joint",
        "wrist_3_joint"
    ],
    "metrics": {
        "cart_traj_len": 0.3536210047971149,
        "distance_elbow_joint": 0.45125080675178175,
        "distance_shoulder_lift_joint": 0.23355055326991692,
        "distance_shoulder_pan_joint": 0.45891005923364064,
        "distance_wrist_1_joint": 0.25084895449522626,
        "distance_wrist_2_joint": 1.114511875657192,
        "distance_wrist_3_joint": 0.1036858964552061,
        "smoothness": 4.440892098500626e-16,
        "time": 0.048413609999999996,
        "traj_len": 1.616402841454742,
        "weighted_distance": 2.045847200776684
    },
    "planner": "RRTConnect",
    "start": {
        "state": {
            "elbow_joint": 1.9715477243005601,
            "shoulder_lift_joint": -1.1394853015351272,
            "shoulder_pan_joint": 0.12281154014795169,
            "wrist_1_joint": -0.7804696478968182,
            "wrist_2_joint": 0.12958648046900423,
            "wrist_3_joint": -3.192491284697111
        }
    },
    "waypoints": [
        {
            "positions": [
                0.12281154014795169,
                -1.1394853015351272,
                1.9715477243005601,
                -0.7804696478968182,
                0.12958648046900423,
                -3.192491284697111
            ]
        },
        {
            "positions": [
                0.057252960257431595,
                -1.1728496662879724,
                2.0360121252651004,
                -0.8163052128247076,
                0.28880246270574594,
                -3.177679013774939
            ]
        },
        {
            "positions": [
                -0.008305619633088498,
                -1.2062140310408178,
                2.1004765262296408,
                -0.8521407777525971,
                0.4480184449424876,
                -3.1628667428527666
            ]
        },
        {
            "positions": [
                -0.07386419952360858,
                -1.239578395793663,
                2.164940927194181,
                -0.8879763426804865,
                0.6072344271792294,
                -3.1480544719305943
            ]
        },
        {
            "positions": [
                -0.13942277941412867,
                -1.2729427605465082,
                2.229405328158721,
                -0.9238119076083761,
                0.766450409415971,
                -3.133242201008422
            ]
        },
        {
            "positions": [
                -0.20498135930464878,
                -1.3063071252993534,
                2.2938697291232613,
                -0.9596474725362655,
                0.9256663916527127,
                -3.1184299300862497
            ]
        },
        {
            "positions": [
                -0.27053993919516883,
                -1.3396714900521989,
                2.3583341300878016,
                -0.995483037464155,
                1.0848823738894544,
                -3.1036176591640774
            ]
        },
        {
            "positions": [
                -0.33609851908568894,
                -1.373035854805044,
                2.422798531052342,
                -1.0313186023920444,
                1.2440983561261962,
                -3.088805388241905
            ]
        }
    ]
}