{
    "goal": {
        "global_pose": {
            "orientation": {
                "w": 0.5084816217422485,
                "x": -0.49083608388900757,
                "y": 0.5182115435600281,
                "z": -0.4816462993621826
            },
            "position": {
                "x": 0.5540239810943604,
                "y": 0.030875300988554955,
                "z": 0.16403168439865112
            }
        },
        "name": "move_to_storage_A"
    },
    "id": "RRTConnect_move_to_storage_A_64",
    "joint_names": [
        "shoulder_pan_joint",
        "shoulder_lift_joint",
        "elbow_joint",
        "wrist_1_joint",
        "wrist_2_joint",
        "wrist_3_joint"
    ],
    "metrics": {
        "cart_traj_len": 0.35273630939602363,
        "distance_elbow_joint": 0.4528277025123386,
        "distance_shoulder_lift_joint": 0.23479504127100337,
        "distance_shoulder_pan_joint": 0.46275837894523997,
        "distance_wrist_1_joint": 0.25782424245505686,
        "distance_wrist_2_joint": 1.091789201535299,
        "distance_wrist_3_joint": 0.10247860401445363,
        "smoothness": 5.551115138160447e-16,
        "time": 0.051935603999999996,
        "traj_len": 1.61321826506316,
        "weighted_distance": 2.0388829840755096
    },
    "planner": "RRTConnect",
    "start": {
        "state": {
            "elbow_joint": 1.9715477243005601,
            "shoulder_lift_joint": -1.1394853015351272,
            "shoulder_pan_joint": 0.12281154014795169,
            "wrist_1_joint": -0.7804696478968182,
            "wrist_2_joint": 0.12958648046900423,
            "wrist_3_joint": -3.192491284697111
        }
    },
    "waypoints": [
        {
            "positions": [
                0.12281154014795169,
                -1.1394853015351272,
                1.9715477243005601,
                -0.7804696478968182,
                0.12958648046900423,
                -3.192491284697111
            ]
        },
        {
            "positions": [
                0.0567032002986317,
                -1.1730274502881277,
                2.036237396088037,
                -0.8173016825332549,
                0.2855563664026184,
                -3.1778514841236176
            ]
        },
        {
            "positions": [
                -0.009405139550688293,
                -1.206569599041128,
                2.100927067875514,
                -0.8541337171696916,
                0.4415262523362325,
                -3.1632116835501245
            ]
        },
        {
            "positions": [
                -0.07551347940000828,
                -1.2401117477941286,
                2.165616739662991,
                -0.8909657518061282,
                0.5974961382698467,
                -3.148571882976631
            ]
        },
        {
            "positions": [
                -0.14162181924932826,
                -1.2736538965471291,
                2.230306411450468,
                -0.9277977864425649,
                0.7534660242034608,
                -3.133932082403138
            ]
        },
        {
            "positions": [
                -0.20773015909864828,
                -1.3071960453001297,
                2.294996083237945,
                -0.9646298210790016,
                0.9094359101370749,
                -3.1192922818296442
            ]
        },
        {
            "positions": [
                -0.27383849894796825,
                -1.34073819405313,
                2.3596857550254215,
                -1.0014618557154384,
                1.065405796070689,
                -3.104652481256151
            ]
        },
        {
            "positions": [
                -0.33994683879728826,
                -1.3742803428061305,
                2.4243754268128987,
                -1.038293890351875,
                1.2213756820043034,
                -3.0900126806826576
            ]
        }
    ]
}