{
    "goal": {
        "global_pose": {
            "orientation": {
                "w": 0.5084816217422485,
                "x": -0.49083608388900757,
                "y": 0.5182115435600281,
                "z": -0.4816462993621826
            },
            "position": {
                "x": 0.5540239810943604,
                "y": 0.030875300988554955,
                "z": 0.16403168439865112
            }
        },
        "name": "move_to_storage_A"
    },
    "id": "RRTConnect_move_to_storage_A_84",
    "joint_names": [
        "shoulder_pan_joint",
        "shoulder_lift_joint",
        "elbow_joint",
        "wrist_1_joint",
        "wrist_2_joint",
        "wrist_3_joint"
    ],
    "metrics": {
        "cart_traj_len": 0.352283318195215,
        "distance_elbow_joint": 0.4491554373297433,
        "distance_shoulder_lift_joint": 0.23487044014403002,
        "distance_shoulder_pan_joint": 0.4614218119198394,
        "distance_wrist_1_joint": 0.24058105281527398,
        "distance_wrist_2_joint": 1.0939911505843352,
        "distance_wrist_3_joint": 0.10057674207747391,
        "smoothness": 6.661338165333112e-16,
        "time": 0.048056694,
        "traj_len": 1.6064235540076892,
        "weighted_distance": 2.0288721799130798
    },
    "planner": "RRTConnect",
    "start": {
        "state": {
            "elbow_joint": 1.9715477243005601,
            "shoulder_lift_joint": -1.1394853015351272,
            "shoulder_pan_joint": 0.12281154014795169,
            "wrist_1_joint": -0.7804696478968182,
            "wrist_2_joint": 0.12958648046900423,
            "wrist_3_joint": -3.192491284697111
        }
    },
    "waypoints": [
        {
            "positions": [
                0.12281154014795169,
                -1.1394853015351272,
                1.9715477243005601,
                -0.7804696478968182,
                0.12958648046900423,
                -3.192491284697111
            ]
        },
        {
            "positions": [
                0.056894138445117495,
                -1.173038221555703,
                2.0357127867762377,
                -0.8148383697275716,
                0.2858709305524807,
                -3.1781231786860435
            ]
        },
        {
            "positions": [
                -0.009023263257716699,
                -1.2065911415762787,
                2.0998778492519152,
                -0.849207091558325,
                0.4421553806359571,
                -3.163755072674976
            ]
        },
        {
            "positions": [
                -0.07494066496055089,
                -1.2401440615968544,
                2.1640429117275928,
                -0.8835758133890784,
                0.5984398307194336,
                -3.1493869666639083
            ]
        },
        {
            "positions": [
                -0.14085806666338507,
                -1.27369698161743,
                2.2282079742032703,
                -0.9179445352198319,
                0.75472428080291,
                -3.13501886065284
            ]
        },
        {
            "positions": [
                -0.2067754683662193,
                -1.3072499016380057,
                2.2923730366789483,
                -0.9523132570505852,
                0.9110087308863865,
                -3.1206507546417726
            ]
        },
        {
            "positions": [
                -0.27269287006905346,
                -1.3408028216585814,
                2.356538099154626,
                -0.9866819788813387,
                1.067293180969863,
                -3.106282648630705
            ]
        },
        {
            "positions": [
                -0.3386102717718877,
                -1.3743557416791572,
                2.4207031616303034,
                -1.0210507007120921,
                1.2235776310533393,
                -3.0919145426196373
            ]
        }
    ]
}