{
    "goal": {
        "global_pose": {
            "orientation": {
                "w": 0.7047431468963623,
                "x": -0.7094548344612122,
                "y": 0.0024358443915843964,
                "z": -0.0022348060738295317
            },
            "position": {
                "x": 0.6094750761985779,
                "y": 0.3671506643295288,
                "z": 0.19426114857196808
            }
        },
        "name": "move_to_magneteinheit_A"
    },
    "id": "RRTConnect_move_to_magneteinheit_A_140",
    "joint_names": [
        "shoulder_pan_joint",
        "shoulder_lift_joint",
        "elbow_joint",
        "wrist_1_joint",
        "wrist_2_joint",
        "wrist_3_joint"
    ],
    "metrics": {
        "cart_traj_len": 3.6910489484179525,
        "distance_elbow_joint": 4.078352797449503,
        "distance_shoulder_lift_joint": 0.31297819580101804,
        "distance_shoulder_pan_joint": 3.027221479940358,
        "distance_wrist_1_joint": 1.6618077318870867,
        "distance_wrist_2_joint": 2.754304420989939,
        "distance_wrist_3_joint": 3.9062400827359776,
        "smoothness": 0.31005964995980934,
        "time": 0.085746408,
        "traj_len": 3.967480902134739,
        "weighted_distance": 5.2886195767093005
    },
    "planner": "RRTConnect",
    "start": {
        "state": {
            "elbow_joint": -1.919618573717145,
            "shoulder_lift_joint": -1.2443395971678275,
            "shoulder_pan_joint": 2.6996025300909787,
            "wrist_1_joint": -1.548550951253194,
            "wrist_2_joint": -1.5709469090946802,
            "wrist_3_joint": 0.4420197732051276
        }
    },
    "waypoints": [
        {
            "positions": [
                2.6996025300909787,
                -1.2443395971678275,
                -1.919618573717145,
                -1.548550951253194,
                -1.5709469090946802,
                0.4420197732051276
            ]
        },
        {
            "positions": [
                2.6005493226588348,
                -1.2482158792939928,
                -1.8158522725828459,
                -1.515980217267745,
                -1.4954093933692962,
                0.362761666432268
            ]
        },
        {
            "positions": [
                2.501496115226691,
                -1.2520921614201583,
                -1.7120859714485466,
                -1.483409483282296,
                -1.4198718776439123,
                0.2835035596594084
            ]
        },
        {
            "positions": [
                2.4024429077945473,
                -1.2559684435463236,
                -1.6083196703142475,
                -1.4508387492968466,
                -1.3443343619185284,
                0.20424545288654877
            ]
        },
        {
            "positions": [
                2.3033897003624033,
                -1.259844725672489,
                -1.5045533691799484,
                -1.4182680153113976,
                -1.2687968461931445,
                0.12498734611368917
            ]
        },
        {
            "positions": [
                2.2043364929302594,
                -1.2637210077986545,
                -1.4007870680456493,
                -1.3856972813259485,
                -1.1932593304677606,
                0.045729239340829564
            ]
        },
        {
            "positions": [
                2.105283285498116,
                -1.2675972899248198,
                -1.29702076691135,
                -1.3531265473404994,
                -1.1177218147423766,
                -0.03352886743203004
            ]
        },
        {
            "positions": [
                2.006230078065972,
                -1.271473572050985,
                -1.193254465777051,
                -1.3205558133550503,
                -1.0421842990169927,
                -0.11278697420488953
            ]
        },
        {
            "positions": [
                1.907176870633828,
                -1.2753498541771504,
                -1.0894881646427517,
                -1.287985079369601,
                -0.9666467832916086,
                -0.19204508097774925
            ]
        },
        {
            "positions": [
                1.8081236632016842,
                -1.279226136303316,
                -0.9857218635084527,
                -1.255414345384152,
                -0.8911092675662248,
                -0.27130318775060874
            ]
        },
        {
            "positions": [
                1.7090704557695402,
                -1.2831024184294813,
                -0.8819555623741535,
                -1.222843611398703,
                -0.8155717518408407,
                -0.35056129452346846
            ]
        },
        {
            "positions": [
                1.6100172483373965,
                -1.2869787005556466,
                -0.7781892612398544,
                -1.1902728774132538,
                -0.7400342361154568,
                -0.42981940129632795
            ]
        },
        {
            "positions": [
                1.5109640409052525,
                -1.290854982681812,
                -0.6744229601055551,
                -1.1577021434278048,
                -0.6644967203900729,
                -0.5090775080691876
            ]
        },
        {
            "positions": [
                1.4119108334731088,
                -1.2947312648079774,
                -0.5706566589712561,
                -1.1251314094423557,
                -0.588959204664689,
                -0.5883356148420471
            ]
        },
        {
            "positions": [
                1.312857626040965,
                -1.2986075469341427,
                -0.466890357836957,
                -1.0925606754569066,
                -0.5134216889393051,
                -0.6675937216149066
            ]
        },
        {
            "positions": [
                1.2138044186088213,
                -1.3024838290603082,
                -0.3631240567026579,
                -1.0599899414714575,
                -0.43788417321392115,
                -0.7468518283877661
            ]
        },
        {
            "positions": [
                1.114751211176677,
                -1.3063601111864735,
                -0.2593577555683586,
                -1.0274192074860082,
                -0.362346657488537,
                -0.826109935160626
            ]
        },
        {
            "positions": [
                1.0156980037445333,
                -1.3102363933126389,
                -0.15559145443405953,
                -0.9948484735005592,
                -0.2868091417631533,
                -0.9053680419334855
            ]
        },
        {
            "positions": [
                0.9166447963123896,
                -1.3141126754388042,
                -0.05182515329976045,
                -0.9622777395151101,
                -0.2112716260377694,
                -0.984626148706345
            ]
        },
        {
            "positions": [
                0.8175915888802459,
                -1.3179889575649697,
                0.051941147834538626,
                -0.929707005529661,
                -0.13573411031238547,
                -1.0638842554792045
            ]
        },
        {
            "positions": [
                0.7185383814481017,
                -1.321865239691135,
                0.15570744896883792,
                -0.8971362715442118,
                -0.06019659458700133,
                -1.1431423622520644
            ]
        },
        {
            "positions": [
                0.6194851740159582,
                -1.3257415218173003,
                0.259473750103137,
                -0.8645655375587628,
                0.01534092113838259,
                -1.222400469024924
            ]
        },
        {
            "positions": [
                0.5204319665838142,
                -1.3296178039434658,
                0.3632400512374361,
                -0.8319948035733136,
                0.09087843686376651,
                -1.3016585757977834
            ]
        },
        {
            "positions": [
                0.4213787591516702,
                -1.3334940860696312,
                0.46700635237173516,
                -0.7994240695878645,
                0.1664159525891502,
                -1.380916682570643
            ]
        },
        {
            "positions": [
                0.32232555171952626,
                -1.3373703681957965,
                0.5707726535060347,
                -0.7668533356024153,
                0.24195346831453435,
                -1.4601747893435029
            ]
        },
        {
            "positions": [
                0.22327234428738274,
                -1.341246650321962,
                0.6745389546403338,
                -0.7342826016169662,
                0.31749098403991827,
                -1.5394328961163624
            ]
        },
        {
            "positions": [
                0.12421913685523894,
                -1.3451229324481273,
                0.7783052557746326,
                -0.7017118676315172,
                0.3930284997653021,
                -1.6186910028892219
            ]
        },
        {
            "positions": [
                0.10362207055018016,
                -1.3280089323220217,
                0.8948004443753239,
                -0.666327476857792,
                0.41691166250828765,
                -1.7755484012987492
            ]
        },
        {
            "positions": [
                0.08302500424512138,
                -1.3108949321959158,
                1.0112956329760152,
                -0.6309430860840668,
                0.4407948252512732,
                -1.9324057997082764
            ]
        },
        {
            "positions": [
                0.062427937940062614,
                -1.2937809320698102,
                1.1277908215767063,
                -0.5955586953103417,
                0.4646779879942588,
                -2.089263198117804
            ]
        },
        {
            "positions": [
                0.04183087163500383,
                -1.2766669319437045,
                1.2442860101773978,
                -0.5601743045366165,
                0.4885611507372444,
                -2.246120596527331
            ]
        },
        {
            "positions": [
                0.021233805329945052,
                -1.2595529318175986,
                1.360781198778089,
                -0.5247899137628914,
                0.51244431348023,
                -2.402977994936858
            ]
        },
        {
            "positions": [
                0.0006367390248862848,
                -1.242438931691493,
                1.4772763873787802,
                -0.48940552298916623,
                0.5363274762232155,
                -2.5598353933463853
            ]
        },
        {
            "positions": [
                -0.019960327280172496,
                -1.2253249315653871,
                1.5937715759794715,
                -0.45402113221544105,
                0.5602106389662012,
                -2.716692791755913
            ]
        },
        {
            "positions": [
                -0.04055739358523128,
                -1.2082109314392815,
                1.710266764580163,
                -0.41863674144171586,
                0.5840938017091868,
                -2.8735501901654406
            ]
        },
        {
            "positions": [
                -0.061154459890290086,
                -1.1910969313131758,
                1.826761953180854,
                -0.38325235066799074,
                0.6079769644521723,
                -3.0304075885749677
            ]
        },
        {
            "positions": [
                -0.08175152619534884,
                -1.17398293118707,
                1.9432571417815454,
                -0.3478679598942656,
                0.6318601271951578,
                -3.187264986984495
            ]
        },
        {
            "positions": [
                -0.10234859250040762,
                -1.1568689310609643,
                2.0597523303822367,
                -0.3124835691205404,
                0.6557432899381435,
                -3.344122385394022
            ]
        },
        {
            "positions": [
                -0.04603100316316465,
                -1.1508837162775756,
                2.0350068570447064,
                -0.4189186565591486,
                0.5238397344488646,
                -3.314097904359815
            ]
        },
        {
            "positions": [
                0.010286586174078322,
                -1.1448985014941866,
                2.0102613837071757,
                -0.5253537439977568,
                0.39193617895958566,
                -3.284073423325608
            ]
        },
        {
            "positions": [
                0.0666041755113213,
                -1.1389132867107978,
                1.9855159103696454,
                -0.631788831436365,
                0.26003262347030676,
                -3.2540489422914014
            ]
        },
        {
            "positions": [
                0.12292176484856425,
                -1.132928071927409,
                1.9607704370321148,
                -0.7382239188749732,
                0.12812906798102788,
                -3.224024461257194
            ]
        }
    ]
}{
    "goal": {
        "global_pose": {
            "orientation": {
                "w": 0.7047431468963623,
                "x": -0.7094548344612122,
                "y": 0.0024358443915843964,
                "z": -0.0022348060738295317
            },
            "position": {
                "x": 0.6094750761985779,
                "y": 0.3671506643295288,
                "z": 0.19426114857196808
            }
        },
        "name": "move_to_magneteinheit_A"
    },
    "id": "RRTConnect_move_to_magneteinheit_A_140",
    "joint_names": [
        "shoulder_pan_joint",
        "shoulder_lift_joint",
        "elbow_joint",
        "wrist_1_joint",
        "wrist_2_joint",
        "wrist_3_joint"
    ],
    "metrics": {
        "cart_traj_len": 1.5268450690341622,
        "distance_elbow_joint": 0.6565694954919337,
        "distance_shoulder_lift_joint": 1.2722465282980655,
        "distance_shoulder_pan_joint": 1.2421990424996967,
        "distance_wrist_1_joint": 0.8817047086345617,
        "distance_wrist_2_joint": 1.4424480044293897,
        "distance_wrist_3_joint": 4.371509746399626,
        "smoothness": 0.19497998870089403,
        "time": 0.11921016300000001,
        "traj_len": 3.141126792371373,
        "weighted_distance": 4.5753524161114045
    },
    "planner": "RRTConnect",
    "start": {
        "state": {
            "elbow_joint": 1.919643534880228,
            "shoulder_lift_joint": -1.8972525353963687,
            "shoulder_pan_joint": -1.1188672234189438,
            "wrist_1_joint": -1.5931878212786155,
            "wrist_2_joint": 1.5706036197970081,
            "wrist_3_joint": 1.118896926603594
        }
    },
    "waypoints": [
        {
            "positions": [
                -1.1188672234189438,
                -1.8972525353963687,
                1.919643534880228,
                -1.5931878212786155,
                1.5706036197970081,
                1.118896926603594
            ]
        },
        {
            "positions": [
                -1.0704290200191415,
                -1.850931128393992,
                1.9055661321152624,
                -1.5697475858969343,
                1.5137467967755989,
                0.9276132428604439
            ]
        },
        {
            "positions": [
                -1.021990816619339,
                -1.804609721391615,
                1.8914887293502969,
                -1.546307350515253,
                1.4568899737541896,
                0.7363295591172938
            ]
        },
        {
            "positions": [
                -0.9735526132195367,
                -1.758288314389238,
                1.8774113265853312,
                -1.5228671151335718,
                1.4000331507327806,
                0.5450458753741437
            ]
        },
        {
            "positions": [
                -0.9251144098197343,
                -1.7119669073868613,
                1.8633339238203654,
                -1.4994268797518906,
                1.343176327711371,
                0.35376219163099354
            ]
        },
        {
            "positions": [
                -0.8766762064199318,
                -1.6656455003844846,
                1.8492565210554,
                -1.4759866443702092,
                1.286319504689962,
                0.16247850788784357
            ]
        },
        {
            "positions": [
                -0.8282380030201295,
                -1.6193240933821076,
                1.8351791182904342,
                -1.452546408988528,
                1.2294626816685528,
                -0.02880517585530651
            ]
        },
        {
            "positions": [
                -0.779799799620327,
                -1.5730026863797306,
                1.8211017155254687,
                -1.4291061736068469,
                1.1726058586471435,
                -0.2200888595984567
            ]
        },
        {
            "positions": [
                -0.7313615962205247,
                -1.5266812793773539,
                1.807024312760503,
                -1.4056659382251655,
                1.1157490356257342,
                -0.4113725433416069
            ]
        },
        {
            "positions": [
                -0.6829233928207221,
                -1.4803598723749771,
                1.7929469099955373,
                -1.3822257028434843,
                1.058892212604325,
                -0.6026562270847569
            ]
        },
        {
            "positions": [
                -0.6344851894209198,
                -1.4340384653726002,
                1.7788695072305718,
                -1.3587854674618032,
                1.002035389582916,
                -0.7939399108279068
            ]
        },
        {
            "positions": [
                -0.5860469860211174,
                -1.3877170583702232,
                1.764792104465606,
                -1.335345232080122,
                0.9451785665615066,
                -0.985223594571057
            ]
        },
        {
            "positions": [
                -0.5376087826213151,
                -1.3413956513678464,
                1.7507147017006404,
                -1.3119049966984406,
                0.8883217435400974,
                -1.176507278314207
            ]
        },
        {
            "positions": [
                -0.4891705792215125,
                -1.2950742443654697,
                1.7366372989356749,
                -1.2884647613167595,
                0.831464920518688,
                -1.3677909620573574
            ]
        },
        {
            "positions": [
                -0.4407323758217102,
                -1.2487528373630927,
                1.7225598961707091,
                -1.265024525935078,
                0.7746080974972789,
                -1.5590746458005074
            ]
        },
        {
            "positions": [
                -0.3922941724219078,
                -1.2024314303607158,
                1.7084824934057434,
                -1.241584290553397,
                0.7177512744758697,
                -1.7503583295436573
            ]
        },
        {
            "positions": [
                -0.34385596902210536,
                -1.156110023358339,
                1.694405090640778,
                -1.2181440551717158,
                0.6608944514544604,
                -1.9416420132868077
            ]
        },
        {
            "positions": [
                -0.29541776562230293,
                -1.1097886163559623,
                1.6803276878758122,
                -1.1947038197900346,
                0.6040376284330512,
                -2.1329256970299575
            ]
        },
        {
            "positions": [
                -0.2469795622225005,
                -1.0634672093535853,
                1.6662502851108467,
                -1.1712635844083532,
                0.5471808054116418,
                -2.324209380773108
            ]
        },
        {
            "positions": [
                -0.19854135882269808,
                -1.0171458023512083,
                1.652172882345881,
                -1.147823349026672,
                0.4903239823902328,
                -2.5154930645162574
            ]
        },
        {
            "positions": [
                -0.15010315542289576,
                -0.9708243953488316,
                1.6380954795809153,
                -1.1243831136449909,
                0.4334671593688235,
                -2.706776748259408
            ]
        },
        {
            "positions": [
                -0.10166495202309322,
                -0.9245029883464547,
                1.6240180768159496,
                -1.1009428782633095,
                0.37661033634741425,
                -2.8980604320025583
            ]
        },
        {
            "positions": [
                -0.053226748623290854,
                -0.8781815813440779,
                1.609940674050984,
                -1.0775026428816283,
                0.319753513326005,
                -3.0893441157457078
            ]
        },
        {
            "positions": [
                -0.009087106697279995,
                -0.9414754749055215,
                1.6966573327166565,
                -0.9859977603222347,
                0.2718540388364084,
                -3.1301612917582884
            ]
        },
        {
            "positions": [
                0.03505253522873086,
                -1.0047693684669652,
                1.7833739913823288,
                -0.894492877762841,
                0.22395456434681177,
                -3.170978467770869
            ]
        },
        {
            "positions": [
                0.07919217715474172,
                -1.0680632620284087,
                1.8700906500480012,
                -0.8029879952034473,
                0.17605508985721519,
                -3.2117956437834496
            ]
        },
        {
            "positions": [
                0.12333181908075257,
                -1.1313571555898525,
                1.9568073087136737,
                -0.7114831126440537,
                0.12815561536761857,
                -3.2526128197960302
            ]
        }
    ]
}