{
    "goal": {
        "global_pose": {
            "orientation": {
                "w": 0.5084816217422485,
                "x": -0.49083608388900757,
                "y": 0.5182115435600281,
                "z": -0.4816462993621826
            },
            "position": {
                "x": 0.5540239810943604,
                "y": 0.030875300988554955,
                "z": 0.16403168439865112
            }
        },
        "name": "move_to_storage_A"
    },
    "id": "RRTConnect_move_to_storage_A_18",
    "joint_names": [
        "shoulder_pan_joint",
        "shoulder_lift_joint",
        "elbow_joint",
        "wrist_1_joint",
        "wrist_2_joint",
        "wrist_3_joint"
    ],
    "metrics": {
        "cart_traj_len": 0.352410322549648,
        "distance_elbow_joint": 0.4517280689897376,
        "distance_shoulder_lift_joint": 0.23332931948504765,
        "distance_shoulder_pan_joint": 0.4579770641505722,
        "distance_wrist_1_joint": 0.2521884501159469,
        "distance_wrist_2_joint": 1.1094849436400969,
        "distance_wrist_3_joint": 0.09579436236387195,
        "smoothness": 4.440892098500626e-16,
        "time": 0.049571643,
        "traj_len": 1.6126072704614949,
        "weighted_distance": 2.0380785871082256
    },
    "planner": "RRTConnect",
    "start": {
        "state": {
            "elbow_joint": 1.9715477243005601,
            "shoulder_lift_joint": -1.1394853015351272,
            "shoulder_pan_joint": 0.12281154014795169,
            "wrist_1_joint": -0.7804696478968182,
            "wrist_2_joint": 0.12958648046900423,
            "wrist_3_joint": -3.192491284697111
        }
    },
    "waypoints": [
        {
            "positions": [
                0.12281154014795169,
                -1.1394853015351272,
                1.9715477243005601,
                -0.7804696478968182,
                0.12958648046900423,
                -3.192491284697111
            ]
        },
        {
            "positions": [
                0.057386245269298516,
                -1.1728180614615626,
                2.0360803055848082,
                -0.8164965693419535,
                0.2880843295604466,
                -3.1788063757879867
            ]
        },
        {
            "positions": [
                -0.008039049609354657,
                -1.206150821387998,
                2.100612886869057,
                -0.8525234907870887,
                0.44658217865188904,
                -3.165121466878862
            ]
        },
        {
            "positions": [
                -0.07346434448800783,
                -1.2394835813144334,
                2.165145468153305,
                -0.888550412232224,
                0.6050800277433315,
                -3.1514365579697374
            ]
        },
        {
            "positions": [
                -0.138889639366661,
                -1.2728163412408686,
                2.229678049437553,
                -0.9245773336773593,
                0.7635778768347738,
                -3.137751649060613
            ]
        },
        {
            "positions": [
                -0.20431493424531416,
                -1.306149101167304,
                2.2942106307218015,
                -0.9606042551224945,
                0.9220757259262163,
                -3.1240667401514886
            ]
        },
        {
            "positions": [
                -0.26974022912396733,
                -1.3394818610937393,
                2.3587432120060496,
                -0.9966311765676298,
                1.0805735750176586,
                -3.1103818312423637
            ]
        },
        {
            "positions": [
                -0.3351655240026205,
                -1.3728146210201748,
                2.4232757932902977,
                -1.032658098012765,
                1.239071424109101,
                -3.0966969223332392
            ]
        }
    ]
}