{
    "goal": {
        "global_pose": {
            "orientation": {
                "w": 0.7047431468963623,
                "x": -0.7094548344612122,
                "y": 0.0024358443915843964,
                "z": -0.0022348060738295317
            },
            "position": {
                "x": 0.6094750761985779,
                "y": 0.3671506643295288,
                "z": 0.19426114857196808
            }
        },
        "name": "move_to_magneteinheit_A"
    },
    "id": "RRTConnect_move_to_magneteinheit_A_106",
    "joint_names": [
        "shoulder_pan_joint",
        "shoulder_lift_joint",
        "elbow_joint",
        "wrist_1_joint",
        "wrist_2_joint",
        "wrist_3_joint"
    ],
    "metrics": {
        "cart_traj_len": 3.256962931337065,
        "distance_elbow_joint": 3.880829397589789,
        "distance_shoulder_lift_joint": 0.78598133216894,
        "distance_shoulder_pan_joint": 2.8217198410802227,
        "distance_wrist_1_joint": 1.5102588147992404,
        "distance_wrist_2_joint": 1.6907241448209085,
        "distance_wrist_3_joint": 3.65948346127908,
        "smoothness": 0.12843300375691188,
        "time": 0.10224551700000001,
        "traj_len": 3.7880069946791517,
        "weighted_distance": 4.9868774673052165
    },
    "planner": "RRTConnect",
    "start": {
        "state": {
            "elbow_joint": -1.919618573717145,
            "shoulder_lift_joint": -1.2443395971678275,
            "shoulder_pan_joint": 2.6996025300909787,
            "wrist_1_joint": -1.548550951253194,
            "wrist_2_joint": -1.5709469090946802,
            "wrist_3_joint": 0.4420197732051276
        }
    },
    "waypoints": [
        {
            "positions": [
                2.6996025300909787,
                -1.2443395971678275,
                -1.919618573717145,
                -1.548550951253194,
                -1.5709469090946802,
                0.4420197732051276
            ]
        },
        {
            "positions": [
                2.6549274032072527,
                -1.2788987611774623,
                -1.8624316657145223,
                -1.5199616798709048,
                -1.4599739218386676,
                0.4065082359958655
            ]
        },
        {
            "positions": [
                2.6102522763235267,
                -1.3134579251870973,
                -1.8052447577119,
                -1.4913724084886157,
                -1.349000934582655,
                0.37099669878660335
            ]
        },
        {
            "positions": [
                2.5655771494398008,
                -1.3480170891967322,
                -1.7480578497092774,
                -1.4627831371063267,
                -1.2380279473266425,
                0.33548516157734126
            ]
        },
        {
            "positions": [
                2.5209020225560748,
                -1.382576253206367,
                -1.6908709417066548,
                -1.4341938657240374,
                -1.1270549600706299,
                0.2999736243680792
            ]
        },
        {
            "positions": [
                2.427539711333019,
                -1.389960706778632,
                -1.5595503391473735,
                -1.3955495878979955,
                -1.0882315696716356,
                0.2202525311915327
            ]
        },
        {
            "positions": [
                2.334177400109963,
                -1.397345160350897,
                -1.4282297365880925,
                -1.3569053100719535,
                -1.049408179272641,
                0.14053143801498627
            ]
        },
        {
            "positions": [
                2.240815088886907,
                -1.404729613923162,
                -1.2969091340288113,
                -1.3182610322459116,
                -1.0105847888736468,
                0.060810344838439834
            ]
        },
        {
            "positions": [
                2.1474527776638515,
                -1.412114067495427,
                -1.1655885314695302,
                -1.2796167544198696,
                -0.9717613984746524,
                -0.01891074833810663
            ]
        },
        {
            "positions": [
                2.0540904664407957,
                -1.419498521067692,
                -1.034267928910249,
                -1.2409724765938277,
                -0.932938008075658,
                -0.09863184151465304
            ]
        },
        {
            "positions": [
                1.9607281552177396,
                -1.426882974639957,
                -0.9029473263509679,
                -1.2023281987677856,
                -0.8941146176766636,
                -0.1783529346911995
            ]
        },
        {
            "positions": [
                1.8673658439946839,
                -1.434267428212222,
                -0.7716267237916867,
                -1.1636839209417438,
                -0.8552912272776692,
                -0.2580740278677459
            ]
        },
        {
            "positions": [
                1.7740035327716281,
                -1.441651881784487,
                -0.6403061212324055,
                -1.1250396431157017,
                -0.8164678368786749,
                -0.33779512104429243
            ]
        },
        {
            "positions": [
                1.6806412215485722,
                -1.449036335356752,
                -0.5089855186731245,
                -1.0863953652896599,
                -0.7776444464796805,
                -0.41751621422083884
            ]
        },
        {
            "positions": [
                1.5872789103255163,
                -1.456420788929017,
                -0.37766491611384323,
                -1.047751087463618,
                -0.738821056080686,
                -0.49723730739738525
            ]
        },
        {
            "positions": [
                1.4939165991024606,
                -1.463805242501282,
                -0.246344313554562,
                -1.009106809637576,
                -0.6999976656816917,
                -0.5769584005739318
            ]
        },
        {
            "positions": [
                1.4005542878794046,
                -1.4711896960735469,
                -0.11502371099528097,
                -0.9704625318115341,
                -0.6611742752826972,
                -0.6566794937504782
            ]
        },
        {
            "positions": [
                1.307191976656349,
                -1.478574149645812,
                0.01629689156400027,
                -0.9318182539854921,
                -0.6223508848837029,
                -0.7364005869270246
            ]
        },
        {
            "positions": [
                1.213829665433293,
                -1.485958603218077,
                0.1476174941232813,
                -0.8931739761594502,
                -0.5835274944847085,
                -0.816121680103571
            ]
        },
        {
            "positions": [
                1.120467354210237,
                -1.493343056790342,
                0.27893809668256275,
                -0.8545296983334081,
                -0.5447041040857141,
                -0.8958427732801176
            ]
        },
        {
            "positions": [
                1.0271050429871813,
                -1.500727510362607,
                0.41025869924184377,
                -0.8158854205073662,
                -0.5058807136867197,
                -0.975563866456664
            ]
        },
        {
            "positions": [
                0.9337427317641254,
                -1.508111963934872,
                0.541579301801125,
                -0.7772411426813243,
                -0.4670573232877253,
                -1.0552849596332106
            ]
        },
        {
            "positions": [
                0.8403804205410697,
                -1.515496417507137,
                0.6728999043604058,
                -0.7385968648552823,
                -0.428233932888731,
                -1.1350060528097567
            ]
        },
        {
            "positions": [
                0.7470181093180137,
                -1.522880871079402,
                0.8042205069196875,
                -0.6999525870292403,
                -0.3894105424897365,
                -1.2147271459863034
            ]
        },
        {
            "positions": [
                0.653655798094958,
                -1.5302653246516669,
                0.9355411094789683,
                -0.6613083092031985,
                -0.3505871520907422,
                -1.2944482391628496
            ]
        },
        {
            "positions": [
                0.5602934868719018,
                -1.537649778223932,
                1.0668617120382495,
                -0.6226640313771564,
                -0.3117637616917478,
                -1.3741693323393962
            ]
        },
        {
            "positions": [
                0.46693117564884634,
                -1.545034231796197,
                1.1981823145975308,
                -0.5840197535511146,
                -0.2729403712927535,
                -1.4538904255159428
            ]
        },
        {
            "positions": [
                0.3735688644257902,
                -1.5524186853684618,
                1.329502917156812,
                -0.5453754757250725,
                -0.23411698089375899,
                -1.533611518692489
            ]
        },
        {
            "positions": [
                0.28020655320273447,
                -1.559803138940727,
                1.4608235197160928,
                -0.5067311978990306,
                -0.1952935904947647,
                -1.6133326118690356
            ]
        },
        {
            "positions": [
                0.18684424197967875,
                -1.567187592512992,
                1.592144122275374,
                -0.4680869200729887,
                -0.15647020009577028,
                -1.6930537050455823
            ]
        },
        {
            "positions": [
                0.09348193075662303,
                -1.574572046085257,
                1.7234647248346553,
                -0.42944264224694684,
                -0.11764680969677599,
                -1.7727747982221285
            ]
        },
        {
            "positions": [
                0.00011961953356709118,
                -1.581956499657522,
                1.8547853273939365,
                -0.39079836442090476,
                -0.07882341929778137,
                -1.8524958913986749
            ]
        },
        {
            "positions": [
                0.009542915075104292,
                -1.5213251409544968,
                1.878104976150845,
                -0.4336978391300852,
                -0.05791845666561235,
                -2.0367715669729427
            ]
        },
        {
            "positions": [
                0.018966210616641492,
                -1.4606937822514716,
                1.9014246249077535,
                -0.4765973138392656,
                -0.03701349403344333,
                -2.2210472425472103
            ]
        },
        {
            "positions": [
                0.03964427850458882,
                -1.3952734397968325,
                1.9133818647007315,
                -0.5299387695489837,
                -0.005655348081508943,
                -2.4203305316525587
            ]
        },
        {
            "positions": [
                0.06032234639253615,
                -1.3298530973421936,
                1.9253391044937094,
                -0.5832802252587018,
                0.025702797870425446,
                -2.619613820757907
            ]
        },
        {
            "positions": [
                0.08100041428048346,
                -1.2644327548875545,
                1.9372963442866875,
                -0.6366216809684199,
                0.05706094382235984,
                -2.818897109863255
            ]
        },
        {
            "positions": [
                0.10167848216843081,
                -1.1990124124329156,
                1.9492535840796654,
                -0.689963136678138,
                0.08841908977429422,
                -3.0181803989686036
            ]
        },
        {
            "positions": [
                0.12235655005637813,
                -1.1335920699782764,
                1.9612108238726433,
                -0.7433045923878561,
                0.11977723572622863,
                -3.217463688073952
            ]
        }
    ]
}{
    "goal": {
        "global_pose": {
            "orientation": {
                "w": 0.7047431468963623,
                "x": -0.7094548344612122,
                "y": 0.0024358443915843964,
                "z": -0.0022348060738295317
            },
            "position": {
                "x": 0.6094750761985779,
                "y": 0.3671506643295288,
                "z": 0.19426114857196808
            }
        },
        "name": "move_to_magneteinheit_A"
    },
    "id": "RRTConnect_move_to_magneteinheit_A_106",
    "joint_names": [
        "shoulder_pan_joint",
        "shoulder_lift_joint",
        "elbow_joint",
        "wrist_1_joint",
        "wrist_2_joint",
        "wrist_3_joint"
    ],
    "metrics": {
        "cart_traj_len": 1.2377806765624009,
        "distance_elbow_joint": 0.09565737737640734,
        "distance_shoulder_lift_joint": 0.746158568209262,
        "distance_shoulder_pan_joint": 1.2410962345734655,
        "distance_wrist_1_joint": 0.7310002945389739,
        "distance_wrist_2_joint": 1.4349575940256698,
        "distance_wrist_3_joint": 4.244657135309664,
        "smoothness": 0.014937028413751356,
        "time": 0.0596522,
        "traj_len": 2.9143656606598696,
        "weighted_distance": 4.375934113217132
    },
    "planner": "RRTConnect",
    "start": {
        "state": {
            "elbow_joint": 1.919643534880228,
            "shoulder_lift_joint": -1.8972525353963687,
            "shoulder_pan_joint": -1.1188672234189438,
            "wrist_1_joint": -1.5931878212786155,
            "wrist_2_joint": 1.5706036197970081,
            "wrist_3_joint": 1.118896926603594
        }
    },
    "waypoints": [
        {
            "positions": [
                -1.1188672234189438,
                -1.8972525353963687,
                1.919643534880228,
                -1.5931878212786155,
                1.5706036197970081,
                1.118896926603594
            ]
        },
        {
            "positions": [
                -1.061520839608186,
                -1.8585610556727796,
                1.9240696081906088,
                -1.5604640821595848,
                1.5125564247290753,
                0.9152342801112617
            ]
        },
        {
            "positions": [
                -1.0041744557974284,
                -1.8198695759491905,
                1.9284956815009893,
                -1.5277403430405538,
                1.4545092296611424,
                0.7115716336189295
            ]
        },
        {
            "positions": [
                -0.9468280719866706,
                -1.7811780962256016,
                1.93292175481137,
                -1.4950166039215231,
                1.3964620345932095,
                0.5079089871265974
            ]
        },
        {
            "positions": [
                -0.8894816881759129,
                -1.7424866165020125,
                1.9373478281217507,
                -1.4622928648024924,
                1.3384148395252766,
                0.30424634063426514
            ]
        },
        {
            "positions": [
                -0.8321353043651551,
                -1.7037951367784234,
                1.9417739014321311,
                -1.4295691256834617,
                1.2803676444573437,
                0.10058369414193291
            ]
        },
        {
            "positions": [
                -0.7747889205543975,
                -1.6651036570548343,
                1.9461999747425118,
                -1.3968453865644308,
                1.2223204493894109,
                -0.10307895235039921
            ]
        },
        {
            "positions": [
                -0.7174425367436398,
                -1.6264121773312454,
                1.9506260480528925,
                -1.3641216474454,
                1.1642732543214782,
                -0.30674159884273156
            ]
        },
        {
            "positions": [
                -0.660096152932882,
                -1.5877206976076563,
                1.955052121363273,
                -1.3313979083263692,
                1.1062260592535451,
                -0.5104042453350637
            ]
        },
        {
            "positions": [
                -0.6027497691221243,
                -1.5490292178840672,
                1.9594781946736537,
                -1.2986741692073385,
                1.0481788641856125,
                -0.7140668918273958
            ]
        },
        {
            "positions": [
                -0.5454033853113666,
                -1.5103377381604781,
                1.9639042679840344,
                -1.2659504300883078,
                0.9901316691176795,
                -0.9177295383197281
            ]
        },
        {
            "positions": [
                -0.4880570015006088,
                -1.471646258436889,
                1.968330341294415,
                -1.233226690969277,
                0.9320844740497466,
                -1.1213921848120607
            ]
        },
        {
            "positions": [
                -0.4307106176898512,
                -1.4329547787133001,
                1.9727564146047956,
                -1.2005029518502461,
                0.8740372789818138,
                -1.3250548313043924
            ]
        },
        {
            "positions": [
                -0.37336423387909334,
                -1.3942632989897108,
                1.9771824879151763,
                -1.1677792127312154,
                0.8159900839138808,
                -1.528717477796725
            ]
        },
        {
            "positions": [
                -0.3160178500683357,
                -1.355571819266122,
                1.981608561225557,
                -1.1350554736121847,
                0.7579428888459481,
                -1.732380124289057
            ]
        },
        {
            "positions": [
                -0.25867146625757786,
                -1.3168803395425328,
                1.9860346345359374,
                -1.1023317344931538,
                0.6998956937780151,
                -1.9360427707813892
            ]
        },
        {
            "positions": [
                -0.20132508244682024,
                -1.2781888598189437,
                1.9904607078463181,
                -1.069607995374123,
                0.6418484987100823,
                -2.1397054172737215
            ]
        },
        {
            "positions": [
                -0.1439786986360625,
                -1.2394973800953548,
                1.9948867811566988,
                -1.0368842562550924,
                0.5838013036421494,
                -2.3433680637660537
            ]
        },
        {
            "positions": [
                -0.08663231482530476,
                -1.2008059003717657,
                1.9993128544670793,
                -1.0041605171360617,
                0.5257541085742166,
                -2.547030710258386
            ]
        },
        {
            "positions": [
                -0.02928593101454699,
                -1.1621144206481766,
                2.00373892777746,
                -0.9714367780170308,
                0.4677069135062837,
                -2.750693356750718
            ]
        },
        {
            "positions": [
                0.021219049708475858,
                -1.1584409361611534,
                1.9998849329510682,
                -0.9350203609245678,
                0.3570199509279686,
                -2.875715640735835
            ]
        },
        {
            "positions": [
                0.0717240304314987,
                -1.15476745167413,
                1.9960309381246764,
                -0.8986039438321046,
                0.24633298834965353,
                -3.0007379247209522
            ]
        },
        {
            "positions": [
                0.12222901115452156,
                -1.1510939671871068,
                1.9921769432982845,
                -0.8621875267396416,
                0.1356460257713384,
                -3.1257602087060694
            ]
        }
    ]
}