{
    "goal": {
        "global_pose": {
            "orientation": {
                "w": 0.7047431468963623,
                "x": -0.7094548344612122,
                "y": 0.0024358443915843964,
                "z": -0.0022348060738295317
            },
            "position": {
                "x": 0.6094750761985779,
                "y": 0.3671506643295288,
                "z": 0.19426114857196808
            }
        },
        "name": "move_to_magneteinheit_A"
    },
    "id": "RRTConnect_move_to_magneteinheit_A_3",
    "joint_names": [
        "shoulder_pan_joint",
        "shoulder_lift_joint",
        "elbow_joint",
        "wrist_1_joint",
        "wrist_2_joint",
        "wrist_3_joint"
    ],
    "metrics": {
        "cart_traj_len": 3.1747053465490347,
        "distance_elbow_joint": 3.9075870039128136,
        "distance_shoulder_lift_joint": 0.8509306022595386,
        "distance_shoulder_pan_joint": 2.7604726046622416,
        "distance_wrist_1_joint": 3.458969568982618,
        "distance_wrist_2_joint": 1.4489985236802096,
        "distance_wrist_3_joint": 1.7464795684099346,
        "smoothness": 0.054581124906295984,
        "time": 0.09673561300000001,
        "traj_len": 3.7647626581110467,
        "weighted_distance": 4.75124879388462
    },
    "planner": "RRTConnect",
    "start": {
        "state": {
            "elbow_joint": -1.919618573717145,
            "shoulder_lift_joint": -1.2443395971678275,
            "shoulder_pan_joint": 2.6996025300909787,
            "wrist_1_joint": -1.548550951253194,
            "wrist_2_joint": -1.5709469090946802,
            "wrist_3_joint": 0.4420197732051276
        }
    },
    "waypoints": [
        {
            "positions": [
                2.6996025300909787,
                -1.2443395971678275,
                -1.919618573717145,
                -1.548550951253194,
                -1.5709469090946802,
                0.4420197732051276
            ]
        },
        {
            "positions": [
                2.565717689875959,
                -1.2091333455613615,
                -1.8563395705090842,
                -1.460962799874759,
                -1.5462348147073037,
                0.489029907332511
            ]
        },
        {
            "positions": [
                2.4318328496609385,
                -1.1739270939548954,
                -1.7930605673010236,
                -1.3733746484963238,
                -1.5215227203199273,
                0.5360400414598945
            ]
        },
        {
            "positions": [
                2.2979480094459186,
                -1.1387208423484294,
                -1.7297815640929628,
                -1.285786497117889,
                -1.496810625932551,
                0.5830501755872779
            ]
        },
        {
            "positions": [
                2.1640631692308983,
                -1.1035145907419635,
                -1.6665025608849022,
                -1.1981983457394538,
                -1.4720985315451747,
                0.6300603097146613
            ]
        },
        {
            "positions": [
                2.0301783290158784,
                -1.0683083391354975,
                -1.6032235576768414,
                -1.1106101943610187,
                -1.4473864371577982,
                0.6770704438420447
            ]
        },
        {
            "positions": [
                1.8962934888008582,
                -1.0331020875290315,
                -1.5399445544687809,
                -1.0230220429825836,
                -1.4226743427704218,
                0.7240805779694282
            ]
        },
        {
            "positions": [
                1.7624086485858381,
                -0.9978958359225654,
                -1.47666555126072,
                -0.9354338916041485,
                -1.3979622483830454,
                0.7710907120968116
            ]
        },
        {
            "positions": [
                1.6285238083708182,
                -0.9626895843160994,
                -1.4133865480526593,
                -0.8478457402257135,
                -1.373250153995669,
                0.818100846224195
            ]
        },
        {
            "positions": [
                1.4946389681557979,
                -0.9274833327096335,
                -1.3501075448445987,
                -0.7602575888472783,
                -1.3485380596082925,
                0.8651109803515784
            ]
        },
        {
            "positions": [
                1.3607541279407778,
                -0.8922770811031674,
                -1.286828541636538,
                -0.6726694374688432,
                -1.3238259652209163,
                0.9121211144789618
            ]
        },
        {
            "positions": [
                1.2268692877257579,
                -0.8570708294967013,
                -1.2235495384284771,
                -0.5850812860904082,
                -1.29911387083354,
                0.9591312486063452
            ]
        },
        {
            "positions": [
                1.0929844475107378,
                -0.8218645778902354,
                -1.1602705352204166,
                -0.4974931347119732,
                -1.2744017764461635,
                1.0061413827337287
            ]
        },
        {
            "positions": [
                0.9867905494101844,
                -0.7980959464828014,
                -1.058027762258199,
                -0.39256215619533363,
                -1.2361114540993445,
                1.016169082505752
            ]
        },
        {
            "positions": [
                0.8805966513096312,
                -0.7743273150753675,
                -0.9557849892959813,
                -0.28763117767869406,
                -1.1978211317525256,
                1.0261967822777756
            ]
        },
        {
            "positions": [
                0.7744027532090778,
                -0.7505586836679334,
                -0.8535422163337638,
                -0.18270019916205454,
                -1.1595308094057066,
                1.0362244820497992
            ]
        },
        {
            "positions": [
                0.6682088551085246,
                -0.7267900522604995,
                -0.7512994433715461,
                -0.07776922064541497,
                -1.1212404870588877,
                1.0462521818218227
            ]
        },
        {
            "positions": [
                0.5620149570079712,
                -0.7030214208530655,
                -0.6490566704093286,
                0.027161757871224546,
                -1.0829501647120687,
                1.0562798815938461
            ]
        },
        {
            "positions": [
                0.455821058907418,
                -0.6792527894456315,
                -0.546813897447111,
                0.13209273638786412,
                -1.04465984236525,
                1.0663075813658696
            ]
        },
        {
            "positions": [
                0.3496271608068646,
                -0.6554841580381976,
                -0.44457112448489344,
                0.23702371490450358,
                -1.006369520018431,
                1.076335281137893
            ]
        },
        {
            "positions": [
                0.24343326270631127,
                -0.6317155266307636,
                -0.3423283515226757,
                0.34195469342114326,
                -0.9680791976716121,
                1.0863629809099167
            ]
        },
        {
            "positions": [
                0.13723936460575792,
                -0.6079468952233296,
                -0.2400855785604582,
                0.4468856719377827,
                -0.9297888753247932,
                1.0963906806819401
            ]
        },
        {
            "positions": [
                0.031045466505204677,
                -0.5841782638158957,
                -0.13784280559824058,
                0.5518166504544224,
                -0.8914985529779742,
                1.1064183804539636
            ]
        },
        {
            "positions": [
                0.03346291037348965,
                -0.5962242844807184,
                0.003921467476508844,
                0.6475856764434577,
                -0.8406334036227066,
                1.030728985889777
            ]
        },
        {
            "positions": [
                0.03588035424177462,
                -0.6082703051455411,
                0.14568574055125827,
                0.7433547024324929,
                -0.7897682542674389,
                0.9550395913255906
            ]
        },
        {
            "positions": [
                0.03829779811005958,
                -0.6203163258103638,
                0.2874500136260077,
                0.839123728421528,
                -0.7389031049121713,
                0.879350196761404
            ]
        },
        {
            "positions": [
                0.04071524197834455,
                -0.6323623464751865,
                0.4292142867007571,
                0.9348927544105633,
                -0.6880379555569036,
                0.8036608021972176
            ]
        },
        {
            "positions": [
                0.04313268584662952,
                -0.6444083671400093,
                0.5709785597755066,
                1.0306617803995985,
                -0.637172806201636,
                0.727971407633031
            ]
        },
        {
            "positions": [
                0.04555012971491449,
                -0.656454387804832,
                0.712742832850256,
                1.1264308063886337,
                -0.5863076568463683,
                0.6522820130688445
            ]
        },
        {
            "positions": [
                0.04796757358319946,
                -0.6685004084696546,
                0.8545071059250055,
                1.222199832377669,
                -0.5354425074911007,
                0.5765926185046579
            ]
        },
        {
            "positions": [
                0.05038501745148442,
                -0.6805464291344774,
                0.9962713789997548,
                1.3179688583667042,
                -0.484577358135833,
                0.5009032239404715
            ]
        },
        {
            "positions": [
                0.0528024613197694,
                -0.6925924497993001,
                1.1380356520745043,
                1.4137378843557395,
                -0.4337122087805653,
                0.4252138293762848
            ]
        },
        {
            "positions": [
                0.05521990518805436,
                -0.7046384704641229,
                1.2797999251492538,
                1.5095069103447747,
                -0.38284705942529773,
                0.3495244348120984
            ]
        },
        {
            "positions": [
                0.05763734905633934,
                -0.7166844911289456,
                1.4215641982240033,
                1.60527593633381,
                -0.3319819100700301,
                0.27383504024791183
            ]
        },
        {
            "positions": [
                0.0600547929246243,
                -0.7287305117937682,
                1.5633284712987525,
                1.7010449623228452,
                -0.28111676071476244,
                0.1981456456837254
            ]
        },
        {
            "positions": [
                0.06247223679290927,
                -0.740776532458591,
                1.705092744373502,
                1.7968139883118805,
                -0.2302516113594948,
                0.12245625111953873
            ]
        },
        {
            "positions": [
                0.06488968066119424,
                -0.7528225531234137,
                1.8468570174482515,
                1.8925830143009157,
                -0.1793864620042271,
                0.04676685655535237
            ]
        },
        {
            "positions": [
                0.12296100758167076,
                -0.7749475327235025,
                1.9879684301956688,
                1.9104186177294247,
                -0.12194838541447053,
                0.0243374192928649
            ]
        }
    ]
}{
    "goal": {
        "global_pose": {
            "orientation": {
                "w": 0.7047431468963623,
                "x": -0.7094548344612122,
                "y": 0.0024358443915843964,
                "z": -0.0022348060738295317
            },
            "position": {
                "x": 0.6094750761985779,
                "y": 0.3671506643295288,
                "z": 0.19426114857196808
            }
        },
        "name": "move_to_magneteinheit_A"
    },
    "id": "RRTConnect_move_to_magneteinheit_A_3",
    "joint_names": [
        "shoulder_pan_joint",
        "shoulder_lift_joint",
        "elbow_joint",
        "wrist_1_joint",
        "wrist_2_joint",
        "wrist_3_joint"
    ],
    "metrics": {
        "cart_traj_len": 1.5914517819504432,
        "distance_elbow_joint": 1.072606203054875,
        "distance_shoulder_lift_joint": 1.4003738041843794,
        "distance_shoulder_pan_joint": 1.2414129248133896,
        "distance_wrist_1_joint": 1.5231780780518682,
        "distance_wrist_2_joint": 1.4316072090988152,
        "distance_wrist_3_joint": 4.370432197123078,
        "smoothness": 0.30654554578660986,
        "time": 0.078973423,
        "traj_len": 3.3225909191964043,
        "weighted_distance": 4.768150595117906
    },
    "planner": "RRTConnect",
    "start": {
        "state": {
            "elbow_joint": 1.919643534880228,
            "shoulder_lift_joint": -1.8972525353963687,
            "shoulder_pan_joint": -1.1188672234189438,
            "wrist_1_joint": -1.5931878212786155,
            "wrist_2_joint": 1.5706036197970081,
            "wrist_3_joint": 1.118896926603594
        }
    },
    "waypoints": [
        {
            "positions": [
                -1.1188672234189438,
                -1.8972525353963687,
                1.919643534880228,
                -1.5931878212786155,
                1.5706036197970081,
                1.118896926603594
            ]
        },
        {
            "positions": [
                -1.0695077992713573,
                -1.8456907053682545,
                1.8950065092931023,
                -1.5358987863501488,
                1.5204603350824737,
                0.9716042185409755
            ]
        },
        {
            "positions": [
                -1.0201483751237708,
                -1.7941288753401405,
                1.8703694837059766,
                -1.4786097514216818,
                1.4703170503679395,
                0.8243115104783569
            ]
        },
        {
            "positions": [
                -0.9707889509761842,
                -1.7425670453120263,
                1.8457324581188506,
                -1.4213207164932151,
                1.4201737656534053,
                0.6770188024157384
            ]
        },
        {
            "positions": [
                -0.9214295268285976,
                -1.6910052152839121,
                1.8210954325317248,
                -1.3640316815647484,
                1.3700304809388708,
                0.5297260943531199
            ]
        },
        {
            "positions": [
                -0.872070102681011,
                -1.639443385255798,
                1.796458406944599,
                -1.3067426466362817,
                1.3198871962243364,
                0.3824333862905014
            ]
        },
        {
            "positions": [
                -0.8227106785334245,
                -1.587881555227684,
                1.7718213813574732,
                -1.2494536117078148,
                1.2697439115098021,
                0.23514067822788287
            ]
        },
        {
            "positions": [
                -0.773351254385838,
                -1.5363197251995697,
                1.7471843557703473,
                -1.192164576779348,
                1.219600626795268,
                0.08784797016526436
            ]
        },
        {
            "positions": [
                -0.7239918302382513,
                -1.4847578951714557,
                1.7225473301832215,
                -1.1348755418508814,
                1.1694573420807335,
                -0.05944473789735416
            ]
        },
        {
            "positions": [
                -0.6746324060906648,
                -1.4331960651433415,
                1.6979103045960957,
                -1.0775865069224144,
                1.119314057366199,
                -0.20673744595997268
            ]
        },
        {
            "positions": [
                -0.6252729819430782,
                -1.3816342351152273,
                1.67327327900897,
                -1.0202974719939477,
                1.0691707726516648,
                -0.3540301540225912
            ]
        },
        {
            "positions": [
                -0.5759135577954917,
                -1.330072405087113,
                1.648636253421844,
                -0.9630084370654809,
                1.0190274879371304,
                -0.5013228620852097
            ]
        },
        {
            "positions": [
                -0.5265541336479052,
                -1.278510575058999,
                1.6239992278347182,
                -0.9057194021370142,
                0.9688842032225962,
                -0.6486155701478282
            ]
        },
        {
            "positions": [
                -0.4771947095003185,
                -1.2269487450308847,
                1.5993622022475924,
                -0.8484303672085474,
                0.9187409185080617,
                -0.7959082782104467
            ]
        },
        {
            "positions": [
                -0.4278352853527321,
                -1.1753869150027707,
                1.5747251766604666,
                -0.7911413322800807,
                0.8685976337935275,
                -0.9432009862730653
            ]
        },
        {
            "positions": [
                -0.3784758612051454,
                -1.1238250849746565,
                1.5500881510733406,
                -0.7338522973516138,
                0.8184543490789931,
                -1.0904936943356838
            ]
        },
        {
            "positions": [
                -0.3291164370575589,
                -1.0722632549465425,
                1.5254511254862149,
                -0.6765632624231471,
                0.7683110643644588,
                -1.2377864023983023
            ]
        },
        {
            "positions": [
                -0.27975701290997235,
                -1.0207014249184283,
                1.500814099899089,
                -0.6192742274946803,
                0.7181677796499244,
                -1.3850791104609208
            ]
        },
        {
            "positions": [
                -0.2303975887623858,
                -0.9691395948903142,
                1.4761770743119633,
                -0.5619851925662136,
                0.6680244949353902,
                -1.5323718185235393
            ]
        },
        {
            "positions": [
                -0.18103816461479916,
                -0.9175777648622,
                1.4515400487248376,
                -0.5046961576377469,
                0.6178812102208557,
                -1.6796645265861578
            ]
        },
        {
            "positions": [
                -0.13167874046721273,
                -0.8660159348340859,
                1.4269030231377116,
                -0.4474071227092802,
                0.5677379255063215,
                -1.8269572346487764
            ]
        },
        {
            "positions": [
                -0.082319316319626,
                -0.8144541048059718,
                1.4022659975505858,
                -0.3901180877808133,
                0.5175946407917872,
                -1.9742499427113946
            ]
        },
        {
            "positions": [
                -0.05671118910536706,
                -0.8541510265052197,
                1.4716695807662399,
                -0.43013163085007156,
                0.47026986203008797,
                -2.1339106086874056
            ]
        },
        {
            "positions": [
                -0.03110306189110812,
                -0.8938479482044674,
                1.541073163981894,
                -0.4701451739193298,
                0.42294508326838876,
                -2.293571274663417
            ]
        },
        {
            "positions": [
                -0.005494934676849181,
                -0.9335448699037153,
                1.610476747197548,
                -0.5101587169885881,
                0.3756203045066895,
                -2.4532319406394283
            ]
        },
        {
            "positions": [
                0.020113192537409758,
                -0.9732417916029632,
                1.6798803304132022,
                -0.5501722600578464,
                0.32829552574499027,
                -2.612892606615439
            ]
        },
        {
            "positions": [
                0.04572131975166868,
                -1.012938713302211,
                1.7492839136288563,
                -0.5901858031271046,
                0.28097074698329105,
                -2.77255327259145
            ]
        },
        {
            "positions": [
                0.07132944696592763,
                -1.0526356350014587,
                1.8186874968445104,
                -0.6301993461963629,
                0.23364596822159178,
                -2.9322139385674615
            ]
        },
        {
            "positions": [
                0.09693757418018659,
                -1.0923325567007067,
                1.8880910800601645,
                -0.6702128892656212,
                0.18632118945989257,
                -3.091874604543473
            ]
        },
        {
            "positions": [
                0.12254570139444551,
                -1.1320294783999545,
                1.9574946632758186,
                -0.7102264323348794,
                0.13899641069819338,
                -3.2515352705194838
            ]
        }
    ]
}