{
    "goal": {
        "global_pose": {
            "orientation": {
                "w": 0.5084816217422485,
                "x": -0.49083608388900757,
                "y": 0.5182115435600281,
                "z": -0.4816462993621826
            },
            "position": {
                "x": 0.5540239810943604,
                "y": 0.030875300988554955,
                "z": 0.16403168439865112
            }
        },
        "name": "move_to_storage_A"
    },
    "id": "RRTConnect_move_to_storage_A_100",
    "joint_names": [
        "shoulder_pan_joint",
        "shoulder_lift_joint",
        "elbow_joint",
        "wrist_1_joint",
        "wrist_2_joint",
        "wrist_3_joint"
    ],
    "metrics": {
        "cart_traj_len": 0.35339428661995204,
        "distance_elbow_joint": 0.4499783670845354,
        "distance_shoulder_lift_joint": 0.23679564865058067,
        "distance_shoulder_pan_joint": 0.4637288605801896,
        "distance_wrist_1_joint": 0.2391353259929806,
        "distance_wrist_2_joint": 1.0936168808807616,
        "distance_wrist_3_joint": 0.0973152574363465,
        "smoothness": 8.881784197001252e-16,
        "time": 0.039546545,
        "traj_len": 1.6064153698920445,
        "weighted_distance": 2.026808590462313
    },
    "planner": "RRTConnect",
    "start": {
        "state": {
            "elbow_joint": 1.9715477243005601,
            "shoulder_lift_joint": -1.1394853015351272,
            "shoulder_pan_joint": 0.12281154014795169,
            "wrist_1_joint": -0.7804696478968182,
            "wrist_2_joint": 0.12958648046900423,
            "wrist_3_joint": -3.192491284697111
        }
    },
    "waypoints": [
        {
            "positions": [
                0.12281154014795169,
                -1.1394853015351272,
                1.9715477243005601,
                -0.7804696478968182,
                0.12958648046900423,
                -3.192491284697111
            ]
        },
        {
            "positions": [
                0.056564560065067465,
                -1.173313251342353,
                2.0358303481697795,
                -0.8146318373243868,
                0.2858174634519701,
                -3.1785891050633475
            ]
        },
        {
            "positions": [
                -0.009682420017816759,
                -1.2071412011495788,
                2.100112972038999,
                -0.8487940267519555,
                0.44204844643493607,
                -3.1646869254295837
            ]
        },
        {
            "positions": [
                -0.07592940010070097,
                -1.2409691509568046,
                2.164395595908218,
                -0.8829562161795241,
                0.598279429417902,
                -3.15078474579582
            ]
        },
        {
            "positions": [
                -0.1421763801835852,
                -1.2747971007640304,
                2.2286782197774375,
                -0.9171184056070928,
                0.7545104124008679,
                -3.136882566162056
            ]
        },
        {
            "positions": [
                -0.20842336026646946,
                -1.3086250505712562,
                2.292960843646657,
                -0.9512805950346614,
                0.9107413953838339,
                -3.122980386528292
            ]
        },
        {
            "positions": [
                -0.2746703403493536,
                -1.342453000378482,
                2.357243467515876,
                -0.9854427844622301,
                1.0669723783668,
                -3.1090782068945284
            ]
        },
        {
            "positions": [
                -0.3409173204322379,
                -1.3762809501857078,
                2.4215260913850956,
                -1.0196049738897988,
                1.223203361349766,
                -3.0951760272607647
            ]
        }
    ]
}