{
    "goal": {
        "global_pose": {
            "orientation": {
                "w": 0.7047431468963623,
                "x": -0.7094548344612122,
                "y": 0.0024358443915843964,
                "z": -0.0022348060738295317
            },
            "position": {
                "x": 0.6094750761985779,
                "y": 0.3671506643295288,
                "z": 0.19426114857196808
            }
        },
        "name": "move_to_magneteinheit_A"
    },
    "id": "RRTConnect_move_to_magneteinheit_A_13",
    "joint_names": [
        "shoulder_pan_joint",
        "shoulder_lift_joint",
        "elbow_joint",
        "wrist_1_joint",
        "wrist_2_joint",
        "wrist_3_joint"
    ],
    "metrics": {
        "cart_traj_len": 3.677583922290996,
        "distance_elbow_joint": 3.929041364950384,
        "distance_shoulder_lift_joint": 0.4645072259800317,
        "distance_shoulder_pan_joint": 3.2512338003485093,
        "distance_wrist_1_joint": 3.530901449713386,
        "distance_wrist_2_joint": 2.1400644044805888,
        "distance_wrist_3_joint": 1.0479164728489467,
        "smoothness": 0.36481697489601644,
        "time": 0.086679614,
        "traj_len": 3.7899425745414472,
        "weighted_distance": 4.704302660141429
    },
    "planner": "RRTConnect",
    "start": {
        "state": {
            "elbow_joint": -1.919618573717145,
            "shoulder_lift_joint": -1.2443395971678275,
            "shoulder_pan_joint": 2.6996025300909787,
            "wrist_1_joint": -1.548550951253194,
            "wrist_2_joint": -1.5709469090946802,
            "wrist_3_joint": 0.4420197732051276
        }
    },
    "waypoints": [
        {
            "positions": [
                2.6996025300909787,
                -1.2443395971678275,
                -1.919618573717145,
                -1.548550951253194,
                -1.5709469090946802,
                0.4420197732051276
            ]
        },
        {
            "positions": [
                2.4944499246853717,
                -1.244674188466767,
                -1.9124387401017615,
                -1.50240250969212,
                -1.4894758365220873,
                0.463581418580604
            ]
        },
        {
            "positions": [
                2.2892973192797643,
                -1.2450087797657061,
                -1.905258906486378,
                -1.4562540681310459,
                -1.4080047639494946,
                0.4851430639560804
            ]
        },
        {
            "positions": [
                2.0841447138741573,
                -1.2453433710646455,
                -1.8980790728709946,
                -1.4101056265699718,
                -1.3265336913769017,
                0.5067047093315569
            ]
        },
        {
            "positions": [
                1.87899210846855,
                -1.2456779623635847,
                -1.8908992392556112,
                -1.3639571850088976,
                -1.245062618804309,
                0.5282663547070332
            ]
        },
        {
            "positions": [
                1.673839503062943,
                -1.2460125536625242,
                -1.8837194056402278,
                -1.3178087434478236,
                -1.1635915462317161,
                0.5498280000825096
            ]
        },
        {
            "positions": [
                1.6011926733484343,
                -1.230368903619409,
                -1.7617095817628816,
                -1.215523111113526,
                -1.1101924081716903,
                0.5197246160102692
            ]
        },
        {
            "positions": [
                1.5285458436339256,
                -1.214725253576294,
                -1.6396997578855355,
                -1.1132374787792283,
                -1.0567932701116645,
                0.4896212319380288
            ]
        },
        {
            "positions": [
                1.455899013919417,
                -1.1990816035331788,
                -1.5176899340081893,
                -1.0109518464449307,
                -1.0033941320516386,
                0.45951784786578836
            ]
        },
        {
            "positions": [
                1.3832521842049084,
                -1.1834379534900636,
                -1.3956801101308431,
                -0.9086662141106332,
                -0.9499949939916127,
                0.429414463793548
            ]
        },
        {
            "positions": [
                1.3106053544903997,
                -1.1677943034469485,
                -1.273670286253497,
                -0.8063805817763355,
                -0.8965958559315867,
                0.3993110797213075
            ]
        },
        {
            "positions": [
                1.237958524775891,
                -1.1521506534038335,
                -1.1516604623761508,
                -0.7040949494420379,
                -0.8431967178715609,
                0.3692076956490671
            ]
        },
        {
            "positions": [
                1.1653116950613824,
                -1.1365070033607183,
                -1.0296506384988047,
                -0.6018093171077403,
                -0.7897975798115351,
                0.33910431157682674
            ]
        },
        {
            "positions": [
                1.0926648653468738,
                -1.1208633533176031,
                -0.9076408146214586,
                -0.49952368477344267,
                -0.7363984417515093,
                0.3090009275045863
            ]
        },
        {
            "positions": [
                1.020018035632365,
                -1.105219703274488,
                -0.7856309907441126,
                -0.3972380524391451,
                -0.6829993036914834,
                0.27889754343234585
            ]
        },
        {
            "positions": [
                0.9473712059178564,
                -1.089576053231373,
                -0.6636211668667662,
                -0.29495242010484746,
                -0.6296001656314575,
                0.2487941593601054
            ]
        },
        {
            "positions": [
                0.8747243762033478,
                -1.0739324031882578,
                -0.5416113429894203,
                -0.1926667877705499,
                -0.5762010275714317,
                0.218690775287865
            ]
        },
        {
            "positions": [
                0.8020775464888391,
                -1.0582887531451426,
                -0.4196015191120741,
                -0.09038115543625214,
                -0.5228018895114057,
                0.18858739121562457
            ]
        },
        {
            "positions": [
                0.7294307167743305,
                -1.0426451031020276,
                -0.29759169523472795,
                0.011904476898045413,
                -0.4694027514513799,
                0.15848400714338418
            ]
        },
        {
            "positions": [
                0.6567838870598219,
                -1.0270014530589124,
                -0.1755818713573818,
                0.11419010923234296,
                -0.41600361339135405,
                0.12838062307114378
            ]
        },
        {
            "positions": [
                0.5841370573453133,
                -1.0113578030157973,
                -0.053572047480035856,
                0.2164757415666405,
                -0.3626044753313282,
                0.0982772389989034
            ]
        },
        {
            "positions": [
                0.5114902276308044,
                -0.9957141529726821,
                0.06843777639731052,
                0.3187613739009383,
                -0.3092053372713023,
                0.06817385492666289
            ]
        },
        {
            "positions": [
                0.4388433979162958,
                -0.980070502929567,
                0.19044760027465646,
                0.42104700623523583,
                -0.25580619921127645,
                0.0380704708544225
            ]
        },
        {
            "positions": [
                0.36619656820178714,
                -0.9644268528864519,
                0.3124574241520026,
                0.5233326385695334,
                -0.20240706115125062,
                0.007967086782182053
            ]
        },
        {
            "positions": [
                0.2935497384872787,
                -0.9487832028433367,
                0.4344672480293488,
                0.6256182709038309,
                -0.14900792309122468,
                -0.022136297290058282
            ]
        },
        {
            "positions": [
                0.22090290877276986,
                -0.9331395528002215,
                0.5564770719066954,
                0.7279039032381287,
                -0.09560878503119885,
                -0.05223968136229884
            ]
        },
        {
            "positions": [
                0.14825607905826121,
                -0.9174959027571065,
                0.6784868957840411,
                0.8301895355724263,
                -0.04220964697117302,
                -0.08234306543453918
            ]
        },
        {
            "positions": [
                0.07560924934375257,
                -0.9018522527139914,
                0.8004967196613872,
                0.9324751679067238,
                0.01118949108885281,
                -0.11244644950677962
            ]
        },
        {
            "positions": [
                0.0029624196292439287,
                -0.8862086026708762,
                0.9225065435387334,
                1.0347608002410214,
                0.06458862914887864,
                -0.14254983357901996
            ]
        },
        {
            "positions": [
                -0.06968441008526471,
                -0.870564952627761,
                1.0445163674160796,
                1.1370464325753193,
                0.11798776720890469,
                -0.17265321765126052
            ]
        },
        {
            "positions": [
                -0.14233123979977336,
                -0.854921302584646,
                1.1665261912934257,
                1.239332064909617,
                0.17138690526893052,
                -0.20275660172350085
            ]
        },
        {
            "positions": [
                -0.214978069514282,
                -0.8392776525415309,
                1.2885360151707719,
                1.3416176972439144,
                0.22478604332895646,
                -0.23285998579574127
            ]
        },
        {
            "positions": [
                -0.15886920272374028,
                -0.8299277578141406,
                1.408683811181183,
                1.4484064974466275,
                0.16739746798613114,
                -0.20662327578018905
            ]
        },
        {
            "positions": [
                -0.10276033593319853,
                -0.8205778630867503,
                1.5288316071915944,
                1.5551952976493404,
                0.11000889264330582,
                -0.18038656576463682
            ]
        },
        {
            "positions": [
                -0.046651469142656776,
                -0.81122796835936,
                1.6489794032020055,
                1.6619840978520535,
                0.0526203173004805,
                -0.1541498557490846
            ]
        },
        {
            "positions": [
                0.009457397647884946,
                -0.8018780736319697,
                1.7691271992124167,
                1.7687728980547663,
                -0.0047682580423448195,
                -0.12791314573353238
            ]
        },
        {
            "positions": [
                0.06556626443842672,
                -0.7925281789045795,
                1.889274995222828,
                1.8755616982574796,
                -0.06215683338517014,
                -0.10167643571798016
            ]
        },
        {
            "positions": [
                0.12167513122896843,
                -0.7831782841771892,
                2.009422791233239,
                1.9823504984601925,
                -0.11954540872799548,
                -0.07543972570242793
            ]
        }
    ]
}{
    "goal": {
        "global_pose": {
            "orientation": {
                "w": 0.7047431468963623,
                "x": -0.7094548344612122,
                "y": 0.0024358443915843964,
                "z": -0.0022348060738295317
            },
            "position": {
                "x": 0.6094750761985779,
                "y": 0.3671506643295288,
                "z": 0.19426114857196808
            }
        },
        "name": "move_to_magneteinheit_A"
    },
    "id": "RRTConnect_move_to_magneteinheit_A_13",
    "joint_names": [
        "shoulder_pan_joint",
        "shoulder_lift_joint",
        "elbow_joint",
        "wrist_1_joint",
        "wrist_2_joint",
        "wrist_3_joint"
    ],
    "metrics": {
        "cart_traj_len": 1.3347049071775856,
        "distance_elbow_joint": 0.8573134976693191,
        "distance_shoulder_lift_joint": 0.7651912565413359,
        "distance_shoulder_pan_joint": 1.2405783732709792,
        "distance_wrist_1_joint": 1.6721285252221139,
        "distance_wrist_2_joint": 1.4465864788917888,
        "distance_wrist_3_joint": 4.349553384112463,
        "smoothness": 0.25742601144547256,
        "time": 0.074944511,
        "traj_len": 3.2142419815110377,
        "weighted_distance": 4.706290820598196
    },
    "planner": "RRTConnect",
    "start": {
        "state": {
            "elbow_joint": 1.919643534880228,
            "shoulder_lift_joint": -1.8972525353963687,
            "shoulder_pan_joint": -1.1188672234189438,
            "wrist_1_joint": -1.5931878212786155,
            "wrist_2_joint": 1.5706036197970081,
            "wrist_3_joint": 1.118896926603594
        }
    },
    "waypoints": [
        {
            "positions": [
                -1.1188672234189438,
                -1.8972525353963687,
                1.919643534880228,
                -1.5931878212786155,
                1.5706036197970081,
                1.118896926603594
            ]
        },
        {
            "positions": [
                -1.0775954895637225,
                -1.861764166775557,
                1.900147610571521,
                -1.5327652269319905,
                1.5051564155390302,
                0.9482790460950609
            ]
        },
        {
            "positions": [
                -1.0363237557085014,
                -1.8262757981547453,
                1.880651686262814,
                -1.4723426325853657,
                1.4397092112810526,
                0.7776611655865278
            ]
        },
        {
            "positions": [
                -0.9950520218532801,
                -1.7907874295339334,
                1.8611557619541068,
                -1.4119200382387407,
                1.3742620070230747,
                0.6070432850779945
            ]
        },
        {
            "positions": [
                -0.9537802879980588,
                -1.7552990609131216,
                1.8416598376453999,
                -1.3514974438921157,
                1.3088148027650968,
                0.43642540456946144
            ]
        },
        {
            "positions": [
                -0.9125085541428375,
                -1.71981069229231,
                1.8221639133366927,
                -1.2910748495454907,
                1.243367598507119,
                0.2658075240609282
            ]
        },
        {
            "positions": [
                -0.8712368202876163,
                -1.6843223236714981,
                1.8026679890279855,
                -1.2306522551988657,
                1.1779203942491412,
                0.09518964355239512
            ]
        },
        {
            "positions": [
                -0.8299650864323951,
                -1.6488339550506865,
                1.7831720647192786,
                -1.170229660852241,
                1.1124731899911633,
                -0.0754282369561381
            ]
        },
        {
            "positions": [
                -0.7886933525771738,
                -1.6133455864298747,
                1.7636761404105714,
                -1.109807066505616,
                1.0470259857331854,
                -0.2460461174646711
            ]
        },
        {
            "positions": [
                -0.7474216187219525,
                -1.577857217809063,
                1.7441802161018645,
                -1.0493844721589909,
                0.9815787814752076,
                -0.4166639979732043
            ]
        },
        {
            "positions": [
                -0.7061498848667312,
                -1.5423688491882512,
                1.7246842917931573,
                -0.988961877812366,
                0.9161315772172298,
                -0.5872818784817375
            ]
        },
        {
            "positions": [
                -0.6648781510115099,
                -1.5068804805674394,
                1.7051883674844501,
                -0.928539283465741,
                0.8506843729592519,
                -0.7578997589902707
            ]
        },
        {
            "positions": [
                -0.6236064171562887,
                -1.4713921119466278,
                1.6856924431757432,
                -0.8681166891191161,
                0.7852371687012741,
                -0.9285176394988037
            ]
        },
        {
            "positions": [
                -0.5823346833010674,
                -1.435903743325816,
                1.666196518867036,
                -0.8076940947724911,
                0.7197899644432962,
                -1.099135520007337
            ]
        },
        {
            "positions": [
                -0.5410629494458462,
                -1.400415374705004,
                1.6467005945583288,
                -0.7472715004258662,
                0.6543427601853185,
                -1.2697534005158702
            ]
        },
        {
            "positions": [
                -0.4997912155906249,
                -1.3649270060841925,
                1.627204670249622,
                -0.6868489060792412,
                0.5888955559273406,
                -1.4403712810244034
            ]
        },
        {
            "positions": [
                -0.4585194817354037,
                -1.3294386374633806,
                1.6077087459409147,
                -0.6264263117326163,
                0.5234483516693629,
                -1.6109891615329361
            ]
        },
        {
            "positions": [
                -0.4172477478801824,
                -1.2939502688425688,
                1.5882128216322076,
                -0.5660037173859913,
                0.458001147411385,
                -1.7816070420414698
            ]
        },
        {
            "positions": [
                -0.37597601402496117,
                -1.2584619002217572,
                1.5687168973235006,
                -0.5055811230393665,
                0.3925539431534071,
                -1.9522249225500026
            ]
        },
        {
            "positions": [
                -0.33470428016973985,
                -1.2229735316009454,
                1.5492209730147934,
                -0.4451585286927413,
                0.3271067388954292,
                -2.1228428030585356
            ]
        },
        {
            "positions": [
                -0.29343254631451865,
                -1.1874851629801337,
                1.5297250487060865,
                -0.3847359343461165,
                0.2616595346374515,
                -2.2934606835670692
            ]
        },
        {
            "positions": [
                -0.2521608124592973,
                -1.151996794359322,
                1.5102291243973793,
                -0.3243133399994915,
                0.19621233037947372,
                -2.4640785640756024
            ]
        },
        {
            "positions": [
                -0.18984881874074183,
                -1.1486742084419403,
                1.584878972261791,
                -0.39152234732332314,
                0.18417979880043125,
                -2.5918415463144804
            ]
        },
        {
            "positions": [
                -0.12753682502218638,
                -1.1453516225245588,
                1.6595288201262028,
                -0.4587313546471548,
                0.1721472672213888,
                -2.7196045285533583
            ]
        },
        {
            "positions": [
                -0.06522483130363094,
                -1.1420290366071773,
                1.7341786679906144,
                -0.5259403619709865,
                0.16011473564234635,
                -2.8473675107922363
            ]
        },
        {
            "positions": [
                -0.0029128375850754895,
                -1.138706450689796,
                1.8088285158550261,
                -0.5931493692948181,
                0.14808220406330388,
                -2.975130493031114
            ]
        },
        {
            "positions": [
                0.05939915613347996,
                -1.1353838647724144,
                1.8834783637194379,
                -0.6603583766186498,
                0.13604967248426142,
                -3.102893475269992
            ]
        },
        {
            "positions": [
                0.12171114985203538,
                -1.1320612788550328,
                1.9581282115838496,
                -0.7275673839424814,
                0.12401714090521895,
                -3.23065645750887
            ]
        }
    ]
}