{
    "goal": {
        "global_pose": {
            "orientation": {
                "w": 0.5084816217422485,
                "x": -0.49083608388900757,
                "y": 0.5182115435600281,
                "z": -0.4816462993621826
            },
            "position": {
                "x": 0.5540239810943604,
                "y": 0.030875300988554955,
                "z": 0.16403168439865112
            }
        },
        "name": "move_to_storage_A"
    },
    "id": "RRTConnect_move_to_storage_A_95",
    "joint_names": [
        "shoulder_pan_joint",
        "shoulder_lift_joint",
        "elbow_joint",
        "wrist_1_joint",
        "wrist_2_joint",
        "wrist_3_joint"
    ],
    "metrics": {
        "cart_traj_len": 0.3538633644335009,
        "distance_elbow_joint": 0.45190222606224717,
        "distance_shoulder_lift_joint": 0.2353769893930706,
        "distance_shoulder_pan_joint": 0.4646121023024635,
        "distance_wrist_1_joint": 0.24548264401633058,
        "distance_wrist_2_joint": 1.0932334553625114,
        "distance_wrist_3_joint": 0.10679214230416179,
        "smoothness": 8.881784232165597e-16,
        "time": 0.04351913,
        "traj_len": 1.611644985547619,
        "weighted_distance": 2.037081231425971
    },
    "planner": "RRTConnect",
    "start": {
        "state": {
            "elbow_joint": 1.9715477243005601,
            "shoulder_lift_joint": -1.1394853015351272,
            "shoulder_pan_joint": 0.12281154014795169,
            "wrist_1_joint": -0.7804696478968182,
            "wrist_2_joint": 0.12958648046900423,
            "wrist_3_joint": -3.192491284697111
        }
    },
    "waypoints": [
        {
            "positions": [
                0.12281154014795169,
                -1.1394853015351272,
                1.9715477243005601,
                -0.7804696478968182,
                0.12958648046900423,
                -3.192491284697111
            ]
        },
        {
            "positions": [
                0.056438382676171184,
                -1.1731105857341373,
                2.0361051851665954,
                -0.8155385970420083,
                0.2857626883779344,
                -3.1772352643679453
            ]
        },
        {
            "positions": [
                -0.009934774795609322,
                -1.2067358699331474,
                2.1006626460326308,
                -0.8506075461871984,
                0.4419388962868646,
                -3.161979244038779
            ]
        },
        {
            "positions": [
                -0.07630793226738981,
                -1.2403611541321575,
                2.165220106898666,
                -0.8856764953323883,
                0.5981151041957948,
                -3.146723223709613
            ]
        },
        {
            "positions": [
                -0.14268108973917032,
                -1.2739864383311674,
                2.2297775677647014,
                -0.9207454444775784,
                0.754291312104725,
                -3.1314672033804474
            ]
        },
        {
            "positions": [
                -0.20905424721095084,
                -1.3076117225301775,
                2.2943350286307367,
                -0.9558143936227685,
                0.9104675200136553,
                -3.1162111830512815
            ]
        },
        {
            "positions": [
                -0.2754274046827313,
                -1.3412370067291877,
                2.358892489496772,
                -0.9908833427679586,
                1.0666437279225853,
                -3.1009551627221152
            ]
        },
        {
            "positions": [
                -0.3418005621545118,
                -1.3748622909281978,
                2.4234499503628073,
                -1.0259522919131487,
                1.2228199358315155,
                -3.0856991423929494
            ]
        }
    ]
}