{
    "goal": {
        "global_pose": {
            "orientation": {
                "w": 0.7047431468963623,
                "x": -0.7094548344612122,
                "y": 0.0024358443915843964,
                "z": -0.0022348060738295317
            },
            "position": {
                "x": 0.6094750761985779,
                "y": 0.3671506643295288,
                "z": 0.19426114857196808
            }
        },
        "name": "move_to_magneteinheit_A"
    },
    "id": "RRTConnect_move_to_magneteinheit_A_5",
    "joint_names": [
        "shoulder_pan_joint",
        "shoulder_lift_joint",
        "elbow_joint",
        "wrist_1_joint",
        "wrist_2_joint",
        "wrist_3_joint"
    ],
    "metrics": {
        "cart_traj_len": 3.6035811940924947,
        "distance_elbow_joint": 3.916102397980212,
        "distance_shoulder_lift_joint": 0.46549062787382756,
        "distance_shoulder_pan_joint": 3.313676680071561,
        "distance_wrist_1_joint": 3.478543651616372,
        "distance_wrist_2_joint": 1.7903134495260833,
        "distance_wrist_3_joint": 1.0359386412984135,
        "smoothness": 0.13947922866718387,
        "time": 0.082153329,
        "traj_len": 3.7416661326695713,
        "weighted_distance": 4.619610355008931
    },
    "planner": "RRTConnect",
    "start": {
        "state": {
            "elbow_joint": -1.919618573717145,
            "shoulder_lift_joint": -1.2443395971678275,
            "shoulder_pan_joint": 2.6996025300909787,
            "wrist_1_joint": -1.548550951253194,
            "wrist_2_joint": -1.5709469090946802,
            "wrist_3_joint": 0.4420197732051276
        }
    },
    "waypoints": [
        {
            "positions": [
                2.6996025300909787,
                -1.2443395971678275,
                -1.919618573717145,
                -1.548550951253194,
                -1.5709469090946802,
                0.4420197732051276
            ]
        },
        {
            "positions": [
                2.581774110364918,
                -1.2418772627488297,
                -1.785338247289997,
                -1.492048156322052,
                -1.5063644435254904,
                0.45378486341759167
            ]
        },
        {
            "positions": [
                2.4639456906388575,
                -1.2394149283298321,
                -1.651057920862849,
                -1.4355453613909097,
                -1.4417819779563006,
                0.4655499536300557
            ]
        },
        {
            "positions": [
                2.3461172709127966,
                -1.2369525939108343,
                -1.5167775944357014,
                -1.3790425664597676,
                -1.3771995123871106,
                0.47731504384251977
            ]
        },
        {
            "positions": [
                2.228288851186736,
                -1.2344902594918366,
                -1.3824972680085534,
                -1.3225397715286253,
                -1.3126170468179208,
                0.48908013405498385
            ]
        },
        {
            "positions": [
                2.110460431460675,
                -1.232027925072839,
                -1.2482169415814055,
                -1.2660369765974833,
                -1.248034581248731,
                0.5008452242674479
            ]
        },
        {
            "positions": [
                1.9926320117346146,
                -1.2295655906538412,
                -1.1139366151542576,
                -1.2095341816663412,
                -1.1834521156795412,
                0.5126103144799119
            ]
        },
        {
            "positions": [
                1.8748035920085537,
                -1.2271032562348434,
                -0.9796562887271095,
                -1.153031386735199,
                -1.1188696501103514,
                0.524375404692376
            ]
        },
        {
            "positions": [
                1.756975172282493,
                -1.2246409218158458,
                -0.8453759622999617,
                -1.0965285918040566,
                -1.0542871845411614,
                0.5361404949048401
            ]
        },
        {
            "positions": [
                1.6391467525564323,
                -1.222178587396848,
                -0.711095635872814,
                -1.0400257968729145,
                -0.9897047189719718,
                0.5479055851173041
            ]
        },
        {
            "positions": [
                1.5213183328303714,
                -1.2197162529778502,
                -0.5768153094456658,
                -0.9835230019417723,
                -0.9251222534027819,
                0.5596706753297682
            ]
        },
        {
            "positions": [
                1.4034899131043108,
                -1.2172539185588527,
                -0.4425349830185181,
                -0.9270202070106301,
                -0.8605397878335921,
                0.5714357655422322
            ]
        },
        {
            "positions": [
                1.2856614933782502,
                -1.2147915841398549,
                -0.3082546565913702,
                -0.8705174120794881,
                -0.7959573222644022,
                0.5832008557546963
            ]
        },
        {
            "positions": [
                1.1678330736521894,
                -1.212329249720857,
                -0.17397433016422226,
                -0.8140146171483458,
                -0.7313748566952124,
                0.5949659459671603
            ]
        },
        {
            "positions": [
                1.0500046539261285,
                -1.2098669153018593,
                -0.0396940037370741,
                -0.7575118222172036,
                -0.6667923911260225,
                0.6067310361796244
            ]
        },
        {
            "positions": [
                0.9321762342000681,
                -1.2074045808828617,
                0.09458632269007361,
                -0.7010090272860615,
                -0.6022099255568327,
                0.6184961263920885
            ]
        },
        {
            "positions": [
                0.8143478144740073,
                -1.204942246463864,
                0.22886664911722154,
                -0.6445062323549193,
                -0.5376274599876429,
                0.6302612166045526
            ]
        },
        {
            "positions": [
                0.6965193947479462,
                -1.2024799120448662,
                0.3631469755443695,
                -0.588003437423777,
                -0.47304499441845294,
                0.6420263068170167
            ]
        },
        {
            "positions": [
                0.5786909750218858,
                -1.2000175776258686,
                0.49742730197151697,
                -0.531500642492635,
                -0.4084625288492634,
                0.6537913970294806
            ]
        },
        {
            "positions": [
                0.460862555295825,
                -1.1975552432068708,
                0.6317076283986653,
                -0.4749978475614929,
                -0.34388006328007337,
                0.6655564872419447
            ]
        },
        {
            "positions": [
                0.34303413556976414,
                -1.195092908787873,
                0.7659879548258133,
                -0.4184950526303506,
                -0.2792975977108836,
                0.6773215774544088
            ]
        },
        {
            "positions": [
                0.22520571584370375,
                -1.1926305743688754,
                0.9002682812529608,
                -0.3619922576992085,
                -0.2147151321416938,
                0.6890866676668729
            ]
        },
        {
            "positions": [
                0.1073772961176429,
                -1.1901682399498776,
                1.0345486076801087,
                -0.3054894627680662,
                -0.15013266657250401,
                0.700851757879337
            ]
        },
        {
            "positions": [
                -0.010451123608417934,
                -1.1877059055308798,
                1.1688289341072566,
                -0.24898666783692414,
                -0.08555020100331401,
                0.7126168480918009
            ]
        },
        {
            "positions": [
                -0.12827954333447833,
                -1.1852435711118823,
                1.3031092605344046,
                -0.19248387290578206,
                -0.020967735434124224,
                0.724381938304265
            ]
        },
        {
            "positions": [
                -0.24610796306053923,
                -1.1827812366928845,
                1.4373895869615527,
                -0.13598107797463987,
                0.043614730135065664,
                0.7361470285167291
            ]
        },
        {
            "positions": [
                -0.21265649152235372,
                -1.146060121474804,
                1.488216335807145,
                0.05183472005607084,
                0.027637292835398668,
                0.6687096297906553
            ]
        },
        {
            "positions": [
                -0.17920501998416818,
                -1.1093390062567237,
                1.539043084652737,
                0.23965051808678156,
                0.011659855535731671,
                0.6012722310645815
            ]
        },
        {
            "positions": [
                -0.14575354844598268,
                -1.0726178910386432,
                1.5898698334983292,
                0.4274663161174922,
                -0.004317581763935319,
                0.5338348323385076
            ]
        },
        {
            "positions": [
                -0.11230207690779714,
                -1.0358967758205628,
                1.6406965823439215,
                0.615282114148203,
                -0.020295019063602322,
                0.4663974336124338
            ]
        },
        {
            "positions": [
                -0.07885060536961164,
                -0.9991756606024824,
                1.6915233311895137,
                0.8030979121789137,
                -0.03627245636326932,
                0.39896003488636
            ]
        },
        {
            "positions": [
                -0.04539913383142613,
                -0.962454545384402,
                1.7423500800351057,
                0.9909137102096243,
                -0.0522498936629363,
                0.3315226361602862
            ]
        },
        {
            "positions": [
                -0.011947662293240624,
                -0.9257334301663216,
                1.793176828880698,
                1.1787295082403353,
                -0.0682273309626033,
                0.2640852374342124
            ]
        },
        {
            "positions": [
                0.021503809244944938,
                -0.8890123149482412,
                1.8440035777262902,
                1.3665453062710458,
                -0.0842047682622703,
                0.1966478387081385
            ]
        },
        {
            "positions": [
                0.054955280783130445,
                -0.8522911997301608,
                1.8948303265718824,
                1.5543611043017567,
                -0.1001822055619373,
                0.12921043998206472
            ]
        },
        {
            "positions": [
                0.08840675232131595,
                -0.8155700845120804,
                1.9456570754174745,
                1.7421769023324671,
                -0.1161596428616043,
                0.061773041255990924
            ]
        },
        {
            "positions": [
                0.12185822385950149,
                -0.7788489692939999,
                1.9964838242630667,
                1.929992700363178,
                -0.1321370801612713,
                -0.0056643574700828495
            ]
        }
    ]
}{
    "goal": {
        "global_pose": {
            "orientation": {
                "w": 0.7047431468963623,
                "x": -0.7094548344612122,
                "y": 0.0024358443915843964,
                "z": -0.0022348060738295317
            },
            "position": {
                "x": 0.6094750761985779,
                "y": 0.3671506643295288,
                "z": 0.19426114857196808
            }
        },
        "name": "move_to_magneteinheit_A"
    },
    "id": "RRTConnect_move_to_magneteinheit_A_5",
    "joint_names": [
        "shoulder_pan_joint",
        "shoulder_lift_joint",
        "elbow_joint",
        "wrist_1_joint",
        "wrist_2_joint",
        "wrist_3_joint"
    ],
    "metrics": {
        "cart_traj_len": 1.3893470873930032,
        "distance_elbow_joint": 0.8360688911153307,
        "distance_shoulder_lift_joint": 0.9089406468706405,
        "distance_shoulder_pan_joint": 1.345750973722721,
        "distance_wrist_1_joint": 0.7307086744750664,
        "distance_wrist_2_joint": 2.9363968733363492,
        "distance_wrist_3_joint": 4.231426772738915,
        "smoothness": 0.1971551221897885,
        "time": 0.09602228300000001,
        "traj_len": 3.3150102310941696,
        "weighted_distance": 4.80824832195138
    },
    "planner": "RRTConnect",
    "start": {
        "state": {
            "elbow_joint": 1.919643534880228,
            "shoulder_lift_joint": -1.8972525353963687,
            "shoulder_pan_joint": -1.1188672234189438,
            "wrist_1_joint": -1.5931878212786155,
            "wrist_2_joint": 1.5706036197970081,
            "wrist_3_joint": 1.118896926603594
        }
    },
    "waypoints": [
        {
            "positions": [
                -1.1188672234189438,
                -1.8972525353963687,
                1.919643534880228,
                -1.5931878212786155,
                1.5706036197970081,
                1.118896926603594
            ]
        },
        {
            "positions": [
                -1.0539162404700821,
                -1.8550967604979434,
                1.8971565470793827,
                -1.576628283831199,
                1.4509800574363518,
                0.9997317306126953
            ]
        },
        {
            "positions": [
                -0.9889652575212203,
                -1.8129409855995182,
                1.8746695592785376,
                -1.5600687463837823,
                1.3313564950756955,
                0.8805665346217966
            ]
        },
        {
            "positions": [
                -0.9240142745723586,
                -1.7707852107010928,
                1.8521825714776923,
                -1.5435092089363658,
                1.2117329327150395,
                0.761401338630898
            ]
        },
        {
            "positions": [
                -0.8590632916234968,
                -1.7286294358026675,
                1.829695583676847,
                -1.5269496714889492,
                1.0921093703543832,
                0.6422361426399993
            ]
        },
        {
            "positions": [
                -0.7941123086746351,
                -1.6864736609042423,
                1.8072085958760016,
                -1.5103901340415327,
                0.9724858079937269,
                0.5230709466491006
            ]
        },
        {
            "positions": [
                -0.7291613257257734,
                -1.644317886005817,
                1.7847216080751565,
                -1.493830596594116,
                0.8528622456330706,
                0.4039057506582019
            ]
        },
        {
            "positions": [
                -0.6642103427769117,
                -1.6021621111073916,
                1.762234620274311,
                -1.4772710591466995,
                0.7332386832724144,
                0.2847405546673033
            ]
        },
        {
            "positions": [
                -0.5992593598280499,
                -1.5600063362089664,
                1.7397476324734658,
                -1.460711521699283,
                0.6136151209117581,
                0.1655753586764046
            ]
        },
        {
            "positions": [
                -0.5343083768791882,
                -1.517850561310541,
                1.7172606446726206,
                -1.4441519842518664,
                0.4939915585511019,
                0.046410162685505796
            ]
        },
        {
            "positions": [
                -0.4693573939303264,
                -1.4756947864121157,
                1.6947736568717753,
                -1.4275924468044499,
                0.3743679961904456,
                -0.07275503330539279
            ]
        },
        {
            "positions": [
                -0.4044064109814647,
                -1.4335390115136906,
                1.67228666907093,
                -1.4110329093570333,
                0.2547444338297893,
                -0.1919202292962916
            ]
        },
        {
            "positions": [
                -0.33945542803260287,
                -1.3913832366152652,
                1.6497996812700846,
                -1.3944733719096167,
                0.13512087146913299,
                -0.3110854252871902
            ]
        },
        {
            "positions": [
                -0.2745044450837413,
                -1.34922746171684,
                1.6273126934692395,
                -1.3779138344622002,
                0.015497309108476909,
                -0.4302506212780888
            ]
        },
        {
            "positions": [
                -0.20955346213487946,
                -1.3070716868184147,
                1.604825705668394,
                -1.3613542970147836,
                -0.10412625325217939,
                -0.5494158172689874
            ]
        },
        {
            "positions": [
                -0.14460247918601776,
                -1.2649159119199895,
                1.582338717867549,
                -1.344794759567367,
                -0.2237498156128357,
                -0.6685810132598862
            ]
        },
        {
            "positions": [
                -0.07965149623715595,
                -1.222760137021564,
                1.5598517300667036,
                -1.3282352221199505,
                -0.343373377973492,
                -0.7877462092507848
            ]
        },
        {
            "positions": [
                -0.01470051328829422,
                -1.1806043621231388,
                1.5373647422658583,
                -1.311675684672534,
                -0.4629969403341484,
                -0.9069114052416835
            ]
        },
        {
            "positions": [
                0.032705109741357784,
                -1.1528873451415207,
                1.5497670735888391,
                -1.2730621219934273,
                -0.5010382969252752,
                -1.1111132448827408
            ]
        },
        {
            "positions": [
                0.08011073277100979,
                -1.1251703281599026,
                1.56216940491182,
                -1.2344485593143208,
                -0.539079653516402,
                -1.315315084523798
            ]
        },
        {
            "positions": [
                0.12751635580066178,
                -1.0974533111782845,
                1.574571736234801,
                -1.1958349966352144,
                -0.5771210101075288,
                -1.5195169241648552
            ]
        },
        {
            "positions": [
                0.1749219788303138,
                -1.0697362941966664,
                1.586974067557782,
                -1.1572214339561078,
                -0.6151623666986556,
                -1.7237187638059126
            ]
        },
        {
            "positions": [
                0.16842675739613094,
                -1.0799143449055337,
                1.6374966642089115,
                -1.120378648062038,
                -0.5213335058435699,
                -1.8973201490970886
            ]
        },
        {
            "positions": [
                0.1619315359619481,
                -1.0900923956144009,
                1.6880192608600413,
                -1.083535862167968,
                -0.427504644988484,
                -2.0709215343882645
            ]
        },
        {
            "positions": [
                0.15543631452776527,
                -1.1002704463232682,
                1.7385418575111709,
                -1.0466930762738982,
                -0.33367578413339816,
                -2.244522919679441
            ]
        },
        {
            "positions": [
                0.14894109309358242,
                -1.1104484970321353,
                1.7890644541623004,
                -1.0098502903798283,
                -0.23984692327831236,
                -2.4181243049706165
            ]
        },
        {
            "positions": [
                0.14244587165939956,
                -1.1206265477410027,
                1.8395870508134302,
                -0.9730075044857586,
                -0.14601806242322657,
                -2.591725690261793
            ]
        },
        {
            "positions": [
                0.13595065022521674,
                -1.13080459844987,
                1.8901096474645598,
                -0.9361647185916888,
                -0.052189201568140664,
                -2.765327075552969
            ]
        },
        {
            "positions": [
                0.1294554287910339,
                -1.1409826491587371,
                1.9406322441156894,
                -0.899321932697619,
                0.04163965928694513,
                -2.938928460844145
            ]
        },
        {
            "positions": [
                0.12296020735685104,
                -1.1511606998676045,
                1.9911548407668191,
                -0.8624791468035491,
                0.1354685201420309,
                -3.112529846135321
            ]
        }
    ]
}