{
    "goal": {
        "global_pose": {
            "orientation": {
                "w": 0.7047431468963623,
                "x": -0.7094548344612122,
                "y": 0.0024358443915843964,
                "z": -0.0022348060738295317
            },
            "position": {
                "x": 0.6094750761985779,
                "y": 0.3671506643295288,
                "z": 0.19426114857196808
            }
        },
        "name": "move_to_magneteinheit_A"
    },
    "id": "RRTConnect_move_to_magneteinheit_A_34",
    "joint_names": [
        "shoulder_pan_joint",
        "shoulder_lift_joint",
        "elbow_joint",
        "wrist_1_joint",
        "wrist_2_joint",
        "wrist_3_joint"
    ],
    "metrics": {
        "cart_traj_len": 3.603538162372617,
        "distance_elbow_joint": 3.915819965082256,
        "distance_shoulder_lift_joint": 1.1640675474977464,
        "distance_shoulder_pan_joint": 3.1016184797687103,
        "distance_wrist_1_joint": 3.4852756949754835,
        "distance_wrist_2_joint": 2.0191677956764345,
        "distance_wrist_3_joint": 0.910735267590632,
        "smoothness": 0.3399016296280021,
        "time": 0.125414509,
        "traj_len": 3.8205607900661986,
        "weighted_distance": 4.6821574916297335
    },
    "planner": "RRTConnect",
    "start": {
        "state": {
            "elbow_joint": -1.919618573717145,
            "shoulder_lift_joint": -1.2443395971678275,
            "shoulder_pan_joint": 2.6996025300909787,
            "wrist_1_joint": -1.548550951253194,
            "wrist_2_joint": -1.5709469090946802,
            "wrist_3_joint": 0.4420197732051276
        }
    },
    "waypoints": [
        {
            "positions": [
                2.6996025300909787,
                -1.2443395971678275,
                -1.919618573717145,
                -1.548550951253194,
                -1.5709469090946802,
                0.4420197732051276
            ]
        },
        {
            "positions": [
                2.5656242923739696,
                -1.2711970088461932,
                -1.8657060123449187,
                -1.4863874351411355,
                -1.5218595548329261,
                0.40053506402788375
            ]
        },
        {
            "positions": [
                2.4316460546569605,
                -1.298054420524559,
                -1.8117934509726927,
                -1.4242239190290769,
                -1.472772200571172,
                0.35905035485063985
            ]
        },
        {
            "positions": [
                2.2976678169399514,
                -1.3249118322029245,
                -1.7578808896004665,
                -1.3620604029170182,
                -1.4236848463094178,
                0.317565645673396
            ]
        },
        {
            "positions": [
                2.1636895792229422,
                -1.3517692438812903,
                -1.7039683282282403,
                -1.2998968868049596,
                -1.3745974920476638,
                0.2760809364961522
            ]
        },
        {
            "positions": [
                2.0297113415059327,
                -1.378626655559656,
                -1.6500557668560143,
                -1.237733370692901,
                -1.3255101377859098,
                0.23459622731890828
            ]
        },
        {
            "positions": [
                1.8957331037889238,
                -1.4054840672380218,
                -1.596143205483788,
                -1.1755698545808424,
                -1.2764227835241555,
                0.1931115181416644
            ]
        },
        {
            "positions": [
                1.7617548660719147,
                -1.4323414789163873,
                -1.542230644111562,
                -1.1134063384687838,
                -1.2273354292624017,
                0.1516268089644206
            ]
        },
        {
            "positions": [
                1.6277766283549056,
                -1.459198890594753,
                -1.4883180827393359,
                -1.0512428223567252,
                -1.1782480750006474,
                0.1101420997871767
            ]
        },
        {
            "positions": [
                1.4937983906378964,
                -1.4860563022731188,
                -1.4344055213671099,
                -0.9890793062446666,
                -1.1291607207388934,
                0.06865739060993287
            ]
        },
        {
            "positions": [
                1.359820152920887,
                -1.5129137139514846,
                -1.3804929599948834,
                -0.9269157901326079,
                -1.0800733664771394,
                0.027172681432688972
            ]
        },
        {
            "positions": [
                1.225841915203878,
                -1.53977112562985,
                -1.3265803986226574,
                -0.8647522740205493,
                -1.030986012215385,
                -0.014312027744554867
            ]
        },
        {
            "positions": [
                1.0918636774868689,
                -1.5666285373082158,
                -1.2726678372504314,
                -0.8025887579084907,
                -0.9818986579536311,
                -0.05579673692179876
            ]
        },
        {
            "positions": [
                0.9578854397698598,
                -1.5934859489865816,
                -1.2187552758782052,
                -0.7404252417964321,
                -0.932811303691877,
                -0.0972814460990426
            ]
        },
        {
            "positions": [
                0.9080052119602364,
                -1.560097348434354,
                -1.0862527446633479,
                -0.6306919753056957,
                -0.8832132414748721,
                -0.08688347411866529
            ]
        },
        {
            "positions": [
                0.858124984150613,
                -1.5267087478821264,
                -0.9537502134484904,
                -0.5209587088149593,
                -0.8336151792578672,
                -0.07648550213828798
            ]
        },
        {
            "positions": [
                0.8082447563409896,
                -1.493320147329899,
                -0.821247682233633,
                -0.411225442324223,
                -0.7840171170408624,
                -0.06608753015791066
            ]
        },
        {
            "positions": [
                0.7583645285313662,
                -1.4599315467776712,
                -0.6887451510187756,
                -0.30149217583348653,
                -0.7344190548238575,
                -0.055689558177533356
            ]
        },
        {
            "positions": [
                0.7084843007217427,
                -1.4265429462254438,
                -0.5562426198039182,
                -0.1917589093427502,
                -0.6848209926068526,
                -0.04529158619715604
            ]
        },
        {
            "positions": [
                0.6586040729121194,
                -1.3931543456732163,
                -0.42374008858906087,
                -0.08202564285201386,
                -0.6352229303898478,
                -0.03489361421677874
            ]
        },
        {
            "positions": [
                0.6087238451024959,
                -1.3597657451209888,
                -0.2912375573742034,
                0.02770762363872259,
                -0.5856248681728429,
                -0.024495642236401424
            ]
        },
        {
            "positions": [
                0.5588436172928726,
                -1.326377144568761,
                -0.1587350261593461,
                0.13744089012945904,
                -0.536026805955838,
                -0.014097670256024111
            ]
        },
        {
            "positions": [
                0.508963389483249,
                -1.2929885440165336,
                -0.026232494944488538,
                0.24717415662019548,
                -0.486428743738833,
                -0.0036996982756467844
            ]
        },
        {
            "positions": [
                0.45908316167362573,
                -1.259599943464306,
                0.1062700362703688,
                0.3569074231109317,
                -0.43683068152182813,
                0.006698273704730515
            ]
        },
        {
            "positions": [
                0.4092029338640023,
                -1.2262113429120785,
                0.23877256748522613,
                0.46664068960166816,
                -0.3872326193048232,
                0.017096245685107828
            ]
        },
        {
            "positions": [
                0.3593227060543789,
                -1.192822742359851,
                0.37127509870008346,
                0.5763739560924044,
                -0.3376345570878184,
                0.027494217665485127
            ]
        },
        {
            "positions": [
                0.30944247824475546,
                -1.1594341418076233,
                0.503777629914941,
                0.686107222583141,
                -0.2880364948708134,
                0.03789218964586247
            ]
        },
        {
            "positions": [
                0.25956225043513204,
                -1.1260455412553958,
                0.6362801611297983,
                0.7958404890738773,
                -0.2384384326538086,
                0.04829016162623975
            ]
        },
        {
            "positions": [
                0.20968202262550872,
                -1.092656940703168,
                0.7687826923446555,
                0.9055737555646135,
                -0.18884037043680368,
                0.058688133606617066
            ]
        },
        {
            "positions": [
                0.1598017948158852,
                -1.0592683401509406,
                0.901285223559513,
                1.0153070220553502,
                -0.13924230821979877,
                0.06908610558699438
            ]
        },
        {
            "positions": [
                0.10992156700626188,
                -1.0258797395987131,
                1.0337877547743706,
                1.1250402885460864,
                -0.08964424600279386,
                0.07948407756737169
            ]
        },
        {
            "positions": [
                0.060041339196638344,
                -0.9924911390464856,
                1.1662902859892281,
                1.234773555036823,
                -0.04004618378578895,
                0.08988204954774903
            ]
        },
        {
            "positions": [
                0.010161111387015032,
                -0.959102538494258,
                1.2987928172040852,
                1.344506821527559,
                0.009551878431215965,
                0.10028002152812632
            ]
        },
        {
            "positions": [
                -0.03971911642260839,
                -0.9257139379420305,
                1.4312953484189428,
                1.4542400880182955,
                0.05914994064822077,
                0.11067799350850363
            ]
        },
        {
            "positions": [
                -0.08959934423223193,
                -0.8923253373898028,
                1.5637978796338003,
                1.563973354509032,
                0.10874800286522568,
                0.12107596548888094
            ]
        },
        {
            "positions": [
                -0.1394795720418553,
                -0.8589367368375753,
                1.6963004108486577,
                1.6737066209997684,
                0.1583460650822307,
                0.13147393746925826
            ]
        },
        {
            "positions": [
                -0.07384547763288701,
                -0.8388437409550789,
                1.771275655977771,
                1.7394611516803986,
                0.08587735970734989,
                0.09580427128971791
            ]
        },
        {
            "positions": [
                -0.008211383223918733,
                -0.8187507450725823,
                1.8462509011068842,
                1.8052156823610288,
                0.013408654332469072,
                0.06013460511017757
            ]
        },
        {
            "positions": [
                0.057422711185049546,
                -0.7986577491900857,
                1.9212261462359974,
                1.870970213041659,
                -0.05906005104241174,
                0.024464938930637226
            ]
        },
        {
            "positions": [
                0.12305680559401781,
                -0.7785647533075892,
                1.9962013913651107,
                1.9367247437222892,
                -0.13152875641729253,
                -0.011204727248903125
            ]
        }
    ]
}{
    "goal": {
        "global_pose": {
            "orientation": {
                "w": 0.7047431468963623,
                "x": -0.7094548344612122,
                "y": 0.0024358443915843964,
                "z": -0.0022348060738295317
            },
            "position": {
                "x": 0.6094750761985779,
                "y": 0.3671506643295288,
                "z": 0.19426114857196808
            }
        },
        "name": "move_to_magneteinheit_A"
    },
    "id": "RRTConnect_move_to_magneteinheit_A_34",
    "joint_names": [
        "shoulder_pan_joint",
        "shoulder_lift_joint",
        "elbow_joint",
        "wrist_1_joint",
        "wrist_2_joint",
        "wrist_3_joint"
    ],
    "metrics": {
        "cart_traj_len": 1.6819294170898704,
        "distance_elbow_joint": 0.4435206813232693,
        "distance_shoulder_lift_joint": 0.8968009362460614,
        "distance_shoulder_pan_joint": 2.0452075728302233,
        "distance_wrist_1_joint": 0.7367661181120698,
        "distance_wrist_2_joint": 1.4477412219660362,
        "distance_wrist_3_joint": 4.246950882502339,
        "smoothness": 0.36934071924178064,
        "time": 0.06695908,
        "traj_len": 3.1332072087527183,
        "weighted_distance": 4.527184170990042
    },
    "planner": "RRTConnect",
    "start": {
        "state": {
            "elbow_joint": 1.919643534880228,
            "shoulder_lift_joint": -1.8972525353963687,
            "shoulder_pan_joint": -1.1188672234189438,
            "wrist_1_joint": -1.5931878212786155,
            "wrist_2_joint": 1.5706036197970081,
            "wrist_3_joint": 1.118896926603594
        }
    },
    "waypoints": [
        {
            "positions": [
                -1.1188672234189438,
                -1.8972525353963687,
                1.919643534880228,
                -1.5931878212786155,
                1.5706036197970081,
                1.118896926603594
            ]
        },
        {
            "positions": [
                -1.1990984274050043,
                -1.9118380453249932,
                1.8819113401790246,
                -1.5677444399256193,
                1.5201390734342697,
                1.000307353837054
            ]
        },
        {
            "positions": [
                -1.2793296313910647,
                -1.9264235552536177,
                1.8441791454778211,
                -1.5423010585726233,
                1.469674527071531,
                0.8817177810705139
            ]
        },
        {
            "positions": [
                -1.3595608353771251,
                -1.941009065182242,
                1.8064469507766174,
                -1.5168576772196272,
                1.4192099807087926,
                0.7631282083039739
            ]
        },
        {
            "positions": [
                -1.4397920393631856,
                -1.9555945751108665,
                1.768714756075414,
                -1.4914142958666312,
                1.368745434346054,
                0.6445386355374338
            ]
        },
        {
            "positions": [
                -1.520023243349246,
                -1.970180085039491,
                1.7309825613742105,
                -1.465970914513635,
                1.3182808879833154,
                0.5259490627708938
            ]
        },
        {
            "positions": [
                -1.4417350741635355,
                -1.9309480190107797,
                1.7431187379369368,
                -1.436944761592345,
                1.261356197976061,
                0.3519489190247206
            ]
        },
        {
            "positions": [
                -1.3634469049778248,
                -1.8917159529820682,
                1.755254914499663,
                -1.4079186086710551,
                1.2044315079688066,
                0.1779487752785473
            ]
        },
        {
            "positions": [
                -1.2851587357921144,
                -1.8524838869533569,
                1.7673910910623893,
                -1.378892455749765,
                1.1475068179615522,
                0.003948631532374014
            ]
        },
        {
            "positions": [
                -1.206870566606404,
                -1.8132518209246455,
                1.7795272676251155,
                -1.3498663028284752,
                1.0905821279542975,
                -0.17005151221379922
            ]
        },
        {
            "positions": [
                -1.1285823974206934,
                -1.7740197548959342,
                1.7916634441878418,
                -1.3208401499071851,
                1.0336574379470431,
                -0.34405165595997245
            ]
        },
        {
            "positions": [
                -1.050294228234983,
                -1.7347876888672227,
                1.803799620750568,
                -1.2918139969858953,
                0.9767327479397887,
                -0.5180517997061458
            ]
        },
        {
            "positions": [
                -0.9720060590492723,
                -1.6955556228385114,
                1.8159357973132944,
                -1.2627878440646052,
                0.9198080579325343,
                -0.6920519434523189
            ]
        },
        {
            "positions": [
                -0.8937178898635618,
                -1.6563235568098,
                1.8280719738760207,
                -1.2337616911433154,
                0.8628833679252798,
                -0.8660520871984922
            ]
        },
        {
            "positions": [
                -0.8154297206778512,
                -1.6170914907810885,
                1.8402081504387469,
                -1.2047355382220253,
                0.8059586779180253,
                -1.0400522309446656
            ]
        },
        {
            "positions": [
                -0.7371415514921408,
                -1.5778594247523772,
                1.8523443270014732,
                -1.1757093853007352,
                0.7490339879107708,
                -1.2140523746908387
            ]
        },
        {
            "positions": [
                -0.6588533823064301,
                -1.5386273587236658,
                1.8644805035641994,
                -1.1466832323794454,
                0.6921092979035164,
                -1.3880525184370123
            ]
        },
        {
            "positions": [
                -0.5805652131207197,
                -1.4993952926949545,
                1.8766166801269257,
                -1.1176570794581555,
                0.635184607896262,
                -1.5620526621831854
            ]
        },
        {
            "positions": [
                -0.502277043935009,
                -1.460163226666243,
                1.8887528566896519,
                -1.0886309265368654,
                0.5782599178890074,
                -1.736052805929359
            ]
        },
        {
            "positions": [
                -0.4239888747492986,
                -1.4209311606375317,
                1.9008890332523782,
                -1.0596047736155754,
                0.521335227881753,
                -1.9100529496755316
            ]
        },
        {
            "positions": [
                -0.3457007055635881,
                -1.3816990946088201,
                1.9130252098151046,
                -1.0305786206942855,
                0.4644105378744985,
                -2.084053093421705
            ]
        },
        {
            "positions": [
                -0.26741253637787765,
                -1.342467028580109,
                1.9251613863778307,
                -1.0015524677729954,
                0.40748584786724407,
                -2.2580532371678785
            ]
        },
        {
            "positions": [
                -0.18912436719216696,
                -1.3032349625513975,
                1.937297562940557,
                -0.9725263148517056,
                0.35056115785998954,
                -2.432053380914052
            ]
        },
        {
            "positions": [
                -0.1108361980064565,
                -1.2640028965226862,
                1.9494337395032832,
                -0.9435001619304156,
                0.29363646785273523,
                -2.6060535246602248
            ]
        },
        {
            "positions": [
                -0.03254802882074603,
                -1.2247708304939748,
                1.9615699160660096,
                -0.9144740090091256,
                0.2367117778454806,
                -2.7800536684063983
            ]
        },
        {
            "positions": [
                0.04574014036496443,
                -1.1855387644652633,
                1.9737060926287358,
                -0.8854478560878356,
                0.17978708783822617,
                -2.954053812152571
            ]
        },
        {
            "positions": [
                0.12402830955067513,
                -1.146306698436552,
                1.9858422691914621,
                -0.8564217031665456,
                0.1228623978309717,
                -3.1280539558987446
            ]
        }
    ]
}