{
    "goal": {
        "global_pose": {
            "orientation": {
                "w": 0.7047431468963623,
                "x": -0.7094548344612122,
                "y": 0.0024358443915843964,
                "z": -0.0022348060738295317
            },
            "position": {
                "x": 0.6094750761985779,
                "y": 0.3671506643295288,
                "z": 0.19426114857196808
            }
        },
        "name": "move_to_magneteinheit_A"
    },
    "id": "RRTConnect_move_to_magneteinheit_A_8",
    "joint_names": [
        "shoulder_pan_joint",
        "shoulder_lift_joint",
        "elbow_joint",
        "wrist_1_joint",
        "wrist_2_joint",
        "wrist_3_joint"
    ],
    "metrics": {
        "cart_traj_len": 3.87813917091853,
        "distance_elbow_joint": 3.905481164058971,
        "distance_shoulder_lift_joint": 0.8581928604973112,
        "distance_shoulder_pan_joint": 4.347818879875627,
        "distance_wrist_1_joint": 0.8838479833591032,
        "distance_wrist_2_joint": 3.1602175750521058,
        "distance_wrist_3_joint": 3.1737818810283493,
        "smoothness": 0.4641903030524866,
        "time": 0.059482336999999996,
        "traj_len": 4.040957849801389,
        "weighted_distance": 5.169232986076308
    },
    "planner": "RRTConnect",
    "start": {
        "state": {
            "elbow_joint": -1.919618573717145,
            "shoulder_lift_joint": -1.2443395971678275,
            "shoulder_pan_joint": 2.6996025300909787,
            "wrist_1_joint": -1.548550951253194,
            "wrist_2_joint": -1.5709469090946802,
            "wrist_3_joint": 0.4420197732051276
        }
    },
    "waypoints": [
        {
            "positions": [
                2.6996025300909787,
                -1.2443395971678275,
                -1.919618573717145,
                -1.548550951253194,
                -1.5709469090946802,
                0.4420197732051276
            ]
        },
        {
            "positions": [
                2.5946695089636105,
                -1.255879288918656,
                -1.8359580135373432,
                -1.5243748314603771,
                -1.49721101605538,
                0.5309808048281945
            ]
        },
        {
            "positions": [
                2.489736487836242,
                -1.2674189806694847,
                -1.7522974533575413,
                -1.5001987116675601,
                -1.4234751230160798,
                0.6199418364512614
            ]
        },
        {
            "positions": [
                2.384803466708873,
                -1.278958672420313,
                -1.6686368931777396,
                -1.4760225918747432,
                -1.3497392299767794,
                0.7089028680743283
            ]
        },
        {
            "positions": [
                2.279870445581505,
                -1.2904983641711416,
                -1.5849763329979376,
                -1.4518464720819262,
                -1.2760033369374792,
                0.7978638996973952
            ]
        },
        {
            "positions": [
                2.1749374244541366,
                -1.3020380559219702,
                -1.5013157728181359,
                -1.427670352289109,
                -1.202267443898179,
                0.8868249313204621
            ]
        },
        {
            "positions": [
                2.070004403326768,
                -1.3135777476727988,
                -1.417655212638334,
                -1.403494232496292,
                -1.128531550858879,
                0.975785962943529
            ]
        },
        {
            "positions": [
                1.9650713821993995,
                -1.3251174394236274,
                -1.3339946524585322,
                -1.379318112703475,
                -1.0547956578195787,
                1.064746994566596
            ]
        },
        {
            "positions": [
                1.860138361072031,
                -1.336657131174456,
                -1.2503340922787305,
                -1.355141992910658,
                -0.9810597647802785,
                1.1537080261896628
            ]
        },
        {
            "positions": [
                1.7552053399446628,
                -1.3481968229252843,
                -1.1666735320989288,
                -1.330965873117841,
                -0.9073238717409784,
                1.2426690578127295
            ]
        },
        {
            "positions": [
                1.650272318817294,
                -1.359736514676113,
                -1.0830129719191266,
                -1.3067897533250241,
                -0.8335879787016781,
                1.3316300894357966
            ]
        },
        {
            "positions": [
                1.5453392976899258,
                -1.3712762064269415,
                -0.999352411739325,
                -1.2826136335322071,
                -0.7598520856623779,
                1.4205911210588633
            ]
        },
        {
            "positions": [
                1.4404062765625572,
                -1.38281589817777,
                -0.9156918515595232,
                -1.2584375137393902,
                -0.6861161926230777,
                1.5095521526819304
            ]
        },
        {
            "positions": [
                1.335473255435189,
                -1.3943555899285986,
                -0.8320312913797214,
                -1.2342613939465732,
                -0.6123802995837775,
                1.5985131843049971
            ]
        },
        {
            "positions": [
                1.2305402343078202,
                -1.405895281679427,
                -0.7483707311999195,
                -1.2100852741537562,
                -0.5386444065444773,
                1.6874742159280642
            ]
        },
        {
            "positions": [
                1.125607213180452,
                -1.4174349734302556,
                -0.6647101710201178,
                -1.1859091543609392,
                -0.46490851350517715,
                1.776435247551131
            ]
        },
        {
            "positions": [
                1.0206741920530833,
                -1.4289746651810842,
                -0.5810496108403158,
                -1.161733034568122,
                -0.39117262046587675,
                1.865396279174198
            ]
        },
        {
            "positions": [
                0.915741170925715,
                -1.4405143569319128,
                -0.4973890506605141,
                -1.1375569147753053,
                -0.3174367274265768,
                1.9543573107972647
            ]
        },
        {
            "positions": [
                0.8108081497983466,
                -1.4520540486827413,
                -0.41372849048071236,
                -1.113380794982488,
                -0.24370083438727663,
                2.0433183424203314
            ]
        },
        {
            "positions": [
                0.7058751286709779,
                -1.46359374043357,
                -0.3300679303009102,
                -1.0892046751896711,
                -0.16996494134797624,
                2.1322793740433985
            ]
        },
        {
            "positions": [
                0.6009421075436094,
                -1.4751334321843983,
                -0.24640737012110847,
                -1.0650285553968541,
                -0.09622904830867607,
                2.2212404056664656
            ]
        },
        {
            "positions": [
                0.4960090864162412,
                -1.4866731239352269,
                -0.16274680994130675,
                -1.0408524356040372,
                -0.022493155269375897,
                2.3102014372895323
            ]
        },
        {
            "positions": [
                0.39107606528887295,
                -1.4982128156860555,
                -0.07908624976150502,
                -1.0166763158112202,
                0.051242737769924274,
                2.399162468912599
            ]
        },
        {
            "positions": [
                0.2861430441615038,
                -1.509752507436884,
                0.004574310418296923,
                -0.9925001960184031,
                0.12497863080922467,
                2.488123500535666
            ]
        },
        {
            "positions": [
                0.18121002303413558,
                -1.5212921991877126,
                0.08823487059809865,
                -0.9683240762255861,
                0.19871452384852484,
                2.5770845321587332
            ]
        },
        {
            "positions": [
                0.07627700190676734,
                -1.532831890938541,
                0.17189543077790037,
                -0.9441479564327693,
                0.272450416887825,
                2.6660455637818
            ]
        },
        {
            "positions": [
                -0.028656019220600903,
                -1.5443715826893696,
                0.2555559909577021,
                -0.9199718366399523,
                0.3461863099271252,
                2.7550065954048666
            ]
        },
        {
            "positions": [
                -0.1335890403479696,
                -1.5559112744401982,
                0.33921655113750426,
                -0.8957957168471352,
                0.4199222029664256,
                2.8439676270279337
            ]
        },
        {
            "positions": [
                -0.23852206147533828,
                -1.5674509661910268,
                0.422877111317306,
                -0.8716195970543182,
                0.4936580960057255,
                2.932928658651001
            ]
        },
        {
            "positions": [
                -0.3434550826027065,
                -1.5789906579418553,
                0.5065376714971077,
                -0.8474434772615013,
                0.5673939890450259,
                3.0218896902740675
            ]
        },
        {
            "positions": [
                -0.44838810373007476,
                -1.590530349692684,
                0.5901982316769094,
                -0.8232673574686843,
                0.6411298820843259,
                3.110850721897134
            ]
        },
        {
            "positions": [
                -0.5533211248574434,
                -1.6020700414435125,
                0.6738587918567116,
                -0.7990912376758672,
                0.7148657751236263,
                3.1998117535202013
            ]
        },
        {
            "positions": [
                -0.6582541459848121,
                -1.6136097331943409,
                0.7575193520365133,
                -0.7749151178830502,
                0.7886016681629267,
                3.2887727851432684
            ]
        },
        {
            "positions": [
                -0.7631871671121804,
                -1.6251494249451695,
                0.8411799122163149,
                -0.7507389980902333,
                0.8623375612022268,
                3.377733816766335
            ]
        },
        {
            "positions": [
                -0.6648505912596839,
                -1.5721068657540618,
                0.9683668764524829,
                -0.7602985570009158,
                0.7815672162294268,
                3.3512818348255418
            ]
        },
        {
            "positions": [
                -0.5665140154071876,
                -1.519064306562954,
                1.0955538406886507,
                -0.7698581159115983,
                0.7007968712566268,
                3.324829852884748
            ]
        },
        {
            "positions": [
                -0.46817743955469115,
                -1.4660217473718464,
                1.2227408049248187,
                -0.7794176748222807,
                0.6200265262838269,
                3.2983778709439546
            ]
        },
        {
            "positions": [
                -0.36984086370219477,
                -1.4129791881807388,
                1.3499277691609866,
                -0.7889772337329632,
                0.5392561813110269,
                3.271925889003161
            ]
        },
        {
            "positions": [
                -0.2715042878496983,
                -1.3599366289896309,
                1.4771147333971546,
                -0.7985367926436456,
                0.4584858363382269,
                3.2454739070623675
            ]
        },
        {
            "positions": [
                -0.17316771199720193,
                -1.3068940697985232,
                1.6043016976333224,
                -0.8080963515543281,
                0.377715491365427,
                3.2190219251215737
            ]
        },
        {
            "positions": [
                -0.07483113614470549,
                -1.2538515106074155,
                1.7314886618694905,
                -0.8176559104650106,
                0.2969451463926269,
                3.1925699431807804
            ]
        },
        {
            "positions": [
                0.023505439707790843,
                -1.2008089514163078,
                1.8586756261056583,
                -0.8272154693756931,
                0.21617480141982703,
                3.166117961239987
            ]
        },
        {
            "positions": [
                0.12184201556028729,
                -1.1477663922252002,
                1.9858625903418263,
                -0.8367750282863756,
                0.135404456447027,
                3.139665979299193
            ]
        }
    ]
}{
    "goal": {
        "global_pose": {
            "orientation": {
                "w": 0.7047431468963623,
                "x": -0.7094548344612122,
                "y": 0.0024358443915843964,
                "z": -0.0022348060738295317
            },
            "position": {
                "x": 0.6094750761985779,
                "y": 0.3671506643295288,
                "z": 0.19426114857196808
            }
        },
        "name": "move_to_magneteinheit_A"
    },
    "id": "RRTConnect_move_to_magneteinheit_A_8",
    "joint_names": [
        "shoulder_pan_joint",
        "shoulder_lift_joint",
        "elbow_joint",
        "wrist_1_joint",
        "wrist_2_joint",
        "wrist_3_joint"
    ],
    "metrics": {
        "cart_traj_len": 1.1876424298599695,
        "distance_elbow_joint": 0.0658357772788476,
        "distance_shoulder_lift_joint": 0.7508583714038144,
        "distance_shoulder_pan_joint": 1.2431180798754216,
        "distance_wrist_1_joint": 0.7452107483150994,
        "distance_wrist_2_joint": 1.7678115621156014,
        "distance_wrist_3_joint": 4.258965659472885,
        "smoothness": 0.273366509194609,
        "time": 0.08927078199999999,
        "traj_len": 2.9718344836921298,
        "weighted_distance": 4.4567649509300065
    },
    "planner": "RRTConnect",
    "start": {
        "state": {
            "elbow_joint": 1.919643534880228,
            "shoulder_lift_joint": -1.8972525353963687,
            "shoulder_pan_joint": -1.1188672234189438,
            "wrist_1_joint": -1.5931878212786155,
            "wrist_2_joint": 1.5706036197970081,
            "wrist_3_joint": 1.118896926603594
        }
    },
    "waypoints": [
        {
            "positions": [
                -1.1188672234189438,
                -1.8972525353963687,
                1.919643534880228,
                -1.5931878212786155,
                1.5706036197970081,
                1.118896926603594
            ]
        },
        {
            "positions": [
                -1.063005601297035,
                -1.870590502878589,
                1.922110047150745,
                -1.5586430029966332,
                1.4941715503627797,
                0.9312560617446909
            ]
        },
        {
            "positions": [
                -1.0071439791751262,
                -1.8439284703608094,
                1.924576559421262,
                -1.5240981847146509,
                1.4177394809285513,
                0.7436151968857878
            ]
        },
        {
            "positions": [
                -0.9512823570532173,
                -1.8172664378430297,
                1.927043071691779,
                -1.4895533664326683,
                1.3413074114943229,
                0.5559743320268847
            ]
        },
        {
            "positions": [
                -0.8954207349313085,
                -1.79060440532525,
                1.929509583962296,
                -1.455008548150686,
                1.2648753420600944,
                0.36833346716798165
            ]
        },
        {
            "positions": [
                -0.8395591128093995,
                -1.7639423728074701,
                1.931976096232813,
                -1.4204637298687037,
                1.188443272625866,
                0.18069260230907858
            ]
        },
        {
            "positions": [
                -0.7836974906874907,
                -1.7372803402896904,
                1.9344426085033302,
                -1.3859189115867214,
                1.1120112031916376,
                -0.006948262549824502
            ]
        },
        {
            "positions": [
                -0.7278358685655819,
                -1.7106183077719108,
                1.9369091207738471,
                -1.3513740933047391,
                1.0355791337574092,
                -0.19458912740872747
            ]
        },
        {
            "positions": [
                -0.6719742464436731,
                -1.683956275254131,
                1.9393756330443641,
                -1.3168292750227568,
                0.9591470643231808,
                -0.38222999226763066
            ]
        },
        {
            "positions": [
                -0.6161126243217643,
                -1.6572942427363513,
                1.941842145314881,
                -1.2822844567407743,
                0.8827149948889523,
                -0.5698708571265336
            ]
        },
        {
            "positions": [
                -0.5602510021998554,
                -1.6306322102185717,
                1.944308657585398,
                -1.247739638458792,
                0.8062829254547239,
                -0.7575117219854368
            ]
        },
        {
            "positions": [
                -0.5043893800779465,
                -1.6039701777007918,
                1.946775169855915,
                -1.2131948201768097,
                0.7298508560204955,
                -0.9451525868443402
            ]
        },
        {
            "positions": [
                -0.4485277579560377,
                -1.5773081451830122,
                1.949241682126432,
                -1.1786500018948274,
                0.6534187865862671,
                -1.132793451703243
            ]
        },
        {
            "positions": [
                -0.3926661358341288,
                -1.5506461126652324,
                1.951708194396949,
                -1.144105183612845,
                0.5769867171520386,
                -1.3204343165621462
            ]
        },
        {
            "positions": [
                -0.33680451371222,
                -1.5239840801474527,
                1.954174706667466,
                -1.1095603653308626,
                0.5005546477178102,
                -1.508075181421049
            ]
        },
        {
            "positions": [
                -0.28094289159031116,
                -1.4973220476296731,
                1.956641218937983,
                -1.0750155470488802,
                0.4241225782835818,
                -1.6957160462799525
            ]
        },
        {
            "positions": [
                -0.22508126946840235,
                -1.4706600151118934,
                1.9591077312085,
                -1.040470728766898,
                0.3476905088493534,
                -1.8833569111388553
            ]
        },
        {
            "positions": [
                -0.16921964734649342,
                -1.4439979825941136,
                1.961574243479017,
                -1.0059259104849154,
                0.27125843941512495,
                -2.0709977759977587
            ]
        },
        {
            "positions": [
                -0.11335802522458471,
                -1.417335950076334,
                1.964040755749534,
                -0.9713810922029332,
                0.19482636998089653,
                -2.2586386408566614
            ]
        },
        {
            "positions": [
                -0.057496403102675675,
                -1.390673917558554,
                1.966507268020051,
                -0.9368362739209509,
                0.11839430054666811,
                -2.446279505715565
            ]
        },
        {
            "positions": [
                -0.001634780980766859,
                -1.3640118850407745,
                1.968973780290568,
                -0.9022914556389686,
                0.041962231112439685,
                -2.633920370574468
            ]
        },
        {
            "positions": [
                0.05422684114114205,
                -1.3373498525229948,
                1.971440292561085,
                -0.8677466373569862,
                -0.03446983832178879,
                -2.8215612354333706
            ]
        },
        {
            "positions": [
                0.08923884879880992,
                -1.2418720082577746,
                1.9784598023600803,
                -0.8578618551602512,
                0.04689921367661347,
                -2.9808149841513307
            ]
        },
        {
            "positions": [
                0.12425085645647779,
                -1.1463941639925543,
                1.9854793121590757,
                -0.8479770729635161,
                0.12826826567501573,
                -3.140068732869291
            ]
        }
    ]
}