{
    "goal": {
        "global_pose": {
            "orientation": {
                "w": 0.7047431468963623,
                "x": -0.7094548344612122,
                "y": 0.0024358443915843964,
                "z": -0.0022348060738295317
            },
            "position": {
                "x": 0.6094750761985779,
                "y": 0.3671506643295288,
                "z": 0.19426114857196808
            }
        },
        "name": "move_to_magneteinheit_A"
    },
    "id": "RRTConnect_move_to_magneteinheit_A_123",
    "joint_names": [
        "shoulder_pan_joint",
        "shoulder_lift_joint",
        "elbow_joint",
        "wrist_1_joint",
        "wrist_2_joint",
        "wrist_3_joint"
    ],
    "metrics": {
        "cart_traj_len": 3.0904688274083365,
        "distance_elbow_joint": 3.944264923538678,
        "distance_shoulder_lift_joint": 0.5445609847631665,
        "distance_shoulder_pan_joint": 2.769721020687843,
        "distance_wrist_1_joint": 3.5843119666184826,
        "distance_wrist_2_joint": 2.0695855261034666,
        "distance_wrist_3_joint": 0.999136256058538,
        "smoothness": 0.01815792077742509,
        "time": 0.086186866,
        "traj_len": 3.7298231429613624,
        "weighted_distance": 4.643678572275346
    },
    "planner": "RRTConnect",
    "start": {
        "state": {
            "elbow_joint": -1.919618573717145,
            "shoulder_lift_joint": -1.2443395971678275,
            "shoulder_pan_joint": 2.6996025300909787,
            "wrist_1_joint": -1.548550951253194,
            "wrist_2_joint": -1.5709469090946802,
            "wrist_3_joint": 0.4420197732051276
        }
    },
    "waypoints": [
        {
            "positions": [
                2.6996025300909787,
                -1.2443395971678275,
                -1.919618573717145,
                -1.548550951253194,
                -1.5709469090946802,
                0.4420197732051276
            ]
        },
        {
            "positions": [
                2.5998466083511587,
                -1.2460914127118445,
                -1.813836481873095,
                -1.457045266735593,
                -1.507971634421457,
                0.41575109485913897
            ]
        },
        {
            "positions": [
                2.500090686611338,
                -1.2478432282558618,
                -1.708054390029045,
                -1.365539582217992,
                -1.444996359748234,
                0.38948241651315035
            ]
        },
        {
            "positions": [
                2.400334764871518,
                -1.249595043799879,
                -1.602272298184995,
                -1.274033897700391,
                -1.3820210850750112,
                0.36321373816716174
            ]
        },
        {
            "positions": [
                2.3005788431316976,
                -1.2513468593438961,
                -1.4964902063409453,
                -1.1825282131827901,
                -1.3190458104017881,
                0.33694505982117307
            ]
        },
        {
            "positions": [
                2.2008229213918775,
                -1.2530986748879132,
                -1.3907081144968954,
                -1.0910225286651893,
                -1.256070535728565,
                0.3106763814751845
            ]
        },
        {
            "positions": [
                2.1010669996520575,
                -1.2548504904319304,
                -1.2849260226528454,
                -0.9995168441475883,
                -1.193095261055342,
                0.28440770312919583
            ]
        },
        {
            "positions": [
                2.001311077912237,
                -1.2566023059759477,
                -1.1791439308087956,
                -0.9080111596299874,
                -1.1301199863821192,
                0.25813902478320727
            ]
        },
        {
            "positions": [
                1.9015551561724169,
                -1.2583541215199647,
                -1.0733618389647455,
                -0.8165054751123864,
                -1.0671447117088961,
                0.2318703464372186
            ]
        },
        {
            "positions": [
                1.8017992344325966,
                -1.2601059370639818,
                -0.9675797471206957,
                -0.7249997905947855,
                -1.004169437035673,
                0.20560166809123
            ]
        },
        {
            "positions": [
                1.7020433126927763,
                -1.261857752607999,
                -0.8617976552766458,
                -0.6334941060771845,
                -0.94119416236245,
                0.17933298974524137
            ]
        },
        {
            "positions": [
                1.6022873909529562,
                -1.2636095681520163,
                -0.756015563432596,
                -0.5419884215595836,
                -0.8782188876892271,
                0.15306431139925275
            ]
        },
        {
            "positions": [
                1.5025314692131357,
                -1.2653613836960333,
                -0.6502334715885458,
                -0.4504827370419826,
                -0.815243613016004,
                0.12679563305326413
            ]
        },
        {
            "positions": [
                1.4027755474733157,
                -1.2671131992400504,
                -0.5444513797444961,
                -0.3589770525243816,
                -0.7522683383427811,
                0.10052695470727552
            ]
        },
        {
            "positions": [
                1.3030196257334956,
                -1.2688650147840677,
                -0.43866928790044635,
                -0.2674713680067806,
                -0.6892930636695581,
                0.0742582763612869
            ]
        },
        {
            "positions": [
                1.2032637039936753,
                -1.2706168303280847,
                -0.3328871960563964,
                -0.17596568348917985,
                -0.6263177889963352,
                0.047989598015298285
            ]
        },
        {
            "positions": [
                1.1035077822538548,
                -1.272368645872102,
                -0.2271051042123462,
                -0.08445999897157863,
                -0.5633425143231119,
                0.021720919669309613
            ]
        },
        {
            "positions": [
                1.0037518605140348,
                -1.274120461416119,
                -0.12132301236829646,
                0.00704568554602214,
                -0.500367239649889,
                -0.004547758676678948
            ]
        },
        {
            "positions": [
                0.9039959387742145,
                -1.2758722769601363,
                -0.015540920524246493,
                0.09855137006362313,
                -0.437391964976666,
                -0.030816437022667564
            ]
        },
        {
            "positions": [
                0.8042400170343944,
                -1.2776240925041535,
                0.09024117131980325,
                0.19005705458122413,
                -0.37441669030344316,
                -0.05708511536865618
            ]
        },
        {
            "positions": [
                0.7044840952945739,
                -1.2793759080481706,
                0.19602326316385343,
                0.2815627390988251,
                -0.3114414156302199,
                -0.08335379371464485
            ]
        },
        {
            "positions": [
                0.6047281735547538,
                -1.2811277235921876,
                0.3018053550079032,
                0.3730684236164261,
                -0.24846614095699704,
                -0.10962247206063341
            ]
        },
        {
            "positions": [
                0.5049722518149338,
                -1.282879539136205,
                0.4075874468519529,
                0.4645741081340269,
                -0.18549086628377398,
                -0.13589115040662209
            ]
        },
        {
            "positions": [
                0.40521633007511326,
                -1.2846313546802222,
                0.5133695386960031,
                0.5560797926516279,
                -0.12251559161055114,
                -0.16215982875261065
            ]
        },
        {
            "positions": [
                0.30546040833529275,
                -1.2863831702242392,
                0.6191516305400533,
                0.6475854771692289,
                -0.059540316937327864,
                -0.18842850709859932
            ]
        },
        {
            "positions": [
                0.2057044865954727,
                -1.2881349857682562,
                0.724933722384103,
                0.7390911616868299,
                0.0034349577358949723,
                -0.214697185444588
            ]
        },
        {
            "positions": [
                0.10594856485565265,
                -1.2898868013122735,
                0.8307158142281528,
                0.8305968462044311,
                0.06641023240911795,
                -0.24096586379057652
            ]
        },
        {
            "positions": [
                0.08227798669501904,
                -1.2488636177717396,
                0.9512001607168238,
                0.950678211381112,
                0.10693237889879283,
                -0.27412759082981664
            ]
        },
        {
            "positions": [
                0.058607408534385425,
                -1.2078404342312057,
                1.0716845072054948,
                1.0707595765577929,
                0.1474545253884677,
                -0.3072893178690568
            ]
        },
        {
            "positions": [
                0.034936830373751816,
                -1.1668172506906718,
                1.1921688536941657,
                1.1908409417344739,
                0.1879766718781426,
                -0.3404510449082969
            ]
        },
        {
            "positions": [
                0.031818262065969265,
                -1.1184514079585923,
                1.3099014384785483,
                1.3079139897352545,
                0.18617248942314815,
                -0.3398699424182966
            ]
        },
        {
            "positions": [
                0.02869969375818672,
                -1.070085565226513,
                1.4276340232629308,
                1.424987037736035,
                0.18436830696815373,
                -0.33928883992829634
            ]
        },
        {
            "positions": [
                0.02558112545040417,
                -1.0217197224944337,
                1.5453666080473134,
                1.5420600857368156,
                0.1825641245131593,
                -0.338707737438296
            ]
        },
        {
            "positions": [
                0.04472104865985804,
                -0.9755503821342575,
                1.6412225564021574,
                1.6408002716625103,
                0.1215142449600271,
                -0.29572331134327356
            ]
        },
        {
            "positions": [
                0.06386097186931192,
                -0.9293810417740814,
                1.7370785047570014,
                1.7395404575882047,
                0.06046436540689494,
                -0.2527388852482511
            ]
        },
        {
            "positions": [
                0.08300089507876579,
                -0.8832117014139053,
                1.8329344531118457,
                1.8382806435138994,
                -0.000585514146237226,
                -0.20975445915322866
            ]
        },
        {
            "positions": [
                0.10214081828821968,
                -0.8370423610537292,
                1.9287904014666897,
                1.9370208294395939,
                -0.061635393699369406,
                -0.16677003305820617
            ]
        },
        {
            "positions": [
                0.12128074149767355,
                -0.790873020693553,
                2.0246463498215337,
                2.0357610153652885,
                -0.12268527325250153,
                -0.12378560696318372
            ]
        }
    ]
}{
    "goal": {
        "global_pose": {
            "orientation": {
                "w": 0.7047431468963623,
                "x": -0.7094548344612122,
                "y": 0.0024358443915843964,
                "z": -0.0022348060738295317
            },
            "position": {
                "x": 0.6094750761985779,
                "y": 0.3671506643295288,
                "z": 0.19426114857196808
            }
        },
        "name": "move_to_magneteinheit_A"
    },
    "id": "RRTConnect_move_to_magneteinheit_A_123",
    "joint_names": [
        "shoulder_pan_joint",
        "shoulder_lift_joint",
        "elbow_joint",
        "wrist_1_joint",
        "wrist_2_joint",
        "wrist_3_joint"
    ],
    "metrics": {
        "cart_traj_len": 1.6348826198801527,
        "distance_elbow_joint": 1.0661809613877418,
        "distance_shoulder_lift_joint": 1.4287903528310215,
        "distance_shoulder_pan_joint": 1.2419875073484,
        "distance_wrist_1_joint": 1.4347363425787028,
        "distance_wrist_2_joint": 2.7016877830606463,
        "distance_wrist_3_joint": 4.256538898796249,
        "smoothness": 0.43080622516899053,
        "time": 0.12422897299999999,
        "traj_len": 3.4828037334886903,
        "weighted_distance": 4.977893507221163
    },
    "planner": "RRTConnect",
    "start": {
        "state": {
            "elbow_joint": 1.919643534880228,
            "shoulder_lift_joint": -1.8972525353963687,
            "shoulder_pan_joint": -1.1188672234189438,
            "wrist_1_joint": -1.5931878212786155,
            "wrist_2_joint": 1.5706036197970081,
            "wrist_3_joint": 1.118896926603594
        }
    },
    "waypoints": [
        {
            "positions": [
                -1.1188672234189438,
                -1.8972525353963687,
                1.919643534880228,
                -1.5931878212786155,
                1.5706036197970081,
                1.118896926603594
            ]
        },
        {
            "positions": [
                -1.0783409578191019,
                -1.8498536044132983,
                1.897820039000486,
                -1.60787189684995,
                1.480425498308309,
                0.9435074594176543
            ]
        },
        {
            "positions": [
                -1.0378146922192601,
                -1.802454673430228,
                1.8759965431207442,
                -1.6225559724212841,
                1.3902473768196097,
                0.7681179922317147
            ]
        },
        {
            "positions": [
                -0.9972884266194182,
                -1.7550557424471576,
                1.854173047241002,
                -1.6372400479926186,
                1.3000692553309106,
                0.592728525045775
            ]
        },
        {
            "positions": [
                -0.9567621610195763,
                -1.707656811464087,
                1.83234955136126,
                -1.651924123563953,
                1.2098911338422114,
                0.4173390578598354
            ]
        },
        {
            "positions": [
                -0.9162358954197345,
                -1.6602578804810169,
                1.8105260554815181,
                -1.6666081991352875,
                1.1197130123535122,
                0.24194959067389576
            ]
        },
        {
            "positions": [
                -0.8757096298198926,
                -1.6128589494979464,
                1.788702559601776,
                -1.6812922747066217,
                1.029534890864813,
                0.06656012348795604
            ]
        },
        {
            "positions": [
                -0.8351833642200508,
                -1.565460018514876,
                1.766879063722034,
                -1.6959763502779561,
                0.9393567693761137,
                -0.1088293436979837
            ]
        },
        {
            "positions": [
                -0.7946570986202088,
                -1.5180610875318057,
                1.745055567842292,
                -1.7106604258492906,
                0.8491786478874145,
                -0.2842188108839232
            ]
        },
        {
            "positions": [
                -0.754130833020367,
                -1.4706621565487352,
                1.72323207196255,
                -1.725344501420625,
                0.7590005263987153,
                -0.45960827806986293
            ]
        },
        {
            "positions": [
                -0.7136045674205251,
                -1.4232632255656648,
                1.701408576082808,
                -1.7400285769919592,
                0.6688224049100161,
                -0.6349977452558024
            ]
        },
        {
            "positions": [
                -0.6730783018206832,
                -1.3758642945825945,
                1.679585080203066,
                -1.7547126525632937,
                0.5786442834213169,
                -0.8103872124417422
            ]
        },
        {
            "positions": [
                -0.6325520362208414,
                -1.328465363599524,
                1.657761584323324,
                -1.7693967281346281,
                0.4884661619326178,
                -0.9857766796276819
            ]
        },
        {
            "positions": [
                -0.5920257706209996,
                -1.2810664326164538,
                1.6359380884435821,
                -1.7840808037059626,
                0.39828804044391863,
                -1.1611661468136212
            ]
        },
        {
            "positions": [
                -0.5514995050211576,
                -1.2336675016333833,
                1.61411459256384,
                -1.7987648792772968,
                0.3081099189552192,
                -1.3365556139995614
            ]
        },
        {
            "positions": [
                -0.5109732394213158,
                -1.1862685706503129,
                1.592291096684098,
                -1.8134489548486312,
                0.21793179746652003,
                -1.5119450811855006
            ]
        },
        {
            "positions": [
                -0.47044697382147393,
                -1.1388696396672424,
                1.5704676008043559,
                -1.8281330304199657,
                0.12775367597782084,
                -1.6873345483714404
            ]
        },
        {
            "positions": [
                -0.4299207082216321,
                -1.0914707086841722,
                1.548644104924614,
                -1.8428171059912999,
                0.037575554489121865,
                -1.86272401555738
            ]
        },
        {
            "positions": [
                -0.3893944426217901,
                -1.0440717777011017,
                1.526820609044872,
                -1.8575011815626343,
                -0.05260256699957755,
                -2.03811348274332
            ]
        },
        {
            "positions": [
                -0.3488681770219483,
                -0.9966728467180314,
                1.50499711316513,
                -1.8721852571339688,
                -0.14278068848827674,
                -2.2135029499292598
            ]
        },
        {
            "positions": [
                -0.30834191142210643,
                -0.949273915734961,
                1.483173617285388,
                -1.8868693327053032,
                -0.23295880997697593,
                -2.3888924171151986
            ]
        },
        {
            "positions": [
                -0.2678156458222646,
                -0.9018749847518907,
                1.461350121405646,
                -1.9015534082766377,
                -0.3231369314656749,
                -2.5642818843011383
            ]
        },
        {
            "positions": [
                -0.22728938022242262,
                -0.8544760537688203,
                1.4395266255259038,
                -1.9162374838479719,
                -0.4133150529543743,
                -2.739671351487078
            ]
        },
        {
            "positions": [
                -0.18676311462258077,
                -0.8070771227857497,
                1.417703129646162,
                -1.9309215594193063,
                -0.5034931744430734,
                -2.915060818673018
            ]
        },
        {
            "positions": [
                -0.14802768980357617,
                -0.8494039903133,
                1.4882331991653714,
                -1.7937962338645548,
                -0.4250443008405028,
                -2.9428834628629725
            ]
        },
        {
            "positions": [
                -0.10929226498457155,
                -0.8917308578408504,
                1.558763268684581,
                -1.6566709083098035,
                -0.34659542723793224,
                -2.9707061070529273
            ]
        },
        {
            "positions": [
                -0.07055684016556693,
                -0.9340577253684006,
                1.6292933382037904,
                -1.519545582755052,
                -0.26814655363536166,
                -2.9985287512428815
            ]
        },
        {
            "positions": [
                -0.031821415346562326,
                -0.9763845928959509,
                1.6998234077229997,
                -1.3824202572003004,
                -0.18969768003279108,
                -3.0263513954328363
            ]
        },
        {
            "positions": [
                0.0069140094724422785,
                -1.0187114604235012,
                1.7703534772422094,
                -1.2452949316455488,
                -0.1112488064302205,
                -3.054174039622791
            ]
        },
        {
            "positions": [
                0.04564943429144691,
                -1.0610383279510516,
                1.8408835467614186,
                -1.1081696060907973,
                -0.032799932827649925,
                -3.0819966838127453
            ]
        },
        {
            "positions": [
                0.08438485911045152,
                -1.103365195478602,
                1.9114136162806281,
                -0.971044280536046,
                0.045648940774920654,
                -3.1098193280027
            ]
        },
        {
            "positions": [
                0.1231202839294561,
                -1.1456920630061522,
                1.9819436857998376,
                -0.8339189549812945,
                0.12409781437749123,
                -3.1376419721926547
            ]
        }
    ]
}