{
    "goal": {
        "global_pose": {
            "orientation": {
                "w": 0.7047431468963623,
                "x": -0.7094548344612122,
                "y": 0.0024358443915843964,
                "z": -0.0022348060738295317
            },
            "position": {
                "x": 0.6094750761985779,
                "y": 0.3671506643295288,
                "z": 0.19426114857196808
            }
        },
        "name": "move_to_magneteinheit_A"
    },
    "id": "RRTConnect_move_to_magneteinheit_A_18",
    "joint_names": [
        "shoulder_pan_joint",
        "shoulder_lift_joint",
        "elbow_joint",
        "wrist_1_joint",
        "wrist_2_joint",
        "wrist_3_joint"
    ],
    "metrics": {
        "cart_traj_len": 3.4450902695570034,
        "distance_elbow_joint": 3.8807832100065065,
        "distance_shoulder_lift_joint": 0.435115304594047,
        "distance_shoulder_pan_joint": 3.0047728985307596,
        "distance_wrist_1_joint": 1.4684097486393193,
        "distance_wrist_2_joint": 2.5240466582355565,
        "distance_wrist_3_joint": 2.602643027613722,
        "smoothness": 0.3220793512464489,
        "time": 0.083734116,
        "traj_len": 3.730384812270701,
        "weighted_distance": 4.807651537884399
    },
    "planner": "RRTConnect",
    "start": {
        "state": {
            "elbow_joint": -1.919618573717145,
            "shoulder_lift_joint": -1.2443395971678275,
            "shoulder_pan_joint": 2.6996025300909787,
            "wrist_1_joint": -1.548550951253194,
            "wrist_2_joint": -1.5709469090946802,
            "wrist_3_joint": 0.4420197732051276
        }
    },
    "waypoints": [
        {
            "positions": [
                2.6996025300909787,
                -1.2443395971678275,
                -1.919618573717145,
                -1.548550951253194,
                -1.5709469090946802,
                0.4420197732051276
            ]
        },
        {
            "positions": [
                2.606586424878969,
                -1.2497526952145916,
                -1.8000303208186914,
                -1.5102984893451827,
                -1.500388219405766,
                0.4982657630707737
            ]
        },
        {
            "positions": [
                2.5135703196669597,
                -1.2551657932613558,
                -1.6804420679202379,
                -1.4720460274371714,
                -1.429829529716852,
                0.5545117529364199
            ]
        },
        {
            "positions": [
                2.42055421445495,
                -1.26057889130812,
                -1.5608538150217843,
                -1.43379356552916,
                -1.3592708400279379,
                0.610757742802066
            ]
        },
        {
            "positions": [
                2.32753810924294,
                -1.265991989354884,
                -1.4412655621233308,
                -1.3955411036211487,
                -1.2887121503390238,
                0.6670037326677121
            ]
        },
        {
            "positions": [
                2.2345220040309304,
                -1.2714050874016483,
                -1.3216773092248773,
                -1.3572886417131376,
                -1.2181534606501097,
                0.7232497225333581
            ]
        },
        {
            "positions": [
                2.141505898818921,
                -1.2768181854484124,
                -1.2020890563264237,
                -1.3190361798051262,
                -1.1475947709611953,
                0.7794957123990043
            ]
        },
        {
            "positions": [
                2.0484897936069113,
                -1.2822312834951766,
                -1.0825008034279702,
                -1.2807837178971149,
                -1.0770360812722812,
                0.8357417022646504
            ]
        },
        {
            "positions": [
                1.9554736883949015,
                -1.2876443815419407,
                -0.9629125505295166,
                -1.2425312559891035,
                -1.0064773915833671,
                0.8919876921302965
            ]
        },
        {
            "positions": [
                1.862457583182892,
                -1.2930574795887049,
                -0.8433242976310631,
                -1.2042787940810922,
                -0.935918701894453,
                0.9482336819959425
            ]
        },
        {
            "positions": [
                1.7694414779708825,
                -1.298470577635469,
                -0.7237360447326096,
                -1.166026332173081,
                -0.8653600122055389,
                1.0044796718615887
            ]
        },
        {
            "positions": [
                1.6764253727588727,
                -1.3038836756822332,
                -0.604147791834156,
                -1.1277738702650697,
                -0.7948013225166248,
                1.0607256617272347
            ]
        },
        {
            "positions": [
                1.583409267546863,
                -1.3092967737289973,
                -0.48455953893570247,
                -1.0895214083570584,
                -0.7242426328277105,
                1.116971651592881
            ]
        },
        {
            "positions": [
                1.4903931623348534,
                -1.3147098717757615,
                -0.36497128603724893,
                -1.051268946449047,
                -0.6536839431387964,
                1.1732176414585271
            ]
        },
        {
            "positions": [
                1.3973770571228437,
                -1.3201229698225259,
                -0.2453830331387954,
                -1.0130164845410357,
                -0.5831252534498823,
                1.2294636313241731
            ]
        },
        {
            "positions": [
                1.3043609519108341,
                -1.3255360678692898,
                -0.12579478024034185,
                -0.9747640226330243,
                -0.5125665637609682,
                1.2857096211898194
            ]
        },
        {
            "positions": [
                1.2113448466988246,
                -1.3309491659160542,
                -0.006206527341888313,
                -0.936511560725013,
                -0.4420078740720541,
                1.3419556110554653
            ]
        },
        {
            "positions": [
                1.1183287414868148,
                -1.3363622639628183,
                0.11338172555656523,
                -0.8982590988170017,
                -0.37144918438314,
                1.3982016009211116
            ]
        },
        {
            "positions": [
                1.0253126362748053,
                -1.3417753620095825,
                0.23296997845501877,
                -0.8600066369089904,
                -0.3008904946942259,
                1.4544475907867576
            ]
        },
        {
            "positions": [
                0.9322965310627958,
                -1.3471884600563466,
                0.3525582313534723,
                -0.821754175000979,
                -0.2303318050053118,
                1.5106935806524038
            ]
        },
        {
            "positions": [
                0.839280425850786,
                -1.3526015581031108,
                0.47214648425192585,
                -0.7835017130929678,
                -0.1597731153163977,
                1.5669395705180498
            ]
        },
        {
            "positions": [
                0.7462643206387765,
                -1.358014656149875,
                0.5917347371503794,
                -0.7452492511849564,
                -0.0892144256274836,
                1.623185560383696
            ]
        },
        {
            "positions": [
                0.6532482154267667,
                -1.363427754196639,
                0.7113229900488329,
                -0.7069967892769451,
                -0.018655735938569507,
                1.679431550249342
            ]
        },
        {
            "positions": [
                0.5602321102147569,
                -1.3688408522434032,
                0.8309112429472865,
                -0.6687443273689337,
                0.05190295375034504,
                1.7356775401149884
            ]
        },
        {
            "positions": [
                0.4672160050027472,
                -1.3742539502901674,
                0.95049949584574,
                -0.6304918654609224,
                0.12246164343925914,
                1.7919235299806344
            ]
        },
        {
            "positions": [
                0.3741998997907374,
                -1.3796670483369315,
                1.0700877487441935,
                -0.592239403552911,
                0.19302033312817324,
                1.8481695198462806
            ]
        },
        {
            "positions": [
                0.2811837945787281,
                -1.3850801463836957,
                1.189676001642647,
                -0.5539869416448998,
                0.26357902281708734,
                1.9044155097119266
            ]
        },
        {
            "positions": [
                0.18816768936671835,
                -1.3904932444304599,
                1.3092642545411006,
                -0.5157344797368884,
                0.33413771250600144,
                1.9606614995775729
            ]
        },
        {
            "positions": [
                0.09515158415470859,
                -1.395906342477224,
                1.4288525074395542,
                -0.4774820178288772,
                0.40469640219491554,
                2.0169074894432186
            ]
        },
        {
            "positions": [
                0.002135478942699276,
                -1.4013194405239882,
                1.5484407603380077,
                -0.4392295559208659,
                0.47525509188382964,
                2.073153479308865
            ]
        },
        {
            "positions": [
                -0.0908806262693104,
                -1.4067325385707523,
                1.6680290132364615,
                -0.4009770940128546,
                0.5458137815727435,
                2.129399469174511
            ]
        },
        {
            "positions": [
                -0.060874680757456424,
                -1.3684332388530955,
                1.7127064094716544,
                -0.4472521835088786,
                0.48790088714066016,
                2.264476689493572
            ]
        },
        {
            "positions": [
                -0.03086873524560245,
                -1.330133939135439,
                1.7573838057068476,
                -0.4935272730049025,
                0.42998799270857674,
                2.3995539098126337
            ]
        },
        {
            "positions": [
                -0.0008627897337484675,
                -1.2918346394177822,
                1.8020612019420406,
                -0.5398023625009265,
                0.3720750982764933,
                2.534631130131695
            ]
        },
        {
            "positions": [
                0.0291431557781055,
                -1.2535353397001254,
                1.8467385981772335,
                -0.5860774519969505,
                0.31416220384440996,
                2.669708350450756
            ]
        },
        {
            "positions": [
                0.05914910128995948,
                -1.2152360399824689,
                1.8914159944124267,
                -0.6323525414929745,
                0.25624930941232654,
                2.8047855707698175
            ]
        },
        {
            "positions": [
                0.08915504680181346,
                -1.176936740264812,
                1.9360933906476196,
                -0.6786276309889985,
                0.19833641498024318,
                2.9398627910888786
            ]
        },
        {
            "positions": [
                0.12340911590116145,
                -1.1340101753796301,
                1.961164636289361,
                -0.7218129854118344,
                0.1385278140046115,
                3.0446628008188497
            ]
        }
    ]
}{
    "goal": {
        "global_pose": {
            "orientation": {
                "w": 0.7047431468963623,
                "x": -0.7094548344612122,
                "y": 0.0024358443915843964,
                "z": -0.0022348060738295317
            },
            "position": {
                "x": 0.6094750761985779,
                "y": 0.3671506643295288,
                "z": 0.19426114857196808
            }
        },
        "name": "move_to_magneteinheit_A"
    },
    "id": "RRTConnect_move_to_magneteinheit_A_18",
    "joint_names": [
        "shoulder_pan_joint",
        "shoulder_lift_joint",
        "elbow_joint",
        "wrist_1_joint",
        "wrist_2_joint",
        "wrist_3_joint"
    ],
    "metrics": {
        "cart_traj_len": 2.0095762505052512,
        "distance_elbow_joint": 1.3747180410090718,
        "distance_shoulder_lift_joint": 0.7566437843905174,
        "distance_shoulder_pan_joint": 1.7861803369909572,
        "distance_wrist_1_joint": 0.8031265789938613,
        "distance_wrist_2_joint": 1.4363895913970564,
        "distance_wrist_3_joint": 4.301000589106895,
        "smoothness": 0.21593079695727152,
        "time": 0.06281424199999999,
        "traj_len": 3.233892224841199,
        "weighted_distance": 4.615146397514716
    },
    "planner": "RRTConnect",
    "start": {
        "state": {
            "elbow_joint": 1.919643534880228,
            "shoulder_lift_joint": -1.8972525353963687,
            "shoulder_pan_joint": -1.1188672234189438,
            "wrist_1_joint": -1.5931878212786155,
            "wrist_2_joint": 1.5706036197970081,
            "wrist_3_joint": 1.118896926603594
        }
    },
    "waypoints": [
        {
            "positions": [
                -1.1188672234189438,
                -1.8972525353963687,
                1.919643534880228,
                -1.5931878212786155,
                1.5706036197970081,
                1.118896926603594
            ]
        },
        {
            "positions": [
                -1.1528799543646575,
                -1.8922816178508135,
                1.83709084559885,
                -1.5373247745060619,
                1.545055113882972,
                0.9647691336284824
            ]
        },
        {
            "positions": [
                -1.186892685310371,
                -1.8873107003052585,
                1.7545381563174716,
                -1.481461727733508,
                1.5195066079689357,
                0.8106413406533708
            ]
        },
        {
            "positions": [
                -1.2209054162560846,
                -1.8823397827597033,
                1.6719854670360934,
                -1.4255986809609544,
                1.4939581020548995,
                0.6565135476782593
            ]
        },
        {
            "positions": [
                -1.2549181472017983,
                -1.877368865214148,
                1.5894327777547153,
                -1.3697356341884008,
                1.4684095961408632,
                0.5023857547031477
            ]
        },
        {
            "positions": [
                -1.2889308781475117,
                -1.872397947668593,
                1.5068800884733369,
                -1.313872587415847,
                1.442861090226827,
                0.34825796172803614
            ]
        },
        {
            "positions": [
                -1.3229436090932254,
                -1.8674270301230378,
                1.4243273991919587,
                -1.2580095406432934,
                1.417312584312791,
                0.19413016875292466
            ]
        },
        {
            "positions": [
                -1.3569563400389388,
                -1.8624561125774828,
                1.3417747099105806,
                -1.2021464938707398,
                1.3917640783987546,
                0.04000237577781296
            ]
        },
        {
            "positions": [
                -1.3909690709846525,
                -1.8574851950319275,
                1.2592220206292022,
                -1.146283447098186,
                1.3662155724847185,
                -0.1141254171972986
            ]
        },
        {
            "positions": [
                -1.31526514651339,
                -1.8216413728306238,
                1.2949368469671045,
                -1.1284723368575145,
                1.30461549528048,
                -0.26752432946259874
            ]
        },
        {
            "positions": [
                -1.2395612220421277,
                -1.78579755062932,
                1.3306516733050069,
                -1.1106612266168427,
                1.2430154180762418,
                -0.42092324172789886
            ]
        },
        {
            "positions": [
                -1.1638572975708652,
                -1.7499537284280162,
                1.366366499642909,
                -1.0928501163761712,
                1.1814153408720034,
                -0.5743221539931989
            ]
        },
        {
            "positions": [
                -1.0881533730996027,
                -1.7141099062267122,
                1.4020813259808114,
                -1.0750390061354995,
                1.119815263667765,
                -0.7277210662584991
            ]
        },
        {
            "positions": [
                -1.0124494486283404,
                -1.6782660840254084,
                1.4377961523187137,
                -1.057227895894828,
                1.0582151864635267,
                -0.8811199785237991
            ]
        },
        {
            "positions": [
                -0.9367455241570779,
                -1.6424222618241047,
                1.4735109786566158,
                -1.0394167856541565,
                0.9966151092592884,
                -1.034518890789099
            ]
        },
        {
            "positions": [
                -0.8610415996858155,
                -1.606578439622801,
                1.5092258049945182,
                -1.0216056754134848,
                0.9350150320550501,
                -1.187917803054399
            ]
        },
        {
            "positions": [
                -0.785337675214553,
                -1.5707346174214971,
                1.5449406313324205,
                -1.0037945651728133,
                0.8734149548508117,
                -1.3413167153196994
            ]
        },
        {
            "positions": [
                -0.7096337507432906,
                -1.5348907952201931,
                1.580655457670323,
                -0.9859834549321417,
                0.8118148776465733,
                -1.4947156275849993
            ]
        },
        {
            "positions": [
                -0.6339298262720282,
                -1.4990469730188893,
                1.6163702840082252,
                -0.9681723446914701,
                0.750214800442335,
                -1.6481145398502994
            ]
        },
        {
            "positions": [
                -0.5582259018007657,
                -1.4632031508175856,
                1.6520851103461274,
                -0.9503612344507985,
                0.6886147232380966,
                -1.8015134521155998
            ]
        },
        {
            "positions": [
                -0.4825219773295034,
                -1.4273593286162818,
                1.6877999366840297,
                -0.9325501242101268,
                0.6270146460338584,
                -1.9549123643808994
            ]
        },
        {
            "positions": [
                -0.4068180528582409,
                -1.391515506414978,
                1.723514763021932,
                -0.9147390139694553,
                0.5654145688296199,
                -2.1083112766461998
            ]
        },
        {
            "positions": [
                -0.3311141283869785,
                -1.3556716842136742,
                1.7592295893598342,
                -0.8969279037287837,
                0.5038144916253817,
                -2.2617101889114997
            ]
        },
        {
            "positions": [
                -0.255410203915716,
                -1.3198278620123705,
                1.7949444156977366,
                -0.8791167934881121,
                0.4422144144211433,
                -2.4151091011768
            ]
        },
        {
            "positions": [
                -0.1797062794444535,
                -1.2839840398110667,
                1.830659242035639,
                -0.8613056832474405,
                0.38061433721690485,
                -2.5685080134421003
            ]
        },
        {
            "positions": [
                -0.10400235497319121,
                -1.248140217609763,
                1.866374068373541,
                -0.8434945730067689,
                0.31901426001266664,
                -2.7219069257074
            ]
        },
        {
            "positions": [
                -0.028298430501928706,
                -1.212296395408459,
                1.9020888947114436,
                -0.8256834627660974,
                0.2574141828084282,
                -2.8753058379727
            ]
        },
        {
            "positions": [
                0.04740549396933358,
                -1.1764525732071553,
                1.9378037210493457,
                -0.8078723525254258,
                0.19581410560419,
                -3.028704750238
            ]
        },
        {
            "positions": [
                0.12310941844059616,
                -1.1406087510058514,
                1.973518547387248,
                -0.7900612422847542,
                0.13421402839995167,
                -3.1821036625033003
            ]
        }
    ]
}