{
    "goal": {
        "global_pose": {
            "orientation": {
                "w": 0.5084816217422485,
                "x": -0.49083608388900757,
                "y": 0.5182115435600281,
                "z": -0.4816462993621826
            },
            "position": {
                "x": 0.5540239810943604,
                "y": 0.030875300988554955,
                "z": 0.16403168439865112
            }
        },
        "name": "move_to_storage_A"
    },
    "id": "RRTConnect_move_to_storage_A_78",
    "joint_names": [
        "shoulder_pan_joint",
        "shoulder_lift_joint",
        "elbow_joint",
        "wrist_1_joint",
        "wrist_2_joint",
        "wrist_3_joint"
    ],
    "metrics": {
        "cart_traj_len": 0.35294854363227035,
        "distance_elbow_joint": 0.4510060058309646,
        "distance_shoulder_lift_joint": 0.23546625403596466,
        "distance_shoulder_pan_joint": 0.4615262872900129,
        "distance_wrist_1_joint": 0.2448467018328021,
        "distance_wrist_2_joint": 1.0992980633387348,
        "distance_wrist_3_joint": 0.10506174326438877,
        "smoothness": 0.0,
        "time": 0.04952104,
        "traj_len": 1.6115846411507115,
        "weighted_distance": 2.0375164557110166
    },
    "planner": "RRTConnect",
    "start": {
        "state": {
            "elbow_joint": 1.9715477243005601,
            "shoulder_lift_joint": -1.1394853015351272,
            "shoulder_pan_joint": 0.12281154014795169,
            "wrist_1_joint": -0.7804696478968182,
            "wrist_2_joint": 0.12958648046900423,
            "wrist_3_joint": -3.192491284697111
        }
    },
    "waypoints": [
        {
            "positions": [
                0.12281154014795169,
                -1.1394853015351272,
                1.9715477243005601,
                -0.7804696478968182,
                0.12958648046900423,
                -3.192491284697111
            ]
        },
        {
            "positions": [
                0.05687921339223556,
                -1.1731233378259793,
                2.0359771537049838,
                -0.8154477481586471,
                0.2866290609459663,
                -3.1774824642307697
            ]
        },
        {
            "positions": [
                -0.009053113363480567,
                -1.2067613741168313,
                2.100406583109407,
                -0.8504258484204759,
                0.4436716414229284,
                -3.1624736437644287
            ]
        },
        {
            "positions": [
                -0.07498544011919668,
                -1.2403994104076834,
                2.1648360125138306,
                -0.8854039486823048,
                0.6007142218998905,
                -3.1474648232980873
            ]
        },
        {
            "positions": [
                -0.1409177668749128,
                -1.2740374466985356,
                2.2292654419182543,
                -0.9203820489441337,
                0.7577568023768526,
                -3.1324560028317463
            ]
        },
        {
            "positions": [
                -0.20685009363062895,
                -1.3076754829893877,
                2.293694871322678,
                -0.9553601492059625,
                0.9147993828538148,
                -3.117447182365405
            ]
        },
        {
            "positions": [
                -0.27278242038634504,
                -1.3413135192802397,
                2.358124300727101,
                -0.9903382494677914,
                1.071841963330777,
                -3.102438361899064
            ]
        },
        {
            "positions": [
                -0.3387147471420612,
                -1.3749515555710918,
                2.4225537301315248,
                -1.0253163497296203,
                1.228884543807739,
                -3.0874295414327224
            ]
        }
    ]
}