{
    "goal": {
        "global_pose": {
            "orientation": {
                "w": 0.5084816217422485,
                "x": -0.49083608388900757,
                "y": 0.5182115435600281,
                "z": -0.4816462993621826
            },
            "position": {
                "x": 0.5540239810943604,
                "y": 0.030875300988554955,
                "z": 0.16403168439865112
            }
        },
        "name": "move_to_storage_A"
    },
    "id": "RRTConnect_move_to_storage_A_10",
    "joint_names": [
        "shoulder_pan_joint",
        "shoulder_lift_joint",
        "elbow_joint",
        "wrist_1_joint",
        "wrist_2_joint",
        "wrist_3_joint"
    ],
    "metrics": {
        "cart_traj_len": 0.3536662232255624,
        "distance_elbow_joint": 0.45103118083107274,
        "distance_shoulder_lift_joint": 0.23612120035248507,
        "distance_shoulder_pan_joint": 0.4631630804136678,
        "distance_wrist_1_joint": 0.24258251771562944,
        "distance_wrist_2_joint": 1.0980945129719553,
        "distance_wrist_3_joint": 0.09626747198742036,
        "smoothness": 1.665334528953551e-15,
        "time": 0.04717879,
        "traj_len": 1.6084961809939837,
        "weighted_distance": 2.0298945635019217
    },
    "planner": "RRTConnect",
    "start": {
        "state": {
            "elbow_joint": 1.9715477243005601,
            "shoulder_lift_joint": -1.1394853015351272,
            "shoulder_pan_joint": 0.12281154014795169,
            "wrist_1_joint": -0.7804696478968182,
            "wrist_2_joint": 0.12958648046900423,
            "wrist_3_joint": -3.192491284697111
        }
    },
    "waypoints": [
        {
            "positions": [
                0.12281154014795169,
                -1.1394853015351272,
                1.9715477243005601,
                -0.7804696478968182,
                0.12958648046900423,
                -3.192491284697111
            ]
        },
        {
            "positions": [
                0.056645385803142004,
                -1.173216901585482,
                2.0359807501335707,
                -0.8151242932847652,
                0.28645712517928357,
                -3.1787387886989085
            ]
        },
        {
            "positions": [
                -0.009520768541667682,
                -1.2069485016358372,
                2.100413775966581,
                -0.8497789386727123,
                0.44332776988956285,
                -3.1649862927007053
            ]
        },
        {
            "positions": [
                -0.07568692288647737,
                -1.2406801016861921,
                2.1648468017995914,
                -0.8844335840606593,
                0.6001984145998422,
                -3.1512337967025026
            ]
        },
        {
            "positions": [
                -0.14185307723128704,
                -1.2744117017365473,
                2.2292798276326016,
                -0.9190882294486065,
                0.7570690593101215,
                -3.1374813007042994
            ]
        },
        {
            "positions": [
                -0.20801923157609675,
                -1.3081433017869022,
                2.293712853465612,
                -0.9537428748365535,
                0.9139397040204008,
                -3.1237288047060967
            ]
        },
        {
            "positions": [
                -0.2741853859209064,
                -1.341874901837257,
                2.3581458792986223,
                -0.9883975202245006,
                1.0708103487306802,
                -3.1099763087078935
            ]
        },
        {
            "positions": [
                -0.3403515402657161,
                -1.3756065018876122,
                2.422578905131633,
                -1.0230521656124476,
                1.2276809934409596,
                -3.096223812709691
            ]
        }
    ]
}