{
    "goal": {
        "global_pose": {
            "orientation": {
                "w": 0.5084816217422485,
                "x": -0.49083608388900757,
                "y": 0.5182115435600281,
                "z": -0.4816462993621826
            },
            "position": {
                "x": 0.5540239810943604,
                "y": 0.030875300988554955,
                "z": 0.16403168439865112
            }
        },
        "name": "move_to_storage_A"
    },
    "id": "RRTConnect_move_to_storage_A_123",
    "joint_names": [
        "shoulder_pan_joint",
        "shoulder_lift_joint",
        "elbow_joint",
        "wrist_1_joint",
        "wrist_2_joint",
        "wrist_3_joint"
    ],
    "metrics": {
        "cart_traj_len": 0.353536079699744,
        "distance_elbow_joint": 0.45289134903090567,
        "distance_shoulder_lift_joint": 0.23586070070890663,
        "distance_shoulder_pan_joint": 0.46424228837265563,
        "distance_wrist_1_joint": 0.2529666196277617,
        "distance_wrist_2_joint": 1.0922907149827754,
        "distance_wrist_3_joint": 0.1003253091851386,
        "smoothness": 6.661338165333112e-16,
        "time": 0.043460565,
        "traj_len": 1.6120102300879309,
        "weighted_distance": 2.035800809236738
    },
    "planner": "RRTConnect",
    "start": {
        "state": {
            "elbow_joint": 1.9715477243005601,
            "shoulder_lift_joint": -1.1394853015351272,
            "shoulder_pan_joint": 0.12281154014795169,
            "wrist_1_joint": -0.7804696478968182,
            "wrist_2_joint": 0.12958648046900423,
            "wrist_3_joint": -3.192491284697111
        }
    },
    "waypoints": [
        {
            "positions": [
                0.12281154014795169,
                -1.1394853015351272,
                1.9715477243005601,
                -0.7804696478968182,
                0.12958648046900423,
                -3.192491284697111
            ]
        },
        {
            "positions": [
                0.05649121323757232,
                -1.1731796873506852,
                2.036246488447832,
                -0.8166077364150698,
                0.28562801118082926,
                -3.1781590976706626
            ]
        },
        {
            "positions": [
                -0.009829113672807047,
                -1.2068740731662433,
                2.1009452525951047,
                -0.8527458249333215,
                0.44166954189265434,
                -3.1638269106442145
            ]
        },
        {
            "positions": [
                -0.07614944058318641,
                -1.2405684589818013,
                2.1656440167423767,
                -0.8888839134515731,
                0.5977110726044794,
                -3.149494723617766
            ]
        },
        {
            "positions": [
                -0.14246976749356577,
                -1.2742628447973594,
                2.230342780889649,
                -0.9250220019698249,
                0.7537526033163044,
                -3.135162536591318
            ]
        },
        {
            "positions": [
                -0.2087900944039452,
                -1.3079572306129177,
                2.2950415450369213,
                -0.9611600904880765,
                0.9097941340281296,
                -3.1208303495648693
            ]
        },
        {
            "positions": [
                -0.2751104213143245,
                -1.3416516164284757,
                2.3597403091841933,
                -0.9972981790063282,
                1.0658356647399545,
                -3.106498162538421
            ]
        },
        {
            "positions": [
                -0.34143074822470393,
                -1.3753460022440338,
                2.424439073331466,
                -1.0334362675245798,
                1.2218771954517795,
                -3.0921659755119726
            ]
        }
    ]
}