{
    "goal": {
        "global_pose": {
            "orientation": {
                "w": 0.7047431468963623,
                "x": -0.7094548344612122,
                "y": 0.0024358443915843964,
                "z": -0.0022348060738295317
            },
            "position": {
                "x": 0.6094750761985779,
                "y": 0.3671506643295288,
                "z": 0.19426114857196808
            }
        },
        "name": "move_to_magneteinheit_A"
    },
    "id": "RRTConnect_move_to_magneteinheit_A_87",
    "joint_names": [
        "shoulder_pan_joint",
        "shoulder_lift_joint",
        "elbow_joint",
        "wrist_1_joint",
        "wrist_2_joint",
        "wrist_3_joint"
    ],
    "metrics": {
        "cart_traj_len": 4.089499051390817,
        "distance_elbow_joint": 3.8823174218394443,
        "distance_shoulder_lift_joint": 1.0405055436940767,
        "distance_shoulder_pan_joint": 3.347536266877687,
        "distance_wrist_1_joint": 1.8906935298643868,
        "distance_wrist_2_joint": 1.706205666252187,
        "distance_wrist_3_joint": 2.6150047875965097,
        "smoothness": 0.12064941180290487,
        "time": 0.084481922,
        "traj_len": 3.805556886465409,
        "weighted_distance": 4.827957330738735
    },
    "planner": "RRTConnect",
    "start": {
        "state": {
            "elbow_joint": -1.919618573717145,
            "shoulder_lift_joint": -1.2443395971678275,
            "shoulder_pan_joint": 2.6996025300909787,
            "wrist_1_joint": -1.548550951253194,
            "wrist_2_joint": -1.5709469090946802,
            "wrist_3_joint": 0.4420197732051276
        }
    },
    "waypoints": [
        {
            "positions": [
                2.6996025300909787,
                -1.2443395971678275,
                -1.919618573717145,
                -1.548550951253194,
                -1.5709469090946802,
                0.4420197732051276
            ]
        },
        {
            "positions": [
                2.5585532173464296,
                -1.2665129940292166,
                -1.8385665209103403,
                -1.5742859807727219,
                -1.5156220803698695,
                0.49452576867715997
            ]
        },
        {
            "positions": [
                2.41750390460188,
                -1.2886863908906059,
                -1.7575144681035357,
                -1.6000210102922499,
                -1.4602972516450587,
                0.5470317641491924
            ]
        },
        {
            "positions": [
                2.276454591857331,
                -1.310859787751995,
                -1.676462415296731,
                -1.6257560398117776,
                -1.404972422920248,
                0.5995377596212248
            ]
        },
        {
            "positions": [
                2.1354052791127813,
                -1.3330331846133843,
                -1.5954103624899263,
                -1.6514910693313056,
                -1.3496475941954371,
                0.6520437550932572
            ]
        },
        {
            "positions": [
                1.9943559663682322,
                -1.3552065814747734,
                -1.5143583096831217,
                -1.6772260988508334,
                -1.2943227654706264,
                0.7045497505652896
            ]
        },
        {
            "positions": [
                1.8533066536236826,
                -1.3773799783361627,
                -1.433306256876317,
                -1.7029611283703614,
                -1.2389979367458157,
                0.757055746037322
            ]
        },
        {
            "positions": [
                1.7122573408791335,
                -1.3995533751975517,
                -1.3522542040695122,
                -1.7286961578898892,
                -1.183673108021005,
                0.8095617415093543
            ]
        },
        {
            "positions": [
                1.5712080281345842,
                -1.421726772058941,
                -1.2712021512627079,
                -1.7544311874094172,
                -1.128348279296194,
                0.8620677369813867
            ]
        },
        {
            "positions": [
                1.4301587153900348,
                -1.4439001689203301,
                -1.190150098455903,
                -1.780166216928945,
                -1.0730234505713834,
                0.9145737324534191
            ]
        },
        {
            "positions": [
                1.2891094026454855,
                -1.4660735657817194,
                -1.1090980456490984,
                -1.805901246448473,
                -1.0176986218465727,
                0.9670797279254515
            ]
        },
        {
            "positions": [
                1.1480600899009359,
                -1.4882469626431085,
                -1.0280459928422936,
                -1.8316362759680007,
                -0.962373793121762,
                1.0195857233974839
            ]
        },
        {
            "positions": [
                1.0070107771563868,
                -1.5104203595044978,
                -0.9469939400354891,
                -1.8573713054875287,
                -0.9070489643969513,
                1.0720917188695163
            ]
        },
        {
            "positions": [
                0.8659614644118372,
                -1.532593756365887,
                -0.8659418872286844,
                -1.8831063350070565,
                -0.8517241356721404,
                1.1245977143415486
            ]
        },
        {
            "positions": [
                0.7249121516672881,
                -1.5547671532272762,
                -0.7848898344218798,
                -1.9088413645265843,
                -0.7963993069473297,
                1.177103709813581
            ]
        },
        {
            "positions": [
                0.5838628389227387,
                -1.5769405500886653,
                -0.7038377816150749,
                -1.9345763940461123,
                -0.7410744782225189,
                1.2296097052856134
            ]
        },
        {
            "positions": [
                0.4428135261781896,
                -1.5991139469500544,
                -0.6227857288082705,
                -1.9603114235656403,
                -0.6857496494977082,
                1.2821157007576458
            ]
        },
        {
            "positions": [
                0.30176421343364,
                -1.6212873438114437,
                -0.5417336760014657,
                -1.986046453085168,
                -0.6304248207728974,
                1.3346216962296782
            ]
        },
        {
            "positions": [
                0.1607149006890909,
                -1.643460740672833,
                -0.4606816231946611,
                -2.011781482604696,
                -0.5750999920480868,
                1.3871276917017106
            ]
        },
        {
            "positions": [
                0.01966558794454132,
                -1.665634137534222,
                -0.3796295703878563,
                -2.037516512124224,
                -0.5197751633232759,
                1.439633687173743
            ]
        },
        {
            "positions": [
                -0.12138372480000781,
                -1.6878075343956112,
                -0.2985775175810519,
                -2.063251541643752,
                -0.4644503345984652,
                1.4921396826457753
            ]
        },
        {
            "positions": [
                -0.26243303754455727,
                -1.7099809312570005,
                -0.21752546477424708,
                -2.0889865711632796,
                -0.40912550587365437,
                1.5446456781178077
            ]
        },
        {
            "positions": [
                -0.25506089080220146,
                -1.677954117561736,
                -0.07750681632384127,
                -2.0109667269796714,
                -0.3702811449496107,
                1.6414557423444334
            ]
        },
        {
            "positions": [
                -0.24768874405984567,
                -1.645927303866472,
                0.06251183212656455,
                -1.9329468827960627,
                -0.331436784025567,
                1.738265806571059
            ]
        },
        {
            "positions": [
                -0.2403165973174899,
                -1.6139004901712077,
                0.2025304805769704,
                -1.8549270386124546,
                -0.2925924231015233,
                1.8350758707976846
            ]
        },
        {
            "positions": [
                -0.2329444505751341,
                -1.5818736764759433,
                0.3425491290273762,
                -1.7769071944288461,
                -0.2537480621774796,
                1.9318859350243103
            ]
        },
        {
            "positions": [
                -0.22557230383277832,
                -1.549846862780679,
                0.4825677774777821,
                -1.6988873502452377,
                -0.21490370125343583,
                2.028695999250936
            ]
        },
        {
            "positions": [
                -0.2182001570904225,
                -1.5178200490854148,
                0.6225864259281879,
                -1.6208675060616295,
                -0.17605934032939216,
                2.1255060634775615
            ]
        },
        {
            "positions": [
                -0.21082801034806672,
                -1.4857932353901506,
                0.7626050743785938,
                -1.542847661878021,
                -0.13721497940534844,
                2.2223161277041874
            ]
        },
        {
            "positions": [
                -0.20345586360571094,
                -1.4537664216948862,
                0.9026237228289995,
                -1.4648278176944127,
                -0.09837061848130474,
                2.3191261919308133
            ]
        },
        {
            "positions": [
                -0.19608371686335513,
                -1.4217396079996218,
                1.0426423712794055,
                -1.386807973510804,
                -0.059526257557260986,
                2.4159362561574387
            ]
        },
        {
            "positions": [
                -0.18871157012099934,
                -1.3897127943043577,
                1.1826610197298113,
                -1.308788129327196,
                -0.02068189663321729,
                2.5127463203840645
            ]
        },
        {
            "positions": [
                -0.18133942337864356,
                -1.3576859806090935,
                1.322679668180217,
                -1.2307682851435877,
                0.018162464290826352,
                2.60955638461069
            ]
        },
        {
            "positions": [
                -0.17396727663628775,
                -1.3256591669138291,
                1.4626983166306229,
                -1.1527484409599793,
                0.05700682521487005,
                2.706366448837316
            ]
        },
        {
            "positions": [
                -0.16659512989393196,
                -1.2936323532185647,
                1.602716965081029,
                -1.074728596776371,
                0.09585118613891386,
                2.8031765130639412
            ]
        },
        {
            "positions": [
                -0.15922298315157618,
                -1.2616055395233006,
                1.7427356135314347,
                -0.9967087525927625,
                0.1346955470629575,
                2.899986577290567
            ]
        },
        {
            "positions": [
                -0.06512610153518622,
                -1.2194426002328993,
                1.8160566917283898,
                -0.9107153887981677,
                0.13488328376114087,
                2.952332571794257
            ]
        },
        {
            "positions": [
                0.02897078008120374,
                -1.177279660942498,
                1.889377769925345,
                -0.8247220250035731,
                0.13507102045932426,
                3.0046785662979474
            ]
        },
        {
            "positions": [
                0.12306766169759367,
                -1.1351167216520968,
                1.9626988481223,
                -0.7387286612089783,
                0.13525875715750763,
                3.0570245608016373
            ]
        }
    ]
}{
    "goal": {
        "global_pose": {
            "orientation": {
                "w": 0.7047431468963623,
                "x": -0.7094548344612122,
                "y": 0.0024358443915843964,
                "z": -0.0022348060738295317
            },
            "position": {
                "x": 0.6094750761985779,
                "y": 0.3671506643295288,
                "z": 0.19426114857196808
            }
        },
        "name": "move_to_magneteinheit_A"
    },
    "id": "RRTConnect_move_to_magneteinheit_A_87",
    "joint_names": [
        "shoulder_pan_joint",
        "shoulder_lift_joint",
        "elbow_joint",
        "wrist_1_joint",
        "wrist_2_joint",
        "wrist_3_joint"
    ],
    "metrics": {
        "cart_traj_len": 1.394623989441883,
        "distance_elbow_joint": 0.4017706828108303,
        "distance_shoulder_lift_joint": 1.0836014481499525,
        "distance_shoulder_pan_joint": 1.242288467036925,
        "distance_wrist_1_joint": 0.858306792855489,
        "distance_wrist_2_joint": 1.430138889239185,
        "distance_wrist_3_joint": 4.341779127556107,
        "smoothness": 0.18545081038102376,
        "time": 0.079923418,
        "traj_len": 3.0590661005686832,
        "weighted_distance": 4.508867856220159
    },
    "planner": "RRTConnect",
    "start": {
        "state": {
            "elbow_joint": 1.919643534880228,
            "shoulder_lift_joint": -1.8972525353963687,
            "shoulder_pan_joint": -1.1188672234189438,
            "wrist_1_joint": -1.5931878212786155,
            "wrist_2_joint": 1.5706036197970081,
            "wrist_3_joint": 1.118896926603594
        }
    },
    "waypoints": [
        {
            "positions": [
                -1.1188672234189438,
                -1.8972525353963687,
                1.919643534880228,
                -1.5931878212786155,
                1.5706036197970081,
                1.118896926603594
            ]
        },
        {
            "positions": [
                -1.069075488407913,
                -1.8553151861161234,
                1.9114844460602707,
                -1.5546073440418737,
                1.5138575794934868,
                0.9306876676346592
            ]
        },
        {
            "positions": [
                -1.019283753396882,
                -1.8133778368358784,
                1.9033253572403135,
                -1.5160268668051318,
                1.4571115391899652,
                0.7424784086657243
            ]
        },
        {
            "positions": [
                -0.969492018385851,
                -1.771440487555633,
                1.895166268420356,
                -1.47744638956839,
                1.4003654988864436,
                0.5542691496967896
            ]
        },
        {
            "positions": [
                -0.91970028337482,
                -1.7295031382753878,
                1.8870071796003987,
                -1.4388659123316483,
                1.3436194585829222,
                0.36605989072785483
            ]
        },
        {
            "positions": [
                -0.8699085483637892,
                -1.6875657889951428,
                1.8788480907804412,
                -1.4002854350949065,
                1.2868734182794008,
                0.17785063175892013
            ]
        },
        {
            "positions": [
                -0.8201168133527581,
                -1.6456284397148975,
                1.870689001960484,
                -1.3617049578581648,
                1.2301273779758792,
                -0.010358627210014681
            ]
        },
        {
            "positions": [
                -0.7703250783417273,
                -1.6036910904346522,
                1.8625299131405266,
                -1.3231244806214228,
                1.1733813376723576,
                -0.1985678861789495
            ]
        },
        {
            "positions": [
                -0.7205333433306962,
                -1.5617537411544071,
                1.8543708243205692,
                -1.284544003384681,
                1.1166352973688363,
                -0.3867771451478843
            ]
        },
        {
            "positions": [
                -0.6707416083196653,
                -1.5198163918741618,
                1.8462117355006118,
                -1.2459635261479394,
                1.059889257065315,
                -0.5749864041168191
            ]
        },
        {
            "positions": [
                -0.6209498733086344,
                -1.4778790425939168,
                1.8380526466806546,
                -1.2073830489111974,
                1.0031432167617933,
                -0.7631956630857537
            ]
        },
        {
            "positions": [
                -0.5711581382976034,
                -1.4359416933136715,
                1.8298935578606972,
                -1.1688025716744557,
                0.9463971764582718,
                -0.9514049220546885
            ]
        },
        {
            "positions": [
                -0.5213664032865725,
                -1.3940043440334264,
                1.8217344690407398,
                -1.130222094437714,
                0.8896511361547503,
                -1.1396141810236233
            ]
        },
        {
            "positions": [
                -0.4715746682755415,
                -1.352066994753181,
                1.8135753802207826,
                -1.0916416172009722,
                0.8329050958512288,
                -1.3278234399925581
            ]
        },
        {
            "positions": [
                -0.42178293326451055,
                -1.3101296454729359,
                1.8054162914008252,
                -1.0530611399642305,
                0.7761590555477074,
                -1.516032698961493
            ]
        },
        {
            "positions": [
                -0.3719911982534797,
                -1.2681922961926908,
                1.7972572025808677,
                -1.0144806627274887,
                0.719413015244186,
                -1.7042419579304273
            ]
        },
        {
            "positions": [
                -0.32219946324244864,
                -1.2262549469124453,
                1.7890981137609103,
                -0.9759001854907468,
                0.6626669749406644,
                -1.8924512168993626
            ]
        },
        {
            "positions": [
                -0.2724077282314178,
                -1.1843175976322002,
                1.7809390249409531,
                -0.937319708254005,
                0.6059209346371429,
                -2.0806604758682967
            ]
        },
        {
            "positions": [
                -0.22261599322038672,
                -1.1423802483519552,
                1.7727799361209957,
                -0.8987392310172632,
                0.5491748943336214,
                -2.2688697348372324
            ]
        },
        {
            "positions": [
                -0.17282425820935587,
                -1.10044289907171,
                1.7646208473010383,
                -0.8601587537805213,
                0.49242885403009984,
                -2.4570789938061663
            ]
        },
        {
            "positions": [
                -0.12303252319832492,
                -1.0585055497914646,
                1.7564617584810809,
                -0.8215782765437796,
                0.43568281372657847,
                -2.645288252775101
            ]
        },
        {
            "positions": [
                -0.07324078818729385,
                -1.0165682005112195,
                1.7483026696611237,
                -0.7829977993070377,
                0.37893677342305687,
                -2.833497511744036
            ]
        },
        {
            "positions": [
                -0.023449053176263085,
                -0.9746308512309743,
                1.7401435808411663,
                -0.744417322070296,
                0.3221907331195355,
                -3.0217067707129712
            ]
        },
        {
            "positions": [
                0.02550771242181827,
                -1.0282907725591603,
                1.814233823765089,
                -0.7412385575212395,
                0.26161539893229796,
                -3.088765247459485
            ]
        },
        {
            "positions": [
                0.07446447801989962,
                -1.0819506938873462,
                1.888324066689012,
                -0.7380597929721829,
                0.20104006474506045,
                -3.155823724205999
            ]
        },
        {
            "positions": [
                0.12342124361798099,
                -1.1356106152155323,
                1.9624143096129347,
                -0.7348810284231264,
                0.1404647305578229,
                -3.2228822009525127
            ]
        }
    ]
}