{
    "goal": {
        "global_pose": {
            "orientation": {
                "w": 0.7047431468963623,
                "x": -0.7094548344612122,
                "y": 0.0024358443915843964,
                "z": -0.0022348060738295317
            },
            "position": {
                "x": 0.6094750761985779,
                "y": 0.3671506643295288,
                "z": 0.19426114857196808
            }
        },
        "name": "move_to_magneteinheit_A"
    },
    "id": "RRTConnect_move_to_magneteinheit_A_148",
    "joint_names": [
        "shoulder_pan_joint",
        "shoulder_lift_joint",
        "elbow_joint",
        "wrist_1_joint",
        "wrist_2_joint",
        "wrist_3_joint"
    ],
    "metrics": {
        "cart_traj_len": 3.5498343730056443,
        "distance_elbow_joint": 3.9079694268995584,
        "distance_shoulder_lift_joint": 0.26264595373947186,
        "distance_shoulder_pan_joint": 2.799381709535815,
        "distance_wrist_1_joint": 0.6921624281075754,
        "distance_wrist_2_joint": 2.0673939801903076,
        "distance_wrist_3_joint": 3.57154575099841,
        "smoothness": 0.07869029348345934,
        "time": 0.073568317,
        "traj_len": 3.647067212085779,
        "weighted_distance": 4.81702679666263
    },
    "planner": "RRTConnect",
    "start": {
        "state": {
            "elbow_joint": -1.919618573717145,
            "shoulder_lift_joint": -1.2443395971678275,
            "shoulder_pan_joint": 2.6996025300909787,
            "wrist_1_joint": -1.548550951253194,
            "wrist_2_joint": -1.5709469090946802,
            "wrist_3_joint": 0.4420197732051276
        }
    },
    "waypoints": [
        {
            "positions": [
                2.6996025300909787,
                -1.2443395971678275,
                -1.919618573717145,
                -1.548550951253194,
                -1.5709469090946802,
                0.4420197732051276
            ]
        },
        {
            "positions": [
                2.603609523456268,
                -1.2473022093551034,
                -1.815485137757241,
                -1.5315763535808347,
                -1.503589670842103,
                0.3351115813933089
            ]
        },
        {
            "positions": [
                2.5076165168215576,
                -1.2502648215423793,
                -1.711351701797337,
                -1.5146017559084752,
                -1.4362324325895257,
                0.2282033895814901
            ]
        },
        {
            "positions": [
                2.411623510186847,
                -1.2532274337296554,
                -1.607218265837433,
                -1.4976271582361158,
                -1.3688751943369484,
                0.12129519776967135
            ]
        },
        {
            "positions": [
                2.3156305035521365,
                -1.2561900459169313,
                -1.503084829877529,
                -1.4806525605637564,
                -1.3015179560843713,
                0.014387005957852639
            ]
        },
        {
            "positions": [
                2.219637496917426,
                -1.2591526581042072,
                -1.398951393917625,
                -1.463677962891397,
                -1.2341607178317942,
                -0.09252118585396613
            ]
        },
        {
            "positions": [
                2.1236444902827154,
                -1.262115270291483,
                -1.294817957957721,
                -1.4467033652190375,
                -1.1668034795792168,
                -0.1994293776657849
            ]
        },
        {
            "positions": [
                2.027651483648005,
                -1.265077882478759,
                -1.190684521997817,
                -1.429728767546678,
                -1.0994462413266395,
                -0.30633756947760366
            ]
        },
        {
            "positions": [
                1.9316584770132945,
                -1.2680404946660349,
                -1.086551086037913,
                -1.412754169874319,
                -1.0320890030740624,
                -0.4132457612894223
            ]
        },
        {
            "positions": [
                1.8356654703785837,
                -1.271003106853311,
                -0.982417650078009,
                -1.3957795722019595,
                -0.9647317648214851,
                -0.5201539531012411
            ]
        },
        {
            "positions": [
                1.7396724637438732,
                -1.2739657190405869,
                -0.8782842141181051,
                -1.3788049745296,
                -0.8973745265689079,
                -0.6270621449130598
            ]
        },
        {
            "positions": [
                1.6436794571091629,
                -1.2769283312278628,
                -0.7741507781582011,
                -1.3618303768572406,
                -0.8300172883163307,
                -0.7339703367248787
            ]
        },
        {
            "positions": [
                1.5476864504744523,
                -1.2798909434151386,
                -0.6700173421982971,
                -1.3448557791848812,
                -0.7626600500637535,
                -0.8408785285366973
            ]
        },
        {
            "positions": [
                1.4516934438397417,
                -1.2828535556024145,
                -0.5658839062383931,
                -1.3278811815125218,
                -0.6953028118111763,
                -0.9477867203485162
            ]
        },
        {
            "positions": [
                1.3557004372050312,
                -1.2858161677896907,
                -0.46175047027848914,
                -1.3109065838401623,
                -0.627945573558599,
                -1.0546949121603348
            ]
        },
        {
            "positions": [
                1.2597074305703206,
                -1.2887787799769665,
                -0.35761703431858516,
                -1.293931986167803,
                -0.5605883353060219,
                -1.1616031039721535
            ]
        },
        {
            "positions": [
                1.1637144239356103,
                -1.2917413921642424,
                -0.2534835983586812,
                -1.2769573884954435,
                -0.4932310970534446,
                -1.2685112957839721
            ]
        },
        {
            "positions": [
                1.0677214173008998,
                -1.2947040043515183,
                -0.1493501623987774,
                -1.259982790823084,
                -0.4258738588008675,
                -1.375419487595791
            ]
        },
        {
            "positions": [
                0.971728410666189,
                -1.2976666165387942,
                -0.04521672643887298,
                -1.2430081931507246,
                -0.35851662054829014,
                -1.48232767940761
            ]
        },
        {
            "positions": [
                0.8757354040314784,
                -1.3006292287260701,
                0.058916709521030786,
                -1.2260335954783652,
                -0.2911593822957128,
                -1.5892358712194286
            ]
        },
        {
            "positions": [
                0.7797423973967679,
                -1.3035918409133462,
                0.16305014548093477,
                -1.209058997806006,
                -0.2238021440431357,
                -1.6961440630312472
            ]
        },
        {
            "positions": [
                0.6837493907620575,
                -1.3065544531006221,
                0.26718358144083854,
                -1.1920844001336466,
                -0.15644490579055859,
                -1.8030522548430659
            ]
        },
        {
            "positions": [
                0.587756384127347,
                -1.309517065287898,
                0.37131701740074274,
                -1.1751098024612872,
                -0.08908766753798125,
                -1.909960446654885
            ]
        },
        {
            "positions": [
                0.49176337749263643,
                -1.312479677475174,
                0.4754504533606465,
                -1.1581352047889277,
                -0.02173042928540414,
                -2.0168686384667036
            ]
        },
        {
            "positions": [
                0.3957703708579259,
                -1.3154422896624498,
                0.5795838893205507,
                -1.1411606071165683,
                0.045626808967173194,
                -2.1237768302785223
            ]
        },
        {
            "positions": [
                0.2997773642232153,
                -1.3184049018497257,
                0.6837173252804549,
                -1.1241860094442089,
                0.11298404721975053,
                -2.2306850220903414
            ]
        },
        {
            "positions": [
                0.20378435758850477,
                -1.3213675140370018,
                0.7878507612403587,
                -1.1072114117718495,
                0.18034128547232764,
                -2.33759321390216
            ]
        },
        {
            "positions": [
                0.10779135095379422,
                -1.3243301262242777,
                0.8919841972002629,
                -1.09023681409949,
                0.24769852372490497,
                -2.4445014057139787
            ]
        },
        {
            "positions": [
                0.011798344319083776,
                -1.3272927384115536,
                0.9961176331601667,
                -1.0732622164271306,
                0.3150557619774821,
                -2.5514095975257973
            ]
        },
        {
            "positions": [
                0.017648134795106973,
                -1.301129832154882,
                1.1401804061714795,
                -1.0396401963324806,
                0.29303937201771685,
                -2.640204520806157
            ]
        },
        {
            "positions": [
                0.02349792527113017,
                -1.2749669258982106,
                1.2842431791827926,
                -1.0060181762378306,
                0.2710229820579516,
                -2.7289994440865173
            ]
        },
        {
            "positions": [
                0.029347715747153367,
                -1.248804019641539,
                1.4283059521941055,
                -0.9723961561431806,
                0.24900659209818637,
                -2.8177943673668775
            ]
        },
        {
            "positions": [
                0.035197506223176564,
                -1.2226411133848676,
                1.5723687252054184,
                -0.9387741360485307,
                0.22699020213842114,
                -2.9065892906472373
            ]
        },
        {
            "positions": [
                0.06459029350978561,
                -1.1976273842285143,
                1.7110294345310835,
                -0.9113122650808934,
                0.19588161904539306,
                -2.980901519695919
            ]
        },
        {
            "positions": [
                0.09398308079639467,
                -1.172613655072161,
                1.8496901438567486,
                -0.8838503941132559,
                0.16477303595236498,
                -3.0552137487446007
            ]
        },
        {
            "positions": [
                0.12337586808300371,
                -1.1475999259158078,
                1.9883508531824137,
                -0.8563885231456186,
                0.13366445285933687,
                -3.1295259777932825
            ]
        }
    ]
}{
    "goal": {
        "global_pose": {
            "orientation": {
                "w": 0.7047431468963623,
                "x": -0.7094548344612122,
                "y": 0.0024358443915843964,
                "z": -0.0022348060738295317
            },
            "position": {
                "x": 0.6094750761985779,
                "y": 0.3671506643295288,
                "z": 0.19426114857196808
            }
        },
        "name": "move_to_magneteinheit_A"
    },
    "id": "RRTConnect_move_to_magneteinheit_A_148",
    "joint_names": [
        "shoulder_pan_joint",
        "shoulder_lift_joint",
        "elbow_joint",
        "wrist_1_joint",
        "wrist_2_joint",
        "wrist_3_joint"
    ],
    "metrics": {
        "cart_traj_len": 1.1949280290437603,
        "distance_elbow_joint": 0.040066175889814426,
        "distance_shoulder_lift_joint": 0.7644086984738767,
        "distance_shoulder_pan_joint": 1.2405803130273754,
        "distance_wrist_1_joint": 0.9181251457598725,
        "distance_wrist_2_joint": 1.5123289601286407,
        "distance_wrist_3_joint": 4.369948577924777,
        "smoothness": 0.22711637886593594,
        "time": 0.080314053,
        "traj_len": 2.9741314482054015,
        "weighted_distance": 4.473903120647834
    },
    "planner": "RRTConnect",
    "start": {
        "state": {
            "elbow_joint": 1.919643534880228,
            "shoulder_lift_joint": -1.8972525353963687,
            "shoulder_pan_joint": -1.1188672234189438,
            "wrist_1_joint": -1.5931878212786155,
            "wrist_2_joint": 1.5706036197970081,
            "wrist_3_joint": 1.118896926603594
        }
    },
    "waypoints": [
        {
            "positions": [
                -1.1188672234189438,
                -1.8972525353963687,
                1.919643534880228,
                -1.5931878212786155,
                1.5706036197970081,
                1.118896926603594
            ]
        },
        {
            "positions": [
                -1.0667080675400282,
                -1.86500754882793,
                1.92143323428177,
                -1.5523607036685836,
                1.5036159407267498,
                0.9256411399214828
            ]
        },
        {
            "positions": [
                -1.0145489116611126,
                -1.8327625622594912,
                1.9232229336833115,
                -1.5115335860585517,
                1.4366282616564916,
                0.7323853532393716
            ]
        },
        {
            "positions": [
                -0.9623897557821969,
                -1.8005175756910525,
                1.9250126330848534,
                -1.4707064684485198,
                1.3696405825862332,
                0.5391295665572604
            ]
        },
        {
            "positions": [
                -0.9102305999032811,
                -1.7682725891226136,
                1.9268023324863952,
                -1.429879350838488,
                1.302652903515975,
                0.3458737798751492
            ]
        },
        {
            "positions": [
                -0.8580714440243655,
                -1.736027602554175,
                1.9285920318879368,
                -1.389052233228456,
                1.2356652244457167,
                0.15261799319303804
            ]
        },
        {
            "positions": [
                -0.8059122881454499,
                -1.703782615985736,
                1.9303817312894787,
                -1.348225115618424,
                1.1686775453754583,
                -0.04063779348907315
            ]
        },
        {
            "positions": [
                -0.7537531322665343,
                -1.6715376294172972,
                1.9321714306910205,
                -1.3073979980083923,
                1.1016898663052002,
                -0.23389358017118433
            ]
        },
        {
            "positions": [
                -0.7015939763876186,
                -1.6392926428488586,
                1.933961130092562,
                -1.2665708803983602,
                1.0347021872349418,
                -0.4271493668532955
            ]
        },
        {
            "positions": [
                -0.6494348205087028,
                -1.60704765628042,
                1.935750829494104,
                -1.2257437627883283,
                0.9677145081646835,
                -0.6204051535354067
            ]
        },
        {
            "positions": [
                -0.5972756646297873,
                -1.574802669711981,
                1.9375405288956458,
                -1.1849166451782964,
                0.9007268290944253,
                -0.8136609402175179
            ]
        },
        {
            "positions": [
                -0.5451165087508716,
                -1.5425576831435421,
                1.9393302282971874,
                -1.1440895275682645,
                0.833739150024167,
                -1.006916726899629
            ]
        },
        {
            "positions": [
                -0.49295735287195597,
                -1.5103126965751035,
                1.9411199276987292,
                -1.1032624099582327,
                0.7667514709539087,
                -1.2001725135817403
            ]
        },
        {
            "positions": [
                -0.44079819699304024,
                -1.4780677100066648,
                1.942909627100271,
                -1.0624352923482006,
                0.6997637918836503,
                -1.3934283002638514
            ]
        },
        {
            "positions": [
                -0.3886390411141246,
                -1.445822723438226,
                1.9446993265018129,
                -1.021608174738169,
                0.6327761128133922,
                -1.5866840869459626
            ]
        },
        {
            "positions": [
                -0.336479885235209,
                -1.4135777368697873,
                1.9464890259033545,
                -0.980781057128137,
                0.5657884337431338,
                -1.7799398736280738
            ]
        },
        {
            "positions": [
                -0.28432072935629327,
                -1.3813327503013484,
                1.9482787253048963,
                -0.939953939518105,
                0.49880075467287543,
                -1.973195660310185
            ]
        },
        {
            "positions": [
                -0.23216157347737765,
                -1.3490877637329097,
                1.9500684247064382,
                -0.8991268219080731,
                0.4318130756026173,
                -2.166451446992296
            ]
        },
        {
            "positions": [
                -0.18000241759846192,
                -1.3168427771644708,
                1.9518581241079798,
                -0.8582997042980411,
                0.3648253965323589,
                -2.359707233674407
            ]
        },
        {
            "positions": [
                -0.1278432617195463,
                -1.284597790596032,
                1.9536478235095216,
                -0.8174725866880093,
                0.29783771746210075,
                -2.5529630203565183
            ]
        },
        {
            "positions": [
                -0.07568410584063079,
                -1.2523528040275933,
                1.9554375229110634,
                -0.7766454690779775,
                0.23085003839184237,
                -2.7462188070386295
            ]
        },
        {
            "positions": [
                -0.023524949961714947,
                -1.2201078174591546,
                1.957227222312605,
                -0.7358183514679455,
                0.163862359321584,
                -2.9394745937207407
            ]
        },
        {
            "positions": [
                0.028634205917200742,
                -1.1878628308907158,
                1.9590169217141469,
                -0.6949912338579136,
                0.09687468025132576,
                -3.132730380402852
            ]
        },
        {
            "positions": [
                0.12171308960843166,
                -1.132843836922492,
                1.9597097107700425,
                -0.7149197921970842,
                0.1354747008342842,
                -3.251051651321183
            ]
        }
    ]
}