{
    "goal": {
        "global_pose": {
            "orientation": {
                "w": 0.7047431468963623,
                "x": -0.7094548344612122,
                "y": 0.0024358443915843964,
                "z": -0.0022348060738295317
            },
            "position": {
                "x": 0.6094750761985779,
                "y": 0.3671506643295288,
                "z": 0.19426114857196808
            }
        },
        "name": "move_to_magneteinheit_A"
    },
    "id": "RRTConnect_move_to_magneteinheit_A_44",
    "joint_names": [
        "shoulder_pan_joint",
        "shoulder_lift_joint",
        "elbow_joint",
        "wrist_1_joint",
        "wrist_2_joint",
        "wrist_3_joint"
    ],
    "metrics": {
        "cart_traj_len": 3.3551250652662117,
        "distance_elbow_joint": 3.8719616518760924,
        "distance_shoulder_lift_joint": 1.3740884399434472,
        "distance_shoulder_pan_joint": 3.0702583076039636,
        "distance_wrist_1_joint": 1.8512850713699365,
        "distance_wrist_2_joint": 2.584101506594061,
        "distance_wrist_3_joint": 2.583226523798855,
        "smoothness": 0.3297367918714014,
        "time": 0.073310926,
        "traj_len": 3.9159828269779684,
        "weighted_distance": 4.993672108453666
    },
    "planner": "RRTConnect",
    "start": {
        "state": {
            "elbow_joint": -1.919618573717145,
            "shoulder_lift_joint": -1.2443395971678275,
            "shoulder_pan_joint": 2.6996025300909787,
            "wrist_1_joint": -1.548550951253194,
            "wrist_2_joint": -1.5709469090946802,
            "wrist_3_joint": 0.4420197732051276
        }
    },
    "waypoints": [
        {
            "positions": [
                2.6996025300909787,
                -1.2443395971678275,
                -1.919618573717145,
                -1.548550951253194,
                -1.5709469090946802,
                0.4420197732051276
            ]
        },
        {
            "positions": [
                2.600323346248211,
                -1.2705678626604844,
                -1.8172337735719128,
                -1.4965177049691614,
                -1.4818559313987882,
                0.45610588286551906
            ]
        },
        {
            "positions": [
                2.501044162405443,
                -1.2967961281531413,
                -1.714848973426681,
                -1.4444844586851286,
                -1.3927649537028963,
                0.47019199252591054
            ]
        },
        {
            "positions": [
                2.401764978562675,
                -1.3230243936457982,
                -1.6124641732814489,
                -1.392451212401096,
                -1.3036739760070044,
                0.4842781021863021
            ]
        },
        {
            "positions": [
                2.302485794719907,
                -1.3492526591384548,
                -1.5100793731362168,
                -1.3404179661170632,
                -1.2145829983111127,
                0.49836421184669355
            ]
        },
        {
            "positions": [
                2.2032066108771393,
                -1.3754809246311117,
                -1.4076945729909847,
                -1.2883847198330305,
                -1.1254920206152208,
                0.512450321507085
            ]
        },
        {
            "positions": [
                2.1039274270343715,
                -1.4017091901237686,
                -1.3053097728457528,
                -1.2363514735489978,
                -1.0364010429193289,
                0.5265364311674765
            ]
        },
        {
            "positions": [
                2.0046482431916033,
                -1.4279374556164255,
                -1.2029249727005207,
                -1.1843182272649648,
                -0.947310065223437,
                0.540622540827868
            ]
        },
        {
            "positions": [
                1.9053690593488357,
                -1.4541657211090824,
                -1.1005401725552888,
                -1.1322849809809323,
                -0.8582190875275452,
                0.5547086504882595
            ]
        },
        {
            "positions": [
                1.8060898755060677,
                -1.4803939866017393,
                -0.9981553724100567,
                -1.0802517346968994,
                -0.7691281098316533,
                0.5687947601486509
            ]
        },
        {
            "positions": [
                1.7068106916633,
                -1.5066222520943962,
                -0.8957705722648246,
                -1.028218488412867,
                -0.6800371321357613,
                0.5828808698090424
            ]
        },
        {
            "positions": [
                1.6075315078205321,
                -1.532850517587053,
                -0.7933857721195927,
                -0.9761852421288341,
                -0.5909461544398695,
                0.5969669794694339
            ]
        },
        {
            "positions": [
                1.508252323977764,
                -1.55907878307971,
                -0.6910009719743606,
                -0.9241519958448013,
                -0.5018551767439776,
                0.6110530891298255
            ]
        },
        {
            "positions": [
                1.4089731401349963,
                -1.5853070485723666,
                -0.5886161718291287,
                -0.8721187495607686,
                -0.4127641990480859,
                0.625139198790217
            ]
        },
        {
            "positions": [
                1.3096939562922283,
                -1.6115353140650235,
                -0.4862313716838964,
                -0.8200855032767358,
                -0.3236732213521938,
                0.6392253084506084
            ]
        },
        {
            "positions": [
                1.2104147724494605,
                -1.6377635795576804,
                -0.3838465715386645,
                -0.7680522569927032,
                -0.23458224365630187,
                0.6533114181109999
            ]
        },
        {
            "positions": [
                1.1111355886066927,
                -1.6639918450503373,
                -0.28146177139343265,
                -0.7160190107086705,
                -0.14549126596041018,
                0.6673975277713914
            ]
        },
        {
            "positions": [
                1.0118564047639247,
                -1.6902201105429941,
                -0.17907697124820032,
                -0.6639857644246376,
                -0.05640028826451804,
                0.681483637431783
            ]
        },
        {
            "positions": [
                0.9125772209211567,
                -1.716448376035651,
                -0.07669217110296844,
                -0.6119525181406049,
                0.032690689431373654,
                0.6955697470921745
            ]
        },
        {
            "positions": [
                0.8132980370783889,
                -1.7426766415283077,
                0.025692629042263437,
                -0.5599192718565723,
                0.12178166712726535,
                0.7096558567525659
            ]
        },
        {
            "positions": [
                0.7140188532356209,
                -1.7689049070209646,
                0.12807742918749576,
                -0.5078860255725395,
                0.21087264482315748,
                0.7237419664129574
            ]
        },
        {
            "positions": [
                0.6147396693928533,
                -1.7951331725136215,
                0.23046222933272786,
                -0.45585277928850676,
                0.2999636225190492,
                0.7378280760733489
            ]
        },
        {
            "positions": [
                0.5154604855500855,
                -1.8213614380062784,
                0.3328470294779595,
                -0.40381953300447404,
                0.3890546002149411,
                0.7519141857337404
            ]
        },
        {
            "positions": [
                0.41618130170731726,
                -1.8475897034989353,
                0.4352318296231916,
                -0.3517862867204413,
                0.478145577910833,
                0.7660002953941318
            ]
        },
        {
            "positions": [
                0.3169021178645496,
                -1.8738179689915921,
                0.5376166297684238,
                -0.2997530404364086,
                0.567236555606725,
                0.7800864050545233
            ]
        },
        {
            "positions": [
                0.2853656029336568,
                -1.8396785585688498,
                0.6321285109548338,
                -0.3354254828259594,
                0.5441233679806203,
                0.9304456726087535
            ]
        },
        {
            "positions": [
                0.2538290880027641,
                -1.8055391481461074,
                0.7266403921412439,
                -0.37109792521551027,
                0.5210101803545155,
                1.0808049401629838
            ]
        },
        {
            "positions": [
                0.22229257307187134,
                -1.771399737723365,
                0.8211522733276538,
                -0.4067703676050611,
                0.4978969927284108,
                1.231164207717214
            ]
        },
        {
            "positions": [
                0.1907560581409786,
                -1.7372603273006226,
                0.9156641545140638,
                -0.44244280999461194,
                0.4747838051023061,
                1.3815234752714443
            ]
        },
        {
            "positions": [
                0.15921954321008583,
                -1.70312091687788,
                1.0101760357004739,
                -0.47811525238416275,
                0.4516706174762014,
                1.5318827428256745
            ]
        },
        {
            "positions": [
                0.1276830282791931,
                -1.6689815064551377,
                1.104687916886884,
                -0.5137876947737136,
                0.42855742985009665,
                1.6822420103799047
            ]
        },
        {
            "positions": [
                0.09614651334830032,
                -1.6348420960323953,
                1.1991997980732938,
                -0.5494601371632644,
                0.4054442422239919,
                1.832601277934135
            ]
        },
        {
            "positions": [
                0.06460999841740761,
                -1.600702685609653,
                1.2937116792597039,
                -0.5851325795528153,
                0.3823310545978872,
                1.9829605454883652
            ]
        },
        {
            "positions": [
                0.03307348348651479,
                -1.5665632751869105,
                1.388223560446114,
                -0.6208050219423661,
                0.35921786697178243,
                2.133319813042595
            ]
        },
        {
            "positions": [
                0.0015369685556220758,
                -1.532423864764168,
                1.4827354416325238,
                -0.6564774643319169,
                0.3361046793456777,
                2.2836790805968255
            ]
        },
        {
            "positions": [
                -0.02999954637527069,
                -1.4982844543414258,
                1.577247322818934,
                -0.6921499067214678,
                0.312991491719573,
                2.4340383481510557
            ]
        },
        {
            "positions": [
                -0.0615360613061634,
                -1.4641450439186832,
                1.671759204005344,
                -0.7278223491110185,
                0.28987830409346826,
                2.584397615705286
            ]
        },
        {
            "positions": [
                -0.09307257623705623,
                -1.4300056334959408,
                1.7662710851917538,
                -0.7634947915005694,
                0.2667651164673635,
                2.734756883259516
            ]
        },
        {
            "positions": [
                -0.12460909116794894,
                -1.3958662230731984,
                1.8607829663781639,
                -0.7991672338901202,
                0.2436519288412588,
                2.885116150813747
            ]
        },
        {
            "positions": [
                -0.04259352905293631,
                -1.3069801156727687,
                1.8913030036384255,
                -0.7648095781903071,
                0.2028741237988628,
                2.9318261995438255
            ]
        },
        {
            "positions": [
                0.03942203306207631,
                -1.2180940082723393,
                1.9218230408986872,
                -0.7304519224904942,
                0.1620963187564668,
                2.978536248273904
            ]
        },
        {
            "positions": [
                0.12143759517708898,
                -1.1292079008719096,
                1.9523430781589488,
                -0.6960942667906811,
                0.1213185137140708,
                3.025246297003983
            ]
        }
    ]
}{
    "goal": {
        "global_pose": {
            "orientation": {
                "w": 0.7047431468963623,
                "x": -0.7094548344612122,
                "y": 0.0024358443915843964,
                "z": -0.0022348060738295317
            },
            "position": {
                "x": 0.6094750761985779,
                "y": 0.3671506643295288,
                "z": 0.19426114857196808
            }
        },
        "name": "move_to_magneteinheit_A"
    },
    "id": "RRTConnect_move_to_magneteinheit_A_44",
    "joint_names": [
        "shoulder_pan_joint",
        "shoulder_lift_joint",
        "elbow_joint",
        "wrist_1_joint",
        "wrist_2_joint",
        "wrist_3_joint"
    ],
    "metrics": {
        "cart_traj_len": 2.085946862688384,
        "distance_elbow_joint": 2.5618124934708684,
        "distance_shoulder_lift_joint": 0.7491548773511869,
        "distance_shoulder_pan_joint": 1.2412788263850498,
        "distance_wrist_1_joint": 0.7261854094495568,
        "distance_wrist_2_joint": 1.4404498906255385,
        "distance_wrist_3_joint": 4.232979529304252,
        "smoothness": 0.21263252743996,
        "time": 0.062450334999999996,
        "traj_len": 3.3093596097412035,
        "weighted_distance": 4.645907380186356
    },
    "planner": "RRTConnect",
    "start": {
        "state": {
            "elbow_joint": 1.919643534880228,
            "shoulder_lift_joint": -1.8972525353963687,
            "shoulder_pan_joint": -1.1188672234189438,
            "wrist_1_joint": -1.5931878212786155,
            "wrist_2_joint": 1.5706036197970081,
            "wrist_3_joint": 1.118896926603594
        }
    },
    "waypoints": [
        {
            "positions": [
                -1.1188672234189438,
                -1.8972525353963687,
                1.919643534880228,
                -1.5931878212786155,
                1.5706036197970081,
                1.118896926603594
            ]
        },
        {
            "positions": [
                -1.1116344808262448,
                -1.8302197562649256,
                1.7951007045160163,
                -1.5756039098466366,
                1.5482456783836025,
                0.9627675033531903
            ]
        },
        {
            "positions": [
                -1.1044017382335456,
                -1.7631869771334825,
                1.6705578741518046,
                -1.5580199984146579,
                1.5258877369701966,
                0.8066380801027866
            ]
        },
        {
            "positions": [
                -1.0971689956408466,
                -1.6961541980020394,
                1.5460150437875928,
                -1.540436086982679,
                1.503529795556791,
                0.6505086568523828
            ]
        },
        {
            "positions": [
                -1.0899362530481473,
                -1.629121418870596,
                1.421472213423381,
                -1.5228521755507003,
                1.4811718541433854,
                0.4943792336019791
            ]
        },
        {
            "positions": [
                -1.0827035104554483,
                -1.562088639739153,
                1.2969293830591693,
                -1.5052682641187214,
                1.4588139127299797,
                0.3382498103515754
            ]
        },
        {
            "positions": [
                -1.0754707678627493,
                -1.4950558606077098,
                1.1723865526949575,
                -1.4876843526867425,
                1.4364559713165739,
                0.18212038710117173
            ]
        },
        {
            "positions": [
                -1.06823802527005,
                -1.4280230814762667,
                1.0478437223307457,
                -1.4701004412547638,
                1.4140980299031682,
                0.025990963850768045
            ]
        },
        {
            "positions": [
                -1.061005282677351,
                -1.3609903023448235,
                0.923300891966534,
                -1.452516529822785,
                1.3917400884897626,
                -0.13013845939963575
            ]
        },
        {
            "positions": [
                -1.0537725400846518,
                -1.2939575232133804,
                0.7987580616023222,
                -1.4349326183908062,
                1.3693821470763567,
                -0.28626788265003955
            ]
        },
        {
            "positions": [
                -1.0465397974919528,
                -1.2269247440819373,
                0.6742152312381104,
                -1.4173487069588273,
                1.3470242056629511,
                -0.44239730590044324
            ]
        },
        {
            "positions": [
                -0.9815980530220607,
                -1.2225454615243398,
                0.7473476862285966,
                -1.3867739127849512,
                1.2794202903023133,
                -0.5908242668337885
            ]
        },
        {
            "positions": [
                -0.9166563085521685,
                -1.2181661789667422,
                0.8204801412190826,
                -1.3561991186110753,
                1.2118163749416755,
                -0.7392512277671338
            ]
        },
        {
            "positions": [
                -0.8517145640822764,
                -1.2137868964091447,
                0.8936125962095688,
                -1.3256243244371992,
                1.1442124595810377,
                -0.8876781887004791
            ]
        },
        {
            "positions": [
                -0.7867728196123842,
                -1.2094076138515473,
                0.9667450512000548,
                -1.2950495302633231,
                1.0766085442203996,
                -1.0361051496338245
            ]
        },
        {
            "positions": [
                -0.7218310751424921,
                -1.2050283312939496,
                1.039877506190541,
                -1.264474736089447,
                1.0090046288597618,
                -1.1845321105671696
            ]
        },
        {
            "positions": [
                -0.6568893306726,
                -1.2006490487363521,
                1.1130099611810271,
                -1.2338999419155712,
                0.941400713499124,
                -1.332959071500515
            ]
        },
        {
            "positions": [
                -0.5919475862027078,
                -1.1962697661787547,
                1.1861424161715133,
                -1.203325147741695,
                0.8737967981384862,
                -1.4813860324338601
            ]
        },
        {
            "positions": [
                -0.5270058417328157,
                -1.191890483621157,
                1.2592748711619994,
                -1.172750353567819,
                0.8061928827778484,
                -1.6298129933672056
            ]
        },
        {
            "positions": [
                -0.4620640972629235,
                -1.1875112010635596,
                1.3324073261524854,
                -1.142175559393943,
                0.7385889674172105,
                -1.7782399543005507
            ]
        },
        {
            "positions": [
                -0.3971223527930313,
                -1.183131918505962,
                1.4055397811429717,
                -1.111600765220067,
                0.6709850520565726,
                -1.9266669152338962
            ]
        },
        {
            "positions": [
                -0.3321806083231392,
                -1.1787526359483644,
                1.4786722361334577,
                -1.081025971046191,
                0.6033811366959347,
                -2.0750938761672417
            ]
        },
        {
            "positions": [
                -0.26723886385324713,
                -1.174373353390767,
                1.5518046911239438,
                -1.0504511768723148,
                0.5357772213352969,
                -2.223520837100587
            ]
        },
        {
            "positions": [
                -0.20229711938335493,
                -1.1699940708331695,
                1.62493714611443,
                -1.019876382698439,
                0.4681733059746591,
                -2.371947798033932
            ]
        },
        {
            "positions": [
                -0.13735537491346284,
                -1.1656147882755719,
                1.6980696011049161,
                -0.9893015885245628,
                0.4005693906140212,
                -2.5203747589672774
            ]
        },
        {
            "positions": [
                -0.07241363044357063,
                -1.1612355057179744,
                1.7712020560954023,
                -0.9587267943506868,
                0.33296547525338327,
                -2.668801719900623
            ]
        },
        {
            "positions": [
                -0.007471885973678649,
                -1.156856223160377,
                1.8443345110858882,
                -0.9281520001768108,
                0.2653615598927457,
                -2.817228680833968
            ]
        },
        {
            "positions": [
                0.057469858496213666,
                -1.1524769406027793,
                1.9174669660763743,
                -0.8975772060029348,
                0.19775764453210765,
                -2.965655641767313
            ]
        },
        {
            "positions": [
                0.12241160296610573,
                -1.1480976580451818,
                1.9905994210668605,
                -0.8670024118290587,
                0.1301537291714699,
                -3.1140826027006585
            ]
        }
    ]
}