{
    "goal": {
        "global_pose": {
            "orientation": {
                "w": 0.7047431468963623,
                "x": -0.7094548344612122,
                "y": 0.0024358443915843964,
                "z": -0.0022348060738295317
            },
            "position": {
                "x": 0.6094750761985779,
                "y": 0.3671506643295288,
                "z": 0.19426114857196808
            }
        },
        "name": "move_to_magneteinheit_A"
    },
    "id": "RRTConnect_move_to_magneteinheit_A_114",
    "joint_names": [
        "shoulder_pan_joint",
        "shoulder_lift_joint",
        "elbow_joint",
        "wrist_1_joint",
        "wrist_2_joint",
        "wrist_3_joint"
    ],
    "metrics": {
        "cart_traj_len": 3.26297845566783,
        "distance_elbow_joint": 3.9143121613999803,
        "distance_shoulder_lift_joint": 0.685903259473139,
        "distance_shoulder_pan_joint": 2.969496206205801,
        "distance_wrist_1_joint": 3.659089067979023,
        "distance_wrist_2_joint": 2.151847125168232,
        "distance_wrist_3_joint": 0.5234982970238719,
        "smoothness": 0.20928779912478435,
        "time": 0.093792301,
        "traj_len": 3.7288263726338937,
        "weighted_distance": 4.556542428689218
    },
    "planner": "RRTConnect",
    "start": {
        "state": {
            "elbow_joint": -1.919618573717145,
            "shoulder_lift_joint": -1.2443395971678275,
            "shoulder_pan_joint": 2.6996025300909787,
            "wrist_1_joint": -1.548550951253194,
            "wrist_2_joint": -1.5709469090946802,
            "wrist_3_joint": 0.4420197732051276
        }
    },
    "waypoints": [
        {
            "positions": [
                2.6996025300909787,
                -1.2443395971678275,
                -1.919618573717145,
                -1.548550951253194,
                -1.5709469090946802,
                0.4420197732051276
            ]
        },
        {
            "positions": [
                2.5091906263871304,
                -1.1980636712791561,
                -1.9112542085291941,
                -1.5622038000866372,
                -1.622393704159986,
                0.4082319631482794
            ]
        },
        {
            "positions": [
                2.3187787226832826,
                -1.1517877453904848,
                -1.9028898433412436,
                -1.5758566489200805,
                -1.6738404992252918,
                0.37444415309143125
            ]
        },
        {
            "positions": [
                2.1283668189794342,
                -1.1055118195018134,
                -1.8945254781532928,
                -1.5895094977535236,
                -1.7252872942905977,
                0.34065634303458303
            ]
        },
        {
            "positions": [
                1.937954915275586,
                -1.059235893613142,
                -1.8861611129653422,
                -1.6031623465869669,
                -1.7767340893559034,
                0.30686853297773486
            ]
        },
        {
            "positions": [
                1.7475430115717379,
                -1.0129599677244707,
                -1.8777967477773914,
                -1.61681519542041,
                -1.8281808844212093,
                0.2730807229208867
            ]
        },
        {
            "positions": [
                1.5571311078678898,
                -0.9666840418357994,
                -1.8694323825894408,
                -1.6304680442538533,
                -1.879627679486515,
                0.23929291286403853
            ]
        },
        {
            "positions": [
                1.3667192041640415,
                -0.920408115947128,
                -1.86106801740149,
                -1.6441208930872964,
                -1.931074474551821,
                0.20550510280719034
            ]
        },
        {
            "positions": [
                1.2909517939039672,
                -0.9071236697250025,
                -1.735221360665668,
                -1.5318237496557596,
                -1.8829748869344054,
                0.1925517837144342
            ]
        },
        {
            "positions": [
                1.2151843836438927,
                -0.8938392235028768,
                -1.6093747039298456,
                -1.4195266062242229,
                -1.8348752993169901,
                0.17959846462167808
            ]
        },
        {
            "positions": [
                1.1394169733838182,
                -0.8805547772807513,
                -1.4835280471940235,
                -1.3072294627926861,
                -1.7867757116995746,
                0.16664514552892196
            ]
        },
        {
            "positions": [
                1.063649563123744,
                -0.8672703310586257,
                -1.3576813904582012,
                -1.1949323193611494,
                -1.7386761240821593,
                0.15369182643616583
            ]
        },
        {
            "positions": [
                0.9878821528636695,
                -0.8539858848365001,
                -1.2318347337223794,
                -1.0826351759296124,
                -1.6905765364647438,
                0.1407385073434097
            ]
        },
        {
            "positions": [
                0.9121147426035952,
                -0.8407014386143745,
                -1.105988076986557,
                -0.9703380324980758,
                -1.6424769488473285,
                0.12778518825065355
            ]
        },
        {
            "positions": [
                0.8363473323435208,
                -0.827416992392249,
                -0.9801414202507349,
                -0.8580408890665391,
                -1.594377361229913,
                0.11483186915789743
            ]
        },
        {
            "positions": [
                0.7605799220834464,
                -0.8141325461701233,
                -0.8542947635149127,
                -0.7457437456350023,
                -1.5462777736124975,
                0.10187855006514131
            ]
        },
        {
            "positions": [
                0.684812511823372,
                -0.8008480999479978,
                -0.7284481067790907,
                -0.6334466022034655,
                -1.4981781859950822,
                0.08892523097238518
            ]
        },
        {
            "positions": [
                0.6090451015632976,
                -0.7875636537258721,
                -0.6026014500432686,
                -0.5211494587719288,
                -1.4500785983776667,
                0.07597191187962904
            ]
        },
        {
            "positions": [
                0.5332776913032231,
                -0.7742792075037466,
                -0.4767547933074463,
                -0.408852315340392,
                -1.4019790107602512,
                0.06301859278687291
            ]
        },
        {
            "positions": [
                0.45751028104314884,
                -0.760994761281621,
                -0.35090813657162423,
                -0.2965551719088553,
                -1.353879423142836,
                0.050065273694116785
            ]
        },
        {
            "positions": [
                0.38174287078307434,
                -0.7477103150594954,
                -0.22506147983580194,
                -0.18425802847731831,
                -1.3057798355254207,
                0.03711195460136063
            ]
        },
        {
            "positions": [
                0.30597546052300006,
                -0.7344258688373698,
                -0.09921482309997987,
                -0.0719608850457818,
                -1.2576802479080051,
                0.02415863550860453
            ]
        },
        {
            "positions": [
                0.23020805026292557,
                -0.7211414226152442,
                0.026631833635842428,
                0.040336258385755164,
                -1.2095806602905896,
                0.011205316415848376
            ]
        },
        {
            "positions": [
                0.1544406400028513,
                -0.7078569763931186,
                0.1524784903716645,
                0.15263340181729168,
                -1.1614810726731744,
                -0.0017480026769077228
            ]
        },
        {
            "positions": [
                0.0786732297427768,
                -0.6945725301709931,
                0.2783251471074868,
                0.26493054524882864,
                -1.1133814850557588,
                -0.014701321769663878
            ]
        },
        {
            "positions": [
                0.0029058194827025208,
                -0.6812880839488675,
                0.40417180384330864,
                0.3772276886803654,
                -1.0652818974383436,
                -0.027654640862419977
            ]
        },
        {
            "positions": [
                -0.07286159077737187,
                -0.6680036377267419,
                0.5300184605791307,
                0.48952483211190206,
                -1.017182309820928,
                -0.04060795995517613
            ]
        },
        {
            "positions": [
                -0.057315787896373864,
                -0.6777741345124267,
                0.6724681443798852,
                0.6281777977788772,
                -0.9328737524798647,
                -0.03727546187377633
            ]
        },
        {
            "positions": [
                -0.04176998501537586,
                -0.6875446312981115,
                0.8149178281806397,
                0.7668307634458522,
                -0.8485651951388014,
                -0.03394296379237653
            ]
        },
        {
            "positions": [
                -0.026224182134377855,
                -0.6973151280837964,
                0.9573675119813942,
                0.9054837291128273,
                -0.764256637797738,
                -0.03061046571097674
            ]
        },
        {
            "positions": [
                -0.010678379253379854,
                -0.7070856248694812,
                1.0998171957821488,
                1.0441366947798025,
                -0.6799480804566747,
                -0.02727796762957694
            ]
        },
        {
            "positions": [
                0.0048674236276181615,
                -0.716856121655166,
                1.2422668795829033,
                1.1827896604467776,
                -0.5956395231156113,
                -0.02394546954817714
            ]
        },
        {
            "positions": [
                0.020413226508616156,
                -0.7266266184408509,
                1.3847165633836578,
                1.3214426261137526,
                -0.511330965774548,
                -0.020612971466777343
            ]
        },
        {
            "positions": [
                0.035959029389614164,
                -0.7363971152265357,
                1.5271662471844123,
                1.4600955917807277,
                -0.4270224084334845,
                -0.017280473385377543
            ]
        },
        {
            "positions": [
                0.05150483227061216,
                -0.7461676120122205,
                1.6696159309851668,
                1.598748557447703,
                -0.34271385109242114,
                -0.013947975303977747
            ]
        },
        {
            "positions": [
                0.06705063515161017,
                -0.7559381087979054,
                1.8120656147859213,
                1.737401523114678,
                -0.2584052937513578,
                -0.010615477222577949
            ]
        },
        {
            "positions": [
                0.09561056485584488,
                -0.7667545232783504,
                1.9033796012343775,
                1.8283998780861506,
                -0.19888010429604397,
                -0.005176436657092875
            ]
        },
        {
            "positions": [
                0.12417049456007957,
                -0.7775709377587953,
                1.9946935876828336,
                1.919398233057623,
                -0.13935491484073015,
                0.0002626039083921984
            ]
        }
    ]
}{
    "goal": {
        "global_pose": {
            "orientation": {
                "w": 0.7047431468963623,
                "x": -0.7094548344612122,
                "y": 0.0024358443915843964,
                "z": -0.0022348060738295317
            },
            "position": {
                "x": 0.6094750761985779,
                "y": 0.3671506643295288,
                "z": 0.19426114857196808
            }
        },
        "name": "move_to_magneteinheit_A"
    },
    "id": "RRTConnect_move_to_magneteinheit_A_114",
    "joint_names": [
        "shoulder_pan_joint",
        "shoulder_lift_joint",
        "elbow_joint",
        "wrist_1_joint",
        "wrist_2_joint",
        "wrist_3_joint"
    ],
    "metrics": {
        "cart_traj_len": 1.250096771584057,
        "distance_elbow_joint": 0.08725214197911613,
        "distance_shoulder_lift_joint": 1.1132618344399212,
        "distance_shoulder_pan_joint": 1.2404400326408336,
        "distance_wrist_1_joint": 3.568450189108134,
        "distance_wrist_2_joint": 1.6923100525118588,
        "distance_wrist_3_joint": 1.1759037504176741,
        "smoothness": 1.4802973778883236e-16,
        "time": 0.088516679,
        "traj_len": 2.979533185097548,
        "weighted_distance": 4.060810971167321
    },
    "planner": "RRTConnect",
    "start": {
        "state": {
            "elbow_joint": 1.919643534880228,
            "shoulder_lift_joint": -1.8972525353963687,
            "shoulder_pan_joint": -1.1188672234189438,
            "wrist_1_joint": -1.5931878212786155,
            "wrist_2_joint": 1.5706036197970081,
            "wrist_3_joint": 1.118896926603594
        }
    },
    "waypoints": [
        {
            "positions": [
                -1.1188672234189438,
                -1.8972525353963687,
                1.919643534880228,
                -1.5931878212786155,
                1.5706036197970081,
                1.118896926603594
            ]
        },
        {
            "positions": [
                -1.0649350480867337,
                -1.848849846942459,
                1.9234371062706244,
                -1.4380378130565228,
                1.49702492186171,
                1.0677706765854342
            ]
        },
        {
            "positions": [
                -1.0110028727545235,
                -1.8004471584885495,
                1.9272306776610209,
                -1.2828878048344299,
                1.4234462239264116,
                1.0166444265672745
            ]
        },
        {
            "positions": [
                -0.9570706974223133,
                -1.7520444700346398,
                1.9310242490514171,
                -1.1277377966123372,
                1.3498675259911135,
                0.9655181765491148
            ]
        },
        {
            "positions": [
                -0.9031385220901033,
                -1.7036417815807303,
                1.9348178204418136,
                -0.9725877883902444,
                1.2762888280558153,
                0.914391926530955
            ]
        },
        {
            "positions": [
                -0.8492063467578931,
                -1.6552390931268206,
                1.9386113918322099,
                -0.8174377801681516,
                1.2027101301205172,
                0.8632656765127953
            ]
        },
        {
            "positions": [
                -0.7952741714256829,
                -1.6068364046729111,
                1.9424049632226061,
                -0.6622877719460588,
                1.1291314321852188,
                0.8121394264946356
            ]
        },
        {
            "positions": [
                -0.7413419960934727,
                -1.5584337162190014,
                1.9461985346130026,
                -0.507137763723966,
                1.0555527342499205,
                0.7610131764764757
            ]
        },
        {
            "positions": [
                -0.6874098207612627,
                -1.5100310277650917,
                1.949992106003399,
                -0.35198775550187333,
                0.9819740363146224,
                0.7098869264583161
            ]
        },
        {
            "positions": [
                -0.6334776454290525,
                -1.4616283393111822,
                1.9537856773937954,
                -0.19683774727978043,
                0.9083953383793242,
                0.6587606764401562
            ]
        },
        {
            "positions": [
                -0.5795454700968423,
                -1.4132256508572727,
                1.9575792487841917,
                -0.041687739057687745,
                0.834816640444026,
                0.6076344264219965
            ]
        },
        {
            "positions": [
                -0.5256132947646321,
                -1.364822962403363,
                1.961372820174588,
                0.11346226916440516,
                0.7612379425087278,
                0.5565081764038368
            ]
        },
        {
            "positions": [
                -0.47168111943242197,
                -1.3164202739494533,
                1.9651663915649844,
                0.26861227738649784,
                0.6876592445734296,
                0.505381926385677
            ]
        },
        {
            "positions": [
                -0.4177489441002119,
                -1.2680175854955438,
                1.9689599629553807,
                0.4237622856085903,
                0.6140805466381315,
                0.4542556763675173
            ]
        },
        {
            "positions": [
                -0.3638167687680016,
                -1.219614897041634,
                1.972753534345777,
                0.5789122938306834,
                0.540501848702833,
                0.40312942634935744
            ]
        },
        {
            "positions": [
                -0.30988459343579156,
                -1.1712122085877246,
                1.9765471057361734,
                0.7340623020527761,
                0.4669231507675349,
                0.3520031763311978
            ]
        },
        {
            "positions": [
                -0.2559524181035814,
                -1.1228095201338149,
                1.9803406771265697,
                0.8892123102748688,
                0.39334445283223674,
                0.3008769263130381
            ]
        },
        {
            "positions": [
                -0.2020202427713712,
                -1.0744068316799051,
                1.9841342485169662,
                1.0443623184969615,
                0.3197657548969386,
                0.24975067629487835
            ]
        },
        {
            "positions": [
                -0.14808806743916103,
                -1.0260041432259954,
                1.9879278199073624,
                1.1995123267190546,
                0.24618705696164023,
                0.1986244262767185
            ]
        },
        {
            "positions": [
                -0.09415589210695097,
                -0.9776014547720859,
                1.9917213912977587,
                1.3546623349411473,
                0.17260835902634208,
                0.14749817625855877
            ]
        },
        {
            "positions": [
                -0.04022371677474079,
                -0.9291987663181764,
                1.9955149626881552,
                1.50981234316324,
                0.09902966109104394,
                0.09637192624039903
            ]
        },
        {
            "positions": [
                0.013708458557469383,
                -0.8807960778642667,
                1.9993085340785515,
                1.6649623513853327,
                0.025450963155745798,
                0.045245676222239295
            ]
        },
        {
            "positions": [
                0.06764063388967956,
                -0.832393389410357,
                2.003102105468948,
                1.8201123596074258,
                -0.04812773477955257,
                -0.005880573795920441
            ]
        },
        {
            "positions": [
                0.12157280922188964,
                -0.7839907009564475,
                2.0068956768593442,
                1.9752623678295185,
                -0.12170643271485074,
                -0.057006823814080204
            ]
        }
    ]
}