{
    "goal": {
        "global_pose": {
            "orientation": {
                "w": 0.5084816217422485,
                "x": -0.49083608388900757,
                "y": 0.5182115435600281,
                "z": -0.4816462993621826
            },
            "position": {
                "x": 0.5540239810943604,
                "y": 0.030875300988554955,
                "z": 0.16403168439865112
            }
        },
        "name": "move_to_storage_A"
    },
    "id": "RRTConnect_move_to_storage_A_51",
    "joint_names": [
        "shoulder_pan_joint",
        "shoulder_lift_joint",
        "elbow_joint",
        "wrist_1_joint",
        "wrist_2_joint",
        "wrist_3_joint"
    ],
    "metrics": {
        "cart_traj_len": 0.3531231008944004,
        "distance_elbow_joint": 0.45250717677163843,
        "distance_shoulder_lift_joint": 0.23342215381336273,
        "distance_shoulder_pan_joint": 0.4620356657705317,
        "distance_wrist_1_joint": 0.25287430147901013,
        "distance_wrist_2_joint": 1.0976934283634479,
        "distance_wrist_3_joint": 0.10487610793462698,
        "smoothness": 2.2204460668324854e-16,
        "time": 0.063465711,
        "traj_len": 1.613508238012009,
        "weighted_distance": 2.0405216930589907
    },
    "planner": "RRTConnect",
    "start": {
        "state": {
            "elbow_joint": 1.9715477243005601,
            "shoulder_lift_joint": -1.1394853015351272,
            "shoulder_pan_joint": 0.12281154014795169,
            "wrist_1_joint": -0.7804696478968182,
            "wrist_2_joint": 0.12958648046900423,
            "wrist_3_joint": -3.192491284697111
        }
    },
    "waypoints": [
        {
            "positions": [
                0.12281154014795169,
                -1.1394853015351272,
                1.9715477243005601,
                -0.7804696478968182,
                0.12958648046900423,
                -3.192491284697111
            ]
        },
        {
            "positions": [
                0.05680644503787574,
                -1.1728313235084646,
                2.0361916066965087,
                -0.8165945481081053,
                0.28639982737806824,
                -3.1775089835635932
            ]
        },
        {
            "positions": [
                -0.009198650072200207,
                -1.2061773454818023,
                2.1008354890924568,
                -0.8527194483193925,
                0.4432131742871322,
                -3.162526682430075
            ]
        },
        {
            "positions": [
                -0.07520374518227617,
                -1.2395233674551398,
                2.1654793714884053,
                -0.8888443485306796,
                0.6000265211961961,
                -3.147544381296557
            ]
        },
        {
            "positions": [
                -0.1412088402923521,
                -1.2728693894284773,
                2.2301232538843534,
                -0.9249692487419668,
                0.7568398681052602,
                -3.1325620801630385
            ]
        },
        {
            "positions": [
                -0.20721393540242805,
                -1.3062154114018147,
                2.294767136280302,
                -0.961094148953254,
                0.9136532150143242,
                -3.1175797790295205
            ]
        },
        {
            "positions": [
                -0.273219030512504,
                -1.3395614333751524,
                2.35941101867625,
                -0.9972190491645412,
                1.070466561923388,
                -3.102597477896002
            ]
        },
        {
            "positions": [
                -0.33922412562258,
                -1.37290745534849,
                2.4240549010721986,
                -1.0333439493758283,
                1.2272799088324522,
                -3.087615176762484
            ]
        }
    ]
}