{
    "goal": {
        "global_pose": {
            "orientation": {
                "w": 0.5084816217422485,
                "x": -0.49083608388900757,
                "y": 0.5182115435600281,
                "z": -0.4816462993621826
            },
            "position": {
                "x": 0.5540239810943604,
                "y": 0.030875300988554955,
                "z": 0.16403168439865112
            }
        },
        "name": "move_to_storage_A"
    },
    "id": "RRTConnect_move_to_storage_A_67",
    "joint_names": [
        "shoulder_pan_joint",
        "shoulder_lift_joint",
        "elbow_joint",
        "wrist_1_joint",
        "wrist_2_joint",
        "wrist_3_joint"
    ],
    "metrics": {
        "cart_traj_len": 0.3528093221667984,
        "distance_elbow_joint": 0.45201473426126526,
        "distance_shoulder_lift_joint": 0.23307022293086432,
        "distance_shoulder_pan_joint": 0.46258909361200257,
        "distance_wrist_1_joint": 0.2557513231332863,
        "distance_wrist_2_joint": 1.0922631866953245,
        "distance_wrist_3_joint": 0.09878864801186316,
        "smoothness": 6.661338165333112e-16,
        "time": 0.04795121,
        "traj_len": 1.610738094366867,
        "weighted_distance": 2.034715954254289
    },
    "planner": "RRTConnect",
    "start": {
        "state": {
            "elbow_joint": 1.9715477243005601,
            "shoulder_lift_joint": -1.1394853015351272,
            "shoulder_pan_joint": 0.12281154014795169,
            "wrist_1_joint": -0.7804696478968182,
            "wrist_2_joint": 0.12958648046900423,
            "wrist_3_joint": -3.192491284697111
        }
    },
    "waypoints": [
        {
            "positions": [
                0.12281154014795169,
                -1.1394853015351272,
                1.9715477243005601,
                -0.7804696478968182,
                0.12958648046900423,
                -3.192491284697111
            ]
        },
        {
            "positions": [
                0.056727383917665616,
                -1.1727810476681078,
                2.0361212577664554,
                -0.8170055512015734,
                0.28562407856833627,
                -3.1783786206954163
            ]
        },
        {
            "positions": [
                -0.009356772312620457,
                -1.2060767938010883,
                2.10069479123235,
                -0.8535414545063286,
                0.44166167666766837,
                -3.164265956693722
            ]
        },
        {
            "positions": [
                -0.07544092854290653,
                -1.239372539934069,
                2.1652683246982454,
                -0.8900773578110837,
                0.5976992747670005,
                -3.150153292692027
            ]
        },
        {
            "positions": [
                -0.1415250847731926,
                -1.2726682860670495,
                2.22984185816414,
                -0.9266132611158389,
                0.7537368728663325,
                -3.136040628690332
            ]
        },
        {
            "positions": [
                -0.20760924100347872,
                -1.3059640322000303,
                2.2944153916300354,
                -0.9631491644205941,
                0.9097744709656647,
                -3.1219279646886373
            ]
        },
        {
            "positions": [
                -0.27369339723376473,
                -1.339259778333011,
                2.35898892509593,
                -0.9996850677253493,
                1.0658120690649966,
                -3.107815300686943
            ]
        },
        {
            "positions": [
                -0.33977755346405086,
                -1.3725555244659915,
                2.4235624585618254,
                -1.0362209710301045,
                1.2218496671643286,
                -3.093702636685248
            ]
        }
    ]
}