{
    "goal": {
        "global_pose": {
            "orientation": {
                "w": 0.5084816217422485,
                "x": -0.49083608388900757,
                "y": 0.5182115435600281,
                "z": -0.4816462993621826
            },
            "position": {
                "x": 0.5540239810943604,
                "y": 0.030875300988554955,
                "z": 0.16403168439865112
            }
        },
        "name": "move_to_storage_A"
    },
    "id": "RRTConnect_move_to_storage_A_114",
    "joint_names": [
        "shoulder_pan_joint",
        "shoulder_lift_joint",
        "elbow_joint",
        "wrist_1_joint",
        "wrist_2_joint",
        "wrist_3_joint"
    ],
    "metrics": {
        "cart_traj_len": 0.3537156721723598,
        "distance_elbow_joint": 0.45143008282720265,
        "distance_shoulder_lift_joint": 0.23442433808273666,
        "distance_shoulder_pan_joint": 0.4642787272852621,
        "distance_wrist_1_joint": 0.2513743186696865,
        "distance_wrist_2_joint": 1.0923787056595584,
        "distance_wrist_3_joint": 0.10065694142925796,
        "smoothness": 2.2204460668324854e-16,
        "time": 0.055503208,
        "traj_len": 1.6107585523453551,
        "weighted_distance": 2.0346031606044126
    },
    "planner": "RRTConnect",
    "start": {
        "state": {
            "elbow_joint": 1.9715477243005601,
            "shoulder_lift_joint": -1.1394853015351272,
            "shoulder_pan_joint": 0.12281154014795169,
            "wrist_1_joint": -0.7804696478968182,
            "wrist_2_joint": 0.12958648046900423,
            "wrist_3_joint": -3.192491284697111
        }
    },
    "waypoints": [
        {
            "positions": [
                0.12281154014795169,
                -1.1394853015351272,
                1.9715477243005601,
                -0.7804696478968182,
                0.12958648046900423,
                -3.192491284697111
            ]
        },
        {
            "positions": [
                0.05648600767862853,
                -1.1729744926898038,
                2.0360377361330175,
                -0.8163802648496306,
                0.2856405812775126,
                -3.178111721635789
            ]
        },
        {
            "positions": [
                -0.009839524790694623,
                -1.2064636838444804,
                2.1005277479654754,
                -0.8522908818024428,
                0.4416946820860209,
                -3.163732158574466
            ]
        },
        {
            "positions": [
                -0.07616505726001778,
                -1.239952874999157,
                2.1650177597979328,
                -0.8882014987552552,
                0.5977487828945293,
                -3.1493525955131436
            ]
        },
        {
            "positions": [
                -0.14249058972934092,
                -1.2734420661538337,
                2.22950777163039,
                -0.9241121157080676,
                0.7538028837030376,
                -3.134973032451821
            ]
        },
        {
            "positions": [
                -0.20881612219866408,
                -1.3069312573085106,
                2.2939977834628476,
                -0.9600227326608799,
                0.909856984511546,
                -3.1205934693904984
            ]
        },
        {
            "positions": [
                -0.27514165466798723,
                -1.3404204484631872,
                2.3584877952953054,
                -0.9959333496136923,
                1.0659110853200544,
                -3.1062139063291756
            ]
        },
        {
            "positions": [
                -0.3414671871373104,
                -1.3739096396178638,
                2.422977807127763,
                -1.0318439665665047,
                1.2219651861285625,
                -3.0918343432678532
            ]
        }
    ]
}