{
    "goal": {
        "global_pose": {
            "orientation": {
                "w": 0.7047431468963623,
                "x": -0.7094548344612122,
                "y": 0.0024358443915843964,
                "z": -0.0022348060738295317
            },
            "position": {
                "x": 0.6094750761985779,
                "y": 0.3671506643295288,
                "z": 0.19426114857196808
            }
        },
        "name": "move_to_magneteinheit_A"
    },
    "id": "RRTConnect_move_to_magneteinheit_A_42",
    "joint_names": [
        "shoulder_pan_joint",
        "shoulder_lift_joint",
        "elbow_joint",
        "wrist_1_joint",
        "wrist_2_joint",
        "wrist_3_joint"
    ],
    "metrics": {
        "cart_traj_len": 3.1549144798018505,
        "distance_elbow_joint": 3.9185694728609413,
        "distance_shoulder_lift_joint": 0.5753888819546105,
        "distance_shoulder_pan_joint": 3.032791011857239,
        "distance_wrist_1_joint": 3.498839941049876,
        "distance_wrist_2_joint": 1.590469786111505,
        "distance_wrist_3_joint": 0.6699648133300483,
        "smoothness": 0.14073032049946338,
        "time": 0.10797791600000001,
        "traj_len": 3.6449998500911107,
        "weighted_distance": 4.4401873002144505
    },
    "planner": "RRTConnect",
    "start": {
        "state": {
            "elbow_joint": -1.919618573717145,
            "shoulder_lift_joint": -1.2443395971678275,
            "shoulder_pan_joint": 2.6996025300909787,
            "wrist_1_joint": -1.548550951253194,
            "wrist_2_joint": -1.5709469090946802,
            "wrist_3_joint": 0.4420197732051276
        }
    },
    "waypoints": [
        {
            "positions": [
                2.6996025300909787,
                -1.2443395971678275,
                -1.919618573717145,
                -1.548550951253194,
                -1.5709469090946802,
                0.4420197732051276
            ]
        },
        {
            "positions": [
                2.5957300052938166,
                -1.246402865539249,
                -1.798193901132756,
                -1.4633660204859114,
                -1.5147125317650119,
                0.4207857470878163
            ]
        },
        {
            "positions": [
                2.4918574804966545,
                -1.2484661339106704,
                -1.676769228548367,
                -1.3781810897186286,
                -1.4584781544353436,
                0.39955172097050506
            ]
        },
        {
            "positions": [
                2.387984955699492,
                -1.2505294022820919,
                -1.555344555963978,
                -1.292996158951346,
                -1.4022437771056753,
                0.3783176948531938
            ]
        },
        {
            "positions": [
                2.2841124309023297,
                -1.2525926706535133,
                -1.433919883379589,
                -1.207811228184063,
                -1.346009399776007,
                0.3570836687358825
            ]
        },
        {
            "positions": [
                2.1802399061051676,
                -1.2546559390249348,
                -1.3124952107952002,
                -1.1226262974167802,
                -1.2897750224463387,
                0.33584964261857125
            ]
        },
        {
            "positions": [
                2.076367381308005,
                -1.2567192073963562,
                -1.191070538210811,
                -1.0374413666494975,
                -1.2335406451166704,
                0.31461561650126
            ]
        },
        {
            "positions": [
                1.9724948565108429,
                -1.2587824757677777,
                -1.069645865626422,
                -0.9522564358822146,
                -1.177306267787002,
                0.29338159038394873
            ]
        },
        {
            "positions": [
                1.8686223317136808,
                -1.2608457441391991,
                -0.9482211930420332,
                -0.8670715051149319,
                -1.1210718904573338,
                0.27214756426663744
            ]
        },
        {
            "positions": [
                1.7647498069165186,
                -1.2629090125106206,
                -0.8267965204576442,
                -0.7818865743476491,
                -1.0648375131276655,
                0.25091353814932615
            ]
        },
        {
            "positions": [
                1.6608772821193563,
                -1.264972280882042,
                -0.7053718478732554,
                -0.6967016435803663,
                -1.0086031357979972,
                0.22967951203201492
            ]
        },
        {
            "positions": [
                1.5570047573221941,
                -1.2670355492534635,
                -0.5839471752888663,
                -0.6115167128130836,
                -0.9523687584683289,
                0.20844548591470366
            ]
        },
        {
            "positions": [
                1.4531322325250318,
                -1.269098817624885,
                -0.46252250270447726,
                -0.5263317820458009,
                -0.8961343811386606,
                0.1872114597973924
            ]
        },
        {
            "positions": [
                1.3492597077278696,
                -1.2711620859963064,
                -0.34109783012008843,
                -0.44114685127851794,
                -0.8399000038089923,
                0.1659774336800811
            ]
        },
        {
            "positions": [
                1.2453871829307073,
                -1.2732253543677277,
                -0.21967315753569938,
                -0.3559619205112352,
                -0.783665626479324,
                0.14474340756276982
            ]
        },
        {
            "positions": [
                1.141514658133545,
                -1.2752886227391491,
                -0.09824848495131033,
                -0.27077698974395226,
                -0.7274312491496557,
                0.12350938144545853
            ]
        },
        {
            "positions": [
                1.0376421333363828,
                -1.2773518911105706,
                0.023176187633078493,
                -0.18559205897666975,
                -0.6711968718199874,
                0.1022753553281473
            ]
        },
        {
            "positions": [
                0.9337696085392204,
                -1.279415159481992,
                0.14460086021746776,
                -0.1004071282093868,
                -0.6149624944903191,
                0.08104132921083601
            ]
        },
        {
            "positions": [
                0.8298970837420583,
                -1.2814784278534135,
                0.2660255328018566,
                -0.015222197442104068,
                -0.5587281171606509,
                0.05980730309352478
            ]
        },
        {
            "positions": [
                0.7260245589448959,
                -1.283541696224835,
                0.3874502053862454,
                0.06996273332517866,
                -0.5024937398309826,
                0.03857327697621349
            ]
        },
        {
            "positions": [
                0.6221520341477338,
                -1.2856049645962564,
                0.5088748779706342,
                0.1551476640924614,
                -0.44625936250131426,
                0.017339250858902255
            ]
        },
        {
            "positions": [
                0.5182795093505712,
                -1.2876682329676779,
                0.6302995505550235,
                0.24033259485974434,
                -0.39002498517164597,
                -0.0038947752584090334
            ]
        },
        {
            "positions": [
                0.4144069845534095,
                -1.2897315013390993,
                0.7517242231394123,
                0.32551752562702685,
                -0.33379060784197767,
                -0.025128801375720267
            ]
        },
        {
            "positions": [
                0.31053445975624694,
                -1.2917947697105208,
                0.8731488957238016,
                0.4107024563943098,
                -0.2775562305123094,
                -0.04636282749303161
            ]
        },
        {
            "positions": [
                0.2066619349590848,
                -1.2938580380819422,
                0.9945735683081904,
                0.4958873871615923,
                -0.22132185318264108,
                -0.06759685361034279
            ]
        },
        {
            "positions": [
                0.10278941016192222,
                -1.2959213064533637,
                1.1159982408925793,
                0.5810723179288755,
                -0.1650874758529728,
                -0.08883087972765408
            ]
        },
        {
            "positions": [
                -0.0010831146352394683,
                -1.2979845748247851,
                1.237422913476968,
                0.6662572486961582,
                -0.10885309852330449,
                -0.11006490584496537
            ]
        },
        {
            "positions": [
                -0.10495563943240195,
                -1.3000478431962066,
                1.3588475860613574,
                0.7514421794634409,
                -0.052618721193636094,
                -0.1312989319622767
            ]
        },
        {
            "positions": [
                -0.07235094767042236,
                -1.225807752349602,
                1.450290916501706,
                0.9227060095110468,
                -0.06292466379513059,
                -0.117492345081899
            ]
        },
        {
            "positions": [
                -0.039746255908442746,
                -1.1515676615029977,
                1.5417342469420543,
                1.0939698395586526,
                -0.0732306063966251,
                -0.10368575820152129
            ]
        },
        {
            "positions": [
                -0.00714156414646315,
                -1.0773275706563932,
                1.6331775773824029,
                1.2652336696062583,
                -0.0835365489981196,
                -0.08987917132114356
            ]
        },
        {
            "positions": [
                0.02546312761551646,
                -1.0030874798097886,
                1.7246209078227512,
                1.4364974996538642,
                -0.09384249159961411,
                -0.07607258444076587
            ]
        },
        {
            "positions": [
                0.05806781937749607,
                -0.9288473889631842,
                1.8160642382630998,
                1.60776132970147,
                -0.10414843420110861,
                -0.06226599756038814
            ]
        },
        {
            "positions": [
                0.09067251113947565,
                -0.8546072981165798,
                1.9075075687034482,
                1.7790251597490756,
                -0.11445437680260312,
                -0.04845941068001043
            ]
        },
        {
            "positions": [
                0.12327720290145527,
                -0.7803672072699752,
                1.9989508991437968,
                1.9502889897966815,
                -0.12476031940409764,
                -0.03465282379963273
            ]
        }
    ]
}{
    "goal": {
        "global_pose": {
            "orientation": {
                "w": 0.7047431468963623,
                "x": -0.7094548344612122,
                "y": 0.0024358443915843964,
                "z": -0.0022348060738295317
            },
            "position": {
                "x": 0.6094750761985779,
                "y": 0.3671506643295288,
                "z": 0.19426114857196808
            }
        },
        "name": "move_to_magneteinheit_A"
    },
    "id": "RRTConnect_move_to_magneteinheit_A_42",
    "joint_names": [
        "shoulder_pan_joint",
        "shoulder_lift_joint",
        "elbow_joint",
        "wrist_1_joint",
        "wrist_2_joint",
        "wrist_3_joint"
    ],
    "metrics": {
        "cart_traj_len": 1.812645132760451,
        "distance_elbow_joint": 1.8197757777436991,
        "distance_shoulder_lift_joint": 0.7548517997158706,
        "distance_shoulder_pan_joint": 1.2408101531665703,
        "distance_wrist_1_joint": 0.7982741180025222,
        "distance_wrist_2_joint": 1.4350771421325614,
        "distance_wrist_3_joint": 4.296496541679801,
        "smoothness": 0.14902445934922467,
        "time": 0.098576681,
        "traj_len": 3.2164087943607265,
        "weighted_distance": 4.601263943302504
    },
    "planner": "RRTConnect",
    "start": {
        "state": {
            "elbow_joint": 1.919643534880228,
            "shoulder_lift_joint": -1.8972525353963687,
            "shoulder_pan_joint": -1.1188672234189438,
            "wrist_1_joint": -1.5931878212786155,
            "wrist_2_joint": 1.5706036197970081,
            "wrist_3_joint": 1.118896926603594
        }
    },
    "waypoints": [
        {
            "positions": [
                -1.1188672234189438,
                -1.8972525353963687,
                1.919643534880228,
                -1.5931878212786155,
                1.5706036197970081,
                1.118896926603594
            ]
        },
        {
            "positions": [
                -1.0564370742017328,
                -1.878660137436828,
                1.8706728986911596,
                -1.5488675271824108,
                1.523881876198864,
                0.959050065719905
            ]
        },
        {
            "positions": [
                -0.9940069249845218,
                -1.860067739477287,
                1.8217022625020913,
                -1.5045472330862064,
                1.47716013260072,
                0.799203204836216
            ]
        },
        {
            "positions": [
                -0.9315767757673109,
                -1.8414753415177463,
                1.7727316263130228,
                -1.4602269389900018,
                1.4304383890025758,
                0.6393563439525269
            ]
        },
        {
            "positions": [
                -0.8691466265500999,
                -1.8228829435582055,
                1.7237609901239543,
                -1.4159066448937974,
                1.3837166454044316,
                0.479509483068838
            ]
        },
        {
            "positions": [
                -0.8067164773328889,
                -1.8042905455986644,
                1.6747903539348858,
                -1.3715863507975927,
                1.3369949018062874,
                0.31966262218514885
            ]
        },
        {
            "positions": [
                -0.744286328115678,
                -1.7856981476391236,
                1.6258197177458176,
                -1.3272660567013883,
                1.2902731582081435,
                0.1598157613014599
            ]
        },
        {
            "positions": [
                -0.681856178898467,
                -1.7671057496795828,
                1.576849081556749,
                -1.2829457626051837,
                1.2435514146099993,
                -3.109958222902165e-05
            ]
        },
        {
            "positions": [
                -0.6194260296812559,
                -1.748513351720042,
                1.5278784453676806,
                -1.2386254685089793,
                1.1968296710118551,
                -0.15987796046591796
            ]
        },
        {
            "positions": [
                -0.5569958804640449,
                -1.7299209537605011,
                1.478907809178612,
                -1.1943051744127746,
                1.150107927413711,
                -0.3197248213496071
            ]
        },
        {
            "positions": [
                -0.4945657312468339,
                -1.7113285558009603,
                1.4299371729895438,
                -1.14998488031657,
                1.103386183815567,
                -0.47957168223329627
            ]
        },
        {
            "positions": [
                -0.4321355820296229,
                -1.6927361578414195,
                1.3809665368004753,
                -1.1056645862203656,
                1.0566644402174228,
                -0.6394185431169852
            ]
        },
        {
            "positions": [
                -0.36970543281241197,
                -1.6741437598818787,
                1.3319959006114068,
                -1.061344292124161,
                1.0099426966192788,
                -0.7992654040006741
            ]
        },
        {
            "positions": [
                -0.30727528359520095,
                -1.6555513619223379,
                1.2830252644223386,
                -1.0170239980279565,
                0.9632209530211345,
                -0.9591122648843633
            ]
        },
        {
            "positions": [
                -0.24484513437798994,
                -1.636958963962797,
                1.23405462823327,
                -0.9727037039317519,
                0.9164992094229905,
                -1.118959125768052
            ]
        },
        {
            "positions": [
                -0.18241498516077892,
                -1.618366566003256,
                1.1850839920442016,
                -0.9283834098355473,
                0.8697774658248463,
                -1.2788059866517412
            ]
        },
        {
            "positions": [
                -0.11998483594356801,
                -1.5997741680437152,
                1.1361133558551333,
                -0.8840631157393429,
                0.8230557222267022,
                -1.4386528475354299
            ]
        },
        {
            "positions": [
                -0.057554686726356996,
                -1.5811817700841744,
                1.0871427196660648,
                -0.8397428216431383,
                0.7763339786285581,
                -1.598499708419119
            ]
        },
        {
            "positions": [
                0.004875462490853953,
                -1.5625893721246336,
                1.0381720834769963,
                -0.7954225275469338,
                0.729612235030414,
                -1.758346569302808
            ]
        },
        {
            "positions": [
                0.01788295885271751,
                -1.515901745853063,
                1.1424281197370483,
                -0.7954790635770271,
                0.6636027064341954,
                -1.916041352166519
            ]
        },
        {
            "positions": [
                0.030890455214581062,
                -1.4692141195814923,
                1.2466841559971003,
                -0.7955355996071205,
                0.5975931778379767,
                -2.07373613503023
            ]
        },
        {
            "positions": [
                0.04389795157644462,
                -1.4225264933099218,
                1.350940192257152,
                -0.795592135637214,
                0.5315836492417582,
                -2.231430917893941
            ]
        },
        {
            "positions": [
                0.05690544793830817,
                -1.3758388670383512,
                1.455196228517204,
                -0.7956486716673074,
                0.46557412064553955,
                -2.389125700757652
            ]
        },
        {
            "positions": [
                0.06991294430017174,
                -1.3291512407667805,
                1.559452264777256,
                -0.7957052076974007,
                0.3995645920493209,
                -2.546820483621363
            ]
        },
        {
            "positions": [
                0.08292044066203529,
                -1.28246361449521,
                1.6637083010373077,
                -0.7957617437274941,
                0.3335550634531023,
                -2.7045152664850733
            ]
        },
        {
            "positions": [
                0.09592793702389885,
                -1.2357759882236394,
                1.76796433729736,
                -0.7958182797575876,
                0.2675455348568837,
                -2.8622100493487848
            ]
        },
        {
            "positions": [
                0.10893543338576239,
                -1.1890883619520687,
                1.8722203735574117,
                -0.7958748157876809,
                0.20153600626066515,
                -3.0199048322124953
            ]
        },
        {
            "positions": [
                0.12194292974762595,
                -1.1424007356804982,
                1.9764764098174636,
                -0.7959313518177743,
                0.13552647766444653,
                -3.1775996150762063
            ]
        }
    ]
}